mmgg0_si2339 quick_test/fbank/raw_fbank_train.3.ark:9376869
mbma1_si2207 quick_test/fbank/raw_fbank_train.2.ark:3831163
fpaz0_si1593 quick_test/fbank/raw_fbank_train.1.ark:10195221
fblv0_si1688 quick_test/fbank/raw_fbank_train.1.ark:954508
msmr0_si775 quick_test/fbank/raw_fbank_train.4.ark:6571980
mbma1_si2214 quick_test/fbank/raw_fbank_train.2.ark:3838877
fsdc0_sx232 quick_test/fbank/raw_fbank_train.1.ark:11474293
mtkp0_si1023 quick_test/fbank/raw_fbank_train.4.ark:8599811
mjlb0_sx176 quick_test/fbank/raw_fbank_train.3.ark:3623368
mkjo0_si2147 quick_test/fbank/raw_fbank_train.3.ark:6478587
mdss0_si2087 quick_test/fbank/raw_fbank_train.2.ark:9005614
fksr0_si1117 quick_test/fbank/raw_fbank_train.1.ark:7017286
mcre0_si1121 quick_test/fbank/raw_fbank_train.2.ark:5512306
mtmt0_sx398 quick_test/fbank/raw_fbank_train.4.ark:9192728
mjma0_sx55 quick_test/fbank/raw_fbank_train.3.ark:3954015
mpsw0_si1697 quick_test/fbank/raw_fbank_train.4.ark:495317
mmws1_si1701 quick_test/fbank/raw_fbank_train.3.ark:10380086
fjrb0_sx222 quick_test/fbank/raw_fbank_train.1.ark:5493002
mtat1_si1627 quick_test/fbank/raw_fbank_train.4.ark:7463730
mtdb0_si771 quick_test/fbank/raw_fbank_train.4.ark:7786958
mtat0_sx210 quick_test/fbank/raw_fbank_train.4.ark:7414844
mmlm0_si1527 quick_test/fbank/raw_fbank_train.3.ark:9629077
fgmb0_sx335 quick_test/fbank/raw_fbank_train.1.ark:4457338
mdlc1_sx175 quick_test/fbank/raw_fbank_train.2.ark:7650210
fksr0_si1747 quick_test/fbank/raw_fbank_train.1.ark:7029200
mjlg1_sx22 quick_test/fbank/raw_fbank_train.3.ark:3736059
mfmc0_si1762 quick_test/fbank/raw_fbank_train.2.ark:10494210
mmar0_sx76 quick_test/fbank/raw_fbank_train.3.ark:8383838
makb0_sx386 quick_test/fbank/raw_fbank_train.2.ark:2799974
msms0_sx443 quick_test/fbank/raw_fbank_train.4.ark:6714657
mjfh0_sx27 quick_test/fbank/raw_fbank_train.3.ark:2937578
mtjg0_si1520 quick_test/fbank/raw_fbank_train.4.ark:8085086
fbch0_sx326 quick_test/fbank/raw_fbank_train.1.ark:800070
mdlc0_si765 quick_test/fbank/raw_fbank_train.2.ark:7540791
mkls1_sx15 quick_test/fbank/raw_fbank_train.3.ark:6897147
fmbg0_si1160 quick_test/fbank/raw_fbank_train.1.ark:8618491
fdaw0_sx326 quick_test/fbank/raw_fbank_train.1.ark:2572723
fsgf0_sx297 quick_test/fbank/raw_fbank_train.1.ark:11683568
fdfb0_sx58 quick_test/fbank/raw_fbank_train.1.ark:2680014
fcjf0_sx127 quick_test/fbank/raw_fbank_train.1.ark:1683070
mtxs0_si2320 quick_test/fbank/raw_fbank_train.4.ark:10115494
msfv0_sx272 quick_test/fbank/raw_fbank_train.4.ark:6277012
fjrp1_si802 quick_test/fbank/raw_fbank_train.1.ark:5584721
fmbg0_si2264 quick_test/fbank/raw_fbank_train.1.ark:8649479
mmws1_sx441 quick_test/fbank/raw_fbank_train.3.ark:10426891
mdcd0_sx245 quick_test/fbank/raw_fbank_train.2.ark:6447581
mrfk0_sx356 quick_test/fbank/raw_fbank_train.4.ark:2107133
fdtd0_si931 quick_test/fbank/raw_fbank_train.1.ark:3261722
mpgr1_si2129 quick_test/fbank/raw_fbank_train.3.ark:11214742
mmar0_sx166 quick_test/fbank/raw_fbank_train.3.ark:8318587
fkdw0_si1891 quick_test/fbank/raw_fbank_train.1.ark:6413569
mfrm0_si1785 quick_test/fbank/raw_fbank_train.2.ark:10610949
fvfb0_sx222 quick_test/fbank/raw_fbank_train.2.ark:1782663
mges0_sx311 quick_test/fbank/raw_fbank_train.3.ark:236510
mrem0_sx151 quick_test/fbank/raw_fbank_train.4.ark:1898736
mcdr0_sx74 quick_test/fbank/raw_fbank_train.2.ark:4902161
mjde0_sx40 quick_test/fbank/raw_fbank_train.3.ark:2347900
mmgc0_si2184 quick_test/fbank/raw_fbank_train.3.ark:9288883
mrhl0_sx435 quick_test/fbank/raw_fbank_train.4.ark:2549184
mjhi0_sx428 quick_test/fbank/raw_fbank_train.3.ark:3146141
mrxb0_si2215 quick_test/fbank/raw_fbank_train.4.ark:5132073
mdwm0_si916 quick_test/fbank/raw_fbank_train.2.ark:9482813
mmdg0_sx160 quick_test/fbank/raw_fbank_train.3.ark:8736047
mvjh0_si1556 quick_test/fbank/raw_fbank_train.4.ark:10205492
fkaa0_si1208 quick_test/fbank/raw_fbank_train.1.ark:6174444
mkaj0_sx424 quick_test/fbank/raw_fbank_train.3.ark:5931403
mgjc0_sx165 quick_test/fbank/raw_fbank_train.3.ark:315070
mrpc1_sx132 quick_test/fbank/raw_fbank_train.4.ark:4223194
fjdm2_sx142 quick_test/fbank/raw_fbank_train.1.ark:4876136
mtwh1_si1512 quick_test/fbank/raw_fbank_train.4.ark:10004481
fmkc0_sx172 quick_test/fbank/raw_fbank_train.1.ark:9174915
mmeb0_si727 quick_test/fbank/raw_fbank_train.3.ark:9192219
fexm0_sx366 quick_test/fbank/raw_fbank_train.1.ark:4146815
msat0_si2156 quick_test/fbank/raw_fbank_train.4.ark:5428189
mrmg0_sx450 quick_test/fbank/raw_fbank_train.4.ark:3861070
mjee0_sx67 quick_test/fbank/raw_fbank_train.3.ark:2868299
fpaz0_si2223 quick_test/fbank/raw_fbank_train.1.ark:10202575
fkdw0_sx307 quick_test/fbank/raw_fbank_train.1.ark:6461021
mdlc1_si2144 quick_test/fbank/raw_fbank_train.2.ark:7643857
fcaj0_si1479 quick_test/fbank/raw_fbank_train.1.ark:1346735
fbmh0_si1136 quick_test/fbank/raw_fbank_train.1.ark:1048380
flac0_sx271 quick_test/fbank/raw_fbank_train.1.ark:7162684
mprd0_si801 quick_test/fbank/raw_fbank_train.4.ark:188756
mlel0_sx76 quick_test/fbank/raw_fbank_train.3.ark:7428092
fcmg0_sx432 quick_test/fbank/raw_fbank_train.1.ark:2079270
fdmy0_sx117 quick_test/fbank/raw_fbank_train.1.ark:3053504
mtkp0_si2283 quick_test/fbank/raw_fbank_train.4.ark:8612005
mdwh0_sx125 quick_test/fbank/raw_fbank_train.2.ark:9392061
fjsp0_si1434 quick_test/fbank/raw_fbank_train.1.ark:5778905
fdmy0_sx207 quick_test/fbank/raw_fbank_train.1.ark:3068337
mhxl0_sx332 quick_test/fbank/raw_fbank_train.3.ark:1532390
mdpk0_sx153 quick_test/fbank/raw_fbank_train.2.ark:8634060
mjrh1_sx154 quick_test/fbank/raw_fbank_train.3.ark:4770031
mjrh1_sx244 quick_test/fbank/raw_fbank_train.3.ark:4782024
mjxa0_si2137 quick_test/fbank/raw_fbank_train.3.ark:5479179
mdtb0_sx321 quick_test/fbank/raw_fbank_train.2.ark:9227229
fmmh0_sx420 quick_test/fbank/raw_fbank_train.1.ark:9408629
mtdb0_sx141 quick_test/fbank/raw_fbank_train.4.ark:7805471
mrab1_si1478 quick_test/fbank/raw_fbank_train.4.ark:664133
fsjw0_sx73 quick_test/fbank/raw_fbank_train.2.ark:242760
mprt0_sx400 quick_test/fbank/raw_fbank_train.4.ark:475729
mkdd0_sx127 quick_test/fbank/raw_fbank_train.3.ark:6207859
mwre0_si1687 quick_test/fbank/raw_fbank_train.4.ark:11172100
marc0_sx378 quick_test/fbank/raw_fbank_train.2.ark:3061329
fleh0_sx61 quick_test/fbank/raw_fbank_train.1.ark:7408233
mmaa0_sx395 quick_test/fbank/raw_fbank_train.3.ark:7958737
mmlm0_sx357 quick_test/fbank/raw_fbank_train.3.ark:9681723
fsjs0_sx181 quick_test/fbank/raw_fbank_train.2.ark:82924
mgar0_sx132 quick_test/fbank/raw_fbank_train.3.ark:34474
mjpm0_sx288 quick_test/fbank/raw_fbank_train.3.ark:4307083
fsmm0_si684 quick_test/fbank/raw_fbank_train.2.ark:766867
mmbs0_si1151 quick_test/fbank/raw_fbank_train.3.ark:8398512
msmr0_sx145 quick_test/fbank/raw_fbank_train.4.ark:6582493
flkm0_si686 quick_test/fbank/raw_fbank_train.1.ark:7967940
fpls0_sx150 quick_test/fbank/raw_fbank_train.1.ark:10435411
mkdd0_si1567 quick_test/fbank/raw_fbank_train.3.ark:6155839
fcag0_si2133 quick_test/fbank/raw_fbank_train.1.ark:1272777
fmju0_si759 quick_test/fbank/raw_fbank_train.1.ark:9063296
mmcc0_sx168 quick_test/fbank/raw_fbank_train.3.ark:8550157
mjae0_sx84 quick_test/fbank/raw_fbank_train.3.ark:1851648
mjxa0_si1507 quick_test/fbank/raw_fbank_train.3.ark:5463105
fhxs0_sx445 quick_test/fbank/raw_fbank_train.1.ark:4818089
fhxs0_sx85 quick_test/fbank/raw_fbank_train.1.ark:4827481
msfh0_sx46 quick_test/fbank/raw_fbank_train.4.ark:6209605
mrab0_si594 quick_test/fbank/raw_fbank_train.4.ark:592295
mpsw0_sx77 quick_test/fbank/raw_fbank_train.4.ark:554594
mbom0_si1014 quick_test/fbank/raw_fbank_train.2.ark:4027053
fdfb0_sx238 quick_test/fbank/raw_fbank_train.1.ark:2648116
mtwh1_sx162 quick_test/fbank/raw_fbank_train.4.ark:10035181
fcaj0_si849 quick_test/fbank/raw_fbank_train.1.ark:1359962
fcmg0_sx342 quick_test/fbank/raw_fbank_train.1.ark:2066397
mdwd0_si557 quick_test/fbank/raw_fbank_train.2.ark:9283963
fjlg0_sx359 quick_test/fbank/raw_fbank_train.1.ark:5310185
fspm0_si611 quick_test/fbank/raw_fbank_train.2.ark:982877
msmr0_sx325 quick_test/fbank/raw_fbank_train.4.ark:6606479
mgjc0_si1335 quick_test/fbank/raw_fbank_train.3.ark:288803
mtrr0_sx198 quick_test/fbank/raw_fbank_train.4.ark:9871356
mpsw0_si2327 quick_test/fbank/raw_fbank_train.4.ark:505351
mprb0_sx215 quick_test/fbank/raw_fbank_train.4.ark:111357
fsls0_si1056 quick_test/fbank/raw_fbank_train.2.ark:538829
mjbg0_sx332 quick_test/fbank/raw_fbank_train.3.ark:2025233
fklc1_sx148 quick_test/fbank/raw_fbank_train.1.ark:6853176
mdef0_si2193 quick_test/fbank/raw_fbank_train.2.ark:6818696
fbcg1_sx262 quick_test/fbank/raw_fbank_train.1.ark:678173
fsak0_sx310 quick_test/fbank/raw_fbank_train.1.ark:11163130
fgmb0_sx245 quick_test/fbank/raw_fbank_train.1.ark:4444585
mbml0_sx359 quick_test/fbank/raw_fbank_train.2.ark:3989274
mbsb0_si1353 quick_test/fbank/raw_fbank_train.2.ark:4112320
mdcm0_si2110 quick_test/fbank/raw_fbank_train.2.ark:6510267
mmgg0_sx89 quick_test/fbank/raw_fbank_train.3.ark:9438753
mvrw0_sx45 quick_test/fbank/raw_fbank_train.4.ark:10471173
mwdk0_sx176 quick_test/fbank/raw_fbank_train.4.ark:10896090
mjfr0_sx75 quick_test/fbank/raw_fbank_train.3.ark:3061269
mkdd0_si2197 quick_test/fbank/raw_fbank_train.3.ark:6172873
mcxm0_sx271 quick_test/fbank/raw_fbank_train.2.ark:5958578
fjwb1_sx255 quick_test/fbank/raw_fbank_train.1.ark:5926702
mjrp0_sx315 quick_test/fbank/raw_fbank_train.3.ark:4974907
mrbc0_sx239 quick_test/fbank/raw_fbank_train.4.ark:1106008
fsdj0_si1115 quick_test/fbank/raw_fbank_train.1.ark:11519145
msah1_sx59 quick_test/fbank/raw_fbank_train.4.ark:5298616
mkxl0_sx195 quick_test/fbank/raw_fbank_train.3.ark:7202856
makb0_sx116 quick_test/fbank/raw_fbank_train.2.ark:2750603
mpsw0_sx437 quick_test/fbank/raw_fbank_train.4.ark:542042
fskc0_si786 quick_test/fbank/raw_fbank_train.2.ark:280901
mtrt0_sx237 quick_test/fbank/raw_fbank_train.4.ark:9965469
fbas0_si1472 quick_test/fbank/raw_fbank_train.1.ark:541808
mbjv0_sx167 quick_test/fbank/raw_fbank_train.2.ark:3679733
mmpm0_si2321 quick_test/fbank/raw_fbank_train.3.ark:9735010
mpeb0_si1034 quick_test/fbank/raw_fbank_train.3.ark:10819455
fsms1_sx347 quick_test/fbank/raw_fbank_train.2.ark:923104
fjxm0_sx311 quick_test/fbank/raw_fbank_train.1.ark:6028560
mgsl0_sx444 quick_test/fbank/raw_fbank_train.3.ark:779666
mctm0_si1980 quick_test/fbank/raw_fbank_train.2.ark:5826294
mrml0_sx431 quick_test/fbank/raw_fbank_train.4.ark:4076161
mtxs0_sx340 quick_test/fbank/raw_fbank_train.4.ark:10164473
mljc0_sx55 quick_test/fbank/raw_fbank_train.3.ark:7529757
mrws0_sx292 quick_test/fbank/raw_fbank_train.4.ark:5098052
msdh0_sx440 quick_test/fbank/raw_fbank_train.4.ark:5739031
mges0_sx131 quick_test/fbank/raw_fbank_train.3.ark:219244
mjdc0_si531 quick_test/fbank/raw_fbank_train.3.ark:2171065
mjrp0_si1845 quick_test/fbank/raw_fbank_train.3.ark:4923295
mtqc0_si480 quick_test/fbank/raw_fbank_train.4.ark:9633249
fmkc0_si1702 quick_test/fbank/raw_fbank_train.1.ark:9166682
fcyl0_sx397 quick_test/fbank/raw_fbank_train.1.ark:2385857
mtrr0_sx18 quick_test/fbank/raw_fbank_train.4.ark:9859963
mfmc0_sx52 quick_test/fbank/raw_fbank_train.2.ark:10571367
meal0_sx107 quick_test/fbank/raw_fbank_train.2.ark:9587231
mzmb0_sx356 quick_test/fbank/raw_fbank_train.4.ark:11622890
mdwd0_sx360 quick_test/fbank/raw_fbank_train.2.ark:9309902
mabc0_sx61 quick_test/fbank/raw_fbank_train.2.ark:2093396
makr0_si1352 quick_test/fbank/raw_fbank_train.2.ark:2810128
mtat0_sx120 quick_test/fbank/raw_fbank_train.4.ark:7401811
mrlj0_sx70 quick_test/fbank/raw_fbank_train.4.ark:3409655
fmpg0_sx342 quick_test/fbank/raw_fbank_train.1.ark:9523332
mclm0_sx376 quick_test/fbank/raw_fbank_train.2.ark:5411207
msas0_si1376 quick_test/fbank/raw_fbank_train.4.ark:5304970
flac0_sx451 quick_test/fbank/raw_fbank_train.1.ark:7183190
mgsl0_sx264 quick_test/fbank/raw_fbank_train.3.ark:755880
mmvp0_si1914 quick_test/fbank/raw_fbank_train.3.ark:10034331
mmam0_sx67 quick_test/fbank/raw_fbank_train.3.ark:8261853
mtjm0_sx56 quick_test/fbank/raw_fbank_train.4.ark:8269582
mgsl0_si1164 quick_test/fbank/raw_fbank_train.3.ark:701108
mdss0_si621 quick_test/fbank/raw_fbank_train.2.ark:9014327
mdwd0_sx90 quick_test/fbank/raw_fbank_train.2.ark:9334087
mrew1_sx330 quick_test/fbank/raw_fbank_train.4.ark:2009067
flhd0_sx174 quick_test/fbank/raw_fbank_train.1.ark:7547153
fhxs0_si2335 quick_test/fbank/raw_fbank_train.1.ark:4764717
mmws0_si559 quick_test/fbank/raw_fbank_train.3.ark:10283741
mrem0_si1591 quick_test/fbank/raw_fbank_train.4.ark:1859037
maeb0_sx270 quick_test/fbank/raw_fbank_train.2.ark:2359053
flac0_sx361 quick_test/fbank/raw_fbank_train.1.ark:7172637
mtat0_sx390 quick_test/fbank/raw_fbank_train.4.ark:7440542
mjmd0_sx308 quick_test/fbank/raw_fbank_train.3.ark:4017416
mrvg0_sx60 quick_test/fbank/raw_fbank_train.4.ark:4928715
fpac0_si1921 quick_test/fbank/raw_fbank_train.1.ark:9877265
mdrd0_si2012 quick_test/fbank/raw_fbank_train.2.ark:8794964
fbmj0_sx336 quick_test/fbank/raw_fbank_train.1.ark:1213170
mrdd0_si2310 quick_test/fbank/raw_fbank_train.4.ark:1392738
mrds0_sx357 quick_test/fbank/raw_fbank_train.4.ark:1612607
mter0_sx17 quick_test/fbank/raw_fbank_train.4.ark:8038474
mprk0_sx377 quick_test/fbank/raw_fbank_train.4.ark:382745
mwsh0_si2266 quick_test/fbank/raw_fbank_train.4.ark:11460253
mcae0_sx97 quick_test/fbank/raw_fbank_train.2.ark:4511381
fdnc0_sx108 quick_test/fbank/raw_fbank_train.1.ark:3170210
mjkr0_sx121 quick_test/fbank/raw_fbank_train.3.ark:3529183
mdma0_sx440 quick_test/fbank/raw_fbank_train.2.ark:8282259
mbml0_sx449 quick_test/fbank/raw_fbank_train.2.ark:4003587
fnkl0_sx442 quick_test/fbank/raw_fbank_train.1.ark:9643430
maeo0_si1326 quick_test/fbank/raw_fbank_train.2.ark:2402185
mkaj0_si2044 quick_test/fbank/raw_fbank_train.3.ark:5874518
fmju0_sx129 quick_test/fbank/raw_fbank_train.1.ark:9076689
mhrm0_si1475 quick_test/fbank/raw_fbank_train.3.ark:1378280
mjdg0_si1705 quick_test/fbank/raw_fbank_train.3.ark:2405395
mmar0_sx346 quick_test/fbank/raw_fbank_train.3.ark:8354733
fdas1_sx21 quick_test/fbank/raw_fbank_train.1.ark:2472376
mrav0_si1638 quick_test/fbank/raw_fbank_train.4.ark:977803
mlbc0_sx69 quick_test/fbank/raw_fbank_train.3.ark:7317547
fljd0_sx256 quick_test/fbank/raw_fbank_train.1.ark:7771277
mcxm0_si721 quick_test/fbank/raw_fbank_train.2.ark:5933832
mesg0_sx342 quick_test/fbank/raw_fbank_train.2.ark:10186684
mdhl0_sx359 quick_test/fbank/raw_fbank_train.2.ark:7056644
mtcs0_sx82 quick_test/fbank/raw_fbank_train.4.ark:7750417
fpad0_sx86 quick_test/fbank/raw_fbank_train.1.ark:10082521
madd0_si538 quick_test/fbank/raw_fbank_train.2.ark:2232322
mddc0_si789 quick_test/fbank/raw_fbank_train.2.ark:6614285
mcef0_sx325 quick_test/fbank/raw_fbank_train.2.ark:4974081
mrsp0_sx169 quick_test/fbank/raw_fbank_train.4.ark:4561189
fkkh0_si660 quick_test/fbank/raw_fbank_train.1.ark:6647932
mtwh1_sx72 quick_test/fbank/raw_fbank_train.4.ark:10081832
mtbc0_sx363 quick_test/fbank/raw_fbank_train.4.ark:7639320
mtrc0_sx93 quick_test/fbank/raw_fbank_train.4.ark:9803317
mppc0_sx152 quick_test/fbank/raw_fbank_train.3.ark:11494145
mtdb0_si1401 quick_test/fbank/raw_fbank_train.4.ark:7761531
mmsm0_sx386 quick_test/fbank/raw_fbank_train.3.ark:10010583
mjdm0_sx80 quick_test/fbank/raw_fbank_train.3.ark:2572864
mrdm0_si965 quick_test/fbank/raw_fbank_train.4.ark:1486003
flkm0_sx440 quick_test/fbank/raw_fbank_train.1.ark:8018352
megj0_sx167 quick_test/fbank/raw_fbank_train.2.ark:9876945
mrdd0_sx277 quick_test/fbank/raw_fbank_train.4.ark:1422717
mtpf0_sx425 quick_test/fbank/raw_fbank_train.4.ark:9283321
mmdb0_sx87 quick_test/fbank/raw_fbank_train.3.ark:8686273
fvkb0_si1159 quick_test/fbank/raw_fbank_train.2.ark:1825835
mvjh0_sx116 quick_test/fbank/raw_fbank_train.4.ark:10249872
mjlg1_si2272 quick_test/fbank/raw_fbank_train.3.ark:3700961
mcre0_sx131 quick_test/fbank/raw_fbank_train.2.ark:5549687
msvs0_si2198 quick_test/fbank/raw_fbank_train.4.ark:7045790
mbcg0_sx147 quick_test/fbank/raw_fbank_train.2.ark:3400538
mrwa0_sx343 quick_test/fbank/raw_fbank_train.4.ark:4997035
fmkc0_sx442 quick_test/fbank/raw_fbank_train.1.ark:9216414
ftbr0_sx21 quick_test/fbank/raw_fbank_train.2.ark:1408555
megj0_sx77 quick_test/fbank/raw_fbank_train.2.ark:9927674
mjee0_sx247 quick_test/fbank/raw_fbank_train.3.ark:2829761
mlsh0_sx247 quick_test/fbank/raw_fbank_train.3.ark:7811214
fbjl0_si2182 quick_test/fbank/raw_fbank_train.1.ark:853843
mmea0_si2018 quick_test/fbank/raw_fbank_train.3.ark:9096761
mclm0_sx16 quick_test/fbank/raw_fbank_train.2.ark:5382588
fjrb0_si672 quick_test/fbank/raw_fbank_train.1.ark:5476736
mrds0_sx267 quick_test/fbank/raw_fbank_train.4.ark:1600014
mpsw0_si1067 quick_test/fbank/raw_fbank_train.4.ark:485643
fpaf0_si1054 quick_test/fbank/raw_fbank_train.1.ark:10092195
mcef0_si1765 quick_test/fbank/raw_fbank_train.2.ark:4924789
fkaa0_si1838 quick_test/fbank/raw_fbank_train.1.ark:6187038
mjrh0_si1755 quick_test/fbank/raw_fbank_train.3.ark:4639739
mvlo0_si1777 quick_test/fbank/raw_fbank_train.4.ark:10311591
mntw0_si1698 quick_test/fbank/raw_fbank_train.3.ark:10648958
mjeb1_sx207 quick_test/fbank/raw_fbank_train.3.ark:2743016
fsrh0_sx131 quick_test/fbank/raw_fbank_train.2.ark:1086455
mjpg0_sx111 quick_test/fbank/raw_fbank_train.3.ark:4185320
mjai0_sx164 quick_test/fbank/raw_fbank_train.3.ark:1917181
mmws0_sx78 quick_test/fbank/raw_fbank_train.3.ark:10356138
fntb0_sx303 quick_test/fbank/raw_fbank_train.1.ark:9732861
mpar0_sx46 quick_test/fbank/raw_fbank_train.3.ark:10811581
fblv0_sx338 quick_test/fbank/raw_fbank_train.1.ark:1009361
mkdd0_si937 quick_test/fbank/raw_fbank_train.3.ark:6191026
majp0_sx354 quick_test/fbank/raw_fbank_train.2.ark:2652163
mkln0_si968 quick_test/fbank/raw_fbank_train.3.ark:6578405
fvkb0_sx259 quick_test/fbank/raw_fbank_train.2.ark:1868888
fgrw0_si1782 quick_test/fbank/raw_fbank_train.1.ark:4520151
marw0_si1906 quick_test/fbank/raw_fbank_train.2.ark:3083917
mrpc1_sx402 quick_test/fbank/raw_fbank_train.4.ark:4259493
flmk0_sx135 quick_test/fbank/raw_fbank_train.1.ark:8271249
fjwb1_sx435 quick_test/fbank/raw_fbank_train.1.ark:5946968
fkdw0_sx37 quick_test/fbank/raw_fbank_train.1.ark:6468853
flma0_sx73 quick_test/fbank/raw_fbank_train.1.ark:8123249
mbsb0_sx273 quick_test/fbank/raw_fbank_train.2.ark:4156493
fvfb0_sx402 quick_test/fbank/raw_fbank_train.2.ark:1808529
fmem0_sx297 quick_test/fbank/raw_fbank_train.1.ark:8781641
mjpm1_si2280 quick_test/fbank/raw_fbank_train.3.ark:4338264
mhit0_sx173 quick_test/fbank/raw_fbank_train.3.ark:1046079
ftlg0_sx213 quick_test/fbank/raw_fbank_train.2.ark:1598852
mrcw0_sx201 quick_test/fbank/raw_fbank_train.4.ark:1327378
mdpk0_si1053 quick_test/fbank/raw_fbank_train.2.ark:8604360
mjfr0_sx165 quick_test/fbank/raw_fbank_train.3.ark:3000898
fgmb0_si1775 quick_test/fbank/raw_fbank_train.1.ark:4403806
mjdg0_si1672 quick_test/fbank/raw_fbank_train.3.ark:2389601
mmag0_sx226 quick_test/fbank/raw_fbank_train.3.ark:8137129
mdbb1_sx106 quick_test/fbank/raw_fbank_train.2.ark:6236418
flod0_sx117 quick_test/fbank/raw_fbank_train.1.ark:8366954
msmr0_si1405 quick_test/fbank/raw_fbank_train.4.ark:6560987
fgdp0_sx88 quick_test/fbank/raw_fbank_train.1.ark:4365218
mrjt0_sx328 quick_test/fbank/raw_fbank_train.4.ark:3069037
mdjm0_sx195 quick_test/fbank/raw_fbank_train.2.ark:7252453
mdpb0_si866 quick_test/fbank/raw_fbank_train.2.ark:8531522
mjpm0_si1998 quick_test/fbank/raw_fbank_train.3.ark:4246199
mjxa0_sx67 quick_test/fbank/raw_fbank_train.3.ark:5544176
flag0_sx24 quick_test/fbank/raw_fbank_train.1.ark:7282901
mcae0_sx367 quick_test/fbank/raw_fbank_train.2.ark:4480558
fsms1_si2134 quick_test/fbank/raw_fbank_train.2.ark:863459
mafm0_sx129 quick_test/fbank/raw_fbank_train.2.ark:2526391
msdb0_sx197 quick_test/fbank/raw_fbank_train.4.ark:5637612
fjen0_si1047 quick_test/fbank/raw_fbank_train.1.ark:4946261
fmjb0_sx277 quick_test/fbank/raw_fbank_train.1.ark:8884394
mrds0_sx87 quick_test/fbank/raw_fbank_train.4.ark:1635112
marc0_sx108 quick_test/fbank/raw_fbank_train.2.ark:3021398
flhd0_si1344 quick_test/fbank/raw_fbank_train.1.ark:7516492
mdlr0_si1863 quick_test/fbank/raw_fbank_train.2.ark:7999443
mjac0_sx307 quick_test/fbank/raw_fbank_train.3.ark:1719284
mclk0_si1660 quick_test/fbank/raw_fbank_train.2.ark:5231751
msdb0_sx377 quick_test/fbank/raw_fbank_train.4.ark:5653638
fsdj0_sx305 quick_test/fbank/raw_fbank_train.1.ark:11576271
fsbk0_si1069 quick_test/fbank/raw_fbank_train.1.ark:11199629
mljc0_si1855 quick_test/fbank/raw_fbank_train.3.ark:7463800
fsdc0_si2234 quick_test/fbank/raw_fbank_train.1.ark:11455587
fcrz0_sx433 quick_test/fbank/raw_fbank_train.1.ark:2271400
mewm0_sx88 quick_test/fbank/raw_fbank_train.2.ark:10383237
ftmg0_sx452 quick_test/fbank/raw_fbank_train.2.ark:1712543
mhmr0_sx39 quick_test/fbank/raw_fbank_train.3.ark:1357573
fjkl0_si2192 quick_test/fbank/raw_fbank_train.1.ark:5164747
mkxl0_sx105 quick_test/fbank/raw_fbank_train.3.ark:7182431
mgxp0_si1087 quick_test/fbank/raw_fbank_train.3.ark:808732
mprd0_si2061 quick_test/fbank/raw_fbank_train.4.ark:181283
fklc1_si1678 quick_test/fbank/raw_fbank_train.1.ark:6837869
mrfl0_si1786 quick_test/fbank/raw_fbank_train.4.ark:2157466
mrre0_si704 quick_test/fbank/raw_fbank_train.4.ark:4298992
mdlc0_sx45 quick_test/fbank/raw_fbank_train.2.ark:7596475
mcdc0_si1922 quick_test/fbank/raw_fbank_train.2.ark:4631394
marw0_sx16 quick_test/fbank/raw_fbank_train.2.ark:3114575
mrgm0_sx416 quick_test/fbank/raw_fbank_train.4.ark:2326423
flkm0_si620 quick_test/fbank/raw_fbank_train.1.ark:7946267
mlns0_sx327 quick_test/fbank/raw_fbank_train.3.ark:7721942
fjsp0_sx264 quick_test/fbank/raw_fbank_train.1.ark:5827758
mnet0_sx366 quick_test/fbank/raw_fbank_train.3.ark:10593587
mpgh0_si924 quick_test/fbank/raw_fbank_train.3.ark:11045411
mejs0_sx160 quick_test/fbank/raw_fbank_train.2.ark:10067273
mprt0_sx310 quick_test/fbank/raw_fbank_train.4.ark:454184
mdbp0_sx258 quick_test/fbank/raw_fbank_train.2.ark:6340876
mdwd0_sx450 quick_test/fbank/raw_fbank_train.2.ark:9320895
mjrh1_si1558 quick_test/fbank/raw_fbank_train.3.ark:4728331
fgrw0_sx162 quick_test/fbank/raw_fbank_train.1.ark:4544538
mtqc0_sx181 quick_test/fbank/raw_fbank_train.4.ark:9643202
mmag0_si1126 quick_test/fbank/raw_fbank_train.3.ark:8076636
fhlm0_sx210 quick_test/fbank/raw_fbank_train.1.ark:4661876
freh0_sx415 quick_test/fbank/raw_fbank_train.1.ark:10670278
mmlm0_sx177 quick_test/fbank/raw_fbank_train.3.ark:9660937
mcdd0_sx253 quick_test/fbank/raw_fbank_train.2.ark:4757238
mejl0_sx422 quick_test/fbank/raw_fbank_train.2.ark:10004987
msrr0_sx30 quick_test/fbank/raw_fbank_train.4.ark:6895913
mdef0_si1123 quick_test/fbank/raw_fbank_train.2.ark:6787468
mwsh0_sx436 quick_test/fbank/raw_fbank_train.4.ark:11533378
mmdm1_sx63 quick_test/fbank/raw_fbank_train.3.ark:8991348
maeo0_sx156 quick_test/fbank/raw_fbank_train.2.ark:2440486
mcss0_si1380 quick_test/fbank/raw_fbank_train.2.ark:5609571
mdpk0_sx63 quick_test/fbank/raw_fbank_train.2.ark:8684191
mbar0_sx419 quick_test/fbank/raw_fbank_train.2.ark:3253107
fjwb1_si2055 quick_test/fbank/raw_fbank_train.1.ark:5876770
mdps0_si1979 quick_test/fbank/raw_fbank_train.2.ark:8701419
fmjb0_sx7 quick_test/fbank/raw_fbank_train.1.ark:8907738
mrsp0_si799 quick_test/fbank/raw_fbank_train.4.ark:4548796
mclm0_si1456 quick_test/fbank/raw_fbank_train.2.ark:5334976
fmjf0_si1884 quick_test/fbank/raw_fbank_train.1.ark:8939478
mkjo0_sx424 quick_test/fbank/raw_fbank_train.3.ark:6518279
mdlr1_sx129 quick_test/fbank/raw_fbank_train.2.ark:8130814
msds0_si1707 quick_test/fbank/raw_fbank_train.4.ark:5786291
mjwt0_sx301 quick_test/fbank/raw_fbank_train.3.ark:5429366
mter0_si1787 quick_test/fbank/raw_fbank_train.4.ark:7999496
mmjb1_sx238 quick_test/fbank/raw_fbank_train.3.ark:9572745
mrjm0_sx418 quick_test/fbank/raw_fbank_train.4.ark:2880660
mjeb1_sx297 quick_test/fbank/raw_fbank_train.3.ark:2761561
mhjb0_si1647 quick_test/fbank/raw_fbank_train.3.ark:1114998
ftbw0_si715 quick_test/fbank/raw_fbank_train.2.ark:1458042
fsbk0_sx439 quick_test/fbank/raw_fbank_train.1.ark:11278269
mbgt0_si1341 quick_test/fbank/raw_fbank_train.2.ark:3539328
mtrt0_sx147 quick_test/fbank/raw_fbank_train.4.ark:9953556
flag0_sx384 quick_test/fbank/raw_fbank_train.1.ark:7308767
msdb0_sx287 quick_test/fbank/raw_fbank_train.4.ark:5645005
mdcd0_sx155 quick_test/fbank/raw_fbank_train.2.ark:6435308
mjxa0_sx337 quick_test/fbank/raw_fbank_train.3.ark:5524311
mkdt0_sx83 quick_test/fbank/raw_fbank_train.3.ark:6347054
mprt0_sx40 quick_test/fbank/raw_fbank_train.4.ark:463896
mtdp0_sx81 quick_test/fbank/raw_fbank_train.4.ark:7969268
mhmg0_si735 quick_test/fbank/raw_fbank_train.3.ark:1207017
mkam0_sx326 quick_test/fbank/raw_fbank_train.3.ark:6021156
mmcc0_sx258 quick_test/fbank/raw_fbank_train.3.ark:8557270
mrew1_si1500 quick_test/fbank/raw_fbank_train.4.ark:1957941
fbmj0_sx156 quick_test/fbank/raw_fbank_train.1.ark:1189104
mprt0_si580 quick_test/fbank/raw_fbank_train.4.ark:420045
mrws0_sx22 quick_test/fbank/raw_fbank_train.4.ark:5089259
mrdm0_sx425 quick_test/fbank/raw_fbank_train.4.ark:1539615
fksr0_sx217 quick_test/fbank/raw_fbank_train.1.ark:7068619
mded0_si1800 quick_test/fbank/raw_fbank_train.2.ark:6694077
mkln0_si1598 quick_test/fbank/raw_fbank_train.3.ark:6555058
mapv0_sx213 quick_test/fbank/raw_fbank_train.2.ark:2949166
fssb0_sx452 quick_test/fbank/raw_fbank_train.2.ark:1233900
mcal0_sx58 quick_test/fbank/raw_fbank_train.2.ark:4604566
mjxl0_sx182 quick_test/fbank/raw_fbank_train.3.ark:5595230
fkdw0_sx217 quick_test/fbank/raw_fbank_train.1.ark:6453348
mgxp0_sx187 quick_test/fbank/raw_fbank_train.3.ark:858151
mtrr0_sx288 quick_test/fbank/raw_fbank_train.4.ark:9881909
mdwm0_sx433 quick_test/fbank/raw_fbank_train.2.ark:9546137
fklc1_si1048 quick_test/fbank/raw_fbank_train.1.ark:6819195
mges0_sx401 quick_test/fbank/raw_fbank_train.3.ark:254383
flet0_si1767 quick_test/fbank/raw_fbank_train.1.ark:7434261
mzmb0_si1166 quick_test/fbank/raw_fbank_train.4.ark:11558724
mpgh0_sx384 quick_test/fbank/raw_fbank_train.3.ark:11090095
fjdm2_si1582 quick_test/fbank/raw_fbank_train.1.ark:4839235
meal0_sx287 quick_test/fbank/raw_fbank_train.2.ark:9603457
msfh0_sx406 quick_test/fbank/raw_fbank_train.4.ark:6191573
mrfk0_sx176 quick_test/fbank/raw_fbank_train.4.ark:2083707
mcal0_si1768 quick_test/fbank/raw_fbank_train.2.ark:4540009
mter0_sx257 quick_test/fbank/raw_fbank_train.4.ark:8046587
mtml0_si1695 quick_test/fbank/raw_fbank_train.4.ark:8906600
mtdb0_sx321 quick_test/fbank/raw_fbank_train.4.ark:7824337
ftbr0_si1402 quick_test/fbank/raw_fbank_train.2.ark:1340710
fmpg0_si2232 quick_test/fbank/raw_fbank_train.1.ark:9458280
mjrk0_sx250 quick_test/fbank/raw_fbank_train.3.ark:4873089
mhrm0_sx238 quick_test/fbank/raw_fbank_train.3.ark:1420813
fleh0_sx331 quick_test/fbank/raw_fbank_train.1.ark:7383368
feac0_si1245 quick_test/fbank/raw_fbank_train.1.ark:3429986
mtxs0_sx250 quick_test/fbank/raw_fbank_train.4.ark:10151000
mtjs0_sx22 quick_test/fbank/raw_fbank_train.4.ark:8356581
mmwb0_sx269 quick_test/fbank/raw_fbank_train.3.ark:10207896
fsag0_si1323 quick_test/fbank/raw_fbank_train.1.ark:10878274
mmdm0_sx141 quick_test/fbank/raw_fbank_train.3.ark:8841112
mpfu0_si1258 quick_test/fbank/raw_fbank_train.3.ark:10909360
mgaw0_sx355 quick_test/fbank/raw_fbank_train.3.ark:167045
fdml0_sx159 quick_test/fbank/raw_fbank_train.1.ark:2932600
mbgt0_sx441 quick_test/fbank/raw_fbank_train.2.ark:3623087
mbef0_si651 quick_test/fbank/raw_fbank_train.2.ark:3481650
mwch0_si1622 quick_test/fbank/raw_fbank_train.4.ark:10772924
mpfu0_sx268 quick_test/fbank/raw_fbank_train.3.ark:10959973
mded0_sx180 quick_test/fbank/raw_fbank_train.2.ark:6726543
mhrm0_si958 quick_test/fbank/raw_fbank_train.3.ark:1396947
mdcm0_sx130 quick_test/fbank/raw_fbank_train.2.ark:6533693
fntb0_si1203 quick_test/fbank/raw_fbank_train.1.ark:9669336
mfrm0_si1717 quick_test/fbank/raw_fbank_train.2.ark:10600395
mrgm0_si532 quick_test/fbank/raw_fbank_train.4.ark:2278204
mpmb0_sx421 quick_test/fbank/raw_fbank_train.3.ark:11411099
mjws0_si1773 quick_test/fbank/raw_fbank_train.3.ark:5257249
mdwh0_sx35 quick_test/fbank/raw_fbank_train.2.ark:9433199
mdbb1_si2056 quick_test/fbank/raw_fbank_train.2.ark:6220745
fskp0_si1098 quick_test/fbank/raw_fbank_train.2.ark:446364
mdlc1_si1435 quick_test/fbank/raw_fbank_train.2.ark:7608509
fvfb0_sx42 quick_test/fbank/raw_fbank_train.2.ark:1817921
mbth0_sx212 quick_test/fbank/raw_fbank_train.2.ark:4242235
mrbc0_si1859 quick_test/fbank/raw_fbank_train.4.ark:1068949
mdwd0_si1890 quick_test/fbank/raw_fbank_train.2.ark:9268970
mtxs0_sx70 quick_test/fbank/raw_fbank_train.4.ark:10198138
freh0_sx145 quick_test/fbank/raw_fbank_train.1.ark:10643339
mtlb0_sx144 quick_test/fbank/raw_fbank_train.4.ark:8740096
meal0_sx347 quick_test/fbank/raw_fbank_train.2.ark:9614210
mrem0_sx241 quick_test/fbank/raw_fbank_train.4.ark:1910929
mgag0_si645 quick_test/fbank/raw_fbank_train.2.ark:11067962
fkkh0_sx30 quick_test/fbank/raw_fbank_train.1.ark:6683510
mcew0_sx362 quick_test/fbank/raw_fbank_train.2.ark:5082666
mfwk0_si1879 quick_test/fbank/raw_fbank_train.2.ark:10689421
fbas0_sx37 quick_test/fbank/raw_fbank_train.1.ark:609213
mtjm0_sx416 quick_test/fbank/raw_fbank_train.4.ark:8258950
mrhl0_si2145 quick_test/fbank/raw_fbank_train.4.ark:2486779
fajw0_si1263 quick_test/fbank/raw_fbank_train.1.ark:100358
mafm0_sx219 quick_test/fbank/raw_fbank_train.2.ark:2537784
ftmg0_sx182 quick_test/fbank/raw_fbank_train.2.ark:1678604
mmpm0_si1061 quick_test/fbank/raw_fbank_train.3.ark:9712502
mhjb0_sx297 quick_test/fbank/raw_fbank_train.3.ark:1167003
marc0_sx288 quick_test/fbank/raw_fbank_train.2.ark:3049576
mjfh0_sx117 quick_test/fbank/raw_fbank_train.3.ark:2920953
fscn0_sx86 quick_test/fbank/raw_fbank_train.1.ark:11416885
fvmh0_sx26 quick_test/fbank/raw_fbank_train.2.ark:1993825
mklr0_sx159 quick_test/fbank/raw_fbank_train.3.ark:6682224
mdps0_si719 quick_test/fbank/raw_fbank_train.2.ark:8714852
fleh0_si1051 quick_test/fbank/raw_fbank_train.1.ark:7321801
mdem0_sx338 quick_test/fbank/raw_fbank_train.2.ark:6953539
mtjm0_si655 quick_test/fbank/raw_fbank_train.4.ark:8212778
mdpb0_sx236 quick_test/fbank/raw_fbank_train.2.ark:8560908
mdpb0_si1760 quick_test/fbank/raw_fbank_train.2.ark:8500055
mwre0_sx427 quick_test/fbank/raw_fbank_train.4.ark:11229826
mclk0_sx130 quick_test/fbank/raw_fbank_train.2.ark:5278651
mdlm0_sx244 quick_test/fbank/raw_fbank_train.2.ark:7945037
frjb0_sx437 quick_test/fbank/raw_fbank_train.1.ark:10753824
mbar0_sx239 quick_test/fbank/raw_fbank_train.2.ark:3226521
flac0_si901 quick_test/fbank/raw_fbank_train.1.ark:7142578
mmgk0_sx152 quick_test/fbank/raw_fbank_train.3.ark:9475607
fjkl0_sx392 quick_test/fbank/raw_fbank_train.1.ark:5241144
mjxl0_si1795 quick_test/fbank/raw_fbank_train.3.ark:5576324
mapv0_sx33 quick_test/fbank/raw_fbank_train.2.ark:2971591
mrav0_sx108 quick_test/fbank/raw_fbank_train.4.ark:1006750
fjxp0_si1122 quick_test/fbank/raw_fbank_train.1.ark:6082739
mtjs0_si1822 quick_test/fbank/raw_fbank_train.4.ark:8290610
mbth0_si2102 quick_test/fbank/raw_fbank_train.2.ark:4185983
mrjm0_sx148 quick_test/fbank/raw_fbank_train.4.ark:2844121
mdwd0_si1260 quick_test/fbank/raw_fbank_train.2.ark:9251096
mljh0_sx334 quick_test/fbank/raw_fbank_train.3.ark:7630597
fsbk0_sx259 quick_test/fbank/raw_fbank_train.1.ark:11243963
mstf0_si852 quick_test/fbank/raw_fbank_train.4.ark:6950078
mjlg1_sx202 quick_test/fbank/raw_fbank_train.3.ark:3728907
fcmm0_si1083 quick_test/fbank/raw_fbank_train.1.ark:2107136
fpjf0_sx326 quick_test/fbank/raw_fbank_train.1.ark:10357692
fklc0_sx445 quick_test/fbank/raw_fbank_train.1.ark:6796409
mbcg0_sx57 quick_test/fbank/raw_fbank_train.2.ark:3448149
fkde0_si1141 quick_test/fbank/raw_fbank_train.1.ark:6283389
mmdb0_sx177 quick_test/fbank/raw_fbank_train.3.ark:8646222
mcth0_si1209 quick_test/fbank/raw_fbank_train.2.ark:5712635
flja0_sx268 quick_test/fbank/raw_fbank_train.1.ark:7663372
mfxs0_sx144 quick_test/fbank/raw_fbank_train.2.ark:10802873
fsjw0_sx253 quick_test/fbank/raw_fbank_train.2.ark:205502
mbar0_sx59 quick_test/fbank/raw_fbank_train.2.ark:3265099
fjhk0_si1652 quick_test/fbank/raw_fbank_train.1.ark:5071801
mprk0_sx287 quick_test/fbank/raw_fbank_train.4.ark:366032
mesj0_sx7 quick_test/fbank/raw_fbank_train.2.ark:10293620
fljg0_sx81 quick_test/fbank/raw_fbank_train.1.ark:7921280
mrlr0_sx296 quick_test/fbank/raw_fbank_train.4.ark:3674658
mkxl0_si1958 quick_test/fbank/raw_fbank_train.3.ark:7165758
fmju0_sx309 quick_test/fbank/raw_fbank_train.1.ark:9102195
mgak0_sx226 quick_test/fbank/raw_fbank_train.2.ark:11202487
fmju0_si2019 quick_test/fbank/raw_fbank_train.1.ark:9055103
mbbr0_sx245 quick_test/fbank/raw_fbank_train.2.ark:3322267
mrlj1_si2301 quick_test/fbank/raw_fbank_train.4.ark:3426363
fgcs0_sx136 quick_test/fbank/raw_fbank_train.1.ark:4208462
mcdd0_si883 quick_test/fbank/raw_fbank_train.2.ark:4733452
flhd0_si1827 quick_test/fbank/raw_fbank_train.1.ark:7527406
mppc0_sx242 quick_test/fbank/raw_fbank_train.4.ark:12
mded0_si540 quick_test/fbank/raw_fbank_train.2.ark:6707190
fljg0_sx261 quick_test/fbank/raw_fbank_train.1.ark:7878622
mrab0_sx144 quick_test/fbank/raw_fbank_train.4.ark:600768
mgsh0_sx186 quick_test/fbank/raw_fbank_train.3.ark:650698
mvlo0_sx157 quick_test/fbank/raw_fbank_train.4.ark:10338897
fmjf0_si624 quick_test/fbank/raw_fbank_train.1.ark:8947831
fmah1_si1509 quick_test/fbank/raw_fbank_train.1.ark:8523346
mtjm0_sx236 quick_test/fbank/raw_fbank_train.4.ark:8238364
mmgg0_sx359 quick_test/fbank/raw_fbank_train.3.ark:9407528
msds0_si2337 quick_test/fbank/raw_fbank_train.4.ark:5800285
fcke0_sx391 quick_test/fbank/raw_fbank_train.1.ark:1895771
mrjm1_sx128 quick_test/fbank/raw_fbank_train.4.ark:2949586
fetb0_si1778 quick_test/fbank/raw_fbank_train.1.ark:3972865
mtab0_sx132 quick_test/fbank/raw_fbank_train.4.ark:7205521
mkaj0_si784 quick_test/fbank/raw_fbank_train.3.ark:5890551
msvs0_si1568 quick_test/fbank/raw_fbank_train.4.ark:7035116
mklw0_sx221 quick_test/fbank/raw_fbank_train.3.ark:6986334
feeh0_sx32 quick_test/fbank/raw_fbank_train.1.ark:3828819
mpfu0_sx178 quick_test/fbank/raw_fbank_train.3.ark:10945700
mmxs0_si876 quick_test/fbank/raw_fbank_train.3.ark:10470783
mmdg0_si2035 quick_test/fbank/raw_fbank_train.3.ark:8714261
falk0_sx6 quick_test/fbank/raw_fbank_train.1.ark:287977
mrdm0_si1044 quick_test/fbank/raw_fbank_train.4.ark:1458576
fltm0_si1070 quick_test/fbank/raw_fbank_train.1.ark:8419600
mdcd0_sx335 quick_test/fbank/raw_fbank_train.2.ark:6457734
mrvg0_sx330 quick_test/fbank/raw_fbank_train.4.ark:4904090
mkls1_si915 quick_test/fbank/raw_fbank_train.3.ark:6868242
fhlm0_sx300 quick_test/fbank/raw_fbank_train.1.ark:4674189
mkdt0_si2153 quick_test/fbank/raw_fbank_train.3.ark:6254184
fgmb0_si515 quick_test/fbank/raw_fbank_train.1.ark:4416359
fecd0_sx248 quick_test/fbank/raw_fbank_train.1.ark:3698529
mabc0_sx241 quick_test/fbank/raw_fbank_train.2.ark:2065258
mrlr0_si1826 quick_test/fbank/raw_fbank_train.4.ark:3618054
mrvg0_sx150 quick_test/fbank/raw_fbank_train.4.ark:4884184
flma0_si613 quick_test/fbank/raw_fbank_train.1.ark:8067645
mkah0_sx448 quick_test/fbank/raw_fbank_train.3.ark:5840258
fmkf0_si1018 quick_test/fbank/raw_fbank_train.1.ark:9241000
mjpm1_si1897 quick_test/fbank/raw_fbank_train.3.ark:4332310
fjlg0_si2306 quick_test/fbank/raw_fbank_train.1.ark:5279526
mjrg0_sx106 quick_test/fbank/raw_fbank_train.3.ark:4567020
mkaj0_sx334 quick_test/fbank/raw_fbank_train.3.ark:5923130
falk0_sx186 quick_test/fbank/raw_fbank_train.1.ark:252640
maeb0_si2250 quick_test/fbank/raw_fbank_train.2.ark:2323874
fljd0_sx346 quick_test/fbank/raw_fbank_train.1.ark:7781870
fblv0_si2318 quick_test/fbank/raw_fbank_train.1.ark:975582
mdps0_sx89 quick_test/fbank/raw_fbank_train.2.ark:8774296
mclk0_sx400 quick_test/fbank/raw_fbank_train.2.ark:5324102
mrbc0_sx59 quick_test/fbank/raw_fbank_train.4.ark:1146306
mrms0_si1113 quick_test/fbank/raw_fbank_train.4.ark:4103627
mmab1_si2124 quick_test/fbank/raw_fbank_train.3.ark:7977405
mrlj0_sx250 quick_test/fbank/raw_fbank_train.4.ark:3375517
mgjc0_si1965 quick_test/fbank/raw_fbank_train.3.ark:301757
mmsm0_sx26 quick_test/fbank/raw_fbank_train.3.ark:9988037
mtjs0_sx202 quick_test/fbank/raw_fbank_train.4.ark:8347589
mrjb1_sx390 quick_test/fbank/raw_fbank_train.4.ark:2673962
mdpb0_sx146 quick_test/fbank/raw_fbank_train.2.ark:8549875
mfmc0_sx232 quick_test/fbank/raw_fbank_train.2.ark:10533429
fmbg0_sx350 quick_test/fbank/raw_fbank_train.1.ark:8678336
mkah0_sx178 quick_test/fbank/raw_fbank_train.3.ark:5799319
fcrz0_sx253 quick_test/fbank/raw_fbank_train.1.ark:2250894
mrds0_sx447 quick_test/fbank/raw_fbank_train.4.ark:1625840
mcef0_si1135 quick_test/fbank/raw_fbank_train.2.ark:4912995
mtqc0_sx271 quick_test/fbank/raw_fbank_train.4.ark:9662555
mmsm0_sx206 quick_test/fbank/raw_fbank_train.3.ark:9974885
ftmg0_sx92 quick_test/fbank/raw_fbank_train.2.ark:1726095
mdwh0_sx395 quick_test/fbank/raw_fbank_train.2.ark:9444512
msah1_sx419 quick_test/fbank/raw_fbank_train.4.ark:5287464
makr0_sx452 quick_test/fbank/raw_fbank_train.2.ark:2865087
mljh0_sx154 quick_test/fbank/raw_fbank_train.3.ark:7600131
fsjk1_sx215 quick_test/fbank/raw_fbank_train.2.ark:12
ftbr0_sx201 quick_test/fbank/raw_fbank_train.2.ark:1396323
mjjm0_si1457 quick_test/fbank/raw_fbank_train.3.ark:3404532
mmsm0_si1106 quick_test/fbank/raw_fbank_train.3.ark:9919472
mdpb0_sx416 quick_test/fbank/raw_fbank_train.2.ark:8582974
mkag0_sx169 quick_test/fbank/raw_fbank_train.3.ark:5705335
fjlg0_sx449 quick_test/fbank/raw_fbank_train.1.ark:5324898
mjmm0_sx355 quick_test/fbank/raw_fbank_train.3.ark:4115841
mhjb0_si1017 quick_test/fbank/raw_fbank_train.3.ark:1105444
mbjv0_sx347 quick_test/fbank/raw_fbank_train.2.ark:3699879
mcth0_sx309 quick_test/fbank/raw_fbank_train.2.ark:5774081
mbgt0_si711 quick_test/fbank/raw_fbank_train.2.ark:3565715
mjwt0_si1291 quick_test/fbank/raw_fbank_train.3.ark:5353040
medr0_sx24 quick_test/fbank/raw_fbank_train.2.ark:9699282
mcew0_si812 quick_test/fbank/raw_fbank_train.2.ark:5036687
fklh0_sx357 quick_test/fbank/raw_fbank_train.1.ark:6980147
fexm0_sx381 quick_test/fbank/raw_fbank_train.1.ark:4164928
mklw0_sx41 quick_test/fbank/raw_fbank_train.3.ark:7029952
mdns0_si2271 quick_test/fbank/raw_fbank_train.2.ark:8422344
mrds0_sx177 quick_test/fbank/raw_fbank_train.4.ark:1591741
mdns0_sx291 quick_test/fbank/raw_fbank_train.2.ark:8480508
mdbb1_si1006 quick_test/fbank/raw_fbank_train.2.ark:6197597
fskp0_sx108 quick_test/fbank/raw_fbank_train.2.ark:485504
fcmm0_sx183 quick_test/fbank/raw_fbank_train.1.ark:2145236
msdh0_si2240 quick_test/fbank/raw_fbank_train.4.ark:5668386
mjlg1_si1012 quick_test/fbank/raw_fbank_train.3.ark:3678213
mdtb0_sx120 quick_test/fbank/raw_fbank_train.2.ark:9197370
fnkl0_si892 quick_test/fbank/raw_fbank_train.1.ark:9592858
mwad0_si1749 quick_test/fbank/raw_fbank_train.4.ark:10614866
mmxs0_sx66 quick_test/fbank/raw_fbank_train.3.ark:10530827
mfxs0_sx324 quick_test/fbank/raw_fbank_train.2.ark:10826939
fskp0_sx18 quick_test/fbank/raw_fbank_train.2.ark:495976
flmk0_sx405 quick_test/fbank/raw_fbank_train.1.ark:8306948
mhrm0_sx58 quick_test/fbank/raw_fbank_train.3.ark:1458751
fcdr1_sx196 quick_test/fbank/raw_fbank_train.1.ark:1519805
mbom0_sx204 quick_test/fbank/raw_fbank_train.2.ark:4070147
msrr0_sx141 quick_test/fbank/raw_fbank_train.4.ark:6874608
mjdg0_si1042 quick_test/fbank/raw_fbank_train.3.ark:2378207
fpjf0_si1046 quick_test/fbank/raw_fbank_train.1.ark:10299125
fpaz0_si963 quick_test/fbank/raw_fbank_train.1.ark:10221808
mmar0_sx256 quick_test/fbank/raw_fbank_train.3.ark:8340380
mtdp0_sx171 quick_test/fbank/raw_fbank_train.4.ark:7904657
mdlr0_sx243 quick_test/fbank/raw_fbank_train.2.ark:8032982
flag0_si2094 quick_test/fbank/raw_fbank_train.1.ark:7228770
mdpk0_sx243 quick_test/fbank/raw_fbank_train.2.ark:8646093
mjrg0_si1366 quick_test/fbank/raw_fbank_train.3.ark:4529000
fsls0_si1686 quick_test/fbank/raw_fbank_train.2.ark:551303
fjsk0_si2312 quick_test/fbank/raw_fbank_train.1.ark:5706907
fvkb0_sx439 quick_test/fbank/raw_fbank_train.2.ark:1902394
mjrp0_sx225 quick_test/fbank/raw_fbank_train.3.ark:4966354
mntw0_si1068 quick_test/fbank/raw_fbank_train.3.ark:10627364
mpfu0_si628 quick_test/fbank/raw_fbank_train.3.ark:10935707
mejs0_sx340 quick_test/fbank/raw_fbank_train.2.ark:10094539
mjai0_sx344 quick_test/fbank/raw_fbank_train.3.ark:1938487
mcae0_si817 quick_test/fbank/raw_fbank_train.2.ark:4440259
mwch0_sx452 quick_test/fbank/raw_fbank_train.4.ark:10832124
mrjb1_sx30 quick_test/fbank/raw_fbank_train.4.ark:2654816
mter0_sx437 quick_test/fbank/raw_fbank_train.4.ark:8056580
fjlr0_sx421 quick_test/fbank/raw_fbank_train.1.ark:5425963
fear0_sx262 quick_test/fbank/raw_fbank_train.1.ark:3577664
fsgf0_si2187 quick_test/fbank/raw_fbank_train.1.ark:11617444
mgjc0_si1256 quick_test/fbank/raw_fbank_train.3.ark:277169
fsjs0_si1171 quick_test/fbank/raw_fbank_train.2.ark:43184
msat0_sx446 quick_test/fbank/raw_fbank_train.4.ark:5476314
mtpp0_si1508 quick_test/fbank/raw_fbank_train.4.ark:9388892
fjkl0_si932 quick_test/fbank/raw_fbank_train.1.ark:5171300
mpmb0_si871 quick_test/fbank/raw_fbank_train.3.ark:11337607
maeb0_si990 quick_test/fbank/raw_fbank_train.2.ark:2334347
mjpm0_sx198 quick_test/fbank/raw_fbank_train.3.ark:4293010
mtrc0_sx363 quick_test/fbank/raw_fbank_train.4.ark:9792805
fjwb1_si748 quick_test/fbank/raw_fbank_train.1.ark:5886963
mkam0_sx416 quick_test/fbank/raw_fbank_train.3.ark:6033909
faem0_sx42 quick_test/fbank/raw_fbank_train.1.ark:91084
mppc0_si1412 quick_test/fbank/raw_fbank_train.3.ark:11454885
mbcg0_sx327 quick_test/fbank/raw_fbank_train.2.ark:3419204
mrlk0_si1468 quick_test/fbank/raw_fbank_train.4.ark:3501435
fgdp0_si2248 quick_test/fbank/raw_fbank_train.1.ark:4277341
mcss0_sx120 quick_test/fbank/raw_fbank_train.2.ark:5657790
mdss1_sx157 quick_test/fbank/raw_fbank_train.2.ark:9112065
mdac0_sx451 quick_test/fbank/raw_fbank_train.2.ark:6081789
mrcg0_si1428 quick_test/fbank/raw_fbank_train.4.ark:1154820
mrcw0_si741 quick_test/fbank/raw_fbank_train.4.ark:1300672
mram0_sx195 quick_test/fbank/raw_fbank_train.4.ark:937349
fetb0_sx158 quick_test/fbank/raw_fbank_train.1.ark:4001451
mdpb0_sx326 quick_test/fbank/raw_fbank_train.2.ark:8572301
mtrc0_si1623 quick_test/fbank/raw_fbank_train.4.ark:9725647
mtkd0_si1187 quick_test/fbank/raw_fbank_train.4.ark:8491346
msem1_sx450 quick_test/fbank/raw_fbank_train.4.ark:5984242
flmc0_si742 quick_test/fbank/raw_fbank_train.1.ark:8157030
fcmm0_si1957 quick_test/fbank/raw_fbank_train.1.ark:2117530
mjsr0_sx164 quick_test/fbank/raw_fbank_train.3.ark:5063586
mlbc0_sx339 quick_test/fbank/raw_fbank_train.3.ark:7295282
mprb0_sx35 quick_test/fbank/raw_fbank_train.4.ark:141062
flod0_sx207 quick_test/fbank/raw_fbank_train.1.ark:8392020
fmkf0_sx366 quick_test/fbank/raw_fbank_train.1.ark:9306246
mgrp0_si687 quick_test/fbank/raw_fbank_train.3.ark:510687
mstf0_sx46 quick_test/fbank/raw_fbank_train.4.ark:7024442
fljg0_si2241 quick_test/fbank/raw_fbank_train.1.ark:7829443
mmds0_sx443 quick_test/fbank/raw_fbank_train.3.ark:9062901
fgdp0_si1618 quick_test/fbank/raw_fbank_train.1.ark:4267507
fpab1_si841 quick_test/fbank/raw_fbank_train.1.ark:9796187
mrab1_sx218 quick_test/fbank/raw_fbank_train.4.ark:714706
ftbr0_si2181 quick_test/fbank/raw_fbank_train.2.ark:1358984
mchl0_sx177 quick_test/fbank/raw_fbank_train.2.ark:5176586
mwar0_si2305 quick_test/fbank/raw_fbank_train.4.ark:10708166
mcef0_sx55 quick_test/fbank/raw_fbank_train.2.ark:4994386
mkln0_sx158 quick_test/fbank/raw_fbank_train.3.ark:6593878
mdlb0_sx46 quick_test/fbank/raw_fbank_train.2.ark:7492010
mmlm0_sx87 quick_test/fbank/raw_fbank_train.3.ark:9702868
mtmt0_sx218 quick_test/fbank/raw_fbank_train.4.ark:9158190
mtpf0_si605 quick_test/fbank/raw_fbank_train.4.ark:9229469
mjac0_sx251 quick_test/fbank/raw_fbank_train.3.ark:1702131
mfmc0_sx322 quick_test/fbank/raw_fbank_train.2.ark:10548742
fklc0_si985 quick_test/fbank/raw_fbank_train.1.ark:6731277
fdaw0_si2036 quick_test/fbank/raw_fbank_train.1.ark:2532184
mapv0_si1293 quick_test/fbank/raw_fbank_train.2.ark:2884713
mgsl0_sx354 quick_test/fbank/raw_fbank_train.3.ark:767593
mdlc2_si2244 quick_test/fbank/raw_fbank_train.2.ark:7712169
msat1_sx443 quick_test/fbank/raw_fbank_train.4.ark:5568340
mtpg0_si2013 quick_test/fbank/raw_fbank_train.4.ark:9313621
