marc0_si1188 quick_test/data-fmllr-tri3/train/data/feats_fmllr_train.4.ark:2663295
mjdm0_sx80 quick_test/data-fmllr-tri3/train/data/feats_fmllr_train.6.ark:10004662
mtmn0_sx164 quick_test/data-fmllr-tri3/train/data/feats_fmllr_train.10.ark:7856379
mprb0_sx305 quick_test/data-fmllr-tri3/train/data/feats_fmllr_train.8.ark:9233780
mwre0_sx427 quick_test/data-fmllr-tri3/train/data/feats_fmllr_train.10.ark:16316119
flmk0_sx405 quick_test/data-fmllr-tri3/train/data/feats_fmllr_train.2.ark:13496786
megj0_sx3 quick_test/data-fmllr-tri3/train/data/feats_fmllr_train.5.ark:12118076
mkdt0_sx353 quick_test/data-fmllr-tri3/train/data/feats_fmllr_train.7.ark:6578499
mpsw0_sx257 quick_test/data-fmllr-tri3/train/data/feats_fmllr_train.8.ark:10814167
fhxs0_sx265 quick_test/data-fmllr-tri3/train/data/feats_fmllr_train.1.ark:18663231
mfxv0_si1005 quick_test/data-fmllr-tri3/train/data/feats_fmllr_train.5.ark:15867527
mlns0_si1407 quick_test/data-fmllr-tri3/train/data/feats_fmllr_train.7.ark:11832284
mmrp0_sx234 quick_test/data-fmllr-tri3/train/data/feats_fmllr_train.8.ark:2323026
mjmd0_sx128 quick_test/data-fmllr-tri3/train/data/feats_fmllr_train.6.ark:15542052
msat1_sx173 quick_test/data-fmllr-tri3/train/data/feats_fmllr_train.9.ark:12292266
mtat0_sx30 quick_test/data-fmllr-tri3/train/data/feats_fmllr_train.10.ark:1514559
mafm0_sx309 quick_test/data-fmllr-tri3/train/data/feats_fmllr_train.4.ark:940104
mtbc0_si1803 quick_test/data-fmllr-tri3/train/data/feats_fmllr_train.10.ark:2089446
mcdc0_sx302 quick_test/data-fmllr-tri3/train/data/feats_fmllr_train.4.ark:9213517
fsjw0_sx163 quick_test/data-fmllr-tri3/train/data/feats_fmllr_train.3.ark:9756182
mcdd0_sx73 quick_test/data-fmllr-tri3/train/data/feats_fmllr_train.4.ark:9647227
fcrz0_sx253 quick_test/data-fmllr-tri3/train/data/feats_fmllr_train.1.ark:8754174
mkln0_sx248 quick_test/data-fmllr-tri3/train/data/feats_fmllr_train.7.ark:7677363
fjlg0_si2306 quick_test/data-fmllr-tri3/train/data/feats_fmllr_train.2.ark:1714060
mstf0_sx226 quick_test/data-fmllr-tri3/train/data/feats_fmllr_train.9.ark:17948931
mkah0_sx178 quick_test/data-fmllr-tri3/train/data/feats_fmllr_train.7.ark:4554161
mjeb1_sx117 quick_test/data-fmllr-tri3/train/data/feats_fmllr_train.6.ark:10627549
mmea0_sx218 quick_test/data-fmllr-tri3/train/data/feats_fmllr_train.7.ark:17492552
mjdc0_sx171 quick_test/data-fmllr-tri3/train/data/feats_fmllr_train.6.ark:8531104
mjra0_sx66 quick_test/data-fmllr-tri3/train/data/feats_fmllr_train.6.ark:17569164
mdwm0_sx106 quick_test/data-fmllr-tri3/train/data/feats_fmllr_train.5.ark:10549157
fapb0_sx433 quick_test/data-fmllr-tri3/train/data/feats_fmllr_train.1.ark:1928400
fdmy0_sx387 quick_test/data-fmllr-tri3/train/data/feats_fmllr_train.1.ark:12079033
fklc1_sx58 quick_test/data-fmllr-tri3/train/data/feats_fmllr_train.2.ark:8037291
flkm0_sx440 quick_test/data-fmllr-tri3/train/data/feats_fmllr_train.2.ark:12375654
mrab1_si848 quick_test/data-fmllr-tri3/train/data/feats_fmllr_train.8.ark:11411640
mtdp0_si2151 quick_test/data-fmllr-tri3/train/data/feats_fmllr_train.10.ark:3324845
mmpm0_sx161 quick_test/data-fmllr-tri3/train/data/feats_fmllr_train.8.ark:1889983
mrms0_sx120 quick_test/data-fmllr-tri3/train/data/feats_fmllr_train.9.ark:6909225
fvmh0_si1466 quick_test/data-fmllr-tri3/train/data/feats_fmllr_train.3.ark:16493127
fjwb1_sx75 quick_test/data-fmllr-tri3/train/data/feats_fmllr_train.2.ark:4365896
fjhk0_si1022 quick_test/data-fmllr-tri3/train/data/feats_fmllr_train.2.ark:864449
msfv0_si632 quick_test/data-fmllr-tri3/train/data/feats_fmllr_train.9.ark:15078561
mjjb0_si1769 quick_test/data-fmllr-tri3/train/data/feats_fmllr_train.6.ark:12430047
msat1_si1073 quick_test/data-fmllr-tri3/train/data/feats_fmllr_train.9.ark:12156183
msah1_sx329 quick_test/data-fmllr-tri3/train/data/feats_fmllr_train.9.ark:11292788
mrab1_sx128 quick_test/data-fmllr-tri3/train/data/feats_fmllr_train.8.ark:11477267
fleh0_sx241 quick_test/data-fmllr-tri3/train/data/feats_fmllr_train.2.ark:9859897
mfxv0_sx375 quick_test/data-fmllr-tri3/train/data/feats_fmllr_train.5.ark:16183397
mtpf0_si1235 quick_test/data-fmllr-tri3/train/data/feats_fmllr_train.10.ark:8452411
mjdg0_sx322 quick_test/data-fmllr-tri3/train/data/feats_fmllr_train.6.ark:9492392
mrml0_sx71 quick_test/data-fmllr-tri3/train/data/feats_fmllr_train.9.ark:6692474
falk0_sx96 quick_test/data-fmllr-tri3/train/data/feats_fmllr_train.1.ark:1160151
fsjw0_si703 quick_test/data-fmllr-tri3/train/data/feats_fmllr_train.3.ark:9715035
mrld0_sx424 quick_test/data-fmllr-tri3/train/data/feats_fmllr_train.9.ark:3638229
fdml0_sx429 quick_test/data-fmllr-tri3/train/data/feats_fmllr_train.1.ark:11522791
flet0_si1137 quick_test/data-fmllr-tri3/train/data/feats_fmllr_train.2.ark:10052325
fajw0_sx93 quick_test/data-fmllr-tri3/train/data/feats_fmllr_train.1.ark:764097
mclk0_si650 quick_test/data-fmllr-tri3/train/data/feats_fmllr_train.4.ark:11457939
mjlb0_sx446 quick_test/data-fmllr-tri3/train/data/feats_fmllr_train.6.ark:14228303
fmbg0_si1160 quick_test/data-fmllr-tri3/train/data/feats_fmllr_train.2.ark:14706933
mtrr0_si2178 quick_test/data-fmllr-tri3/train/data/feats_fmllr_train.10.ark:10841260
mdss0_sx81 quick_test/data-fmllr-tri3/train/data/feats_fmllr_train.5.ark:8869138
fdxw0_si1511 quick_test/data-fmllr-tri3/train/data/feats_fmllr_train.1.ark:13009417
mrab0_si1224 quick_test/data-fmllr-tri3/train/data/feats_fmllr_train.8.ark:10934728
fjsp0_sx354 quick_test/data-fmllr-tri3/train/data/feats_fmllr_train.2.ark:3894747
maeb0_si1411 quick_test/data-fmllr-tri3/train/data/feats_fmllr_train.4.ark:13
fsjk1_si2285 quick_test/data-fmllr-tri3/train/data/feats_fmllr_train.3.ark:8876014
mjls0_sx286 quick_test/data-fmllr-tri3/train/data/feats_fmllr_train.6.ark:14947617
falk0_si1086 quick_test/data-fmllr-tri3/train/data/feats_fmllr_train.1.ark:814845
mjda0_sx311 quick_test/data-fmllr-tri3/train/data/feats_fmllr_train.6.ark:8217981
mmlm0_si2150 quick_test/data-fmllr-tri3/train/data/feats_fmllr_train.8.ark:1458991
mbml0_sx179 quick_test/data-fmllr-tri3/train/data/feats_fmllr_train.4.ark:6450667
ftbr0_si2181 quick_test/data-fmllr-tri3/train/data/feats_fmllr_train.3.ark:14284653
mbma0_sx412 quick_test/data-fmllr-tri3/train/data/feats_fmllr_train.4.ark:5824234
mpeb0_sx60 quick_test/data-fmllr-tri3/train/data/feats_fmllr_train.8.ark:6365114
fdtd0_si1561 quick_test/data-fmllr-tri3/train/data/feats_fmllr_train.1.ark:12587759
mtkp0_sx213 quick_test/data-fmllr-tri3/train/data/feats_fmllr_train.10.ark:6340337
fsah0_si1244 quick_test/data-fmllr-tri3/train/data/feats_fmllr_train.3.ark:5542089
mefg0_sx105 quick_test/data-fmllr-tri3/train/data/feats_fmllr_train.5.ark:11607567
fklh0_si1887 quick_test/data-fmllr-tri3/train/data/feats_fmllr_train.2.ark:8183107
fapb0_sx343 quick_test/data-fmllr-tri3/train/data/feats_fmllr_train.1.ark:1865653
msrr0_sx231 quick_test/data-fmllr-tri3/train/data/feats_fmllr_train.9.ark:17581676
mdwd0_sx270 quick_test/data-fmllr-tri3/train/data/feats_fmllr_train.5.ark:9770350
fsah0_sx74 quick_test/data-fmllr-tri3/train/data/feats_fmllr_train.3.ark:5914918
fhlm0_si2190 quick_test/data-fmllr-tri3/train/data/feats_fmllr_train.1.ark:17983571
fsls0_sx202 quick_test/data-fmllr-tri3/train/data/feats_fmllr_train.3.ark:11316758
mjhi0_sx158 quick_test/data-fmllr-tri3/train/data/feats_fmllr_train.6.ark:12114816
fcke0_sx121 quick_test/data-fmllr-tri3/train/data/feats_fmllr_train.1.ark:7224478
mrtj0_si772 quick_test/data-fmllr-tri3/train/data/feats_fmllr_train.9.ark:9271301
mgaw0_sx265 quick_test/data-fmllr-tri3/train/data/feats_fmllr_train.6.ark:605940
fapb0_si2323 quick_test/data-fmllr-tri3/train/data/feats_fmllr_train.1.ark:1679812
mjrh0_si1840 quick_test/data-fmllr-tri3/train/data/feats_fmllr_train.7.ark:89029
fjsk0_sx422 quick_test/data-fmllr-tri3/train/data/feats_fmllr_train.2.ark:3558237
mrcw0_sx381 quick_test/data-fmllr-tri3/train/data/feats_fmllr_train.8.ark:14010998
mges0_sx41 quick_test/data-fmllr-tri3/train/data/feats_fmllr_train.6.ark:1024797
mram0_sx105 quick_test/data-fmllr-tri3/train/data/feats_fmllr_train.8.ark:12294982
fmkf0_si1536 quick_test/data-fmllr-tri3/train/data/feats_fmllr_train.2.ark:17201702
feme0_sx65 quick_test/data-fmllr-tri3/train/data/feats_fmllr_train.1.ark:15377251
fspm0_sx161 quick_test/data-fmllr-tri3/train/data/feats_fmllr_train.3.ark:12860799
fsdc0_sx52 quick_test/data-fmllr-tri3/train/data/feats_fmllr_train.3.ark:7531627
fscn0_sx86 quick_test/data-fmllr-tri3/train/data/feats_fmllr_train.3.ark:7182129
mjrh0_sx135 quick_test/data-fmllr-tri3/train/data/feats_fmllr_train.7.ark:164736
mcth0_sx309 quick_test/data-fmllr-tri3/train/data/feats_fmllr_train.4.ark:13472704
maeb0_sx450 quick_test/data-fmllr-tri3/train/data/feats_fmllr_train.4.ark:288656
mgaw0_si1802 quick_test/data-fmllr-tri3/train/data/feats_fmllr_train.6.ark:456579
mmgc0_si1305 quick_test/data-fmllr-tri3/train/data/feats_fmllr_train.8.ark:13
mpar0_sx46 quick_test/data-fmllr-tri3/train/data/feats_fmllr_train.8.ark:6038177
fgcs0_sx46 quick_test/data-fmllr-tri3/train/data/feats_fmllr_train.1.ark:16572143
mmcc0_sx168 quick_test/data-fmllr-tri3/train/data/feats_fmllr_train.7.ark:15258263
mbwp0_si1531 quick_test/data-fmllr-tri3/train/data/feats_fmllr_train.4.ark:7708092
mrfk0_si1706 quick_test/data-fmllr-tri3/train/data/feats_fmllr_train.8.ark:16782494
mkrg0_si861 quick_test/data-fmllr-tri3/train/data/feats_fmllr_train.7.ark:9513917
mdbb1_sx376 quick_test/data-fmllr-tri3/train/data/feats_fmllr_train.4.ark:15428720
mjmd0_sx398 quick_test/data-fmllr-tri3/train/data/feats_fmllr_train.6.ark:15705839
fklc0_sx445 quick_test/data-fmllr-tri3/train/data/feats_fmllr_train.2.ark:7620887
mrtj0_sx322 quick_test/data-fmllr-tri3/train/data/feats_fmllr_train.9.ark:9504342
fmbg0_sx3 quick_test/data-fmllr-tri3/train/data/feats_fmllr_train.2.ark:14909761
fdfb0_sx418 quick_test/data-fmllr-tri3/train/data/feats_fmllr_train.1.ark:10376538
fpaf0_si1684 quick_test/data-fmllr-tri3/train/data/feats_fmllr_train.3.ark:2116645
mtjm0_si1226 quick_test/data-fmllr-tri3/train/data/feats_fmllr_train.10.ark:4469440
fdml0_sx159 quick_test/data-fmllr-tri3/train/data/feats_fmllr_train.1.ark:11404790
msem1_sx450 quick_test/data-fmllr-tri3/train/data/feats_fmllr_train.9.ark:14056257
mdlr0_sx333 quick_test/data-fmllr-tri3/train/data/feats_fmllr_train.5.ark:4893634
fdnc0_sx378 quick_test/data-fmllr-tri3/train/data/feats_fmllr_train.1.ark:12532691
msms0_si2063 quick_test/data-fmllr-tri3/train/data/feats_fmllr_train.9.ark:16668681
flma0_si1243 quick_test/data-fmllr-tri3/train/data/feats_fmllr_train.2.ark:12481788
mjrh0_si1125 quick_test/data-fmllr-tri3/train/data/feats_fmllr_train.7.ark:13
mtpg0_sx33 quick_test/data-fmllr-tri3/train/data/feats_fmllr_train.10.ark:9082390
mrab1_si1478 quick_test/data-fmllr-tri3/train/data/feats_fmllr_train.8.ark:11321025
mjda0_si2291 quick_test/data-fmllr-tri3/train/data/feats_fmllr_train.6.ark:8096300
mgag0_sx61 quick_test/data-fmllr-tri3/train/data/feats_fmllr_train.5.ark:16879670
fmpg0_sx342 quick_test/data-fmllr-tri3/train/data/feats_fmllr_train.2.ark:18230720
mmam0_sx337 quick_test/data-fmllr-tri3/train/data/feats_fmllr_train.7.ark:14060866
msdb0_si1637 quick_test/data-fmllr-tri3/train/data/feats_fmllr_train.9.ark:12586189
mdps0_si1979 quick_test/data-fmllr-tri3/train/data/feats_fmllr_train.5.ark:7443846
fcrz0_si793 quick_test/data-fmllr-tri3/train/data/feats_fmllr_train.1.ark:8665800
mtdb0_si1401 quick_test/data-fmllr-tri3/train/data/feats_fmllr_train.10.ark:2828092
fsgf0_si927 quick_test/data-fmllr-tri3/train/data/feats_fmllr_train.3.ark:8023607
fpmy0_sx343 quick_test/data-fmllr-tri3/train/data/feats_fmllr_train.3.ark:3903567
fjrb0_sx402 quick_test/data-fmllr-tri3/train/data/feats_fmllr_train.2.ark:2655562
msmr0_sx415 quick_test/data-fmllr-tri3/train/data/feats_fmllr_train.9.ark:16516919
mlsh0_si1417 quick_test/data-fmllr-tri3/train/data/feats_fmllr_train.7.ark:12180661
makb0_sx386 quick_test/data-fmllr-tri3/train/data/feats_fmllr_train.4.ark:1917073
fsjs0_sx91 quick_test/data-fmllr-tri3/train/data/feats_fmllr_train.3.ark:9537672
mtmt0_si1118 quick_test/data-fmllr-tri3/train/data/feats_fmllr_train.10.ark:8068354
mvjh0_sx206 quick_test/data-fmllr-tri3/train/data/feats_fmllr_train.10.ark:12546210
fhxs0_si2302 quick_test/data-fmllr-tri3/train/data/feats_fmllr_train.1.ark:18430189
fsjk1_si696 quick_test/data-fmllr-tri3/train/data/feats_fmllr_train.3.ark:8907561
mjws0_sx153 quick_test/data-fmllr-tri3/train/data/feats_fmllr_train.7.ark:2531797
fdtd0_sx321 quick_test/data-fmllr-tri3/train/data/feats_fmllr_train.1.ark:12894642
fsjw0_sx253 quick_test/data-fmllr-tri3/train/data/feats_fmllr_train.3.ark:9799569
fsms1_si874 quick_test/data-fmllr-tri3/train/data/feats_fmllr_train.3.ark:12404075
mrfk0_sx356 quick_test/data-fmllr-tri3/train/data/feats_fmllr_train.8.ark:16930923
fdkn0_si1711 quick_test/data-fmllr-tri3/train/data/feats_fmllr_train.1.ark:10964385
mjmm0_sx265 quick_test/data-fmllr-tri3/train/data/feats_fmllr_train.6.ark:15956216
mprd0_si2061 quick_test/data-fmllr-tri3/train/data/feats_fmllr_train.8.ark:9443649
mtat0_sx210 quick_test/data-fmllr-tri3/train/data/feats_fmllr_train.10.ark:1480133
mmdm0_sx411 quick_test/data-fmllr-tri3/train/data/feats_fmllr_train.7.ark:16521715
mbsb0_sx363 quick_test/data-fmllr-tri3/train/data/feats_fmllr_train.4.ark:7229582
mmab1_sx324 quick_test/data-fmllr-tri3/train/data/feats_fmllr_train.7.ark:13236271
mjpm0_sx198 quick_test/data-fmllr-tri3/train/data/feats_fmllr_train.6.ark:16688516
mwac0_si971 quick_test/data-fmllr-tri3/train/data/feats_fmllr_train.10.ark:13532087
mhbs0_sx405 quick_test/data-fmllr-tri3/train/data/feats_fmllr_train.6.ark:3837325
fsjw0_sx73 quick_test/data-fmllr-tri3/train/data/feats_fmllr_train.3.ark:9944449
mtqc0_sx361 quick_test/data-fmllr-tri3/train/data/feats_fmllr_train.10.ark:10276775
mrvg0_si510 quick_test/data-fmllr-tri3/train/data/feats_fmllr_train.9.ark:9743358
mjws0_sx243 quick_test/data-fmllr-tri3/train/data/feats_fmllr_train.7.ark:2592944
fsmm0_sx144 quick_test/data-fmllr-tri3/train/data/feats_fmllr_train.3.ark:12030125
mgrp0_sx147 quick_test/data-fmllr-tri3/train/data/feats_fmllr_train.6.ark:2037022
mjra0_si1866 quick_test/data-fmllr-tri3/train/data/feats_fmllr_train.6.ark:17268363
mjjm0_sx107 quick_test/data-fmllr-tri3/train/data/feats_fmllr_train.6.ark:13349068
fkkh0_sx30 quick_test/data-fmllr-tri3/train/data/feats_fmllr_train.2.ark:7181762
fetb0_si1148 quick_test/data-fmllr-tri3/train/data/feats_fmllr_train.1.ark:15416959
mmcc0_sx258 quick_test/data-fmllr-tri3/train/data/feats_fmllr_train.7.ark:15285330
mmvp0_sx204 quick_test/data-fmllr-tri3/train/data/feats_fmllr_train.8.ark:3217380
fbjl0_sx22 quick_test/data-fmllr-tri3/train/data/feats_fmllr_train.1.ark:3509560
mkxl0_sx15 quick_test/data-fmllr-tri3/train/data/feats_fmllr_train.7.ark:9968427
mntw0_sx348 quick_test/data-fmllr-tri3/train/data/feats_fmllr_train.8.ark:5640334
fecd0_si788 quick_test/data-fmllr-tri3/train/data/feats_fmllr_train.1.ark:14266443
mmeb0_sx187 quick_test/data-fmllr-tri3/train/data/feats_fmllr_train.7.ark:17784422
mrjb1_sx300 quick_test/data-fmllr-tri3/train/data/feats_fmllr_train.9.ark:1138848
fgrw0_sx342 quick_test/data-fmllr-tri3/train/data/feats_fmllr_train.1.ark:17799302
mjfh0_sx207 quick_test/data-fmllr-tri3/train/data/feats_fmllr_train.6.ark:11393930
mjee0_sx157 quick_test/data-fmllr-tri3/train/data/feats_fmllr_train.6.ark:10964406
fkaa0_sx128 quick_test/data-fmllr-tri3/train/data/feats_fmllr_train.2.ark:5349480
mtrt0_si1227 quick_test/data-fmllr-tri3/train/data/feats_fmllr_train.10.ark:11187849
fdfb0_si2010 quick_test/data-fmllr-tri3/train/data/feats_fmllr_train.1.ark:10230990
mctm0_si1980 quick_test/data-fmllr-tri3/train/data/feats_fmllr_train.4.ark:13676013
fmjb0_sx97 quick_test/data-fmllr-tri3/train/data/feats_fmllr_train.2.ark:15881314
mrcg0_si2058 quick_test/data-fmllr-tri3/train/data/feats_fmllr_train.8.ark:13305180
fmbg0_si1790 quick_test/data-fmllr-tri3/train/data/feats_fmllr_train.2.ark:14791121
fhlm0_sx300 quick_test/data-fmllr-tri3/train/data/feats_fmllr_train.1.ark:18191039
mdns0_sx291 quick_test/data-fmllr-tri3/train/data/feats_fmllr_train.5.ark:6586529
fapb0_sx73 quick_test/data-fmllr-tri3/train/data/feats_fmllr_train.1.ark:1997226
mrre0_sx344 quick_test/data-fmllr-tri3/train/data/feats_fmllr_train.9.ark:7734193
mjrg0_sx106 quick_test/data-fmllr-tri3/train/data/feats_fmllr_train.6.ark:17754074
mwac0_sx431 quick_test/data-fmllr-tri3/train/data/feats_fmllr_train.10.ark:13770915
fjkl0_si1562 quick_test/data-fmllr-tri3/train/data/feats_fmllr_train.2.ark:1247867
fajw0_si1893 quick_test/data-fmllr-tri3/train/data/feats_fmllr_train.1.ark:469858
mkls0_si1437 quick_test/data-fmllr-tri3/train/data/feats_fmllr_train.7.ark:8197209
mrwa0_si1603 quick_test/data-fmllr-tri3/train/data/feats_fmllr_train.9.ark:10002560
fsjw0_sx343 quick_test/data-fmllr-tri3/train/data/feats_fmllr_train.3.ark:9834796
mmws1_sx261 quick_test/data-fmllr-tri3/train/data/feats_fmllr_train.8.ark:4438965
mmab1_si864 quick_test/data-fmllr-tri3/train/data/feats_fmllr_train.7.ark:13064030
mdks0_sx346 quick_test/data-fmllr-tri3/train/data/feats_fmllr_train.5.ark:2156915
fsah0_si1874 quick_test/data-fmllr-tri3/train/data/feats_fmllr_train.3.ark:5598437
fsmm0_si1314 quick_test/data-fmllr-tri3/train/data/feats_fmllr_train.3.ark:11896283
msfv0_si1262 quick_test/data-fmllr-tri3/train/data/feats_fmllr_train.9.ark:14979466
mjls0_sx16 quick_test/data-fmllr-tri3/train/data/feats_fmllr_train.6.ark:14880843
mrds0_sx177 quick_test/data-fmllr-tri3/train/data/feats_fmllr_train.8.ark:14927543
mjmd0_sx308 quick_test/data-fmllr-tri3/train/data/feats_fmllr_train.6.ark:15619386
mmvp0_si1284 quick_test/data-fmllr-tri3/train/data/feats_fmllr_train.8.ark:2969111
mrpc1_sx402 quick_test/data-fmllr-tri3/train/data/feats_fmllr_train.9.ark:7345684
mvlo0_si1777 quick_test/data-fmllr-tri3/train/data/feats_fmllr_train.10.ark:12749866
fcjs0_sx167 quick_test/data-fmllr-tri3/train/data/feats_fmllr_train.1.ark:6799621
mdcd0_si1415 quick_test/data-fmllr-tri3/train/data/feats_fmllr_train.4.ark:15888805
mgsh0_si1176 quick_test/data-fmllr-tri3/train/data/feats_fmllr_train.6.ark:2305957
mpmb0_si1501 quick_test/data-fmllr-tri3/train/data/feats_fmllr_train.8.ark:7881690
flac0_si1339 quick_test/data-fmllr-tri3/train/data/feats_fmllr_train.2.ark:8862233
mgaw0_sx175 quick_test/data-fmllr-tri3/train/data/feats_fmllr_train.6.ark:549753
mpgr0_si780 quick_test/data-fmllr-tri3/train/data/feats_fmllr_train.8.ark:7244190
mjjj0_sx443 quick_test/data-fmllr-tri3/train/data/feats_fmllr_train.6.ark:13077412
mmpm0_si1691 quick_test/data-fmllr-tri3/train/data/feats_fmllr_train.8.ark:1803688
mhjb0_si1017 quick_test/data-fmllr-tri3/train/data/feats_fmllr_train.6.ark:4299836
mrvg0_si1140 quick_test/data-fmllr-tri3/train/data/feats_fmllr_train.9.ark:9665703
feac0_sx75 quick_test/data-fmllr-tri3/train/data/feats_fmllr_train.1.ark:13703743
ftbr0_sx381 quick_test/data-fmllr-tri3/train/data/feats_fmllr_train.3.ark:14551054
fnkl0_si892 quick_test/data-fmllr-tri3/train/data/feats_fmllr_train.3.ark:81348
fljd0_sx76 quick_test/data-fmllr-tri3/train/data/feats_fmllr_train.2.ark:11535247
fkkh0_sx390 quick_test/data-fmllr-tri3/train/data/feats_fmllr_train.2.ark:7254456
mkrg0_sx51 quick_test/data-fmllr-tri3/train/data/feats_fmllr_train.7.ark:9718370
falr0_sx155 quick_test/data-fmllr-tri3/train/data/feats_fmllr_train.1.ark:1348261
mtdb0_sx411 quick_test/data-fmllr-tri3/train/data/feats_fmllr_train.10.ark:3126815
mgak0_si1666 quick_test/data-fmllr-tri3/train/data/feats_fmllr_train.5.ark:16995726
fsah0_si614 quick_test/data-fmllr-tri3/train/data/feats_fmllr_train.3.ark:5639584
mrab1_sx398 quick_test/data-fmllr-tri3/train/data/feats_fmllr_train.8.ark:11665214
fpaz0_sx27 quick_test/data-fmllr-tri3/train/data/feats_fmllr_train.3.ark:2699850
fpac0_sx121 quick_test/data-fmllr-tri3/train/data/feats_fmllr_train.3.ark:1377865
mdac0_si1837 quick_test/data-fmllr-tri3/train/data/feats_fmllr_train.4.ark:14408767
fjxm0_sx131 quick_test/data-fmllr-tri3/train/data/feats_fmllr_train.2.ark:4539286
fskl0_sx449 quick_test/data-fmllr-tri3/train/data/feats_fmllr_train.3.ark:10639417
mbma0_sx322 quick_test/data-fmllr-tri3/train/data/feats_fmllr_train.4.ark:5782927
fsma0_sx271 quick_test/data-fmllr-tri3/train/data/feats_fmllr_train.3.ark:11689775
fceg0_sx438 quick_test/data-fmllr-tri3/train/data/feats_fmllr_train.1.ark:6311908
mgrp0_si1947 quick_test/data-fmllr-tri3/train/data/feats_fmllr_train.6.ark:1944808
mrgs0_si1356 quick_test/data-fmllr-tri3/train/data/feats_fmllr_train.9.ark:13
fmjf0_si624 quick_test/data-fmllr-tri3/train/data/feats_fmllr_train.2.ark:15988277
mejl0_sx422 quick_test/data-fmllr-tri3/train/data/feats_fmllr_train.5.ark:12507120
mtrc0_sx170 quick_test/data-fmllr-tri3/train/data/feats_fmllr_train.10.ark:10604777
fpab1_sx31 quick_test/data-fmllr-tri3/train/data/feats_fmllr_train.3.ark:1115968
msrr0_sx141 quick_test/data-fmllr-tri3/train/data/feats_fmllr_train.9.ark:17522129
flag0_si834 quick_test/data-fmllr-tri3/train/data/feats_fmllr_train.2.ark:9335145
msdh0_sx170 quick_test/data-fmllr-tri3/train/data/feats_fmllr_train.9.ark:12916221
mtat0_si1740 quick_test/data-fmllr-tri3/train/data/feats_fmllr_train.10.ark:1314132
fsdc0_si1942 quick_test/data-fmllr-tri3/train/data/feats_fmllr_train.3.ark:7291145
mclm0_sx196 quick_test/data-fmllr-tri3/train/data/feats_fmllr_train.4.ark:11983036
mdlc1_si2144 quick_test/data-fmllr-tri3/train/data/feats_fmllr_train.5.ark:3334126
mwsb0_sx96 quick_test/data-fmllr-tri3/train/data/feats_fmllr_train.10.ark:17095456
mafm0_sx399 quick_test/data-fmllr-tri3/train/data/feats_fmllr_train.4.ark:1026077
mtab0_sx132 quick_test/data-fmllr-tri3/train/data/feats_fmllr_train.10.ark:666392
mprt0_sx40 quick_test/data-fmllr-tri3/train/data/feats_fmllr_train.8.ark:10545016
msmr0_sx325 quick_test/data-fmllr-tri3/train/data/feats_fmllr_train.9.ark:16480092
mdss1_sx337 quick_test/data-fmllr-tri3/train/data/feats_fmllr_train.5.ark:9129302
msmc0_sx287 quick_test/data-fmllr-tri3/train/data/feats_fmllr_train.9.ark:16123741
mbwp0_sx349 quick_test/data-fmllr-tri3/train/data/feats_fmllr_train.4.ark:7933028
mjkr0_sx121 quick_test/data-fmllr-tri3/train/data/feats_fmllr_train.6.ark:13724645
falr0_si1325 quick_test/data-fmllr-tri3/train/data/feats_fmllr_train.1.ark:1210419
mcdc0_sx212 quick_test/data-fmllr-tri3/train/data/feats_fmllr_train.4.ark:9161010
mtlb0_si1764 quick_test/data-fmllr-tri3/train/data/feats_fmllr_train.10.ark:6569273
mhit0_sx443 quick_test/data-fmllr-tri3/train/data/feats_fmllr_train.6.ark:4213222
mdlh0_si1960 quick_test/data-fmllr-tri3/train/data/feats_fmllr_train.5.ark:3906505
mklr0_si1059 quick_test/data-fmllr-tri3/train/data/feats_fmllr_train.7.ark:7862271
mjsr0_si794 quick_test/data-fmllr-tri3/train/data/feats_fmllr_train.7.ark:1606217
fsjs0_si1171 quick_test/data-fmllr-tri3/train/data/feats_fmllr_train.3.ark:9166923
fskc0_sx426 quick_test/data-fmllr-tri3/train/data/feats_fmllr_train.3.ark:10260800
flja0_sx358 quick_test/data-fmllr-tri3/train/data/feats_fmllr_train.2.ark:11051777
mrws0_sx22 quick_test/data-fmllr-tri3/train/data/feats_fmllr_train.9.ark:10577472
mjjj0_sx83 quick_test/data-fmllr-tri3/train/data/feats_fmllr_train.6.ark:13121278
mbef0_sx381 quick_test/data-fmllr-tri3/train/data/feats_fmllr_train.4.ark:4754169
mrds0_si537 quick_test/data-fmllr-tri3/train/data/feats_fmllr_train.8.ark:14869436
mrld0_sx244 quick_test/data-fmllr-tri3/train/data/feats_fmllr_train.9.ark:3565215
mcdr0_sx344 quick_test/data-fmllr-tri3/train/data/feats_fmllr_train.4.ark:10000991
mmdg0_sx430 quick_test/data-fmllr-tri3/train/data/feats_fmllr_train.7.ark:16153658
mjdc0_sx441 quick_test/data-fmllr-tri3/train/data/feats_fmllr_train.6.ark:8660145
fkde0_si1141 quick_test/data-fmllr-tri3/train/data/feats_fmllr_train.2.ark:5621455
mrhl0_sx345 quick_test/data-fmllr-tri3/train/data/feats_fmllr_train.9.ark:652204
mtcs0_si2265 quick_test/data-fmllr-tri3/train/data/feats_fmllr_train.10.ark:2471903
mhmr0_sx309 quick_test/data-fmllr-tri3/train/data/feats_fmllr_train.6.ark:5229047
msms0_si1433 quick_test/data-fmllr-tri3/train/data/feats_fmllr_train.9.ark:16600333
fbmh0_si970 quick_test/data-fmllr-tri3/train/data/feats_fmllr_train.1.ark:4190875
mtjg0_sx80 quick_test/data-fmllr-tri3/train/data/feats_fmllr_train.10.ark:4438052
fbjl0_sx382 quick_test/data-fmllr-tri3/train/data/feats_fmllr_train.1.ark:3614254
mmrp0_si774 quick_test/data-fmllr-tri3/train/data/feats_fmllr_train.8.ark:2216732
mpeb0_si1034 quick_test/data-fmllr-tri3/train/data/feats_fmllr_train.8.ark:6068285
mrlj1_si1671 quick_test/data-fmllr-tri3/train/data/feats_fmllr_train.9.ark:4063460
mmab1_si1494 quick_test/data-fmllr-tri3/train/data/feats_fmllr_train.7.ark:13001095
mmwb0_sx449 quick_test/data-fmllr-tri3/train/data/feats_fmllr_train.8.ark:3816372
mwre0_si1687 quick_test/data-fmllr-tri3/train/data/feats_fmllr_train.10.ark:16092143
mtpf0_si1865 quick_test/data-fmllr-tri3/train/data/feats_fmllr_train.10.ark:8504759
mdma0_si1430 quick_test/data-fmllr-tri3/train/data/feats_fmllr_train.5.ark:5503720
mree0_sx384 quick_test/data-fmllr-tri3/train/data/feats_fmllr_train.8.ark:15484188
mdhs0_si900 quick_test/data-fmllr-tri3/train/data/feats_fmllr_train.5.ark:1286959
mmvp0_si654 quick_test/data-fmllr-tri3/train/data/feats_fmllr_train.8.ark:3060686
flma0_sx253 quick_test/data-fmllr-tri3/train/data/feats_fmllr_train.2.ark:12657257
fjen0_sx327 quick_test/data-fmllr-tri3/train/data/feats_fmllr_train.2.ark:664208
mjpm1_sx221 quick_test/data-fmllr-tri3/train/data/feats_fmllr_train.6.ark:16992227
mjsr0_sx434 quick_test/data-fmllr-tri3/train/data/feats_fmllr_train.7.ark:1841205
mewm0_sx178 quick_test/data-fmllr-tri3/train/data/feats_fmllr_train.5.ark:13798785
mjdg0_si1705 quick_test/data-fmllr-tri3/train/data/feats_fmllr_train.6.ark:9352791
fblv0_si1688 quick_test/data-fmllr-tri3/train/data/feats_fmllr_train.1.ark:3716870
mrjh0_sx169 quick_test/data-fmllr-tri3/train/data/feats_fmllr_train.9.ark:1422664
freh0_si1945 quick_test/data-fmllr-tri3/train/data/feats_fmllr_train.3.ark:4065889
fdnc0_sx198 quick_test/data-fmllr-tri3/train/data/feats_fmllr_train.1.ark:12430877
mdwm0_si1546 quick_test/data-fmllr-tri3/train/data/feats_fmllr_train.5.ark:10394195
msrg0_sx141 quick_test/data-fmllr-tri3/train/data/feats_fmllr_train.9.ark:17134712
mmdb0_sx357 quick_test/data-fmllr-tri3/train/data/feats_fmllr_train.7.ark:15705254
mdbb1_sx286 quick_test/data-fmllr-tri3/train/data/feats_fmllr_train.4.ark:15369013
mgaf0_sx112 quick_test/data-fmllr-tri3/train/data/feats_fmllr_train.5.ark:16393107
mcal0_sx418 quick_test/data-fmllr-tri3/train/data/feats_fmllr_train.4.ark:8864367
mgrl0_sx237 quick_test/data-fmllr-tri3/train/data/feats_fmllr_train.6.ark:1689792
mkjo0_sx167 quick_test/data-fmllr-tri3/train/data/feats_fmllr_train.7.ark:7272159
fdxw0_sx161 quick_test/data-fmllr-tri3/train/data/feats_fmllr_train.1.ark:13123579
mkam0_sx326 quick_test/data-fmllr-tri3/train/data/feats_fmllr_train.7.ark:5416570
mmea0_sx128 quick_test/data-fmllr-tri3/train/data/feats_fmllr_train.7.ark:17457805
mpar0_sx226 quick_test/data-fmllr-tri3/train/data/feats_fmllr_train.8.ark:5915217
mtqc0_si2071 quick_test/data-fmllr-tri3/train/data/feats_fmllr_train.10.ark:10067867
ftbw0_sx445 quick_test/data-fmllr-tri3/train/data/feats_fmllr_train.3.ark:14894125
mkjo0_si887 quick_test/data-fmllr-tri3/train/data/feats_fmllr_train.7.ark:7230052
fsbk0_si1699 quick_test/data-fmllr-tri3/train/data/feats_fmllr_train.3.ark:6395191
mgrl0_sx147 quick_test/data-fmllr-tri3/train/data/feats_fmllr_train.6.ark:1649925
mmdm1_si1650 quick_test/data-fmllr-tri3/train/data/feats_fmllr_train.7.ark:16622089
mkln0_si1598 quick_test/data-fmllr-tri3/train/data/feats_fmllr_train.7.ark:7492614
mbma1_si2214 quick_test/data-fmllr-tri3/train/data/feats_fmllr_train.4.ark:5947996
mjdm0_si1937 quick_test/data-fmllr-tri3/train/data/feats_fmllr_train.6.ark:9702581
mjde0_si463 quick_test/data-fmllr-tri3/train/data/feats_fmllr_train.6.ark:8827426
fcag0_sx423 quick_test/data-fmllr-tri3/train/data/feats_fmllr_train.1.ark:5146457
mrwa0_si2233 quick_test/data-fmllr-tri3/train/data/feats_fmllr_train.9.ark:10040668
marc0_si558 quick_test/data-fmllr-tri3/train/data/feats_fmllr_train.4.ark:2720630
mrxb0_sx325 quick_test/data-fmllr-tri3/train/data/feats_fmllr_train.9.ark:10968410
fspm0_sx71 quick_test/data-fmllr-tri3/train/data/feats_fmllr_train.3.ark:13084586
makb0_sx26 quick_test/data-fmllr-tri3/train/data/feats_fmllr_train.4.ark:1835579
mwgr0_sx256 quick_test/data-fmllr-tri3/train/data/feats_fmllr_train.10.ark:15854887
fcke0_si481 quick_test/data-fmllr-tri3/train/data/feats_fmllr_train.1.ark:7149091
mgaf0_si1912 quick_test/data-fmllr-tri3/train/data/feats_fmllr_train.5.ark:16299453
mmwb0_sx269 quick_test/data-fmllr-tri3/train/data/feats_fmllr_train.8.ark:3694078
mtjm0_si655 quick_test/data-fmllr-tri3/train/data/feats_fmllr_train.10.ark:4585975
mcth0_si579 quick_test/data-fmllr-tri3/train/data/feats_fmllr_train.4.ark:13323183
mprk0_si467 quick_test/data-fmllr-tri3/train/data/feats_fmllr_train.8.ark:9955413
mgxp0_sx7 quick_test/data-fmllr-tri3/train/data/feats_fmllr_train.6.ark:3475828
mrjh0_si889 quick_test/data-fmllr-tri3/train/data/feats_fmllr_train.9.ark:1312850
mmpm0_sx71 quick_test/data-fmllr-tri3/train/data/feats_fmllr_train.8.ark:2112810
mjai0_sx344 quick_test/data-fmllr-tri3/train/data/feats_fmllr_train.6.ark:7536425
fbmh0_si1766 quick_test/data-fmllr-tri3/train/data/feats_fmllr_train.1.ark:4153888
fblv0_sx428 quick_test/data-fmllr-tri3/train/data/feats_fmllr_train.1.ark:3985486
mrjh0_sx79 quick_test/data-fmllr-tri3/train/data/feats_fmllr_train.9.ark:1642131
mtpg0_si753 quick_test/data-fmllr-tri3/train/data/feats_fmllr_train.10.ark:8900363
mtpr0_sx250 quick_test/data-fmllr-tri3/train/data/feats_fmllr_train.10.ark:9746771
fvkb0_sx349 quick_test/data-fmllr-tri3/train/data/feats_fmllr_train.3.ark:16318486
mwem0_sx150 quick_test/data-fmllr-tri3/train/data/feats_fmllr_train.10.ark:15372243
fsmm0_sx414 quick_test/data-fmllr-tri3/train/data/feats_fmllr_train.3.ark:12202046
mhbs0_si1575 quick_test/data-fmllr-tri3/train/data/feats_fmllr_train.6.ark:3565802
mtrc0_si1623 quick_test/data-fmllr-tri3/train/data/feats_fmllr_train.10.ark:10473976
mjfh0_si1737 quick_test/data-fmllr-tri3/train/data/feats_fmllr_train.6.ark:11256729
mprt0_si495 quick_test/data-fmllr-tri3/train/data/feats_fmllr_train.8.ark:10347602
msfh0_si586 quick_test/data-fmllr-tri3/train/data/feats_fmllr_train.9.ark:14648584
fksr0_si1747 quick_test/data-fmllr-tri3/train/data/feats_fmllr_train.2.ark:8525724
fsms1_si1504 quick_test/data-fmllr-tri3/train/data/feats_fmllr_train.3.ark:12312180
mjra0_sx336 quick_test/data-fmllr-tri3/train/data/feats_fmllr_train.6.ark:17450231
fdxw0_sx431 quick_test/data-fmllr-tri3/train/data/feats_fmllr_train.1.ark:13265740
fbch0_sx236 quick_test/data-fmllr-tri3/train/data/feats_fmllr_train.1.ark:3076677
msms0_sx83 quick_test/data-fmllr-tri3/train/data/feats_fmllr_train.9.ark:16944042
mrml0_si1421 quick_test/data-fmllr-tri3/train/data/feats_fmllr_train.9.ark:6248925
mjmm0_si1885 quick_test/data-fmllr-tri3/train/data/feats_fmllr_train.6.ark:15820295
mpsw0_si1067 quick_test/data-fmllr-tri3/train/data/feats_fmllr_train.8.ark:10629231
mmgg0_sx269 quick_test/data-fmllr-tri3/train/data/feats_fmllr_train.8.ark:546261
mmgc0_sx45 quick_test/data-fmllr-tri3/train/data/feats_fmllr_train.8.ark:313163
feeh0_sx392 quick_test/data-fmllr-tri3/train/data/feats_fmllr_train.1.ark:14942474
mgxp0_sx367 quick_test/data-fmllr-tri3/train/data/feats_fmllr_train.6.ark:3421083
fetb0_sx428 quick_test/data-fmllr-tri3/train/data/feats_fmllr_train.1.ark:15697602
mhrm0_si2218 quick_test/data-fmllr-tri3/train/data/feats_fmllr_train.6.ark:5385156
fcmg0_sx342 quick_test/data-fmllr-tri3/train/data/feats_fmllr_train.1.ark:8036967
mhit0_si2243 quick_test/data-fmllr-tri3/train/data/feats_fmllr_train.6.ark:3961087
mrkm0_sx97 quick_test/data-fmllr-tri3/train/data/feats_fmllr_train.9.ark:3340918
mjpm1_sx41 quick_test/data-fmllr-tri3/train/data/feats_fmllr_train.6.ark:17164307
fmjb0_sx277 quick_test/data-fmllr-tri3/train/data/feats_fmllr_train.2.ark:15742836
mjls0_si1096 quick_test/data-fmllr-tri3/train/data/feats_fmllr_train.6.ark:14655615
fexm0_sx366 quick_test/data-fmllr-tri3/train/data/feats_fmllr_train.1.ark:16135579
mprd0_sx441 quick_test/data-fmllr-tri3/train/data/feats_fmllr_train.8.ark:9730504
mcxm0_sx271 quick_test/data-fmllr-tri3/train/data/feats_fmllr_train.4.ark:14189911
fpaf0_sx424 quick_test/data-fmllr-tri3/train/data/feats_fmllr_train.3.ark:2336941
mtml0_sx345 quick_test/data-fmllr-tri3/train/data/feats_fmllr_train.10.ark:7490136
fcjs0_si977 quick_test/data-fmllr-tri3/train/data/feats_fmllr_train.1.ark:6753674
fcag0_sx333 quick_test/data-fmllr-tri3/train/data/feats_fmllr_train.1.ark:5084510
mkxl0_sx375 quick_test/data-fmllr-tri3/train/data/feats_fmllr_train.7.ark:10080348
mpmb0_sx151 quick_test/data-fmllr-tri3/train/data/feats_fmllr_train.8.ark:8180332
mntw0_sx168 quick_test/data-fmllr-tri3/train/data/feats_fmllr_train.8.ark:5514973
flkm0_si1880 quick_test/data-fmllr-tri3/train/data/feats_fmllr_train.2.ark:12043492
mdem0_sx248 quick_test/data-fmllr-tri3/train/data/feats_fmllr_train.5.ark:590419
mdlr0_si603 quick_test/data-fmllr-tri3/train/data/feats_fmllr_train.5.ark:4750513
fgmb0_sx335 quick_test/data-fmllr-tri3/train/data/feats_fmllr_train.1.ark:17345804
mdlr1_si1929 quick_test/data-fmllr-tri3/train/data/feats_fmllr_train.5.ark:5107663
mtpg0_sx303 quick_test/data-fmllr-tri3/train/data/feats_fmllr_train.10.ark:9043484
fsrh0_sx311 quick_test/data-fmllr-tri3/train/data/feats_fmllr_train.3.ark:13324910
msah1_sx239 quick_test/data-fmllr-tri3/train/data/feats_fmllr_train.9.ark:11252281
fjsp0_sx84 quick_test/data-fmllr-tri3/train/data/feats_fmllr_train.2.ark:3984240
mjrh0_sx225 quick_test/data-fmllr-tri3/train/data/feats_fmllr_train.7.ark:217563
mkah0_si2158 quick_test/data-fmllr-tri3/train/data/feats_fmllr_train.7.ark:4469787
mtpg0_si2013 quick_test/data-fmllr-tri3/train/data/feats_fmllr_train.10.ark:8868816
mrpc1_si2026 quick_test/data-fmllr-tri3/train/data/feats_fmllr_train.9.ark:7143468
ftbw0_si1345 quick_test/data-fmllr-tri3/train/data/feats_fmllr_train.3.ark:14590442
fpad0_si1346 quick_test/data-fmllr-tri3/train/data/feats_fmllr_train.3.ark:1604880
mkdd0_sx127 quick_test/data-fmllr-tri3/train/data/feats_fmllr_train.7.ark:6143989
fksr0_sx397 quick_test/data-fmllr-tri3/train/data/feats_fmllr_train.2.ark:8818525
mtat1_sx239 quick_test/data-fmllr-tri3/train/data/feats_fmllr_train.10.ark:1840190
mrso0_si2289 quick_test/data-fmllr-tri3/train/data/feats_fmllr_train.9.ark:8022970
mjeb0_sx206 quick_test/data-fmllr-tri3/train/data/feats_fmllr_train.6.ark:10250879
mrab0_si1854 quick_test/data-fmllr-tri3/train/data/feats_fmllr_train.8.ark:10973476
mmlm0_sx87 quick_test/data-fmllr-tri3/train/data/feats_fmllr_train.8.ark:1725232
mrpc1_sx312 quick_test/data-fmllr-tri3/train/data/feats_fmllr_train.9.ark:7283737
mtab0_sx312 quick_test/data-fmllr-tri3/train/data/feats_fmllr_train.10.ark:775406
fssb0_si2342 quick_test/data-fmllr-tri3/train/data/feats_fmllr_train.3.ark:13619287
mdbp0_sx168 quick_test/data-fmllr-tri3/train/data/feats_fmllr_train.4.ark:15640190
mjwg0_sx175 quick_test/data-fmllr-tri3/train/data/feats_fmllr_train.7.ark:2162780
mdlc1_sx175 quick_test/data-fmllr-tri3/train/data/feats_fmllr_train.5.ark:3358153
mdks0_sx76 quick_test/data-fmllr-tri3/train/data/feats_fmllr_train.5.ark:2257768
fdaw0_sx236 quick_test/data-fmllr-tri3/train/data/feats_fmllr_train.1.ark:9966986
fkaa0_si578 quick_test/data-fmllr-tri3/train/data/feats_fmllr_train.2.ark:5292493
mdwh0_si665 quick_test/data-fmllr-tri3/train/data/feats_fmllr_train.5.ark:10049073
fpjf0_sx326 quick_test/data-fmllr-tri3/train/data/feats_fmllr_train.3.ark:3058948
mbma1_sx324 quick_test/data-fmllr-tri3/train/data/feats_fmllr_train.4.ark:6153224
mcdd0_sx343 quick_test/data-fmllr-tri3/train/data/feats_fmllr_train.4.ark:9550694
mrxb0_sx145 quick_test/data-fmllr-tri3/train/data/feats_fmllr_train.9.ark:10882436
mjeb1_si1467 quick_test/data-fmllr-tri3/train/data/feats_fmllr_train.6.ark:10416267
mcdr0_si524 quick_test/data-fmllr-tri3/train/data/feats_fmllr_train.4.ark:9831310
fkaa0_sx398 quick_test/data-fmllr-tri3/train/data/feats_fmllr_train.2.ark:5559347
mses0_si2216 quick_test/data-fmllr-tri3/train/data/feats_fmllr_train.9.ark:14224979
mges0_si851 quick_test/data-fmllr-tri3/train/data/feats_fmllr_train.6.ark:795383
mdcd0_si785 quick_test/data-fmllr-tri3/train/data/feats_fmllr_train.4.ark:15969500
mfer0_sx322 quick_test/data-fmllr-tri3/train/data/feats_fmllr_train.5.ark:14236496
mtmn0_sx254 quick_test/data-fmllr-tri3/train/data/feats_fmllr_train.10.ark:7912886
ftmg0_sx92 quick_test/data-fmllr-tri3/train/data/feats_fmllr_train.3.ark:15711544
fdas1_sx291 quick_test/data-fmllr-tri3/train/data/feats_fmllr_train.1.ark:9649061
meal0_sx287 quick_test/data-fmllr-tri3/train/data/feats_fmllr_train.5.ark:10946708
mrcg0_sx348 quick_test/data-fmllr-tri3/train/data/feats_fmllr_train.8.ark:13506408
mmdb0_si1617 quick_test/data-fmllr-tri3/train/data/feats_fmllr_train.7.ark:15537946
mjbg0_sx422 quick_test/data-fmllr-tri3/train/data/feats_fmllr_train.6.ark:7932510
mtcs0_sx262 quick_test/data-fmllr-tri3/train/data/feats_fmllr_train.10.ark:2627504
fkde0_sx331 quick_test/data-fmllr-tri3/train/data/feats_fmllr_train.2.ark:5895192
mtjg0_sx350 quick_test/data-fmllr-tri3/train/data/feats_fmllr_train.10.ark:4315919
mwac0_sx341 quick_test/data-fmllr-tri3/train/data/feats_fmllr_train.10.ark:13716328
mrms0_sx300 quick_test/data-fmllr-tri3/train/data/feats_fmllr_train.9.ark:7016185
mtpr0_sx70 quick_test/data-fmllr-tri3/train/data/feats_fmllr_train.10.ark:9926851
fmjb0_sx7 quick_test/data-fmllr-tri3/train/data/feats_fmllr_train.2.ark:15833448
ftaj0_sx249 quick_test/data-fmllr-tri3/train/data/feats_fmllr_train.3.ark:14072197
mjxl0_sx272 quick_test/data-fmllr-tri3/train/data/feats_fmllr_train.7.ark:3797755
msfv0_si1892 quick_test/data-fmllr-tri3/train/data/feats_fmllr_train.9.ark:15015814
mree0_sx114 quick_test/data-fmllr-tri3/train/data/feats_fmllr_train.8.ark:15321681
fkkh0_si1920 quick_test/data-fmllr-tri3/train/data/feats_fmllr_train.2.ark:6962455
fdnc0_sx288 quick_test/data-fmllr-tri3/train/data/feats_fmllr_train.1.ark:12471704
fdmy0_sx117 quick_test/data-fmllr-tri3/train/data/feats_fmllr_train.1.ark:11877326
fpab1_si2101 quick_test/data-fmllr-tri3/train/data/feats_fmllr_train.3.ark:795034
mfer0_si862 quick_test/data-fmllr-tri3/train/data/feats_fmllr_train.5.ark:14074975
mrgs0_sx276 quick_test/data-fmllr-tri3/train/data/feats_fmllr_train.9.ark:214522
mjjm0_sx17 quick_test/data-fmllr-tri3/train/data/feats_fmllr_train.6.ark:13383014
mjxl0_si1795 quick_test/data-fmllr-tri3/train/data/feats_fmllr_train.7.ark:3687114
msdh0_sx350 quick_test/data-fmllr-tri3/train/data/feats_fmllr_train.9.ark:13033875
flag0_sx114 quick_test/data-fmllr-tri3/train/data/feats_fmllr_train.2.ark:9410372
mpeb0_sx330 quick_test/data-fmllr-tri3/train/data/feats_fmllr_train.8.ark:6262501
mtmt0_sx398 quick_test/data-fmllr-tri3/train/data/feats_fmllr_train.10.ark:8399103
fdmy0_si1197 quick_test/data-fmllr-tri3/train/data/feats_fmllr_train.1.ark:11607485
mrld0_sx154 quick_test/data-fmllr-tri3/train/data/feats_fmllr_train.9.ark:3529028
mkxl0_sx195 quick_test/data-fmllr-tri3/train/data/feats_fmllr_train.7.ark:10010374
mlsh0_si2047 quick_test/data-fmllr-tri3/train/data/feats_fmllr_train.7.ark:12248849
mdpk0_sx153 quick_test/data-fmllr-tri3/train/data/feats_fmllr_train.5.ark:7182723
mjfh0_sx117 quick_test/data-fmllr-tri3/train/data/feats_fmllr_train.6.ark:11358223
mjsr0_si1424 quick_test/data-fmllr-tri3/train/data/feats_fmllr_train.7.ark:1466482
mtju0_sx310 quick_test/data-fmllr-tri3/train/data/feats_fmllr_train.10.ark:5538490
mjdm0_si1340 quick_test/data-fmllr-tri3/train/data/feats_fmllr_train.6.ark:9616153
marw0_sx349 quick_test/data-fmllr-tri3/train/data/feats_fmllr_train.4.ark:3247034
mter0_sx437 quick_test/data-fmllr-tri3/train/data/feats_fmllr_train.10.ark:3977809
mmjb1_sx328 quick_test/data-fmllr-tri3/train/data/feats_fmllr_train.8.ark:1270242
fsbk0_si1069 quick_test/data-fmllr-tri3/train/data/feats_fmllr_train.3.ark:6333883
mwar0_si1045 quick_test/data-fmllr-tri3/train/data/feats_fmllr_train.10.ark:14170707
mtmn0_sx344 quick_test/data-fmllr-tri3/train/data/feats_fmllr_train.10.ark:7948113
flja0_si1708 quick_test/data-fmllr-tri3/train/data/feats_fmllr_train.2.ark:10876148
flet0_si1767 quick_test/data-fmllr-tri3/train/data/feats_fmllr_train.2.ark:10101633
mjeb1_sx297 quick_test/data-fmllr-tri3/train/data/feats_fmllr_train.6.ark:10738669
ftmg0_si1532 quick_test/data-fmllr-tri3/train/data/feats_fmllr_train.3.ark:15382715
mkah0_sx358 quick_test/data-fmllr-tri3/train/data/feats_fmllr_train.7.ark:4671495
mkrg0_si2121 quick_test/data-fmllr-tri3/train/data/feats_fmllr_train.7.ark:9455170
mjrk0_sx430 quick_test/data-fmllr-tri3/train/data/feats_fmllr_train.7.ark:1041411
mtmn0_si2324 quick_test/data-fmllr-tri3/train/data/feats_fmllr_train.10.ark:7707685
fhxs0_si1075 quick_test/data-fmllr-tri3/train/data/feats_fmllr_train.1.ark:18358801
mmeb0_sx327 quick_test/data-fmllr-tri3/train/data/feats_fmllr_train.7.ark:17812929
fjrb0_si1932 quick_test/data-fmllr-tri3/train/data/feats_fmllr_train.2.ark:2443267
meal0_si2177 quick_test/data-fmllr-tri3/train/data/feats_fmllr_train.5.ark:10811080
ftbw0_si1975 quick_test/data-fmllr-tri3/train/data/feats_fmllr_train.3.ark:14626470
mmea0_sx38 quick_test/data-fmllr-tri3/train/data/feats_fmllr_train.7.ark:17568925
mnet0_sx96 quick_test/data-fmllr-tri3/train/data/feats_fmllr_train.8.ark:5278702
mtlb0_sx54 quick_test/data-fmllr-tri3/train/data/feats_fmllr_train.10.ark:6836314
mwrp0_sx3 quick_test/data-fmllr-tri3/train/data/feats_fmllr_train.10.ark:16676468
fsag0_sx333 quick_test/data-fmllr-tri3/train/data/feats_fmllr_train.3.ark:5336088
mtdp0_sx351 quick_test/data-fmllr-tri3/train/data/feats_fmllr_train.10.ark:3492766
msrr0_si501 quick_test/data-fmllr-tri3/train/data/feats_fmllr_train.9.ark:17451382
mprb0_si1215 quick_test/data-fmllr-tri3/train/data/feats_fmllr_train.8.ark:8965832
mejs0_si1240 quick_test/data-fmllr-tri3/train/data/feats_fmllr_train.5.ark:12598374
mdns0_sx111 quick_test/data-fmllr-tri3/train/data/feats_fmllr_train.5.ark:6466449
fsma0_sx361 quick_test/data-fmllr-tri3/train/data/feats_fmllr_train.3.ark:11734282
fsgf0_si2187 quick_test/data-fmllr-tri3/train/data/feats_fmllr_train.3.ark:7959420
fgmb0_sx245 quick_test/data-fmllr-tri3/train/data/feats_fmllr_train.1.ark:17296177
mprk0_sx197 quick_test/data-fmllr-tri3/train/data/feats_fmllr_train.8.ark:10123013
fspm0_si1241 quick_test/data-fmllr-tri3/train/data/feats_fmllr_train.3.ark:12696077
fdxw0_sx251 quick_test/data-fmllr-tri3/train/data/feats_fmllr_train.1.ark:13175766
mkaj0_sx424 quick_test/data-fmllr-tri3/train/data/feats_fmllr_train.7.ark:5067259
mcth0_si1839 quick_test/data-fmllr-tri3/train/data/feats_fmllr_train.4.ark:13289716
mmam0_sx157 quick_test/data-fmllr-tri3/train/data/feats_fmllr_train.7.ark:13974892
mjeb1_sx387 quick_test/data-fmllr-tri3/train/data/feats_fmllr_train.6.ark:10777256
mcdc0_si1922 quick_test/data-fmllr-tri3/train/data/feats_fmllr_train.4.ark:9029409
mtas0_sx215 quick_test/data-fmllr-tri3/train/data/feats_fmllr_train.10.ark:1088876
mdpk0_si1683 quick_test/data-fmllr-tri3/train/data/feats_fmllr_train.5.ark:7125709
flet0_sx57 quick_test/data-fmllr-tri3/train/data/feats_fmllr_train.2.ark:10378914
mvjh0_sx296 quick_test/data-fmllr-tri3/train/data/feats_fmllr_train.10.ark:12628503
fcyl0_sx349 quick_test/data-fmllr-tri3/train/data/feats_fmllr_train.1.ark:9168658
mrdd0_sx277 quick_test/data-fmllr-tri3/train/data/feats_fmllr_train.8.ark:14270843
mjdc0_si1161 quick_test/data-fmllr-tri3/train/data/feats_fmllr_train.6.ark:8372142
fmah1_si2139 quick_test/data-fmllr-tri3/train/data/feats_fmllr_train.2.ark:14383384
mjbg0_si1232 quick_test/data-fmllr-tri3/train/data/feats_fmllr_train.6.ark:7645946
mrds0_sx357 quick_test/data-fmllr-tri3/train/data/feats_fmllr_train.8.ark:15008237
mwre0_sx337 quick_test/data-fmllr-tri3/train/data/feats_fmllr_train.10.ark:16264092
mrbc0_si599 quick_test/data-fmllr-tri3/train/data/feats_fmllr_train.8.ark:12936990
fnkl0_sx82 quick_test/data-fmllr-tri3/train/data/feats_fmllr_train.3.ark:328522
mbwp0_sx79 quick_test/data-fmllr-tri3/train/data/feats_fmllr_train.4.ark:8056281
mjma0_si1495 quick_test/data-fmllr-tri3/train/data/feats_fmllr_train.6.ark:15057912
msem1_si810 quick_test/data-fmllr-tri3/train/data/feats_fmllr_train.9.ark:13798069
mtrc0_si993 quick_test/data-fmllr-tri3/train/data/feats_fmllr_train.10.ark:10573390
fdxw0_si881 quick_test/data-fmllr-tri3/train/data/feats_fmllr_train.1.ark:13063392
msvs0_sx218 quick_test/data-fmllr-tri3/train/data/feats_fmllr_train.10.ark:249402
fvmh0_si2096 quick_test/data-fmllr-tri3/train/data/feats_fmllr_train.3.ark:16560195
mfrm0_si1785 quick_test/data-fmllr-tri3/train/data/feats_fmllr_train.5.ark:14858930
mjjb0_sx149 quick_test/data-fmllr-tri3/train/data/feats_fmllr_train.6.ark:12470554
fdjh0_si1565 quick_test/data-fmllr-tri3/train/data/feats_fmllr_train.1.ark:10472272
mpgh0_sx24 quick_test/data-fmllr-tri3/train/data/feats_fmllr_train.8.ark:7056053
fmmh0_si2167 quick_test/data-fmllr-tri3/train/data/feats_fmllr_train.2.ark:17598397
mgjc0_sx165 quick_test/data-fmllr-tri3/train/data/feats_fmllr_train.6.ark:1222828
mmgc0_sx315 quick_test/data-fmllr-tri3/train/data/feats_fmllr_train.8.ark:229430
makr0_si722 quick_test/data-fmllr-tri3/train/data/feats_fmllr_train.4.ark:2037956
msjk0_sx426 quick_test/data-fmllr-tri3/train/data/feats_fmllr_train.9.ark:15732806
mjai0_si1604 quick_test/data-fmllr-tri3/train/data/feats_fmllr_train.6.ark:7268130
fgmb0_sx155 quick_test/data-fmllr-tri3/train/data/feats_fmllr_train.1.ark:17233270
mrdm0_si1595 quick_test/data-fmllr-tri3/train/data/feats_fmllr_train.8.ark:14477032
mdlr1_si669 quick_test/data-fmllr-tri3/train/data/feats_fmllr_train.5.ark:5153610
mmea0_si2018 quick_test/data-fmllr-tri3/train/data/feats_fmllr_train.7.ark:17380951
mbcg0_sx237 quick_test/data-fmllr-tri3/train/data/feats_fmllr_train.4.ark:4292592
mrtj0_sx52 quick_test/data-fmllr-tri3/train/data/feats_fmllr_train.9.ark:9601355
medr0_sx204 quick_test/data-fmllr-tri3/train/data/feats_fmllr_train.5.ark:11283059
mkln0_sx158 quick_test/data-fmllr-tri3/train/data/feats_fmllr_train.7.ark:7643736
fsls0_sx426 quick_test/data-fmllr-tri3/train/data/feats_fmllr_train.3.ark:11387052
mgsl0_si534 quick_test/data-fmllr-tri3/train/data/feats_fmllr_train.6.ark:2773079
mfer0_sx142 quick_test/data-fmllr-tri3/train/data/feats_fmllr_train.5.ark:14137082
msmr0_sx145 quick_test/data-fmllr-tri3/train/data/feats_fmllr_train.9.ark:16386918
mbbr0_si1055 quick_test/data-fmllr-tri3/train/data/feats_fmllr_train.4.ark:3752266
mbml0_sx449 quick_test/data-fmllr-tri3/train/data/feats_fmllr_train.4.ark:6588828
mrfk0_sx176 quick_test/data-fmllr-tri3/train/data/feats_fmllr_train.8.ark:16839989
fvkb0_sx169 quick_test/data-fmllr-tri3/train/data/feats_fmllr_train.3.ark:16219392
mstf0_si766 quick_test/data-fmllr-tri3/train/data/feats_fmllr_train.9.ark:17783250
mdpk0_sx63 quick_test/data-fmllr-tri3/train/data/feats_fmllr_train.5.ark:7377710
flac0_sx451 quick_test/data-fmllr-tri3/train/data/feats_fmllr_train.2.ark:9123676
mkdt0_sx173 quick_test/data-fmllr-tri3/train/data/feats_fmllr_train.7.ark:6480045
mjrg0_sx352 quick_test/data-fmllr-tri3/train/data/feats_fmllr_train.6.ark:17882154
fjrp1_sx442 quick_test/data-fmllr-tri3/train/data/feats_fmllr_train.2.ark:3152899
mcre0_sx221 quick_test/data-fmllr-tri3/train/data/feats_fmllr_train.4.ark:12640245
mkag0_sx169 quick_test/data-fmllr-tri3/train/data/feats_fmllr_train.7.ark:4189305
mbsb0_si1353 quick_test/data-fmllr-tri3/train/data/feats_fmllr_train.4.ark:7009901
mstf0_sx406 quick_test/data-fmllr-tri3/train/data/feats_fmllr_train.9.ark:18040985
msat1_sx263 quick_test/data-fmllr-tri3/train/data/feats_fmllr_train.9.ark:12353413
mjai0_si710 quick_test/data-fmllr-tri3/train/data/feats_fmllr_train.6.ark:7382104
fsjk1_sx305 quick_test/data-fmllr-tri3/train/data/feats_fmllr_train.3.ark:9047482
mgrl0_si867 quick_test/data-fmllr-tri3/train/data/feats_fmllr_train.6.ark:1588618
fsls0_si1056 quick_test/data-fmllr-tri3/train/data/feats_fmllr_train.3.ark:11094088
fvkb0_sx259 quick_test/data-fmllr-tri3/train/data/feats_fmllr_train.3.ark:16264699
fclt0_sx178 quick_test/data-fmllr-tri3/train/data/feats_fmllr_train.1.ark:7540855
fskp0_si1728 quick_test/data-fmllr-tri3/train/data/feats_fmllr_train.3.ark:10804939
msrr0_sx51 quick_test/data-fmllr-tri3/train/data/feats_fmllr_train.9.ark:17683835
mkes0_sx353 quick_test/data-fmllr-tri3/train/data/feats_fmllr_train.7.ark:7002716
fjdm2_sx52 quick_test/data-fmllr-tri3/train/data/feats_fmllr_train.2.ark:366123
fkkh0_sx120 quick_test/data-fmllr-tri3/train/data/feats_fmllr_train.2.ark:7087469
mdcd0_sx245 quick_test/data-fmllr-tri3/train/data/feats_fmllr_train.4.ark:16090514
mdwd0_si557 quick_test/data-fmllr-tri3/train/data/feats_fmllr_train.5.ark:9706136
mcae0_sx97 quick_test/data-fmllr-tri3/train/data/feats_fmllr_train.4.ark:8563216
fbmj0_sx156 quick_test/data-fmllr-tri3/train/data/feats_fmllr_train.1.ark:4630318
fhlm0_sx210 quick_test/data-fmllr-tri3/train/data/feats_fmllr_train.1.ark:18143172
mdps0_sx359 quick_test/data-fmllr-tri3/train/data/feats_fmllr_train.5.ark:7619474
mgaf0_sx382 quick_test/data-fmllr-tri3/train/data/feats_fmllr_train.5.ark:16530814
mkes0_si1883 quick_test/data-fmllr-tri3/train/data/feats_fmllr_train.7.ark:6777168
mmab1_sx414 quick_test/data-fmllr-tri3/train/data/feats_fmllr_train.7.ark:13306058
flmk0_sx315 quick_test/data-fmllr-tri3/train/data/feats_fmllr_train.2.ark:13451479
flod0_si657 quick_test/data-fmllr-tri3/train/data/feats_fmllr_train.2.ark:13682815
fjwb1_sx255 quick_test/data-fmllr-tri3/train/data/feats_fmllr_train.2.ark:4233496
mjwt0_si1291 quick_test/data-fmllr-tri3/train/data/feats_fmllr_train.7.ark:2817532
mrav0_si1008 quick_test/data-fmllr-tri3/train/data/feats_fmllr_train.8.ark:12512557
mjdc0_sx351 quick_test/data-fmllr-tri3/train/data/feats_fmllr_train.6.ark:8611318
mdlm0_si1234 quick_test/data-fmllr-tri3/train/data/feats_fmllr_train.5.ark:4310241
fjkl0_sx212 quick_test/data-fmllr-tri3/train/data/feats_fmllr_train.2.ark:1427336
makr0_si1352 quick_test/data-fmllr-tri3/train/data/feats_fmllr_train.4.ark:1956301
msfh0_si1738 quick_test/data-fmllr-tri3/train/data/feats_fmllr_train.9.ark:14556237
fjsk0_sx62 quick_test/data-fmllr-tri3/train/data/feats_fmllr_train.2.ark:3615543
mjhi0_si555 quick_test/data-fmllr-tri3/train/data/feats_fmllr_train.6.ark:12024362
fcag0_sx63 quick_test/data-fmllr-tri3/train/data/feats_fmllr_train.1.ark:5201683
mrsp0_si1429 quick_test/data-fmllr-tri3/train/data/feats_fmllr_train.9.ark:8344572
mjrh1_si1558 quick_test/data-fmllr-tri3/train/data/feats_fmllr_train.7.ark:385191
fcjf0_si1657 quick_test/data-fmllr-tri3/train/data/feats_fmllr_train.1.ark:6447990
mree0_sx24 quick_test/data-fmllr-tri3/train/data/feats_fmllr_train.8.ark:15405094
msas0_sx116 quick_test/data-fmllr-tri3/train/data/feats_fmllr_train.9.ark:11628311
mchl0_si1404 quick_test/data-fmllr-tri3/train/data/feats_fmllr_train.4.ark:11056734
fklc1_si1678 quick_test/data-fmllr-tri3/train/data/feats_fmllr_train.2.ark:7782569
fjdm2_si2212 quick_test/data-fmllr-tri3/train/data/feats_fmllr_train.2.ark:96549
mjxa0_sx337 quick_test/data-fmllr-tri3/train/data/feats_fmllr_train.7.ark:3484605
mjxl0_sx452 quick_test/data-fmllr-tri3/train/data/feats_fmllr_train.7.ark:3903089
mklw0_si2201 quick_test/data-fmllr-tri3/train/data/feats_fmllr_train.7.ark:9096900
mjjj0_sx173 quick_test/data-fmllr-tri3/train/data/feats_fmllr_train.6.ark:12913011
fbjl0_sx292 quick_test/data-fmllr-tri3/train/data/feats_fmllr_train.1.ark:3556307
mdpb0_si866 quick_test/data-fmllr-tri3/train/data/feats_fmllr_train.5.ark:6785039
msem1_sx360 quick_test/data-fmllr-tri3/train/data/feats_fmllr_train.9.ark:14007270
mjpg0_sx21 quick_test/data-fmllr-tri3/train/data/feats_fmllr_train.6.ark:16340139
mejl0_sx62 quick_test/data-fmllr-tri3/train/data/feats_fmllr_train.5.ark:12555306
mprt0_si1210 quick_test/data-fmllr-tri3/train/data/feats_fmllr_train.8.ark:10284855
fsak0_si1300 quick_test/data-fmllr-tri3/train/data/feats_fmllr_train.3.ark:5957186
mwrp0_sx273 quick_test/data-fmllr-tri3/train/data/feats_fmllr_train.10.ark:16633883
fcyl0_si1297 quick_test/data-fmllr-tri3/train/data/feats_fmllr_train.1.ark:8926122
mejs0_sx250 quick_test/data-fmllr-tri3/train/data/feats_fmllr_train.5.ark:12811123
mtkd0_si1187 quick_test/data-fmllr-tri3/train/data/feats_fmllr_train.10.ark:5669771
mtwh1_si2142 quick_test/data-fmllr-tri3/train/data/feats_fmllr_train.10.ark:11607934
mgjc0_sx255 quick_test/data-fmllr-tri3/train/data/feats_fmllr_train.6.ark:1282695
mbgt0_si1841 quick_test/data-fmllr-tri3/train/data/feats_fmllr_train.4.ark:4811345
mwem0_sx330 quick_test/data-fmllr-tri3/train/data/feats_fmllr_train.10.ark:15469097
mzmb0_si536 quick_test/data-fmllr-tri3/train/data/feats_fmllr_train.10.ark:17687756
mrmh0_si1349 quick_test/data-fmllr-tri3/train/data/feats_fmllr_train.9.ark:5953535
fsak0_sx220 quick_test/data-fmllr-tri3/train/data/feats_fmllr_train.3.ark:6137135
mbgt0_si1341 quick_test/data-fmllr-tri3/train/data/feats_fmllr_train.4.ark:4784437
fcjs0_sx437 quick_test/data-fmllr-tri3/train/data/feats_fmllr_train.1.ark:6950742
flod0_si1287 quick_test/data-fmllr-tri3/train/data/feats_fmllr_train.2.ark:13583560
fsgf0_si1557 quick_test/data-fmllr-tri3/train/data/feats_fmllr_train.3.ark:7913792
mrgm0_si1162 quick_test/data-fmllr-tri3/train/data/feats_fmllr_train.8.ark:17486421
fljg0_sx261 quick_test/data-fmllr-tri3/train/data/feats_fmllr_train.2.ark:11830584
mmar0_sx436 quick_test/data-fmllr-tri3/train/data/feats_fmllr_train.7.ark:14568310
fcaj0_sx39 quick_test/data-fmllr-tri3/train/data/feats_fmllr_train.1.ark:5496593
mtpf0_sx65 quick_test/data-fmllr-tri3/train/data/feats_fmllr_train.10.ark:8778360
mmdb0_si987 quick_test/data-fmllr-tri3/train/data/feats_fmllr_train.7.ark:15563253
fsjk1_sx215 quick_test/data-fmllr-tri3/train/data/feats_fmllr_train.3.ark:8999775
msds0_sx447 quick_test/data-fmllr-tri3/train/data/feats_fmllr_train.9.ark:13570600
mjrh0_si1755 quick_test/data-fmllr-tri3/train/data/feats_fmllr_train.7.ark:40521
mmgg0_sx179 quick_test/data-fmllr-tri3/train/data/feats_fmllr_train.8.ark:498234
ftbr0_si921 quick_test/data-fmllr-tri3/train/data/feats_fmllr_train.3.ark:14323720
mkes0_sx173 quick_test/data-fmllr-tri3/train/data/feats_fmllr_train.7.ark:6904582
mgaf0_sx22 quick_test/data-fmllr-tri3/train/data/feats_fmllr_train.5.ark:16453320
frll0_sx254 quick_test/data-fmllr-tri3/train/data/feats_fmllr_train.3.ark:4924644
msdb0_sx287 quick_test/data-fmllr-tri3/train/data/feats_fmllr_train.9.ark:12732564
mnet0_si816 quick_test/data-fmllr-tri3/train/data/feats_fmllr_train.8.ark:5074250
fkdw0_si577 quick_test/data-fmllr-tri3/train/data/feats_fmllr_train.2.ark:6209568
mtpg0_sx393 quick_test/data-fmllr-tri3/train/data/feats_fmllr_train.10.ark:9120657
fjsk0_sx152 quick_test/data-fmllr-tri3/train/data/feats_fmllr_train.2.ark:3409036
msas0_si2006 quick_test/data-fmllr-tri3/train/data/feats_fmllr_train.9.ark:11499457
fmem0_si1377 quick_test/data-fmllr-tri3/train/data/feats_fmllr_train.2.ark:15090989
maeo0_sx336 quick_test/data-fmllr-tri3/train/data/feats_fmllr_train.4.ark:593327
mdlr0_sx243 quick_test/data-fmllr-tri3/train/data/feats_fmllr_train.5.ark:4843527
frll0_si1514 quick_test/data-fmllr-tri3/train/data/feats_fmllr_train.3.ark:4704856
falr0_sx245 quick_test/data-fmllr-tri3/train/data/feats_fmllr_train.1.ark:1396288
makb0_si2276 quick_test/data-fmllr-tri3/train/data/feats_fmllr_train.4.ark:1643339
mfrm0_si1155 quick_test/data-fmllr-tri3/train/data/feats_fmllr_train.5.ark:14756634
madd0_sx448 quick_test/data-fmllr-tri3/train/data/feats_fmllr_train.3.ark:17874421
mdbp0_si1158 quick_test/data-fmllr-tri3/train/data/feats_fmllr_train.4.ark:15474348
fdaw0_sx326 quick_test/data-fmllr-tri3/train/data/feats_fmllr_train.1.ark:10006853
mtrr0_sx378 quick_test/data-fmllr-tri3/train/data/feats_fmllr_train.10.ark:11132621
mrmg0_sx360 quick_test/data-fmllr-tri3/train/data/feats_fmllr_train.9.ark:5747666
mtxs0_sx250 quick_test/data-fmllr-tri3/train/data/feats_fmllr_train.10.ark:12125513
mwad0_sx72 quick_test/data-fmllr-tri3/train/data/feats_fmllr_train.10.ark:14148119
madc0_sx107 quick_test/data-fmllr-tri3/train/data/feats_fmllr_train.3.ark:17374923
fljd0_si886 quick_test/data-fmllr-tri3/train/data/feats_fmllr_train.2.ark:11318153
mrlr0_sx116 quick_test/data-fmllr-tri3/train/data/feats_fmllr_train.9.ark:4947657
mjdg0_sx52 quick_test/data-fmllr-tri3/train/data/feats_fmllr_train.6.ark:9571165
marc0_sx198 quick_test/data-fmllr-tri3/train/data/feats_fmllr_train.4.ark:2849030
mkaj0_sx334 quick_test/data-fmllr-tri3/train/data/feats_fmllr_train.7.ark:5035552
marc0_sx108 quick_test/data-fmllr-tri3/train/data/feats_fmllr_train.4.ark:2775057
mdhs0_sx450 quick_test/data-fmllr-tri3/train/data/feats_fmllr_train.5.ark:1474747
fmpg0_sx72 quick_test/data-fmllr-tri3/train/data/feats_fmllr_train.2.ark:18382293
falk0_sx6 quick_test/data-fmllr-tri3/train/data/feats_fmllr_train.1.ark:1121405
fskp0_sx288 quick_test/data-fmllr-tri3/train/data/feats_fmllr_train.3.ark:11003793
fmjb0_si1807 quick_test/data-fmllr-tri3/train/data/feats_fmllr_train.2.ark:15598755
mpgr0_si2040 quick_test/data-fmllr-tri3/train/data/feats_fmllr_train.8.ark:7217123
mjpm1_si1897 quick_test/data-fmllr-tri3/train/data/feats_fmllr_train.6.ark:16841558
fvfb0_si1032 quick_test/data-fmllr-tri3/train/data/feats_fmllr_train.3.ark:15754452
msmr0_si775 quick_test/data-fmllr-tri3/train/data/feats_fmllr_train.9.ark:16346251
fcjf0_sx37 quick_test/data-fmllr-tri3/train/data/feats_fmllr_train.1.ark:6625404
mgsh0_sx127 quick_test/data-fmllr-tri3/train/data/feats_fmllr_train.6.ark:2497079
mmgk0_si692 quick_test/data-fmllr-tri3/train/data/feats_fmllr_train.8.ark:812984
msdh0_sx80 quick_test/data-fmllr-tri3/train/data/feats_fmllr_train.9.ark:13156648
mges0_sx221 quick_test/data-fmllr-tri3/train/data/feats_fmllr_train.6.ark:880237
mkam0_si1250 quick_test/data-fmllr-tri3/train/data/feats_fmllr_train.7.ark:5139953
mpgr1_si1269 quick_test/data-fmllr-tri3/train/data/feats_fmllr_train.8.ark:7506592
mrdm0_sx245 quick_test/data-fmllr-tri3/train/data/feats_fmllr_train.8.ark:14613913
mkam0_sx416 quick_test/data-fmllr-tri3/train/data/feats_fmllr_train.7.ark:5466197
mdsj0_sx382 quick_test/data-fmllr-tri3/train/data/feats_fmllr_train.5.ark:8486174
mdlc0_si765 quick_test/data-fmllr-tri3/train/data/feats_fmllr_train.5.ark:2932948
mded0_sx270 quick_test/data-fmllr-tri3/train/data/feats_fmllr_train.4.ark:17222365
fksr0_si1117 quick_test/data-fmllr-tri3/train/data/feats_fmllr_train.2.ark:8479456
mdjm0_sx375 quick_test/data-fmllr-tri3/train/data/feats_fmllr_train.5.ark:1880910
msjk0_sx246 quick_test/data-fmllr-tri3/train/data/feats_fmllr_train.9.ark:15623312
fsms1_sx64 quick_test/data-fmllr-tri3/train/data/feats_fmllr_train.3.ark:12653009
mrjm0_si1095 quick_test/data-fmllr-tri3/train/data/feats_fmllr_train.9.ark:1700559
mejs0_sx430 quick_test/data-fmllr-tri3/train/data/feats_fmllr_train.5.ark:12897737
mmab1_si2124 quick_test/data-fmllr-tri3/train/data/feats_fmllr_train.7.ark:13025443
fsdj0_sx125 quick_test/data-fmllr-tri3/train/data/feats_fmllr_train.3.ark:7722297
mmgk0_sx422 quick_test/data-fmllr-tri3/train/data/feats_fmllr_train.8.ark:950692
fdkn0_sx91 quick_test/data-fmllr-tri3/train/data/feats_fmllr_train.1.ark:11232359
mtmt0_si488 quick_test/data-fmllr-tri3/train/data/feats_fmllr_train.10.ark:8153369
mhxl0_si1772 quick_test/data-fmllr-tri3/train/data/feats_fmllr_train.6.ark:5723585
mmar0_sx166 quick_test/data-fmllr-tri3/train/data/feats_fmllr_train.7.ark:14354149
fssb0_sx92 quick_test/data-fmllr-tri3/train/data/feats_fmllr_train.3.ark:13859101
fbcg1_sx442 quick_test/data-fmllr-tri3/train/data/feats_fmllr_train.1.ark:2750915
fgrw0_sx162 quick_test/data-fmllr-tri3/train/data/feats_fmllr_train.1.ark:17686288
fgdp0_sx268 quick_test/data-fmllr-tri3/train/data/feats_fmllr_train.1.ark:16821240
mbgt0_sx81 quick_test/data-fmllr-tri3/train/data/feats_fmllr_train.4.ark:5154226
fblv0_sx248 quick_test/data-fmllr-tri3/train/data/feats_fmllr_train.1.ark:3892952
msds0_sx177 quick_test/data-fmllr-tri3/train/data/feats_fmllr_train.9.ark:13396439
mjfh0_sx387 quick_test/data-fmllr-tri3/train/data/feats_fmllr_train.6.ark:11481370
ftbr0_sx111 quick_test/data-fmllr-tri3/train/data/feats_fmllr_train.3.ark:14390147
mprk0_sx377 quick_test/data-fmllr-tri3/train/data/feats_fmllr_train.8.ark:10230107
mvjh0_sx386 quick_test/data-fmllr-tri3/train/data/feats_fmllr_train.10.ark:12665970
mjjb0_sx329 quick_test/data-fmllr-tri3/train/data/feats_fmllr_train.6.ark:12580528
mmjb1_sx418 quick_test/data-fmllr-tri3/train/data/feats_fmllr_train.8.ark:1327229
fpaz0_si963 quick_test/data-fmllr-tri3/train/data/feats_fmllr_train.3.ark:2530650
mkjo0_sx437 quick_test/data-fmllr-tri3/train/data/feats_fmllr_train.7.ark:7400080
mpar0_sx136 quick_test/data-fmllr-tri3/train/data/feats_fmllr_train.8.ark:5860150
fsmm0_sx54 quick_test/data-fmllr-tri3/train/data/feats_fmllr_train.3.ark:12256632
mdns0_si873 quick_test/data-fmllr-tri3/train/data/feats_fmllr_train.5.ark:6392662
mjfr0_si975 quick_test/data-fmllr-tri3/train/data/feats_fmllr_train.6.ark:11616813
mddc0_sx69 quick_test/data-fmllr-tri3/train/data/feats_fmllr_train.4.ark:16956628
mtmt0_sx128 quick_test/data-fmllr-tri3/train/data/feats_fmllr_train.10.ark:8227956
