fcag0_si1503 quick_test/fbank/raw_fbank_train.1.ark:1257109
mrsp0_sx259 quick_test/fbank/raw_fbank_train.4.ark:4582255
mjjm0_sx17 quick_test/fbank/raw_fbank_train.3.ark:3441350
mfmc0_si1762 quick_test/fbank/raw_fbank_train.2.ark:10494210
fsah0_si1874 quick_test/fbank/raw_fbank_train.1.ark:11010573
fkfb0_sx168 quick_test/fbank/raw_fbank_train.1.ark:6534140
mkam0_sx146 quick_test/fbank/raw_fbank_train.3.ark:6000610
mmsm0_sx26 quick_test/fbank/raw_fbank_train.3.ark:9988037
mppc0_sx332 quick_test/fbank/raw_fbank_train.4.ark:12125
fmem0_sx387 quick_test/fbank/raw_fbank_train.1.ark:8813507
mrlr0_sx296 quick_test/fbank/raw_fbank_train.4.ark:3674658
mljh0_sx64 quick_test/fbank/raw_fbank_train.3.ark:7657902
mkjo0_si1517 quick_test/fbank/raw_fbank_train.3.ark:6465913
fdfb0_si2010 quick_test/fbank/raw_fbank_train.1.ark:2630490
fetb0_si1148 quick_test/fbank/raw_fbank_train.1.ark:3962311
fmjb0_si1177 quick_test/fbank/raw_fbank_train.1.ark:8828981
fkaa0_sx38 quick_test/fbank/raw_fbank_train.1.ark:6252282
fcjf0_si648 quick_test/fbank/raw_fbank_train.1.ark:1668317
mrgm0_sx172 quick_test/fbank/raw_fbank_train.4.ark:2297677
fgdp0_sx358 quick_test/fbank/raw_fbank_train.1.ark:4338593
mrav0_si1638 quick_test/fbank/raw_fbank_train.4.ark:977803
msat1_si1703 quick_test/fbank/raw_fbank_train.4.ark:5509374
mljc0_sx55 quick_test/fbank/raw_fbank_train.3.ark:7529757
mchl0_sx267 quick_test/fbank/raw_fbank_train.2.ark:5184579
fljg0_si981 quick_test/fbank/raw_fbank_train.1.ark:7838516
mhmr0_sx39 quick_test/fbank/raw_fbank_train.3.ark:1357573
fdml0_sx339 quick_test/fbank/raw_fbank_train.1.ark:2952626
mewm0_si1348 quick_test/fbank/raw_fbank_train.2.ark:10310406
fksr0_sx37 quick_test/fbank/raw_fbank_train.1.ark:7093684
fsjk1_si696 quick_test/fbank/raw_fbank_train.1.ark:11860367
mrtc0_si2088 quick_test/fbank/raw_fbank_train.4.ark:4638948
msdb0_sx107 quick_test/fbank/raw_fbank_train.4.ark:5622867
fmmh0_sx420 quick_test/fbank/raw_fbank_train.1.ark:9408629
mcre0_sx24 quick_test/fbank/raw_fbank_train.2.ark:5573592
msdb0_sx287 quick_test/fbank/raw_fbank_train.4.ark:5645005
mtjs0_si1192 quick_test/fbank/raw_fbank_train.4.ark:8280896
mjpg0_sx381 quick_test/fbank/raw_fbank_train.3.ark:4219731
mrai0_si792 quick_test/fbank/raw_fbank_train.4.ark:789865
mtwh1_sx252 quick_test/fbank/raw_fbank_train.4.ark:10045654
mrvg0_sx150 quick_test/fbank/raw_fbank_train.4.ark:4884184
mmcc0_sx168 quick_test/fbank/raw_fbank_train.3.ark:8550157
msfv0_sx362 quick_test/fbank/raw_fbank_train.4.ark:6288205
fmjf0_sx84 quick_test/fbank/raw_fbank_train.1.ark:9018915
mjdm0_sx80 quick_test/fbank/raw_fbank_train.3.ark:2572864
fmah1_sx429 quick_test/fbank/raw_fbank_train.1.ark:8595705
mcdc0_si1292 quick_test/fbank/raw_fbank_train.2.ark:4620320
flac0_sx181 quick_test/fbank/raw_fbank_train.1.ark:7149931
mwac0_sx341 quick_test/fbank/raw_fbank_train.4.ark:10560133
fjrp1_sx172 quick_test/fbank/raw_fbank_train.1.ark:5595234
fdtd0_sx301 quick_test/fbank/raw_fbank_train.1.ark:3298901
ftaj0_sx159 quick_test/fbank/raw_fbank_train.2.ark:1293665
mesj0_si2039 quick_test/fbank/raw_fbank_train.2.ark:10223743
mjrp0_si585 quick_test/fbank/raw_fbank_train.3.ark:4940408
fkaa0_si1208 quick_test/fbank/raw_fbank_train.1.ark:6174444
mwad0_sx252 quick_test/fbank/raw_fbank_train.4.ark:10639166
mefg0_sx105 quick_test/fbank/raw_fbank_train.2.ark:9773520
mjde0_si490 quick_test/fbank/raw_fbank_train.3.ark:2279569
mdlc0_si1395 quick_test/fbank/raw_fbank_train.2.ark:7502404
msfv0_si1262 quick_test/fbank/raw_fbank_train.4.ark:6221279
mapv0_sx393 quick_test/fbank/raw_fbank_train.2.ark:2981584
fcmg0_si1142 quick_test/fbank/raw_fbank_train.1.ark:2000270
mjfh0_sx207 quick_test/fbank/raw_fbank_train.3.ark:2930226
mjjm0_si1251 quick_test/fbank/raw_fbank_train.3.ark:3384618
mtwh1_sx342 quick_test/fbank/raw_fbank_train.4.ark:10056967
fleh0_si1051 quick_test/fbank/raw_fbank_train.1.ark:7321801
mdlh0_sx340 quick_test/fbank/raw_fbank_train.2.ark:7861125
mtpg0_si753 quick_test/fbank/raw_fbank_train.4.ark:9321854
mpsw0_si1067 quick_test/fbank/raw_fbank_train.4.ark:485643
fsjs0_sx451 quick_test/fbank/raw_fbank_train.2.ark:121743
mvlo0_sx157 quick_test/fbank/raw_fbank_train.4.ark:10338897
maeb0_sx360 quick_test/fbank/raw_fbank_train.2.ark:2369566
mrjm1_si668 quick_test/fbank/raw_fbank_train.4.ark:2937753
mrdd0_sx60 quick_test/fbank/raw_fbank_train.4.ark:1444982
mtpg0_sx33 quick_test/fbank/raw_fbank_train.4.ark:9368745
fmah1_sx339 quick_test/fbank/raw_fbank_train.1.ark:8585032
mcth0_sx219 quick_test/fbank/raw_fbank_train.2.ark:5761408
mjae0_si1999 quick_test/fbank/raw_fbank_train.3.ark:1778010
mrbc0_sx329 quick_test/fbank/raw_fbank_train.4.ark:1118241
mdtb0_si1200 quick_test/fbank/raw_fbank_train.2.ark:9166710
mefg0_sx15 quick_test/fbank/raw_fbank_train.2.ark:9783592
mwem0_sx420 quick_test/fbank/raw_fbank_train.4.ark:11025415
mnet0_sx186 quick_test/fbank/raw_fbank_train.3.ark:10575041
fdtd0_si931 quick_test/fbank/raw_fbank_train.1.ark:3261722
fntb0_si679 quick_test/fbank/raw_fbank_train.1.ark:9689962
mrew1_sx150 quick_test/fbank/raw_fbank_train.4.ark:1987841
mmeb0_sx187 quick_test/fbank/raw_fbank_train.3.ark:9201092
mrav0_sx378 quick_test/fbank/raw_fbank_train.4.ark:1047601
mdwm0_sx106 quick_test/fbank/raw_fbank_train.2.ark:9500606
mwgr0_si976 quick_test/fbank/raw_fbank_train.4.ark:11080668
fbas0_sx397 quick_test/fbank/raw_fbank_train.1.ark:620366
mmaa0_sx305 quick_test/fbank/raw_fbank_train.3.ark:7937112
fpad0_si716 quick_test/fbank/raw_fbank_train.1.ark:10008637
mkdb0_si588 quick_test/fbank/raw_fbank_train.3.ark:6069488
fmkc0_si1702 quick_test/fbank/raw_fbank_train.1.ark:9166682
meal0_sx287 quick_test/fbank/raw_fbank_train.2.ark:9603457
ftaj0_sx249 quick_test/fbank/raw_fbank_train.2.ark:1304138
mbbr0_sx245 quick_test/fbank/raw_fbank_train.2.ark:3322267
mrlk0_sx393 quick_test/fbank/raw_fbank_train.4.ark:3589026
fsjg0_sx130 quick_test/fbank/raw_fbank_train.1.ark:11754335
mdac0_si1261 quick_test/fbank/raw_fbank_train.2.ark:6003830
mpfu0_si628 quick_test/fbank/raw_fbank_train.3.ark:10935707
fkaa0_si578 quick_test/fbank/raw_fbank_train.1.ark:6199071
mrkm0_sx277 quick_test/fbank/raw_fbank_train.4.ark:3183949
fjhk0_sx122 quick_test/fbank/raw_fbank_train.1.ark:5098188
mrre0_si952 quick_test/fbank/raw_fbank_train.4.ark:4312745
flma0_si1243 quick_test/fbank/raw_fbank_train.1.ark:8045578
mjee0_sx427 quick_test/fbank/raw_fbank_train.3.ark:2857587
msvs0_si2198 quick_test/fbank/raw_fbank_train.4.ark:7045790
fcjs0_sx437 quick_test/fbank/raw_fbank_train.1.ark:1786874
mjai0_sx74 quick_test/fbank/raw_fbank_train.3.ark:1957352
mesj0_sx277 quick_test/fbank/raw_fbank_train.2.ark:10273516
fscn0_sx266 quick_test/fbank/raw_fbank_train.1.ark:11374867
fpaz0_sx243 quick_test/fbank/raw_fbank_train.1.ark:10253034
mntw0_si2328 quick_test/fbank/raw_fbank_train.3.ark:10669352
mjpm0_sx198 quick_test/fbank/raw_fbank_train.3.ark:4293010
mrds0_sx447 quick_test/fbank/raw_fbank_train.4.ark:1625840
mdlr1_si1929 quick_test/fbank/raw_fbank_train.2.ark:8100748
mctm0_sx450 quick_test/fbank/raw_fbank_train.2.ark:5885259
mdrd0_sx392 quick_test/fbank/raw_fbank_train.2.ark:8883001
msas0_sx386 quick_test/fbank/raw_fbank_train.4.ark:5407601
mrjm0_sx238 quick_test/fbank/raw_fbank_train.4.ark:2855794
fpls0_sx240 quick_test/fbank/raw_fbank_train.1.ark:10443964
mjde0_sx310 quick_test/fbank/raw_fbank_train.3.ark:2332388
mddc0_sx69 quick_test/fbank/raw_fbank_train.2.ark:6670689
flet0_sx237 quick_test/fbank/raw_fbank_train.1.ark:7477560
fmah1_sx69 quick_test/fbank/raw_fbank_train.1.ark:8606577
mpgr0_sx60 quick_test/fbank/raw_fbank_train.3.ark:11177440
mppc0_sx152 quick_test/fbank/raw_fbank_train.3.ark:11494145
fsdc0_sx412 quick_test/fbank/raw_fbank_train.1.ark:11497159
mprk0_si467 quick_test/fbank/raw_fbank_train.4.ark:312341
mdhl0_si1439 quick_test/fbank/raw_fbank_train.2.ark:6999558
mddc0_sx159 quick_test/fbank/raw_fbank_train.2.ark:6628478
fjlr0_sx331 quick_test/fbank/raw_fbank_train.1.ark:5412930
mrwa0_si2233 quick_test/fbank/raw_fbank_train.4.ark:4950903
mcss0_si688 quick_test/fbank/raw_fbank_train.2.ark:5627004
marw0_si646 quick_test/fbank/raw_fbank_train.2.ark:3092630
mdss1_si697 quick_test/fbank/raw_fbank_train.2.ark:9097512
fjrb0_sx402 quick_test/fbank/raw_fbank_train.1.ark:5521828
fjdm2_sx232 quick_test/fbank/raw_fbank_train.1.ark:4892729
mrwa0_sx253 quick_test/fbank/raw_fbank_train.4.ark:4988282
mjhi0_sx158 quick_test/fbank/raw_fbank_train.3.ark:3115642
mree0_si1959 quick_test/fbank/raw_fbank_train.4.ark:1675974
msmc0_si647 quick_test/fbank/raw_fbank_train.4.ark:6465955
fetb0_sx158 quick_test/fbank/raw_fbank_train.1.ark:4001451
mtkd0_sx377 quick_test/fbank/raw_fbank_train.4.ark:8587137
mrms0_si2100 quick_test/fbank/raw_fbank_train.4.ark:4136935
mjae0_si1524 quick_test/fbank/raw_fbank_train.3.ark:1764776
mjls0_sx106 quick_test/fbank/raw_fbank_train.3.ark:3815979
megj0_sx437 quick_test/fbank/raw_fbank_train.2.ark:9911882
msas0_sx296 quick_test/fbank/raw_fbank_train.4.ark:5396288
flag0_si1464 quick_test/fbank/raw_fbank_train.1.ark:7208176
fjxm0_sx41 quick_test/fbank/raw_fbank_train.1.ark:6062465
mkag0_sx259 quick_test/fbank/raw_fbank_train.3.ark:5717448
mtat1_sx149 quick_test/fbank/raw_fbank_train.4.ark:7490276
mcss0_sx210 quick_test/fbank/raw_fbank_train.2.ark:5672623
fsmm0_si684 quick_test/fbank/raw_fbank_train.2.ark:766867
mwsb0_sx366 quick_test/fbank/raw_fbank_train.4.ark:11408442
flmk0_sx405 quick_test/fbank/raw_fbank_train.1.ark:8306948
mjeb1_si2097 quick_test/fbank/raw_fbank_train.3.ark:2698197
fjdm2_sx322 quick_test/fbank/raw_fbank_train.1.ark:4908882
mgag0_sx61 quick_test/fbank/raw_fbank_train.2.ark:11131719
mrpc1_sx222 quick_test/fbank/raw_fbank_train.4.ark:4232267
mrgs0_sx6 quick_test/fbank/raw_fbank_train.4.ark:2452199
mjjb0_sx59 quick_test/fbank/raw_fbank_train.3.ark:3263639
msem1_si810 quick_test/fbank/raw_fbank_train.4.ark:5918310
fdjh0_sx395 quick_test/fbank/raw_fbank_train.1.ark:2775079
msat0_sx356 quick_test/fbank/raw_fbank_train.4.ark:5466801
maeb0_si2250 quick_test/fbank/raw_fbank_train.2.ark:2323874
mjls0_si466 quick_test/fbank/raw_fbank_train.3.ark:3806186
msat0_si2156 quick_test/fbank/raw_fbank_train.4.ark:5428189
msmr0_sx235 quick_test/fbank/raw_fbank_train.4.ark:6594366
mmjb1_sx58 quick_test/fbank/raw_fbank_train.3.ark:9614003
mrlj0_si1420 quick_test/fbank/raw_fbank_train.4.ark:3324584
mgrp0_si687 quick_test/fbank/raw_fbank_train.3.ark:510687
mtpg0_sx123 quick_test/fbank/raw_fbank_train.4.ark:9337847
mhrm0_sx148 quick_test/fbank/raw_fbank_train.3.ark:1409660
mdns0_si1011 quick_test/fbank/raw_fbank_train.2.ark:8401630
mdhs0_sx90 quick_test/fbank/raw_fbank_train.2.ark:7179214
fksr0_sx397 quick_test/fbank/raw_fbank_train.1.ark:7104477
msfh0_sx226 quick_test/fbank/raw_fbank_train.4.ark:6165867
fcdr1_sx196 quick_test/fbank/raw_fbank_train.1.ark:1519805
marw0_sx376 quick_test/fbank/raw_fbank_train.2.ark:3163994
flod0_sx207 quick_test/fbank/raw_fbank_train.1.ark:8392020
mrtc0_si1458 quick_test/fbank/raw_fbank_train.4.ark:4619954
flmk0_sx315 quick_test/fbank/raw_fbank_train.1.ark:8295275
msfh0_si1738 quick_test/fbank/raw_fbank_train.4.ark:6113048
fgdp0_sx88 quick_test/fbank/raw_fbank_train.1.ark:4365218
mtjm0_sx326 quick_test/fbank/raw_fbank_train.4.ark:8247477
mrws0_si1102 quick_test/fbank/raw_fbank_train.4.ark:5036374
mmwb0_sx449 quick_test/fbank/raw_fbank_train.3.ark:10239162
mclk0_sx40 quick_test/fbank/raw_fbank_train.2.ark:5312549
mcss0_si750 quick_test/fbank/raw_fbank_train.2.ark:5646477
mjwt0_sx211 quick_test/fbank/raw_fbank_train.3.ark:5416453
mzmb0_sx266 quick_test/fbank/raw_fbank_train.4.ark:11611937
mpsw0_sx77 quick_test/fbank/raw_fbank_train.4.ark:554594
fhlm0_si930 quick_test/fbank/raw_fbank_train.1.ark:4632890
mdss0_sx81 quick_test/fbank/raw_fbank_train.2.ark:9068131
mdcm0_sx40 quick_test/fbank/raw_fbank_train.2.ark:6568991
mjpm1_si1897 quick_test/fbank/raw_fbank_train.3.ark:4332310
fklc0_si1615 quick_test/fbank/raw_fbank_train.1.ark:6715130
fsjs0_si1171 quick_test/fbank/raw_fbank_train.2.ark:43184
fajw0_sx3 quick_test/fbank/raw_fbank_train.1.ark:175282
fpjf0_sx146 quick_test/fbank/raw_fbank_train.1.ark:10338106
mdwh0_si1168 quick_test/fbank/raw_fbank_train.2.ark:9342801
mljh0_sx244 quick_test/fbank/raw_fbank_train.3.ark:7613724
mjlb0_sx446 quick_test/fbank/raw_fbank_train.3.ark:3658907
mtrt0_sx147 quick_test/fbank/raw_fbank_train.4.ark:9953556
fdfb0_si1948 quick_test/fbank/raw_fbank_train.1.ark:2623816
mrso0_sx129 quick_test/fbank/raw_fbank_train.4.ark:4444884
mabc0_sx61 quick_test/fbank/raw_fbank_train.2.ark:2093396
mppc0_sx62 quick_test/fbank/raw_fbank_train.4.ark:37510
mjmd0_sx128 quick_test/fbank/raw_fbank_train.3.ark:3997390
msdh0_sx170 quick_test/fbank/raw_fbank_train.4.ark:5692652
mmdm1_si783 quick_test/fbank/raw_fbank_train.3.ark:8917784
mpeb0_sx330 quick_test/fbank/raw_fbank_train.3.ark:10869741
mjhi0_si1328 quick_test/fbank/raw_fbank_train.3.ark:3072543
fjsp0_sx174 quick_test/fbank/raw_fbank_train.1.ark:5812205
fjxm0_si1211 quick_test/fbank/raw_fbank_train.1.ark:5969794
mjhi0_sx428 quick_test/fbank/raw_fbank_train.3.ark:3146141
fjrp1_sx442 quick_test/fbank/raw_fbank_train.1.ark:5648933
mrxb0_sx55 quick_test/fbank/raw_fbank_train.4.ark:5211390
mtat0_sx120 quick_test/fbank/raw_fbank_train.4.ark:7401811
fkfb0_si2238 quick_test/fbank/raw_fbank_train.1.ark:6510554
mjjj0_si533 quick_test/fbank/raw_fbank_train.3.ark:3306060
mmgk0_sx152 quick_test/fbank/raw_fbank_train.3.ark:9475607
fdtd0_sx121 quick_test/fbank/raw_fbank_train.1.ark:3273435
mbjv0_si1877 quick_test/fbank/raw_fbank_train.2.ark:3657267
fpac0_sx121 quick_test/fbank/raw_fbank_train.1.ark:9925645
mjjj0_si1793 quick_test/fbank/raw_fbank_train.3.ark:3296307
mclm0_sx286 quick_test/fbank/raw_fbank_train.2.ark:5397814
fclt0_sx268 quick_test/fbank/raw_fbank_train.1.ark:1952298
fksr0_sx161 quick_test/fbank/raw_fbank_train.1.ark:7052266
mdbb1_si2056 quick_test/fbank/raw_fbank_train.2.ark:6220745
mfxs0_sx144 quick_test/fbank/raw_fbank_train.2.ark:10802873
mjls0_si1726 quick_test/fbank/raw_fbank_train.3.ark:3783393
mrfk0_si1076 quick_test/fbank/raw_fbank_train.4.ark:2050766
frjb0_sx347 quick_test/fbank/raw_fbank_train.1.ark:10738031
fsag0_sx333 quick_test/fbank/raw_fbank_train.1.ark:10943600
mrai0_sx342 quick_test/fbank/raw_fbank_train.4.ark:832964
fkaa0_sx398 quick_test/fbank/raw_fbank_train.1.ark:6267515
fvkb0_sx169 quick_test/fbank/raw_fbank_train.2.ark:1857215
mdss0_sx441 quick_test/fbank/raw_fbank_train.2.ark:9056979
mrlk0_sx123 quick_test/fbank/raw_fbank_train.4.ark:3549415
fmah1_sx159 quick_test/fbank/raw_fbank_train.1.ark:8561686
mkln0_si968 quick_test/fbank/raw_fbank_train.3.ark:6578405
mmsm0_sx206 quick_test/fbank/raw_fbank_train.3.ark:9974885
mrjt0_sx418 quick_test/fbank/raw_fbank_train.4.ark:3083630
mdas0_sx21 quick_test/fbank/raw_fbank_train.2.ark:6159267
mdlc2_sx84 quick_test/fbank/raw_fbank_train.2.ark:7779526
mcal0_sx58 quick_test/fbank/raw_fbank_train.2.ark:4604566
mdma0_sx350 quick_test/fbank/raw_fbank_train.2.ark:8263666
fvkb0_si1159 quick_test/fbank/raw_fbank_train.2.ark:1825835
mdlr1_sx219 quick_test/fbank/raw_fbank_train.2.ark:8142487
mtjg0_sx170 quick_test/fbank/raw_fbank_train.4.ark:8113946
mjlb0_sx86 quick_test/fbank/raw_fbank_train.3.ark:3669019
mdbb1_sx376 quick_test/fbank/raw_fbank_train.2.ark:6277629
mdlm0_si1864 quick_test/fbank/raw_fbank_train.2.ark:7909338
msrg0_si1221 quick_test/fbank/raw_fbank_train.4.ark:6736443
fjsk0_si2312 quick_test/fbank/raw_fbank_train.1.ark:5706907
mjjm0_si827 quick_test/fbank/raw_fbank_train.3.ark:3419405
fdml0_si1779 quick_test/fbank/raw_fbank_train.1.ark:2915533
mlsh0_sx247 quick_test/fbank/raw_fbank_train.3.ark:7811214
mapv0_si1923 quick_test/fbank/raw_fbank_train.2.ark:2904467
mrtj0_si772 quick_test/fbank/raw_fbank_train.4.ark:4753366
fvkb0_si529 quick_test/fbank/raw_fbank_train.2.ark:1843302
mbth0_sx392 quick_test/fbank/raw_fbank_train.2.ark:4279213
fecd0_sx338 quick_test/fbank/raw_fbank_train.1.ark:3711002
mfer0_si862 quick_test/fbank/raw_fbank_train.2.ark:10409418
fgmb0_sx245 quick_test/fbank/raw_fbank_train.1.ark:4444585
fjhk0_sx392 quick_test/fbank/raw_fbank_train.1.ark:5147679
fdnc0_sx288 quick_test/fbank/raw_fbank_train.1.ark:3205908
mrld0_si1594 quick_test/fbank/raw_fbank_train.4.ark:3239599
mtjg0_sx260 quick_test/fbank/raw_fbank_train.4.ark:8131739
mmar0_si1336 quick_test/fbank/raw_fbank_train.3.ark:8274407
fcyl0_sx37 quick_test/fbank/raw_fbank_train.1.ark:2375024
mpmb0_sx61 quick_test/fbank/raw_fbank_train.3.ark:11435171
mtpp0_sx158 quick_test/fbank/raw_fbank_train.4.ark:9424552
mjlb0_sx266 quick_test/fbank/raw_fbank_train.3.ark:3637881
fapb0_sx433 quick_test/fbank/raw_fbank_train.1.ark:495268
mgaf0_sx202 quick_test/fbank/raw_fbank_train.2.ark:11015837
mtqc0_si480 quick_test/fbank/raw_fbank_train.4.ark:9633249
fclt0_si808 quick_test/fbank/raw_fbank_train.1.ark:1920912
mejs0_si1870 quick_test/fbank/raw_fbank_train.2.ark:10045887
fhlm0_sx210 quick_test/fbank/raw_fbank_train.1.ark:4661876
mjra0_sx246 quick_test/fbank/raw_fbank_train.3.ark:4479268
msmc0_si509 quick_test/fbank/raw_fbank_train.4.ark:6449402
mrcg0_sx168 quick_test/fbank/raw_fbank_train.4.ark:1200600
mvlo0_si1147 quick_test/fbank/raw_fbank_train.4.ark:10299517
mgjc0_sx435 quick_test/fbank/raw_fbank_train.3.ark:357209
mmjb1_si1408 quick_test/fbank/raw_fbank_train.3.ark:9524972
fpls0_si960 quick_test/fbank/raw_fbank_train.1.ark:10416818
mgar0_sx132 quick_test/fbank/raw_fbank_train.3.ark:34474
mppc0_si1412 quick_test/fbank/raw_fbank_train.3.ark:11454885
fjlr0_sx61 quick_test/fbank/raw_fbank_train.1.ark:5437435
mtpr0_si506 quick_test/fbank/raw_fbank_train.4.ark:9514984
mtrc0_si589 quick_test/fbank/raw_fbank_train.4.ark:9734520
fdaw0_si2036 quick_test/fbank/raw_fbank_train.1.ark:2532184
fbmj0_sx336 quick_test/fbank/raw_fbank_train.1.ark:1213170
majp0_sx84 quick_test/fbank/raw_fbank_train.2.ark:2677708
mesg0_sx162 quick_test/fbank/raw_fbank_train.2.ark:10162978
fdnc0_si1278 quick_test/fbank/raw_fbank_train.1.ark:3122589
mjpm0_si1368 quick_test/fbank/raw_fbank_train.3.ark:4228245
mtjg0_si2157 quick_test/fbank/raw_fbank_train.4.ark:8093040
fsbk0_sx439 quick_test/fbank/raw_fbank_train.1.ark:11278269
mmdm1_sx243 quick_test/fbank/raw_fbank_train.3.ark:8947210
mjrk0_si880 quick_test/fbank/raw_fbank_train.3.ark:4840223
mgrl0_si867 quick_test/fbank/raw_fbank_train.3.ark:408942
mjxa0_sx427 quick_test/fbank/raw_fbank_train.3.ark:5535104
fjlg0_sx269 quick_test/fbank/raw_fbank_train.1.ark:5299992
mrfl0_sx346 quick_test/fbank/raw_fbank_train.4.ark:2211958
mdlc0_sx225 quick_test/fbank/raw_fbank_train.2.ark:7563297
mbom0_si2274 quick_test/fbank/raw_fbank_train.2.ark:4049961
maeo0_sx246 quick_test/fbank/raw_fbank_train.2.ark:2451639
mtpf0_sx335 quick_test/fbank/raw_fbank_train.4.ark:9267608
mram0_si1275 quick_test/fbank/raw_fbank_train.4.ark:873583
mbma0_sx142 quick_test/fbank/raw_fbank_train.2.ark:3769078
mfxs0_sx234 quick_test/fbank/raw_fbank_train.2.ark:10813826
fgmb0_sx155 quick_test/fbank/raw_fbank_train.1.ark:4428512
mjeb0_sx206 quick_test/fbank/raw_fbank_train.3.ark:2636151
mjjj0_si1163 quick_test/fbank/raw_fbank_train.3.ark:3272473
mddc0_sx429 quick_test/fbank/raw_fbank_train.2.ark:6659777
mjws0_sx153 quick_test/fbank/raw_fbank_train.3.ark:5279875
mjrg0_si1366 quick_test/fbank/raw_fbank_train.3.ark:4529000
fcrz0_si2053 quick_test/fbank/raw_fbank_train.1.ark:2217715
mrmg0_sx90 quick_test/fbank/raw_fbank_train.4.ark:3876542
fmmh0_sx7 quick_test/fbank/raw_fbank_train.1.ark:9424300
mwac0_sx71 quick_test/fbank/raw_fbank_train.4.ark:10590478
mjxa0_sx67 quick_test/fbank/raw_fbank_train.3.ark:5544176
mgsh0_si546 quick_test/fbank/raw_fbank_train.3.ark:624912
flag0_si2094 quick_test/fbank/raw_fbank_train.1.ark:7228770
mjpm0_sx108 quick_test/fbank/raw_fbank_train.3.ark:4272785
mdwd0_sx270 quick_test/fbank/raw_fbank_train.2.ark:9300709
mjwt0_si1291 quick_test/fbank/raw_fbank_train.3.ark:5353040
mapv0_sx33 quick_test/fbank/raw_fbank_train.2.ark:2971591
mtas0_sx35 quick_test/fbank/raw_fbank_train.4.ark:7334604
mkdb0_si2132 quick_test/fbank/raw_fbank_train.3.ark:6056135
mwch0_sx452 quick_test/fbank/raw_fbank_train.4.ark:10832124
mtcs0_sx352 quick_test/fbank/raw_fbank_train.4.ark:7719832
fsjg0_si1570 quick_test/fbank/raw_fbank_train.1.ark:11704595
msem1_sx90 quick_test/fbank/raw_fbank_train.4.ark:6000154
fjdm2_sx412 quick_test/fbank/raw_fbank_train.1.ark:4920795
mljc0_si1225 quick_test/fbank/raw_fbank_train.3.ark:7441846
mfxv0_si1005 quick_test/fbank/raw_fbank_train.2.ark:10870718
mtab0_sx402 quick_test/fbank/raw_fbank_train.4.ark:7252540
mdpb0_sx146 quick_test/fbank/raw_fbank_train.2.ark:8549875
mprt0_sx130 quick_test/fbank/raw_fbank_train.4.ark:431518
mwad0_si1749 quick_test/fbank/raw_fbank_train.4.ark:10614866
mmea0_si2018 quick_test/fbank/raw_fbank_train.3.ark:9096761
mtjm0_si1856 quick_test/fbank/raw_fbank_train.4.ark:8198545
msjk0_si2226 quick_test/fbank/raw_fbank_train.4.ark:6352378
majp0_si2334 quick_test/fbank/raw_fbank_train.2.ark:2608184
mbar0_sx329 quick_test/fbank/raw_fbank_train.2.ark:3238874
mrtj0_si2032 quick_test/fbank/raw_fbank_train.4.ark:4743133
mmwb0_si1619 quick_test/fbank/raw_fbank_train.3.ark:10141763
ftbw0_si1975 quick_test/fbank/raw_fbank_train.2.ark:1447209
mmag0_si1126 quick_test/fbank/raw_fbank_train.3.ark:8076636
fdkn0_sx91 quick_test/fbank/raw_fbank_train.1.ark:2888105
mvlo0_si517 quick_test/fbank/raw_fbank_train.4.ark:10320984
mdss0_sx171 quick_test/fbank/raw_fbank_train.2.ark:9024840
mpgr0_si780 quick_test/fbank/raw_fbank_train.3.ark:11122436
fecd0_si2048 quick_test/fbank/raw_fbank_train.1.ark:3656390
mkjo0_sx424 quick_test/fbank/raw_fbank_train.3.ark:6518279
madd0_sx88 quick_test/fbank/raw_fbank_train.2.ark:2293726
mcdr0_sx74 quick_test/fbank/raw_fbank_train.2.ark:4902161
mzmb0_si1166 quick_test/fbank/raw_fbank_train.4.ark:11558724
fsma0_sx361 quick_test/fbank/raw_fbank_train.2.ark:703381
fjen0_si1677 quick_test/fbank/raw_fbank_train.1.ark:4958175
mded0_sx360 quick_test/fbank/raw_fbank_train.2.ark:6749529
fcyl0_sx349 quick_test/fbank/raw_fbank_train.1.ark:2357632
mrpc1_sx42 quick_test/fbank/raw_fbank_train.4.ark:4269685
fjsp0_sx264 quick_test/fbank/raw_fbank_train.1.ark:5827758
mrjh0_si1519 quick_test/fbank/raw_fbank_train.4.ark:2688756
fsrh0_sx221 quick_test/fbank/raw_fbank_train.2.ark:1096648
mrew1_sx240 quick_test/fbank/raw_fbank_train.4.ark:1997234
flkm0_sx116 quick_test/fbank/raw_fbank_train.1.ark:7975013
mwac0_sx251 quick_test/fbank/raw_fbank_train.4.ark:10542300
mzmb0_sx86 quick_test/fbank/raw_fbank_train.4.ark:11647275
mhrm0_si1475 quick_test/fbank/raw_fbank_train.3.ark:1378280
fsag0_sx63 quick_test/fbank/raw_fbank_train.1.ark:10981625
mwdk0_sx446 quick_test/fbank/raw_fbank_train.4.ark:10933829
mrdd0_sx330 quick_test/fbank/raw_fbank_train.4.ark:1432070
fdfb0_sx148 quick_test/fbank/raw_fbank_train.1.ark:2638483
mbma0_sx52 quick_test/fbank/raw_fbank_train.2.ark:3819009
mkrg0_sx31 quick_test/fbank/raw_fbank_train.3.ark:7110031
mdhl0_sx359 quick_test/fbank/raw_fbank_train.2.ark:7056644
mkls1_si1545 quick_test/fbank/raw_fbank_train.3.ark:6845655
mpsw0_sx167 quick_test/fbank/raw_fbank_train.4.ark:513984
mdwm0_si2176 quick_test/fbank/raw_fbank_train.2.ark:9471900
makb0_si1646 quick_test/fbank/raw_fbank_train.2.ark:2717336
mjai0_sx254 quick_test/fbank/raw_fbank_train.3.ark:1930614
fclt0_sx178 quick_test/fbank/raw_fbank_train.1.ark:1938905
mtpp0_sx248 quick_test/fbank/raw_fbank_train.4.ark:9434945
mwrp0_sx183 quick_test/fbank/raw_fbank_train.4.ark:11299673
msrr0_sx141 quick_test/fbank/raw_fbank_train.4.ark:6874608
flhd0_si1827 quick_test/fbank/raw_fbank_train.1.ark:7527406
mprt0_sx40 quick_test/fbank/raw_fbank_train.4.ark:463896
flhd0_si1344 quick_test/fbank/raw_fbank_train.1.ark:7516492
fapb0_sx253 quick_test/fbank/raw_fbank_train.1.ark:467002
mbma1_sx234 quick_test/fbank/raw_fbank_train.2.ark:3880176
mmdb0_sx267 quick_test/fbank/raw_fbank_train.3.ark:8652975
mwch0_sx272 quick_test/fbank/raw_fbank_train.4.ark:10810778
mjwt0_sx391 quick_test/fbank/raw_fbank_train.3.ark:5453591
mafm0_si939 quick_test/fbank/raw_fbank_train.2.ark:2510318
fmjb0_sx277 quick_test/fbank/raw_fbank_train.1.ark:8884394
mjpm1_sx41 quick_test/fbank/raw_fbank_train.3.ark:4415421
msjk0_sx156 quick_test/fbank/raw_fbank_train.4.ark:6372644
fjsp0_sx444 quick_test/fbank/raw_fbank_train.1.ark:5850824
mjfr0_si1605 quick_test/fbank/raw_fbank_train.3.ark:2963798
mbml0_si539 quick_test/fbank/raw_fbank_train.2.ark:3957455
mjhi0_si555 quick_test/fbank/raw_fbank_train.3.ark:3092336
mjwg0_sx355 quick_test/fbank/raw_fbank_train.3.ark:5214956
mrem0_sx331 quick_test/fbank/raw_fbank_train.4.ark:1920762
marc0_sx198 quick_test/fbank/raw_fbank_train.2.ark:3040583
mtrc0_sx363 quick_test/fbank/raw_fbank_train.4.ark:9792805
mdlb0_sx316 quick_test/fbank/raw_fbank_train.2.ark:7461025
mdhs0_sx450 quick_test/fbank/raw_fbank_train.2.ark:7166542
fssb0_si2342 quick_test/fbank/raw_fbank_train.2.ark:1187448
marw0_sx286 quick_test/fbank/raw_fbank_train.2.ark:3125528
mrgs0_si1986 quick_test/fbank/raw_fbank_train.4.ark:2390236
mwch0_sx92 quick_test/fbank/raw_fbank_train.4.ark:10846316
faem0_sx312 quick_test/fbank/raw_fbank_train.1.ark:62819
mrjh0_si914 quick_test/fbank/raw_fbank_train.4.ark:2727422
fcag0_si2133 quick_test/fbank/raw_fbank_train.1.ark:1272777
mdlc2_sx354 quick_test/fbank/raw_fbank_train.2.ark:7759621
mwre0_sx157 quick_test/fbank/raw_fbank_train.4.ark:11191127
mclk0_sx130 quick_test/fbank/raw_fbank_train.2.ark:5278651
mrkm0_si1391 quick_test/fbank/raw_fbank_train.4.ark:3132210
mvlo0_si1777 quick_test/fbank/raw_fbank_train.4.ark:10311591
mjxl0_sx182 quick_test/fbank/raw_fbank_train.3.ark:5595230
mklw0_si1844 quick_test/fbank/raw_fbank_train.3.ark:6961474
mgrp0_sx327 quick_test/fbank/raw_fbank_train.3.ark:547346
msah1_si2309 quick_test/fbank/raw_fbank_train.4.ark:5240052
falk0_sx96 quick_test/fbank/raw_fbank_train.1.ark:298009
fbjl0_sx382 quick_test/fbank/raw_fbank_train.1.ark:928160
mtpg0_sx213 quick_test/fbank/raw_fbank_train.4.ark:9348480
mntw0_sx348 quick_test/fbank/raw_fbank_train.3.ark:10709004
mjbg0_sx242 quick_test/fbank/raw_fbank_train.3.ark:2011960
flhd0_sx84 quick_test/fbank/raw_fbank_train.1.ark:7595724
mjpm1_si2280 quick_test/fbank/raw_fbank_train.3.ark:4338264
mgjc0_sx75 quick_test/fbank/raw_fbank_train.3.ark:375521
mtrr0_sx198 quick_test/fbank/raw_fbank_train.4.ark:9871356
mjrp0_sx405 quick_test/fbank/raw_fbank_train.3.ark:4985900
mfer0_si1492 quick_test/fbank/raw_fbank_train.2.ark:10396911
madc0_si1367 quick_test/fbank/raw_fbank_train.2.ark:2103670
mwch0_si2252 quick_test/fbank/raw_fbank_train.4.ark:10790712
mesj0_sx7 quick_test/fbank/raw_fbank_train.2.ark:10293620
mfmc0_si1132 quick_test/fbank/raw_fbank_train.2.ark:10479536
mdtb0_sx120 quick_test/fbank/raw_fbank_train.2.ark:9197370
msms0_sx83 quick_test/fbank/raw_fbank_train.4.ark:6725929
mrdd0_sx240 quick_test/fbank/raw_fbank_train.4.ark:1411364
mrws0_sx202 quick_test/fbank/raw_fbank_train.4.ark:5083347
mwem0_si1393 quick_test/fbank/raw_fbank_train.4.ark:10968209
mkdd0_si2197 quick_test/fbank/raw_fbank_train.3.ark:6172873
mkrg0_si861 quick_test/fbank/raw_fbank_train.3.ark:7074933
mmsm0_si1106 quick_test/fbank/raw_fbank_train.3.ark:9919472
mdwm0_si1546 quick_test/fbank/raw_fbank_train.2.ark:9460826
mdlc0_sx45 quick_test/fbank/raw_fbank_train.2.ark:7596475
fmjf0_sx444 quick_test/fbank/raw_fbank_train.1.ark:9006163
mjkr0_sx391 quick_test/fbank/raw_fbank_train.3.ark:3577274
mjrg0_sx376 quick_test/fbank/raw_fbank_train.3.ark:4617751
mrlj0_sx430 quick_test/fbank/raw_fbank_train.4.ark:3395623
fvkb0_sx79 quick_test/fbank/raw_fbank_train.2.ark:1915986
fklc1_sx328 quick_test/fbank/raw_fbank_train.1.ark:6875762
mmjb1_sx328 quick_test/fbank/raw_fbank_train.3.ark:9585658
flmk0_sx135 quick_test/fbank/raw_fbank_train.1.ark:8271249
falr0_sx65 quick_test/fbank/raw_fbank_train.1.ark:393554
maeb0_sx90 quick_test/fbank/raw_fbank_train.2.ark:2394111
mstf0_si1396 quick_test/fbank/raw_fbank_train.4.ark:6928292
fbjl0_sx292 quick_test/fbank/raw_fbank_train.1.ark:913327
fsms1_sx244 quick_test/fbank/raw_fbank_train.2.ark:899758
fcjf0_sx307 quick_test/fbank/raw_fbank_train.1.ark:1696696
fltm0_sx170 quick_test/fbank/raw_fbank_train.1.ark:8447421
mtat0_sx210 quick_test/fbank/raw_fbank_train.4.ark:7414844
mcre0_sx131 quick_test/fbank/raw_fbank_train.2.ark:5549687
flac0_si901 quick_test/fbank/raw_fbank_train.1.ark:7142578
mfmc0_sx322 quick_test/fbank/raw_fbank_train.2.ark:10548742
fsdc0_sx142 quick_test/fbank/raw_fbank_train.1.ark:11461660
fjkl0_sx392 quick_test/fbank/raw_fbank_train.1.ark:5241144
msfh0_sx406 quick_test/fbank/raw_fbank_train.4.ark:6191573
fscn0_sx86 quick_test/fbank/raw_fbank_train.1.ark:11416885
mrbc0_sx419 quick_test/fbank/raw_fbank_train.4.ark:1133474
fsls0_sx202 quick_test/fbank/raw_fbank_train.2.ark:595883
fcdr1_sx106 quick_test/fbank/raw_fbank_train.1.ark:1496220
fajw0_si1893 quick_test/fbank/raw_fbank_train.1.ark:120592
mppc0_si2042 quick_test/fbank/raw_fbank_train.3.ark:11474919
mdns0_si2271 quick_test/fbank/raw_fbank_train.2.ark:8422344
mbsb0_si1983 quick_test/fbank/raw_fbank_train.2.ark:4127834
mbbr0_si2315 quick_test/fbank/raw_fbank_train.2.ark:3301561
mjeb0_sx386 quick_test/fbank/raw_fbank_train.3.ark:2669529
mdlb0_si676 quick_test/fbank/raw_fbank_train.2.ark:7420246
mtxs0_sx250 quick_test/fbank/raw_fbank_train.4.ark:10151000
mdas0_sx186 quick_test/fbank/raw_fbank_train.2.ark:6150435
feme0_sx425 quick_test/fbank/raw_fbank_train.1.ark:3940285
mrbc0_si1665 quick_test/fbank/raw_fbank_train.4.ark:1058915
fsag0_sx243 quick_test/fbank/raw_fbank_train.1.ark:10930207
mjdg0_si1705 quick_test/fbank/raw_fbank_train.3.ark:2405395
mtpr0_sx70 quick_test/fbank/raw_fbank_train.4.ark:9585748
fmjb0_si1807 quick_test/fbank/raw_fbank_train.1.ark:8847335
fjhk0_sx302 quick_test/fbank/raw_fbank_train.1.ark:5127014
mjxl0_si1795 quick_test/fbank/raw_fbank_train.3.ark:5576324
mbbr0_si1685 quick_test/fbank/raw_fbank_train.2.ark:3291167
fnkl0_si1522 quick_test/fbank/raw_fbank_train.1.ark:9571831
mmaa0_si1588 quick_test/fbank/raw_fbank_train.3.ark:7864866
mjdg0_sx412 quick_test/fbank/raw_fbank_train.3.ark:2450727
mpfu0_sx358 quick_test/fbank/raw_fbank_train.3.ark:10973286
mmjb1_sx418 quick_test/fbank/raw_fbank_train.3.ark:9600251
mrlj1_si2332 quick_test/fbank/raw_fbank_train.4.ark:3442757
fkde0_si2221 quick_test/fbank/raw_fbank_train.1.ark:6320897
fnkl0_si2152 quick_test/fbank/raw_fbank_train.1.ark:9582305
fntb0_sx213 quick_test/fbank/raw_fbank_train.1.ark:9722388
msrg0_sx141 quick_test/fbank/raw_fbank_train.4.ark:6774983
mmdm0_sx51 quick_test/fbank/raw_fbank_train.3.ark:8889683
mmag0_sx226 quick_test/fbank/raw_fbank_train.3.ark:8137129
mgag0_si691 quick_test/fbank/raw_fbank_train.2.ark:11075875
mdmt0_sx212 quick_test/fbank/raw_fbank_train.2.ark:8353098
fsjw0_sx433 quick_test/fbank/raw_fbank_train.2.ark:229208
fjkl0_sx302 quick_test/fbank/raw_fbank_train.1.ark:5220079
mrlk0_sx33 quick_test/fbank/raw_fbank_train.4.ark:3580393
mrmg0_sx360 quick_test/fbank/raw_fbank_train.4.ark:3848557
mrav0_sx18 quick_test/fbank/raw_fbank_train.4.ark:1017302
fdml0_si2075 quick_test/fbank/raw_fbank_train.1.ark:2925927
mzmb0_sx446 quick_test/fbank/raw_fbank_train.4.ark:11636003
fsah0_sx434 quick_test/fbank/raw_fbank_train.1.ark:11080938
mmwb0_si2249 quick_test/fbank/raw_fbank_train.3.ark:10154317
mwad0_sx162 quick_test/fbank/raw_fbank_train.4.ark:10629453
makb0_sx206 quick_test/fbank/raw_fbank_train.2.ark:2767276
fgcs0_sx136 quick_test/fbank/raw_fbank_train.1.ark:4208462
fmju0_sx219 quick_test/fbank/raw_fbank_train.1.ark:9089842
mkes0_sx353 quick_test/fbank/raw_fbank_train.3.ark:6428774
fajw0_sx273 quick_test/fbank/raw_fbank_train.1.ark:163691
mcdd0_sx73 quick_test/fbank/raw_fbank_train.2.ark:4790696
mrjm1_sx38 quick_test/fbank/raw_fbank_train.4.ark:2985084
mpgh0_sx24 quick_test/fbank/raw_fbank_train.3.ark:11073669
mtpr0_sx430 quick_test/fbank/raw_fbank_train.4.ark:9567476
mtwh1_sx162 quick_test/fbank/raw_fbank_train.4.ark:10035181
mtat1_sx239 quick_test/fbank/raw_fbank_train.4.ark:7507629
mfer0_sx52 quick_test/fbank/raw_fbank_train.2.ark:10469942
mrab1_sx398 quick_test/fbank/raw_fbank_train.4.ark:752604
mprd0_si801 quick_test/fbank/raw_fbank_train.4.ark:188756
mtas0_si2015 quick_test/fbank/raw_fbank_train.4.ark:7289480
mgjc0_sx255 quick_test/fbank/raw_fbank_train.3.ark:330383
mgrp0_sx147 quick_test/fbank/raw_fbank_train.3.ark:524160
fetb0_si1778 quick_test/fbank/raw_fbank_train.1.ark:3972865
mges0_sx41 quick_test/fbank/raw_fbank_train.3.ark:264175
fklh0_si1257 quick_test/fbank/raw_fbank_train.1.ark:6919781
fcke0_sx211 quick_test/fbank/raw_fbank_train.1.ark:1867433
fjlr0_si1231 quick_test/fbank/raw_fbank_train.1.ark:5351804
mcxm0_sx361 quick_test/fbank/raw_fbank_train.2.ark:5968851
mmxs0_si2136 quick_test/fbank/raw_fbank_train.3.ark:10444517
msmc0_sx197 quick_test/fbank/raw_fbank_train.4.ark:6503253
mjae0_sx84 quick_test/fbank/raw_fbank_train.3.ark:1851648
mjjm0_si1457 quick_test/fbank/raw_fbank_train.3.ark:3404532
mpmb0_si871 quick_test/fbank/raw_fbank_train.3.ark:11337607
mreh1_sx249 quick_test/fbank/raw_fbank_train.4.ark:1808265
mjhi0_si698 quick_test/fbank/raw_fbank_train.3.ark:3100969
mkls0_si1437 quick_test/fbank/raw_fbank_train.3.ark:6736749
mrfl0_sx436 quick_test/fbank/raw_fbank_train.4.ark:2227351
mjws0_si1143 quick_test/fbank/raw_fbank_train.3.ark:5246855
mefg0_si491 quick_test/fbank/raw_fbank_train.2.ark:9736414
msrr0_sx231 quick_test/fbank/raw_fbank_train.4.ark:6889841
mrtc0_sx18 quick_test/fbank/raw_fbank_train.4.ark:4678086
fpab1_si841 quick_test/fbank/raw_fbank_train.1.ark:9796187
mhjb0_si1647 quick_test/fbank/raw_fbank_train.3.ark:1114998
fbmj0_sx66 quick_test/fbank/raw_fbank_train.1.ark:1245595
mmdm1_si1650 quick_test/fbank/raw_fbank_train.3.ark:8901157
mhit0_sx443 quick_test/fbank/raw_fbank_train.3.ark:1083098
mtab0_si1572 quick_test/fbank/raw_fbank_train.4.ark:7158301
mses0_sx59 quick_test/fbank/raw_fbank_train.4.ark:6092180
fmpg0_sx72 quick_test/fbank/raw_fbank_train.1.ark:9561917
msat1_si1073 quick_test/fbank/raw_fbank_train.4.ark:5496060
mdpb0_si1760 quick_test/fbank/raw_fbank_train.2.ark:8500055
mdbp0_sx438 quick_test/fbank/raw_fbank_train.2.ark:6368262
mefg0_sx375 quick_test/fbank/raw_fbank_train.2.ark:9815531
msmc0_sx377 quick_test/fbank/raw_fbank_train.4.ark:6526999
mtpf0_si1865 quick_test/fbank/raw_fbank_train.4.ark:9219836
mkrg0_si1491 quick_test/fbank/raw_fbank_train.3.ark:7044106
ftbw0_si1345 quick_test/fbank/raw_fbank_train.2.ark:1437855
mfxv0_sx285 quick_test/fbank/raw_fbank_train.2.ark:10940837
madc0_si1997 quick_test/fbank/raw_fbank_train.2.ark:2121984
fskc0_si2046 quick_test/fbank/raw_fbank_train.2.ark:267348
flja0_sx88 quick_test/fbank/raw_fbank_train.1.ark:7702470
mkam0_si1316 quick_test/fbank/raw_fbank_train.3.ark:5968183
mrds0_si1167 quick_test/fbank/raw_fbank_train.4.ark:1555881
makb0_sx386 quick_test/fbank/raw_fbank_train.2.ark:2799974
fsbk0_sx79 quick_test/fbank/raw_fbank_train.1.ark:11293621
mded0_si540 quick_test/fbank/raw_fbank_train.2.ark:6707190
mrjm0_si1858 quick_test/fbank/raw_fbank_train.4.ark:2827928
fear0_sx82 quick_test/fbank/raw_fbank_train.1.ark:3621842
mewm0_sx88 quick_test/fbank/raw_fbank_train.2.ark:10383237
mrvg0_si510 quick_test/fbank/raw_fbank_train.4.ark:4874151
fpad0_sx266 quick_test/fbank/raw_fbank_train.1.ark:10044143
mbma0_sx232 quick_test/fbank/raw_fbank_train.2.ark:3782591
fkkh0_sx390 quick_test/fbank/raw_fbank_train.1.ark:6702376
mjsr0_si2054 quick_test/fbank/raw_fbank_train.3.ark:5022080
mwad0_si2322 quick_test/fbank/raw_fbank_train.4.ark:10619860
fsjg0_sx310 quick_test/fbank/raw_fbank_train.1.ark:11789281
mtpf0_sx155 quick_test/fbank/raw_fbank_train.4.ark:9243542
fjlr0_sx241 quick_test/fbank/raw_fbank_train.1.ark:5401457
fsjs0_sx181 quick_test/fbank/raw_fbank_train.2.ark:82924
mjra0_sx66 quick_test/fbank/raw_fbank_train.3.ark:4519406
fexm0_si1731 quick_test/fbank/raw_fbank_train.1.ark:4072290
mbgt0_sx261 quick_test/fbank/raw_fbank_train.2.ark:3597101
mcdr0_sx254 quick_test/fbank/raw_fbank_train.2.ark:4872703
mkls0_sx447 quick_test/fbank/raw_fbank_train.3.ark:6823589
mcth0_si1209 quick_test/fbank/raw_fbank_train.2.ark:5712635
mtpp0_si878 quick_test/fbank/raw_fbank_train.4.ark:9414159
flac0_sx451 quick_test/fbank/raw_fbank_train.1.ark:7183190
mtju0_sx130 quick_test/fbank/raw_fbank_train.4.ark:8433461
mwsh0_si796 quick_test/fbank/raw_fbank_train.4.ark:11469006
mpar0_sx46 quick_test/fbank/raw_fbank_train.3.ark:10811581
mram0_sx285 quick_test/fbank/raw_fbank_train.4.ark:945622
mcdc0_sx212 quick_test/fbank/raw_fbank_train.2.ark:4665333
fdnc0_sx108 quick_test/fbank/raw_fbank_train.1.ark:3170210
mmpm0_sx71 quick_test/fbank/raw_fbank_train.3.ark:9802534
fmah1_si2139 quick_test/fbank/raw_fbank_train.1.ark:8535180
fsdj0_sx395 quick_test/fbank/raw_fbank_train.1.ark:11595016
mvrw0_sx405 quick_test/fbank/raw_fbank_train.4.ark:10462061
mvrw0_sx225 quick_test/fbank/raw_fbank_train.4.ark:10445795
fjrb0_si672 quick_test/fbank/raw_fbank_train.1.ark:5476736
meal0_si917 quick_test/fbank/raw_fbank_train.2.ark:9578398
frll0_sx164 quick_test/fbank/raw_fbank_train.1.ark:10824829
fssb0_sx92 quick_test/fbank/raw_fbank_train.2.ark:1249132
mefg0_sx285 quick_test/fbank/raw_fbank_train.2.ark:9803858
mjrh0_sx225 quick_test/fbank/raw_fbank_train.3.ark:4685039
mrjm1_si1298 quick_test/fbank/raw_fbank_train.4.ark:2909966
fkfb0_sx78 quick_test/fbank/raw_fbank_train.1.ark:6598711
fmem0_sx117 quick_test/fbank/raw_fbank_train.1.ark:8759895
mtwh1_sx72 quick_test/fbank/raw_fbank_train.4.ark:10081832
mkdd0_sx217 quick_test/fbank/raw_fbank_train.3.ark:6215572
mmpm0_si1691 quick_test/fbank/raw_fbank_train.3.ark:9723176
fgdp0_si1618 quick_test/fbank/raw_fbank_train.1.ark:4267507
mkln0_sx428 quick_test/fbank/raw_fbank_train.3.ark:6625697
mcdd0_si883 quick_test/fbank/raw_fbank_train.2.ark:4733452
mjpm0_sx288 quick_test/fbank/raw_fbank_train.3.ark:4307083
mrml0_sx161 quick_test/fbank/raw_fbank_train.4.ark:4024062
fklh0_sx87 quick_test/fbank/raw_fbank_train.1.ark:7006332
mrmh0_si1349 quick_test/fbank/raw_fbank_train.4.ark:3901410
mkls0_sx177 quick_test/fbank/raw_fbank_train.3.ark:6784850
mhjb0_si1017 quick_test/fbank/raw_fbank_train.3.ark:1105444
mdlc0_sx405 quick_test/fbank/raw_fbank_train.2.ark:7584803
mwsh0_sx256 quick_test/fbank/raw_fbank_train.4.ark:11505192
mrmh0_sx391 quick_test/fbank/raw_fbank_train.4.ark:3969288
mmpm0_sx341 quick_test/fbank/raw_fbank_train.3.ark:9776789
mjbg0_sx152 quick_test/fbank/raw_fbank_train.3.ark:1998567
fmpg0_si972 quick_test/fbank/raw_fbank_train.1.ark:9472113
mmam0_si1668 quick_test/fbank/raw_fbank_train.3.ark:8203935
mnet0_sx276 quick_test/fbank/raw_fbank_train.3.ark:10584274
fcjs0_sx77 quick_test/fbank/raw_fbank_train.1.ark:1802706
mjpg0_si1191 quick_test/fbank/raw_fbank_train.3.ark:4143660
mrcg0_si1428 quick_test/fbank/raw_fbank_train.4.ark:1154820
mcdr0_si524 quick_test/fbank/raw_fbank_train.2.ark:4837757
mmvp0_sx384 quick_test/fbank/raw_fbank_train.3.ark:10129129
mtml0_sx165 quick_test/fbank/raw_fbank_train.4.ark:8935987
fhxs0_si1075 quick_test/fbank/raw_fbank_train.1.ark:4717169
msds0_si2337 quick_test/fbank/raw_fbank_train.4.ark:5800285
fskc0_sx156 quick_test/fbank/raw_fbank_train.2.ark:288174
mmdb0_sx357 quick_test/fbank/raw_fbank_train.3.ark:8665368
mjdm0_sx260 quick_test/fbank/raw_fbank_train.3.ark:2527606
mtwh1_sx432 quick_test/fbank/raw_fbank_train.4.ark:10067600
fpad0_sx356 quick_test/fbank/raw_fbank_train.1.ark:10056256
fcmg0_sx342 quick_test/fbank/raw_fbank_train.1.ark:2066397
mmeb0_si1357 quick_test/fbank/raw_fbank_train.3.ark:9167672
mcdc0_sx122 quick_test/fbank/raw_fbank_train.2.ark:4651980
mkdt0_si814 quick_test/fbank/raw_fbank_train.3.ark:6264537
mtdb0_sx141 quick_test/fbank/raw_fbank_train.4.ark:7805471
mrlj1_sx51 quick_test/fbank/raw_fbank_train.4.ark:3491601
msvs0_si1568 quick_test/fbank/raw_fbank_train.4.ark:7035116
mjee0_sx247 quick_test/fbank/raw_fbank_train.3.ark:2829761
fecd0_sx428 quick_test/fbank/raw_fbank_train.1.ark:3724555
fjdm2_si2212 quick_test/fbank/raw_fbank_train.1.ark:4864063
mtbc0_sx363 quick_test/fbank/raw_fbank_train.4.ark:7639320
mwdk0_si1436 quick_test/fbank/raw_fbank_train.4.ark:10856870
mklw0_sx221 quick_test/fbank/raw_fbank_train.3.ark:6986334
fpls0_sx330 quick_test/fbank/raw_fbank_train.1.ark:10462588
faem0_sx402 quick_test/fbank/raw_fbank_train.1.ark:78172
flmc0_si1372 quick_test/fbank/raw_fbank_train.1.ark:8132803
mprt0_si580 quick_test/fbank/raw_fbank_train.4.ark:420045
mewm0_si718 quick_test/fbank/raw_fbank_train.2.ark:10325753
fsmm0_sx234 quick_test/fbank/raw_fbank_train.2.ark:790133
mrhl0_sx345 quick_test/fbank/raw_fbank_train.4.ark:2538671
mlel0_sx436 quick_test/fbank/raw_fbank_train.3.ark:7416260
mlbc0_sx249 quick_test/fbank/raw_fbank_train.3.ark:7285449
mrab1_si848 quick_test/fbank/raw_fbank_train.4.ark:687480
mmaa0_sx395 quick_test/fbank/raw_fbank_train.3.ark:7958737
msas0_sx116 quick_test/fbank/raw_fbank_train.4.ark:5359590
msfh0_si586 quick_test/fbank/raw_fbank_train.4.ark:6136481
mtab0_si942 quick_test/fbank/raw_fbank_train.4.ark:7190128
mreh1_sx69 quick_test/fbank/raw_fbank_train.4.ark:1844803
msrr0_si1131 quick_test/fbank/raw_fbank_train.4.ark:6828548
mpar0_si1576 quick_test/fbank/raw_fbank_train.3.ark:10734870
fmmh0_sx367 quick_test/fbank/raw_fbank_train.1.ark:9396836
mvjh0_si2186 quick_test/fbank/raw_fbank_train.4.ark:10223766
frll0_sx434 quick_test/fbank/raw_fbank_train.1.ark:10857808
mrtc0_sx108 quick_test/fbank/raw_fbank_train.4.ark:4666014
fmpg0_sx252 quick_test/fbank/raw_fbank_train.1.ark:9511659
mdma0_sx260 quick_test/fbank/raw_fbank_train.2.ark:8249073
mdhs0_sx360 quick_test/fbank/raw_fbank_train.2.ark:7155989
madc0_sx377 quick_test/fbank/raw_fbank_train.2.ark:2197221
ftbw0_sx355 quick_test/fbank/raw_fbank_train.2.ark:1505501
fdjh0_sx35 quick_test/fbank/raw_fbank_train.1.ark:2764726
fgcs0_si1486 quick_test/fbank/raw_fbank_train.1.ark:4175922
mlsh0_si2047 quick_test/fbank/raw_fbank_train.3.ark:7777715
mdem0_sx338 quick_test/fbank/raw_fbank_train.2.ark:6953539
mabc0_si2041 quick_test/fbank/raw_fbank_train.2.ark:2026039
mree0_sx114 quick_test/fbank/raw_fbank_train.4.ark:1693047
feme0_si1505 quick_test/fbank/raw_fbank_train.1.ark:3853486
flkm0_si686 quick_test/fbank/raw_fbank_train.1.ark:7967940
mgsl0_si534 quick_test/fbank/raw_fbank_train.3.ark:713021
fklh0_si1887 quick_test/fbank/raw_fbank_train.1.ark:6940775
mdbp0_sx258 quick_test/fbank/raw_fbank_train.2.ark:6340876
fajw0_sx93 quick_test/fbank/raw_fbank_train.1.ark:196227
fkde0_si1771 quick_test/fbank/raw_fbank_train.1.ark:6302543
mgsl0_sx174 quick_test/fbank/raw_fbank_train.3.ark:740407
fecd0_si788 quick_test/fbank/raw_fbank_train.1.ark:3667063
mtdb0_si2031 quick_test/fbank/raw_fbank_train.4.ark:7779405
mpar0_si2206 quick_test/fbank/raw_fbank_train.3.ark:10740944
mtqc0_sx451 quick_test/fbank/raw_fbank_train.4.ark:9690461
fsbk0_si1699 quick_test/fbank/raw_fbank_train.1.ark:11215303
feac0_si1245 quick_test/fbank/raw_fbank_train.1.ark:3429986
mcdr0_si1784 quick_test/fbank/raw_fbank_train.2.ark:4817964
fpaz0_si963 quick_test/fbank/raw_fbank_train.1.ark:10221808
mdbp0_si1158 quick_test/fbank/raw_fbank_train.2.ark:6289383
majp0_si1074 quick_test/fbank/raw_fbank_train.2.ark:2580956
mrjt0_si1498 quick_test/fbank/raw_fbank_train.4.ark:3011511
mnet0_si816 quick_test/fbank/raw_fbank_train.3.ark:10563328
mrre0_sx164 quick_test/fbank/raw_fbank_train.4.ark:4332898
mbom0_sx294 quick_test/fbank/raw_fbank_train.2.ark:4078900
msvs0_sx128 quick_test/fbank/raw_fbank_train.4.ark:7086216
maeo0_si1956 quick_test/fbank/raw_fbank_train.2.ark:2430413
mpar0_sx406 quick_test/fbank/raw_fbank_train.3.ark:10799109
mapv0_sx123 quick_test/fbank/raw_fbank_train.2.ark:2934013
mhmr0_sx129 quick_test/fbank/raw_fbank_train.3.ark:1317835
fgdp0_sx268 quick_test/fbank/raw_fbank_train.1.ark:4323080
mdns0_sx21 quick_test/fbank/raw_fbank_train.2.ark:8472075
mjmd0_si2288 quick_test/fbank/raw_fbank_train.3.ark:3979317
mljc0_si1855 quick_test/fbank/raw_fbank_train.3.ark:7463800
mrcw0_sx21 quick_test/fbank/raw_fbank_train.4.ark:1338690
mtlc0_sx397 quick_test/fbank/raw_fbank_train.4.ark:8883612
mbwp0_sx79 quick_test/fbank/raw_fbank_train.2.ark:4381878
