fpaf0_si1054 quick_test/mfcc/raw_mfcc_train.1.ark:3297510
mmdb0_sx447 quick_test/mfcc/raw_mfcc_train.3.ark:2835967
mtkd0_sx377 quick_test/mfcc/raw_mfcc_train.4.ark:2805924
fssb0_sx272 quick_test/mfcc/raw_mfcc_train.2.ark:393909
mhjb0_sx297 quick_test/mfcc/raw_mfcc_train.3.ark:381384
fsgf0_si1557 quick_test/mfcc/raw_mfcc_train.1.ark:3792079
mgag0_sx241 quick_test/mfcc/raw_mfcc_train.2.ark:3629076
mtkp0_si454 quick_test/mfcc/raw_mfcc_train.4.ark:2820988
fmpg0_sx432 quick_test/mfcc/raw_mfcc_train.1.ark:3117461
msms0_sx353 quick_test/mfcc/raw_mfcc_train.4.ark:2190234
mmsm0_sx116 quick_test/mfcc/raw_mfcc_train.3.ark:3256748
mdss1_sx157 quick_test/mfcc/raw_mfcc_train.2.ark:2978043
mejs0_si1870 quick_test/mfcc/raw_mfcc_train.2.ark:3283278
fdjh0_sx125 quick_test/mfcc/raw_mfcc_train.1.ark:892997
fmjf0_sx174 quick_test/mfcc/raw_mfcc_train.1.ark:2929386
mtju0_sx220 quick_test/mfcc/raw_mfcc_train.4.ark:2759047
mses0_si2216 quick_test/mfcc/raw_mfcc_train.4.ark:1969605
mkxl0_sx15 quick_test/mfcc/raw_mfcc_train.3.ark:2350383
msmc0_sx197 quick_test/mfcc/raw_mfcc_train.4.ark:2125041
fdnc0_sx378 quick_test/mfcc/raw_mfcc_train.1.ark:1052699
mlsh0_si2047 quick_test/mfcc/raw_mfcc_train.3.ark:2541740
fjen0_sx147 quick_test/mfcc/raw_mfcc_train.1.ark:1629054
mtrr0_si1548 quick_test/mfcc/raw_mfcc_train.4.ark:3205807
mjpm0_sx378 quick_test/mfcc/raw_mfcc_train.3.ark:1411775
mdss0_sx171 quick_test/mfcc/raw_mfcc_train.2.ark:2949516
fsmm0_sx324 quick_test/mfcc/raw_mfcc_train.2.ark:263297
mdhs0_sx180 quick_test/mfcc/raw_mfcc_train.2.ark:2332166
fdtd0_si931 quick_test/mfcc/raw_mfcc_train.1.ark:1065839
fskp0_sx378 quick_test/mfcc/raw_mfcc_train.2.ark:172489
flmk0_si1035 quick_test/mfcc/raw_mfcc_train.1.ark:2689634
mmsm0_si1736 quick_test/mfcc/raw_mfcc_train.3.ark:3247361
mhbs0_sx45 quick_test/mfcc/raw_mfcc_train.3.ark:325597
mesg0_si1962 quick_test/mfcc/raw_mfcc_train.2.ark:3313118
mmvp0_sx347 quick_test/mfcc/raw_mfcc_train.3.ark:3303860
mjdm0_sx260 quick_test/mfcc/raw_mfcc_train.3.ark:826039
mdhl0_sx449 quick_test/mfcc/raw_mfcc_train.2.ark:2311382
mesg0_sx72 quick_test/mfcc/raw_mfcc_train.2.ark:3339120
mbjv0_si1247 quick_test/mfcc/raw_mfcc_train.2.ark:1191523
fbch0_sx326 quick_test/mfcc/raw_mfcc_train.1.ark:261393
mdjm0_sx285 quick_test/mfcc/raw_mfcc_train.2.ark:2372998
fbmh0_sx236 quick_test/mfcc/raw_mfcc_train.1.ark:360956
mvjh0_sx26 quick_test/mfcc/raw_mfcc_train.4.ark:3356364
mpsw0_si2327 quick_test/mfcc/raw_mfcc_train.4.ark:165097
mrcg0_sx168 quick_test/mfcc/raw_mfcc_train.4.ark:392328
fgrw0_si1152 quick_test/mfcc/raw_mfcc_train.1.ark:1470030
mgag0_sx151 quick_test/mfcc/raw_mfcc_train.2.ark:3625364
mprt0_si495 quick_test/mfcc/raw_mfcc_train.4.ark:134820
fskc0_sx66 quick_test/mfcc/raw_mfcc_train.2.ark:110040
makb0_sx206 quick_test/mfcc/raw_mfcc_train.2.ark:904384
ftbw0_si1345 quick_test/mfcc/raw_mfcc_train.2.ark:469905
mtpg0_sx123 quick_test/mfcc/raw_mfcc_train.4.ark:3051248
mhrm0_sx58 quick_test/mfcc/raw_mfcc_train.3.ark:476761
mrvg0_si1140 quick_test/mfcc/raw_mfcc_train.4.ark:1586072
mtbc0_si1803 quick_test/mfcc/raw_mfcc_train.4.ark:2474156
mdwm0_sx433 quick_test/mfcc/raw_mfcc_train.2.ark:3119921
msms0_sx83 quick_test/mfcc/raw_mfcc_train.4.ark:2197813
fbjl0_sx112 quick_test/mfcc/raw_mfcc_train.1.ark:288190
mtju0_sx130 quick_test/mfcc/raw_mfcc_train.4.ark:2755712
mrgm0_sx172 quick_test/mfcc/raw_mfcc_train.4.ark:750847
mejl0_sx332 quick_test/mfcc/raw_mfcc_train.2.ark:3265946
fcmm0_sx420 quick_test/mfcc/raw_mfcc_train.1.ark:711090
fmpg0_sx162 quick_test/mfcc/raw_mfcc_train.1.ark:3102009
mdss1_si697 quick_test/mfcc/raw_mfcc_train.2.ark:2973291
mdac0_sx271 quick_test/mfcc/raw_mfcc_train.2.ark:1980990
mbsb0_sx3 quick_test/mfcc/raw_mfcc_train.2.ark:1360987
fskc0_sx426 quick_test/mfcc/raw_mfcc_train.2.ark:105978
mmrp0_si717 quick_test/mfcc/raw_mfcc_train.3.ark:3209019
mrjb1_sx30 quick_test/mfcc/raw_mfcc_train.4.ark:867497
mjjm0_si827 quick_test/mfcc/raw_mfcc_train.3.ark:1117439
mtrc0_sx273 quick_test/mfcc/raw_mfcc_train.4.ark:3197336
mjrh1_si1558 quick_test/mfcc/raw_mfcc_train.3.ark:1545301
mpar0_sx136 quick_test/mfcc/raw_mfcc_train.3.ark:3518242
mljh0_si694 quick_test/mfcc/raw_mfcc_train.3.ark:2477699
ftlg0_si483 quick_test/mfcc/raw_mfcc_train.2.ark:508163
mtpp0_si2138 quick_test/mfcc/raw_mfcc_train.4.ark:3073469
fsmm0_sx414 quick_test/mfcc/raw_mfcc_train.2.ark:269102
fjsp0_si1434 quick_test/mfcc/raw_mfcc_train.1.ark:1888178
fskc0_sx246 quick_test/mfcc/raw_mfcc_train.2.ark:97631
fvfb0_si1032 quick_test/mfcc/raw_mfcc_train.2.ark:567718
mjfr0_sx345 quick_test/mfcc/raw_mfcc_train.3.ark:989611
mtat0_si811 quick_test/mfcc/raw_mfcc_train.4.ark:2413196
fljd0_sx436 quick_test/mfcc/raw_mfcc_train.1.ark:2547147
mafm0_si1569 quick_test/mfcc/raw_mfcc_train.2.ark:816853
fmjb0_sx277 quick_test/mfcc/raw_mfcc_train.1.ark:2902922
fmah1_si2139 quick_test/mfcc/raw_mfcc_train.1.ark:2788824
fdjh0_sx35 quick_test/mfcc/raw_mfcc_train.1.ark:903508
fgcs0_sx136 quick_test/mfcc/raw_mfcc_train.1.ark:1375163
fmjf0_si624 quick_test/mfcc/raw_mfcc_train.1.ark:2923672
mrgm0_sx442 quick_test/mfcc/raw_mfcc_train.4.ark:764037
mdtb0_sx390 quick_test/mfcc/raw_mfcc_train.2.ark:3020235
mlns0_sx417 quick_test/mfcc/raw_mfcc_train.3.ark:2528445
fsdj0_sx305 quick_test/mfcc/raw_mfcc_train.1.ark:3782451
mree0_si1959 quick_test/mfcc/raw_mfcc_train.4.ark:547698
mrem0_si961 quick_test/mfcc/raw_mfcc_train.4.ark:617205
mrms0_si1113 quick_test/mfcc/raw_mfcc_train.4.ark:1340933
msmc0_sx287 quick_test/mfcc/raw_mfcc_train.4.ark:2128870
fklc1_sx418 quick_test/mfcc/raw_mfcc_train.1.ark:2250959
fpaz0_sx423 quick_test/mfcc/raw_mfcc_train.1.ark:3356539
mgsl0_si534 quick_test/mfcc/raw_mfcc_train.3.ark:233015
mwre0_sx67 quick_test/mfcc/raw_mfcc_train.4.ark:3672307
faem0_si2022 quick_test/mfcc/raw_mfcc_train.1.ark:6313
mbml0_sx89 quick_test/mfcc/raw_mfcc_train.2.ark:1312747
msrr0_sx141 quick_test/mfcc/raw_mfcc_train.4.ark:2246403
mtab0_si2202 quick_test/mfcc/raw_mfcc_train.4.ark:2346190
mjwg0_sx265 quick_test/mfcc/raw_mfcc_train.3.ark:1700127
mree0_si1734 quick_test/mfcc/raw_mfcc_train.4.ark:543348
mrds0_sx357 quick_test/mfcc/raw_mfcc_train.4.ark:526991
fajw0_si1263 quick_test/mfcc/raw_mfcc_train.1.ark:32804
mfxs0_sx54 quick_test/mfcc/raw_mfcc_train.2.ark:3548338
mfwk0_sx439 quick_test/mfcc/raw_mfcc_train.2.ark:3513590
fbmh0_sx56 quick_test/mfcc/raw_mfcc_train.1.ark:370570
mdhl0_si2069 quick_test/mfcc/raw_mfcc_train.2.ark:2291990
mhmr0_sx399 quick_test/mfcc/raw_mfcc_train.3.ark:447220
fkde0_si1771 quick_test/mfcc/raw_mfcc_train.1.ark:2059277
mrfl0_si1786 quick_test/mfcc/raw_mfcc_train.4.ark:705055
mtdp0_si1521 quick_test/mfcc/raw_mfcc_train.4.ark:2571411
fgcs0_si1486 quick_test/mfcc/raw_mfcc_train.1.ark:1364520
fmem0_sx207 quick_test/mfcc/raw_mfcc_train.1.ark:2866568
fdaw0_sx56 quick_test/mfcc/raw_mfcc_train.1.ark:848072
fsjk1_sx395 quick_test/mfcc/raw_mfcc_train.2.ark:10510
mbma1_si954 quick_test/mfcc/raw_mfcc_train.2.ark:1258836
mrai0_sx162 quick_test/mfcc/raw_mfcc_train.4.ark:264581
fcmm0_sx93 quick_test/mfcc/raw_mfcc_train.1.ark:716595
mjwt0_si751 quick_test/mfcc/raw_mfcc_train.3.ark:1761808
mklr0_si1689 quick_test/mfcc/raw_mfcc_train.3.ark:2178566
fblv0_sx428 quick_test/mfcc/raw_mfcc_train.1.ark:334354
fsls0_si2316 quick_test/mfcc/raw_mfcc_train.2.ark:184824
mrlr0_sx26 quick_test/mfcc/raw_mfcc_train.4.ark:1197486
flod0_si1917 quick_test/mfcc/raw_mfcc_train.1.ark:2726516
mkag0_sx30 quick_test/mfcc/raw_mfcc_train.3.ark:1872772
mjxl0_si542 quick_test/mfcc/raw_mfcc_train.3.ark:1824712
mwac0_sx251 quick_test/mfcc/raw_mfcc_train.4.ark:3444864
mtrt0_sx237 quick_test/mfcc/raw_mfcc_train.4.ark:3256320
fdjh0_si935 quick_test/mfcc/raw_mfcc_train.1.ark:887465
mpgh0_si675 quick_test/mfcc/raw_mfcc_train.3.ark:3604211
mrjm0_sx328 quick_test/mfcc/raw_mfcc_train.4.ark:936642
mrcw0_sx291 quick_test/mfcc/raw_mfcc_train.4.ark:439764
mrtc0_si828 quick_test/mfcc/raw_mfcc_train.4.ark:1520791
mjmm0_sx355 quick_test/mfcc/raw_mfcc_train.3.ark:1345101
mrld0_sx154 quick_test/mfcc/raw_mfcc_train.4.ark:1070598
mrlj1_sx411 quick_test/mfcc/raw_mfcc_train.4.ark:1137242
fclt0_sx448 quick_test/mfcc/raw_mfcc_train.1.ark:645715
mcdc0_sx32 quick_test/mfcc/raw_mfcc_train.2.ark:1532823
mtqc0_sx181 quick_test/mfcc/raw_mfcc_train.4.ark:3151025
fjrb0_sx132 quick_test/mfcc/raw_mfcc_train.1.ark:1791477
mjhi0_si555 quick_test/mfcc/raw_mfcc_train.3.ark:1010582
fmpg0_sx342 quick_test/mfcc/raw_mfcc_train.1.ark:3111669
mjpg0_si1191 quick_test/mfcc/raw_mfcc_train.3.ark:1354209
marw0_sx286 quick_test/mfcc/raw_mfcc_train.2.ark:1021553
fhlm0_sx349 quick_test/mfcc/raw_mfcc_train.1.ark:1531023
mrbc0_sx419 quick_test/mfcc/raw_mfcc_train.4.ark:370400
mrab0_si1224 quick_test/mfcc/raw_mfcc_train.4.ark:184547
mmgg0_sx179 quick_test/mfcc/raw_mfcc_train.3.ark:3067477
fklh0_sx177 quick_test/mfcc/raw_mfcc_train.1.ark:2273446
mhbs0_si1575 quick_test/mfcc/raw_mfcc_train.3.ark:299444
mges0_si851 quick_test/mfcc/raw_mfcc_train.3.ark:67067
fsdc0_sx322 quick_test/mfcc/raw_mfcc_train.1.ark:3753248
fntb0_si573 quick_test/mfcc/raw_mfcc_train.1.ark:3162636
mfxs0_sx144 quick_test/mfcc/raw_mfcc_train.2.ark:3530774
fssb0_si2342 quick_test/mfcc/raw_mfcc_train.2.ark:388032
msvs0_si1568 quick_test/mfcc/raw_mfcc_train.4.ark:2298857
fkaa0_si1208 quick_test/mfcc/raw_mfcc_train.1.ark:2017443
mjmd0_sx308 quick_test/mfcc/raw_mfcc_train.3.ark:1312934
mmsm0_sx296 quick_test/mfcc/raw_mfcc_train.3.ark:3268065
fdml0_si1149 quick_test/mfcc/raw_mfcc_train.1.ark:947950
fcaj0_sx309 quick_test/mfcc/raw_mfcc_train.1.ark:457191
msrg0_sx321 quick_test/mfcc/raw_mfcc_train.4.ark:2219775
mdac0_si1837 quick_test/mfcc/raw_mfcc_train.2.ark:1965915
marw0_si1276 quick_test/mfcc/raw_mfcc_train.2.ark:1004072
fkaa0_sx128 quick_test/mfcc/raw_mfcc_train.1.ark:2030257
fcke0_sx31 quick_test/mfcc/raw_mfcc_train.1.ark:617330
mrds0_si1797 quick_test/mfcc/raw_mfcc_train.4.ark:510947
mjfh0_sx207 quick_test/mfcc/raw_mfcc_train.3.ark:957606
flag0_sx114 quick_test/mfcc/raw_mfcc_train.1.ark:2371000
mdcm0_sx220 quick_test/mfcc/raw_mfcc_train.2.ark:2138911
mjjb0_sx59 quick_test/mfcc/raw_mfcc_train.3.ark:1066568
mwch0_si1622 quick_test/mfcc/raw_mfcc_train.4.ark:3520265
fdmy0_sx297 quick_test/mfcc/raw_mfcc_train.1.ark:1010735
mjeb1_sx207 quick_test/mfcc/raw_mfcc_train.3.ark:896405
mtkp0_si2283 quick_test/mfcc/raw_mfcc_train.4.ark:2814052
fdas1_sx201 quick_test/mfcc/raw_mfcc_train.1.ark:803469
mprb0_si575 quick_test/mfcc/raw_mfcc_train.4.ark:26159
mmws1_si1071 quick_test/mfcc/raw_mfcc_train.3.ark:3387305
flja0_si1078 quick_test/mfcc/raw_mfcc_train.1.ark:2486271
mafm0_sx399 quick_test/mfcc/raw_mfcc_train.2.ark:840523
mpeb0_sx60 quick_test/mfcc/raw_mfcc_train.3.ark:3560888
mhrm0_sx418 quick_test/mfcc/raw_mfcc_train.3.ark:471672
mram0_sx195 quick_test/mfcc/raw_mfcc_train.4.ark:306278
fssb0_sx362 quick_test/mfcc/raw_mfcc_train.2.ark:397270
freh0_si685 quick_test/mfcc/raw_mfcc_train.1.ark:3474141
fltm0_si1700 quick_test/mfcc/raw_mfcc_train.1.ark:2753913
mmcc0_sx168 quick_test/mfcc/raw_mfcc_train.3.ark:2794081
mjai0_si710 quick_test/mfcc/raw_mfcc_train.3.ark:620580
fntb0_si679 quick_test/mfcc/raw_mfcc_train.1.ark:3166114
mdlr0_sx423 quick_test/mfcc/raw_mfcc_train.2.ark:2635146
mdlb0_sx316 quick_test/mfcc/raw_mfcc_train.2.ark:2438458
mmrp0_sx234 quick_test/mfcc/raw_mfcc_train.3.ark:3221273
mdwd0_sx90 quick_test/mfcc/raw_mfcc_train.2.ark:3050647
maeb0_sx270 quick_test/mfcc/raw_mfcc_train.2.ark:770994
mkrg0_sx231 quick_test/mfcc/raw_mfcc_train.3.ark:2322052
fjlr0_sx331 quick_test/mfcc/raw_mfcc_train.1.ark:1768632
msdh0_si2240 quick_test/mfcc/raw_mfcc_train.4.ark:1852368
fgdp0_sx268 quick_test/mfcc/raw_mfcc_train.1.ark:1412615
fblv0_sx68 quick_test/mfcc/raw_mfcc_train.1.ark:338884
mcal0_sx58 quick_test/mfcc/raw_mfcc_train.2.ark:1504966
fcmg0_sx162 quick_test/mfcc/raw_mfcc_train.1.ark:667488
mejl0_sx152 quick_test/mfcc/raw_mfcc_train.2.ark:3258899
fpaz0_sx27 quick_test/mfcc/raw_mfcc_train.1.ark:3354010
mtas0_sx35 quick_test/mfcc/raw_mfcc_train.4.ark:2396682
mpgh0_sx294 quick_test/mfcc/raw_mfcc_train.3.ark:3621522
mrds0_si537 quick_test/mfcc/raw_mfcc_train.4.ark:515309
mwem0_sx60 quick_test/mfcc/raw_mfcc_train.4.ark:3609428
mram0_si1905 quick_test/mfcc/raw_mfcc_train.4.ark:289675
fsjg0_si1570 quick_test/mfcc/raw_mfcc_train.1.ark:3824402
fceg0_sx438 quick_test/mfcc/raw_mfcc_train.1.ark:529852
mmdm0_sx51 quick_test/mfcc/raw_mfcc_train.3.ark:2905052
mmaa0_sx395 quick_test/mfcc/raw_mfcc_train.3.ark:2600884
mrms0_sx120 quick_test/mfcc/raw_mfcc_train.4.ark:1354957
mjlg1_sx292 quick_test/mfcc/raw_mfcc_train.3.ark:1223861
mjls0_si1726 quick_test/mfcc/raw_mfcc_train.3.ark:1236429
fpad0_sx86 quick_test/mfcc/raw_mfcc_train.1.ark:3294343
madc0_si1367 quick_test/mfcc/raw_mfcc_train.2.ark:687547
mdlm0_sx334 quick_test/mfcc/raw_mfcc_train.2.ark:2599969
mhrm0_si958 quick_test/mfcc/raw_mfcc_train.3.ark:456564
mbef0_si1911 quick_test/mfcc/raw_mfcc_train.2.ark:1134776
mhit0_si2243 quick_test/mfcc/raw_mfcc_train.3.ark:332776
fbch0_si959 quick_test/mfcc/raw_mfcc_train.1.ark:247995
fetb0_sx248 quick_test/mfcc/raw_mfcc_train.1.ark:1310549
mtjs0_si1192 quick_test/mfcc/raw_mfcc_train.4.ark:2705882
fjen0_sx237 quick_test/mfcc/raw_mfcc_train.1.ark:1633845
mdac0_sx451 quick_test/mfcc/raw_mfcc_train.2.ark:1987725
mrdd0_si2310 quick_test/mfcc/raw_mfcc_train.4.ark:455109
fjen0_si1047 quick_test/mfcc/raw_mfcc_train.1.ark:1616135
fcmg0_sx252 quick_test/mfcc/raw_mfcc_train.1.ark:672019
mkag0_sx169 quick_test/mfcc/raw_mfcc_train.3.ark:1864504
mhmg0_si735 quick_test/mfcc/raw_mfcc_train.3.ark:394479
madd0_sx358 quick_test/mfcc/raw_mfcc_train.2.ark:742656
mstf0_sx226 quick_test/mfcc/raw_mfcc_train.4.ark:2282293
fpmy0_sx196 quick_test/mfcc/raw_mfcc_train.1.ark:3448501
mhbs0_sx225 quick_test/mfcc/raw_mfcc_train.3.ark:316438
mjda0_sx311 quick_test/mfcc/raw_mfcc_train.3.ark:691060
mjwt0_sx301 quick_test/mfcc/raw_mfcc_train.3.ark:1774322
mhit0_sx443 quick_test/mfcc/raw_mfcc_train.3.ark:353936
mdrd0_si752 quick_test/mfcc/raw_mfcc_train.2.ark:2877973
fjlg0_sx269 quick_test/mfcc/raw_mfcc_train.1.ark:1731726
mhxl0_sx62 quick_test/mfcc/raw_mfcc_train.3.ark:510682
fcmg0_sx432 quick_test/mfcc/raw_mfcc_train.1.ark:679482
feeh0_sx302 quick_test/mfcc/raw_mfcc_train.1.ark:1247301
mprb0_si1215 quick_test/mfcc/raw_mfcc_train.4.ark:19314
mcae0_sx277 quick_test/mfcc/raw_mfcc_train.2.ark:1459859
mjrp0_si585 quick_test/mfcc/raw_mfcc_train.3.ark:1614629
fntb0_sx33 quick_test/mfcc/raw_mfcc_train.1.ark:3183028
mfmc0_sx412 quick_test/mfcc/raw_mfcc_train.2.ark:3451179
mrdm0_sx155 quick_test/mfcc/raw_mfcc_train.4.ark:489285
flhd0_si1827 quick_test/mfcc/raw_mfcc_train.1.ark:2459506
flma0_si1243 quick_test/mfcc/raw_mfcc_train.1.ark:2628784
fmkc0_si1072 quick_test/mfcc/raw_mfcc_train.1.ark:2992094
mrjm1_sx38 quick_test/mfcc/raw_mfcc_train.4.ark:975393
mhbs0_si945 quick_test/mfcc/raw_mfcc_train.3.ark:306960
msmr0_sx235 quick_test/mfcc/raw_mfcc_train.4.ark:2154810
fsdc0_si1312 quick_test/mfcc/raw_mfcc_train.1.ark:3733997
fdtd0_sx301 quick_test/mfcc/raw_mfcc_train.1.ark:1077989
mpfu0_si1258 quick_test/mfcc/raw_mfcc_train.3.ark:3565225
fsjg0_sx40 quick_test/mfcc/raw_mfcc_train.1.ark:3857113
fjsk0_sx152 quick_test/mfcc/raw_mfcc_train.1.ark:1867200
freh0_si1315 quick_test/mfcc/raw_mfcc_train.1.ark:3464012
msjk0_si2226 quick_test/mfcc/raw_mfcc_train.4.ark:2075740
mmws0_si559 quick_test/mfcc/raw_mfcc_train.3.ark:3360671
mdwd0_si557 quick_test/mfcc/raw_mfcc_train.2.ark:3034246
flmc0_sx336 quick_test/mfcc/raw_mfcc_train.1.ark:2680493
mdrd0_sx212 quick_test/mfcc/raw_mfcc_train.2.ark:2890142
mesj0_sx367 quick_test/mfcc/raw_mfcc_train.2.ark:3360731
mjhi0_sx338 quick_test/mfcc/raw_mfcc_train.3.ark:1023974
mdlc0_sx315 quick_test/mfcc/raw_mfcc_train.2.ark:2475032
mkdb0_si2132 quick_test/mfcc/raw_mfcc_train.3.ark:1979162
mrmh0_si2281 quick_test/mfcc/raw_mfcc_train.4.ark:1279877
mwar0_si2305 quick_test/mfcc/raw_mfcc_train.4.ark:3499085
mfwk0_sx349 quick_test/mfcc/raw_mfcc_train.2.ark:3507967
mbml0_si1169 quick_test/mfcc/raw_mfcc_train.2.ark:1286893
fpjf0_si1046 quick_test/mfcc/raw_mfcc_train.1.ark:3365120
mwrp0_si1443 quick_test/mfcc/raw_mfcc_train.4.ark:3678282
mmaa0_sx125 quick_test/mfcc/raw_mfcc_train.3.ark:2585764
mapv0_sx213 quick_test/mfcc/raw_mfcc_train.2.ark:963856
fdaw0_sx146 quick_test/mfcc/raw_mfcc_train.1.ark:833823
falk0_sx6 quick_test/mfcc/raw_mfcc_train.1.ark:94090
fexm0_si1731 quick_test/mfcc/raw_mfcc_train.1.ark:1330683
mfxv0_si1005 quick_test/mfcc/raw_mfcc_train.2.ark:3552935
fpls0_si2220 quick_test/mfcc/raw_mfcc_train.1.ark:3399688
fbas0_sx397 quick_test/mfcc/raw_mfcc_train.1.ark:202676
mter0_sx17 quick_test/mfcc/raw_mfcc_train.4.ark:2626648
msah1_sx329 quick_test/mfcc/raw_mfcc_train.4.ark:1723266
fcke0_sx121 quick_test/mfcc/raw_mfcc_train.1.ark:606832
mdlc0_si765 quick_test/mfcc/raw_mfcc_train.2.ark:2464494
mdwd0_sx360 quick_test/mfcc/raw_mfcc_train.2.ark:3042743
fajw0_si1893 quick_test/mfcc/raw_mfcc_train.1.ark:39403
mrjm1_si1928 quick_test/mfcc/raw_mfcc_train.4.ark:956041
mtbc0_sx93 quick_test/mfcc/raw_mfcc_train.4.ark:2501055
mdbb1_sx106 quick_test/mfcc/raw_mfcc_train.2.ark:2038269
madd0_sx88 quick_test/mfcc/raw_mfcc_train.2.ark:749650
mbml0_sx449 quick_test/mfcc/raw_mfcc_train.2.ark:1308555
freh0_sx325 quick_test/mfcc/raw_mfcc_train.1.ark:3483795
fblv0_sx338 quick_test/mfcc/raw_mfcc_train.1.ark:329771
mrfl0_sx166 quick_test/mfcc/raw_mfcc_train.4.ark:713402
mlns0_si2037 quick_test/mfcc/raw_mfcc_train.3.ark:2509716
mrcg0_sx258 quick_test/mfcc/raw_mfcc_train.4.ark:395871
mrcw0_si2001 quick_test/mfcc/raw_mfcc_train.4.ark:420893
feme0_sx425 quick_test/mfcc/raw_mfcc_train.1.ark:1287535
msah1_si1049 quick_test/mfcc/raw_mfcc_train.4.ark:1707044
falr0_sx245 quick_test/mfcc/raw_mfcc_train.1.ark:117234
mjpm1_sx221 quick_test/mfcc/raw_mfcc_train.3.ark:1428660
mkag0_sx259 quick_test/mfcc/raw_mfcc_train.3.ark:1868463
mgaf0_sx292 quick_test/mfcc/raw_mfcc_train.2.ark:3604775
mdhl0_sx269 quick_test/mfcc/raw_mfcc_train.2.ark:2303724
mgag0_si691 quick_test/mfcc/raw_mfcc_train.2.ark:3620014
mgjc0_sx165 quick_test/mfcc/raw_mfcc_train.3.ark:103012
fsgf0_si927 quick_test/mfcc/raw_mfcc_train.1.ark:3801272
mefg0_sx15 quick_test/mfcc/raw_mfcc_train.2.ark:3197563
fexm0_sx111 quick_test/mfcc/raw_mfcc_train.1.ark:1341058
ftbw0_sx85 quick_test/mfcc/raw_mfcc_train.2.ark:498671
mdmt0_sx302 quick_test/mfcc/raw_mfcc_train.2.ark:2734488
mmcc0_si1968 quick_test/mfcc/raw_mfcc_train.3.ark:2786748
mcef0_sx235 quick_test/mfcc/raw_mfcc_train.2.ark:1622161
mkdd0_sx307 quick_test/mfcc/raw_mfcc_train.3.ark:2033776
mjdg0_sx52 quick_test/mfcc/raw_mfcc_train.3.ark:804513
mprk0_sx377 quick_test/mfcc/raw_mfcc_train.4.ark:125003
fgrw0_sx432 quick_test/mfcc/raw_mfcc_train.1.ark:1498674
fsma0_sx361 quick_test/mfcc/raw_mfcc_train.2.ark:229882
mafm0_sx309 quick_test/mfcc/raw_mfcc_train.2.ark:833269
msdb0_sx197 quick_test/mfcc/raw_mfcc_train.4.ark:1842276
msem1_sx270 quick_test/mfcc/raw_mfcc_train.4.ark:1948067
feeh0_si1742 quick_test/mfcc/raw_mfcc_train.1.ark:1230607
mhbs0_si2205 quick_test/mfcc/raw_mfcc_train.3.ark:302949
mdem0_si1868 quick_test/mfcc/raw_mfcc_train.2.ark:2248051
fjrb0_sx312 quick_test/mfcc/raw_mfcc_train.1.ark:1798888
mded0_sx270 quick_test/mfcc/raw_mfcc_train.2.ark:2202478
mtrc0_si589 quick_test/mfcc/raw_mfcc_train.4.ark:3180837
mbef0_sx21 quick_test/mfcc/raw_mfcc_train.2.ark:1149090
mcpm0_sx294 quick_test/mfcc/raw_mfcc_train.2.ark:1796062
mlel0_si1246 quick_test/mfcc/raw_mfcc_train.3.ark:2395046
mbar0_si1319 quick_test/mfcc/raw_mfcc_train.2.ark:1038033
mgsl0_sx174 quick_test/mfcc/raw_mfcc_train.3.ark:241960
mctm0_sx360 quick_test/mfcc/raw_mfcc_train.2.ark:1919523
msrg0_sx411 quick_test/mfcc/raw_mfcc_train.4.ark:2224319
mkdb0_sx242 quick_test/mfcc/raw_mfcc_train.3.ark:1994569
fapb0_si1693 quick_test/mfcc/raw_mfcc_train.1.ark:137498
fdml0_sx249 quick_test/mfcc/raw_mfcc_train.1.ark:962202
mrso0_sx399 quick_test/mfcc/raw_mfcc_train.4.ark:1471324
mcdr0_sx164 quick_test/mfcc/raw_mfcc_train.2.ark:1587491
flmc0_sx292 quick_test/mfcc/raw_mfcc_train.1.ark:2675962
fjen0_si1677 quick_test/mfcc/raw_mfcc_train.1.ark:1620030
faem0_sx402 quick_test/mfcc/raw_mfcc_train.1.ark:25549
mdhs0_sx270 quick_test/mfcc/raw_mfcc_train.2.ark:2335761
mhmg0_sx105 quick_test/mfcc/raw_mfcc_train.3.ark:400622
mprd0_si2061 quick_test/mfcc/raw_mfcc_train.4.ark:59216
mdbp0_sx438 quick_test/mfcc/raw_mfcc_train.2.ark:2081364
mter0_si527 quick_test/mfcc/raw_mfcc_train.4.ark:2617548
fmmh0_si1537 quick_test/mfcc/raw_mfcc_train.1.ark:3053468
mjrg0_sx16 quick_test/mfcc/raw_mfcc_train.3.ark:1495762
msfh0_si1216 quick_test/mfcc/raw_mfcc_train.4.ark:1993159
fsak0_sx310 quick_test/mfcc/raw_mfcc_train.1.ark:3647464
mjda0_si2291 quick_test/mfcc/raw_mfcc_train.3.ark:680769
fsjk1_si2285 quick_test/mfcc/raw_mfcc_train.1.ark:3872554
fjdm2_sx412 quick_test/mfcc/raw_mfcc_train.1.ark:1607814
mpfu0_sx358 quick_test/mfcc/raw_mfcc_train.3.ark:3586113
fspm0_sx161 quick_test/mfcc/raw_mfcc_train.2.ark:324380
mrab1_si2108 quick_test/mfcc/raw_mfcc_train.4.ark:221038
fljg0_sx171 quick_test/mfcc/raw_mfcc_train.1.ark:2567632
frjb0_si1427 quick_test/mfcc/raw_mfcc_train.1.ark:3492981
mtdp0_sx171 quick_test/mfcc/raw_mfcc_train.4.ark:2582957
fjlr0_sx421 quick_test/mfcc/raw_mfcc_train.1.ark:1772890
fvkb0_sx439 quick_test/mfcc/raw_mfcc_train.2.ark:621730
fnkl0_sx442 quick_test/mfcc/raw_mfcc_train.1.ark:3150902
mrhl0_sx75 quick_test/mfcc/raw_mfcc_train.4.ark:837657
megj0_sx167 quick_test/mfcc/raw_mfcc_train.2.ark:3228060
mfer0_sx322 quick_test/mfcc/raw_mfcc_train.2.ark:3415690
fjwb1_sx165 quick_test/mfcc/raw_mfcc_train.1.ark:1932638
fmem0_sx297 quick_test/mfcc/raw_mfcc_train.1.ark:2869370
mmws1_sx351 quick_test/mfcc/raw_mfcc_train.3.ark:3403331
mdns0_si2271 quick_test/mfcc/raw_mfcc_train.2.ark:2752587
mtrc0_si993 quick_test/mfcc/raw_mfcc_train.4.ark:3186278
fvfb0_sx132 quick_test/mfcc/raw_mfcc_train.2.ark:579246
feeh0_sx212 quick_test/mfcc/raw_mfcc_train.1.ark:1242835
mrlk0_sx393 quick_test/mfcc/raw_mfcc_train.4.ark:1172769
fskl0_sx449 quick_test/mfcc/raw_mfcc_train.2.ark:137820
mdcm0_sx40 quick_test/mfcc/raw_mfcc_train.2.ark:2146958
mtqc0_sx451 quick_test/mfcc/raw_mfcc_train.4.ark:3166451
fbjl0_sx22 quick_test/mfcc/raw_mfcc_train.1.ark:294469
mcew0_si1442 quick_test/mfcc/raw_mfcc_train.2.ark:1636242
mmpm0_si2321 quick_test/mfcc/raw_mfcc_train.3.ark:3181462
mjxl0_sx92 quick_test/mfcc/raw_mfcc_train.3.ark:1845715
fsrh0_sx131 quick_test/mfcc/raw_mfcc_train.2.ark:355052
mtlc0_sx307 quick_test/mfcc/raw_mfcc_train.4.ark:2897277
fjsp0_sx174 quick_test/mfcc/raw_mfcc_train.1.ark:1899068
mkdd0_si937 quick_test/mfcc/raw_mfcc_train.3.ark:2023225
mpeb0_si600 quick_test/mfcc/raw_mfcc_train.3.ark:3540106
fljg0_sx261 quick_test/mfcc/raw_mfcc_train.1.ark:2574256
mefg0_sx285 quick_test/mfcc/raw_mfcc_train.2.ark:3204194
mses0_sx59 quick_test/mfcc/raw_mfcc_train.4.ark:1990772
mgar0_si1212 quick_test/mfcc/raw_mfcc_train.3.ark:13
mjra0_sx426 quick_test/mfcc/raw_mfcc_train.3.ark:1472593
mgaf0_sx202 quick_test/mfcc/raw_mfcc_train.2.ark:3600368
mdlc0_sx45 quick_test/mfcc/raw_mfcc_train.2.ark:2482702
fecd0_si1418 quick_test/mfcc/raw_mfcc_train.1.ark:1187447
fbmh0_si1766 quick_test/mfcc/raw_mfcc_train.1.ark:348442
mmeb0_sx97 quick_test/mfcc/raw_mfcc_train.3.ark:3021849
mtat1_si1627 quick_test/mfcc/raw_mfcc_train.4.ark:2438895
mcdd0_si2143 quick_test/mfcc/raw_mfcc_train.2.ark:1543415
mreh1_si1599 quick_test/mfcc/raw_mfcc_train.4.ark:569931
mree0_sx114 quick_test/mfcc/raw_mfcc_train.4.ark:553269
mvrw0_si855 quick_test/mfcc/raw_mfcc_train.4.ark:3405325
mgrp0_sx147 quick_test/mfcc/raw_mfcc_train.3.ark:171324
mfxs0_si2304 quick_test/mfcc/raw_mfcc_train.2.ark:3527348
makb0_si1016 quick_test/mfcc/raw_mfcc_train.2.ark:880109
mwar0_sx235 quick_test/mfcc/raw_mfcc_train.4.ark:3505885
mrab0_sx54 quick_test/mfcc/raw_mfcc_train.4.ark:212845
mrmg0_si2340 quick_test/mfcc/raw_mfcc_train.4.ark:1245408
mpsw0_si1067 quick_test/mfcc/raw_mfcc_train.4.ark:158646
mtdb0_sx51 quick_test/mfcc/raw_mfcc_train.4.ark:2565532
fdas1_si2091 quick_test/mfcc/raw_mfcc_train.1.ark:790422
mdss1_si1713 quick_test/mfcc/raw_mfcc_train.2.ark:2971217
mapv0_si1293 quick_test/mfcc/raw_mfcc_train.2.ark:942819
mkag0_si1609 quick_test/mfcc/raw_mfcc_train.3.ark:1849675
mtrc0_sx363 quick_test/mfcc/raw_mfcc_train.4.ark:3199891
mrtc0_sx108 quick_test/mfcc/raw_mfcc_train.4.ark:1524672
mrlk0_si2140 quick_test/mfcc/raw_mfcc_train.4.ark:1150251
mdef0_sx33 quick_test/mfcc/raw_mfcc_train.2.ark:2241458
mtas0_sx395 quick_test/mfcc/raw_mfcc_train.4.ark:2399328
fmkf0_si1536 quick_test/mfcc/raw_mfcc_train.1.ark:3025367
mrjh0_si1519 quick_test/mfcc/raw_mfcc_train.4.ark:878595
mejs0_si1240 quick_test/mfcc/raw_mfcc_train.2.ark:3277602
mmcc0_si708 quick_test/mfcc/raw_mfcc_train.3.ark:2789797
mpmb0_si1501 quick_test/mfcc/raw_mfcc_train.3.ark:3688563
fgcs0_sx316 quick_test/mfcc/raw_mfcc_train.1.ark:1384316
mpeb0_si1860 quick_test/mfcc/raw_mfcc_train.3.ark:3537837
fdas1_sx381 quick_test/mfcc/raw_mfcc_train.1.ark:814396
mtmt0_si1748 quick_test/mfcc/raw_mfcc_train.4.ark:2979867
fbch0_sx146 quick_test/mfcc/raw_mfcc_train.1.ark:254177
fcmm0_si453 quick_test/mfcc/raw_mfcc_train.1.ark:697841
mdcd0_sx245 quick_test/mfcc/raw_mfcc_train.2.ark:2107277
mclk0_si2290 quick_test/mfcc/raw_mfcc_train.2.ark:1712194
mpgh0_sx204 quick_test/mfcc/raw_mfcc_train.3.ark:3616010
mrld0_sx244 quick_test/mfcc/raw_mfcc_train.4.ark:1073673
mtbc0_sx183 quick_test/mfcc/raw_mfcc_train.4.ark:2484440
fskp0_sx198 quick_test/mfcc/raw_mfcc_train.2.ark:165351
fljg0_sx351 quick_test/mfcc/raw_mfcc_train.1.ark:2577292
mrmb0_sx321 quick_test/mfcc/raw_mfcc_train.4.ark:1225806
fmkc0_sx82 quick_test/mfcc/raw_mfcc_train.1.ark:3015627
fcjf0_sx397 quick_test/mfcc/raw_mfcc_train.1.ark:559464
fdas1_sx111 quick_test/mfcc/raw_mfcc_train.1.ark:800069
mfxv0_si1635 quick_test/mfcc/raw_mfcc_train.2.ark:3564144
mdlc0_si1395 quick_test/mfcc/raw_mfcc_train.2.ark:2451973
mjws0_sx333 quick_test/mfcc/raw_mfcc_train.3.ark:1734940
fceg0_sx258 quick_test/mfcc/raw_mfcc_train.1.ark:522207
mtlb0_sx414 quick_test/mfcc/raw_mfcc_train.4.ark:2868679
mcdd0_sx253 quick_test/mfcc/raw_mfcc_train.2.ark:1554876
fmkf0_sx6 quick_test/mfcc/raw_mfcc_train.1.ark:3045823
fklc0_sx355 quick_test/mfcc/raw_mfcc_train.1.ark:2217016
flhd0_si1974 quick_test/mfcc/raw_mfcc_train.1.ark:2461945
mjwt0_sx391 quick_test/mfcc/raw_mfcc_train.3.ark:1782239
fdkn0_si1711 quick_test/mfcc/raw_mfcc_train.1.ark:921362
mter0_sx77 quick_test/mfcc/raw_mfcc_train.4.ark:2638017
mrld0_sx334 quick_test/mfcc/raw_mfcc_train.4.ark:1077021
mclm0_sx376 quick_test/mfcc/raw_mfcc_train.2.ark:1768556
mjfh0_sx387 quick_test/mfcc/raw_mfcc_train.3.ark:965114
mtjs0_sx112 quick_test/mfcc/raw_mfcc_train.4.ark:2723181
mfer0_si862 quick_test/mfcc/raw_mfcc_train.2.ark:3402162
fmem0_sx387 quick_test/mfcc/raw_mfcc_train.1.ark:2879771
flag0_si834 quick_test/mfcc/raw_mfcc_train.1.ark:2364753
fjxm0_sx41 quick_test/mfcc/raw_mfcc_train.1.ark:1980848
fdtd0_si2191 quick_test/mfcc/raw_mfcc_train.1.ark:1061555
mrjt0_sx58 quick_test/mfcc/raw_mfcc_train.4.ark:1012026
mrsp0_sx196 quick_test/mfcc/raw_mfcc_train.4.ark:1494865
mdpb0_sx416 quick_test/mfcc/raw_mfcc_train.2.ark:2805082
mjae0_sx84 quick_test/mfcc/raw_mfcc_train.3.ark:605166
mtat0_sx390 quick_test/mfcc/raw_mfcc_train.4.ark:2431313
mprt0_sx130 quick_test/mfcc/raw_mfcc_train.4.ark:140944
mbwp0_sx349 quick_test/mfcc/raw_mfcc_train.2.ark:1421953
msmr0_si1405 quick_test/mfcc/raw_mfcc_train.4.ark:2143895
frll0_si805 quick_test/mfcc/raw_mfcc_train.1.ark:3525988
mdef0_si1123 quick_test/mfcc/raw_mfcc_train.2.ark:2218366
mmea0_sx128 quick_test/mfcc/raw_mfcc_train.3.ark:2979270
mkls0_si2067 quick_test/mfcc/raw_mfcc_train.3.ark:2211665
mcae0_sx97 quick_test/mfcc/raw_mfcc_train.2.ark:1474502
mjpm0_sx288 quick_test/mfcc/raw_mfcc_train.3.ark:1407634
mprd0_sx171 quick_test/mfcc/raw_mfcc_train.4.ark:68954
mzmb0_sx266 quick_test/mfcc/raw_mfcc_train.4.ark:3794465
fmah1_si1509 quick_test/mfcc/raw_mfcc_train.1.ark:2784955
mmcc0_sx78 quick_test/mfcc/raw_mfcc_train.3.ark:2809864
fklc0_sx265 quick_test/mfcc/raw_mfcc_train.1.ark:2212719
mtdb0_si2031 quick_test/mfcc/raw_mfcc_train.4.ark:2542026
mjjj0_sx83 quick_test/mfcc/raw_mfcc_train.3.ark:1102674
fsdj0_sx395 quick_test/mfcc/raw_mfcc_train.1.ark:3788587
mdlr1_si1929 quick_test/mfcc/raw_mfcc_train.2.ark:2647531
mtjm0_sx146 quick_test/mfcc/raw_mfcc_train.4.ark:2688752
mdlc2_sx444 quick_test/mfcc/raw_mfcc_train.2.ark:2539023
fklc0_sx175 quick_test/mfcc/raw_mfcc_train.1.ark:2206082
mntw0_si2328 quick_test/mfcc/raw_mfcc_train.3.ark:3486731
fklc1_si2308 quick_test/mfcc/raw_mfcc_train.1.ark:2236696
fdaw0_si1271 quick_test/mfcc/raw_mfcc_train.1.ark:817641
fsbk0_si2329 quick_test/mfcc/raw_mfcc_train.1.ark:3666767
mgaw0_sx85 quick_test/mfcc/raw_mfcc_train.3.ark:60258
mbef0_sx291 quick_test/mfcc/raw_mfcc_train.2.ark:1151333
mtwh1_si882 quick_test/mfcc/raw_mfcc_train.4.ark:3275616
mhxl0_si612 quick_test/mfcc/raw_mfcc_train.3.ark:488730
fajw0_sx363 quick_test/mfcc/raw_mfcc_train.1.ark:59625
mlbc0_si609 quick_test/mfcc/raw_mfcc_train.3.ark:2372046
mhjb0_sx207 quick_test/mfcc/raw_mfcc_train.3.ark:376496
mmxs0_sx246 quick_test/mfcc/raw_mfcc_train.3.ark:3428496
fscn0_sx446 quick_test/mfcc/raw_mfcc_train.1.ark:3725377
mjwg0_si895 quick_test/mfcc/raw_mfcc_train.3.ark:1686723
fsms1_sx334 quick_test/mfcc/raw_mfcc_train.2.ark:298207
mrlr0_si566 quick_test/mfcc/raw_mfcc_train.4.ark:1185818
flet0_sx147 quick_test/mfcc/raw_mfcc_train.1.ark:2439625
fjrp1_si802 quick_test/mfcc/raw_mfcc_train.1.ark:1824755
mjjb0_sx149 quick_test/mfcc/raw_mfcc_train.3.ark:1048185
mded0_sx360 quick_test/mfcc/raw_mfcc_train.2.ark:2205969
mrso0_si1206 quick_test/mfcc/raw_mfcc_train.4.ark:1436265
msfv0_si1262 quick_test/mfcc/raw_mfcc_train.4.ark:2032931
mdlb0_sx406 quick_test/mfcc/raw_mfcc_train.2.ark:2442768
mjrk0_sx70 quick_test/mfcc/raw_mfcc_train.3.ark:1605623
mewm0_sx88 quick_test/mfcc/raw_mfcc_train.2.ark:3393585
fcrz0_sx253 quick_test/mfcc/raw_mfcc_train.1.ark:735573
mgxp0_sx367 quick_test/mfcc/raw_mfcc_train.3.ark:287283
fdml0_si2075 quick_test/mfcc/raw_mfcc_train.1.ark:956169
medr0_sx24 quick_test/mfcc/raw_mfcc_train.2.ark:3170007
fvkb0_si1159 quick_test/mfcc/raw_mfcc_train.2.ark:596714
msah1_si1679 quick_test/mfcc/raw_mfcc_train.4.ark:1710263
mmeb0_si1357 quick_test/mfcc/raw_mfcc_train.3.ark:2995958
mjda0_sx221 quick_test/mfcc/raw_mfcc_train.3.ark:687569
fgdp0_sx448 quick_test/mfcc/raw_mfcc_train.1.ark:1421989
mrjt0_si1498 quick_test/mfcc/raw_mfcc_train.4.ark:984027
fklc0_si1615 quick_test/mfcc/raw_mfcc_train.1.ark:2194061
ftaj0_sx249 quick_test/mfcc/raw_mfcc_train.2.ark:426179
fmjf0_sx444 quick_test/mfcc/raw_mfcc_train.1.ark:2942719
mtju0_sx400 quick_test/mfcc/raw_mfcc_train.4.ark:2770702
mjfh0_si1107 quick_test/mfcc/raw_mfcc_train.3.ark:942575
mgaf0_si1282 quick_test/mfcc/raw_mfcc_train.2.ark:3583777
fpac0_si2011 quick_test/mfcc/raw_mfcc_train.1.ark:3233990
mgsh0_si1176 quick_test/mfcc/raw_mfcc_train.3.ark:193849
mjfh0_sx297 quick_test/mfcc/raw_mfcc_train.3.ark:962416
fljd0_sx76 quick_test/mfcc/raw_mfcc_train.1.ark:2549584
mklw0_sx311 quick_test/mfcc/raw_mfcc_train.3.ark:2287305
mrav0_si1638 quick_test/mfcc/raw_mfcc_train.4.ark:319516
mmws1_sx81 quick_test/mfcc/raw_mfcc_train.3.ark:3410494
mtqc0_si1441 quick_test/mfcc/raw_mfcc_train.4.ark:3133752
flja0_sx358 quick_test/mfcc/raw_mfcc_train.1.ark:2508954
mmar0_sx166 quick_test/mfcc/raw_mfcc_train.3.ark:2718463
mjmm0_sx445 quick_test/mfcc/raw_mfcc_train.3.ark:1348267
mklw0_sx221 quick_test/mfcc/raw_mfcc_train.3.ark:2283177
mwgr0_sx436 quick_test/mfcc/raw_mfcc_train.4.ark:3638729
fkkh0_sx210 quick_test/mfcc/raw_mfcc_train.1.ark:2180266
fdtd0_si1561 quick_test/mfcc/raw_mfcc_train.1.ark:1057309
fceg0_si1878 quick_test/mfcc/raw_mfcc_train.1.ark:514620
fpaf0_sx424 quick_test/mfcc/raw_mfcc_train.1.ark:3323580
fsrh0_sx311 quick_test/mfcc/raw_mfcc_train.2.ark:363438
mrre0_sx254 quick_test/mfcc/raw_mfcc_train.4.ark:1421053
fkfb0_si1608 quick_test/mfcc/raw_mfcc_train.1.ark:2120926
mdpk0_sx423 quick_test/mfcc/raw_mfcc_train.2.ark:2833986
mmab1_si1494 quick_test/mfcc/raw_mfcc_train.3.ark:2604883
mdpb0_si2126 quick_test/mfcc/raw_mfcc_train.2.ark:2783922
mpgr0_sx150 quick_test/mfcc/raw_mfcc_train.3.ark:3637978
marc0_si1188 quick_test/mfcc/raw_mfcc_train.2.ark:978002
mrkm0_si1267 quick_test/mfcc/raw_mfcc_train.4.ark:1017416
fsjk1_sx35 quick_test/mfcc/raw_mfcc_train.2.ark:7357
mefg0_sx375 quick_test/mfcc/raw_mfcc_train.2.ark:3208010
mbbr0_sx155 quick_test/mfcc/raw_mfcc_train.2.ark:1081676
mjlb0_si2246 quick_test/mfcc/raw_mfcc_train.3.ark:1177892
mafm0_sx39 quick_test/mfcc/raw_mfcc_train.2.ark:837305
mtab0_sx42 quick_test/mfcc/raw_mfcc_train.4.ark:2374116
mrab0_sx234 quick_test/mfcc/raw_mfcc_train.4.ark:199721
mcdr0_sx434 quick_test/mfcc/raw_mfcc_train.2.ark:1598770
fsma0_sx451 quick_test/mfcc/raw_mfcc_train.2.ark:233425
msvs0_sx308 quick_test/mfcc/raw_mfcc_train.4.ark:2324334
fpmy0_si1153 quick_test/mfcc/raw_mfcc_train.1.ark:3426853
mkxl0_sx105 quick_test/mfcc/raw_mfcc_train.3.ark:2347244
fcmm0_si1083 quick_test/mfcc/raw_mfcc_train.1.ark:688583
mbbr0_sx425 quick_test/mfcc/raw_mfcc_train.2.ark:1094606
mwre0_si1687 quick_test/mfcc/raw_mfcc_train.4.ark:3650737
fbmj0_sx336 quick_test/mfcc/raw_mfcc_train.1.ark:396366
fksr0_si487 quick_test/mfcc/raw_mfcc_train.1.ark:2300705
fscn0_sx356 quick_test/mfcc/raw_mfcc_train.1.ark:3721106
mjdg0_sx322 quick_test/mfcc/raw_mfcc_train.3.ark:797844
mkes0_sx173 quick_test/mfcc/raw_mfcc_train.3.ark:2092674
mkaj0_si784 quick_test/mfcc/raw_mfcc_train.3.ark:1925034
mhjb0_si1017 quick_test/mfcc/raw_mfcc_train.3.ark:361243
fpjf0_sx326 quick_test/mfcc/raw_mfcc_train.1.ark:3384267
marc0_si558 quick_test/mfcc/raw_mfcc_train.2.ark:982931
mrjb1_sx300 quick_test/mfcc/raw_mfcc_train.4.ark:870325
megj0_sx77 quick_test/mfcc/raw_mfcc_train.2.ark:3244634
fecd0_sx338 quick_test/mfcc/raw_mfcc_train.1.ark:1212638
fgcs0_sx46 quick_test/mfcc/raw_mfcc_train.1.ark:1391700
mjra0_sx246 quick_test/mfcc/raw_mfcc_train.3.ark:1463908
mtas0_si1385 quick_test/mfcc/raw_mfcc_train.4.ark:2377179
mmbs0_si1151 quick_test/mfcc/raw_mfcc_train.3.ark:2744550
mram0_sx15 quick_test/mfcc/raw_mfcc_train.4.ark:301981
fsls0_sx426 quick_test/mfcc/raw_mfcc_train.2.ark:200725
mbsb0_sx363 quick_test/mfcc/raw_mfcc_train.2.ark:1362775
mkjo0_sx167 quick_test/mfcc/raw_mfcc_train.3.ark:2123619
mrpc1_si2026 quick_test/mfcc/raw_mfcc_train.4.ark:1374799
mklr0_sx429 quick_test/mfcc/raw_mfcc_train.3.ark:2194735
mmea0_sx218 quick_test/mfcc/raw_mfcc_train.3.ark:2982228
mrkm0_sx187 quick_test/mfcc/raw_mfcc_train.4.ark:1036938
fkde0_sx421 quick_test/mfcc/raw_mfcc_train.1.ark:2080555
mjwg0_sx355 quick_test/mfcc/raw_mfcc_train.3.ark:1704281
fgmb0_si1775 quick_test/mfcc/raw_mfcc_train.1.ark:1438963
maeo0_sx156 quick_test/mfcc/raw_mfcc_train.2.ark:797617
mrmh0_sx121 quick_test/mfcc/raw_mfcc_train.4.ark:1283914
mmws1_sx261 quick_test/mfcc/raw_mfcc_train.3.ark:3398456
mjdg0_sx142 quick_test/mfcc/raw_mfcc_train.3.ark:789120
fvkb0_sx169 quick_test/mfcc/raw_mfcc_train.2.ark:606980
mmdm1_sx423 quick_test/mfcc/raw_mfcc_train.3.ark:2933274
fexm0_sx201 quick_test/mfcc/raw_mfcc_train.1.ark:1345173
fjhk0_sx392 quick_test/mfcc/raw_mfcc_train.1.ark:1681932
fskl0_sx269 quick_test/mfcc/raw_mfcc_train.2.ark:130552
fajw0_sx3 quick_test/mfcc/raw_mfcc_train.1.ark:57265
msfv0_si632 quick_test/mfcc/raw_mfcc_train.4.ark:2041253
mrhl0_sx345 quick_test/mfcc/raw_mfcc_train.4.ark:829571
mtat1_sx59 quick_test/mfcc/raw_mfcc_train.4.ark:2469070
mkxl0_sx285 quick_test/mfcc/raw_mfcc_train.3.ark:2356637
mcef0_sx55 quick_test/mfcc/raw_mfcc_train.2.ark:1632373
mjde0_sx40 quick_test/mfcc/raw_mfcc_train.3.ark:767320
fleh0_sx331 quick_test/mfcc/raw_mfcc_train.1.ark:2412425
fkfb0_sx438 quick_test/mfcc/raw_mfcc_train.1.ark:2147619
mjai0_sx344 quick_test/mfcc/raw_mfcc_train.3.ark:633523
mmvp0_sx294 quick_test/mfcc/raw_mfcc_train.3.ark:3299992
mdwd0_sx270 quick_test/mfcc/raw_mfcc_train.2.ark:3039733
mrws0_sx112 quick_test/mfcc/raw_mfcc_train.4.ark:1657474
mjmd0_si1658 quick_test/mfcc/raw_mfcc_train.3.ark:1299086
mmws1_si1701 quick_test/mfcc/raw_mfcc_train.3.ark:3392162
mmpm0_si1691 quick_test/mfcc/raw_mfcc_train.3.ark:3177593
flac0_sx361 quick_test/mfcc/raw_mfcc_train.1.ark:2343579
flmc0_si2002 quick_test/mfcc/raw_mfcc_train.1.ark:2662727
falk0_sx276 quick_test/mfcc/raw_mfcc_train.1.ark:85784
mrem0_sx61 quick_test/mfcc/raw_mfcc_train.4.ark:635751
fntb0_si1203 quick_test/mfcc/raw_mfcc_train.1.ark:3159366
fhxs0_sx175 quick_test/mfcc/raw_mfcc_train.1.ark:1560363
mrlr0_sx386 quick_test/mfcc/raw_mfcc_train.4.ark:1204117
mwsh0_sx166 quick_test/mfcc/raw_mfcc_train.4.ark:3754062
mhbs0_sx135 quick_test/mfcc/raw_mfcc_train.3.ark:312583
majp0_si1704 quick_test/mfcc/raw_mfcc_train.2.ark:846688
fjxm0_sx401 quick_test/mfcc/raw_mfcc_train.1.ark:1976123
mbom0_si2274 quick_test/mfcc/raw_mfcc_train.2.ark:1323717
msms0_si2063 quick_test/mfcc/raw_mfcc_train.4.ark:2174632
fsag0_si693 quick_test/mfcc/raw_mfcc_train.1.ark:3561321
mwre0_si2317 quick_test/mfcc/raw_mfcc_train.4.ark:3653787
mdlc2_sx84 quick_test/mfcc/raw_mfcc_train.2.ark:2542552
fhxs0_sx265 quick_test/mfcc/raw_mfcc_train.1.ark:1566597
mtlb0_sx144 quick_test/mfcc/raw_mfcc_train.4.ark:2855905
mjjm0_sx17 quick_test/mfcc/raw_mfcc_train.3.ark:1124615
mdlm0_si1864 quick_test/mfcc/raw_mfcc_train.2.ark:2584965
msvs0_sx398 quick_test/mfcc/raw_mfcc_train.4.ark:2333460
mcdr0_sx254 quick_test/mfcc/raw_mfcc_train.2.ark:1592581
mrbc0_si1665 quick_test/mfcc/raw_mfcc_train.4.ark:346034
fsms1_si1504 quick_test/mfcc/raw_mfcc_train.2.ark:278320
mjhi0_sx428 quick_test/mfcc/raw_mfcc_train.3.ark:1028180
mdef0_si1563 quick_test/mfcc/raw_mfcc_train.2.ark:2224900
maeo0_sx66 quick_test/mfcc/raw_mfcc_train.2.ark:813842
mdps0_sx359 quick_test/mfcc/raw_mfcc_train.2.ark:2858632
mmvp0_sx384 quick_test/mfcc/raw_mfcc_train.3.ark:3310198
mdem0_si608 quick_test/mfcc/raw_mfcc_train.2.ark:2251581
medr0_si2004 quick_test/mfcc/raw_mfcc_train.2.ark:3153067
fpab1_si841 quick_test/mfcc/raw_mfcc_train.1.ark:3200816
fmbg0_si1160 quick_test/mfcc/raw_mfcc_train.1.ark:2816056
mdlr1_sx39 quick_test/mfcc/raw_mfcc_train.2.ark:2670250
mbsb0_si1353 quick_test/mfcc/raw_mfcc_train.2.ark:1344118
mgaw0_si535 quick_test/mfcc/raw_mfcc_train.3.ark:43298
mpar0_sx46 quick_test/mfcc/raw_mfcc_train.3.ark:3533245
fcdr1_sx286 quick_test/mfcc/raw_mfcc_train.1.ark:499777
mejs0_sx430 quick_test/mfcc/raw_mfcc_train.2.ark:3302735
mdlm0_sx154 quick_test/mfcc/raw_mfcc_train.2.ark:2593741
mpmb0_si871 quick_test/mfcc/raw_mfcc_train.3.ark:3705166
mcre0_si1751 quick_test/mfcc/raw_mfcc_train.2.ark:1808690
fnkl0_sx262 quick_test/mfcc/raw_mfcc_train.1.ark:3147385
mdlb0_sx46 quick_test/mfcc/raw_mfcc_train.2.ark:2448572
mreh1_sx249 quick_test/mfcc/raw_mfcc_train.4.ark:590916
mgjc0_si1256 quick_test/mfcc/raw_mfcc_train.3.ark:90626
mtcs0_sx82 quick_test/mfcc/raw_mfcc_train.4.ark:2532559
fkdw0_sx307 quick_test/mfcc/raw_mfcc_train.1.ark:2111051
mdbp0_sx78 quick_test/mfcc/raw_mfcc_train.2.ark:2087220
mgar0_sx312 quick_test/mfcc/raw_mfcc_train.3.ark:19771
mdmt0_sx122 quick_test/mfcc/raw_mfcc_train.2.ark:2725413
mgsh0_si1806 quick_test/mfcc/raw_mfcc_train.3.ark:200006
mclm0_sx106 quick_test/mfcc/raw_mfcc_train.2.ark:1756205
mtpp0_sx248 quick_test/mfcc/raw_mfcc_train.4.ark:3083006
mjrh0_si1755 quick_test/mfcc/raw_mfcc_train.3.ark:1516352
fapb0_sx343 quick_test/mfcc/raw_mfcc_train.1.ark:156585
mfxv0_sx15 quick_test/mfcc/raw_mfcc_train.2.ark:3569994
msfh0_sx316 quick_test/mfcc/raw_mfcc_train.4.ark:2019572
mrsp0_sx79 quick_test/mfcc/raw_mfcc_train.4.ark:1506234
mmlm0_sx267 quick_test/mfcc/raw_mfcc_train.3.ark:3159916
mfer0_si2122 quick_test/mfcc/raw_mfcc_train.2.ark:3400309
mpar0_si946 quick_test/mfcc/raw_mfcc_train.3.ark:3515076
fdkn0_si1081 quick_test/mfcc/raw_mfcc_train.1.ark:910829
feac0_sx165 quick_test/mfcc/raw_mfcc_train.1.ark:1134068
mdas0_si636 quick_test/mfcc/raw_mfcc_train.2.ark:2004719
mdmt0_si1832 quick_test/mfcc/raw_mfcc_train.2.ark:2716291
mpsw0_sx167 quick_test/mfcc/raw_mfcc_train.4.ark:167925
mdlc2_si984 quick_test/mfcc/raw_mfcc_train.2.ark:2522589
mdwm0_sx286 quick_test/mfcc/raw_mfcc_train.2.ark:3111379
msrr0_si1131 quick_test/mfcc/raw_mfcc_train.4.ark:2231366
mrav0_sx108 quick_test/mfcc/raw_mfcc_train.4.ark:328969
fpjf0_sx146 quick_test/mfcc/raw_mfcc_train.1.ark:3377857
flmc0_sx382 quick_test/mfcc/raw_mfcc_train.1.ark:2685804
mwdk0_si2017 quick_test/mfcc/raw_mfcc_train.4.ark:3553169
msmc0_sx17 quick_test/mfcc/raw_mfcc_train.4.ark:2122213
mjdc0_sx81 quick_test/mfcc/raw_mfcc_train.3.ark:731300
mdma0_sx350 quick_test/mfcc/raw_mfcc_train.2.ark:2700748
mtpp0_sx158 quick_test/mfcc/raw_mfcc_train.4.ark:3079606
mjdc0_si1161 quick_test/mfcc/raw_mfcc_train.3.ark:703990
fcjf0_sx217 quick_test/mfcc/raw_mfcc_train.1.ark:552047
mbgt0_sx81 quick_test/mfcc/raw_mfcc_train.2.ark:1187810
mbwp0_sx259 quick_test/mfcc/raw_mfcc_train.2.ark:1417019
mchl0_sx87 quick_test/mfcc/raw_mfcc_train.2.ark:1706692
mdjm0_si2085 quick_test/mfcc/raw_mfcc_train.2.ark:2355206
fkfb0_si2238 quick_test/mfcc/raw_mfcc_train.1.ark:2127239
mjfr0_si1605 quick_test/mfcc/raw_mfcc_train.3.ark:968606
faem0_sx132 quick_test/mfcc/raw_mfcc_train.1.ark:13048
mkln0_sx158 quick_test/mfcc/raw_mfcc_train.3.ark:2154889
mmdg0_sx430 quick_test/mfcc/raw_mfcc_train.3.ark:2869395
fsgf0_si2187 quick_test/mfcc/raw_mfcc_train.1.ark:3795922
mtxs0_sx70 quick_test/mfcc/raw_mfcc_train.4.ark:3332362
mrkm0_sx97 quick_test/mfcc/raw_mfcc_train.4.ark:1054773
mjsr0_si1424 quick_test/mfcc/raw_mfcc_train.3.ark:1636394
fcjs0_si977 quick_test/mfcc/raw_mfcc_train.1.ark:567365
mjls0_sx196 quick_test/mfcc/raw_mfcc_train.3.ark:1253824
mdwm0_sx106 quick_test/mfcc/raw_mfcc_train.2.ark:3105035
mdbp0_si1788 quick_test/mfcc/raw_mfcc_train.2.ark:2058046
msdh0_sx350 quick_test/mfcc/raw_mfcc_train.4.ark:1870128
mjhi0_sx248 quick_test/mfcc/raw_mfcc_train.3.ark:1020990
mtcs0_si712 quick_test/mfcc/raw_mfcc_train.4.ark:2508462
mntw0_sx348 quick_test/mfcc/raw_mfcc_train.3.ark:3499707
mrjm0_si1228 quick_test/mfcc/raw_mfcc_train.4.ark:920233
flma0_sx343 quick_test/mfcc/raw_mfcc_train.1.ark:2646201
mbcg0_si486 quick_test/mfcc/raw_mfcc_train.2.ark:1103727
mrwa0_sx433 quick_test/mfcc/raw_mfcc_train.4.ark:1637652
fmju0_sx219 quick_test/mfcc/raw_mfcc_train.1.ark:2970049
makb0_sx116 quick_test/mfcc/raw_mfcc_train.2.ark:898943
mprb0_sx35 quick_test/mfcc/raw_mfcc_train.4.ark:46076
mrmh0_sx211 quick_test/mfcc/raw_mfcc_train.4.ark:1287639
