mlel0_sx436 quick_test/mfcc/raw_mfcc_train.3.ark:2423663
fblv0_sx158 quick_test/mfcc/raw_mfcc_train.1.ark:323517
mvrw0_sx315 quick_test/mfcc/raw_mfcc_train.4.ark:3415707
fcrz0_sx343 quick_test/mfcc/raw_mfcc_train.1.ark:738362
mkdd0_si1567 quick_test/mfcc/raw_mfcc_train.3.ark:2011744
mpgh0_sx384 quick_test/mfcc/raw_mfcc_train.3.ark:3624298
mwre0_si1057 quick_test/mfcc/raw_mfcc_train.4.ark:3645321
fsjk1_sx215 quick_test/mfcc/raw_mfcc_train.2.ark:12
flac0_sx271 quick_test/mfcc/raw_mfcc_train.1.ark:2340322
mkaj0_sx244 quick_test/mfcc/raw_mfcc_train.3.ark:1931587
fljg0_si1611 quick_test/mfcc/raw_mfcc_train.1.ark:2553648
ftmg0_si1532 quick_test/mfcc/raw_mfcc_train.2.ark:536435
mhjb0_sx387 quick_test/mfcc/raw_mfcc_train.3.ark:383822
mkls1_sx285 quick_test/mfcc/raw_mfcc_train.3.ark:2260590
mtqc0_si1441 quick_test/mfcc/raw_mfcc_train.4.ark:3133752
mjee0_si1237 quick_test/mfcc/raw_mfcc_train.3.ark:910564
mdlr0_si1863 quick_test/mfcc/raw_mfcc_train.2.ark:2614428
mzmb0_si1166 quick_test/mfcc/raw_mfcc_train.4.ark:3777081
fmmh0_sx7 quick_test/mfcc/raw_mfcc_train.1.ark:3079327
fcyl0_sx397 quick_test/mfcc/raw_mfcc_train.1.ark:779681
fear0_si1252 quick_test/mfcc/raw_mfcc_train.1.ark:1154448
fskp0_si468 quick_test/mfcc/raw_mfcc_train.2.ark:155048
mjhi0_sx338 quick_test/mfcc/raw_mfcc_train.3.ark:1023974
fpls0_si960 quick_test/mfcc/raw_mfcc_train.1.ark:3403595
fdxw0_sx431 quick_test/mfcc/raw_mfcc_train.1.ark:1114285
mrsp0_sx259 quick_test/mfcc/raw_mfcc_train.4.ark:1497316
mmws1_sx81 quick_test/mfcc/raw_mfcc_train.3.ark:3410494
falk0_si658 quick_test/mfcc/raw_mfcc_train.1.ark:76033
fcyl0_sx37 quick_test/mfcc/raw_mfcc_train.1.ark:776138
mljc0_sx325 quick_test/mfcc/raw_mfcc_train.3.ark:2453561
mtat1_sx59 quick_test/mfcc/raw_mfcc_train.4.ark:2469070
mjjb0_si1277 quick_test/mfcc/raw_mfcc_train.3.ark:1041657
mkjo0_si887 quick_test/mfcc/raw_mfcc_train.3.ark:2120063
mree0_sx114 quick_test/mfcc/raw_mfcc_train.4.ark:553269
fmju0_sx129 quick_test/mfcc/raw_mfcc_train.1.ark:2965752
fpls0_sx60 quick_test/mfcc/raw_mfcc_train.1.ark:3422425
mjls0_sx376 quick_test/mfcc/raw_mfcc_train.3.ark:1261508
mntw0_sx258 quick_test/mfcc/raw_mfcc_train.3.ark:3495046
msfh0_sx226 quick_test/mfcc/raw_mfcc_train.4.ark:2014833
mkah0_sx448 quick_test/mfcc/raw_mfcc_train.3.ark:1908599
flja0_si2338 quick_test/mfcc/raw_mfcc_train.1.ark:2496245
mrmg0_sx360 quick_test/mfcc/raw_mfcc_train.4.ark:1257610
mkln0_si1598 quick_test/mfcc/raw_mfcc_train.3.ark:2142205
mjrp0_sx315 quick_test/mfcc/raw_mfcc_train.3.ark:1625908
fsls0_sx202 quick_test/mfcc/raw_mfcc_train.2.ark:194744
mrlr0_sx26 quick_test/mfcc/raw_mfcc_train.4.ark:1197486
fjwb1_sx165 quick_test/mfcc/raw_mfcc_train.1.ark:1932638
mtdb0_si1401 quick_test/mfcc/raw_mfcc_train.4.ark:2536194
mtkp0_si1023 quick_test/mfcc/raw_mfcc_train.4.ark:2810066
mtdp0_si2151 quick_test/mfcc/raw_mfcc_train.4.ark:2577906
mdlc1_sx445 quick_test/mfcc/raw_mfcc_train.2.ark:2512576
fdml0_sx429 quick_test/mfcc/raw_mfcc_train.1.ark:968352
mmrp0_sx234 quick_test/mfcc/raw_mfcc_train.3.ark:3221273
mgxp0_sx277 quick_test/mfcc/raw_mfcc_train.3.ark:283584
fsbk0_sx439 quick_test/mfcc/raw_mfcc_train.1.ark:3685086
milb0_sx183 quick_test/mfcc/raw_mfcc_train.3.ark:528469
fpmy0_si523 quick_test/mfcc/raw_mfcc_train.1.ark:3436423
mjhi0_sx158 quick_test/mfcc/raw_mfcc_train.3.ark:1018201
mrwa0_sx253 quick_test/mfcc/raw_mfcc_train.4.ark:1629968
mgrl0_sx147 quick_test/mfcc/raw_mfcc_train.3.ark:138793
mdef0_sx213 quick_test/mfcc/raw_mfcc_train.2.ark:2235387
mgak0_sx316 quick_test/mfcc/raw_mfcc_train.2.ark:3665853
mbar0_si1949 quick_test/mfcc/raw_mfcc_train.2.ark:1043150
fgmb0_sx155 quick_test/mfcc/raw_mfcc_train.1.ark:1447037
mrtj0_si1551 quick_test/mfcc/raw_mfcc_train.4.ark:1545026
maeb0_si1411 quick_test/mfcc/raw_mfcc_train.2.ark:754052
mjee0_sx427 quick_test/mfcc/raw_mfcc_train.3.ark:933864
fljg0_sx171 quick_test/mfcc/raw_mfcc_train.1.ark:2567632
fdas1_si831 quick_test/mfcc/raw_mfcc_train.1.ark:793705
fsmm0_sx414 quick_test/mfcc/raw_mfcc_train.2.ark:269102
fbch0_si1586 quick_test/mfcc/raw_mfcc_train.1.ark:239050
mmag0_si1126 quick_test/mfcc/raw_mfcc_train.3.ark:2639403
mapv0_sx303 quick_test/mfcc/raw_mfcc_train.2.ark:967971
mwsh0_sx76 quick_test/mfcc/raw_mfcc_train.4.ark:3772198
mrdd0_si2310 quick_test/mfcc/raw_mfcc_train.4.ark:455109
fajw0_sx3 quick_test/mfcc/raw_mfcc_train.1.ark:57265
mrkm0_sx187 quick_test/mfcc/raw_mfcc_train.4.ark:1036938
fntb0_si573 quick_test/mfcc/raw_mfcc_train.1.ark:3162636
mter0_sx77 quick_test/mfcc/raw_mfcc_train.4.ark:2638017
mdas0_sx96 quick_test/mfcc/raw_mfcc_train.2.ark:2022014
mdmt0_sx392 quick_test/mfcc/raw_mfcc_train.2.ark:2741781
ftmg0_si2162 quick_test/mfcc/raw_mfcc_train.2.ark:538731
fsgf0_sx387 quick_test/mfcc/raw_mfcc_train.1.ark:3820572
mmlm0_sx177 quick_test/mfcc/raw_mfcc_train.3.ark:3157231
mdbb1_sx286 quick_test/mfcc/raw_mfcc_train.2.ark:2046765
mewm0_si1348 quick_test/mfcc/raw_mfcc_train.2.ark:3369759
mpar0_si1576 quick_test/mfcc/raw_mfcc_train.3.ark:3508158
mwar0_si1675 quick_test/mfcc/raw_mfcc_train.4.ark:3495398
mdpb0_si1760 quick_test/mfcc/raw_mfcc_train.2.ark:2777999
fsag0_sx63 quick_test/mfcc/raw_mfcc_train.1.ark:3588161
mlel0_si1246 quick_test/mfcc/raw_mfcc_train.3.ark:2395046
mjma0_sx325 quick_test/mfcc/raw_mfcc_train.3.ark:1286382
mwsb0_sx96 quick_test/mfcc/raw_mfcc_train.4.ark:3735221
mrgm0_sx416 quick_test/mfcc/raw_mfcc_train.4.ark:760234
falk0_si1086 quick_test/mfcc/raw_mfcc_train.1.ark:68375
fcmg0_sx252 quick_test/mfcc/raw_mfcc_train.1.ark:672019
fsmm0_si1314 quick_test/mfcc/raw_mfcc_train.2.ark:243449
fjlr0_si1231 quick_test/mfcc/raw_mfcc_train.1.ark:1748654
mrml0_si791 quick_test/mfcc/raw_mfcc_train.4.ark:1310107
mbom0_si1644 quick_test/mfcc/raw_mfcc_train.2.ark:1321109
mwch0_si1622 quick_test/mfcc/raw_mfcc_train.4.ark:3520265
flmk0_sx405 quick_test/mfcc/raw_mfcc_train.1.ark:2714222
feac0_si1875 quick_test/mfcc/raw_mfcc_train.1.ark:1124031
fapb0_si2323 quick_test/mfcc/raw_mfcc_train.1.ark:141081
mrwa0_sx433 quick_test/mfcc/raw_mfcc_train.4.ark:1637652
fpmy0_si1153 quick_test/mfcc/raw_mfcc_train.1.ark:3426853
mdlh0_si700 quick_test/mfcc/raw_mfcc_train.2.ark:2554105
mcre0_si1725 quick_test/mfcc/raw_mfcc_train.2.ark:1806511
msmc0_sx377 quick_test/mfcc/raw_mfcc_train.4.ark:2132803
mjlg1_si1642 quick_test/mfcc/raw_mfcc_train.3.ark:1205704
mtpg0_si2013 quick_test/mfcc/raw_mfcc_train.4.ark:3043330
mmag0_sx46 quick_test/mfcc/raw_mfcc_train.3.ark:2672641
mrew1_sx60 quick_test/mfcc/raw_mfcc_train.4.ark:665682
mmdm0_sx231 quick_test/mfcc/raw_mfcc_train.3.ark:2893397
mabc0_si1620 quick_test/mfcc/raw_mfcc_train.2.ark:660229
mjhi0_sx248 quick_test/mfcc/raw_mfcc_train.3.ark:1020990
mpgh0_sx24 quick_test/mfcc/raw_mfcc_train.3.ark:3618915
mzmb0_sx356 quick_test/mfcc/raw_mfcc_train.4.ark:3798047
fpac0_sx121 quick_test/mfcc/raw_mfcc_train.1.ark:3243091
fgcs0_sx316 quick_test/mfcc/raw_mfcc_train.1.ark:1384316
mrmb0_sx231 quick_test/mfcc/raw_mfcc_train.4.ark:1223511
flma0_sx253 quick_test/mfcc/raw_mfcc_train.1.ark:2643581
fblv0_si1688 quick_test/mfcc/raw_mfcc_train.1.ark:311854
fcmg0_sx432 quick_test/mfcc/raw_mfcc_train.1.ark:679482
mrsp0_sx196 quick_test/mfcc/raw_mfcc_train.4.ark:1494865
mpeb0_sx330 quick_test/mfcc/raw_mfcc_train.3.ark:3552282
fexm0_sx111 quick_test/mfcc/raw_mfcc_train.1.ark:1341058
megj0_si1337 quick_test/mfcc/raw_mfcc_train.2.ark:3212568
fklc0_sx175 quick_test/mfcc/raw_mfcc_train.1.ark:2206082
mkls0_sx87 quick_test/mfcc/raw_mfcc_train.3.ark:2233604
mrav0_si2268 quick_test/mfcc/raw_mfcc_train.4.ark:323892
fdml0_si1149 quick_test/mfcc/raw_mfcc_train.1.ark:947950
mwsb0_si996 quick_test/mfcc/raw_mfcc_train.4.ark:3716690
mjac0_sx341 quick_test/mfcc/raw_mfcc_train.3.ark:564639
fkde0_sx421 quick_test/mfcc/raw_mfcc_train.1.ark:2080555
mejl0_sx332 quick_test/mfcc/raw_mfcc_train.2.ark:3265946
mjxa0_si1507 quick_test/mfcc/raw_mfcc_train.3.ark:1785354
mefg0_si598 quick_test/mfcc/raw_mfcc_train.2.ark:3188190
fpab1_sx31 quick_test/mfcc/raw_mfcc_train.1.ark:3221136
msfv0_si1892 quick_test/mfcc/raw_mfcc_train.4.ark:2036020
mhrm0_si2218 quick_test/mfcc/raw_mfcc_train.3.ark:452800
mtbc0_sx93 quick_test/mfcc/raw_mfcc_train.4.ark:2501055
flag0_si2094 quick_test/mfcc/raw_mfcc_train.1.ark:2361912
mrlj1_si2301 quick_test/mfcc/raw_mfcc_train.4.ark:1119591
madd0_sx268 quick_test/mfcc/raw_mfcc_train.2.ark:738268
mtpf0_sx335 quick_test/mfcc/raw_mfcc_train.4.ark:3028286
fjen0_si1677 quick_test/mfcc/raw_mfcc_train.1.ark:1620030
mkdb0_sx332 quick_test/mfcc/raw_mfcc_train.3.ark:1998788
mjjb0_sx239 quick_test/mfcc/raw_mfcc_train.3.ark:1053132
mlel0_si616 quick_test/mfcc/raw_mfcc_train.3.ark:2402562
fdxw0_si1511 quick_test/mfcc/raw_mfcc_train.1.ark:1092649
feeh0_si1112 quick_test/mfcc/raw_mfcc_train.1.ark:1225893
mbth0_sx302 quick_test/mfcc/raw_mfcc_train.2.ark:1391138
mtjs0_sx382 quick_test/mfcc/raw_mfcc_train.4.ark:2738483
mklr0_si2319 quick_test/mfcc/raw_mfcc_train.3.ark:2181434
mprd0_si1431 quick_test/mfcc/raw_mfcc_train.4.ark:54060
mdlr0_sx243 quick_test/mfcc/raw_mfcc_train.2.ark:2625395
mrem0_sx61 quick_test/mfcc/raw_mfcc_train.4.ark:635751
mdrd0_si2012 quick_test/mfcc/raw_mfcc_train.2.ark:2874404
fpad0_sx176 quick_test/mfcc/raw_mfcc_train.1.ark:3276454
mmgk0_sx422 quick_test/mfcc/raw_mfcc_train.3.ark:3105723
makr0_si1352 quick_test/mfcc/raw_mfcc_train.2.ark:918400
flod0_sx117 quick_test/mfcc/raw_mfcc_train.1.ark:2733836
msrr0_sx30 quick_test/mfcc/raw_mfcc_train.4.ark:2253371
feac0_sx435 quick_test/mfcc/raw_mfcc_train.1.ark:1145945
mtkd0_sx197 quick_test/mfcc/raw_mfcc_train.4.ark:2797109
mpsw0_sx77 quick_test/mfcc/raw_mfcc_train.4.ark:181211
mdks0_si1696 quick_test/mfcc/raw_mfcc_train.2.ark:2382797
mdbp0_sx78 quick_test/mfcc/raw_mfcc_train.2.ark:2087220
mjxa0_sx157 quick_test/mfcc/raw_mfcc_train.3.ark:1797570
mses0_sx419 quick_test/mfcc/raw_mfcc_train.4.ark:1987503
mjpm0_sx18 quick_test/mfcc/raw_mfcc_train.3.ark:1399781
feac0_sx165 quick_test/mfcc/raw_mfcc_train.1.ark:1134068
mdlm0_si1234 quick_test/mfcc/raw_mfcc_train.2.ark:2580446
flag0_sx384 quick_test/mfcc/raw_mfcc_train.1.ark:2388044
mrlr0_sx386 quick_test/mfcc/raw_mfcc_train.4.ark:1204117
mclk0_si650 quick_test/mfcc/raw_mfcc_train.2.ark:1717661
mkes0_sx173 quick_test/mfcc/raw_mfcc_train.3.ark:2092674
mdlr0_si1233 quick_test/mfcc/raw_mfcc_train.2.ark:2609129
mkxl0_si1958 quick_test/mfcc/raw_mfcc_train.3.ark:2341803
fsdj0_si485 quick_test/mfcc/raw_mfcc_train.1.ark:3773070
mcre0_sx221 quick_test/mfcc/raw_mfcc_train.2.ark:1817232
mrwa0_si1603 quick_test/mfcc/raw_mfcc_train.4.ark:1614521
mrmb0_sx321 quick_test/mfcc/raw_mfcc_train.4.ark:1225806
mpsw0_si1697 quick_test/mfcc/raw_mfcc_train.4.ark:161813
fjlg0_sx179 quick_test/mfcc/raw_mfcc_train.1.ark:1727494
fcmm0_sx183 quick_test/mfcc/raw_mfcc_train.1.ark:701033
mesj0_si997 quick_test/mfcc/raw_mfcc_train.2.ark:3350622
fjxp0_sx312 quick_test/mfcc/raw_mfcc_train.1.ark:2005787
msfh0_si1738 quick_test/mfcc/raw_mfcc_train.4.ark:1997600
mtlb0_sx414 quick_test/mfcc/raw_mfcc_train.4.ark:2868679
mcal0_sx238 quick_test/mfcc/raw_mfcc_train.2.ark:1491946
mjdg0_si1042 quick_test/mfcc/raw_mfcc_train.3.ark:777215
fajw0_si1893 quick_test/mfcc/raw_mfcc_train.1.ark:39403
mtjg0_sx170 quick_test/mfcc/raw_mfcc_train.4.ark:2651333
mrav0_si1008 quick_test/mfcc/raw_mfcc_train.4.ark:317064
mcal0_sx418 quick_test/mfcc/raw_mfcc_train.2.ark:1499916
mtpg0_sx123 quick_test/mfcc/raw_mfcc_train.4.ark:3051248
mdjm0_sx375 quick_test/mfcc/raw_mfcc_train.2.ark:2376450
mgaw0_sx85 quick_test/mfcc/raw_mfcc_train.3.ark:60258
mdss0_sx351 quick_test/mfcc/raw_mfcc_train.2.ark:2956043
mbsb0_si723 quick_test/mfcc/raw_mfcc_train.2.ark:1351192
mrjm1_si668 quick_test/mfcc/raw_mfcc_train.4.ark:959922
mdsj0_sx438 quick_test/mfcc/raw_mfcc_train.2.ark:2934913
mjfh0_sx207 quick_test/mfcc/raw_mfcc_train.3.ark:957606
mprd0_sx171 quick_test/mfcc/raw_mfcc_train.4.ark:68954
mmws1_sx441 quick_test/mfcc/raw_mfcc_train.3.ark:3407485
fpmy0_sx253 quick_test/mfcc/raw_mfcc_train.1.ark:3451485
mjeb0_sx296 quick_test/mfcc/raw_mfcc_train.3.ark:868905
fjwb1_sx75 quick_test/mfcc/raw_mfcc_train.1.ark:1947641
mjra0_sx336 quick_test/mfcc/raw_mfcc_train.3.ark:1467087
mtmt0_sx218 quick_test/mfcc/raw_mfcc_train.4.ark:2992524
msfv0_sx182 quick_test/mfcc/raw_mfcc_train.4.ark:2047500
mrtj0_sx232 quick_test/mfcc/raw_mfcc_train.4.ark:1566375
mrkm0_si1391 quick_test/mfcc/raw_mfcc_train.4.ark:1023456
mkjo0_si2147 quick_test/mfcc/raw_mfcc_train.3.ark:2117196
mmgc0_sx315 quick_test/mfcc/raw_mfcc_train.3.ark:3044826
fscn0_si1886 quick_test/mfcc/raw_mfcc_train.1.ark:3695279
mkls0_sx447 quick_test/mfcc/raw_mfcc_train.3.ark:2229971
mmsm0_sx26 quick_test/mfcc/raw_mfcc_train.3.ark:3264119
mtpr0_si2230 quick_test/mfcc/raw_mfcc_train.4.ark:3102425
marc0_si558 quick_test/mfcc/raw_mfcc_train.2.ark:982931
mdpk0_sx243 quick_test/mfcc/raw_mfcc_train.2.ark:2825730
mklw0_si1571 quick_test/mfcc/raw_mfcc_train.3.ark:2268223
mkdd0_sx37 quick_test/mfcc/raw_mfcc_train.3.ark:2036135
mrvg0_sx240 quick_test/mfcc/raw_mfcc_train.4.ark:1598906
fsdj0_sx305 quick_test/mfcc/raw_mfcc_train.1.ark:3782451
msds0_sx447 quick_test/mfcc/raw_mfcc_train.4.ark:1914952
ftlg0_sx213 quick_test/mfcc/raw_mfcc_train.2.ark:522497
marw0_sx349 quick_test/mfcc/raw_mfcc_train.2.ark:1027319
fecd0_sx338 quick_test/mfcc/raw_mfcc_train.1.ark:1212638
mtas0_si755 quick_test/mfcc/raw_mfcc_train.4.ark:2384318
mmds0_sx263 quick_test/mfcc/raw_mfcc_train.3.ark:2955586
mkls1_sx105 quick_test/mfcc/raw_mfcc_train.3.ark:2250469
mtpp0_si2138 quick_test/mfcc/raw_mfcc_train.4.ark:3073469
mjxl0_sx92 quick_test/mfcc/raw_mfcc_train.3.ark:1845715
mhbs0_sx135 quick_test/mfcc/raw_mfcc_train.3.ark:312583
mree0_sx294 quick_test/mfcc/raw_mfcc_train.4.ark:563442
mtjs0_sx202 quick_test/mfcc/raw_mfcc_train.4.ark:2727647
mjda0_si2291 quick_test/mfcc/raw_mfcc_train.3.ark:680769
mdns0_sx201 quick_test/mfcc/raw_mfcc_train.2.ark:2764958
mmar0_sx76 quick_test/mfcc/raw_mfcc_train.3.ark:2739758
mrjb1_si1020 quick_test/mfcc/raw_mfcc_train.4.ark:840668
fskl0_sx89 quick_test/mfcc/raw_mfcc_train.2.ark:142155
mrtc0_sx108 quick_test/mfcc/raw_mfcc_train.4.ark:1524672
mddc0_sx249 quick_test/mfcc/raw_mfcc_train.2.ark:2170363
falr0_si695 quick_test/mfcc/raw_mfcc_train.1.ark:109381
mjbg0_sx62 quick_test/mfcc/raw_mfcc_train.3.ark:671918
mrbc0_si1859 quick_test/mfcc/raw_mfcc_train.4.ark:349318
mlsh0_sx67 quick_test/mfcc/raw_mfcc_train.3.ark:2565649
mpgr0_sx420 quick_test/mfcc/raw_mfcc_train.3.ark:3647931
msds0_si1707 quick_test/mfcc/raw_mfcc_train.4.ark:1890866
fecd0_sx248 quick_test/mfcc/raw_mfcc_train.1.ark:1208562
mmab1_si864 quick_test/mfcc/raw_mfcc_train.3.ark:2610267
flmk0_sx135 quick_test/mfcc/raw_mfcc_train.1.ark:2702553
mmxs0_sx246 quick_test/mfcc/raw_mfcc_train.3.ark:3428496
mgxp0_sx7 quick_test/mfcc/raw_mfcc_train.3.ark:291864
mdlc2_sx354 quick_test/mfcc/raw_mfcc_train.2.ark:2536039
mddc0_sx429 quick_test/mfcc/raw_mfcc_train.2.ark:2176643
fjlr0_si601 quick_test/mfcc/raw_mfcc_train.1.ark:1756729
mjae0_si2154 quick_test/mfcc/raw_mfcc_train.3.ark:584215
fljd0_sx436 quick_test/mfcc/raw_mfcc_train.1.ark:2547147
msfv0_sx362 quick_test/mfcc/raw_mfcc_train.4.ark:2054794
mjdm0_si1340 quick_test/mfcc/raw_mfcc_train.3.ark:808304
mdns0_si1011 quick_test/mfcc/raw_mfcc_train.2.ark:2745832
mkdb0_si2132 quick_test/mfcc/raw_mfcc_train.3.ark:1979162
mkag0_si979 quick_test/mfcc/raw_mfcc_train.3.ark:1858270
fklc0_si985 quick_test/mfcc/raw_mfcc_train.1.ark:2199354
msem1_si810 quick_test/mfcc/raw_mfcc_train.4.ark:1933974
fmmh0_si907 quick_test/mfcc/raw_mfcc_train.1.ark:3063194
fssb0_sx272 quick_test/mfcc/raw_mfcc_train.2.ark:393909
mdlr1_sx219 quick_test/mfcc/raw_mfcc_train.2.ark:2661163
mdlc0_si765 quick_test/mfcc/raw_mfcc_train.2.ark:2464494
fmkc0_sx82 quick_test/mfcc/raw_mfcc_train.1.ark:3015627
fsgf0_si2187 quick_test/mfcc/raw_mfcc_train.1.ark:3795922
mkln0_sx68 quick_test/mfcc/raw_mfcc_train.3.ark:2169827
mkxl0_si1185 quick_test/mfcc/raw_mfcc_train.3.ark:2332583
fsjw0_si1333 quick_test/mfcc/raw_mfcc_train.2.ark:49120
flac0_sx361 quick_test/mfcc/raw_mfcc_train.1.ark:2343579
majp0_sx354 quick_test/mfcc/raw_mfcc_train.2.ark:866815
fjrb0_si1932 quick_test/mfcc/raw_mfcc_train.1.ark:1786302
msmr0_sx145 quick_test/mfcc/raw_mfcc_train.4.ark:2150929
mgsh0_sx186 quick_test/mfcc/raw_mfcc_train.3.ark:212650
mdjm0_si2085 quick_test/mfcc/raw_mfcc_train.2.ark:2355206
mntw0_sx78 quick_test/mfcc/raw_mfcc_train.3.ark:3504497
mmws0_si888 quick_test/mfcc/raw_mfcc_train.3.ark:3363395
mrbc0_si599 quick_test/mfcc/raw_mfcc_train.4.ark:352900
mdac0_si631 quick_test/mfcc/raw_mfcc_train.2.ark:1968925
fcag0_si2133 quick_test/mfcc/raw_mfcc_train.1.ark:415851
fpaz0_sx27 quick_test/mfcc/raw_mfcc_train.1.ark:3354010
fdas1_sx381 quick_test/mfcc/raw_mfcc_train.1.ark:814396
fear0_si622 quick_test/mfcc/raw_mfcc_train.1.ark:1160703
mgjc0_sx435 quick_test/mfcc/raw_mfcc_train.3.ark:116774
fsjw0_si1963 quick_test/mfcc/raw_mfcc_train.2.ark:55992
feme0_si875 quick_test/mfcc/raw_mfcc_train.1.ark:1266590
mmdm1_sx153 quick_test/mfcc/raw_mfcc_train.3.ark:2917770
mjxl0_si1172 quick_test/mfcc/raw_mfcc_train.3.ark:1815961
mrgs0_sx6 quick_test/mfcc/raw_mfcc_train.4.ark:801311
mmag0_sx136 quick_test/mfcc/raw_mfcc_train.3.ark:2653621
feeh0_sx122 quick_test/mfcc/raw_mfcc_train.1.ark:1238447
mppc0_si2042 quick_test/mfcc/raw_mfcc_train.3.ark:3749949
mwgr0_sx346 quick_test/mfcc/raw_mfcc_train.4.ark:3634146
mewm0_si718 quick_test/mfcc/raw_mfcc_train.2.ark:3374792
msms0_sx353 quick_test/mfcc/raw_mfcc_train.4.ark:2190234
mram0_si1275 quick_test/mfcc/raw_mfcc_train.4.ark:285442
mbef0_sx381 quick_test/mfcc/raw_mfcc_train.2.ark:1154226
msjk0_si1596 quick_test/mfcc/raw_mfcc_train.4.ark:2069427
msds0_sx87 quick_test/mfcc/raw_mfcc_train.4.ark:1918468
mgsh0_sx127 quick_test/mfcc/raw_mfcc_train.3.ark:209783
mdss0_si2087 quick_test/mfcc/raw_mfcc_train.2.ark:2943223
mrew1_sx240 quick_test/mfcc/raw_mfcc_train.4.ark:652688
mjac0_si701 quick_test/mfcc/raw_mfcc_train.3.ark:550422
mesg0_si1332 quick_test/mfcc/raw_mfcc_train.2.ark:3309106
mhjb0_si2277 quick_test/mfcc/raw_mfcc_train.3.ark:368266
mmdm0_sx141 quick_test/mfcc/raw_mfcc_train.3.ark:2889178
mded0_sx180 quick_test/mfcc/raw_mfcc_train.2.ark:2198454
fjlr0_sx61 quick_test/mfcc/raw_mfcc_train.1.ark:1776640
flkm0_sx440 quick_test/mfcc/raw_mfcc_train.1.ark:2619891
mdrd0_si1382 quick_test/mfcc/raw_mfcc_train.2.ark:2870951
mgrl0_sx327 quick_test/mfcc/raw_mfcc_train.3.ark:143916
maeo0_sx426 quick_test/mfcc/raw_mfcc_train.2.ark:809065
mges0_si1481 quick_test/mfcc/raw_mfcc_train.3.ark:63217
fdmy0_sx27 quick_test/mfcc/raw_mfcc_train.1.ark:1006516
makb0_sx116 quick_test/mfcc/raw_mfcc_train.2.ark:898943
mjrh1_sx64 quick_test/mfcc/raw_mfcc_train.3.ark:1573963
mbwp0_sx169 quick_test/mfcc/raw_mfcc_train.2.ark:1413151
fskp0_si1728 quick_test/mfcc/raw_mfcc_train.2.ark:151674
fceg0_si618 quick_test/mfcc/raw_mfcc_train.1.ark:516395
fpaf0_sx334 quick_test/mfcc/raw_mfcc_train.1.ark:3319712
medr0_si744 quick_test/mfcc/raw_mfcc_train.2.ark:3158534
mjrh1_si514 quick_test/mfcc/raw_mfcc_train.3.ark:1555170
fmpg0_sx432 quick_test/mfcc/raw_mfcc_train.1.ark:3117461
fjdm2_sx412 quick_test/mfcc/raw_mfcc_train.1.ark:1607814
madc0_sx17 quick_test/mfcc/raw_mfcc_train.2.ark:707946
mbar0_sx329 quick_test/mfcc/raw_mfcc_train.2.ark:1058570
mrpc1_sx132 quick_test/mfcc/raw_mfcc_train.4.ark:1380040
mdss0_sx261 quick_test/mfcc/raw_mfcc_train.2.ark:2953839
mjrg0_sx352 quick_test/mfcc/raw_mfcc_train.3.ark:1503394
mvjh0_sx386 quick_test/mfcc/raw_mfcc_train.4.ark:3362371
fmem0_si747 quick_test/mfcc/raw_mfcc_train.1.ark:2858208
mmws1_sx27 quick_test/mfcc/raw_mfcc_train.3.ark:3401049
mfmc0_sx412 quick_test/mfcc/raw_mfcc_train.2.ark:3451179
fgmb0_si1145 quick_test/mfcc/raw_mfcc_train.1.ark:1432507
mrav0_sx288 quick_test/mfcc/raw_mfcc_train.4.ark:338557
mbom0_sx114 quick_test/mfcc/raw_mfcc_train.2.ark:1327104
msvs0_si1568 quick_test/mfcc/raw_mfcc_train.4.ark:2298857
mreh1_si969 quick_test/mfcc/raw_mfcc_train.4.ark:579202
fssb0_si1082 quick_test/mfcc/raw_mfcc_train.2.ark:377434
fjxm0_si581 quick_test/mfcc/raw_mfcc_train.1.ark:1957336
mtpg0_si753 quick_test/mfcc/raw_mfcc_train.4.ark:3046028
mmaa0_sx125 quick_test/mfcc/raw_mfcc_train.3.ark:2585764
mmaa0_sx305 quick_test/mfcc/raw_mfcc_train.3.ark:2593812
mrmh0_si1349 quick_test/mfcc/raw_mfcc_train.4.ark:1274877
mwsh0_si796 quick_test/mfcc/raw_mfcc_train.4.ark:3747789
mjrp0_si1845 quick_test/mfcc/raw_mfcc_train.3.ark:1609045
mmcc0_sx438 quick_test/mfcc/raw_mfcc_train.3.ark:2804671
flag0_sx114 quick_test/mfcc/raw_mfcc_train.1.ark:2371000
fcmg0_si1872 quick_test/mfcc/raw_mfcc_train.1.ark:663906
mbbr0_si1055 quick_test/mfcc/raw_mfcc_train.2.ark:1069719
megj0_sx167 quick_test/mfcc/raw_mfcc_train.2.ark:3228060
fcrz0_sx163 quick_test/mfcc/raw_mfcc_train.1.ark:731874
mdbp0_sx348 quick_test/mfcc/raw_mfcc_train.2.ark:2076534
mjjb0_si1139 quick_test/mfcc/raw_mfcc_train.3.ark:1036449
fsbk0_si1069 quick_test/mfcc/raw_mfcc_train.1.ark:3659393
flmc0_si742 quick_test/mfcc/raw_mfcc_train.1.ark:2665230
fapb0_sx253 quick_test/mfcc/raw_mfcc_train.1.ark:152587
fvfb0_sx132 quick_test/mfcc/raw_mfcc_train.2.ark:579246
mtpr0_sx70 quick_test/mfcc/raw_mfcc_train.4.ark:3132262
mbbr0_si1685 quick_test/mfcc/raw_mfcc_train.2.ark:1075655
mjra0_si1866 quick_test/mfcc/raw_mfcc_train.3.ark:1451771
mdrd0_si752 quick_test/mfcc/raw_mfcc_train.2.ark:2877973
mrre0_sx434 quick_test/mfcc/raw_mfcc_train.4.ark:1427931
fskc0_sx426 quick_test/mfcc/raw_mfcc_train.2.ark:105978
mrgm0_sx262 quick_test/mfcc/raw_mfcc_train.4.ark:756262
fspm0_si1871 quick_test/mfcc/raw_mfcc_train.2.ark:317853
mjdm0_sx350 quick_test/mfcc/raw_mfcc_train.3.ark:830076
fecd0_sx158 quick_test/mfcc/raw_mfcc_train.1.ark:1205110
msvs0_si2198 quick_test/mfcc/raw_mfcc_train.4.ark:2302349
mjrh1_si1558 quick_test/mfcc/raw_mfcc_train.3.ark:1545301
mter0_si1787 quick_test/mfcc/raw_mfcc_train.4.ark:2613914
mreh1_si1599 quick_test/mfcc/raw_mfcc_train.4.ark:569931
mdks0_sx436 quick_test/mfcc/raw_mfcc_train.2.ark:2405154
fsrh0_si671 quick_test/mfcc/raw_mfcc_train.2.ark:351548
mdss0_si1881 quick_test/mfcc/raw_mfcc_train.2.ark:2940563
mjde0_si463 quick_test/mfcc/raw_mfcc_train.3.ark:742196
mdem0_sx428 quick_test/mfcc/raw_mfcc_train.2.ark:2277395
mrfk0_sx86 quick_test/mfcc/raw_mfcc_train.4.ark:695848
mrms0_sx300 quick_test/mfcc/raw_mfcc_train.4.ark:1364051
fjrb0_sx222 quick_test/mfcc/raw_mfcc_train.1.ark:1794812
mtkd0_sx377 quick_test/mfcc/raw_mfcc_train.4.ark:2805924
mdef0_si1123 quick_test/mfcc/raw_mfcc_train.2.ark:2218366
mdlb0_sx46 quick_test/mfcc/raw_mfcc_train.2.ark:2448572
madc0_sx287 quick_test/mfcc/raw_mfcc_train.2.ark:714031
fsjg0_sx40 quick_test/mfcc/raw_mfcc_train.1.ark:3857113
fjxp0_sx132 quick_test/mfcc/raw_mfcc_train.1.ark:1999130
mppc0_sx62 quick_test/mfcc/raw_mfcc_train.4.ark:12265
mprd0_si2061 quick_test/mfcc/raw_mfcc_train.4.ark:59216
msfh0_sx136 quick_test/mfcc/raw_mfcc_train.4.ark:2009431
fklc1_sx328 quick_test/mfcc/raw_mfcc_train.1.ark:2246558
fjkl0_si1562 quick_test/mfcc/raw_mfcc_train.1.ark:1685801
fskl0_sx449 quick_test/mfcc/raw_mfcc_train.2.ark:137820
mdlc1_si1435 quick_test/mfcc/raw_mfcc_train.2.ark:2486636
fetb0_sx338 quick_test/mfcc/raw_mfcc_train.1.ark:1314092
mrgm0_si1162 quick_test/mfcc/raw_mfcc_train.4.ark:735225
mtrr0_sx18 quick_test/mfcc/raw_mfcc_train.4.ark:3221851
mwrp0_si1525 quick_test/mfcc/raw_mfcc_train.4.ark:3683932
mjlg1_sx112 quick_test/mfcc/raw_mfcc_train.3.ark:1214806
madd0_si1798 quick_test/mfcc/raw_mfcc_train.2.ark:724883
fljg0_sx81 quick_test/mfcc/raw_mfcc_train.1.ark:2588186
mwsb0_si1626 quick_test/mfcc/raw_mfcc_train.4.ark:3710084
mgaw0_si1802 quick_test/mfcc/raw_mfcc_train.3.ark:38325
mtdb0_sx141 quick_test/mfcc/raw_mfcc_train.4.ark:2550542
mjbg0_sx242 quick_test/mfcc/raw_mfcc_train.3.ark:657559
mrdm0_si1044 quick_test/mfcc/raw_mfcc_train.4.ark:476640
msms0_si803 quick_test/mfcc/raw_mfcc_train.4.ark:2177941
mmrp0_sx324 quick_test/mfcc/raw_mfcc_train.3.ark:3225908
flja0_si1078 quick_test/mfcc/raw_mfcc_train.1.ark:2486271
fmjf0_si1254 quick_test/mfcc/raw_mfcc_train.1.ark:2917755
mmgg0_si2339 quick_test/mfcc/raw_mfcc_train.3.ark:3064350
mdlr0_sx333 quick_test/mfcc/raw_mfcc_train.2.ark:2629601
fsma0_si991 quick_test/mfcc/raw_mfcc_train.2.ark:215431
mdhl0_si1439 quick_test/mfcc/raw_mfcc_train.2.ark:2287653
mbgt0_sx441 quick_test/mfcc/raw_mfcc_train.2.ark:1184177
mtpr0_sx430 quick_test/mfcc/raw_mfcc_train.4.ark:3126302
msat1_sx443 quick_test/mfcc/raw_mfcc_train.4.ark:1819606
mdss1_sx247 quick_test/mfcc/raw_mfcc_train.2.ark:2981014
mrdm0_si1595 quick_test/mfcc/raw_mfcc_train.4.ark:482212
mgak0_si1666 quick_test/mfcc/raw_mfcc_train.2.ark:3647975
mgrl0_sx57 quick_test/mfcc/raw_mfcc_train.3.ark:155109
mchl0_si1977 quick_test/mfcc/raw_mfcc_train.2.ark:1689264
mjeb1_sx387 quick_test/mfcc/raw_mfcc_train.3.ark:905746
feeh0_sx32 quick_test/mfcc/raw_mfcc_train.1.ark:1251129
mrcg0_si2058 quick_test/mfcc/raw_mfcc_train.4.ark:383760
fskc0_sx246 quick_test/mfcc/raw_mfcc_train.2.ark:97631
makr0_sx272 quick_test/mfcc/raw_mfcc_train.2.ark:930480
fjxp0_sx42 quick_test/mfcc/raw_mfcc_train.1.ark:2014510
mrxb0_sx415 quick_test/mfcc/raw_mfcc_train.4.ark:1699321
fpjf0_sx352 quick_test/mfcc/raw_mfcc_train.1.ark:3387342
mtjs0_si1192 quick_test/mfcc/raw_mfcc_train.4.ark:2705882
mbth0_sx392 quick_test/mfcc/raw_mfcc_train.2.ark:1398691
mjfh0_sx297 quick_test/mfcc/raw_mfcc_train.3.ark:962416
mgaw0_sx445 quick_test/mfcc/raw_mfcc_train.3.ark:57392
mtdb0_sx231 quick_test/mfcc/raw_mfcc_train.4.ark:2554995
meal0_si1547 quick_test/mfcc/raw_mfcc_train.2.ark:3123972
mwar0_sx415 quick_test/mfcc/raw_mfcc_train.4.ark:3512581
mdwh0_sx35 quick_test/mfcc/raw_mfcc_train.2.ark:3083015
mdps0_si1651 quick_test/mfcc/raw_mfcc_train.2.ark:2841371
mdac0_sx181 quick_test/mfcc/raw_mfcc_train.2.ark:1975718
mrfk0_si1076 quick_test/mfcc/raw_mfcc_train.4.ark:670175
fpaz0_sx153 quick_test/mfcc/raw_mfcc_train.1.ark:3345326
fecd0_si1418 quick_test/mfcc/raw_mfcc_train.1.ark:1187447
mafm0_si939 quick_test/mfcc/raw_mfcc_train.2.ark:820469
mjjj0_sx353 quick_test/mfcc/raw_mfcc_train.3.ark:1094757
mkdt0_sx173 quick_test/mfcc/raw_mfcc_train.3.ark:2057101
mrav0_sx108 quick_test/mfcc/raw_mfcc_train.4.ark:328969
mvlo0_si1777 quick_test/mfcc/raw_mfcc_train.4.ark:3369459
mfxs0_sx144 quick_test/mfcc/raw_mfcc_train.2.ark:3530774
mfrm0_sx345 quick_test/mfcc/raw_mfcc_train.2.ark:3478959
fhxs0_sx355 quick_test/mfcc/raw_mfcc_train.1.ark:1570322
mkdt0_si893 quick_test/mfcc/raw_mfcc_train.3.ark:2053181
mdwm0_sx286 quick_test/mfcc/raw_mfcc_train.2.ark:3111379
mjdm0_si1937 quick_test/mfcc/raw_mfcc_train.3.ark:815462
fjhk0_sx212 quick_test/mfcc/raw_mfcc_train.1.ark:1670368
ftmg0_sx452 quick_test/mfcc/raw_mfcc_train.2.ark:559670
fpab1_si841 quick_test/mfcc/raw_mfcc_train.1.ark:3200816
fmpg0_sx72 quick_test/mfcc/raw_mfcc_train.1.ark:3124253
fscn0_sx266 quick_test/mfcc/raw_mfcc_train.1.ark:3716614
fcrz0_sx73 quick_test/mfcc/raw_mfcc_train.1.ark:746513
mmwb0_sx449 quick_test/mfcc/raw_mfcc_train.3.ark:3346116
mram0_sx15 quick_test/mfcc/raw_mfcc_train.4.ark:301981
flja0_sx178 quick_test/mfcc/raw_mfcc_train.1.ark:2498579
mkag0_sx259 quick_test/mfcc/raw_mfcc_train.3.ark:1868463
mljc0_sx55 quick_test/mfcc/raw_mfcc_train.3.ark:2460750
meal0_si917 quick_test/mfcc/raw_mfcc_train.2.ark:3130474
fkfb0_sx78 quick_test/mfcc/raw_mfcc_train.1.ark:2156023
mdwh0_sx125 quick_test/mfcc/raw_mfcc_train.2.ark:3069579
mjjm0_si1457 quick_test/mfcc/raw_mfcc_train.3.ark:1112583
mrgs0_sx276 quick_test/mfcc/raw_mfcc_train.4.ark:792797
fcjf0_sx127 quick_test/mfcc/raw_mfcc_train.1.ark:549934
mjlg1_si1012 quick_test/mfcc/raw_mfcc_train.3.ark:1202043
fpad0_sx446 quick_test/mfcc/raw_mfcc_train.1.ark:3290567
mjrh1_sx154 quick_test/mfcc/raw_mfcc_train.3.ark:1558921
mdem0_sx248 quick_test/mfcc/raw_mfcc_train.2.ark:2267956
fear0_sx262 quick_test/mfcc/raw_mfcc_train.1.ark:1169102
fpaz0_sx243 quick_test/mfcc/raw_mfcc_train.1.ark:3350052
mrpc1_si2112 quick_test/mfcc/raw_mfcc_train.4.ark:1377147
mjrg0_si1996 quick_test/mfcc/raw_mfcc_train.3.ark:1484536
mkjo0_si1517 quick_test/mfcc/raw_mfcc_train.3.ark:2113054
fcyl0_si667 quick_test/mfcc/raw_mfcc_train.1.ark:758249
mmam0_sx427 quick_test/mfcc/raw_mfcc_train.3.ark:2697263
mgaf0_sx112 quick_test/mfcc/raw_mfcc_train.2.ark:3597124
mmcc0_sx78 quick_test/mfcc/raw_mfcc_train.3.ark:2809864
mgak0_sx46 quick_test/mfcc/raw_mfcc_train.2.ark:3674992
mjdc0_sx261 quick_test/mfcc/raw_mfcc_train.3.ark:721738
fklc1_sx238 quick_test/mfcc/raw_mfcc_train.1.ark:2242911
fmbg0_si2264 quick_test/mfcc/raw_mfcc_train.1.ark:2826173
mrld0_sx424 quick_test/mfcc/raw_mfcc_train.4.ark:1079875
fpmy0_sx163 quick_test/mfcc/raw_mfcc_train.1.ark:3444451
mlsh0_sx247 quick_test/mfcc/raw_mfcc_train.3.ark:2552694
fclt0_sx358 quick_test/mfcc/raw_mfcc_train.1.ark:642276
fjhk0_si2282 quick_test/mfcc/raw_mfcc_train.1.ark:1659317
mtmn0_sx74 quick_test/mfcc/raw_mfcc_train.4.ark:2972311
mdlb0_si1936 quick_test/mfcc/raw_mfcc_train.2.ark:2421205
mmeb0_sx7 quick_test/mfcc/raw_mfcc_train.3.ark:3018723
mmgc0_sx45 quick_test/mfcc/raw_mfcc_train.3.ark:3051898
mrms0_sx390 quick_test/mfcc/raw_mfcc_train.4.ark:1366892
mjjb0_sx59 quick_test/mfcc/raw_mfcc_train.3.ark:1066568
mjra0_si606 quick_test/mfcc/raw_mfcc_train.3.ark:1456315
mtwh1_sx342 quick_test/mfcc/raw_mfcc_train.4.ark:3286258
mjjm0_sx17 quick_test/mfcc/raw_mfcc_train.3.ark:1124615
mjfh0_si1737 quick_test/mfcc/raw_mfcc_train.3.ark:946054
mrcw0_si1371 quick_test/mfcc/raw_mfcc_train.4.ark:416777
mmbs0_sx341 quick_test/mfcc/raw_mfcc_train.3.ark:2767635
mgak0_si2296 quick_test/mfcc/raw_mfcc_train.2.ark:3651883
mrjh0_sx79 quick_test/mfcc/raw_mfcc_train.4.ark:912430
marc0_sx18 quick_test/mfcc/raw_mfcc_train.2.ark:990614
fjen0_sx327 quick_test/mfcc/raw_mfcc_train.1.ark:1636894
fdmy0_si567 quick_test/mfcc/raw_mfcc_train.1.ark:980801
mctm0_si720 quick_test/mfcc/raw_mfcc_train.2.ark:1909778
mrjb1_si1413 quick_test/mfcc/raw_mfcc_train.4.ark:845473
mrai0_si2052 quick_test/mfcc/raw_mfcc_train.4.ark:252178
maeb0_sx450 quick_test/mfcc/raw_mfcc_train.2.ark:778314
msat1_sx83 quick_test/mfcc/raw_mfcc_train.4.ark:1823447
fjkl0_sx32 quick_test/mfcc/raw_mfcc_train.1.ark:1708996
mclk0_sx130 quick_test/mfcc/raw_mfcc_train.2.ark:1725208
mrmg0_si2340 quick_test/mfcc/raw_mfcc_train.4.ark:1245408
mrcg0_sx438 quick_test/mfcc/raw_mfcc_train.4.ark:406064
mrtj0_sx412 quick_test/mfcc/raw_mfcc_train.4.ark:1576399
flhd0_si1827 quick_test/mfcc/raw_mfcc_train.1.ark:2459506
mhxl0_si512 quick_test/mfcc/raw_mfcc_train.3.ark:485057
msms0_si2063 quick_test/mfcc/raw_mfcc_train.4.ark:2174632
mcpm0_si1824 quick_test/mfcc/raw_mfcc_train.2.ark:1775618
fltm0_sx80 quick_test/mfcc/raw_mfcc_train.1.ark:2782152
mkam0_si1250 quick_test/mfcc/raw_mfcc_train.3.ark:1944576
mdbb1_sx106 quick_test/mfcc/raw_mfcc_train.2.ark:2038269
fsjg0_sx310 quick_test/mfcc/raw_mfcc_train.1.ark:3852037
mbml0_sx359 quick_test/mfcc/raw_mfcc_train.2.ark:1303881
fskc0_si1416 quick_test/mfcc/raw_mfcc_train.2.ark:83822
msat1_si1703 quick_test/mfcc/raw_mfcc_train.4.ark:1800330
mtjs0_si562 quick_test/mfcc/raw_mfcc_train.4.ark:2716726
mfwk0_si1249 quick_test/mfcc/raw_mfcc_train.2.ark:3490394
mwem0_si1950 quick_test/mfcc/raw_mfcc_train.4.ark:3587398
fcjs0_sx437 quick_test/mfcc/raw_mfcc_train.1.ark:583916
msdb0_sx17 quick_test/mfcc/raw_mfcc_train.4.ark:1840293
mwsh0_sx166 quick_test/mfcc/raw_mfcc_train.4.ark:3754062
mmjb1_si778 quick_test/mfcc/raw_mfcc_train.3.ark:3121417
mtat0_sx120 quick_test/mfcc/raw_mfcc_train.4.ark:2418637
mjlb0_sx356 quick_test/mfcc/raw_mfcc_train.3.ark:1191973
mdlm0_si604 quick_test/mfcc/raw_mfcc_train.2.ark:2587143
fjdm2_sx142 quick_test/mfcc/raw_mfcc_train.1.ark:1593233
mjpm1_si761 quick_test/mfcc/raw_mfcc_train.3.ark:1420430
mcpm0_si1194 quick_test/mfcc/raw_mfcc_train.2.ark:1771866
mesg0_sx342 quick_test/mfcc/raw_mfcc_train.2.ark:3329305
mbbr0_sx425 quick_test/mfcc/raw_mfcc_train.2.ark:1094606
mmrp0_sx414 quick_test/mfcc/raw_mfcc_train.3.ark:3232025
feeh0_si1742 quick_test/mfcc/raw_mfcc_train.1.ark:1230607
fkdw0_sx307 quick_test/mfcc/raw_mfcc_train.1.ark:2111051
fmbg0_sx350 quick_test/mfcc/raw_mfcc_train.1.ark:2835617
mtcs0_sx262 quick_test/mfcc/raw_mfcc_train.4.ark:2519357
fsag0_si1323 quick_test/mfcc/raw_mfcc_train.1.ark:3554416
mjma0_si865 quick_test/mfcc/raw_mfcc_train.3.ark:1275415
mjrp0_si1835 quick_test/mfcc/raw_mfcc_train.3.ark:1607243
mtlb0_si1764 quick_test/mfcc/raw_mfcc_train.4.ark:2850015
mjpm1_sx311 quick_test/mfcc/raw_mfcc_train.3.ark:1432749
mcxm0_si721 quick_test/mfcc/raw_mfcc_train.2.ark:1939371
mjwg0_sx355 quick_test/mfcc/raw_mfcc_train.3.ark:1704281
fklh0_si1257 quick_test/mfcc/raw_mfcc_train.1.ark:2260931
mrkm0_sx7 quick_test/mfcc/raw_mfcc_train.4.ark:1050269
fmjf0_sx264 quick_test/mfcc/raw_mfcc_train.1.ark:2935152
mmgg0_sx359 quick_test/mfcc/raw_mfcc_train.3.ark:3074381
msdb0_sx287 quick_test/mfcc/raw_mfcc_train.4.ark:1844701
mrab1_si1478 quick_test/mfcc/raw_mfcc_train.4.ark:217013
mdef0_sx393 quick_test/mfcc/raw_mfcc_train.2.ark:2245287
mcef0_si842 quick_test/mfcc/raw_mfcc_train.2.ark:1613177
mpfu0_si1888 quick_test/mfcc/raw_mfcc_train.3.ark:3571720
mclm0_si826 quick_test/mfcc/raw_mfcc_train.2.ark:1751414
mkls0_si1533 quick_test/mfcc/raw_mfcc_train.3.ark:2209044
fleh0_sx421 quick_test/mfcc/raw_mfcc_train.1.ark:2416267
mmdm0_si1311 quick_test/mfcc/raw_mfcc_train.3.ark:2876143
mjrh0_sx315 quick_test/mfcc/raw_mfcc_train.3.ark:1533905
mrxb0_sx145 quick_test/mfcc/raw_mfcc_train.4.ark:1688575
mpmb0_sx331 quick_test/mfcc/raw_mfcc_train.3.ark:3723465
mbml0_sx269 quick_test/mfcc/raw_mfcc_train.2.ark:1300702
mrlj0_sx70 quick_test/mfcc/raw_mfcc_train.4.ark:1114115
mlsh0_sx427 quick_test/mfcc/raw_mfcc_train.3.ark:2562367
mtdp0_si1274 quick_test/mfcc/raw_mfcc_train.4.ark:2569024
mtdb0_si2031 quick_test/mfcc/raw_mfcc_train.4.ark:2542026
fbch0_sx56 quick_test/mfcc/raw_mfcc_train.1.ark:270792
ftbw0_si715 quick_test/mfcc/raw_mfcc_train.2.ark:476511
fcmm0_sx273 quick_test/mfcc/raw_mfcc_train.1.ark:703835
fcjs0_si977 quick_test/mfcc/raw_mfcc_train.1.ark:567365
feme0_sx425 quick_test/mfcc/raw_mfcc_train.1.ark:1287535
mrws0_sx382 quick_test/mfcc/raw_mfcc_train.4.ark:1670137
mkam0_sx326 quick_test/mfcc/raw_mfcc_train.3.ark:1967727
fdnc0_si2287 quick_test/mfcc/raw_mfcc_train.1.ark:1033399
ftbw0_si1975 quick_test/mfcc/raw_mfcc_train.2.ark:472968
mrkm0_sx277 quick_test/mfcc/raw_mfcc_train.4.ark:1040338
mhit0_si2243 quick_test/mfcc/raw_mfcc_train.3.ark:332776
msfv0_sx92 quick_test/mfcc/raw_mfcc_train.4.ark:2064856
mkls1_si1545 quick_test/mfcc/raw_mfcc_train.3.ark:2237187
mmpm0_sx251 quick_test/mfcc/raw_mfcc_train.3.ark:3190355
mtpf0_si1235 quick_test/mfcc/raw_mfcc_train.4.ark:3008282
mmdb0_sx357 quick_test/mfcc/raw_mfcc_train.3.ark:2831748
mclk0_sx40 quick_test/mfcc/raw_mfcc_train.2.ark:1736291
mbbr0_sx155 quick_test/mfcc/raw_mfcc_train.2.ark:1081676
mdlc2_sx174 quick_test/mfcc/raw_mfcc_train.2.ark:2527757
fsjs0_sx181 quick_test/mfcc/raw_mfcc_train.2.ark:27115
mdps0_sx359 quick_test/mfcc/raw_mfcc_train.2.ark:2858632
mtkd0_sx287 quick_test/mfcc/raw_mfcc_train.4.ark:2800665
mmxs0_sx336 quick_test/mfcc/raw_mfcc_train.3.ark:3431675
fjrp1_sx352 quick_test/mfcc/raw_mfcc_train.1.ark:1838452
mwgr0_si2236 quick_test/mfcc/raw_mfcc_train.4.ark:3617374
fjkl0_sx122 quick_test/mfcc/raw_mfcc_train.1.ark:1696249
flhd0_si1344 quick_test/mfcc/raw_mfcc_train.1.ark:2455936
fmpg0_si1602 quick_test/mfcc/raw_mfcc_train.1.ark:3086166
fetb0_sx428 quick_test/mfcc/raw_mfcc_train.1.ark:1318350
fjxp0_si492 quick_test/mfcc/raw_mfcc_train.1.ark:1996692
fclt0_sx268 quick_test/mfcc/raw_mfcc_train.1.ark:637992
mtml0_sx75 quick_test/mfcc/raw_mfcc_train.4.ark:2936985
mmws1_si1701 quick_test/mfcc/raw_mfcc_train.3.ark:3392162
mrso0_sx39 quick_test/mfcc/raw_mfcc_train.4.ark:1467183
mfrm0_sx435 quick_test/mfcc/raw_mfcc_train.2.ark:3482411
maeo0_si1326 quick_test/mfcc/raw_mfcc_train.2.ark:785101
mjjm0_sx377 quick_test/mfcc/raw_mfcc_train.3.ark:1134880
mrds0_si537 quick_test/mfcc/raw_mfcc_train.4.ark:515309
mkag0_sx439 quick_test/mfcc/raw_mfcc_train.3.ark:1875314
mtju0_si2020 quick_test/mfcc/raw_mfcc_train.4.ark:2743873
mtpf0_si1865 quick_test/mfcc/raw_mfcc_train.4.ark:3012671
mjeb0_sx206 quick_test/mfcc/raw_mfcc_train.3.ark:861495
mgag0_sx151 quick_test/mfcc/raw_mfcc_train.2.ark:3625364
fsak0_si1930 quick_test/mfcc/raw_mfcc_train.1.ark:3633851
mcre0_si1121 quick_test/mfcc/raw_mfcc_train.2.ark:1801615
fcke0_sx301 quick_test/mfcc/raw_mfcc_train.1.ark:613736
fmpg0_si2232 quick_test/mfcc/raw_mfcc_train.1.ark:3090438
mkdd0_sx397 quick_test/mfcc/raw_mfcc_train.3.ark:2039782
mwre0_si2317 quick_test/mfcc/raw_mfcc_train.4.ark:3653787
fmju0_sx39 quick_test/mfcc/raw_mfcc_train.1.ark:2978577
fpaz0_si963 quick_test/mfcc/raw_mfcc_train.1.ark:3339859
fdkn0_sx91 quick_test/mfcc/raw_mfcc_train.1.ark:943808
mmam0_si1597 quick_test/mfcc/raw_mfcc_train.3.ark:2676029
mjdc0_si1161 quick_test/mfcc/raw_mfcc_train.3.ark:703990
flac0_sx451 quick_test/mfcc/raw_mfcc_train.1.ark:2347031
mdss0_si621 quick_test/mfcc/raw_mfcc_train.2.ark:2946077
fcyl0_si1927 quick_test/mfcc/raw_mfcc_train.1.ark:754199
mded0_sx90 quick_test/mfcc/raw_mfcc_train.2.ark:2214822
mlbc0_sx339 quick_test/mfcc/raw_mfcc_train.3.ark:2384144
mjsr0_si2054 quick_test/mfcc/raw_mfcc_train.3.ark:1641329
fbmj0_sx66 quick_test/mfcc/raw_mfcc_train.1.ark:406948
mmws0_sx258 quick_test/mfcc/raw_mfcc_train.3.ark:3370858
mjdc0_sx81 quick_test/mfcc/raw_mfcc_train.3.ark:731300
ftbr0_sx21 quick_test/mfcc/raw_mfcc_train.2.ark:460315
mree0_si1734 quick_test/mfcc/raw_mfcc_train.4.ark:543348
fkkh0_si660 quick_test/mfcc/raw_mfcc_train.1.ark:2172088
mkrg0_si1491 quick_test/mfcc/raw_mfcc_train.3.ark:2302042
mdns0_sx21 quick_test/mfcc/raw_mfcc_train.2.ark:2768838
mmsm0_si476 quick_test/mfcc/raw_mfcc_train.3.ark:3250943
mtrc0_sx93 quick_test/mfcc/raw_mfcc_train.4.ark:3203329
mtcs0_si2265 quick_test/mfcc/raw_mfcc_train.4.ark:2506310
fksr0_si1747 quick_test/mfcc/raw_mfcc_train.1.ark:2296694
mtjg0_si1520 quick_test/mfcc/raw_mfcc_train.4.ark:2641886
fdjh0_sx35 quick_test/mfcc/raw_mfcc_train.1.ark:903508
fmjf0_sx444 quick_test/mfcc/raw_mfcc_train.1.ark:2942719
mvlo0_sx337 quick_test/mfcc/raw_mfcc_train.4.ark:3386257
fgmb0_sx335 quick_test/mfcc/raw_mfcc_train.1.ark:1456450
fhxs0_sx85 quick_test/mfcc/raw_mfcc_train.1.ark:1577329
mses0_sx329 quick_test/mfcc/raw_mfcc_train.4.ark:1983323
fdfb0_si1948 quick_test/mfcc/raw_mfcc_train.1.ark:857422
fvmh0_si836 quick_test/mfcc/raw_mfcc_train.2.ark:639166
fdkn0_sx271 quick_test/mfcc/raw_mfcc_train.1.ark:929631
mfxv0_si1005 quick_test/mfcc/raw_mfcc_train.2.ark:3552935
fgrw0_si1152 quick_test/mfcc/raw_mfcc_train.1.ark:1470030
mcew0_sx452 quick_test/mfcc/raw_mfcc_train.2.ark:1667290
mcre0_sx41 quick_test/mfcc/raw_mfcc_train.2.ark:1828769
mrcw0_sx201 quick_test/mfcc/raw_mfcc_train.4.ark:433732
fltm0_sx440 quick_test/mfcc/raw_mfcc_train.1.ark:2776738
mdmt0_sx302 quick_test/mfcc/raw_mfcc_train.2.ark:2734488
msmc0_sx197 quick_test/mfcc/raw_mfcc_train.4.ark:2125041
mdbp0_sx258 quick_test/mfcc/raw_mfcc_train.2.ark:2072419
mwch0_sx92 quick_test/mfcc/raw_mfcc_train.4.ark:3544274
mrkm0_sx97 quick_test/mfcc/raw_mfcc_train.4.ark:1054773
mrml0_sx161 quick_test/mfcc/raw_mfcc_train.4.ark:1314963
mrgm0_sx442 quick_test/mfcc/raw_mfcc_train.4.ark:764037
mmvp0_sx294 quick_test/mfcc/raw_mfcc_train.3.ark:3299992
fkde0_sx241 quick_test/mfcc/raw_mfcc_train.1.ark:2072247
mmdg0_sx340 quick_test/mfcc/raw_mfcc_train.3.ark:2864838
mctm0_sx270 quick_test/mfcc/raw_mfcc_train.2.ark:1916474
fkde0_sx151 quick_test/mfcc/raw_mfcc_train.1.ark:2068093
mdps0_sx449 quick_test/mfcc/raw_mfcc_train.2.ark:2863293
mcss0_sx390 quick_test/mfcc/raw_mfcc_train.2.ark:1863067
milb0_sx93 quick_test/mfcc/raw_mfcc_train.3.ark:541260
fcaj0_sx399 quick_test/mfcc/raw_mfcc_train.1.ark:464887
mtxs0_sx160 quick_test/mfcc/raw_mfcc_train.4.ark:3311405
mjee0_si607 quick_test/mfcc/raw_mfcc_train.3.ark:918665
mjls0_sx106 quick_test/mfcc/raw_mfcc_train.3.ark:1247064
fbch0_si956 quick_test/mfcc/raw_mfcc_train.1.ark:244075
mdpk0_sx423 quick_test/mfcc/raw_mfcc_train.2.ark:2833986
fbmh0_sx326 quick_test/mfcc/raw_mfcc_train.1.ark:363927
mjjm0_si1251 quick_test/mfcc/raw_mfcc_train.3.ark:1106088
fsdj0_sx395 quick_test/mfcc/raw_mfcc_train.1.ark:3788587
mjjj0_si1793 quick_test/mfcc/raw_mfcc_train.3.ark:1077231
fjen0_sx57 quick_test/mfcc/raw_mfcc_train.1.ark:1649244
mbsb0_si1353 quick_test/mfcc/raw_mfcc_train.2.ark:1344118
mjls0_si1096 quick_test/mfcc/raw_mfcc_train.3.ark:1231793
mmsm0_sx296 quick_test/mfcc/raw_mfcc_train.3.ark:3268065
mlel0_si1876 quick_test/mfcc/raw_mfcc_train.3.ark:2399461
fskp0_sx378 quick_test/mfcc/raw_mfcc_train.2.ark:172489
mrmh0_sx121 quick_test/mfcc/raw_mfcc_train.4.ark:1283914
mjai0_sx164 quick_test/mfcc/raw_mfcc_train.3.ark:626554
mmar0_sx346 quick_test/mfcc/raw_mfcc_train.3.ark:2730255
mter0_sx257 quick_test/mfcc/raw_mfcc_train.4.ark:2629307
fdfb0_si2010 quick_test/mfcc/raw_mfcc_train.1.ark:859614
mmgc0_sx225 quick_test/mfcc/raw_mfcc_train.3.ark:3041907
mkag0_si2239 quick_test/mfcc/raw_mfcc_train.3.ark:1855000
mesg0_sx162 quick_test/mfcc/raw_mfcc_train.2.ark:3321556
mvrw0_si2115 quick_test/mfcc/raw_mfcc_train.4.ark:3403628
mcae0_si1447 quick_test/mfcc/raw_mfcc_train.2.ark:1436625
madc0_si1997 quick_test/mfcc/raw_mfcc_train.2.ark:693522
mpmb0_si871 quick_test/mfcc/raw_mfcc_train.3.ark:3705166
mclm0_sx16 quick_test/mfcc/raw_mfcc_train.2.ark:1759188
fpad0_sx86 quick_test/mfcc/raw_mfcc_train.1.ark:3294343
falr0_si1325 quick_test/mfcc/raw_mfcc_train.1.ark:101592
msat0_si896 quick_test/mfcc/raw_mfcc_train.4.ark:1776893
mtkp0_si454 quick_test/mfcc/raw_mfcc_train.4.ark:2820988
mjrh1_sx334 quick_test/mfcc/raw_mfcc_train.3.ark:1567190
fdas1_sx291 quick_test/mfcc/raw_mfcc_train.1.ark:810710
mrtc0_sx288 quick_test/mfcc/raw_mfcc_train.4.ark:1536197
msms0_sx83 quick_test/mfcc/raw_mfcc_train.4.ark:2197813
mtkp0_sx123 quick_test/mfcc/raw_mfcc_train.4.ark:2826806
flmc0_si2002 quick_test/mfcc/raw_mfcc_train.1.ark:2662727
mrcg0_si1428 quick_test/mfcc/raw_mfcc_train.4.ark:377382
mhit0_sx263 quick_test/mfcc/raw_mfcc_train.3.ark:346629
mkls1_sx375 quick_test/mfcc/raw_mfcc_train.3.ark:2263938
fdmy0_sx207 quick_test/mfcc/raw_mfcc_train.1.ark:1002675
fbjl0_sx382 quick_test/mfcc/raw_mfcc_train.1.ark:303245
mrxb0_si955 quick_test/mfcc/raw_mfcc_train.4.ark:1683082
mdns0_si2271 quick_test/mfcc/raw_mfcc_train.2.ark:2752587
msjk0_sx66 quick_test/mfcc/raw_mfcc_train.4.ark:2100572
mrbc0_sx149 quick_test/mfcc/raw_mfcc_train.4.ark:356872
mclm0_sx196 quick_test/mfcc/raw_mfcc_train.2.ark:1761808
