mesj0_si2039 quick_test/data-fmllr-tri3/train/data/feats_fmllr_train.5.ark:13357208
fjhk0_sx122 quick_test/data-fmllr-tri3/train/data/feats_fmllr_train.2.ark:1009492
ftmg0_si1532 quick_test/data-fmllr-tri3/train/data/feats_fmllr_train.3.ark:15382715
mjdm0_sx440 quick_test/data-fmllr-tri3/train/data/feats_fmllr_train.6.ark:9943036
fhlm0_si1560 quick_test/data-fmllr-tri3/train/data/feats_fmllr_train.1.ark:17959863
mtju0_si2269 quick_test/data-fmllr-tri3/train/data/feats_fmllr_train.10.ark:5370862
fdas1_si1461 quick_test/data-fmllr-tri3/train/data/feats_fmllr_train.1.ark:9329219
fcjs0_sx257 quick_test/data-fmllr-tri3/train/data/feats_fmllr_train.1.ark:6859168
mvjh0_sx206 quick_test/data-fmllr-tri3/train/data/feats_fmllr_train.10.ark:12546210
mjpm0_sx18 quick_test/data-fmllr-tri3/train/data/feats_fmllr_train.6.ark:16650089
feme0_sx425 quick_test/data-fmllr-tri3/train/data/feats_fmllr_train.1.ark:15331625
mmds0_si713 quick_test/data-fmllr-tri3/train/data/feats_fmllr_train.7.ark:17098841
mpar0_sx226 quick_test/data-fmllr-tri3/train/data/feats_fmllr_train.8.ark:5915217
mdsj0_sx22 quick_test/data-fmllr-tri3/train/data/feats_fmllr_train.5.ark:8394280
fcaj0_sx219 quick_test/data-fmllr-tri3/train/data/feats_fmllr_train.1.ark:5394460
mjrp0_sx45 quick_test/data-fmllr-tri3/train/data/feats_fmllr_train.7.ark:1425814
ftbw0_sx445 quick_test/data-fmllr-tri3/train/data/feats_fmllr_train.3.ark:14894125
mjlb0_sx446 quick_test/data-fmllr-tri3/train/data/feats_fmllr_train.6.ark:14228303
mwch0_sx182 quick_test/data-fmllr-tri3/train/data/feats_fmllr_train.10.ark:14657248
mdtb0_sx300 quick_test/data-fmllr-tri3/train/data/feats_fmllr_train.5.ark:9452239
mtdp0_sx441 quick_test/data-fmllr-tri3/train/data/feats_fmllr_train.10.ark:3576633
mfxv0_sx285 quick_test/data-fmllr-tri3/train/data/feats_fmllr_train.5.ark:16139690
mrdm0_si1595 quick_test/data-fmllr-tri3/train/data/feats_fmllr_train.8.ark:14477032
mprb0_si1205 quick_test/data-fmllr-tri3/train/data/feats_fmllr_train.8.ark:8928844
mmdb0_sx267 quick_test/data-fmllr-tri3/train/data/feats_fmllr_train.7.ark:15657067
fsbk0_si1699 quick_test/data-fmllr-tri3/train/data/feats_fmllr_train.3.ark:6395191
mdlb0_si676 quick_test/data-fmllr-tri3/train/data/feats_fmllr_train.5.ark:2461851
mmbs0_si521 quick_test/data-fmllr-tri3/train/data/feats_fmllr_train.7.ark:14736099
mrdm0_sx155 quick_test/data-fmllr-tri3/train/data/feats_fmllr_train.8.ark:14560766
fvfb0_sx312 quick_test/data-fmllr-tri3/train/data/feats_fmllr_train.3.ark:15971069
mmgc0_si1305 quick_test/data-fmllr-tri3/train/data/feats_fmllr_train.8.ark:13
fskc0_sx426 quick_test/data-fmllr-tri3/train/data/feats_fmllr_train.3.ark:10260800
feeh0_sx122 quick_test/data-fmllr-tri3/train/data/feats_fmllr_train.1.ark:14745727
mtcs0_si712 quick_test/data-fmllr-tri3/train/data/feats_fmllr_train.10.ark:2496730
fjxm0_sx41 quick_test/data-fmllr-tri3/train/data/feats_fmllr_train.2.ark:4761313
mlbc0_sx429 quick_test/data-fmllr-tri3/train/data/feats_fmllr_train.7.ark:10408219
mmrp0_sx234 quick_test/data-fmllr-tri3/train/data/feats_fmllr_train.8.ark:2323026
msat0_sx356 quick_test/data-fmllr-tri3/train/data/feats_fmllr_train.9.ark:12043302
mwrp0_si1525 quick_test/data-fmllr-tri3/train/data/feats_fmllr_train.10.ark:16487401
mbma0_si1852 quick_test/data-fmllr-tri3/train/data/feats_fmllr_train.4.ark:5627139
mcef0_sx415 quick_test/data-fmllr-tri3/train/data/feats_fmllr_train.4.ark:10399315
fdaw0_sx416 quick_test/data-fmllr-tri3/train/data/feats_fmllr_train.1.ark:10052480
fkaa0_sx398 quick_test/data-fmllr-tri3/train/data/feats_fmllr_train.2.ark:5559347
mdhs0_sx180 quick_test/data-fmllr-tri3/train/data/feats_fmllr_train.5.ark:1355786
mhbs0_si1575 quick_test/data-fmllr-tri3/train/data/feats_fmllr_train.6.ark:3565802
mjmd0_sx38 quick_test/data-fmllr-tri3/train/data/feats_fmllr_train.6.ark:15659572
fcrz0_sx73 quick_test/data-fmllr-tri3/train/data/feats_fmllr_train.1.ark:8883854
makr0_sx272 quick_test/data-fmllr-tri3/train/data/feats_fmllr_train.4.ark:2098330
mkrg0_sx141 quick_test/data-fmllr-tri3/train/data/feats_fmllr_train.7.ark:9582104
mrml0_si791 quick_test/data-fmllr-tri3/train/data/feats_fmllr_train.9.ark:6372180
msrg0_sx141 quick_test/data-fmllr-tri3/train/data/feats_fmllr_train.9.ark:17134712
mdmt0_sx212 quick_test/data-fmllr-tri3/train/data/feats_fmllr_train.5.ark:6090739
fssb0_sx272 quick_test/data-fmllr-tri3/train/data/feats_fmllr_train.3.ark:13688301
megj0_sx3 quick_test/data-fmllr-tri3/train/data/feats_fmllr_train.5.ark:12118076
mjeb1_si2097 quick_test/data-fmllr-tri3/train/data/feats_fmllr_train.6.ark:10492135
mwch0_si1895 quick_test/data-fmllr-tri3/train/data/feats_fmllr_train.10.ark:14589353
fdjh0_sx215 quick_test/data-fmllr-tri3/train/data/feats_fmllr_train.1.ark:10664861
fdmy0_si714 quick_test/data-fmllr-tri3/train/data/feats_fmllr_train.1.ark:11772179
mdlb0_sx136 quick_test/data-fmllr-tri3/train/data/feats_fmllr_train.5.ark:2493238
mdps0_sx449 quick_test/data-fmllr-tri3/train/data/feats_fmllr_train.5.ark:7675181
mgaw0_si1165 quick_test/data-fmllr-tri3/train/data/feats_fmllr_train.6.ark:385831
mjls0_sx106 quick_test/data-fmllr-tri3/train/data/feats_fmllr_train.6.ark:14838577
mjjb0_sx149 quick_test/data-fmllr-tri3/train/data/feats_fmllr_train.6.ark:12470554
falr0_si1325 quick_test/data-fmllr-tri3/train/data/feats_fmllr_train.1.ark:1210419
msfh0_sx226 quick_test/data-fmllr-tri3/train/data/feats_fmllr_train.9.ark:14763358
fjsk0_sx242 quick_test/data-fmllr-tri3/train/data/feats_fmllr_train.2.ark:3458183
mrcg0_sx438 quick_test/data-fmllr-tri3/train/data/feats_fmllr_train.8.ark:13571395
mrdd0_si1050 quick_test/data-fmllr-tri3/train/data/feats_fmllr_train.8.ark:14046066
mdwd0_sx270 quick_test/data-fmllr-tri3/train/data/feats_fmllr_train.5.ark:9770350
mkrg0_sx51 quick_test/data-fmllr-tri3/train/data/feats_fmllr_train.7.ark:9718370
fsjs0_sx91 quick_test/data-fmllr-tri3/train/data/feats_fmllr_train.3.ark:9537672
mrso0_si2289 quick_test/data-fmllr-tri3/train/data/feats_fmllr_train.9.ark:8022970
mdmt0_si572 quick_test/data-fmllr-tri3/train/data/feats_fmllr_train.5.ark:5973245
mwre0_si2317 quick_test/data-fmllr-tri3/train/data/feats_fmllr_train.10.ark:16128011
flja0_sx358 quick_test/data-fmllr-tri3/train/data/feats_fmllr_train.2.ark:11051777
mbwp0_si709 quick_test/data-fmllr-tri3/train/data/feats_fmllr_train.4.ark:7776147
mjsr0_sx434 quick_test/data-fmllr-tri3/train/data/feats_fmllr_train.7.ark:1841205
fsgf0_si1557 quick_test/data-fmllr-tri3/train/data/feats_fmllr_train.3.ark:7913792
mwsh0_si796 quick_test/data-fmllr-tri3/train/data/feats_fmllr_train.10.ark:17245139
fsjw0_sx163 quick_test/data-fmllr-tri3/train/data/feats_fmllr_train.3.ark:9756182
mtpp0_si878 quick_test/data-fmllr-tri3/train/data/feats_fmllr_train.10.ark:9258500
mpfu0_sx358 quick_test/data-fmllr-tri3/train/data/feats_fmllr_train.8.ark:6665598
mjlg1_sx382 quick_test/data-fmllr-tri3/train/data/feats_fmllr_train.6.ark:14611267
ftbw0_sx175 quick_test/data-fmllr-tri3/train/data/feats_fmllr_train.3.ark:14741564
mdhl0_si809 quick_test/data-fmllr-tri3/train/data/feats_fmllr_train.5.ark:919702
fdas1_si2091 quick_test/data-fmllr-tri3/train/data/feats_fmllr_train.1.ark:9407647
mrav0_si1008 quick_test/data-fmllr-tri3/train/data/feats_fmllr_train.8.ark:12512557
mewm0_sx448 quick_test/data-fmllr-tri3/train/data/feats_fmllr_train.5.ark:13941906
mtpg0_sx303 quick_test/data-fmllr-tri3/train/data/feats_fmllr_train.10.ark:9043484
freh0_sx55 quick_test/data-fmllr-tri3/train/data/feats_fmllr_train.3.ark:4307650
mgxp0_sx367 quick_test/data-fmllr-tri3/train/data/feats_fmllr_train.6.ark:3421083
mjjm0_si827 quick_test/data-fmllr-tri3/train/data/feats_fmllr_train.6.ark:13298001
fklc1_sx58 quick_test/data-fmllr-tri3/train/data/feats_fmllr_train.2.ark:8037291
fcdr1_si1186 quick_test/data-fmllr-tri3/train/data/feats_fmllr_train.1.ark:5577768
mjkr0_sx301 quick_test/data-fmllr-tri3/train/data/feats_fmllr_train.6.ark:13819899
mjrp0_sx135 quick_test/data-fmllr-tri3/train/data/feats_fmllr_train.7.ark:1255467
fmkc0_si1041 quick_test/data-fmllr-tri3/train/data/feats_fmllr_train.2.ark:16733616
mlns0_si1407 quick_test/data-fmllr-tri3/train/data/feats_fmllr_train.7.ark:11832284
mjai0_sx254 quick_test/data-fmllr-tri3/train/data/feats_fmllr_train.6.ark:7506318
mcdr0_sx164 quick_test/data-fmllr-tri3/train/data/feats_fmllr_train.4.ark:9907337
mjkr0_si1831 quick_test/data-fmllr-tri3/train/data/feats_fmllr_train.6.ark:13615791
mprd0_sx441 quick_test/data-fmllr-tri3/train/data/feats_fmllr_train.8.ark:9730504
fsag0_sx333 quick_test/data-fmllr-tri3/train/data/feats_fmllr_train.3.ark:5336088
mjmm0_si1255 quick_test/data-fmllr-tri3/train/data/feats_fmllr_train.6.ark:15752747
mram0_sx105 quick_test/data-fmllr-tri3/train/data/feats_fmllr_train.8.ark:12294982
fklc1_si2308 quick_test/data-fmllr-tri3/train/data/feats_fmllr_train.2.ark:7812197
mreh1_sx429 quick_test/data-fmllr-tri3/train/data/feats_fmllr_train.8.ark:15860379
mdwm0_sx376 quick_test/data-fmllr-tri3/train/data/feats_fmllr_train.5.ark:10682037
mkah0_si1528 quick_test/data-fmllr-tri3/train/data/feats_fmllr_train.7.ark:4423519
mmgc0_sx315 quick_test/data-fmllr-tri3/train/data/feats_fmllr_train.8.ark:229430
mcal0_sx418 quick_test/data-fmllr-tri3/train/data/feats_fmllr_train.4.ark:8864367
fajw0_si1893 quick_test/data-fmllr-tri3/train/data/feats_fmllr_train.1.ark:469858
fmjf0_sx174 quick_test/data-fmllr-tri3/train/data/feats_fmllr_train.2.ark:16056944
mrmh0_sx211 quick_test/data-fmllr-tri3/train/data/feats_fmllr_train.9.ark:6105617
ftbr0_sx381 quick_test/data-fmllr-tri3/train/data/feats_fmllr_train.3.ark:14551054
mtjg0_sx260 quick_test/data-fmllr-tri3/train/data/feats_fmllr_train.10.ark:4270132
mabc0_si1620 quick_test/data-fmllr-tri3/train/data/feats_fmllr_train.3.ark:16853184
mrre0_si1334 quick_test/data-fmllr-tri3/train/data/feats_fmllr_train.9.ark:7416938
mjae0_sx444 quick_test/data-fmllr-tri3/train/data/feats_fmllr_train.6.ark:7141836
mtrr0_sx378 quick_test/data-fmllr-tri3/train/data/feats_fmllr_train.10.ark:11132621
fmbg0_sx80 quick_test/data-fmllr-tri3/train/data/feats_fmllr_train.2.ark:15057521
mtmn0_sx74 quick_test/data-fmllr-tri3/train/data/feats_fmllr_train.10.ark:8024646
fgcs0_sx226 quick_test/data-fmllr-tri3/train/data/feats_fmllr_train.1.ark:16438303
mgak0_sx46 quick_test/data-fmllr-tri3/train/data/feats_fmllr_train.5.ark:17318288
mhit0_sx353 quick_test/data-fmllr-tri3/train/data/feats_fmllr_train.6.ark:4163915
mdac0_si631 quick_test/data-fmllr-tri3/train/data/feats_fmllr_train.4.ark:14444154
fcjf0_sx37 quick_test/data-fmllr-tri3/train/data/feats_fmllr_train.1.ark:6625404
fmmh0_sx7 quick_test/data-fmllr-tri3/train/data/feats_fmllr_train.2.ark:17844290
mcre0_sx221 quick_test/data-fmllr-tri3/train/data/feats_fmllr_train.4.ark:12640245
mrhl0_sx75 quick_test/data-fmllr-tri3/train/data/feats_fmllr_train.9.ark:748417
fsma0_sx451 quick_test/data-fmllr-tri3/train/data/feats_fmllr_train.3.ark:11776229
maeb0_si1411 quick_test/data-fmllr-tri3/train/data/feats_fmllr_train.4.ark:13
feeh0_sx302 quick_test/data-fmllr-tri3/train/data/feats_fmllr_train.1.ark:14851381
mjae0_sx174 quick_test/data-fmllr-tri3/train/data/feats_fmllr_train.6.ark:6984475
mdtb0_si570 quick_test/data-fmllr-tri3/train/data/feats_fmllr_train.5.ark:9315038
mjma0_si2125 quick_test/data-fmllr-tri3/train/data/feats_fmllr_train.6.ark:15104980
flag0_si834 quick_test/data-fmllr-tri3/train/data/feats_fmllr_train.2.ark:9335145
mree0_si1104 quick_test/data-fmllr-tri3/train/data/feats_fmllr_train.8.ark:15129918
mjda0_sx311 quick_test/data-fmllr-tri3/train/data/feats_fmllr_train.6.ark:8217981
mmaa0_si2105 quick_test/data-fmllr-tri3/train/data/feats_fmllr_train.7.ark:12662826
mclm0_sx286 quick_test/data-fmllr-tri3/train/data/feats_fmllr_train.4.ark:12010583
fcmm0_sx420 quick_test/data-fmllr-tri3/train/data/feats_fmllr_train.1.ark:8462811
mrjh0_sx439 quick_test/data-fmllr-tri3/train/data/feats_fmllr_train.9.ark:1578905
mdhl0_si2069 quick_test/data-fmllr-tri3/train/data/feats_fmllr_train.5.ark:877915
mctm0_sx180 quick_test/data-fmllr-tri3/train/data/feats_fmllr_train.4.ark:13776707
mgrp0_si1317 quick_test/data-fmllr-tri3/train/data/feats_fmllr_train.6.ark:1876140
mdns0_sx111 quick_test/data-fmllr-tri3/train/data/feats_fmllr_train.5.ark:6466449
flmk0_si2295 quick_test/data-fmllr-tri3/train/data/feats_fmllr_train.2.ark:13317958
mtmt0_sx308 quick_test/data-fmllr-tri3/train/data/feats_fmllr_train.10.ark:8311530
mrlr0_sx386 quick_test/data-fmllr-tri3/train/data/feats_fmllr_train.9.ark:5112564
fajw0_si633 quick_test/data-fmllr-tri3/train/data/feats_fmllr_train.1.ark:512445
mpmb0_sx331 quick_test/data-fmllr-tri3/train/data/feats_fmllr_train.8.ark:8302946
mrcw0_sx21 quick_test/data-fmllr-tri3/train/data/feats_fmllr_train.8.ark:13945824
mmgc0_sx225 quick_test/data-fmllr-tri3/train/data/feats_fmllr_train.8.ark:195163
flja0_sx178 quick_test/data-fmllr-tri3/train/data/feats_fmllr_train.2.ark:10927403
fjrp1_sx82 quick_test/data-fmllr-tri3/train/data/feats_fmllr_train.2.ark:3207805
fskl0_sx89 quick_test/data-fmllr-tri3/train/data/feats_fmllr_train.3.ark:10691123
mdlh0_sx160 quick_test/data-fmllr-tri3/train/data/feats_fmllr_train.5.ark:4055866
mbcg0_si957 quick_test/data-fmllr-tri3/train/data/feats_fmllr_train.4.ark:4183098
mmrp0_si2034 quick_test/data-fmllr-tri3/train/data/feats_fmllr_train.8.ark:2152358
fdml0_si2075 quick_test/data-fmllr-tri3/train/data/feats_fmllr_train.1.ark:11379483
mgar0_si1842 quick_test/data-fmllr-tri3/train/data/feats_fmllr_train.6.ark:93829
mrem0_si961 quick_test/data-fmllr-tri3/train/data/feats_fmllr_train.8.ark:16083687
fsak0_sx130 quick_test/data-fmllr-tri3/train/data/feats_fmllr_train.3.ark:6105268
mrlk0_sx123 quick_test/data-fmllr-tri3/train/data/feats_fmllr_train.9.ark:4587120
fjxm0_sx221 quick_test/data-fmllr-tri3/train/data/feats_fmllr_train.2.ark:4581553
msvs0_sx398 quick_test/data-fmllr-tri3/train/data/feats_fmllr_train.10.ark:414282
mtab0_si942 quick_test/data-fmllr-tri3/train/data/feats_fmllr_train.10.ark:606205
mjde0_si490 quick_test/data-fmllr-tri3/train/data/feats_fmllr_train.6.ark:8860573
mjpg0_si1191 quick_test/data-fmllr-tri3/train/data/feats_fmllr_train.6.ark:16109124
mjdc0_si1161 quick_test/data-fmllr-tri3/train/data/feats_fmllr_train.6.ark:8372142
mcdc0_sx392 quick_test/data-fmllr-tri3/train/data/feats_fmllr_train.4.ark:9299810
milb0_sx273 quick_test/data-fmllr-tri3/train/data/feats_fmllr_train.6.ark:6330789
mkdb0_sx332 quick_test/data-fmllr-tri3/train/data/feats_fmllr_train.7.ark:5785586
mtml0_sx435 quick_test/data-fmllr-tri3/train/data/feats_fmllr_train.10.ark:7534963
mfwk0_sx169 quick_test/data-fmllr-tri3/train/data/feats_fmllr_train.5.ark:15243814
msas0_sx206 quick_test/data-fmllr-tri3/train/data/feats_fmllr_train.9.ark:11667698
flma0_sx343 quick_test/data-fmllr-tri3/train/data/feats_fmllr_train.2.ark:12687844
mdac0_si1837 quick_test/data-fmllr-tri3/train/data/feats_fmllr_train.4.ark:14408767
mjkr0_si571 quick_test/data-fmllr-tri3/train/data/feats_fmllr_train.6.ark:13664778
msat1_sx353 quick_test/data-fmllr-tri3/train/data/feats_fmllr_train.9.ark:12392160
mkah0_si2158 quick_test/data-fmllr-tri3/train/data/feats_fmllr_train.7.ark:4469787
fdkn0_si1202 quick_test/data-fmllr-tri3/train/data/feats_fmllr_train.1.ark:10885957
fecd0_si788 quick_test/data-fmllr-tri3/train/data/feats_fmllr_train.1.ark:14266443
mrcg0_sx78 quick_test/data-fmllr-tri3/train/data/feats_fmllr_train.8.ark:13644701
mhmr0_sx309 quick_test/data-fmllr-tri3/train/data/feats_fmllr_train.6.ark:5229047
fdnc0_sx378 quick_test/data-fmllr-tri3/train/data/feats_fmllr_train.1.ark:12532691
maeo0_sx426 quick_test/data-fmllr-tri3/train/data/feats_fmllr_train.4.ark:653834
fksr0_sx161 quick_test/data-fmllr-tri3/train/data/feats_fmllr_train.2.ark:8615218
mhbs0_sx315 quick_test/data-fmllr-tri3/train/data/feats_fmllr_train.6.ark:3798098
mhrm0_sx328 quick_test/data-fmllr-tri3/train/data/feats_fmllr_train.6.ark:5560464
mljh0_sx64 quick_test/data-fmllr-tri3/train/data/feats_fmllr_train.7.ark:11783456
fntb0_sx393 quick_test/data-fmllr-tri3/train/data/feats_fmllr_train.3.ark:702978
mmws0_si888 quick_test/data-fmllr-tri3/train/data/feats_fmllr_train.8.ark:4022400
fbas0_si2066 quick_test/data-fmllr-tri3/train/data/feats_fmllr_train.1.ark:2181150
mrsp0_sx439 quick_test/data-fmllr-tri3/train/data/feats_fmllr_train.9.ark:8651455
fltm0_sx260 quick_test/data-fmllr-tri3/train/data/feats_fmllr_train.2.ark:14111088
fpaf0_sx334 quick_test/data-fmllr-tri3/train/data/feats_fmllr_train.3.ark:2290994
ftaj0_sx339 quick_test/data-fmllr-tri3/train/data/feats_fmllr_train.3.ark:14106144
frll0_si805 quick_test/data-fmllr-tri3/train/data/feats_fmllr_train.3.ark:4743443
fbmj0_sx246 quick_test/data-fmllr-tri3/train/data/feats_fmllr_train.1.ark:4683305
mmbs0_sx251 quick_test/data-fmllr-tri3/train/data/feats_fmllr_train.7.ark:14880313
mgxp0_si457 quick_test/data-fmllr-tri3/train/data/feats_fmllr_train.6.ark:3218895
mdpb0_sx56 quick_test/data-fmllr-tri3/train/data/feats_fmllr_train.5.ark:7025813
fapb0_sx253 quick_test/data-fmllr-tri3/train/data/feats_fmllr_train.1.ark:1818106
fscn0_sx446 quick_test/data-fmllr-tri3/train/data/feats_fmllr_train.3.ark:7122743
mjjb0_si1277 quick_test/data-fmllr-tri3/train/data/feats_fmllr_train.6.ark:12393539
mjbg0_sx62 quick_test/data-fmllr-tri3/train/data/feats_fmllr_train.6.ark:7992376
mkdd0_sx307 quick_test/data-fmllr-tri3/train/data/feats_fmllr_train.7.ark:6202923
mjls0_si1096 quick_test/data-fmllr-tri3/train/data/feats_fmllr_train.6.ark:14655615
fpad0_si716 quick_test/data-fmllr-tri3/train/data/feats_fmllr_train.3.ark:1700135
mdef0_sx123 quick_test/data-fmllr-tri3/train/data/feats_fmllr_train.5.ark:160256
mrjm1_sx38 quick_test/data-fmllr-tri3/train/data/feats_fmllr_train.9.ark:2392139
madd0_sx268 quick_test/data-fmllr-tri3/train/data/feats_fmllr_train.3.ark:17780447
mzmb0_sx266 quick_test/data-fmllr-tri3/train/data/feats_fmllr_train.10.ark:17803010
mdem0_sx68 quick_test/data-fmllr-tri3/train/data/feats_fmllr_train.5.ark:774819
mafm0_sx39 quick_test/data-fmllr-tri3/train/data/feats_fmllr_train.4.ark:988130
mrtj0_si2032 quick_test/data-fmllr-tri3/train/data/feats_fmllr_train.9.ark:9231754
mrjm1_si1928 quick_test/data-fmllr-tri3/train/data/feats_fmllr_train.9.ark:2162245
megj0_si707 quick_test/data-fmllr-tri3/train/data/feats_fmllr_train.5.ark:11943757
mwre0_sx157 quick_test/data-fmllr-tri3/train/data/feats_fmllr_train.10.ark:16165478
mtkp0_si454 quick_test/data-fmllr-tri3/train/data/feats_fmllr_train.10.ark:6223643
flmc0_sx336 quick_test/data-fmllr-tri3/train/data/feats_fmllr_train.2.ark:13094967
mrpc1_sx312 quick_test/data-fmllr-tri3/train/data/feats_fmllr_train.9.ark:7283737
mkxl0_sx375 quick_test/data-fmllr-tri3/train/data/feats_fmllr_train.7.ark:10080348
fexm0_sx291 quick_test/data-fmllr-tri3/train/data/feats_fmllr_train.1.ark:16080032
mprk0_si467 quick_test/data-fmllr-tri3/train/data/feats_fmllr_train.8.ark:9955413
mbsb0_si723 quick_test/data-fmllr-tri3/train/data/feats_fmllr_train.4.ark:7093636
mdbb1_sx196 quick_test/data-fmllr-tri3/train/data/feats_fmllr_train.4.ark:15338426
fjrp1_sx442 quick_test/data-fmllr-tri3/train/data/feats_fmllr_train.2.ark:3152899
mgak0_sx136 quick_test/data-fmllr-tri3/train/data/feats_fmllr_train.5.ark:17080421
mjma0_sx145 quick_test/data-fmllr-tri3/train/data/feats_fmllr_train.6.ark:15230634
mpgh0_sx24 quick_test/data-fmllr-tri3/train/data/feats_fmllr_train.8.ark:7056053
fscn0_sx356 quick_test/data-fmllr-tri3/train/data/feats_fmllr_train.3.ark:7071836
mbar0_si1319 quick_test/data-fmllr-tri3/train/data/feats_fmllr_train.4.ark:3375569
mtwh1_sx432 quick_test/data-fmllr-tri3/train/data/feats_fmllr_train.10.ark:11800229
mdlm0_sx154 quick_test/data-fmllr-tri3/train/data/feats_fmllr_train.5.ark:4468883
mtpr0_sx250 quick_test/data-fmllr-tri3/train/data/feats_fmllr_train.10.ark:9746771
mtas0_sx215 quick_test/data-fmllr-tri3/train/data/feats_fmllr_train.10.ark:1088876
mpeb0_sx60 quick_test/data-fmllr-tri3/train/data/feats_fmllr_train.8.ark:6365114
mddc0_si1419 quick_test/data-fmllr-tri3/train/data/feats_fmllr_train.4.ark:16649879
mejs0_si1240 quick_test/data-fmllr-tri3/train/data/feats_fmllr_train.5.ark:12598374
frjb0_sx347 quick_test/data-fmllr-tri3/train/data/feats_fmllr_train.3.ark:4535975
mcdd0_sx163 quick_test/data-fmllr-tri3/train/data/feats_fmllr_train.4.ark:9474800
fjwb1_si795 quick_test/data-fmllr-tri3/train/data/feats_fmllr_train.2.ark:4145122
mcth0_si1839 quick_test/data-fmllr-tri3/train/data/feats_fmllr_train.4.ark:13289716
msmc0_sx287 quick_test/data-fmllr-tri3/train/data/feats_fmllr_train.9.ark:16123741
mjrk0_sx340 quick_test/data-fmllr-tri3/train/data/feats_fmllr_train.7.ark:996424
fjsp0_si1763 quick_test/data-fmllr-tri3/train/data/feats_fmllr_train.2.ark:3728719
mntw0_sx348 quick_test/data-fmllr-tri3/train/data/feats_fmllr_train.8.ark:5640334
fklc0_si2245 quick_test/data-fmllr-tri3/train/data/feats_fmllr_train.2.ark:7334352
fgcs0_sx46 quick_test/data-fmllr-tri3/train/data/feats_fmllr_train.1.ark:16572143
msah1_si1049 quick_test/data-fmllr-tri3/train/data/feats_fmllr_train.9.ark:11101451
mklr0_sx429 quick_test/data-fmllr-tri3/train/data/feats_fmllr_train.7.ark:8115875
medr0_si1374 quick_test/data-fmllr-tri3/train/data/feats_fmllr_train.5.ark:11081030
feme0_sx155 quick_test/data-fmllr-tri3/train/data/feats_fmllr_train.1.ark:15155704
mcre0_sx401 quick_test/data-fmllr-tri3/train/data/feats_fmllr_train.4.ark:12729098
mcpm0_sx24 quick_test/data-fmllr-tri3/train/data/feats_fmllr_train.4.ark:12355413
mgar0_sx42 quick_test/data-fmllr-tri3/train/data/feats_fmllr_train.6.ark:347883
mmag0_si1756 quick_test/data-fmllr-tri3/train/data/feats_fmllr_train.7.ark:13465180
mdns0_si1011 quick_test/data-fmllr-tri3/train/data/feats_fmllr_train.5.ark:6279327
mtxs0_sx160 quick_test/data-fmllr-tri3/train/data/feats_fmllr_train.10.ark:12058606
flmk0_sx315 quick_test/data-fmllr-tri3/train/data/feats_fmllr_train.2.ark:13451479
mtpr0_sx430 quick_test/data-fmllr-tri3/train/data/feats_fmllr_train.10.ark:9855145
falk0_si456 quick_test/data-fmllr-tri3/train/data/feats_fmllr_train.1.ark:860152
mtrc0_sx273 quick_test/data-fmllr-tri3/train/data/feats_fmllr_train.10.ark:10704511
mjde0_sx400 quick_test/data-fmllr-tri3/train/data/feats_fmllr_train.6.ark:9187907
ftbr0_si921 quick_test/data-fmllr-tri3/train/data/feats_fmllr_train.3.ark:14323720
fpmy0_sx253 quick_test/data-fmllr-tri3/train/data/feats_fmllr_train.3.ark:3859700
mljh0_sx424 quick_test/data-fmllr-tri3/train/data/feats_fmllr_train.7.ark:11725830
mrjb1_si1413 quick_test/data-fmllr-tri3/train/data/feats_fmllr_train.9.ark:841273
flja0_si2338 quick_test/data-fmllr-tri3/train/data/feats_fmllr_train.2.ark:10900336
mtjs0_sx112 quick_test/data-fmllr-tri3/train/data/feats_fmllr_train.10.ark:5058059
fcmg0_si1142 quick_test/data-fmllr-tri3/train/data/feats_fmllr_train.1.ark:7779390
mejl0_sx62 quick_test/data-fmllr-tri3/train/data/feats_fmllr_train.5.ark:12555306
mwgr0_sx76 quick_test/data-fmllr-tri3/train/data/feats_fmllr_train.10.ark:15982327
mclk0_si2290 quick_test/data-fmllr-tri3/train/data/feats_fmllr_train.4.ark:11392312
mrdm0_sx335 quick_test/data-fmllr-tri3/train/data/feats_fmllr_train.8.ark:14653940
fsmm0_si1944 quick_test/data-fmllr-tri3/train/data/feats_fmllr_train.3.ark:11939351
mcae0_si2077 quick_test/data-fmllr-tri3/train/data/feats_fmllr_train.4.ark:8199057
mdks0_sx76 quick_test/data-fmllr-tri3/train/data/feats_fmllr_train.5.ark:2257768
mmeb0_sx7 quick_test/data-fmllr-tri3/train/data/feats_fmllr_train.7.ark:17925141
mcss0_sx390 quick_test/data-fmllr-tri3/train/data/feats_fmllr_train.4.ark:13186140
mbth0_sx392 quick_test/data-fmllr-tri3/train/data/feats_fmllr_train.4.ark:7656704
mkdb0_si2132 quick_test/data-fmllr-tri3/train/data/feats_fmllr_train.7.ark:5552331
mwac0_sx431 quick_test/data-fmllr-tri3/train/data/feats_fmllr_train.10.ark:13770915
mjjm0_sx197 quick_test/data-fmllr-tri3/train/data/feats_fmllr_train.6.ark:13415201
fcag0_sx63 quick_test/data-fmllr-tri3/train/data/feats_fmllr_train.1.ark:5201683
falk0_si658 quick_test/data-fmllr-tri3/train/data/feats_fmllr_train.1.ark:905779
mrfk0_sx86 quick_test/data-fmllr-tri3/train/data/feats_fmllr_train.8.ark:17016736
mrds0_si537 quick_test/data-fmllr-tri3/train/data/feats_fmllr_train.8.ark:14869436
mrfl0_si526 quick_test/data-fmllr-tri3/train/data/feats_fmllr_train.8.ark:17160499
mjrh1_si514 quick_test/data-fmllr-tri3/train/data/feats_fmllr_train.7.ark:503326
flhd0_sx354 quick_test/data-fmllr-tri3/train/data/feats_fmllr_train.2.ark:10645319
mges0_sx41 quick_test/data-fmllr-tri3/train/data/feats_fmllr_train.6.ark:1024797
mrgm0_si1792 quick_test/data-fmllr-tri3/train/data/feats_fmllr_train.8.ark:17538129
falr0_sx65 quick_test/data-fmllr-tri3/train/data/feats_fmllr_train.1.ark:1531248
fklh0_sx267 quick_test/data-fmllr-tri3/train/data/feats_fmllr_train.2.ark:8280948
mgjc0_sx255 quick_test/data-fmllr-tri3/train/data/feats_fmllr_train.6.ark:1282695
mdbb1_sx286 quick_test/data-fmllr-tri3/train/data/feats_fmllr_train.4.ark:15369013
mtdp0_si1521 quick_test/data-fmllr-tri3/train/data/feats_fmllr_train.10.ark:3246577
mklr0_si1689 quick_test/data-fmllr-tri3/train/data/feats_fmllr_train.7.ark:7925179
mrai0_sx252 quick_test/data-fmllr-tri3/train/data/feats_fmllr_train.8.ark:11938151
msjk0_sx66 quick_test/data-fmllr-tri3/train/data/feats_fmllr_train.9.ark:15787072
mmws1_si2331 quick_test/data-fmllr-tri3/train/data/feats_fmllr_train.8.ark:4403578
fksr0_si487 quick_test/data-fmllr-tri3/train/data/feats_fmllr_train.2.ark:8573431
mjwg0_sx175 quick_test/data-fmllr-tri3/train/data/feats_fmllr_train.7.ark:2162780
fpmy0_sx343 quick_test/data-fmllr-tri3/train/data/feats_fmllr_train.3.ark:3903567
mrlk0_si843 quick_test/data-fmllr-tri3/train/data/feats_fmllr_train.9.ark:4534933
mgrl0_sx57 quick_test/data-fmllr-tri3/train/data/feats_fmllr_train.6.ark:1844112
mjee0_sx157 quick_test/data-fmllr-tri3/train/data/feats_fmllr_train.6.ark:10964406
mntw0_si2328 quick_test/data-fmllr-tri3/train/data/feats_fmllr_train.8.ark:5487266
mrab0_sx54 quick_test/data-fmllr-tri3/train/data/feats_fmllr_train.8.ark:11271397
marw0_sx286 quick_test/data-fmllr-tri3/train/data/feats_fmllr_train.4.ark:3177727
mjwg0_sx355 quick_test/data-fmllr-tri3/train/data/feats_fmllr_train.7.ark:2280434
mklr0_sx69 quick_test/data-fmllr-tri3/train/data/feats_fmllr_train.7.ark:8156061
madd0_sx358 quick_test/data-fmllr-tri3/train/data/feats_fmllr_train.3.ark:17832794
mbwp0_sx169 quick_test/data-fmllr-tri3/train/data/feats_fmllr_train.4.ark:7828014
mjmm0_si625 quick_test/data-fmllr-tri3/train/data/feats_fmllr_train.6.ark:15853442
fsjg0_si2200 quick_test/data-fmllr-tri3/train/data/feats_fmllr_train.3.ark:8355317
mgsh0_si1176 quick_test/data-fmllr-tri3/train/data/feats_fmllr_train.6.ark:2305957
mtjg0_si2157 quick_test/data-fmllr-tri3/train/data/feats_fmllr_train.10.ark:4119491
mhmr0_sx219 quick_test/data-fmllr-tri3/train/data/feats_fmllr_train.6.ark:5170300
mesg0_sx162 quick_test/data-fmllr-tri3/train/data/feats_fmllr_train.5.ark:13121073
mjrp0_sx405 quick_test/data-fmllr-tri3/train/data/feats_fmllr_train.7.ark:1384988
mjws0_sx423 quick_test/data-fmllr-tri3/train/data/feats_fmllr_train.7.ark:2713158
fljd0_si2146 quick_test/data-fmllr-tri3/train/data/feats_fmllr_train.2.ark:11279726
fcjf0_sx217 quick_test/data-fmllr-tri3/train/data/feats_fmllr_train.1.ark:6575111
fljg0_sx441 quick_test/data-fmllr-tri3/train/data/feats_fmllr_train.2.ark:11942638
mrdm0_sx65 quick_test/data-fmllr-tri3/train/data/feats_fmllr_train.8.ark:14755273
mprb0_si575 quick_test/data-fmllr-tri3/train/data/feats_fmllr_train.8.ark:9048419
mjjb0_si1139 quick_test/data-fmllr-tri3/train/data/feats_fmllr_train.6.ark:12331111
mklr0_sx249 quick_test/data-fmllr-tri3/train/data/feats_fmllr_train.7.ark:8032781
fdkn0_si1711 quick_test/data-fmllr-tri3/train/data/feats_fmllr_train.1.ark:10964385
mgxp0_sx7 quick_test/data-fmllr-tri3/train/data/feats_fmllr_train.6.ark:3475828
mrlj0_si790 quick_test/data-fmllr-tri3/train/data/feats_fmllr_train.9.ark:3794658
mtlc0_sx397 quick_test/data-fmllr-tri3/train/data/feats_fmllr_train.10.ark:7195891
mjjm0_si1251 quick_test/data-fmllr-tri3/train/data/feats_fmllr_train.6.ark:13161626
mmwb0_sx179 quick_test/data-fmllr-tri3/train/data/feats_fmllr_train.8.ark:3632291
fskc0_sx156 quick_test/data-fmllr-tri3/train/data/feats_fmllr_train.3.ark:10120559
fsgf0_sx117 quick_test/data-fmllr-tri3/train/data/feats_fmllr_train.3.ark:8108114
mdwh0_si1168 quick_test/data-fmllr-tri3/train/data/feats_fmllr_train.5.ark:9933178
fdxw0_sx71 quick_test/data-fmllr-tri3/train/data/feats_fmllr_train.1.ark:13310566
mrfl0_sx166 quick_test/data-fmllr-tri3/train/data/feats_fmllr_train.8.ark:17226126
mrws0_si472 quick_test/data-fmllr-tri3/train/data/feats_fmllr_train.9.ark:10467792
mddc0_sx339 quick_test/data-fmllr-tri3/train/data/feats_fmllr_train.4.ark:16879295
mrfk0_sx446 quick_test/data-fmllr-tri3/train/data/feats_fmllr_train.8.ark:16976550
mrlr0_sx26 quick_test/data-fmllr-tri3/train/data/feats_fmllr_train.9.ark:5034270
fdtd0_sx391 quick_test/data-fmllr-tri3/train/data/feats_fmllr_train.1.ark:12968269
msah1_si2309 quick_test/data-fmllr-tri3/train/data/feats_fmllr_train.9.ark:11162627
mrab1_sx308 quick_test/data-fmllr-tri3/train/data/feats_fmllr_train.8.ark:11565801
mhbs0_si2205 quick_test/data-fmllr-tri3/train/data/feats_fmllr_train.6.ark:3607270
mjee0_si1867 quick_test/data-fmllr-tri3/train/data/feats_fmllr_train.6.ark:10886272
mjda0_sx221 quick_test/data-fmllr-tri3/train/data/feats_fmllr_train.6.ark:8176674
mgaf0_sx202 quick_test/data-fmllr-tri3/train/data/feats_fmllr_train.5.ark:16431374
fssb0_si2342 quick_test/data-fmllr-tri3/train/data/feats_fmllr_train.3.ark:13619287
mcpm0_si1824 quick_test/data-fmllr-tri3/train/data/feats_fmllr_train.4.ark:12146346
mjde0_sx130 quick_test/data-fmllr-tri3/train/data/feats_fmllr_train.6.ark:8942360
mmdb0_sx447 quick_test/data-fmllr-tri3/train/data/feats_fmllr_train.7.ark:15755521
mwdk0_si2017 quick_test/data-fmllr-tri3/train/data/feats_fmllr_train.10.ark:14931171
mdlh0_sx340 quick_test/data-fmllr-tri3/train/data/feats_fmllr_train.5.ark:4176880
fsjw0_si703 quick_test/data-fmllr-tri3/train/data/feats_fmllr_train.3.ark:9715035
mgag0_sx61 quick_test/data-fmllr-tri3/train/data/feats_fmllr_train.5.ark:16879670
mram0_sx375 quick_test/data-fmllr-tri3/train/data/feats_fmllr_train.8.ark:12461969
fbjl0_si922 quick_test/data-fmllr-tri3/train/data/feats_fmllr_train.1.ark:3364680
mtpp0_si2138 quick_test/data-fmllr-tri3/train/data/feats_fmllr_train.10.ark:9226473
fjen0_sx417 quick_test/data-fmllr-tri3/train/data/feats_fmllr_train.2.ark:747115
mmcc0_sx348 quick_test/data-fmllr-tri3/train/data/feats_fmllr_train.7.ark:15329677
fsag0_sx243 quick_test/data-fmllr-tri3/train/data/feats_fmllr_train.3.ark:5283901
ftmg0_sx362 quick_test/data-fmllr-tri3/train/data/feats_fmllr_train.3.ark:15607171
mpar0_sx316 quick_test/data-fmllr-tri3/train/data/feats_fmllr_train.8.ark:5954764
fblv0_si1058 quick_test/data-fmllr-tri3/train/data/feats_fmllr_train.1.ark:3664362
mfxs0_sx234 quick_test/data-fmllr-tri3/train/data/feats_fmllr_train.5.ark:15645499
fdjh0_si2195 quick_test/data-fmllr-tri3/train/data/feats_fmllr_train.1.ark:10510860
mwre0_sx67 quick_test/data-fmllr-tri3/train/data/feats_fmllr_train.10.ark:16347665
fbmh0_sx56 quick_test/data-fmllr-tri3/train/data/feats_fmllr_train.1.ark:4416289
mpgr1_sx329 quick_test/data-fmllr-tri3/train/data/feats_fmllr_train.8.ark:7745289
fbcg1_sx352 quick_test/data-fmllr-tri3/train/data/feats_fmllr_train.1.ark:2681928
fdjh0_sx35 quick_test/data-fmllr-tri3/train/data/feats_fmllr_train.1.ark:10751314
mbwp0_si1531 quick_test/data-fmllr-tri3/train/data/feats_fmllr_train.4.ark:7708092
mrmb0_sx51 quick_test/data-fmllr-tri3/train/data/feats_fmllr_train.9.ark:5470381
mtxs0_si1690 quick_test/data-fmllr-tri3/train/data/feats_fmllr_train.10.ark:11959031
fajw0_sx93 quick_test/data-fmllr-tri3/train/data/feats_fmllr_train.1.ark:764097
mrab0_si1854 quick_test/data-fmllr-tri3/train/data/feats_fmllr_train.8.ark:10973476
mbth0_si505 quick_test/data-fmllr-tri3/train/data/feats_fmllr_train.4.ark:7375903
fmkc0_sx82 quick_test/data-fmllr-tri3/train/data/feats_fmllr_train.2.ark:17085166
mcpm0_sx384 quick_test/data-fmllr-tri3/train/data/feats_fmllr_train.4.ark:12423627
mcdr0_si524 quick_test/data-fmllr-tri3/train/data/feats_fmllr_train.4.ark:9831310
mjmm0_sx265 quick_test/data-fmllr-tri3/train/data/feats_fmllr_train.6.ark:15956216
mmds0_sx353 quick_test/data-fmllr-tri3/train/data/feats_fmllr_train.7.ark:17209002
mdlb0_sx316 quick_test/data-fmllr-tri3/train/data/feats_fmllr_train.5.ark:2620812
medr0_sx204 quick_test/data-fmllr-tri3/train/data/feats_fmllr_train.5.ark:11283059
mefg0_si491 quick_test/data-fmllr-tri3/train/data/feats_fmllr_train.5.ark:11461913
mkdb0_sx152 quick_test/data-fmllr-tri3/train/data/feats_fmllr_train.7.ark:5688572
fskl0_sx179 quick_test/data-fmllr-tri3/train/data/feats_fmllr_train.3.ark:10502216
mejl0_si1654 quick_test/data-fmllr-tri3/train/data/feats_fmllr_train.5.ark:12299625
mtju0_sx40 quick_test/data-fmllr-tri3/train/data/feats_fmllr_train.10.ark:5580756
mjeb0_sx170 quick_test/data-fmllr-tri3/train/data/feats_fmllr_train.6.ark:10177892
mjjb0_sx329 quick_test/data-fmllr-tri3/train/data/feats_fmllr_train.6.ark:12580528
ftlg0_si483 quick_test/data-fmllr-tri3/train/data/feats_fmllr_train.3.ark:15046366
mvrw0_si1485 quick_test/data-fmllr-tri3/train/data/feats_fmllr_train.10.ark:13095495
fpab1_sx391 quick_test/data-fmllr-tri3/train/data/feats_fmllr_train.3.ark:1150875
fsah0_si614 quick_test/data-fmllr-tri3/train/data/feats_fmllr_train.3.ark:5639584
fecd0_sx158 quick_test/data-fmllr-tri3/train/data/feats_fmllr_train.1.ark:14348710
mkes0_si1253 quick_test/data-fmllr-tri3/train/data/feats_fmllr_train.7.ark:6725940
mklw0_sx311 quick_test/data-fmllr-tri3/train/data/feats_fmllr_train.7.ark:9216981
fecd0_si1418 quick_test/data-fmllr-tri3/train/data/feats_fmllr_train.1.ark:14136308
mrbc0_sx149 quick_test/data-fmllr-tri3/train/data/feats_fmllr_train.8.ark:12984217
mmbs0_sx161 quick_test/data-fmllr-tri3/train/data/feats_fmllr_train.7.ark:14812126
mprt0_si495 quick_test/data-fmllr-tri3/train/data/feats_fmllr_train.8.ark:10347602
mrjh0_si1519 quick_test/data-fmllr-tri3/train/data/feats_fmllr_train.9.ark:1237303
msjk0_sx246 quick_test/data-fmllr-tri3/train/data/feats_fmllr_train.9.ark:15623312
mprk0_si1727 quick_test/data-fmllr-tri3/train/data/feats_fmllr_train.8.ark:9912826
mrkm0_sx7 quick_test/data-fmllr-tri3/train/data/feats_fmllr_train.9.ark:3287132
flod0_sx297 quick_test/data-fmllr-tri3/train/data/feats_fmllr_train.2.ark:13860523
mmdm1_sx153 quick_test/data-fmllr-tri3/train/data/feats_fmllr_train.7.ark:16727451
fjrp1_si1432 quick_test/data-fmllr-tri3/train/data/feats_fmllr_train.2.ark:2765376
mdhs0_sx360 quick_test/data-fmllr-tri3/train/data/feats_fmllr_train.5.ark:1433920
mkln0_sx68 quick_test/data-fmllr-tri3/train/data/feats_fmllr_train.7.ark:7820963
mtab0_sx222 quick_test/data-fmllr-tri3/train/data/feats_fmllr_train.10.ark:724659
mdlr1_sx309 quick_test/data-fmllr-tri3/train/data/feats_fmllr_train.5.ark:5324891
mpsw0_sx257 quick_test/data-fmllr-tri3/train/data/feats_fmllr_train.8.ark:10814167
flet0_si1137 quick_test/data-fmllr-tri3/train/data/feats_fmllr_train.2.ark:10052325
mjeb1_sx117 quick_test/data-fmllr-tri3/train/data/feats_fmllr_train.6.ark:10627549
fjen0_sx57 quick_test/data-fmllr-tri3/train/data/feats_fmllr_train.2.ark:812901
fkkh0_sx120 quick_test/data-fmllr-tri3/train/data/feats_fmllr_train.2.ark:7087469
mjbg0_sx422 quick_test/data-fmllr-tri3/train/data/feats_fmllr_train.6.ark:7932510
mtab0_sx312 quick_test/data-fmllr-tri3/train/data/feats_fmllr_train.10.ark:775406
mrlj1_si2332 quick_test/data-fmllr-tri3/train/data/feats_fmllr_train.9.ark:4172956
fsmm0_sx414 quick_test/data-fmllr-tri3/train/data/feats_fmllr_train.3.ark:12202046
mdpk0_si1683 quick_test/data-fmllr-tri3/train/data/feats_fmllr_train.5.ark:7125709
msat1_sx263 quick_test/data-fmllr-tri3/train/data/feats_fmllr_train.9.ark:12353413
mrab0_sx324 quick_test/data-fmllr-tri3/train/data/feats_fmllr_train.8.ark:11158864
mbma0_sx232 quick_test/data-fmllr-tri3/train/data/feats_fmllr_train.4.ark:5729780
mtjg0_si890 quick_test/data-fmllr-tri3/train/data/feats_fmllr_train.10.ark:4141118
mgrl0_sx147 quick_test/data-fmllr-tri3/train/data/feats_fmllr_train.6.ark:1649925
mdlc2_sx264 quick_test/data-fmllr-tri3/train/data/feats_fmllr_train.5.ark:3739197
fpaf0_sx64 quick_test/data-fmllr-tri3/train/data/feats_fmllr_train.3.ark:2379207
mjpm1_sx221 quick_test/data-fmllr-tri3/train/data/feats_fmllr_train.6.ark:16992227
fclt0_sx268 quick_test/data-fmllr-tri3/train/data/feats_fmllr_train.1.ark:7593042
mrfl0_sx346 quick_test/data-fmllr-tri3/train/data/feats_fmllr_train.8.ark:17339140
flag0_sx114 quick_test/data-fmllr-tri3/train/data/feats_fmllr_train.2.ark:9410372
fjhk0_sx212 quick_test/data-fmllr-tri3/train/data/feats_fmllr_train.2.ark:1064559
mkah0_sx88 quick_test/data-fmllr-tri3/train/data/feats_fmllr_train.7.ark:4757948
mfxv0_sx375 quick_test/data-fmllr-tri3/train/data/feats_fmllr_train.5.ark:16183397
mjbg0_sx242 quick_test/data-fmllr-tri3/train/data/feats_fmllr_train.6.ark:7820616
mmdb0_si1617 quick_test/data-fmllr-tri3/train/data/feats_fmllr_train.7.ark:15537946
fpmy0_si1153 quick_test/data-fmllr-tri3/train/data/feats_fmllr_train.3.ark:3564844
mjda0_si1661 quick_test/data-fmllr-tri3/train/data/feats_fmllr_train.6.ark:8058992
mfxv0_si1342 quick_test/data-fmllr-tri3/train/data/feats_fmllr_train.5.ark:15932835
mfrm0_sx435 quick_test/data-fmllr-tri3/train/data/feats_fmllr_train.5.ark:15029438
mdbp0_sx438 quick_test/data-fmllr-tri3/train/data/feats_fmllr_train.4.ark:15781551
mkag0_sx79 quick_test/data-fmllr-tri3/train/data/feats_fmllr_train.7.ark:4375491
mjeb0_si656 quick_test/data-fmllr-tri3/train/data/feats_fmllr_train.6.ark:10139625
mrgm0_si1162 quick_test/data-fmllr-tri3/train/data/feats_fmllr_train.8.ark:17486421
mclk0_si650 quick_test/data-fmllr-tri3/train/data/feats_fmllr_train.4.ark:11457939
mrtj0_si1551 quick_test/data-fmllr-tri3/train/data/feats_fmllr_train.9.ark:9173806
mjxl0_sx272 quick_test/data-fmllr-tri3/train/data/feats_fmllr_train.7.ark:3797755
mjpm0_si1368 quick_test/data-fmllr-tri3/train/data/feats_fmllr_train.6.ark:16436381
msrg0_si1221 quick_test/data-fmllr-tri3/train/data/feats_fmllr_train.9.ark:16984710
fsjs0_sx361 quick_test/data-fmllr-tri3/train/data/feats_fmllr_train.3.ark:9431219
fetb0_si1148 quick_test/data-fmllr-tri3/train/data/feats_fmllr_train.1.ark:15416959
mdcm0_sx40 quick_test/data-fmllr-tri3/train/data/feats_fmllr_train.4.ark:16562304
mtdb0_si2031 quick_test/data-fmllr-tri3/train/data/feats_fmllr_train.10.ark:2898200
mmws1_si1071 quick_test/data-fmllr-tri3/train/data/feats_fmllr_train.8.ark:4306722
mhbs0_sx45 quick_test/data-fmllr-tri3/train/data/feats_fmllr_train.6.ark:3876071
mmeb0_sx367 quick_test/data-fmllr-tri3/train/data/feats_fmllr_train.7.ark:17883676
mbbr0_si2315 quick_test/data-fmllr-tri3/train/data/feats_fmllr_train.4.ark:3863842
mtpg0_si1383 quick_test/data-fmllr-tri3/train/data/feats_fmllr_train.10.ark:8808948
mfmc0_sx142 quick_test/data-fmllr-tri3/train/data/feats_fmllr_train.5.ark:14498099
fexm0_si482 quick_test/data-fmllr-tri3/train/data/feats_fmllr_train.1.ark:15900911
mgaf0_si652 quick_test/data-fmllr-tri3/train/data/feats_fmllr_train.5.ark:16359640
mded0_si1170 quick_test/data-fmllr-tri3/train/data/feats_fmllr_train.4.ark:16997136
medr0_sx114 quick_test/data-fmllr-tri3/train/data/feats_fmllr_train.5.ark:11242872
msah1_sx149 quick_test/data-fmllr-tri3/train/data/feats_fmllr_train.9.ark:11202014
mkdd0_sx397 quick_test/data-fmllr-tri3/train/data/feats_fmllr_train.7.ark:6273536
mnet0_si816 quick_test/data-fmllr-tri3/train/data/feats_fmllr_train.8.ark:5074250
mtkd0_sx107 quick_test/data-fmllr-tri3/train/data/feats_fmllr_train.10.ark:5852733
mwrp0_sx93 quick_test/data-fmllr-tri3/train/data/feats_fmllr_train.10.ark:16759721
mrld0_sx334 quick_test/data-fmllr-tri3/train/data/feats_fmllr_train.9.ark:3604762
mjrg0_sx376 quick_test/data-fmllr-tri3/train/data/feats_fmllr_train.6.ark:17951461
mjfh0_sx207 quick_test/data-fmllr-tri3/train/data/feats_fmllr_train.6.ark:11393930
mkls0_sx357 quick_test/data-fmllr-tri3/train/data/feats_fmllr_train.7.ark:8477826
feac0_sx345 quick_test/data-fmllr-tri3/train/data/feats_fmllr_train.1.ark:13598250
flod0_si657 quick_test/data-fmllr-tri3/train/data/feats_fmllr_train.2.ark:13682815
mjrk0_si2103 quick_test/data-fmllr-tri3/train/data/feats_fmllr_train.7.ark:792316
mhit0_si983 quick_test/data-fmllr-tri3/train/data/feats_fmllr_train.6.ark:3993914
mdlh0_sx70 quick_test/data-fmllr-tri3/train/data/feats_fmllr_train.5.ark:4293093
msrg0_sx51 quick_test/data-fmllr-tri3/train/data/feats_fmllr_train.9.ark:17305059
mkdb0_sx62 quick_test/data-fmllr-tri3/train/data/feats_fmllr_train.7.ark:5896359
fnkl0_si2152 quick_test/data-fmllr-tri3/train/data/feats_fmllr_train.3.ark:40521
fsjk1_si696 quick_test/data-fmllr-tri3/train/data/feats_fmllr_train.3.ark:8907561
mcre0_si1751 quick_test/data-fmllr-tri3/train/data/feats_fmllr_train.4.ark:12538431
mtas0_sx125 quick_test/data-fmllr-tri3/train/data/feats_fmllr_train.10.ark:1057809
mdlm0_sx64 quick_test/data-fmllr-tri3/train/data/feats_fmllr_train.5.ark:4616350
mwsb0_sx366 quick_test/data-fmllr-tri3/train/data/feats_fmllr_train.10.ark:17009805
mprk0_sx17 quick_test/data-fmllr-tri3/train/data/feats_fmllr_train.8.ark:10070826
mmds0_sx263 quick_test/data-fmllr-tri3/train/data/feats_fmllr_train.7.ark:17177935
fetb0_sx338 quick_test/data-fmllr-tri3/train/data/feats_fmllr_train.1.ark:15646855
mrre0_sx164 quick_test/data-fmllr-tri3/train/data/feats_fmllr_train.9.ark:7632379
mdks0_sx166 quick_test/data-fmllr-tri3/train/data/feats_fmllr_train.5.ark:2037341
mdlh0_sx430 quick_test/data-fmllr-tri3/train/data/feats_fmllr_train.5.ark:4228587
mmgk0_si1952 quick_test/data-fmllr-tri3/train/data/feats_fmllr_train.8.ark:793277
mrtc0_sx18 quick_test/data-fmllr-tri3/train/data/feats_fmllr_train.9.ark:8978497
fclt0_si808 quick_test/data-fmllr-tri3/train/data/feats_fmllr_train.1.ark:7470268
mrmb0_si951 quick_test/data-fmllr-tri3/train/data/feats_fmllr_train.9.ark:5232647
mbml0_si1169 quick_test/data-fmllr-tri3/train/data/feats_fmllr_train.4.ark:6332185
majp0_sx264 quick_test/data-fmllr-tri3/train/data/feats_fmllr_train.4.ark:1287655
fblv0_sx68 quick_test/data-fmllr-tri3/train/data/feats_fmllr_train.1.ark:4039592
msat1_si1703 quick_test/data-fmllr-tri3/train/data/feats_fmllr_train.9.ark:12208051
fjrp1_sx262 quick_test/data-fmllr-tri3/train/data/feats_fmllr_train.2.ark:3000685
fsjs0_si541 quick_test/data-fmllr-tri3/train/data/feats_fmllr_train.3.ark:9261858
mgaf0_si1282 quick_test/data-fmllr-tri3/train/data/feats_fmllr_train.5.ark:16233825
fkdw0_sx397 quick_test/data-fmllr-tri3/train/data/feats_fmllr_train.2.ark:6385222
mtbc0_sx93 quick_test/data-fmllr-tri3/train/data/feats_fmllr_train.10.ark:2410567
fmpg0_sx432 quick_test/data-fmllr-tri3/train/data/feats_fmllr_train.2.ark:18300347
mbth0_sx32 quick_test/data-fmllr-tri3/train/data/feats_fmllr_train.4.ark:7612197
mejs0_si1870 quick_test/data-fmllr-tri3/train/data/feats_fmllr_train.5.ark:12666562
mbbr0_sx155 quick_test/data-fmllr-tri3/train/data/feats_fmllr_train.4.ark:3894429
fsak0_si1300 quick_test/data-fmllr-tri3/train/data/feats_fmllr_train.3.ark:5957186
mkdt0_sx263 quick_test/data-fmllr-tri3/train/data/feats_fmllr_train.7.ark:6541032
fmkf0_si1536 quick_test/data-fmllr-tri3/train/data/feats_fmllr_train.2.ark:17201702
mtpp0_sx338 quick_test/data-fmllr-tri3/train/data/feats_fmllr_train.10.ark:9379701
mwrp0_sx183 quick_test/data-fmllr-tri3/train/data/feats_fmllr_train.10.ark:16588576
fklh0_si1257 quick_test/data-fmllr-tri3/train/data/feats_fmllr_train.2.ark:8100519
mcdc0_sx302 quick_test/data-fmllr-tri3/train/data/feats_fmllr_train.4.ark:9213517
fhlm0_sx120 quick_test/data-fmllr-tri3/train/data/feats_fmllr_train.1.ark:18077065
fgrw0_sx342 quick_test/data-fmllr-tri3/train/data/feats_fmllr_train.1.ark:17799302
fjsk0_sx332 quick_test/data-fmllr-tri3/train/data/feats_fmllr_train.2.ark:3504290
fkaa0_sx38 quick_test/data-fmllr-tri3/train/data/feats_fmllr_train.2.ark:5499800
mkls0_sx447 quick_test/data-fmllr-tri3/train/data/feats_fmllr_train.7.ark:8536253
mjmm0_sx175 quick_test/data-fmllr-tri3/train/data/feats_fmllr_train.6.ark:15890909
fpjf0_sx56 quick_test/data-fmllr-tri3/train/data/feats_fmllr_train.3.ark:3162681
mcxm0_sx91 quick_test/data-fmllr-tri3/train/data/feats_fmllr_train.4.ark:14324551
mlbc0_sx159 quick_test/data-fmllr-tri3/train/data/feats_fmllr_train.7.ark:10286858
mjae0_sx354 quick_test/data-fmllr-tri3/train/data/feats_fmllr_train.6.ark:7090449
fsdc0_sx322 quick_test/data-fmllr-tri3/train/data/feats_fmllr_train.3.ark:7454134
fmem0_sx387 quick_test/data-fmllr-tri3/train/data/feats_fmllr_train.2.ark:15466219
mrvg0_sx420 quick_test/data-fmllr-tri3/train/data/feats_fmllr_train.9.ark:9898986
mrew1_sx240 quick_test/data-fmllr-tri3/train/data/feats_fmllr_train.8.ark:16503798
fklh0_sx87 quick_test/data-fmllr-tri3/train/data/feats_fmllr_train.2.ark:8437028
msjk0_si1596 quick_test/data-fmllr-tri3/train/data/feats_fmllr_train.9.ark:15415363
mhit0_si1613 quick_test/data-fmllr-tri3/train/data/feats_fmllr_train.6.ark:3914659
mjdm0_si1937 quick_test/data-fmllr-tri3/train/data/feats_fmllr_train.6.ark:9702581
fpaf0_si2314 quick_test/data-fmllr-tri3/train/data/feats_fmllr_train.3.ark:2162273
mjae0_si1999 quick_test/data-fmllr-tri3/train/data/feats_fmllr_train.6.ark:6911140
fljd0_sx76 quick_test/data-fmllr-tri3/train/data/feats_fmllr_train.2.ark:11535247
mrvg0_si1140 quick_test/data-fmllr-tri3/train/data/feats_fmllr_train.9.ark:9665703
msms0_si1433 quick_test/data-fmllr-tri3/train/data/feats_fmllr_train.9.ark:16600333
mrsp0_sx196 quick_test/data-fmllr-tri3/train/data/feats_fmllr_train.9.ark:8576361
msem1_si2070 quick_test/data-fmllr-tri3/train/data/feats_fmllr_train.9.ark:13710842
fmjb0_sx187 quick_test/data-fmllr-tri3/train/data/feats_fmllr_train.2.ark:15715129
fsjk1_si2285 quick_test/data-fmllr-tri3/train/data/feats_fmllr_train.3.ark:8876014
mprb0_si1215 quick_test/data-fmllr-tri3/train/data/feats_fmllr_train.8.ark:8965832
mdac0_sx181 quick_test/data-fmllr-tri3/train/data/feats_fmllr_train.4.ark:14526101
fsag0_sx423 quick_test/data-fmllr-tri3/train/data/feats_fmllr_train.3.ark:5415795
mrkm0_si1391 quick_test/data-fmllr-tri3/train/data/feats_fmllr_train.9.ark:2965399
mljc0_sx145 quick_test/data-fmllr-tri3/train/data/feats_fmllr_train.7.ark:11102492
fsma0_sx181 quick_test/data-fmllr-tri3/train/data/feats_fmllr_train.3.ark:11632948
fkaa0_sx218 quick_test/data-fmllr-tri3/train/data/feats_fmllr_train.2.ark:5389507
mmag0_si496 quick_test/data-fmllr-tri3/train/data/feats_fmllr_train.7.ark:13535607
mtml0_sx345 quick_test/data-fmllr-tri3/train/data/feats_fmllr_train.10.ark:7490136
mesj0_sx367 quick_test/data-fmllr-tri3/train/data/feats_fmllr_train.5.ark:13586624
fsjk1_sx305 quick_test/data-fmllr-tri3/train/data/feats_fmllr_train.3.ark:9047482
mcew0_si1442 quick_test/data-fmllr-tri3/train/data/feats_fmllr_train.4.ark:10485769
flag0_sx294 quick_test/data-fmllr-tri3/train/data/feats_fmllr_train.2.ark:9558772
fvkb0_si529 quick_test/data-fmllr-tri3/train/data/feats_fmllr_train.3.ark:16165125
fcmg0_si1242 quick_test/data-fmllr-tri3/train/data/feats_fmllr_train.1.ark:7858298
fsdj0_sx125 quick_test/data-fmllr-tri3/train/data/feats_fmllr_train.3.ark:7722297
fbjl0_sx202 quick_test/data-fmllr-tri3/train/data/feats_fmllr_train.1.ark:3484094
mrjt0_sx238 quick_test/data-fmllr-tri3/train/data/feats_fmllr_train.9.ark:2674063
mtlb0_sx414 quick_test/data-fmllr-tri3/train/data/feats_fmllr_train.10.ark:6790688
fcyl0_si1297 quick_test/data-fmllr-tri3/train/data/feats_fmllr_train.1.ark:8926122
mpgr0_sx330 quick_test/data-fmllr-tri3/train/data/feats_fmllr_train.8.ark:7349711
ftbr0_sx111 quick_test/data-fmllr-tri3/train/data/feats_fmllr_train.3.ark:14390147
mefg0_si465 quick_test/data-fmllr-tri3/train/data/feats_fmllr_train.5.ark:11417726
fvmh0_sx116 quick_test/data-fmllr-tri3/train/data/feats_fmllr_train.3.ark:16672409
mbma0_si592 quick_test/data-fmllr-tri3/train/data/feats_fmllr_train.4.ark:5653726
mctm0_sx270 quick_test/data-fmllr-tri3/train/data/feats_fmllr_train.4.ark:13821854
fcke0_sx211 quick_test/data-fmllr-tri3/train/data/feats_fmllr_train.1.ark:7264665
mrlr0_sx206 quick_test/data-fmllr-tri3/train/data/feats_fmllr_train.9.ark:4982404
fecd0_sx68 quick_test/data-fmllr-tri3/train/data/feats_fmllr_train.1.ark:14549297
makb0_si1646 quick_test/data-fmllr-tri3/train/data/feats_fmllr_train.4.ark:1594831
mmsm0_sx116 quick_test/data-fmllr-tri3/train/data/feats_fmllr_train.8.ark:2748016
fgmb0_sx155 quick_test/data-fmllr-tri3/train/data/feats_fmllr_train.1.ark:17233270
mtas0_si1385 quick_test/data-fmllr-tri3/train/data/feats_fmllr_train.10.ark:937407
fmah1_sx339 quick_test/data-fmllr-tri3/train/data/feats_fmllr_train.2.ark:14577252
fgrw0_si1152 quick_test/data-fmllr-tri3/train/data/feats_fmllr_train.1.ark:17507965
mrai0_si2052 quick_test/data-fmllr-tri3/train/data/feats_fmllr_train.8.ark:11738870
mmgc0_sx405 quick_test/data-fmllr-tri3/train/data/feats_fmllr_train.8.ark:275537
mrcw0_si2001 quick_test/data-fmllr-tri3/train/data/feats_fmllr_train.8.ark:13748917
fklh0_sx177 quick_test/data-fmllr-tri3/train/data/feats_fmllr_train.2.ark:8249561
mvrw0_sx405 quick_test/data-fmllr-tri3/train/data/feats_fmllr_train.10.ark:13333738
fbas0_sx307 quick_test/data-fmllr-tri3/train/data/feats_fmllr_train.1.ark:2348271
fbmj0_sx66 quick_test/data-fmllr-tri3/train/data/feats_fmllr_train.1.ark:4850745
flmc0_sx22 quick_test/data-fmllr-tri3/train/data/feats_fmllr_train.2.ark:13002593
fljg0_si981 quick_test/data-fmllr-tri3/train/data/feats_fmllr_train.2.ark:11672930
mdac0_sx91 quick_test/data-fmllr-tri3/train/data/feats_fmllr_train.4.ark:14729568
mfrm0_sx75 quick_test/data-fmllr-tri3/train/data/feats_fmllr_train.5.ark:15087064
mtcs0_sx262 quick_test/data-fmllr-tri3/train/data/feats_fmllr_train.10.ark:2627504
mbom0_sx294 quick_test/data-fmllr-tri3/train/data/feats_fmllr_train.4.ark:6880379
fkdw0_sx127 quick_test/data-fmllr-tri3/train/data/feats_fmllr_train.2.ark:6253275
fmem0_si2007 quick_test/data-fmllr-tri3/train/data/feats_fmllr_train.2.ark:15152617
fbch0_si959 quick_test/data-fmllr-tri3/train/data/feats_fmllr_train.1.ark:2955823
fcdr1_sx286 quick_test/data-fmllr-tri3/train/data/feats_fmllr_train.1.ark:5955050
mjls0_si1726 quick_test/data-fmllr-tri3/train/data/feats_fmllr_train.6.ark:14711003
mrkm0_sx97 quick_test/data-fmllr-tri3/train/data/feats_fmllr_train.9.ark:3340918
mcdc0_si1292 quick_test/data-fmllr-tri3/train/data/feats_fmllr_train.4.ark:8986501
mpgr0_si1410 quick_test/data-fmllr-tri3/train/data/feats_fmllr_train.8.ark:7151815
fjlr0_si601 quick_test/data-fmllr-tri3/train/data/feats_fmllr_train.2.ark:2090917
mjrg0_si736 quick_test/data-fmllr-tri3/train/data/feats_fmllr_train.6.ark:17680767
fkaa0_si578 quick_test/data-fmllr-tri3/train/data/feats_fmllr_train.2.ark:5292493
mjfh0_sx297 quick_test/data-fmllr-tri3/train/data/feats_fmllr_train.6.ark:11449823
fear0_sx442 quick_test/data-fmllr-tri3/train/data/feats_fmllr_train.1.ark:14037374
mwsh0_sx346 quick_test/data-fmllr-tri3/train/data/feats_fmllr_train.10.ark:17437060
mmeb0_si1357 quick_test/data-fmllr-tri3/train/data/feats_fmllr_train.7.ark:17654900
fpac0_si2011 quick_test/data-fmllr-tri3/train/data/feats_fmllr_train.3.ark:1269171
mfwk0_sx439 quick_test/data-fmllr-tri3/train/data/feats_fmllr_train.5.ark:15399895
mjwt0_sx211 quick_test/data-fmllr-tri3/train/data/feats_fmllr_train.7.ark:3065641
fssb0_si1082 quick_test/data-fmllr-tri3/train/data/feats_fmllr_train.3.ark:13492191
fjdm2_sx52 quick_test/data-fmllr-tri3/train/data/feats_fmllr_train.2.ark:366123
mdlc2_sx354 quick_test/data-fmllr-tri3/train/data/feats_fmllr_train.5.ark:3781944
mdwm0_sx286 quick_test/data-fmllr-tri3/train/data/feats_fmllr_train.5.ark:10623930
fear0_si1882 quick_test/data-fmllr-tri3/train/data/feats_fmllr_train.1.ark:13784759
mges0_sx221 quick_test/data-fmllr-tri3/train/data/feats_fmllr_train.6.ark:880237
mmdm1_si2043 quick_test/data-fmllr-tri3/train/data/feats_fmllr_train.7.ark:16651077
fgcs0_sx406 quick_test/data-fmllr-tri3/train/data/feats_fmllr_train.1.ark:16522197
mdhl0_sx449 quick_test/data-fmllr-tri3/train/data/feats_fmllr_train.5.ark:1108290
mjrk0_sx430 quick_test/data-fmllr-tri3/train/data/feats_fmllr_train.7.ark:1041411
fsah0_sx434 quick_test/data-fmllr-tri3/train/data/feats_fmllr_train.3.ark:5872972
fhlm0_si2190 quick_test/data-fmllr-tri3/train/data/feats_fmllr_train.1.ark:17983571
fbmh0_si1766 quick_test/data-fmllr-tri3/train/data/feats_fmllr_train.1.ark:4153888
mrmh0_si1021 quick_test/data-fmllr-tri3/train/data/feats_fmllr_train.9.ark:5893347
mmdm1_si1650 quick_test/data-fmllr-tri3/train/data/feats_fmllr_train.7.ark:16622089
mjrh0_sx225 quick_test/data-fmllr-tri3/train/data/feats_fmllr_train.7.ark:217563
mdas0_si1266 quick_test/data-fmllr-tri3/train/data/feats_fmllr_train.4.ark:14766236
mcxm0_sx361 quick_test/data-fmllr-tri3/train/data/feats_fmllr_train.4.ark:14229618
fjdm2_si2212 quick_test/data-fmllr-tri3/train/data/feats_fmllr_train.2.ark:96549
mwad0_sx162 quick_test/data-fmllr-tri3/train/data/feats_fmllr_train.10.ark:13985292
fklc1_sx328 quick_test/data-fmllr-tri3/train/data/feats_fmllr_train.2.ark:7928598
mnet0_si1446 quick_test/data-fmllr-tri3/train/data/feats_fmllr_train.8.ark:4986355
mjkr0_sx31 quick_test/data-fmllr-tri3/train/data/feats_fmllr_train.6.ark:13876565
fecd0_si2048 quick_test/data-fmllr-tri3/train/data/feats_fmllr_train.1.ark:14225136
mgsh0_sx6 quick_test/data-fmllr-tri3/train/data/feats_fmllr_train.6.ark:2620678
mapv0_si663 quick_test/data-fmllr-tri3/train/data/feats_fmllr_train.4.ark:2364733
mjmm0_si1885 quick_test/data-fmllr-tri3/train/data/feats_fmllr_train.6.ark:15820295
frjb0_si1470 quick_test/data-fmllr-tri3/train/data/feats_fmllr_train.3.ark:4395066
mrcg0_sx258 quick_test/data-fmllr-tri3/train/data/feats_fmllr_train.8.ark:13449261
fcjs0_sx437 quick_test/data-fmllr-tri3/train/data/feats_fmllr_train.1.ark:6950742
mtat0_sx300 quick_test/data-fmllr-tri3/train/data/feats_fmllr_train.10.ark:1542586
msat1_si2333 quick_test/data-fmllr-tri3/train/data/feats_fmllr_train.9.ark:12250319
mjxa0_sx247 quick_test/data-fmllr-tri3/train/data/feats_fmllr_train.7.ark:3426018
mstf0_sx316 quick_test/data-fmllr-tri3/train/data/feats_fmllr_train.9.ark:17994718
mpgh0_si675 quick_test/data-fmllr-tri3/train/data/feats_fmllr_train.8.ark:6881706
mdhs0_si900 quick_test/data-fmllr-tri3/train/data/feats_fmllr_train.5.ark:1286959
mbef0_sx381 quick_test/data-fmllr-tri3/train/data/feats_fmllr_train.4.ark:4754169
fkaa0_sx128 quick_test/data-fmllr-tri3/train/data/feats_fmllr_train.2.ark:5349480
fexm0_si1731 quick_test/data-fmllr-tri3/train/data/feats_fmllr_train.1.ark:15844404
mmdg0_si520 quick_test/data-fmllr-tri3/train/data/feats_fmllr_train.7.ark:15928430
mtjm0_si1856 quick_test/data-fmllr-tri3/train/data/feats_fmllr_train.10.ark:4530428
mtrr0_si2178 quick_test/data-fmllr-tri3/train/data/feats_fmllr_train.10.ark:10841260
mtrr0_si1548 quick_test/data-fmllr-tri3/train/data/feats_fmllr_train.10.ark:10803792
mrmh0_sx391 quick_test/data-fmllr-tri3/train/data/feats_fmllr_train.9.ark:6216737
fbas0_sx217 quick_test/data-fmllr-tri3/train/data/feats_fmllr_train.1.ark:2311124
mses0_sx149 quick_test/data-fmllr-tri3/train/data/feats_fmllr_train.9.ark:14300074
mrso0_si1659 quick_test/data-fmllr-tri3/train/data/feats_fmllr_train.9.ark:7963422
mmbs0_sx71 quick_test/data-fmllr-tri3/train/data/feats_fmllr_train.7.ark:15052233
fmjf0_si1254 quick_test/data-fmllr-tri3/train/data/feats_fmllr_train.2.ark:15918782
mjac0_si1331 quick_test/data-fmllr-tri3/train/data/feats_fmllr_train.6.ark:6468495
fvkb0_sx79 quick_test/data-fmllr-tri3/train/data/feats_fmllr_train.3.ark:16448939
mesj0_si997 quick_test/data-fmllr-tri3/train/data/feats_fmllr_train.5.ark:13467183
fljd0_si1516 quick_test/data-fmllr-tri3/train/data/feats_fmllr_train.2.ark:11200178
mdlr0_si603 quick_test/data-fmllr-tri3/train/data/feats_fmllr_train.5.ark:4750513
mtpr0_sx70 quick_test/data-fmllr-tri3/train/data/feats_fmllr_train.10.ark:9926851
fjlg0_sx89 quick_test/data-fmllr-tri3/train/data/feats_fmllr_train.2.ark:1950194
fjlg0_sx179 quick_test/data-fmllr-tri3/train/data/feats_fmllr_train.2.ark:1742727
fkfb0_si2238 quick_test/data-fmllr-tri3/train/data/feats_fmllr_train.2.ark:6506558
mgrp0_sx147 quick_test/data-fmllr-tri3/train/data/feats_fmllr_train.6.ark:2037022
fbas0_sx397 quick_test/data-fmllr-tri3/train/data/feats_fmllr_train.1.ark:2416324
mcdr0_si1154 quick_test/data-fmllr-tri3/train/data/feats_fmllr_train.4.ark:9690295
mjls0_sx376 quick_test/data-fmllr-tri3/train/data/feats_fmllr_train.6.ark:15009724
fskp0_si468 quick_test/data-fmllr-tri3/train/data/feats_fmllr_train.3.ark:10844806
mtpf0_sx155 quick_test/data-fmllr-tri3/train/data/feats_fmllr_train.10.ark:8596813
mjra0_si606 quick_test/data-fmllr-tri3/train/data/feats_fmllr_train.6.ark:17322630
mdlc1_si2065 quick_test/data-fmllr-tri3/train/data/feats_fmllr_train.5.ark:3270578
mhmr0_sx399 quick_test/data-fmllr-tri3/train/data/feats_fmllr_train.6.ark:5319820
fsmm0_sx324 quick_test/data-fmllr-tri3/train/data/feats_fmllr_train.3.ark:12132259
fceg0_sx348 quick_test/data-fmllr-tri3/train/data/feats_fmllr_train.1.ark:6262121
mjwt0_si1381 quick_test/data-fmllr-tri3/train/data/feats_fmllr_train.7.ark:2892920
fsag0_si1953 quick_test/data-fmllr-tri3/train/data/feats_fmllr_train.3.ark:5146700
mhmg0_sx285 quick_test/data-fmllr-tri3/train/data/feats_fmllr_train.6.ark:4871416
mjhi0_si1328 quick_test/data-fmllr-tri3/train/data/feats_fmllr_train.6.ark:11946575
mrso0_sx219 quick_test/data-fmllr-tri3/train/data/feats_fmllr_train.9.ark:8121104
mmcc0_sx438 quick_test/data-fmllr-tri3/train/data/feats_fmllr_train.7.ark:15383624
msdh0_sx170 quick_test/data-fmllr-tri3/train/data/feats_fmllr_train.9.ark:12916221
megj0_si1967 quick_test/data-fmllr-tri3/train/data/feats_fmllr_train.5.ark:11922450
madd0_si1798 quick_test/data-fmllr-tri3/train/data/feats_fmllr_train.3.ark:17620686
flet0_si507 quick_test/data-fmllr-tri3/train/data/feats_fmllr_train.2.ark:10154460
flod0_sx171 quick_test/data-fmllr-tri3/train/data/feats_fmllr_train.2.ark:13766709
mtas0_sx305 quick_test/data-fmllr-tri3/train/data/feats_fmllr_train.10.ark:1132423
mjmm0_sx445 quick_test/data-fmllr-tri3/train/data/feats_fmllr_train.6.ark:16039310
fsrh0_sx311 quick_test/data-fmllr-tri3/train/data/feats_fmllr_train.3.ark:13324910
mwem0_sx330 quick_test/data-fmllr-tri3/train/data/feats_fmllr_train.10.ark:15469097
fltm0_sx350 quick_test/data-fmllr-tri3/train/data/feats_fmllr_train.2.ark:14164395
mvlo0_si517 quick_test/data-fmllr-tri3/train/data/feats_fmllr_train.10.ark:12786053
mbar0_sx149 quick_test/data-fmllr-tri3/train/data/feats_fmllr_train.4.ark:3512771
msem1_si810 quick_test/data-fmllr-tri3/train/data/feats_fmllr_train.9.ark:13798069
mreh1_sx159 quick_test/data-fmllr-tri3/train/data/feats_fmllr_train.8.ark:15713578
mded0_sx90 quick_test/data-fmllr-tri3/train/data/feats_fmllr_train.4.ark:17369325
mjkr0_sx391 quick_test/data-fmllr-tri3/train/data/feats_fmllr_train.6.ark:13911472
mjwt0_sx121 quick_test/data-fmllr-tri3/train/data/feats_fmllr_train.7.ark:3015854
fapb0_sx343 quick_test/data-fmllr-tri3/train/data/feats_fmllr_train.1.ark:1865653
fexm0_sx111 quick_test/data-fmllr-tri3/train/data/feats_fmllr_train.1.ark:15968778
mpmb0_sx61 quick_test/data-fmllr-tri3/train/data/feats_fmllr_train.8.ark:8466039
fskl0_sx359 quick_test/data-fmllr-tri3/train/data/feats_fmllr_train.3.ark:10586110
mhjb0_sx207 quick_test/data-fmllr-tri3/train/data/feats_fmllr_train.6.ark:4480906
fjkl0_sx302 quick_test/data-fmllr-tri3/train/data/feats_fmllr_train.2.ark:1483203
msas0_si746 quick_test/data-fmllr-tri3/train/data/feats_fmllr_train.9.ark:11557084
flja0_si1078 quick_test/data-fmllr-tri3/train/data/feats_fmllr_train.2.ark:10780920
mljc0_si595 quick_test/data-fmllr-tri3/train/data/feats_fmllr_train.7.ark:11057825
mrgs0_sx96 quick_test/data-fmllr-tri3/train/data/feats_fmllr_train.9.ark:387400
mpeb0_si1860 quick_test/data-fmllr-tri3/train/data/feats_fmllr_train.8.ark:6091353
fbcg1_sx82 quick_test/data-fmllr-tri3/train/data/feats_fmllr_train.1.ark:2808221
mjrh0_sx315 quick_test/data-fmllr-tri3/train/data/feats_fmllr_train.7.ark:249910
mjee0_sx337 quick_test/data-fmllr-tri3/train/data/feats_fmllr_train.6.ark:11061420
fscn0_sx266 quick_test/data-fmllr-tri3/train/data/feats_fmllr_train.3.ark:7018209
mgag0_sx331 quick_test/data-fmllr-tri3/train/data/feats_fmllr_train.5.ark:16805697
mwar0_si1045 quick_test/data-fmllr-tri3/train/data/feats_fmllr_train.10.ark:14170707
flma0_sx163 quick_test/data-fmllr-tri3/train/data/feats_fmllr_train.2.ark:12620910
mmab1_si864 quick_test/data-fmllr-tri3/train/data/feats_fmllr_train.7.ark:13064030
fbjl0_sx382 quick_test/data-fmllr-tri3/train/data/feats_fmllr_train.1.ark:3614254
mdbp0_sx168 quick_test/data-fmllr-tri3/train/data/feats_fmllr_train.4.ark:15640190
mree0_sx24 quick_test/data-fmllr-tri3/train/data/feats_fmllr_train.8.ark:15405094
mrmb0_si1581 quick_test/data-fmllr-tri3/train/data/feats_fmllr_train.9.ark:5146512
feac0_sx75 quick_test/data-fmllr-tri3/train/data/feats_fmllr_train.1.ark:13703743
mzmb0_sx86 quick_test/data-fmllr-tri3/train/data/feats_fmllr_train.10.ark:17940210
mdlh0_si700 quick_test/data-fmllr-tri3/train/data/feats_fmllr_train.5.ark:3995999
mchl0_sx357 quick_test/data-fmllr-tri3/train/data/feats_fmllr_train.4.ark:11236843
marw0_si646 quick_test/data-fmllr-tri3/train/data/feats_fmllr_train.4.ark:3050287
mrtj0_sx232 quick_test/data-fmllr-tri3/train/data/feats_fmllr_train.9.ark:9429915
