mtkd0_si1187 quick_test/mfcc/raw_mfcc_train.4.ark:2774636
mkjo0_sx257 quick_test/mfcc/raw_mfcc_train.3.ark:2127812
mclm0_sx376 quick_test/mfcc/raw_mfcc_train.2.ark:1768556
mtrc0_sx93 quick_test/mfcc/raw_mfcc_train.4.ark:3203329
mrcg0_si2058 quick_test/mfcc/raw_mfcc_train.4.ark:383760
fblv0_si1058 quick_test/mfcc/raw_mfcc_train.1.ark:307452
fbjl0_si2182 quick_test/mfcc/raw_mfcc_train.1.ark:278959
mtpf0_si1865 quick_test/mfcc/raw_mfcc_train.4.ark:3012671
mrkm0_sx187 quick_test/mfcc/raw_mfcc_train.4.ark:1036938
marc0_sx288 quick_test/mfcc/raw_mfcc_train.2.ark:996712
mtlb0_si504 quick_test/mfcc/raw_mfcc_train.4.ark:2852518
fmbg0_sx440 quick_test/mfcc/raw_mfcc_train.1.ark:2840460
mbma0_sx412 quick_test/mfcc/raw_mfcc_train.2.ark:1244273
mtpg0_sx33 quick_test/mfcc/raw_mfcc_train.4.ark:3061356
fklc0_sx355 quick_test/mfcc/raw_mfcc_train.1.ark:2217016
fvfb0_sx222 quick_test/mfcc/raw_mfcc_train.2.ark:582594
mhmg0_si1365 quick_test/mfcc/raw_mfcc_train.3.ark:387236
mwac0_sx71 quick_test/mfcc/raw_mfcc_train.4.ark:3460588
mzmb0_si536 quick_test/mfcc/raw_mfcc_train.4.ark:3784831
mbar0_si1319 quick_test/mfcc/raw_mfcc_train.2.ark:1038033
mmgg0_si1709 quick_test/mfcc/raw_mfcc_train.3.ark:3061547
mgsh0_sx96 quick_test/mfcc/raw_mfcc_train.3.ark:223887
mgaf0_sx112 quick_test/mfcc/raw_mfcc_train.2.ark:3597124
flmc0_sx382 quick_test/mfcc/raw_mfcc_train.1.ark:2685804
faem0_si1392 quick_test/mfcc/raw_mfcc_train.1.ark:13
mrfl0_sx436 quick_test/mfcc/raw_mfcc_train.4.ark:727879
mtpg0_sx303 quick_test/mfcc/raw_mfcc_train.4.ark:3058061
flmk0_si1229 quick_test/mfcc/raw_mfcc_train.1.ark:2693542
fjhk0_sx392 quick_test/mfcc/raw_mfcc_train.1.ark:1681932
mtlc0_sx307 quick_test/mfcc/raw_mfcc_train.4.ark:2897277
fjsp0_si804 quick_test/mfcc/raw_mfcc_train.1.ark:1895707
mvrw0_sx135 quick_test/mfcc/raw_mfcc_train.4.ark:3409544
mtmt0_sx128 quick_test/mfcc/raw_mfcc_train.4.ark:2989371
flac0_sx91 quick_test/mfcc/raw_mfcc_train.1.ark:2351756
mtpr0_sx430 quick_test/mfcc/raw_mfcc_train.4.ark:3126302
mhxl0_sx332 quick_test/mfcc/raw_mfcc_train.3.ark:500828
mdcm0_sx130 quick_test/mfcc/raw_mfcc_train.2.ark:2135420
mbjv0_si1877 quick_test/mfcc/raw_mfcc_train.2.ark:1195353
mjpm1_si761 quick_test/mfcc/raw_mfcc_train.3.ark:1420430
mtdp0_sx81 quick_test/mfcc/raw_mfcc_train.4.ark:2604044
ftaj0_sx249 quick_test/mfcc/raw_mfcc_train.2.ark:426179
fapb0_sx343 quick_test/mfcc/raw_mfcc_train.1.ark:156585
ftbr0_si1402 quick_test/mfcc/raw_mfcc_train.2.ark:438154
mrwa0_sx253 quick_test/mfcc/raw_mfcc_train.4.ark:1629968
mtmn0_sx254 quick_test/mfcc/raw_mfcc_train.4.ark:2962827
mfwk0_si1879 quick_test/mfcc/raw_mfcc_train.2.ark:3493678
maeo0_sx156 quick_test/mfcc/raw_mfcc_train.2.ark:797617
mmag0_si1756 quick_test/mfcc/raw_mfcc_train.3.ark:2643805
fvkb0_sx169 quick_test/mfcc/raw_mfcc_train.2.ark:606980
fklh0_sx267 quick_test/mfcc/raw_mfcc_train.1.ark:2276131
mwar0_si1045 quick_test/mfcc/raw_mfcc_train.4.ark:3489085
flma0_si1873 quick_test/mfcc/raw_mfcc_train.1.ark:2631470
mrhl0_sx165 quick_test/mfcc/raw_mfcc_train.4.ark:822121
mjws0_sx63 quick_test/mfcc/raw_mfcc_train.3.ark:1745808
mjwt0_sx301 quick_test/mfcc/raw_mfcc_train.3.ark:1774322
mrmb0_sx321 quick_test/mfcc/raw_mfcc_train.4.ark:1225806
mclm0_sx196 quick_test/mfcc/raw_mfcc_train.2.ark:1761808
madc0_sx107 quick_test/mfcc/raw_mfcc_train.2.ark:704105
mrab1_sx38 quick_test/mfcc/raw_mfcc_train.4.ark:241846
mkrg0_sx231 quick_test/mfcc/raw_mfcc_train.3.ark:2322052
mddc0_si1419 quick_test/mfcc/raw_mfcc_train.2.ark:2154344
mrew1_sx420 quick_test/mfcc/raw_mfcc_train.4.ark:661165
mrxb0_sx55 quick_test/mfcc/raw_mfcc_train.4.ark:1702902
mtat1_sx149 quick_test/mfcc/raw_mfcc_train.4.ark:2447567
frll0_sx344 quick_test/mfcc/raw_mfcc_train.1.ark:3544502
fdnc0_sx288 quick_test/mfcc/raw_mfcc_train.1.ark:1047609
mdss1_sx337 quick_test/mfcc/raw_mfcc_train.2.ark:2985623
mrgs0_si726 quick_test/mfcc/raw_mfcc_train.4.ark:783111
fdaw0_sx56 quick_test/mfcc/raw_mfcc_train.1.ark:848072
fmbg0_si2264 quick_test/mfcc/raw_mfcc_train.1.ark:2826173
mafm0_sx129 quick_test/mfcc/raw_mfcc_train.2.ark:825715
mwrp0_sx3 quick_test/mfcc/raw_mfcc_train.4.ark:3699832
fgmb0_sx335 quick_test/mfcc/raw_mfcc_train.1.ark:1456450
mjfr0_sx345 quick_test/mfcc/raw_mfcc_train.3.ark:989611
mcef0_sx145 quick_test/mfcc/raw_mfcc_train.2.ark:1618722
fjxp0_si1752 quick_test/mfcc/raw_mfcc_train.1.ark:1991121
mewm0_si1348 quick_test/mfcc/raw_mfcc_train.2.ark:3369759
mpgh0_sx204 quick_test/mfcc/raw_mfcc_train.3.ark:3616010
mmgk0_sx152 quick_test/mfcc/raw_mfcc_train.3.ark:3096641
fdjh0_sx395 quick_test/mfcc/raw_mfcc_train.1.ark:906895
fmjb0_si547 quick_test/mfcc/raw_mfcc_train.1.ark:2895862
fdmy0_sx387 quick_test/mfcc/raw_mfcc_train.1.ark:1014759
mcss0_si688 quick_test/mfcc/raw_mfcc_train.2.ark:1839093
fjlr0_si601 quick_test/mfcc/raw_mfcc_train.1.ark:1756729
mvrw0_si2115 quick_test/mfcc/raw_mfcc_train.4.ark:3403628
mrab0_si1854 quick_test/mfcc/raw_mfcc_train.4.ark:187831
mtmt0_sx38 quick_test/mfcc/raw_mfcc_train.4.ark:2999973
mlel0_sx76 quick_test/mfcc/raw_mfcc_train.3.ark:2427530
mrld0_sx244 quick_test/mfcc/raw_mfcc_train.4.ark:1073673
mzmb0_sx446 quick_test/mfcc/raw_mfcc_train.4.ark:3802331
mmpm0_sx251 quick_test/mfcc/raw_mfcc_train.3.ark:3190355
fklh0_sx447 quick_test/mfcc/raw_mfcc_train.1.ark:2285570
fjrp1_si2062 quick_test/mfcc/raw_mfcc_train.1.ark:1822109
mejl0_sx242 quick_test/mfcc/raw_mfcc_train.2.ark:3262286
medr0_si1374 quick_test/mfcc/raw_mfcc_train.2.ark:3150004
fjkl0_si2192 quick_test/mfcc/raw_mfcc_train.1.ark:1687525
mrav0_si1008 quick_test/mfcc/raw_mfcc_train.4.ark:317064
mpsw0_si1697 quick_test/mfcc/raw_mfcc_train.4.ark:161813
mljh0_sx334 quick_test/mfcc/raw_mfcc_train.3.ark:2493658
fcaj0_sx39 quick_test/mfcc/raw_mfcc_train.1.ark:461448
falr0_sx425 quick_test/mfcc/raw_mfcc_train.1.ark:125958
mjae0_si2154 quick_test/mfcc/raw_mfcc_train.3.ark:584215
mkdd0_sx127 quick_test/mfcc/raw_mfcc_train.3.ark:2028718
fpac0_si1921 quick_test/mfcc/raw_mfcc_train.1.ark:3227300
freh0_sx235 quick_test/mfcc/raw_mfcc_train.1.ark:3480603
mtrt0_sx237 quick_test/mfcc/raw_mfcc_train.4.ark:3256320
mljh0_si1324 quick_test/mfcc/raw_mfcc_train.3.ark:2464398
mtwh1_si1512 quick_test/mfcc/raw_mfcc_train.4.ark:3269088
fscn0_si1886 quick_test/mfcc/raw_mfcc_train.1.ark:3695279
mrjt0_sx238 quick_test/mfcc/raw_mfcc_train.4.ark:999110
mmdm0_sx231 quick_test/mfcc/raw_mfcc_train.3.ark:2893397
fsak0_sx400 quick_test/mfcc/raw_mfcc_train.1.ark:3655706
fjsk0_si1682 quick_test/mfcc/raw_mfcc_train.1.ark:1861049
madc0_sx377 quick_test/mfcc/raw_mfcc_train.2.ark:718107
mrjt0_sx58 quick_test/mfcc/raw_mfcc_train.4.ark:1012026
mlns0_sx327 quick_test/mfcc/raw_mfcc_train.3.ark:2523524
msfv0_sx452 quick_test/mfcc/raw_mfcc_train.4.ark:2059585
mcth0_sx129 quick_test/mfcc/raw_mfcc_train.2.ark:1879321
mdhl0_sx359 quick_test/mfcc/raw_mfcc_train.2.ark:2306318
fpls0_sx240 quick_test/mfcc/raw_mfcc_train.1.ark:3412462
mgsl0_sx354 quick_test/mfcc/raw_mfcc_train.3.ark:250840
mjdc0_sx351 quick_test/mfcc/raw_mfcc_train.3.ark:724098
mrcg0_sx78 quick_test/mfcc/raw_mfcc_train.4.ark:412154
mrjm0_sx148 quick_test/mfcc/raw_mfcc_train.4.ark:929335
fsls0_si1686 quick_test/mfcc/raw_mfcc_train.2.ark:180188
mgag0_sx421 quick_test/mfcc/raw_mfcc_train.2.ark:3635187
fmbg0_sx260 quick_test/mfcc/raw_mfcc_train.1.ark:2828962
fpab1_si2101 quick_test/mfcc/raw_mfcc_train.1.ark:3194387
mrlk0_sx213 quick_test/mfcc/raw_mfcc_train.4.ark:1164143
mwch0_si1895 quick_test/mfcc/raw_mfcc_train.4.ark:3524316
fgrw0_si1990 quick_test/mfcc/raw_mfcc_train.1.ark:1481824
fkfb0_si2238 quick_test/mfcc/raw_mfcc_train.1.ark:2127239
fvkb0_si529 quick_test/mfcc/raw_mfcc_train.2.ark:602436
mdlh0_si1960 quick_test/mfcc/raw_mfcc_train.2.ark:2546564
mjda0_sx401 quick_test/mfcc/raw_mfcc_train.3.ark:695708
mrwa0_si1603 quick_test/mfcc/raw_mfcc_train.4.ark:1614521
mesg0_sx162 quick_test/mfcc/raw_mfcc_train.2.ark:3321556
mrjh0_sx79 quick_test/mfcc/raw_mfcc_train.4.ark:912430
mcal0_si1138 quick_test/mfcc/raw_mfcc_train.2.ark:1478410
mmea0_sx218 quick_test/mfcc/raw_mfcc_train.3.ark:2982228
mrlj1_sx321 quick_test/mfcc/raw_mfcc_train.4.ark:1132737
fcag0_sx153 quick_test/mfcc/raw_mfcc_train.1.ark:418679
mgag0_sx61 quick_test/mfcc/raw_mfcc_train.2.ark:3638274
mkln0_si968 quick_test/mfcc/raw_mfcc_train.3.ark:2149838
fmkf0_si1536 quick_test/mfcc/raw_mfcc_train.1.ark:3025367
mfxs0_sx234 quick_test/mfcc/raw_mfcc_train.2.ark:3534356
mmvp0_sx294 quick_test/mfcc/raw_mfcc_train.3.ark:3299992
fjhk0_sx212 quick_test/mfcc/raw_mfcc_train.1.ark:1670368
mtkd0_sx197 quick_test/mfcc/raw_mfcc_train.4.ark:2797109
mtpp0_sx158 quick_test/mfcc/raw_mfcc_train.4.ark:3079606
fdml0_si1149 quick_test/mfcc/raw_mfcc_train.1.ark:947950
mclm0_sx286 quick_test/mfcc/raw_mfcc_train.2.ark:1764181
mjde0_sx40 quick_test/mfcc/raw_mfcc_train.3.ark:767320
mgaw0_si1165 quick_test/mfcc/raw_mfcc_train.3.ark:32441
mtjg0_sx350 quick_test/mfcc/raw_mfcc_train.4.ark:2660993
fksr0_si1747 quick_test/mfcc/raw_mfcc_train.1.ark:2296694
mtpr0_sx250 quick_test/mfcc/raw_mfcc_train.4.ark:3117227
fmkf0_si906 quick_test/mfcc/raw_mfcc_train.1.ark:3029729
mtlc0_sx37 quick_test/mfcc/raw_mfcc_train.4.ark:2899415
mrlj1_sx411 quick_test/mfcc/raw_mfcc_train.4.ark:1137242
mdma0_sx350 quick_test/mfcc/raw_mfcc_train.2.ark:2700748
fleh0_si2311 quick_test/mfcc/raw_mfcc_train.1.ark:2401237
mdbp0_sx438 quick_test/mfcc/raw_mfcc_train.2.ark:2081364
mrxb0_sx145 quick_test/mfcc/raw_mfcc_train.4.ark:1688575
mwgr0_sx166 quick_test/mfcc/raw_mfcc_train.4.ark:3625812
mrjm1_sx38 quick_test/mfcc/raw_mfcc_train.4.ark:975393
mchl0_sx357 quick_test/mfcc/raw_mfcc_train.2.ark:1699022
mtrc0_si1623 quick_test/mfcc/raw_mfcc_train.4.ark:3177931
msmr0_sx55 quick_test/mfcc/raw_mfcc_train.4.ark:2165165
mdlr1_sx219 quick_test/mfcc/raw_mfcc_train.2.ark:2661163
mtpr0_sx70 quick_test/mfcc/raw_mfcc_train.4.ark:3132262
mcpm0_sx114 quick_test/mfcc/raw_mfcc_train.2.ark:1786279
mdlc1_sx445 quick_test/mfcc/raw_mfcc_train.2.ark:2512576
mrjt0_sx148 quick_test/mfcc/raw_mfcc_train.4.ark:995840
fskc0_sx66 quick_test/mfcc/raw_mfcc_train.2.ark:110040
mgrp0_si1317 quick_test/mfcc/raw_mfcc_train.3.ark:157847
fdkn0_si1081 quick_test/mfcc/raw_mfcc_train.1.ark:910829
mded0_si1800 quick_test/mfcc/raw_mfcc_train.2.ark:2187858
mmsm0_si476 quick_test/mfcc/raw_mfcc_train.3.ark:3250943
flod0_sx387 quick_test/mfcc/raw_mfcc_train.1.ark:2747527
msah1_sx59 quick_test/mfcc/raw_mfcc_train.4.ark:1731430
fskl0_sx89 quick_test/mfcc/raw_mfcc_train.2.ark:142155
mded0_sx90 quick_test/mfcc/raw_mfcc_train.2.ark:2214822
mjae0_sx84 quick_test/mfcc/raw_mfcc_train.3.ark:605166
fpac0_si2011 quick_test/mfcc/raw_mfcc_train.1.ark:3233990
msrg0_sx141 quick_test/mfcc/raw_mfcc_train.4.ark:2213846
mlel0_si616 quick_test/mfcc/raw_mfcc_train.3.ark:2402562
mvjh0_sx296 quick_test/mfcc/raw_mfcc_train.4.ark:3359192
fjsk0_si2312 quick_test/mfcc/raw_mfcc_train.1.ark:1864645
msrr0_si1761 quick_test/mfcc/raw_mfcc_train.4.ark:2234975
mtbc0_si543 quick_test/mfcc/raw_mfcc_train.4.ark:2478193
mwre0_si1057 quick_test/mfcc/raw_mfcc_train.4.ark:3645321
feme0_sx335 quick_test/mfcc/raw_mfcc_train.1.ark:1281197
mmws1_sx261 quick_test/mfcc/raw_mfcc_train.3.ark:3398456
mfwk0_sx439 quick_test/mfcc/raw_mfcc_train.2.ark:3513590
mtdb0_si1401 quick_test/mfcc/raw_mfcc_train.4.ark:2536194
mjrh0_si1755 quick_test/mfcc/raw_mfcc_train.3.ark:1516352
mhmr0_sx309 quick_test/mfcc/raw_mfcc_train.3.ark:439576
fspm0_sx251 quick_test/mfcc/raw_mfcc_train.2.ark:329275
msat0_sx86 quick_test/mfcc/raw_mfcc_train.4.ark:1793424
mrre0_si1334 quick_test/mfcc/raw_mfcc_train.4.ark:1397963
mjwg0_sx445 quick_test/mfcc/raw_mfcc_train.3.ark:1707837
fssb0_sx92 quick_test/mfcc/raw_mfcc_train.2.ark:408190
mrkm0_si1391 quick_test/mfcc/raw_mfcc_train.4.ark:1023456
ftaj0_sx69 quick_test/mfcc/raw_mfcc_train.2.ark:434935
fbmj0_si516 quick_test/mfcc/raw_mfcc_train.1.ark:379841
mctm0_sx180 quick_test/mfcc/raw_mfcc_train.2.ark:1912671
msmc0_sx197 quick_test/mfcc/raw_mfcc_train.4.ark:2125041
mjlg1_sx382 quick_test/mfcc/raw_mfcc_train.3.ark:1228054
mdwh0_sx35 quick_test/mfcc/raw_mfcc_train.2.ark:3083015
mkrg0_sx411 quick_test/mfcc/raw_mfcc_train.3.ark:2325952
fcmm0_sx93 quick_test/mfcc/raw_mfcc_train.1.ark:716595
mprt0_si580 quick_test/mfcc/raw_mfcc_train.4.ark:137193
mmlm0_si1527 quick_test/mfcc/raw_mfcc_train.3.ark:3146809
fdjh0_si1565 quick_test/mfcc/raw_mfcc_train.1.ark:880027
mmam0_si2227 quick_test/mfcc/raw_mfcc_train.3.ark:2683962
fpaf0_si1054 quick_test/mfcc/raw_mfcc_train.1.ark:3297510
mmlm0_sx177 quick_test/mfcc/raw_mfcc_train.3.ark:3157231
mtml0_si1695 quick_test/mfcc/raw_mfcc_train.4.ark:2910332
fgrw0_sx342 quick_test/mfcc/raw_mfcc_train.1.ark:1494377
mjde0_sx310 quick_test/mfcc/raw_mfcc_train.3.ark:762257
mcre0_sx131 quick_test/mfcc/raw_mfcc_train.2.ark:1813832
mrmb0_si1581 quick_test/mfcc/raw_mfcc_train.4.ark:1207011
fsah0_sx344 quick_test/mfcc/raw_mfcc_train.1.ark:3617819
mdem0_si800 quick_test/mfcc/raw_mfcc_train.2.ark:2257438
mcdd0_sx73 quick_test/mfcc/raw_mfcc_train.2.ark:1565816
maeb0_sx360 quick_test/mfcc/raw_mfcc_train.2.ark:774433
mdhs0_sx360 quick_test/mfcc/raw_mfcc_train.2.ark:2338784
mrkm0_sx277 quick_test/mfcc/raw_mfcc_train.4.ark:1040338
mrdd0_si1050 quick_test/mfcc/raw_mfcc_train.4.ark:445980
mtml0_sx435 quick_test/mfcc/raw_mfcc_train.4.ark:2931311
fcrz0_si2053 quick_test/mfcc/raw_mfcc_train.1.ark:724723
flkm0_sx116 quick_test/mfcc/raw_mfcc_train.1.ark:2605739
mrml0_sx161 quick_test/mfcc/raw_mfcc_train.4.ark:1314963
mram0_sx15 quick_test/mfcc/raw_mfcc_train.4.ark:301981
feac0_sx165 quick_test/mfcc/raw_mfcc_train.1.ark:1134068
mjws0_sx243 quick_test/mfcc/raw_mfcc_train.3.ark:1730617
mtjs0_sx382 quick_test/mfcc/raw_mfcc_train.4.ark:2738483
mtrc0_sx183 quick_test/mfcc/raw_mfcc_train.4.ark:3194183
megj0_sx3 quick_test/mfcc/raw_mfcc_train.2.ark:3237094
mmea0_si2018 quick_test/mfcc/raw_mfcc_train.3.ark:2972756
mdwd0_si1890 quick_test/mfcc/raw_mfcc_train.2.ark:3029351
medr0_sx24 quick_test/mfcc/raw_mfcc_train.2.ark:3170007
mdcd0_si785 quick_test/mfcc/raw_mfcc_train.2.ark:2097175
mlsh0_sx157 quick_test/mfcc/raw_mfcc_train.3.ark:2549268
mram0_sx375 quick_test/mfcc/raw_mfcc_train.4.ark:312818
flhd0_sx264 quick_test/mfcc/raw_mfcc_train.1.ark:2471072
mhxl0_sx62 quick_test/mfcc/raw_mfcc_train.3.ark:510682
mstf0_sx46 quick_test/mfcc/raw_mfcc_train.4.ark:2295365
mtju0_si760 quick_test/mfcc/raw_mfcc_train.4.ark:2751493
mdns0_sx381 quick_test/mfcc/raw_mfcc_train.2.ark:2774936
fceg0_sx168 quick_test/mfcc/raw_mfcc_train.1.ark:519704
feme0_sx425 quick_test/mfcc/raw_mfcc_train.1.ark:1287535
mtbc0_sx347 quick_test/mfcc/raw_mfcc_train.4.ark:2491149
flac0_sx361 quick_test/mfcc/raw_mfcc_train.1.ark:2343579
mjjm0_si1251 quick_test/mfcc/raw_mfcc_train.3.ark:1106088
fdxw0_sx431 quick_test/mfcc/raw_mfcc_train.1.ark:1114285
mcew0_si812 quick_test/mfcc/raw_mfcc_train.2.ark:1646189
mprb0_si1215 quick_test/mfcc/raw_mfcc_train.4.ark:19314
mdlc0_sx315 quick_test/mfcc/raw_mfcc_train.2.ark:2475032
fjsp0_si1434 quick_test/mfcc/raw_mfcc_train.1.ark:1888178
fpac0_sx211 quick_test/mfcc/raw_mfcc_train.1.ark:3247323
mddc0_si2049 quick_test/mfcc/raw_mfcc_train.2.ark:2159825
mkdd0_si937 quick_test/mfcc/raw_mfcc_train.3.ark:2023225
mkxl0_sx15 quick_test/mfcc/raw_mfcc_train.3.ark:2350383
mmwb0_si2249 quick_test/mfcc/raw_mfcc_train.3.ark:3318430
msfh0_sx226 quick_test/mfcc/raw_mfcc_train.4.ark:2014833
fjkl0_sx122 quick_test/mfcc/raw_mfcc_train.1.ark:1696249
mjpm0_si1998 quick_test/mfcc/raw_mfcc_train.3.ark:1387736
msat1_sx443 quick_test/mfcc/raw_mfcc_train.4.ark:1819606
fmjf0_sx264 quick_test/mfcc/raw_mfcc_train.1.ark:2935152
mrsp0_sx439 quick_test/mfcc/raw_mfcc_train.4.ark:1501236
mter0_si1787 quick_test/mfcc/raw_mfcc_train.4.ark:2613914
fpls0_si2220 quick_test/mfcc/raw_mfcc_train.1.ark:3399688
fsak0_si1930 quick_test/mfcc/raw_mfcc_train.1.ark:3633851
mrld0_sx154 quick_test/mfcc/raw_mfcc_train.4.ark:1070598
fear0_sx352 quick_test/mfcc/raw_mfcc_train.1.ark:1172658
falk0_sx96 quick_test/mfcc/raw_mfcc_train.1.ark:97372
mwac0_sx251 quick_test/mfcc/raw_mfcc_train.4.ark:3444864
fcjs0_sx167 quick_test/mfcc/raw_mfcc_train.1.ark:571233
fsak0_sx220 quick_test/mfcc/raw_mfcc_train.1.ark:3642868
mjjj0_sx83 quick_test/mfcc/raw_mfcc_train.3.ark:1102674
fsgf0_si2187 quick_test/mfcc/raw_mfcc_train.1.ark:3795922
fjlr0_si1861 quick_test/mfcc/raw_mfcc_train.1.ark:1754395
mwsh0_sx256 quick_test/mfcc/raw_mfcc_train.4.ark:3759594
fkaa0_si1208 quick_test/mfcc/raw_mfcc_train.1.ark:2017443
mram0_si1905 quick_test/mfcc/raw_mfcc_train.4.ark:289675
mbcg0_si486 quick_test/mfcc/raw_mfcc_train.2.ark:1103727
mrsp0_si1429 quick_test/mfcc/raw_mfcc_train.4.ark:1475492
mtmn0_si2324 quick_test/mfcc/raw_mfcc_train.4.ark:2945750
mljh0_sx244 quick_test/mfcc/raw_mfcc_train.3.ark:2488152
mkdt0_sx443 quick_test/mfcc/raw_mfcc_train.3.ark:2070031
mvrw0_si855 quick_test/mfcc/raw_mfcc_train.4.ark:3405325
msmc0_sx377 quick_test/mfcc/raw_mfcc_train.4.ark:2132803
fpjf0_sx236 quick_test/mfcc/raw_mfcc_train.1.ark:3380984
mwdk0_sx446 quick_test/mfcc/raw_mfcc_train.4.ark:3572873
faem0_sx222 quick_test/mfcc/raw_mfcc_train.1.ark:16916
fjrb0_si1932 quick_test/mfcc/raw_mfcc_train.1.ark:1786302
mbgt0_sx261 quick_test/mfcc/raw_mfcc_train.2.ark:1175687
mgrl0_sx237 quick_test/mfcc/raw_mfcc_train.3.ark:142167
mmam0_sx157 quick_test/mfcc/raw_mfcc_train.3.ark:2686569
mcae0_si2077 quick_test/mfcc/raw_mfcc_train.2.ark:1444108
msjk0_sx66 quick_test/mfcc/raw_mfcc_train.4.ark:2100572
marw0_sx286 quick_test/mfcc/raw_mfcc_train.2.ark:1021553
fdfb0_sx58 quick_test/mfcc/raw_mfcc_train.1.ark:875820
fsdc0_sx142 quick_test/mfcc/raw_mfcc_train.1.ark:3744979
fsgf0_si927 quick_test/mfcc/raw_mfcc_train.1.ark:3801272
mdwm0_sx433 quick_test/mfcc/raw_mfcc_train.2.ark:3119921
fdnc0_si2287 quick_test/mfcc/raw_mfcc_train.1.ark:1033399
fcjf0_sx307 quick_test/mfcc/raw_mfcc_train.1.ark:554407
mtcs0_sx172 quick_test/mfcc/raw_mfcc_train.4.ark:2515593
fpmy0_sx253 quick_test/mfcc/raw_mfcc_train.1.ark:3451485
fsjw0_sx343 quick_test/mfcc/raw_mfcc_train.2.ark:70151
mbef0_sx291 quick_test/mfcc/raw_mfcc_train.2.ark:1151333
msfv0_sx272 quick_test/mfcc/raw_mfcc_train.4.ark:2051134
mdlh0_sx430 quick_test/mfcc/raw_mfcc_train.2.ark:2573542
fnkl0_sx172 quick_test/mfcc/raw_mfcc_train.1.ark:3140585
fmkf0_si1018 quick_test/mfcc/raw_mfcc_train.1.ark:3019444
mtcs0_sx262 quick_test/mfcc/raw_mfcc_train.4.ark:2519357
mkah0_sx268 quick_test/mfcc/raw_mfcc_train.3.ark:1900707
mrre0_si704 quick_test/mfcc/raw_mfcc_train.4.ark:1404808
flac0_sx271 quick_test/mfcc/raw_mfcc_train.1.ark:2340322
mjra0_sx246 quick_test/mfcc/raw_mfcc_train.3.ark:1463908
mwch0_sx452 quick_test/mfcc/raw_mfcc_train.4.ark:3539640
mkdt0_sx173 quick_test/mfcc/raw_mfcc_train.3.ark:2057101
mabc0_sx61 quick_test/mfcc/raw_mfcc_train.2.ark:684185
mrav0_sx378 quick_test/mfcc/raw_mfcc_train.4.ark:342334
mmdg0_sx430 quick_test/mfcc/raw_mfcc_train.3.ark:2869395
fvmh0_si2096 quick_test/mfcc/raw_mfcc_train.2.ark:635480
fcdr1_si1186 quick_test/mfcc/raw_mfcc_train.1.ark:468314
fbas0_si1472 quick_test/mfcc/raw_mfcc_train.1.ark:177011
mmws1_sx81 quick_test/mfcc/raw_mfcc_train.3.ark:3410494
mtlc0_sx397 quick_test/mfcc/raw_mfcc_train.4.ark:2902815
mmab1_sx234 quick_test/mfcc/raw_mfcc_train.3.ark:2620629
mddc0_sx69 quick_test/mfcc/raw_mfcc_train.2.ark:2180211
mmrp0_si2034 quick_test/mfcc/raw_mfcc_train.3.ark:3206867
mprt0_sx220 quick_test/mfcc/raw_mfcc_train.4.ark:143889
fkfb0_sx78 quick_test/mfcc/raw_mfcc_train.1.ark:2156023
mdhs0_si2160 quick_test/mfcc/raw_mfcc_train.2.ark:2323195
fbas0_sx217 quick_test/mfcc/raw_mfcc_train.1.ark:193725
mmjb1_si1408 quick_test/mfcc/raw_mfcc_train.3.ark:3112796
fjhk0_sx32 quick_test/mfcc/raw_mfcc_train.1.ark:1678480
mkes0_si623 quick_test/mfcc/raw_mfcc_train.3.ark:2087142
mpmb0_sx421 quick_test/mfcc/raw_mfcc_train.3.ark:3729140
mjxa0_si1507 quick_test/mfcc/raw_mfcc_train.3.ark:1785354
mkln0_sx248 quick_test/mfcc/raw_mfcc_train.3.ark:2157756
fsjs0_si1171 quick_test/mfcc/raw_mfcc_train.2.ark:14132
mewm0_si1978 quick_test/mfcc/raw_mfcc_train.2.ark:3372887
mjrk0_sx430 quick_test/mfcc/raw_mfcc_train.3.ark:1600508
mppc0_si782 quick_test/mfcc/raw_mfcc_train.3.ark:3752218
mjma0_sx55 quick_test/mfcc/raw_mfcc_train.3.ark:1292193
mjmm0_si1255 quick_test/mfcc/raw_mfcc_train.3.ark:1324174
mcdd0_sx163 quick_test/mfcc/raw_mfcc_train.2.ark:1551268
mrre0_sx74 quick_test/mfcc/raw_mfcc_train.4.ark:1432045
mpfu0_sx268 quick_test/mfcc/raw_mfcc_train.3.ark:3581764
mwre0_si2317 quick_test/mfcc/raw_mfcc_train.4.ark:3653787
fbmh0_sx236 quick_test/mfcc/raw_mfcc_train.1.ark:360956
fdml0_sx69 quick_test/mfcc/raw_mfcc_train.1.ark:972050
mabc0_si2041 quick_test/mfcc/raw_mfcc_train.2.ark:662161
mbml0_si1799 quick_test/mfcc/raw_mfcc_train.2.ark:1289735
mclk0_sx310 quick_test/mfcc/raw_mfcc_train.2.ark:1733178
mrlk0_sx123 quick_test/mfcc/raw_mfcc_train.4.ark:1159807
mdpb0_si866 quick_test/mfcc/raw_mfcc_train.2.ark:2788271
mbcg0_sx57 quick_test/mfcc/raw_mfcc_train.2.ark:1126986
mjeb1_si2097 quick_test/mfcc/raw_mfcc_train.3.ark:881772
mtml0_si1065 quick_test/mfcc/raw_mfcc_train.4.ark:2906190
mtab0_sx132 quick_test/mfcc/raw_mfcc_train.4.ark:2354485
mlns0_sx147 quick_test/mfcc/raw_mfcc_train.3.ark:2517972
fecd0_sx68 quick_test/mfcc/raw_mfcc_train.1.ark:1221946
mdks0_sx346 quick_test/mfcc/raw_mfcc_train.2.ark:2399687
fpls0_si1590 quick_test/mfcc/raw_mfcc_train.1.ark:3396456
mmam0_sx67 quick_test/mfcc/raw_mfcc_train.3.ark:2699934
mwsb0_sx186 quick_test/mfcc/raw_mfcc_train.4.ark:3722482
mjma0_si1495 quick_test/mfcc/raw_mfcc_train.3.ark:1265559
mesj0_si2257 quick_test/mfcc/raw_mfcc_train.2.ark:3347573
mdns0_si2271 quick_test/mfcc/raw_mfcc_train.2.ark:2752587
mklw0_sx401 quick_test/mfcc/raw_mfcc_train.3.ark:2293422
mwch0_sx362 quick_test/mfcc/raw_mfcc_train.4.ark:3535707
msdb0_si1637 quick_test/mfcc/raw_mfcc_train.4.ark:1832134
mmxs0_sx336 quick_test/mfcc/raw_mfcc_train.3.ark:3431675
mmwb0_sx89 quick_test/mfcc/raw_mfcc_train.3.ark:3352245
fltm0_sx80 quick_test/mfcc/raw_mfcc_train.1.ark:2782152
mmws1_si2331 quick_test/mfcc/raw_mfcc_train.3.ark:3395446
mrav0_sx108 quick_test/mfcc/raw_mfcc_train.4.ark:328969
fbjl0_sx292 quick_test/mfcc/raw_mfcc_train.1.ark:298402
mhrm0_sx238 quick_test/mfcc/raw_mfcc_train.3.ark:464365
fbmh0_sx56 quick_test/mfcc/raw_mfcc_train.1.ark:370570
mrml0_sx431 quick_test/mfcc/raw_mfcc_train.4.ark:1331962
msmr0_sx145 quick_test/mfcc/raw_mfcc_train.4.ark:2150929
mrab0_sx54 quick_test/mfcc/raw_mfcc_train.4.ark:212845
mree0_sx294 quick_test/mfcc/raw_mfcc_train.4.ark:563442
msvs0_si938 quick_test/mfcc/raw_mfcc_train.4.ark:2309194
mdwh0_sx215 quick_test/mfcc/raw_mfcc_train.2.ark:3073213
fexm0_sx111 quick_test/mfcc/raw_mfcc_train.1.ark:1341058
milb0_sx93 quick_test/mfcc/raw_mfcc_train.3.ark:541260
mrjh0_si1519 quick_test/mfcc/raw_mfcc_train.4.ark:878595
mbef0_si1281 quick_test/mfcc/raw_mfcc_train.2.ark:1130413
mges0_sx311 quick_test/mfcc/raw_mfcc_train.3.ark:77345
mgrp0_si687 quick_test/mfcc/raw_mfcc_train.3.ark:166923
mjmd0_si2288 quick_test/mfcc/raw_mfcc_train.3.ark:1300485
mwac0_si2231 quick_test/mfcc/raw_mfcc_train.4.ark:3430907
maeo0_si1326 quick_test/mfcc/raw_mfcc_train.2.ark:785101
fjkl0_sx392 quick_test/mfcc/raw_mfcc_train.1.ark:1712487
mhrm0_sx418 quick_test/mfcc/raw_mfcc_train.3.ark:471672
frll0_sx164 quick_test/mfcc/raw_mfcc_train.1.ark:3536935
mstf0_si1396 quick_test/mfcc/raw_mfcc_train.4.ark:2263961
mtpp0_si2138 quick_test/mfcc/raw_mfcc_train.4.ark:3073469
fpab1_sx391 quick_test/mfcc/raw_mfcc_train.1.ark:3224107
mkdt0_sx353 quick_test/mfcc/raw_mfcc_train.3.ark:2065370
mfwk0_si619 quick_test/mfcc/raw_mfcc_train.2.ark:3496987
mtpg0_sx213 quick_test/mfcc/raw_mfcc_train.4.ark:3054726
mjxa0_sx427 quick_test/mfcc/raw_mfcc_train.3.ark:1808888
mesj0_si2039 quick_test/mfcc/raw_mfcc_train.2.ark:3341416
mgag0_si645 quick_test/mfcc/raw_mfcc_train.2.ark:3617420
mchl0_si1347 quick_test/mfcc/raw_mfcc_train.2.ark:1677197
mbcg0_sx237 quick_test/mfcc/raw_mfcc_train.2.ark:1115240
mjrp0_sx405 quick_test/mfcc/raw_mfcc_train.3.ark:1629503
mmsm0_sx386 quick_test/mfcc/raw_mfcc_train.3.ark:3271491
mwdk0_sx86 quick_test/mfcc/raw_mfcc_train.4.ark:3576649
fgrw0_sx162 quick_test/mfcc/raw_mfcc_train.1.ark:1484925
fspm0_sx161 quick_test/mfcc/raw_mfcc_train.2.ark:324380
mdwd0_sx360 quick_test/mfcc/raw_mfcc_train.2.ark:3042743
fpaf0_sx154 quick_test/mfcc/raw_mfcc_train.1.ark:3311404
fcyl0_sx217 quick_test/mfcc/raw_mfcc_train.1.ark:767636
mmxs0_sx66 quick_test/mfcc/raw_mfcc_train.3.ark:3441464
mesj0_si997 quick_test/mfcc/raw_mfcc_train.2.ark:3350622
fjxm0_sx401 quick_test/mfcc/raw_mfcc_train.1.ark:1976123
mrai0_sx252 quick_test/mfcc/raw_mfcc_train.4.ark:268774
mrlk0_si2140 quick_test/mfcc/raw_mfcc_train.4.ark:1150251
mgag0_si1321 quick_test/mfcc/raw_mfcc_train.2.ark:3612447
fmkf0_sx366 quick_test/mfcc/raw_mfcc_train.1.ark:3040761
mmlm0_si897 quick_test/mfcc/raw_mfcc_train.3.ark:3154143
mdbb1_sx286 quick_test/mfcc/raw_mfcc_train.2.ark:2046765
mkdb0_sx422 quick_test/mfcc/raw_mfcc_train.3.ark:2003072
fsgf0_sx27 quick_test/mfcc/raw_mfcc_train.1.ark:3814734
fexm0_sx366 quick_test/mfcc/raw_mfcc_train.1.ark:1355015
mhmr0_sx129 quick_test/mfcc/raw_mfcc_train.3.ark:430696
fjwb1_si2055 quick_test/mfcc/raw_mfcc_train.1.ark:1920163
fapb0_si1693 quick_test/mfcc/raw_mfcc_train.1.ark:137498
mpar0_sx136 quick_test/mfcc/raw_mfcc_train.3.ark:3518242
mpgh0_sx384 quick_test/mfcc/raw_mfcc_train.3.ark:3624298
fpaz0_sx153 quick_test/mfcc/raw_mfcc_train.1.ark:3345326
mdrd0_si752 quick_test/mfcc/raw_mfcc_train.2.ark:2877973
fjen0_sx147 quick_test/mfcc/raw_mfcc_train.1.ark:1629054
mwre0_sx247 quick_test/mfcc/raw_mfcc_train.4.ark:3660457
mbar0_sx59 quick_test/mfcc/raw_mfcc_train.2.ark:1067137
fntb0_si679 quick_test/mfcc/raw_mfcc_train.1.ark:3166114
feeh0_si1742 quick_test/mfcc/raw_mfcc_train.1.ark:1230607
msfh0_sx136 quick_test/mfcc/raw_mfcc_train.4.ark:2009431
mrms0_sx210 quick_test/mfcc/raw_mfcc_train.4.ark:1359059
fkde0_si1141 quick_test/mfcc/raw_mfcc_train.1.ark:2053029
mmws0_si559 quick_test/mfcc/raw_mfcc_train.3.ark:3360671
mmws1_si1701 quick_test/mfcc/raw_mfcc_train.3.ark:3392162
mppc0_sx62 quick_test/mfcc/raw_mfcc_train.4.ark:12265
msrg0_si1221 quick_test/mfcc/raw_mfcc_train.4.ark:2201253
fgdp0_sx448 quick_test/mfcc/raw_mfcc_train.1.ark:1421989
msas0_sx116 quick_test/mfcc/raw_mfcc_train.4.ark:1751337
mtwh1_si882 quick_test/mfcc/raw_mfcc_train.4.ark:3275616
fljg0_sx81 quick_test/mfcc/raw_mfcc_train.1.ark:2588186
fntb0_si573 quick_test/mfcc/raw_mfcc_train.1.ark:3162636
mrab1_sx218 quick_test/mfcc/raw_mfcc_train.4.ark:233539
mdlr1_sx399 quick_test/mfcc/raw_mfcc_train.2.ark:2674235
feac0_sx345 quick_test/mfcc/raw_mfcc_train.1.ark:1142246
mtkp0_si454 quick_test/mfcc/raw_mfcc_train.4.ark:2820988
mbth0_si2102 quick_test/mfcc/raw_mfcc_train.2.ark:1368236
fmkf0_sx96 quick_test/mfcc/raw_mfcc_train.1.ark:3049092
feeh0_sx122 quick_test/mfcc/raw_mfcc_train.1.ark:1238447
mpeb0_sx420 quick_test/mfcc/raw_mfcc_train.3.ark:3556280
mdlc2_sx444 quick_test/mfcc/raw_mfcc_train.2.ark:2539023
mdmt0_sx212 quick_test/mfcc/raw_mfcc_train.2.ark:2729970
fmem0_sx333 quick_test/mfcc/raw_mfcc_train.1.ark:2872978
fcrz0_sx433 quick_test/mfcc/raw_mfcc_train.1.ark:742282
mtml0_sx255 quick_test/mfcc/raw_mfcc_train.4.ark:2924472
frll0_si884 quick_test/mfcc/raw_mfcc_train.1.ark:3532183
mmaa0_si1588 quick_test/mfcc/raw_mfcc_train.3.ark:2570220
mfwk0_sx349 quick_test/mfcc/raw_mfcc_train.2.ark:3507967
fcrz0_sx163 quick_test/mfcc/raw_mfcc_train.1.ark:731874
fmah1_si879 quick_test/mfcc/raw_mfcc_train.1.ark:2791210
fkde0_si2221 quick_test/mfcc/raw_mfcc_train.1.ark:2065265
msrr0_sx141 quick_test/mfcc/raw_mfcc_train.4.ark:2246403
fsmm0_si1314 quick_test/mfcc/raw_mfcc_train.2.ark:243449
mkls0_sx177 quick_test/mfcc/raw_mfcc_train.3.ark:2217314
mhmr0_si1119 quick_test/mfcc/raw_mfcc_train.3.ark:416868
mklr0_sx429 quick_test/mfcc/raw_mfcc_train.3.ark:2194735
fjxp0_sx42 quick_test/mfcc/raw_mfcc_train.1.ark:2014510
mrre0_sx164 quick_test/mfcc/raw_mfcc_train.4.ark:1415872
mjeb0_si1916 quick_test/mfcc/raw_mfcc_train.3.ark:848448
msem1_sx180 quick_test/mfcc/raw_mfcc_train.4.ark:1943016
mmlm0_sx267 quick_test/mfcc/raw_mfcc_train.3.ark:3159916
mjwg0_si813 quick_test/mfcc/raw_mfcc_train.3.ark:1680190
mtrr0_si918 quick_test/mfcc/raw_mfcc_train.4.ark:3212621
mjai0_si1604 quick_test/mfcc/raw_mfcc_train.3.ark:611050
mreh1_si1599 quick_test/mfcc/raw_mfcc_train.4.ark:569931
mmgc0_si1305 quick_test/mfcc/raw_mfcc_train.3.ark:3025510
mrlr0_sx386 quick_test/mfcc/raw_mfcc_train.4.ark:1204117
mjpm0_sx378 quick_test/mfcc/raw_mfcc_train.3.ark:1411775
mwac0_sx161 quick_test/mfcc/raw_mfcc_train.4.ark:3438968
mntw0_sx202 quick_test/mfcc/raw_mfcc_train.3.ark:3492283
fgrw0_si1782 quick_test/mfcc/raw_mfcc_train.1.ark:1476954
mjpm0_sx198 quick_test/mfcc/raw_mfcc_train.3.ark:1403038
msah1_si2309 quick_test/mfcc/raw_mfcc_train.4.ark:1712286
mhmr0_si489 quick_test/mfcc/raw_mfcc_train.3.ark:426295
mtpp0_si878 quick_test/mfcc/raw_mfcc_train.4.ark:3076206
mmpm0_si2321 quick_test/mfcc/raw_mfcc_train.3.ark:3181462
fdas1_sx291 quick_test/mfcc/raw_mfcc_train.1.ark:810710
mdlc2_si2244 quick_test/mfcc/raw_mfcc_train.2.ark:2520528
mdss0_sx171 quick_test/mfcc/raw_mfcc_train.2.ark:2949516
fsbk0_sx349 quick_test/mfcc/raw_mfcc_train.1.ark:3678436
mlns0_si777 quick_test/mfcc/raw_mfcc_train.3.ark:2514481
mmpm0_sx341 quick_test/mfcc/raw_mfcc_train.3.ark:3195107
mdef0_si1563 quick_test/mfcc/raw_mfcc_train.2.ark:2224900
mchl0_sx87 quick_test/mfcc/raw_mfcc_train.2.ark:1706692
fbmj0_sx156 quick_test/mfcc/raw_mfcc_train.1.ark:388500
mesj0_sx187 quick_test/mfcc/raw_mfcc_train.2.ark:3355465
mnet0_sx276 quick_test/mfcc/raw_mfcc_train.3.ark:3458947
mdlc1_sx85 quick_test/mfcc/raw_mfcc_train.2.ark:2515403
fsjk1_sx305 quick_test/mfcc/raw_mfcc_train.2.ark:4023
mtat1_sx59 quick_test/mfcc/raw_mfcc_train.4.ark:2469070
mpmb0_sx241 quick_test/mfcc/raw_mfcc_train.3.ark:3718934
fdaw0_sx326 quick_test/mfcc/raw_mfcc_train.1.ark:840727
ftlg0_sx33 quick_test/mfcc/raw_mfcc_train.2.ark:529413
mtcs0_si712 quick_test/mfcc/raw_mfcc_train.4.ark:2508462
mreh1_sx159 quick_test/mfcc/raw_mfcc_train.4.ark:586190
mbom0_sx114 quick_test/mfcc/raw_mfcc_train.2.ark:1327104
fpjf0_si1046 quick_test/mfcc/raw_mfcc_train.1.ark:3365120
mbth0_sx122 quick_test/mfcc/raw_mfcc_train.2.ark:1381803
mrpc1_sx42 quick_test/mfcc/raw_mfcc_train.4.ark:1395238
mwsb0_si2256 quick_test/mfcc/raw_mfcc_train.4.ark:3713654
mctm0_sx450 quick_test/mfcc/raw_mfcc_train.2.ark:1923495
mkln0_si2228 quick_test/mfcc/raw_mfcc_train.3.ark:2146750
mrgs0_sx6 quick_test/mfcc/raw_mfcc_train.4.ark:801311
ftbw0_sx445 quick_test/mfcc/raw_mfcc_train.2.ark:495389
fjlg0_si1889 quick_test/mfcc/raw_mfcc_train.1.ark:1718782
flac0_sx451 quick_test/mfcc/raw_mfcc_train.1.ark:2347031
mdbb1_sx106 quick_test/mfcc/raw_mfcc_train.2.ark:2038269
mrpc1_sx132 quick_test/mfcc/raw_mfcc_train.4.ark:1380040
mfxv0_si1005 quick_test/mfcc/raw_mfcc_train.2.ark:3552935
mrdd0_sx330 quick_test/mfcc/raw_mfcc_train.4.ark:467981
fjdm2_sx412 quick_test/mfcc/raw_mfcc_train.1.ark:1607814
fsjs0_sx361 quick_test/mfcc/raw_mfcc_train.2.ark:36281
mdpb0_si1760 quick_test/mfcc/raw_mfcc_train.2.ark:2777999
mmdm1_sx243 quick_test/mfcc/raw_mfcc_train.3.ark:2923861
fpmy0_sx343 quick_test/mfcc/raw_mfcc_train.1.ark:3455184
flod0_sx117 quick_test/mfcc/raw_mfcc_train.1.ark:2733836
mdpk0_sx423 quick_test/mfcc/raw_mfcc_train.2.ark:2833986
fsdc0_si1942 quick_test/mfcc/raw_mfcc_train.1.ark:3739465
fdaw0_sx236 quick_test/mfcc/raw_mfcc_train.1.ark:837353
mmwb0_sx359 quick_test/mfcc/raw_mfcc_train.3.ark:3340012
flhd0_sx354 quick_test/mfcc/raw_mfcc_train.1.ark:2474849
mprd0_sx81 quick_test/mfcc/raw_mfcc_train.4.ark:87025
fmem0_si2007 quick_test/mfcc/raw_mfcc_train.1.ark:2853482
mclk0_sx130 quick_test/mfcc/raw_mfcc_train.2.ark:1725208
mwsh0_sx166 quick_test/mfcc/raw_mfcc_train.4.ark:3754062
mjmd0_sx398 quick_test/mfcc/raw_mfcc_train.3.ark:1320227
mlsh0_si2047 quick_test/mfcc/raw_mfcc_train.3.ark:2541740
mtab0_si1572 quick_test/mfcc/raw_mfcc_train.4.ark:2339071
mpmb0_sx61 quick_test/mfcc/raw_mfcc_train.3.ark:3736985
msmc0_sx17 quick_test/mfcc/raw_mfcc_train.4.ark:2122213
mdwm0_sx376 quick_test/mfcc/raw_mfcc_train.2.ark:3116235
mpgh0_si675 quick_test/mfcc/raw_mfcc_train.3.ark:3604211
fskl0_sx359 quick_test/mfcc/raw_mfcc_train.2.ark:133354
mchl0_sx267 quick_test/mfcc/raw_mfcc_train.2.ark:1694478
frll0_si805 quick_test/mfcc/raw_mfcc_train.1.ark:3525988
mpgh0_sx114 quick_test/mfcc/raw_mfcc_train.3.ark:3612909
flet0_si1767 quick_test/mfcc/raw_mfcc_train.1.ark:2429055
mhmr0_si1692 quick_test/mfcc/raw_mfcc_train.3.ark:420282
mdlr1_si1929 quick_test/mfcc/raw_mfcc_train.2.ark:2647531
mrso0_si1659 quick_test/mfcc/raw_mfcc_train.4.ark:1443579
mntw0_si2328 quick_test/mfcc/raw_mfcc_train.3.ark:3486731
mrcg0_sx258 quick_test/mfcc/raw_mfcc_train.4.ark:395871
falr0_si695 quick_test/mfcc/raw_mfcc_train.1.ark:109381
fcke0_si481 quick_test/mfcc/raw_mfcc_train.1.ark:600572
mrlk0_si1468 quick_test/mfcc/raw_mfcc_train.4.ark:1144146
fklc0_sx85 quick_test/mfcc/raw_mfcc_train.1.ark:2224426
mbsb0_sx183 quick_test/mfcc/raw_mfcc_train.2.ark:1356126
fntb0_sx303 quick_test/mfcc/raw_mfcc_train.1.ark:3180123
feac0_sx435 quick_test/mfcc/raw_mfcc_train.1.ark:1145945
mcal0_sx58 quick_test/mfcc/raw_mfcc_train.2.ark:1504966
marw0_si646 quick_test/mfcc/raw_mfcc_train.2.ark:1010795
fjxp0_sx312 quick_test/mfcc/raw_mfcc_train.1.ark:2005787
fpaf0_sx244 quick_test/mfcc/raw_mfcc_train.1.ark:3315064
mkxl0_sx195 quick_test/mfcc/raw_mfcc_train.3.ark:2353926
mwem0_sx150 quick_test/mfcc/raw_mfcc_train.4.ark:3590356
fnkl0_sx196 quick_test/mfcc/raw_mfcc_train.1.ark:3144908
fjen0_sx327 quick_test/mfcc/raw_mfcc_train.1.ark:1636894
mjfh0_si1107 quick_test/mfcc/raw_mfcc_train.3.ark:942575
mrxb0_sx325 quick_test/mfcc/raw_mfcc_train.4.ark:1695830
mpfu0_si1258 quick_test/mfcc/raw_mfcc_train.3.ark:3565225
mdss1_sx427 quick_test/mfcc/raw_mfcc_train.2.ark:2989010
mjxa0_si877 quick_test/mfcc/raw_mfcc_train.3.ark:1794092
mmpm0_sx71 quick_test/mfcc/raw_mfcc_train.3.ark:3203518
mbef0_si1911 quick_test/mfcc/raw_mfcc_train.2.ark:1134776
mter0_sx167 quick_test/mfcc/raw_mfcc_train.4.ark:2621559
fmem0_sx297 quick_test/mfcc/raw_mfcc_train.1.ark:2869370
mwsh0_sx76 quick_test/mfcc/raw_mfcc_train.4.ark:3772198
mjai0_sx344 quick_test/mfcc/raw_mfcc_train.3.ark:633523
mrav0_sx198 quick_test/mfcc/raw_mfcc_train.4.ark:335495
falk0_sx6 quick_test/mfcc/raw_mfcc_train.1.ark:94090
mntw0_si1068 quick_test/mfcc/raw_mfcc_train.3.ark:3473039
mhit0_si1613 quick_test/mfcc/raw_mfcc_train.3.ark:328868
feac0_sx255 quick_test/mfcc/raw_mfcc_train.1.ark:1138820
mmcc0_si1968 quick_test/mfcc/raw_mfcc_train.3.ark:2786748
mrdm0_sx65 quick_test/mfcc/raw_mfcc_train.4.ark:505627
mvrw0_sx225 quick_test/mfcc/raw_mfcc_train.4.ark:3413321
fdjh0_si2195 quick_test/mfcc/raw_mfcc_train.1.ark:883298
mgaf0_si1912 quick_test/mfcc/raw_mfcc_train.2.ark:3589245
mljh0_sx154 quick_test/mfcc/raw_mfcc_train.3.ark:2483712
freh0_sx145 quick_test/mfcc/raw_mfcc_train.1.ark:3477593
fgrw0_si1152 quick_test/mfcc/raw_mfcc_train.1.ark:1470030
mpgr1_sx239 quick_test/mfcc/raw_mfcc_train.3.ark:3673494
fsma0_si1621 quick_test/mfcc/raw_mfcc_train.2.ark:208955
fsgf0_sx207 quick_test/mfcc/raw_mfcc_train.1.ark:3811816
ftmg0_si1532 quick_test/mfcc/raw_mfcc_train.2.ark:536435
mtdb0_sx51 quick_test/mfcc/raw_mfcc_train.4.ark:2565532
mgaw0_sx85 quick_test/mfcc/raw_mfcc_train.3.ark:60258
mwdk0_sx266 quick_test/mfcc/raw_mfcc_train.4.ark:3565514
mcae0_si817 quick_test/mfcc/raw_mfcc_train.2.ark:1451278
fsjs0_sx91 quick_test/mfcc/raw_mfcc_train.2.ark:45199
fjkl0_si1562 quick_test/mfcc/raw_mfcc_train.1.ark:1685801
mkah0_si1528 quick_test/mfcc/raw_mfcc_train.3.ark:1884207
flod0_si1287 quick_test/mfcc/raw_mfcc_train.1.ark:2721542
mklr0_sx69 quick_test/mfcc/raw_mfcc_train.3.ark:2198134
mjpm1_si1897 quick_test/mfcc/raw_mfcc_train.3.ark:1415878
mtkp0_sx123 quick_test/mfcc/raw_mfcc_train.4.ark:2826806
mjsr0_si1424 quick_test/mfcc/raw_mfcc_train.3.ark:1636394
flja0_si1078 quick_test/mfcc/raw_mfcc_train.1.ark:2486271
mbcg0_sx327 quick_test/mfcc/raw_mfcc_train.2.ark:1117535
mapv0_si1923 quick_test/mfcc/raw_mfcc_train.2.ark:949262
mnet0_si2076 quick_test/mfcc/raw_mfcc_train.3.ark:3449826
falr0_si1325 quick_test/mfcc/raw_mfcc_train.1.ark:101592
mdmt0_sx302 quick_test/mfcc/raw_mfcc_train.2.ark:2734488
fbmj0_sx426 quick_test/mfcc/raw_mfcc_train.1.ark:402678
fjwb1_sx255 quick_test/mfcc/raw_mfcc_train.1.ark:1936480
mree0_si1734 quick_test/mfcc/raw_mfcc_train.4.ark:543348
fhxs0_sx175 quick_test/mfcc/raw_mfcc_train.1.ark:1560363
fcmm0_sx420 quick_test/mfcc/raw_mfcc_train.1.ark:711090
mgaf0_si652 quick_test/mfcc/raw_mfcc_train.2.ark:3594270
mrmh0_si1349 quick_test/mfcc/raw_mfcc_train.4.ark:1274877
mjjm0_sx197 quick_test/mfcc/raw_mfcc_train.3.ark:1127365
mtbc0_sx93 quick_test/mfcc/raw_mfcc_train.4.ark:2501055
mjxa0_sx157 quick_test/mfcc/raw_mfcc_train.3.ark:1797570
mclk0_sx220 quick_test/mfcc/raw_mfcc_train.2.ark:1728569
fsmm0_sx54 quick_test/mfcc/raw_mfcc_train.2.ark:273671
mwdk0_si1436 quick_test/mfcc/raw_mfcc_train.4.ark:3547727
maeb0_sx450 quick_test/mfcc/raw_mfcc_train.2.ark:778314
mchl0_si1404 quick_test/mfcc/raw_mfcc_train.2.ark:1683848
fmah1_si2139 quick_test/mfcc/raw_mfcc_train.1.ark:2788824
mtkd0_si630 quick_test/mfcc/raw_mfcc_train.4.ark:2783426
fecd0_sx428 quick_test/mfcc/raw_mfcc_train.1.ark:1217065
mjeb0_sx26 quick_test/mfcc/raw_mfcc_train.3.ark:865973
mlbc0_si1869 quick_test/mfcc/raw_mfcc_train.3.ark:2369205
fgdp0_si1618 quick_test/mfcc/raw_mfcc_train.1.ark:1394464
msfv0_si1892 quick_test/mfcc/raw_mfcc_train.4.ark:2036020
mcdc0_si662 quick_test/mfcc/raw_mfcc_train.2.ark:1516949
mmab1_si2124 quick_test/mfcc/raw_mfcc_train.3.ark:2606997
mjjm0_sx287 quick_test/mfcc/raw_mfcc_train.3.ark:1130934
fjlr0_sx61 quick_test/mfcc/raw_mfcc_train.1.ark:1776640
mtwh1_sx432 quick_test/mfcc/raw_mfcc_train.4.ark:3289736
maeo0_sx66 quick_test/mfcc/raw_mfcc_train.2.ark:813842
fkaa0_si578 quick_test/mfcc/raw_mfcc_train.1.ark:2025492
mtlc0_si847 quick_test/mfcc/raw_mfcc_train.4.ark:2888845
ftlg0_sx393 quick_test/mfcc/raw_mfcc_train.2.ark:532813
mrew1_sx330 quick_test/mfcc/raw_mfcc_train.4.ark:656556
milb0_si2163 quick_test/mfcc/raw_mfcc_train.3.ark:514590
fcjf0_sx397 quick_test/mfcc/raw_mfcc_train.1.ark:559464
mgsl0_sx444 quick_test/mfcc/raw_mfcc_train.3.ark:254786
mhxl0_sx242 quick_test/mfcc/raw_mfcc_train.3.ark:496752
mrmb0_si951 quick_test/mfcc/raw_mfcc_train.4.ark:1214280
mrms0_sx390 quick_test/mfcc/raw_mfcc_train.4.ark:1366892
msmr0_sx235 quick_test/mfcc/raw_mfcc_train.4.ark:2154810
feme0_sx245 quick_test/mfcc/raw_mfcc_train.1.ark:1277511
mrav0_si1638 quick_test/mfcc/raw_mfcc_train.4.ark:319516
mdma0_sx170 quick_test/mfcc/raw_mfcc_train.2.ark:2689476
flma0_si613 quick_test/mfcc/raw_mfcc_train.1.ark:2636001
mjfh0_sx387 quick_test/mfcc/raw_mfcc_train.3.ark:965114
fcdr1_si1816 quick_test/mfcc/raw_mfcc_train.1.ark:475758
mjrh1_sx334 quick_test/mfcc/raw_mfcc_train.3.ark:1567190
mkaj0_si784 quick_test/mfcc/raw_mfcc_train.3.ark:1925034
fljg0_si981 quick_test/mfcc/raw_mfcc_train.1.ark:2561177
fdtd0_si2191 quick_test/mfcc/raw_mfcc_train.1.ark:1061555
mdlb0_si1936 quick_test/mfcc/raw_mfcc_train.2.ark:2421205
mpgr1_sx149 quick_test/mfcc/raw_mfcc_train.3.ark:3668794
mrmg0_sx360 quick_test/mfcc/raw_mfcc_train.4.ark:1257610
madd0_si538 quick_test/mfcc/raw_mfcc_train.2.ark:729583
fmkc0_si1702 quick_test/mfcc/raw_mfcc_train.1.ark:2995157
mfxs0_sx414 quick_test/mfcc/raw_mfcc_train.2.ark:3544224
mmdb0_sx447 quick_test/mfcc/raw_mfcc_train.3.ark:2835967
mjpm0_sx18 quick_test/mfcc/raw_mfcc_train.3.ark:1399781
mmam0_sx337 quick_test/mfcc/raw_mfcc_train.3.ark:2693824
msvs0_sx218 quick_test/mfcc/raw_mfcc_train.4.ark:2319660
fpab1_sx31 quick_test/mfcc/raw_mfcc_train.1.ark:3221136
ftaj0_si474 quick_test/mfcc/raw_mfcc_train.2.ark:415524
mjma0_sx325 quick_test/mfcc/raw_mfcc_train.3.ark:1286382
fpab1_sx211 quick_test/mfcc/raw_mfcc_train.1.ark:3211971
fcke0_sx211 quick_test/mfcc/raw_mfcc_train.1.ark:610232
mjpm0_si1368 quick_test/mfcc/raw_mfcc_train.3.ark:1381878
mrjm1_sx218 quick_test/mfcc/raw_mfcc_train.4.ark:966917
fsms1_si2134 quick_test/mfcc/raw_mfcc_train.2.ark:282176
msfv0_sx182 quick_test/mfcc/raw_mfcc_train.4.ark:2047500
mmdm0_sx321 quick_test/mfcc/raw_mfcc_train.3.ark:2895614
mrjm0_si1858 quick_test/mfcc/raw_mfcc_train.4.ark:924050
mtpg0_si1383 quick_test/mfcc/raw_mfcc_train.4.ark:3038330
fear0_sx442 quick_test/mfcc/raw_mfcc_train.1.ark:1179139
mcth0_sx39 quick_test/mfcc/raw_mfcc_train.2.ark:1891392
mreh1_sx249 quick_test/mfcc/raw_mfcc_train.4.ark:590916
mjbg0_si1232 quick_test/mfcc/raw_mfcc_train.3.ark:642826
flkm0_si620 quick_test/mfcc/raw_mfcc_train.1.ark:2596352
mvjh0_sx116 quick_test/mfcc/raw_mfcc_train.4.ark:3349266
mrjm0_si1095 quick_test/mfcc/raw_mfcc_train.4.ark:917313
mtcs0_sx82 quick_test/mfcc/raw_mfcc_train.4.ark:2532559
mjjj0_sx263 quick_test/mfcc/raw_mfcc_train.3.ark:1089719
mtmn0_si582 quick_test/mfcc/raw_mfcc_train.4.ark:2951087
mjjb0_sx59 quick_test/mfcc/raw_mfcc_train.3.ark:1066568
mjlb0_si986 quick_test/mfcc/raw_mfcc_train.3.ark:1180824
mkls1_sx285 quick_test/mfcc/raw_mfcc_train.3.ark:2260590
mges0_sx131 quick_test/mfcc/raw_mfcc_train.3.ark:71689
fklc0_si2245 quick_test/mfcc/raw_mfcc_train.1.ark:2196656
mpsw0_si2327 quick_test/mfcc/raw_mfcc_train.4.ark:165097
mgar0_si1212 quick_test/mfcc/raw_mfcc_train.3.ark:13
mtkp0_sx213 quick_test/mfcc/raw_mfcc_train.4.ark:2830739
msvs0_sx308 quick_test/mfcc/raw_mfcc_train.4.ark:2324334
fbcg1_sx352 quick_test/mfcc/raw_mfcc_train.1.ark:225067
mjeb1_sx117 quick_test/mfcc/raw_mfcc_train.3.ark:893044
mrfk0_sx356 quick_test/mfcc/raw_mfcc_train.4.ark:688607
mlbc0_sx429 quick_test/mfcc/raw_mfcc_train.3.ark:2387466
mrtc0_si1458 quick_test/mfcc/raw_mfcc_train.4.ark:1509635
mfwk0_si1249 quick_test/mfcc/raw_mfcc_train.2.ark:3490394
fdjh0_sx125 quick_test/mfcc/raw_mfcc_train.1.ark:892997
fgrw0_sx432 quick_test/mfcc/raw_mfcc_train.1.ark:1498674
mtbc0_sx183 quick_test/mfcc/raw_mfcc_train.4.ark:2484440
mbsb0_si723 quick_test/mfcc/raw_mfcc_train.2.ark:1351192
mjfr0_si2235 quick_test/mfcc/raw_mfcc_train.3.ark:973073
fjrb0_sx222 quick_test/mfcc/raw_mfcc_train.1.ark:1794812
fcmm0_sx273 quick_test/mfcc/raw_mfcc_train.1.ark:703835
mjjb0_sx239 quick_test/mfcc/raw_mfcc_train.3.ark:1053132
mjrh1_si1774 quick_test/mfcc/raw_mfcc_train.3.ark:1551614
mrld0_sx424 quick_test/mfcc/raw_mfcc_train.4.ark:1079875
mjkr0_sx301 quick_test/mfcc/raw_mfcc_train.3.ark:1161327
fblv0_sx428 quick_test/mfcc/raw_mfcc_train.1.ark:334354
mrds0_sx177 quick_test/mfcc/raw_mfcc_train.4.ark:520165
