mdma0_sx440 quick_test/fbank/raw_fbank_train.2.ark:8282259
mdbp0_sx438 quick_test/fbank/raw_fbank_train.2.ark:6368262
fsag0_sx243 quick_test/fbank/raw_fbank_train.1.ark:10930207
fkde0_sx61 quick_test/fbank/raw_fbank_train.1.ark:6379341
marc0_sx198 quick_test/fbank/raw_fbank_train.2.ark:3040583
mtwh1_si882 quick_test/fbank/raw_fbank_train.4.ark:10024428
feeh0_sx32 quick_test/fbank/raw_fbank_train.1.ark:3828819
fdjh0_si1565 quick_test/fbank/raw_fbank_train.1.ark:2692888
mjeb1_si2097 quick_test/fbank/raw_fbank_train.3.ark:2698197
mkln0_sx68 quick_test/fbank/raw_fbank_train.3.ark:6639569
mrlk0_sx123 quick_test/fbank/raw_fbank_train.4.ark:3549415
mbwp0_sx349 quick_test/fbank/raw_fbank_train.2.ark:4350373
mjpm0_si1998 quick_test/fbank/raw_fbank_train.3.ark:4246199
fsak0_sx220 quick_test/fbank/raw_fbank_train.1.ark:11149057
fsbk0_si1699 quick_test/fbank/raw_fbank_train.1.ark:11215303
fsma0_sx91 quick_test/fbank/raw_fbank_train.2.ark:733726
fcmg0_sx252 quick_test/fbank/raw_fbank_train.1.ark:2056444
fpmy0_si523 quick_test/fbank/raw_fbank_train.1.ark:10517281
fpls0_si2220 quick_test/fbank/raw_fbank_train.1.ark:10404865
mmam0_si2227 quick_test/fbank/raw_fbank_train.3.ark:8213049
fbmh0_si1136 quick_test/fbank/raw_fbank_train.1.ark:1048380
mjrp0_sx45 quick_test/fbank/raw_fbank_train.3.ark:4996452
mppc0_si1412 quick_test/fbank/raw_fbank_train.3.ark:11454885
mjbg0_si1232 quick_test/fbank/raw_fbank_train.3.ark:1966906
fdxw0_sx431 quick_test/fbank/raw_fbank_train.1.ark:3409960
fpac0_si661 quick_test/fbank/raw_fbank_train.1.ark:9906572
mpgh0_sx24 quick_test/fbank/raw_fbank_train.3.ark:11073669
mwsb0_sx96 quick_test/fbank/raw_fbank_train.4.ark:11430545
msmc0_sx377 quick_test/fbank/raw_fbank_train.4.ark:6526999
fdkn0_si1202 quick_test/fbank/raw_fbank_train.1.ark:2799427
fsgf0_sx207 quick_test/fbank/raw_fbank_train.1.ark:11666143
mwdk0_sx176 quick_test/fbank/raw_fbank_train.4.ark:10896090
fclt0_sx358 quick_test/fbank/raw_fbank_train.1.ark:1965411
mpgh0_sx204 quick_test/fbank/raw_fbank_train.3.ark:11064797
mdtb0_si1830 quick_test/fbank/raw_fbank_train.2.ark:9174784
mbjv0_sx257 quick_test/fbank/raw_fbank_train.2.ark:3692806
mhit0_sx353 quick_test/fbank/raw_fbank_train.3.ark:1070425
fvmh0_sx386 quick_test/fbank/raw_fbank_train.2.ark:2011731
mbth0_si505 quick_test/fbank/raw_fbank_train.2.ark:4206936
mtpf0_sx335 quick_test/fbank/raw_fbank_train.4.ark:9267608
mjjb0_sx239 quick_test/fbank/raw_fbank_train.3.ark:3222501
fbmj0_sx156 quick_test/fbank/raw_fbank_train.1.ark:1189104
mejl0_sx62 quick_test/fbank/raw_fbank_train.2.ark:10017379
mjda0_si2291 quick_test/fbank/raw_fbank_train.3.ark:2082960
mwem0_si1393 quick_test/fbank/raw_fbank_train.4.ark:10968209
mpmb0_sx241 quick_test/fbank/raw_fbank_train.3.ark:11379833
ftbw0_sx175 quick_test/fbank/raw_fbank_train.2.ark:1476675
mbbr0_si1055 quick_test/fbank/raw_fbank_train.2.ark:3272973
mtat0_sx390 quick_test/fbank/raw_fbank_train.4.ark:7440542
fsls0_sx246 quick_test/fbank/raw_fbank_train.2.ark:603996
mpgr0_sx60 quick_test/fbank/raw_fbank_train.3.ark:11177440
mtat1_sx419 quick_test/fbank/raw_fbank_train.4.ark:7540975
mcdc0_sx212 quick_test/fbank/raw_fbank_train.2.ark:4665333
mwsh0_sx256 quick_test/fbank/raw_fbank_train.4.ark:11505192
mrmg0_si2340 quick_test/fbank/raw_fbank_train.4.ark:3811218
fbmj0_si516 quick_test/fbank/raw_fbank_train.1.ark:1162598
mcss0_sx120 quick_test/fbank/raw_fbank_train.2.ark:5657790
msds0_sx447 quick_test/fbank/raw_fbank_train.4.ark:5860057
mjdc0_sx261 quick_test/fbank/raw_fbank_train.3.ark:2208331
feac0_sx165 quick_test/fbank/raw_fbank_train.1.ark:3470486
fjwb1_si795 quick_test/fbank/raw_fbank_train.1.ark:5903916
fjwb1_sx165 quick_test/fbank/raw_fbank_train.1.ark:5914949
fsdj0_si1115 quick_test/fbank/raw_fbank_train.1.ark:11519145
mjlg1_sx22 quick_test/fbank/raw_fbank_train.3.ark:3736059
fskl0_sx269 quick_test/fbank/raw_fbank_train.2.ark:399472
mmeb0_sx327 quick_test/fbank/raw_fbank_train.3.ark:9208565
mtrt0_sx417 quick_test/fbank/raw_fbank_train.4.ark:9980815
mdem0_sx248 quick_test/fbank/raw_fbank_train.2.ark:6939226
mprd0_sx351 quick_test/fbank/raw_fbank_train.4.ark:239695
mdcd0_sx335 quick_test/fbank/raw_fbank_train.2.ark:6457734
mcre0_si1751 quick_test/fbank/raw_fbank_train.2.ark:5533934
mbth0_sx32 quick_test/fbank/raw_fbank_train.2.ark:4267740
mmea0_si1388 quick_test/fbank/raw_fbank_train.3.ark:9082167
mjrh1_sx64 quick_test/fbank/raw_fbank_train.3.ark:4816042
fgmb0_si1145 quick_test/fbank/raw_fbank_train.1.ark:4384012
mkln0_sx428 quick_test/fbank/raw_fbank_train.3.ark:6625697
mrjh0_si1519 quick_test/fbank/raw_fbank_train.4.ark:2688756
mjdg0_sx322 quick_test/fbank/raw_fbank_train.3.ark:2441334
mkrg0_si2121 quick_test/fbank/raw_fbank_train.3.ark:7059900
fhxs0_sx265 quick_test/fbank/raw_fbank_train.1.ark:4794663
mtjm0_si1226 quick_test/fbank/raw_fbank_train.4.ark:8182951
mgsl0_sx444 quick_test/fbank/raw_fbank_train.3.ark:779666
mlbc0_si1869 quick_test/fbank/raw_fbank_train.3.ark:7249590
mmag0_si496 quick_test/fbank/raw_fbank_train.3.ark:8108063
mrbc0_sx329 quick_test/fbank/raw_fbank_train.4.ark:1118241
mdsj0_si1462 quick_test/fbank/raw_fbank_train.2.ark:8896395
mmrp0_si717 quick_test/fbank/raw_fbank_train.3.ark:9819321
maeb0_si990 quick_test/fbank/raw_fbank_train.2.ark:2334347
fcag0_sx63 quick_test/fbank/raw_fbank_train.1.ark:1336101
mrwa0_sx253 quick_test/fbank/raw_fbank_train.4.ark:4988282
mmag0_si1126 quick_test/fbank/raw_fbank_train.3.ark:8076636
msat0_sx86 quick_test/fbank/raw_fbank_train.4.ark:5488266
mclk0_sx130 quick_test/fbank/raw_fbank_train.2.ark:5278651
ftbr0_sx381 quick_test/fbank/raw_fbank_train.2.ark:1427661
mtlb0_sx144 quick_test/fbank/raw_fbank_train.4.ark:8740096
mjlg1_sx112 quick_test/fbank/raw_fbank_train.3.ark:3717274
meal0_sx107 quick_test/fbank/raw_fbank_train.2.ark:9587231
mbma0_sx322 quick_test/fbank/raw_fbank_train.2.ark:3796224
mpmb0_sx421 quick_test/fbank/raw_fbank_train.3.ark:11411099
mdcm0_sx220 quick_test/fbank/raw_fbank_train.2.ark:6544366
mdmt0_sx122 quick_test/fbank/raw_fbank_train.2.ark:8339145
fajw0_sx183 quick_test/fbank/raw_fbank_train.1.ark:151578
mdlc0_si1395 quick_test/fbank/raw_fbank_train.2.ark:7502404
mgsl0_sx264 quick_test/fbank/raw_fbank_train.3.ark:755880
mrvg0_si1140 quick_test/fbank/raw_fbank_train.4.ark:4854044
mdbp0_sx348 quick_test/fbank/raw_fbank_train.2.ark:6353469
mddc0_si2049 quick_test/fbank/raw_fbank_train.2.ark:6608372
mwch0_si1622 quick_test/fbank/raw_fbank_train.4.ark:10772924
mjwt0_sx301 quick_test/fbank/raw_fbank_train.3.ark:5429366
mtbc0_sx347 quick_test/fbank/raw_fbank_train.4.ark:7623687
fnkl0_sx82 quick_test/fbank/raw_fbank_train.1.ark:9656382
fdfb0_sx238 quick_test/fbank/raw_fbank_train.1.ark:2648116
fsjs0_sx361 quick_test/fbank/raw_fbank_train.2.ark:110990
mtmt0_si1748 quick_test/fbank/raw_fbank_train.4.ark:9119451
mrpc1_sx312 quick_test/fbank/raw_fbank_train.4.ark:4243660
mcal0_si508 quick_test/fbank/raw_fbank_train.2.ark:4546682
mcal0_si1138 quick_test/fbank/raw_fbank_train.2.ark:4523335
mcxm0_si1351 quick_test/fbank/raw_fbank_train.2.ark:5906405
mrsp0_si1429 quick_test/fbank/raw_fbank_train.4.ark:4515449
falr0_sx425 quick_test/fbank/raw_fbank_train.1.ark:385482
madd0_sx178 quick_test/fbank/raw_fbank_train.2.ark:2243915
mdbb1_si2056 quick_test/fbank/raw_fbank_train.2.ark:6220745
mdlh0_sx430 quick_test/fbank/raw_fbank_train.2.ark:7874398
mfer0_sx322 quick_test/fbank/raw_fbank_train.2.ark:10450837
mdem0_sx158 quick_test/fbank/raw_fbank_train.2.ark:6928233
flhd0_sx354 quick_test/fbank/raw_fbank_train.1.ark:7574339
frll0_sx164 quick_test/fbank/raw_fbank_train.1.ark:10824829
mesj0_sx277 quick_test/fbank/raw_fbank_train.2.ark:10273516
medr0_sx384 quick_test/fbank/raw_fbank_train.2.ark:9716948
flja0_sx178 quick_test/fbank/raw_fbank_train.1.ark:7646939
mntw0_si1698 quick_test/fbank/raw_fbank_train.3.ark:10648958
mvrw0_sx45 quick_test/fbank/raw_fbank_train.4.ark:10471173
mmjb1_sx148 quick_test/fbank/raw_fbank_train.3.ark:9561912
mdns0_sx111 quick_test/fbank/raw_fbank_train.2.ark:8449450
mclk0_sx400 quick_test/fbank/raw_fbank_train.2.ark:5324102
mdlc1_sx175 quick_test/fbank/raw_fbank_train.2.ark:7650210
mprk0_sx197 quick_test/fbank/raw_fbank_train.4.ark:355279
mdas0_si1896 quick_test/fbank/raw_fbank_train.2.ark:6116729
mcxm0_sx361 quick_test/fbank/raw_fbank_train.2.ark:5968851
mtwh1_sx72 quick_test/fbank/raw_fbank_train.4.ark:10081832
mppc0_sx332 quick_test/fbank/raw_fbank_train.4.ark:12125
mkaj0_sx424 quick_test/fbank/raw_fbank_train.3.ark:5931403
mdlc2_si2244 quick_test/fbank/raw_fbank_train.2.ark:7712169
mrlj1_si2332 quick_test/fbank/raw_fbank_train.4.ark:3442757
mded0_sx450 quick_test/fbank/raw_fbank_train.2.ark:6762322
mwch0_si1895 quick_test/fbank/raw_fbank_train.4.ark:10785318
mgak0_si2296 quick_test/fbank/raw_fbank_train.2.ark:11173381
mrai0_sx252 quick_test/fbank/raw_fbank_train.4.ark:822571
fksr0_sx366 quick_test/fbank/raw_fbank_train.1.ark:7077292
fsak0_sx310 quick_test/fbank/raw_fbank_train.1.ark:11163130
mjmm0_sx265 quick_test/fbank/raw_fbank_train.3.ark:4104048
mjpg0_si1191 quick_test/fbank/raw_fbank_train.3.ark:4143660
mrab0_si1854 quick_test/fbank/raw_fbank_train.4.ark:574822
flkm0_si686 quick_test/fbank/raw_fbank_train.1.ark:7967940
mrcg0_si798 quick_test/fbank/raw_fbank_train.4.ark:1185287
mrmb0_sx411 quick_test/fbank/raw_fbank_train.4.ark:3765324
mbom0_sx311 quick_test/fbank/raw_fbank_train.2.ark:4089973
mmaa0_sx35 quick_test/fbank/raw_fbank_train.3.ark:7948704
msfv0_si1262 quick_test/fbank/raw_fbank_train.4.ark:6221279
mmds0_sx83 quick_test/fbank/raw_fbank_train.3.ark:9072653
mtxs0_sx160 quick_test/fbank/raw_fbank_train.4.ark:10133927
fpjf0_sx236 quick_test/fbank/raw_fbank_train.1.ark:10347659
mses0_sx329 quick_test/fbank/raw_fbank_train.4.ark:6069395
fbmj0_sx336 quick_test/fbank/raw_fbank_train.1.ark:1213170
mjdc0_si1161 quick_test/fbank/raw_fbank_train.3.ark:2153998
flmc0_si1372 quick_test/fbank/raw_fbank_train.1.ark:8132803
fjrp1_si2062 quick_test/fbank/raw_fbank_train.1.ark:5576648
mjpg0_si1821 quick_test/fbank/raw_fbank_train.3.ark:4153574
fdfb0_sx418 quick_test/fbank/raw_fbank_train.1.ark:2668262
fsdj0_sx125 quick_test/fbank/raw_fbank_train.1.ark:11556085
mdmt0_sx32 quick_test/fbank/raw_fbank_train.2.ark:8378603
mjfh0_sx27 quick_test/fbank/raw_fbank_train.3.ark:2937578
fkfb0_si978 quick_test/fbank/raw_fbank_train.1.ark:6519627
mdcd0_sx425 quick_test/fbank/raw_fbank_train.2.ark:6475527
mdpb0_sx236 quick_test/fbank/raw_fbank_train.2.ark:8560908
mrlr0_si566 quick_test/fbank/raw_fbank_train.4.ark:3628967
mmcc0_sx438 quick_test/fbank/raw_fbank_train.3.ark:8582536
mjlb0_si1616 quick_test/fbank/raw_fbank_train.3.ark:3587108
mhmr0_si489 quick_test/fbank/raw_fbank_train.3.ark:1304362
mpgh0_sx384 quick_test/fbank/raw_fbank_train.3.ark:11090095
mtas0_sx125 quick_test/fbank/raw_fbank_train.4.ark:7306146
fmjf0_si624 quick_test/fbank/raw_fbank_train.1.ark:8947831
msrg0_sx51 quick_test/fbank/raw_fbank_train.4.ark:6818954
mpfu0_sx268 quick_test/fbank/raw_fbank_train.3.ark:10959973
mmdm1_sx153 quick_test/fbank/raw_fbank_train.3.ark:8928537
msah1_sx239 quick_test/fbank/raw_fbank_train.4.ark:5263158
mprb0_sx395 quick_test/fbank/raw_fbank_train.4.ark:152335
mgaf0_sx202 quick_test/fbank/raw_fbank_train.2.ark:11015837
mtdb0_sx141 quick_test/fbank/raw_fbank_train.4.ark:7805471
mdcm0_si1480 quick_test/fbank/raw_fbank_train.2.ark:6492473
fceg0_sx438 quick_test/fbank/raw_fbank_train.1.ark:1621624
mpsw0_sx167 quick_test/fbank/raw_fbank_train.4.ark:513984
mkls0_si1437 quick_test/fbank/raw_fbank_train.3.ark:6736749
mwar0_sx145 quick_test/fbank/raw_fbank_train.4.ark:10717679
flma0_si1243 quick_test/fbank/raw_fbank_train.1.ark:8045578
mpsw0_sx77 quick_test/fbank/raw_fbank_train.4.ark:554594
mrds0_sx267 quick_test/fbank/raw_fbank_train.4.ark:1600014
mjrg0_sx106 quick_test/fbank/raw_fbank_train.3.ark:4567020
mejl0_si1654 quick_test/fbank/raw_fbank_train.2.ark:9951382
mgrl0_sx237 quick_test/fbank/raw_fbank_train.3.ark:434928
mrgm0_sx172 quick_test/fbank/raw_fbank_train.4.ark:2297677
mcew0_si1442 quick_test/fbank/raw_fbank_train.2.ark:5006220
mwdk0_sx86 quick_test/fbank/raw_fbank_train.4.ark:10945381
mrlk0_si1468 quick_test/fbank/raw_fbank_train.4.ark:3501435
mcth0_sx399 quick_test/fbank/raw_fbank_train.2.ark:5799346
mjde0_sx220 quick_test/fbank/raw_fbank_train.3.ark:2313875
fdaw0_sx146 quick_test/fbank/raw_fbank_train.1.ark:2551617
madc0_si737 quick_test/fbank/raw_fbank_train.2.ark:2134937
mtab0_sx312 quick_test/fbank/raw_fbank_train.4.ark:7233467
mrwa0_sx343 quick_test/fbank/raw_fbank_train.4.ark:4997035
mmea0_sx218 quick_test/fbank/raw_fbank_train.3.ark:9125700
mklr0_sx159 quick_test/fbank/raw_fbank_train.3.ark:6682224
mbar0_si1949 quick_test/fbank/raw_fbank_train.2.ark:3191702
fsah0_si1244 quick_test/fbank/raw_fbank_train.1.ark:10996139
mdas0_si636 quick_test/fbank/raw_fbank_train.2.ark:6133802
fdtd0_sx211 quick_test/fbank/raw_fbank_train.1.ark:3286828
fajw0_sx93 quick_test/fbank/raw_fbank_train.1.ark:196227
mrtc0_si1458 quick_test/fbank/raw_fbank_train.4.ark:4619954
mpar0_si946 quick_test/fbank/raw_fbank_train.3.ark:10756017
mjac0_si2148 quick_test/fbank/raw_fbank_train.3.ark:1677185
mjkr0_si571 quick_test/fbank/raw_fbank_train.3.ark:3513870
mrtc0_sx378 quick_test/fbank/raw_fbank_train.4.ark:4715385
mcth0_sx309 quick_test/fbank/raw_fbank_train.2.ark:5774081
mkln0_si1598 quick_test/fbank/raw_fbank_train.3.ark:6555058
mpsw0_sx257 quick_test/fbank/raw_fbank_train.4.ark:533609
mlbc0_sx249 quick_test/fbank/raw_fbank_train.3.ark:7285449
ftlg0_sx303 quick_test/fbank/raw_fbank_train.2.ark:1610605
msrr0_si1131 quick_test/fbank/raw_fbank_train.4.ark:6828548
mtat0_si811 quick_test/fbank/raw_fbank_train.4.ark:7385138
mdwh0_si1168 quick_test/fbank/raw_fbank_train.2.ark:9342801
fcjs0_si977 quick_test/fbank/raw_fbank_train.1.ark:1736222
makr0_sx452 quick_test/fbank/raw_fbank_train.2.ark:2865087
megj0_si707 quick_test/fbank/raw_fbank_train.2.ark:9859992
faem0_si1392 quick_test/fbank/raw_fbank_train.1.ark:13
fdxw0_si2141 quick_test/fbank/raw_fbank_train.1.ark:3352235
mwsb0_si2256 quick_test/fbank/raw_fbank_train.4.ark:11364590
fgcs0_sx226 quick_test/fbank/raw_fbank_train.1.ark:4224575
fvfb0_sx132 quick_test/fbank/raw_fbank_train.2.ark:1772430
mdlc2_sx444 quick_test/fbank/raw_fbank_train.2.ark:7768734
mhmr0_sx129 quick_test/fbank/raw_fbank_train.3.ark:1317835
mwch0_sx452 quick_test/fbank/raw_fbank_train.4.ark:10832124
fleh0_sx151 quick_test/fbank/raw_fbank_train.1.ark:7358062
mrav0_si1638 quick_test/fbank/raw_fbank_train.4.ark:977803
msdb0_si2267 quick_test/fbank/raw_fbank_train.4.ark:5614674
fsms1_si874 quick_test/fbank/raw_fbank_train.2.ark:875332
mcxm0_si1981 quick_test/fbank/raw_fbank_train.2.ark:5917839
mhxl0_si1772 quick_test/fbank/raw_fbank_train.3.ark:1472465
mjpm1_si761 quick_test/fbank/raw_fbank_train.3.ark:4346177
mrjm0_sx148 quick_test/fbank/raw_fbank_train.4.ark:2844121
mmgc0_sx45 quick_test/fbank/raw_fbank_train.3.ark:9338767
mcdd0_si883 quick_test/fbank/raw_fbank_train.2.ark:4733452
mbgt0_si1841 quick_test/fbank/raw_fbank_train.2.ark:3546402
mhmr0_si1692 quick_test/fbank/raw_fbank_train.3.ark:1285929
mjmd0_si1658 quick_test/fbank/raw_fbank_train.3.ark:3975083
msmr0_sx325 quick_test/fbank/raw_fbank_train.4.ark:6606479
fvkb0_sx79 quick_test/fbank/raw_fbank_train.2.ark:1915986
mcdd0_sx163 quick_test/fbank/raw_fbank_train.2.ark:4746205
fsah0_sx164 quick_test/fbank/raw_fbank_train.1.ark:11040199
mbsb0_si1353 quick_test/fbank/raw_fbank_train.2.ark:4112320
mtqc0_sx361 quick_test/fbank/raw_fbank_train.4.ark:9675308
mcdd0_sx253 quick_test/fbank/raw_fbank_train.2.ark:4757238
mbef0_sx21 quick_test/fbank/raw_fbank_train.2.ark:3515748
fapb0_si1063 quick_test/fbank/raw_fbank_train.1.ark:403268
fjrb0_sx222 quick_test/fbank/raw_fbank_train.1.ark:5493002
mkes0_sx353 quick_test/fbank/raw_fbank_train.3.ark:6428774
mmeb0_si1987 quick_test/fbank/raw_fbank_train.3.ark:9183506
mree0_sx384 quick_test/fbank/raw_fbank_train.4.ark:1735058
mlns0_sx327 quick_test/fbank/raw_fbank_train.3.ark:7721942
mdks0_si1696 quick_test/fbank/raw_fbank_train.2.ark:7290587
fcdr1_si556 quick_test/fbank/raw_fbank_train.1.ark:1475627
mwsh0_si2266 quick_test/fbank/raw_fbank_train.4.ark:11460253
fdkn0_si1711 quick_test/fbank/raw_fbank_train.1.ark:2819381
mmam0_sx157 quick_test/fbank/raw_fbank_train.3.ark:8221002
faem0_sx132 quick_test/fbank/raw_fbank_train.1.ark:39913
mdbp0_si528 quick_test/fbank/raw_fbank_train.2.ark:6310450
flkm0_sx116 quick_test/fbank/raw_fbank_train.1.ark:7975013
mjma0_sx55 quick_test/fbank/raw_fbank_train.3.ark:3954015
mbcg0_sx57 quick_test/fbank/raw_fbank_train.2.ark:3448149
fkfb0_si2238 quick_test/fbank/raw_fbank_train.1.ark:6510554
mree0_si1104 quick_test/fbank/raw_fbank_train.4.ark:1644066
fklh0_sx87 quick_test/fbank/raw_fbank_train.1.ark:7006332
mmea0_si2018 quick_test/fbank/raw_fbank_train.3.ark:9096761
mrmb0_si951 quick_test/fbank/raw_fbank_train.4.ark:3715992
mwsh0_sx346 quick_test/fbank/raw_fbank_train.4.ark:11518025
mmlm0_si2150 quick_test/fbank/raw_fbank_train.3.ark:9634231
fjlg0_sx179 quick_test/fbank/raw_fbank_train.1.ark:5287039
mlns0_si1407 quick_test/fbank/raw_fbank_train.3.ark:7670456
mhxl0_sx152 quick_test/fbank/raw_fbank_train.3.ark:1506084
mdlc1_sx355 quick_test/fbank/raw_fbank_train.2.ark:7678116
mprk0_sx17 quick_test/fbank/raw_fbank_train.4.ark:341886
marc0_si1188 quick_test/fbank/raw_fbank_train.2.ark:2992418
fsah0_sx74 quick_test/fbank/raw_fbank_train.1.ark:11091770
mtml0_sx165 quick_test/fbank/raw_fbank_train.4.ark:8935987
msat1_sx443 quick_test/fbank/raw_fbank_train.4.ark:5568340
fexm0_si482 quick_test/fbank/raw_fbank_train.1.ark:4086763
fklc1_sx238 quick_test/fbank/raw_fbank_train.1.ark:6864609
mrdm0_sx155 quick_test/fbank/raw_fbank_train.4.ark:1497276
fmjf0_si1884 quick_test/fbank/raw_fbank_train.1.ark:8939478
fmjb0_sx7 quick_test/fbank/raw_fbank_train.1.ark:8907738
fgmb0_sx245 quick_test/fbank/raw_fbank_train.1.ark:4444585
mrml0_si791 quick_test/fbank/raw_fbank_train.4.ark:4009189
madc0_sx17 quick_test/fbank/raw_fbank_train.2.ark:2166162
mrml0_si2051 quick_test/fbank/raw_fbank_train.4.ark:4001396
mfer0_si862 quick_test/fbank/raw_fbank_train.2.ark:10409418
fmkf0_si1536 quick_test/fbank/raw_fbank_train.1.ark:9259154
mbgt0_sx81 quick_test/fbank/raw_fbank_train.2.ark:3634199
mcre0_sx131 quick_test/fbank/raw_fbank_train.2.ark:5549687
mkaj0_sx244 quick_test/fbank/raw_fbank_train.3.ark:5910577
mwad0_si1062 quick_test/fbank/raw_fbank_train.4.ark:10601792
mzmb0_sx266 quick_test/fbank/raw_fbank_train.4.ark:11611937
mjws0_si1143 quick_test/fbank/raw_fbank_train.3.ark:5246855
fkfb0_sx78 quick_test/fbank/raw_fbank_train.1.ark:6598711
mjdg0_si1672 quick_test/fbank/raw_fbank_train.3.ark:2389601
mljh0_si1324 quick_test/fbank/raw_fbank_train.3.ark:7540911
mgjc0_sx75 quick_test/fbank/raw_fbank_train.3.ark:375521
mwac0_sx71 quick_test/fbank/raw_fbank_train.4.ark:10590478
mmgk0_si1322 quick_test/fbank/raw_fbank_train.3.ark:9448467
mkrg0_sx31 quick_test/fbank/raw_fbank_train.3.ark:7110031
mklw0_sx311 quick_test/fbank/raw_fbank_train.3.ark:6998967
mjmm0_sx85 quick_test/fbank/raw_fbank_train.3.ark:4134226
mlbc0_sx339 quick_test/fbank/raw_fbank_train.3.ark:7295282
fjsp0_sx84 quick_test/fbank/raw_fbank_train.1.ark:5862656
fgrw0_sx342 quick_test/fbank/raw_fbank_train.1.ark:4573484
mdbp0_si1788 quick_test/fbank/raw_fbank_train.2.ark:6296857
maeo0_sx66 quick_test/fbank/raw_fbank_train.2.ark:2490137
mjmd0_sx38 quick_test/fbank/raw_fbank_train.3.ark:4027808
mtrc0_sx363 quick_test/fbank/raw_fbank_train.4.ark:9792805
fscn0_sx86 quick_test/fbank/raw_fbank_train.1.ark:11416885
mjls0_sx16 quick_test/fbank/raw_fbank_train.3.ark:3826891
mjjm0_si827 quick_test/fbank/raw_fbank_train.3.ark:3419405
fecd0_sx248 quick_test/fbank/raw_fbank_train.1.ark:3698529
marw0_sx16 quick_test/fbank/raw_fbank_train.2.ark:3114575
fpaz0_si2223 quick_test/fbank/raw_fbank_train.1.ark:10202575
maeb0_sx90 quick_test/fbank/raw_fbank_train.2.ark:2394111
fvkb0_si1159 quick_test/fbank/raw_fbank_train.2.ark:1825835
mmdm0_sx231 quick_test/fbank/raw_fbank_train.3.ark:8854025
milb0_si807 quick_test/fbank/raw_fbank_train.3.ark:1584722
fajw0_si1263 quick_test/fbank/raw_fbank_train.1.ark:100358
fsmm0_si1944 quick_test/fbank/raw_fbank_train.2.ark:756034
mfer0_si2122 quick_test/fbank/raw_fbank_train.2.ark:10403785
mbef0_sx381 quick_test/fbank/raw_fbank_train.2.ark:3531414
mtas0_sx215 quick_test/fbank/raw_fbank_train.4.ark:7314259
fsah0_sx327 quick_test/fbank/raw_fbank_train.1.ark:11052192
fmpg0_sx72 quick_test/fbank/raw_fbank_train.1.ark:9561917
fapb0_sx253 quick_test/fbank/raw_fbank_train.1.ark:467002
mcal0_sx238 quick_test/fbank/raw_fbank_train.2.ark:4564708
mjac0_sx71 quick_test/fbank/raw_fbank_train.3.ark:1753782
fljg0_si1611 quick_test/fbank/raw_fbank_train.1.ark:7815489
mrwa0_si973 quick_test/fbank/raw_fbank_train.4.ark:4965096
mljh0_sx244 quick_test/fbank/raw_fbank_train.3.ark:7613724
faem0_si762 quick_test/fbank/raw_fbank_train.1.ark:28600
mrsp0_sx196 quick_test/fbank/raw_fbank_train.4.ark:4574782
mrbc0_sx149 quick_test/fbank/raw_fbank_train.4.ark:1092055
mfxv0_si1342 quick_test/fbank/raw_fbank_train.2.ark:10887392
mtkp0_si454 quick_test/fbank/raw_fbank_train.4.ark:8633278
mrso0_sx39 quick_test/fbank/raw_fbank_train.4.ark:4490022
mjeb0_sx26 quick_test/fbank/raw_fbank_train.3.ark:2649863
mjwt0_sx31 quick_test/fbank/raw_fbank_train.3.ark:5443958
mpsw0_si2327 quick_test/fbank/raw_fbank_train.4.ark:505351
mkam0_si1250 quick_test/fbank/raw_fbank_train.3.ark:5950269
flmc0_sx22 quick_test/fbank/raw_fbank_train.1.ark:8179935
mtlc0_sx217 quick_test/fbank/raw_fbank_train.4.ark:8858514
mewm0_si1978 quick_test/fbank/raw_fbank_train.2.ark:10319960
makb0_sx26 quick_test/fbank/raw_fbank_train.2.ark:2778908
mgjc0_sx165 quick_test/fbank/raw_fbank_train.3.ark:315070
mpmb0_si2131 quick_test/fbank/raw_fbank_train.3.ark:11314654
mdwh0_si665 quick_test/fbank/raw_fbank_train.2.ark:9372468
mkls1_sx285 quick_test/fbank/raw_fbank_train.3.ark:6917253
mgag0_sx331 quick_test/fbank/raw_fbank_train.2.ark:11112534
mlel0_sx166 quick_test/fbank/raw_fbank_train.3.ark:7370801
mrsp0_sx79 quick_test/fbank/raw_fbank_train.4.ark:4609560
mkln0_sx248 quick_test/fbank/raw_fbank_train.3.ark:6602631
fvfb0_si1032 quick_test/fbank/raw_fbank_train.2.ark:1737169
mbef0_sx201 quick_test/fbank/raw_fbank_train.2.ark:3506116
mjsr0_sx344 quick_test/fbank/raw_fbank_train.3.ark:5090252
fkkh0_sx390 quick_test/fbank/raw_fbank_train.1.ark:6702376
msdh0_si980 quick_test/fbank/raw_fbank_train.4.ark:5674379
mpeb0_sx60 quick_test/fbank/raw_fbank_train.3.ark:10896086
mbsb0_sx3 quick_test/fbank/raw_fbank_train.2.ark:4163884
fmem0_si1377 quick_test/fbank/raw_fbank_train.1.ark:8717275
fjkl0_si932 quick_test/fbank/raw_fbank_train.1.ark:5171300
mwad0_si2322 quick_test/fbank/raw_fbank_train.4.ark:10619860
mbom0_sx294 quick_test/fbank/raw_fbank_train.2.ark:4078900
mmjb1_sx418 quick_test/fbank/raw_fbank_train.3.ark:9600251
fvkb0_sx439 quick_test/fbank/raw_fbank_train.2.ark:1902394
mclk0_si2290 quick_test/fbank/raw_fbank_train.2.ark:5238745
mlel0_si1246 quick_test/fbank/raw_fbank_train.3.ark:7328621
mgaf0_si652 quick_test/fbank/raw_fbank_train.2.ark:10997211
mejs0_si1870 quick_test/fbank/raw_fbank_train.2.ark:10045887
fdmy0_si714 quick_test/fbank/raw_fbank_train.1.ark:3026871
mprt0_sx310 quick_test/fbank/raw_fbank_train.4.ark:454184
mtmt0_sx38 quick_test/fbank/raw_fbank_train.4.ark:9180975
mstf0_si766 quick_test/fbank/raw_fbank_train.4.ark:6941965
mrwa0_sx73 quick_test/fbank/raw_fbank_train.4.ark:5026220
mrxb0_sx325 quick_test/fbank/raw_fbank_train.4.ark:5189765
mrcw0_si2001 quick_test/fbank/raw_fbank_train.4.ark:1288079
mfmc0_si502 quick_test/fbank/raw_fbank_train.2.ark:10506443
mrab1_sx128 quick_test/fbank/raw_fbank_train.4.ark:704233
mram0_si1275 quick_test/fbank/raw_fbank_train.4.ark:873583
makr0_si722 quick_test/fbank/raw_fbank_train.2.ark:2831235
mstf0_sx316 quick_test/fbank/raw_fbank_train.4.ark:6996217
mmws1_si1701 quick_test/fbank/raw_fbank_train.3.ark:10380086
fskc0_sx426 quick_test/fbank/raw_fbank_train.2.ark:324273
msat0_si1526 quick_test/fbank/raw_fbank_train.4.ark:5419035
falk0_sx366 quick_test/fbank/raw_fbank_train.1.ark:273466
mpgh0_sx114 quick_test/fbank/raw_fbank_train.3.ark:11055324
mjae0_sx174 quick_test/fbank/raw_fbank_train.3.ark:1797037
mses0_sx419 quick_test/fbank/raw_fbank_train.4.ark:6082188
mrmg0_sx450 quick_test/fbank/raw_fbank_train.4.ark:3861070
flmc0_si742 quick_test/fbank/raw_fbank_train.1.ark:8157030
mjrk0_sx250 quick_test/fbank/raw_fbank_train.3.ark:4873089
mrhl0_sx165 quick_test/fbank/raw_fbank_train.4.ark:2515885
mprb0_sx215 quick_test/fbank/raw_fbank_train.4.ark:111357
mrlr0_si1196 quick_test/fbank/raw_fbank_train.4.ark:3600260
mctm0_sx180 quick_test/fbank/raw_fbank_train.2.ark:5852160
mrhl0_si2145 quick_test/fbank/raw_fbank_train.4.ark:2486779
fscn0_si705 quick_test/fbank/raw_fbank_train.1.ark:11333241
mfmc0_sx322 quick_test/fbank/raw_fbank_train.2.ark:10548742
mjlb0_sx446 quick_test/fbank/raw_fbank_train.3.ark:3658907
mfer0_sx232 quick_test/fbank/raw_fbank_train.2.ark:10437004
fpad0_sx446 quick_test/fbank/raw_fbank_train.1.ark:10070969
fsls0_sx202 quick_test/fbank/raw_fbank_train.2.ark:595883
flhd0_si1974 quick_test/fbank/raw_fbank_train.1.ark:7534840
mmdm0_sx411 quick_test/fbank/raw_fbank_train.3.ark:8875371
mgsh0_sx186 quick_test/fbank/raw_fbank_train.3.ark:650698
mesj0_si997 quick_test/fbank/raw_fbank_train.2.ark:10251930
mjai0_si1604 quick_test/fbank/raw_fbank_train.3.ark:1869682
mmlm0_si897 quick_test/fbank/raw_fbank_train.3.ark:9651504
mtpf0_si605 quick_test/fbank/raw_fbank_train.4.ark:9229469
mtrr0_si2178 quick_test/fbank/raw_fbank_train.4.ark:9820585
mefg0_si465 quick_test/fbank/raw_fbank_train.2.ark:9725021
fltm0_sx440 quick_test/fbank/raw_fbank_train.1.ark:8498200
mclm0_si2086 quick_test/fbank/raw_fbank_train.2.ark:5347530
msfh0_si586 quick_test/fbank/raw_fbank_train.4.ark:6136481
mtpp0_sx158 quick_test/fbank/raw_fbank_train.4.ark:9424552
fjhk0_sx32 quick_test/fbank/raw_fbank_train.1.ark:5137126
mprd0_sx441 quick_test/fbank/raw_fbank_train.4.ark:254728
mdhl0_si809 quick_test/fbank/raw_fbank_train.2.ark:7023625
mrgm0_si1162 quick_test/fbank/raw_fbank_train.4.ark:2249817
fltm0_sx350 quick_test/fbank/raw_fbank_train.1.ark:8479047
fcrz0_si2053 quick_test/fbank/raw_fbank_train.1.ark:2217715
feme0_sx65 quick_test/fbank/raw_fbank_train.1.ark:3952037
mrav0_sx18 quick_test/fbank/raw_fbank_train.4.ark:1017302
fbmj0_sx426 quick_test/fbank/raw_fbank_train.1.ark:1232523
mntw0_si1068 quick_test/fbank/raw_fbank_train.3.ark:10627364
mjjm0_sx17 quick_test/fbank/raw_fbank_train.3.ark:3441350
flmk0_si1229 quick_test/fbank/raw_fbank_train.1.ark:8243662
mdlb0_sx316 quick_test/fbank/raw_fbank_train.2.ark:7461025
fear0_si622 quick_test/fbank/raw_fbank_train.1.ark:3551958
mcdd0_sx343 quick_test/fbank/raw_fbank_train.2.ark:4765871
fcjs0_sx167 quick_test/fbank/raw_fbank_train.1.ark:1748055
mmdb0_sx87 quick_test/fbank/raw_fbank_train.3.ark:8686273
mjjb0_sx59 quick_test/fbank/raw_fbank_train.3.ark:3263639
mwar0_sx415 quick_test/fbank/raw_fbank_train.4.ark:10749418
mkag0_sx79 quick_test/fbank/raw_fbank_train.3.ark:5753265
mdmt0_si2341 quick_test/fbank/raw_fbank_train.2.ark:8316679
mbcg0_si486 quick_test/fbank/raw_fbank_train.2.ark:3376992
mklw0_sx131 quick_test/fbank/raw_fbank_train.3.ark:6975781
mtqc0_sx91 quick_test/fbank/raw_fbank_train.4.ark:9711293
mmdb0_si987 quick_test/fbank/raw_fbank_train.3.ark:8628829
mcdd0_si2143 quick_test/fbank/raw_fbank_train.2.ark:4722179
fapb0_sx343 quick_test/fbank/raw_fbank_train.1.ark:479235
msdh0_sx80 quick_test/fbank/raw_fbank_train.4.ark:5754143
fexm0_si1731 quick_test/fbank/raw_fbank_train.1.ark:4072290
mrtc0_sx108 quick_test/fbank/raw_fbank_train.4.ark:4666014
mtpp0_si2138 quick_test/fbank/raw_fbank_train.4.ark:9405806
fajw0_sx3 quick_test/fbank/raw_fbank_train.1.ark:175282
fvfb0_sx402 quick_test/fbank/raw_fbank_train.2.ark:1808529
madc0_sx287 quick_test/fbank/raw_fbank_train.2.ark:2184748
mmcc0_sx78 quick_test/fbank/raw_fbank_train.3.ark:8598448
mgjc0_si1965 quick_test/fbank/raw_fbank_train.3.ark:301757
feac0_sx435 quick_test/fbank/raw_fbank_train.1.ark:3506825
msas0_sx386 quick_test/fbank/raw_fbank_train.4.ark:5407601
frjb0_si1794 quick_test/fbank/raw_fbank_train.1.ark:10707612
fsjk1_sx125 quick_test/fbank/raw_fbank_train.1.ark:11874760
fspm0_sx161 quick_test/fbank/raw_fbank_train.2.ark:992630
fdml0_si2075 quick_test/fbank/raw_fbank_train.1.ark:2925927
mjsr0_sx434 quick_test/fbank/raw_fbank_train.3.ark:5102725
mjra0_si1866 quick_test/fbank/raw_fbank_train.3.ark:4442129
mcre0_sx401 quick_test/fbank/raw_fbank_train.2.ark:5582985
mjjm0_sx197 quick_test/fbank/raw_fbank_train.3.ark:3449743
mrjm1_sx218 quick_test/fbank/raw_fbank_train.4.ark:2959139
mrkm0_sx97 quick_test/fbank/raw_fbank_train.4.ark:3228165
mdwd0_sx90 quick_test/fbank/raw_fbank_train.2.ark:9334087
ftaj0_sx429 quick_test/fbank/raw_fbank_train.2.ark:1321244
fbmh0_sx56 quick_test/fbank/raw_fbank_train.1.ark:1134211
fbas0_sx127 quick_test/fbank/raw_fbank_train.1.ark:584755
falk0_si456 quick_test/fbank/raw_fbank_train.1.ark:220934
mrjt0_si868 quick_test/fbank/raw_fbank_train.4.ark:3029778
fvmh0_si2096 quick_test/fbank/raw_fbank_train.2.ark:1944494
mwac0_si1601 quick_test/fbank/raw_fbank_train.4.ark:10480687
mwgr0_sx256 quick_test/fbank/raw_fbank_train.4.ark:11111054
mcss0_si750 quick_test/fbank/raw_fbank_train.2.ark:5646477
mprb0_sx125 quick_test/fbank/raw_fbank_train.4.ark:100044
mrlr0_sx296 quick_test/fbank/raw_fbank_train.4.ark:3674658
mwdk0_sx446 quick_test/fbank/raw_fbank_train.4.ark:10933829
fgdp0_sx448 quick_test/fbank/raw_fbank_train.1.ark:4351786
mtdb0_sx231 quick_test/fbank/raw_fbank_train.4.ark:7819104
mtjg0_sx80 quick_test/fbank/raw_fbank_train.4.ark:8174757
ftlg0_si840 quick_test/fbank/raw_fbank_train.2.ark:1574466
mesg0_si1962 quick_test/fbank/raw_fbank_train.2.ark:10137152
makb0_sx386 quick_test/fbank/raw_fbank_train.2.ark:2799974
fbas0_sx217 quick_test/fbank/raw_fbank_train.1.ark:593028
mrso0_si2289 quick_test/fbank/raw_fbank_train.4.ark:4432971
mjae0_sx84 quick_test/fbank/raw_fbank_train.3.ark:1851648
mjeb1_sx297 quick_test/fbank/raw_fbank_train.3.ark:2761561
frll0_si884 quick_test/fbank/raw_fbank_train.1.ark:10810276
mcdr0_si1784 quick_test/fbank/raw_fbank_train.2.ark:4817964
mbma1_si2214 quick_test/fbank/raw_fbank_train.2.ark:3838877
mbcg0_sx237 quick_test/fbank/raw_fbank_train.2.ark:3412211
ftlg0_sx123 quick_test/fbank/raw_fbank_train.2.ark:1585299
mjeb0_si1286 quick_test/fbank/raw_fbank_train.3.ark:2582618
mzmb0_si1166 quick_test/fbank/raw_fbank_train.4.ark:11558724
mklw0_si1571 quick_test/fbank/raw_fbank_train.3.ark:6940600
flma0_sx253 quick_test/fbank/raw_fbank_train.1.ark:8090831
mkxl0_sx195 quick_test/fbank/raw_fbank_train.3.ark:7202856
fmkc0_si1041 quick_test/fbank/raw_fbank_train.1.ark:9139014
fksr0_sx397 quick_test/fbank/raw_fbank_train.1.ark:7104477
mcth0_si1209 quick_test/fbank/raw_fbank_train.2.ark:5712635
mfxv0_sx375 quick_test/fbank/raw_fbank_train.2.ark:10952110
mgaw0_sx355 quick_test/fbank/raw_fbank_train.3.ark:167045
mtrt0_sx57 quick_test/fbank/raw_fbank_train.4.ark:9993007
maeb0_sx180 quick_test/fbank/raw_fbank_train.2.ark:2347740
mjma0_sx145 quick_test/fbank/raw_fbank_train.3.ark:3916764
fcmg0_si1872 quick_test/fbank/raw_fbank_train.1.ark:2031618
marw0_si1906 quick_test/fbank/raw_fbank_train.2.ark:3083917
mrgm0_sx82 quick_test/fbank/raw_fbank_train.4.ark:2359168
fbmh0_sx326 quick_test/fbank/raw_fbank_train.1.ark:1113906
mnet0_sx6 quick_test/fbank/raw_fbank_train.3.ark:10607538
mkdd0_sx127 quick_test/fbank/raw_fbank_train.3.ark:6207859
mjxa0_sx247 quick_test/fbank/raw_fbank_train.3.ark:5509318
mdwm0_sx376 quick_test/fbank/raw_fbank_train.2.ark:9534864
mrem0_si511 quick_test/fbank/raw_fbank_train.4.ark:1870950
fcyl0_si1927 quick_test/fbank/raw_fbank_train.1.ark:2307860
mejs0_sx430 quick_test/fbank/raw_fbank_train.2.ark:10105412
fklc1_si1048 quick_test/fbank/raw_fbank_train.1.ark:6819195
mjlb0_sx356 quick_test/fbank/raw_fbank_train.3.ark:3647434
mkes0_sx173 quick_test/fbank/raw_fbank_train.3.ark:6403548
fcrz0_si1913 quick_test/fbank/raw_fbank_train.1.ark:2201841
fkkh0_sx30 quick_test/fbank/raw_fbank_train.1.ark:6683510
mrdd0_sx277 quick_test/fbank/raw_fbank_train.4.ark:1422717
flac0_si1339 quick_test/fbank/raw_fbank_train.1.ark:7115751
mdjm0_sx285 quick_test/fbank/raw_fbank_train.2.ark:7260646
fjhk0_si2282 quick_test/fbank/raw_fbank_train.1.ark:5078435
mkes0_si1253 quick_test/fbank/raw_fbank_train.3.ark:6357848
mdrd0_sx302 quick_test/fbank/raw_fbank_train.2.ark:8858136
mbgt0_sx261 quick_test/fbank/raw_fbank_train.2.ark:3597101
mclm0_sx106 quick_test/fbank/raw_fbank_train.2.ark:5373476
fhlm0_si930 quick_test/fbank/raw_fbank_train.1.ark:4632890
fhxs0_sx445 quick_test/fbank/raw_fbank_train.1.ark:4818089
fcke0_sx301 quick_test/fbank/raw_fbank_train.1.ark:1878146
ftmg0_si2162 quick_test/fbank/raw_fbank_train.2.ark:1648458
mtab0_si2202 quick_test/fbank/raw_fbank_train.4.ark:7180135
mrmg0_sx360 quick_test/fbank/raw_fbank_train.4.ark:3848557
mrml0_si1421 quick_test/fbank/raw_fbank_train.4.ark:3977682
fpac0_sx121 quick_test/fbank/raw_fbank_train.1.ark:9925645
mhbs0_sx135 quick_test/fbank/raw_fbank_train.3.ark:956614
mgar0_sx402 quick_test/fbank/raw_fbank_train.3.ark:76853
mjrp0_si585 quick_test/fbank/raw_fbank_train.3.ark:4940408
fpad0_sx86 quick_test/fbank/raw_fbank_train.1.ark:10082521
fbjl0_sx202 quick_test/fbank/raw_fbank_train.1.ark:894582
mrjm0_si1095 quick_test/fbank/raw_fbank_train.4.ark:2807340
mjxl0_sx92 quick_test/fbank/raw_fbank_train.3.ark:5647801
flmk0_sx405 quick_test/fbank/raw_fbank_train.1.ark:8306948
faem0_si2022 quick_test/fbank/raw_fbank_train.1.ark:19327
mtlc0_sx397 quick_test/fbank/raw_fbank_train.4.ark:8883612
mjbg0_si1862 quick_test/fbank/raw_fbank_train.3.ark:1987854
mmdm0_si1311 quick_test/fbank/raw_fbank_train.3.ark:8801212
fmkc0_sx262 quick_test/fbank/raw_fbank_train.1.ark:9188908
majp0_sx444 quick_test/fbank/raw_fbank_train.2.ark:2664556
mrmh0_sx301 quick_test/fbank/raw_fbank_train.4.ark:3950783
fltm0_si2330 quick_test/fbank/raw_fbank_train.1.ark:8439228
fblv0_sx428 quick_test/fbank/raw_fbank_train.1.ark:1023394
fsag0_si693 quick_test/fbank/raw_fbank_train.1.ark:10899381
mreh1_sx429 quick_test/fbank/raw_fbank_train.4.ark:1831531
fltm0_sx80 quick_test/fbank/raw_fbank_train.1.ark:8514792
fbmh0_sx146 quick_test/fbank/raw_fbank_train.1.ark:1094240
mrfl0_si1156 quick_test/fbank/raw_fbank_train.4.ark:2138512
mjeb1_sx117 quick_test/fbank/raw_fbank_train.3.ark:2732743
mrmg0_si1080 quick_test/fbank/raw_fbank_train.4.ark:3787790
mmgc0_sx225 quick_test/fbank/raw_fbank_train.3.ark:9308229
ftbr0_si2181 quick_test/fbank/raw_fbank_train.2.ark:1358984
mjjb0_sx419 quick_test/fbank/raw_fbank_train.3.ark:3251047
mmab1_si1494 quick_test/fbank/raw_fbank_train.3.ark:7970971
feeh0_si1112 quick_test/fbank/raw_fbank_train.1.ark:3751581
fpad0_sx356 quick_test/fbank/raw_fbank_train.1.ark:10056256
mdlc0_si2025 quick_test/fbank/raw_fbank_train.2.ark:7523638
mcss0_si1380 quick_test/fbank/raw_fbank_train.2.ark:5609571
mrlk0_sx393 quick_test/fbank/raw_fbank_train.4.ark:3589026
msjk0_si966 quick_test/fbank/raw_fbank_train.4.ark:6361251
mcpm0_si1824 quick_test/fbank/raw_fbank_train.2.ark:5432795
mkdt0_sx263 quick_test/fbank/raw_fbank_train.3.ark:6310236
mmsm0_sx386 quick_test/fbank/raw_fbank_train.3.ark:10010583
mjfr0_sx165 quick_test/fbank/raw_fbank_train.3.ark:3000898
mrms0_sx390 quick_test/fbank/raw_fbank_train.4.ark:4183019
fdxw0_sx341 quick_test/fbank/raw_fbank_train.1.ark:3399087
mprd0_si801 quick_test/fbank/raw_fbank_train.4.ark:188756
mjxl0_sx362 quick_test/fbank/raw_fbank_train.3.ark:5616576
mejl0_sx332 quick_test/fbank/raw_fbank_train.2.ark:9992834
fbas0_si1387 quick_test/fbank/raw_fbank_train.1.ark:527214
mkln0_si2228 quick_test/fbank/raw_fbank_train.3.ark:6568972
fecd0_sx428 quick_test/fbank/raw_fbank_train.1.ark:3724555
mrsp0_sx169 quick_test/fbank/raw_fbank_train.4.ark:4561189
fjxp0_sx42 quick_test/fbank/raw_fbank_train.1.ark:6165490
fjkl0_si2192 quick_test/fbank/raw_fbank_train.1.ark:5164747
fklc1_sx418 quick_test/fbank/raw_fbank_train.1.ark:6889235
mjrh0_sx45 quick_test/fbank/raw_fbank_train.3.ark:4716737
msah1_si1049 quick_test/fbank/raw_fbank_train.4.ark:5224064
msdh0_sx440 quick_test/fbank/raw_fbank_train.4.ark:5739031
mtrc0_sx170 quick_test/fbank/raw_fbank_train.4.ark:9759386
mcef0_sx415 quick_test/fbank/raw_fbank_train.2.ark:4983914
msds0_sx177 quick_test/fbank/raw_fbank_train.4.ark:5815478
mjrg0_sx352 quick_test/fbank/raw_fbank_train.3.ark:4600078
mcal0_si1768 quick_test/fbank/raw_fbank_train.2.ark:4540009
flac0_si901 quick_test/fbank/raw_fbank_train.1.ark:7142578
feac0_si1875 quick_test/fbank/raw_fbank_train.1.ark:3439740
mjrg0_si1366 quick_test/fbank/raw_fbank_train.3.ark:4529000
mrpc1_si2026 quick_test/fbank/raw_fbank_train.4.ark:4207207
maeo0_sx156 quick_test/fbank/raw_fbank_train.2.ark:2440486
mlns0_sx57 quick_test/fbank/raw_fbank_train.3.ark:7750767
mjma0_sx235 quick_test/fbank/raw_fbank_train.3.ark:3926477
mjdg0_sx232 quick_test/fbank/raw_fbank_train.3.ark:2427461
mrjm1_si1928 quick_test/fbank/raw_fbank_train.4.ark:2925880
mrjt0_sx58 quick_test/fbank/raw_fbank_train.4.ark:3097182
flja0_si1708 quick_test/fbank/raw_fbank_train.1.ark:7633432
fear0_si1882 quick_test/fbank/raw_fbank_train.1.ark:3543525
mmwb0_sx359 quick_test/fbank/raw_fbank_train.3.ark:10220449
mmxs0_si629 quick_test/fbank/raw_fbank_train.3.ark:10455830
mrab1_sx38 quick_test/fbank/raw_fbank_train.4.ark:740131
mmdb0_sx177 quick_test/fbank/raw_fbank_train.3.ark:8646222
mdsj0_sx112 quick_test/fbank/raw_fbank_train.2.ark:8934055
fspm0_sx251 quick_test/fbank/raw_fbank_train.2.ark:1007623
fsjw0_sx163 quick_test/fbank/raw_fbank_train.2.ark:194309
flja0_sx358 quick_test/fbank/raw_fbank_train.1.ark:7678725
faem0_sx312 quick_test/fbank/raw_fbank_train.1.ark:62819
mkls0_sx177 quick_test/fbank/raw_fbank_train.3.ark:6784850
mmab1_si2124 quick_test/fbank/raw_fbank_train.3.ark:7977405
mmwb0_si989 quick_test/fbank/raw_fbank_train.3.ark:10178150
fbmj0_si1776 quick_test/fbank/raw_fbank_train.1.ark:1145565
msvs0_sx38 quick_test/fbank/raw_fbank_train.4.ark:7126754
mjjj0_sx263 quick_test/fbank/raw_fbank_train.3.ark:3334526
fjhk0_sx392 quick_test/fbank/raw_fbank_train.1.ark:5147679
mtmt0_si1118 quick_test/fbank/raw_fbank_train.4.ark:9107617
mram0_sx375 quick_test/fbank/raw_fbank_train.4.ark:957335
mrsp0_sx439 quick_test/fbank/raw_fbank_train.4.ark:4594248
mbth0_sx122 quick_test/fbank/raw_fbank_train.2.ark:4227522
msmr0_sx145 quick_test/fbank/raw_fbank_train.4.ark:6582493
mrjm0_sx328 quick_test/fbank/raw_fbank_train.4.ark:2866467
mdps0_sx359 quick_test/fbank/raw_fbank_train.2.ark:8746711
fcaj0_sx309 quick_test/fbank/raw_fbank_train.1.ark:1399221
fsbk0_sx169 quick_test/fbank/raw_fbank_train.1.ark:11231170
fmkc0_sx82 quick_test/fbank/raw_fbank_train.1.ark:9229326
mtpp0_sx68 quick_test/fbank/raw_fbank_train.4.ark:9471083
msrr0_sx51 quick_test/fbank/raw_fbank_train.4.ark:6916418
mrgs0_si1356 quick_test/fbank/raw_fbank_train.4.ark:2371122
mmea0_si758 quick_test/fbank/raw_fbank_train.3.ark:9101074
mjee0_sx157 quick_test/fbank/raw_fbank_train.3.ark:2819728
mmeb0_sx7 quick_test/fbank/raw_fbank_train.3.ark:9237309
mrmg0_sx180 quick_test/fbank/raw_fbank_train.4.ark:3825691
fcdr1_sx376 quick_test/fbank/raw_fbank_train.1.ark:1547351
mtmt0_sx128 quick_test/fbank/raw_fbank_train.4.ark:9148557
fmbg0_sx3 quick_test/fbank/raw_fbank_train.1.ark:8670583
marc0_sx378 quick_test/fbank/raw_fbank_train.2.ark:3061329
fgrw0_sx252 quick_test/fbank/raw_fbank_train.1.ark:4562491
makb0_si2276 quick_test/fbank/raw_fbank_train.2.ark:2729810
mgsh0_si546 quick_test/fbank/raw_fbank_train.3.ark:624912
fskl0_sx179 quick_test/fbank/raw_fbank_train.2.ark:386359
mmam0_sx427 quick_test/fbank/raw_fbank_train.3.ark:8253701
maeo0_sx336 quick_test/fbank/raw_fbank_train.2.ark:2460032
mkjo0_sx257 quick_test/fbank/raw_fbank_train.3.ark:6511046
mcal0_sx328 quick_test/fbank/raw_fbank_train.2.ark:4574901
mrem0_si961 quick_test/fbank/raw_fbank_train.4.ark:1888743
fsls0_si2316 quick_test/fbank/raw_fbank_train.2.ark:565497
mbbr0_sx65 quick_test/fbank/raw_fbank_train.2.ark:3357045
mdbb1_sx376 quick_test/fbank/raw_fbank_train.2.ark:6277629
mmdg0_sx250 quick_test/fbank/raw_fbank_train.3.ark:8752360
mgxp0_sx187 quick_test/fbank/raw_fbank_train.3.ark:858151
mjra0_si606 quick_test/fbank/raw_fbank_train.3.ark:4456042
mtas0_sx35 quick_test/fbank/raw_fbank_train.4.ark:7334604
mmeb0_sx187 quick_test/fbank/raw_fbank_train.3.ark:9201092
mdlc2_si984 quick_test/fbank/raw_fbank_train.2.ark:7718442
mtrt0_sx237 quick_test/fbank/raw_fbank_train.4.ark:9965469
mdpk0_sx243 quick_test/fbank/raw_fbank_train.2.ark:8646093
mtbc0_si543 quick_test/fbank/raw_fbank_train.4.ark:7584028
mvrw0_sx225 quick_test/fbank/raw_fbank_train.4.ark:10445795
mdpb0_sx416 quick_test/fbank/raw_fbank_train.2.ark:8582974
maeo0_sx426 quick_test/fbank/raw_fbank_train.2.ark:2475505
msat0_si2156 quick_test/fbank/raw_fbank_train.4.ark:5428189
mntw0_sx202 quick_test/fbank/raw_fbank_train.3.ark:10686298
mjee0_sx67 quick_test/fbank/raw_fbank_train.3.ark:2868299
mkag0_si1609 quick_test/fbank/raw_fbank_train.3.ark:5659915
fntb0_sx213 quick_test/fbank/raw_fbank_train.1.ark:9722388
mtcs0_si712 quick_test/fbank/raw_fbank_train.4.ark:7676613
mtmt0_sx308 quick_test/fbank/raw_fbank_train.4.ark:9170143
fbjl0_si1552 quick_test/fbank/raw_fbank_train.1.ark:841289
mgak0_sx226 quick_test/fbank/raw_fbank_train.2.ark:11202487
fbmj0_sx246 quick_test/fbank/raw_fbank_train.1.ark:1202697
mjrh1_si1774 quick_test/fbank/raw_fbank_train.3.ark:4747685
mcdc0_sx32 quick_test/fbank/raw_fbank_train.2.ark:4689798
mrfl0_sx436 quick_test/fbank/raw_fbank_train.4.ark:2227351
fclt0_sx268 quick_test/fbank/raw_fbank_train.1.ark:1952298
mfer0_sx142 quick_test/fbank/raw_fbank_train.2.ark:10425291
mrws0_si1732 quick_test/fbank/raw_fbank_train.4.ark:5053648
mjrk0_si1662 quick_test/fbank/raw_fbank_train.3.ark:4826276
mrld0_si1594 quick_test/fbank/raw_fbank_train.4.ark:3239599
mmlm0_sx447 quick_test/fbank/raw_fbank_train.3.ark:9693956
fspm0_si1871 quick_test/fbank/raw_fbank_train.2.ark:972684
mkxl0_sx375 quick_test/fbank/raw_fbank_train.3.ark:7221042
fbjl0_sx22 quick_test/fbank/raw_fbank_train.1.ark:901294
msmr0_sx55 quick_test/fbank/raw_fbank_train.4.ark:6626024
mrfl0_si526 quick_test/fbank/raw_fbank_train.4.ark:2166259
flag0_sx24 quick_test/fbank/raw_fbank_train.1.ark:7282901
fcjs0_si1607 quick_test/fbank/raw_fbank_train.1.ark:1722195
mjjb0_si1769 quick_test/fbank/raw_fbank_train.3.ark:3196875
fdkn0_si1081 quick_test/fbank/raw_fbank_train.1.ark:2787113
mprb0_sx35 quick_test/fbank/raw_fbank_train.4.ark:141062
mtlb0_sx54 quick_test/fbank/raw_fbank_train.4.ark:8790947
maeb0_si1411 quick_test/fbank/raw_fbank_train.2.ark:2307200
fljd0_sx346 quick_test/fbank/raw_fbank_train.1.ark:7781870
feac0_si615 quick_test/fbank/raw_fbank_train.1.ark:3453053
mdns0_sx381 quick_test/fbank/raw_fbank_train.2.ark:8490701
mstf0_sx136 quick_test/fbank/raw_fbank_train.4.ark:6969751
mkls1_si1545 quick_test/fbank/raw_fbank_train.3.ark:6845655
fjxm0_sx311 quick_test/fbank/raw_fbank_train.1.ark:6028560
fjsp0_sx264 quick_test/fbank/raw_fbank_train.1.ark:5827758
mzmb0_si1796 quick_test/fbank/raw_fbank_train.4.ark:11574518
mmlm0_sx177 quick_test/fbank/raw_fbank_train.3.ark:9660937
mcxm0_sx271 quick_test/fbank/raw_fbank_train.2.ark:5958578
mpar0_sx136 quick_test/fbank/raw_fbank_train.3.ark:10765690
msdb0_sx287 quick_test/fbank/raw_fbank_train.4.ark:5645005
mdlc2_sx354 quick_test/fbank/raw_fbank_train.2.ark:7759621
mlsh0_sx157 quick_test/fbank/raw_fbank_train.3.ark:7800741
mrlj0_sx340 quick_test/fbank/raw_fbank_train.4.ark:3385630
mtdb0_sx51 quick_test/fbank/raw_fbank_train.4.ark:7851322
mdsj0_sx382 quick_test/fbank/raw_fbank_train.2.ark:8969273
fcmm0_sx363 quick_test/fbank/raw_fbank_train.1.ark:2164022
fcmg0_si1142 quick_test/fbank/raw_fbank_train.1.ark:2000270
fjwb1_sx75 quick_test/fbank/raw_fbank_train.1.ark:5960840
mrpc1_sx42 quick_test/fbank/raw_fbank_train.4.ark:4269685
