flod0_sx387 quick_test/mfcc/raw_mfcc_train.1.ark:2747527
mjhi0_si1328 quick_test/mfcc/raw_mfcc_train.3.ark:1004127
fgmb0_si1145 quick_test/mfcc/raw_mfcc_train.1.ark:1432507
mmgk0_sx332 quick_test/mfcc/raw_mfcc_train.3.ark:3102505
mjde0_sx40 quick_test/mfcc/raw_mfcc_train.3.ark:767320
fbcg1_sx172 quick_test/mfcc/raw_mfcc_train.1.ark:217292
madc0_sx17 quick_test/mfcc/raw_mfcc_train.2.ark:707946
mmjb1_si2038 quick_test/mfcc/raw_mfcc_train.3.ark:3116847
mmdg0_sx430 quick_test/mfcc/raw_mfcc_train.3.ark:2869395
fcjf0_sx397 quick_test/mfcc/raw_mfcc_train.1.ark:559464
mstf0_sx316 quick_test/mfcc/raw_mfcc_train.4.ark:2286148
mchl0_sx357 quick_test/mfcc/raw_mfcc_train.2.ark:1699022
fcyl0_si667 quick_test/mfcc/raw_mfcc_train.1.ark:758249
flmc0_sx382 quick_test/mfcc/raw_mfcc_train.1.ark:2685804
mrml0_si791 quick_test/mfcc/raw_mfcc_train.4.ark:1310107
fjdm2_sx52 quick_test/mfcc/raw_mfcc_train.1.ark:1611863
mdlc2_sx444 quick_test/mfcc/raw_mfcc_train.2.ark:2539023
fsdc0_sx142 quick_test/mfcc/raw_mfcc_train.1.ark:3744979
mcss0_si1380 quick_test/mfcc/raw_mfcc_train.2.ark:1833405
fjwb1_sx345 quick_test/mfcc/raw_mfcc_train.1.ark:1939425
fbmj0_si1776 quick_test/mfcc/raw_mfcc_train.1.ark:374283
mdbp0_sx258 quick_test/mfcc/raw_mfcc_train.2.ark:2072419
fmbg0_si1160 quick_test/mfcc/raw_mfcc_train.1.ark:2816056
fdfb0_si1948 quick_test/mfcc/raw_mfcc_train.1.ark:857422
mjjb0_sx419 quick_test/mfcc/raw_mfcc_train.3.ark:1062454
mhmg0_si735 quick_test/mfcc/raw_mfcc_train.3.ark:394479
mkdd0_sx397 quick_test/mfcc/raw_mfcc_train.3.ark:2039782
fjlr0_sx151 quick_test/mfcc/raw_mfcc_train.1.ark:1760467
fsbk0_si1699 quick_test/mfcc/raw_mfcc_train.1.ark:3664510
mgrp0_sx237 quick_test/mfcc/raw_mfcc_train.3.ark:176128
mwgr0_si1606 quick_test/mfcc/raw_mfcc_train.4.ark:3614077
mrtj0_sx412 quick_test/mfcc/raw_mfcc_train.4.ark:1576399
mtqc0_sx181 quick_test/mfcc/raw_mfcc_train.4.ark:3151025
mkdt0_sx263 quick_test/mfcc/raw_mfcc_train.3.ark:2062191
fsdj0_sx215 quick_test/mfcc/raw_mfcc_train.1.ark:3778674
fpad0_sx356 quick_test/mfcc/raw_mfcc_train.1.ark:3285763
fscn0_sx446 quick_test/mfcc/raw_mfcc_train.1.ark:3725377
mrml0_sx161 quick_test/mfcc/raw_mfcc_train.4.ark:1314963
mgxp0_si457 quick_test/mfcc/raw_mfcc_train.3.ark:270316
fcrz0_si793 quick_test/mfcc/raw_mfcc_train.1.ark:728123
mrtj0_sx142 quick_test/mfcc/raw_mfcc_train.4.ark:1560531
mmdm0_si681 quick_test/mfcc/raw_mfcc_train.3.ark:2885817
mhbs0_sx225 quick_test/mfcc/raw_mfcc_train.3.ark:316438
mjwg0_sx355 quick_test/mfcc/raw_mfcc_train.3.ark:1704281
mprt0_si495 quick_test/mfcc/raw_mfcc_train.4.ark:134820
mkdd0_sx37 quick_test/mfcc/raw_mfcc_train.3.ark:2036135
fksr0_sx161 quick_test/mfcc/raw_mfcc_train.1.ark:2304235
mdcd0_sx425 quick_test/mfcc/raw_mfcc_train.2.ark:2116404
mrmh0_sx301 quick_test/mfcc/raw_mfcc_train.4.ark:1291013
fcdr1_sx286 quick_test/mfcc/raw_mfcc_train.1.ark:499777
fvmh0_si2096 quick_test/mfcc/raw_mfcc_train.2.ark:635480
mkam0_sx56 quick_test/mfcc/raw_mfcc_train.3.ark:1975345
frjb0_sx437 quick_test/mfcc/raw_mfcc_train.1.ark:3513747
mefg0_si465 quick_test/mfcc/raw_mfcc_train.2.ark:3178439
fgdp0_si1618 quick_test/mfcc/raw_mfcc_train.1.ark:1394464
mkah0_si1528 quick_test/mfcc/raw_mfcc_train.3.ark:1884207
mrjm1_sx398 quick_test/mfcc/raw_mfcc_train.4.ark:979443
mdrd0_si752 quick_test/mfcc/raw_mfcc_train.2.ark:2877973
mfxv0_si1342 quick_test/mfcc/raw_mfcc_train.2.ark:3558377
mtrc0_sx183 quick_test/mfcc/raw_mfcc_train.4.ark:3194183
mvjh0_si2186 quick_test/mfcc/raw_mfcc_train.4.ark:3340737
mjae0_si1524 quick_test/mfcc/raw_mfcc_train.3.ark:576776
mrmg0_sx180 quick_test/mfcc/raw_mfcc_train.4.ark:1250134
maeo0_sx156 quick_test/mfcc/raw_mfcc_train.2.ark:797617
fdaw0_sx416 quick_test/mfcc/raw_mfcc_train.1.ark:844569
mmsm0_sx26 quick_test/mfcc/raw_mfcc_train.3.ark:3264119
feac0_sx165 quick_test/mfcc/raw_mfcc_train.1.ark:1134068
mpfu0_sx268 quick_test/mfcc/raw_mfcc_train.3.ark:3581764
mcdd0_sx433 quick_test/mfcc/raw_mfcc_train.2.ark:1561741
mvlo0_sx157 quick_test/mfcc/raw_mfcc_train.4.ark:3378378
mcdd0_si2143 quick_test/mfcc/raw_mfcc_train.2.ark:1543415
fntb0_si573 quick_test/mfcc/raw_mfcc_train.1.ark:3162636
ftaj0_sx159 quick_test/mfcc/raw_mfcc_train.2.ark:422753
msdh0_sx170 quick_test/mfcc/raw_mfcc_train.4.ark:1860299
fceg0_sx348 quick_test/mfcc/raw_mfcc_train.1.ark:525672
mdsj0_sx382 quick_test/mfcc/raw_mfcc_train.2.ark:2931344
fcjs0_sx77 quick_test/mfcc/raw_mfcc_train.1.ark:589083
msem1_sx360 quick_test/mfcc/raw_mfcc_train.4.ark:1951376
mjlb0_sx356 quick_test/mfcc/raw_mfcc_train.3.ark:1191973
mhrm0_si2218 quick_test/mfcc/raw_mfcc_train.3.ark:452800
mjee0_si607 quick_test/mfcc/raw_mfcc_train.3.ark:918665
mdlc0_sx405 quick_test/mfcc/raw_mfcc_train.2.ark:2478887
msem1_si810 quick_test/mfcc/raw_mfcc_train.4.ark:1933974
fmbg0_sx3 quick_test/mfcc/raw_mfcc_train.1.ark:2833075
mmxs0_si876 quick_test/mfcc/raw_mfcc_train.3.ark:3421839
freh0_sx325 quick_test/mfcc/raw_mfcc_train.1.ark:3483795
feme0_sx425 quick_test/mfcc/raw_mfcc_train.1.ark:1287535
mkjo0_sx437 quick_test/mfcc/raw_mfcc_train.3.ark:2134417
fjen0_si1047 quick_test/mfcc/raw_mfcc_train.1.ark:1616135
fecd0_si2048 quick_test/mfcc/raw_mfcc_train.1.ark:1194800
mpeb0_si1860 quick_test/mfcc/raw_mfcc_train.3.ark:3537837
mwrp0_si2073 quick_test/mfcc/raw_mfcc_train.4.ark:3687268
mdbb1_sx196 quick_test/mfcc/raw_mfcc_train.2.ark:2044145
fcaj0_sx219 quick_test/mfcc/raw_mfcc_train.1.ark:452881
fdkn0_sx451 quick_test/mfcc/raw_mfcc_train.1.ark:937653
mdlh0_si1960 quick_test/mfcc/raw_mfcc_train.2.ark:2546564
fmbg0_sx80 quick_test/mfcc/raw_mfcc_train.1.ark:2845484
fbjl0_si2182 quick_test/mfcc/raw_mfcc_train.1.ark:278959
mrds0_si537 quick_test/mfcc/raw_mfcc_train.4.ark:515309
mjkr0_si1201 quick_test/mfcc/raw_mfcc_train.3.ark:1138931
fcmm0_sx363 quick_test/mfcc/raw_mfcc_train.1.ark:707183
mtxs0_sx70 quick_test/mfcc/raw_mfcc_train.4.ark:3332362
fhlm0_si1560 quick_test/mfcc/raw_mfcc_train.1.ark:1507827
mjbg0_sx332 quick_test/mfcc/raw_mfcc_train.3.ark:661895
mpgr1_si2129 quick_test/mfcc/raw_mfcc_train.3.ark:3665056
mtdp0_sx261 quick_test/mfcc/raw_mfcc_train.4.ark:2589022
msat1_sx173 quick_test/mfcc/raw_mfcc_train.4.ark:1807443
mtkp0_sx303 quick_test/mfcc/raw_mfcc_train.4.ark:2834269
mhrm0_sx418 quick_test/mfcc/raw_mfcc_train.3.ark:471672
mcre0_sx401 quick_test/mfcc/raw_mfcc_train.2.ark:1824720
fmem0_si1377 quick_test/mfcc/raw_mfcc_train.1.ark:2848339
mdlb0_sx316 quick_test/mfcc/raw_mfcc_train.2.ark:2438458
fkde0_si1141 quick_test/mfcc/raw_mfcc_train.1.ark:2053029
mdtb0_si570 quick_test/mfcc/raw_mfcc_train.2.ark:3001389
falr0_sx335 quick_test/mfcc/raw_mfcc_train.1.ark:120595
mjrk0_sx160 quick_test/mfcc/raw_mfcc_train.3.ark:1587617
fapb0_si1693 quick_test/mfcc/raw_mfcc_train.1.ark:137498
mmsm0_sx206 quick_test/mfcc/raw_mfcc_train.3.ark:3259823
mpgh0_si924 quick_test/mfcc/raw_mfcc_train.3.ark:3609665
mcdd0_sx253 quick_test/mfcc/raw_mfcc_train.2.ark:1554876
mpfu0_sx178 quick_test/mfcc/raw_mfcc_train.3.ark:3577103
mwar0_si2305 quick_test/mfcc/raw_mfcc_train.4.ark:3499085
fksr0_sx37 quick_test/mfcc/raw_mfcc_train.1.ark:2317762
flag0_sx24 quick_test/mfcc/raw_mfcc_train.1.ark:2379593
mmcc0_sx78 quick_test/mfcc/raw_mfcc_train.3.ark:2809864
fjxp0_sx312 quick_test/mfcc/raw_mfcc_train.1.ark:2005787
mcpm0_sx384 quick_test/mfcc/raw_mfcc_train.2.ark:1798955
mrav0_sx18 quick_test/mfcc/raw_mfcc_train.4.ark:332420
fjlg0_si1889 quick_test/mfcc/raw_mfcc_train.1.ark:1718782
flet0_sx147 quick_test/mfcc/raw_mfcc_train.1.ark:2439625
mwsh0_si1426 quick_test/mfcc/raw_mfcc_train.4.ark:3738583
fpmy0_sx343 quick_test/mfcc/raw_mfcc_train.1.ark:3455184
fdjh0_sx35 quick_test/mfcc/raw_mfcc_train.1.ark:903508
mfxs0_si1674 quick_test/mfcc/raw_mfcc_train.2.ark:3521768
mcew0_sx272 quick_test/mfcc/raw_mfcc_train.2.ark:1656967
mmdm0_si1311 quick_test/mfcc/raw_mfcc_train.3.ark:2876143
mppc0_sx152 quick_test/mfcc/raw_mfcc_train.3.ark:3756242
mmcc0_si708 quick_test/mfcc/raw_mfcc_train.3.ark:2789797
mtpg0_sx123 quick_test/mfcc/raw_mfcc_train.4.ark:3051248
mjee0_sx247 quick_test/mfcc/raw_mfcc_train.3.ark:924776
mjxl0_sx362 quick_test/mfcc/raw_mfcc_train.3.ark:1835523
mddc0_sx159 quick_test/mfcc/raw_mfcc_train.2.ark:2166404
mdlc1_sx175 quick_test/mfcc/raw_mfcc_train.2.ark:2500257
mkdt0_si893 quick_test/mfcc/raw_mfcc_train.3.ark:2053181
fpaz0_si2223 quick_test/mfcc/raw_mfcc_train.1.ark:3333586
mbcg0_sx147 quick_test/mfcc/raw_mfcc_train.2.ark:1111424
mtju0_sx40 quick_test/mfcc/raw_mfcc_train.4.ark:2767133
mtjm0_sx146 quick_test/mfcc/raw_mfcc_train.4.ark:2688752
mdpk0_si1683 quick_test/mfcc/raw_mfcc_train.2.ark:2816895
fdaw0_sx56 quick_test/mfcc/raw_mfcc_train.1.ark:848072
mjeb1_sx117 quick_test/mfcc/raw_mfcc_train.3.ark:893044
mjmd0_sx218 quick_test/mfcc/raw_mfcc_train.3.ark:1309508
mbjv0_si1247 quick_test/mfcc/raw_mfcc_train.2.ark:1191523
ftmg0_sx182 quick_test/mfcc/raw_mfcc_train.2.ark:548573
mtbc0_si543 quick_test/mfcc/raw_mfcc_train.4.ark:2478193
mdss1_sx157 quick_test/mfcc/raw_mfcc_train.2.ark:2978043
fbmj0_sx336 quick_test/mfcc/raw_mfcc_train.1.ark:396366
madc0_sx107 quick_test/mfcc/raw_mfcc_train.2.ark:704105
mmds0_si1973 quick_test/mfcc/raw_mfcc_train.3.ark:2946998
msmc0_sx377 quick_test/mfcc/raw_mfcc_train.4.ark:2132803
mlns0_sx147 quick_test/mfcc/raw_mfcc_train.3.ark:2517972
mjpm1_sx401 quick_test/mfcc/raw_mfcc_train.3.ark:1439113
mklr0_si1059 quick_test/mfcc/raw_mfcc_train.3.ark:2173319
fsbk0_sx439 quick_test/mfcc/raw_mfcc_train.1.ark:3685086
mjmd0_sx128 quick_test/mfcc/raw_mfcc_train.3.ark:1306381
mefg0_si598 quick_test/mfcc/raw_mfcc_train.2.ark:3188190
mwch0_sx362 quick_test/mfcc/raw_mfcc_train.4.ark:3535707
msvs0_si2198 quick_test/mfcc/raw_mfcc_train.4.ark:2302349
fhxs0_sx85 quick_test/mfcc/raw_mfcc_train.1.ark:1577329
mrhl0_si2145 quick_test/mfcc/raw_mfcc_train.4.ark:812617
mtbc0_sx363 quick_test/mfcc/raw_mfcc_train.4.ark:2496252
fjdm2_si1964 quick_test/mfcc/raw_mfcc_train.1.ark:1584768
fklc1_sx418 quick_test/mfcc/raw_mfcc_train.1.ark:2250959
fmkf0_si906 quick_test/mfcc/raw_mfcc_train.1.ark:3029729
mmgg0_sx449 quick_test/mfcc/raw_mfcc_train.3.ark:3078899
fdxw0_si1511 quick_test/mfcc/raw_mfcc_train.1.ark:1092649
fksr0_si1117 quick_test/mfcc/raw_mfcc_train.1.ark:2292799
fspm0_sx71 quick_test/mfcc/raw_mfcc_train.2.ark:343101
mmar0_sx436 quick_test/mfcc/raw_mfcc_train.3.ark:2736268
fcag0_si2133 quick_test/mfcc/raw_mfcc_train.1.ark:415851
mvrw0_sx135 quick_test/mfcc/raw_mfcc_train.4.ark:3409544
mmaa0_sx125 quick_test/mfcc/raw_mfcc_train.3.ark:2585764
mrlj1_sx141 quick_test/mfcc/raw_mfcc_train.4.ark:1127081
fmmh0_si907 quick_test/mfcc/raw_mfcc_train.1.ark:3063194
msdh0_si2240 quick_test/mfcc/raw_mfcc_train.4.ark:1852368
fsls0_si1056 quick_test/mfcc/raw_mfcc_train.2.ark:176111
msfv0_si1262 quick_test/mfcc/raw_mfcc_train.4.ark:2032931
mkdt0_sx353 quick_test/mfcc/raw_mfcc_train.3.ark:2065370
mdbb1_si1636 quick_test/mfcc/raw_mfcc_train.2.ark:2030675
mefg0_sx15 quick_test/mfcc/raw_mfcc_train.2.ark:3197563
fexm0_si1731 quick_test/mfcc/raw_mfcc_train.1.ark:1330683
fjxm0_sx131 quick_test/mfcc/raw_mfcc_train.1.ark:1962270
mmwb0_sx269 quick_test/mfcc/raw_mfcc_train.3.ark:3335910
mrws0_sx22 quick_test/mfcc/raw_mfcc_train.4.ark:1662986
mjrh1_si514 quick_test/mfcc/raw_mfcc_train.3.ark:1555170
mkxl0_sx195 quick_test/mfcc/raw_mfcc_train.3.ark:2353926
mjpg0_sx381 quick_test/mfcc/raw_mfcc_train.3.ark:1379088
fvmh0_sx386 quick_test/mfcc/raw_mfcc_train.2.ark:657465
mdcm0_sx310 quick_test/mfcc/raw_mfcc_train.2.ark:2143598
medr0_si2004 quick_test/mfcc/raw_mfcc_train.2.ark:3153067
mjrh0_sx45 quick_test/mfcc/raw_mfcc_train.3.ark:1541510
mmab1_sx144 quick_test/mfcc/raw_mfcc_train.3.ark:2616904
fleh0_sx61 quick_test/mfcc/raw_mfcc_train.1.ark:2420550
mrjm1_sx38 quick_test/mfcc/raw_mfcc_train.4.ark:975393
ftbr0_sx201 quick_test/mfcc/raw_mfcc_train.2.ark:456318
mbom0_si2274 quick_test/mfcc/raw_mfcc_train.2.ark:1323717
falk0_sx96 quick_test/mfcc/raw_mfcc_train.1.ark:97372
mdks0_sx166 quick_test/mfcc/raw_mfcc_train.2.ark:2389702
mtmt0_si488 quick_test/mfcc/raw_mfcc_train.4.ark:2983176
ftaj0_sx339 quick_test/mfcc/raw_mfcc_train.2.ark:429072
mhbs0_si2205 quick_test/mfcc/raw_mfcc_train.3.ark:302949
mmeb0_si727 quick_test/mfcc/raw_mfcc_train.3.ark:3003981
mtrr0_sx108 quick_test/mfcc/raw_mfcc_train.4.ark:3218101
mjma0_si865 quick_test/mfcc/raw_mfcc_train.3.ark:1275415
fdkn0_si1711 quick_test/mfcc/raw_mfcc_train.1.ark:921362
mtmn0_sx164 quick_test/mfcc/raw_mfcc_train.4.ark:2958101
mmdm0_sx411 quick_test/mfcc/raw_mfcc_train.3.ark:2900379
mjwg0_sx445 quick_test/mfcc/raw_mfcc_train.3.ark:1707837
mrlj1_si2301 quick_test/mfcc/raw_mfcc_train.4.ark:1119591
mbma1_si954 quick_test/mfcc/raw_mfcc_train.2.ark:1258836
mter0_si1787 quick_test/mfcc/raw_mfcc_train.4.ark:2613914
mjws0_sx153 quick_test/mfcc/raw_mfcc_train.3.ark:1725514
mprk0_sx17 quick_test/mfcc/raw_mfcc_train.4.ark:111657
mcss0_sx300 quick_test/mfcc/raw_mfcc_train.2.ark:1859875
frll0_si884 quick_test/mfcc/raw_mfcc_train.1.ark:3532183
maeo0_sx66 quick_test/mfcc/raw_mfcc_train.2.ark:813842
fskc0_sx156 quick_test/mfcc/raw_mfcc_train.2.ark:94179
mrdd0_sx240 quick_test/mfcc/raw_mfcc_train.4.ark:461207
mrcg0_sx78 quick_test/mfcc/raw_mfcc_train.4.ark:412154
mjde0_si1120 quick_test/mfcc/raw_mfcc_train.3.ark:733960
mhit0_sx263 quick_test/mfcc/raw_mfcc_train.3.ark:346629
msas0_si2006 quick_test/mfcc/raw_mfcc_train.4.ark:1740598
mcdr0_sx164 quick_test/mfcc/raw_mfcc_train.2.ark:1587491
mmds0_si713 quick_test/mfcc/raw_mfcc_train.3.ark:2948890
mrab1_sx398 quick_test/mfcc/raw_mfcc_train.4.ark:245922
fkfb0_sx438 quick_test/mfcc/raw_mfcc_train.1.ark:2147619
fpls0_sx150 quick_test/mfcc/raw_mfcc_train.1.ark:3409660
mntw0_sx348 quick_test/mfcc/raw_mfcc_train.3.ark:3499707
fsjw0_sx433 quick_test/mfcc/raw_mfcc_train.2.ark:74903
fapb0_sx343 quick_test/mfcc/raw_mfcc_train.1.ark:156585
mcew0_si2072 quick_test/mfcc/raw_mfcc_train.2.ark:1640618
mtpg0_sx33 quick_test/mfcc/raw_mfcc_train.4.ark:3061356
fdmy0_sx297 quick_test/mfcc/raw_mfcc_train.1.ark:1010735
mrhl0_sx345 quick_test/mfcc/raw_mfcc_train.4.ark:829571
mrre0_si704 quick_test/mfcc/raw_mfcc_train.4.ark:1404808
mfwk0_sx259 quick_test/mfcc/raw_mfcc_train.2.ark:3504307
fbjl0_sx292 quick_test/mfcc/raw_mfcc_train.1.ark:298402
mhit0_sx353 quick_test/mfcc/raw_mfcc_train.3.ark:349795
frll0_sx344 quick_test/mfcc/raw_mfcc_train.1.ark:3544502
fkaa0_sx308 quick_test/mfcc/raw_mfcc_train.1.ark:2038149
mcef0_si842 quick_test/mfcc/raw_mfcc_train.2.ark:1613177
mkah0_sx268 quick_test/mfcc/raw_mfcc_train.3.ark:1900707
mtdp0_sx351 quick_test/mfcc/raw_mfcc_train.4.ark:2591954
fsls0_sx246 quick_test/mfcc/raw_mfcc_train.2.ark:197403
fscn0_si705 quick_test/mfcc/raw_mfcc_train.1.ark:3703041
fklc1_si1678 quick_test/mfcc/raw_mfcc_train.1.ark:2234153
mjrg0_si1996 quick_test/mfcc/raw_mfcc_train.3.ark:1484536
flma0_sx253 quick_test/mfcc/raw_mfcc_train.1.ark:2643581
mrwa0_si2233 quick_test/mfcc/raw_mfcc_train.4.ark:1617753
mcre0_si1751 quick_test/mfcc/raw_mfcc_train.2.ark:1808690
mrfl0_sx436 quick_test/mfcc/raw_mfcc_train.4.ark:727879
mtju0_si760 quick_test/mfcc/raw_mfcc_train.4.ark:2751493
mbcg0_si2217 quick_test/mfcc/raw_mfcc_train.2.ark:1100145
mchl0_sx177 quick_test/mfcc/raw_mfcc_train.2.ark:1691858
mtmt0_sx218 quick_test/mfcc/raw_mfcc_train.4.ark:2992524
mtmn0_si1064 quick_test/mfcc/raw_mfcc_train.4.ark:2941179
mjls0_sx286 quick_test/mfcc/raw_mfcc_train.3.ark:1256327
mefg0_sx375 quick_test/mfcc/raw_mfcc_train.2.ark:3208010
fdml0_sx159 quick_test/mfcc/raw_mfcc_train.1.ark:958360
mcdc0_sx32 quick_test/mfcc/raw_mfcc_train.2.ark:1532823
mtat0_sx210 quick_test/mfcc/raw_mfcc_train.4.ark:2422895
mcxm0_sx451 quick_test/mfcc/raw_mfcc_train.2.ark:1953933
mdhl0_sx179 quick_test/mfcc/raw_mfcc_train.2.ark:2299661
mlns0_si1407 quick_test/mfcc/raw_mfcc_train.3.ark:2506679
mdtb0_sx321 quick_test/mfcc/raw_mfcc_train.2.ark:3015717
fhlm0_si2190 quick_test/mfcc/raw_mfcc_train.1.ark:1509889
mtat1_sx419 quick_test/mfcc/raw_mfcc_train.4.ark:2464111
fpad0_sx86 quick_test/mfcc/raw_mfcc_train.1.ark:3294343
mwrp0_sx273 quick_test/mfcc/raw_mfcc_train.4.ark:3696239
fskc0_si1416 quick_test/mfcc/raw_mfcc_train.2.ark:83822
fmpg0_sx72 quick_test/mfcc/raw_mfcc_train.1.ark:3124253
mvlo0_si1147 quick_test/mfcc/raw_mfcc_train.4.ark:3365512
mtju0_sx400 quick_test/mfcc/raw_mfcc_train.4.ark:2770702
mkdt0_sx173 quick_test/mfcc/raw_mfcc_train.3.ark:2057101
mfxs0_si2304 quick_test/mfcc/raw_mfcc_train.2.ark:3527348
fmjf0_si1254 quick_test/mfcc/raw_mfcc_train.1.ark:2917755
msat0_si896 quick_test/mfcc/raw_mfcc_train.4.ark:1776893
mcxm0_si721 quick_test/mfcc/raw_mfcc_train.2.ark:1939371
mbom0_si1014 quick_test/mfcc/raw_mfcc_train.2.ark:1316226
mbth0_sx302 quick_test/mfcc/raw_mfcc_train.2.ark:1391138
mjmd0_sx398 quick_test/mfcc/raw_mfcc_train.3.ark:1320227
mcre0_sx221 quick_test/mfcc/raw_mfcc_train.2.ark:1817232
msvs0_sx38 quick_test/mfcc/raw_mfcc_train.4.ark:2328773
mcpm0_sx114 quick_test/mfcc/raw_mfcc_train.2.ark:1786279
mctm0_si720 quick_test/mfcc/raw_mfcc_train.2.ark:1909778
fsag0_si693 quick_test/mfcc/raw_mfcc_train.1.ark:3561321
fscn0_sx86 quick_test/mfcc/raw_mfcc_train.1.ark:3730336
mprt0_sx220 quick_test/mfcc/raw_mfcc_train.4.ark:143889
mprd0_sx171 quick_test/mfcc/raw_mfcc_train.4.ark:68954
mwre0_si2317 quick_test/mfcc/raw_mfcc_train.4.ark:3653787
fjxp0_sx42 quick_test/mfcc/raw_mfcc_train.1.ark:2014510
mbbr0_sx65 quick_test/mfcc/raw_mfcc_train.2.ark:1097199
mpmb0_sx331 quick_test/mfcc/raw_mfcc_train.3.ark:3723465
mbgt0_sx261 quick_test/mfcc/raw_mfcc_train.2.ark:1175687
mpgh0_sx114 quick_test/mfcc/raw_mfcc_train.3.ark:3612909
maeo0_sx426 quick_test/mfcc/raw_mfcc_train.2.ark:809065
msmc0_si647 quick_test/mfcc/raw_mfcc_train.4.ark:2112853
mljh0_si1324 quick_test/mfcc/raw_mfcc_train.3.ark:2464398
mprd0_sx441 quick_test/mfcc/raw_mfcc_train.4.ark:83197
mgxp0_sx277 quick_test/mfcc/raw_mfcc_train.3.ark:283584
mejs0_sx430 quick_test/mfcc/raw_mfcc_train.2.ark:3302735
mkes0_sx353 quick_test/mfcc/raw_mfcc_train.3.ark:2100917
mram0_sx15 quick_test/mfcc/raw_mfcc_train.4.ark:301981
fceg0_sx78 quick_test/mfcc/raw_mfcc_train.1.ark:534512
mfxs0_sx234 quick_test/mfcc/raw_mfcc_train.2.ark:3534356
fpmy0_sx73 quick_test/mfcc/raw_mfcc_train.1.ark:3459896
mwre0_sx67 quick_test/mfcc/raw_mfcc_train.4.ark:3672307
madd0_sx358 quick_test/mfcc/raw_mfcc_train.2.ark:742656
ftbw0_sx85 quick_test/mfcc/raw_mfcc_train.2.ark:498671
mrgs0_si1986 quick_test/mfcc/raw_mfcc_train.4.ark:781063
fjhk0_sx392 quick_test/mfcc/raw_mfcc_train.1.ark:1681932
feeh0_si1112 quick_test/mfcc/raw_mfcc_train.1.ark:1225893
feeh0_sx212 quick_test/mfcc/raw_mfcc_train.1.ark:1242835
mjmm0_sx175 quick_test/mfcc/raw_mfcc_train.3.ark:1335805
mgjc0_sx345 quick_test/mfcc/raw_mfcc_train.3.ark:112126
fcyl0_sx217 quick_test/mfcc/raw_mfcc_train.1.ark:767636
mcef0_sx145 quick_test/mfcc/raw_mfcc_train.2.ark:1618722
fjdm2_sx232 quick_test/mfcc/raw_mfcc_train.1.ark:1598648
mjdg0_sx412 quick_test/mfcc/raw_mfcc_train.3.ark:800919
mmgg0_sx269 quick_test/mfcc/raw_mfcc_train.3.ark:3071514
mdlr0_sx63 quick_test/mfcc/raw_mfcc_train.2.ark:2639897
mmws0_sx168 quick_test/mfcc/raw_mfcc_train.3.ark:3367783
mrms0_sx300 quick_test/mfcc/raw_mfcc_train.4.ark:1364051
mrav0_si1008 quick_test/mfcc/raw_mfcc_train.4.ark:317064
mlel0_sx436 quick_test/mfcc/raw_mfcc_train.3.ark:2423663
mgak0_si2296 quick_test/mfcc/raw_mfcc_train.2.ark:3651883
mdlr1_sx129 quick_test/mfcc/raw_mfcc_train.2.ark:2657347
mjrk0_sx340 quick_test/mfcc/raw_mfcc_train.3.ark:1596718
mrre0_sx434 quick_test/mfcc/raw_mfcc_train.4.ark:1427931
fvfb0_sx132 quick_test/mfcc/raw_mfcc_train.2.ark:579246
mpeb0_sx150 quick_test/mfcc/raw_mfcc_train.3.ark:3545677
mbar0_sx59 quick_test/mfcc/raw_mfcc_train.2.ark:1067137
ftmg0_sx452 quick_test/mfcc/raw_mfcc_train.2.ark:559670
mtmt0_sx308 quick_test/mfcc/raw_mfcc_train.4.ark:2996431
fcmm0_si1083 quick_test/mfcc/raw_mfcc_train.1.ark:688583
mjeb1_si1467 quick_test/mfcc/raw_mfcc_train.3.ark:875472
mbgt0_si1841 quick_test/mfcc/raw_mfcc_train.2.ark:1159143
fljd0_sx76 quick_test/mfcc/raw_mfcc_train.1.ark:2549584
msmr0_sx235 quick_test/mfcc/raw_mfcc_train.4.ark:2154810
mtpr0_sx340 quick_test/mfcc/raw_mfcc_train.4.ark:3121992
mmam0_sx247 quick_test/mfcc/raw_mfcc_train.3.ark:2689254
mhmg0_si1365 quick_test/mfcc/raw_mfcc_train.3.ark:387236
mrml0_si2051 quick_test/mfcc/raw_mfcc_train.4.ark:1307552
mjfh0_sx207 quick_test/mfcc/raw_mfcc_train.3.ark:957606
fpjf0_sx352 quick_test/mfcc/raw_mfcc_train.1.ark:3387342
mmbs0_sx161 quick_test/mfcc/raw_mfcc_train.3.ark:2756753
mesg0_si1962 quick_test/mfcc/raw_mfcc_train.2.ark:3313118
mmpm0_sx71 quick_test/mfcc/raw_mfcc_train.3.ark:3203518
fksr0_si1747 quick_test/mfcc/raw_mfcc_train.1.ark:2296694
mjfr0_sx255 quick_test/mfcc/raw_mfcc_train.3.ark:985457
mwrp0_sx3 quick_test/mfcc/raw_mfcc_train.4.ark:3699832
mdhl0_si809 quick_test/mfcc/raw_mfcc_train.2.ark:2295520
mmws0_si559 quick_test/mfcc/raw_mfcc_train.3.ark:3360671
mjrh1_si1558 quick_test/mfcc/raw_mfcc_train.3.ark:1545301
mram0_si1905 quick_test/mfcc/raw_mfcc_train.4.ark:289675
mwar0_sx415 quick_test/mfcc/raw_mfcc_train.4.ark:3512581
fblv0_si2318 quick_test/mfcc/raw_mfcc_train.1.ark:318726
mrsp0_sx439 quick_test/mfcc/raw_mfcc_train.4.ark:1501236
mdss0_sx351 quick_test/mfcc/raw_mfcc_train.2.ark:2956043
fjxp0_si1752 quick_test/mfcc/raw_mfcc_train.1.ark:1991121
mdlr0_si1233 quick_test/mfcc/raw_mfcc_train.2.ark:2609129
fljd0_sx346 quick_test/mfcc/raw_mfcc_train.1.ark:2542655
mzmb0_si1166 quick_test/mfcc/raw_mfcc_train.4.ark:3777081
mrgs0_sx366 quick_test/mfcc/raw_mfcc_train.4.ark:796431
mrew1_sx240 quick_test/mfcc/raw_mfcc_train.4.ark:652688
fvmh0_si836 quick_test/mfcc/raw_mfcc_train.2.ark:639166
ftbw0_sx265 quick_test/mfcc/raw_mfcc_train.2.ark:488277
mmdg0_si2035 quick_test/mfcc/raw_mfcc_train.3.ark:2847728
fdxw0_si2141 quick_test/mfcc/raw_mfcc_train.1.ark:1095413
mjrh0_sx225 quick_test/mfcc/raw_mfcc_train.3.ark:1531142
frjb0_sx77 quick_test/mfcc/raw_mfcc_train.1.ark:3518784
fcmg0_sx162 quick_test/mfcc/raw_mfcc_train.1.ark:667488
mcss0_sx30 quick_test/mfcc/raw_mfcc_train.2.ark:1857138
fhxs0_sx265 quick_test/mfcc/raw_mfcc_train.1.ark:1566597
mtdp0_si1274 quick_test/mfcc/raw_mfcc_train.4.ark:2569024
mstf0_si1396 quick_test/mfcc/raw_mfcc_train.4.ark:2263961
mjls0_sx196 quick_test/mfcc/raw_mfcc_train.3.ark:1253824
mjjb0_si1139 quick_test/mfcc/raw_mfcc_train.3.ark:1036449
mclk0_sx310 quick_test/mfcc/raw_mfcc_train.2.ark:1733178
mrsp0_si2059 quick_test/mfcc/raw_mfcc_train.4.ark:1482065
mjjm0_sx377 quick_test/mfcc/raw_mfcc_train.3.ark:1134880
fcaj0_sx309 quick_test/mfcc/raw_mfcc_train.1.ark:457191
mdlh0_sx430 quick_test/mfcc/raw_mfcc_train.2.ark:2573542
fpaf0_si1054 quick_test/mfcc/raw_mfcc_train.1.ark:3297510
mjxl0_si542 quick_test/mfcc/raw_mfcc_train.3.ark:1824712
mwre0_si1687 quick_test/mfcc/raw_mfcc_train.4.ark:3650737
flod0_sx297 quick_test/mfcc/raw_mfcc_train.1.ark:2744855
fsls0_sx426 quick_test/mfcc/raw_mfcc_train.2.ark:200725
fvkb0_sx349 quick_test/mfcc/raw_mfcc_train.2.ark:615301
mrai0_sx342 quick_test/mfcc/raw_mfcc_train.4.ark:272174
mrso0_sx399 quick_test/mfcc/raw_mfcc_train.4.ark:1471324
mtcs0_si1972 quick_test/mfcc/raw_mfcc_train.4.ark:2504105
fjkl0_sx122 quick_test/mfcc/raw_mfcc_train.1.ark:1696249
mklr0_sx339 quick_test/mfcc/raw_mfcc_train.3.ark:2191257
mzmb0_si536 quick_test/mfcc/raw_mfcc_train.4.ark:3784831
mjxa0_si877 quick_test/mfcc/raw_mfcc_train.3.ark:1794092
flod0_sx117 quick_test/mfcc/raw_mfcc_train.1.ark:2733836
mtlc0_si1477 quick_test/mfcc/raw_mfcc_train.4.ark:2882650
fsbk0_sx169 quick_test/mfcc/raw_mfcc_train.1.ark:3669712
mgrl0_sx417 quick_test/mfcc/raw_mfcc_train.3.ark:151151
mrcw0_si741 quick_test/mfcc/raw_mfcc_train.4.ark:425008
mgrp0_si1317 quick_test/mfcc/raw_mfcc_train.3.ark:157847
mmam0_sx427 quick_test/mfcc/raw_mfcc_train.3.ark:2697263
mjjj0_si1793 quick_test/mfcc/raw_mfcc_train.3.ark:1077231
fsag0_sx423 quick_test/mfcc/raw_mfcc_train.1.ark:3582370
mjbg0_sx152 quick_test/mfcc/raw_mfcc_train.3.ark:653184
mdas0_si636 quick_test/mfcc/raw_mfcc_train.2.ark:2004719
mmgk0_sx152 quick_test/mfcc/raw_mfcc_train.3.ark:3096641
mcae0_sx187 quick_test/mfcc/raw_mfcc_train.2.ark:1456784
fljg0_sx81 quick_test/mfcc/raw_mfcc_train.1.ark:2588186
mrvg0_si1140 quick_test/mfcc/raw_mfcc_train.4.ark:1586072
flkm0_si686 quick_test/mfcc/raw_mfcc_train.1.ark:2603418
mhbs0_sx135 quick_test/mfcc/raw_mfcc_train.3.ark:312583
mtab0_sx42 quick_test/mfcc/raw_mfcc_train.4.ark:2374116
mmar0_si1336 quick_test/mfcc/raw_mfcc_train.3.ark:2704037
mdwd0_sx360 quick_test/mfcc/raw_mfcc_train.2.ark:3042743
mrkm0_si1391 quick_test/mfcc/raw_mfcc_train.4.ark:1023456
mjpg0_sx21 quick_test/mfcc/raw_mfcc_train.3.ark:1373653
mrmg0_si1710 quick_test/mfcc/raw_mfcc_train.4.ark:1241721
fjlg0_sx269 quick_test/mfcc/raw_mfcc_train.1.ark:1731726
mwgr0_sx346 quick_test/mfcc/raw_mfcc_train.4.ark:3634146
fcdr1_si1186 quick_test/mfcc/raw_mfcc_train.1.ark:468314
mkrg0_sx411 quick_test/mfcc/raw_mfcc_train.3.ark:2325952
mjrp0_sx405 quick_test/mfcc/raw_mfcc_train.3.ark:1629503
mkag0_sx79 quick_test/mfcc/raw_mfcc_train.3.ark:1880169
mstf0_sx406 quick_test/mfcc/raw_mfcc_train.4.ark:2290042
fcmg0_si1872 quick_test/mfcc/raw_mfcc_train.1.ark:663906
fpmy0_si523 quick_test/mfcc/raw_mfcc_train.1.ark:3436423
fcke0_sx211 quick_test/mfcc/raw_mfcc_train.1.ark:610232
mdpk0_sx153 quick_test/mfcc/raw_mfcc_train.2.ark:2821797
mwdk0_sx446 quick_test/mfcc/raw_mfcc_train.4.ark:3572873
fclt0_sx358 quick_test/mfcc/raw_mfcc_train.1.ark:642276
fdkn0_si1081 quick_test/mfcc/raw_mfcc_train.1.ark:910829
mpgr1_sx149 quick_test/mfcc/raw_mfcc_train.3.ark:3668794
mapv0_si1293 quick_test/mfcc/raw_mfcc_train.2.ark:942819
fpac0_sx211 quick_test/mfcc/raw_mfcc_train.1.ark:3247323
mjjj0_sx443 quick_test/mfcc/raw_mfcc_train.3.ark:1098976
mdss1_si697 quick_test/mfcc/raw_mfcc_train.2.ark:2973291
mtlb0_si1134 quick_test/mfcc/raw_mfcc_train.4.ark:2844157
mfxv0_si1635 quick_test/mfcc/raw_mfcc_train.2.ark:3564144
mvrw0_sx405 quick_test/mfcc/raw_mfcc_train.4.ark:3418652
mgaw0_sx175 quick_test/mfcc/raw_mfcc_train.3.ark:46165
mdlr0_sx243 quick_test/mfcc/raw_mfcc_train.2.ark:2625395
mmwb0_si2249 quick_test/mfcc/raw_mfcc_train.3.ark:3318430
mrlk0_si1468 quick_test/mfcc/raw_mfcc_train.4.ark:1144146
fjlr0_sx241 quick_test/mfcc/raw_mfcc_train.1.ark:1764881
mdtb0_sx300 quick_test/mfcc/raw_mfcc_train.2.ark:3012941
fklc1_sx148 quick_test/mfcc/raw_mfcc_train.1.ark:2239173
flmc0_sx112 quick_test/mfcc/raw_mfcc_train.1.ark:2669085
mgrl0_sx327 quick_test/mfcc/raw_mfcc_train.3.ark:143916
mtpr0_si1600 quick_test/mfcc/raw_mfcc_train.4.ark:3098075
fklc0_sx85 quick_test/mfcc/raw_mfcc_train.1.ark:2224426
mrjm0_si1228 quick_test/mfcc/raw_mfcc_train.4.ark:920233
mdlm0_si1864 quick_test/mfcc/raw_mfcc_train.2.ark:2584965
mbom0_si1644 quick_test/mfcc/raw_mfcc_train.2.ark:1321109
mklw0_si2201 quick_test/mfcc/raw_mfcc_train.3.ark:2277144
mtab0_sx222 quick_test/mfcc/raw_mfcc_train.4.ark:2359354
fskl0_sx179 quick_test/mfcc/raw_mfcc_train.2.ark:126268
fsma0_sx451 quick_test/mfcc/raw_mfcc_train.2.ark:233425
fmkc0_sx262 quick_test/mfcc/raw_mfcc_train.1.ark:3002425
fmkf0_sx276 quick_test/mfcc/raw_mfcc_train.1.ark:3037374
fbas0_sx307 quick_test/mfcc/raw_mfcc_train.1.ark:196878
fsak0_sx130 quick_test/mfcc/raw_mfcc_train.1.ark:3640144
mtpg0_si753 quick_test/mfcc/raw_mfcc_train.4.ark:3046028
mljh0_sx334 quick_test/mfcc/raw_mfcc_train.3.ark:2493658
fljd0_si2146 quick_test/mfcc/raw_mfcc_train.1.ark:2528015
fjkl0_sx212 quick_test/mfcc/raw_mfcc_train.1.ark:1700923
makr0_sx182 quick_test/mfcc/raw_mfcc_train.2.ark:928081
mmwb0_sx359 quick_test/mfcc/raw_mfcc_train.3.ark:3340012
fcjs0_sx437 quick_test/mfcc/raw_mfcc_train.1.ark:583916
mwac0_si1601 quick_test/mfcc/raw_mfcc_train.4.ark:3424750
mmdg0_sx250 quick_test/mfcc/raw_mfcc_train.3.ark:2860177
falk0_sx186 quick_test/mfcc/raw_mfcc_train.1.ark:82540
mdma0_sx440 quick_test/mfcc/raw_mfcc_train.2.ark:2706813
mjjb0_sx149 quick_test/mfcc/raw_mfcc_train.3.ark:1048185
fcaj0_si849 quick_test/mfcc/raw_mfcc_train.1.ark:444365
fdnc0_si1908 quick_test/mfcc/raw_mfcc_train.1.ark:1027307
mbgt0_sx171 quick_test/mfcc/raw_mfcc_train.2.ark:1169661
fmjf0_sx354 quick_test/mfcc/raw_mfcc_train.1.ark:2938877
mafm0_si1569 quick_test/mfcc/raw_mfcc_train.2.ark:816853
fhlm0_sx349 quick_test/mfcc/raw_mfcc_train.1.ark:1531023
mdpb0_sx416 quick_test/mfcc/raw_mfcc_train.2.ark:2805082
falr0_si1955 quick_test/mfcc/raw_mfcc_train.1.ark:105942
mtjm0_sx326 quick_test/mfcc/raw_mfcc_train.4.ark:2694954
mbjv0_sx257 quick_test/mfcc/raw_mfcc_train.2.ark:1206970
fsmm0_sx234 quick_test/mfcc/raw_mfcc_train.2.ark:258233
mrlj1_si1671 quick_test/mfcc/raw_mfcc_train.4.ark:1115774
mwem0_sx60 quick_test/mfcc/raw_mfcc_train.4.ark:3609428
fpjf0_si1259 quick_test/mfcc/raw_mfcc_train.1.ark:3368638
mtas0_si2015 quick_test/mfcc/raw_mfcc_train.4.ark:2381906
mkag0_sx30 quick_test/mfcc/raw_mfcc_train.3.ark:1872772
mpar0_sx406 quick_test/mfcc/raw_mfcc_train.3.ark:3529170
mgak0_sx46 quick_test/mfcc/raw_mfcc_train.2.ark:3674992
mljh0_sx64 quick_test/mfcc/raw_mfcc_train.3.ark:2502576
mmbs0_sx71 quick_test/mfcc/raw_mfcc_train.3.ark:2776800
fcyl0_si1927 quick_test/mfcc/raw_mfcc_train.1.ark:754199
mhbs0_si1575 quick_test/mfcc/raw_mfcc_train.3.ark:299444
mkdd0_si1567 quick_test/mfcc/raw_mfcc_train.3.ark:2011744
mdrd0_sx392 quick_test/mfcc/raw_mfcc_train.2.ark:2903149
fmah1_sx249 quick_test/mfcc/raw_mfcc_train.1.ark:2801910
msfh0_si1216 quick_test/mfcc/raw_mfcc_train.4.ark:1993159
mgag0_si691 quick_test/mfcc/raw_mfcc_train.2.ark:3620014
mdtb0_sx390 quick_test/mfcc/raw_mfcc_train.2.ark:3020235
fdaw0_si1406 quick_test/mfcc/raw_mfcc_train.1.ark:824071
mtpp0_sx338 quick_test/mfcc/raw_mfcc_train.4.ark:3086458
msat0_sx356 quick_test/mfcc/raw_mfcc_train.4.ark:1786404
mfxs0_sx324 quick_test/mfcc/raw_mfcc_train.2.ark:3538640
mtat1_si1409 quick_test/mfcc/raw_mfcc_train.4.ark:2435000
fpad0_sx266 quick_test/mfcc/raw_mfcc_train.1.ark:3281804
mtwh1_sx342 quick_test/mfcc/raw_mfcc_train.4.ark:3286258
mrmg0_sx90 quick_test/mfcc/raw_mfcc_train.4.ark:1266749
mjee0_si1867 quick_test/mfcc/raw_mfcc_train.3.ark:914875
mvrw0_sx225 quick_test/mfcc/raw_mfcc_train.4.ark:3413321
falk0_sx6 quick_test/mfcc/raw_mfcc_train.1.ark:94090
mdem0_sx158 quick_test/mfcc/raw_mfcc_train.2.ark:2264361
mbar0_sx329 quick_test/mfcc/raw_mfcc_train.2.ark:1058570
mmvp0_sx204 quick_test/mfcc/raw_mfcc_train.3.ark:3296098
ftmg0_si1532 quick_test/mfcc/raw_mfcc_train.2.ark:536435
mses0_si2216 quick_test/mfcc/raw_mfcc_train.4.ark:1969605
mdrd0_sx302 quick_test/mfcc/raw_mfcc_train.2.ark:2895024
mpgr0_sx420 quick_test/mfcc/raw_mfcc_train.3.ark:3647931
mjjm0_si827 quick_test/mfcc/raw_mfcc_train.3.ark:1117439
fgmb0_si1775 quick_test/mfcc/raw_mfcc_train.1.ark:1438963
mclk0_si2290 quick_test/mfcc/raw_mfcc_train.2.ark:1712194
mjrh0_si1840 quick_test/mfcc/raw_mfcc_train.3.ark:1520429
fdml0_sx69 quick_test/mfcc/raw_mfcc_train.1.ark:972050
mtpf0_sx65 quick_test/mfcc/raw_mfcc_train.4.ark:3035709
mcae0_si1447 quick_test/mfcc/raw_mfcc_train.2.ark:1436625
mjjb0_sx239 quick_test/mfcc/raw_mfcc_train.3.ark:1053132
mtrr0_sx288 quick_test/mfcc/raw_mfcc_train.4.ark:3229028
fgrw0_sx162 quick_test/mfcc/raw_mfcc_train.1.ark:1484925
mwch0_si1895 quick_test/mfcc/raw_mfcc_train.4.ark:3524316
fbmh0_sx326 quick_test/mfcc/raw_mfcc_train.1.ark:363927
fspm0_si611 quick_test/mfcc/raw_mfcc_train.2.ark:321188
mgaf0_sx112 quick_test/mfcc/raw_mfcc_train.2.ark:3597124
mjac0_si1331 quick_test/mfcc/raw_mfcc_train.3.ark:543920
mses0_sx329 quick_test/mfcc/raw_mfcc_train.4.ark:1983323
mgaf0_sx202 quick_test/mfcc/raw_mfcc_train.2.ark:3600368
mdss0_si2087 quick_test/mfcc/raw_mfcc_train.2.ark:2943223
mkln0_sx68 quick_test/mfcc/raw_mfcc_train.3.ark:2169827
mjxa0_sx157 quick_test/mfcc/raw_mfcc_train.3.ark:1797570
msjk0_si1596 quick_test/mfcc/raw_mfcc_train.4.ark:2069427
mclm0_si2086 quick_test/mfcc/raw_mfcc_train.2.ark:1747728
fklc1_si1048 quick_test/mfcc/raw_mfcc_train.1.ark:2228061
fdjh0_sx395 quick_test/mfcc/raw_mfcc_train.1.ark:906895
fsag0_sx63 quick_test/mfcc/raw_mfcc_train.1.ark:3588161
mkdd0_sx307 quick_test/mfcc/raw_mfcc_train.3.ark:2033776
fblv0_si1688 quick_test/mfcc/raw_mfcc_train.1.ark:311854
fsrh0_si671 quick_test/mfcc/raw_mfcc_train.2.ark:351548
fetb0_sx338 quick_test/mfcc/raw_mfcc_train.1.ark:1314092
msmr0_sx145 quick_test/mfcc/raw_mfcc_train.4.ark:2150929
ftbr0_sx21 quick_test/mfcc/raw_mfcc_train.2.ark:460315
fcyl0_sx397 quick_test/mfcc/raw_mfcc_train.1.ark:779681
mcth0_sx309 quick_test/mfcc/raw_mfcc_train.2.ark:1887161
fskc0_si2046 quick_test/mfcc/raw_mfcc_train.2.ark:87366
fcrz0_sx253 quick_test/mfcc/raw_mfcc_train.1.ark:735573
mhmr0_sx219 quick_test/mfcc/raw_mfcc_train.3.ark:434668
msah1_sx239 quick_test/mfcc/raw_mfcc_train.4.ark:1719840
makb0_si2276 quick_test/mfcc/raw_mfcc_train.2.ark:892163
mrgm0_si1162 quick_test/mfcc/raw_mfcc_train.4.ark:735225
fmem0_sx297 quick_test/mfcc/raw_mfcc_train.1.ark:2869370
mjra0_si1866 quick_test/mfcc/raw_mfcc_train.3.ark:1451771
mtab0_si2202 quick_test/mfcc/raw_mfcc_train.4.ark:2346190
mmgc0_si1935 quick_test/mfcc/raw_mfcc_train.3.ark:3031134
mrcw0_sx291 quick_test/mfcc/raw_mfcc_train.4.ark:439764
fbcg1_si2242 quick_test/mfcc/raw_mfcc_train.1.ark:209179
mdks0_sx76 quick_test/mfcc/raw_mfcc_train.2.ark:2408150
fbjl0_sx202 quick_test/mfcc/raw_mfcc_train.1.ark:292266
mpmb0_sx61 quick_test/mfcc/raw_mfcc_train.3.ark:3736985
mtpp0_si1508 quick_test/mfcc/raw_mfcc_train.4.ark:3067949
fjwb1_si2055 quick_test/mfcc/raw_mfcc_train.1.ark:1920163
mdpb0_sx146 quick_test/mfcc/raw_mfcc_train.2.ark:2794258
mjrh1_si1774 quick_test/mfcc/raw_mfcc_train.3.ark:1551614
mjrh0_si1755 quick_test/mfcc/raw_mfcc_train.3.ark:1516352
frll0_sx74 quick_test/mfcc/raw_mfcc_train.1.ark:3550898
mdlc1_si1435 quick_test/mfcc/raw_mfcc_train.2.ark:2486636
msrg0_sx321 quick_test/mfcc/raw_mfcc_train.4.ark:2219775
mjae0_sx444 quick_test/mfcc/raw_mfcc_train.3.ark:600519
flet0_sx277 quick_test/mfcc/raw_mfcc_train.1.ark:2445411
flac0_sx451 quick_test/mfcc/raw_mfcc_train.1.ark:2347031
mewm0_sx268 quick_test/mfcc/raw_mfcc_train.2.ark:3383724
mesg0_sx72 quick_test/mfcc/raw_mfcc_train.2.ark:3339120
frll0_sx164 quick_test/mfcc/raw_mfcc_train.1.ark:3536935
fjsp0_si1434 quick_test/mfcc/raw_mfcc_train.1.ark:1888178
mklw0_si1571 quick_test/mfcc/raw_mfcc_train.3.ark:2268223
mafm0_sx39 quick_test/mfcc/raw_mfcc_train.2.ark:837305
mbma1_sx414 quick_test/mfcc/raw_mfcc_train.2.ark:1277870
fpad0_sx176 quick_test/mfcc/raw_mfcc_train.1.ark:3276454
mjrp0_si1835 quick_test/mfcc/raw_mfcc_train.3.ark:1607243
mjpm1_si1897 quick_test/mfcc/raw_mfcc_train.3.ark:1415878
mjjj0_si533 quick_test/mfcc/raw_mfcc_train.3.ark:1080423
fcke0_sx391 quick_test/mfcc/raw_mfcc_train.1.ark:619508
mtju0_sx310 quick_test/mfcc/raw_mfcc_train.4.ark:2763565
mdpb0_sx56 quick_test/mfcc/raw_mfcc_train.2.ark:2808507
fltm0_sx80 quick_test/mfcc/raw_mfcc_train.1.ark:2782152
fsah0_sx344 quick_test/mfcc/raw_mfcc_train.1.ark:3617819
mwsb0_sx366 quick_test/mfcc/raw_mfcc_train.4.ark:3727995
mwdk0_sx176 quick_test/mfcc/raw_mfcc_train.4.ark:3560541
feme0_si875 quick_test/mfcc/raw_mfcc_train.1.ark:1266590
msrg0_sx51 quick_test/mfcc/raw_mfcc_train.4.ark:2228225
mjlb0_sx446 quick_test/mfcc/raw_mfcc_train.3.ark:1195724
mrhl0_sx435 quick_test/mfcc/raw_mfcc_train.4.ark:833010
fdmy0_si567 quick_test/mfcc/raw_mfcc_train.1.ark:980801
mrxb0_sx235 quick_test/mfcc/raw_mfcc_train.4.ark:1692144
mtlb0_sx144 quick_test/mfcc/raw_mfcc_train.4.ark:2855905
mafm0_si939 quick_test/mfcc/raw_mfcc_train.2.ark:820469
mrgm0_si1792 quick_test/mfcc/raw_mfcc_train.4.ark:739562
fcrz0_sx433 quick_test/mfcc/raw_mfcc_train.1.ark:742282
mntw0_sx258 quick_test/mfcc/raw_mfcc_train.3.ark:3495046
mfwk0_sx439 quick_test/mfcc/raw_mfcc_train.2.ark:3513590
mmdb0_sx447 quick_test/mfcc/raw_mfcc_train.3.ark:2835967
fmpg0_sx252 quick_test/mfcc/raw_mfcc_train.1.ark:3107853
mmag0_sx406 quick_test/mfcc/raw_mfcc_train.3.ark:2667461
mges0_si1481 quick_test/mfcc/raw_mfcc_train.3.ark:63217
mkxl0_si1958 quick_test/mfcc/raw_mfcc_train.3.ark:2341803
mrfl0_sx256 quick_test/mfcc/raw_mfcc_train.4.ark:719012
mjae0_sx264 quick_test/mfcc/raw_mfcc_train.3.ark:592367
mjws0_sx423 quick_test/mfcc/raw_mfcc_train.3.ark:1740654
fmju0_si1389 quick_test/mfcc/raw_mfcc_train.1.ark:2952366
flmk0_sx225 quick_test/mfcc/raw_mfcc_train.1.ark:2707461
mtdp0_sx81 quick_test/mfcc/raw_mfcc_train.4.ark:2604044
mdma0_sx80 quick_test/mfcc/raw_mfcc_train.2.ark:2712981
fjrb0_si1932 quick_test/mfcc/raw_mfcc_train.1.ark:1786302
mstf0_sx136 quick_test/mfcc/raw_mfcc_train.4.ark:2277502
msah1_sx149 quick_test/mfcc/raw_mfcc_train.4.ark:1715621
mkdt0_sx443 quick_test/mfcc/raw_mfcc_train.3.ark:2070031
fbch0_si956 quick_test/mfcc/raw_mfcc_train.1.ark:244075
mrjb1_sx210 quick_test/mfcc/raw_mfcc_train.4.ark:863981
fvmh0_sx116 quick_test/mfcc/raw_mfcc_train.2.ark:644867
mtdb0_sx411 quick_test/mfcc/raw_mfcc_train.4.ark:2561275
mrlk0_sx393 quick_test/mfcc/raw_mfcc_train.4.ark:1172769
fsrh0_si1931 quick_test/mfcc/raw_mfcc_train.2.ark:348161
mbsb0_si723 quick_test/mfcc/raw_mfcc_train.2.ark:1351192
fsjw0_si703 quick_test/mfcc/raw_mfcc_train.2.ark:60016
mtat0_sx300 quick_test/mfcc/raw_mfcc_train.4.ark:2428238
fsjk1_sx35 quick_test/mfcc/raw_mfcc_train.2.ark:7357
megj0_sx257 quick_test/mfcc/raw_mfcc_train.2.ark:3234450
mbsb0_sx273 quick_test/mfcc/raw_mfcc_train.2.ark:1358564
fmmh0_sx367 quick_test/mfcc/raw_mfcc_train.1.ark:3070358
fapb0_sx73 quick_test/mfcc/raw_mfcc_train.1.ark:167544
mjrk0_si880 quick_test/mfcc/raw_mfcc_train.3.ark:1581890
mjbg0_si1862 quick_test/mfcc/raw_mfcc_train.3.ark:649680
makb0_sx386 quick_test/mfcc/raw_mfcc_train.2.ark:915077
medr0_sx384 quick_test/mfcc/raw_mfcc_train.2.ark:3175793
mntw0_sx78 quick_test/mfcc/raw_mfcc_train.3.ark:3504497
ftmg0_si2162 quick_test/mfcc/raw_mfcc_train.2.ark:538731
mmlm0_si897 quick_test/mfcc/raw_mfcc_train.3.ark:3154143
fdjh0_sx215 quick_test/mfcc/raw_mfcc_train.1.ark:896215
mjbg0_sx422 quick_test/mfcc/raw_mfcc_train.3.ark:666920
mjdc0_si1161 quick_test/mfcc/raw_mfcc_train.3.ark:703990
mdhl0_si2069 quick_test/mfcc/raw_mfcc_train.2.ark:2291990
fpjf0_sx56 quick_test/mfcc/raw_mfcc_train.1.ark:3392964
mgsl0_sx264 quick_test/mfcc/raw_mfcc_train.3.ark:247011
mmar0_sx166 quick_test/mfcc/raw_mfcc_train.3.ark:2718463
mkam0_sx236 quick_test/mfcc/raw_mfcc_train.3.ark:1964366
mbml0_si1169 quick_test/mfcc/raw_mfcc_train.2.ark:1286893
fcjs0_si2237 quick_test/mfcc/raw_mfcc_train.1.ark:565161
mjac0_sx71 quick_test/mfcc/raw_mfcc_train.3.ark:573180
mjra0_si1236 quick_test/mfcc/raw_mfcc_train.3.ark:1447980
medr0_sx114 quick_test/mfcc/raw_mfcc_train.2.ark:3163559
fdtd0_sx301 quick_test/mfcc/raw_mfcc_train.1.ark:1077989
mesj0_si2257 quick_test/mfcc/raw_mfcc_train.2.ark:3347573
mcdr0_sx344 quick_test/mfcc/raw_mfcc_train.2.ark:1595370
fscn0_si626 quick_test/mfcc/raw_mfcc_train.1.ark:3698965
fsah0_sx74 quick_test/mfcc/raw_mfcc_train.1.ark:3624137
mcdd0_sx163 quick_test/mfcc/raw_mfcc_train.2.ark:1551268
flma0_sx343 quick_test/mfcc/raw_mfcc_train.1.ark:2646201
mjsr0_sx434 quick_test/mfcc/raw_mfcc_train.3.ark:1667650
mtkd0_sx107 quick_test/mfcc/raw_mfcc_train.4.ark:2789907
fmbg0_sx440 quick_test/mfcc/raw_mfcc_train.1.ark:2840460
fskc0_sx426 quick_test/mfcc/raw_mfcc_train.2.ark:105978
mbgt0_si1341 quick_test/mfcc/raw_mfcc_train.2.ark:1156821
mwdk0_sx356 quick_test/mfcc/raw_mfcc_train.4.ark:3568849
mtkp0_sx123 quick_test/mfcc/raw_mfcc_train.4.ark:2826806
mbbr0_sx425 quick_test/mfcc/raw_mfcc_train.2.ark:1094606
mtdb0_sx231 quick_test/mfcc/raw_mfcc_train.4.ark:2554995
mdwh0_sx305 quick_test/mfcc/raw_mfcc_train.2.ark:3078381
frjb0_sx257 quick_test/mfcc/raw_mfcc_train.1.ark:3505907
mljh0_sx424 quick_test/mfcc/raw_mfcc_train.3.ark:2497760
fpac0_si661 quick_test/mfcc/raw_mfcc_train.1.ark:3236870
feac0_sx255 quick_test/mfcc/raw_mfcc_train.1.ark:1138820
mgrp0_si1947 quick_test/mfcc/raw_mfcc_train.3.ark:163562
mgxp0_sx187 quick_test/mfcc/raw_mfcc_train.3.ark:280405
fajw0_si1263 quick_test/mfcc/raw_mfcc_train.1.ark:32804
mkag0_si979 quick_test/mfcc/raw_mfcc_train.3.ark:1858270
mmea0_si2018 quick_test/mfcc/raw_mfcc_train.3.ark:2972756
fskl0_sx359 quick_test/mfcc/raw_mfcc_train.2.ark:133354
fsah0_si614 quick_test/mfcc/raw_mfcc_train.1.ark:3601093
mpar0_sx136 quick_test/mfcc/raw_mfcc_train.3.ark:3518242
mbjv0_si617 quick_test/mfcc/raw_mfcc_train.2.ark:1198415
mrjb1_si1020 quick_test/mfcc/raw_mfcc_train.4.ark:840668
fklc0_sx355 quick_test/mfcc/raw_mfcc_train.1.ark:2217016
mtpf0_si1865 quick_test/mfcc/raw_mfcc_train.4.ark:3012671
mfxv0_sx105 quick_test/mfcc/raw_mfcc_train.2.ark:3566946
mkdb0_sx62 quick_test/mfcc/raw_mfcc_train.3.ark:2008057
msfh0_sx136 quick_test/mfcc/raw_mfcc_train.4.ark:2009431
fmju0_si2019 quick_test/mfcc/raw_mfcc_train.1.ark:2958692
fleh0_sx421 quick_test/mfcc/raw_mfcc_train.1.ark:2416267
fkde0_sx331 quick_test/mfcc/raw_mfcc_train.1.ark:2075946
mjai0_sx74 quick_test/mfcc/raw_mfcc_train.3.ark:639698
mrmb0_si951 quick_test/mfcc/raw_mfcc_train.4.ark:1214280
mcae0_sx7 quick_test/mfcc/raw_mfcc_train.2.ark:1469400
mdas0_sx96 quick_test/mfcc/raw_mfcc_train.2.ark:2022014
mdns0_sx201 quick_test/mfcc/raw_mfcc_train.2.ark:2764958
mcre0_si1121 quick_test/mfcc/raw_mfcc_train.2.ark:1801615
mmrp0_sx324 quick_test/mfcc/raw_mfcc_train.3.ark:3225908
fskl0_si1529 quick_test/mfcc/raw_mfcc_train.2.ark:113467
mmab1_sx324 quick_test/mfcc/raw_mfcc_train.3.ark:2624666
mbwp0_sx349 quick_test/mfcc/raw_mfcc_train.2.ark:1421953
feeh0_sx32 quick_test/mfcc/raw_mfcc_train.1.ark:1251129
mppc0_sx332 quick_test/mfcc/raw_mfcc_train.4.ark:3971
mbjv0_sx167 quick_test/mfcc/raw_mfcc_train.2.ark:1202699
mdss1_sx337 quick_test/mfcc/raw_mfcc_train.2.ark:2985623
mgsh0_sx276 quick_test/mfcc/raw_mfcc_train.3.ark:216505
fklc1_sx238 quick_test/mfcc/raw_mfcc_train.1.ark:2242911
mhjb0_sx117 quick_test/mfcc/raw_mfcc_train.3.ark:373564
mfrm0_sx255 quick_test/mfcc/raw_mfcc_train.2.ark:3475533
fgcs0_si1486 quick_test/mfcc/raw_mfcc_train.1.ark:1364520
mrvg0_si1770 quick_test/mfcc/raw_mfcc_train.4.ark:1589538
fklh0_sx87 quick_test/mfcc/raw_mfcc_train.1.ark:2289216
fpaf0_sx64 quick_test/mfcc/raw_mfcc_train.1.ark:3327148
mdlb0_si676 quick_test/mfcc/raw_mfcc_train.2.ark:2425138
mtxs0_si1060 quick_test/mfcc/raw_mfcc_train.4.ark:3296796
mjde0_sx400 quick_test/mfcc/raw_mfcc_train.3.ark:772293
fpls0_si1590 quick_test/mfcc/raw_mfcc_train.1.ark:3396456
mwar0_sx145 quick_test/mfcc/raw_mfcc_train.4.ark:3502199
mtrr0_sx378 quick_test/mfcc/raw_mfcc_train.4.ark:3233468
mwad0_si2322 quick_test/mfcc/raw_mfcc_train.4.ark:3470206
mrhl0_si885 quick_test/mfcc/raw_mfcc_train.4.ark:817902
