fvfb0_sx42 quick_test/fbank/raw_fbank_train.2.ark:1817921
mjjj0_sx173 quick_test/fbank/raw_fbank_train.3.ark:3320733
mclm0_sx196 quick_test/fbank/raw_fbank_train.2.ark:5390581
fmkf0_sx186 quick_test/fbank/raw_fbank_train.1.ark:9286380
fjsk0_sx332 quick_test/fbank/raw_fbank_train.1.ark:5739206
mgxp0_sx7 quick_test/fbank/raw_fbank_train.3.ark:893208
mpgr0_sx420 quick_test/fbank/raw_fbank_train.3.ark:11162328
mdlr1_sx399 quick_test/fbank/raw_fbank_train.2.ark:8182505
fhlm0_sx210 quick_test/fbank/raw_fbank_train.1.ark:4661876
fbjl0_si2182 quick_test/fbank/raw_fbank_train.1.ark:853843
mmag0_sx46 quick_test/fbank/raw_fbank_train.3.ark:8178427
mkdt0_sx443 quick_test/fbank/raw_fbank_train.3.ark:6334222
fspm0_sx161 quick_test/fbank/raw_fbank_train.2.ark:992630
frll0_si884 quick_test/fbank/raw_fbank_train.1.ark:10810276
mmwb0_si989 quick_test/fbank/raw_fbank_train.3.ark:10178150
medr0_sx384 quick_test/fbank/raw_fbank_train.2.ark:9716948
fajw0_sx93 quick_test/fbank/raw_fbank_train.1.ark:196227
mrcg0_sx438 quick_test/fbank/raw_fbank_train.4.ark:1242659
mcre0_si1751 quick_test/fbank/raw_fbank_train.2.ark:5533934
mwad0_sx342 quick_test/fbank/raw_fbank_train.4.ark:10647799
msms0_sx353 quick_test/fbank/raw_fbank_train.4.ark:6702744
mdpk0_sx243 quick_test/fbank/raw_fbank_train.2.ark:8646093
fpab1_sx31 quick_test/fbank/raw_fbank_train.1.ark:9858438
mtlc0_si847 quick_test/fbank/raw_fbank_train.4.ark:8840968
mfer0_sx232 quick_test/fbank/raw_fbank_train.2.ark:10437004
mntw0_sx348 quick_test/fbank/raw_fbank_train.3.ark:10709004
fpac0_sx391 quick_test/fbank/raw_fbank_train.1.ark:9974256
msah1_si1679 quick_test/fbank/raw_fbank_train.4.ark:5233898
mbma0_si592 quick_test/fbank/raw_fbank_train.2.ark:3762885
fvkb0_si1159 quick_test/fbank/raw_fbank_train.2.ark:1825835
mrcg0_sx168 quick_test/fbank/raw_fbank_train.4.ark:1200600
mtcs0_si1972 quick_test/fbank/raw_fbank_train.4.ark:7663346
fmjb0_sx97 quick_test/fbank/raw_fbank_train.1.ark:8920050
mkxl0_sx15 quick_test/fbank/raw_fbank_train.3.ark:7192023
mtlb0_si504 quick_test/fbank/raw_fbank_train.4.ark:8729743
fklc1_sx148 quick_test/fbank/raw_fbank_train.1.ark:6853176
mcre0_sx41 quick_test/fbank/raw_fbank_train.2.ark:5595377
feme0_si1505 quick_test/fbank/raw_fbank_train.1.ark:3853486
mjls0_sx106 quick_test/fbank/raw_fbank_train.3.ark:3815979
majp0_sx444 quick_test/fbank/raw_fbank_train.2.ark:2664556
mdac0_si631 quick_test/fbank/raw_fbank_train.2.ark:6024217
mjrp0_si1835 quick_test/fbank/raw_fbank_train.3.ark:4917821
mtab0_sx312 quick_test/fbank/raw_fbank_train.4.ark:7233467
mtas0_sx305 quick_test/fbank/raw_fbank_train.4.ark:7325492
falk0_si1086 quick_test/fbank/raw_fbank_train.1.ark:209261
mdjm0_si825 quick_test/fbank/raw_fbank_train.2.ark:7219115
msvs0_sx308 quick_test/fbank/raw_fbank_train.4.ark:7113162
mtat0_sx210 quick_test/fbank/raw_fbank_train.4.ark:7414844
mwrp0_sx3 quick_test/fbank/raw_fbank_train.4.ark:11322337
fdxw0_sx341 quick_test/fbank/raw_fbank_train.1.ark:3399087
mwsh0_sx346 quick_test/fbank/raw_fbank_train.4.ark:11518025
fmkc0_sx442 quick_test/fbank/raw_fbank_train.1.ark:9216414
fpjf0_si1046 quick_test/fbank/raw_fbank_train.1.ark:10299125
mtwh1_sx432 quick_test/fbank/raw_fbank_train.4.ark:10067600
mdhs0_sx450 quick_test/fbank/raw_fbank_train.2.ark:7166542
mdlc0_si765 quick_test/fbank/raw_fbank_train.2.ark:7540791
mjpm1_sx41 quick_test/fbank/raw_fbank_train.3.ark:4415421
mpgr0_sx150 quick_test/fbank/raw_fbank_train.3.ark:11131909
fcmg0_sx432 quick_test/fbank/raw_fbank_train.1.ark:2079270
mkaj0_sx244 quick_test/fbank/raw_fbank_train.3.ark:5910577
mbjv0_sx257 quick_test/fbank/raw_fbank_train.2.ark:3692806
mtpp0_sx338 quick_test/fbank/raw_fbank_train.4.ark:9445498
mjde0_si490 quick_test/fbank/raw_fbank_train.3.ark:2279569
fblv0_si2318 quick_test/fbank/raw_fbank_train.1.ark:975582
mrgm0_si1792 quick_test/fbank/raw_fbank_train.4.ark:2263091
mvrw0_si855 quick_test/fbank/raw_fbank_train.4.ark:10421329
mdef0_sx123 quick_test/fbank/raw_fbank_train.2.ark:6828569
mtlc0_sx37 quick_test/fbank/raw_fbank_train.4.ark:8873219
mrbc0_sx239 quick_test/fbank/raw_fbank_train.4.ark:1106008
mlbc0_sx429 quick_test/fbank/raw_fbank_train.3.ark:7305435
mhit0_si983 quick_test/fbank/raw_fbank_train.3.ark:1026886
mtwh1_si1512 quick_test/fbank/raw_fbank_train.4.ark:10004481
fklc0_si985 quick_test/fbank/raw_fbank_train.1.ark:6731277
mrlj0_si1420 quick_test/fbank/raw_fbank_train.4.ark:3324584
madd0_sx88 quick_test/fbank/raw_fbank_train.2.ark:2293726
mjls0_sx376 quick_test/fbank/raw_fbank_train.3.ark:3860150
mkls0_sx267 quick_test/fbank/raw_fbank_train.3.ark:6793323
mbbr0_sx335 quick_test/fbank/raw_fbank_train.2.ark:3331620
msat1_sx263 quick_test/fbank/raw_fbank_train.4.ark:5546754
mpsw0_sx24 quick_test/fbank/raw_fbank_train.4.ark:525896
mctm0_sx360 quick_test/fbank/raw_fbank_train.2.ark:5873106
mjlg1_sx382 quick_test/fbank/raw_fbank_train.3.ark:3757765
mjrh1_sx334 quick_test/fbank/raw_fbank_train.3.ark:4795337
falk0_sx186 quick_test/fbank/raw_fbank_train.1.ark:252640
mtju0_si2269 quick_test/fbank/raw_fbank_train.4.ark:8414195
mclk0_si2290 quick_test/fbank/raw_fbank_train.2.ark:5238745
msdh0_sx350 quick_test/fbank/raw_fbank_train.4.ark:5722758
fdmy0_sx297 quick_test/fbank/raw_fbank_train.1.ark:3093002
mrlj1_sx51 quick_test/fbank/raw_fbank_train.4.ark:3491601
mtrr0_sx288 quick_test/fbank/raw_fbank_train.4.ark:9881909
mbma1_sx144 quick_test/fbank/raw_fbank_train.2.ark:3867823
flja0_si1708 quick_test/fbank/raw_fbank_train.1.ark:7633432
fsls0_sx202 quick_test/fbank/raw_fbank_train.2.ark:595883
mrhl0_sx165 quick_test/fbank/raw_fbank_train.4.ark:2515885
mjjj0_sx263 quick_test/fbank/raw_fbank_train.3.ark:3334526
fapb0_si1063 quick_test/fbank/raw_fbank_train.1.ark:403268
fjlr0_sx421 quick_test/fbank/raw_fbank_train.1.ark:5425963
mtlb0_sx414 quick_test/fbank/raw_fbank_train.4.ark:8779195
mdhl0_si2069 quick_test/fbank/raw_fbank_train.2.ark:7012832
fdnc0_si2287 quick_test/fbank/raw_fbank_train.1.ark:3162457
fear0_sx82 quick_test/fbank/raw_fbank_train.1.ark:3621842
mrdm0_si965 quick_test/fbank/raw_fbank_train.4.ark:1486003
mtcs0_sx442 quick_test/fbank/raw_fbank_train.4.ark:7735945
mtat0_si1740 quick_test/fbank/raw_fbank_train.4.ark:7372305
mkah0_sx448 quick_test/fbank/raw_fbank_train.3.ark:5840258
mjkr0_si1201 quick_test/fbank/raw_fbank_train.3.ark:3485123
fsmm0_si1314 quick_test/fbank/raw_fbank_train.2.ark:744920
mkrg0_sx231 quick_test/fbank/raw_fbank_train.3.ark:7105399
fdnc0_sx198 quick_test/fbank/raw_fbank_train.1.ark:3195355
mrpc1_sx402 quick_test/fbank/raw_fbank_train.4.ark:4259493
mvlo0_si1147 quick_test/fbank/raw_fbank_train.4.ark:10299517
mdjm0_si2085 quick_test/fbank/raw_fbank_train.2.ark:7206242
mcdr0_sx434 quick_test/fbank/raw_fbank_train.2.ark:4891609
mkjo0_si1517 quick_test/fbank/raw_fbank_train.3.ark:6465913
mabc0_sx331 quick_test/fbank/raw_fbank_train.2.ark:2073531
msms0_si803 quick_test/fbank/raw_fbank_train.4.ark:6665125
mjeb0_sx386 quick_test/fbank/raw_fbank_train.3.ark:2669529
falk0_sx6 quick_test/fbank/raw_fbank_train.1.ark:287977
mlsh0_sx157 quick_test/fbank/raw_fbank_train.3.ark:7800741
mjws0_si1773 quick_test/fbank/raw_fbank_train.3.ark:5257249
mjma0_sx145 quick_test/fbank/raw_fbank_train.3.ark:3916764
fgmb0_sx245 quick_test/fbank/raw_fbank_train.1.ark:4444585
mtrt0_si597 quick_test/fbank/raw_fbank_train.4.ark:9943403
flja0_sx358 quick_test/fbank/raw_fbank_train.1.ark:7678725
fsjk1_si1025 quick_test/fbank/raw_fbank_train.1.ark:11839380
mrbc0_si1859 quick_test/fbank/raw_fbank_train.4.ark:1068949
mgaf0_si1282 quick_test/fbank/raw_fbank_train.2.ark:10965064
msah1_si2309 quick_test/fbank/raw_fbank_train.4.ark:5240052
mdlh0_sx70 quick_test/fbank/raw_fbank_train.2.ark:7890870
mtjs0_si1822 quick_test/fbank/raw_fbank_train.4.ark:8290610
msas0_sx206 quick_test/fbank/raw_fbank_train.4.ark:5369783
msmr0_sx325 quick_test/fbank/raw_fbank_train.4.ark:6606479
mmpm0_sx71 quick_test/fbank/raw_fbank_train.3.ark:9802534
mjpm0_sx108 quick_test/fbank/raw_fbank_train.3.ark:4272785
fjkl0_si932 quick_test/fbank/raw_fbank_train.1.ark:5171300
fltm0_si1070 quick_test/fbank/raw_fbank_train.1.ark:8419600
fdxw0_sx431 quick_test/fbank/raw_fbank_train.1.ark:3409960
mrpc1_sx312 quick_test/fbank/raw_fbank_train.4.ark:4243660
mdlc1_si1435 quick_test/fbank/raw_fbank_train.2.ark:7608509
mklr0_si1689 quick_test/fbank/raw_fbank_train.3.ark:6666317
fdaw0_sx146 quick_test/fbank/raw_fbank_train.1.ark:2551617
mewm0_sx448 quick_test/fbank/raw_fbank_train.2.ark:10374765
mmam0_sx67 quick_test/fbank/raw_fbank_train.3.ark:8261853
mdmt0_sx302 quick_test/fbank/raw_fbank_train.2.ark:8366931
mfer0_sx142 quick_test/fbank/raw_fbank_train.2.ark:10425291
fgrw0_si1152 quick_test/fbank/raw_fbank_train.1.ark:4498917
mcpm0_sx114 quick_test/fbank/raw_fbank_train.2.ark:5465461
fljd0_si886 quick_test/fbank/raw_fbank_train.1.ark:7747051
msas0_si1376 quick_test/fbank/raw_fbank_train.4.ark:5304970
mjfh0_sx27 quick_test/fbank/raw_fbank_train.3.ark:2937578
mclm0_si1456 quick_test/fbank/raw_fbank_train.2.ark:5334976
mdef0_sx213 quick_test/fbank/raw_fbank_train.2.ark:6839562
fblv0_sx158 quick_test/fbank/raw_fbank_train.1.ark:990255
fpad0_sx176 quick_test/fbank/raw_fbank_train.1.ark:10027750
fskc0_si2046 quick_test/fbank/raw_fbank_train.2.ark:267348
mtpr0_si2230 quick_test/fbank/raw_fbank_train.4.ark:9494351
fpaz0_sx423 quick_test/fbank/raw_fbank_train.1.ark:10272859
mesj0_sx187 quick_test/fbank/raw_fbank_train.2.ark:10266763
fdaw0_si1271 quick_test/fbank/raw_fbank_train.1.ark:2502036
mmag0_sx406 quick_test/fbank/raw_fbank_train.3.ark:8162555
fkkh0_sx300 quick_test/fbank/raw_fbank_train.1.ark:6692303
feac0_sx255 quick_test/fbank/raw_fbank_train.1.ark:3485039
mmbs0_sx341 quick_test/fbank/raw_fbank_train.3.ark:8469198
ftmg0_sx272 quick_test/fbank/raw_fbank_train.2.ark:1688637
mwsh0_si1426 quick_test/fbank/raw_fbank_train.4.ark:11440819
mrmh0_sx301 quick_test/fbank/raw_fbank_train.4.ark:3950783
mtpg0_si2013 quick_test/fbank/raw_fbank_train.4.ark:9313621
fcjs0_sx437 quick_test/fbank/raw_fbank_train.1.ark:1786874
msdh0_si980 quick_test/fbank/raw_fbank_train.4.ark:5674379
mbwp0_si1969 quick_test/fbank/raw_fbank_train.2.ark:4299001
mdlc1_si2065 quick_test/fbank/raw_fbank_train.2.ark:7627623
mlbc0_sx339 quick_test/fbank/raw_fbank_train.3.ark:7295282
mjjj0_sx443 quick_test/fbank/raw_fbank_train.3.ark:3362872
mdas0_sx6 quick_test/fbank/raw_fbank_train.2.ark:6175891
mram0_sx195 quick_test/fbank/raw_fbank_train.4.ark:937349
fvfb0_si1032 quick_test/fbank/raw_fbank_train.2.ark:1737169
fbjl0_si1552 quick_test/fbank/raw_fbank_train.1.ark:841289
mdmt0_sx212 quick_test/fbank/raw_fbank_train.2.ark:8353098
mdwh0_sx35 quick_test/fbank/raw_fbank_train.2.ark:9433199
mjbg0_si1724 quick_test/fbank/raw_fbank_train.3.ark:1980860
mcef0_sx55 quick_test/fbank/raw_fbank_train.2.ark:4994386
mcdc0_sx212 quick_test/fbank/raw_fbank_train.2.ark:4665333
mejl0_sx152 quick_test/fbank/raw_fbank_train.2.ark:9971288
fsjs0_sx181 quick_test/fbank/raw_fbank_train.2.ark:82924
mppc0_sx152 quick_test/fbank/raw_fbank_train.3.ark:11494145
frll0_sx164 quick_test/fbank/raw_fbank_train.1.ark:10824829
fsjg0_si1570 quick_test/fbank/raw_fbank_train.1.ark:11704595
mhbs0_si1575 quick_test/fbank/raw_fbank_train.3.ark:916394
fjlr0_si1861 quick_test/fbank/raw_fbank_train.1.ark:5369398
fcmg0_si1872 quick_test/fbank/raw_fbank_train.1.ark:2031618
fklh0_si1257 quick_test/fbank/raw_fbank_train.1.ark:6919781
mmws1_si2331 quick_test/fbank/raw_fbank_train.3.ark:10390120
mdhl0_sx359 quick_test/fbank/raw_fbank_train.2.ark:7056644
fkde0_si1141 quick_test/fbank/raw_fbank_train.1.ark:6283389
mtbc0_si543 quick_test/fbank/raw_fbank_train.4.ark:7584028
mjxl0_si1172 quick_test/fbank/raw_fbank_train.3.ark:5556730
fntb0_sx213 quick_test/fbank/raw_fbank_train.1.ark:9722388
fssb0_si1082 quick_test/fbank/raw_fbank_train.2.ark:1154980
mkdd0_si1567 quick_test/fbank/raw_fbank_train.3.ark:6155839
mprb0_si575 quick_test/fbank/raw_fbank_train.4.ark:80051
mpeb0_si1034 quick_test/fbank/raw_fbank_train.3.ark:10819455
msfv0_si1892 quick_test/fbank/raw_fbank_train.4.ark:6230713
mtjg0_sx80 quick_test/fbank/raw_fbank_train.4.ark:8174757
mjma0_sx415 quick_test/fbank/raw_fbank_train.3.ark:3944903
mprk0_sx197 quick_test/fbank/raw_fbank_train.4.ark:355279
fbmh0_si1136 quick_test/fbank/raw_fbank_train.1.ark:1048380
mbth0_sx122 quick_test/fbank/raw_fbank_train.2.ark:4227522
mrav0_sx198 quick_test/fbank/raw_fbank_train.4.ark:1026695
fljd0_si2146 quick_test/fbank/raw_fbank_train.1.ark:7737098
mwad0_si2322 quick_test/fbank/raw_fbank_train.4.ark:10619860
mdmt0_sx122 quick_test/fbank/raw_fbank_train.2.ark:8339145
mmlm0_sx267 quick_test/fbank/raw_fbank_train.3.ark:9669130
mmxs0_sx246 quick_test/fbank/raw_fbank_train.3.ark:10491129
mpsw0_sx167 quick_test/fbank/raw_fbank_train.4.ark:513984
mafm0_si1569 quick_test/fbank/raw_fbank_train.2.ark:2499331
mjpg0_sx111 quick_test/fbank/raw_fbank_train.3.ark:4185320
mklw0_si1571 quick_test/fbank/raw_fbank_train.3.ark:6940600
mmvp0_si654 quick_test/fbank/raw_fbank_train.3.ark:10046084
fgdp0_si988 quick_test/fbank/raw_fbank_train.1.ark:4290734
fsjs0_si541 quick_test/fbank/raw_fbank_train.2.ark:67611
mgsl0_sx84 quick_test/fbank/raw_fbank_train.3.ark:794378
fpls0_sx3 quick_test/fbank/raw_fbank_train.1.ark:10455995
mjac0_si701 quick_test/fbank/raw_fbank_train.3.ark:1684098
fhxs0_sx175 quick_test/fbank/raw_fbank_train.1.ark:4775550
mdlc0_sx405 quick_test/fbank/raw_fbank_train.2.ark:7584803
mwdk0_si2017 quick_test/fbank/raw_fbank_train.4.ark:10873544
mlsh0_sx427 quick_test/fbank/raw_fbank_train.3.ark:7840840
mhxl0_sx332 quick_test/fbank/raw_fbank_train.3.ark:1532390
ftbr0_si1402 quick_test/fbank/raw_fbank_train.2.ark:1340710
mjws0_sx63 quick_test/fbank/raw_fbank_train.3.ark:5342046
mejl0_sx332 quick_test/fbank/raw_fbank_train.2.ark:9992834
fskc0_sx336 quick_test/fbank/raw_fbank_train.2.ark:308440
mmea0_sx218 quick_test/fbank/raw_fbank_train.3.ark:9125700
mtkp0_sx123 quick_test/fbank/raw_fbank_train.4.ark:8651111
mlel0_sx166 quick_test/fbank/raw_fbank_train.3.ark:7370801
mwad0_si1062 quick_test/fbank/raw_fbank_train.4.ark:10601792
mstf0_sx136 quick_test/fbank/raw_fbank_train.4.ark:6969751
mpgr0_sx240 quick_test/fbank/raw_fbank_train.3.ark:11139022
fbcg1_sx262 quick_test/fbank/raw_fbank_train.1.ark:678173
fdaw0_si1406 quick_test/fbank/raw_fbank_train.1.ark:2521750
mpgh0_si675 quick_test/fbank/raw_fbank_train.3.ark:11028698
mhmg0_sx15 quick_test/fbank/raw_fbank_train.3.ark:1235162
fltm0_sx350 quick_test/fbank/raw_fbank_train.1.ark:8479047
mrai0_si2052 quick_test/fbank/raw_fbank_train.4.ark:771712
fjxp0_sx222 quick_test/fbank/raw_fbank_train.1.ark:6128432
fcke0_sx301 quick_test/fbank/raw_fbank_train.1.ark:1878146
fmpg0_sx72 quick_test/fbank/raw_fbank_train.1.ark:9561917
flod0_sx207 quick_test/fbank/raw_fbank_train.1.ark:8392020
fsjw0_sx433 quick_test/fbank/raw_fbank_train.2.ark:229208
mrmb0_sx231 quick_test/fbank/raw_fbank_train.4.ark:3744258
fpaf0_si2314 quick_test/fbank/raw_fbank_train.1.ark:10126943
fcag0_sx333 quick_test/fbank/raw_fbank_train.1.ark:1306116
msrr0_sx411 quick_test/fbank/raw_fbank_train.4.ark:6903506
mmvp0_sx347 quick_test/fbank/raw_fbank_train.3.ark:10109696
fcmm0_si453 quick_test/fbank/raw_fbank_train.1.ark:2135483
mbsb0_si1983 quick_test/fbank/raw_fbank_train.2.ark:4127834
mtqc0_sx361 quick_test/fbank/raw_fbank_train.4.ark:9675308
flag0_sx24 quick_test/fbank/raw_fbank_train.1.ark:7282901
mrew1_sx330 quick_test/fbank/raw_fbank_train.4.ark:2009067
mdas0_sx21 quick_test/fbank/raw_fbank_train.2.ark:6159267
mmcc0_si708 quick_test/fbank/raw_fbank_train.3.ark:8537044
mgak0_si1036 quick_test/fbank/raw_fbank_train.2.ark:11142913
mjdm0_sx170 quick_test/fbank/raw_fbank_train.3.ark:2506973
mabc0_si781 quick_test/fbank/raw_fbank_train.2.ark:2037672
fmjb0_si1807 quick_test/fbank/raw_fbank_train.1.ark:8847335
mkxl0_sx285 quick_test/fbank/raw_fbank_train.3.ark:7211129
fcdr1_sx106 quick_test/fbank/raw_fbank_train.1.ark:1496220
mewm0_si718 quick_test/fbank/raw_fbank_train.2.ark:10325753
fhlm0_sx300 quick_test/fbank/raw_fbank_train.1.ark:4674189
fjlr0_si1231 quick_test/fbank/raw_fbank_train.1.ark:5351804
fdas1_sx21 quick_test/fbank/raw_fbank_train.1.ark:2472376
mtkd0_sx17 quick_test/fbank/raw_fbank_train.4.ark:8550798
fdml0_sx429 quick_test/fbank/raw_fbank_train.1.ark:2963139
mwgr0_sx346 quick_test/fbank/raw_fbank_train.4.ark:11121327
mgxp0_sx97 quick_test/fbank/raw_fbank_train.3.ark:905040
fcmg0_sx252 quick_test/fbank/raw_fbank_train.1.ark:2056444
fjdm2_sx142 quick_test/fbank/raw_fbank_train.1.ark:4876136
mesj0_sx367 quick_test/fbank/raw_fbank_train.2.ark:10282829
fhlm0_si2190 quick_test/fbank/raw_fbank_train.1.ark:4620937
mses0_sx59 quick_test/fbank/raw_fbank_train.4.ark:6092180
fsrh0_si671 quick_test/fbank/raw_fbank_train.2.ark:1075742
fsjg0_si940 quick_test/fbank/raw_fbank_train.1.ark:11732782
mpmb0_sx61 quick_test/fbank/raw_fbank_train.3.ark:11435171
mtpp0_sx428 quick_test/fbank/raw_fbank_train.4.ark:9457771
mrem0_si961 quick_test/fbank/raw_fbank_train.4.ark:1888743
mbwp0_sx79 quick_test/fbank/raw_fbank_train.2.ark:4381878
mtrr0_sx18 quick_test/fbank/raw_fbank_train.4.ark:9859963
mafm0_sx309 quick_test/fbank/raw_fbank_train.2.ark:2549497
fskp0_sx18 quick_test/fbank/raw_fbank_train.2.ark:495976
msvs0_si938 quick_test/fbank/raw_fbank_train.4.ark:7066783
mtbc0_si1803 quick_test/fbank/raw_fbank_train.4.ark:7571675
mklr0_sx339 quick_test/fbank/raw_fbank_train.3.ark:6705090
mses0_sx419 quick_test/fbank/raw_fbank_train.4.ark:6082188
fbjl0_sx112 quick_test/fbank/raw_fbank_train.1.ark:882109
mgrl0_sx237 quick_test/fbank/raw_fbank_train.3.ark:434928
mddc0_sx429 quick_test/fbank/raw_fbank_train.2.ark:6659777
mtat1_si779 quick_test/fbank/raw_fbank_train.4.ark:7472203
fskc0_sx156 quick_test/fbank/raw_fbank_train.2.ark:288174
mtkd0_si630 quick_test/fbank/raw_fbank_train.4.ark:8518253
mdps0_sx359 quick_test/fbank/raw_fbank_train.2.ark:8746711
fexm0_si482 quick_test/fbank/raw_fbank_train.1.ark:4086763
fjhk0_sx122 quick_test/fbank/raw_fbank_train.1.ark:5098188
fkfb0_si1608 quick_test/fbank/raw_fbank_train.1.ark:6491200
fpls0_sx240 quick_test/fbank/raw_fbank_train.1.ark:10443964
mrsp0_si799 quick_test/fbank/raw_fbank_train.4.ark:4548796
mtlb0_sx234 quick_test/fbank/raw_fbank_train.4.ark:8750849
mmam0_sx247 quick_test/fbank/raw_fbank_train.3.ark:8229195
mmjb1_sx238 quick_test/fbank/raw_fbank_train.3.ark:9572745
mvjh0_sx116 quick_test/fbank/raw_fbank_train.4.ark:10249872
mdem0_sx248 quick_test/fbank/raw_fbank_train.2.ark:6939226
mbjv0_si617 quick_test/fbank/raw_fbank_train.2.ark:3666620
mmwb0_sx269 quick_test/fbank/raw_fbank_train.3.ark:10207896
mdpk0_si552 quick_test/fbank/raw_fbank_train.2.ark:8627147
mmlm0_si1527 quick_test/fbank/raw_fbank_train.3.ark:9629077
mpar0_sx406 quick_test/fbank/raw_fbank_train.3.ark:10799109
mtqc0_sx271 quick_test/fbank/raw_fbank_train.4.ark:9662555
fnkl0_si1522 quick_test/fbank/raw_fbank_train.1.ark:9571831
fexm0_si1731 quick_test/fbank/raw_fbank_train.1.ark:4072290
fmem0_sx333 quick_test/fbank/raw_fbank_train.1.ark:8792674
mjpg0_si1821 quick_test/fbank/raw_fbank_train.3.ark:4153574
mwch0_sx182 quick_test/fbank/raw_fbank_train.4.ark:10802985
fsag0_sx153 quick_test/fbank/raw_fbank_train.1.ark:10911254
fdtd0_si931 quick_test/fbank/raw_fbank_train.1.ark:3261722
mmsm0_si1736 quick_test/fbank/raw_fbank_train.3.ark:9936746
msdh0_si2240 quick_test/fbank/raw_fbank_train.4.ark:5668386
mbma1_sx234 quick_test/fbank/raw_fbank_train.2.ark:3880176
mrjm0_sx58 quick_test/fbank/raw_fbank_train.4.ark:2894092
mbma1_sx54 quick_test/fbank/raw_fbank_train.2.ark:3921754
fcjs0_si2237 quick_test/fbank/raw_fbank_train.1.ark:1729509
mrlr0_sx386 quick_test/fbank/raw_fbank_train.4.ark:3684931
fapb0_sx163 quick_test/fbank/raw_fbank_train.1.ark:454089
mkam0_sx236 quick_test/fbank/raw_fbank_train.3.ark:6010883
fhxs0_sx265 quick_test/fbank/raw_fbank_train.1.ark:4794663
mpar0_si946 quick_test/fbank/raw_fbank_train.3.ark:10756017
mtpr0_sx250 quick_test/fbank/raw_fbank_train.4.ark:9539690
mjfr0_si1605 quick_test/fbank/raw_fbank_train.3.ark:2963798
mdem0_sx428 quick_test/fbank/raw_fbank_train.2.ark:6968132
fjen0_si1677 quick_test/fbank/raw_fbank_train.1.ark:4958175
mgsl0_sx174 quick_test/fbank/raw_fbank_train.3.ark:740407
mtwh1_si882 quick_test/fbank/raw_fbank_train.4.ark:10024428
maeb0_si990 quick_test/fbank/raw_fbank_train.2.ark:2334347
mjpm0_si1368 quick_test/fbank/raw_fbank_train.3.ark:4228245
mtas0_si2015 quick_test/fbank/raw_fbank_train.4.ark:7289480
mmcc0_sx78 quick_test/fbank/raw_fbank_train.3.ark:8598448
mbom0_si1644 quick_test/fbank/raw_fbank_train.2.ark:4042007
mdlr1_sx309 quick_test/fbank/raw_fbank_train.2.ark:8156440
mdwh0_si665 quick_test/fbank/raw_fbank_train.2.ark:9372468
mses0_sx329 quick_test/fbank/raw_fbank_train.4.ark:6069395
mdss1_sx67 quick_test/fbank/raw_fbank_train.2.ark:9154316
mljc0_si1225 quick_test/fbank/raw_fbank_train.3.ark:7441846
mjmd0_sx308 quick_test/fbank/raw_fbank_train.3.ark:4017416
mrmh0_sx211 quick_test/fbank/raw_fbank_train.4.ark:3940470
falk0_sx276 quick_test/fbank/raw_fbank_train.1.ark:262553
mrms0_sx120 quick_test/fbank/raw_fbank_train.4.ark:4146568
mprt0_sx130 quick_test/fbank/raw_fbank_train.4.ark:431518
mcdd0_si883 quick_test/fbank/raw_fbank_train.2.ark:4733452
mprd0_sx441 quick_test/fbank/raw_fbank_train.4.ark:254728
mdlc2_si1614 quick_test/fbank/raw_fbank_train.2.ark:7705615
frjb0_sx77 quick_test/fbank/raw_fbank_train.1.ark:10769256
mmgc0_sx315 quick_test/fbank/raw_fbank_train.3.ark:9317142
mefg0_sx375 quick_test/fbank/raw_fbank_train.2.ark:9815531
mkxl0_si1958 quick_test/fbank/raw_fbank_train.3.ark:7165758
fceg0_sx348 quick_test/fbank/raw_fbank_train.1.ark:1608831
mtdb0_si771 quick_test/fbank/raw_fbank_train.4.ark:7786958
msjk0_sx336 quick_test/fbank/raw_fbank_train.4.ark:6397470
fpls0_si960 quick_test/fbank/raw_fbank_train.1.ark:10416818
mhxl0_si1772 quick_test/fbank/raw_fbank_train.3.ark:1472465
mwch0_si1895 quick_test/fbank/raw_fbank_train.4.ark:10785318
mrgm0_sx262 quick_test/fbank/raw_fbank_train.4.ark:2314270
ftmg0_si2162 quick_test/fbank/raw_fbank_train.2.ark:1648458
mgsl0_si1164 quick_test/fbank/raw_fbank_train.3.ark:701108
mrkm0_sx97 quick_test/fbank/raw_fbank_train.4.ark:3228165
mesg0_sx432 quick_test/fbank/raw_fbank_train.2.ark:10200517
fsmm0_si1944 quick_test/fbank/raw_fbank_train.2.ark:756034
mtjg0_sx170 quick_test/fbank/raw_fbank_train.4.ark:8113946
mrlk0_sx123 quick_test/fbank/raw_fbank_train.4.ark:3549415
mlns0_sx237 quick_test/fbank/raw_fbank_train.3.ark:7715269
mcth0_sx219 quick_test/fbank/raw_fbank_train.2.ark:5761408
fkdw0_sx397 quick_test/fbank/raw_fbank_train.1.ark:6479526
feac0_si1875 quick_test/fbank/raw_fbank_train.1.ark:3439740
fskl0_si2159 quick_test/fbank/raw_fbank_train.2.ark:359093
ftaj0_sx339 quick_test/fbank/raw_fbank_train.2.ark:1312971
mvrw0_si1485 quick_test/fbank/raw_fbank_train.4.ark:10400422
mwem0_si1950 quick_test/fbank/raw_fbank_train.4.ark:10978243
mjeb0_sx206 quick_test/fbank/raw_fbank_train.3.ark:2636151
mdlm0_si1864 quick_test/fbank/raw_fbank_train.2.ark:7909338
mwch0_si1622 quick_test/fbank/raw_fbank_train.4.ark:10772924
mjrh0_sx315 quick_test/fbank/raw_fbank_train.3.ark:4693472
mrre0_sx434 quick_test/fbank/raw_fbank_train.4.ark:4369797
mfxs0_si2304 quick_test/fbank/raw_fbank_train.2.ark:10792400
fcaj0_sx399 quick_test/fbank/raw_fbank_train.1.ark:1422766
mejs0_sx70 quick_test/fbank/raw_fbank_train.2.ark:10120924
mapv0_si1293 quick_test/fbank/raw_fbank_train.2.ark:2884713
msat1_sx443 quick_test/fbank/raw_fbank_train.4.ark:5568340
fpmy0_si1153 quick_test/fbank/raw_fbank_train.1.ark:10487974
mnet0_sx96 quick_test/fbank/raw_fbank_train.3.ark:10616170
fcjf0_si1027 quick_test/fbank/raw_fbank_train.1.ark:1644050
fspm0_sx251 quick_test/fbank/raw_fbank_train.2.ark:1007623
mrhl0_sx345 quick_test/fbank/raw_fbank_train.4.ark:2538671
mkls0_si2067 quick_test/fbank/raw_fbank_train.3.ark:6767537
mjee0_si1237 quick_test/fbank/raw_fbank_train.3.ark:2786308
mjdm0_sx440 quick_test/fbank/raw_fbank_train.3.ark:2557112
msah1_sx59 quick_test/fbank/raw_fbank_train.4.ark:5298616
mjws0_sx333 quick_test/fbank/raw_fbank_train.3.ark:5308741
mtpg0_si753 quick_test/fbank/raw_fbank_train.4.ark:9321854
fceg0_sx438 quick_test/fbank/raw_fbank_train.1.ark:1621624
mtkd0_sx287 quick_test/fbank/raw_fbank_train.4.ark:8571024
fcdr1_sx376 quick_test/fbank/raw_fbank_train.1.ark:1547351
mjjj0_sx353 quick_test/fbank/raw_fbank_train.3.ark:3349959
mprt0_si1210 quick_test/fbank/raw_fbank_train.4.ark:396779
mvjh0_sx26 quick_test/fbank/raw_fbank_train.4.ark:10271577
mgar0_sx222 quick_test/fbank/raw_fbank_train.3.ark:46667
msat0_sx446 quick_test/fbank/raw_fbank_train.4.ark:5476314
fcrz0_si793 quick_test/fbank/raw_fbank_train.1.ark:2228108
mrlj0_sx340 quick_test/fbank/raw_fbank_train.4.ark:3385630
fsjg0_sx130 quick_test/fbank/raw_fbank_train.1.ark:11754335
mrml0_sx341 quick_test/fbank/raw_fbank_train.4.ark:4061648
fnkl0_si2152 quick_test/fbank/raw_fbank_train.1.ark:9582305
fgmb0_si1775 quick_test/fbank/raw_fbank_train.1.ark:4403806
fskl0_si899 quick_test/fbank/raw_fbank_train.2.ark:375406
fsmm0_sx234 quick_test/fbank/raw_fbank_train.2.ark:790133
mdlc2_si2244 quick_test/fbank/raw_fbank_train.2.ark:7712169
ftbw0_sx265 quick_test/fbank/raw_fbank_train.2.ark:1494108
fjsp0_sx354 quick_test/fbank/raw_fbank_train.1.ark:5839591
mpsw0_sx77 quick_test/fbank/raw_fbank_train.4.ark:554594
fjsp0_sx174 quick_test/fbank/raw_fbank_train.1.ark:5812205
ftaj0_sx429 quick_test/fbank/raw_fbank_train.2.ark:1321244
mwre0_sx337 quick_test/fbank/raw_fbank_train.4.ark:11216473
mtjm0_sx236 quick_test/fbank/raw_fbank_train.4.ark:8238364
fsjs0_sx451 quick_test/fbank/raw_fbank_train.2.ark:121743
fdas1_si2091 quick_test/fbank/raw_fbank_train.1.ark:2418765
fceg0_si1248 quick_test/fbank/raw_fbank_train.1.ark:1560465
mdas0_sx276 quick_test/fbank/raw_fbank_train.2.ark:6166740
mcth0_sx309 quick_test/fbank/raw_fbank_train.2.ark:5774081
mgrl0_sx327 quick_test/fbank/raw_fbank_train.3.ark:440241
mwgr0_sx436 quick_test/fbank/raw_fbank_train.4.ark:11135360
fkde0_si1771 quick_test/fbank/raw_fbank_train.1.ark:6302543
fdmy0_sx207 quick_test/fbank/raw_fbank_train.1.ark:3068337
mkah0_sx268 quick_test/fbank/raw_fbank_train.3.ark:5816112
fclt0_sx358 quick_test/fbank/raw_fbank_train.1.ark:1965411
mcdr0_sx164 quick_test/fbank/raw_fbank_train.2.ark:4857110
fbas0_sx397 quick_test/fbank/raw_fbank_train.1.ark:620366
mmeb0_sx367 quick_test/fbank/raw_fbank_train.3.ark:9226598
fsmm0_sx144 quick_test/fbank/raw_fbank_train.2.ark:779420
msah1_sx149 quick_test/fbank/raw_fbank_train.4.ark:5250245
mmea0_si1388 quick_test/fbank/raw_fbank_train.3.ark:9082167
mrem0_sx61 quick_test/fbank/raw_fbank_train.4.ark:1945467
fpad0_sx356 quick_test/fbank/raw_fbank_train.1.ark:10056256
mmpm0_si2321 quick_test/fbank/raw_fbank_train.3.ark:9735010
frll0_sx344 quick_test/fbank/raw_fbank_train.1.ark:10847975
mtab0_sx132 quick_test/fbank/raw_fbank_train.4.ark:7205521
fmju0_si1389 quick_test/fbank/raw_fbank_train.1.ark:9035709
mmgg0_si2339 quick_test/fbank/raw_fbank_train.3.ark:9376869
mrwa0_si2233 quick_test/fbank/raw_fbank_train.4.ark:4950903
flmc0_si2002 quick_test/fbank/raw_fbank_train.1.ark:8149397
mhbs0_sx135 quick_test/fbank/raw_fbank_train.3.ark:956614
flag0_sx114 quick_test/fbank/raw_fbank_train.1.ark:7256596
mjdc0_si1161 quick_test/fbank/raw_fbank_train.3.ark:2153998
msdb0_sx197 quick_test/fbank/raw_fbank_train.4.ark:5637612
frll0_sx74 quick_test/fbank/raw_fbank_train.1.ark:10867520
mdwh0_sx395 quick_test/fbank/raw_fbank_train.2.ark:9444512
fexm0_sx366 quick_test/fbank/raw_fbank_train.1.ark:4146815
mgak0_sx406 quick_test/fbank/raw_fbank_train.2.ark:11227873
mapv0_si1923 quick_test/fbank/raw_fbank_train.2.ark:2904467
flmc0_si742 quick_test/fbank/raw_fbank_train.1.ark:8157030
mrtc0_si828 quick_test/fbank/raw_fbank_train.4.ark:4654141
mgrp0_sx147 quick_test/fbank/raw_fbank_train.3.ark:524160
fcdr1_sx286 quick_test/fbank/raw_fbank_train.1.ark:1529638
fjxp0_si1752 quick_test/fbank/raw_fbank_train.1.ark:6093933
mtml0_sx345 quick_test/fbank/raw_fbank_train.4.ark:8959253
mljh0_sx244 quick_test/fbank/raw_fbank_train.3.ark:7613724
mchl0_si1404 quick_test/fbank/raw_fbank_train.2.ark:5152079
mbgt0_sx261 quick_test/fbank/raw_fbank_train.2.ark:3597101
mtkp0_sx303 quick_test/fbank/raw_fbank_train.4.ark:8673937
fntb0_sx393 quick_test/fbank/raw_fbank_train.1.ark:9752766
mrkm0_si637 quick_test/fbank/raw_fbank_train.4.ark:3152843
mprb0_sx305 quick_test/fbank/raw_fbank_train.4.ark:127430
mcae0_sx367 quick_test/fbank/raw_fbank_train.2.ark:4480558
mjlb0_si1616 quick_test/fbank/raw_fbank_train.3.ark:3587108
mpar0_sx136 quick_test/fbank/raw_fbank_train.3.ark:10765690
mmlm0_sx447 quick_test/fbank/raw_fbank_train.3.ark:9693956
mrsp0_sx259 quick_test/fbank/raw_fbank_train.4.ark:4582255
mlel0_si616 quick_test/fbank/raw_fbank_train.3.ark:7351608
mbma0_sx52 quick_test/fbank/raw_fbank_train.2.ark:3819009
mrlj0_si790 quick_test/fbank/raw_fbank_train.4.ark:3345411
mdlh0_si574 quick_test/fbank/raw_fbank_train.2.ark:7806553
mclm0_sx376 quick_test/fbank/raw_fbank_train.2.ark:5411207
mreh1_sx339 quick_test/fbank/raw_fbank_train.4.ark:1819218
fdfb0_sx418 quick_test/fbank/raw_fbank_train.1.ark:2668262
fgdp0_sx358 quick_test/fbank/raw_fbank_train.1.ark:4338593
mrjt0_si1498 quick_test/fbank/raw_fbank_train.4.ark:3011511
mtdp0_sx441 quick_test/fbank/raw_fbank_train.4.ark:7953516
fgmb0_sx155 quick_test/fbank/raw_fbank_train.1.ark:4428512
faem0_si1392 quick_test/fbank/raw_fbank_train.1.ark:13
mmvp0_sx204 quick_test/fbank/raw_fbank_train.3.ark:10085950
fpjf0_sx326 quick_test/fbank/raw_fbank_train.1.ark:10357692
mafm0_sx219 quick_test/fbank/raw_fbank_train.2.ark:2537784
mrgm0_sx82 quick_test/fbank/raw_fbank_train.4.ark:2359168
madc0_sx287 quick_test/fbank/raw_fbank_train.2.ark:2184748
mdlh0_sx430 quick_test/fbank/raw_fbank_train.2.ark:7874398
mhbs0_sx405 quick_test/fbank/raw_fbank_train.3.ark:986353
mrdd0_sx150 quick_test/fbank/raw_fbank_train.4.ark:1403011
mwac0_sx71 quick_test/fbank/raw_fbank_train.4.ark:10590478
fmkc0_sx352 quick_test/fbank/raw_fbank_train.1.ark:9200381
fapb0_sx73 quick_test/fbank/raw_fbank_train.1.ark:512820
mdcm0_sx310 quick_test/fbank/raw_fbank_train.2.ark:6558719
mcae0_sx97 quick_test/fbank/raw_fbank_train.2.ark:4511381
mjma0_si2125 quick_test/fbank/raw_fbank_train.3.ark:3884658
mdlc0_si1395 quick_test/fbank/raw_fbank_train.2.ark:7502404
fdas1_si831 quick_test/fbank/raw_fbank_train.1.ark:2428798
msfh0_si586 quick_test/fbank/raw_fbank_train.4.ark:6136481
fcag0_sx423 quick_test/fbank/raw_fbank_train.1.ark:1321949
fmkf0_sx366 quick_test/fbank/raw_fbank_train.1.ark:9306246
fjsk0_sx242 quick_test/fbank/raw_fbank_train.1.ark:5727333
mtml0_sx435 quick_test/fbank/raw_fbank_train.4.ark:8970806
fcjs0_sx347 quick_test/fbank/raw_fbank_train.1.ark:1770681
falr0_sx425 quick_test/fbank/raw_fbank_train.1.ark:385482
mbef0_si651 quick_test/fbank/raw_fbank_train.2.ark:3481650
mjjm0_si827 quick_test/fbank/raw_fbank_train.3.ark:3419405
mjsr0_sx74 quick_test/fbank/raw_fbank_train.3.ark:5116117
mmab1_sx144 quick_test/fbank/raw_fbank_train.3.ark:8007751
mmag0_sx136 quick_test/fbank/raw_fbank_train.3.ark:8120176
mkrg0_sx411 quick_test/fbank/raw_fbank_train.3.ark:7117264
mvlo0_si517 quick_test/fbank/raw_fbank_train.4.ark:10320984
fsdc0_si2234 quick_test/fbank/raw_fbank_train.1.ark:11455587
ftbr0_si921 quick_test/fbank/raw_fbank_train.2.ark:1369097
mrgm0_si1162 quick_test/fbank/raw_fbank_train.4.ark:2249817
mrml0_si791 quick_test/fbank/raw_fbank_train.4.ark:4009189
mjmd0_sx128 quick_test/fbank/raw_fbank_train.3.ark:3997390
mkls0_sx447 quick_test/fbank/raw_fbank_train.3.ark:6823589
fcjf0_sx307 quick_test/fbank/raw_fbank_train.1.ark:1696696
mtjg0_si1520 quick_test/fbank/raw_fbank_train.4.ark:8085086
mprb0_si1215 quick_test/fbank/raw_fbank_train.4.ark:59058
mtab0_si2202 quick_test/fbank/raw_fbank_train.4.ark:7180135
mkah0_si898 quick_test/fbank/raw_fbank_train.3.ark:5788206
fgrw0_sx342 quick_test/fbank/raw_fbank_train.1.ark:4573484
mgxp0_si1087 quick_test/fbank/raw_fbank_train.3.ark:808732
fksr0_sx397 quick_test/fbank/raw_fbank_train.1.ark:7104477
majp0_sx264 quick_test/fbank/raw_fbank_train.2.ark:2638810
msem1_sx180 quick_test/fbank/raw_fbank_train.4.ark:5946063
mesg0_si702 quick_test/fbank/raw_fbank_train.2.ark:10145225
mpgr1_sx419 quick_test/fbank/raw_fbank_train.3.ark:11266394
mrfl0_si1786 quick_test/fbank/raw_fbank_train.4.ark:2157466
mljh0_sx424 quick_test/fbank/raw_fbank_train.3.ark:7643150
mpmb0_sx421 quick_test/fbank/raw_fbank_train.3.ark:11411099
mjfh0_si1107 quick_test/fbank/raw_fbank_train.3.ark:2884253
mjmm0_sx85 quick_test/fbank/raw_fbank_train.3.ark:4134226
mrsp0_sx79 quick_test/fbank/raw_fbank_train.4.ark:4609560
mcef0_si1765 quick_test/fbank/raw_fbank_train.2.ark:4924789
msah1_si1049 quick_test/fbank/raw_fbank_train.4.ark:5224064
fsma0_si2251 quick_test/fbank/raw_fbank_train.2.ark:645929
mpmb0_sx151 quick_test/fbank/raw_fbank_train.3.ark:11362360
fceg0_sx78 quick_test/fbank/raw_fbank_train.1.ark:1635896
fskc0_sx66 quick_test/fbank/raw_fbank_train.2.ark:336705
marc0_sx378 quick_test/fbank/raw_fbank_train.2.ark:3061329
mcss0_si750 quick_test/fbank/raw_fbank_train.2.ark:5646477
fsls0_si1056 quick_test/fbank/raw_fbank_train.2.ark:538829
mkxl0_sx105 quick_test/fbank/raw_fbank_train.3.ark:7182431
fblv0_sx428 quick_test/fbank/raw_fbank_train.1.ark:1023394
mpeb0_sx60 quick_test/fbank/raw_fbank_train.3.ark:10896086
msfh0_sx406 quick_test/fbank/raw_fbank_train.4.ark:6191573
fsjg0_si2200 quick_test/fbank/raw_fbank_train.1.ark:11719189
mreh1_sx429 quick_test/fbank/raw_fbank_train.4.ark:1831531
mljh0_si694 quick_test/fbank/raw_fbank_train.3.ark:7581698
mgsh0_sx127 quick_test/fbank/raw_fbank_train.3.ark:641945
mjrh0_sx135 quick_test/fbank/raw_fbank_train.3.ark:4671486
mree0_sx114 quick_test/fbank/raw_fbank_train.4.ark:1693047
mcth0_sx399 quick_test/fbank/raw_fbank_train.2.ark:5799346
megj0_si1337 quick_test/fbank/raw_fbank_train.2.ark:9829485
mgjc0_si1335 quick_test/fbank/raw_fbank_train.3.ark:288803
fmbg0_si1160 quick_test/fbank/raw_fbank_train.1.ark:8618491
fjlg0_si1889 quick_test/fbank/raw_fbank_train.1.ark:5260372
mwac0_sx161 quick_test/fbank/raw_fbank_train.4.ark:10524227
mmgk0_sx62 quick_test/fbank/raw_fbank_train.3.ark:9515578
mdwm0_sx376 quick_test/fbank/raw_fbank_train.2.ark:9534864
mmag0_sx316 quick_test/fbank/raw_fbank_train.3.ark:8149962
fvkb0_sx169 quick_test/fbank/raw_fbank_train.2.ark:1857215
ftlg0_sx33 quick_test/fbank/raw_fbank_train.2.ark:1619997
mbcg0_si957 quick_test/fbank/raw_fbank_train.2.ark:3384145
mdhs0_sx180 quick_test/fbank/raw_fbank_train.2.ark:7135763
fmem0_si1377 quick_test/fbank/raw_fbank_train.1.ark:8717275
mrgs0_sx96 quick_test/fbank/raw_fbank_train.4.ark:2470391
fpaz0_sx243 quick_test/fbank/raw_fbank_train.1.ark:10253034
msrr0_si501 quick_test/fbank/raw_fbank_train.4.ark:6856575
fsdc0_sx142 quick_test/fbank/raw_fbank_train.1.ark:11461660
flma0_si613 quick_test/fbank/raw_fbank_train.1.ark:8067645
mmwb0_si1619 quick_test/fbank/raw_fbank_train.3.ark:10141763
mjai0_sx434 quick_test/fbank/raw_fbank_train.3.ark:1948080
mtjg0_si890 quick_test/fbank/raw_fbank_train.4.ark:8098793
fdjh0_sx35 quick_test/fbank/raw_fbank_train.1.ark:2764726
fklc1_sx238 quick_test/fbank/raw_fbank_train.1.ark:6864609
mmws1_si1071 quick_test/fbank/raw_fbank_train.3.ark:10365212
mcal0_sx148 quick_test/fbank/raw_fbank_train.2.ark:4554035
mcdd0_sx73 quick_test/fbank/raw_fbank_train.2.ark:4790696
mrab0_sx324 quick_test/fbank/raw_fbank_train.4.ark:622554
fvmh0_si2096 quick_test/fbank/raw_fbank_train.2.ark:1944494
mhit0_si2243 quick_test/fbank/raw_fbank_train.3.ark:1018333
fhlm0_sx390 quick_test/fbank/raw_fbank_train.1.ark:4704135
fntb0_si679 quick_test/fbank/raw_fbank_train.1.ark:9689962
mpeb0_sx150 quick_test/fbank/raw_fbank_train.3.ark:10849555
mmdg0_sx160 quick_test/fbank/raw_fbank_train.3.ark:8736047
fsma0_sx181 quick_test/fbank/raw_fbank_train.2.ark:677355
mdac0_sx91 quick_test/fbank/raw_fbank_train.2.ark:6097301
mbsb0_sx93 quick_test/fbank/raw_fbank_train.2.ark:4178829
mkdb0_sx422 quick_test/fbank/raw_fbank_train.3.ark:6129293
mrmb0_sx411 quick_test/fbank/raw_fbank_train.4.ark:3765324
fgcs0_sx46 quick_test/fbank/raw_fbank_train.1.ark:4259073
mtrt0_si1227 quick_test/fbank/raw_fbank_train.4.ark:9909656
fjsk0_si1052 quick_test/fbank/raw_fbank_train.1.ark:5677199
mjxa0_si1507 quick_test/fbank/raw_fbank_train.3.ark:5463105
fsah0_si614 quick_test/fbank/raw_fbank_train.1.ark:11021206
mfwk0_si1879 quick_test/fbank/raw_fbank_train.2.ark:10689421
fbas0_si2066 quick_test/fbank/raw_fbank_train.1.ark:559842
mdss1_si1327 quick_test/fbank/raw_fbank_train.2.ark:9076685
mmab1_si2124 quick_test/fbank/raw_fbank_train.3.ark:7977405
mtjs0_si562 quick_test/fbank/raw_fbank_train.4.ark:8314123
fsjw0_si1333 quick_test/fbank/raw_fbank_train.2.ark:150289
mhrm0_sx238 quick_test/fbank/raw_fbank_train.3.ark:1420813
msvs0_si1568 quick_test/fbank/raw_fbank_train.4.ark:7035116
mkdt0_sx353 quick_test/fbank/raw_fbank_train.3.ark:6319949
mzmb0_sx356 quick_test/fbank/raw_fbank_train.4.ark:11622890
mkah0_si2158 quick_test/fbank/raw_fbank_train.3.ark:5777533
mdss1_si1713 quick_test/fbank/raw_fbank_train.2.ark:9091199
mmrp0_si774 quick_test/fbank/raw_fbank_train.3.ark:9829554
fpaf0_sx334 quick_test/fbank/raw_fbank_train.1.ark:10160162
mmdb0_sx87 quick_test/fbank/raw_fbank_train.3.ark:8686273
mjjm0_si1457 quick_test/fbank/raw_fbank_train.3.ark:3404532
mcdr0_si1784 quick_test/fbank/raw_fbank_train.2.ark:4817964
ftbw0_sx445 quick_test/fbank/raw_fbank_train.2.ark:1515854
makb0_sx386 quick_test/fbank/raw_fbank_train.2.ark:2799974
milb0_si903 quick_test/fbank/raw_fbank_train.3.ark:1598995
mstf0_sx406 quick_test/fbank/raw_fbank_train.4.ark:7008130
mljh0_sx334 quick_test/fbank/raw_fbank_train.3.ark:7630597
fmah1_sx69 quick_test/fbank/raw_fbank_train.1.ark:8606577
mjda0_sx401 quick_test/fbank/raw_fbank_train.3.ark:2128652
falr0_si695 quick_test/fbank/raw_fbank_train.1.ark:334750
mjai0_sx344 quick_test/fbank/raw_fbank_train.3.ark:1938487
mwch0_sx92 quick_test/fbank/raw_fbank_train.4.ark:10846316
fjsk0_si1682 quick_test/fbank/raw_fbank_train.1.ark:5695913
flhd0_sx264 quick_test/fbank/raw_fbank_train.1.ark:7562786
fblv0_sx68 quick_test/fbank/raw_fbank_train.1.ark:1037266
mdhs0_sx90 quick_test/fbank/raw_fbank_train.2.ark:7179214
mjrh1_si1774 quick_test/fbank/raw_fbank_train.3.ark:4747685
ftaj0_sx159 quick_test/fbank/raw_fbank_train.2.ark:1293665
mpgr0_si780 quick_test/fbank/raw_fbank_train.3.ark:11122436
mbsb0_sx183 quick_test/fbank/raw_fbank_train.2.ark:4149060
mjai0_si1604 quick_test/fbank/raw_fbank_train.3.ark:1869682
mwsb0_sx186 quick_test/fbank/raw_fbank_train.4.ark:11391616
mrkm0_sx367 quick_test/fbank/raw_fbank_train.4.ark:3198102
milb0_sx363 quick_test/fbank/raw_fbank_train.3.ark:1645365
fsjw0_sx253 quick_test/fbank/raw_fbank_train.2.ark:205502
fapb0_si1693 quick_test/fbank/raw_fbank_train.1.ark:420782
mtdb0_si1401 quick_test/fbank/raw_fbank_train.4.ark:7761531
msem1_sx360 quick_test/fbank/raw_fbank_train.4.ark:5971649
feme0_si875 quick_test/fbank/raw_fbank_train.1.ark:3876113
fsjs0_sx361 quick_test/fbank/raw_fbank_train.2.ark:110990
mdcm0_si850 quick_test/fbank/raw_fbank_train.2.ark:6522580
mjda0_sx311 quick_test/fbank/raw_fbank_train.3.ark:2114419
mdlr1_si1929 quick_test/fbank/raw_fbank_train.2.ark:8100748
fvkb0_sx349 quick_test/fbank/raw_fbank_train.2.ark:1882681
mjrk0_sx250 quick_test/fbank/raw_fbank_train.3.ark:4873089
mdbp0_sx78 quick_test/fbank/raw_fbank_train.2.ark:6386214
mjjm0_sx197 quick_test/fbank/raw_fbank_train.3.ark:3449743
mjrg0_sx352 quick_test/fbank/raw_fbank_train.3.ark:4600078
fmem0_si2007 quick_test/fbank/raw_fbank_train.1.ark:8733029
fsag0_sx333 quick_test/fbank/raw_fbank_train.1.ark:10943600
mjda0_si2291 quick_test/fbank/raw_fbank_train.3.ark:2082960
mrso0_sx219 quick_test/fbank/raw_fbank_train.4.ark:4458197
fsag0_si1323 quick_test/fbank/raw_fbank_train.1.ark:10878274
mjbg0_sx332 quick_test/fbank/raw_fbank_train.3.ark:2025233
fsak0_sx310 quick_test/fbank/raw_fbank_train.1.ark:11163130
mtju0_si760 quick_test/fbank/raw_fbank_train.4.ark:8420548
mmwb0_sx179 quick_test/fbank/raw_fbank_train.3.ark:10192103
mtmt0_sx38 quick_test/fbank/raw_fbank_train.4.ark:9180975
mrav0_sx378 quick_test/fbank/raw_fbank_train.4.ark:1047601
fsrh0_si1931 quick_test/fbank/raw_fbank_train.2.ark:1065389
mgsh0_si546 quick_test/fbank/raw_fbank_train.3.ark:624912
mdss0_sx171 quick_test/fbank/raw_fbank_train.2.ark:9024840
mwar0_sx235 quick_test/fbank/raw_fbank_train.4.ark:10728952
mrre0_si952 quick_test/fbank/raw_fbank_train.4.ark:4312745
mcdc0_si1922 quick_test/fbank/raw_fbank_train.2.ark:4631394
fdkn0_sx361 quick_test/fbank/raw_fbank_train.1.ark:2857400
flmk0_sx225 quick_test/fbank/raw_fbank_train.1.ark:8286282
fsjk1_sx305 quick_test/fbank/raw_fbank_train.2.ark:12285
mstf0_sx226 quick_test/fbank/raw_fbank_train.4.ark:6984424
mwch0_sx272 quick_test/fbank/raw_fbank_train.4.ark:10810778
mdss0_si2087 quick_test/fbank/raw_fbank_train.2.ark:9005614
mses0_si1589 quick_test/fbank/raw_fbank_train.4.ark:6012468
fdnc0_si1278 quick_test/fbank/raw_fbank_train.1.ark:3122589
mdmt0_sx392 quick_test/fbank/raw_fbank_train.2.ark:8389236
frjb0_si1470 quick_test/fbank/raw_fbank_train.1.ark:10701418
mkdd0_sx127 quick_test/fbank/raw_fbank_train.3.ark:6207859
feme0_sx245 quick_test/fbank/raw_fbank_train.1.ark:3909579
mbom0_sx311 quick_test/fbank/raw_fbank_train.2.ark:4089973
msmc0_si1907 quick_test/fbank/raw_fbank_train.4.ark:6438969
mrtj0_si772 quick_test/fbank/raw_fbank_train.4.ark:4753366
mrtc0_sx378 quick_test/fbank/raw_fbank_train.4.ark:4715385
fmkf0_sx6 quick_test/fbank/raw_fbank_train.1.ark:9321757
mgrp0_si687 quick_test/fbank/raw_fbank_train.3.ark:510687
mjlb0_sx356 quick_test/fbank/raw_fbank_train.3.ark:3647434
fsgf0_si2187 quick_test/fbank/raw_fbank_train.1.ark:11617444
fjhk0_sx32 quick_test/fbank/raw_fbank_train.1.ark:5137126
mgjc0_si1965 quick_test/fbank/raw_fbank_train.3.ark:301757
flkm0_si620 quick_test/fbank/raw_fbank_train.1.ark:7946267
mcss0_sx120 quick_test/fbank/raw_fbank_train.2.ark:5657790
fgmb0_sx65 quick_test/fbank/raw_fbank_train.1.ark:4487523
mpeb0_sx420 quick_test/fbank/raw_fbank_train.3.ark:10881974
fklc1_si2308 quick_test/fbank/raw_fbank_train.1.ark:6845623
mkah0_si1528 quick_test/fbank/raw_fbank_train.3.ark:5765619
mjsr0_si2054 quick_test/fbank/raw_fbank_train.3.ark:5022080
mwsb0_si2256 quick_test/fbank/raw_fbank_train.4.ark:11364590
fpmy0_sx163 quick_test/fbank/raw_fbank_train.1.ark:10541914
marw0_si1906 quick_test/fbank/raw_fbank_train.2.ark:3083917
mdef0_si1123 quick_test/fbank/raw_fbank_train.2.ark:6787468
mdsj0_sx438 quick_test/fbank/raw_fbank_train.2.ark:8980186
fbch0_si1586 quick_test/fbank/raw_fbank_train.1.ark:731665
fcke0_si481 quick_test/fbank/raw_fbank_train.1.ark:1837847
mrfl0_si1156 quick_test/fbank/raw_fbank_train.4.ark:2138512
mrgm0_sx416 quick_test/fbank/raw_fbank_train.4.ark:2326423
flkm0_sx80 quick_test/fbank/raw_fbank_train.1.ark:8035864
mdps0_si1651 quick_test/fbank/raw_fbank_train.2.ark:8693945
mmwb0_sx89 quick_test/fbank/raw_fbank_train.3.ark:10257954
fljd0_sx166 quick_test/fbank/raw_fbank_train.1.ark:7754924
mdpb0_sx236 quick_test/fbank/raw_fbank_train.2.ark:8560908
fmjb0_sx277 quick_test/fbank/raw_fbank_train.1.ark:8884394
fcyl0_sx217 quick_test/fbank/raw_fbank_train.1.ark:2348999
fjxp0_sx402 quick_test/fbank/raw_fbank_train.1.ark:6153298
mtat1_sx329 quick_test/fbank/raw_fbank_train.4.ark:7523022
makr0_si1982 quick_test/fbank/raw_fbank_train.2.ark:2819042
majp0_sx174 quick_test/fbank/raw_fbank_train.2.ark:2621417
mdcd0_si1415 quick_test/fbank/raw_fbank_train.2.ark:6395768
fskl0_sx179 quick_test/fbank/raw_fbank_train.2.ark:386359
mjjb0_sx59 quick_test/fbank/raw_fbank_train.3.ark:3263639
mgjc0_sx435 quick_test/fbank/raw_fbank_train.3.ark:357209
fsdc0_si1942 quick_test/fbank/raw_fbank_train.1.ark:11444833
frjb0_si1794 quick_test/fbank/raw_fbank_train.1.ark:10707612
mkaj0_si2044 quick_test/fbank/raw_fbank_train.3.ark:5874518
fmpg0_sx432 quick_test/fbank/raw_fbank_train.1.ark:9541085
mmam0_sx337 quick_test/fbank/raw_fbank_train.3.ark:8243188
fdfb0_sx328 quick_test/fbank/raw_fbank_train.1.ark:2656949
