mtjs0_sx112 quick_test/mfcc/raw_mfcc_train.4.ark:2723181
mmws1_sx27 quick_test/mfcc/raw_mfcc_train.3.ark:3401049
mdcd0_si1415 quick_test/mfcc/raw_mfcc_train.2.ark:2090348
msjk0_sx336 quick_test/mfcc/raw_mfcc_train.4.ark:2090484
flkm0_si1880 quick_test/mfcc/raw_mfcc_train.1.ark:2592094
fkdw0_si577 quick_test/mfcc/raw_mfcc_train.1.ark:2102164
mjrh0_sx135 quick_test/mfcc/raw_mfcc_train.3.ark:1526715
mdjm0_sx105 quick_test/mfcc/raw_mfcc_train.2.ark:2363514
mwre0_sx427 quick_test/mfcc/raw_mfcc_train.4.ark:3669610
fdxw0_sx431 quick_test/mfcc/raw_mfcc_train.1.ark:1114285
fsdj0_sx395 quick_test/mfcc/raw_mfcc_train.1.ark:3788587
fmkc0_si1041 quick_test/mfcc/raw_mfcc_train.1.ark:2986119
mbth0_sx32 quick_test/mfcc/raw_mfcc_train.2.ark:1394940
mjfh0_sx117 quick_test/mfcc/raw_mfcc_train.3.ark:954570
mdhs0_si1530 quick_test/mfcc/raw_mfcc_train.2.ark:2319742
fbmh0_sx326 quick_test/mfcc/raw_mfcc_train.1.ark:363927
mjrg0_sx376 quick_test/mfcc/raw_mfcc_train.3.ark:1509160
mlbc0_si609 quick_test/mfcc/raw_mfcc_train.3.ark:2372046
mwdk0_si2017 quick_test/mfcc/raw_mfcc_train.4.ark:3553169
mmsm0_sx206 quick_test/mfcc/raw_mfcc_train.3.ark:3259823
mmar0_si706 quick_test/mfcc/raw_mfcc_train.3.ark:2715401
mcdd0_sx163 quick_test/mfcc/raw_mfcc_train.2.ark:1551268
fmpg0_sx342 quick_test/mfcc/raw_mfcc_train.1.ark:3111669
mwrp0_sx3 quick_test/mfcc/raw_mfcc_train.4.ark:3699832
fjwb1_si748 quick_test/mfcc/raw_mfcc_train.1.ark:1923498
mkln0_si1598 quick_test/mfcc/raw_mfcc_train.3.ark:2142205
fjxm0_sx221 quick_test/mfcc/raw_mfcc_train.1.ark:1965839
fklh0_si627 quick_test/mfcc/raw_mfcc_train.1.ark:2269734
flkm0_si620 quick_test/mfcc/raw_mfcc_train.1.ark:2596352
mdac0_sx181 quick_test/mfcc/raw_mfcc_train.2.ark:1975718
fdmy0_sx387 quick_test/mfcc/raw_mfcc_train.1.ark:1014759
mkls0_sx267 quick_test/mfcc/raw_mfcc_train.3.ark:2220090
fmkc0_si1072 quick_test/mfcc/raw_mfcc_train.1.ark:2992094
mree0_si1734 quick_test/mfcc/raw_mfcc_train.4.ark:543348
fdaw0_si1271 quick_test/mfcc/raw_mfcc_train.1.ark:817641
feeh0_sx392 quick_test/mfcc/raw_mfcc_train.1.ark:1254971
flod0_si1917 quick_test/mfcc/raw_mfcc_train.1.ark:2726516
flja0_sx178 quick_test/mfcc/raw_mfcc_train.1.ark:2498579
fkaa0_sx218 quick_test/mfcc/raw_mfcc_train.1.ark:2033644
fgrw0_sx252 quick_test/mfcc/raw_mfcc_train.1.ark:1490782
mjac0_sx341 quick_test/mfcc/raw_mfcc_train.3.ark:564639
mwac0_sx251 quick_test/mfcc/raw_mfcc_train.4.ark:3444864
mgrp0_sx237 quick_test/mfcc/raw_mfcc_train.3.ark:176128
mtml0_si1065 quick_test/mfcc/raw_mfcc_train.4.ark:2906190
fntb0_sx123 quick_test/mfcc/raw_mfcc_train.1.ark:3172699
mmjb1_sx328 quick_test/mfcc/raw_mfcc_train.3.ark:3132631
mwem0_si1320 quick_test/mfcc/raw_mfcc_train.4.ark:3579855
fscn0_sx446 quick_test/mfcc/raw_mfcc_train.1.ark:3725377
mjde0_si463 quick_test/mfcc/raw_mfcc_train.3.ark:742196
mkdb0_sx242 quick_test/mfcc/raw_mfcc_train.3.ark:1994569
mdhl0_sx89 quick_test/mfcc/raw_mfcc_train.2.ark:2316146
fdas1_si831 quick_test/mfcc/raw_mfcc_train.1.ark:793705
mrgm0_si532 quick_test/mfcc/raw_mfcc_train.4.ark:744496
mfxs0_si1674 quick_test/mfcc/raw_mfcc_train.2.ark:3521768
maeo0_sx246 quick_test/mfcc/raw_mfcc_train.2.ark:801264
mlel0_sx256 quick_test/mfcc/raw_mfcc_train.3.ark:2414484
fpac0_si1921 quick_test/mfcc/raw_mfcc_train.1.ark:3227300
mgsh0_sx6 quick_test/mfcc/raw_mfcc_train.3.ark:220228
mdlr1_si1929 quick_test/mfcc/raw_mfcc_train.2.ark:2647531
maeo0_sx336 quick_test/mfcc/raw_mfcc_train.2.ark:804014
mkdt0_sx173 quick_test/mfcc/raw_mfcc_train.3.ark:2057101
mpeb0_sx240 quick_test/mfcc/raw_mfcc_train.3.ark:3548739
mfer0_si2122 quick_test/mfcc/raw_mfcc_train.2.ark:3400309
mrem0_sx151 quick_test/mfcc/raw_mfcc_train.4.ark:620475
fdkn0_sx451 quick_test/mfcc/raw_mfcc_train.1.ark:937653
mree0_sx294 quick_test/mfcc/raw_mfcc_train.4.ark:563442
mpeb0_si1860 quick_test/mfcc/raw_mfcc_train.3.ark:3537837
msds0_sx357 quick_test/mfcc/raw_mfcc_train.4.ark:1908848
fcmg0_si1872 quick_test/mfcc/raw_mfcc_train.1.ark:663906
mrso0_sx129 quick_test/mfcc/raw_mfcc_train.4.ark:1452447
mtjs0_sx382 quick_test/mfcc/raw_mfcc_train.4.ark:2738483
fpac0_si661 quick_test/mfcc/raw_mfcc_train.1.ark:3236870
msah1_sx239 quick_test/mfcc/raw_mfcc_train.4.ark:1719840
fbjl0_si2182 quick_test/mfcc/raw_mfcc_train.1.ark:278959
mdjm0_sx285 quick_test/mfcc/raw_mfcc_train.2.ark:2372998
mmdb0_si1358 quick_test/mfcc/raw_mfcc_train.3.ark:2812836
mfwk0_sx169 quick_test/mfcc/raw_mfcc_train.2.ark:3500504
fcdr1_sx286 quick_test/mfcc/raw_mfcc_train.1.ark:499777
mejs0_si610 quick_test/mfcc/raw_mfcc_train.2.ark:3286392
mjmm0_sx355 quick_test/mfcc/raw_mfcc_train.3.ark:1345101
fbmj0_sx66 quick_test/mfcc/raw_mfcc_train.1.ark:406948
fmem0_sx207 quick_test/mfcc/raw_mfcc_train.1.ark:2866568
mkjo0_sx257 quick_test/mfcc/raw_mfcc_train.3.ark:2127812
mdlb0_sx316 quick_test/mfcc/raw_mfcc_train.2.ark:2438458
marw0_sx376 quick_test/mfcc/raw_mfcc_train.2.ark:1034099
msfv0_sx92 quick_test/mfcc/raw_mfcc_train.4.ark:2064856
mkdb0_si588 quick_test/mfcc/raw_mfcc_train.3.ark:1983524
mgsh0_sx186 quick_test/mfcc/raw_mfcc_train.3.ark:212650
mrmh0_si1021 quick_test/mfcc/raw_mfcc_train.4.ark:1269851
mdjm0_si2085 quick_test/mfcc/raw_mfcc_train.2.ark:2355206
mpgr1_sx59 quick_test/mfcc/raw_mfcc_train.3.ark:3686033
mwsb0_sx276 quick_test/mfcc/raw_mfcc_train.4.ark:3725258
fltm0_sx260 quick_test/mfcc/raw_mfcc_train.1.ark:2766025
fear0_si622 quick_test/mfcc/raw_mfcc_train.1.ark:1160703
mjdc0_si1161 quick_test/mfcc/raw_mfcc_train.3.ark:703990
mtab0_si1572 quick_test/mfcc/raw_mfcc_train.4.ark:2339071
mmgk0_sx152 quick_test/mfcc/raw_mfcc_train.3.ark:3096641
mrhl0_si2145 quick_test/mfcc/raw_mfcc_train.4.ark:812617
fcmg0_si1142 quick_test/mfcc/raw_mfcc_train.1.ark:653672
ftlg0_sx303 quick_test/mfcc/raw_mfcc_train.2.ark:526339
mbjv0_sx257 quick_test/mfcc/raw_mfcc_train.2.ark:1206970
mdlh0_si574 quick_test/mfcc/raw_mfcc_train.2.ark:2551381
mhmr0_sx39 quick_test/mfcc/raw_mfcc_train.3.ark:443677
mtas0_sx395 quick_test/mfcc/raw_mfcc_train.4.ark:2399328
mgag0_sx61 quick_test/mfcc/raw_mfcc_train.2.ark:3638274
ftbr0_sx291 quick_test/mfcc/raw_mfcc_train.2.ark:463260
mrbc0_sx59 quick_test/mfcc/raw_mfcc_train.4.ark:374592
mkln0_sx248 quick_test/mfcc/raw_mfcc_train.3.ark:2157756
mdlc2_sx354 quick_test/mfcc/raw_mfcc_train.2.ark:2536039
mlsh0_sx337 quick_test/mfcc/raw_mfcc_train.3.ark:2558473
mdlm0_si604 quick_test/mfcc/raw_mfcc_train.2.ark:2587143
mjhi0_sx68 quick_test/mfcc/raw_mfcc_train.3.ark:1033139
mgrl0_sx417 quick_test/mfcc/raw_mfcc_train.3.ark:151151
fjxm0_si1971 quick_test/mfcc/raw_mfcc_train.1.ark:1954885
mgrl0_sx147 quick_test/mfcc/raw_mfcc_train.3.ark:138793
mrav0_sx378 quick_test/mfcc/raw_mfcc_train.4.ark:342334
mjeb0_sx170 quick_test/mfcc/raw_mfcc_train.3.ark:855430
fapb0_si1063 quick_test/mfcc/raw_mfcc_train.1.ark:131783
mdsj0_sx438 quick_test/mfcc/raw_mfcc_train.2.ark:2934913
mgsl0_sx84 quick_test/mfcc/raw_mfcc_train.3.ark:259589
mter0_sx17 quick_test/mfcc/raw_mfcc_train.4.ark:2626648
flod0_sx117 quick_test/mfcc/raw_mfcc_train.1.ark:2733836
mctm0_sx180 quick_test/mfcc/raw_mfcc_train.2.ark:1912671
mwem0_sx60 quick_test/mfcc/raw_mfcc_train.4.ark:3609428
mmdm0_sx141 quick_test/mfcc/raw_mfcc_train.3.ark:2889178
fjdm2_si1964 quick_test/mfcc/raw_mfcc_train.1.ark:1584768
mlel0_sx436 quick_test/mfcc/raw_mfcc_train.3.ark:2423663
mgsh0_sx276 quick_test/mfcc/raw_mfcc_train.3.ark:216505
fklc0_sx355 quick_test/mfcc/raw_mfcc_train.1.ark:2217016
mpar0_sx226 quick_test/mfcc/raw_mfcc_train.3.ark:3522851
mhbs0_sx135 quick_test/mfcc/raw_mfcc_train.3.ark:312583
fjwb1_sx165 quick_test/mfcc/raw_mfcc_train.1.ark:1932638
fnkl0_sx82 quick_test/mfcc/raw_mfcc_train.1.ark:3155133
faem0_sx312 quick_test/mfcc/raw_mfcc_train.1.ark:20537
mrlr0_si566 quick_test/mfcc/raw_mfcc_train.4.ark:1185818
mwch0_si1622 quick_test/mfcc/raw_mfcc_train.4.ark:3520265
feme0_sx155 quick_test/mfcc/raw_mfcc_train.1.ark:1272837
fceg0_sx78 quick_test/mfcc/raw_mfcc_train.1.ark:534512
fdjh0_sx35 quick_test/mfcc/raw_mfcc_train.1.ark:903508
mdtb0_sx120 quick_test/mfcc/raw_mfcc_train.2.ark:3005946
mdbb1_sx16 quick_test/mfcc/raw_mfcc_train.2.ark:2041304
mrhl0_sx255 quick_test/mfcc/raw_mfcc_train.4.ark:826431
mtwh1_si882 quick_test/mfcc/raw_mfcc_train.4.ark:3275616
mjrp0_sx135 quick_test/mfcc/raw_mfcc_train.3.ark:1618575
mdlr0_si1233 quick_test/mfcc/raw_mfcc_train.2.ark:2609129
mjpm1_sx221 quick_test/mfcc/raw_mfcc_train.3.ark:1428660
milb0_sx183 quick_test/mfcc/raw_mfcc_train.3.ark:528469
mdcm0_sx400 quick_test/mfcc/raw_mfcc_train.2.ark:2150683
mesg0_sx162 quick_test/mfcc/raw_mfcc_train.2.ark:3321556
fskp0_sx18 quick_test/mfcc/raw_mfcc_train.2.ark:162094
fbmh0_sx416 quick_test/mfcc/raw_mfcc_train.1.ark:367197
flkm0_sx440 quick_test/mfcc/raw_mfcc_train.1.ark:2619891
fscn0_sx176 quick_test/mfcc/raw_mfcc_train.1.ark:3710185
mgsl0_sx264 quick_test/mfcc/raw_mfcc_train.3.ark:247011
fvmh0_si2096 quick_test/mfcc/raw_mfcc_train.2.ark:635480
mesg0_si1962 quick_test/mfcc/raw_mfcc_train.2.ark:3313118
mjxl0_si1795 quick_test/mfcc/raw_mfcc_train.3.ark:1822352
fkfb0_sx168 quick_test/mfcc/raw_mfcc_train.1.ark:2134949
fbas0_si2066 quick_test/mfcc/raw_mfcc_train.1.ark:182895
mrso0_si1206 quick_test/mfcc/raw_mfcc_train.4.ark:1436265
mejs0_si1870 quick_test/mfcc/raw_mfcc_train.2.ark:3283278
msmr0_sx325 quick_test/mfcc/raw_mfcc_train.4.ark:2158769
mrms0_si2057 quick_test/mfcc/raw_mfcc_train.4.ark:1346037
mrjm0_sx238 quick_test/mfcc/raw_mfcc_train.4.ark:933151
mbth0_sx392 quick_test/mfcc/raw_mfcc_train.2.ark:1398691
mram0_sx15 quick_test/mfcc/raw_mfcc_train.4.ark:301981
mwad0_sx162 quick_test/mfcc/raw_mfcc_train.4.ark:3473346
fjwb1_si2055 quick_test/mfcc/raw_mfcc_train.1.ark:1920163
msah1_si1679 quick_test/mfcc/raw_mfcc_train.4.ark:1710263
mhbs0_sx45 quick_test/mfcc/raw_mfcc_train.3.ark:325597
fjsk0_sx332 quick_test/mfcc/raw_mfcc_train.1.ark:1875209
mpgh0_si924 quick_test/mfcc/raw_mfcc_train.3.ark:3609665
mtpp0_si878 quick_test/mfcc/raw_mfcc_train.4.ark:3076206
mcxm0_si1351 quick_test/mfcc/raw_mfcc_train.2.ark:1930412
mhit0_si2243 quick_test/mfcc/raw_mfcc_train.3.ark:332776
mrml0_si2051 quick_test/mfcc/raw_mfcc_train.4.ark:1307552
mrpc1_si2026 quick_test/mfcc/raw_mfcc_train.4.ark:1374799
mpfu0_sx268 quick_test/mfcc/raw_mfcc_train.3.ark:3581764
mjlg1_sx382 quick_test/mfcc/raw_mfcc_train.3.ark:1228054
flac0_sx91 quick_test/mfcc/raw_mfcc_train.1.ark:2351756
mesg0_sx72 quick_test/mfcc/raw_mfcc_train.2.ark:3339120
fklc0_sx265 quick_test/mfcc/raw_mfcc_train.1.ark:2212719
mtas0_sx35 quick_test/mfcc/raw_mfcc_train.4.ark:2396682
mjkr0_si1201 quick_test/mfcc/raw_mfcc_train.3.ark:1138931
mbef0_sx111 quick_test/mfcc/raw_mfcc_train.2.ark:1143084
mabc0_si1620 quick_test/mfcc/raw_mfcc_train.2.ark:660229
fhlm0_sx210 quick_test/mfcc/raw_mfcc_train.1.ark:1523261
mkaj0_sx424 quick_test/mfcc/raw_mfcc_train.3.ark:1938400
mdwm0_sx376 quick_test/mfcc/raw_mfcc_train.2.ark:3116235
fcaj0_si1804 quick_test/mfcc/raw_mfcc_train.1.ark:441914
mtas0_sx215 quick_test/mfcc/raw_mfcc_train.4.ark:2390026
msdh0_sx80 quick_test/mfcc/raw_mfcc_train.4.ark:1880372
mtcs0_si712 quick_test/mfcc/raw_mfcc_train.4.ark:2508462
mtpf0_sx65 quick_test/mfcc/raw_mfcc_train.4.ark:3035709
mrkm0_sx277 quick_test/mfcc/raw_mfcc_train.4.ark:1040338
mdwd0_sx450 quick_test/mfcc/raw_mfcc_train.2.ark:3046338
mjpm1_si1897 quick_test/mfcc/raw_mfcc_train.3.ark:1415878
fmjf0_sx84 quick_test/mfcc/raw_mfcc_train.1.ark:2946885
ftmg0_sx182 quick_test/mfcc/raw_mfcc_train.2.ark:548573
mkah0_si2158 quick_test/mfcc/raw_mfcc_train.3.ark:1888102
mdns0_sx201 quick_test/mfcc/raw_mfcc_train.2.ark:2764958
fmju0_si1389 quick_test/mfcc/raw_mfcc_train.1.ark:2952366
madc0_sx197 quick_test/mfcc/raw_mfcc_train.2.ark:710605
mrlj0_sx250 quick_test/mfcc/raw_mfcc_train.4.ark:1102954
fsbk0_si2329 quick_test/mfcc/raw_mfcc_train.1.ark:3666767
mbar0_si689 quick_test/mfcc/raw_mfcc_train.2.ark:1044821
fblv0_sx68 quick_test/mfcc/raw_mfcc_train.1.ark:338884
fsah0_sx327 quick_test/mfcc/raw_mfcc_train.1.ark:3611208
mtat0_sx120 quick_test/mfcc/raw_mfcc_train.4.ark:2418637
mprb0_si1215 quick_test/mfcc/raw_mfcc_train.4.ark:19314
mkah0_sx88 quick_test/mfcc/raw_mfcc_train.3.ark:1912323
mrmh0_sx301 quick_test/mfcc/raw_mfcc_train.4.ark:1291013
mdef0_sx303 quick_test/mfcc/raw_mfcc_train.2.ark:2238891
mtdb0_sx231 quick_test/mfcc/raw_mfcc_train.4.ark:2554995
mmpm0_sx71 quick_test/mfcc/raw_mfcc_train.3.ark:3203518
fmbg0_sx260 quick_test/mfcc/raw_mfcc_train.1.ark:2828962
fpjf0_sx56 quick_test/mfcc/raw_mfcc_train.1.ark:3392964
mrms0_sx390 quick_test/mfcc/raw_mfcc_train.4.ark:1366892
freh0_si1945 quick_test/mfcc/raw_mfcc_train.1.ark:3468778
mvrw0_si1485 quick_test/mfcc/raw_mfcc_train.4.ark:3398485
mdcd0_si2045 quick_test/mfcc/raw_mfcc_train.2.ark:2094048
mcpm0_si1824 quick_test/mfcc/raw_mfcc_train.2.ark:1775618
mmxs0_sx246 quick_test/mfcc/raw_mfcc_train.3.ark:3428496
mrmh0_sx121 quick_test/mfcc/raw_mfcc_train.4.ark:1283914
mjjm0_si1251 quick_test/mfcc/raw_mfcc_train.3.ark:1106088
mdwm0_sx16 quick_test/mfcc/raw_mfcc_train.2.ark:3108421
fjdm2_sx412 quick_test/mfcc/raw_mfcc_train.1.ark:1607814
mrjh0_si1519 quick_test/mfcc/raw_mfcc_train.4.ark:878595
msds0_si1077 quick_test/mfcc/raw_mfcc_train.4.ark:1883292
mntw0_sx348 quick_test/mfcc/raw_mfcc_train.3.ark:3499707
mrlj1_si2332 quick_test/mfcc/raw_mfcc_train.4.ark:1124942
fdmy0_sx117 quick_test/mfcc/raw_mfcc_train.1.ark:997832
fjlr0_si1231 quick_test/mfcc/raw_mfcc_train.1.ark:1748654
fajw0_si1263 quick_test/mfcc/raw_mfcc_train.1.ark:32804
mrew1_si870 quick_test/mfcc/raw_mfcc_train.4.ark:645082
mwgr0_sx346 quick_test/mfcc/raw_mfcc_train.4.ark:3634146
mrcw0_sx201 quick_test/mfcc/raw_mfcc_train.4.ark:433732
fdjh0_si1565 quick_test/mfcc/raw_mfcc_train.1.ark:880027
mdlc2_sx174 quick_test/mfcc/raw_mfcc_train.2.ark:2527757
mmdm0_sx51 quick_test/mfcc/raw_mfcc_train.3.ark:2905052
frjb0_sx347 quick_test/mfcc/raw_mfcc_train.1.ark:3508592
mdem0_sx338 quick_test/mfcc/raw_mfcc_train.2.ark:2272630
fmkc0_sx352 quick_test/mfcc/raw_mfcc_train.1.ark:3006176
mtat1_sx59 quick_test/mfcc/raw_mfcc_train.4.ark:2469070
mkdt0_si2153 quick_test/mfcc/raw_mfcc_train.3.ark:2043885
mprb0_si575 quick_test/mfcc/raw_mfcc_train.4.ark:26159
fcag0_sx63 quick_test/mfcc/raw_mfcc_train.1.ark:436542
fdas1_si2091 quick_test/mfcc/raw_mfcc_train.1.ark:790422
mkrg0_sx141 quick_test/mfcc/raw_mfcc_train.3.ark:2317781
fvkb0_sx169 quick_test/mfcc/raw_mfcc_train.2.ark:606980
milb0_sx363 quick_test/mfcc/raw_mfcc_train.3.ark:537744
fmbg0_si1790 quick_test/mfcc/raw_mfcc_train.1.ark:2823032
madc0_sx287 quick_test/mfcc/raw_mfcc_train.2.ark:714031
mclk0_si650 quick_test/mfcc/raw_mfcc_train.2.ark:1717661
fear0_sx352 quick_test/mfcc/raw_mfcc_train.1.ark:1172658
mjac0_si701 quick_test/mfcc/raw_mfcc_train.3.ark:550422
mgrp0_sx417 quick_test/mfcc/raw_mfcc_train.3.ark:185151
mcdr0_sx74 quick_test/mfcc/raw_mfcc_train.2.ark:1602221
mwch0_si2252 quick_test/mfcc/raw_mfcc_train.4.ark:3526092
msjk0_sx246 quick_test/mfcc/raw_mfcc_train.4.ark:2086863
mram0_si1275 quick_test/mfcc/raw_mfcc_train.4.ark:285442
makr0_sx362 quick_test/mfcc/raw_mfcc_train.2.ark:932723
mdhs0_sx180 quick_test/mfcc/raw_mfcc_train.2.ark:2332166
fgrw0_si1152 quick_test/mfcc/raw_mfcc_train.1.ark:1470030
mapv0_sx123 quick_test/mfcc/raw_mfcc_train.2.ark:958909
mrms0_sx300 quick_test/mfcc/raw_mfcc_train.4.ark:1364051
fnkl0_si2152 quick_test/mfcc/raw_mfcc_train.1.ark:3130925
mjhi0_sx428 quick_test/mfcc/raw_mfcc_train.3.ark:1028180
fpac0_sx391 quick_test/mfcc/raw_mfcc_train.1.ark:3258978
mrdm0_sx245 quick_test/mfcc/raw_mfcc_train.4.ark:493738
mhit0_sx263 quick_test/mfcc/raw_mfcc_train.3.ark:346629
mkaj0_si2044 quick_test/mfcc/raw_mfcc_train.3.ark:1919801
fdkn0_sx91 quick_test/mfcc/raw_mfcc_train.1.ark:943808
fkfb0_si1608 quick_test/mfcc/raw_mfcc_train.1.ark:2120926
mtjg0_si890 quick_test/mfcc/raw_mfcc_train.4.ark:2646386
mpgr0_sx60 quick_test/mfcc/raw_mfcc_train.3.ark:3652864
fpab1_si1471 quick_test/mfcc/raw_mfcc_train.1.ark:3189894
mrdm0_si1044 quick_test/mfcc/raw_mfcc_train.4.ark:476640
mdas0_si1266 quick_test/mfcc/raw_mfcc_train.2.ark:1995903
feac0_sx345 quick_test/mfcc/raw_mfcc_train.1.ark:1142246
megj0_si1337 quick_test/mfcc/raw_mfcc_train.2.ark:3212568
mrws0_sx112 quick_test/mfcc/raw_mfcc_train.4.ark:1657474
mwdk0_sx176 quick_test/mfcc/raw_mfcc_train.4.ark:3560541
mrem0_sx241 quick_test/mfcc/raw_mfcc_train.4.ark:624460
mjrg0_sx106 quick_test/mfcc/raw_mfcc_train.3.ark:1492584
mtrt0_si597 quick_test/mfcc/raw_mfcc_train.4.ark:3249104
mcdc0_si662 quick_test/mfcc/raw_mfcc_train.2.ark:1516949
mtjm0_si1226 quick_test/mfcc/raw_mfcc_train.4.ark:2673871
mrlj0_si2050 quick_test/mfcc/raw_mfcc_train.4.ark:1090531
fpaz0_sx153 quick_test/mfcc/raw_mfcc_train.1.ark:3345326
mdbp0_sx168 quick_test/mfcc/raw_mfcc_train.2.ark:2069474
mtrc0_sx93 quick_test/mfcc/raw_mfcc_train.4.ark:3203329
mter0_si1787 quick_test/mfcc/raw_mfcc_train.4.ark:2613914
mmds0_si1343 quick_test/mfcc/raw_mfcc_train.3.ark:2941972
mjdg0_si1705 quick_test/mfcc/raw_mfcc_train.3.ark:786097
mljc0_sx415 quick_test/mfcc/raw_mfcc_train.3.ark:2457104
fsrh0_sx401 quick_test/mfcc/raw_mfcc_train.2.ark:368827
mjrk0_sx160 quick_test/mfcc/raw_mfcc_train.3.ark:1587617
fbmj0_sx426 quick_test/mfcc/raw_mfcc_train.1.ark:402678
fcrz0_sx343 quick_test/mfcc/raw_mfcc_train.1.ark:738362
ftlg0_sx33 quick_test/mfcc/raw_mfcc_train.2.ark:529413
mkls1_si915 quick_test/mfcc/raw_mfcc_train.3.ark:2244573
mjhi0_si555 quick_test/mfcc/raw_mfcc_train.3.ark:1010582
mpmb0_si871 quick_test/mfcc/raw_mfcc_train.3.ark:3705166
mjjm0_sx197 quick_test/mfcc/raw_mfcc_train.3.ark:1127365
fltm0_sx170 quick_test/mfcc/raw_mfcc_train.1.ark:2760168
fvkb0_sx79 quick_test/mfcc/raw_mfcc_train.2.ark:626169
fjsp0_sx84 quick_test/mfcc/raw_mfcc_train.1.ark:1915553
fmkf0_sx6 quick_test/mfcc/raw_mfcc_train.1.ark:3045823
mdhl0_sx269 quick_test/mfcc/raw_mfcc_train.2.ark:2303724
mvrw0_sx225 quick_test/mfcc/raw_mfcc_train.4.ark:3413321
mded0_sx360 quick_test/mfcc/raw_mfcc_train.2.ark:2205969
mhjb0_si1017 quick_test/mfcc/raw_mfcc_train.3.ark:361243
mtmt0_sx218 quick_test/mfcc/raw_mfcc_train.4.ark:2992524
mjlg1_sx202 quick_test/mfcc/raw_mfcc_train.3.ark:1218609
mjdm0_si1340 quick_test/mfcc/raw_mfcc_train.3.ark:808304
fpls0_sx240 quick_test/mfcc/raw_mfcc_train.1.ark:3412462
mapv0_sx33 quick_test/mfcc/raw_mfcc_train.2.ark:971188
mtcs0_sx172 quick_test/mfcc/raw_mfcc_train.4.ark:2515593
mjjm0_sx107 quick_test/mfcc/raw_mfcc_train.3.ark:1121723
mcth0_sx129 quick_test/mfcc/raw_mfcc_train.2.ark:1879321
flma0_sx253 quick_test/mfcc/raw_mfcc_train.1.ark:2643581
majp0_si1704 quick_test/mfcc/raw_mfcc_train.2.ark:846688
fjrp1_si802 quick_test/mfcc/raw_mfcc_train.1.ark:1824755
mjmd0_sx38 quick_test/mfcc/raw_mfcc_train.3.ark:1316333
mkln0_si2228 quick_test/mfcc/raw_mfcc_train.3.ark:2146750
mrcw0_si741 quick_test/mfcc/raw_mfcc_train.4.ark:425008
fbmj0_sx246 quick_test/mfcc/raw_mfcc_train.1.ark:392940
mtwh1_si2142 quick_test/mfcc/raw_mfcc_train.4.ark:3273438
fssb0_sx182 quick_test/mfcc/raw_mfcc_train.2.ark:390119
mmdm1_sx153 quick_test/mfcc/raw_mfcc_train.3.ark:2917770
fbmh0_sx56 quick_test/mfcc/raw_mfcc_train.1.ark:370570
mesg0_si1332 quick_test/mfcc/raw_mfcc_train.2.ark:3309106
mcew0_sx452 quick_test/mfcc/raw_mfcc_train.2.ark:1667290
mmgg0_si1709 quick_test/mfcc/raw_mfcc_train.3.ark:3061547
mrbc0_si599 quick_test/mfcc/raw_mfcc_train.4.ark:352900
mjjj0_si1163 quick_test/mfcc/raw_mfcc_train.3.ark:1069462
fgdp0_sx88 quick_test/mfcc/raw_mfcc_train.1.ark:1426376
mtas0_si1385 quick_test/mfcc/raw_mfcc_train.4.ark:2377179
mmbs0_si521 quick_test/mfcc/raw_mfcc_train.3.ark:2750441
mdlc0_si2025 quick_test/mfcc/raw_mfcc_train.2.ark:2458897
mjwt0_si1381 quick_test/mfcc/raw_mfcc_train.3.ark:1755665
fgmb0_sx425 quick_test/mfcc/raw_mfcc_train.1.ark:1463126
mjwt0_sx211 quick_test/mfcc/raw_mfcc_train.3.ark:1770103
mgar0_si1694 quick_test/mfcc/raw_mfcc_train.3.ark:4961
mcss0_sx390 quick_test/mfcc/raw_mfcc_train.2.ark:1863067
mpar0_si946 quick_test/mfcc/raw_mfcc_train.3.ark:3515076
mwar0_si2305 quick_test/mfcc/raw_mfcc_train.4.ark:3499085
fsrh0_sx41 quick_test/mfcc/raw_mfcc_train.2.ark:372590
mdlr0_si603 quick_test/mfcc/raw_mfcc_train.2.ark:2617568
mjwg0_sx445 quick_test/mfcc/raw_mfcc_train.3.ark:1707837
mrcg0_sx258 quick_test/mfcc/raw_mfcc_train.4.ark:395871
fpac0_sx301 quick_test/mfcc/raw_mfcc_train.1.ark:3251191
fsdc0_si2234 quick_test/mfcc/raw_mfcc_train.1.ark:3742983
mreh1_sx429 quick_test/mfcc/raw_mfcc_train.4.ark:598522
freh0_si685 quick_test/mfcc/raw_mfcc_train.1.ark:3474141
mclk0_sx400 quick_test/mfcc/raw_mfcc_train.2.ark:1740068
mtbc0_si543 quick_test/mfcc/raw_mfcc_train.4.ark:2478193
mpsw0_sx167 quick_test/mfcc/raw_mfcc_train.4.ark:167925
mcdd0_si2143 quick_test/mfcc/raw_mfcc_train.2.ark:1543415
fskp0_sx108 quick_test/mfcc/raw_mfcc_train.2.ark:158669
mjae0_sx354 quick_test/mfcc/raw_mfcc_train.3.ark:596209
mbma1_si954 quick_test/mfcc/raw_mfcc_train.2.ark:1258836
mkes0_si1253 quick_test/mfcc/raw_mfcc_train.3.ark:2077754
mjda0_sx41 quick_test/mfcc/raw_mfcc_train.3.ark:699874
mbom0_sx114 quick_test/mfcc/raw_mfcc_train.2.ark:1327104
fkdw0_sx217 quick_test/mfcc/raw_mfcc_train.1.ark:2108535
mbml0_sx359 quick_test/mfcc/raw_mfcc_train.2.ark:1303881
fkkh0_si1920 quick_test/mfcc/raw_mfcc_train.1.ark:2165360
mmag0_sx46 quick_test/mfcc/raw_mfcc_train.3.ark:2672641
mdcd0_si785 quick_test/mfcc/raw_mfcc_train.2.ark:2097175
msrr0_si501 quick_test/mfcc/raw_mfcc_train.4.ark:2240520
mdlc2_si1614 quick_test/mfcc/raw_mfcc_train.2.ark:2518375
mgag0_si645 quick_test/mfcc/raw_mfcc_train.2.ark:3617420
msfh0_si1738 quick_test/mfcc/raw_mfcc_train.4.ark:1997600
mjjj0_sx353 quick_test/mfcc/raw_mfcc_train.3.ark:1094757
mjpm1_si761 quick_test/mfcc/raw_mfcc_train.3.ark:1420430
mtjg0_sx350 quick_test/mfcc/raw_mfcc_train.4.ark:2660993
fklc0_sx175 quick_test/mfcc/raw_mfcc_train.1.ark:2206082
mjrh1_sx154 quick_test/mfcc/raw_mfcc_train.3.ark:1558921
mjfr0_si2235 quick_test/mfcc/raw_mfcc_train.3.ark:973073
fljg0_si2241 quick_test/mfcc/raw_mfcc_train.1.ark:2558206
mwrp0_si1443 quick_test/mfcc/raw_mfcc_train.4.ark:3678282
maeb0_si2250 quick_test/mfcc/raw_mfcc_train.2.ark:759494
mdac0_sx271 quick_test/mfcc/raw_mfcc_train.2.ark:1980990
fpaz0_si2223 quick_test/mfcc/raw_mfcc_train.1.ark:3333586
mbgt0_si711 quick_test/mfcc/raw_mfcc_train.2.ark:1165442
mvjh0_sx296 quick_test/mfcc/raw_mfcc_train.4.ark:3359192
mmar0_sx346 quick_test/mfcc/raw_mfcc_train.3.ark:2730255
mrmb0_si2211 quick_test/mfcc/raw_mfcc_train.4.ark:1210581
mmds0_sx353 quick_test/mfcc/raw_mfcc_train.3.ark:2958245
mkaj0_sx64 quick_test/mfcc/raw_mfcc_train.3.ark:1941721
fgmb0_si1145 quick_test/mfcc/raw_mfcc_train.1.ark:1432507
fmbg0_sx350 quick_test/mfcc/raw_mfcc_train.1.ark:2835617
mjeb0_sx26 quick_test/mfcc/raw_mfcc_train.3.ark:865973
mmgk0_sx242 quick_test/mfcc/raw_mfcc_train.3.ark:3099495
fspm0_sx161 quick_test/mfcc/raw_mfcc_train.2.ark:324380
fsdc0_sx142 quick_test/mfcc/raw_mfcc_train.1.ark:3744979
mjac0_si1331 quick_test/mfcc/raw_mfcc_train.3.ark:543920
mmdm0_sx411 quick_test/mfcc/raw_mfcc_train.3.ark:2900379
mwsh0_sx346 quick_test/mfcc/raw_mfcc_train.4.ark:3763787
mgxp0_si457 quick_test/mfcc/raw_mfcc_train.3.ark:270316
fmem0_si1377 quick_test/mfcc/raw_mfcc_train.1.ark:2848339
fklc1_sx238 quick_test/mfcc/raw_mfcc_train.1.ark:2242911
mctm0_sx270 quick_test/mfcc/raw_mfcc_train.2.ark:1916474
mcpm0_sx24 quick_test/mfcc/raw_mfcc_train.2.ark:1793143
fsls0_sx246 quick_test/mfcc/raw_mfcc_train.2.ark:197403
mrwa0_sx433 quick_test/mfcc/raw_mfcc_train.4.ark:1637652
mhmg0_sx195 quick_test/mfcc/raw_mfcc_train.3.ark:407213
flja0_si1078 quick_test/mfcc/raw_mfcc_train.1.ark:2486271
mpfu0_si1258 quick_test/mfcc/raw_mfcc_train.3.ark:3565225
mmcc0_si708 quick_test/mfcc/raw_mfcc_train.3.ark:2789797
mdef0_sx123 quick_test/mfcc/raw_mfcc_train.2.ark:2231792
fjwb1_sx435 quick_test/mfcc/raw_mfcc_train.1.ark:1943111
mjsr0_sx164 quick_test/mfcc/raw_mfcc_train.3.ark:1654863
fljd0_si2146 quick_test/mfcc/raw_mfcc_train.1.ark:2528015
fljg0_sx81 quick_test/mfcc/raw_mfcc_train.1.ark:2588186
mesg0_sx342 quick_test/mfcc/raw_mfcc_train.2.ark:3329305
mdks0_si1066 quick_test/mfcc/raw_mfcc_train.2.ark:2380293
maeb0_sx180 quick_test/mfcc/raw_mfcc_train.2.ark:767295
fskp0_sx378 quick_test/mfcc/raw_mfcc_train.2.ark:172489
fdfb0_si1948 quick_test/mfcc/raw_mfcc_train.1.ark:857422
mklr0_si1059 quick_test/mfcc/raw_mfcc_train.3.ark:2173319
mewm0_sx358 quick_test/mfcc/raw_mfcc_train.2.ark:3387540
mwsb0_sx96 quick_test/mfcc/raw_mfcc_train.4.ark:3735221
mmab1_si1494 quick_test/mfcc/raw_mfcc_train.3.ark:2604883
falr0_sx425 quick_test/mfcc/raw_mfcc_train.1.ark:125958
mjma0_si2125 quick_test/mfcc/raw_mfcc_train.3.ark:1269519
mjde0_sx220 quick_test/mfcc/raw_mfcc_train.3.ark:756218
flag0_sx24 quick_test/mfcc/raw_mfcc_train.1.ark:2379593
fvkb0_sx349 quick_test/mfcc/raw_mfcc_train.2.ark:615301
mmpm0_sx431 quick_test/mfcc/raw_mfcc_train.3.ark:3199326
fkkh0_sx120 quick_test/mfcc/raw_mfcc_train.1.ark:2175787
mmdb0_sx357 quick_test/mfcc/raw_mfcc_train.3.ark:2831748
fklc0_sx445 quick_test/mfcc/raw_mfcc_train.1.ark:2220611
mcss0_si688 quick_test/mfcc/raw_mfcc_train.2.ark:1839093
flma0_sx433 quick_test/mfcc/raw_mfcc_train.1.ark:2649783
mrlk0_sx303 quick_test/mfcc/raw_mfcc_train.4.ark:1167010
mdac0_sx361 quick_test/mfcc/raw_mfcc_train.2.ark:1984247
mrwa0_si2233 quick_test/mfcc/raw_mfcc_train.4.ark:1617753
mrlr0_si1196 quick_test/mfcc/raw_mfcc_train.4.ark:1176443
mhrm0_sx418 quick_test/mfcc/raw_mfcc_train.3.ark:471672
mdsj0_sx22 quick_test/mfcc/raw_mfcc_train.2.ark:2923608
mjfr0_sx75 quick_test/mfcc/raw_mfcc_train.3.ark:1000440
ftbw0_sx85 quick_test/mfcc/raw_mfcc_train.2.ark:498671
fcyl0_si667 quick_test/mfcc/raw_mfcc_train.1.ark:758249
fsbk0_si1069 quick_test/mfcc/raw_mfcc_train.1.ark:3659393
mrjh0_si889 quick_test/mfcc/raw_mfcc_train.4.ark:884868
fcaj0_sx219 quick_test/mfcc/raw_mfcc_train.1.ark:452881
mtpr0_sx430 quick_test/mfcc/raw_mfcc_train.4.ark:3126302
fvmh0_sx116 quick_test/mfcc/raw_mfcc_train.2.ark:644867
mntw0_si2328 quick_test/mfcc/raw_mfcc_train.3.ark:3486731
mjws0_si513 quick_test/mfcc/raw_mfcc_train.3.ark:1721763
mtkd0_si630 quick_test/mfcc/raw_mfcc_train.4.ark:2783426
mree0_sx24 quick_test/mfcc/raw_mfcc_train.4.ark:560315
mljh0_sx334 quick_test/mfcc/raw_mfcc_train.3.ark:2493658
msat0_sx356 quick_test/mfcc/raw_mfcc_train.4.ark:1786404
mesj0_sx277 quick_test/mfcc/raw_mfcc_train.2.ark:3357682
fdtd0_si1561 quick_test/mfcc/raw_mfcc_train.1.ark:1057309
mrjm0_sx148 quick_test/mfcc/raw_mfcc_train.4.ark:929335
fnkl0_sx172 quick_test/mfcc/raw_mfcc_train.1.ark:3140585
mrvg0_si1140 quick_test/mfcc/raw_mfcc_train.4.ark:1586072
mtdp0_si2151 quick_test/mfcc/raw_mfcc_train.4.ark:2577906
mcth0_sx309 quick_test/mfcc/raw_mfcc_train.2.ark:1887161
mjlg1_sx22 quick_test/mfcc/raw_mfcc_train.3.ark:1220955
flmc0_si1372 quick_test/mfcc/raw_mfcc_train.1.ark:2657311
fdmy0_sx27 quick_test/mfcc/raw_mfcc_train.1.ark:1006516
mdwh0_si1925 quick_test/mfcc/raw_mfcc_train.2.ark:3060140
mlns0_sx417 quick_test/mfcc/raw_mfcc_train.3.ark:2528445
falr0_si1325 quick_test/mfcc/raw_mfcc_train.1.ark:101592
fmah1_si1509 quick_test/mfcc/raw_mfcc_train.1.ark:2784955
mjws0_sx423 quick_test/mfcc/raw_mfcc_train.3.ark:1740654
fleh0_sx151 quick_test/mfcc/raw_mfcc_train.1.ark:2404156
fbas0_sx37 quick_test/mfcc/raw_mfcc_train.1.ark:199029
mbth0_sx212 quick_test/mfcc/raw_mfcc_train.2.ark:1386607
mjrp0_sx225 quick_test/mfcc/raw_mfcc_train.3.ark:1623106
mefg0_si491 quick_test/mfcc/raw_mfcc_train.2.ark:3182164
mded0_si1800 quick_test/mfcc/raw_mfcc_train.2.ark:2187858
mwdk0_si806 quick_test/mfcc/raw_mfcc_train.4.ark:3556244
mcth0_si1209 quick_test/mfcc/raw_mfcc_train.2.ark:1867079
mjrp0_sx315 quick_test/mfcc/raw_mfcc_train.3.ark:1625908
mtjg0_si1520 quick_test/mfcc/raw_mfcc_train.4.ark:2641886
mrlj1_si2301 quick_test/mfcc/raw_mfcc_train.4.ark:1119591
fdfb0_sx238 quick_test/mfcc/raw_mfcc_train.1.ark:865387
mkls0_sx87 quick_test/mfcc/raw_mfcc_train.3.ark:2233604
mtrr0_sx108 quick_test/mfcc/raw_mfcc_train.4.ark:3218101
ftaj0_si699 quick_test/mfcc/raw_mfcc_train.2.ark:418443
mcss0_sx120 quick_test/mfcc/raw_mfcc_train.2.ark:1849143
mmea0_sx398 quick_test/mfcc/raw_mfcc_train.3.ark:2992219
mjpm1_sx131 quick_test/mfcc/raw_mfcc_train.3.ark:1425676
fpac0_si2011 quick_test/mfcc/raw_mfcc_train.1.ark:3233990
fcaj0_sx39 quick_test/mfcc/raw_mfcc_train.1.ark:461448
mdlr0_sx153 quick_test/mfcc/raw_mfcc_train.2.ark:2620747
mapv0_sx213 quick_test/mfcc/raw_mfcc_train.2.ark:963856
mdlr0_sx63 quick_test/mfcc/raw_mfcc_train.2.ark:2639897
mchl0_si1347 quick_test/mfcc/raw_mfcc_train.2.ark:1677197
mafm0_sx399 quick_test/mfcc/raw_mfcc_train.2.ark:840523
msat0_si2156 quick_test/mfcc/raw_mfcc_train.4.ark:1773766
mcef0_sx55 quick_test/mfcc/raw_mfcc_train.2.ark:1632373
mjbg0_sx242 quick_test/mfcc/raw_mfcc_train.3.ark:657559
mkjo0_si1517 quick_test/mfcc/raw_mfcc_train.3.ark:2113054
mlel0_si1246 quick_test/mfcc/raw_mfcc_train.3.ark:2395046
fsah0_sx74 quick_test/mfcc/raw_mfcc_train.1.ark:3624137
msdb0_sx377 quick_test/mfcc/raw_mfcc_train.4.ark:1847529
mfrm0_sx255 quick_test/mfcc/raw_mfcc_train.2.ark:3475533
fsjw0_sx73 quick_test/mfcc/raw_mfcc_train.2.ark:79329
fksr0_sx366 quick_test/mfcc/raw_mfcc_train.1.ark:2312413
fpad0_sx356 quick_test/mfcc/raw_mfcc_train.1.ark:3285763
mmpm0_sx251 quick_test/mfcc/raw_mfcc_train.3.ark:3190355
mhmg0_si1995 quick_test/mfcc/raw_mfcc_train.3.ark:390897
mtrc0_sx183 quick_test/mfcc/raw_mfcc_train.4.ark:3194183
mpgh0_sx114 quick_test/mfcc/raw_mfcc_train.3.ark:3612909
fpmy0_si523 quick_test/mfcc/raw_mfcc_train.1.ark:3436423
faem0_sx402 quick_test/mfcc/raw_mfcc_train.1.ark:25549
mwgr0_sx256 quick_test/mfcc/raw_mfcc_train.4.ark:3630785
mprb0_sx395 quick_test/mfcc/raw_mfcc_train.4.ark:49762
mmwb0_si1619 quick_test/mfcc/raw_mfcc_train.3.ark:3314327
fceg0_si1878 quick_test/mfcc/raw_mfcc_train.1.ark:514620
freh0_si1315 quick_test/mfcc/raw_mfcc_train.1.ark:3464012
fkfb0_sx348 quick_test/mfcc/raw_mfcc_train.1.ark:2142685
mpfu0_si628 quick_test/mfcc/raw_mfcc_train.3.ark:3573833
mrkm0_si637 quick_test/mfcc/raw_mfcc_train.4.ark:1030184
mvrw0_si2115 quick_test/mfcc/raw_mfcc_train.4.ark:3403628
fdkn0_si1202 quick_test/mfcc/raw_mfcc_train.1.ark:914854
mhmr0_si489 quick_test/mfcc/raw_mfcc_train.3.ark:426295
mmgk0_si1952 quick_test/mfcc/raw_mfcc_train.3.ark:3092259
mrfk0_si2336 quick_test/mfcc/raw_mfcc_train.4.ark:678082
makb0_sx116 quick_test/mfcc/raw_mfcc_train.2.ark:898943
mdlc2_si984 quick_test/mfcc/raw_mfcc_train.2.ark:2522589
mdlr1_sx309 quick_test/mfcc/raw_mfcc_train.2.ark:2665720
mkls0_sx447 quick_test/mfcc/raw_mfcc_train.3.ark:2229971
fpaf0_sx244 quick_test/mfcc/raw_mfcc_train.1.ark:3315064
fdmy0_sx297 quick_test/mfcc/raw_mfcc_train.1.ark:1010735
fvmh0_si836 quick_test/mfcc/raw_mfcc_train.2.ark:639166
flhd0_sx354 quick_test/mfcc/raw_mfcc_train.1.ark:2474849
mfer0_sx52 quick_test/mfcc/raw_mfcc_train.2.ark:3421943
mtkp0_si454 quick_test/mfcc/raw_mfcc_train.4.ark:2820988
mmxs0_sx426 quick_test/mfcc/raw_mfcc_train.3.ark:3436973
fgmb0_sx245 quick_test/mfcc/raw_mfcc_train.1.ark:1452283
mtmn0_sx164 quick_test/mfcc/raw_mfcc_train.4.ark:2958101
mlel0_sx166 quick_test/mfcc/raw_mfcc_train.3.ark:2408822
mrso0_sx39 quick_test/mfcc/raw_mfcc_train.4.ark:1467183
mrdm0_sx155 quick_test/mfcc/raw_mfcc_train.4.ark:489285
mjkr0_si571 quick_test/mfcc/raw_mfcc_train.3.ark:1148319
fsls0_sx156 quick_test/mfcc/raw_mfcc_train.2.ark:190096
mdss0_si2087 quick_test/mfcc/raw_mfcc_train.2.ark:2943223
mrdm0_si965 quick_test/mfcc/raw_mfcc_train.4.ark:485599
falr0_si1955 quick_test/mfcc/raw_mfcc_train.1.ark:105942
fksr0_si1747 quick_test/mfcc/raw_mfcc_train.1.ark:2296694
mdns0_sx291 quick_test/mfcc/raw_mfcc_train.2.ark:2771601
mtdb0_sx321 quick_test/mfcc/raw_mfcc_train.4.ark:2556718
mclm0_sx16 quick_test/mfcc/raw_mfcc_train.2.ark:1759188
mrem0_si1591 quick_test/mfcc/raw_mfcc_train.4.ark:607506
mkaj0_sx334 quick_test/mfcc/raw_mfcc_train.3.ark:1935689
mmea0_si758 quick_test/mfcc/raw_mfcc_train.3.ark:2974180
marw0_sx286 quick_test/mfcc/raw_mfcc_train.2.ark:1021553
fblv0_si1058 quick_test/mfcc/raw_mfcc_train.1.ark:307452
mgar0_sx402 quick_test/mfcc/raw_mfcc_train.3.ark:25121
fhlm0_si1560 quick_test/mfcc/raw_mfcc_train.1.ark:1507827
fkaa0_sx38 quick_test/mfcc/raw_mfcc_train.1.ark:2042874
mjxl0_si542 quick_test/mfcc/raw_mfcc_train.3.ark:1824712
mrab0_sx54 quick_test/mfcc/raw_mfcc_train.4.ark:212845
fcrz0_sx163 quick_test/mfcc/raw_mfcc_train.1.ark:731874
fsgf0_si927 quick_test/mfcc/raw_mfcc_train.1.ark:3801272
msfh0_sx406 quick_test/mfcc/raw_mfcc_train.4.ark:2023232
mjae0_sx264 quick_test/mfcc/raw_mfcc_train.3.ark:592367
mbwp0_sx169 quick_test/mfcc/raw_mfcc_train.2.ark:1413151
fltm0_si2330 quick_test/mfcc/raw_mfcc_train.1.ark:2757483
fpjf0_sx236 quick_test/mfcc/raw_mfcc_train.1.ark:3380984
medr0_si1374 quick_test/mfcc/raw_mfcc_train.2.ark:3150004
mdpk0_si1053 quick_test/mfcc/raw_mfcc_train.2.ark:2812077
mwsb0_sx186 quick_test/mfcc/raw_mfcc_train.4.ark:3722482
mfwk0_sx259 quick_test/mfcc/raw_mfcc_train.2.ark:3504307
mrew1_sx420 quick_test/mfcc/raw_mfcc_train.4.ark:661165
mjpm1_sx41 quick_test/mfcc/raw_mfcc_train.3.ark:1443045
mmws1_sx441 quick_test/mfcc/raw_mfcc_train.3.ark:3407485
mjfr0_sx345 quick_test/mfcc/raw_mfcc_train.3.ark:989611
maeo0_sx426 quick_test/mfcc/raw_mfcc_train.2.ark:809065
fbas0_si1472 quick_test/mfcc/raw_mfcc_train.1.ark:177011
mcre0_sx401 quick_test/mfcc/raw_mfcc_train.2.ark:1824720
mjfr0_sx255 quick_test/mfcc/raw_mfcc_train.3.ark:985457
mzmb0_sx176 quick_test/mfcc/raw_mfcc_train.4.ark:3789570
mjlg1_si1642 quick_test/mfcc/raw_mfcc_train.3.ark:1205704
mprt0_si580 quick_test/mfcc/raw_mfcc_train.4.ark:137193
mgsl0_si534 quick_test/mfcc/raw_mfcc_train.3.ark:233015
frll0_si805 quick_test/mfcc/raw_mfcc_train.1.ark:3525988
mdlm0_sx64 quick_test/mfcc/raw_mfcc_train.2.ark:2606261
mmdb0_si987 quick_test/mfcc/raw_mfcc_train.3.ark:2819806
mdwm0_sx433 quick_test/mfcc/raw_mfcc_train.2.ark:3119921
fajw0_sx363 quick_test/mfcc/raw_mfcc_train.1.ark:59625
mkah0_sx358 quick_test/mfcc/raw_mfcc_train.3.ark:1905030
mkls1_sx195 quick_test/mfcc/raw_mfcc_train.3.ark:2257905
fbjl0_si1552 quick_test/mfcc/raw_mfcc_train.1.ark:274856
mcth0_sx39 quick_test/mfcc/raw_mfcc_train.2.ark:1891392
fcmm0_sx93 quick_test/mfcc/raw_mfcc_train.1.ark:716595
mclk0_sx220 quick_test/mfcc/raw_mfcc_train.2.ark:1728569
mcal0_sx238 quick_test/mfcc/raw_mfcc_train.2.ark:1491946
mjdg0_si1672 quick_test/mfcc/raw_mfcc_train.3.ark:780941
mmdm1_si1650 quick_test/mfcc/raw_mfcc_train.3.ark:2908804
mwsh0_sx256 quick_test/mfcc/raw_mfcc_train.4.ark:3759594
fapb0_sx253 quick_test/mfcc/raw_mfcc_train.1.ark:152587
mrxb0_si1585 quick_test/mfcc/raw_mfcc_train.4.ark:1673954
fssb0_sx362 quick_test/mfcc/raw_mfcc_train.2.ark:397270
mdlc1_sx265 quick_test/mfcc/raw_mfcc_train.2.ark:2505503
flod0_sx207 quick_test/mfcc/raw_mfcc_train.1.ark:2742027
mrbc0_sx419 quick_test/mfcc/raw_mfcc_train.4.ark:370400
mrlk0_si843 quick_test/mfcc/raw_mfcc_train.4.ark:1155432
mrhl0_si1515 quick_test/mfcc/raw_mfcc_train.4.ark:811088
mjdg0_sx52 quick_test/mfcc/raw_mfcc_train.3.ark:804513
fmjf0_si624 quick_test/mfcc/raw_mfcc_train.1.ark:2923672
mvjh0_si926 quick_test/mfcc/raw_mfcc_train.4.ark:3345450
mdbb1_sx376 quick_test/mfcc/raw_mfcc_train.2.ark:2051751
mtjs0_sx22 quick_test/mfcc/raw_mfcc_train.4.ark:2730591
mcdd0_si883 quick_test/mfcc/raw_mfcc_train.2.ark:1547101
mjsr0_si2054 quick_test/mfcc/raw_mfcc_train.3.ark:1641329
mtlb0_si1764 quick_test/mfcc/raw_mfcc_train.4.ark:2850015
fblv0_sx338 quick_test/mfcc/raw_mfcc_train.1.ark:329771
mcdc0_sx392 quick_test/mfcc/raw_mfcc_train.2.ark:1536509
mrxb0_si2215 quick_test/mfcc/raw_mfcc_train.4.ark:1676991
mmsm0_si476 quick_test/mfcc/raw_mfcc_train.3.ark:3250943
mdks0_sx346 quick_test/mfcc/raw_mfcc_train.2.ark:2399687
mjkr0_sx211 quick_test/mfcc/raw_mfcc_train.3.ark:1157758
mvlo0_sx157 quick_test/mfcc/raw_mfcc_train.4.ark:3378378
flet0_si1137 quick_test/mfcc/raw_mfcc_train.1.ark:2424913
mrgm0_si1162 quick_test/mfcc/raw_mfcc_train.4.ark:735225
mjai0_sx254 quick_test/mfcc/raw_mfcc_train.3.ark:630942
msrr0_si1131 quick_test/mfcc/raw_mfcc_train.4.ark:2231366
mzmb0_si1796 quick_test/mfcc/raw_mfcc_train.4.ark:3782237
mmea0_si1388 quick_test/mfcc/raw_mfcc_train.3.ark:2967990
mjxl0_sx92 quick_test/mfcc/raw_mfcc_train.3.ark:1845715
mrjm0_si1095 quick_test/mfcc/raw_mfcc_train.4.ark:917313
mrws0_sx292 quick_test/mfcc/raw_mfcc_train.4.ark:1665866
mfxv0_sx105 quick_test/mfcc/raw_mfcc_train.2.ark:3566946
mjrh0_si1125 quick_test/mfcc/raw_mfcc_train.3.ark:1512925
fgcs0_si1486 quick_test/mfcc/raw_mfcc_train.1.ark:1364520
mpgh0_sx24 quick_test/mfcc/raw_mfcc_train.3.ark:3618915
mmvp0_sx384 quick_test/mfcc/raw_mfcc_train.3.ark:3310198
mkag0_si2239 quick_test/mfcc/raw_mfcc_train.3.ark:1855000
mjsr0_sx434 quick_test/mfcc/raw_mfcc_train.3.ark:1667650
mtpg0_sx213 quick_test/mfcc/raw_mfcc_train.4.ark:3054726
fcag0_sx423 quick_test/mfcc/raw_mfcc_train.1.ark:431921
mbcg0_sx57 quick_test/mfcc/raw_mfcc_train.2.ark:1126986
mwrp0_sx93 quick_test/mfcc/raw_mfcc_train.4.ark:3706865
msat1_si1703 quick_test/mfcc/raw_mfcc_train.4.ark:1800330
mtpf0_si605 quick_test/mfcc/raw_mfcc_train.4.ark:3015824
makb0_sx296 quick_test/mfcc/raw_mfcc_train.2.ark:911560
msmc0_sx17 quick_test/mfcc/raw_mfcc_train.4.ark:2122213
mjls0_si1726 quick_test/mfcc/raw_mfcc_train.3.ark:1236429
mstf0_sx226 quick_test/mfcc/raw_mfcc_train.4.ark:2282293
fskc0_sx246 quick_test/mfcc/raw_mfcc_train.2.ark:97631
mtqc0_sx271 quick_test/mfcc/raw_mfcc_train.4.ark:3157337
fjxm0_sx41 quick_test/mfcc/raw_mfcc_train.1.ark:1980848
msmc0_sx197 quick_test/mfcc/raw_mfcc_train.4.ark:2125041
mgaf0_si1282 quick_test/mfcc/raw_mfcc_train.2.ark:3583777
mjhi0_si698 quick_test/mfcc/raw_mfcc_train.3.ark:1013410
mmvp0_sx294 quick_test/mfcc/raw_mfcc_train.3.ark:3299992
fblv0_sx428 quick_test/mfcc/raw_mfcc_train.1.ark:334354
falr0_sx155 quick_test/mfcc/raw_mfcc_train.1.ark:113197
mjpm0_sx288 quick_test/mfcc/raw_mfcc_train.3.ark:1407634
fcke0_sx31 quick_test/mfcc/raw_mfcc_train.1.ark:617330
mmar0_sx256 quick_test/mfcc/raw_mfcc_train.3.ark:2725568
mcxm0_sx361 quick_test/mfcc/raw_mfcc_train.2.ark:1950819
feac0_si1245 quick_test/mfcc/raw_mfcc_train.1.ark:1120838
mwsh0_sx76 quick_test/mfcc/raw_mfcc_train.4.ark:3772198
mmeb0_sx187 quick_test/mfcc/raw_mfcc_train.3.ark:3006887
mgaw0_si1802 quick_test/mfcc/raw_mfcc_train.3.ark:38325
mkam0_sx146 quick_test/mfcc/raw_mfcc_train.3.ark:1961005
mtpf0_sx425 quick_test/mfcc/raw_mfcc_train.4.ark:3033415
madd0_sx448 quick_test/mfcc/raw_mfcc_train.2.ark:746173
mdef0_sx33 quick_test/mfcc/raw_mfcc_train.2.ark:2241458
mdlh0_si700 quick_test/mfcc/raw_mfcc_train.2.ark:2554105
fspm0_sx431 quick_test/mfcc/raw_mfcc_train.2.ark:339416
mmaa0_si2105 quick_test/mfcc/raw_mfcc_train.3.ark:2576455
frjb0_sx167 quick_test/mfcc/raw_mfcc_train.1.ark:3501090
fcag0_si1641 quick_test/mfcc/raw_mfcc_train.1.ark:413802
mpmb0_sx421 quick_test/mfcc/raw_mfcc_train.3.ark:3729140
fbas0_sx127 quick_test/mfcc/raw_mfcc_train.1.ark:191014
mcdc0_sx302 quick_test/mfcc/raw_mfcc_train.2.ark:1529229
mrcg0_sx438 quick_test/mfcc/raw_mfcc_train.4.ark:406064
mgrl0_si867 quick_test/mfcc/raw_mfcc_train.3.ark:133677
mdwd0_sx180 quick_test/mfcc/raw_mfcc_train.2.ark:3036281
mrlj1_sx51 quick_test/mfcc/raw_mfcc_train.4.ark:1140927
fcdr1_si1186 quick_test/mfcc/raw_mfcc_train.1.ark:468314
mhit0_sx443 quick_test/mfcc/raw_mfcc_train.3.ark:353936
mjma0_sx55 quick_test/mfcc/raw_mfcc_train.3.ark:1292193
fdjh0_sx305 quick_test/mfcc/raw_mfcc_train.1.ark:900018
ftbr0_si921 quick_test/mfcc/raw_mfcc_train.2.ark:447425
mjdg0_sx322 quick_test/mfcc/raw_mfcc_train.3.ark:797844
fntb0_sx213 quick_test/mfcc/raw_mfcc_train.1.ark:3176697
mhmr0_si1119 quick_test/mfcc/raw_mfcc_train.3.ark:416868
mtmt0_sx398 quick_test/mfcc/raw_mfcc_train.4.ark:3003815
mewm0_sx268 quick_test/mfcc/raw_mfcc_train.2.ark:3383724
mjfr0_si975 quick_test/mfcc/raw_mfcc_train.3.ark:976525
fexm0_sx381 quick_test/mfcc/raw_mfcc_train.1.ark:1360924
fdfb0_sx328 quick_test/mfcc/raw_mfcc_train.1.ark:868280
mkdd0_sx37 quick_test/mfcc/raw_mfcc_train.3.ark:2036135
mkdt0_sx353 quick_test/mfcc/raw_mfcc_train.3.ark:2065370
mdem0_sx248 quick_test/mfcc/raw_mfcc_train.2.ark:2267956
fcdr1_sx376 quick_test/mfcc/raw_mfcc_train.1.ark:505556
fecd0_si1418 quick_test/mfcc/raw_mfcc_train.1.ark:1187447
madc0_si737 quick_test/mfcc/raw_mfcc_train.2.ark:697754
mpgr0_sx330 quick_test/mfcc/raw_mfcc_train.3.ark:3643855
mtkd0_sx377 quick_test/mfcc/raw_mfcc_train.4.ark:2805924
mbwp0_si709 quick_test/mfcc/raw_mfcc_train.2.ark:1408802
mwar0_si1045 quick_test/mfcc/raw_mfcc_train.4.ark:3489085
fmem0_si2007 quick_test/mfcc/raw_mfcc_train.1.ark:2853482
fdxw0_sx161 quick_test/mfcc/raw_mfcc_train.1.ark:1102330
mjxa0_sx247 quick_test/mfcc/raw_mfcc_train.3.ark:1800463
mjeb0_sx206 quick_test/mfcc/raw_mfcc_train.3.ark:861495
mrcw0_sx291 quick_test/mfcc/raw_mfcc_train.4.ark:439764
mdlc1_si2065 quick_test/mfcc/raw_mfcc_train.2.ark:2492871
mrms0_si2100 quick_test/mfcc/raw_mfcc_train.4.ark:1351804
mmaa0_sx305 quick_test/mfcc/raw_mfcc_train.3.ark:2593812
mrcw0_sx21 quick_test/mfcc/raw_mfcc_train.4.ark:437430
mtpf0_sx245 quick_test/mfcc/raw_mfcc_train.4.ark:3023768
fjkl0_sx392 quick_test/mfcc/raw_mfcc_train.1.ark:1712487
mgaw0_sx85 quick_test/mfcc/raw_mfcc_train.3.ark:60258
mmrp0_sx234 quick_test/mfcc/raw_mfcc_train.3.ark:3221273
fblv0_sx158 quick_test/mfcc/raw_mfcc_train.1.ark:323517
fleh0_sx331 quick_test/mfcc/raw_mfcc_train.1.ark:2412425
mrsp0_sx439 quick_test/mfcc/raw_mfcc_train.4.ark:1501236
fvkb0_sx439 quick_test/mfcc/raw_mfcc_train.2.ark:621730
mstf0_si852 quick_test/mfcc/raw_mfcc_train.4.ark:2271086
mnet0_sx276 quick_test/mfcc/raw_mfcc_train.3.ark:3458947
mctm0_si720 quick_test/mfcc/raw_mfcc_train.2.ark:1909778
fjen0_sx147 quick_test/mfcc/raw_mfcc_train.1.ark:1629054
mhbs0_sx225 quick_test/mfcc/raw_mfcc_train.3.ark:316438
medr0_si2004 quick_test/mfcc/raw_mfcc_train.2.ark:3153067
ftmg0_sx452 quick_test/mfcc/raw_mfcc_train.2.ark:559670
mrav0_sx18 quick_test/mfcc/raw_mfcc_train.4.ark:332420
fjkl0_si2192 quick_test/mfcc/raw_mfcc_train.1.ark:1687525
fskp0_si468 quick_test/mfcc/raw_mfcc_train.2.ark:155048
mcpm0_sx294 quick_test/mfcc/raw_mfcc_train.2.ark:1796062
mmpm0_sx341 quick_test/mfcc/raw_mfcc_train.3.ark:3195107
mbef0_si1911 quick_test/mfcc/raw_mfcc_train.2.ark:1134776
mrds0_sx447 quick_test/mfcc/raw_mfcc_train.4.ark:531314
mcdr0_si1154 quick_test/mfcc/raw_mfcc_train.2.ark:1569451
fkde0_si1771 quick_test/mfcc/raw_mfcc_train.1.ark:2059277
flag0_si834 quick_test/mfcc/raw_mfcc_train.1.ark:2364753
