mgrl0_sx147 quick_test/mfcc/raw_mfcc_train.3.ark:138793
fcke0_si1741 quick_test/mfcc/raw_mfcc_train.1.ark:594650
mkam0_si1250 quick_test/mfcc/raw_mfcc_train.3.ark:1944576
fmkf0_si1018 quick_test/mfcc/raw_mfcc_train.1.ark:3019444
fljg0_sx351 quick_test/mfcc/raw_mfcc_train.1.ark:2577292
flmc0_sx292 quick_test/mfcc/raw_mfcc_train.1.ark:2675962
flhd0_si1974 quick_test/mfcc/raw_mfcc_train.1.ark:2461945
fmmh0_si1537 quick_test/mfcc/raw_mfcc_train.1.ark:3053468
mrpc1_sx132 quick_test/mfcc/raw_mfcc_train.4.ark:1380040
mdem0_sx428 quick_test/mfcc/raw_mfcc_train.2.ark:2277395
mrlj0_si2050 quick_test/mfcc/raw_mfcc_train.4.ark:1090531
mmws1_sx441 quick_test/mfcc/raw_mfcc_train.3.ark:3407485
mwgr0_sx166 quick_test/mfcc/raw_mfcc_train.4.ark:3625812
fcaj0_sx219 quick_test/mfcc/raw_mfcc_train.1.ark:452881
mdma0_si2060 quick_test/mfcc/raw_mfcc_train.2.ark:2685309
fjrb0_sx222 quick_test/mfcc/raw_mfcc_train.1.ark:1794812
mclm0_si2086 quick_test/mfcc/raw_mfcc_train.2.ark:1747728
mwac0_sx161 quick_test/mfcc/raw_mfcc_train.4.ark:3438968
fmbg0_sx350 quick_test/mfcc/raw_mfcc_train.1.ark:2835617
mcpm0_si1194 quick_test/mfcc/raw_mfcc_train.2.ark:1771866
mkag0_sx439 quick_test/mfcc/raw_mfcc_train.3.ark:1875314
mwrp0_si2073 quick_test/mfcc/raw_mfcc_train.4.ark:3687268
freh0_sx235 quick_test/mfcc/raw_mfcc_train.1.ark:3480603
mejl0_sx152 quick_test/mfcc/raw_mfcc_train.2.ark:3258899
mhit0_sx83 quick_test/mfcc/raw_mfcc_train.3.ark:357673
mmsm0_sx296 quick_test/mfcc/raw_mfcc_train.3.ark:3268065
fdxw0_si881 quick_test/mfcc/raw_mfcc_train.1.ark:1097305
fcrz0_si1913 quick_test/mfcc/raw_mfcc_train.1.ark:719541
mtkd0_sx107 quick_test/mfcc/raw_mfcc_train.4.ark:2789907
fbmh0_sx416 quick_test/mfcc/raw_mfcc_train.1.ark:367197
fbcg1_sx262 quick_test/mfcc/raw_mfcc_train.1.ark:221576
fdkn0_si1081 quick_test/mfcc/raw_mfcc_train.1.ark:910829
mfrm0_sx255 quick_test/mfcc/raw_mfcc_train.2.ark:3475533
mtat0_si1110 quick_test/mfcc/raw_mfcc_train.4.ark:2402950
mljh0_si1324 quick_test/mfcc/raw_mfcc_train.3.ark:2464398
mdks0_si1066 quick_test/mfcc/raw_mfcc_train.2.ark:2380293
mcxm0_si1351 quick_test/mfcc/raw_mfcc_train.2.ark:1930412
mrkm0_sx367 quick_test/mfcc/raw_mfcc_train.4.ark:1044960
mdem0_si1868 quick_test/mfcc/raw_mfcc_train.2.ark:2248051
mcdc0_sx32 quick_test/mfcc/raw_mfcc_train.2.ark:1532823
mejs0_sx340 quick_test/mfcc/raw_mfcc_train.2.ark:3299179
mvjh0_sx386 quick_test/mfcc/raw_mfcc_train.4.ark:3362371
mram0_sx15 quick_test/mfcc/raw_mfcc_train.4.ark:301981
mapv0_sx303 quick_test/mfcc/raw_mfcc_train.2.ark:967971
mkaj0_si2044 quick_test/mfcc/raw_mfcc_train.3.ark:1919801
fpad0_sx176 quick_test/mfcc/raw_mfcc_train.1.ark:3276454
mjws0_sx333 quick_test/mfcc/raw_mfcc_train.3.ark:1734940
fcaj0_sx399 quick_test/mfcc/raw_mfcc_train.1.ark:464887
flod0_si1917 quick_test/mfcc/raw_mfcc_train.1.ark:2726516
fmju0_si1389 quick_test/mfcc/raw_mfcc_train.1.ark:2952366
mfxv0_si1635 quick_test/mfcc/raw_mfcc_train.2.ark:3564144
mmaa0_sx125 quick_test/mfcc/raw_mfcc_train.3.ark:2585764
fcmm0_sx183 quick_test/mfcc/raw_mfcc_train.1.ark:701033
mfxs0_sx414 quick_test/mfcc/raw_mfcc_train.2.ark:3544224
mcal0_sx328 quick_test/mfcc/raw_mfcc_train.2.ark:1495281
mjrk0_si1662 quick_test/mfcc/raw_mfcc_train.3.ark:1577312
mpgr1_si2129 quick_test/mfcc/raw_mfcc_train.3.ark:3665056
makr0_sx272 quick_test/mfcc/raw_mfcc_train.2.ark:930480
fsgf0_sx207 quick_test/mfcc/raw_mfcc_train.1.ark:3811816
fsah0_sx164 quick_test/mfcc/raw_mfcc_train.1.ark:3607288
marw0_sx16 quick_test/mfcc/raw_mfcc_train.2.ark:1017971
mhmg0_sx195 quick_test/mfcc/raw_mfcc_train.3.ark:407213
mmdb0_si1617 quick_test/mfcc/raw_mfcc_train.3.ark:2817615
flma0_sx343 quick_test/mfcc/raw_mfcc_train.1.ark:2646201
mjdm0_sx350 quick_test/mfcc/raw_mfcc_train.3.ark:830076
mmdg0_si520 quick_test/mfcc/raw_mfcc_train.3.ark:2850556
flag0_sx384 quick_test/mfcc/raw_mfcc_train.1.ark:2388044
mkaj0_si784 quick_test/mfcc/raw_mfcc_train.3.ark:1925034
msem1_sx270 quick_test/mfcc/raw_mfcc_train.4.ark:1948067
fbas0_si2066 quick_test/mfcc/raw_mfcc_train.1.ark:182895
mprb0_sx305 quick_test/mfcc/raw_mfcc_train.4.ark:41624
falk0_sx6 quick_test/mfcc/raw_mfcc_train.1.ark:94090
flod0_sx387 quick_test/mfcc/raw_mfcc_train.1.ark:2747527
mrem0_si1591 quick_test/mfcc/raw_mfcc_train.4.ark:607506
mdhs0_sx180 quick_test/mfcc/raw_mfcc_train.2.ark:2332166
fkkh0_sx210 quick_test/mfcc/raw_mfcc_train.1.ark:2180266
meal0_sx107 quick_test/mfcc/raw_mfcc_train.2.ark:3133367
msah1_sx239 quick_test/mfcc/raw_mfcc_train.4.ark:1719840
mtkd0_si630 quick_test/mfcc/raw_mfcc_train.4.ark:2783426
mdtb0_sx300 quick_test/mfcc/raw_mfcc_train.2.ark:3012941
mrwa0_sx73 quick_test/mfcc/raw_mfcc_train.4.ark:1642364
flet0_sx147 quick_test/mfcc/raw_mfcc_train.1.ark:2439625
mgxp0_sx7 quick_test/mfcc/raw_mfcc_train.3.ark:291864
mmab1_sx54 quick_test/mfcc/raw_mfcc_train.3.ark:2634520
mrws0_sx292 quick_test/mfcc/raw_mfcc_train.4.ark:1665866
mefg0_si598 quick_test/mfcc/raw_mfcc_train.2.ark:3188190
fhxs0_sx355 quick_test/mfcc/raw_mfcc_train.1.ark:1570322
mbth0_sx302 quick_test/mfcc/raw_mfcc_train.2.ark:1391138
mdcd0_si2045 quick_test/mfcc/raw_mfcc_train.2.ark:2094048
maeo0_sx426 quick_test/mfcc/raw_mfcc_train.2.ark:809065
msah1_sx59 quick_test/mfcc/raw_mfcc_train.4.ark:1731430
fetb0_sx428 quick_test/mfcc/raw_mfcc_train.1.ark:1318350
fbch0_si1586 quick_test/mfcc/raw_mfcc_train.1.ark:239050
fsah0_sx327 quick_test/mfcc/raw_mfcc_train.1.ark:3611208
fjsk0_sx62 quick_test/mfcc/raw_mfcc_train.1.ark:1884517
mjac0_sx307 quick_test/mfcc/raw_mfcc_train.3.ark:561902
mcdc0_si1922 quick_test/mfcc/raw_mfcc_train.2.ark:1513731
mmag0_sx316 quick_test/mfcc/raw_mfcc_train.3.ark:2663346
mcss0_sx390 quick_test/mfcc/raw_mfcc_train.2.ark:1863067
mrjm1_sx308 quick_test/mfcc/raw_mfcc_train.4.ark:970941
fsdc0_si1312 quick_test/mfcc/raw_mfcc_train.1.ark:3733997
mdwd0_sx450 quick_test/mfcc/raw_mfcc_train.2.ark:3046338
mjjb0_sx149 quick_test/mfcc/raw_mfcc_train.3.ark:1048185
milb0_sx363 quick_test/mfcc/raw_mfcc_train.3.ark:537744
fscn0_si705 quick_test/mfcc/raw_mfcc_train.1.ark:3703041
mdrd0_sx122 quick_test/mfcc/raw_mfcc_train.2.ark:2885338
mcpm0_sx204 quick_test/mfcc/raw_mfcc_train.2.ark:1789874
mtcs0_sx82 quick_test/mfcc/raw_mfcc_train.4.ark:2532559
fsma0_si2251 quick_test/mfcc/raw_mfcc_train.2.ark:211121
fjsk0_sx152 quick_test/mfcc/raw_mfcc_train.1.ark:1867200
mmrp0_sx234 quick_test/mfcc/raw_mfcc_train.3.ark:3221273
fear0_sx442 quick_test/mfcc/raw_mfcc_train.1.ark:1179139
mtlb0_sx414 quick_test/mfcc/raw_mfcc_train.4.ark:2868679
mgaw0_sx175 quick_test/mfcc/raw_mfcc_train.3.ark:46165
majp0_sx354 quick_test/mfcc/raw_mfcc_train.2.ark:866815
fdmy0_sx387 quick_test/mfcc/raw_mfcc_train.1.ark:1014759
fjen0_si2307 quick_test/mfcc/raw_mfcc_train.1.ark:1624367
fgmb0_sx335 quick_test/mfcc/raw_mfcc_train.1.ark:1456450
msmr0_sx325 quick_test/mfcc/raw_mfcc_train.4.ark:2158769
fvmh0_si1466 quick_test/mfcc/raw_mfcc_train.2.ark:629895
milb0_si2163 quick_test/mfcc/raw_mfcc_train.3.ark:514590
fkfb0_sx348 quick_test/mfcc/raw_mfcc_train.1.ark:2142685
mrfl0_sx256 quick_test/mfcc/raw_mfcc_train.4.ark:719012
mvjh0_sx26 quick_test/mfcc/raw_mfcc_train.4.ark:3356364
mrvg0_sx60 quick_test/mfcc/raw_mfcc_train.4.ark:1610496
mgxp0_si457 quick_test/mfcc/raw_mfcc_train.3.ark:270316
fpab1_si2101 quick_test/mfcc/raw_mfcc_train.1.ark:3194387
mrre0_sx434 quick_test/mfcc/raw_mfcc_train.4.ark:1427931
msrg0_si591 quick_test/mfcc/raw_mfcc_train.4.ark:2208548
fcmm0_si453 quick_test/mfcc/raw_mfcc_train.1.ark:697841
mmab1_sx414 quick_test/mfcc/raw_mfcc_train.3.ark:2630471
fpls0_sx3 quick_test/mfcc/raw_mfcc_train.1.ark:3416393
mtlc0_sx217 quick_test/mfcc/raw_mfcc_train.4.ark:2894592
mkaj0_sx334 quick_test/mfcc/raw_mfcc_train.3.ark:1935689
mmab1_si1494 quick_test/mfcc/raw_mfcc_train.3.ark:2604883
mkah0_sx448 quick_test/mfcc/raw_mfcc_train.3.ark:1908599
fksr0_si487 quick_test/mfcc/raw_mfcc_train.1.ark:2300705
fklc0_sx355 quick_test/mfcc/raw_mfcc_train.1.ark:2217016
mcef0_si842 quick_test/mfcc/raw_mfcc_train.2.ark:1613177
mvrw0_si2115 quick_test/mfcc/raw_mfcc_train.4.ark:3403628
mgaw0_si535 quick_test/mfcc/raw_mfcc_train.3.ark:43298
mfxv0_sx15 quick_test/mfcc/raw_mfcc_train.2.ark:3569994
mmlm0_sx267 quick_test/mfcc/raw_mfcc_train.3.ark:3159916
mbjv0_si617 quick_test/mfcc/raw_mfcc_train.2.ark:1198415
falk0_si1086 quick_test/mfcc/raw_mfcc_train.1.ark:68375
mdlh0_si574 quick_test/mfcc/raw_mfcc_train.2.ark:2551381
fdnc0_sx378 quick_test/mfcc/raw_mfcc_train.1.ark:1052699
mkam0_sx326 quick_test/mfcc/raw_mfcc_train.3.ark:1967727
fpaz0_si1593 quick_test/mfcc/raw_mfcc_train.1.ark:3331173
mlel0_sx166 quick_test/mfcc/raw_mfcc_train.3.ark:2408822
faem0_si762 quick_test/mfcc/raw_mfcc_train.1.ark:9349
fpls0_sx60 quick_test/mfcc/raw_mfcc_train.1.ark:3422425
feac0_sx435 quick_test/mfcc/raw_mfcc_train.1.ark:1145945
mabc0_si781 quick_test/mfcc/raw_mfcc_train.2.ark:665964
mklr0_si1689 quick_test/mfcc/raw_mfcc_train.3.ark:2178566
mdtb0_si1830 quick_test/mfcc/raw_mfcc_train.2.ark:2998561
fpab1_sx31 quick_test/mfcc/raw_mfcc_train.1.ark:3221136
mrlk0_si2140 quick_test/mfcc/raw_mfcc_train.4.ark:1150251
mtdp0_sx441 quick_test/mfcc/raw_mfcc_train.4.ark:2598903
mrgm0_sx442 quick_test/mfcc/raw_mfcc_train.4.ark:764037
fmah1_sx249 quick_test/mfcc/raw_mfcc_train.1.ark:2801910
mtbc0_si1173 quick_test/mfcc/raw_mfcc_train.4.ark:2472198
mkam0_si1465 quick_test/mfcc/raw_mfcc_train.3.ark:1954290
mfxs0_si1674 quick_test/mfcc/raw_mfcc_train.2.ark:3521768
msdb0_sx17 quick_test/mfcc/raw_mfcc_train.4.ark:1840293
mpfu0_si1888 quick_test/mfcc/raw_mfcc_train.3.ark:3571720
mrgs0_si1356 quick_test/mfcc/raw_mfcc_train.4.ark:774828
mjws0_sx63 quick_test/mfcc/raw_mfcc_train.3.ark:1745808
mlel0_si1246 quick_test/mfcc/raw_mfcc_train.3.ark:2395046
fnkl0_sx442 quick_test/mfcc/raw_mfcc_train.1.ark:3150902
mtwh1_si882 quick_test/mfcc/raw_mfcc_train.4.ark:3275616
mjfr0_sx435 quick_test/mfcc/raw_mfcc_train.3.ark:994545
mcre0_si1751 quick_test/mfcc/raw_mfcc_train.2.ark:1808690
mdhs0_si1530 quick_test/mfcc/raw_mfcc_train.2.ark:2319742
mtlc0_si847 quick_test/mfcc/raw_mfcc_train.4.ark:2888845
mfxv0_si1342 quick_test/mfcc/raw_mfcc_train.2.ark:3558377
mrcg0_sx348 quick_test/mfcc/raw_mfcc_train.4.ark:400649
fdjh0_sx305 quick_test/mfcc/raw_mfcc_train.1.ark:900018
mtpp0_si1508 quick_test/mfcc/raw_mfcc_train.4.ark:3067949
mdbb1_si1006 quick_test/mfcc/raw_mfcc_train.2.ark:2025584
fcrz0_sx73 quick_test/mfcc/raw_mfcc_train.1.ark:746513
fklc1_sx238 quick_test/mfcc/raw_mfcc_train.1.ark:2242911
mjsr0_sx434 quick_test/mfcc/raw_mfcc_train.3.ark:1667650
mprd0_sx81 quick_test/mfcc/raw_mfcc_train.4.ark:87025
ftbw0_sx85 quick_test/mfcc/raw_mfcc_train.2.ark:498671
mpgh0_si675 quick_test/mfcc/raw_mfcc_train.3.ark:3604211
fmjf0_si1884 quick_test/mfcc/raw_mfcc_train.1.ark:2920935
mgag0_sx241 quick_test/mfcc/raw_mfcc_train.2.ark:3629076
fgrw0_si1782 quick_test/mfcc/raw_mfcc_train.1.ark:1476954
fleh0_si1681 quick_test/mfcc/raw_mfcc_train.1.ark:2397992
mmjb1_sx148 quick_test/mfcc/raw_mfcc_train.3.ark:3124869
fhlm0_sx120 quick_test/mfcc/raw_mfcc_train.1.ark:1517755
fjsp0_sx354 quick_test/mfcc/raw_mfcc_train.1.ark:1908013
mmgk0_sx242 quick_test/mfcc/raw_mfcc_train.3.ark:3099495
fkfb0_sx258 quick_test/mfcc/raw_mfcc_train.1.ark:2138115
fdas1_sx381 quick_test/mfcc/raw_mfcc_train.1.ark:814396
medr0_sx24 quick_test/mfcc/raw_mfcc_train.2.ark:3170007
mbef0_si1281 quick_test/mfcc/raw_mfcc_train.2.ark:1130413
makr0_sx362 quick_test/mfcc/raw_mfcc_train.2.ark:932723
mfrm0_si1717 quick_test/mfcc/raw_mfcc_train.2.ark:3464565
fcke0_sx31 quick_test/mfcc/raw_mfcc_train.1.ark:617330
fjxp0_si1752 quick_test/mfcc/raw_mfcc_train.1.ark:1991121
fskp0_si468 quick_test/mfcc/raw_mfcc_train.2.ark:155048
flac0_si1339 quick_test/mfcc/raw_mfcc_train.1.ark:2324979
mcdr0_sx164 quick_test/mfcc/raw_mfcc_train.2.ark:1587491
fceg0_sx348 quick_test/mfcc/raw_mfcc_train.1.ark:525672
fjrb0_sx42 quick_test/mfcc/raw_mfcc_train.1.ark:1810211
mlsh0_si787 quick_test/mfcc/raw_mfcc_train.3.ark:2545478
mcae0_sx187 quick_test/mfcc/raw_mfcc_train.2.ark:1456784
mrew1_si2130 quick_test/mfcc/raw_mfcc_train.4.ark:643242
mtjg0_si1520 quick_test/mfcc/raw_mfcc_train.4.ark:2641886
mdwm0_si916 quick_test/mfcc/raw_mfcc_train.2.ark:3099230
msms0_si803 quick_test/mfcc/raw_mfcc_train.4.ark:2177941
mtbc0_sx183 quick_test/mfcc/raw_mfcc_train.4.ark:2484440
mwdk0_si806 quick_test/mfcc/raw_mfcc_train.4.ark:3556244
ftbr0_sx21 quick_test/mfcc/raw_mfcc_train.2.ark:460315
mrai0_sx162 quick_test/mfcc/raw_mfcc_train.4.ark:264581
fklc1_si2308 quick_test/mfcc/raw_mfcc_train.1.ark:2236696
mesg0_sx72 quick_test/mfcc/raw_mfcc_train.2.ark:3339120
mreh1_si2229 quick_test/mfcc/raw_mfcc_train.4.ark:576634
mdwm0_sx376 quick_test/mfcc/raw_mfcc_train.2.ark:3116235
fbjl0_sx112 quick_test/mfcc/raw_mfcc_train.1.ark:288190
fdkn0_si1202 quick_test/mfcc/raw_mfcc_train.1.ark:914854
fjxm0_si581 quick_test/mfcc/raw_mfcc_train.1.ark:1957336
mtjg0_sx80 quick_test/mfcc/raw_mfcc_train.4.ark:2671185
mjxl0_sx92 quick_test/mfcc/raw_mfcc_train.3.ark:1845715
fdkn0_sx451 quick_test/mfcc/raw_mfcc_train.1.ark:937653
mrlk0_si1468 quick_test/mfcc/raw_mfcc_train.4.ark:1144146
fjwb1_sx435 quick_test/mfcc/raw_mfcc_train.1.ark:1943111
mmam0_si2227 quick_test/mfcc/raw_mfcc_train.3.ark:2683962
mjdm0_si974 quick_test/mfcc/raw_mfcc_train.3.ark:817302
mcef0_sx145 quick_test/mfcc/raw_mfcc_train.2.ark:1618722
mjkr0_sx121 quick_test/mfcc/raw_mfcc_train.3.ark:1153318
mtat1_sx329 quick_test/mfcc/raw_mfcc_train.4.ark:2458254
mjls0_sx16 quick_test/mfcc/raw_mfcc_train.3.ark:1250632
mges0_sx401 quick_test/mfcc/raw_mfcc_train.3.ark:83176
mjrg0_sx286 quick_test/mfcc/raw_mfcc_train.3.ark:1498395
mejs0_sx160 quick_test/mfcc/raw_mfcc_train.2.ark:3290273
mcef0_sx325 quick_test/mfcc/raw_mfcc_train.2.ark:1625730
mrdm0_si965 quick_test/mfcc/raw_mfcc_train.4.ark:485599
flet0_si507 quick_test/mfcc/raw_mfcc_train.1.ark:2433482
ftbr0_si921 quick_test/mfcc/raw_mfcc_train.2.ark:447425
mctm0_sx360 quick_test/mfcc/raw_mfcc_train.2.ark:1919523
mjeb0_sx26 quick_test/mfcc/raw_mfcc_train.3.ark:865973
mkdt0_sx353 quick_test/mfcc/raw_mfcc_train.3.ark:2065370
mjeb1_sx27 quick_test/mfcc/raw_mfcc_train.3.ark:899531
mtat1_si1409 quick_test/mfcc/raw_mfcc_train.4.ark:2435000
mrmb0_sx141 quick_test/mfcc/raw_mfcc_train.4.ark:1219071
mdwd0_si1260 quick_test/mfcc/raw_mfcc_train.2.ark:3023519
mrpc1_si1482 quick_test/mfcc/raw_mfcc_train.4.ark:1370436
fsls0_si1056 quick_test/mfcc/raw_mfcc_train.2.ark:176111
flmc0_sx336 quick_test/mfcc/raw_mfcc_train.1.ark:2680493
mcew0_sx92 quick_test/mfcc/raw_mfcc_train.2.ark:1672678
mjac0_sx251 quick_test/mfcc/raw_mfcc_train.3.ark:556305
fbmh0_sx56 quick_test/mfcc/raw_mfcc_train.1.ark:370570
mreh1_sx159 quick_test/mfcc/raw_mfcc_train.4.ark:586190
fsls0_sx66 quick_test/mfcc/raw_mfcc_train.2.ark:205294
mjwt0_sx31 quick_test/mfcc/raw_mfcc_train.3.ark:1779086
mrem0_sx151 quick_test/mfcc/raw_mfcc_train.4.ark:620475
mwrp0_si1443 quick_test/mfcc/raw_mfcc_train.4.ark:3678282
mrre0_sx254 quick_test/mfcc/raw_mfcc_train.4.ark:1421053
mrjh0_sx169 quick_test/mfcc/raw_mfcc_train.4.ark:894060
mrfk0_sx86 quick_test/mfcc/raw_mfcc_train.4.ark:695848
fljd0_sx256 quick_test/mfcc/raw_mfcc_train.1.ark:2539190
mrtc0_sx198 quick_test/mfcc/raw_mfcc_train.4.ark:1532615
fjrb0_sx312 quick_test/mfcc/raw_mfcc_train.1.ark:1798888
mmea0_sx38 quick_test/mfcc/raw_mfcc_train.3.ark:2988702
mgsh0_sx96 quick_test/mfcc/raw_mfcc_train.3.ark:223887
fljg0_sx171 quick_test/mfcc/raw_mfcc_train.1.ark:2567632
fsak0_sx310 quick_test/mfcc/raw_mfcc_train.1.ark:3647464
mljc0_si595 quick_test/mfcc/raw_mfcc_train.3.ark:2441866
mdwh0_sx215 quick_test/mfcc/raw_mfcc_train.2.ark:3073213
mtrt0_si1227 quick_test/mfcc/raw_mfcc_train.4.ark:3238091
mcdc0_si662 quick_test/mfcc/raw_mfcc_train.2.ark:1516949
mdcm0_sx220 quick_test/mfcc/raw_mfcc_train.2.ark:2138911
flet0_sx57 quick_test/mfcc/raw_mfcc_train.1.ark:2452392
mjjb0_si1769 quick_test/mfcc/raw_mfcc_train.3.ark:1044759
mcal0_sx238 quick_test/mfcc/raw_mfcc_train.2.ark:1491946
msdb0_si1007 quick_test/mfcc/raw_mfcc_train.4.ark:1827095
mtjm0_si655 quick_test/mfcc/raw_mfcc_train.4.ark:2683610
mses0_si2219 quick_test/mfcc/raw_mfcc_train.4.ark:1972018
mjrh1_sx64 quick_test/mfcc/raw_mfcc_train.3.ark:1573963
mhmr0_sx399 quick_test/mfcc/raw_mfcc_train.3.ark:447220
msmc0_si1907 quick_test/mfcc/raw_mfcc_train.4.ark:2104038
fgcs0_sx406 quick_test/mfcc/raw_mfcc_train.1.ark:1387508
mrjm0_sx58 quick_test/mfcc/raw_mfcc_train.4.ark:945664
mrlj0_sx250 quick_test/mfcc/raw_mfcc_train.4.ark:1102954
milb0_sx273 quick_test/mfcc/raw_mfcc_train.3.ark:532194
mcdd0_sx253 quick_test/mfcc/raw_mfcc_train.2.ark:1554876
mmag0_sx136 quick_test/mfcc/raw_mfcc_train.3.ark:2653621
mkdb0_si872 quick_test/mfcc/raw_mfcc_train.3.ark:1986625
mkls0_si2067 quick_test/mfcc/raw_mfcc_train.3.ark:2211665
mgrl0_si1497 quick_test/mfcc/raw_mfcc_train.3.ark:126759
medr0_si744 quick_test/mfcc/raw_mfcc_train.2.ark:3158534
mfwk0_si619 quick_test/mfcc/raw_mfcc_train.2.ark:3496987
mafm0_sx219 quick_test/mfcc/raw_mfcc_train.2.ark:829440
fetb0_sx248 quick_test/mfcc/raw_mfcc_train.1.ark:1310549
ftbr0_sx291 quick_test/mfcc/raw_mfcc_train.2.ark:463260
fcmm0_si1957 quick_test/mfcc/raw_mfcc_train.1.ark:691984
mntw0_sx78 quick_test/mfcc/raw_mfcc_train.3.ark:3504497
makb0_sx296 quick_test/mfcc/raw_mfcc_train.2.ark:911560
mdlr0_sx423 quick_test/mfcc/raw_mfcc_train.2.ark:2635146
mrxb0_sx415 quick_test/mfcc/raw_mfcc_train.4.ark:1699321
fsmm0_sx414 quick_test/mfcc/raw_mfcc_train.2.ark:269102
mpeb0_sx420 quick_test/mfcc/raw_mfcc_train.3.ark:3556280
flet0_sx417 quick_test/mfcc/raw_mfcc_train.1.ark:2448382
ftbw0_sx175 quick_test/mfcc/raw_mfcc_train.2.ark:482589
fjxp0_si492 quick_test/mfcc/raw_mfcc_train.1.ark:1996692
frll0_sx254 quick_test/mfcc/raw_mfcc_train.1.ark:3541115
fbas0_sx37 quick_test/mfcc/raw_mfcc_train.1.ark:199029
marw0_sx106 quick_test/mfcc/raw_mfcc_train.2.ark:1014039
mrab0_sx54 quick_test/mfcc/raw_mfcc_train.4.ark:212845
mfer0_sx232 quick_test/mfcc/raw_mfcc_train.2.ark:3411172
mdlc1_si2065 quick_test/mfcc/raw_mfcc_train.2.ark:2492871
mtxs0_sx160 quick_test/mfcc/raw_mfcc_train.4.ark:3311405
mmws0_sx438 quick_test/mfcc/raw_mfcc_train.3.ark:3379075
mhxl0_sx152 quick_test/mfcc/raw_mfcc_train.3.ark:492234
mtxs0_sx430 quick_test/mfcc/raw_mfcc_train.4.ark:3325479
fpaz0_sx153 quick_test/mfcc/raw_mfcc_train.1.ark:3345326
mdbp0_si1788 quick_test/mfcc/raw_mfcc_train.2.ark:2058046
megj0_sx77 quick_test/mfcc/raw_mfcc_train.2.ark:3244634
mtkp0_si454 quick_test/mfcc/raw_mfcc_train.4.ark:2820988
mrab1_si2108 quick_test/mfcc/raw_mfcc_train.4.ark:221038
flhd0_sx264 quick_test/mfcc/raw_mfcc_train.1.ark:2471072
fskl0_si2159 quick_test/mfcc/raw_mfcc_train.2.ark:117362
mrml0_sx431 quick_test/mfcc/raw_mfcc_train.4.ark:1331962
mppc0_sx242 quick_test/mfcc/raw_mfcc_train.4.ark:12
mafm0_sx399 quick_test/mfcc/raw_mfcc_train.2.ark:840523
mddc0_sx339 quick_test/mfcc/raw_mfcc_train.2.ark:2173659
mfwk0_si1249 quick_test/mfcc/raw_mfcc_train.2.ark:3490394
fpls0_si2220 quick_test/mfcc/raw_mfcc_train.1.ark:3399688
mtpr0_sx160 quick_test/mfcc/raw_mfcc_train.4.ark:3111630
fcyl0_sx397 quick_test/mfcc/raw_mfcc_train.1.ark:779681
fbch0_sx56 quick_test/mfcc/raw_mfcc_train.1.ark:270792
mges0_si1481 quick_test/mfcc/raw_mfcc_train.3.ark:63217
mtjs0_sx112 quick_test/mfcc/raw_mfcc_train.4.ark:2723181
maeo0_si1655 quick_test/mfcc/raw_mfcc_train.2.ark:790621
fsms1_si874 quick_test/mfcc/raw_mfcc_train.2.ark:286057
mwar0_sx325 quick_test/mfcc/raw_mfcc_train.4.ark:3509545
fcaj0_sx129 quick_test/mfcc/raw_mfcc_train.1.ark:449013
mded0_sx90 quick_test/mfcc/raw_mfcc_train.2.ark:2214822
mjdc0_sx261 quick_test/mfcc/raw_mfcc_train.3.ark:721738
mtml0_sx345 quick_test/mfcc/raw_mfcc_train.4.ark:2927534
mtkp0_sx393 quick_test/mfcc/raw_mfcc_train.4.ark:2840886
mtxs0_si2320 quick_test/mfcc/raw_mfcc_train.4.ark:3305392
fljd0_sx346 quick_test/mfcc/raw_mfcc_train.1.ark:2542655
fssb0_si1082 quick_test/mfcc/raw_mfcc_train.2.ark:377434
mrdm0_sx335 quick_test/mfcc/raw_mfcc_train.4.ark:497125
mcdr0_sx344 quick_test/mfcc/raw_mfcc_train.2.ark:1595370
mjwg0_sx85 quick_test/mfcc/raw_mfcc_train.3.ark:1711145
fjxp0_si1122 quick_test/mfcc/raw_mfcc_train.1.ark:1987460
mklr0_sx159 quick_test/mfcc/raw_mfcc_train.3.ark:2183781
fhlm0_sx300 quick_test/mfcc/raw_mfcc_train.1.ark:1527285
mdlc1_si1435 quick_test/mfcc/raw_mfcc_train.2.ark:2486636
mbjv0_sx257 quick_test/mfcc/raw_mfcc_train.2.ark:1206970
mklr0_si1059 quick_test/mfcc/raw_mfcc_train.3.ark:2173319
msdb0_si1637 quick_test/mfcc/raw_mfcc_train.4.ark:1832134
mrkm0_sx187 quick_test/mfcc/raw_mfcc_train.4.ark:1036938
mjda0_si1031 quick_test/mfcc/raw_mfcc_train.3.ark:675878
mmgk0_sx62 quick_test/mfcc/raw_mfcc_train.3.ark:3109720
mchl0_sx357 quick_test/mfcc/raw_mfcc_train.2.ark:1699022
mjxa0_si877 quick_test/mfcc/raw_mfcc_train.3.ark:1794092
mrgm0_si532 quick_test/mfcc/raw_mfcc_train.4.ark:744496
mdhs0_si2160 quick_test/mfcc/raw_mfcc_train.2.ark:2323195
mtju0_sx220 quick_test/mfcc/raw_mfcc_train.4.ark:2759047
mdlc0_si2025 quick_test/mfcc/raw_mfcc_train.2.ark:2458897
mcpm0_si1824 quick_test/mfcc/raw_mfcc_train.2.ark:1775618
mtrr0_sx108 quick_test/mfcc/raw_mfcc_train.4.ark:3218101
msat1_sx443 quick_test/mfcc/raw_mfcc_train.4.ark:1819606
mmea0_si1388 quick_test/mfcc/raw_mfcc_train.3.ark:2967990
mbom0_sx384 quick_test/mfcc/raw_mfcc_train.2.ark:1341575
fpmy0_sx73 quick_test/mfcc/raw_mfcc_train.1.ark:3459896
fsak0_sx40 quick_test/mfcc/raw_mfcc_train.1.ark:3651851
medr0_sx204 quick_test/mfcc/raw_mfcc_train.2.ark:3166959
mjpm1_sx401 quick_test/mfcc/raw_mfcc_train.3.ark:1439113
ftmg0_si1532 quick_test/mfcc/raw_mfcc_train.2.ark:536435
mmvp0_si654 quick_test/mfcc/raw_mfcc_train.3.ark:3283097
mdas0_si1896 quick_test/mfcc/raw_mfcc_train.2.ark:1999148
fjdm2_si1582 quick_test/mfcc/raw_mfcc_train.1.ark:1581172
fjrp1_sx82 quick_test/mfcc/raw_mfcc_train.1.ark:1850308
fsrh0_si671 quick_test/mfcc/raw_mfcc_train.2.ark:351548
ftbr0_sx111 quick_test/mfcc/raw_mfcc_train.2.ark:452957
mrab0_si1854 quick_test/mfcc/raw_mfcc_train.4.ark:187831
fsag0_si1953 quick_test/mfcc/raw_mfcc_train.1.ark:3559832
mdcm0_si2110 quick_test/mfcc/raw_mfcc_train.2.ark:2127762
mctm0_si720 quick_test/mfcc/raw_mfcc_train.2.ark:1909778
mjdg0_si1672 quick_test/mfcc/raw_mfcc_train.3.ark:780941
mmjb1_si2038 quick_test/mfcc/raw_mfcc_train.3.ark:3116847
mmag0_si496 quick_test/mfcc/raw_mfcc_train.3.ark:2649662
mkln0_sx158 quick_test/mfcc/raw_mfcc_train.3.ark:2154889
mtpg0_sx303 quick_test/mfcc/raw_mfcc_train.4.ark:3058061
mtlc0_sx37 quick_test/mfcc/raw_mfcc_train.4.ark:2899415
fvmh0_sx206 quick_test/mfcc/raw_mfcc_train.2.ark:647591
mzmb0_si536 quick_test/mfcc/raw_mfcc_train.4.ark:3784831
mmdm1_sx333 quick_test/mfcc/raw_mfcc_train.3.ark:2927872
fcmg0_sx162 quick_test/mfcc/raw_mfcc_train.1.ark:667488
mbma0_sx322 quick_test/mfcc/raw_mfcc_train.2.ark:1240782
mbma1_sx144 quick_test/mfcc/raw_mfcc_train.2.ark:1264186
mdpb0_si2126 quick_test/mfcc/raw_mfcc_train.2.ark:2783922
fjwb1_si748 quick_test/mfcc/raw_mfcc_train.1.ark:1923498
mvrw0_sx315 quick_test/mfcc/raw_mfcc_train.4.ark:3415707
fmbg0_sx80 quick_test/mfcc/raw_mfcc_train.1.ark:2845484
mddc0_si2049 quick_test/mfcc/raw_mfcc_train.2.ark:2159825
mclm0_si826 quick_test/mfcc/raw_mfcc_train.2.ark:1751414
fpaz0_sx27 quick_test/mfcc/raw_mfcc_train.1.ark:3354010
mjrk0_sx340 quick_test/mfcc/raw_mfcc_train.3.ark:1596718
mjkr0_sx31 quick_test/mfcc/raw_mfcc_train.3.ark:1166065
majp0_sx444 quick_test/mfcc/raw_mfcc_train.2.ark:870865
mjxl0_si542 quick_test/mfcc/raw_mfcc_train.3.ark:1824712
msfv0_sx452 quick_test/mfcc/raw_mfcc_train.4.ark:2059585
mrjm0_si1095 quick_test/mfcc/raw_mfcc_train.4.ark:917313
mmvp0_sx114 quick_test/mfcc/raw_mfcc_train.3.ark:3291931
mmam0_si1597 quick_test/mfcc/raw_mfcc_train.3.ark:2676029
mmcc0_sx348 quick_test/mfcc/raw_mfcc_train.3.ark:2800153
fapb0_si1693 quick_test/mfcc/raw_mfcc_train.1.ark:137498
mdpk0_sx243 quick_test/mfcc/raw_mfcc_train.2.ark:2825730
mjmm0_si625 quick_test/mfcc/raw_mfcc_train.3.ark:1332626
mhxl0_sx242 quick_test/mfcc/raw_mfcc_train.3.ark:496752
mkes0_si1883 quick_test/mfcc/raw_mfcc_train.3.ark:2082052
mrbc0_sx149 quick_test/mfcc/raw_mfcc_train.4.ark:356872
mkdt0_sx263 quick_test/mfcc/raw_mfcc_train.3.ark:2062191
fsjs0_sx91 quick_test/mfcc/raw_mfcc_train.2.ark:45199
mejl0_si1654 quick_test/mfcc/raw_mfcc_train.2.ark:3252385
mjra0_sx426 quick_test/mfcc/raw_mfcc_train.3.ark:1472593
mdlb0_si1306 quick_test/mfcc/raw_mfcc_train.2.ark:2413306
fljd0_si2146 quick_test/mfcc/raw_mfcc_train.1.ark:2528015
msrg0_si1851 quick_test/mfcc/raw_mfcc_train.4.ark:2206435
mcew0_si812 quick_test/mfcc/raw_mfcc_train.2.ark:1646189
mpmb0_sx421 quick_test/mfcc/raw_mfcc_train.3.ark:3729140
fsdc0_sx322 quick_test/mfcc/raw_mfcc_train.1.ark:3753248
mljh0_sx154 quick_test/mfcc/raw_mfcc_train.3.ark:2483712
mtju0_si760 quick_test/mfcc/raw_mfcc_train.4.ark:2751493
mdhl0_si2069 quick_test/mfcc/raw_mfcc_train.2.ark:2291990
mrai0_sx432 quick_test/mfcc/raw_mfcc_train.4.ark:276614
mdlh0_si700 quick_test/mfcc/raw_mfcc_train.2.ark:2554105
fcdr1_si1186 quick_test/mfcc/raw_mfcc_train.1.ark:468314
mdlr1_sx399 quick_test/mfcc/raw_mfcc_train.2.ark:2674235
mchl0_sx177 quick_test/mfcc/raw_mfcc_train.2.ark:1691858
flmc0_si742 quick_test/mfcc/raw_mfcc_train.1.ark:2665230
falr0_si695 quick_test/mfcc/raw_mfcc_train.1.ark:109381
mrms0_sx210 quick_test/mfcc/raw_mfcc_train.4.ark:1359059
mdsj0_sx438 quick_test/mfcc/raw_mfcc_train.2.ark:2934913
mdcd0_si785 quick_test/mfcc/raw_mfcc_train.2.ark:2097175
mmds0_si1343 quick_test/mfcc/raw_mfcc_train.3.ark:2941972
fecd0_si1418 quick_test/mfcc/raw_mfcc_train.1.ark:1187447
fpaf0_si2314 quick_test/mfcc/raw_mfcc_train.1.ark:3308849
mmam0_sx427 quick_test/mfcc/raw_mfcc_train.3.ark:2697263
mfwk0_si1879 quick_test/mfcc/raw_mfcc_train.2.ark:3493678
mgar0_sx312 quick_test/mfcc/raw_mfcc_train.3.ark:19771
mdlb0_sx136 quick_test/mfcc/raw_mfcc_train.2.ark:2427823
fcdr1_si1816 quick_test/mfcc/raw_mfcc_train.1.ark:475758
mgjc0_sx345 quick_test/mfcc/raw_mfcc_train.3.ark:112126
mvjh0_sx296 quick_test/mfcc/raw_mfcc_train.4.ark:3359192
madc0_sx107 quick_test/mfcc/raw_mfcc_train.2.ark:704105
fcjf0_si1657 quick_test/mfcc/raw_mfcc_train.1.ark:541314
mdhs0_sx270 quick_test/mfcc/raw_mfcc_train.2.ark:2335761
fhxs0_sx175 quick_test/mfcc/raw_mfcc_train.1.ark:1560363
mdbp0_sx348 quick_test/mfcc/raw_mfcc_train.2.ark:2076534
fcjs0_si1607 quick_test/mfcc/raw_mfcc_train.1.ark:562761
mdwh0_sx35 quick_test/mfcc/raw_mfcc_train.2.ark:3083015
mdrd0_si752 quick_test/mfcc/raw_mfcc_train.2.ark:2877973
mjac0_sx431 quick_test/mfcc/raw_mfcc_train.3.ark:568832
mtpf0_si1235 quick_test/mfcc/raw_mfcc_train.4.ark:3008282
mdks0_sx166 quick_test/mfcc/raw_mfcc_train.2.ark:2389702
flja0_si2338 quick_test/mfcc/raw_mfcc_train.1.ark:2496245
fexm0_sx366 quick_test/mfcc/raw_mfcc_train.1.ark:1355015
mpgh0_sx114 quick_test/mfcc/raw_mfcc_train.3.ark:3612909
fpjf0_sx236 quick_test/mfcc/raw_mfcc_train.1.ark:3380984
fpjf0_si1259 quick_test/mfcc/raw_mfcc_train.1.ark:3368638
mhrm0_sx58 quick_test/mfcc/raw_mfcc_train.3.ark:476761
fpad0_sx86 quick_test/mfcc/raw_mfcc_train.1.ark:3294343
mrlj1_sx141 quick_test/mfcc/raw_mfcc_train.4.ark:1127081
mmpm0_si1061 quick_test/mfcc/raw_mfcc_train.3.ark:3174101
mrsp0_sx79 quick_test/mfcc/raw_mfcc_train.4.ark:1506234
fleh0_sx151 quick_test/mfcc/raw_mfcc_train.1.ark:2404156
mrpc1_sx402 quick_test/mfcc/raw_mfcc_train.4.ark:1391904
mdlm0_sx154 quick_test/mfcc/raw_mfcc_train.2.ark:2593741
mtbc0_si543 quick_test/mfcc/raw_mfcc_train.4.ark:2478193
mtpg0_sx393 quick_test/mfcc/raw_mfcc_train.4.ark:3064600
mrtj0_sx322 quick_test/mfcc/raw_mfcc_train.4.ark:1572557
fskc0_sx426 quick_test/mfcc/raw_mfcc_train.2.ark:105978
fdxw0_sx341 quick_test/mfcc/raw_mfcc_train.1.ark:1110729
mdef0_sx123 quick_test/mfcc/raw_mfcc_train.2.ark:2231792
mwrp0_sx93 quick_test/mfcc/raw_mfcc_train.4.ark:3706865
fmkf0_si906 quick_test/mfcc/raw_mfcc_train.1.ark:3029729
mmea0_sx218 quick_test/mfcc/raw_mfcc_train.3.ark:2982228
flkm0_sx260 quick_test/mfcc/raw_mfcc_train.1.ark:2609139
mrhl0_sx165 quick_test/mfcc/raw_mfcc_train.4.ark:822121
fdjh0_sx125 quick_test/mfcc/raw_mfcc_train.1.ark:892997
mtcs0_si2265 quick_test/mfcc/raw_mfcc_train.4.ark:2506310
mpfu0_sx88 quick_test/mfcc/raw_mfcc_train.3.ark:3594472
mprk0_si1727 quick_test/mfcc/raw_mfcc_train.4.ark:98416
mrsp0_si2059 quick_test/mfcc/raw_mfcc_train.4.ark:1482065
mmbs0_si1151 quick_test/mfcc/raw_mfcc_train.3.ark:2744550
mjjb0_si1139 quick_test/mfcc/raw_mfcc_train.3.ark:1036449
mddc0_si789 quick_test/mfcc/raw_mfcc_train.2.ark:2161769
msem1_si2070 quick_test/mfcc/raw_mfcc_train.4.ark:1926752
fnkl0_sx82 quick_test/mfcc/raw_mfcc_train.1.ark:3155133
mfmc0_sx142 quick_test/mfcc/raw_mfcc_train.2.ark:3437755
mtlb0_sx54 quick_test/mfcc/raw_mfcc_train.4.ark:2872520
fmjb0_sx97 quick_test/mfcc/raw_mfcc_train.1.ark:2914575
fblv0_sx428 quick_test/mfcc/raw_mfcc_train.1.ark:334354
mtkd0_sx287 quick_test/mfcc/raw_mfcc_train.4.ark:2800665
mtab0_sx222 quick_test/mfcc/raw_mfcc_train.4.ark:2359354
mewm0_si1978 quick_test/mfcc/raw_mfcc_train.2.ark:3372887
mfmc0_sx52 quick_test/mfcc/raw_mfcc_train.2.ark:3455085
mrmg0_sx180 quick_test/mfcc/raw_mfcc_train.4.ark:1250134
mrso0_sx399 quick_test/mfcc/raw_mfcc_train.4.ark:1471324
mgsl0_sx264 quick_test/mfcc/raw_mfcc_train.3.ark:247011
mkah0_sx88 quick_test/mfcc/raw_mfcc_train.3.ark:1912323
mjfh0_si1107 quick_test/mfcc/raw_mfcc_train.3.ark:942575
mreh1_sx339 quick_test/mfcc/raw_mfcc_train.4.ark:594498
milb0_sx93 quick_test/mfcc/raw_mfcc_train.3.ark:541260
mjdc0_sx171 quick_test/mfcc/raw_mfcc_train.3.ark:717311
mlbc0_si1239 quick_test/mfcc/raw_mfcc_train.3.ark:2363789
mreh1_si969 quick_test/mfcc/raw_mfcc_train.4.ark:579202
mafm0_sx309 quick_test/mfcc/raw_mfcc_train.2.ark:833269
freh0_sx145 quick_test/mfcc/raw_mfcc_train.1.ark:3477593
mdef0_si1563 quick_test/mfcc/raw_mfcc_train.2.ark:2224900
mljc0_sx145 quick_test/mfcc/raw_mfcc_train.3.ark:2445630
mjae0_sx174 quick_test/mfcc/raw_mfcc_train.3.ark:587329
mtqc0_si2071 quick_test/mfcc/raw_mfcc_train.4.ark:3143991
mreh1_si1599 quick_test/mfcc/raw_mfcc_train.4.ark:569931
mjhi0_sx68 quick_test/mfcc/raw_mfcc_train.3.ark:1033139
mjrk0_sx70 quick_test/mfcc/raw_mfcc_train.3.ark:1605623
mpeb0_sx240 quick_test/mfcc/raw_mfcc_train.3.ark:3548739
fpac0_sx211 quick_test/mfcc/raw_mfcc_train.1.ark:3247323
mcxm0_sx181 quick_test/mfcc/raw_mfcc_train.2.ark:1942329
mdac0_sx451 quick_test/mfcc/raw_mfcc_train.2.ark:1987725
flod0_sx297 quick_test/mfcc/raw_mfcc_train.1.ark:2744855
fmkc0_sx352 quick_test/mfcc/raw_mfcc_train.1.ark:3006176
fsjs0_sx271 quick_test/mfcc/raw_mfcc_train.2.ark:32452
mtqc0_si1441 quick_test/mfcc/raw_mfcc_train.4.ark:3133752
mcdd0_sx433 quick_test/mfcc/raw_mfcc_train.2.ark:1561741
fsms1_sx154 quick_test/mfcc/raw_mfcc_train.2.ark:290497
mkag0_sx169 quick_test/mfcc/raw_mfcc_train.3.ark:1864504
mcew0_si2072 quick_test/mfcc/raw_mfcc_train.2.ark:1640618
mbma0_si1852 quick_test/mfcc/raw_mfcc_train.2.ark:1227585
mrai0_si1954 quick_test/mfcc/raw_mfcc_train.4.ark:250116
fsmm0_si1944 quick_test/mfcc/raw_mfcc_train.2.ark:247084
ftaj0_sx429 quick_test/mfcc/raw_mfcc_train.2.ark:431783
mhrm0_sx328 quick_test/mfcc/raw_mfcc_train.3.ark:467583
mhjb0_sx117 quick_test/mfcc/raw_mfcc_train.3.ark:373564
mdtb0_sx321 quick_test/mfcc/raw_mfcc_train.2.ark:3015717
mtqc0_sx181 quick_test/mfcc/raw_mfcc_train.4.ark:3151025
mhrm0_sx238 quick_test/mfcc/raw_mfcc_train.3.ark:464365
mgaf0_si1282 quick_test/mfcc/raw_mfcc_train.2.ark:3583777
mtdp0_sx171 quick_test/mfcc/raw_mfcc_train.4.ark:2582957
fbjl0_sx202 quick_test/mfcc/raw_mfcc_train.1.ark:292266
mstf0_sx406 quick_test/mfcc/raw_mfcc_train.4.ark:2290042
mfrm0_sx75 quick_test/mfcc/raw_mfcc_train.2.ark:3487227
mkag0_si979 quick_test/mfcc/raw_mfcc_train.3.ark:1858270
mjae0_sx264 quick_test/mfcc/raw_mfcc_train.3.ark:592367
mjma0_sx55 quick_test/mfcc/raw_mfcc_train.3.ark:1292193
mdem0_sx248 quick_test/mfcc/raw_mfcc_train.2.ark:2267956
mkln0_sx248 quick_test/mfcc/raw_mfcc_train.3.ark:2157756
mdwd0_sx90 quick_test/mfcc/raw_mfcc_train.2.ark:3050647
mmlm0_sx177 quick_test/mfcc/raw_mfcc_train.3.ark:3157231
mmds0_sx263 quick_test/mfcc/raw_mfcc_train.3.ark:2955586
mdss0_si621 quick_test/mfcc/raw_mfcc_train.2.ark:2946077
mrfk0_sx176 quick_test/mfcc/raw_mfcc_train.4.ark:680949
mtwh1_si1512 quick_test/mfcc/raw_mfcc_train.4.ark:3269088
mdcd0_sx425 quick_test/mfcc/raw_mfcc_train.2.ark:2116404
mrew1_sx420 quick_test/mfcc/raw_mfcc_train.4.ark:661165
mmbs0_sx161 quick_test/mfcc/raw_mfcc_train.3.ark:2756753
mrcw0_si2001 quick_test/mfcc/raw_mfcc_train.4.ark:420893
mgag0_si645 quick_test/mfcc/raw_mfcc_train.2.ark:3617420
mtrc0_sx273 quick_test/mfcc/raw_mfcc_train.4.ark:3197336
mkdt0_sx83 quick_test/mfcc/raw_mfcc_train.3.ark:2074223
mcxm0_sx91 quick_test/mfcc/raw_mfcc_train.2.ark:1958801
mclm0_sx196 quick_test/mfcc/raw_mfcc_train.2.ark:1761808
mkls0_sx267 quick_test/mfcc/raw_mfcc_train.3.ark:2220090
mbcg0_sx417 quick_test/mfcc/raw_mfcc_train.2.ark:1123327
fmju0_sx39 quick_test/mfcc/raw_mfcc_train.1.ark:2978577
mwre0_sx337 quick_test/mfcc/raw_mfcc_train.4.ark:3665248
mmlm0_si2150 quick_test/mfcc/raw_mfcc_train.3.ark:3148507
mwch0_si1622 quick_test/mfcc/raw_mfcc_train.4.ark:3520265
mgaf0_sx382 quick_test/mfcc/raw_mfcc_train.2.ark:3608851
mtrt0_sx237 quick_test/mfcc/raw_mfcc_train.4.ark:3256320
mgjc0_sx165 quick_test/mfcc/raw_mfcc_train.3.ark:103012
mdem0_sx158 quick_test/mfcc/raw_mfcc_train.2.ark:2264361
fjkl0_si932 quick_test/mfcc/raw_mfcc_train.1.ark:1689677
fskp0_sx288 quick_test/mfcc/raw_mfcc_train.2.ark:168504
fceg0_sx168 quick_test/mfcc/raw_mfcc_train.1.ark:519704
mhbs0_sx135 quick_test/mfcc/raw_mfcc_train.3.ark:312583
mcef0_si1135 quick_test/mfcc/raw_mfcc_train.2.ark:1605765
fmbg0_sx3 quick_test/mfcc/raw_mfcc_train.1.ark:2833075
mdlr0_sx333 quick_test/mfcc/raw_mfcc_train.2.ark:2629601
mded0_sx270 quick_test/mfcc/raw_mfcc_train.2.ark:2202478
fjlr0_si1861 quick_test/mfcc/raw_mfcc_train.1.ark:1754395
fpaf0_sx424 quick_test/mfcc/raw_mfcc_train.1.ark:3323580
fceg0_sx438 quick_test/mfcc/raw_mfcc_train.1.ark:529852
fdxw0_sx431 quick_test/mfcc/raw_mfcc_train.1.ark:1114285
mkag0_si2239 quick_test/mfcc/raw_mfcc_train.3.ark:1855000
mmdg0_sx340 quick_test/mfcc/raw_mfcc_train.3.ark:2864838
fbas0_si1472 quick_test/mfcc/raw_mfcc_train.1.ark:177011
mkls1_sx375 quick_test/mfcc/raw_mfcc_train.3.ark:2263938
mjra0_si1236 quick_test/mfcc/raw_mfcc_train.3.ark:1447980
mdlm0_sx424 quick_test/mfcc/raw_mfcc_train.2.ark:2602355
fdml0_sx429 quick_test/mfcc/raw_mfcc_train.1.ark:968352
fbas0_sx307 quick_test/mfcc/raw_mfcc_train.1.ark:196878
mdlr1_si1299 quick_test/mfcc/raw_mfcc_train.2.ark:2643493
fmkf0_sx6 quick_test/mfcc/raw_mfcc_train.1.ark:3045823
mjfh0_sx117 quick_test/mfcc/raw_mfcc_train.3.ark:954570
mkdd0_sx307 quick_test/mfcc/raw_mfcc_train.3.ark:2033776
mmxs0_sx336 quick_test/mfcc/raw_mfcc_train.3.ark:3431675
fsgf0_si2187 quick_test/mfcc/raw_mfcc_train.1.ark:3795922
mjls0_sx286 quick_test/mfcc/raw_mfcc_train.3.ark:1256327
mtpf0_sx245 quick_test/mfcc/raw_mfcc_train.4.ark:3023768
mrfl0_si1786 quick_test/mfcc/raw_mfcc_train.4.ark:705055
mjls0_sx376 quick_test/mfcc/raw_mfcc_train.3.ark:1261508
mdhl0_sx89 quick_test/mfcc/raw_mfcc_train.2.ark:2316146
fdtd0_sx321 quick_test/mfcc/raw_mfcc_train.1.ark:1083053
mrmb0_sx411 quick_test/mfcc/raw_mfcc_train.4.ark:1230402
fmmh0_sx187 quick_test/mfcc/raw_mfcc_train.1.ark:3067504
mdem0_si800 quick_test/mfcc/raw_mfcc_train.2.ark:2257438
mgar0_si1212 quick_test/mfcc/raw_mfcc_train.3.ark:13
fclt0_si2068 quick_test/mfcc/raw_mfcc_train.1.ark:625920
msrr0_sx30 quick_test/mfcc/raw_mfcc_train.4.ark:2253371
mmgc0_sx225 quick_test/mfcc/raw_mfcc_train.3.ark:3041907
mcre0_si1121 quick_test/mfcc/raw_mfcc_train.2.ark:1801615
mrbc0_sx239 quick_test/mfcc/raw_mfcc_train.4.ark:361429
fjen0_sx327 quick_test/mfcc/raw_mfcc_train.1.ark:1636894
mtjs0_sx202 quick_test/mfcc/raw_mfcc_train.4.ark:2727647
mwch0_sx362 quick_test/mfcc/raw_mfcc_train.4.ark:3535707
mdef0_si1123 quick_test/mfcc/raw_mfcc_train.2.ark:2218366
mtcs0_si712 quick_test/mfcc/raw_mfcc_train.4.ark:2508462
mhxl0_sx62 quick_test/mfcc/raw_mfcc_train.3.ark:510682
mhxl0_sx332 quick_test/mfcc/raw_mfcc_train.3.ark:500828
mprd0_sx261 quick_test/mfcc/raw_mfcc_train.4.ark:74928
fvfb0_sx132 quick_test/mfcc/raw_mfcc_train.2.ark:579246
mhbs0_si1575 quick_test/mfcc/raw_mfcc_train.3.ark:299444
fkde0_sx241 quick_test/mfcc/raw_mfcc_train.1.ark:2072247
fjxp0_sx132 quick_test/mfcc/raw_mfcc_train.1.ark:1999130
mtjg0_sx350 quick_test/mfcc/raw_mfcc_train.4.ark:2660993
mrab0_sx324 quick_test/mfcc/raw_mfcc_train.4.ark:203433
fsmm0_si1314 quick_test/mfcc/raw_mfcc_train.2.ark:243449
fkkh0_sx120 quick_test/mfcc/raw_mfcc_train.1.ark:2175787
mdps0_sx89 quick_test/mfcc/raw_mfcc_train.2.ark:2867641
mjai0_sx434 quick_test/mfcc/raw_mfcc_train.3.ark:636663
fnkl0_sx262 quick_test/mfcc/raw_mfcc_train.1.ark:3147385
mdwm0_sx433 quick_test/mfcc/raw_mfcc_train.2.ark:3119921
mses0_sx329 quick_test/mfcc/raw_mfcc_train.4.ark:1983323
mkxl0_sx285 quick_test/mfcc/raw_mfcc_train.3.ark:2356637
mdns0_sx291 quick_test/mfcc/raw_mfcc_train.2.ark:2771601
mkdt0_si893 quick_test/mfcc/raw_mfcc_train.3.ark:2053181
mcth0_si1839 quick_test/mfcc/raw_mfcc_train.2.ark:1871754
frjb0_sx437 quick_test/mfcc/raw_mfcc_train.1.ark:3513747
mjpg0_si1821 quick_test/mfcc/raw_mfcc_train.3.ark:1357454
mjrh0_sx135 quick_test/mfcc/raw_mfcc_train.3.ark:1526715
mrmb0_sx51 quick_test/mfcc/raw_mfcc_train.4.ark:1234269
mbml0_sx179 quick_test/mfcc/raw_mfcc_train.2.ark:1296925
fdaw0_sx326 quick_test/mfcc/raw_mfcc_train.1.ark:840727
mdjm0_sx285 quick_test/mfcc/raw_mfcc_train.2.ark:2372998
mgaf0_sx22 quick_test/mfcc/raw_mfcc_train.2.ark:3602285
mhbs0_sx225 quick_test/mfcc/raw_mfcc_train.3.ark:316438
mmar0_sx256 quick_test/mfcc/raw_mfcc_train.3.ark:2725568
mmar0_sx166 quick_test/mfcc/raw_mfcc_train.3.ark:2718463
mjfr0_sx165 quick_test/mfcc/raw_mfcc_train.3.ark:980731
mrlk0_si843 quick_test/mfcc/raw_mfcc_train.4.ark:1155432
mmgc0_sx45 quick_test/mfcc/raw_mfcc_train.3.ark:3051898
flmc0_si2002 quick_test/mfcc/raw_mfcc_train.1.ark:2662727
mrpc1_si2026 quick_test/mfcc/raw_mfcc_train.4.ark:1374799
fapb0_si1063 quick_test/mfcc/raw_mfcc_train.1.ark:131783
mclk0_si2290 quick_test/mfcc/raw_mfcc_train.2.ark:1712194
mmws0_si888 quick_test/mfcc/raw_mfcc_train.3.ark:3363395
mgaw0_sx265 quick_test/mfcc/raw_mfcc_train.3.ark:50865
mwar0_si1045 quick_test/mfcc/raw_mfcc_train.4.ark:3489085
fbmj0_sx156 quick_test/mfcc/raw_mfcc_train.1.ark:388500
mnet0_sx96 quick_test/mfcc/raw_mfcc_train.3.ark:3469378
fpac0_si661 quick_test/mfcc/raw_mfcc_train.1.ark:3236870
mcew0_sx182 quick_test/mfcc/raw_mfcc_train.2.ark:1653138
mhmg0_sx375 quick_test/mfcc/raw_mfcc_train.3.ark:413051
frll0_si1514 quick_test/mfcc/raw_mfcc_train.1.ark:3522718
fpjf0_sx326 quick_test/mfcc/raw_mfcc_train.1.ark:3384267
mhrm0_sx418 quick_test/mfcc/raw_mfcc_train.3.ark:471672
mtpr0_sx340 quick_test/mfcc/raw_mfcc_train.4.ark:3121992
mgxp0_sx367 quick_test/mfcc/raw_mfcc_train.3.ark:287283
msds0_si1077 quick_test/mfcc/raw_mfcc_train.4.ark:1883292
mtat1_sx59 quick_test/mfcc/raw_mfcc_train.4.ark:2469070
mdks0_si2326 quick_test/mfcc/raw_mfcc_train.2.ark:2385730
mdps0_sx449 quick_test/mfcc/raw_mfcc_train.2.ark:2863293
mkls1_sx195 quick_test/mfcc/raw_mfcc_train.3.ark:2257905
mklr0_sx429 quick_test/mfcc/raw_mfcc_train.3.ark:2194735
mrmb0_si2211 quick_test/mfcc/raw_mfcc_train.4.ark:1210581
mejl0_si962 quick_test/mfcc/raw_mfcc_train.2.ark:3255018
fnkl0_sx172 quick_test/mfcc/raw_mfcc_train.1.ark:3140585
mtlc0_si1313 quick_test/mfcc/raw_mfcc_train.4.ark:2877039
mses0_si1589 quick_test/mfcc/raw_mfcc_train.4.ark:1964709
mdcd0_sx245 quick_test/mfcc/raw_mfcc_train.2.ark:2107277
mdac0_si1837 quick_test/mfcc/raw_mfcc_train.2.ark:1965915
mmgk0_sx332 quick_test/mfcc/raw_mfcc_train.3.ark:3102505
medr0_si2004 quick_test/mfcc/raw_mfcc_train.2.ark:3153067
medr0_sx294 quick_test/mfcc/raw_mfcc_train.2.ark:3173082
mdcd0_sx335 quick_test/mfcc/raw_mfcc_train.2.ark:2110599
mdlm0_sx64 quick_test/mfcc/raw_mfcc_train.2.ark:2606261
mbcg0_sx327 quick_test/mfcc/raw_mfcc_train.2.ark:1117535
makr0_si722 quick_test/mfcc/raw_mfcc_train.2.ark:925305
fjrb0_sx132 quick_test/mfcc/raw_mfcc_train.1.ark:1791477
mtcs0_si1972 quick_test/mfcc/raw_mfcc_train.4.ark:2504105
mpgr0_sx420 quick_test/mfcc/raw_mfcc_train.3.ark:3647931
mjlg1_si1012 quick_test/mfcc/raw_mfcc_train.3.ark:1202043
mgar0_si1694 quick_test/mfcc/raw_mfcc_train.3.ark:4961
fsdj0_si1115 quick_test/mfcc/raw_mfcc_train.1.ark:3763773
mter0_si527 quick_test/mfcc/raw_mfcc_train.4.ark:2617548
fjwb1_sx165 quick_test/mfcc/raw_mfcc_train.1.ark:1932638
frll0_si884 quick_test/mfcc/raw_mfcc_train.1.ark:3532183
fdkn0_sx271 quick_test/mfcc/raw_mfcc_train.1.ark:929631
ftmg0_sx182 quick_test/mfcc/raw_mfcc_train.2.ark:548573
fajw0_si633 quick_test/mfcc/raw_mfcc_train.1.ark:42998
mrew1_sx330 quick_test/mfcc/raw_mfcc_train.4.ark:656556
mlel0_sx256 quick_test/mfcc/raw_mfcc_train.3.ark:2414484
mhit0_si1613 quick_test/mfcc/raw_mfcc_train.3.ark:328868
fcag0_sx153 quick_test/mfcc/raw_mfcc_train.1.ark:418679
fjlr0_sx421 quick_test/mfcc/raw_mfcc_train.1.ark:1772890
mtlc0_sx127 quick_test/mfcc/raw_mfcc_train.4.ark:2892388
mwem0_sx60 quick_test/mfcc/raw_mfcc_train.4.ark:3609428
fceg0_si1248 quick_test/mfcc/raw_mfcc_train.1.ark:509841
fdfb0_sx238 quick_test/mfcc/raw_mfcc_train.1.ark:865387
mses0_sx419 quick_test/mfcc/raw_mfcc_train.4.ark:1987503
mmab1_si2124 quick_test/mfcc/raw_mfcc_train.3.ark:2606997
mmgg0_sx89 quick_test/mfcc/raw_mfcc_train.3.ark:3084573
mtbc0_sx93 quick_test/mfcc/raw_mfcc_train.4.ark:2501055
fbmh0_sx326 quick_test/mfcc/raw_mfcc_train.1.ark:363927
mhmr0_sx309 quick_test/mfcc/raw_mfcc_train.3.ark:439576
mmws1_si2331 quick_test/mfcc/raw_mfcc_train.3.ark:3395446
fblv0_sx338 quick_test/mfcc/raw_mfcc_train.1.ark:329771
mwgr0_sx436 quick_test/mfcc/raw_mfcc_train.4.ark:3638729
fdml0_sx159 quick_test/mfcc/raw_mfcc_train.1.ark:958360
fhlm0_sx390 quick_test/mfcc/raw_mfcc_train.1.ark:1537062
fjkl0_sx212 quick_test/mfcc/raw_mfcc_train.1.ark:1700923
mtmt0_si488 quick_test/mfcc/raw_mfcc_train.4.ark:2983176
mrgs0_sx96 quick_test/mfcc/raw_mfcc_train.4.ark:807245
mmlm0_sx87 quick_test/mfcc/raw_mfcc_train.3.ark:3170947
msat0_sx176 quick_test/mfcc/raw_mfcc_train.4.ark:1779760
fcyl0_si667 quick_test/mfcc/raw_mfcc_train.1.ark:758249
mrws0_si472 quick_test/mfcc/raw_mfcc_train.4.ark:1653671
fear0_sx352 quick_test/mfcc/raw_mfcc_train.1.ark:1172658
msjk0_sx246 quick_test/mfcc/raw_mfcc_train.4.ark:2086863
