mmea0_sx38 quick_test/fbank/raw_fbank_train.3.ark:9145485
flma0_si1243 quick_test/fbank/raw_fbank_train.1.ark:8045578
mjdm0_sx440 quick_test/fbank/raw_fbank_train.3.ark:2557112
fklc1_sx328 quick_test/fbank/raw_fbank_train.1.ark:6875762
fdas1_sx201 quick_test/fbank/raw_fbank_train.1.ark:2458704
mjjj0_si1163 quick_test/fbank/raw_fbank_train.3.ark:3272473
mrtc0_si828 quick_test/fbank/raw_fbank_train.4.ark:4654141
feme0_si875 quick_test/fbank/raw_fbank_train.1.ark:3876113
mrdd0_si1680 quick_test/fbank/raw_fbank_train.4.ark:1380864
fsdj0_sx215 quick_test/fbank/raw_fbank_train.1.ark:11564718
mdlr1_sx399 quick_test/fbank/raw_fbank_train.2.ark:8182505
mses0_sx239 quick_test/fbank/raw_fbank_train.4.ark:6058322
mmws1_sx441 quick_test/fbank/raw_fbank_train.3.ark:10426891
mmjb1_sx238 quick_test/fbank/raw_fbank_train.3.ark:9572745
fapb0_sx343 quick_test/fbank/raw_fbank_train.1.ark:479235
mafm0_sx129 quick_test/fbank/raw_fbank_train.2.ark:2526391
fecd0_si1418 quick_test/fbank/raw_fbank_train.1.ark:3633836
mrwa0_sx343 quick_test/fbank/raw_fbank_train.4.ark:4997035
falk0_sx96 quick_test/fbank/raw_fbank_train.1.ark:298009
fmem0_si747 quick_test/fbank/raw_fbank_train.1.ark:8747502
fecd0_sx248 quick_test/fbank/raw_fbank_train.1.ark:3698529
mjrh0_si1755 quick_test/fbank/raw_fbank_train.3.ark:4639739
mcss0_sx120 quick_test/fbank/raw_fbank_train.2.ark:5657790
mctm0_sx450 quick_test/fbank/raw_fbank_train.2.ark:5885259
freh0_si1315 quick_test/fbank/raw_fbank_train.1.ark:10601759
fpaz0_sx63 quick_test/fbank/raw_fbank_train.1.ark:10286811
feme0_sx155 quick_test/fbank/raw_fbank_train.1.ark:3895266
fpaf0_sx64 quick_test/fbank/raw_fbank_train.1.ark:10182907
mjxl0_sx182 quick_test/fbank/raw_fbank_train.3.ark:5595230
mtml0_sx435 quick_test/fbank/raw_fbank_train.4.ark:8970806
fear0_si622 quick_test/fbank/raw_fbank_train.1.ark:3551958
mkag0_si2239 quick_test/fbank/raw_fbank_train.3.ark:5676229
mrlr0_si1196 quick_test/fbank/raw_fbank_train.4.ark:3600260
mtpf0_sx155 quick_test/fbank/raw_fbank_train.4.ark:9243542
mdef0_si2193 quick_test/fbank/raw_fbank_train.2.ark:6818696
mjfh0_sx207 quick_test/fbank/raw_fbank_train.3.ark:2930226
mdrd0_sx302 quick_test/fbank/raw_fbank_train.2.ark:8858136
mtab0_sx42 quick_test/fbank/raw_fbank_train.4.ark:7265652
mstf0_sx406 quick_test/fbank/raw_fbank_train.4.ark:7008130
mfrm0_si1785 quick_test/fbank/raw_fbank_train.2.ark:10610949
fpad0_si1346 quick_test/fbank/raw_fbank_train.1.ark:9984130
fclt0_si1438 quick_test/fbank/raw_fbank_train.1.ark:1903685
mdss1_sx427 quick_test/fbank/raw_fbank_train.2.ark:9145604
fcdr1_si556 quick_test/fbank/raw_fbank_train.1.ark:1475627
fvfb0_sx132 quick_test/fbank/raw_fbank_train.2.ark:1772430
fmem0_si1377 quick_test/fbank/raw_fbank_train.1.ark:8717275
mfmc0_sx232 quick_test/fbank/raw_fbank_train.2.ark:10533429
makb0_si1646 quick_test/fbank/raw_fbank_train.2.ark:2717336
mfer0_si1492 quick_test/fbank/raw_fbank_train.2.ark:10396911
fkkh0_si660 quick_test/fbank/raw_fbank_train.1.ark:6647932
mrkm0_sx187 quick_test/fbank/raw_fbank_train.4.ark:3173556
mdmt0_si1832 quick_test/fbank/raw_fbank_train.2.ark:8311285
maeb0_sx450 quick_test/fbank/raw_fbank_train.2.ark:2381439
mdss0_sx441 quick_test/fbank/raw_fbank_train.2.ark:9056979
mdhl0_sx359 quick_test/fbank/raw_fbank_train.2.ark:7056644
mjdc0_si531 quick_test/fbank/raw_fbank_train.3.ark:2171065
mgak0_sx406 quick_test/fbank/raw_fbank_train.2.ark:11227873
mjws0_sx333 quick_test/fbank/raw_fbank_train.3.ark:5308741
fljd0_sx166 quick_test/fbank/raw_fbank_train.1.ark:7754924
mesj0_sx187 quick_test/fbank/raw_fbank_train.2.ark:10266763
fdxw0_sx71 quick_test/fbank/raw_fbank_train.1.ark:3421512
makr0_sx452 quick_test/fbank/raw_fbank_train.2.ark:2865087
mklr0_sx339 quick_test/fbank/raw_fbank_train.3.ark:6705090
fmjf0_sx354 quick_test/fbank/raw_fbank_train.1.ark:8994410
mpgr0_sx240 quick_test/fbank/raw_fbank_train.3.ark:11139022
mjjm0_sx17 quick_test/fbank/raw_fbank_train.3.ark:3441350
mklr0_si1059 quick_test/fbank/raw_fbank_train.3.ark:6650243
mprt0_sx400 quick_test/fbank/raw_fbank_train.4.ark:475729
mjlb0_sx86 quick_test/fbank/raw_fbank_train.3.ark:3669019
fceg0_si1878 quick_test/fbank/raw_fbank_train.1.ark:1575099
mjeb0_sx206 quick_test/fbank/raw_fbank_train.3.ark:2636151
fmbg0_si1160 quick_test/fbank/raw_fbank_train.1.ark:8618491
mhbs0_si1575 quick_test/fbank/raw_fbank_train.3.ark:916394
mdem0_sx428 quick_test/fbank/raw_fbank_train.2.ark:6968132
mkdb0_sx242 quick_test/fbank/raw_fbank_train.3.ark:6103267
mjwt0_sx391 quick_test/fbank/raw_fbank_train.3.ark:5453591
mtmn0_si1064 quick_test/fbank/raw_fbank_train.4.ark:9001032
mmea0_si2018 quick_test/fbank/raw_fbank_train.3.ark:9096761
mmeb0_si1987 quick_test/fbank/raw_fbank_train.3.ark:9183506
mjrh1_sx244 quick_test/fbank/raw_fbank_train.3.ark:4782024
mmpm0_sx71 quick_test/fbank/raw_fbank_train.3.ark:9802534
mefg0_sx195 quick_test/fbank/raw_fbank_train.2.ark:9795185
fsjs0_sx271 quick_test/fbank/raw_fbank_train.2.ark:99277
mdlr1_sx219 quick_test/fbank/raw_fbank_train.2.ark:8142487
mwac0_sx251 quick_test/fbank/raw_fbank_train.4.ark:10542300
fsdj0_sx125 quick_test/fbank/raw_fbank_train.1.ark:11556085
fjxp0_sx402 quick_test/fbank/raw_fbank_train.1.ark:6153298
mtdp0_si2151 quick_test/fbank/raw_fbank_train.4.ark:7889184
mwem0_sx60 quick_test/fbank/raw_fbank_train.4.ark:11045687
fsms1_sx244 quick_test/fbank/raw_fbank_train.2.ark:899758
mgak0_si1666 quick_test/fbank/raw_fbank_train.2.ark:11161427
frll0_si884 quick_test/fbank/raw_fbank_train.1.ark:10810276
fajw0_sx3 quick_test/fbank/raw_fbank_train.1.ark:175282
mrhl0_si2145 quick_test/fbank/raw_fbank_train.4.ark:2486779
msvs0_sx128 quick_test/fbank/raw_fbank_train.4.ark:7086216
mpfu0_si1888 quick_test/fbank/raw_fbank_train.3.ark:10929274
fceg0_sx258 quick_test/fbank/raw_fbank_train.1.ark:1598238
mjpg0_sx201 quick_test/fbank/raw_fbank_train.3.ark:4193873
mrds0_si537 quick_test/fbank/raw_fbank_train.4.ark:1576868
mvrw0_si855 quick_test/fbank/raw_fbank_train.4.ark:10421329
mses0_sx329 quick_test/fbank/raw_fbank_train.4.ark:6069395
mjdm0_si1937 quick_test/fbank/raw_fbank_train.3.ark:2495267
mjeb0_sx296 quick_test/fbank/raw_fbank_train.3.ark:2658816
fskc0_si1416 quick_test/fbank/raw_fbank_train.2.ark:256514
mklr0_sx159 quick_test/fbank/raw_fbank_train.3.ark:6682224
mhxl0_si1772 quick_test/fbank/raw_fbank_train.3.ark:1472465
mljh0_sx64 quick_test/fbank/raw_fbank_train.3.ark:7657902
fceg0_sx438 quick_test/fbank/raw_fbank_train.1.ark:1621624
mdac0_sx451 quick_test/fbank/raw_fbank_train.2.ark:6081789
mdcd0_si2045 quick_test/fbank/raw_fbank_train.2.ark:6407082
mdhs0_sx90 quick_test/fbank/raw_fbank_train.2.ark:7179214
mpsw0_si1067 quick_test/fbank/raw_fbank_train.4.ark:485643
mclm0_si826 quick_test/fbank/raw_fbank_train.2.ark:5358803
mrcg0_sx438 quick_test/fbank/raw_fbank_train.4.ark:1242659
mjpg0_si1191 quick_test/fbank/raw_fbank_train.3.ark:4143660
mwem0_sx420 quick_test/fbank/raw_fbank_train.4.ark:11025415
fapb0_sx433 quick_test/fbank/raw_fbank_train.1.ark:495268
fhlm0_si2190 quick_test/fbank/raw_fbank_train.1.ark:4620937
mprb0_sx215 quick_test/fbank/raw_fbank_train.4.ark:111357
mjpm1_sx41 quick_test/fbank/raw_fbank_train.3.ark:4415421
mjxl0_si1795 quick_test/fbank/raw_fbank_train.3.ark:5576324
fmkf0_sx186 quick_test/fbank/raw_fbank_train.1.ark:9286380
mrvg0_sx330 quick_test/fbank/raw_fbank_train.4.ark:4904090
mjda0_sx41 quick_test/fbank/raw_fbank_train.3.ark:2141404
fgcs0_si2116 quick_test/fbank/raw_fbank_train.1.ark:4186596
faem0_sx312 quick_test/fbank/raw_fbank_train.1.ark:62819
mcdd0_sx253 quick_test/fbank/raw_fbank_train.2.ark:4757238
mrgm0_si532 quick_test/fbank/raw_fbank_train.4.ark:2278204
mrhl0_sx345 quick_test/fbank/raw_fbank_train.4.ark:2538671
mrms0_si2100 quick_test/fbank/raw_fbank_train.4.ark:4136935
mljh0_si694 quick_test/fbank/raw_fbank_train.3.ark:7581698
fsjk1_si1025 quick_test/fbank/raw_fbank_train.1.ark:11839380
fdjh0_sx395 quick_test/fbank/raw_fbank_train.1.ark:2775079
mdwm0_sx433 quick_test/fbank/raw_fbank_train.2.ark:9546137
fdjh0_si2195 quick_test/fbank/raw_fbank_train.1.ark:2702882
mlel0_si1246 quick_test/fbank/raw_fbank_train.3.ark:7328621
fvmh0_si1466 quick_test/fbank/raw_fbank_train.2.ark:1927380
mcth0_si1209 quick_test/fbank/raw_fbank_train.2.ark:5712635
mrjm0_sx328 quick_test/fbank/raw_fbank_train.4.ark:2866467
majp0_sx84 quick_test/fbank/raw_fbank_train.2.ark:2677708
mpeb0_sx330 quick_test/fbank/raw_fbank_train.3.ark:10869741
fdxw0_si2141 quick_test/fbank/raw_fbank_train.1.ark:3352235
frll0_si1514 quick_test/fbank/raw_fbank_train.1.ark:10781290
mbcg0_si2217 quick_test/fbank/raw_fbank_train.2.ark:3366039
fsjk1_sx305 quick_test/fbank/raw_fbank_train.2.ark:12285
mjjb0_sx149 quick_test/fbank/raw_fbank_train.3.ark:3207348
mfwk0_si619 quick_test/fbank/raw_fbank_train.2.ark:10699534
ftbr0_si1402 quick_test/fbank/raw_fbank_train.2.ark:1340710
mtwh1_sx432 quick_test/fbank/raw_fbank_train.4.ark:10067600
mjws0_si513 quick_test/fbank/raw_fbank_train.3.ark:5268402
mbjv0_si1247 quick_test/fbank/raw_fbank_train.2.ark:3645553
mdlb0_si676 quick_test/fbank/raw_fbank_train.2.ark:7420246
fdaw0_si1271 quick_test/fbank/raw_fbank_train.1.ark:2502036
fsag0_si1953 quick_test/fbank/raw_fbank_train.1.ark:10894868
mjjb0_sx59 quick_test/fbank/raw_fbank_train.3.ark:3263639
fgmb0_sx245 quick_test/fbank/raw_fbank_train.1.ark:4444585
mrai0_sx432 quick_test/fbank/raw_fbank_train.4.ark:846557
mesj0_sx277 quick_test/fbank/raw_fbank_train.2.ark:10273516
mmws0_si1518 quick_test/fbank/raw_fbank_train.3.ark:10270828
frjb0_sx77 quick_test/fbank/raw_fbank_train.1.ark:10769256
mwsh0_si2266 quick_test/fbank/raw_fbank_train.4.ark:11460253
mrjh0_si1519 quick_test/fbank/raw_fbank_train.4.ark:2688756
marw0_sx106 quick_test/fbank/raw_fbank_train.2.ark:3102543
mjee0_sx247 quick_test/fbank/raw_fbank_train.3.ark:2829761
msem1_sx360 quick_test/fbank/raw_fbank_train.4.ark:5971649
mrlj1_si2301 quick_test/fbank/raw_fbank_train.4.ark:3426363
mljh0_sx424 quick_test/fbank/raw_fbank_train.3.ark:7643150
falk0_si1086 quick_test/fbank/raw_fbank_train.1.ark:209261
fexm0_si1731 quick_test/fbank/raw_fbank_train.1.ark:4072290
mrpc1_sx132 quick_test/fbank/raw_fbank_train.4.ark:4223194
flac0_sx451 quick_test/fbank/raw_fbank_train.1.ark:7183190
msjk0_sx336 quick_test/fbank/raw_fbank_train.4.ark:6397470
fdkn0_sx361 quick_test/fbank/raw_fbank_train.1.ark:2857400
mgsl0_sx174 quick_test/fbank/raw_fbank_train.3.ark:740407
mtkd0_sx377 quick_test/fbank/raw_fbank_train.4.ark:8587137
mtqc0_sx91 quick_test/fbank/raw_fbank_train.4.ark:9711293
mmar0_sx256 quick_test/fbank/raw_fbank_train.3.ark:8340380
mjrg0_si736 quick_test/fbank/raw_fbank_train.3.ark:4548347
mcss0_sx390 quick_test/fbank/raw_fbank_train.2.ark:5700361
fdmy0_si1197 quick_test/fbank/raw_fbank_train.1.ark:2985005
fapb0_si1693 quick_test/fbank/raw_fbank_train.1.ark:420782
fmbg0_sx350 quick_test/fbank/raw_fbank_train.1.ark:8678336
mkes0_sx263 quick_test/fbank/raw_fbank_train.3.ark:6418661
mjxa0_sx247 quick_test/fbank/raw_fbank_train.3.ark:5509318
fpad0_si1976 quick_test/fbank/raw_fbank_train.1.ark:9998244
mram0_sx375 quick_test/fbank/raw_fbank_train.4.ark:957335
mkaj0_si2044 quick_test/fbank/raw_fbank_train.3.ark:5874518
fbas0_si1387 quick_test/fbank/raw_fbank_train.1.ark:527214
mdns0_sx21 quick_test/fbank/raw_fbank_train.2.ark:8472075
fsls0_sx66 quick_test/fbank/raw_fbank_train.2.ark:628141
fdnc0_si1278 quick_test/fbank/raw_fbank_train.1.ark:3122589
mklr0_si1689 quick_test/fbank/raw_fbank_train.3.ark:6666317
mdbb1_sx286 quick_test/fbank/raw_fbank_train.2.ark:6262356
fpac0_si2011 quick_test/fbank/raw_fbank_train.1.ark:9897779
freh0_sx235 quick_test/fbank/raw_fbank_train.1.ark:10652532
mwdk0_si1436 quick_test/fbank/raw_fbank_train.4.ark:10856870
mdmt0_si572 quick_test/fbank/raw_fbank_train.2.ark:8323032
mrtc0_sx198 quick_test/fbank/raw_fbank_train.4.ark:4690319
fklh0_si1257 quick_test/fbank/raw_fbank_train.1.ark:6919781
mdlc0_si765 quick_test/fbank/raw_fbank_train.2.ark:7540791
flod0_sx297 quick_test/fbank/raw_fbank_train.1.ark:8400653
mvjh0_sx116 quick_test/fbank/raw_fbank_train.4.ark:10249872
mdef0_si1123 quick_test/fbank/raw_fbank_train.2.ark:6787468
falr0_sx245 quick_test/fbank/raw_fbank_train.1.ark:358776
mwar0_sx145 quick_test/fbank/raw_fbank_train.4.ark:10717679
fdfb0_sx328 quick_test/fbank/raw_fbank_train.1.ark:2656949
mmws0_sx168 quick_test/fbank/raw_fbank_train.3.ark:10305487
mjjj0_sx263 quick_test/fbank/raw_fbank_train.3.ark:3334526
mtat1_si779 quick_test/fbank/raw_fbank_train.4.ark:7472203
mjmm0_sx85 quick_test/fbank/raw_fbank_train.3.ark:4134226
mcpm0_si1824 quick_test/fbank/raw_fbank_train.2.ark:5432795
mpmb0_si1501 quick_test/fbank/raw_fbank_train.3.ark:11286660
mdwd0_sx90 quick_test/fbank/raw_fbank_train.2.ark:9334087
mmag0_si1756 quick_test/fbank/raw_fbank_train.3.ark:8090110
mrfk0_si1076 quick_test/fbank/raw_fbank_train.4.ark:2050766
fljd0_sx346 quick_test/fbank/raw_fbank_train.1.ark:7781870
mkag0_sx79 quick_test/fbank/raw_fbank_train.3.ark:5753265
mmjb1_sx148 quick_test/fbank/raw_fbank_train.3.ark:9561912
fklc0_sx175 quick_test/fbank/raw_fbank_train.1.ark:6751910
mesj0_si2039 quick_test/fbank/raw_fbank_train.2.ark:10223743
falk0_sx366 quick_test/fbank/raw_fbank_train.1.ark:273466
ftaj0_si1329 quick_test/fbank/raw_fbank_train.2.ark:1263166
mrre0_si1334 quick_test/fbank/raw_fbank_train.4.ark:4277999
mjfr0_sx345 quick_test/fbank/raw_fbank_train.3.ark:3028084
medr0_si1374 quick_test/fbank/raw_fbank_train.2.ark:9638077
mtpr0_si2230 quick_test/fbank/raw_fbank_train.4.ark:9494351
fpaf0_sx424 quick_test/fbank/raw_fbank_train.1.ark:10171995
fkde0_si1141 quick_test/fbank/raw_fbank_train.1.ark:6283389
mcef0_sx235 quick_test/fbank/raw_fbank_train.2.ark:4963168
fmah1_sx249 quick_test/fbank/raw_fbank_train.1.ark:8575239
mbef0_si1911 quick_test/fbank/raw_fbank_train.2.ark:3471977
fsms1_si1504 quick_test/fbank/raw_fbank_train.2.ark:851665
mrdd0_sx150 quick_test/fbank/raw_fbank_train.4.ark:1403011
mtjg0_si2157 quick_test/fbank/raw_fbank_train.4.ark:8093040
mgaf0_si652 quick_test/fbank/raw_fbank_train.2.ark:10997211
mhxl0_sx152 quick_test/fbank/raw_fbank_train.3.ark:1506084
mjwt0_sx301 quick_test/fbank/raw_fbank_train.3.ark:5429366
fjrp1_si802 quick_test/fbank/raw_fbank_train.1.ark:5584721
mcdr0_si1154 quick_test/fbank/raw_fbank_train.2.ark:4801810
fspm0_si611 quick_test/fbank/raw_fbank_train.2.ark:982877
fmjf0_sx84 quick_test/fbank/raw_fbank_train.1.ark:9018915
fpmy0_sx253 quick_test/fbank/raw_fbank_train.1.ark:10563420
mtjg0_si890 quick_test/fbank/raw_fbank_train.4.ark:8098793
mrlj0_si790 quick_test/fbank/raw_fbank_train.4.ark:3345411
mjbg0_si1232 quick_test/fbank/raw_fbank_train.3.ark:1966906
mapv0_sx123 quick_test/fbank/raw_fbank_train.2.ark:2934013
mprb0_sx35 quick_test/fbank/raw_fbank_train.4.ark:141062
mdlr1_sx129 quick_test/fbank/raw_fbank_train.2.ark:8130814
mdma0_sx80 quick_test/fbank/raw_fbank_train.2.ark:8301171
mjws0_sx63 quick_test/fbank/raw_fbank_train.3.ark:5342046
fbch0_si1586 quick_test/fbank/raw_fbank_train.1.ark:731665
mfxv0_sx375 quick_test/fbank/raw_fbank_train.2.ark:10952110
mrai0_sx252 quick_test/fbank/raw_fbank_train.4.ark:822571
mapv0_si1923 quick_test/fbank/raw_fbank_train.2.ark:2904467
mnet0_sx6 quick_test/fbank/raw_fbank_train.3.ark:10607538
fklc1_sx58 quick_test/fbank/raw_fbank_train.1.ark:6903627
mjdm0_sx80 quick_test/fbank/raw_fbank_train.3.ark:2572864
fjrp1_si1432 quick_test/fbank/raw_fbank_train.1.ark:5549974
fdml0_sx69 quick_test/fbank/raw_fbank_train.1.ark:2974451
flkm0_si686 quick_test/fbank/raw_fbank_train.1.ark:7967940
mjae0_sx444 quick_test/fbank/raw_fbank_train.3.ark:1837416
fmem0_si2007 quick_test/fbank/raw_fbank_train.1.ark:8733029
mkes0_sx83 quick_test/fbank/raw_fbank_train.3.ark:6455119
mlsh0_sx337 quick_test/fbank/raw_fbank_train.3.ark:7828927
mmaa0_si845 quick_test/fbank/raw_fbank_train.3.ark:7894053
fbmj0_si1776 quick_test/fbank/raw_fbank_train.1.ark:1145565
msds0_sx447 quick_test/fbank/raw_fbank_train.4.ark:5860057
mmdm1_sx243 quick_test/fbank/raw_fbank_train.3.ark:8947210
fskc0_sx66 quick_test/fbank/raw_fbank_train.2.ark:336705
freh0_si685 quick_test/fbank/raw_fbank_train.1.ark:10632786
mmdm0_si1941 quick_test/fbank/raw_fbank_train.3.ark:8823126
mmab1_sx144 quick_test/fbank/raw_fbank_train.3.ark:8007751
fcke0_sx211 quick_test/fbank/raw_fbank_train.1.ark:1867433
mdwh0_sx125 quick_test/fbank/raw_fbank_train.2.ark:9392061
mgaw0_sx355 quick_test/fbank/raw_fbank_train.3.ark:167045
mdef0_si1563 quick_test/fbank/raw_fbank_train.2.ark:6807502
fbcg1_sx442 quick_test/fbank/raw_fbank_train.1.ark:706439
mcxm0_si1351 quick_test/fbank/raw_fbank_train.2.ark:5906405
mhjb0_sx117 quick_test/fbank/raw_fbank_train.3.ark:1143145
mrdm0_si965 quick_test/fbank/raw_fbank_train.4.ark:1486003
mrdm0_sx65 quick_test/fbank/raw_fbank_train.4.ark:1547287
fkaa0_sx398 quick_test/fbank/raw_fbank_train.1.ark:6267515
mkam0_sx56 quick_test/fbank/raw_fbank_train.3.ark:6044461
mbwp0_sx169 quick_test/fbank/raw_fbank_train.2.ark:4323427
mmsm0_si476 quick_test/fbank/raw_fbank_train.3.ark:9947699
mtat1_sx239 quick_test/fbank/raw_fbank_train.4.ark:7507629
mlbc0_si609 quick_test/fbank/raw_fbank_train.3.ark:7258263
mwrp0_si2073 quick_test/fbank/raw_fbank_train.4.ark:11283880
fgmb0_sx155 quick_test/fbank/raw_fbank_train.1.ark:4428512
fjrb0_si672 quick_test/fbank/raw_fbank_train.1.ark:5476736
mrab1_si1478 quick_test/fbank/raw_fbank_train.4.ark:664133
flhd0_sx174 quick_test/fbank/raw_fbank_train.1.ark:7547153
fnkl0_sx262 quick_test/fbank/raw_fbank_train.1.ark:9632677
mcss0_si750 quick_test/fbank/raw_fbank_train.2.ark:5646477
ftmg0_sx272 quick_test/fbank/raw_fbank_train.2.ark:1688637
mwch0_si1622 quick_test/fbank/raw_fbank_train.4.ark:10772924
mrtj0_sx412 quick_test/fbank/raw_fbank_train.4.ark:4824418
mmws0_si888 quick_test/fbank/raw_fbank_train.3.ark:10292054
fmpg0_sx162 quick_test/fbank/raw_fbank_train.1.ark:9493746
fgdp0_si988 quick_test/fbank/raw_fbank_train.1.ark:4290734
mdwh0_si1168 quick_test/fbank/raw_fbank_train.2.ark:9342801
fnkl0_si892 quick_test/fbank/raw_fbank_train.1.ark:9592858
mdhs0_si2160 quick_test/fbank/raw_fbank_train.2.ark:7108297
msat0_sx176 quick_test/fbank/raw_fbank_train.4.ark:5446495
mdac0_sx361 quick_test/fbank/raw_fbank_train.2.ark:6071156
mljc0_sx325 quick_test/fbank/raw_fbank_train.3.ark:7507772
mfmc0_sx412 quick_test/fbank/raw_fbank_train.2.ark:10559415
mmvp0_sx114 quick_test/fbank/raw_fbank_train.3.ark:10073197
fjxm0_sx311 quick_test/fbank/raw_fbank_train.1.ark:6028560
mpgr0_sx150 quick_test/fbank/raw_fbank_train.3.ark:11131909
fskp0_si1098 quick_test/fbank/raw_fbank_train.2.ark:446364
mhjb0_si1647 quick_test/fbank/raw_fbank_train.3.ark:1114998
mgar0_si1212 quick_test/fbank/raw_fbank_train.3.ark:13
fcyl0_sx397 quick_test/fbank/raw_fbank_train.1.ark:2385857
mtdp0_sx171 quick_test/fbank/raw_fbank_train.4.ark:7904657
mkes0_si623 quick_test/fbank/raw_fbank_train.3.ark:6386595
feeh0_sx212 quick_test/fbank/raw_fbank_train.1.ark:3803434
mcew0_sx272 quick_test/fbank/raw_fbank_train.2.ark:5069713
fmjb0_si1807 quick_test/fbank/raw_fbank_train.1.ark:8847335
megj0_sx77 quick_test/fbank/raw_fbank_train.2.ark:9927674
fclt0_sx178 quick_test/fbank/raw_fbank_train.1.ark:1938905
mhit0_si983 quick_test/fbank/raw_fbank_train.3.ark:1026886
mjls0_si1096 quick_test/fbank/raw_fbank_train.3.ark:3769199
mbsb0_si723 quick_test/fbank/raw_fbank_train.2.ark:4133947
mdcd0_sx245 quick_test/fbank/raw_fbank_train.2.ark:6447581
mjma0_sx235 quick_test/fbank/raw_fbank_train.3.ark:3926477
mdlh0_si1960 quick_test/fbank/raw_fbank_train.2.ark:7791800
mlel0_si616 quick_test/fbank/raw_fbank_train.3.ark:7351608
mjjm0_si1251 quick_test/fbank/raw_fbank_train.3.ark:3384618
msmr0_si1150 quick_test/fbank/raw_fbank_train.4.ark:6539793
falr0_si1325 quick_test/fbank/raw_fbank_train.1.ark:310923
feeh0_sx392 quick_test/fbank/raw_fbank_train.1.ark:3840572
mcxm0_si1981 quick_test/fbank/raw_fbank_train.2.ark:5917839
flmk0_sx45 quick_test/fbank/raw_fbank_train.1.ark:8318060
mtjm0_sx326 quick_test/fbank/raw_fbank_train.4.ark:8247477
msat0_sx356 quick_test/fbank/raw_fbank_train.4.ark:5466801
mrtc0_sx378 quick_test/fbank/raw_fbank_train.4.ark:4715385
fjlg0_sx449 quick_test/fbank/raw_fbank_train.1.ark:5324898
mjls0_sx106 quick_test/fbank/raw_fbank_train.3.ark:3815979
mtas0_sx215 quick_test/fbank/raw_fbank_train.4.ark:7314259
mtpr0_si1600 quick_test/fbank/raw_fbank_train.4.ark:9481037
mbth0_si757 quick_test/fbank/raw_fbank_train.2.ark:4218809
mtlb0_sx234 quick_test/fbank/raw_fbank_train.4.ark:8750849
mmgg0_sx359 quick_test/fbank/raw_fbank_train.3.ark:9407528
mcae0_sx187 quick_test/fbank/raw_fbank_train.2.ark:4457132
mefg0_sx375 quick_test/fbank/raw_fbank_train.2.ark:9815531
mtbc0_sx93 quick_test/fbank/raw_fbank_train.4.ark:7654032
madd0_sx88 quick_test/fbank/raw_fbank_train.2.ark:2293726
mjdc0_sx171 quick_test/fbank/raw_fbank_train.3.ark:2194778
mkag0_sx169 quick_test/fbank/raw_fbank_train.3.ark:5705335
mjmm0_si1255 quick_test/fbank/raw_fbank_train.3.ark:4051795
mtqc0_sx451 quick_test/fbank/raw_fbank_train.4.ark:9690461
mkes0_si1253 quick_test/fbank/raw_fbank_train.3.ark:6357848
fsma0_sx91 quick_test/fbank/raw_fbank_train.2.ark:733726
fljd0_sx76 quick_test/fbank/raw_fbank_train.1.ark:7803055
mmrp0_sx414 quick_test/fbank/raw_fbank_train.3.ark:9889766
mtjg0_sx260 quick_test/fbank/raw_fbank_train.4.ark:8131739
fjxp0_sx222 quick_test/fbank/raw_fbank_train.1.ark:6128432
mrab0_si594 quick_test/fbank/raw_fbank_train.4.ark:592295
mwad0_sx432 quick_test/fbank/raw_fbank_train.4.ark:10657752
fsms1_sx64 quick_test/fbank/raw_fbank_train.2.ark:939296
fsrh0_si1719 quick_test/fbank/raw_fbank_train.2.ark:1059315
fvfb0_si1032 quick_test/fbank/raw_fbank_train.2.ark:1737169
mrml0_si2051 quick_test/fbank/raw_fbank_train.4.ark:4001396
mrxb0_si2215 quick_test/fbank/raw_fbank_train.4.ark:5132073
fdnc0_sx18 quick_test/fbank/raw_fbank_train.1.ark:3182242
mjjm0_si1457 quick_test/fbank/raw_fbank_train.3.ark:3404532
msds0_sx87 quick_test/fbank/raw_fbank_train.4.ark:5870809
fgmb0_sx65 quick_test/fbank/raw_fbank_train.1.ark:4487523
megj0_si1337 quick_test/fbank/raw_fbank_train.2.ark:9829485
mjkr0_sx301 quick_test/fbank/raw_fbank_train.3.ark:3553689
ftmg0_sx182 quick_test/fbank/raw_fbank_train.2.ark:1678604
mejs0_sx70 quick_test/fbank/raw_fbank_train.2.ark:10120924
mmjb1_si2038 quick_test/fbank/raw_fbank_train.3.ark:9537366
mkxl0_sx375 quick_test/fbank/raw_fbank_train.3.ark:7221042
mtdb0_sx141 quick_test/fbank/raw_fbank_train.4.ark:7805471
mtcs0_si1972 quick_test/fbank/raw_fbank_train.4.ark:7663346
mrfk0_sx176 quick_test/fbank/raw_fbank_train.4.ark:2083707
mhmg0_sx375 quick_test/fbank/raw_fbank_train.3.ark:1263821
mchl0_sx87 quick_test/fbank/raw_fbank_train.2.ark:5221957
fskc0_sx156 quick_test/fbank/raw_fbank_train.2.ark:288174
fjxp0_sx42 quick_test/fbank/raw_fbank_train.1.ark:6165490
fmah1_si879 quick_test/fbank/raw_fbank_train.1.ark:8542453
mbbr0_sx155 quick_test/fbank/raw_fbank_train.2.ark:3309554
mmws1_sx351 quick_test/fbank/raw_fbank_train.3.ark:10414178
mmdb0_sx87 quick_test/fbank/raw_fbank_train.3.ark:8686273
mppc0_sx332 quick_test/fbank/raw_fbank_train.4.ark:12125
mcdc0_sx302 quick_test/fbank/raw_fbank_train.2.ark:4678806
mjpm0_si738 quick_test/fbank/raw_fbank_train.3.ark:4261352
mcew0_sx362 quick_test/fbank/raw_fbank_train.2.ark:5082666
msmc0_sx107 quick_test/fbank/raw_fbank_train.4.ark:6480548
fpjf0_sx352 quick_test/fbank/raw_fbank_train.1.ark:10367085
mrgm0_sx262 quick_test/fbank/raw_fbank_train.4.ark:2314270
msds0_sx267 quick_test/fbank/raw_fbank_train.4.ark:5824111
mdlc1_sx265 quick_test/fbank/raw_fbank_train.2.ark:7666283
mmam0_sx247 quick_test/fbank/raw_fbank_train.3.ark:8229195
mkah0_sx88 quick_test/fbank/raw_fbank_train.3.ark:5851650
mwrp0_sx183 quick_test/fbank/raw_fbank_train.4.ark:11299673
mwdk0_sx446 quick_test/fbank/raw_fbank_train.4.ark:10933829
mrcg0_si798 quick_test/fbank/raw_fbank_train.4.ark:1185287
msat1_sx173 quick_test/fbank/raw_fbank_train.4.ark:5531121
mrhl0_sx255 quick_test/fbank/raw_fbank_train.4.ark:2529078
fjen0_sx147 quick_test/fbank/raw_fbank_train.1.ark:4985802
msas0_sx116 quick_test/fbank/raw_fbank_train.4.ark:5359590
fjrp1_sx352 quick_test/fbank/raw_fbank_train.1.ark:5626660
mrlj1_sx231 quick_test/fbank/raw_fbank_train.4.ark:3461663
mpar0_sx316 quick_test/fbank/raw_fbank_train.3.ark:10790036
mded0_sx360 quick_test/fbank/raw_fbank_train.2.ark:6749529
fpjf0_sx236 quick_test/fbank/raw_fbank_train.1.ark:10347659
feeh0_si471 quick_test/fbank/raw_fbank_train.1.ark:3779728
mram0_sx105 quick_test/fbank/raw_fbank_train.4.ark:914204
mwch0_si2252 quick_test/fbank/raw_fbank_train.4.ark:10790712
fhlm0_sx210 quick_test/fbank/raw_fbank_train.1.ark:4661876
mgar0_sx132 quick_test/fbank/raw_fbank_train.3.ark:34474
fblv0_sx428 quick_test/fbank/raw_fbank_train.1.ark:1023394
fajw0_si1893 quick_test/fbank/raw_fbank_train.1.ark:120592
fjsk0_si2312 quick_test/fbank/raw_fbank_train.1.ark:5706907
mewm0_sx88 quick_test/fbank/raw_fbank_train.2.ark:10383237
mbbr0_sx65 quick_test/fbank/raw_fbank_train.2.ark:3357045
mjbg0_si1862 quick_test/fbank/raw_fbank_train.3.ark:1987854
mgsl0_si1164 quick_test/fbank/raw_fbank_train.3.ark:701108
mlns0_sx417 quick_test/fbank/raw_fbank_train.3.ark:7737015
mdas0_si636 quick_test/fbank/raw_fbank_train.2.ark:6133802
fmjf0_si624 quick_test/fbank/raw_fbank_train.1.ark:8947831
mrkm0_sx367 quick_test/fbank/raw_fbank_train.4.ark:3198102
mtrr0_sx198 quick_test/fbank/raw_fbank_train.4.ark:9871356
mmar0_si1966 quick_test/fbank/raw_fbank_train.3.ark:8289281
mprd0_sx171 quick_test/fbank/raw_fbank_train.4.ark:211109
freh0_sx325 quick_test/fbank/raw_fbank_train.1.ark:10662285
mvlo0_si1777 quick_test/fbank/raw_fbank_train.4.ark:10311591
mcdd0_sx433 quick_test/fbank/raw_fbank_train.2.ark:4778224
fsgf0_sx297 quick_test/fbank/raw_fbank_train.1.ark:11683568
mwsh0_sx346 quick_test/fbank/raw_fbank_train.4.ark:11518025
meal0_si917 quick_test/fbank/raw_fbank_train.2.ark:9578398
mmdb0_sx267 quick_test/fbank/raw_fbank_train.3.ark:8652975
mjeb1_si2097 quick_test/fbank/raw_fbank_train.3.ark:2698197
mjrk0_sx340 quick_test/fbank/raw_fbank_train.3.ark:4885642
mjxa0_si2137 quick_test/fbank/raw_fbank_train.3.ark:5479179
mjdg0_sx52 quick_test/fbank/raw_fbank_train.3.ark:2461719
mcae0_si1447 quick_test/fbank/raw_fbank_train.2.ark:4395312
fcyl0_sx349 quick_test/fbank/raw_fbank_train.1.ark:2357632
mrsp0_sx196 quick_test/fbank/raw_fbank_train.4.ark:4574782
mrws0_si472 quick_test/fbank/raw_fbank_train.4.ark:5060801
msvs0_si938 quick_test/fbank/raw_fbank_train.4.ark:7066783
mesj0_si997 quick_test/fbank/raw_fbank_train.2.ark:10251930
mmar0_sx436 quick_test/fbank/raw_fbank_train.3.ark:8373166
mkdb0_si872 quick_test/fbank/raw_fbank_train.3.ark:6078961
ftaj0_sx159 quick_test/fbank/raw_fbank_train.2.ark:1293665
mtkp0_sx33 quick_test/fbank/raw_fbank_train.4.ark:8683729
mtkp0_si2283 quick_test/fbank/raw_fbank_train.4.ark:8612005
mddc0_sx249 quick_test/fbank/raw_fbank_train.2.ark:6640591
fcmg0_sx342 quick_test/fbank/raw_fbank_train.1.ark:2066397
mrmg0_sx90 quick_test/fbank/raw_fbank_train.4.ark:3876542
mmdb0_sx177 quick_test/fbank/raw_fbank_train.3.ark:8646222
fjkl0_si932 quick_test/fbank/raw_fbank_train.1.ark:5171300
mjma0_si1495 quick_test/fbank/raw_fbank_train.3.ark:3872544
mjxl0_sx92 quick_test/fbank/raw_fbank_train.3.ark:5647801
freh0_sx55 quick_test/fbank/raw_fbank_train.1.ark:10678870
mter0_si1157 quick_test/fbank/raw_fbank_train.4.ark:7981702
mpar0_si2206 quick_test/fbank/raw_fbank_train.3.ark:10740944
mdef0_sx123 quick_test/fbank/raw_fbank_train.2.ark:6828569
fclt0_sx268 quick_test/fbank/raw_fbank_train.1.ark:1952298
mdks0_si1696 quick_test/fbank/raw_fbank_train.2.ark:7290587
fpaf0_sx244 quick_test/fbank/raw_fbank_train.1.ark:10145929
mrlj1_sx321 quick_test/fbank/raw_fbank_train.4.ark:3466536
mdpk0_si552 quick_test/fbank/raw_fbank_train.2.ark:8627147
mpmb0_sx331 quick_test/fbank/raw_fbank_train.3.ark:11393706
falr0_si695 quick_test/fbank/raw_fbank_train.1.ark:334750
mrmg0_sx360 quick_test/fbank/raw_fbank_train.4.ark:3848557
meal0_sx347 quick_test/fbank/raw_fbank_train.2.ark:9614210
freh0_sx415 quick_test/fbank/raw_fbank_train.1.ark:10670278
mtdb0_sx231 quick_test/fbank/raw_fbank_train.4.ark:7819104
fjxp0_sx132 quick_test/fbank/raw_fbank_train.1.ark:6118439
mrcw0_sx381 quick_test/fbank/raw_fbank_train.4.ark:1355676
feac0_sx255 quick_test/fbank/raw_fbank_train.1.ark:3485039
mcre0_sx24 quick_test/fbank/raw_fbank_train.2.ark:5573592
milb0_sx93 quick_test/fbank/raw_fbank_train.3.ark:1656117
fkdw0_si1207 quick_test/fbank/raw_fbank_train.1.ark:6394295
fjsp0_sx84 quick_test/fbank/raw_fbank_train.1.ark:5862656
msrr0_sx30 quick_test/fbank/raw_fbank_train.4.ark:6895913
fmbg0_sx260 quick_test/fbank/raw_fbank_train.1.ark:8657992
mjxl0_sx272 quick_test/fbank/raw_fbank_train.3.ark:5605023
mjmm0_sx175 quick_test/fbank/raw_fbank_train.3.ark:4087375
fscn0_si1886 quick_test/fbank/raw_fbank_train.1.ark:11309495
fmpg0_sx432 quick_test/fbank/raw_fbank_train.1.ark:9541085
milb0_si903 quick_test/fbank/raw_fbank_train.3.ark:1598995
mmgk0_si1322 quick_test/fbank/raw_fbank_train.3.ark:9448467
mrlk0_sx393 quick_test/fbank/raw_fbank_train.4.ark:3589026
fhxs0_sx445 quick_test/fbank/raw_fbank_train.1.ark:4818089
mtpf0_si1235 quick_test/fbank/raw_fbank_train.4.ark:9206402
fbmj0_sx156 quick_test/fbank/raw_fbank_train.1.ark:1189104
mwdk0_sx356 quick_test/fbank/raw_fbank_train.4.ark:10921516
mpgr1_si1499 quick_test/fbank/raw_fbank_train.3.ark:11197308
mbjv0_si1877 quick_test/fbank/raw_fbank_train.2.ark:3657267
mtpp0_sx338 quick_test/fbank/raw_fbank_train.4.ark:9445498
mjrh0_si1840 quick_test/fbank/raw_fbank_train.3.ark:4652213
mcef0_si1765 quick_test/fbank/raw_fbank_train.2.ark:4924789
maeb0_si1411 quick_test/fbank/raw_fbank_train.2.ark:2307200
mdlb0_si1306 quick_test/fbank/raw_fbank_train.2.ark:7383979
flmc0_sx22 quick_test/fbank/raw_fbank_train.1.ark:8179935
fjlg0_si1506 quick_test/fbank/raw_fbank_train.1.ark:5253818
mdrd0_sx212 quick_test/fbank/raw_fbank_train.2.ark:8843183
mtpf0_sx245 quick_test/fbank/raw_fbank_train.4.ark:9253775
mhmg0_si735 quick_test/fbank/raw_fbank_train.3.ark:1207017
fetb0_si518 quick_test/fbank/raw_fbank_train.1.ark:3987258
fcag0_si1503 quick_test/fbank/raw_fbank_train.1.ark:1257109
mgsl0_si797 quick_test/fbank/raw_fbank_train.3.ark:722574
mwar0_si2305 quick_test/fbank/raw_fbank_train.4.ark:10708166
mtrt0_sx237 quick_test/fbank/raw_fbank_train.4.ark:9965469
mgaw0_sx445 quick_test/fbank/raw_fbank_train.3.ark:175598
msmc0_sx197 quick_test/fbank/raw_fbank_train.4.ark:6503253
mrdd0_sx240 quick_test/fbank/raw_fbank_train.4.ark:1411364
mbgt0_sx81 quick_test/fbank/raw_fbank_train.2.ark:3634199
fblv0_sx68 quick_test/fbank/raw_fbank_train.1.ark:1037266
mgar0_sx42 quick_test/fbank/raw_fbank_train.3.ark:89405
fsjw0_sx253 quick_test/fbank/raw_fbank_train.2.ark:205502
mtwh1_si2142 quick_test/fbank/raw_fbank_train.4.ark:10017795
mtrt0_sx254 quick_test/fbank/raw_fbank_train.4.ark:9971902
fltm0_sx440 quick_test/fbank/raw_fbank_train.1.ark:8498200
mfer0_sx322 quick_test/fbank/raw_fbank_train.2.ark:10450837
mbcg0_si486 quick_test/fbank/raw_fbank_train.2.ark:3376992
mmdm0_sx231 quick_test/fbank/raw_fbank_train.3.ark:8854025
mter0_si1787 quick_test/fbank/raw_fbank_train.4.ark:7999496
mjeb1_sx297 quick_test/fbank/raw_fbank_train.3.ark:2761561
mpgh0_sx24 quick_test/fbank/raw_fbank_train.3.ark:11073669
falk0_si658 quick_test/fbank/raw_fbank_train.1.ark:232687
fjrp1_si2062 quick_test/fbank/raw_fbank_train.1.ark:5576648
ftaj0_sx339 quick_test/fbank/raw_fbank_train.2.ark:1312971
fleh0_sx241 quick_test/fbank/raw_fbank_train.1.ark:7372095
mrlj1_sx51 quick_test/fbank/raw_fbank_train.4.ark:3491601
mjpg0_sx291 quick_test/fbank/raw_fbank_train.3.ark:4211378
mses0_si1589 quick_test/fbank/raw_fbank_train.4.ark:6012468
mwad0_si2322 quick_test/fbank/raw_fbank_train.4.ark:10619860
fbas0_si2066 quick_test/fbank/raw_fbank_train.1.ark:559842
mctm0_sx180 quick_test/fbank/raw_fbank_train.2.ark:5852160
mdjm0_sx15 quick_test/fbank/raw_fbank_train.2.ark:7240900
mhmg0_si1995 quick_test/fbank/raw_fbank_train.3.ark:1196064
mesg0_si1332 quick_test/fbank/raw_fbank_train.2.ark:10124878
mrjb1_sx390 quick_test/fbank/raw_fbank_train.4.ark:2673962
mdhs0_sx450 quick_test/fbank/raw_fbank_train.2.ark:7166542
mjac0_sx431 quick_test/fbank/raw_fbank_train.3.ark:1740470
feme0_si2135 quick_test/fbank/raw_fbank_train.1.ark:3866360
mfwk0_si1879 quick_test/fbank/raw_fbank_train.2.ark:10689421
fdaw0_si1406 quick_test/fbank/raw_fbank_train.1.ark:2521750
fssb0_sx182 quick_test/fbank/raw_fbank_train.2.ark:1193801
mrdm0_sx425 quick_test/fbank/raw_fbank_train.4.ark:1539615
mmab1_si2124 quick_test/fbank/raw_fbank_train.3.ark:7977405
mlsh0_sx157 quick_test/fbank/raw_fbank_train.3.ark:7800741
fskp0_si468 quick_test/fbank/raw_fbank_train.2.ark:474431
mkrg0_sx411 quick_test/fbank/raw_fbank_train.3.ark:7117264
mwre0_si1687 quick_test/fbank/raw_fbank_train.4.ark:11172100
mkam0_sx146 quick_test/fbank/raw_fbank_train.3.ark:6000610
mzmb0_si1796 quick_test/fbank/raw_fbank_train.4.ark:11574518
mkls1_sx15 quick_test/fbank/raw_fbank_train.3.ark:6897147
fspm0_sx431 quick_test/fbank/raw_fbank_train.2.ark:1038689
fsmm0_sx234 quick_test/fbank/raw_fbank_train.2.ark:790133
mbsb0_sx363 quick_test/fbank/raw_fbank_train.2.ark:4169317
mrmg0_sx450 quick_test/fbank/raw_fbank_train.4.ark:3861070
mjrh1_sx64 quick_test/fbank/raw_fbank_train.3.ark:4816042
mrso0_sx39 quick_test/fbank/raw_fbank_train.4.ark:4490022
mtjg0_sx350 quick_test/fbank/raw_fbank_train.4.ark:8143532
fdfb0_si1318 quick_test/fbank/raw_fbank_train.1.ark:2607582
mjai0_si710 quick_test/fbank/raw_fbank_train.3.ark:1898868
fmjb0_si547 quick_test/fbank/raw_fbank_train.1.ark:8862808
flkm0_sx350 quick_test/fbank/raw_fbank_train.1.ark:7999999
fvfb0_sx42 quick_test/fbank/raw_fbank_train.2.ark:1817921
mses0_si2216 quick_test/fbank/raw_fbank_train.4.ark:6027462
msrr0_sx411 quick_test/fbank/raw_fbank_train.4.ark:6903506
mntw0_sx78 quick_test/fbank/raw_fbank_train.3.ark:10723676
mjrp0_sx135 quick_test/fbank/raw_fbank_train.3.ark:4952481
fjlg0_si1889 quick_test/fbank/raw_fbank_train.1.ark:5260372
mjfh0_sx387 quick_test/fbank/raw_fbank_train.3.ark:2953124
flac0_si901 quick_test/fbank/raw_fbank_train.1.ark:7142578
mjrp0_sx45 quick_test/fbank/raw_fbank_train.3.ark:4996452
mjjm0_sx197 quick_test/fbank/raw_fbank_train.3.ark:3449743
mbar0_si1319 quick_test/fbank/raw_fbank_train.2.ark:3176028
mjsr0_sx434 quick_test/fbank/raw_fbank_train.3.ark:5102725
mrgm0_sx416 quick_test/fbank/raw_fbank_train.4.ark:2326423
fklc0_si985 quick_test/fbank/raw_fbank_train.1.ark:6731277
fgrw0_sx432 quick_test/fbank/raw_fbank_train.1.ark:4586637
mrsp0_sx79 quick_test/fbank/raw_fbank_train.4.ark:4609560
mcal0_sx58 quick_test/fbank/raw_fbank_train.2.ark:4604566
fcag0_sx423 quick_test/fbank/raw_fbank_train.1.ark:1321949
mfrm0_sx255 quick_test/fbank/raw_fbank_train.2.ark:10633935
mwac0_sx161 quick_test/fbank/raw_fbank_train.4.ark:10524227
fsrh0_sx401 quick_test/fbank/raw_fbank_train.2.ark:1128634
mdlc2_si2244 quick_test/fbank/raw_fbank_train.2.ark:7712169
mjsr0_sx74 quick_test/fbank/raw_fbank_train.3.ark:5116117
mesg0_si702 quick_test/fbank/raw_fbank_train.2.ark:10145225
mdpk0_si1053 quick_test/fbank/raw_fbank_train.2.ark:8604360
mdlm0_si1234 quick_test/fbank/raw_fbank_train.2.ark:7895504
mmlm0_sx177 quick_test/fbank/raw_fbank_train.3.ark:9660937
mtpr0_sx340 quick_test/fbank/raw_fbank_train.4.ark:9554283
mbef0_sx381 quick_test/fbank/raw_fbank_train.2.ark:3531414
mrfl0_sx76 quick_test/fbank/raw_fbank_train.4.ark:2236703
mfrm0_sx435 quick_test/fbank/raw_fbank_train.2.ark:10654961
mjsr0_si2054 quick_test/fbank/raw_fbank_train.3.ark:5022080
mmdg0_si1780 quick_test/fbank/raw_fbank_train.3.ark:8694547
mpmb0_si871 quick_test/fbank/raw_fbank_train.3.ark:11337607
milb0_si807 quick_test/fbank/raw_fbank_train.3.ark:1584722
mjeb0_si1286 quick_test/fbank/raw_fbank_train.3.ark:2582618
mprb0_si575 quick_test/fbank/raw_fbank_train.4.ark:80051
falr0_sx65 quick_test/fbank/raw_fbank_train.1.ark:393554
mdac0_sx181 quick_test/fbank/raw_fbank_train.2.ark:6045050
majp0_sx354 quick_test/fbank/raw_fbank_train.2.ark:2652163
mgaw0_si1802 quick_test/fbank/raw_fbank_train.3.ark:117273
mmrp0_sx144 quick_test/fbank/raw_fbank_train.3.ark:9843867
mbsb0_sx273 quick_test/fbank/raw_fbank_train.2.ark:4156493
mgrl0_si1497 quick_test/fbank/raw_fbank_train.3.ark:387795
fcaj0_sx399 quick_test/fbank/raw_fbank_train.1.ark:1422766
mwre0_sx247 quick_test/fbank/raw_fbank_train.4.ark:11201800
mwgr0_sx436 quick_test/fbank/raw_fbank_train.4.ark:11135360
fcrz0_sx73 quick_test/fbank/raw_fbank_train.1.ark:2284352
mpfu0_sx178 quick_test/fbank/raw_fbank_train.3.ark:10945700
mjjb0_sx329 quick_test/fbank/raw_fbank_train.3.ark:3235534
fgrw0_sx162 quick_test/fbank/raw_fbank_train.1.ark:4544538
mdsj0_si832 quick_test/fbank/raw_fbank_train.2.ark:8922902
mjrp0_sx225 quick_test/fbank/raw_fbank_train.3.ark:4966354
mrjm0_sx238 quick_test/fbank/raw_fbank_train.4.ark:2855794
mprd0_sx441 quick_test/fbank/raw_fbank_train.4.ark:254728
msdh0_sx80 quick_test/fbank/raw_fbank_train.4.ark:5754143
fleh0_si1681 quick_test/fbank/raw_fbank_train.1.ark:7339235
mjmd0_sx128 quick_test/fbank/raw_fbank_train.3.ark:3997390
fsjg0_sx220 quick_test/fbank/raw_fbank_train.1.ark:11767848
fljg0_si2241 quick_test/fbank/raw_fbank_train.1.ark:7829443
mrpc1_si2026 quick_test/fbank/raw_fbank_train.4.ark:4207207
mfwk0_sx79 quick_test/fbank/raw_fbank_train.2.ark:10764178
fhxs0_sx355 quick_test/fbank/raw_fbank_train.1.ark:4806056
mdwh0_sx35 quick_test/fbank/raw_fbank_train.2.ark:9433199
mfrm0_sx165 quick_test/fbank/raw_fbank_train.2.ark:10622382
flac0_sx271 quick_test/fbank/raw_fbank_train.1.ark:7162684
mrws0_sx22 quick_test/fbank/raw_fbank_train.4.ark:5089259
mrbc0_sx419 quick_test/fbank/raw_fbank_train.4.ark:1133474
fdtd0_si931 quick_test/fbank/raw_fbank_train.1.ark:3261722
fjsk0_sx332 quick_test/fbank/raw_fbank_train.1.ark:5739206
mwsb0_si1626 quick_test/fbank/raw_fbank_train.4.ark:11353676
frjb0_sx257 quick_test/fbank/raw_fbank_train.1.ark:10729838
mgag0_si691 quick_test/fbank/raw_fbank_train.2.ark:11075875
fbcg1_si982 quick_test/fbank/raw_fbank_train.1.ark:648827
mdss0_si1881 quick_test/fbank/raw_fbank_train.2.ark:8997500
mtjs0_si1822 quick_test/fbank/raw_fbank_train.4.ark:8290610
mtas0_si1385 quick_test/fbank/raw_fbank_train.4.ark:7275006
mmlm0_sx87 quick_test/fbank/raw_fbank_train.3.ark:9702868
mcdc0_si1922 quick_test/fbank/raw_fbank_train.2.ark:4631394
fjrp1_sx82 quick_test/fbank/raw_fbank_train.1.ark:5663005
msmr0_sx325 quick_test/fbank/raw_fbank_train.4.ark:6606479
mvrw0_sx315 quick_test/fbank/raw_fbank_train.4.ark:10453068
fkkh0_sx30 quick_test/fbank/raw_fbank_train.1.ark:6683510
fcrz0_si793 quick_test/fbank/raw_fbank_train.1.ark:2228108
mprt0_si1210 quick_test/fbank/raw_fbank_train.4.ark:396779
mtmt0_sx308 quick_test/fbank/raw_fbank_train.4.ark:9170143
mfmc0_sx322 quick_test/fbank/raw_fbank_train.2.ark:10548742
mtpr0_si506 quick_test/fbank/raw_fbank_train.4.ark:9514984
mrgm0_sx442 quick_test/fbank/raw_fbank_train.4.ark:2338056
mram0_sx15 quick_test/fbank/raw_fbank_train.4.ark:924196
mtjs0_sx202 quick_test/fbank/raw_fbank_train.4.ark:8347589
mmab1_si1494 quick_test/fbank/raw_fbank_train.3.ark:7970971
mdbb1_sx16 quick_test/fbank/raw_fbank_train.2.ark:6245690
fjxp0_si1752 quick_test/fbank/raw_fbank_train.1.ark:6093933
mjhi0_sx68 quick_test/fbank/raw_fbank_train.3.ark:3161333
mjws0_si1773 quick_test/fbank/raw_fbank_train.3.ark:5257249
fjwb1_sx255 quick_test/fbank/raw_fbank_train.1.ark:5926702
fapb0_sx253 quick_test/fbank/raw_fbank_train.1.ark:467002
mrvg0_si1770 quick_test/fbank/raw_fbank_train.4.ark:4864638
mjpm0_sx288 quick_test/fbank/raw_fbank_train.3.ark:4307083
madc0_si1997 quick_test/fbank/raw_fbank_train.2.ark:2121984
mmaa0_si2105 quick_test/fbank/raw_fbank_train.3.ark:7883980
ftbw0_sx175 quick_test/fbank/raw_fbank_train.2.ark:1476675
mbom0_si2274 quick_test/fbank/raw_fbank_train.2.ark:4049961
marc0_sx198 quick_test/fbank/raw_fbank_train.2.ark:3040583
mgxp0_sx367 quick_test/fbank/raw_fbank_train.3.ark:879177
mjrh0_sx45 quick_test/fbank/raw_fbank_train.3.ark:4716737
mmcc0_sx348 quick_test/fbank/raw_fbank_train.3.ark:8568703
mtpf0_si1865 quick_test/fbank/raw_fbank_train.4.ark:9219836
flmk0_si2295 quick_test/fbank/raw_fbank_train.1.ark:8260856
mtpp0_sx68 quick_test/fbank/raw_fbank_train.4.ark:9471083
mzmb0_sx86 quick_test/fbank/raw_fbank_train.4.ark:11647275
mbjv0_si617 quick_test/fbank/raw_fbank_train.2.ark:3666620
mdjm0_sx105 quick_test/fbank/raw_fbank_train.2.ark:7231668
mkag0_sx259 quick_test/fbank/raw_fbank_train.3.ark:5717448
mjdc0_si1161 quick_test/fbank/raw_fbank_train.3.ark:2153998
fpac0_sx121 quick_test/fbank/raw_fbank_train.1.ark:9925645
fgdp0_sx448 quick_test/fbank/raw_fbank_train.1.ark:4351786
mkaj0_sx64 quick_test/fbank/raw_fbank_train.3.ark:5941555
fvkb0_si529 quick_test/fbank/raw_fbank_train.2.ark:1843302
fhxs0_si1075 quick_test/fbank/raw_fbank_train.1.ark:4717169
fsmm0_sx414 quick_test/fbank/raw_fbank_train.2.ark:823439
mmws1_sx261 quick_test/fbank/raw_fbank_train.3.ark:10399313
mfrm0_sx75 quick_test/fbank/raw_fbank_train.2.ark:10669713
mrmh0_sx301 quick_test/fbank/raw_fbank_train.4.ark:3950783
msmc0_si1907 quick_test/fbank/raw_fbank_train.4.ark:6438969
mbwp0_si709 quick_test/fbank/raw_fbank_train.2.ark:4310114
mtpg0_si1383 quick_test/fbank/raw_fbank_train.4.ark:9298307
mpeb0_si1860 quick_test/fbank/raw_fbank_train.3.ark:10825569
madd0_si1798 quick_test/fbank/raw_fbank_train.2.ark:2217929
mmar0_sx346 quick_test/fbank/raw_fbank_train.3.ark:8354733
mjmm0_si1885 quick_test/fbank/raw_fbank_train.3.ark:4069029
mdas0_si1896 quick_test/fbank/raw_fbank_train.2.ark:6116729
mdcd0_si785 quick_test/fbank/raw_fbank_train.2.ark:6416635
mrwa0_si973 quick_test/fbank/raw_fbank_train.4.ark:4965096
fpad0_sx176 quick_test/fbank/raw_fbank_train.1.ark:10027750
fjsp0_si1763 quick_test/fbank/raw_fbank_train.1.ark:5796699
fdkn0_si1202 quick_test/fbank/raw_fbank_train.1.ark:2799427
mkxl0_si1185 quick_test/fbank/raw_fbank_train.3.ark:7137530
mkah0_sx268 quick_test/fbank/raw_fbank_train.3.ark:5816112
mjjm0_si827 quick_test/fbank/raw_fbank_train.3.ark:3419405
fblv0_si2318 quick_test/fbank/raw_fbank_train.1.ark:975582
mrab1_sx398 quick_test/fbank/raw_fbank_train.4.ark:752604
mrmb0_sx141 quick_test/fbank/raw_fbank_train.4.ark:3730665
mdhl0_sx89 quick_test/fbank/raw_fbank_train.2.ark:7086749
medr0_sx384 quick_test/fbank/raw_fbank_train.2.ark:9716948
fskp0_sx108 quick_test/fbank/raw_fbank_train.2.ark:485504
mafm0_si1569 quick_test/fbank/raw_fbank_train.2.ark:2499331
mjfr0_sx435 quick_test/fbank/raw_fbank_train.3.ark:3043197
mgaf0_sx22 quick_test/fbank/raw_fbank_train.2.ark:11021669
fssb0_sx362 quick_test/fbank/raw_fbank_train.2.ark:1215667
fmem0_sx333 quick_test/fbank/raw_fbank_train.1.ark:8792674
mtpf0_sx335 quick_test/fbank/raw_fbank_train.4.ark:9267608
mdsj0_sx112 quick_test/fbank/raw_fbank_train.2.ark:8934055
fdnc0_sx108 quick_test/fbank/raw_fbank_train.1.ark:3170210
mkag0_sx439 quick_test/fbank/raw_fbank_train.3.ark:5738393
mdpb0_sx146 quick_test/fbank/raw_fbank_train.2.ark:8549875
mjrp0_sx405 quick_test/fbank/raw_fbank_train.3.ark:4985900
mrmg0_sx180 quick_test/fbank/raw_fbank_train.4.ark:3825691
mwar0_si1675 quick_test/fbank/raw_fbank_train.4.ark:10696892
mmag0_si1126 quick_test/fbank/raw_fbank_train.3.ark:8076636
mmws0_sx438 quick_test/fbank/raw_fbank_train.3.ark:10340026
fsdj0_si1745 quick_test/fbank/raw_fbank_train.1.ark:11536939
mmdg0_sx430 quick_test/fbank/raw_fbank_train.3.ark:8780586
fsah0_sx434 quick_test/fbank/raw_fbank_train.1.ark:11080938
mrmb0_sx411 quick_test/fbank/raw_fbank_train.4.ark:3765324
marc0_sx18 quick_test/fbank/raw_fbank_train.2.ark:3030950
mtrc0_sx93 quick_test/fbank/raw_fbank_train.4.ark:9803317
fmah1_sx339 quick_test/fbank/raw_fbank_train.1.ark:8585032
mwgr0_sx256 quick_test/fbank/raw_fbank_train.4.ark:11111054
mdss1_si1327 quick_test/fbank/raw_fbank_train.2.ark:9076685
mkdd0_sx397 quick_test/fbank/raw_fbank_train.3.ark:6241630
mdlr1_sx39 quick_test/fbank/raw_fbank_train.2.ark:8170312
mwch0_sx362 quick_test/fbank/raw_fbank_train.4.ark:10820091
