mklr0_si2319 quick_test/mfcc/raw_mfcc_train.3.ark:2181434
mmbs0_sx431 quick_test/mfcc/raw_mfcc_train.3.ark:2772075
mmdg0_si1780 quick_test/mfcc/raw_mfcc_train.3.ark:2841298
fdtd0_sx121 quick_test/mfcc/raw_mfcc_train.1.ark:1069668
fapb0_sx343 quick_test/mfcc/raw_mfcc_train.1.ark:156585
msat0_si2156 quick_test/mfcc/raw_mfcc_train.4.ark:1773766
fdkn0_si1202 quick_test/mfcc/raw_mfcc_train.1.ark:914854
mrws0_si1732 quick_test/mfcc/raw_mfcc_train.4.ark:1651324
mrgm0_sx416 quick_test/mfcc/raw_mfcc_train.4.ark:760234
mvjh0_sx116 quick_test/mfcc/raw_mfcc_train.4.ark:3349266
mabc0_sx61 quick_test/mfcc/raw_mfcc_train.2.ark:684185
mdlc1_sx175 quick_test/mfcc/raw_mfcc_train.2.ark:2500257
mges0_sx401 quick_test/mfcc/raw_mfcc_train.3.ark:83176
fsjk1_sx395 quick_test/mfcc/raw_mfcc_train.2.ark:10510
mpsw0_sx77 quick_test/mfcc/raw_mfcc_train.4.ark:181211
mdwm0_sx433 quick_test/mfcc/raw_mfcc_train.2.ark:3119921
mtmt0_sx128 quick_test/mfcc/raw_mfcc_train.4.ark:2989371
mprk0_sx17 quick_test/mfcc/raw_mfcc_train.4.ark:111657
mtdb0_sx141 quick_test/mfcc/raw_mfcc_train.4.ark:2550542
mdss0_sx171 quick_test/mfcc/raw_mfcc_train.2.ark:2949516
mkxl0_sx195 quick_test/mfcc/raw_mfcc_train.3.ark:2353926
mrcg0_si2058 quick_test/mfcc/raw_mfcc_train.4.ark:383760
mzmb0_si536 quick_test/mfcc/raw_mfcc_train.4.ark:3784831
mfxs0_si1674 quick_test/mfcc/raw_mfcc_train.2.ark:3521768
mjdg0_si1705 quick_test/mfcc/raw_mfcc_train.3.ark:786097
msmc0_sx17 quick_test/mfcc/raw_mfcc_train.4.ark:2122213
fdfb0_sx328 quick_test/mfcc/raw_mfcc_train.1.ark:868280
mfer0_si862 quick_test/mfcc/raw_mfcc_train.2.ark:3402162
mtxs0_sx430 quick_test/mfcc/raw_mfcc_train.4.ark:3325479
mrcw0_si1371 quick_test/mfcc/raw_mfcc_train.4.ark:416777
mkdd0_sx307 quick_test/mfcc/raw_mfcc_train.3.ark:2033776
mrpc1_si2026 quick_test/mfcc/raw_mfcc_train.4.ark:1374799
fdml0_sx339 quick_test/mfcc/raw_mfcc_train.1.ark:964913
flma0_sx163 quick_test/mfcc/raw_mfcc_train.1.ark:2640493
mrjm1_sx398 quick_test/mfcc/raw_mfcc_train.4.ark:979443
mdmt0_sx122 quick_test/mfcc/raw_mfcc_train.2.ark:2725413
fsag0_sx243 quick_test/mfcc/raw_mfcc_train.1.ark:3571384
mgaw0_si1802 quick_test/mfcc/raw_mfcc_train.3.ark:38325
mbgt0_sx441 quick_test/mfcc/raw_mfcc_train.2.ark:1184177
fdas1_sx291 quick_test/mfcc/raw_mfcc_train.1.ark:810710
mrjm0_si1228 quick_test/mfcc/raw_mfcc_train.4.ark:920233
fpls0_sx150 quick_test/mfcc/raw_mfcc_train.1.ark:3409660
mklw0_si1571 quick_test/mfcc/raw_mfcc_train.3.ark:2268223
mrws0_sx112 quick_test/mfcc/raw_mfcc_train.4.ark:1657474
mtml0_sx255 quick_test/mfcc/raw_mfcc_train.4.ark:2924472
freh0_sx55 quick_test/mfcc/raw_mfcc_train.1.ark:3489229
mmvp0_si1284 quick_test/mfcc/raw_mfcc_train.3.ark:3275386
mmar0_sx436 quick_test/mfcc/raw_mfcc_train.3.ark:2736268
mmdm0_sx411 quick_test/mfcc/raw_mfcc_train.3.ark:2900379
msem1_sx270 quick_test/mfcc/raw_mfcc_train.4.ark:1948067
msem1_si810 quick_test/mfcc/raw_mfcc_train.4.ark:1933974
mbom0_si1644 quick_test/mfcc/raw_mfcc_train.2.ark:1321109
flod0_sx171 quick_test/mfcc/raw_mfcc_train.1.ark:2736963
fkdw0_sx397 quick_test/mfcc/raw_mfcc_train.1.ark:2117109
mtpf0_si1865 quick_test/mfcc/raw_mfcc_train.4.ark:3012671
mrlk0_sx33 quick_test/mfcc/raw_mfcc_train.4.ark:1169941
fkfb0_si2238 quick_test/mfcc/raw_mfcc_train.1.ark:2127239
fcke0_sx301 quick_test/mfcc/raw_mfcc_train.1.ark:613736
mhmg0_si1995 quick_test/mfcc/raw_mfcc_train.3.ark:390897
mwdk0_si806 quick_test/mfcc/raw_mfcc_train.4.ark:3556244
fdjh0_sx125 quick_test/mfcc/raw_mfcc_train.1.ark:892997
mjmd0_si1658 quick_test/mfcc/raw_mfcc_train.3.ark:1299086
mklr0_sx429 quick_test/mfcc/raw_mfcc_train.3.ark:2194735
mtkd0_sx377 quick_test/mfcc/raw_mfcc_train.4.ark:2805924
mbar0_sx329 quick_test/mfcc/raw_mfcc_train.2.ark:1058570
mkag0_si979 quick_test/mfcc/raw_mfcc_train.3.ark:1858270
mafm0_sx309 quick_test/mfcc/raw_mfcc_train.2.ark:833269
mpfu0_si1258 quick_test/mfcc/raw_mfcc_train.3.ark:3565225
mfer0_sx322 quick_test/mfcc/raw_mfcc_train.2.ark:3415690
mdlh0_sx160 quick_test/mfcc/raw_mfcc_train.2.ark:2559104
mhxl0_si612 quick_test/mfcc/raw_mfcc_train.3.ark:488730
mbgt0_si1341 quick_test/mfcc/raw_mfcc_train.2.ark:1156821
fklh0_sx357 quick_test/mfcc/raw_mfcc_train.1.ark:2280662
mpfu0_sx88 quick_test/mfcc/raw_mfcc_train.3.ark:3594472
fvmh0_si2096 quick_test/mfcc/raw_mfcc_train.2.ark:635480
mkes0_sx173 quick_test/mfcc/raw_mfcc_train.3.ark:2092674
mdlc0_sx225 quick_test/mfcc/raw_mfcc_train.2.ark:2471853
mrpc1_sx222 quick_test/mfcc/raw_mfcc_train.4.ark:1383011
fsjs0_si1801 quick_test/mfcc/raw_mfcc_train.2.ark:17143
mjeb0_sx206 quick_test/mfcc/raw_mfcc_train.3.ark:861495
fkdw0_sx127 quick_test/mfcc/raw_mfcc_train.1.ark:2105850
mbma0_si592 quick_test/mfcc/raw_mfcc_train.2.ark:1229880
fljd0_si1516 quick_test/mfcc/raw_mfcc_train.1.ark:2521416
fksr0_sx217 quick_test/mfcc/raw_mfcc_train.1.ark:2309572
mges0_sx41 quick_test/mfcc/raw_mfcc_train.3.ark:86380
mrmb0_si2211 quick_test/mfcc/raw_mfcc_train.4.ark:1210581
mrew1_sx330 quick_test/mfcc/raw_mfcc_train.4.ark:656556
mrdm0_si1044 quick_test/mfcc/raw_mfcc_train.4.ark:476640
fbjl0_si922 quick_test/mfcc/raw_mfcc_train.1.ark:282294
fkkh0_si660 quick_test/mfcc/raw_mfcc_train.1.ark:2172088
fapb0_sx163 quick_test/mfcc/raw_mfcc_train.1.ark:148368
fdaw0_sx416 quick_test/mfcc/raw_mfcc_train.1.ark:844569
mgrp0_sx237 quick_test/mfcc/raw_mfcc_train.3.ark:176128
fdnc0_si1908 quick_test/mfcc/raw_mfcc_train.1.ark:1027307
msat1_sx443 quick_test/mfcc/raw_mfcc_train.4.ark:1819606
fsdc0_sx52 quick_test/mfcc/raw_mfcc_train.1.ark:3759813
mjra0_si1866 quick_test/mfcc/raw_mfcc_train.3.ark:1451771
mdcm0_sx310 quick_test/mfcc/raw_mfcc_train.2.ark:2143598
fksr0_si487 quick_test/mfcc/raw_mfcc_train.1.ark:2300705
mdas0_sx21 quick_test/mfcc/raw_mfcc_train.2.ark:2013039
flja0_sx358 quick_test/mfcc/raw_mfcc_train.1.ark:2508954
mrlj1_si2301 quick_test/mfcc/raw_mfcc_train.4.ark:1119591
mwrp0_sx183 quick_test/mfcc/raw_mfcc_train.4.ark:3692423
mkdt0_sx83 quick_test/mfcc/raw_mfcc_train.3.ark:2074223
mgsl0_si1164 quick_test/mfcc/raw_mfcc_train.3.ark:229121
mtml0_sx345 quick_test/mfcc/raw_mfcc_train.4.ark:2927534
flac0_sx181 quick_test/mfcc/raw_mfcc_train.1.ark:2336155
mpmb0_si1501 quick_test/mfcc/raw_mfcc_train.3.ark:3688563
mtpr0_sx160 quick_test/mfcc/raw_mfcc_train.4.ark:3111630
fbmh0_sx146 quick_test/mfcc/raw_mfcc_train.1.ark:357491
mmdm1_sx423 quick_test/mfcc/raw_mfcc_train.3.ark:2933274
mdss0_si1881 quick_test/mfcc/raw_mfcc_train.2.ark:2940563
mwem0_si1320 quick_test/mfcc/raw_mfcc_train.4.ark:3579855
fgcs0_sx316 quick_test/mfcc/raw_mfcc_train.1.ark:1384316
fsls0_si1686 quick_test/mfcc/raw_mfcc_train.2.ark:180188
mmrp0_sx144 quick_test/mfcc/raw_mfcc_train.3.ark:3217041
mljc0_sx55 quick_test/mfcc/raw_mfcc_train.3.ark:2460750
mkls1_si2175 quick_test/mfcc/raw_mfcc_train.3.ark:2241498
madd0_si1295 quick_test/mfcc/raw_mfcc_train.2.ark:722366
fsbk0_si2329 quick_test/mfcc/raw_mfcc_train.1.ark:3666767
mkrg0_si1491 quick_test/mfcc/raw_mfcc_train.3.ark:2302042
mram0_sx105 quick_test/mfcc/raw_mfcc_train.4.ark:298712
mrcg0_si1428 quick_test/mfcc/raw_mfcc_train.4.ark:377382
mkam0_sx146 quick_test/mfcc/raw_mfcc_train.3.ark:1961005
mrfl0_sx76 quick_test/mfcc/raw_mfcc_train.4.ark:730940
fjwb1_si2055 quick_test/mfcc/raw_mfcc_train.1.ark:1920163
mrwa0_sx343 quick_test/mfcc/raw_mfcc_train.4.ark:1632835
fmbg0_sx260 quick_test/mfcc/raw_mfcc_train.1.ark:2828962
mjjm0_si827 quick_test/mfcc/raw_mfcc_train.3.ark:1117439
fmkf0_sx186 quick_test/mfcc/raw_mfcc_train.1.ark:3034260
mrdd0_sx150 quick_test/mfcc/raw_mfcc_train.4.ark:458470
fhlm0_si1560 quick_test/mfcc/raw_mfcc_train.1.ark:1507827
mbgt0_sx171 quick_test/mfcc/raw_mfcc_train.2.ark:1169661
fdaw0_si1406 quick_test/mfcc/raw_mfcc_train.1.ark:824071
fcaj0_si1479 quick_test/mfcc/raw_mfcc_train.1.ark:440021
msfv0_sx452 quick_test/mfcc/raw_mfcc_train.4.ark:2059585
mter0_si1787 quick_test/mfcc/raw_mfcc_train.4.ark:2613914
mwad0_sx72 quick_test/mfcc/raw_mfcc_train.4.ark:3487114
mjeb0_si1916 quick_test/mfcc/raw_mfcc_train.3.ark:848448
mtat0_sx120 quick_test/mfcc/raw_mfcc_train.4.ark:2418637
mmds0_sx173 quick_test/mfcc/raw_mfcc_train.3.ark:2951562
fskl0_sx449 quick_test/mfcc/raw_mfcc_train.2.ark:137820
fpmy0_si1153 quick_test/mfcc/raw_mfcc_train.1.ark:3426853
fbmj0_sx246 quick_test/mfcc/raw_mfcc_train.1.ark:392940
mdmt0_sx392 quick_test/mfcc/raw_mfcc_train.2.ark:2741781
fblv0_sx428 quick_test/mfcc/raw_mfcc_train.1.ark:334354
mmsm0_sx296 quick_test/mfcc/raw_mfcc_train.3.ark:3268065
fvmh0_sx116 quick_test/mfcc/raw_mfcc_train.2.ark:644867
mjmm0_sx265 quick_test/mfcc/raw_mfcc_train.3.ark:1341246
mtkp0_sx123 quick_test/mfcc/raw_mfcc_train.4.ark:2826806
mtmn0_sx164 quick_test/mfcc/raw_mfcc_train.4.ark:2958101
mjee0_sx67 quick_test/mfcc/raw_mfcc_train.3.ark:937367
mmdm0_sx321 quick_test/mfcc/raw_mfcc_train.3.ark:2895614
mcpm0_sx384 quick_test/mfcc/raw_mfcc_train.2.ark:1798955
mdrd0_sx122 quick_test/mfcc/raw_mfcc_train.2.ark:2885338
mrgs0_si1356 quick_test/mfcc/raw_mfcc_train.4.ark:774828
mdlc0_sx315 quick_test/mfcc/raw_mfcc_train.2.ark:2475032
mkxl0_sx105 quick_test/mfcc/raw_mfcc_train.3.ark:2347244
mdwh0_si1925 quick_test/mfcc/raw_mfcc_train.2.ark:3060140
madd0_sx358 quick_test/mfcc/raw_mfcc_train.2.ark:742656
fjxp0_sx312 quick_test/mfcc/raw_mfcc_train.1.ark:2005787
mree0_si1959 quick_test/mfcc/raw_mfcc_train.4.ark:547698
mmjb1_sx148 quick_test/mfcc/raw_mfcc_train.3.ark:3124869
mclm0_sx376 quick_test/mfcc/raw_mfcc_train.2.ark:1768556
fjrp1_sx172 quick_test/mfcc/raw_mfcc_train.1.ark:1828194
mtjm0_si1856 quick_test/mfcc/raw_mfcc_train.4.ark:2678962
mcew0_si2072 quick_test/mfcc/raw_mfcc_train.2.ark:1640618
mgjc0_si1965 quick_test/mfcc/raw_mfcc_train.3.ark:98663
msas0_si1376 quick_test/mfcc/raw_mfcc_train.4.ark:1733518
mrdm0_sx245 quick_test/mfcc/raw_mfcc_train.4.ark:493738
mtpf0_sx335 quick_test/mfcc/raw_mfcc_train.4.ark:3028286
mrsp0_sx196 quick_test/mfcc/raw_mfcc_train.4.ark:1494865
fsjk1_si1025 quick_test/mfcc/raw_mfcc_train.1.ark:3868386
mdpk0_sx333 quick_test/mfcc/raw_mfcc_train.2.ark:2829351
mmdm1_sx333 quick_test/mfcc/raw_mfcc_train.3.ark:2927872
fsma0_si2251 quick_test/mfcc/raw_mfcc_train.2.ark:211121
fmjf0_sx84 quick_test/mfcc/raw_mfcc_train.1.ark:2946885
mejl0_sx422 quick_test/mfcc/raw_mfcc_train.2.ark:3269918
mppc0_si2042 quick_test/mfcc/raw_mfcc_train.3.ark:3749949
mcdr0_sx344 quick_test/mfcc/raw_mfcc_train.2.ark:1595370
mjfr0_sx75 quick_test/mfcc/raw_mfcc_train.3.ark:1000440
fkde0_sx331 quick_test/mfcc/raw_mfcc_train.1.ark:2075946
flac0_si901 quick_test/mfcc/raw_mfcc_train.1.ark:2333743
mjai0_sx74 quick_test/mfcc/raw_mfcc_train.3.ark:639698
mlns0_sx57 quick_test/mfcc/raw_mfcc_train.3.ark:2532936
fbjl0_sx292 quick_test/mfcc/raw_mfcc_train.1.ark:298402
fsjk1_sx215 quick_test/mfcc/raw_mfcc_train.2.ark:12
mcew0_si1442 quick_test/mfcc/raw_mfcc_train.2.ark:1636242
mrwa0_si2233 quick_test/mfcc/raw_mfcc_train.4.ark:1617753
fsjg0_si2200 quick_test/mfcc/raw_mfcc_train.1.ark:3829168
fgmb0_sx335 quick_test/mfcc/raw_mfcc_train.1.ark:1456450
mrlj1_sx141 quick_test/mfcc/raw_mfcc_train.4.ark:1127081
fjxp0_si1122 quick_test/mfcc/raw_mfcc_train.1.ark:1987460
fdas1_sx201 quick_test/mfcc/raw_mfcc_train.1.ark:803469
mlns0_si777 quick_test/mfcc/raw_mfcc_train.3.ark:2514481
fpjf0_si1676 quick_test/mfcc/raw_mfcc_train.1.ark:3374054
mrjm0_sx418 quick_test/mfcc/raw_mfcc_train.4.ark:941277
mtjs0_sx22 quick_test/mfcc/raw_mfcc_train.4.ark:2730591
mtab0_si2202 quick_test/mfcc/raw_mfcc_train.4.ark:2346190
fsbk0_sx259 quick_test/mfcc/raw_mfcc_train.1.ark:3673892
mrlj0_sx250 quick_test/mfcc/raw_mfcc_train.4.ark:1102954
fssb0_sx182 quick_test/mfcc/raw_mfcc_train.2.ark:390119
flmk0_si2295 quick_test/mfcc/raw_mfcc_train.1.ark:2699153
fbch0_si1586 quick_test/mfcc/raw_mfcc_train.1.ark:239050
mjrk0_sx250 quick_test/mfcc/raw_mfcc_train.3.ark:1592616
mcpm0_si1824 quick_test/mfcc/raw_mfcc_train.2.ark:1775618
mbar0_sx59 quick_test/mfcc/raw_mfcc_train.2.ark:1067137
msjk0_sx426 quick_test/mfcc/raw_mfcc_train.4.ark:2096029
mpgr0_sx150 quick_test/mfcc/raw_mfcc_train.3.ark:3637978
mgsl0_sx354 quick_test/mfcc/raw_mfcc_train.3.ark:250840
mtpg0_sx303 quick_test/mfcc/raw_mfcc_train.4.ark:3058061
mrlj0_sx340 quick_test/mfcc/raw_mfcc_train.4.ark:1106263
fpad0_sx446 quick_test/mfcc/raw_mfcc_train.1.ark:3290567
mvjh0_si2186 quick_test/mfcc/raw_mfcc_train.4.ark:3340737
fajw0_sx93 quick_test/mfcc/raw_mfcc_train.1.ark:64116
mbml0_sx359 quick_test/mfcc/raw_mfcc_train.2.ark:1303881
mjae0_si1999 quick_test/mfcc/raw_mfcc_train.3.ark:581100
mrgm0_si532 quick_test/mfcc/raw_mfcc_train.4.ark:744496
megj0_sx437 quick_test/mfcc/raw_mfcc_train.2.ark:3239480
fmkc0_sx442 quick_test/mfcc/raw_mfcc_train.1.ark:3011409
mcth0_si1839 quick_test/mfcc/raw_mfcc_train.2.ark:1871754
mkaj0_sx244 quick_test/mfcc/raw_mfcc_train.3.ark:1931587
mreh1_sx429 quick_test/mfcc/raw_mfcc_train.4.ark:598522
mtqc0_sx451 quick_test/mfcc/raw_mfcc_train.4.ark:3166451
fdas1_si831 quick_test/mfcc/raw_mfcc_train.1.ark:793705
ftbr0_sx21 quick_test/mfcc/raw_mfcc_train.2.ark:460315
mabc0_sx151 quick_test/mfcc/raw_mfcc_train.2.ark:670872
mfrm0_si1155 quick_test/mfcc/raw_mfcc_train.2.ark:3459435
fksr0_sx37 quick_test/mfcc/raw_mfcc_train.1.ark:2317762
mgxp0_si525 quick_test/mfcc/raw_mfcc_train.3.ark:274301
mbcg0_sx57 quick_test/mfcc/raw_mfcc_train.2.ark:1126986
fcjf0_sx217 quick_test/mfcc/raw_mfcc_train.1.ark:552047
mvlo0_si1777 quick_test/mfcc/raw_mfcc_train.4.ark:3369459
mcdd0_sx253 quick_test/mfcc/raw_mfcc_train.2.ark:1554876
mvlo0_sx157 quick_test/mfcc/raw_mfcc_train.4.ark:3378378
fgrw0_si1152 quick_test/mfcc/raw_mfcc_train.1.ark:1470030
msjk0_sx156 quick_test/mfcc/raw_mfcc_train.4.ark:2082371
mrso0_si1659 quick_test/mfcc/raw_mfcc_train.4.ark:1443579
fjxp0_sx402 quick_test/mfcc/raw_mfcc_train.1.ark:2010526
mjhi0_sx158 quick_test/mfcc/raw_mfcc_train.3.ark:1018201
mmam0_sx157 quick_test/mfcc/raw_mfcc_train.3.ark:2686569
mabc0_si1620 quick_test/mfcc/raw_mfcc_train.2.ark:660229
mkah0_si898 quick_test/mfcc/raw_mfcc_train.3.ark:1891593
msmc0_sx107 quick_test/mfcc/raw_mfcc_train.4.ark:2117618
mgaf0_si1912 quick_test/mfcc/raw_mfcc_train.2.ark:3589245
mgrp0_sx327 quick_test/mfcc/raw_mfcc_train.3.ark:178904
mmrp0_sx414 quick_test/mfcc/raw_mfcc_train.3.ark:3232025
mrkm0_sx277 quick_test/mfcc/raw_mfcc_train.4.ark:1040338
mdbp0_sx78 quick_test/mfcc/raw_mfcc_train.2.ark:2087220
mcxm0_sx361 quick_test/mfcc/raw_mfcc_train.2.ark:1950819
mdns0_sx111 quick_test/mfcc/raw_mfcc_train.2.ark:2761441
mdpb0_sx326 quick_test/mfcc/raw_mfcc_train.2.ark:2801591
flod0_sx117 quick_test/mfcc/raw_mfcc_train.1.ark:2733836
ftlg0_sx393 quick_test/mfcc/raw_mfcc_train.2.ark:532813
fsak0_sx40 quick_test/mfcc/raw_mfcc_train.1.ark:3651851
fhxs0_si1075 quick_test/mfcc/raw_mfcc_train.1.ark:1541321
mtbc0_sx273 quick_test/mfcc/raw_mfcc_train.4.ark:2487931
mmws0_si888 quick_test/mfcc/raw_mfcc_train.3.ark:3363395
fjdm2_sx142 quick_test/mfcc/raw_mfcc_train.1.ark:1593233
mkdd0_si2197 quick_test/mfcc/raw_mfcc_train.3.ark:2017303
mwrp0_sx3 quick_test/mfcc/raw_mfcc_train.4.ark:3699832
mcef0_si1765 quick_test/mfcc/raw_mfcc_train.2.ark:1609621
fsms1_si874 quick_test/mfcc/raw_mfcc_train.2.ark:286057
fpad0_sx356 quick_test/mfcc/raw_mfcc_train.1.ark:3285763
fgrw0_sx72 quick_test/mfcc/raw_mfcc_train.1.ark:1504569
frll0_si805 quick_test/mfcc/raw_mfcc_train.1.ark:3525988
mges0_sx221 quick_test/mfcc/raw_mfcc_train.3.ark:74231
fcdr1_sx16 quick_test/mfcc/raw_mfcc_train.1.ark:493055
mdlc1_si2144 quick_test/mfcc/raw_mfcc_train.2.ark:2498170
mjsr0_si1424 quick_test/mfcc/raw_mfcc_train.3.ark:1636394
mkls0_sx177 quick_test/mfcc/raw_mfcc_train.3.ark:2217314
mwsb0_si1626 quick_test/mfcc/raw_mfcc_train.4.ark:3710084
mjmd0_sx128 quick_test/mfcc/raw_mfcc_train.3.ark:1306381
mdbb1_sx106 quick_test/mfcc/raw_mfcc_train.2.ark:2038269
fspm0_sx161 quick_test/mfcc/raw_mfcc_train.2.ark:324380
mjxa0_sx67 quick_test/mfcc/raw_mfcc_train.3.ark:1811858
mjdc0_si1161 quick_test/mfcc/raw_mfcc_train.3.ark:703990
mjdm0_si1937 quick_test/mfcc/raw_mfcc_train.3.ark:815462
mjpm0_si1368 quick_test/mfcc/raw_mfcc_train.3.ark:1381878
fmem0_sx117 quick_test/mfcc/raw_mfcc_train.1.ark:2862258
mrds0_si1797 quick_test/mfcc/raw_mfcc_train.4.ark:510947
maeo0_sx66 quick_test/mfcc/raw_mfcc_train.2.ark:813842
mrsp0_sx169 quick_test/mfcc/raw_mfcc_train.4.ark:1490425
mjbg0_si1232 quick_test/mfcc/raw_mfcc_train.3.ark:642826
mjfr0_si2235 quick_test/mfcc/raw_mfcc_train.3.ark:973073
mdwd0_sx270 quick_test/mfcc/raw_mfcc_train.2.ark:3039733
mtlc0_sx127 quick_test/mfcc/raw_mfcc_train.4.ark:2892388
mpfu0_si1888 quick_test/mfcc/raw_mfcc_train.3.ark:3571720
mmds0_si1973 quick_test/mfcc/raw_mfcc_train.3.ark:2946998
mjbg0_sx332 quick_test/mfcc/raw_mfcc_train.3.ark:661895
mdss1_sx337 quick_test/mfcc/raw_mfcc_train.2.ark:2985623
mmsm0_sx116 quick_test/mfcc/raw_mfcc_train.3.ark:3256748
mrxb0_si955 quick_test/mfcc/raw_mfcc_train.4.ark:1683082
mfxs0_sx144 quick_test/mfcc/raw_mfcc_train.2.ark:3530774
mjxa0_sx337 quick_test/mfcc/raw_mfcc_train.3.ark:1805358
mesj0_sx97 quick_test/mfcc/raw_mfcc_train.2.ark:3366982
mrlr0_sx296 quick_test/mfcc/raw_mfcc_train.4.ark:1200756
mbjv0_sx167 quick_test/mfcc/raw_mfcc_train.2.ark:1202699
mdsj0_sx112 quick_test/mfcc/raw_mfcc_train.2.ark:2919832
marw0_sx286 quick_test/mfcc/raw_mfcc_train.2.ark:1021553
mdac0_si1837 quick_test/mfcc/raw_mfcc_train.2.ark:1965915
mjpm1_si1897 quick_test/mfcc/raw_mfcc_train.3.ark:1415878
mprd0_si2061 quick_test/mfcc/raw_mfcc_train.4.ark:59216
fsjg0_sx220 quick_test/mfcc/raw_mfcc_train.1.ark:3845049
mtjg0_sx440 quick_test/mfcc/raw_mfcc_train.4.ark:2666109
fgdp0_si988 quick_test/mfcc/raw_mfcc_train.1.ark:1402058
mpfu0_sx268 quick_test/mfcc/raw_mfcc_train.3.ark:3581764
meal0_si1547 quick_test/mfcc/raw_mfcc_train.2.ark:3123972
fdtd0_sx211 quick_test/mfcc/raw_mfcc_train.1.ark:1074043
mjlg1_sx22 quick_test/mfcc/raw_mfcc_train.3.ark:1220955
mmea0_si1388 quick_test/mfcc/raw_mfcc_train.3.ark:2967990
fjwb1_sx345 quick_test/mfcc/raw_mfcc_train.1.ark:1939425
mcdc0_si662 quick_test/mfcc/raw_mfcc_train.2.ark:1516949
mtrr0_sx198 quick_test/mfcc/raw_mfcc_train.4.ark:3225576
mpfu0_sx358 quick_test/mfcc/raw_mfcc_train.3.ark:3586113
mdlc0_sx405 quick_test/mfcc/raw_mfcc_train.2.ark:2478887
fmjf0_si1254 quick_test/mfcc/raw_mfcc_train.1.ark:2917755
mgaf0_si652 quick_test/mfcc/raw_mfcc_train.2.ark:3594270
mgsh0_sx127 quick_test/mfcc/raw_mfcc_train.3.ark:209783
mjae0_sx174 quick_test/mfcc/raw_mfcc_train.3.ark:587329
mfxv0_sx285 quick_test/mfcc/raw_mfcc_train.2.ark:3575858
maeb0_sx90 quick_test/mfcc/raw_mfcc_train.2.ark:782454
mrfl0_sx346 quick_test/mfcc/raw_mfcc_train.4.ark:722854
mcpm0_sx24 quick_test/mfcc/raw_mfcc_train.2.ark:1793143
ftaj0_sx249 quick_test/mfcc/raw_mfcc_train.2.ark:426179
mdss0_sx441 quick_test/mfcc/raw_mfcc_train.2.ark:2960028
fkkh0_si1290 quick_test/mfcc/raw_mfcc_train.1.ark:2159346
flet0_sx57 quick_test/mfcc/raw_mfcc_train.1.ark:2452392
mjjm0_sx377 quick_test/mfcc/raw_mfcc_train.3.ark:1134880
mgak0_si1666 quick_test/mfcc/raw_mfcc_train.2.ark:3647975
mgsh0_si1806 quick_test/mfcc/raw_mfcc_train.3.ark:200006
mdhl0_si1439 quick_test/mfcc/raw_mfcc_train.2.ark:2287653
mjls0_sx16 quick_test/mfcc/raw_mfcc_train.3.ark:1250632
mram0_sx195 quick_test/mfcc/raw_mfcc_train.4.ark:306278
mfxs0_sx324 quick_test/mfcc/raw_mfcc_train.2.ark:3538640
fkaa0_sx128 quick_test/mfcc/raw_mfcc_train.1.ark:2030257
mjda0_sx131 quick_test/mfcc/raw_mfcc_train.3.ark:685105
falr0_si1325 quick_test/mfcc/raw_mfcc_train.1.ark:101592
fjrb0_si1302 quick_test/mfcc/raw_mfcc_train.1.ark:1781328
mejs0_sx430 quick_test/mfcc/raw_mfcc_train.2.ark:3302735
mmpm0_si1691 quick_test/mfcc/raw_mfcc_train.3.ark:3177593
megj0_si1967 quick_test/mfcc/raw_mfcc_train.2.ark:3220662
fkaa0_sx308 quick_test/mfcc/raw_mfcc_train.1.ark:2038149
mgsh0_sx6 quick_test/mfcc/raw_mfcc_train.3.ark:220228
mjdm0_sx80 quick_test/mfcc/raw_mfcc_train.3.ark:840814
msjk0_sx336 quick_test/mfcc/raw_mfcc_train.4.ark:2090484
fcjs0_sx167 quick_test/mfcc/raw_mfcc_train.1.ark:571233
mmlm0_sx447 quick_test/mfcc/raw_mfcc_train.3.ark:3168029
frll0_sx254 quick_test/mfcc/raw_mfcc_train.1.ark:3541115
mjrk0_si2103 quick_test/mfcc/raw_mfcc_train.3.ark:1579595
mbsb0_sx363 quick_test/mfcc/raw_mfcc_train.2.ark:1362775
mrxb0_sx55 quick_test/mfcc/raw_mfcc_train.4.ark:1702902
flhd0_sx444 quick_test/mfcc/raw_mfcc_train.1.ark:2478054
mdks0_si2326 quick_test/mfcc/raw_mfcc_train.2.ark:2385730
mgag0_sx241 quick_test/mfcc/raw_mfcc_train.2.ark:3629076
mpar0_sx136 quick_test/mfcc/raw_mfcc_train.3.ark:3518242
mdcm0_si2110 quick_test/mfcc/raw_mfcc_train.2.ark:2127762
mdhl0_sx179 quick_test/mfcc/raw_mfcc_train.2.ark:2299661
flet0_si1137 quick_test/mfcc/raw_mfcc_train.1.ark:2424913
fmbg0_si1160 quick_test/mfcc/raw_mfcc_train.1.ark:2816056
fcmg0_si1142 quick_test/mfcc/raw_mfcc_train.1.ark:653672
mrtj0_si2032 quick_test/mfcc/raw_mfcc_train.4.ark:1549870
fkde0_sx421 quick_test/mfcc/raw_mfcc_train.1.ark:2080555
fcjs0_si1607 quick_test/mfcc/raw_mfcc_train.1.ark:562761
ftbw0_si1975 quick_test/mfcc/raw_mfcc_train.2.ark:472968
mcdr0_sx434 quick_test/mfcc/raw_mfcc_train.2.ark:1598770
mlbc0_sx159 quick_test/mfcc/raw_mfcc_train.3.ark:2377201
fdml0_sx249 quick_test/mfcc/raw_mfcc_train.1.ark:962202
mjbg0_si1862 quick_test/mfcc/raw_mfcc_train.3.ark:649680
fsdj0_sx35 quick_test/mfcc/raw_mfcc_train.1.ark:3785629
mtmn0_si582 quick_test/mfcc/raw_mfcc_train.4.ark:2951087
mjrg0_sx376 quick_test/mfcc/raw_mfcc_train.3.ark:1509160
msms0_sx443 quick_test/mfcc/raw_mfcc_train.4.ark:2194128
fsbk0_sx349 quick_test/mfcc/raw_mfcc_train.1.ark:3678436
msms0_sx353 quick_test/mfcc/raw_mfcc_train.4.ark:2190234
fdnc0_sx18 quick_test/mfcc/raw_mfcc_train.1.ark:1039873
mjwg0_sx445 quick_test/mfcc/raw_mfcc_train.3.ark:1707837
fjrb0_sx132 quick_test/mfcc/raw_mfcc_train.1.ark:1791477
fpjf0_sx326 quick_test/mfcc/raw_mfcc_train.1.ark:3384267
mkls1_sx15 quick_test/mfcc/raw_mfcc_train.3.ark:2254011
mdlm0_sx244 quick_test/mfcc/raw_mfcc_train.2.ark:2596634
mgar0_si1694 quick_test/mfcc/raw_mfcc_train.3.ark:4961
falr0_sx65 quick_test/mfcc/raw_mfcc_train.1.ark:128603
mbth0_sx302 quick_test/mfcc/raw_mfcc_train.2.ark:1391138
mhxl0_si1772 quick_test/mfcc/raw_mfcc_train.3.ark:481241
fsrh0_sx311 quick_test/mfcc/raw_mfcc_train.2.ark:363438
mjfr0_sx435 quick_test/mfcc/raw_mfcc_train.3.ark:994545
fklc0_sx355 quick_test/mfcc/raw_mfcc_train.1.ark:2217016
mljh0_sx424 quick_test/mfcc/raw_mfcc_train.3.ark:2497760
mcpm0_si1194 quick_test/mfcc/raw_mfcc_train.2.ark:1771866
mtrc0_si589 quick_test/mfcc/raw_mfcc_train.4.ark:3180837
mmea0_sx308 quick_test/mfcc/raw_mfcc_train.3.ark:2985420
mtas0_si1385 quick_test/mfcc/raw_mfcc_train.4.ark:2377179
mstf0_si852 quick_test/mfcc/raw_mfcc_train.4.ark:2271086
mwem0_sx150 quick_test/mfcc/raw_mfcc_train.4.ark:3590356
mrgm0_sx82 quick_test/mfcc/raw_mfcc_train.4.ark:770920
mrab0_sx324 quick_test/mfcc/raw_mfcc_train.4.ark:203433
mjpm1_sx41 quick_test/mfcc/raw_mfcc_train.3.ark:1443045
mhbs0_sx135 quick_test/mfcc/raw_mfcc_train.3.ark:312583
mdks0_sx166 quick_test/mfcc/raw_mfcc_train.2.ark:2389702
fear0_sx262 quick_test/mfcc/raw_mfcc_train.1.ark:1169102
fdmy0_sx27 quick_test/mfcc/raw_mfcc_train.1.ark:1006516
msvs0_sx398 quick_test/mfcc/raw_mfcc_train.4.ark:2333460
mbef0_sx291 quick_test/mfcc/raw_mfcc_train.2.ark:1151333
feac0_si1245 quick_test/mfcc/raw_mfcc_train.1.ark:1120838
mrms0_sx120 quick_test/mfcc/raw_mfcc_train.4.ark:1354957
fetb0_sx248 quick_test/mfcc/raw_mfcc_train.1.ark:1310549
mpgr0_sx240 quick_test/mfcc/raw_mfcc_train.3.ark:3640312
mvjh0_si1556 quick_test/mfcc/raw_mfcc_train.4.ark:3334775
mfxv0_si1635 quick_test/mfcc/raw_mfcc_train.2.ark:3564144
fkdw0_si1207 quick_test/mfcc/raw_mfcc_train.1.ark:2089253
madd0_sx268 quick_test/mfcc/raw_mfcc_train.2.ark:738268
mjrp0_si585 quick_test/mfcc/raw_mfcc_train.3.ark:1614629
mdlb0_sx46 quick_test/mfcc/raw_mfcc_train.2.ark:2448572
msds0_sx87 quick_test/mfcc/raw_mfcc_train.4.ark:1918468
msdb0_sx17 quick_test/mfcc/raw_mfcc_train.4.ark:1840293
mchl0_sx267 quick_test/mfcc/raw_mfcc_train.2.ark:1694478
mhbs0_si945 quick_test/mfcc/raw_mfcc_train.3.ark:306960
mjfh0_si477 quick_test/mfcc/raw_mfcc_train.3.ark:949623
mrem0_sx421 quick_test/mfcc/raw_mfcc_train.4.ark:631897
mrlj1_sx321 quick_test/mfcc/raw_mfcc_train.4.ark:1132737
flkm0_si686 quick_test/mfcc/raw_mfcc_train.1.ark:2603418
mrlj0_sx430 quick_test/mfcc/raw_mfcc_train.4.ark:1109533
mjai0_sx434 quick_test/mfcc/raw_mfcc_train.3.ark:636663
mtjg0_sx350 quick_test/mfcc/raw_mfcc_train.4.ark:2660993
mges0_sx311 quick_test/mfcc/raw_mfcc_train.3.ark:77345
fpaf0_si1054 quick_test/mfcc/raw_mfcc_train.1.ark:3297510
fcmm0_si1083 quick_test/mfcc/raw_mfcc_train.1.ark:688583
mrso0_sx129 quick_test/mfcc/raw_mfcc_train.4.ark:1452447
flac0_sx91 quick_test/mfcc/raw_mfcc_train.1.ark:2351756
fpab1_si1471 quick_test/mfcc/raw_mfcc_train.1.ark:3189894
marc0_sx378 quick_test/mfcc/raw_mfcc_train.2.ark:1000554
mbef0_sx111 quick_test/mfcc/raw_mfcc_train.2.ark:1143084
marw0_si1906 quick_test/mfcc/raw_mfcc_train.2.ark:1007941
feme0_si875 quick_test/mfcc/raw_mfcc_train.1.ark:1266590
mmag0_si1756 quick_test/mfcc/raw_mfcc_train.3.ark:2643805
mljc0_si1855 quick_test/mfcc/raw_mfcc_train.3.ark:2439181
fklh0_si1257 quick_test/mfcc/raw_mfcc_train.1.ark:2260931
fsdc0_si1312 quick_test/mfcc/raw_mfcc_train.1.ark:3733997
msdh0_si2240 quick_test/mfcc/raw_mfcc_train.4.ark:1852368
fecd0_si2048 quick_test/mfcc/raw_mfcc_train.1.ark:1194800
mmxs0_sx66 quick_test/mfcc/raw_mfcc_train.3.ark:3441464
mjdm0_si974 quick_test/mfcc/raw_mfcc_train.3.ark:817302
fscn0_sx356 quick_test/mfcc/raw_mfcc_train.1.ark:3721106
mcre0_sx401 quick_test/mfcc/raw_mfcc_train.2.ark:1824720
mhit0_si983 quick_test/mfcc/raw_mfcc_train.3.ark:335578
fgcs0_sx406 quick_test/mfcc/raw_mfcc_train.1.ark:1387508
mdcm0_sx220 quick_test/mfcc/raw_mfcc_train.2.ark:2138911
mdss1_sx247 quick_test/mfcc/raw_mfcc_train.2.ark:2981014
mfer0_sx412 quick_test/mfcc/raw_mfcc_train.2.ark:3418570
flhd0_sx84 quick_test/mfcc/raw_mfcc_train.1.ark:2481843
mdac0_sx181 quick_test/mfcc/raw_mfcc_train.2.ark:1975718
fcyl0_sx217 quick_test/mfcc/raw_mfcc_train.1.ark:767636
frjb0_sx167 quick_test/mfcc/raw_mfcc_train.1.ark:3501090
mdlr0_sx243 quick_test/mfcc/raw_mfcc_train.2.ark:2625395
fsrh0_si671 quick_test/mfcc/raw_mfcc_train.2.ark:351548
mwdk0_si1436 quick_test/mfcc/raw_mfcc_train.4.ark:3547727
mtjs0_si1192 quick_test/mfcc/raw_mfcc_train.4.ark:2705882
fblv0_si1058 quick_test/mfcc/raw_mfcc_train.1.ark:307452
mwsb0_sx186 quick_test/mfcc/raw_mfcc_train.4.ark:3722482
majp0_sx354 quick_test/mfcc/raw_mfcc_train.2.ark:866815
mrtc0_sx288 quick_test/mfcc/raw_mfcc_train.4.ark:1536197
mkdd0_si937 quick_test/mfcc/raw_mfcc_train.3.ark:2023225
fcrz0_sx253 quick_test/mfcc/raw_mfcc_train.1.ark:735573
mdwh0_sx35 quick_test/mfcc/raw_mfcc_train.2.ark:3083015
fbch0_si956 quick_test/mfcc/raw_mfcc_train.1.ark:244075
fdjh0_sx35 quick_test/mfcc/raw_mfcc_train.1.ark:903508
mwrp0_si2073 quick_test/mfcc/raw_mfcc_train.4.ark:3687268
mrab0_sx414 quick_test/mfcc/raw_mfcc_train.4.ark:208614
mtlc0_sx217 quick_test/mfcc/raw_mfcc_train.4.ark:2894592
mkln0_si2228 quick_test/mfcc/raw_mfcc_train.3.ark:2146750
fbmj0_sx426 quick_test/mfcc/raw_mfcc_train.1.ark:402678
fjlg0_si1889 quick_test/mfcc/raw_mfcc_train.1.ark:1718782
meal0_si2177 quick_test/mfcc/raw_mfcc_train.2.ark:3127126
mrab1_si1478 quick_test/mfcc/raw_mfcc_train.4.ark:217013
mjma0_sx145 quick_test/mfcc/raw_mfcc_train.3.ark:1279998
fklh0_sx447 quick_test/mfcc/raw_mfcc_train.1.ark:2285570
mkdd0_sx217 quick_test/mfcc/raw_mfcc_train.3.ark:2031247
msfv0_sx272 quick_test/mfcc/raw_mfcc_train.4.ark:2051134
mjac0_sx307 quick_test/mfcc/raw_mfcc_train.3.ark:561902
fcyl0_sx127 quick_test/mfcc/raw_mfcc_train.1.ark:764847
fgdp0_si2248 quick_test/mfcc/raw_mfcc_train.1.ark:1397683
mlel0_sx436 quick_test/mfcc/raw_mfcc_train.3.ark:2423663
mtpf0_sx155 quick_test/mfcc/raw_mfcc_train.4.ark:3020420
fdmy0_sx297 quick_test/mfcc/raw_mfcc_train.1.ark:1010735
mrpc1_sx132 quick_test/mfcc/raw_mfcc_train.4.ark:1380040
mwdk0_sx266 quick_test/mfcc/raw_mfcc_train.4.ark:3565514
fmmh0_si1537 quick_test/mfcc/raw_mfcc_train.1.ark:3053468
mdtb0_sx210 quick_test/mfcc/raw_mfcc_train.2.ark:3009996
mrjh0_si914 quick_test/mfcc/raw_mfcc_train.4.ark:891206
fdaw0_sx236 quick_test/mfcc/raw_mfcc_train.1.ark:837353
mtxs0_si1060 quick_test/mfcc/raw_mfcc_train.4.ark:3296796
mgjc0_si1335 quick_test/mfcc/raw_mfcc_train.3.ark:94430
fjxm0_si581 quick_test/mfcc/raw_mfcc_train.1.ark:1957336
mgak0_sx316 quick_test/mfcc/raw_mfcc_train.2.ark:3665853
fsms1_sx244 quick_test/mfcc/raw_mfcc_train.2.ark:294040
mmxs0_si2136 quick_test/mfcc/raw_mfcc_train.3.ark:3413258
fcdr1_si1816 quick_test/mfcc/raw_mfcc_train.1.ark:475758
mtlc0_si1313 quick_test/mfcc/raw_mfcc_train.4.ark:2877039
mtab0_sx402 quick_test/mfcc/raw_mfcc_train.4.ark:2369833
flkm0_sx260 quick_test/mfcc/raw_mfcc_train.1.ark:2609139
mjsr0_si794 quick_test/mfcc/raw_mfcc_train.3.ark:1648018
fsjw0_si703 quick_test/mfcc/raw_mfcc_train.2.ark:60016
mjlb0_sx266 quick_test/mfcc/raw_mfcc_train.3.ark:1188846
mprb0_sx395 quick_test/mfcc/raw_mfcc_train.4.ark:49762
mdlh0_si574 quick_test/mfcc/raw_mfcc_train.2.ark:2551381
mtbc0_sx363 quick_test/mfcc/raw_mfcc_train.4.ark:2496252
mvrw0_si855 quick_test/mfcc/raw_mfcc_train.4.ark:3405325
fkde0_si1771 quick_test/mfcc/raw_mfcc_train.1.ark:2059277
mjpm0_sx198 quick_test/mfcc/raw_mfcc_train.3.ark:1403038
mtat1_sx419 quick_test/mfcc/raw_mfcc_train.4.ark:2464111
mprd0_sx261 quick_test/mfcc/raw_mfcc_train.4.ark:74928
mcdc0_sx302 quick_test/mfcc/raw_mfcc_train.2.ark:1529229
mcss0_sx30 quick_test/mfcc/raw_mfcc_train.2.ark:1857138
mrfk0_sx266 quick_test/mfcc/raw_mfcc_train.4.ark:685714
mdlb0_si1936 quick_test/mfcc/raw_mfcc_train.2.ark:2421205
mrhl0_sx75 quick_test/mfcc/raw_mfcc_train.4.ark:837657
fpad0_sx86 quick_test/mfcc/raw_mfcc_train.1.ark:3294343
fskc0_si1416 quick_test/mfcc/raw_mfcc_train.2.ark:83822
mwsh0_si796 quick_test/mfcc/raw_mfcc_train.4.ark:3747789
fskp0_sx108 quick_test/mfcc/raw_mfcc_train.2.ark:158669
mjeb0_si656 quick_test/mfcc/raw_mfcc_train.3.ark:852186
mdlr0_sx63 quick_test/mfcc/raw_mfcc_train.2.ark:2639897
fcag0_si1503 quick_test/mfcc/raw_mfcc_train.1.ark:410713
mkls0_sx267 quick_test/mfcc/raw_mfcc_train.3.ark:2220090
mcdc0_si1292 quick_test/mfcc/raw_mfcc_train.2.ark:1510109
mwad0_sx252 quick_test/mfcc/raw_mfcc_train.4.ark:3476525
fdfb0_sx58 quick_test/mfcc/raw_mfcc_train.1.ark:875820
mjac0_sx71 quick_test/mfcc/raw_mfcc_train.3.ark:573180
mreh1_si1599 quick_test/mfcc/raw_mfcc_train.4.ark:569931
fpab1_sx211 quick_test/mfcc/raw_mfcc_train.1.ark:3211971
mkdt0_si814 quick_test/mfcc/raw_mfcc_train.3.ark:2047272
mrkm0_sx97 quick_test/mfcc/raw_mfcc_train.4.ark:1054773
mkxl0_sx15 quick_test/mfcc/raw_mfcc_train.3.ark:2350383
mbma1_si2214 quick_test/mfcc/raw_mfcc_train.2.ark:1254734
mjac0_si701 quick_test/mfcc/raw_mfcc_train.3.ark:550422
fdkn0_sx181 quick_test/mfcc/raw_mfcc_train.1.ark:924216
fcag0_sx423 quick_test/mfcc/raw_mfcc_train.1.ark:431921
mjxl0_si1172 quick_test/mfcc/raw_mfcc_train.3.ark:1815961
mrtj0_sx52 quick_test/mfcc/raw_mfcc_train.4.ark:1580708
fsls0_sx246 quick_test/mfcc/raw_mfcc_train.2.ark:197403
mree0_sx204 quick_test/mfcc/raw_mfcc_train.4.ark:556838
mstf0_sx406 quick_test/mfcc/raw_mfcc_train.4.ark:2290042
mmpm0_sx161 quick_test/mfcc/raw_mfcc_train.3.ark:3184875
mjde0_si463 quick_test/mfcc/raw_mfcc_train.3.ark:742196
mjwt0_si1381 quick_test/mfcc/raw_mfcc_train.3.ark:1755665
mhjb0_sx297 quick_test/mfcc/raw_mfcc_train.3.ark:381384
fceg0_sx258 quick_test/mfcc/raw_mfcc_train.1.ark:522207
mhrm0_sx328 quick_test/mfcc/raw_mfcc_train.3.ark:467583
mnet0_sx186 quick_test/mfcc/raw_mfcc_train.3.ark:3455924
mrjb1_sx210 quick_test/mfcc/raw_mfcc_train.4.ark:863981
mabc0_si781 quick_test/mfcc/raw_mfcc_train.2.ark:665964
mgxp0_sx7 quick_test/mfcc/raw_mfcc_train.3.ark:291864
mmaa0_sx35 quick_test/mfcc/raw_mfcc_train.3.ark:2597601
mrso0_si2289 quick_test/mfcc/raw_mfcc_train.4.ark:1448553
flmk0_sx225 quick_test/mfcc/raw_mfcc_train.1.ark:2707461
fklc0_si985 quick_test/mfcc/raw_mfcc_train.1.ark:2199354
msfv0_si1892 quick_test/mfcc/raw_mfcc_train.4.ark:2036020
mdlb0_si676 quick_test/mfcc/raw_mfcc_train.2.ark:2425138
mpeb0_si600 quick_test/mfcc/raw_mfcc_train.3.ark:3540106
mmrp0_sx54 quick_test/mfcc/raw_mfcc_train.3.ark:3236581
fbjl0_sx202 quick_test/mfcc/raw_mfcc_train.1.ark:292266
mkah0_sx178 quick_test/mfcc/raw_mfcc_train.3.ark:1895227
mrfl0_si1786 quick_test/mfcc/raw_mfcc_train.4.ark:705055
mdss1_si1327 quick_test/mfcc/raw_mfcc_train.2.ark:2966477
mtpp0_si1508 quick_test/mfcc/raw_mfcc_train.4.ark:3067949
mgak0_sx46 quick_test/mfcc/raw_mfcc_train.2.ark:3674992
mpmb0_sx61 quick_test/mfcc/raw_mfcc_train.3.ark:3736985
mtxs0_sx250 quick_test/mfcc/raw_mfcc_train.4.ark:3316976
mjbg0_sx152 quick_test/mfcc/raw_mfcc_train.3.ark:653184
fdtd0_si1561 quick_test/mfcc/raw_mfcc_train.1.ark:1057309
mrlr0_sx26 quick_test/mfcc/raw_mfcc_train.4.ark:1197486
meal0_sx107 quick_test/mfcc/raw_mfcc_train.2.ark:3133367
mprb0_si1215 quick_test/mfcc/raw_mfcc_train.4.ark:19314
mjdm0_sx260 quick_test/mfcc/raw_mfcc_train.3.ark:826039
flja0_sx88 quick_test/mfcc/raw_mfcc_train.1.ark:2516715
mdrd0_si1382 quick_test/mfcc/raw_mfcc_train.2.ark:2870951
mchl0_sx357 quick_test/mfcc/raw_mfcc_train.2.ark:1699022
fklc1_si1048 quick_test/mfcc/raw_mfcc_train.1.ark:2228061
mgar0_si1842 quick_test/mfcc/raw_mfcc_train.3.ark:7907
mrmh0_si2281 quick_test/mfcc/raw_mfcc_train.4.ark:1279877
mtpf0_sx245 quick_test/mfcc/raw_mfcc_train.4.ark:3023768
medr0_sx204 quick_test/mfcc/raw_mfcc_train.2.ark:3166959
mjeb1_si2097 quick_test/mfcc/raw_mfcc_train.3.ark:881772
mpeb0_sx240 quick_test/mfcc/raw_mfcc_train.3.ark:3548739
mtcs0_sx172 quick_test/mfcc/raw_mfcc_train.4.ark:2515593
fmjb0_sx7 quick_test/mfcc/raw_mfcc_train.1.ark:2910552
fsrh0_sx131 quick_test/mfcc/raw_mfcc_train.2.ark:355052
mjxl0_sx272 quick_test/mfcc/raw_mfcc_train.3.ark:1831746
fsdj0_si1745 quick_test/mfcc/raw_mfcc_train.1.ark:3769579
mvlo0_si1147 quick_test/mfcc/raw_mfcc_train.4.ark:3365512
mdlm0_sx334 quick_test/mfcc/raw_mfcc_train.2.ark:2599969
mdem0_sx68 quick_test/mfcc/raw_mfcc_train.2.ark:2283342
mmdb0_sx357 quick_test/mfcc/raw_mfcc_train.3.ark:2831748
mprd0_sx81 quick_test/mfcc/raw_mfcc_train.4.ark:87025
mpar0_si1576 quick_test/mfcc/raw_mfcc_train.3.ark:3508158
fcmm0_sx420 quick_test/mfcc/raw_mfcc_train.1.ark:711090
maeo0_sx246 quick_test/mfcc/raw_mfcc_train.2.ark:801264
mzmb0_si1796 quick_test/mfcc/raw_mfcc_train.4.ark:3782237
mgrl0_sx237 quick_test/mfcc/raw_mfcc_train.3.ark:142167
mbma0_sx322 quick_test/mfcc/raw_mfcc_train.2.ark:1240782
fcaj0_sx309 quick_test/mfcc/raw_mfcc_train.1.ark:457191
mrtc0_sx18 quick_test/mfcc/raw_mfcc_train.4.ark:1528617
mtpp0_sx248 quick_test/mfcc/raw_mfcc_train.4.ark:3083006
mgxp0_sx277 quick_test/mfcc/raw_mfcc_train.3.ark:283584
mrsp0_sx439 quick_test/mfcc/raw_mfcc_train.4.ark:1501236
medr0_sx24 quick_test/mfcc/raw_mfcc_train.2.ark:3170007
mhmr0_sx219 quick_test/mfcc/raw_mfcc_train.3.ark:434668
mmgc0_sx45 quick_test/mfcc/raw_mfcc_train.3.ark:3051898
fkdw0_sx307 quick_test/mfcc/raw_mfcc_train.1.ark:2111051
fklc1_sx418 quick_test/mfcc/raw_mfcc_train.1.ark:2250959
mmdm1_sx243 quick_test/mfcc/raw_mfcc_train.3.ark:2923861
mwdk0_sx356 quick_test/mfcc/raw_mfcc_train.4.ark:3568849
mtwh1_sx162 quick_test/mfcc/raw_mfcc_train.4.ark:3279133
mbbr0_si2315 quick_test/mfcc/raw_mfcc_train.2.ark:1079056
mbef0_sx201 quick_test/mfcc/raw_mfcc_train.2.ark:1145938
mejs0_si1870 quick_test/mfcc/raw_mfcc_train.2.ark:3283278
mcpm0_sx204 quick_test/mfcc/raw_mfcc_train.2.ark:1789874
fclt0_si808 quick_test/mfcc/raw_mfcc_train.1.ark:627747
mdef0_si2193 quick_test/mfcc/raw_mfcc_train.2.ark:2228561
msfh0_si1216 quick_test/mfcc/raw_mfcc_train.4.ark:1993159
mtju0_sx40 quick_test/mfcc/raw_mfcc_train.4.ark:2767133
fbjl0_sx112 quick_test/mfcc/raw_mfcc_train.1.ark:288190
mlel0_si1246 quick_test/mfcc/raw_mfcc_train.3.ark:2395046
mvrw0_sx45 quick_test/mfcc/raw_mfcc_train.4.ark:3421635
mhbs0_sx225 quick_test/mfcc/raw_mfcc_train.3.ark:316438
mgrp0_sx417 quick_test/mfcc/raw_mfcc_train.3.ark:185151
mrbc0_si599 quick_test/mfcc/raw_mfcc_train.4.ark:352900
mrre0_sx344 quick_test/mfcc/raw_mfcc_train.4.ark:1424414
fsma0_sx91 quick_test/mfcc/raw_mfcc_train.2.ark:239788
fsgf0_sx207 quick_test/mfcc/raw_mfcc_train.1.ark:3811816
mwac0_sx341 quick_test/mfcc/raw_mfcc_train.4.ark:3450682
mjjb0_sx329 quick_test/mfcc/raw_mfcc_train.3.ark:1057390
fdnc0_sx198 quick_test/mfcc/raw_mfcc_train.1.ark:1044157
flet0_si1767 quick_test/mfcc/raw_mfcc_train.1.ark:2429055
mdrd0_sx392 quick_test/mfcc/raw_mfcc_train.2.ark:2903149
mhbs0_si1575 quick_test/mfcc/raw_mfcc_train.3.ark:299444
mdjm0_sx105 quick_test/mfcc/raw_mfcc_train.2.ark:2363514
fclt0_sx178 quick_test/mfcc/raw_mfcc_train.1.ark:633617
fdkn0_si1711 quick_test/mfcc/raw_mfcc_train.1.ark:921362
mrhl0_sx435 quick_test/mfcc/raw_mfcc_train.4.ark:833010
mdps0_sx449 quick_test/mfcc/raw_mfcc_train.2.ark:2863293
fbch0_si959 quick_test/mfcc/raw_mfcc_train.1.ark:247995
fvfb0_sx222 quick_test/mfcc/raw_mfcc_train.2.ark:582594
mwem0_sx330 quick_test/mfcc/raw_mfcc_train.4.ark:3598495
mded0_sx270 quick_test/mfcc/raw_mfcc_train.2.ark:2202478
mjsr0_sx74 quick_test/mfcc/raw_mfcc_train.3.ark:1672024
ftaj0_sx69 quick_test/mfcc/raw_mfcc_train.2.ark:434935
fjkl0_si2192 quick_test/mfcc/raw_mfcc_train.1.ark:1687525
mkln0_si968 quick_test/mfcc/raw_mfcc_train.3.ark:2149838
mhmg0_sx375 quick_test/mfcc/raw_mfcc_train.3.ark:413051
fskl0_sx89 quick_test/mfcc/raw_mfcc_train.2.ark:142155
mgar0_sx402 quick_test/mfcc/raw_mfcc_train.3.ark:25121
mrew1_sx240 quick_test/mfcc/raw_mfcc_train.4.ark:652688
fmjb0_sx277 quick_test/mfcc/raw_mfcc_train.1.ark:2902922
msdh0_sx80 quick_test/mfcc/raw_mfcc_train.4.ark:1880372
mjee0_si1237 quick_test/mfcc/raw_mfcc_train.3.ark:910564
fblv0_sx68 quick_test/mfcc/raw_mfcc_train.1.ark:338884
mdss1_sx67 quick_test/mfcc/raw_mfcc_train.2.ark:2991863
mdac0_sx271 quick_test/mfcc/raw_mfcc_train.2.ark:1980990
msah1_sx419 quick_test/mfcc/raw_mfcc_train.4.ark:1727784
mmxs0_sx156 quick_test/mfcc/raw_mfcc_train.3.ark:3424719
fkdw0_si577 quick_test/mfcc/raw_mfcc_train.1.ark:2102164
mrlj1_sx231 quick_test/mfcc/raw_mfcc_train.4.ark:1131131
mmam0_si2227 quick_test/mfcc/raw_mfcc_train.3.ark:2683962
mgsh0_sx186 quick_test/mfcc/raw_mfcc_train.3.ark:212650
fcyl0_sx397 quick_test/mfcc/raw_mfcc_train.1.ark:779681
mejs0_si1240 quick_test/mfcc/raw_mfcc_train.2.ark:3277602
mdem0_sx158 quick_test/mfcc/raw_mfcc_train.2.ark:2264361
mtat0_sx210 quick_test/mfcc/raw_mfcc_train.4.ark:2422895
msvs0_si2198 quick_test/mfcc/raw_mfcc_train.4.ark:2302349
mbar0_si1319 quick_test/mfcc/raw_mfcc_train.2.ark:1038033
mjeb1_sx207 quick_test/mfcc/raw_mfcc_train.3.ark:896405
mkdb0_sx332 quick_test/mfcc/raw_mfcc_train.3.ark:1998788
mmbs0_sx251 quick_test/mfcc/raw_mfcc_train.3.ark:2762428
mkah0_sx88 quick_test/mfcc/raw_mfcc_train.3.ark:1912323
mmbs0_si521 quick_test/mfcc/raw_mfcc_train.3.ark:2750441
mtml0_sx435 quick_test/mfcc/raw_mfcc_train.4.ark:2931311
fmjf0_sx444 quick_test/mfcc/raw_mfcc_train.1.ark:2942719
fvmh0_si836 quick_test/mfcc/raw_mfcc_train.2.ark:639166
mrso0_sx219 quick_test/mfcc/raw_mfcc_train.4.ark:1456796
mcre0_sx221 quick_test/mfcc/raw_mfcc_train.2.ark:1817232
mprk0_sx377 quick_test/mfcc/raw_mfcc_train.4.ark:125003
ftaj0_si1329 quick_test/mfcc/raw_mfcc_train.2.ark:412774
mgjc0_sx75 quick_test/mfcc/raw_mfcc_train.3.ark:122747
mrds0_sx267 quick_test/mfcc/raw_mfcc_train.4.ark:522876
fpac0_sx211 quick_test/mfcc/raw_mfcc_train.1.ark:3247323
fpls0_sx3 quick_test/mfcc/raw_mfcc_train.1.ark:3416393
mbma1_sx324 quick_test/mfcc/raw_mfcc_train.2.ark:1271948
mrdd0_sx240 quick_test/mfcc/raw_mfcc_train.4.ark:461207
mdlm0_sx154 quick_test/mfcc/raw_mfcc_train.2.ark:2593741
mjda0_sx401 quick_test/mfcc/raw_mfcc_train.3.ark:695708
mvlo0_sx337 quick_test/mfcc/raw_mfcc_train.4.ark:3386257
mjfr0_sx345 quick_test/mfcc/raw_mfcc_train.3.ark:989611
ftmg0_sx182 quick_test/mfcc/raw_mfcc_train.2.ark:548573
mjrh0_sx45 quick_test/mfcc/raw_mfcc_train.3.ark:1541510
mmar0_sx346 quick_test/mfcc/raw_mfcc_train.3.ark:2730255
fsak0_si1930 quick_test/mfcc/raw_mfcc_train.1.ark:3633851
mntw0_sx258 quick_test/mfcc/raw_mfcc_train.3.ark:3495046
mbgt0_si711 quick_test/mfcc/raw_mfcc_train.2.ark:1165442
mpmb0_sx241 quick_test/mfcc/raw_mfcc_train.3.ark:3718934
mtjs0_sx382 quick_test/mfcc/raw_mfcc_train.4.ark:2738483
mbma0_sx142 quick_test/mfcc/raw_mfcc_train.2.ark:1231915
fjen0_sx237 quick_test/mfcc/raw_mfcc_train.1.ark:1633845
flkm0_sx350 quick_test/mfcc/raw_mfcc_train.1.ark:2613904
fdtd0_sx391 quick_test/mfcc/raw_mfcc_train.1.ark:1089170
fnkl0_sx196 quick_test/mfcc/raw_mfcc_train.1.ark:3144908
mmws0_sx438 quick_test/mfcc/raw_mfcc_train.3.ark:3379075
mbsb0_si1353 quick_test/mfcc/raw_mfcc_train.2.ark:1344118
mjkr0_si1831 quick_test/mfcc/raw_mfcc_train.3.ark:1144204
fklc0_sx175 quick_test/mfcc/raw_mfcc_train.1.ark:2206082
mtrc0_si1623 quick_test/mfcc/raw_mfcc_train.4.ark:3177931
msah1_sx329 quick_test/mfcc/raw_mfcc_train.4.ark:1723266
msas0_sx206 quick_test/mfcc/raw_mfcc_train.4.ark:1754672
mjjm0_si1457 quick_test/mfcc/raw_mfcc_train.3.ark:1112583
fmbg0_si1790 quick_test/mfcc/raw_mfcc_train.1.ark:2823032
fsjs0_sx91 quick_test/mfcc/raw_mfcc_train.2.ark:45199
mhit0_si1613 quick_test/mfcc/raw_mfcc_train.3.ark:328868
mtdp0_si1274 quick_test/mfcc/raw_mfcc_train.4.ark:2569024
mclk0_si650 quick_test/mfcc/raw_mfcc_train.2.ark:1717661
mljh0_si1324 quick_test/mfcc/raw_mfcc_train.3.ark:2464398
mrem0_sx241 quick_test/mfcc/raw_mfcc_train.4.ark:624460
fsms1_si2134 quick_test/mfcc/raw_mfcc_train.2.ark:282176
mdlr0_si603 quick_test/mfcc/raw_mfcc_train.2.ark:2617568
mpeb0_si1860 quick_test/mfcc/raw_mfcc_train.3.ark:3537837
fjrp1_si802 quick_test/mfcc/raw_mfcc_train.1.ark:1824755
fskc0_sx156 quick_test/mfcc/raw_mfcc_train.2.ark:94179
fjwb1_sx165 quick_test/mfcc/raw_mfcc_train.1.ark:1932638
mtrc0_si993 quick_test/mfcc/raw_mfcc_train.4.ark:3186278
mjde0_si1120 quick_test/mfcc/raw_mfcc_train.3.ark:733960
fcmg0_si1872 quick_test/mfcc/raw_mfcc_train.1.ark:663906
mtdb0_sx51 quick_test/mfcc/raw_mfcc_train.4.ark:2565532
mewm0_si718 quick_test/mfcc/raw_mfcc_train.2.ark:3374792
mdks0_sx436 quick_test/mfcc/raw_mfcc_train.2.ark:2405154
fdxw0_sx251 quick_test/mfcc/raw_mfcc_train.1.ark:1106705
mdwm0_sx16 quick_test/mfcc/raw_mfcc_train.2.ark:3108421
mmab1_sx324 quick_test/mfcc/raw_mfcc_train.3.ark:2624666
mvrw0_sx405 quick_test/mfcc/raw_mfcc_train.4.ark:3418652
mvrw0_sx135 quick_test/mfcc/raw_mfcc_train.4.ark:3409544
