fklc1_sx148 quick_test/data-fmllr-tri3/train/data/feats_fmllr_train.2.ark:7841024
mjxl0_sx182 quick_test/data-fmllr-tri3/train/data/feats_fmllr_train.7.ark:3759968
fsjg0_sx40 quick_test/data-fmllr-tri3/train/data/feats_fmllr_train.3.ark:8690971
fjrb0_sx312 quick_test/data-fmllr-tri3/train/data/feats_fmllr_train.2.ark:2591535
majp0_si2334 quick_test/data-fmllr-tri3/train/data/feats_fmllr_train.4.ark:1167921
mprt0_si1210 quick_test/data-fmllr-tri3/train/data/feats_fmllr_train.8.ark:10284855
mrcg0_sx168 quick_test/data-fmllr-tri3/train/data/feats_fmllr_train.8.ark:13407314
mbth0_sx392 quick_test/data-fmllr-tri3/train/data/feats_fmllr_train.4.ark:7656704
fjsp0_sx174 quick_test/data-fmllr-tri3/train/data/feats_fmllr_train.2.ark:3787973
flmk0_sx135 quick_test/data-fmllr-tri3/train/data/feats_fmllr_train.2.ark:13358145
mtkp0_si2283 quick_test/data-fmllr-tri3/train/data/feats_fmllr_train.10.ark:6139936
mgag0_sx241 quick_test/data-fmllr-tri3/train/data/feats_fmllr_train.5.ark:16771430
fcag0_sx423 quick_test/data-fmllr-tri3/train/data/feats_fmllr_train.1.ark:5146457
mkes0_si1883 quick_test/data-fmllr-tri3/train/data/feats_fmllr_train.7.ark:6777168
mwch0_sx182 quick_test/data-fmllr-tri3/train/data/feats_fmllr_train.10.ark:14657248
fdxw0_sx71 quick_test/data-fmllr-tri3/train/data/feats_fmllr_train.1.ark:13310566
mjmd0_si1028 quick_test/data-fmllr-tri3/train/data/feats_fmllr_train.6.ark:15419409
mrms0_si2100 quick_test/data-fmllr-tri3/train/data/feats_fmllr_train.9.ark:6872078
mjrh0_sx225 quick_test/data-fmllr-tri3/train/data/feats_fmllr_train.7.ark:217563
mprk0_sx377 quick_test/data-fmllr-tri3/train/data/feats_fmllr_train.8.ark:10230107
mjpg0_si1821 quick_test/data-fmllr-tri3/train/data/feats_fmllr_train.6.ark:16147392
mdwd0_si1260 quick_test/data-fmllr-tri3/train/data/feats_fmllr_train.5.ark:9577441
mrml0_si2051 quick_test/data-fmllr-tri3/train/data/feats_fmllr_train.9.ark:6342393
fmjb0_sx367 quick_test/data-fmllr-tri3/train/data/feats_fmllr_train.2.ark:15778703
mrdm0_si965 quick_test/data-fmllr-tri3/train/data/feats_fmllr_train.8.ark:14517059
mkls1_sx195 quick_test/data-fmllr-tri3/train/data/feats_fmllr_train.7.ark:8868442
mefg0_si465 quick_test/data-fmllr-tri3/train/data/feats_fmllr_train.5.ark:11417726
mrab0_sx234 quick_test/data-fmllr-tri3/train/data/feats_fmllr_train.8.ark:11114837
mtcs0_si1972 quick_test/data-fmllr-tri3/train/data/feats_fmllr_train.10.ark:2446435
mppc0_sx332 quick_test/data-fmllr-tri3/train/data/feats_fmllr_train.8.ark:8783643
fdaw0_sx146 quick_test/data-fmllr-tri3/train/data/feats_fmllr_train.1.ark:9925199
mkaj0_sx64 quick_test/data-fmllr-tri3/train/data/feats_fmllr_train.7.ark:5106485
mclk0_si1660 quick_test/data-fmllr-tri3/train/data/feats_fmllr_train.4.ark:11365724
msat0_sx356 quick_test/data-fmllr-tri3/train/data/feats_fmllr_train.9.ark:12043302
mdwh0_si1168 quick_test/data-fmllr-tri3/train/data/feats_fmllr_train.5.ark:9933178
mtab0_sx42 quick_test/data-fmllr-tri3/train/data/feats_fmllr_train.10.ark:901379
meal0_si917 quick_test/data-fmllr-tri3/train/data/feats_fmllr_train.5.ark:10850627
mrms0_si2057 quick_test/data-fmllr-tri3/train/data/feats_fmllr_train.9.ark:6802770
fapb0_sx73 quick_test/data-fmllr-tri3/train/data/feats_fmllr_train.1.ark:1997226
mjrg0_si1366 quick_test/data-fmllr-tri3/train/data/feats_fmllr_train.6.ark:17606152
mfrm0_sx345 quick_test/data-fmllr-tri3/train/data/feats_fmllr_train.5.ark:14988611
mdlr0_si603 quick_test/data-fmllr-tri3/train/data/feats_fmllr_train.5.ark:4750513
ftbw0_sx355 quick_test/data-fmllr-tri3/train/data/feats_fmllr_train.3.ark:14854098
mrlj0_si790 quick_test/data-fmllr-tri3/train/data/feats_fmllr_train.9.ark:3794658
mjhi0_sx248 quick_test/data-fmllr-tri3/train/data/feats_fmllr_train.6.ark:12147483
mcef0_si1135 quick_test/data-fmllr-tri3/train/data/feats_fmllr_train.4.ark:10123952
mtab0_si2202 quick_test/data-fmllr-tri3/train/data/feats_fmllr_train.10.ark:567618
mrjm1_sx308 quick_test/data-fmllr-tri3/train/data/feats_fmllr_train.9.ark:2338993
fklc1_sx58 quick_test/data-fmllr-tri3/train/data/feats_fmllr_train.2.ark:8037291
fkde0_sx241 quick_test/data-fmllr-tri3/train/data/feats_fmllr_train.2.ark:5851325
fklh0_sx87 quick_test/data-fmllr-tri3/train/data/feats_fmllr_train.2.ark:8437028
mesj0_sx277 quick_test/data-fmllr-tri3/train/data/feats_fmllr_train.5.ark:13550757
mlns0_si1407 quick_test/data-fmllr-tri3/train/data/feats_fmllr_train.7.ark:11832284
fdml0_si1779 quick_test/data-fmllr-tri3/train/data/feats_fmllr_train.1.ark:11339295
flmk0_sx45 quick_test/data-fmllr-tri3/train/data/feats_fmllr_train.2.ark:13539852
mhxl0_si612 quick_test/data-fmllr-tri3/train/data/feats_fmllr_train.6.ark:5812439
mtxs0_si1690 quick_test/data-fmllr-tri3/train/data/feats_fmllr_train.10.ark:11959031
mtqc0_sx271 quick_test/data-fmllr-tri3/train/data/feats_fmllr_train.10.ark:10227148
mjjj0_sx353 quick_test/data-fmllr-tri3/train/data/feats_fmllr_train.6.ark:13027145
madd0_si1798 quick_test/data-fmllr-tri3/train/data/feats_fmllr_train.3.ark:17620686
fleh0_sx421 quick_test/data-fmllr-tri3/train/data/feats_fmllr_train.2.ark:9949231
mvlo0_sx157 quick_test/data-fmllr-tri3/train/data/feats_fmllr_train.10.ark:12856320
flmc0_sx22 quick_test/data-fmllr-tri3/train/data/feats_fmllr_train.2.ark:13002593
mrfl0_sx256 quick_test/data-fmllr-tri3/train/data/feats_fmllr_train.8.ark:17293513
mjac0_sx341 quick_test/data-fmllr-tri3/train/data/feats_fmllr_train.6.ark:6715191
mhxl0_sx152 quick_test/data-fmllr-tri3/train/data/feats_fmllr_train.6.ark:5853906
mrkm0_sx97 quick_test/data-fmllr-tri3/train/data/feats_fmllr_train.9.ark:3340918
fcyl0_sx397 quick_test/data-fmllr-tri3/train/data/feats_fmllr_train.1.ark:9278791
mmdg0_si1780 quick_test/data-fmllr-tri3/train/data/feats_fmllr_train.7.ark:15817815
mdwm0_sx106 quick_test/data-fmllr-tri3/train/data/feats_fmllr_train.5.ark:10549157
fsmm0_sx144 quick_test/data-fmllr-tri3/train/data/feats_fmllr_train.3.ark:12030125
fcag0_si2133 quick_test/data-fmllr-tri3/train/data/feats_fmllr_train.1.ark:4955309
fajw0_si1893 quick_test/data-fmllr-tri3/train/data/feats_fmllr_train.1.ark:469858
mrdm0_sx335 quick_test/data-fmllr-tri3/train/data/feats_fmllr_train.8.ark:14653940
mdlb0_si676 quick_test/data-fmllr-tri3/train/data/feats_fmllr_train.5.ark:2461851
mgxp0_sx187 quick_test/data-fmllr-tri3/train/data/feats_fmllr_train.6.ark:3339749
msdh0_sx170 quick_test/data-fmllr-tri3/train/data/feats_fmllr_train.9.ark:12916221
mcxm0_sx181 quick_test/data-fmllr-tri3/train/data/feats_fmllr_train.4.ark:14128444
fetb0_si1778 quick_test/data-fmllr-tri3/train/data/feats_fmllr_train.1.ark:15457787
fmah1_si1509 quick_test/data-fmllr-tri3/train/data/feats_fmllr_train.2.ark:14337436
mtpp0_si1508 quick_test/data-fmllr-tri3/train/data/feats_fmllr_train.10.ark:9160205
mmrp0_sx54 quick_test/data-fmllr-tri3/train/data/feats_fmllr_train.8.ark:2506466
mmab1_si1494 quick_test/data-fmllr-tri3/train/data/feats_fmllr_train.7.ark:13001095
mmdm1_sx333 quick_test/data-fmllr-tri3/train/data/feats_fmllr_train.7.ark:16848465
mgaf0_sx22 quick_test/data-fmllr-tri3/train/data/feats_fmllr_train.5.ark:16453320
fvfb0_sx132 quick_test/data-fmllr-tri3/train/data/feats_fmllr_train.3.ark:15891335
ftaj0_si699 quick_test/data-fmllr-tri3/train/data/feats_fmllr_train.3.ark:13980303
mkes0_sx173 quick_test/data-fmllr-tri3/train/data/feats_fmllr_train.7.ark:6904582
fsmm0_si1944 quick_test/data-fmllr-tri3/train/data/feats_fmllr_train.3.ark:11939351
mmrp0_sx144 quick_test/data-fmllr-tri3/train/data/feats_fmllr_train.8.ark:2272599
flag0_sx384 quick_test/data-fmllr-tri3/train/data/feats_fmllr_train.2.ark:9613519
mklw0_sx41 quick_test/data-fmllr-tri3/train/data/feats_fmllr_train.7.ark:9338154
mtxs0_sx70 quick_test/data-fmllr-tri3/train/data/feats_fmllr_train.10.ark:12309913
mcal0_sx418 quick_test/data-fmllr-tri3/train/data/feats_fmllr_train.4.ark:8864367
ftlg0_sx303 quick_test/data-fmllr-tri3/train/data/feats_fmllr_train.3.ark:15263434
mjpm1_si2280 quick_test/data-fmllr-tri3/train/data/feats_fmllr_train.6.ark:16863986
fgrw0_sx72 quick_test/data-fmllr-tri3/train/data/feats_fmllr_train.1.ark:17921435
mlns0_sx237 quick_test/data-fmllr-tri3/train/data/feats_fmllr_train.7.ark:12005993
mjai0_si682 quick_test/data-fmllr-tri3/train/data/feats_fmllr_train.6.ark:7310877
mded0_sx450 quick_test/data-fmllr-tri3/train/data/feats_fmllr_train.4.ark:17313459
fmem0_si747 quick_test/data-fmllr-tri3/train/data/feats_fmllr_train.2.ark:15209124
msrr0_sx231 quick_test/data-fmllr-tri3/train/data/feats_fmllr_train.9.ark:17581676
mjbg0_sx152 quick_test/data-fmllr-tri3/train/data/feats_fmllr_train.6.ark:7768429
milb0_sx363 quick_test/data-fmllr-tri3/train/data/feats_fmllr_train.6.ark:6395801
fecd0_si2048 quick_test/data-fmllr-tri3/train/data/feats_fmllr_train.1.ark:14225136
mesj0_sx97 quick_test/data-fmllr-tri3/train/data/feats_fmllr_train.5.ark:13660275
mjac0_si701 quick_test/data-fmllr-tri3/train/data/feats_fmllr_train.6.ark:6545190
fklh0_si627 quick_test/data-fmllr-tri3/train/data/feats_fmllr_train.2.ark:8205534
flkm0_sx80 quick_test/data-fmllr-tri3/train/data/feats_fmllr_train.2.ark:12444320
fkkh0_sx300 quick_test/data-fmllr-tri3/train/data/feats_fmllr_train.2.ark:7215549
mjdm0_si1340 quick_test/data-fmllr-tri3/train/data/feats_fmllr_train.6.ark:9616153
mfer0_si1492 quick_test/data-fmllr-tri3/train/data/feats_fmllr_train.5.ark:14027720
mtat1_sx329 quick_test/data-fmllr-tri3/train/data/feats_fmllr_train.10.ark:1900377
msrg0_sx51 quick_test/data-fmllr-tri3/train/data/feats_fmllr_train.9.ark:17305059
fjlg0_sx359 quick_test/data-fmllr-tri3/train/data/feats_fmllr_train.2.ark:1832541
mree0_sx384 quick_test/data-fmllr-tri3/train/data/feats_fmllr_train.8.ark:15484188
mpeb0_sx330 quick_test/data-fmllr-tri3/train/data/feats_fmllr_train.8.ark:6262501
mtrc0_sx363 quick_test/data-fmllr-tri3/train/data/feats_fmllr_train.10.ark:10734298
mrfl0_si1786 quick_test/data-fmllr-tri3/train/data/feats_fmllr_train.8.ark:17126712
mmdb0_sx357 quick_test/data-fmllr-tri3/train/data/feats_fmllr_train.7.ark:15705254
mrvg0_si1140 quick_test/data-fmllr-tri3/train/data/feats_fmllr_train.9.ark:9665703
fjxm0_sx41 quick_test/data-fmllr-tri3/train/data/feats_fmllr_train.2.ark:4761313
fhlm0_sx349 quick_test/data-fmllr-tri3/train/data/feats_fmllr_train.1.ark:18235386
mpgr1_sx329 quick_test/data-fmllr-tri3/train/data/feats_fmllr_train.8.ark:7745289
mrsp0_sx169 quick_test/data-fmllr-tri3/train/data/feats_fmllr_train.9.ark:8523374
mtcs0_si2265 quick_test/data-fmllr-tri3/train/data/feats_fmllr_train.10.ark:2471903
medr0_sx294 quick_test/data-fmllr-tri3/train/data/feats_fmllr_train.5.ark:11355112
fltm0_si1070 quick_test/data-fmllr-tri3/train/data/feats_fmllr_train.2.ark:13933538
mzmb0_sx86 quick_test/data-fmllr-tri3/train/data/feats_fmllr_train.10.ark:17940210
mpmb0_si1501 quick_test/data-fmllr-tri3/train/data/feats_fmllr_train.8.ark:7881690
mjdg0_si1042 quick_test/data-fmllr-tri3/train/data/feats_fmllr_train.6.ark:9246815
mkdd0_sx37 quick_test/data-fmllr-tri3/train/data/feats_fmllr_train.7.ark:6230309
mfxs0_si2304 quick_test/data-fmllr-tri3/train/data/feats_fmllr_train.5.ark:15562565
mcae0_sx97 quick_test/data-fmllr-tri3/train/data/feats_fmllr_train.4.ark:8563216
mmcc0_sx78 quick_test/data-fmllr-tri3/train/data/feats_fmllr_train.7.ark:15445890
mbma0_sx322 quick_test/data-fmllr-tri3/train/data/feats_fmllr_train.4.ark:5782927
mmds0_si1973 quick_test/data-fmllr-tri3/train/data/feats_fmllr_train.7.ark:17077214
mzmb0_si1166 quick_test/data-fmllr-tri3/train/data/feats_fmllr_train.10.ark:17595701
fljg0_si2241 quick_test/data-fmllr-tri3/train/data/feats_fmllr_train.2.ark:11638023
fdas1_sx111 quick_test/data-fmllr-tri3/train/data/feats_fmllr_train.1.ark:9523061
fhlm0_sx120 quick_test/data-fmllr-tri3/train/data/feats_fmllr_train.1.ark:18077065
fmkc0_si1041 quick_test/data-fmllr-tri3/train/data/feats_fmllr_train.2.ark:16733616
fskc0_sx246 quick_test/data-fmllr-tri3/train/data/feats_fmllr_train.3.ark:10161386
mwad0_sx162 quick_test/data-fmllr-tri3/train/data/feats_fmllr_train.10.ark:13985292
mhjb0_si1017 quick_test/data-fmllr-tri3/train/data/feats_fmllr_train.6.ark:4299836
mrjm0_sx238 quick_test/data-fmllr-tri3/train/data/feats_fmllr_train.9.ark:1888829
mpmb0_si2131 quick_test/data-fmllr-tri3/train/data/feats_fmllr_train.8.ark:7992278
mjrh0_sx405 quick_test/data-fmllr-tri3/train/data/feats_fmllr_train.7.ark:297137
fcke0_si1741 quick_test/data-fmllr-tri3/train/data/feats_fmllr_train.1.ark:7077864
mjae0_sx354 quick_test/data-fmllr-tri3/train/data/feats_fmllr_train.6.ark:7090449
fklc1_si1048 quick_test/data-fmllr-tri3/train/data/feats_fmllr_train.2.ark:7709261
msmr0_si1405 quick_test/data-fmllr-tri3/train/data/feats_fmllr_train.9.ark:16303664
mhxl0_si1772 quick_test/data-fmllr-tri3/train/data/feats_fmllr_train.6.ark:5723585
fcyl0_sx37 quick_test/data-fmllr-tri3/train/data/feats_fmllr_train.1.ark:9236844
mtxs0_sx340 quick_test/data-fmllr-tri3/train/data/feats_fmllr_train.10.ark:12178020
fjrp1_sx352 quick_test/data-fmllr-tri3/train/data/feats_fmllr_train.2.ark:3065192
mfrm0_sx165 quick_test/data-fmllr-tri3/train/data/feats_fmllr_train.5.ark:14903277
fjxm0_sx131 quick_test/data-fmllr-tri3/train/data/feats_fmllr_train.2.ark:4539286
flet0_sx417 quick_test/data-fmllr-tri3/train/data/feats_fmllr_train.2.ark:10331208
mgxp0_si525 quick_test/data-fmllr-tri3/train/data/feats_fmllr_train.6.ark:3266282
mrjh0_si889 quick_test/data-fmllr-tri3/train/data/feats_fmllr_train.9.ark:1312850
feme0_si1505 quick_test/data-fmllr-tri3/train/data/feats_fmllr_train.1.ark:14992742
msfv0_sx92 quick_test/data-fmllr-tri3/train/data/feats_fmllr_train.9.ark:15360775
fdmy0_sx27 quick_test/data-fmllr-tri3/train/data/feats_fmllr_train.1.ark:11980899
fmkc0_sx262 quick_test/data-fmllr-tri3/train/data/feats_fmllr_train.2.ark:16927646
mdac0_si1837 quick_test/data-fmllr-tri3/train/data/feats_fmllr_train.4.ark:14408767
fdtd0_si931 quick_test/data-fmllr-tri3/train/data/feats_fmllr_train.1.ark:12689414
mwac0_sx341 quick_test/data-fmllr-tri3/train/data/feats_fmllr_train.10.ark:13716328
fpaz0_sx243 quick_test/data-fmllr-tri3/train/data/feats_fmllr_train.3.ark:2652784
fpaf0_sx424 quick_test/data-fmllr-tri3/train/data/feats_fmllr_train.3.ark:2336941
mdpb0_sx146 quick_test/data-fmllr-tri3/train/data/feats_fmllr_train.5.ark:6857066
fssb0_sx182 quick_test/data-fmllr-tri3/train/data/feats_fmllr_train.3.ark:13643314
fsah0_sx74 quick_test/data-fmllr-tri3/train/data/feats_fmllr_train.3.ark:5914918
mdwm0_si2176 quick_test/data-fmllr-tri3/train/data/feats_fmllr_train.5.ark:10437103
mhit0_si983 quick_test/data-fmllr-tri3/train/data/feats_fmllr_train.6.ark:3993914
mmds0_sx443 quick_test/data-fmllr-tri3/train/data/feats_fmllr_train.7.ark:17249669
fsls0_si2316 quick_test/data-fmllr-tri3/train/data/feats_fmllr_train.3.ark:11197984
milb0_sx273 quick_test/data-fmllr-tri3/train/data/feats_fmllr_train.6.ark:6330789
mrpc1_sx312 quick_test/data-fmllr-tri3/train/data/feats_fmllr_train.9.ark:7283737
meal0_sx107 quick_test/data-fmllr-tri3/train/data/feats_fmllr_train.5.ark:10884574
mwsh0_si1426 quick_test/data-fmllr-tri3/train/data/feats_fmllr_train.10.ark:17135164
fjen0_sx57 quick_test/data-fmllr-tri3/train/data/feats_fmllr_train.2.ark:812901
fdxw0_sx251 quick_test/data-fmllr-tri3/train/data/feats_fmllr_train.1.ark:13175766
msfh0_si586 quick_test/data-fmllr-tri3/train/data/feats_fmllr_train.9.ark:14648584
mljh0_sx424 quick_test/data-fmllr-tri3/train/data/feats_fmllr_train.7.ark:11725830
mjjb0_sx149 quick_test/data-fmllr-tri3/train/data/feats_fmllr_train.6.ark:12470554
mapv0_sx303 quick_test/data-fmllr-tri3/train/data/feats_fmllr_train.4.ark:2544814
fgcs0_sx406 quick_test/data-fmllr-tri3/train/data/feats_fmllr_train.1.ark:16522197
mhit0_sx173 quick_test/data-fmllr-tri3/train/data/feats_fmllr_train.6.ark:4069301
msfh0_si1738 quick_test/data-fmllr-tri3/train/data/feats_fmllr_train.9.ark:14556237
fvfb0_si2292 quick_test/data-fmllr-tri3/train/data/feats_fmllr_train.3.ark:15863628
mpmb0_si871 quick_test/data-fmllr-tri3/train/data/feats_fmllr_train.8.ark:8082705
mjjb0_sx329 quick_test/data-fmllr-tri3/train/data/feats_fmllr_train.6.ark:12580528
mtju0_sx220 quick_test/data-fmllr-tri3/train/data/feats_fmllr_train.10.ark:5484543
fntb0_si1203 quick_test/data-fmllr-tri3/train/data/feats_fmllr_train.3.ark:378950
fnkl0_sx82 quick_test/data-fmllr-tri3/train/data/feats_fmllr_train.3.ark:328522
mprd0_si2061 quick_test/data-fmllr-tri3/train/data/feats_fmllr_train.8.ark:9443649
mgsl0_si534 quick_test/data-fmllr-tri3/train/data/feats_fmllr_train.6.ark:2773079
ftaj0_sx339 quick_test/data-fmllr-tri3/train/data/feats_fmllr_train.3.ark:14106144
fear0_sx172 quick_test/data-fmllr-tri3/train/data/feats_fmllr_train.1.ark:13866413
mrjh0_sx307 quick_test/data-fmllr-tri3/train/data/feats_fmllr_train.9.ark:1550558
mjxl0_sx272 quick_test/data-fmllr-tri3/train/data/feats_fmllr_train.7.ark:3797755
mjma0_sx235 quick_test/data-fmllr-tri3/train/data/feats_fmllr_train.6.ark:15268101
mrab1_si2108 quick_test/data-fmllr-tri3/train/data/feats_fmllr_train.8.ark:11368893
fcjf0_si1027 quick_test/data-fmllr-tri3/train/data/feats_fmllr_train.1.ark:6398842
mcdc0_sx392 quick_test/data-fmllr-tri3/train/data/feats_fmllr_train.4.ark:9299810
mdma0_sx80 quick_test/data-fmllr-tri3/train/data/feats_fmllr_train.5.ark:5889962
mmgg0_si2339 quick_test/data-fmllr-tri3/train/data/feats_fmllr_train.8.ark:461407
mfxs0_sx324 quick_test/data-fmllr-tri3/train/data/feats_fmllr_train.5.ark:15696566
fsma0_si991 quick_test/data-fmllr-tri3/train/data/feats_fmllr_train.3.ark:11561401
mrem0_sx331 quick_test/data-fmllr-tri3/train/data/feats_fmllr_train.8.ark:16207608
mmag0_sx46 quick_test/data-fmllr-tri3/train/data/feats_fmllr_train.7.ark:13810141
fjwb1_sx435 quick_test/data-fmllr-tri3/train/data/feats_fmllr_train.2.ark:4311790
mcef0_sx415 quick_test/data-fmllr-tri3/train/data/feats_fmllr_train.4.ark:10399315
mpgr0_si1410 quick_test/data-fmllr-tri3/train/data/feats_fmllr_train.8.ark:7151815
ftaj0_sx159 quick_test/data-fmllr-tri3/train/data/feats_fmllr_train.3.ark:14031690
mrkm0_si637 quick_test/data-fmllr-tri3/train/data/feats_fmllr_train.9.ark:3046546
fkaa0_sx128 quick_test/data-fmllr-tri3/train/data/feats_fmllr_train.2.ark:5349480
mdrd0_sx302 quick_test/data-fmllr-tri3/train/data/feats_fmllr_train.5.ark:8054091
mmag0_si1126 quick_test/data-fmllr-tri3/train/data/feats_fmllr_train.7.ark:13412672
mjbg0_sx242 quick_test/data-fmllr-tri3/train/data/feats_fmllr_train.6.ark:7820616
fblv0_sx68 quick_test/data-fmllr-tri3/train/data/feats_fmllr_train.1.ark:4039592
mefg0_sx285 quick_test/data-fmllr-tri3/train/data/feats_fmllr_train.5.ark:11724767
flac0_si901 quick_test/data-fmllr-tri3/train/data/feats_fmllr_train.2.ark:8966768
mrlj1_sx141 quick_test/data-fmllr-tri3/train/data/feats_fmllr_train.9.ark:4197623
msms0_sx443 quick_test/data-fmllr-tri3/train/data/feats_fmllr_train.9.ark:16900336
maeo0_si1956 quick_test/data-fmllr-tri3/train/data/feats_fmllr_train.4.ark:479006
mapv0_si1293 quick_test/data-fmllr-tri3/train/data/feats_fmllr_train.4.ark:2243558
flet0_sx277 quick_test/data-fmllr-tri3/train/data/feats_fmllr_train.2.ark:10296301
mcxm0_si1351 quick_test/data-fmllr-tri3/train/data/feats_fmllr_train.4.ark:13986762
fhlm0_sx300 quick_test/data-fmllr-tri3/train/data/feats_fmllr_train.1.ark:18191039
fklh0_si1887 quick_test/data-fmllr-tri3/train/data/feats_fmllr_train.2.ark:8183107
mdps0_sx269 quick_test/data-fmllr-tri3/train/data/feats_fmllr_train.5.ark:7586327
mjhi0_sx158 quick_test/data-fmllr-tri3/train/data/feats_fmllr_train.6.ark:12114816
mkag0_sx169 quick_test/data-fmllr-tri3/train/data/feats_fmllr_train.7.ark:4189305
mjrg0_sx286 quick_test/data-fmllr-tri3/train/data/feats_fmllr_train.6.ark:17822287
mjxl0_sx452 quick_test/data-fmllr-tri3/train/data/feats_fmllr_train.7.ark:3903089
megj0_si1337 quick_test/data-fmllr-tri3/train/data/feats_fmllr_train.5.ark:11824502
mkls1_sx375 quick_test/data-fmllr-tri3/train/data/feats_fmllr_train.7.ark:8939376
mtrc0_si589 quick_test/data-fmllr-tri3/train/data/feats_fmllr_train.10.ark:10508083
mjdc0_si2165 quick_test/data-fmllr-tri3/train/data/feats_fmllr_train.6.ark:8408490
mtrt0_sx147 quick_test/data-fmllr-tri3/train/data/feats_fmllr_train.10.ark:11359291
mjde0_sx220 quick_test/data-fmllr-tri3/train/data/feats_fmllr_train.6.ark:8995027
mtrt0_si1227 quick_test/data-fmllr-tri3/train/data/feats_fmllr_train.10.ark:11187849
fclt0_sx88 quick_test/data-fmllr-tri3/train/data/feats_fmllr_train.1.ark:7724962
msat1_sx353 quick_test/data-fmllr-tri3/train/data/feats_fmllr_train.9.ark:12392160
mlbc0_sx249 quick_test/data-fmllr-tri3/train/data/feats_fmllr_train.7.ark:10331045
mcal0_si1768 quick_test/data-fmllr-tri3/train/data/feats_fmllr_train.4.ark:8674952
mrgm0_sx82 quick_test/data-fmllr-tri3/train/data/feats_fmllr_train.8.ark:17914130
fbmj0_si1776 quick_test/data-fmllr-tri3/train/data/feats_fmllr_train.1.ark:4460317
mtjg0_si1520 quick_test/data-fmllr-tri3/train/data/feats_fmllr_train.10.ark:4089063
mdns0_sx111 quick_test/data-fmllr-tri3/train/data/feats_fmllr_train.5.ark:6466449
mcth0_sx399 quick_test/data-fmllr-tri3/train/data/feats_fmllr_train.4.ark:13570997
mtjs0_si1192 quick_test/data-fmllr-tri3/train/data/feats_fmllr_train.10.ark:4850137
mcal0_sx238 quick_test/data-fmllr-tri3/train/data/feats_fmllr_train.4.ark:8769593
fjrp1_sx262 quick_test/data-fmllr-tri3/train/data/feats_fmllr_train.2.ark:3000685
mstf0_si766 quick_test/data-fmllr-tri3/train/data/feats_fmllr_train.9.ark:17783250
fsag0_si1323 quick_test/data-fmllr-tri3/train/data/feats_fmllr_train.3.ark:5081712
mjws0_si1143 quick_test/data-fmllr-tri3/train/data/feats_fmllr_train.7.ark:2403875
mpgh0_si1554 quick_test/data-fmllr-tri3/train/data/feats_fmllr_train.8.ark:6819919
fdas1_si1461 quick_test/data-fmllr-tri3/train/data/feats_fmllr_train.1.ark:9329219
mdsj0_si832 quick_test/data-fmllr-tri3/train/data/feats_fmllr_train.5.ark:8306227
mgjc0_sx255 quick_test/data-fmllr-tri3/train/data/feats_fmllr_train.6.ark:1282695
fgdp0_sx178 quick_test/data-fmllr-tri3/train/data/feats_fmllr_train.1.ark:16759613
mgrp0_sx237 quick_test/data-fmllr-tri3/train/data/feats_fmllr_train.6.ark:2094489
mmgg0_sx179 quick_test/data-fmllr-tri3/train/data/feats_fmllr_train.8.ark:498234
mtju0_si2269 quick_test/data-fmllr-tri3/train/data/feats_fmllr_train.10.ark:5370862
fsbk0_sx79 quick_test/data-fmllr-tri3/train/data/feats_fmllr_train.3.ark:6700153
mefg0_sx15 quick_test/data-fmllr-tri3/train/data/feats_fmllr_train.5.ark:11646473
mmab1_sx414 quick_test/data-fmllr-tri3/train/data/feats_fmllr_train.7.ark:13306058
fpjf0_si1259 quick_test/data-fmllr-tri3/train/data/feats_fmllr_train.3.ark:2873239
madc0_si1367 quick_test/data-fmllr-tri3/train/data/feats_fmllr_train.3.ark:17176121
msat0_si1526 quick_test/data-fmllr-tri3/train/data/feats_fmllr_train.9.ark:11859166
mfxv0_sx105 quick_test/data-fmllr-tri3/train/data/feats_fmllr_train.5.ark:16034970
mcss0_si1380 quick_test/data-fmllr-tri3/train/data/feats_fmllr_train.4.ark:12832672
mbom0_sx204 quick_test/data-fmllr-tri3/train/data/feats_fmllr_train.4.ark:6846752
mree0_sx114 quick_test/data-fmllr-tri3/train/data/feats_fmllr_train.8.ark:15321681
mges0_si2111 quick_test/data-fmllr-tri3/train/data/feats_fmllr_train.6.ark:772156
fklc1_si1678 quick_test/data-fmllr-tri3/train/data/feats_fmllr_train.2.ark:7782569
fklc0_sx175 quick_test/data-fmllr-tri3/train/data/feats_fmllr_train.2.ark:7447046
mtqc0_si480 quick_test/data-fmllr-tri3/train/data/feats_fmllr_train.10.ark:10112694
mdlc0_sx225 quick_test/data-fmllr-tri3/train/data/feats_fmllr_train.5.ark:3020202
fdas1_si2091 quick_test/data-fmllr-tri3/train/data/feats_fmllr_train.1.ark:9407647
fexm0_si1731 quick_test/data-fmllr-tri3/train/data/feats_fmllr_train.1.ark:15844404
mkln0_sx428 quick_test/data-fmllr-tri3/train/data/feats_fmllr_train.7.ark:7766857
fhxs0_sx85 quick_test/data-fmllr-tri3/train/data/feats_fmllr_train.1.ark:18790351
mjkr0_si1201 quick_test/data-fmllr-tri3/train/data/feats_fmllr_train.6.ark:13552563
fpjf0_sx326 quick_test/data-fmllr-tri3/train/data/feats_fmllr_train.3.ark:3058948
mrai0_si1954 quick_test/data-fmllr-tri3/train/data/feats_fmllr_train.8.ark:11715162
fklc1_sx238 quick_test/data-fmllr-tri3/train/data/feats_fmllr_train.2.ark:7885371
freh0_sx415 quick_test/data-fmllr-tri3/train/data/feats_fmllr_train.3.ark:4274664
mdlc1_si2144 quick_test/data-fmllr-tri3/train/data/feats_fmllr_train.5.ark:3334126
fsjs0_si1801 quick_test/data-fmllr-tri3/train/data/feats_fmllr_train.3.ark:9202311
fmjf0_sx444 quick_test/data-fmllr-tri3/train/data/feats_fmllr_train.2.ark:16216065
flac0_sx181 quick_test/data-fmllr-tri3/train/data/feats_fmllr_train.2.ark:8994795
mtmt0_sx218 quick_test/data-fmllr-tri3/train/data/feats_fmllr_train.10.ark:8265103
mmbs0_sx71 quick_test/data-fmllr-tri3/train/data/feats_fmllr_train.7.ark:15052233
msat1_sx263 quick_test/data-fmllr-tri3/train/data/feats_fmllr_train.9.ark:12353413
mvlo0_sx67 quick_test/data-fmllr-tri3/train/data/feats_fmllr_train.10.ark:13034027
mrxb0_si955 quick_test/data-fmllr-tri3/train/data/feats_fmllr_train.9.ark:10816489
mpsw0_sx437 quick_test/data-fmllr-tri3/train/data/feats_fmllr_train.8.ark:10846514
mctm0_si720 quick_test/data-fmllr-tri3/train/data/feats_fmllr_train.4.ark:13742760
mgak0_sx136 quick_test/data-fmllr-tri3/train/data/feats_fmllr_train.5.ark:17080421
mrjh0_sx169 quick_test/data-fmllr-tri3/train/data/feats_fmllr_train.9.ark:1422664
mdbp0_sx258 quick_test/data-fmllr-tri3/train/data/feats_fmllr_train.4.ark:15674777
mstf0_sx406 quick_test/data-fmllr-tri3/train/data/feats_fmllr_train.9.ark:18040985
mgxp0_si457 quick_test/data-fmllr-tri3/train/data/feats_fmllr_train.6.ark:3218895
fsdc0_si1312 quick_test/data-fmllr-tri3/train/data/feats_fmllr_train.3.ark:7225517
mrso0_sx129 quick_test/data-fmllr-tri3/train/data/feats_fmllr_train.9.ark:8069237
mrml0_si1421 quick_test/data-fmllr-tri3/train/data/feats_fmllr_train.9.ark:6248925
mrlj0_si1420 quick_test/data-fmllr-tri3/train/data/feats_fmllr_train.9.ark:3714123
mmgk0_si692 quick_test/data-fmllr-tri3/train/data/feats_fmllr_train.8.ark:812984
mjpm1_sx311 quick_test/data-fmllr-tri3/train/data/feats_fmllr_train.6.ark:17040894
fgcs0_sx46 quick_test/data-fmllr-tri3/train/data/feats_fmllr_train.1.ark:16572143
fgcs0_si856 quick_test/data-fmllr-tri3/train/data/feats_fmllr_train.1.ark:16336009
mjmm0_si625 quick_test/data-fmllr-tri3/train/data/feats_fmllr_train.6.ark:15853442
fmjf0_sx84 quick_test/data-fmllr-tri3/train/data/feats_fmllr_train.2.ark:16265691
fpls0_sx330 quick_test/data-fmllr-tri3/train/data/feats_fmllr_train.3.ark:3466070
mjpg0_si1191 quick_test/data-fmllr-tri3/train/data/feats_fmllr_train.6.ark:16109124
fvkb0_sx259 quick_test/data-fmllr-tri3/train/data/feats_fmllr_train.3.ark:16264699
fmem0_sx387 quick_test/data-fmllr-tri3/train/data/feats_fmllr_train.2.ark:15466219
fdkn0_sx361 quick_test/data-fmllr-tri3/train/data/feats_fmllr_train.1.ark:11112306
marw0_sx349 quick_test/data-fmllr-tri3/train/data/feats_fmllr_train.4.ark:3247034
fsma0_sx361 quick_test/data-fmllr-tri3/train/data/feats_fmllr_train.3.ark:11734282
mrxb0_si2215 quick_test/data-fmllr-tri3/train/data/feats_fmllr_train.9.ark:10743182
mbjv0_sx437 quick_test/data-fmllr-tri3/train/data/feats_fmllr_train.4.ark:5466257
fltm0_sx260 quick_test/data-fmllr-tri3/train/data/feats_fmllr_train.2.ark:14111088
mdps0_sx359 quick_test/data-fmllr-tri3/train/data/feats_fmllr_train.5.ark:7619474
mmvp0_sx114 quick_test/data-fmllr-tri3/train/data/feats_fmllr_train.8.ark:3167753
mrem0_si511 quick_test/data-fmllr-tri3/train/data/feats_fmllr_train.8.ark:16013900
fjsk0_sx242 quick_test/data-fmllr-tri3/train/data/feats_fmllr_train.2.ark:3458183
mbsb0_sx363 quick_test/data-fmllr-tri3/train/data/feats_fmllr_train.4.ark:7229582
mjdc0_sx441 quick_test/data-fmllr-tri3/train/data/feats_fmllr_train.6.ark:8660145
fjhk0_si1022 quick_test/data-fmllr-tri3/train/data/feats_fmllr_train.2.ark:864449
mrvg0_si510 quick_test/data-fmllr-tri3/train/data/feats_fmllr_train.9.ark:9743358
faem0_sx132 quick_test/data-fmllr-tri3/train/data/feats_fmllr_train.1.ark:155455
mgaf0_sx382 quick_test/data-fmllr-tri3/train/data/feats_fmllr_train.5.ark:16530814
mjfh0_sx297 quick_test/data-fmllr-tri3/train/data/feats_fmllr_train.6.ark:11449823
mkes0_sx353 quick_test/data-fmllr-tri3/train/data/feats_fmllr_train.7.ark:7002716
fmjb0_si1807 quick_test/data-fmllr-tri3/train/data/feats_fmllr_train.2.ark:15598755
flet0_si507 quick_test/data-fmllr-tri3/train/data/feats_fmllr_train.2.ark:10154460
mdlm0_sx244 quick_test/data-fmllr-tri3/train/data/feats_fmllr_train.5.ark:4502830
mchl0_sx177 quick_test/data-fmllr-tri3/train/data/feats_fmllr_train.4.ark:11151989
mpfu0_sx358 quick_test/data-fmllr-tri3/train/data/feats_fmllr_train.8.ark:6665598
frjb0_si1427 quick_test/data-fmllr-tri3/train/data/feats_fmllr_train.3.ark:4352158
mrem0_si961 quick_test/data-fmllr-tri3/train/data/feats_fmllr_train.8.ark:16083687
mjdc0_si1161 quick_test/data-fmllr-tri3/train/data/feats_fmllr_train.6.ark:8372142
mcxm0_si1981 quick_test/data-fmllr-tri3/train/data/feats_fmllr_train.4.ark:14031110
fvmh0_si836 quick_test/data-fmllr-tri3/train/data/feats_fmllr_train.3.ark:16603902
mmag0_sx136 quick_test/data-fmllr-tri3/train/data/feats_fmllr_train.7.ark:13582674
mwsb0_si1626 quick_test/data-fmllr-tri3/train/data/feats_fmllr_train.10.ark:16797669
mkdd0_si1567 quick_test/data-fmllr-tri3/train/data/feats_fmllr_train.7.ark:5940067
fbjl0_sx22 quick_test/data-fmllr-tri3/train/data/feats_fmllr_train.1.ark:3509560
mmjb1_sx148 quick_test/data-fmllr-tri3/train/data/feats_fmllr_train.8.ark:1178028
mjfr0_sx165 quick_test/data-fmllr-tri3/train/data/feats_fmllr_train.6.ark:11666920
mdps0_sx449 quick_test/data-fmllr-tri3/train/data/feats_fmllr_train.5.ark:7675181
fdfb0_sx328 quick_test/data-fmllr-tri3/train/data/feats_fmllr_train.1.ark:10332671
msdb0_sx287 quick_test/data-fmllr-tri3/train/data/feats_fmllr_train.9.ark:12732564
mmdm0_sx51 quick_test/data-fmllr-tri3/train/data/feats_fmllr_train.7.ark:16577581
mbma1_sx144 quick_test/data-fmllr-tri3/train/data/feats_fmllr_train.4.ark:6061010
falr0_si1955 quick_test/data-fmllr-tri3/train/data/feats_fmllr_train.1.ark:1262287
mmea0_si1388 quick_test/data-fmllr-tri3/train/data/feats_fmllr_train.7.ark:17323963
mmbs0_si521 quick_test/data-fmllr-tri3/train/data/feats_fmllr_train.7.ark:14736099
mkxl0_si1958 quick_test/data-fmllr-tri3/train/data/feats_fmllr_train.7.ark:9866134
mjde0_sx400 quick_test/data-fmllr-tri3/train/data/feats_fmllr_train.6.ark:9187907
mwrp0_sx363 quick_test/data-fmllr-tri3/train/data/feats_fmllr_train.10.ark:16707215
mhmg0_sx195 quick_test/data-fmllr-tri3/train/data/feats_fmllr_train.6.ark:4844029
mwem0_sx60 quick_test/data-fmllr-tri3/train/data/feats_fmllr_train.10.ark:15600350
mtwh1_sx72 quick_test/data-fmllr-tri3/train/data/feats_fmllr_train.10.ark:11855775
mtbc0_si1173 quick_test/data-fmllr-tri3/train/data/feats_fmllr_train.10.ark:2067018
mjrk0_si880 quick_test/data-fmllr-tri3/train/data/feats_fmllr_train.7.ark:818903
fvfb0_si1032 quick_test/data-fmllr-tri3/train/data/feats_fmllr_train.3.ark:15754452
fmju0_sx309 quick_test/data-fmllr-tri3/train/data/feats_fmllr_train.2.ark:16590495
mrav0_sx18 quick_test/data-fmllr-tri3/train/data/feats_fmllr_train.8.ark:12694906
mmcc0_sx438 quick_test/data-fmllr-tri3/train/data/feats_fmllr_train.7.ark:15383624
mgrl0_si2127 quick_test/data-fmllr-tri3/train/data/feats_fmllr_train.6.ark:1544751
mkrg0_sx51 quick_test/data-fmllr-tri3/train/data/feats_fmllr_train.7.ark:9718370
mkag0_sx439 quick_test/data-fmllr-tri3/train/data/feats_fmllr_train.7.ark:4317385
fcmm0_si1083 quick_test/data-fmllr-tri3/train/data/feats_fmllr_train.1.ark:8195768
madd0_sx358 quick_test/data-fmllr-tri3/train/data/feats_fmllr_train.3.ark:17832794
mmdm1_si2043 quick_test/data-fmllr-tri3/train/data/feats_fmllr_train.7.ark:16651077
mdlc1_sx355 quick_test/data-fmllr-tri3/train/data/feats_fmllr_train.5.ark:3467007
mtjm0_si1856 quick_test/data-fmllr-tri3/train/data/feats_fmllr_train.10.ark:4530428
mkxl0_sx105 quick_test/data-fmllr-tri3/train/data/feats_fmllr_train.7.ark:9931441
mbar0_si689 quick_test/data-fmllr-tri3/train/data/feats_fmllr_train.4.ark:3455784
megj0_sx437 quick_test/data-fmllr-tri3/train/data/feats_fmllr_train.5.ark:12145783
mrdd0_sx277 quick_test/data-fmllr-tri3/train/data/feats_fmllr_train.8.ark:14270843
mmeb0_sx327 quick_test/data-fmllr-tri3/train/data/feats_fmllr_train.7.ark:17812929
fgcs0_sx226 quick_test/data-fmllr-tri3/train/data/feats_fmllr_train.1.ark:16438303
fmkc0_sx352 quick_test/data-fmllr-tri3/train/data/feats_fmllr_train.2.ark:16972153
fjwb1_sx75 quick_test/data-fmllr-tri3/train/data/feats_fmllr_train.2.ark:4365896
mhbs0_sx405 quick_test/data-fmllr-tri3/train/data/feats_fmllr_train.6.ark:3837325
mjai0_sx74 quick_test/data-fmllr-tri3/train/data/feats_fmllr_train.6.ark:7609118
fcdr1_sx286 quick_test/data-fmllr-tri3/train/data/feats_fmllr_train.1.ark:5955050
mjda0_si2291 quick_test/data-fmllr-tri3/train/data/feats_fmllr_train.6.ark:8096300
mmeb0_si727 quick_test/data-fmllr-tri3/train/data/feats_fmllr_train.7.ark:17750315
mkls1_sx105 quick_test/data-fmllr-tri3/train/data/feats_fmllr_train.7.ark:8780229
mdhs0_si900 quick_test/data-fmllr-tri3/train/data/feats_fmllr_train.5.ark:1286959
fjrp1_si802 quick_test/data-fmllr-tri3/train/data/feats_fmllr_train.2.ark:2901591
mwsb0_sx96 quick_test/data-fmllr-tri3/train/data/feats_fmllr_train.10.ark:17095456
fmju0_sx39 quick_test/data-fmllr-tri3/train/data/feats_fmllr_train.2.ark:16644121
msds0_sx177 quick_test/data-fmllr-tri3/train/data/feats_fmllr_train.9.ark:13396439
mjdg0_si1705 quick_test/data-fmllr-tri3/train/data/feats_fmllr_train.6.ark:9352791
mwac0_si971 quick_test/data-fmllr-tri3/train/data/feats_fmllr_train.10.ark:13532087
meal0_si1547 quick_test/data-fmllr-tri3/train/data/feats_fmllr_train.5.ark:10773932
mjxl0_si542 quick_test/data-fmllr-tri3/train/data/feats_fmllr_train.7.ark:3714501
fjlg0_sx269 quick_test/data-fmllr-tri3/train/data/feats_fmllr_train.2.ark:1793154
madd0_sx88 quick_test/data-fmllr-tri3/train/data/feats_fmllr_train.3.ark:17915567
fcrz0_sx253 quick_test/data-fmllr-tri3/train/data/feats_fmllr_train.1.ark:8754174
mfwk0_sx259 quick_test/data-fmllr-tri3/train/data/feats_fmllr_train.5.ark:15288961
mlbc0_si1239 quick_test/data-fmllr-tri3/train/data/feats_fmllr_train.7.ark:10126776
mrew1_sx150 quick_test/data-fmllr-tri3/train/data/feats_fmllr_train.8.ark:16467611
fdml0_sx159 quick_test/data-fmllr-tri3/train/data/feats_fmllr_train.1.ark:11404790
mjrh0_si1840 quick_test/data-fmllr-tri3/train/data/feats_fmllr_train.7.ark:89029
fcyl0_si1297 quick_test/data-fmllr-tri3/train/data/feats_fmllr_train.1.ark:8926122
mdps0_si1651 quick_test/data-fmllr-tri3/train/data/feats_fmllr_train.5.ark:7415338
mdlm0_si604 quick_test/data-fmllr-tri3/train/data/feats_fmllr_train.5.ark:4389336
mmrp0_si717 quick_test/data-fmllr-tri3/train/data/feats_fmllr_train.8.ark:2177185
mdlc2_sx84 quick_test/data-fmllr-tri3/train/data/feats_fmllr_train.5.ark:3858797
mdhs0_sx90 quick_test/data-fmllr-tri3/train/data/feats_fmllr_train.5.ark:1524053
mntw0_sx168 quick_test/data-fmllr-tri3/train/data/feats_fmllr_train.8.ark:5514973
mrbc0_sx329 quick_test/data-fmllr-tri3/train/data/feats_fmllr_train.8.ark:13086191
mrlr0_si566 quick_test/data-fmllr-tri3/train/data/feats_fmllr_train.9.ark:4895630
mpgr0_si780 quick_test/data-fmllr-tri3/train/data/feats_fmllr_train.8.ark:7244190
mprk0_si1097 quick_test/data-fmllr-tri3/train/data/feats_fmllr_train.8.ark:9816798
mjae0_sx264 quick_test/data-fmllr-tri3/train/data/feats_fmllr_train.6.ark:7044822
fear0_si1882 quick_test/data-fmllr-tri3/train/data/feats_fmllr_train.1.ark:13784759
fdas1_si831 quick_test/data-fmllr-tri3/train/data/feats_fmllr_train.1.ark:9446394
mjee0_sx337 quick_test/data-fmllr-tri3/train/data/feats_fmllr_train.6.ark:11061420
mrdm0_si1595 quick_test/data-fmllr-tri3/train/data/feats_fmllr_train.8.ark:14477032
mbom0_si1644 quick_test/data-fmllr-tri3/train/data/feats_fmllr_train.4.ark:6738350
mfxs0_sx144 quick_test/data-fmllr-tri3/train/data/feats_fmllr_train.5.ark:15603072
fmkf0_sx186 quick_test/data-fmllr-tri3/train/data/feats_fmllr_train.2.ark:17307836
mdcd0_si2045 quick_test/data-fmllr-tri3/train/data/feats_fmllr_train.4.ark:15932673
msdb0_sx377 quick_test/data-fmllr-tri3/train/data/feats_fmllr_train.9.ark:12765711
mjrg0_sx352 quick_test/data-fmllr-tri3/train/data/feats_fmllr_train.6.ark:17882154
fsgf0_sx297 quick_test/data-fmllr-tri3/train/data/feats_fmllr_train.3.ark:8216994
falk0_si658 quick_test/data-fmllr-tri3/train/data/feats_fmllr_train.1.ark:905779
meal0_sx377 quick_test/data-fmllr-tri3/train/data/feats_fmllr_train.5.ark:11042922
mdlb0_sx316 quick_test/data-fmllr-tri3/train/data/feats_fmllr_train.5.ark:2620812
mmaa0_sx215 quick_test/data-fmllr-tri3/train/data/feats_fmllr_train.7.ark:12818907
mkls0_si1437 quick_test/data-fmllr-tri3/train/data/feats_fmllr_train.7.ark:8197209
fssb0_sx452 quick_test/data-fmllr-tri3/train/data/feats_fmllr_train.3.ark:13799555
mtpf0_sx425 quick_test/data-fmllr-tri3/train/data/feats_fmllr_train.10.ark:8751774
msrg0_si591 quick_test/data-fmllr-tri3/train/data/feats_fmllr_train.9.ark:17071165
megj0_sx257 quick_test/data-fmllr-tri3/train/data/feats_fmllr_train.5.ark:12087171
mdcd0_sx155 quick_test/data-fmllr-tri3/train/data/feats_fmllr_train.4.ark:16042807
mgar0_sx312 quick_test/data-fmllr-tri3/train/data/feats_fmllr_train.6.ark:234870
mprd0_sx171 quick_test/data-fmllr-tri3/train/data/feats_fmllr_train.8.ark:9560183
mjrh0_sx135 quick_test/data-fmllr-tri3/train/data/feats_fmllr_train.7.ark:164736
mrre0_sx344 quick_test/data-fmllr-tri3/train/data/feats_fmllr_train.9.ark:7734193
fmah1_sx69 quick_test/data-fmllr-tri3/train/data/feats_fmllr_train.2.ark:14660665
mjhi0_sx68 quick_test/data-fmllr-tri3/train/data/feats_fmllr_train.6.ark:12292043
mkls0_sx267 quick_test/data-fmllr-tri3/train/data/feats_fmllr_train.7.ark:8417959
fleh0_sx331 quick_test/data-fmllr-tri3/train/data/feats_fmllr_train.2.ark:9903604
maeb0_sx180 quick_test/data-fmllr-tri3/train/data/feats_fmllr_train.4.ark:158015
mwrp0_sx183 quick_test/data-fmllr-tri3/train/data/feats_fmllr_train.10.ark:16588576
feme0_sx155 quick_test/data-fmllr-tri3/train/data/feats_fmllr_train.1.ark:15155704
mrxb0_si1585 quick_test/data-fmllr-tri3/train/data/feats_fmllr_train.9.ark:10707474
ftlg0_sx123 quick_test/data-fmllr-tri3/train/data/feats_fmllr_train.3.ark:15164980
mkag0_sx79 quick_test/data-fmllr-tri3/train/data/feats_fmllr_train.7.ark:4375491
mabc0_sx421 quick_test/data-fmllr-tri3/train/data/feats_fmllr_train.3.ark:17098787
mmwb0_sx449 quick_test/data-fmllr-tri3/train/data/feats_fmllr_train.8.ark:3816372
mrjm0_sx418 quick_test/data-fmllr-tri3/train/data/feats_fmllr_train.9.ark:1985523
fmkc0_sx442 quick_test/data-fmllr-tri3/train/data/feats_fmllr_train.2.ark:17034900
mfxv0_si1342 quick_test/data-fmllr-tri3/train/data/feats_fmllr_train.5.ark:15932835
mrjh0_sx439 quick_test/data-fmllr-tri3/train/data/feats_fmllr_train.9.ark:1578905
maeo0_sx426 quick_test/data-fmllr-tri3/train/data/feats_fmllr_train.4.ark:653834
mrdm0_sx245 quick_test/data-fmllr-tri3/train/data/feats_fmllr_train.8.ark:14613913
mjfr0_si1605 quick_test/data-fmllr-tri3/train/data/feats_fmllr_train.6.ark:11522678
mejl0_sx152 quick_test/data-fmllr-tri3/train/data/feats_fmllr_train.5.ark:12376479
mdef0_sx213 quick_test/data-fmllr-tri3/train/data/feats_fmllr_train.5.ark:202843
mrsp0_sx79 quick_test/data-fmllr-tri3/train/data/feats_fmllr_train.9.ark:8711321
msdb0_sx197 quick_test/data-fmllr-tri3/train/data/feats_fmllr_train.9.ark:12704377
mjrk0_si1662 quick_test/data-fmllr-tri3/train/data/feats_fmllr_train.7.ark:765888
mjra0_sx336 quick_test/data-fmllr-tri3/train/data/feats_fmllr_train.6.ark:17450231
mcxm0_si721 quick_test/data-fmllr-tri3/train/data/feats_fmllr_train.4.ark:14093697
mjdc0_si531 quick_test/data-fmllr-tri3/train/data/feats_fmllr_train.6.ark:8437637
mses0_sx59 quick_test/data-fmllr-tri3/train/data/feats_fmllr_train.9.ark:14475541
mjrk0_sx160 quick_test/data-fmllr-tri3/train/data/feats_fmllr_train.7.ark:887730
mtkd0_si1817 quick_test/data-fmllr-tri3/train/data/feats_fmllr_train.10.ark:5712199
marc0_sx108 quick_test/data-fmllr-tri3/train/data/feats_fmllr_train.4.ark:2775057
mjbg0_si1724 quick_test/data-fmllr-tri3/train/data/feats_fmllr_train.6.ark:7700374
mlel0_sx166 quick_test/data-fmllr-tri3/train/data/feats_fmllr_train.7.ark:10662755
mtat1_si1627 quick_test/data-fmllr-tri3/train/data/feats_fmllr_train.10.ark:1668749
fkde0_sx61 quick_test/data-fmllr-tri3/train/data/feats_fmllr_train.2.ark:5995565
mmws0_sx258 quick_test/data-fmllr-tri3/train/data/feats_fmllr_train.8.ark:4110934
flkm0_si1880 quick_test/data-fmllr-tri3/train/data/feats_fmllr_train.2.ark:12043492
fdfb0_sx418 quick_test/data-fmllr-tri3/train/data/feats_fmllr_train.1.ark:10376538
msat1_sx173 quick_test/data-fmllr-tri3/train/data/feats_fmllr_train.9.ark:12292266
mmdg0_si520 quick_test/data-fmllr-tri3/train/data/feats_fmllr_train.7.ark:15928430
mafm0_sx39 quick_test/data-fmllr-tri3/train/data/feats_fmllr_train.4.ark:988130
mtrc0_sx170 quick_test/data-fmllr-tri3/train/data/feats_fmllr_train.10.ark:10604777
mprb0_sx35 quick_test/data-fmllr-tri3/train/data/feats_fmllr_train.8.ark:9286926
ftmg0_si2162 quick_test/data-fmllr-tri3/train/data/feats_fmllr_train.3.ark:15409303
mjde0_si1120 quick_test/data-fmllr-tri3/train/data/feats_fmllr_train.6.ark:8727719
fgcs0_sx316 quick_test/data-fmllr-tri3/train/data/feats_fmllr_train.1.ark:16484570
fljg0_sx261 quick_test/data-fmllr-tri3/train/data/feats_fmllr_train.2.ark:11830584
mhit0_si2243 quick_test/data-fmllr-tri3/train/data/feats_fmllr_train.6.ark:3961087
fcjf0_sx217 quick_test/data-fmllr-tri3/train/data/feats_fmllr_train.1.ark:6575111
mwar0_si2305 quick_test/data-fmllr-tri3/train/data/feats_fmllr_train.10.ark:14290443
fsjg0_si2200 quick_test/data-fmllr-tri3/train/data/feats_fmllr_train.3.ark:8355317
mdlc0_sx45 quick_test/data-fmllr-tri3/train/data/feats_fmllr_train.5.ark:3148762
mrab1_sx398 quick_test/data-fmllr-tri3/train/data/feats_fmllr_train.8.ark:11665214
mrld0_si2224 quick_test/data-fmllr-tri3/train/data/feats_fmllr_train.9.ark:3436014
mjws0_sx333 quick_test/data-fmllr-tri3/train/data/feats_fmllr_train.7.ark:2644491
fsmm0_sx414 quick_test/data-fmllr-tri3/train/data/feats_fmllr_train.3.ark:12202046
mgag0_si691 quick_test/data-fmllr-tri3/train/data/feats_fmllr_train.5.ark:16663216
mjrp0_sx315 quick_test/data-fmllr-tri3/train/data/feats_fmllr_train.7.ark:1342401
mtat1_sx419 quick_test/data-fmllr-tri3/train/data/feats_fmllr_train.10.ark:1970804
fsms1_sx347 quick_test/data-fmllr-tri3/train/data/feats_fmllr_train.3.ark:12589623
mjjj0_sx443 quick_test/data-fmllr-tri3/train/data/feats_fmllr_train.6.ark:13077412
mjdc0_sx171 quick_test/data-fmllr-tri3/train/data/feats_fmllr_train.6.ark:8531104
fkaa0_si1838 quick_test/data-fmllr-tri3/train/data/feats_fmllr_train.2.ark:5245746
fjsp0_si1763 quick_test/data-fmllr-tri3/train/data/feats_fmllr_train.2.ark:3728719
msas0_sx296 quick_test/data-fmllr-tri3/train/data/feats_fmllr_train.9.ark:11770951
fskp0_si468 quick_test/data-fmllr-tri3/train/data/feats_fmllr_train.3.ark:10844806
mgsl0_sx84 quick_test/data-fmllr-tri3/train/data/feats_fmllr_train.6.ark:3090200
msem1_sx360 quick_test/data-fmllr-tri3/train/data/feats_fmllr_train.9.ark:14007270
mdma0_sx260 quick_test/data-fmllr-tri3/train/data/feats_fmllr_train.5.ark:5685722
fpmy0_sx196 quick_test/data-fmllr-tri3/train/data/feats_fmllr_train.3.ark:3824633
mtxs0_sx160 quick_test/data-fmllr-tri3/train/data/feats_fmllr_train.10.ark:12058606
mrhl0_si2145 quick_test/data-fmllr-tri3/train/data/feats_fmllr_train.9.ark:450176
mgak0_si2296 quick_test/data-fmllr-tri3/train/data/feats_fmllr_train.5.ark:17042154
mnet0_si816 quick_test/data-fmllr-tri3/train/data/feats_fmllr_train.8.ark:5074250
mpgr0_sx240 quick_test/data-fmllr-tri3/train/data/feats_fmllr_train.8.ark:7307764
mjxl0_sx362 quick_test/data-fmllr-tri3/train/data/feats_fmllr_train.7.ark:3842582
meal0_sx347 quick_test/data-fmllr-tri3/train/data/feats_fmllr_train.5.ark:10988335
mfxv0_sx15 quick_test/data-fmllr-tri3/train/data/feats_fmllr_train.5.ark:16070836
fpad0_si716 quick_test/data-fmllr-tri3/train/data/feats_fmllr_train.3.ark:1700135
mgjc0_sx345 quick_test/data-fmllr-tri3/train/data/feats_fmllr_train.6.ark:1331682
mfwk0_sx169 quick_test/data-fmllr-tri3/train/data/feats_fmllr_train.5.ark:15243814
mklr0_sx339 quick_test/data-fmllr-tri3/train/data/feats_fmllr_train.7.ark:8074728
mjsr0_si2054 quick_test/data-fmllr-tri3/train/data/feats_fmllr_train.7.ark:1525550
ftbw0_sx175 quick_test/data-fmllr-tri3/train/data/feats_fmllr_train.3.ark:14741564
msah1_si1679 quick_test/data-fmllr-tri3/train/data/feats_fmllr_train.9.ark:11139399
mmgg0_si1079 quick_test/data-fmllr-tri3/train/data/feats_fmllr_train.8.ark:354791
fdmy0_si714 quick_test/data-fmllr-tri3/train/data/feats_fmllr_train.1.ark:11772179
madc0_si1997 quick_test/data-fmllr-tri3/train/data/feats_fmllr_train.3.ark:17247989
mjpm1_sx221 quick_test/data-fmllr-tri3/train/data/feats_fmllr_train.6.ark:16992227
mesg0_sx432 quick_test/data-fmllr-tri3/train/data/feats_fmllr_train.5.ark:13267074
fjxm0_si1211 quick_test/data-fmllr-tri3/train/data/feats_fmllr_train.2.ark:4400324
mntw0_si1698 quick_test/data-fmllr-tri3/train/data/feats_fmllr_train.8.ark:5407078
fpac0_sx301 quick_test/data-fmllr-tri3/train/data/feats_fmllr_train.3.ark:1474239
mrjb1_si1020 quick_test/data-fmllr-tri3/train/data/feats_fmllr_train.9.ark:783805
mrsp0_si799 quick_test/data-fmllr-tri3/train/data/feats_fmllr_train.9.ark:8475187
mrjm0_sx328 quick_test/data-fmllr-tri3/train/data/feats_fmllr_train.9.ark:1930136
fkdw0_si1891 quick_test/data-fmllr-tri3/train/data/feats_fmllr_train.2.ark:6129701
mrjt0_sx418 quick_test/data-fmllr-tri3/train/data/feats_fmllr_train.9.ark:2775237
mjac0_si2148 quick_test/data-fmllr-tri3/train/data/feats_fmllr_train.6.ark:6518923
mkaj0_si2044 quick_test/data-fmllr-tri3/train/data/feats_fmllr_train.7.ark:4846644
fleh0_si1681 quick_test/data-fmllr-tri3/train/data/feats_fmllr_train.2.ark:9732615
mdas0_sx21 quick_test/data-fmllr-tri3/train/data/feats_fmllr_train.4.ark:14970504
makr0_sx362 quick_test/data-fmllr-tri3/train/data/feats_fmllr_train.4.ark:2124277
fbch0_sx416 quick_test/data-fmllr-tri3/train/data/feats_fmllr_train.1.ark:3167291
mcdd0_sx343 quick_test/data-fmllr-tri3/train/data/feats_fmllr_train.4.ark:9550694
mkln0_sx158 quick_test/data-fmllr-tri3/train/data/feats_fmllr_train.7.ark:7643736
fsdc0_si2234 quick_test/data-fmllr-tri3/train/data/feats_fmllr_train.3.ark:7332773
mjmd0_sx38 quick_test/data-fmllr-tri3/train/data/feats_fmllr_train.6.ark:15659572
fjsk0_si1052 quick_test/data-fmllr-tri3/train/data/feats_fmllr_train.2.ark:3263193
mrtj0_sx232 quick_test/data-fmllr-tri3/train/data/feats_fmllr_train.9.ark:9429915
mkah0_sx358 quick_test/data-fmllr-tri3/train/data/feats_fmllr_train.7.ark:4671495
mdef0_sx33 quick_test/data-fmllr-tri3/train/data/feats_fmllr_train.5.ark:274256
frjb0_sx347 quick_test/data-fmllr-tri3/train/data/feats_fmllr_train.3.ark:4535975
mtml0_sx165 quick_test/data-fmllr-tri3/train/data/feats_fmllr_train.10.ark:7399842
mcss0_sx120 quick_test/data-fmllr-tri3/train/data/feats_fmllr_train.4.ark:13021393
fsls0_si1056 quick_test/data-fmllr-tri3/train/data/feats_fmllr_train.3.ark:11094088
fbmj0_sx246 quick_test/data-fmllr-tri3/train/data/feats_fmllr_train.1.ark:4683305
mbbr0_si2315 quick_test/data-fmllr-tri3/train/data/feats_fmllr_train.4.ark:3863842
mmea0_sx398 quick_test/data-fmllr-tri3/train/data/feats_fmllr_train.7.ark:17610552
fjrp1_si1432 quick_test/data-fmllr-tri3/train/data/feats_fmllr_train.2.ark:2765376
mkjo0_sx437 quick_test/data-fmllr-tri3/train/data/feats_fmllr_train.7.ark:7400080
flma0_sx433 quick_test/data-fmllr-tri3/train/data/feats_fmllr_train.2.ark:12730271
mses0_si2216 quick_test/data-fmllr-tri3/train/data/feats_fmllr_train.9.ark:14224979
mcdr0_si524 quick_test/data-fmllr-tri3/train/data/feats_fmllr_train.4.ark:9831310
mtrr0_sx108 quick_test/data-fmllr-tri3/train/data/feats_fmllr_train.10.ark:10950114
fbch0_sx326 quick_test/data-fmllr-tri3/train/data/feats_fmllr_train.1.ark:3115744
mrcw0_sx381 quick_test/data-fmllr-tri3/train/data/feats_fmllr_train.8.ark:14010998
mhjb0_sx117 quick_test/data-fmllr-tri3/train/data/feats_fmllr_train.6.ark:4446479
fgmb0_si515 quick_test/data-fmllr-tri3/train/data/feats_fmllr_train.1.ark:17186043
mrab1_sx128 quick_test/data-fmllr-tri3/train/data/feats_fmllr_train.8.ark:11477267
fmkc0_sx172 quick_test/data-fmllr-tri3/train/data/feats_fmllr_train.2.ark:16873059
mdns0_sx21 quick_test/data-fmllr-tri3/train/data/feats_fmllr_train.5.ark:6554182
mppc0_sx152 quick_test/data-fmllr-tri3/train/data/feats_fmllr_train.8.ark:8696389
fdxw0_sx161 quick_test/data-fmllr-tri3/train/data/feats_fmllr_train.1.ark:13123579
mpeb0_sx60 quick_test/data-fmllr-tri3/train/data/feats_fmllr_train.8.ark:6365114
mvrw0_sx405 quick_test/data-fmllr-tri3/train/data/feats_fmllr_train.10.ark:13333738
mgxp0_sx7 quick_test/data-fmllr-tri3/train/data/feats_fmllr_train.6.ark:3475828
mgsh0_si1806 quick_test/data-fmllr-tri3/train/data/feats_fmllr_train.6.ark:2380065
mkag0_sx259 quick_test/data-fmllr-tri3/train/data/feats_fmllr_train.7.ark:4236372
majp0_si1074 quick_test/data-fmllr-tri3/train/data/feats_fmllr_train.4.ark:1061785
mppc0_si2042 quick_test/data-fmllr-tri3/train/data/feats_fmllr_train.8.ark:8622255
flmk0_sx405 quick_test/data-fmllr-tri3/train/data/feats_fmllr_train.2.ark:13496786
fpmy0_si523 quick_test/data-fmllr-tri3/train/data/feats_fmllr_train.3.ark:3679299
fbjl0_si1552 quick_test/data-fmllr-tri3/train/data/feats_fmllr_train.1.ark:3276465
mmbs0_sx251 quick_test/data-fmllr-tri3/train/data/feats_fmllr_train.7.ark:14880313
fpad0_sx446 quick_test/data-fmllr-tri3/train/data/feats_fmllr_train.3.ark:1943923
mjlb0_sx86 quick_test/data-fmllr-tri3/train/data/feats_fmllr_train.6.ark:14267369
mjfh0_sx117 quick_test/data-fmllr-tri3/train/data/feats_fmllr_train.6.ark:11358223
mrvg0_sx150 quick_test/data-fmllr-tri3/train/data/feats_fmllr_train.9.ark:9782105
mbef0_sx111 quick_test/data-fmllr-tri3/train/data/feats_fmllr_train.4.ark:4623662
mbml0_sx269 quick_test/data-fmllr-tri3/train/data/feats_fmllr_train.4.ark:6495494
mjbg0_sx332 quick_test/data-fmllr-tri3/train/data/feats_fmllr_train.6.ark:7872323
fsjg0_sx220 quick_test/data-fmllr-tri3/train/data/feats_fmllr_train.3.ark:8545798
mbjv0_sx257 quick_test/data-fmllr-tri3/train/data/feats_fmllr_train.4.ark:5381723
mdss0_si2087 quick_test/data-fmllr-tri3/train/data/feats_fmllr_train.5.ark:8627377
mgjc0_sx435 quick_test/data-fmllr-tri3/train/data/feats_fmllr_train.6.ark:1387229
mmwb0_sx269 quick_test/data-fmllr-tri3/train/data/feats_fmllr_train.8.ark:3694078
fksr0_sx366 quick_test/data-fmllr-tri3/train/data/feats_fmllr_train.2.ark:8712552
mrlj1_si1671 quick_test/data-fmllr-tri3/train/data/feats_fmllr_train.9.ark:4063460
mrhl0_sx345 quick_test/data-fmllr-tri3/train/data/feats_fmllr_train.9.ark:652204
mmpm0_sx161 quick_test/data-fmllr-tri3/train/data/feats_fmllr_train.8.ark:1889983
fljd0_sx256 quick_test/data-fmllr-tri3/train/data/feats_fmllr_train.2.ark:11412287
msjk0_sx246 quick_test/data-fmllr-tri3/train/data/feats_fmllr_train.9.ark:15623312
mmgc0_sx315 quick_test/data-fmllr-tri3/train/data/feats_fmllr_train.8.ark:229430
mbma0_si1852 quick_test/data-fmllr-tri3/train/data/feats_fmllr_train.4.ark:5627139
mprt0_si495 quick_test/data-fmllr-tri3/train/data/feats_fmllr_train.8.ark:10347602
fceg0_si1248 quick_test/data-fmllr-tri3/train/data/feats_fmllr_train.1.ark:6075585
mjeb1_sx387 quick_test/data-fmllr-tri3/train/data/feats_fmllr_train.6.ark:10777256
mtrc0_sx273 quick_test/data-fmllr-tri3/train/data/feats_fmllr_train.10.ark:10704511
mdlr0_si1863 quick_test/data-fmllr-tri3/train/data/feats_fmllr_train.5.ark:4713526
mmar0_si706 quick_test/data-fmllr-tri3/train/data/feats_fmllr_train.7.ark:14318122
mdcd0_si1415 quick_test/data-fmllr-tri3/train/data/feats_fmllr_train.4.ark:15888805
mwem0_si1320 quick_test/data-fmllr-tri3/train/data/feats_fmllr_train.10.ark:15248000
fblv0_si2318 quick_test/data-fmllr-tri3/train/data/feats_fmllr_train.1.ark:3799778
mjai0_si710 quick_test/data-fmllr-tri3/train/data/feats_fmllr_train.6.ark:7382104
mcpm0_sx294 quick_test/data-fmllr-tri3/train/data/feats_fmllr_train.4.ark:12389680
mzmb0_sx266 quick_test/data-fmllr-tri3/train/data/feats_fmllr_train.10.ark:17803010
mwem0_si1950 quick_test/data-fmllr-tri3/train/data/feats_fmllr_train.10.ark:15337496
mdas0_si1266 quick_test/data-fmllr-tri3/train/data/feats_fmllr_train.4.ark:14766236
mvlo0_sx337 quick_test/data-fmllr-tri3/train/data/feats_fmllr_train.10.ark:12949974
fskp0_sx108 quick_test/data-fmllr-tri3/train/data/feats_fmllr_train.3.ark:10887713
frjb0_sx77 quick_test/data-fmllr-tri3/train/data/feats_fmllr_train.3.ark:4658108
mcef0_sx235 quick_test/data-fmllr-tri3/train/data/feats_fmllr_train.4.ark:10319101
fsjw0_si1963 quick_test/data-fmllr-tri3/train/data/feats_fmllr_train.3.ark:9667168
mpar0_sx406 quick_test/data-fmllr-tri3/train/data/feats_fmllr_train.8.ark:5989671
mtrt0_sx57 quick_test/data-fmllr-tri3/train/data/feats_fmllr_train.10.ark:11511558
mtkp0_sx33 quick_test/data-fmllr-tri3/train/data/feats_fmllr_train.10.ark:6419910
mewm0_sx358 quick_test/data-fmllr-tri3/train/data/feats_fmllr_train.5.ark:13903319
fvkb0_sx439 quick_test/data-fmllr-tri3/train/data/feats_fmllr_train.3.ark:16395953
mtqc0_sx181 quick_test/data-fmllr-tri3/train/data/feats_fmllr_train.10.ark:10151121
mkes0_si1253 quick_test/data-fmllr-tri3/train/data/feats_fmllr_train.7.ark:6725940
mgsh0_sx276 quick_test/data-fmllr-tri3/train/data/feats_fmllr_train.6.ark:2576493
mhmg0_sx285 quick_test/data-fmllr-tri3/train/data/feats_fmllr_train.6.ark:4871416
mpsw0_sx24 quick_test/data-fmllr-tri3/train/data/feats_fmllr_train.8.ark:10784700
mpgr1_si2129 quick_test/data-fmllr-tri3/train/data/feats_fmllr_train.8.ark:7602328
fcjs0_si1607 quick_test/data-fmllr-tri3/train/data/feats_fmllr_train.1.ark:6700339
ftbr0_sx291 quick_test/data-fmllr-tri3/train/data/feats_fmllr_train.3.ark:14511987
mjkr0_sx31 quick_test/data-fmllr-tri3/train/data/feats_fmllr_train.6.ark:13876565
mjrp0_sx225 quick_test/data-fmllr-tri3/train/data/feats_fmllr_train.7.ark:1309574
mjeb0_sx206 quick_test/data-fmllr-tri3/train/data/feats_fmllr_train.6.ark:10250879
fpmy0_sx163 quick_test/data-fmllr-tri3/train/data/feats_fmllr_train.3.ark:3776446
ftmg0_sx92 quick_test/data-fmllr-tri3/train/data/feats_fmllr_train.3.ark:15711544
mjra0_si606 quick_test/data-fmllr-tri3/train/data/feats_fmllr_train.6.ark:17322630
mdpb0_sx236 quick_test/data-fmllr-tri3/train/data/feats_fmllr_train.5.ark:6899813
fhxs0_sx445 quick_test/data-fmllr-tri3/train/data/feats_fmllr_train.1.ark:18754165
mreh1_sx429 quick_test/data-fmllr-tri3/train/data/feats_fmllr_train.8.ark:15860379
mtpf0_sx335 quick_test/data-fmllr-tri3/train/data/feats_fmllr_train.10.ark:8690307
mcpm0_sx384 quick_test/data-fmllr-tri3/train/data/feats_fmllr_train.4.ark:12423627
msdb0_sx107 quick_test/data-fmllr-tri3/train/data/feats_fmllr_train.9.ark:12648164
mcth0_si1209 quick_test/data-fmllr-tri3/train/data/feats_fmllr_train.4.ark:13233848
fbcg1_sx172 quick_test/data-fmllr-tri3/train/data/feats_fmllr_train.1.ark:2589554
mrmh0_si1021 quick_test/data-fmllr-tri3/train/data/feats_fmllr_train.9.ark:5893347
mtrt0_sx417 quick_test/data-fmllr-tri3/train/data/feats_fmllr_train.10.ark:11464172
mprb0_si575 quick_test/data-fmllr-tri3/train/data/feats_fmllr_train.8.ark:9048419
mstf0_si852 quick_test/data-fmllr-tri3/train/data/feats_fmllr_train.9.ark:17814317
mbcg0_si957 quick_test/data-fmllr-tri3/train/data/feats_fmllr_train.4.ark:4183098
msem1_sx270 quick_test/data-fmllr-tri3/train/data/feats_fmllr_train.9.ark:13968203
fsah0_si1874 quick_test/data-fmllr-tri3/train/data/feats_fmllr_train.3.ark:5598437
fsjs0_sx181 quick_test/data-fmllr-tri3/train/data/feats_fmllr_train.3.ark:9321725
mpeb0_sx150 quick_test/data-fmllr-tri3/train/data/feats_fmllr_train.8.ark:6184527
mjls0_si1726 quick_test/data-fmllr-tri3/train/data/feats_fmllr_train.6.ark:14711003
mbwp0_si709 quick_test/data-fmllr-tri3/train/data/feats_fmllr_train.4.ark:7776147
mcre0_sx401 quick_test/data-fmllr-tri3/train/data/feats_fmllr_train.4.ark:12729098
fnkl0_si1522 quick_test/data-fmllr-tri3/train/data/feats_fmllr_train.3.ark:13
fexm0_sx201 quick_test/data-fmllr-tri3/train/data/feats_fmllr_train.1.ark:16017765
flja0_sx178 quick_test/data-fmllr-tri3/train/data/feats_fmllr_train.2.ark:10927403
mcef0_sx325 quick_test/data-fmllr-tri3/train/data/feats_fmllr_train.4.ark:10361368
fcdr1_sx106 quick_test/data-fmllr-tri3/train/data/feats_fmllr_train.1.ark:5825530
mhbs0_sx225 quick_test/data-fmllr-tri3/train/data/feats_fmllr_train.6.ark:3768311
mjfr0_sx75 quick_test/data-fmllr-tri3/train/data/feats_fmllr_train.6.ark:11902867
mdlc1_si2065 quick_test/data-fmllr-tri3/train/data/feats_fmllr_train.5.ark:3270578
mjrk0_si2103 quick_test/data-fmllr-tri3/train/data/feats_fmllr_train.7.ark:792316
fcaj0_sx129 quick_test/data-fmllr-tri3/train/data/feats_fmllr_train.1.ark:5348513
mmds0_si713 quick_test/data-fmllr-tri3/train/data/feats_fmllr_train.7.ark:17098841
fdas1_sx21 quick_test/data-fmllr-tri3/train/data/feats_fmllr_train.1.ark:9616554
mtjm0_sx416 quick_test/data-fmllr-tri3/train/data/feats_fmllr_train.10.ark:4765123
fgdp0_sx268 quick_test/data-fmllr-tri3/train/data/feats_fmllr_train.1.ark:16821240
mwdk0_si2017 quick_test/data-fmllr-tri3/train/data/feats_fmllr_train.10.ark:14931171
mkls0_sx447 quick_test/data-fmllr-tri3/train/data/feats_fmllr_train.7.ark:8536253
fskp0_si1098 quick_test/data-fmllr-tri3/train/data/feats_fmllr_train.3.ark:10735311
mwre0_sx157 quick_test/data-fmllr-tri3/train/data/feats_fmllr_train.10.ark:16165478
mfxv0_sx285 quick_test/data-fmllr-tri3/train/data/feats_fmllr_train.5.ark:16139690
msvs0_sx128 quick_test/data-fmllr-tri3/train/data/feats_fmllr_train.10.ark:200255
mtlc0_si1477 quick_test/data-fmllr-tri3/train/data/feats_fmllr_train.10.ark:6957650
mtpp0_sx68 quick_test/data-fmllr-tri3/train/data/feats_fmllr_train.10.ark:9479274
mjai0_sx434 quick_test/data-fmllr-tri3/train/data/feats_fmllr_train.6.ark:7573412
fjdm2_si2212 quick_test/data-fmllr-tri3/train/data/feats_fmllr_train.2.ark:96549
fapb0_sx253 quick_test/data-fmllr-tri3/train/data/feats_fmllr_train.1.ark:1818106
mbml0_si539 quick_test/data-fmllr-tri3/train/data/feats_fmllr_train.4.ark:6409840
mtab0_sx222 quick_test/data-fmllr-tri3/train/data/feats_fmllr_train.10.ark:724659
mgar0_si1694 quick_test/data-fmllr-tri3/train/data/feats_fmllr_train.6.ark:59241
fetb0_si1148 quick_test/data-fmllr-tri3/train/data/feats_fmllr_train.1.ark:15416959
mdmt0_si1832 quick_test/data-fmllr-tri3/train/data/feats_fmllr_train.5.ark:5929030
mhbs0_sx45 quick_test/data-fmllr-tri3/train/data/feats_fmllr_train.6.ark:3876071
mdtb0_si570 quick_test/data-fmllr-tri3/train/data/feats_fmllr_train.5.ark:9315038
mmvp0_sx347 quick_test/data-fmllr-tri3/train/data/feats_fmllr_train.8.ark:3309594
mjkr0_sx391 quick_test/data-fmllr-tri3/train/data/feats_fmllr_train.6.ark:13911472
mcew0_sx272 quick_test/data-fmllr-tri3/train/data/feats_fmllr_train.4.ark:10734198
mklw0_sx221 quick_test/data-fmllr-tri3/train/data/feats_fmllr_train.7.ark:9167834
maeb0_sx270 quick_test/data-fmllr-tri3/train/data/feats_fmllr_train.4.ark:201882
mmxs0_sx426 quick_test/data-fmllr-tri3/train/data/feats_fmllr_train.8.ark:4894781
fmjf0_si1884 quick_test/data-fmllr-tri3/train/data/feats_fmllr_train.2.ark:15956250
fdtd0_sx211 quick_test/data-fmllr-tri3/train/data/feats_fmllr_train.1.ark:12787068
fkdw0_si1207 quick_test/data-fmllr-tri3/train/data/feats_fmllr_train.2.ark:6053993
fhlm0_si1560 quick_test/data-fmllr-tri3/train/data/feats_fmllr_train.1.ark:17959863
fexm0_sx291 quick_test/data-fmllr-tri3/train/data/feats_fmllr_train.1.ark:16080032
fklc0_si1615 quick_test/data-fmllr-tri3/train/data/feats_fmllr_train.2.ark:7304084
mjpm0_sx288 quick_test/data-fmllr-tri3/train/data/feats_fmllr_train.6.ark:16743423
fgcs0_si1486 quick_test/data-fmllr-tri3/train/data/feats_fmllr_train.1.ark:16249234
fdmy0_si1197 quick_test/data-fmllr-tri3/train/data/feats_fmllr_train.1.ark:11607485
mjws0_sx153 quick_test/data-fmllr-tri3/train/data/feats_fmllr_train.7.ark:2531797
mjrg0_sx16 quick_test/data-fmllr-tri3/train/data/feats_fmllr_train.6.ark:17791540
mcdc0_sx32 quick_test/data-fmllr-tri3/train/data/feats_fmllr_train.4.ark:9256103
megj0_si707 quick_test/data-fmllr-tri3/train/data/feats_fmllr_train.5.ark:11943757
fsdc0_sx232 quick_test/data-fmllr-tri3/train/data/feats_fmllr_train.3.ark:7404827
mter0_sx77 quick_test/data-fmllr-tri3/train/data/feats_fmllr_train.10.ark:4043115
mded0_sx180 quick_test/data-fmllr-tri3/train/data/feats_fmllr_train.4.ark:17174498
mrtc0_si828 quick_test/data-fmllr-tri3/train/data/feats_fmllr_train.9.ark:8885484
fskp0_sx198 quick_test/data-fmllr-tri3/train/data/feats_fmllr_train.3.ark:10966646
mljc0_sx235 quick_test/data-fmllr-tri3/train/data/feats_fmllr_train.7.ark:11149559
mrmg0_sx450 quick_test/data-fmllr-tri3/train/data/feats_fmllr_train.9.ark:5796333
fbmh0_sx146 quick_test/data-fmllr-tri3/train/data/feats_fmllr_train.1.ark:4261942
mdlr0_sx423 quick_test/data-fmllr-tri3/train/data/feats_fmllr_train.5.ark:4960221
mvrw0_si1485 quick_test/data-fmllr-tri3/train/data/feats_fmllr_train.10.ark:13095495
mwac0_sx431 quick_test/data-fmllr-tri3/train/data/feats_fmllr_train.10.ark:13770915
mrab1_sx308 quick_test/data-fmllr-tri3/train/data/feats_fmllr_train.8.ark:11565801
mdhl0_si1439 quick_test/data-fmllr-tri3/train/data/feats_fmllr_train.5.ark:826207
mpsw0_sx77 quick_test/data-fmllr-tri3/train/data/feats_fmllr_train.8.ark:10895340
