mjdm0_sx440 quick_test/mfcc/raw_mfcc_train.3.ark:835673
fmju0_si759 quick_test/mfcc/raw_mfcc_train.1.ark:2961377
mljc0_sx235 quick_test/mfcc/raw_mfcc_train.3.ark:2449589
fbcg1_si982 quick_test/mfcc/raw_mfcc_train.1.ark:211994
fksr0_si487 quick_test/mfcc/raw_mfcc_train.1.ark:2300705
mtpf0_si605 quick_test/mfcc/raw_mfcc_train.4.ark:3015824
mrab1_sx38 quick_test/mfcc/raw_mfcc_train.4.ark:241846
fsak0_si670 quick_test/mfcc/raw_mfcc_train.1.ark:3636146
mabc0_sx331 quick_test/mfcc/raw_mfcc_train.2.ark:677685
fajw0_sx363 quick_test/mfcc/raw_mfcc_train.1.ark:59625
mtkd0_si1817 quick_test/mfcc/raw_mfcc_train.4.ark:2778219
fpls0_sx60 quick_test/mfcc/raw_mfcc_train.1.ark:3422425
fsah0_sx434 quick_test/mfcc/raw_mfcc_train.1.ark:3620595
fsag0_sx153 quick_test/mfcc/raw_mfcc_train.1.ark:3565202
fgdp0_sx178 quick_test/mfcc/raw_mfcc_train.1.ark:1407473
mwar0_sx145 quick_test/mfcc/raw_mfcc_train.4.ark:3502199
mdlc0_sx45 quick_test/mfcc/raw_mfcc_train.2.ark:2482702
mjrh0_si1755 quick_test/mfcc/raw_mfcc_train.3.ark:1516352
mdsj0_sx112 quick_test/mfcc/raw_mfcc_train.2.ark:2919832
mtwh1_sx72 quick_test/mfcc/raw_mfcc_train.4.ark:3294383
mwsh0_sx436 quick_test/mfcc/raw_mfcc_train.4.ark:3768799
mejl0_si1654 quick_test/mfcc/raw_mfcc_train.2.ark:3252385
fbch0_si959 quick_test/mfcc/raw_mfcc_train.1.ark:247995
mjac0_si2148 quick_test/mfcc/raw_mfcc_train.3.ark:548153
mjae0_si1524 quick_test/mfcc/raw_mfcc_train.3.ark:576776
fpad0_si716 quick_test/mfcc/raw_mfcc_train.1.ark:3270220
fsgf0_sx297 quick_test/mfcc/raw_mfcc_train.1.ark:3817523
makb0_si1016 quick_test/mfcc/raw_mfcc_train.2.ark:880109
mtpf0_sx65 quick_test/mfcc/raw_mfcc_train.4.ark:3035709
mlel0_si1876 quick_test/mfcc/raw_mfcc_train.3.ark:2399461
fsrh0_sx221 quick_test/mfcc/raw_mfcc_train.2.ark:358387
mjmd0_sx218 quick_test/mfcc/raw_mfcc_train.3.ark:1309508
mkjo0_si887 quick_test/mfcc/raw_mfcc_train.3.ark:2120063
mmjb1_sx418 quick_test/mfcc/raw_mfcc_train.3.ark:3137396
mdwd0_sx90 quick_test/mfcc/raw_mfcc_train.2.ark:3050647
mpeb0_sx240 quick_test/mfcc/raw_mfcc_train.3.ark:3548739
fjkl0_si2192 quick_test/mfcc/raw_mfcc_train.1.ark:1687525
mrjm1_si1298 quick_test/mfcc/raw_mfcc_train.4.ark:950846
mdcd0_sx65 quick_test/mfcc/raw_mfcc_train.2.ark:2119166
flma0_sx253 quick_test/mfcc/raw_mfcc_train.1.ark:2643581
mejl0_si1592 quick_test/mfcc/raw_mfcc_train.2.ark:3249023
mcxm0_si721 quick_test/mfcc/raw_mfcc_train.2.ark:1939371
mgsh0_sx276 quick_test/mfcc/raw_mfcc_train.3.ark:216505
mclk0_si650 quick_test/mfcc/raw_mfcc_train.2.ark:1717661
mhit0_sx443 quick_test/mfcc/raw_mfcc_train.3.ark:353936
mcdc0_sx302 quick_test/mfcc/raw_mfcc_train.2.ark:1529229
fcag0_si1503 quick_test/mfcc/raw_mfcc_train.1.ark:410713
mmab1_sx324 quick_test/mfcc/raw_mfcc_train.3.ark:2624666
mmgc0_si1935 quick_test/mfcc/raw_mfcc_train.3.ark:3031134
mchl0_si1977 quick_test/mfcc/raw_mfcc_train.2.ark:1689264
mfer0_sx322 quick_test/mfcc/raw_mfcc_train.2.ark:3415690
mcdc0_sx122 quick_test/mfcc/raw_mfcc_train.2.ark:1520466
mcdc0_si1922 quick_test/mfcc/raw_mfcc_train.2.ark:1513731
mwdk0_sx446 quick_test/mfcc/raw_mfcc_train.4.ark:3572873
mjmm0_si1255 quick_test/mfcc/raw_mfcc_train.3.ark:1324174
msat0_sx356 quick_test/mfcc/raw_mfcc_train.4.ark:1786404
fetb0_si1778 quick_test/mfcc/raw_mfcc_train.1.ark:1298191
mwsb0_sx186 quick_test/mfcc/raw_mfcc_train.4.ark:3722482
mmab1_sx234 quick_test/mfcc/raw_mfcc_train.3.ark:2620629
fgrw0_sx72 quick_test/mfcc/raw_mfcc_train.1.ark:1504569
mprb0_si1215 quick_test/mfcc/raw_mfcc_train.4.ark:19314
mkln0_sx248 quick_test/mfcc/raw_mfcc_train.3.ark:2157756
mded0_sx90 quick_test/mfcc/raw_mfcc_train.2.ark:2214822
msat0_sx176 quick_test/mfcc/raw_mfcc_train.4.ark:1779760
mdcm0_si1480 quick_test/mfcc/raw_mfcc_train.2.ark:2121956
fblv0_si2318 quick_test/mfcc/raw_mfcc_train.1.ark:318726
mmea0_sx308 quick_test/mfcc/raw_mfcc_train.3.ark:2985420
fbjl0_sx382 quick_test/mfcc/raw_mfcc_train.1.ark:303245
mkah0_sx358 quick_test/mfcc/raw_mfcc_train.3.ark:1905030
mrvg0_sx420 quick_test/mfcc/raw_mfcc_train.4.ark:1605836
mdwm0_si2176 quick_test/mfcc/raw_mfcc_train.2.ark:3095661
fkde0_sx241 quick_test/mfcc/raw_mfcc_train.1.ark:2072247
mdlh0_si1960 quick_test/mfcc/raw_mfcc_train.2.ark:2546564
mabc0_si1620 quick_test/mfcc/raw_mfcc_train.2.ark:660229
mkaj0_si784 quick_test/mfcc/raw_mfcc_train.3.ark:1925034
fcjs0_sx77 quick_test/mfcc/raw_mfcc_train.1.ark:589083
fmkc0_sx262 quick_test/mfcc/raw_mfcc_train.1.ark:3002425
frjb0_sx257 quick_test/mfcc/raw_mfcc_train.1.ark:3505907
fajw0_sx273 quick_test/mfcc/raw_mfcc_train.1.ark:53477
mtpr0_sx70 quick_test/mfcc/raw_mfcc_train.4.ark:3132262
mtju0_sx220 quick_test/mfcc/raw_mfcc_train.4.ark:2759047
mfxs0_sx144 quick_test/mfcc/raw_mfcc_train.2.ark:3530774
mmam0_si1597 quick_test/mfcc/raw_mfcc_train.3.ark:2676029
mrcw0_sx111 quick_test/mfcc/raw_mfcc_train.4.ark:430748
fhlm0_si930 quick_test/mfcc/raw_mfcc_train.1.ark:1513796
fhxs0_si2302 quick_test/mfcc/raw_mfcc_train.1.ark:1547257
mdss0_si621 quick_test/mfcc/raw_mfcc_train.2.ark:2946077
maeo0_sx426 quick_test/mfcc/raw_mfcc_train.2.ark:809065
mzmb0_sx266 quick_test/mfcc/raw_mfcc_train.4.ark:3794465
mprd0_sx261 quick_test/mfcc/raw_mfcc_train.4.ark:74928
mcef0_sx145 quick_test/mfcc/raw_mfcc_train.2.ark:1618722
falk0_si658 quick_test/mfcc/raw_mfcc_train.1.ark:76033
fnkl0_si2152 quick_test/mfcc/raw_mfcc_train.1.ark:3130925
mdpk0_sx333 quick_test/mfcc/raw_mfcc_train.2.ark:2829351
mjxl0_sx92 quick_test/mfcc/raw_mfcc_train.3.ark:1845715
mppc0_sx152 quick_test/mfcc/raw_mfcc_train.3.ark:3756242
mdns0_si1011 quick_test/mfcc/raw_mfcc_train.2.ark:2745832
frjb0_si1794 quick_test/mfcc/raw_mfcc_train.1.ark:3498639
mesj0_si2039 quick_test/mfcc/raw_mfcc_train.2.ark:3341416
mdjm0_si1455 quick_test/mfcc/raw_mfcc_train.2.ark:2349062
mdem0_sx158 quick_test/mfcc/raw_mfcc_train.2.ark:2264361
mjpm0_si1998 quick_test/mfcc/raw_mfcc_train.3.ark:1387736
mrkm0_sx97 quick_test/mfcc/raw_mfcc_train.4.ark:1054773
fvfb0_sx42 quick_test/mfcc/raw_mfcc_train.2.ark:594119
fdkn0_sx181 quick_test/mfcc/raw_mfcc_train.1.ark:924216
mdwh0_sx125 quick_test/mfcc/raw_mfcc_train.2.ark:3069579
mcdc0_si662 quick_test/mfcc/raw_mfcc_train.2.ark:1516949
fsmm0_si684 quick_test/mfcc/raw_mfcc_train.2.ark:250627
fmkf0_sx276 quick_test/mfcc/raw_mfcc_train.1.ark:3037374
mjjb0_sx419 quick_test/mfcc/raw_mfcc_train.3.ark:1062454
fcyl0_sx397 quick_test/mfcc/raw_mfcc_train.1.ark:779681
mcef0_sx415 quick_test/mfcc/raw_mfcc_train.2.ark:1628948
mtas0_sx35 quick_test/mfcc/raw_mfcc_train.4.ark:2396682
fpmy0_sx253 quick_test/mfcc/raw_mfcc_train.1.ark:3451485
mbwp0_sx259 quick_test/mfcc/raw_mfcc_train.2.ark:1417019
mrld0_sx244 quick_test/mfcc/raw_mfcc_train.4.ark:1073673
mjfh0_sx27 quick_test/mfcc/raw_mfcc_train.3.ark:960017
msdb0_sx17 quick_test/mfcc/raw_mfcc_train.4.ark:1840293
mpgr0_si780 quick_test/mfcc/raw_mfcc_train.3.ark:3634877
fjkl0_si1562 quick_test/mfcc/raw_mfcc_train.1.ark:1685801
mhjb0_sx297 quick_test/mfcc/raw_mfcc_train.3.ark:381384
mjda0_sx131 quick_test/mfcc/raw_mfcc_train.3.ark:685105
mtlb0_sx144 quick_test/mfcc/raw_mfcc_train.4.ark:2855905
mcdr0_sx254 quick_test/mfcc/raw_mfcc_train.2.ark:1592581
mtrc0_si993 quick_test/mfcc/raw_mfcc_train.4.ark:3186278
mpmb0_sx421 quick_test/mfcc/raw_mfcc_train.3.ark:3729140
mpgr0_si1410 quick_test/mfcc/raw_mfcc_train.3.ark:3627101
fpjf0_sx56 quick_test/mfcc/raw_mfcc_train.1.ark:3392964
fdas1_sx381 quick_test/mfcc/raw_mfcc_train.1.ark:814396
mkrg0_si861 quick_test/mfcc/raw_mfcc_train.3.ark:2312106
mmws0_sx168 quick_test/mfcc/raw_mfcc_train.3.ark:3367783
fmju0_sx39 quick_test/mfcc/raw_mfcc_train.1.ark:2978577
mtjg0_si2157 quick_test/mfcc/raw_mfcc_train.4.ark:2644494
mjdm0_sx80 quick_test/mfcc/raw_mfcc_train.3.ark:840814
mhrm0_sx418 quick_test/mfcc/raw_mfcc_train.3.ark:471672
marw0_si646 quick_test/mfcc/raw_mfcc_train.2.ark:1010795
mjeb0_sx386 quick_test/mfcc/raw_mfcc_train.3.ark:872409
fpaf0_sx64 quick_test/mfcc/raw_mfcc_train.1.ark:3327148
fsjk1_sx125 quick_test/mfcc/raw_mfcc_train.1.ark:3879952
mbml0_si1169 quick_test/mfcc/raw_mfcc_train.2.ark:1286893
maeo0_sx156 quick_test/mfcc/raw_mfcc_train.2.ark:797617
fntb0_sx33 quick_test/mfcc/raw_mfcc_train.1.ark:3183028
fcaj0_sx399 quick_test/mfcc/raw_mfcc_train.1.ark:464887
mdhl0_sx359 quick_test/mfcc/raw_mfcc_train.2.ark:2306318
mrfl0_si1786 quick_test/mfcc/raw_mfcc_train.4.ark:705055
mhrm0_si2218 quick_test/mfcc/raw_mfcc_train.3.ark:452800
mrso0_sx219 quick_test/mfcc/raw_mfcc_train.4.ark:1456796
fntb0_sx123 quick_test/mfcc/raw_mfcc_train.1.ark:3172699
mkdb0_sx242 quick_test/mfcc/raw_mfcc_train.3.ark:1994569
mtjm0_si1856 quick_test/mfcc/raw_mfcc_train.4.ark:2678962
mjwg0_sx85 quick_test/mfcc/raw_mfcc_train.3.ark:1711145
mcal0_sx58 quick_test/mfcc/raw_mfcc_train.2.ark:1504966
mrjb1_sx210 quick_test/mfcc/raw_mfcc_train.4.ark:863981
mkjo0_sx424 quick_test/mfcc/raw_mfcc_train.3.ark:2130185
mmws0_si888 quick_test/mfcc/raw_mfcc_train.3.ark:3363395
mmgg0_sx179 quick_test/mfcc/raw_mfcc_train.3.ark:3067477
mjxl0_sx182 quick_test/mfcc/raw_mfcc_train.3.ark:1828541
mpgr1_sx149 quick_test/mfcc/raw_mfcc_train.3.ark:3668794
fjsk0_sx152 quick_test/mfcc/raw_mfcc_train.1.ark:1867200
mjeb1_si2097 quick_test/mfcc/raw_mfcc_train.3.ark:881772
mbma0_sx232 quick_test/mfcc/raw_mfcc_train.2.ark:1236329
mrai0_sx252 quick_test/mfcc/raw_mfcc_train.4.ark:268774
fkde0_sx421 quick_test/mfcc/raw_mfcc_train.1.ark:2080555
madd0_sx268 quick_test/mfcc/raw_mfcc_train.2.ark:738268
msah1_sx419 quick_test/mfcc/raw_mfcc_train.4.ark:1727784
mrsp0_sx196 quick_test/mfcc/raw_mfcc_train.4.ark:1494865
mwem0_si1393 quick_test/mfcc/raw_mfcc_train.4.ark:3584114
mmdb0_sx357 quick_test/mfcc/raw_mfcc_train.3.ark:2831748
fjsk0_sx242 quick_test/mfcc/raw_mfcc_train.1.ark:1871328
fscn0_sx266 quick_test/mfcc/raw_mfcc_train.1.ark:3716614
mgaw0_sx445 quick_test/mfcc/raw_mfcc_train.3.ark:57392
fskc0_sx156 quick_test/mfcc/raw_mfcc_train.2.ark:94179
mdwm0_sx376 quick_test/mfcc/raw_mfcc_train.2.ark:3116235
fltm0_si2330 quick_test/mfcc/raw_mfcc_train.1.ark:2757483
mjda0_sx221 quick_test/mfcc/raw_mfcc_train.3.ark:687569
mdlb0_sx316 quick_test/mfcc/raw_mfcc_train.2.ark:2438458
mbma0_sx322 quick_test/mfcc/raw_mfcc_train.2.ark:1240782
mstf0_sx406 quick_test/mfcc/raw_mfcc_train.4.ark:2290042
fpac0_sx211 quick_test/mfcc/raw_mfcc_train.1.ark:3247323
flac0_si2161 quick_test/mfcc/raw_mfcc_train.1.ark:2331630
mfmc0_sx412 quick_test/mfcc/raw_mfcc_train.2.ark:3451179
mrfl0_sx346 quick_test/mfcc/raw_mfcc_train.4.ark:722854
mrjm1_si1928 quick_test/mfcc/raw_mfcc_train.4.ark:956041
ftmg0_si1532 quick_test/mfcc/raw_mfcc_train.2.ark:536435
mkrg0_si1491 quick_test/mfcc/raw_mfcc_train.3.ark:2302042
megj0_sx77 quick_test/mfcc/raw_mfcc_train.2.ark:3244634
mclm0_sx376 quick_test/mfcc/raw_mfcc_train.2.ark:1768556
fkaa0_sx398 quick_test/mfcc/raw_mfcc_train.1.ark:2047847
mrai0_sx342 quick_test/mfcc/raw_mfcc_train.4.ark:272174
fkdw0_si1891 quick_test/mfcc/raw_mfcc_train.1.ark:2095540
mlbc0_sx69 quick_test/mfcc/raw_mfcc_train.3.ark:2391424
mtpp0_sx248 quick_test/mfcc/raw_mfcc_train.4.ark:3083006
mbml0_sx449 quick_test/mfcc/raw_mfcc_train.2.ark:1308555
fsjw0_si703 quick_test/mfcc/raw_mfcc_train.2.ark:60016
mter0_si1157 quick_test/mfcc/raw_mfcc_train.4.ark:2608108
fmem0_sx297 quick_test/mfcc/raw_mfcc_train.1.ark:2869370
mmws1_sx441 quick_test/mfcc/raw_mfcc_train.3.ark:3407485
msat1_sx353 quick_test/mfcc/raw_mfcc_train.4.ark:1815829
mdwd0_sx450 quick_test/mfcc/raw_mfcc_train.2.ark:3046338
mesj0_si2257 quick_test/mfcc/raw_mfcc_train.2.ark:3347573
mdlc0_si765 quick_test/mfcc/raw_mfcc_train.2.ark:2464494
mtwh1_sx432 quick_test/mfcc/raw_mfcc_train.4.ark:3289736
msmc0_sx197 quick_test/mfcc/raw_mfcc_train.4.ark:2125041
fsjk1_sx395 quick_test/mfcc/raw_mfcc_train.2.ark:10510
mwad0_sx342 quick_test/mfcc/raw_mfcc_train.4.ark:3479353
fbmh0_si1136 quick_test/mfcc/raw_mfcc_train.1.ark:342519
mjjm0_sx17 quick_test/mfcc/raw_mfcc_train.3.ark:1124615
mdbp0_sx258 quick_test/mfcc/raw_mfcc_train.2.ark:2072419
fmmh0_sx97 quick_test/mfcc/raw_mfcc_train.1.ark:3083129
fdaw0_sx326 quick_test/mfcc/raw_mfcc_train.1.ark:840727
mjpm0_sx108 quick_test/mfcc/raw_mfcc_train.3.ark:1396421
fsdj0_sx35 quick_test/mfcc/raw_mfcc_train.1.ark:3785629
fbmj0_sx426 quick_test/mfcc/raw_mfcc_train.1.ark:402678
mtdb0_si2031 quick_test/mfcc/raw_mfcc_train.4.ark:2542026
mntw0_sx168 quick_test/mfcc/raw_mfcc_train.3.ark:3489117
mjjj0_si1793 quick_test/mfcc/raw_mfcc_train.3.ark:1077231
fvmh0_sx206 quick_test/mfcc/raw_mfcc_train.2.ark:647591
mtpr0_sx430 quick_test/mfcc/raw_mfcc_train.4.ark:3126302
mtcs0_sx82 quick_test/mfcc/raw_mfcc_train.4.ark:2532559
fhlm0_sx390 quick_test/mfcc/raw_mfcc_train.1.ark:1537062
mljh0_sx424 quick_test/mfcc/raw_mfcc_train.3.ark:2497760
mree0_sx24 quick_test/mfcc/raw_mfcc_train.4.ark:560315
fdas1_si2091 quick_test/mfcc/raw_mfcc_train.1.ark:790422
mfxv0_sx285 quick_test/mfcc/raw_mfcc_train.2.ark:3575858
mdhl0_si2069 quick_test/mfcc/raw_mfcc_train.2.ark:2291990
mges0_si851 quick_test/mfcc/raw_mfcc_train.3.ark:67067
flja0_sx88 quick_test/mfcc/raw_mfcc_train.1.ark:2516715
mrjm0_sx58 quick_test/mfcc/raw_mfcc_train.4.ark:945664
mrds0_sx357 quick_test/mfcc/raw_mfcc_train.4.ark:526991
fcke0_sx301 quick_test/mfcc/raw_mfcc_train.1.ark:613736
mfer0_sx412 quick_test/mfcc/raw_mfcc_train.2.ark:3418570
fsms1_si1504 quick_test/mfcc/raw_mfcc_train.2.ark:278320
fltm0_si1700 quick_test/mfcc/raw_mfcc_train.1.ark:2753913
mzmb0_si536 quick_test/mfcc/raw_mfcc_train.4.ark:3784831
mjxl0_si1172 quick_test/mfcc/raw_mfcc_train.3.ark:1815961
mrmh0_si1021 quick_test/mfcc/raw_mfcc_train.4.ark:1269851
mjjm0_sx107 quick_test/mfcc/raw_mfcc_train.3.ark:1121723
mppc0_si782 quick_test/mfcc/raw_mfcc_train.3.ark:3752218
fleh0_sx331 quick_test/mfcc/raw_mfcc_train.1.ark:2412425
mlns0_sx417 quick_test/mfcc/raw_mfcc_train.3.ark:2528445
mjdm0_si1340 quick_test/mfcc/raw_mfcc_train.3.ark:808304
mlsh0_sx427 quick_test/mfcc/raw_mfcc_train.3.ark:2562367
fjhk0_sx392 quick_test/mfcc/raw_mfcc_train.1.ark:1681932
mwgr0_si976 quick_test/mfcc/raw_mfcc_train.4.ark:3620865
fspm0_sx431 quick_test/mfcc/raw_mfcc_train.2.ark:339416
fajw0_sx93 quick_test/mfcc/raw_mfcc_train.1.ark:64116
mkls1_sx375 quick_test/mfcc/raw_mfcc_train.3.ark:2263938
fmju0_sx399 quick_test/mfcc/raw_mfcc_train.1.ark:2982679
mzmb0_sx86 quick_test/mfcc/raw_mfcc_train.4.ark:3806016
mwrp0_sx3 quick_test/mfcc/raw_mfcc_train.4.ark:3699832
mrlk0_sx123 quick_test/mfcc/raw_mfcc_train.4.ark:1159807
mbom0_sx114 quick_test/mfcc/raw_mfcc_train.2.ark:1327104
mdrd0_sx302 quick_test/mfcc/raw_mfcc_train.2.ark:2895024
mkrg0_sx51 quick_test/mfcc/raw_mfcc_train.3.ark:2329390
fcrz0_si1913 quick_test/mfcc/raw_mfcc_train.1.ark:719541
mgsh0_sx127 quick_test/mfcc/raw_mfcc_train.3.ark:209783
mjra0_sx426 quick_test/mfcc/raw_mfcc_train.3.ark:1472593
mtjg0_sx440 quick_test/mfcc/raw_mfcc_train.4.ark:2666109
mjrk0_si880 quick_test/mfcc/raw_mfcc_train.3.ark:1581890
fkdw0_sx307 quick_test/mfcc/raw_mfcc_train.1.ark:2111051
fhxs0_sx175 quick_test/mfcc/raw_mfcc_train.1.ark:1560363
mcxm0_sx361 quick_test/mfcc/raw_mfcc_train.2.ark:1950819
mpgh0_sx114 quick_test/mfcc/raw_mfcc_train.3.ark:3612909
flag0_sx114 quick_test/mfcc/raw_mfcc_train.1.ark:2371000
msdb0_sx107 quick_test/mfcc/raw_mfcc_train.4.ark:1837440
fkkh0_sx300 quick_test/mfcc/raw_mfcc_train.1.ark:2186597
fpmy0_si1783 quick_test/mfcc/raw_mfcc_train.1.ark:3433036
mrml0_si1421 quick_test/mfcc/raw_mfcc_train.4.ark:1299822
majp0_sx354 quick_test/mfcc/raw_mfcc_train.2.ark:866815
mrtc0_si2088 quick_test/mfcc/raw_mfcc_train.4.ark:1515831
mhit0_si983 quick_test/mfcc/raw_mfcc_train.3.ark:335578
mjrh0_sx135 quick_test/mfcc/raw_mfcc_train.3.ark:1526715
mdlm0_sx154 quick_test/mfcc/raw_mfcc_train.2.ark:2593741
mrkm0_sx277 quick_test/mfcc/raw_mfcc_train.4.ark:1040338
fjlg0_si1889 quick_test/mfcc/raw_mfcc_train.1.ark:1718782
fsmm0_si1944 quick_test/mfcc/raw_mfcc_train.2.ark:247084
mmwb0_si989 quick_test/mfcc/raw_mfcc_train.3.ark:3326198
fmkc0_si1072 quick_test/mfcc/raw_mfcc_train.1.ark:2992094
mdss1_sx247 quick_test/mfcc/raw_mfcc_train.2.ark:2981014
mdwd0_sx180 quick_test/mfcc/raw_mfcc_train.2.ark:3036281
mdpb0_sx326 quick_test/mfcc/raw_mfcc_train.2.ark:2801591
mjma0_sx235 quick_test/mfcc/raw_mfcc_train.3.ark:1283177
fsgf0_sx387 quick_test/mfcc/raw_mfcc_train.1.ark:3820572
fpac0_si2011 quick_test/mfcc/raw_mfcc_train.1.ark:3233990
fsag0_sx423 quick_test/mfcc/raw_mfcc_train.1.ark:3582370
mtcs0_sx352 quick_test/mfcc/raw_mfcc_train.4.ark:2522575
mrre0_sx74 quick_test/mfcc/raw_mfcc_train.4.ark:1432045
mbom0_si2274 quick_test/mfcc/raw_mfcc_train.2.ark:1323717
mrms0_sx390 quick_test/mfcc/raw_mfcc_train.4.ark:1366892
ftbw0_sx85 quick_test/mfcc/raw_mfcc_train.2.ark:498671
mdma0_sx260 quick_test/mfcc/raw_mfcc_train.2.ark:2695983
mgsh0_si546 quick_test/mfcc/raw_mfcc_train.3.ark:204225
fsjk1_si696 quick_test/mfcc/raw_mfcc_train.1.ark:3875252
fsbk0_sx439 quick_test/mfcc/raw_mfcc_train.1.ark:3685086
mhbs0_si2205 quick_test/mfcc/raw_mfcc_train.3.ark:302949
fskp0_si1728 quick_test/mfcc/raw_mfcc_train.2.ark:151674
mjpg0_sx111 quick_test/mfcc/raw_mfcc_train.3.ark:1367816
flod0_si657 quick_test/mfcc/raw_mfcc_train.1.ark:2729877
mtmt0_sx218 quick_test/mfcc/raw_mfcc_train.4.ark:2992524
mjra0_sx156 quick_test/mfcc/raw_mfcc_train.3.ark:1459936
mmcc0_sx348 quick_test/mfcc/raw_mfcc_train.3.ark:2800153
mjeb1_sx27 quick_test/mfcc/raw_mfcc_train.3.ark:899531
mrav0_sx18 quick_test/mfcc/raw_mfcc_train.4.ark:332420
fdml0_sx159 quick_test/mfcc/raw_mfcc_train.1.ark:958360
mwre0_sx157 quick_test/mfcc/raw_mfcc_train.4.ark:3656966
mrmg0_sx270 quick_test/mfcc/raw_mfcc_train.4.ark:1254002
mjdm0_si1937 quick_test/mfcc/raw_mfcc_train.3.ark:815462
flhd0_sx174 quick_test/mfcc/raw_mfcc_train.1.ark:2465969
mjrg0_sx106 quick_test/mfcc/raw_mfcc_train.3.ark:1492584
mtxs0_si2320 quick_test/mfcc/raw_mfcc_train.4.ark:3305392
mmpm0_si2321 quick_test/mfcc/raw_mfcc_train.3.ark:3181462
mrab0_sx144 quick_test/mfcc/raw_mfcc_train.4.ark:196308
mrbc0_sx59 quick_test/mfcc/raw_mfcc_train.4.ark:374592
mded0_sx180 quick_test/mfcc/raw_mfcc_train.2.ark:2198454
fbas0_si2066 quick_test/mfcc/raw_mfcc_train.1.ark:182895
mnet0_sx186 quick_test/mfcc/raw_mfcc_train.3.ark:3455924
ftaj0_sx69 quick_test/mfcc/raw_mfcc_train.2.ark:434935
mhmg0_si1365 quick_test/mfcc/raw_mfcc_train.3.ark:387236
faem0_sx42 quick_test/mfcc/raw_mfcc_train.1.ark:29767
mtab0_si942 quick_test/mfcc/raw_mfcc_train.4.ark:2349460
mwsb0_si2256 quick_test/mfcc/raw_mfcc_train.4.ark:3713654
mljh0_si1324 quick_test/mfcc/raw_mfcc_train.3.ark:2464398
fetb0_sx68 quick_test/mfcc/raw_mfcc_train.1.ark:1322919
flac0_sx361 quick_test/mfcc/raw_mfcc_train.1.ark:2343579
mtlc0_si847 quick_test/mfcc/raw_mfcc_train.4.ark:2888845
mkah0_si898 quick_test/mfcc/raw_mfcc_train.3.ark:1891593
mcpm0_sx114 quick_test/mfcc/raw_mfcc_train.2.ark:1786279
mdns0_sx291 quick_test/mfcc/raw_mfcc_train.2.ark:2771601
fmjf0_sx84 quick_test/mfcc/raw_mfcc_train.1.ark:2946885
mbml0_si1799 quick_test/mfcc/raw_mfcc_train.2.ark:1289735
mdlb0_sx226 quick_test/mfcc/raw_mfcc_train.2.ark:2433615
mvrw0_sx135 quick_test/mfcc/raw_mfcc_train.4.ark:3409544
mhmg0_sx375 quick_test/mfcc/raw_mfcc_train.3.ark:413051
mtrt0_si1857 quick_test/mfcc/raw_mfcc_train.4.ark:3244690
fcyl0_sx127 quick_test/mfcc/raw_mfcc_train.1.ark:764847
mpgh0_sx24 quick_test/mfcc/raw_mfcc_train.3.ark:3618915
mvrw0_si2115 quick_test/mfcc/raw_mfcc_train.4.ark:3403628
mrjb1_sx120 quick_test/mfcc/raw_mfcc_train.4.ark:858566
mrab1_si2108 quick_test/mfcc/raw_mfcc_train.4.ark:221038
fscn0_si705 quick_test/mfcc/raw_mfcc_train.1.ark:3703041
fajw0_si1263 quick_test/mfcc/raw_mfcc_train.1.ark:32804
mpgh0_sx384 quick_test/mfcc/raw_mfcc_train.3.ark:3624298
mhjb0_si2277 quick_test/mfcc/raw_mfcc_train.3.ark:368266
mdlc2_sx174 quick_test/mfcc/raw_mfcc_train.2.ark:2527757
mtat1_sx239 quick_test/mfcc/raw_mfcc_train.4.ark:2453229
mtpg0_sx33 quick_test/mfcc/raw_mfcc_train.4.ark:3061356
mbef0_si1281 quick_test/mfcc/raw_mfcc_train.2.ark:1130413
mlbc0_sx159 quick_test/mfcc/raw_mfcc_train.3.ark:2377201
mkdt0_sx353 quick_test/mfcc/raw_mfcc_train.3.ark:2065370
mgag0_si691 quick_test/mfcc/raw_mfcc_train.2.ark:3620014
mdac0_sx361 quick_test/mfcc/raw_mfcc_train.2.ark:1984247
mwdk0_sx86 quick_test/mfcc/raw_mfcc_train.4.ark:3576649
mtrt0_si597 quick_test/mfcc/raw_mfcc_train.4.ark:3249104
mtju0_sx40 quick_test/mfcc/raw_mfcc_train.4.ark:2767133
mjhi0_si555 quick_test/mfcc/raw_mfcc_train.3.ark:1010582
mkjo0_sx77 quick_test/mfcc/raw_mfcc_train.3.ark:2139025
fkkh0_si1290 quick_test/mfcc/raw_mfcc_train.1.ark:2159346
fceg0_sx258 quick_test/mfcc/raw_mfcc_train.1.ark:522207
fbch0_sx146 quick_test/mfcc/raw_mfcc_train.1.ark:254177
mmar0_si706 quick_test/mfcc/raw_mfcc_train.3.ark:2715401
mdef0_si2193 quick_test/mfcc/raw_mfcc_train.2.ark:2228561
fpaf0_sx154 quick_test/mfcc/raw_mfcc_train.1.ark:3311404
mdcm0_sx40 quick_test/mfcc/raw_mfcc_train.2.ark:2146958
msms0_sx83 quick_test/mfcc/raw_mfcc_train.4.ark:2197813
mafm0_si2199 quick_test/mfcc/raw_mfcc_train.2.ark:818915
meal0_si2177 quick_test/mfcc/raw_mfcc_train.2.ark:3127126
mtju0_si2020 quick_test/mfcc/raw_mfcc_train.4.ark:2743873
fgmb0_si1775 quick_test/mfcc/raw_mfcc_train.1.ark:1438963
mgag0_si645 quick_test/mfcc/raw_mfcc_train.2.ark:3617420
mwsh0_si2266 quick_test/mfcc/raw_mfcc_train.4.ark:3744922
mjai0_si1604 quick_test/mfcc/raw_mfcc_train.3.ark:611050
mgrp0_sx147 quick_test/mfcc/raw_mfcc_train.3.ark:171324
msmr0_si775 quick_test/mfcc/raw_mfcc_train.4.ark:2147490
mrtj0_si2032 quick_test/mfcc/raw_mfcc_train.4.ark:1549870
fbas0_sx217 quick_test/mfcc/raw_mfcc_train.1.ark:193725
fdtd0_si931 quick_test/mfcc/raw_mfcc_train.1.ark:1065839
mmea0_si758 quick_test/mfcc/raw_mfcc_train.3.ark:2974180
mdwh0_sx305 quick_test/mfcc/raw_mfcc_train.2.ark:3078381
mmcc0_si708 quick_test/mfcc/raw_mfcc_train.3.ark:2789797
mrfk0_sx86 quick_test/mfcc/raw_mfcc_train.4.ark:695848
fjdm2_sx142 quick_test/mfcc/raw_mfcc_train.1.ark:1593233
mdsj0_sx292 quick_test/mfcc/raw_mfcc_train.2.ark:2926696
fhxs0_sx85 quick_test/mfcc/raw_mfcc_train.1.ark:1577329
mrtc0_sx108 quick_test/mfcc/raw_mfcc_train.4.ark:1524672
fjrp1_sx82 quick_test/mfcc/raw_mfcc_train.1.ark:1850308
fsrh0_sx131 quick_test/mfcc/raw_mfcc_train.2.ark:355052
fmpg0_si2232 quick_test/mfcc/raw_mfcc_train.1.ark:3090438
mfmc0_sx322 quick_test/mfcc/raw_mfcc_train.2.ark:3447688
falk0_si456 quick_test/mfcc/raw_mfcc_train.1.ark:72191
fkkh0_si660 quick_test/mfcc/raw_mfcc_train.1.ark:2172088
mrgm0_sx416 quick_test/mfcc/raw_mfcc_train.4.ark:760234
mmaa0_sx395 quick_test/mfcc/raw_mfcc_train.3.ark:2600884
msmc0_si1907 quick_test/mfcc/raw_mfcc_train.4.ark:2104038
mmeb0_sx97 quick_test/mfcc/raw_mfcc_train.3.ark:3021849
mjra0_si1866 quick_test/mfcc/raw_mfcc_train.3.ark:1451771
fjsp0_si804 quick_test/mfcc/raw_mfcc_train.1.ark:1895707
fklc0_sx175 quick_test/mfcc/raw_mfcc_train.1.ark:2206082
mmar0_si1336 quick_test/mfcc/raw_mfcc_train.3.ark:2704037
mbar0_sx419 quick_test/mfcc/raw_mfcc_train.2.ark:1063218
mhbs0_si1575 quick_test/mfcc/raw_mfcc_train.3.ark:299444
mrlj0_si2050 quick_test/mfcc/raw_mfcc_train.4.ark:1090531
mhmr0_sx399 quick_test/mfcc/raw_mfcc_train.3.ark:447220
mrlr0_sx26 quick_test/mfcc/raw_mfcc_train.4.ark:1197486
fpab1_si1471 quick_test/mfcc/raw_mfcc_train.1.ark:3189894
fpab1_sx391 quick_test/mfcc/raw_mfcc_train.1.ark:3224107
fgmb0_sx245 quick_test/mfcc/raw_mfcc_train.1.ark:1452283
mrjh0_sx307 quick_test/mfcc/raw_mfcc_train.4.ark:904721
mjwt0_sx211 quick_test/mfcc/raw_mfcc_train.3.ark:1770103
mrdd0_sx330 quick_test/mfcc/raw_mfcc_train.4.ark:467981
feac0_sx165 quick_test/mfcc/raw_mfcc_train.1.ark:1134068
fskc0_si2046 quick_test/mfcc/raw_mfcc_train.2.ark:87366
mmrp0_sx234 quick_test/mfcc/raw_mfcc_train.3.ark:3221273
fklh0_si1887 quick_test/mfcc/raw_mfcc_train.1.ark:2267777
fdmy0_sx117 quick_test/mfcc/raw_mfcc_train.1.ark:997832
mgaw0_sx265 quick_test/mfcc/raw_mfcc_train.3.ark:50865
mmam0_sx157 quick_test/mfcc/raw_mfcc_train.3.ark:2686569
feme0_si875 quick_test/mfcc/raw_mfcc_train.1.ark:1266590
fskc0_sx336 quick_test/mfcc/raw_mfcc_train.2.ark:100810
fsjk1_sx215 quick_test/mfcc/raw_mfcc_train.2.ark:12
mkdd0_sx217 quick_test/mfcc/raw_mfcc_train.3.ark:2031247
mjjj0_sx83 quick_test/mfcc/raw_mfcc_train.3.ark:1102674
fksr0_sx37 quick_test/mfcc/raw_mfcc_train.1.ark:2317762
mklw0_si1844 quick_test/mfcc/raw_mfcc_train.3.ark:2275030
fsak0_sx400 quick_test/mfcc/raw_mfcc_train.1.ark:3655706
mtab0_sx312 quick_test/mfcc/raw_mfcc_train.4.ark:2363612
mmsm0_sx296 quick_test/mfcc/raw_mfcc_train.3.ark:3268065
mstf0_sx226 quick_test/mfcc/raw_mfcc_train.4.ark:2282293
marw0_si1276 quick_test/mfcc/raw_mfcc_train.2.ark:1004072
mtrr0_sx288 quick_test/mfcc/raw_mfcc_train.4.ark:3229028
fpjf0_sx352 quick_test/mfcc/raw_mfcc_train.1.ark:3387342
mwar0_si2305 quick_test/mfcc/raw_mfcc_train.4.ark:3499085
mkln0_si1598 quick_test/mfcc/raw_mfcc_train.3.ark:2142205
mtlb0_sx324 quick_test/mfcc/raw_mfcc_train.4.ark:2863069
ftmg0_sx272 quick_test/mfcc/raw_mfcc_train.2.ark:551856
mtrt0_sx417 quick_test/mfcc/raw_mfcc_train.4.ark:3261352
falr0_sx65 quick_test/mfcc/raw_mfcc_train.1.ark:128603
mdlm0_si604 quick_test/mfcc/raw_mfcc_train.2.ark:2587143
flet0_sx57 quick_test/mfcc/raw_mfcc_train.1.ark:2452392
maeo0_si1326 quick_test/mfcc/raw_mfcc_train.2.ark:785101
mhit0_si1613 quick_test/mfcc/raw_mfcc_train.3.ark:328868
mjae0_si1999 quick_test/mfcc/raw_mfcc_train.3.ark:581100
mrgs0_si726 quick_test/mfcc/raw_mfcc_train.4.ark:783111
mdlr0_sx63 quick_test/mfcc/raw_mfcc_train.2.ark:2639897
mhxl0_sx422 quick_test/mfcc/raw_mfcc_train.3.ark:505567
majp0_si1704 quick_test/mfcc/raw_mfcc_train.2.ark:846688
mjeb1_sx117 quick_test/mfcc/raw_mfcc_train.3.ark:893044
mrws0_sx382 quick_test/mfcc/raw_mfcc_train.4.ark:1670137
mdef0_sx33 quick_test/mfcc/raw_mfcc_train.2.ark:2241458
mrlr0_sx206 quick_test/mfcc/raw_mfcc_train.4.ark:1193138
mgaf0_sx382 quick_test/mfcc/raw_mfcc_train.2.ark:3608851
fgrw0_si1990 quick_test/mfcc/raw_mfcc_train.1.ark:1481824
fscn0_sx176 quick_test/mfcc/raw_mfcc_train.1.ark:3710185
fdkn0_si1081 quick_test/mfcc/raw_mfcc_train.1.ark:910829
mdwd0_sx360 quick_test/mfcc/raw_mfcc_train.2.ark:3042743
mpgr1_sx59 quick_test/mfcc/raw_mfcc_train.3.ark:3686033
mtlb0_sx414 quick_test/mfcc/raw_mfcc_train.4.ark:2868679
fklh0_sx357 quick_test/mfcc/raw_mfcc_train.1.ark:2280662
mfmc0_si502 quick_test/mfcc/raw_mfcc_train.2.ark:3433874
mdrd0_si1382 quick_test/mfcc/raw_mfcc_train.2.ark:2870951
mntw0_si1698 quick_test/mfcc/raw_mfcc_train.3.ark:3480080
mrew1_si1500 quick_test/mfcc/raw_mfcc_train.4.ark:639828
fpmy0_si523 quick_test/mfcc/raw_mfcc_train.1.ark:3436423
mchl0_sx177 quick_test/mfcc/raw_mfcc_train.2.ark:1691858
mdlc2_sx84 quick_test/mfcc/raw_mfcc_train.2.ark:2542552
fpls0_sx240 quick_test/mfcc/raw_mfcc_train.1.ark:3412462
mmdg0_si520 quick_test/mfcc/raw_mfcc_train.3.ark:2850556
mkaj0_sx334 quick_test/mfcc/raw_mfcc_train.3.ark:1935689
mtjs0_sx112 quick_test/mfcc/raw_mfcc_train.4.ark:2723181
mbar0_si689 quick_test/mfcc/raw_mfcc_train.2.ark:1044821
mprb0_si1205 quick_test/mfcc/raw_mfcc_train.4.ark:16173
mkdt0_sx443 quick_test/mfcc/raw_mfcc_train.3.ark:2070031
fkde0_sx331 quick_test/mfcc/raw_mfcc_train.1.ark:2075946
mwch0_sx452 quick_test/mfcc/raw_mfcc_train.4.ark:3539640
mrvg0_si510 quick_test/mfcc/raw_mfcc_train.4.ark:1592652
fcjs0_sx257 quick_test/mfcc/raw_mfcc_train.1.ark:576206
mdps0_si719 quick_test/mfcc/raw_mfcc_train.2.ark:2848211
mkdd0_si1567 quick_test/mfcc/raw_mfcc_train.3.ark:2011744
mclk0_sx400 quick_test/mfcc/raw_mfcc_train.2.ark:1740068
mdas0_si1266 quick_test/mfcc/raw_mfcc_train.2.ark:1995903
mdwh0_si1925 quick_test/mfcc/raw_mfcc_train.2.ark:3060140
mrab0_sx414 quick_test/mfcc/raw_mfcc_train.4.ark:208614
fsms1_sx154 quick_test/mfcc/raw_mfcc_train.2.ark:290497
mter0_sx17 quick_test/mfcc/raw_mfcc_train.4.ark:2626648
mkah0_sx268 quick_test/mfcc/raw_mfcc_train.3.ark:1900707
mrhl0_si885 quick_test/mfcc/raw_mfcc_train.4.ark:817902
mtrt0_si1227 quick_test/mfcc/raw_mfcc_train.4.ark:3238091
fbch0_sx326 quick_test/mfcc/raw_mfcc_train.1.ark:261393
mdma0_sx170 quick_test/mfcc/raw_mfcc_train.2.ark:2689476
mtjm0_sx326 quick_test/mfcc/raw_mfcc_train.4.ark:2694954
mrlk0_sx303 quick_test/mfcc/raw_mfcc_train.4.ark:1167010
faem0_sx312 quick_test/mfcc/raw_mfcc_train.1.ark:20537
mhbs0_sx225 quick_test/mfcc/raw_mfcc_train.3.ark:316438
flac0_sx271 quick_test/mfcc/raw_mfcc_train.1.ark:2340322
fsjw0_sx343 quick_test/mfcc/raw_mfcc_train.2.ark:70151
flet0_sx277 quick_test/mfcc/raw_mfcc_train.1.ark:2445411
mpgh0_sx294 quick_test/mfcc/raw_mfcc_train.3.ark:3621522
fceg0_sx168 quick_test/mfcc/raw_mfcc_train.1.ark:519704
fdmy0_si1197 quick_test/mfcc/raw_mfcc_train.1.ark:975503
fsag0_si1323 quick_test/mfcc/raw_mfcc_train.1.ark:3554416
mmwb0_sx179 quick_test/mfcc/raw_mfcc_train.3.ark:3330755
mkxl0_sx15 quick_test/mfcc/raw_mfcc_train.3.ark:2350383
fvfb0_sx222 quick_test/mfcc/raw_mfcc_train.2.ark:582594
mjlb0_sx86 quick_test/mfcc/raw_mfcc_train.3.ark:1199032
feeh0_si471 quick_test/mfcc/raw_mfcc_train.1.ark:1235086
mjlb0_si986 quick_test/mfcc/raw_mfcc_train.3.ark:1180824
fsjs0_sx271 quick_test/mfcc/raw_mfcc_train.2.ark:32452
mejl0_sx62 quick_test/mfcc/raw_mfcc_train.2.ark:3273967
mjxl0_sx452 quick_test/mfcc/raw_mfcc_train.3.ark:1840574
mjpg0_si561 quick_test/mfcc/raw_mfcc_train.3.ark:1362856
madd0_si538 quick_test/mfcc/raw_mfcc_train.2.ark:729583
mjpm1_sx41 quick_test/mfcc/raw_mfcc_train.3.ark:1443045
mpfu0_sx268 quick_test/mfcc/raw_mfcc_train.3.ark:3581764
mpar0_si1576 quick_test/mfcc/raw_mfcc_train.3.ark:3508158
mtbc0_si1173 quick_test/mfcc/raw_mfcc_train.4.ark:2472198
mbgt0_sx171 quick_test/mfcc/raw_mfcc_train.2.ark:1169661
fvmh0_si1466 quick_test/mfcc/raw_mfcc_train.2.ark:629895
mdbb1_sx286 quick_test/mfcc/raw_mfcc_train.2.ark:2046765
fbas0_si1387 quick_test/mfcc/raw_mfcc_train.1.ark:172245
mter0_sx77 quick_test/mfcc/raw_mfcc_train.4.ark:2638017
fjxp0_sx132 quick_test/mfcc/raw_mfcc_train.1.ark:1999130
mtxs0_sx160 quick_test/mfcc/raw_mfcc_train.4.ark:3311405
fapb0_sx73 quick_test/mfcc/raw_mfcc_train.1.ark:167544
mdpk0_si1053 quick_test/mfcc/raw_mfcc_train.2.ark:2812077
mrdd0_sx240 quick_test/mfcc/raw_mfcc_train.4.ark:461207
mdpb0_sx236 quick_test/mfcc/raw_mfcc_train.2.ark:2797866
mchl0_si1347 quick_test/mfcc/raw_mfcc_train.2.ark:1677197
mcth0_si1839 quick_test/mfcc/raw_mfcc_train.2.ark:1871754
mtml0_sx345 quick_test/mfcc/raw_mfcc_train.4.ark:2927534
flmk0_sx135 quick_test/mfcc/raw_mfcc_train.1.ark:2702553
makb0_sx116 quick_test/mfcc/raw_mfcc_train.2.ark:898943
mjdm0_sx170 quick_test/mfcc/raw_mfcc_train.3.ark:819311
mtrt0_sx147 quick_test/mfcc/raw_mfcc_train.4.ark:3252426
fgmb0_sx335 quick_test/mfcc/raw_mfcc_train.1.ark:1456450
fssb0_si1712 quick_test/mfcc/raw_mfcc_train.2.ark:382356
mrlk0_sx393 quick_test/mfcc/raw_mfcc_train.4.ark:1172769
fkaa0_si1838 quick_test/mfcc/raw_mfcc_train.1.ark:2021559
mjhi0_sx248 quick_test/mfcc/raw_mfcc_train.3.ark:1020990
fmjf0_sx264 quick_test/mfcc/raw_mfcc_train.1.ark:2935152
fmah1_sx429 quick_test/mfcc/raw_mfcc_train.1.ark:2808606
mgar0_sx312 quick_test/mfcc/raw_mfcc_train.3.ark:19771
mhmr0_sx129 quick_test/mfcc/raw_mfcc_train.3.ark:430696
mpgr1_sx419 quick_test/mfcc/raw_mfcc_train.3.ark:3681932
mrab1_sx308 quick_test/mfcc/raw_mfcc_train.4.ark:237576
fdjh0_sx395 quick_test/mfcc/raw_mfcc_train.1.ark:906895
mjhi0_sx338 quick_test/mfcc/raw_mfcc_train.3.ark:1023974
mnet0_si816 quick_test/mfcc/raw_mfcc_train.3.ark:3452095
mgrp0_si1947 quick_test/mfcc/raw_mfcc_train.3.ark:163562
mjrg0_sx376 quick_test/mfcc/raw_mfcc_train.3.ark:1509160
falk0_si1086 quick_test/mfcc/raw_mfcc_train.1.ark:68375
fdxw0_sx431 quick_test/mfcc/raw_mfcc_train.1.ark:1114285
mtpf0_si1865 quick_test/mfcc/raw_mfcc_train.4.ark:3012671
mpmb0_sx151 quick_test/mfcc/raw_mfcc_train.3.ark:3713233
mcdr0_sx74 quick_test/mfcc/raw_mfcc_train.2.ark:1602221
fljd0_sx346 quick_test/mfcc/raw_mfcc_train.1.ark:2542655
mjde0_sx400 quick_test/mfcc/raw_mfcc_train.3.ark:772293
mprt0_si580 quick_test/mfcc/raw_mfcc_train.4.ark:137193
mmlm0_si1527 quick_test/mfcc/raw_mfcc_train.3.ark:3146809
feme0_si2135 quick_test/mfcc/raw_mfcc_train.1.ark:1263398
fskc0_sx246 quick_test/mfcc/raw_mfcc_train.2.ark:97631
mmcc0_sx258 quick_test/mfcc/raw_mfcc_train.3.ark:2796415
mges0_sx311 quick_test/mfcc/raw_mfcc_train.3.ark:77345
mjma0_si2125 quick_test/mfcc/raw_mfcc_train.3.ark:1269519
fbjl0_si1552 quick_test/mfcc/raw_mfcc_train.1.ark:274856
fltm0_sx80 quick_test/mfcc/raw_mfcc_train.1.ark:2782152
msrr0_sx141 quick_test/mfcc/raw_mfcc_train.4.ark:2246403
fpmy0_sx343 quick_test/mfcc/raw_mfcc_train.1.ark:3455184
msah1_si1049 quick_test/mfcc/raw_mfcc_train.4.ark:1707044
fdkn0_si1202 quick_test/mfcc/raw_mfcc_train.1.ark:914854
mmpm0_sx341 quick_test/mfcc/raw_mfcc_train.3.ark:3195107
fcyl0_si1297 quick_test/mfcc/raw_mfcc_train.1.ark:750083
fkdw0_sx217 quick_test/mfcc/raw_mfcc_train.1.ark:2108535
fmah1_si1509 quick_test/mfcc/raw_mfcc_train.1.ark:2784955
mjhi0_sx158 quick_test/mfcc/raw_mfcc_train.3.ark:1018201
fbmh0_sx56 quick_test/mfcc/raw_mfcc_train.1.ark:370570
msds0_sx447 quick_test/mfcc/raw_mfcc_train.4.ark:1914952
mkdd0_sx127 quick_test/mfcc/raw_mfcc_train.3.ark:2028718
mtdp0_sx81 quick_test/mfcc/raw_mfcc_train.4.ark:2604044
mwad0_si2322 quick_test/mfcc/raw_mfcc_train.4.ark:3470206
mdlc1_sx445 quick_test/mfcc/raw_mfcc_train.2.ark:2512576
fdmy0_sx297 quick_test/mfcc/raw_mfcc_train.1.ark:1010735
flac0_si901 quick_test/mfcc/raw_mfcc_train.1.ark:2333743
mrtj0_sx322 quick_test/mfcc/raw_mfcc_train.4.ark:1572557
mcre0_sx41 quick_test/mfcc/raw_mfcc_train.2.ark:1828769
mdjm0_sx285 quick_test/mfcc/raw_mfcc_train.2.ark:2372998
mtwh1_si2142 quick_test/mfcc/raw_mfcc_train.4.ark:3273438
mdss1_sx427 quick_test/mfcc/raw_mfcc_train.2.ark:2989010
mmws0_si559 quick_test/mfcc/raw_mfcc_train.3.ark:3360671
mpsw0_sx24 quick_test/mfcc/raw_mfcc_train.4.ark:171818
mded0_sx360 quick_test/mfcc/raw_mfcc_train.2.ark:2205969
msfh0_sx136 quick_test/mfcc/raw_mfcc_train.4.ark:2009431
mtmt0_si1748 quick_test/mfcc/raw_mfcc_train.4.ark:2979867
mram0_si1905 quick_test/mfcc/raw_mfcc_train.4.ark:289675
mtmn0_si582 quick_test/mfcc/raw_mfcc_train.4.ark:2951087
mmbs0_sx251 quick_test/mfcc/raw_mfcc_train.3.ark:2762428
mtpr0_sx250 quick_test/mfcc/raw_mfcc_train.4.ark:3117227
mctm0_sx180 quick_test/mfcc/raw_mfcc_train.2.ark:1912671
mwem0_sx420 quick_test/mfcc/raw_mfcc_train.4.ark:3602818
msmr0_si1405 quick_test/mfcc/raw_mfcc_train.4.ark:2143895
msrg0_sx321 quick_test/mfcc/raw_mfcc_train.4.ark:2219775
mpeb0_sx330 quick_test/mfcc/raw_mfcc_train.3.ark:3552282
makr0_sx362 quick_test/mfcc/raw_mfcc_train.2.ark:932723
mfmc0_sx232 quick_test/mfcc/raw_mfcc_train.2.ark:3442689
mmds0_sx443 quick_test/mfcc/raw_mfcc_train.3.ark:2961684
mgsl0_sx444 quick_test/mfcc/raw_mfcc_train.3.ark:254786
mjrh0_si1125 quick_test/mfcc/raw_mfcc_train.3.ark:1512925
mpfu0_si628 quick_test/mfcc/raw_mfcc_train.3.ark:3573833
mpgh0_si924 quick_test/mfcc/raw_mfcc_train.3.ark:3609665
faem0_si2022 quick_test/mfcc/raw_mfcc_train.1.ark:6313
msat0_si896 quick_test/mfcc/raw_mfcc_train.4.ark:1776893
mmpm0_sx71 quick_test/mfcc/raw_mfcc_train.3.ark:3203518
mjrg0_sx286 quick_test/mfcc/raw_mfcc_train.3.ark:1498395
fcdr1_sx196 quick_test/mfcc/raw_mfcc_train.1.ark:496559
mwar0_sx325 quick_test/mfcc/raw_mfcc_train.4.ark:3509545
msjk0_sx336 quick_test/mfcc/raw_mfcc_train.4.ark:2090484
fspm0_si1241 quick_test/mfcc/raw_mfcc_train.2.ark:310591
mpar0_sx46 quick_test/mfcc/raw_mfcc_train.3.ark:3533245
mwrp0_sx93 quick_test/mfcc/raw_mfcc_train.4.ark:3706865
mprb0_sx35 quick_test/mfcc/raw_mfcc_train.4.ark:46076
fntb0_si679 quick_test/mfcc/raw_mfcc_train.1.ark:3166114
mjrp0_sx45 quick_test/mfcc/raw_mfcc_train.3.ark:1632954
fpad0_si1976 quick_test/mfcc/raw_mfcc_train.1.ark:3266820
madd0_sx178 quick_test/mfcc/raw_mfcc_train.2.ark:733373
mwsh0_sx76 quick_test/mfcc/raw_mfcc_train.4.ark:3772198
msdh0_si2113 quick_test/mfcc/raw_mfcc_train.4.ark:1850605
fjlg0_sx89 quick_test/mfcc/raw_mfcc_train.1.ark:1744889
mfer0_sx142 quick_test/mfcc/raw_mfcc_train.2.ark:3407343
mrjh0_sx259 quick_test/mfcc/raw_mfcc_train.4.ark:900190
mcre0_si1751 quick_test/mfcc/raw_mfcc_train.2.ark:1808690
mmws1_si1071 quick_test/mfcc/raw_mfcc_train.3.ark:3387305
mwgr0_sx436 quick_test/mfcc/raw_mfcc_train.4.ark:3638729
mfwk0_si619 quick_test/mfcc/raw_mfcc_train.2.ark:3496987
mdef0_sx123 quick_test/mfcc/raw_mfcc_train.2.ark:2231792
mwgr0_si1606 quick_test/mfcc/raw_mfcc_train.4.ark:3614077
mpmb0_sx331 quick_test/mfcc/raw_mfcc_train.3.ark:3723465
mvjh0_si926 quick_test/mfcc/raw_mfcc_train.4.ark:3345450
mgar0_sx132 quick_test/mfcc/raw_mfcc_train.3.ark:11281
msat0_sx266 quick_test/mfcc/raw_mfcc_train.4.ark:1783758
ftbr0_si921 quick_test/mfcc/raw_mfcc_train.2.ark:447425
mmcc0_sx168 quick_test/mfcc/raw_mfcc_train.3.ark:2794081
mgxp0_sx97 quick_test/mfcc/raw_mfcc_train.3.ark:295731
freh0_si685 quick_test/mfcc/raw_mfcc_train.1.ark:3474141
mkdt0_si893 quick_test/mfcc/raw_mfcc_train.3.ark:2053181
mmdb0_sx267 quick_test/mfcc/raw_mfcc_train.3.ark:2827698
mfwk0_sx439 quick_test/mfcc/raw_mfcc_train.2.ark:3513590
msat1_sx173 quick_test/mfcc/raw_mfcc_train.4.ark:1807443
mrdm0_sx335 quick_test/mfcc/raw_mfcc_train.4.ark:497125
mprt0_sx40 quick_test/mfcc/raw_mfcc_train.4.ark:151533
mdtb0_sx120 quick_test/mfcc/raw_mfcc_train.2.ark:3005946
msrr0_si501 quick_test/mfcc/raw_mfcc_train.4.ark:2240520
mdmt0_sx392 quick_test/mfcc/raw_mfcc_train.2.ark:2741781
fvkb0_si1159 quick_test/mfcc/raw_mfcc_train.2.ark:596714
msfv0_si632 quick_test/mfcc/raw_mfcc_train.4.ark:2041253
flag0_si2094 quick_test/mfcc/raw_mfcc_train.1.ark:2361912
mgaw0_sx85 quick_test/mfcc/raw_mfcc_train.3.ark:60258
mvjh0_sx26 quick_test/mfcc/raw_mfcc_train.4.ark:3356364
fjxp0_si1122 quick_test/mfcc/raw_mfcc_train.1.ark:1987460
mrlr0_si1196 quick_test/mfcc/raw_mfcc_train.4.ark:1176443
mewm0_sx448 quick_test/mfcc/raw_mfcc_train.2.ark:3390810
mnet0_si2076 quick_test/mfcc/raw_mfcc_train.3.ark:3449826
msrr0_si1761 quick_test/mfcc/raw_mfcc_train.4.ark:2234975
fjen0_sx417 quick_test/mfcc/raw_mfcc_train.1.ark:1643765
mbgt0_si1341 quick_test/mfcc/raw_mfcc_train.2.ark:1156821
fdtd0_si1561 quick_test/mfcc/raw_mfcc_train.1.ark:1057309
flmk0_sx405 quick_test/mfcc/raw_mfcc_train.1.ark:2714222
mreh1_si2229 quick_test/mfcc/raw_mfcc_train.4.ark:576634
mjbg0_sx62 quick_test/mfcc/raw_mfcc_train.3.ark:671918
mkxl0_sx375 quick_test/mfcc/raw_mfcc_train.3.ark:2359881
mbma1_sx144 quick_test/mfcc/raw_mfcc_train.2.ark:1264186
mhmr0_si489 quick_test/mfcc/raw_mfcc_train.3.ark:426295
mbcg0_sx147 quick_test/mfcc/raw_mfcc_train.2.ark:1111424
mjjb0_sx149 quick_test/mfcc/raw_mfcc_train.3.ark:1048185
msjk0_sx246 quick_test/mfcc/raw_mfcc_train.4.ark:2086863
mmgc0_sx225 quick_test/mfcc/raw_mfcc_train.3.ark:3041907
mkaj0_sx154 quick_test/mfcc/raw_mfcc_train.3.ark:1928694
mpmb0_sx241 quick_test/mfcc/raw_mfcc_train.3.ark:3718934
mhmr0_si1692 quick_test/mfcc/raw_mfcc_train.3.ark:420282
mrkm0_sx367 quick_test/mfcc/raw_mfcc_train.4.ark:1044960
flmk0_sx45 quick_test/mfcc/raw_mfcc_train.1.ark:2717855
mdtb0_si1200 quick_test/mfcc/raw_mfcc_train.2.ark:2995914
feac0_si1875 quick_test/mfcc/raw_mfcc_train.1.ark:1124031
mrdm0_sx155 quick_test/mfcc/raw_mfcc_train.4.ark:489285
mjpm0_sx378 quick_test/mfcc/raw_mfcc_train.3.ark:1411775
fbmh0_si1766 quick_test/mfcc/raw_mfcc_train.1.ark:348442
mkam0_sx56 quick_test/mfcc/raw_mfcc_train.3.ark:1975345
fleh0_sx61 quick_test/mfcc/raw_mfcc_train.1.ark:2420550
mrlr0_si1826 quick_test/mfcc/raw_mfcc_train.4.ark:1182249
fpaf0_sx424 quick_test/mfcc/raw_mfcc_train.1.ark:3323580
mjac0_sx431 quick_test/mfcc/raw_mfcc_train.3.ark:568832
mcdd0_sx73 quick_test/mfcc/raw_mfcc_train.2.ark:1565816
fkkh0_sx120 quick_test/mfcc/raw_mfcc_train.1.ark:2175787
fskp0_sx378 quick_test/mfcc/raw_mfcc_train.2.ark:172489
mtxs0_sx340 quick_test/mfcc/raw_mfcc_train.4.ark:3321377
fljg0_sx171 quick_test/mfcc/raw_mfcc_train.1.ark:2567632
mkln0_si2228 quick_test/mfcc/raw_mfcc_train.3.ark:2146750
msrg0_si1221 quick_test/mfcc/raw_mfcc_train.4.ark:2201253
mfer0_si1492 quick_test/mfcc/raw_mfcc_train.2.ark:3398052
mcdr0_sx164 quick_test/mfcc/raw_mfcc_train.2.ark:1587491
mjee0_sx157 quick_test/mfcc/raw_mfcc_train.3.ark:921493
mwch0_sx182 quick_test/mfcc/raw_mfcc_train.4.ark:3530103
mrjm0_si1858 quick_test/mfcc/raw_mfcc_train.4.ark:924050
fsah0_si1244 quick_test/mfcc/raw_mfcc_train.1.ark:3592901
mcal0_si1768 quick_test/mfcc/raw_mfcc_train.2.ark:1483852
mbar0_sx239 quick_test/mfcc/raw_mfcc_train.2.ark:1054533
mjrg0_si736 quick_test/mfcc/raw_mfcc_train.3.ark:1486493
mgag0_sx331 quick_test/mfcc/raw_mfcc_train.2.ark:3631995
fkkh0_si1920 quick_test/mfcc/raw_mfcc_train.1.ark:2165360
mjwg0_sx175 quick_test/mfcc/raw_mfcc_train.3.ark:1694452
mhxl0_si612 quick_test/mfcc/raw_mfcc_train.3.ark:488730
mesg0_sx252 quick_test/mfcc/raw_mfcc_train.2.ark:3325879
mkaj0_sx424 quick_test/mfcc/raw_mfcc_train.3.ark:1938400
mgrl0_sx417 quick_test/mfcc/raw_mfcc_train.3.ark:151151
mpmb0_sx61 quick_test/mfcc/raw_mfcc_train.3.ark:3736985
fpaz0_sx27 quick_test/mfcc/raw_mfcc_train.1.ark:3354010
mkam0_sx236 quick_test/mfcc/raw_mfcc_train.3.ark:1964366
msas0_sx386 quick_test/mfcc/raw_mfcc_train.4.ark:1767029
mfxv0_sx375 quick_test/mfcc/raw_mfcc_train.2.ark:3579544
fcjs0_si977 quick_test/mfcc/raw_mfcc_train.1.ark:567365
mtas0_sx215 quick_test/mfcc/raw_mfcc_train.4.ark:2390026
mjfr0_sx345 quick_test/mfcc/raw_mfcc_train.3.ark:989611
fceg0_si1878 quick_test/mfcc/raw_mfcc_train.1.ark:514620
flet0_si507 quick_test/mfcc/raw_mfcc_train.1.ark:2433482
mjls0_sx376 quick_test/mfcc/raw_mfcc_train.3.ark:1261508
mdcm0_sx220 quick_test/mfcc/raw_mfcc_train.2.ark:2138911
mkrg0_sx141 quick_test/mfcc/raw_mfcc_train.3.ark:2317781
mtrr0_si2178 quick_test/mfcc/raw_mfcc_train.4.ark:3208987
fjrb0_si1932 quick_test/mfcc/raw_mfcc_train.1.ark:1786302
fcmm0_si1957 quick_test/mfcc/raw_mfcc_train.1.ark:691984
mdss1_sx67 quick_test/mfcc/raw_mfcc_train.2.ark:2991863
mkes0_si1883 quick_test/mfcc/raw_mfcc_train.3.ark:2082052
msds0_sx177 quick_test/mfcc/raw_mfcc_train.4.ark:1900397
mdlr1_si1299 quick_test/mfcc/raw_mfcc_train.2.ark:2643493
mdlr0_si1863 quick_test/mfcc/raw_mfcc_train.2.ark:2614428
mjfh0_si1107 quick_test/mfcc/raw_mfcc_train.3.ark:942575
mdlb0_si1936 quick_test/mfcc/raw_mfcc_train.2.ark:2421205
mjwg0_sx265 quick_test/mfcc/raw_mfcc_train.3.ark:1700127
msms0_si1433 quick_test/mfcc/raw_mfcc_train.4.ark:2168943
flac0_sx451 quick_test/mfcc/raw_mfcc_train.1.ark:2347031
mjws0_si1143 quick_test/mfcc/raw_mfcc_train.3.ark:1714715
fmkf0_si906 quick_test/mfcc/raw_mfcc_train.1.ark:3029729
fbmh0_sx146 quick_test/mfcc/raw_mfcc_train.1.ark:357491
