mrcw0_sx381 quick_test/fbank/raw_fbank_train.4.ark:1355676
mmam0_si2227 quick_test/fbank/raw_fbank_train.3.ark:8213049
fjlr0_si1861 quick_test/fbank/raw_fbank_train.1.ark:5369398
mdlr1_si1929 quick_test/fbank/raw_fbank_train.2.ark:8100748
fsjg0_si940 quick_test/fbank/raw_fbank_train.1.ark:11732782
mdlm0_sx424 quick_test/fbank/raw_fbank_train.2.ark:7962503
fdxw0_sx431 quick_test/fbank/raw_fbank_train.1.ark:3409960
mbml0_sx269 quick_test/fbank/raw_fbank_train.2.ark:3979561
mclk0_sx310 quick_test/fbank/raw_fbank_train.2.ark:5303037
fljd0_sx436 quick_test/fbank/raw_fbank_train.1.ark:7795623
fmkf0_sx96 quick_test/fbank/raw_fbank_train.1.ark:9331749
mrms0_sx120 quick_test/fbank/raw_fbank_train.4.ark:4146568
mmdg0_sx430 quick_test/fbank/raw_fbank_train.3.ark:8780586
mrem0_sx61 quick_test/fbank/raw_fbank_train.4.ark:1945467
msdb0_si2267 quick_test/fbank/raw_fbank_train.4.ark:5614674
feme0_sx335 quick_test/fbank/raw_fbank_train.1.ark:3920852
mses0_sx419 quick_test/fbank/raw_fbank_train.4.ark:6082188
mram0_sx15 quick_test/fbank/raw_fbank_train.4.ark:924196
feme0_sx245 quick_test/fbank/raw_fbank_train.1.ark:3909579
mwgr0_si2236 quick_test/fbank/raw_fbank_train.4.ark:11069995
mrws0_si1732 quick_test/fbank/raw_fbank_train.4.ark:5053648
fjhk0_si1022 quick_test/fbank/raw_fbank_train.1.ark:5060887
fjlr0_sx241 quick_test/fbank/raw_fbank_train.1.ark:5401457
mmds0_si1343 quick_test/fbank/raw_fbank_train.3.ark:9002662
mdwm0_sx16 quick_test/fbank/raw_fbank_train.2.ark:9510958
mrms0_sx210 quick_test/fbank/raw_fbank_train.4.ark:4159121
fmjb0_si1807 quick_test/fbank/raw_fbank_train.1.ark:8847335
fltm0_sx440 quick_test/fbank/raw_fbank_train.1.ark:8498200
mdlr1_sx219 quick_test/fbank/raw_fbank_train.2.ark:8142487
mrlj1_sx231 quick_test/fbank/raw_fbank_train.4.ark:3461663
fcyl0_si667 quick_test/fbank/raw_fbank_train.1.ark:2320253
flhd0_si1974 quick_test/fbank/raw_fbank_train.1.ark:7534840
mjws0_sx333 quick_test/fbank/raw_fbank_train.3.ark:5308741
fmju0_sx219 quick_test/fbank/raw_fbank_train.1.ark:9089842
mdbp0_si1158 quick_test/fbank/raw_fbank_train.2.ark:6289383
flmc0_si1372 quick_test/fbank/raw_fbank_train.1.ark:8132803
fspm0_sx341 quick_test/fbank/raw_fbank_train.2.ark:1026096
mkls0_sx177 quick_test/fbank/raw_fbank_train.3.ark:6784850
mmdm0_sx51 quick_test/fbank/raw_fbank_train.3.ark:8889683
msrr0_sx411 quick_test/fbank/raw_fbank_train.4.ark:6903506
maeb0_sx90 quick_test/fbank/raw_fbank_train.2.ark:2394111
fdfb0_si2010 quick_test/fbank/raw_fbank_train.1.ark:2630490
mmag0_sx136 quick_test/fbank/raw_fbank_train.3.ark:8120176
frll0_sx254 quick_test/fbank/raw_fbank_train.1.ark:10837622
mrxb0_si955 quick_test/fbank/raw_fbank_train.4.ark:5150746
fhlm0_sx390 quick_test/fbank/raw_fbank_train.1.ark:4704135
fltm0_sx170 quick_test/fbank/raw_fbank_train.1.ark:8447421
msat1_si1073 quick_test/fbank/raw_fbank_train.4.ark:5496060
mmjb1_si778 quick_test/fbank/raw_fbank_train.3.ark:9551359
mhjb0_sx387 quick_test/fbank/raw_fbank_train.3.ark:1174436
fcag0_si1503 quick_test/fbank/raw_fbank_train.1.ark:1257109
flod0_si1917 quick_test/fbank/raw_fbank_train.1.ark:8344568
mmar0_si706 quick_test/fbank/raw_fbank_train.3.ark:8309234
fbch0_sx146 quick_test/fbank/raw_fbank_train.1.ark:778004
mdhl0_sx89 quick_test/fbank/raw_fbank_train.2.ark:7086749
mkag0_si1609 quick_test/fbank/raw_fbank_train.3.ark:5659915
mmdm1_sx423 quick_test/fbank/raw_fbank_train.3.ark:8976036
mmgk0_si692 quick_test/fbank/raw_fbank_train.3.ark:9467534
mjwg0_si895 quick_test/fbank/raw_fbank_train.3.ark:5161137
mejl0_si1592 quick_test/fbank/raw_fbank_train.2.ark:9941108
mtkd0_sx287 quick_test/fbank/raw_fbank_train.4.ark:8571024
mgak0_si1666 quick_test/fbank/raw_fbank_train.2.ark:11161427
mjma0_sx235 quick_test/fbank/raw_fbank_train.3.ark:3926477
mewm0_si718 quick_test/fbank/raw_fbank_train.2.ark:10325753
mram0_si1275 quick_test/fbank/raw_fbank_train.4.ark:873583
mdmt0_si2341 quick_test/fbank/raw_fbank_train.2.ark:8316679
fdas1_sx291 quick_test/fbank/raw_fbank_train.1.ark:2480849
mjmd0_sx128 quick_test/fbank/raw_fbank_train.3.ark:3997390
feme0_si2135 quick_test/fbank/raw_fbank_train.1.ark:3866360
makr0_si1982 quick_test/fbank/raw_fbank_train.2.ark:2819042
mcpm0_sx294 quick_test/fbank/raw_fbank_train.2.ark:5495359
mpgr0_si2040 quick_test/fbank/raw_fbank_train.3.ark:11115323
fkde0_sx61 quick_test/fbank/raw_fbank_train.1.ark:6379341
fkde0_sx331 quick_test/fbank/raw_fbank_train.1.ark:6353556
mgjc0_sx345 quick_test/fbank/raw_fbank_train.3.ark:342976
mtdb0_sx231 quick_test/fbank/raw_fbank_train.4.ark:7819104
mgxp0_si525 quick_test/fbank/raw_fbank_train.3.ark:839438
fjxm0_si1211 quick_test/fbank/raw_fbank_train.1.ark:5969794
fjrb0_sx132 quick_test/fbank/raw_fbank_train.1.ark:5482809
mhbs0_sx135 quick_test/fbank/raw_fbank_train.3.ark:956614
mjwg0_sx445 quick_test/fbank/raw_fbank_train.3.ark:5225829
mhxl0_si512 quick_test/fbank/raw_fbank_train.3.ark:1484138
mbwp0_sx349 quick_test/fbank/raw_fbank_train.2.ark:4350373
mjee0_sx427 quick_test/fbank/raw_fbank_train.3.ark:2857587
mreh1_sx69 quick_test/fbank/raw_fbank_train.4.ark:1844803
mtrt0_si1857 quick_test/fbank/raw_fbank_train.4.ark:9929890
mrmg0_sx90 quick_test/fbank/raw_fbank_train.4.ark:3876542
mwgr0_sx346 quick_test/fbank/raw_fbank_train.4.ark:11121327
mtwh1_sx252 quick_test/fbank/raw_fbank_train.4.ark:10045654
mjjj0_si1163 quick_test/fbank/raw_fbank_train.3.ark:3272473
fmjb0_sx97 quick_test/fbank/raw_fbank_train.1.ark:8920050
fsak0_sx400 quick_test/fbank/raw_fbank_train.1.ark:11188355
mjkr0_si1201 quick_test/fbank/raw_fbank_train.3.ark:3485123
fjwb1_sx75 quick_test/fbank/raw_fbank_train.1.ark:5960840
fltm0_si2330 quick_test/fbank/raw_fbank_train.1.ark:8439228
mwem0_si1320 quick_test/fbank/raw_fbank_train.4.ark:10955175
frll0_si884 quick_test/fbank/raw_fbank_train.1.ark:10810276
fsms1_si874 quick_test/fbank/raw_fbank_train.2.ark:875332
mrav0_si2268 quick_test/fbank/raw_fbank_train.4.ark:991197
meal0_sx377 quick_test/fbank/raw_fbank_train.2.ark:9628203
mrjt0_sx58 quick_test/fbank/raw_fbank_train.4.ark:3097182
maeo0_si1956 quick_test/fbank/raw_fbank_train.2.ark:2430413
mwsb0_si1626 quick_test/fbank/raw_fbank_train.4.ark:11353676
mjdc0_sx351 quick_test/fbank/raw_fbank_train.3.ark:2215524
fdaw0_sx146 quick_test/fbank/raw_fbank_train.1.ark:2551617
fdnc0_sx18 quick_test/fbank/raw_fbank_train.1.ark:3182242
milb0_sx183 quick_test/fbank/raw_fbank_train.3.ark:1617028
msdh0_si2113 quick_test/fbank/raw_fbank_train.4.ark:5663032
mtjg0_sx80 quick_test/fbank/raw_fbank_train.4.ark:8174757
madc0_si737 quick_test/fbank/raw_fbank_train.2.ark:2134937
fbmh0_sx146 quick_test/fbank/raw_fbank_train.1.ark:1094240
mcew0_sx272 quick_test/fbank/raw_fbank_train.2.ark:5069713
mbef0_sx21 quick_test/fbank/raw_fbank_train.2.ark:3515748
mtml0_sx75 quick_test/fbank/raw_fbank_train.4.ark:8988198
mgar0_si1694 quick_test/fbank/raw_fbank_train.3.ark:15167
fgrw0_sx432 quick_test/fbank/raw_fbank_train.1.ark:4586637
mtjm0_si1226 quick_test/fbank/raw_fbank_train.4.ark:8182951
medr0_si2004 quick_test/fbank/raw_fbank_train.2.ark:9647431
fjrb0_sx42 quick_test/fbank/raw_fbank_train.1.ark:5540180
mdlc1_sx265 quick_test/fbank/raw_fbank_train.2.ark:7666283
mtpf0_si1865 quick_test/fbank/raw_fbank_train.4.ark:9219836
mrvg0_si1770 quick_test/fbank/raw_fbank_train.4.ark:4864638
fdnc0_sx198 quick_test/fbank/raw_fbank_train.1.ark:3195355
fvmh0_si2096 quick_test/fbank/raw_fbank_train.2.ark:1944494
fleh0_sx421 quick_test/fbank/raw_fbank_train.1.ark:7395121
fskc0_sx336 quick_test/fbank/raw_fbank_train.2.ark:308440
flja0_si1708 quick_test/fbank/raw_fbank_train.1.ark:7633432
fsjg0_sx400 quick_test/fbank/raw_fbank_train.1.ark:11821666
fear0_si622 quick_test/fbank/raw_fbank_train.1.ark:3551958
mmrp0_sx144 quick_test/fbank/raw_fbank_train.3.ark:9843867
mhxl0_si1772 quick_test/fbank/raw_fbank_train.3.ark:1472465
mjlb0_si2246 quick_test/fbank/raw_fbank_train.3.ark:3604382
mkah0_si898 quick_test/fbank/raw_fbank_train.3.ark:5788206
mwac0_si971 quick_test/fbank/raw_fbank_train.4.ark:10513034
msms0_sx263 quick_test/fbank/raw_fbank_train.4.ark:6693111
mrgm0_sx262 quick_test/fbank/raw_fbank_train.4.ark:2314270
mmgg0_si1709 quick_test/fbank/raw_fbank_train.3.ark:9368315
mwdk0_sx266 quick_test/fbank/raw_fbank_train.4.ark:10911323
mrlj1_si1671 quick_test/fbank/raw_fbank_train.4.ark:3414689
makb0_sx296 quick_test/fbank/raw_fbank_train.2.ark:2789221
mmcc0_si1338 quick_test/fbank/raw_fbank_train.3.ark:8509457
fjlr0_si1231 quick_test/fbank/raw_fbank_train.1.ark:5351804
mrjb1_sx300 quick_test/fbank/raw_fbank_train.4.ark:2663449
mwsb0_sx96 quick_test/fbank/raw_fbank_train.4.ark:11430545
fpaf0_sx424 quick_test/fbank/raw_fbank_train.1.ark:10171995
mjdg0_sx52 quick_test/fbank/raw_fbank_train.3.ark:2461719
mstf0_sx136 quick_test/fbank/raw_fbank_train.4.ark:6969751
mmjb1_sx418 quick_test/fbank/raw_fbank_train.3.ark:9600251
fmmh0_si2167 quick_test/fbank/raw_fbank_train.1.ark:9361097
mkdb0_si872 quick_test/fbank/raw_fbank_train.3.ark:6078961
msfv0_sx182 quick_test/fbank/raw_fbank_train.4.ark:6265899
mbar0_si1949 quick_test/fbank/raw_fbank_train.2.ark:3191702
mtlc0_si847 quick_test/fbank/raw_fbank_train.4.ark:8840968
fsrh0_sx401 quick_test/fbank/raw_fbank_train.2.ark:1128634
mpmb0_sx151 quick_test/fbank/raw_fbank_train.3.ark:11362360
mrso0_sx309 quick_test/fbank/raw_fbank_train.4.ark:4474070
mhmg0_sx15 quick_test/fbank/raw_fbank_train.3.ark:1235162
mcdc0_sx32 quick_test/fbank/raw_fbank_train.2.ark:4689798
mwsb0_sx276 quick_test/fbank/raw_fbank_train.4.ark:11400089
mcae0_sx187 quick_test/fbank/raw_fbank_train.2.ark:4457132
fsma0_sx361 quick_test/fbank/raw_fbank_train.2.ark:703381
mtab0_sx402 quick_test/fbank/raw_fbank_train.4.ark:7252540
mjac0_sx71 quick_test/fbank/raw_fbank_train.3.ark:1753782
mdks0_sx256 quick_test/fbank/raw_fbank_train.2.ark:7330367
mcxm0_sx451 quick_test/fbank/raw_fbank_train.2.ark:5978364
mrmh0_sx31 quick_test/fbank/raw_fbank_train.4.ark:3962455
mfwk0_si619 quick_test/fbank/raw_fbank_train.2.ark:10699534
flod0_si1287 quick_test/fbank/raw_fbank_train.1.ark:8329334
mree0_sx384 quick_test/fbank/raw_fbank_train.4.ark:1735058
mtat1_sx329 quick_test/fbank/raw_fbank_train.4.ark:7523022
mrmb0_sx411 quick_test/fbank/raw_fbank_train.4.ark:3765324
fkfb0_sx78 quick_test/fbank/raw_fbank_train.1.ark:6598711
mpgh0_sx204 quick_test/fbank/raw_fbank_train.3.ark:11064797
mjjj0_sx173 quick_test/fbank/raw_fbank_train.3.ark:3320733
flmc0_sx112 quick_test/fbank/raw_fbank_train.1.ark:8168823
mdlc2_si1614 quick_test/fbank/raw_fbank_train.2.ark:7705615
mkls0_sx267 quick_test/fbank/raw_fbank_train.3.ark:6793323
fpaz0_sx153 quick_test/fbank/raw_fbank_train.1.ark:10238561
mcew0_sx452 quick_test/fbank/raw_fbank_train.2.ark:5101339
mmlm0_sx447 quick_test/fbank/raw_fbank_train.3.ark:9693956
mafm0_si939 quick_test/fbank/raw_fbank_train.2.ark:2510318
mree0_sx204 quick_test/fbank/raw_fbank_train.4.ark:1703960
mdps0_sx179 quick_test/fbank/raw_fbank_train.2.ark:8726125
mcss0_sx210 quick_test/fbank/raw_fbank_train.2.ark:5672623
mmvp0_sx204 quick_test/fbank/raw_fbank_train.3.ark:10085950
mjfr0_sx255 quick_test/fbank/raw_fbank_train.3.ark:3015371
fskl0_si1529 quick_test/fbank/raw_fbank_train.2.ark:347179
mhrm0_si2218 quick_test/fbank/raw_fbank_train.3.ark:1385434
mjeb1_sx387 quick_test/fbank/raw_fbank_train.3.ark:2771554
mkam0_si1465 quick_test/fbank/raw_fbank_train.3.ark:5980017
mkdt0_sx443 quick_test/fbank/raw_fbank_train.3.ark:6334222
mjdg0_sx322 quick_test/fbank/raw_fbank_train.3.ark:2441334
msmr0_si1150 quick_test/fbank/raw_fbank_train.4.ark:6539793
mjlg1_sx112 quick_test/fbank/raw_fbank_train.3.ark:3717274
mprt0_si1210 quick_test/fbank/raw_fbank_train.4.ark:396779
mbma1_sx414 quick_test/fbank/raw_fbank_train.2.ark:3909722
falr0_sx155 quick_test/fbank/raw_fbank_train.1.ark:346423
mbsb0_si1983 quick_test/fbank/raw_fbank_train.2.ark:4127834
mvrw0_sx135 quick_test/fbank/raw_fbank_train.4.ark:10434242
mjra0_sx246 quick_test/fbank/raw_fbank_train.3.ark:4479268
mjae0_sx264 quick_test/fbank/raw_fbank_train.3.ark:1812470
fmjb0_si1177 quick_test/fbank/raw_fbank_train.1.ark:8828981
fpls0_sx330 quick_test/fbank/raw_fbank_train.1.ark:10462588
mgar0_si1212 quick_test/fbank/raw_fbank_train.3.ark:13
msrg0_si1851 quick_test/fbank/raw_fbank_train.4.ark:6752317
mdlb0_si1306 quick_test/fbank/raw_fbank_train.2.ark:7383979
msat1_sx173 quick_test/fbank/raw_fbank_train.4.ark:5531121
mtmt0_si1748 quick_test/fbank/raw_fbank_train.4.ark:9119451
mrlj0_sx430 quick_test/fbank/raw_fbank_train.4.ark:3395623
mdma0_sx80 quick_test/fbank/raw_fbank_train.2.ark:8301171
fcke0_sx31 quick_test/fbank/raw_fbank_train.1.ark:1889138
fmjb0_sx367 quick_test/fbank/raw_fbank_train.1.ark:8893707
mppc0_si2042 quick_test/fbank/raw_fbank_train.3.ark:11474919
mrjt0_si1805 quick_test/fbank/raw_fbank_train.4.ark:3022945
mesg0_sx252 quick_test/fbank/raw_fbank_train.2.ark:10176211
mrpc1_si1482 quick_test/fbank/raw_fbank_train.4.ark:4193853
fexm0_sx201 quick_test/fbank/raw_fbank_train.1.ark:4116669
mdhl0_si1439 quick_test/fbank/raw_fbank_train.2.ark:6999558
fsms1_sx64 quick_test/fbank/raw_fbank_train.2.ark:939296
mkxl0_si1815 quick_test/fbank/raw_fbank_train.3.ark:7147724
fdfb0_sx418 quick_test/fbank/raw_fbank_train.1.ark:2668262
freh0_si1945 quick_test/fbank/raw_fbank_train.1.ark:10616353
fgrw0_si1990 quick_test/fbank/raw_fbank_train.1.ark:4535065
mrcw0_si1371 quick_test/fbank/raw_fbank_train.4.ark:1275485
mrjm0_sx328 quick_test/fbank/raw_fbank_train.4.ark:2866467
feac0_si1875 quick_test/fbank/raw_fbank_train.1.ark:3439740
mddc0_sx429 quick_test/fbank/raw_fbank_train.2.ark:6659777
mzmb0_sx176 quick_test/fbank/raw_fbank_train.4.ark:11596944
mrgs0_si1986 quick_test/fbank/raw_fbank_train.4.ark:2390236
fscn0_si705 quick_test/fbank/raw_fbank_train.1.ark:11333241
fpab1_si2101 quick_test/fbank/raw_fbank_train.1.ark:9776474
mctm0_sx360 quick_test/fbank/raw_fbank_train.2.ark:5873106
mlel0_si1876 quick_test/fbank/raw_fbank_train.3.ark:7342135
msat0_sx266 quick_test/fbank/raw_fbank_train.4.ark:5458728
mmws1_sx261 quick_test/fbank/raw_fbank_train.3.ark:10399313
fsjg0_sx220 quick_test/fbank/raw_fbank_train.1.ark:11767848
mjpm1_sx41 quick_test/fbank/raw_fbank_train.3.ark:4415421
fsrh0_sx221 quick_test/fbank/raw_fbank_train.2.ark:1096648
mmvp0_sx384 quick_test/fbank/raw_fbank_train.3.ark:10129129
fskl0_si899 quick_test/fbank/raw_fbank_train.2.ark:375406
mdrd0_sx392 quick_test/fbank/raw_fbank_train.2.ark:8883001
fsjk1_sx35 quick_test/fbank/raw_fbank_train.2.ark:22477
mrav0_sx378 quick_test/fbank/raw_fbank_train.4.ark:1047601
mrhl0_sx165 quick_test/fbank/raw_fbank_train.4.ark:2515885
mtas0_sx395 quick_test/fbank/raw_fbank_train.4.ark:7342677
mwgr0_sx436 quick_test/fbank/raw_fbank_train.4.ark:11135360
mtpr0_sx340 quick_test/fbank/raw_fbank_train.4.ark:9554283
mdjm0_sx285 quick_test/fbank/raw_fbank_train.2.ark:7260646
mrre0_sx74 quick_test/fbank/raw_fbank_train.4.ark:4382389
fklh0_si1887 quick_test/fbank/raw_fbank_train.1.ark:6940775
mmar0_si1336 quick_test/fbank/raw_fbank_train.3.ark:8274407
mdjm0_si1455 quick_test/fbank/raw_fbank_train.2.ark:7187408
mjfh0_sx387 quick_test/fbank/raw_fbank_train.3.ark:2953124
mtcs0_si1972 quick_test/fbank/raw_fbank_train.4.ark:7663346
mfxv0_sx15 quick_test/fbank/raw_fbank_train.2.ark:10922931
mjeb0_si1286 quick_test/fbank/raw_fbank_train.3.ark:2582618
mrlk0_sx303 quick_test/fbank/raw_fbank_train.4.ark:3571441
fpac0_sx301 quick_test/fbank/raw_fbank_train.1.ark:9950431
msjk0_si966 quick_test/fbank/raw_fbank_train.4.ark:6361251
mrvg0_si510 quick_test/fbank/raw_fbank_train.4.ark:4874151
mrav0_sx288 quick_test/fbank/raw_fbank_train.4.ark:1036048
msah1_sx329 quick_test/fbank/raw_fbank_train.4.ark:5273631
fkfb0_sx348 quick_test/fbank/raw_fbank_train.1.ark:6557806
mkrg0_si861 quick_test/fbank/raw_fbank_train.3.ark:7074933
mmpm0_sx161 quick_test/fbank/raw_fbank_train.3.ark:9745443
mcef0_sx235 quick_test/fbank/raw_fbank_train.2.ark:4963168
mkxl0_sx15 quick_test/fbank/raw_fbank_train.3.ark:7192023
mfmc0_si502 quick_test/fbank/raw_fbank_train.2.ark:10506443
mmws1_sx27 quick_test/fbank/raw_fbank_train.3.ark:10407225
mjhi0_sx68 quick_test/fbank/raw_fbank_train.3.ark:3161333
mdef0_si1563 quick_test/fbank/raw_fbank_train.2.ark:6807502
mdlc0_si1395 quick_test/fbank/raw_fbank_train.2.ark:7502404
fdas1_sx111 quick_test/fbank/raw_fbank_train.1.ark:2448311
msmc0_si509 quick_test/fbank/raw_fbank_train.4.ark:6449402
fmah1_sx69 quick_test/fbank/raw_fbank_train.1.ark:8606577
mjjj0_si1793 quick_test/fbank/raw_fbank_train.3.ark:3296307
mdtb0_sx390 quick_test/fbank/raw_fbank_train.2.ark:9241062
madd0_sx448 quick_test/fbank/raw_fbank_train.2.ark:2283094
mefg0_sx15 quick_test/fbank/raw_fbank_train.2.ark:9783592
mkes0_sx263 quick_test/fbank/raw_fbank_train.3.ark:6418661
mkam0_sx236 quick_test/fbank/raw_fbank_train.3.ark:6010883
mdlr0_sx333 quick_test/fbank/raw_fbank_train.2.ark:8045855
mesj0_sx277 quick_test/fbank/raw_fbank_train.2.ark:10273516
mkls1_si1545 quick_test/fbank/raw_fbank_train.3.ark:6845655
msas0_sx386 quick_test/fbank/raw_fbank_train.4.ark:5407601
mkam0_sx56 quick_test/fbank/raw_fbank_train.3.ark:6044461
ftlg0_sx303 quick_test/fbank/raw_fbank_train.2.ark:1610605
milb0_sx363 quick_test/fbank/raw_fbank_train.3.ark:1645365
fklc1_sx418 quick_test/fbank/raw_fbank_train.1.ark:6889235
fleh0_si2311 quick_test/fbank/raw_fbank_train.1.ark:7349149
mkdd0_sx217 quick_test/fbank/raw_fbank_train.3.ark:6215572
mmpm0_sx431 quick_test/fbank/raw_fbank_train.3.ark:9789702
fbmh0_sx236 quick_test/fbank/raw_fbank_train.1.ark:1104833
mbgt0_si1841 quick_test/fbank/raw_fbank_train.2.ark:3546402
mtat1_sx419 quick_test/fbank/raw_fbank_train.4.ark:7540975
mmdm1_si783 quick_test/fbank/raw_fbank_train.3.ark:8917784
mwac0_sx341 quick_test/fbank/raw_fbank_train.4.ark:10560133
mreh1_si1599 quick_test/fbank/raw_fbank_train.4.ark:1743972
mtpf0_si1235 quick_test/fbank/raw_fbank_train.4.ark:9206402
fpmy0_sx73 quick_test/fbank/raw_fbank_train.1.ark:10589165
mrjh0_sx169 quick_test/fbank/raw_fbank_train.4.ark:2736135
fnkl0_sx82 quick_test/fbank/raw_fbank_train.1.ark:9656382
mfer0_si862 quick_test/fbank/raw_fbank_train.2.ark:10409418
mjrh1_sx424 quick_test/fbank/raw_fbank_train.3.ark:4804610
maeb0_sx180 quick_test/fbank/raw_fbank_train.2.ark:2347740
mewm0_si1348 quick_test/fbank/raw_fbank_train.2.ark:10310406
mgar0_sx312 quick_test/fbank/raw_fbank_train.3.ark:60460
fpls0_sx240 quick_test/fbank/raw_fbank_train.1.ark:10443964
mmea0_sx218 quick_test/fbank/raw_fbank_train.3.ark:9125700
msfh0_sx136 quick_test/fbank/raw_fbank_train.4.ark:6149314
mjra0_si1866 quick_test/fbank/raw_fbank_train.3.ark:4442129
mgsl0_sx174 quick_test/fbank/raw_fbank_train.3.ark:740407
mnet0_si2076 quick_test/fbank/raw_fbank_train.3.ark:10556415
mjkr0_sx211 quick_test/fbank/raw_fbank_train.3.ark:3542776
mjde0_si463 quick_test/fbank/raw_fbank_train.3.ark:2270936
msrr0_sx231 quick_test/fbank/raw_fbank_train.4.ark:6889841
mkaj0_sx154 quick_test/fbank/raw_fbank_train.3.ark:5901744
mfrm0_si1155 quick_test/fbank/raw_fbank_train.2.ark:10584681
msfv0_sx92 quick_test/fbank/raw_fbank_train.4.ark:6319030
mdpk0_sx423 quick_test/fbank/raw_fbank_train.2.ark:8671359
mlel0_si616 quick_test/fbank/raw_fbank_train.3.ark:7351608
mtmn0_sx434 quick_test/fbank/raw_fbank_train.4.ark:9085511
mrkm0_si637 quick_test/fbank/raw_fbank_train.4.ark:3152843
msrr0_si1131 quick_test/fbank/raw_fbank_train.4.ark:6828548
marc0_si1188 quick_test/fbank/raw_fbank_train.2.ark:2992418
mrwa0_sx253 quick_test/fbank/raw_fbank_train.4.ark:4988282
fdkn0_sx271 quick_test/fbank/raw_fbank_train.1.ark:2844687
fbjl0_sx112 quick_test/fbank/raw_fbank_train.1.ark:882109
mrbc0_sx419 quick_test/fbank/raw_fbank_train.4.ark:1133474
mdcd0_sx425 quick_test/fbank/raw_fbank_train.2.ark:6475527
mprk0_si1097 quick_test/fbank/raw_fbank_train.4.ark:276994
mcal0_sx238 quick_test/fbank/raw_fbank_train.2.ark:4564708
mvrw0_si855 quick_test/fbank/raw_fbank_train.4.ark:10421329
fpab1_sx121 quick_test/fbank/raw_fbank_train.1.ark:9815980
mmrp0_sx324 quick_test/fbank/raw_fbank_train.3.ark:9871013
fpac0_sx391 quick_test/fbank/raw_fbank_train.1.ark:9974256
mrjh0_sx259 quick_test/fbank/raw_fbank_train.4.ark:2754928
mjrh1_sx334 quick_test/fbank/raw_fbank_train.3.ark:4795337
mbml0_si1799 quick_test/fbank/raw_fbank_train.2.ark:3946022
mwrp0_si2073 quick_test/fbank/raw_fbank_train.4.ark:11283880
mwsh0_sx76 quick_test/fbank/raw_fbank_train.4.ark:11543770
fksr0_sx397 quick_test/fbank/raw_fbank_train.1.ark:7104477
mvlo0_si1147 quick_test/fbank/raw_fbank_train.4.ark:10299517
mrws0_sx112 quick_test/fbank/raw_fbank_train.4.ark:5072434
megj0_si1337 quick_test/fbank/raw_fbank_train.2.ark:9829485
makb0_sx206 quick_test/fbank/raw_fbank_train.2.ark:2767276
mtpp0_sx248 quick_test/fbank/raw_fbank_train.4.ark:9434945
mjrh0_si1840 quick_test/fbank/raw_fbank_train.3.ark:4652213
mdhs0_si1530 quick_test/fbank/raw_fbank_train.2.ark:7097743
fpjf0_si1676 quick_test/fbank/raw_fbank_train.1.ark:10326473
mtbc0_sx273 quick_test/fbank/raw_fbank_train.4.ark:7613854
mprd0_sx261 quick_test/fbank/raw_fbank_train.4.ark:229422
mmsm0_si476 quick_test/fbank/raw_fbank_train.3.ark:9947699
mgrp0_sx237 quick_test/fbank/raw_fbank_train.3.ark:538873
fcyl0_si1927 quick_test/fbank/raw_fbank_train.1.ark:2307860
mtkp0_sx393 quick_test/fbank/raw_fbank_train.4.ark:8694162
mrew1_si2130 quick_test/fbank/raw_fbank_train.4.ark:1968375
msfh0_sx316 quick_test/fbank/raw_fbank_train.4.ark:6180380
fjlr0_sx151 quick_test/fbank/raw_fbank_train.1.ark:5387944
fbas0_si1387 quick_test/fbank/raw_fbank_train.1.ark:527214
fblv0_sx248 quick_test/fbank/raw_fbank_train.1.ark:999568
mbjv0_sx257 quick_test/fbank/raw_fbank_train.2.ark:3692806
fsdj0_sx395 quick_test/fbank/raw_fbank_train.1.ark:11595016
mbsb0_sx363 quick_test/fbank/raw_fbank_train.2.ark:4169317
mcth0_sx129 quick_test/fbank/raw_fbank_train.2.ark:5750095
flmc0_sx382 quick_test/fbank/raw_fbank_train.1.ark:8219994
fskc0_si2046 quick_test/fbank/raw_fbank_train.2.ark:267348
mcdr0_si1784 quick_test/fbank/raw_fbank_train.2.ark:4817964
mrtj0_sx142 quick_test/fbank/raw_fbank_train.4.ark:4775799
mgxp0_sx97 quick_test/fbank/raw_fbank_train.3.ark:905040
fkkh0_si1290 quick_test/fbank/raw_fbank_train.1.ark:6608865
mejs0_sx250 quick_test/fbank/raw_fbank_train.2.ark:10083066
mdss1_si1327 quick_test/fbank/raw_fbank_train.2.ark:9076685
mprb0_sx305 quick_test/fbank/raw_fbank_train.4.ark:127430
mjfh0_si477 quick_test/fbank/raw_fbank_train.3.ark:2905800
msmr0_sx415 quick_test/fbank/raw_fbank_train.4.ark:6616032
fsah0_sx74 quick_test/fbank/raw_fbank_train.1.ark:11091770
mmvp0_sx114 quick_test/fbank/raw_fbank_train.3.ark:10073197
mtkd0_sx17 quick_test/fbank/raw_fbank_train.4.ark:8550798
mrai0_si792 quick_test/fbank/raw_fbank_train.4.ark:789865
mmgg0_sx269 quick_test/fbank/raw_fbank_train.3.ark:9398775
mdac0_sx361 quick_test/fbank/raw_fbank_train.2.ark:6071156
mrmb0_si2211 quick_test/fbank/raw_fbank_train.4.ark:3704679
mdlb0_sx226 quick_test/fbank/raw_fbank_train.2.ark:7446192
mwre0_sx337 quick_test/fbank/raw_fbank_train.4.ark:11216473
mbml0_sx89 quick_test/fbank/raw_fbank_train.2.ark:4016419
msrr0_sx51 quick_test/fbank/raw_fbank_train.4.ark:6916418
mjda0_si1031 quick_test/fbank/raw_fbank_train.3.ark:2068052
msdb0_si1637 quick_test/fbank/raw_fbank_train.4.ark:5606680
mtpg0_sx33 quick_test/fbank/raw_fbank_train.4.ark:9368745
mjbg0_si1724 quick_test/fbank/raw_fbank_train.3.ark:1980860
flag0_sx204 quick_test/fbank/raw_fbank_train.1.ark:7269189
msrg0_sx231 quick_test/fbank/raw_fbank_train.4.ark:6786896
mrtc0_sx288 quick_test/fbank/raw_fbank_train.4.ark:4701272
mjws0_sx243 quick_test/fbank/raw_fbank_train.3.ark:5295508
mrso0_sx129 quick_test/fbank/raw_fbank_train.4.ark:4444884
marw0_si1276 quick_test/fbank/raw_fbank_train.2.ark:3072083
fcdr1_si1816 quick_test/fbank/raw_fbank_train.1.ark:1456074
flac0_sx91 quick_test/fbank/raw_fbank_train.1.ark:7197662
megj0_sx257 quick_test/fbank/raw_fbank_train.2.ark:9896538
mcae0_si1447 quick_test/fbank/raw_fbank_train.2.ark:4395312
mmab1_sx54 quick_test/fbank/raw_fbank_train.3.ark:8061682
mtrc0_sx170 quick_test/fbank/raw_fbank_train.4.ark:9759386
mesg0_si702 quick_test/fbank/raw_fbank_train.2.ark:10145225
mbth0_si757 quick_test/fbank/raw_fbank_train.2.ark:4218809
mdma0_sx260 quick_test/fbank/raw_fbank_train.2.ark:8249073
mjwg0_sx265 quick_test/fbank/raw_fbank_train.3.ark:5202243
mkes0_sx173 quick_test/fbank/raw_fbank_train.3.ark:6403548
mrjm0_si1228 quick_test/fbank/raw_fbank_train.4.ark:2816254
mfxs0_sx414 quick_test/fbank/raw_fbank_train.2.ark:10844052
mdbb1_sx16 quick_test/fbank/raw_fbank_train.2.ark:6245690
fdjh0_si1565 quick_test/fbank/raw_fbank_train.1.ark:2692888
fsms1_sx244 quick_test/fbank/raw_fbank_train.2.ark:899758
majp0_si1074 quick_test/fbank/raw_fbank_train.2.ark:2580956
mjpm1_si761 quick_test/fbank/raw_fbank_train.3.ark:4346177
mwac0_si2231 quick_test/fbank/raw_fbank_train.4.ark:10499561
ftaj0_si1329 quick_test/fbank/raw_fbank_train.2.ark:1263166
fgmb0_sx425 quick_test/fbank/raw_fbank_train.1.ark:4477811
mbom0_si1644 quick_test/fbank/raw_fbank_train.2.ark:4042007
mjrh1_sx64 quick_test/fbank/raw_fbank_train.3.ark:4816042
majp0_sx84 quick_test/fbank/raw_fbank_train.2.ark:2677708
fgdp0_si988 quick_test/fbank/raw_fbank_train.1.ark:4290734
mtkp0_sx213 quick_test/fbank/raw_fbank_train.4.ark:8663144
fdfb0_si1948 quick_test/fbank/raw_fbank_train.1.ark:2623816
msem1_sx360 quick_test/fbank/raw_fbank_train.4.ark:5971649
fjxp0_sx402 quick_test/fbank/raw_fbank_train.1.ark:6153298
mtas0_si755 quick_test/fbank/raw_fbank_train.4.ark:7296833
fpjf0_sx352 quick_test/fbank/raw_fbank_train.1.ark:10367085
fsms1_sx154 quick_test/fbank/raw_fbank_train.2.ark:888925
mrpc1_si2026 quick_test/fbank/raw_fbank_train.4.ark:4207207
mrbc0_si1665 quick_test/fbank/raw_fbank_train.4.ark:1058915
mrlj0_sx340 quick_test/fbank/raw_fbank_train.4.ark:3385630
mvjh0_si926 quick_test/fbank/raw_fbank_train.4.ark:10238199
mhit0_si2243 quick_test/fbank/raw_fbank_train.3.ark:1018333
mrmg0_si2340 quick_test/fbank/raw_fbank_train.4.ark:3811218
fsgf0_sx207 quick_test/fbank/raw_fbank_train.1.ark:11666143
mchl0_sx447 quick_test/fbank/raw_fbank_train.2.ark:5212045
flet0_sx57 quick_test/fbank/raw_fbank_train.1.ark:7505658
fmjf0_sx84 quick_test/fbank/raw_fbank_train.1.ark:9018915
fcke0_si1111 quick_test/fbank/raw_fbank_train.1.ark:1814820
mjsr0_sx254 quick_test/fbank/raw_fbank_train.3.ark:5077779
mntw0_sx78 quick_test/fbank/raw_fbank_train.3.ark:10723676
mrai0_si1954 quick_test/fbank/raw_fbank_train.4.ark:765438
mabc0_sx421 quick_test/fbank/raw_fbank_train.2.ark:2083644
fsjg0_sx310 quick_test/fbank/raw_fbank_train.1.ark:11789281
mmds0_si1973 quick_test/fbank/raw_fbank_train.3.ark:9018056
mfxv0_si1635 quick_test/fbank/raw_fbank_train.2.ark:10905066
mlns0_sx237 quick_test/fbank/raw_fbank_train.3.ark:7715269
mtmt0_sx128 quick_test/fbank/raw_fbank_train.4.ark:9148557
mtat0_si1740 quick_test/fbank/raw_fbank_train.4.ark:7372305
mtjm0_sx146 quick_test/fbank/raw_fbank_train.4.ark:8228531
fpab1_sx301 quick_test/fbank/raw_fbank_train.1.ark:9843926
fmem0_sx333 quick_test/fbank/raw_fbank_train.1.ark:8792674
mdlr0_sx63 quick_test/fbank/raw_fbank_train.2.ark:8077400
mmaa0_sx305 quick_test/fbank/raw_fbank_train.3.ark:7937112
mtat1_sx59 quick_test/fbank/raw_fbank_train.4.ark:7556167
mdem0_sx248 quick_test/fbank/raw_fbank_train.2.ark:6939226
frjb0_si1794 quick_test/fbank/raw_fbank_train.1.ark:10707612
fjrp1_sx172 quick_test/fbank/raw_fbank_train.1.ark:5595234
mbom0_sx384 quick_test/fbank/raw_fbank_train.2.ark:4104566
mkrg0_sx411 quick_test/fbank/raw_fbank_train.3.ark:7117264
medr0_sx294 quick_test/fbank/raw_fbank_train.2.ark:9708675
msdh0_sx260 quick_test/fbank/raw_fbank_train.4.ark:5710525
mrcg0_si2058 quick_test/fbank/raw_fbank_train.4.ark:1174374
mmdb0_si987 quick_test/fbank/raw_fbank_train.3.ark:8628829
mkln0_sx338 quick_test/fbank/raw_fbank_train.3.ark:6611984
mgrp0_sx57 quick_test/fbank/raw_fbank_train.3.ark:580011
fjsp0_sx84 quick_test/fbank/raw_fbank_train.1.ark:5862656
mwad0_si1062 quick_test/fbank/raw_fbank_train.4.ark:10601792
mwdk0_si806 quick_test/fbank/raw_fbank_train.4.ark:10882937
frjb0_sx77 quick_test/fbank/raw_fbank_train.1.ark:10769256
msds0_sx267 quick_test/fbank/raw_fbank_train.4.ark:5824111
faem0_si762 quick_test/fbank/raw_fbank_train.1.ark:28600
mmwb0_si989 quick_test/fbank/raw_fbank_train.3.ark:10178150
flet0_sx277 quick_test/fbank/raw_fbank_train.1.ark:7484313
fssb0_si1712 quick_test/fbank/raw_fbank_train.2.ark:1170054
mrab0_sx234 quick_test/fbank/raw_fbank_train.4.ark:611201
mcdr0_sx254 quick_test/fbank/raw_fbank_train.2.ark:4872703
mtmt0_si488 quick_test/fbank/raw_fbank_train.4.ark:9129564
mmdg0_sx250 quick_test/fbank/raw_fbank_train.3.ark:8752360
mcae0_sx277 quick_test/fbank/raw_fbank_train.2.ark:4466525
mklw0_sx401 quick_test/fbank/raw_fbank_train.3.ark:7017720
fvfb0_si1032 quick_test/fbank/raw_fbank_train.2.ark:1737169
mfer0_sx142 quick_test/fbank/raw_fbank_train.2.ark:10425291
mrlj1_sx51 quick_test/fbank/raw_fbank_train.4.ark:3491601
mpfu0_sx448 quick_test/fbank/raw_fbank_train.3.ark:10983599
fvmh0_si836 quick_test/fbank/raw_fbank_train.2.ark:1955767
mwch0_si2252 quick_test/fbank/raw_fbank_train.4.ark:10790712
mkdb0_sx242 quick_test/fbank/raw_fbank_train.3.ark:6103267
mdtb0_si1200 quick_test/fbank/raw_fbank_train.2.ark:9166710
mdrd0_si752 quick_test/fbank/raw_fbank_train.2.ark:8805877
mmwb0_sx359 quick_test/fbank/raw_fbank_train.3.ark:10220449
mtju0_si760 quick_test/fbank/raw_fbank_train.4.ark:8420548
mdas0_si636 quick_test/fbank/raw_fbank_train.2.ark:6133802
mdcd0_si785 quick_test/fbank/raw_fbank_train.2.ark:6416635
mprk0_sx197 quick_test/fbank/raw_fbank_train.4.ark:355279
mtlc0_sx127 quick_test/fbank/raw_fbank_train.4.ark:8851801
mfer0_si2122 quick_test/fbank/raw_fbank_train.2.ark:10403785
mjpg0_sx291 quick_test/fbank/raw_fbank_train.3.ark:4211378
fdtd0_sx301 quick_test/fbank/raw_fbank_train.1.ark:3298901
mchl0_sx267 quick_test/fbank/raw_fbank_train.2.ark:5184579
mjpm0_sx108 quick_test/fbank/raw_fbank_train.3.ark:4272785
mtlc0_sx37 quick_test/fbank/raw_fbank_train.4.ark:8873219
fjhk0_si2282 quick_test/fbank/raw_fbank_train.1.ark:5078435
mjws0_sx63 quick_test/fbank/raw_fbank_train.3.ark:5342046
mlbc0_si609 quick_test/fbank/raw_fbank_train.3.ark:7258263
mjde0_sx310 quick_test/fbank/raw_fbank_train.3.ark:2332388
mrlj1_sx141 quick_test/fbank/raw_fbank_train.4.ark:3449270
fskc0_sx246 quick_test/fbank/raw_fbank_train.2.ark:298727
mjjj0_sx353 quick_test/fbank/raw_fbank_train.3.ark:3349959
mdps0_sx359 quick_test/fbank/raw_fbank_train.2.ark:8746711
mtdb0_sx51 quick_test/fbank/raw_fbank_train.4.ark:7851322
fmbg0_sx3 quick_test/fbank/raw_fbank_train.1.ark:8670583
mtjg0_sx170 quick_test/fbank/raw_fbank_train.4.ark:8113946
fpjf0_sx236 quick_test/fbank/raw_fbank_train.1.ark:10347659
fdjh0_sx305 quick_test/fbank/raw_fbank_train.1.ark:2754054
mree0_si1734 quick_test/fbank/raw_fbank_train.4.ark:1662660
mjpm1_sx131 quick_test/fbank/raw_fbank_train.3.ark:4362250
fmpg0_sx72 quick_test/fbank/raw_fbank_train.1.ark:9561917
mree0_sx114 quick_test/fbank/raw_fbank_train.4.ark:1693047
falr0_sx335 quick_test/fbank/raw_fbank_train.1.ark:369049
mjfr0_si2235 quick_test/fbank/raw_fbank_train.3.ark:2977472
mrlr0_si566 quick_test/fbank/raw_fbank_train.4.ark:3628967
fsag0_sx153 quick_test/fbank/raw_fbank_train.1.ark:10911254
mrgs0_si726 quick_test/fbank/raw_fbank_train.4.ark:2396469
mprd0_si1431 quick_test/fbank/raw_fbank_train.4.ark:165489
mjma0_sx415 quick_test/fbank/raw_fbank_train.3.ark:3944903
mwdk0_sx356 quick_test/fbank/raw_fbank_train.4.ark:10921516
msem1_sx180 quick_test/fbank/raw_fbank_train.4.ark:5946063
mbef0_sx291 quick_test/fbank/raw_fbank_train.2.ark:3522581
mgaf0_sx112 quick_test/fbank/raw_fbank_train.2.ark:11005924
fvmh0_sx206 quick_test/fbank/raw_fbank_train.2.ark:1981553
mrem0_sx421 quick_test/fbank/raw_fbank_train.4.ark:1933675
mtdp0_sx261 quick_test/fbank/raw_fbank_train.4.ark:7923250
mtlb0_si1134 quick_test/fbank/raw_fbank_train.4.ark:8704156
flod0_sx387 quick_test/fbank/raw_fbank_train.1.ark:8408806
fklc0_sx175 quick_test/fbank/raw_fbank_train.1.ark:6751910
mpgh0_sx114 quick_test/fbank/raw_fbank_train.3.ark:11055324
mrdd0_sx240 quick_test/fbank/raw_fbank_train.4.ark:1411364
mrew1_si870 quick_test/fbank/raw_fbank_train.4.ark:1973968
mefg0_sx105 quick_test/fbank/raw_fbank_train.2.ark:9773520
msem1_sx90 quick_test/fbank/raw_fbank_train.4.ark:6000154
mjra0_sx156 quick_test/fbank/raw_fbank_train.3.ark:4467115
mses0_sx59 quick_test/fbank/raw_fbank_train.4.ark:6092180
fsbk0_sx169 quick_test/fbank/raw_fbank_train.1.ark:11231170
fkfb0_sx438 quick_test/fbank/raw_fbank_train.1.ark:6572919
mjxl0_sx92 quick_test/fbank/raw_fbank_train.3.ark:5647801
mmgc0_sx45 quick_test/fbank/raw_fbank_train.3.ark:9338767
fcyl0_sx37 quick_test/fbank/raw_fbank_train.1.ark:2375024
fljd0_si886 quick_test/fbank/raw_fbank_train.1.ark:7747051
mmgk0_si1322 quick_test/fbank/raw_fbank_train.3.ark:9448467
mprd0_sx81 quick_test/fbank/raw_fbank_train.4.ark:266440
mwac0_sx251 quick_test/fbank/raw_fbank_train.4.ark:10542300
mgaw0_sx265 quick_test/fbank/raw_fbank_train.3.ark:155652
mpgr1_si1499 quick_test/fbank/raw_fbank_train.3.ark:11197308
fltm0_sx80 quick_test/fbank/raw_fbank_train.1.ark:8514792
majp0_si2334 quick_test/fbank/raw_fbank_train.2.ark:2608184
ftaj0_sx429 quick_test/fbank/raw_fbank_train.2.ark:1321244
mdns0_si873 quick_test/fbank/raw_fbank_train.2.ark:8430657
mrmb0_sx231 quick_test/fbank/raw_fbank_train.4.ark:3744258
mbjv0_si617 quick_test/fbank/raw_fbank_train.2.ark:3666620
mrjb1_sx210 quick_test/fbank/raw_fbank_train.4.ark:2644064
mdwh0_si665 quick_test/fbank/raw_fbank_train.2.ark:9372468
mtml0_si1065 quick_test/fbank/raw_fbank_train.4.ark:8893926
fdnc0_si2287 quick_test/fbank/raw_fbank_train.1.ark:3162457
mbbr0_sx425 quick_test/fbank/raw_fbank_train.2.ark:3349133
mjma0_si1495 quick_test/fbank/raw_fbank_train.3.ark:3872544
ftbw0_sx85 quick_test/fbank/raw_fbank_train.2.ark:1525886
fdml0_sx339 quick_test/fbank/raw_fbank_train.1.ark:2952626
fpmy0_si1783 quick_test/fbank/raw_fbank_train.1.ark:10506928
feme0_si875 quick_test/fbank/raw_fbank_train.1.ark:3876113
fjen0_sx237 quick_test/fbank/raw_fbank_train.1.ark:5000475
msjk0_sx336 quick_test/fbank/raw_fbank_train.4.ark:6397470
mfwk0_sx79 quick_test/fbank/raw_fbank_train.2.ark:10764178
fmkf0_si906 quick_test/fbank/raw_fbank_train.1.ark:9272507
mfxs0_si2304 quick_test/fbank/raw_fbank_train.2.ark:10792400
mmaa0_si845 quick_test/fbank/raw_fbank_train.3.ark:7894053
mtjs0_sx292 quick_test/fbank/raw_fbank_train.4.ark:8365414
fklc0_sx85 quick_test/fbank/raw_fbank_train.1.ark:6808081
mdks0_sx436 quick_test/fbank/raw_fbank_train.2.ark:7359033
mmpm0_sx251 quick_test/fbank/raw_fbank_train.3.ark:9762236
mmdm0_sx231 quick_test/fbank/raw_fbank_train.3.ark:8854025
fdxw0_si1511 quick_test/fbank/raw_fbank_train.1.ark:3343801
flma0_si1243 quick_test/fbank/raw_fbank_train.1.ark:8045578
mdlh0_sx250 quick_test/fbank/raw_fbank_train.2.ark:7847972
mtbc0_sx347 quick_test/fbank/raw_fbank_train.4.ark:7623687
mesj0_sx187 quick_test/fbank/raw_fbank_train.2.ark:10266763
mtmn0_sx164 quick_test/fbank/raw_fbank_train.4.ark:9052892
mcth0_sx399 quick_test/fbank/raw_fbank_train.2.ark:5799346
mtwh1_si882 quick_test/fbank/raw_fbank_train.4.ark:10024428
mkag0_sx30 quick_test/fbank/raw_fbank_train.3.ark:5730640
mdsj0_sx292 quick_test/fbank/raw_fbank_train.2.ark:8955040
falr0_sx245 quick_test/fbank/raw_fbank_train.1.ark:358776
mljc0_sx325 quick_test/fbank/raw_fbank_train.3.ark:7507772
msdb0_si1007 quick_test/fbank/raw_fbank_train.4.ark:5591246
mpgr1_sx419 quick_test/fbank/raw_fbank_train.3.ark:11266394
mtlc0_sx217 quick_test/fbank/raw_fbank_train.4.ark:8858514
mjdc0_sx81 quick_test/fbank/raw_fbank_train.3.ark:2237549
mjrh0_sx45 quick_test/fbank/raw_fbank_train.3.ark:4716737
mntw0_sx202 quick_test/fbank/raw_fbank_train.3.ark:10686298
mmws1_sx351 quick_test/fbank/raw_fbank_train.3.ark:10414178
mmab1_sx324 quick_test/fbank/raw_fbank_train.3.ark:8031497
mpgr1_sx59 quick_test/fbank/raw_fbank_train.3.ark:11278946
fbmj0_sx426 quick_test/fbank/raw_fbank_train.1.ark:1232523
mmjb1_si1408 quick_test/fbank/raw_fbank_train.3.ark:9524972
mwrp0_sx363 quick_test/fbank/raw_fbank_train.4.ark:11330370
falk0_sx276 quick_test/fbank/raw_fbank_train.1.ark:262553
fcrz0_si1913 quick_test/fbank/raw_fbank_train.1.ark:2201841
mfxv0_sx195 quick_test/fbank/raw_fbank_train.2.ark:10933004
fmbg0_sx440 quick_test/fbank/raw_fbank_train.1.ark:8693169
mrds0_si1797 quick_test/fbank/raw_fbank_train.4.ark:1563515
mjws0_sx153 quick_test/fbank/raw_fbank_train.3.ark:5279875
mddc0_sx159 quick_test/fbank/raw_fbank_train.2.ark:6628478
fksr0_sx37 quick_test/fbank/raw_fbank_train.1.ark:7093684
msfv0_si1892 quick_test/fbank/raw_fbank_train.4.ark:6230713
mdlb0_sx406 quick_test/fbank/raw_fbank_train.2.ark:7474218
frjb0_sx167 quick_test/fbank/raw_fbank_train.1.ark:10715085
mgrl0_sx417 quick_test/fbank/raw_fbank_train.3.ark:462434
mcal0_sx148 quick_test/fbank/raw_fbank_train.2.ark:4554035
mgar0_sx222 quick_test/fbank/raw_fbank_train.3.ark:46667
fkde0_si1771 quick_test/fbank/raw_fbank_train.1.ark:6302543
marc0_si1818 quick_test/fbank/raw_fbank_train.2.ark:2998412
msrg0_sx411 quick_test/fbank/raw_fbank_train.4.ark:6807002
mtlc0_si1477 quick_test/fbank/raw_fbank_train.4.ark:8821975
mtat1_sx149 quick_test/fbank/raw_fbank_train.4.ark:7490276
msfh0_si1216 quick_test/fbank/raw_fbank_train.4.ark:6099454
fsah0_si1874 quick_test/fbank/raw_fbank_train.1.ark:11010573
fjen0_sx327 quick_test/fbank/raw_fbank_train.1.ark:5009788
mdrd0_sx32 quick_test/fbank/raw_fbank_train.2.ark:8870608
mrab1_sx128 quick_test/fbank/raw_fbank_train.4.ark:704233
mhrm0_sx418 quick_test/fbank/raw_fbank_train.3.ark:1443159
mmws0_si1518 quick_test/fbank/raw_fbank_train.3.ark:10270828
mkxl0_sx285 quick_test/fbank/raw_fbank_train.3.ark:7211129
mbml0_sx179 quick_test/fbank/raw_fbank_train.2.ark:3968008
mjdm0_sx170 quick_test/fbank/raw_fbank_train.3.ark:2506973
mgsl0_si797 quick_test/fbank/raw_fbank_train.3.ark:722574
mdwm0_si2176 quick_test/fbank/raw_fbank_train.2.ark:9471900
mjra0_sx66 quick_test/fbank/raw_fbank_train.3.ark:4519406
fgcs0_si1486 quick_test/fbank/raw_fbank_train.1.ark:4175922
fvmh0_sx296 quick_test/fbank/raw_fbank_train.2.ark:2002378
mgrp0_sx417 quick_test/fbank/raw_fbank_train.3.ark:566499
fvkb0_si1789 quick_test/fbank/raw_fbank_train.2.ark:1835469
fcjf0_sx307 quick_test/fbank/raw_fbank_train.1.ark:1696696
mpfu0_sx88 quick_test/fbank/raw_fbank_train.3.ark:10998871
fklc1_sx238 quick_test/fbank/raw_fbank_train.1.ark:6864609
mdps0_si1651 quick_test/fbank/raw_fbank_train.2.ark:8693945
flkm0_sx80 quick_test/fbank/raw_fbank_train.1.ark:8035864
fgcs0_sx316 quick_test/fbank/raw_fbank_train.1.ark:4236488
mtqc0_sx451 quick_test/fbank/raw_fbank_train.4.ark:9690461
mpar0_si2206 quick_test/fbank/raw_fbank_train.3.ark:10740944
mrre0_si952 quick_test/fbank/raw_fbank_train.4.ark:4312745
mjlg1_si1642 quick_test/fbank/raw_fbank_train.3.ark:3689407
fbmj0_si815 quick_test/fbank/raw_fbank_train.1.ark:1180311
fgmb0_sx65 quick_test/fbank/raw_fbank_train.1.ark:4487523
mrgm0_sx442 quick_test/fbank/raw_fbank_train.4.ark:2338056
mejs0_sx70 quick_test/fbank/raw_fbank_train.2.ark:10120924
mgsh0_sx96 quick_test/fbank/raw_fbank_train.3.ark:685074
fpad0_si1976 quick_test/fbank/raw_fbank_train.1.ark:9998244
mtxs0_sx430 quick_test/fbank/raw_fbank_train.4.ark:10177026
mkxl0_si1185 quick_test/fbank/raw_fbank_train.3.ark:7137530
mmwb0_si2249 quick_test/fbank/raw_fbank_train.3.ark:10154317
maeo0_sx336 quick_test/fbank/raw_fbank_train.2.ark:2460032
mabc0_si781 quick_test/fbank/raw_fbank_train.2.ark:2037672
mwad0_sx432 quick_test/fbank/raw_fbank_train.4.ark:10657752
mtjs0_si562 quick_test/fbank/raw_fbank_train.4.ark:8314123
mjjm0_sx17 quick_test/fbank/raw_fbank_train.3.ark:3441350
fjhk0_sx32 quick_test/fbank/raw_fbank_train.1.ark:5137126
mmds0_sx173 quick_test/fbank/raw_fbank_train.3.ark:9031962
fpab1_sx211 quick_test/fbank/raw_fbank_train.1.ark:9830373
fspm0_sx71 quick_test/fbank/raw_fbank_train.2.ark:1049961
mwad0_sx252 quick_test/fbank/raw_fbank_train.4.ark:10639166
mgar0_sx402 quick_test/fbank/raw_fbank_train.3.ark:76853
mrjh0_sx307 quick_test/fbank/raw_fbank_train.4.ark:2768801
mmam0_si1668 quick_test/fbank/raw_fbank_train.3.ark:8203935
fsah0_sx344 quick_test/fbank/raw_fbank_train.1.ark:11072465
mgjc0_sx75 quick_test/fbank/raw_fbank_train.3.ark:375521
mrdm0_sx245 quick_test/fbank/raw_fbank_train.4.ark:1510909
mmgg0_sx449 quick_test/fbank/raw_fbank_train.3.ark:9421361
fdtd0_sx211 quick_test/fbank/raw_fbank_train.1.ark:3286828
mrjm1_sx308 quick_test/fbank/raw_fbank_train.4.ark:2971452
fmjf0_sx264 quick_test/fbank/raw_fbank_train.1.ark:8983017
mjdm0_sx350 quick_test/fbank/raw_fbank_train.3.ark:2539959
mrbc0_sx329 quick_test/fbank/raw_fbank_train.4.ark:1118241
fapb0_si1063 quick_test/fbank/raw_fbank_train.1.ark:403268
mtrt0_si1227 quick_test/fbank/raw_fbank_train.4.ark:9909656
mjeb0_sx26 quick_test/fbank/raw_fbank_train.3.ark:2649863
fspm0_si1241 quick_test/fbank/raw_fbank_train.2.ark:950410
mjsr0_sx74 quick_test/fbank/raw_fbank_train.3.ark:5116117
msds0_sx87 quick_test/fbank/raw_fbank_train.4.ark:5870809
msrr0_si1761 quick_test/fbank/raw_fbank_train.4.ark:6839582
fpls0_sx3 quick_test/fbank/raw_fbank_train.1.ark:10455995
fmkf0_sx6 quick_test/fbank/raw_fbank_train.1.ark:9321757
mjrg0_sx286 quick_test/fbank/raw_fbank_train.3.ark:4584765
mrjt0_sx418 quick_test/fbank/raw_fbank_train.4.ark:3083630
mdss1_sx67 quick_test/fbank/raw_fbank_train.2.ark:9154316
msjk0_sx156 quick_test/fbank/raw_fbank_train.4.ark:6372644
mnet0_sx96 quick_test/fbank/raw_fbank_train.3.ark:10616170
mmdb0_sx357 quick_test/fbank/raw_fbank_train.3.ark:8665368
fbcg1_sx442 quick_test/fbank/raw_fbank_train.1.ark:706439
fmkc0_si1072 quick_test/fbank/raw_fbank_train.1.ark:9157328
mlel0_sx256 quick_test/fbank/raw_fbank_train.3.ark:7388154
mjfr0_sx345 quick_test/fbank/raw_fbank_train.3.ark:3028084
msmc0_sx107 quick_test/fbank/raw_fbank_train.4.ark:6480548
fjxp0_sx312 quick_test/fbank/raw_fbank_train.1.ark:6138785
mmea0_sx38 quick_test/fbank/raw_fbank_train.3.ark:9145485
fsdj0_sx35 quick_test/fbank/raw_fbank_train.1.ark:11585983
fmpg0_si1602 quick_test/fbank/raw_fbank_train.1.ark:9445206
mtrc0_si589 quick_test/fbank/raw_fbank_train.4.ark:9734520
fdxw0_sx251 quick_test/fbank/raw_fbank_train.1.ark:3386774
mrdd0_sx60 quick_test/fbank/raw_fbank_train.4.ark:1444982
fdtd0_si2191 quick_test/fbank/raw_fbank_train.1.ark:3248609
mjdg0_sx142 quick_test/fbank/raw_fbank_train.3.ark:2414628
mrld0_sx424 quick_test/fbank/raw_fbank_train.4.ark:3304918
mmvp0_si654 quick_test/fbank/raw_fbank_train.3.ark:10046084
frjb0_sx257 quick_test/fbank/raw_fbank_train.1.ark:10729838
ftmg0_si2162 quick_test/fbank/raw_fbank_train.2.ark:1648458
mewm0_si1978 quick_test/fbank/raw_fbank_train.2.ark:10319960
mefg0_sx195 quick_test/fbank/raw_fbank_train.2.ark:9795185
mtwh1_si2142 quick_test/fbank/raw_fbank_train.4.ark:10017795
mcdc0_sx122 quick_test/fbank/raw_fbank_train.2.ark:4651980
fbch0_sx416 quick_test/fbank/raw_fbank_train.1.ark:813303
fntb0_si573 quick_test/fbank/raw_fbank_train.1.ark:9679329
mwar0_sx325 quick_test/fbank/raw_fbank_train.4.ark:10740145
mrjb1_si1020 quick_test/fbank/raw_fbank_train.4.ark:2572610
ftaj0_si699 quick_test/fbank/raw_fbank_train.2.ark:1280472
mrmb0_sx141 quick_test/fbank/raw_fbank_train.4.ark:3730665
fcyl0_sx127 quick_test/fbank/raw_fbank_train.1.ark:2340486
fgmb0_si1145 quick_test/fbank/raw_fbank_train.1.ark:4384012
mfrm0_sx255 quick_test/fbank/raw_fbank_train.2.ark:10633935
mctm0_si1350 quick_test/fbank/raw_fbank_train.2.ark:5809260
mrmh0_si2281 quick_test/fbank/raw_fbank_train.4.ark:3916724
fjxm0_si581 quick_test/fbank/raw_fbank_train.1.ark:5990461
mrfl0_sx436 quick_test/fbank/raw_fbank_train.4.ark:2227351
mmag0_sx406 quick_test/fbank/raw_fbank_train.3.ark:8162555
fecd0_sx338 quick_test/fbank/raw_fbank_train.1.ark:3711002
mjrg0_sx16 quick_test/fbank/raw_fbank_train.3.ark:4576732
fcaj0_sx129 quick_test/fbank/raw_fbank_train.1.ark:1374195
mmdm1_sx333 quick_test/fbank/raw_fbank_train.3.ark:8959483
mdmt0_sx302 quick_test/fbank/raw_fbank_train.2.ark:8366931
