fjkl0_si2192 quick_test/fbank/raw_fbank_train.1.ark:5164747
mtpr0_si2230 quick_test/fbank/raw_fbank_train.4.ark:9494351
mrds0_sx447 quick_test/fbank/raw_fbank_train.4.ark:1625840
mbef0_si651 quick_test/fbank/raw_fbank_train.2.ark:3481650
mmgg0_si1709 quick_test/fbank/raw_fbank_train.3.ark:9368315
fjrp1_si2062 quick_test/fbank/raw_fbank_train.1.ark:5576648
mgsl0_si797 quick_test/fbank/raw_fbank_train.3.ark:722574
mjhi0_si555 quick_test/fbank/raw_fbank_train.3.ark:3092336
fsjw0_sx343 quick_test/fbank/raw_fbank_train.2.ark:214655
msas0_sx296 quick_test/fbank/raw_fbank_train.4.ark:5396288
mdma0_sx260 quick_test/fbank/raw_fbank_train.2.ark:8249073
mgaf0_si1912 quick_test/fbank/raw_fbank_train.2.ark:10981818
mtjg0_si890 quick_test/fbank/raw_fbank_train.4.ark:8098793
mjxa0_sx427 quick_test/fbank/raw_fbank_train.3.ark:5535104
fdxw0_si2141 quick_test/fbank/raw_fbank_train.1.ark:3352235
frjb0_sx347 quick_test/fbank/raw_fbank_train.1.ark:10738031
mdlh0_si700 quick_test/fbank/raw_fbank_train.2.ark:7814866
fcke0_sx301 quick_test/fbank/raw_fbank_train.1.ark:1878146
fdjh0_sx125 quick_test/fbank/raw_fbank_train.1.ark:2732588
mtxs0_si1060 quick_test/fbank/raw_fbank_train.4.ark:10089186
mvjh0_si926 quick_test/fbank/raw_fbank_train.4.ark:10238199
ftaj0_si474 quick_test/fbank/raw_fbank_train.2.ark:1271559
mklw0_sx221 quick_test/fbank/raw_fbank_train.3.ark:6986334
mjpg0_sx201 quick_test/fbank/raw_fbank_train.3.ark:4193873
mesg0_si1332 quick_test/fbank/raw_fbank_train.2.ark:10124878
mdks0_si2326 quick_test/fbank/raw_fbank_train.2.ark:7299541
mkjo0_sx77 quick_test/fbank/raw_fbank_train.3.ark:6545344
mkln0_sx158 quick_test/fbank/raw_fbank_train.3.ark:6593878
mgsl0_sx354 quick_test/fbank/raw_fbank_train.3.ark:767593
fjlg0_sx269 quick_test/fbank/raw_fbank_train.1.ark:5299992
mdlc2_sx354 quick_test/fbank/raw_fbank_train.2.ark:7759621
flkm0_si686 quick_test/fbank/raw_fbank_train.1.ark:7967940
mhbs0_sx135 quick_test/fbank/raw_fbank_train.3.ark:956614
msds0_sx87 quick_test/fbank/raw_fbank_train.4.ark:5870809
mjhi0_si1328 quick_test/fbank/raw_fbank_train.3.ark:3072543
flod0_sx387 quick_test/fbank/raw_fbank_train.1.ark:8408806
msjk0_sx336 quick_test/fbank/raw_fbank_train.4.ark:6397470
mjhi0_sx158 quick_test/fbank/raw_fbank_train.3.ark:3115642
fcag0_si1641 quick_test/fbank/raw_fbank_train.1.ark:1266543
mmbs0_sx251 quick_test/fbank/raw_fbank_train.3.ark:8453245
mmds0_sx263 quick_test/fbank/raw_fbank_train.3.ark:9044275
fpaf0_sx244 quick_test/fbank/raw_fbank_train.1.ark:10145929
mdlr1_si669 quick_test/fbank/raw_fbank_train.2.ark:8112581
mtrc0_sx183 quick_test/fbank/raw_fbank_train.4.ark:9775379
fsjs0_sx271 quick_test/fbank/raw_fbank_train.2.ark:99277
mjeb0_sx296 quick_test/fbank/raw_fbank_train.3.ark:2658816
feme0_sx335 quick_test/fbank/raw_fbank_train.1.ark:3920852
fspm0_sx341 quick_test/fbank/raw_fbank_train.2.ark:1026096
fvkb0_sx259 quick_test/fbank/raw_fbank_train.2.ark:1868888
mcth0_si579 quick_test/fbank/raw_fbank_train.2.ark:5735662
mtrt0_sx254 quick_test/fbank/raw_fbank_train.4.ark:9971902
mwrp0_sx3 quick_test/fbank/raw_fbank_train.4.ark:11322337
mhmg0_sx285 quick_test/fbank/raw_fbank_train.3.ark:1253188
mmsm0_si1736 quick_test/fbank/raw_fbank_train.3.ark:9936746
mgaf0_si652 quick_test/fbank/raw_fbank_train.2.ark:10997211
mjbg0_si1232 quick_test/fbank/raw_fbank_train.3.ark:1966906
mmeb0_sx97 quick_test/fbank/raw_fbank_train.3.ark:9246861
msvs0_si2198 quick_test/fbank/raw_fbank_train.4.ark:7045790
mdlc2_si1614 quick_test/fbank/raw_fbank_train.2.ark:7705615
mkls0_si2067 quick_test/fbank/raw_fbank_train.3.ark:6767537
mcdd0_si2143 quick_test/fbank/raw_fbank_train.2.ark:4722179
mtjs0_sx292 quick_test/fbank/raw_fbank_train.4.ark:8365414
fsak0_si1930 quick_test/fbank/raw_fbank_train.1.ark:11121518
fpjf0_si1259 quick_test/fbank/raw_fbank_train.1.ark:10309879
mjde0_sx400 quick_test/fbank/raw_fbank_train.3.ark:2363133
mrml0_sx341 quick_test/fbank/raw_fbank_train.4.ark:4061648
mjee0_sx427 quick_test/fbank/raw_fbank_train.3.ark:2857587
mrlj0_si2050 quick_test/fbank/raw_fbank_train.4.ark:3337498
fkkh0_si1920 quick_test/fbank/raw_fbank_train.1.ark:6627299
fceg0_si1878 quick_test/fbank/raw_fbank_train.1.ark:1575099
fmkc0_si1702 quick_test/fbank/raw_fbank_train.1.ark:9166682
mjeb0_sx170 quick_test/fbank/raw_fbank_train.3.ark:2617558
mdwd0_sx180 quick_test/fbank/raw_fbank_train.2.ark:9290156
mjhi0_sx428 quick_test/fbank/raw_fbank_train.3.ark:3146141
fsmm0_si1314 quick_test/fbank/raw_fbank_train.2.ark:744920
mdrd0_sx32 quick_test/fbank/raw_fbank_train.2.ark:8870608
mrjh0_sx439 quick_test/fbank/raw_fbank_train.4.ark:2776234
mmag0_si1126 quick_test/fbank/raw_fbank_train.3.ark:8076636
makr0_sx452 quick_test/fbank/raw_fbank_train.2.ark:2865087
mcef0_sx235 quick_test/fbank/raw_fbank_train.2.ark:4963168
marc0_sx378 quick_test/fbank/raw_fbank_train.2.ark:3061329
fear0_sx352 quick_test/fbank/raw_fbank_train.1.ark:3588537
mfxs0_sx54 quick_test/fbank/raw_fbank_train.2.ark:10856644
mdac0_sx91 quick_test/fbank/raw_fbank_train.2.ark:6097301
fdas1_sx381 quick_test/fbank/raw_fbank_train.1.ark:2492122
mjrh0_sx315 quick_test/fbank/raw_fbank_train.3.ark:4693472
flmc0_sx22 quick_test/fbank/raw_fbank_train.1.ark:8179935
fscn0_sx176 quick_test/fbank/raw_fbank_train.1.ark:11355154
fgcs0_si1486 quick_test/fbank/raw_fbank_train.1.ark:4175922
fgmb0_sx425 quick_test/fbank/raw_fbank_train.1.ark:4477811
mljc0_sx415 quick_test/fbank/raw_fbank_train.3.ark:7518605
mrkm0_si1267 quick_test/fbank/raw_fbank_train.4.ark:3113696
mkln0_si2228 quick_test/fbank/raw_fbank_train.3.ark:6568972
fsms1_sx347 quick_test/fbank/raw_fbank_train.2.ark:923104
fmah1_si2139 quick_test/fbank/raw_fbank_train.1.ark:8535180
fmjf0_si624 quick_test/fbank/raw_fbank_train.1.ark:8947831
mrdd0_si1050 quick_test/fbank/raw_fbank_train.4.ark:1364790
fclt0_sx178 quick_test/fbank/raw_fbank_train.1.ark:1938905
mkdb0_si588 quick_test/fbank/raw_fbank_train.3.ark:6069488
mrem0_sx151 quick_test/fbank/raw_fbank_train.4.ark:1898736
mwad0_sx342 quick_test/fbank/raw_fbank_train.4.ark:10647799
mrwa0_si2233 quick_test/fbank/raw_fbank_train.4.ark:4950903
mgaw0_sx175 quick_test/fbank/raw_fbank_train.3.ark:141259
fsmm0_si684 quick_test/fbank/raw_fbank_train.2.ark:766867
mkls0_sx87 quick_test/fbank/raw_fbank_train.3.ark:6834701
flod0_sx207 quick_test/fbank/raw_fbank_train.1.ark:8392020
mklr0_sx159 quick_test/fbank/raw_fbank_train.3.ark:6682224
mtwh1_sx432 quick_test/fbank/raw_fbank_train.4.ark:10067600
falr0_si1325 quick_test/fbank/raw_fbank_train.1.ark:310923
mcew0_sx362 quick_test/fbank/raw_fbank_train.2.ark:5082666
mrai0_sx162 quick_test/fbank/raw_fbank_train.4.ark:809738
mtrc0_si1623 quick_test/fbank/raw_fbank_train.4.ark:9725647
mjma0_si1495 quick_test/fbank/raw_fbank_train.3.ark:3872544
fdjh0_si2195 quick_test/fbank/raw_fbank_train.1.ark:2702882
mewm0_si1978 quick_test/fbank/raw_fbank_train.2.ark:10319960
mlsh0_sx247 quick_test/fbank/raw_fbank_train.3.ark:7811214
fnkl0_si1522 quick_test/fbank/raw_fbank_train.1.ark:9571831
fljg0_si1611 quick_test/fbank/raw_fbank_train.1.ark:7815489
mkjo0_si887 quick_test/fbank/raw_fbank_train.3.ark:6487340
mmlm0_si2150 quick_test/fbank/raw_fbank_train.3.ark:9634231
fsdj0_sx395 quick_test/fbank/raw_fbank_train.1.ark:11595016
msrg0_si1851 quick_test/fbank/raw_fbank_train.4.ark:6752317
mmdb0_si1358 quick_test/fbank/raw_fbank_train.3.ark:8607522
msdh0_sx440 quick_test/fbank/raw_fbank_train.4.ark:5739031
mrlj1_si2301 quick_test/fbank/raw_fbank_train.4.ark:3426363
mdhl0_si1439 quick_test/fbank/raw_fbank_train.2.ark:6999558
mkag0_sx259 quick_test/fbank/raw_fbank_train.3.ark:5717448
fjkl0_sx212 quick_test/fbank/raw_fbank_train.1.ark:5205766
mkes0_si1883 quick_test/fbank/raw_fbank_train.3.ark:6371002
mtmt0_si1118 quick_test/fbank/raw_fbank_train.4.ark:9107617
msdh0_sx350 quick_test/fbank/raw_fbank_train.4.ark:5722758
mwch0_sx182 quick_test/fbank/raw_fbank_train.4.ark:10802985
msfv0_sx182 quick_test/fbank/raw_fbank_train.4.ark:6265899
mkag0_si2239 quick_test/fbank/raw_fbank_train.3.ark:5676229
fmmh0_si2167 quick_test/fbank/raw_fbank_train.1.ark:9361097
mrkm0_sx7 quick_test/fbank/raw_fbank_train.4.ark:3214373
mtrt0_sx237 quick_test/fbank/raw_fbank_train.4.ark:9965469
mdcd0_sx65 quick_test/fbank/raw_fbank_train.2.ark:6483959
fcke0_si1111 quick_test/fbank/raw_fbank_train.1.ark:1814820
mpgh0_sx384 quick_test/fbank/raw_fbank_train.3.ark:11090095
mmcc0_sx438 quick_test/fbank/raw_fbank_train.3.ark:8582536
mdlr0_sx153 quick_test/fbank/raw_fbank_train.2.ark:8018749
msdb0_sx287 quick_test/fbank/raw_fbank_train.4.ark:5645005
mtbc0_sx347 quick_test/fbank/raw_fbank_train.4.ark:7623687
mjwt0_si1381 quick_test/fbank/raw_fbank_train.3.ark:5372234
fjsk0_si2312 quick_test/fbank/raw_fbank_train.1.ark:5706907
mdlr1_sx39 quick_test/fbank/raw_fbank_train.2.ark:8170312
flkm0_si620 quick_test/fbank/raw_fbank_train.1.ark:7946267
mtwh1_si1512 quick_test/fbank/raw_fbank_train.4.ark:10004481
mprk0_si1097 quick_test/fbank/raw_fbank_train.4.ark:276994
mrav0_sx378 quick_test/fbank/raw_fbank_train.4.ark:1047601
mrxb0_si2215 quick_test/fbank/raw_fbank_train.4.ark:5132073
mppc0_si2042 quick_test/fbank/raw_fbank_train.3.ark:11474919
mwsb0_sx6 quick_test/fbank/raw_fbank_train.4.ark:11422033
fpmy0_sx73 quick_test/fbank/raw_fbank_train.1.ark:10589165
mdpb0_sx236 quick_test/fbank/raw_fbank_train.2.ark:8560908
majp0_si2334 quick_test/fbank/raw_fbank_train.2.ark:2608184
mreh1_si969 quick_test/fbank/raw_fbank_train.4.ark:1772359
mrhl0_sx165 quick_test/fbank/raw_fbank_train.4.ark:2515885
marc0_si1818 quick_test/fbank/raw_fbank_train.2.ark:2998412
mgag0_si645 quick_test/fbank/raw_fbank_train.2.ark:11067962
msrr0_sx30 quick_test/fbank/raw_fbank_train.4.ark:6895913
mmpm0_sx71 quick_test/fbank/raw_fbank_train.3.ark:9802534
ftmg0_sx362 quick_test/fbank/raw_fbank_train.2.ark:1699310
mdlh0_sx250 quick_test/fbank/raw_fbank_train.2.ark:7847972
fblv0_si2318 quick_test/fbank/raw_fbank_train.1.ark:975582
mrfk0_sx176 quick_test/fbank/raw_fbank_train.4.ark:2083707
mdks0_sx436 quick_test/fbank/raw_fbank_train.2.ark:7359033
mrlr0_sx386 quick_test/fbank/raw_fbank_train.4.ark:3684931
fdml0_sx69 quick_test/fbank/raw_fbank_train.1.ark:2974451
milb0_sx273 quick_test/fbank/raw_fbank_train.3.ark:1628421
mrvg0_si1140 quick_test/fbank/raw_fbank_train.4.ark:4854044
mrso0_sx39 quick_test/fbank/raw_fbank_train.4.ark:4490022
mabc0_si781 quick_test/fbank/raw_fbank_train.2.ark:2037672
mlsh0_sx157 quick_test/fbank/raw_fbank_train.3.ark:7800741
mhmr0_sx219 quick_test/fbank/raw_fbank_train.3.ark:1329988
fssb0_sx182 quick_test/fbank/raw_fbank_train.2.ark:1193801
mrai0_si1954 quick_test/fbank/raw_fbank_train.4.ark:765438
mtbc0_si543 quick_test/fbank/raw_fbank_train.4.ark:7584028
fdjh0_sx395 quick_test/fbank/raw_fbank_train.1.ark:2775079
fkde0_sx151 quick_test/fbank/raw_fbank_train.1.ark:6329530
mpar0_si1576 quick_test/fbank/raw_fbank_train.3.ark:10734870
mrso0_sx129 quick_test/fbank/raw_fbank_train.4.ark:4444884
mrxb0_sx415 quick_test/fbank/raw_fbank_train.4.ark:5200438
fapb0_sx163 quick_test/fbank/raw_fbank_train.1.ark:454089
mmag0_sx406 quick_test/fbank/raw_fbank_train.3.ark:8162555
mfmc0_si1132 quick_test/fbank/raw_fbank_train.2.ark:10479536
fjwb1_sx75 quick_test/fbank/raw_fbank_train.1.ark:5960840
mdem0_sx428 quick_test/fbank/raw_fbank_train.2.ark:6968132
fbmh0_si1136 quick_test/fbank/raw_fbank_train.1.ark:1048380
mrml0_sx161 quick_test/fbank/raw_fbank_train.4.ark:4024062
mrlj1_sx231 quick_test/fbank/raw_fbank_train.4.ark:3461663
mgag0_sx61 quick_test/fbank/raw_fbank_train.2.ark:11131719
mkdd0_sx217 quick_test/fbank/raw_fbank_train.3.ark:6215572
flhd0_sx84 quick_test/fbank/raw_fbank_train.1.ark:7595724
mrbc0_sx149 quick_test/fbank/raw_fbank_train.4.ark:1092055
mmam0_sx427 quick_test/fbank/raw_fbank_train.3.ark:8253701
mrcw0_sx111 quick_test/fbank/raw_fbank_train.4.ark:1318265
mtdp0_sx81 quick_test/fbank/raw_fbank_train.4.ark:7969268
mcdr0_sx74 quick_test/fbank/raw_fbank_train.2.ark:4902161
mwsh0_sx346 quick_test/fbank/raw_fbank_train.4.ark:11518025
mmws1_sx441 quick_test/fbank/raw_fbank_train.3.ark:10426891
mmws0_sx168 quick_test/fbank/raw_fbank_train.3.ark:10305487
mtmn0_si1064 quick_test/fbank/raw_fbank_train.4.ark:9001032
fpad0_sx266 quick_test/fbank/raw_fbank_train.1.ark:10044143
fsma0_si1621 quick_test/fbank/raw_fbank_train.2.ark:639335
mmds0_si1973 quick_test/fbank/raw_fbank_train.3.ark:9018056
mrlr0_sx26 quick_test/fbank/raw_fbank_train.4.ark:3664665
mhjb0_sx27 quick_test/fbank/raw_fbank_train.3.ark:1158810
mjfh0_sx117 quick_test/fbank/raw_fbank_train.3.ark:2920953
mfwk0_sx79 quick_test/fbank/raw_fbank_train.2.ark:10764178
mdpk0_si1053 quick_test/fbank/raw_fbank_train.2.ark:8604360
mfxv0_sx285 quick_test/fbank/raw_fbank_train.2.ark:10940837
fceg0_sx168 quick_test/fbank/raw_fbank_train.1.ark:1590605
mgar0_sx42 quick_test/fbank/raw_fbank_train.3.ark:89405
mrtc0_si2088 quick_test/fbank/raw_fbank_train.4.ark:4638948
fssb0_si1712 quick_test/fbank/raw_fbank_train.2.ark:1170054
fcke0_si481 quick_test/fbank/raw_fbank_train.1.ark:1837847
mrtc0_sx108 quick_test/fbank/raw_fbank_train.4.ark:4666014
fblv0_sx338 quick_test/fbank/raw_fbank_train.1.ark:1009361
mses0_sx419 quick_test/fbank/raw_fbank_train.4.ark:6082188
mbom0_sx384 quick_test/fbank/raw_fbank_train.2.ark:4104566
fntb0_sx33 quick_test/fbank/raw_fbank_train.1.ark:9741733
mpeb0_sx240 quick_test/fbank/raw_fbank_train.3.ark:10858908
flod0_sx117 quick_test/fbank/raw_fbank_train.1.ark:8366954
mejl0_si962 quick_test/fbank/raw_fbank_train.2.ark:9959415
mwgr0_sx76 quick_test/fbank/raw_fbank_train.4.ark:11143952
mbml0_sx269 quick_test/fbank/raw_fbank_train.2.ark:3979561
mdpb0_sx56 quick_test/fbank/raw_fbank_train.2.ark:8593446
fpaz0_sx153 quick_test/fbank/raw_fbank_train.1.ark:10238561
mdcd0_si1415 quick_test/fbank/raw_fbank_train.2.ark:6395768
fmbg0_si2264 quick_test/fbank/raw_fbank_train.1.ark:8649479
mmsm0_si476 quick_test/fbank/raw_fbank_train.3.ark:9947699
mdef0_sx123 quick_test/fbank/raw_fbank_train.2.ark:6828569
msdh0_sx170 quick_test/fbank/raw_fbank_train.4.ark:5692652
mrpc1_si2026 quick_test/fbank/raw_fbank_train.4.ark:4207207
mdhs0_si1530 quick_test/fbank/raw_fbank_train.2.ark:7097743
mbjv0_si1247 quick_test/fbank/raw_fbank_train.2.ark:3645553
fsjs0_si1171 quick_test/fbank/raw_fbank_train.2.ark:43184
mdjm0_si1455 quick_test/fbank/raw_fbank_train.2.ark:7187408
fear0_si1252 quick_test/fbank/raw_fbank_train.1.ark:3532851
falr0_sx65 quick_test/fbank/raw_fbank_train.1.ark:393554
mgrp0_sx147 quick_test/fbank/raw_fbank_train.3.ark:524160
mjxl0_si1795 quick_test/fbank/raw_fbank_train.3.ark:5576324
mwem0_si1393 quick_test/fbank/raw_fbank_train.4.ark:10968209
fdfb0_si1318 quick_test/fbank/raw_fbank_train.1.ark:2607582
mjjm0_sx107 quick_test/fbank/raw_fbank_train.3.ark:3432518
mrms0_sx210 quick_test/fbank/raw_fbank_train.4.ark:4159121
mkrg0_sx51 quick_test/fbank/raw_fbank_train.3.ark:7127776
fsak0_sx220 quick_test/fbank/raw_fbank_train.1.ark:11149057
mtlc0_sx217 quick_test/fbank/raw_fbank_train.4.ark:8858514
fjrp1_si802 quick_test/fbank/raw_fbank_train.1.ark:5584721
faem0_sx222 quick_test/fbank/raw_fbank_train.1.ark:51746
mges0_si2111 quick_test/fbank/raw_fbank_train.3.ark:198938
mdsj0_sx22 quick_test/fbank/raw_fbank_train.2.ark:8945607
fsjs0_si1801 quick_test/fbank/raw_fbank_train.2.ark:52378
mjac0_si701 quick_test/fbank/raw_fbank_train.3.ark:1684098
fcyl0_si1297 quick_test/fbank/raw_fbank_train.1.ark:2295266
mmws1_si1701 quick_test/fbank/raw_fbank_train.3.ark:10380086
fdmy0_sx387 quick_test/fbank/raw_fbank_train.1.ark:3105315
mrdm0_sx425 quick_test/fbank/raw_fbank_train.4.ark:1539615
fvmh0_si2096 quick_test/fbank/raw_fbank_train.2.ark:1944494
fssb0_sx272 quick_test/fbank/raw_fbank_train.2.ark:1205394
fpmy0_si1153 quick_test/fbank/raw_fbank_train.1.ark:10487974
fvkb0_si529 quick_test/fbank/raw_fbank_train.2.ark:1843302
mjeb0_si656 quick_test/fbank/raw_fbank_train.3.ark:2607645
mdas0_si1266 quick_test/fbank/raw_fbank_train.2.ark:6106815
fleh0_si1051 quick_test/fbank/raw_fbank_train.1.ark:7321801
mclk0_si1660 quick_test/fbank/raw_fbank_train.2.ark:5231751
mmjb1_sx58 quick_test/fbank/raw_fbank_train.3.ark:9614003
mcdc0_si1922 quick_test/fbank/raw_fbank_train.2.ark:4631394
mmbs0_sx431 quick_test/fbank/raw_fbank_train.3.ark:8482791
mfrm0_sx255 quick_test/fbank/raw_fbank_train.2.ark:10633935
fkkh0_sx210 quick_test/fbank/raw_fbank_train.1.ark:6672958
fvmh0_sx26 quick_test/fbank/raw_fbank_train.2.ark:1993825
mkag0_si979 quick_test/fbank/raw_fbank_train.3.ark:5686222
mjls0_sx196 quick_test/fbank/raw_fbank_train.3.ark:3836644
mdac0_si631 quick_test/fbank/raw_fbank_train.2.ark:6024217
fbjl0_sx202 quick_test/fbank/raw_fbank_train.1.ark:894582
maeb0_sx180 quick_test/fbank/raw_fbank_train.2.ark:2347740
fgdp0_sx358 quick_test/fbank/raw_fbank_train.1.ark:4338593
mnet0_si2076 quick_test/fbank/raw_fbank_train.3.ark:10556415
mdem0_sx338 quick_test/fbank/raw_fbank_train.2.ark:6953539
mppc0_sx332 quick_test/fbank/raw_fbank_train.4.ark:12125
mjxa0_sx337 quick_test/fbank/raw_fbank_train.3.ark:5524311
mmab1_si2124 quick_test/fbank/raw_fbank_train.3.ark:7977405
mgxp0_si525 quick_test/fbank/raw_fbank_train.3.ark:839438
fpaz0_si1593 quick_test/fbank/raw_fbank_train.1.ark:10195221
faem0_sx312 quick_test/fbank/raw_fbank_train.1.ark:62819
mmdg0_si2035 quick_test/fbank/raw_fbank_train.3.ark:8714261
mtat0_si1110 quick_test/fbank/raw_fbank_train.4.ark:7353751
mfwk0_sx169 quick_test/fbank/raw_fbank_train.2.ark:10710287
falr0_sx155 quick_test/fbank/raw_fbank_train.1.ark:346423
fskc0_si786 quick_test/fbank/raw_fbank_train.2.ark:280901
flod0_sx297 quick_test/fbank/raw_fbank_train.1.ark:8400653
mbth0_sx212 quick_test/fbank/raw_fbank_train.2.ark:4242235
makr0_sx182 quick_test/fbank/raw_fbank_train.2.ark:2839708
fjdm2_sx142 quick_test/fbank/raw_fbank_train.1.ark:4876136
mrgm0_sx172 quick_test/fbank/raw_fbank_train.4.ark:2297677
mhbs0_si1575 quick_test/fbank/raw_fbank_train.3.ark:916394
flma0_si1873 quick_test/fbank/raw_fbank_train.1.ark:8053772
mkjo0_si1517 quick_test/fbank/raw_fbank_train.3.ark:6465913
mtat1_si779 quick_test/fbank/raw_fbank_train.4.ark:7472203
mdlm0_si604 quick_test/fbank/raw_fbank_train.2.ark:7915971
mkls1_si1545 quick_test/fbank/raw_fbank_train.3.ark:6845655
mdhl0_sx179 quick_test/fbank/raw_fbank_train.2.ark:7036298
mtrc0_sx273 quick_test/fbank/raw_fbank_train.4.ark:9785012
fsag0_sx333 quick_test/fbank/raw_fbank_train.1.ark:10943600
mbar0_si1319 quick_test/fbank/raw_fbank_train.2.ark:3176028
mbbr0_si1055 quick_test/fbank/raw_fbank_train.2.ark:3272973
mjlg1_si1012 quick_test/fbank/raw_fbank_train.3.ark:3678213
fmah1_sx249 quick_test/fbank/raw_fbank_train.1.ark:8575239
fhxs0_sx265 quick_test/fbank/raw_fbank_train.1.ark:4794663
mtlb0_si1134 quick_test/fbank/raw_fbank_train.4.ark:8704156
mpgr1_sx419 quick_test/fbank/raw_fbank_train.3.ark:11266394
mtlc0_si1313 quick_test/fbank/raw_fbank_train.4.ark:8804781
mjrk0_sx340 quick_test/fbank/raw_fbank_train.3.ark:4885642
mtpg0_sx33 quick_test/fbank/raw_fbank_train.4.ark:9368745
mgak0_sx406 quick_test/fbank/raw_fbank_train.2.ark:11227873
mgrl0_si2127 quick_test/fbank/raw_fbank_train.3.ark:397629
mpmb0_si871 quick_test/fbank/raw_fbank_train.3.ark:11337607
fpaz0_sx243 quick_test/fbank/raw_fbank_train.1.ark:10253034
msds0_sx447 quick_test/fbank/raw_fbank_train.4.ark:5860057
mmdg0_sx70 quick_test/fbank/raw_fbank_train.3.ark:8796738
msrr0_sx411 quick_test/fbank/raw_fbank_train.4.ark:6903506
mgsl0_sx444 quick_test/fbank/raw_fbank_train.3.ark:779666
mjkr0_sx301 quick_test/fbank/raw_fbank_train.3.ark:3553689
mwre0_sx427 quick_test/fbank/raw_fbank_train.4.ark:11229826
fhlm0_si930 quick_test/fbank/raw_fbank_train.1.ark:4632890
mdtb0_sx390 quick_test/fbank/raw_fbank_train.2.ark:9241062
mjjj0_si1163 quick_test/fbank/raw_fbank_train.3.ark:3272473
mgsh0_si546 quick_test/fbank/raw_fbank_train.3.ark:624912
mfrm0_sx435 quick_test/fbank/raw_fbank_train.2.ark:10654961
msfv0_si1262 quick_test/fbank/raw_fbank_train.4.ark:6221279
freh0_sx415 quick_test/fbank/raw_fbank_train.1.ark:10670278
mddc0_si1419 quick_test/fbank/raw_fbank_train.2.ark:6591578
mrfk0_si2336 quick_test/fbank/raw_fbank_train.4.ark:2074954
mdcm0_sx40 quick_test/fbank/raw_fbank_train.2.ark:6568991
mdac0_sx181 quick_test/fbank/raw_fbank_train.2.ark:6045050
mgsh0_si1806 quick_test/fbank/raw_fbank_train.3.ark:611999
fskp0_sx378 quick_test/fbank/raw_fbank_train.2.ark:527755
fpmy0_si1783 quick_test/fbank/raw_fbank_train.1.ark:10506928
mrai0_si792 quick_test/fbank/raw_fbank_train.4.ark:789865
mtcs0_sx442 quick_test/fbank/raw_fbank_train.4.ark:7735945
fsag0_si1323 quick_test/fbank/raw_fbank_train.1.ark:10878274
mtmt0_sx398 quick_test/fbank/raw_fbank_train.4.ark:9192728
ftmg0_sx272 quick_test/fbank/raw_fbank_train.2.ark:1688637
fecd0_si2048 quick_test/fbank/raw_fbank_train.1.ark:3656390
mdss1_si697 quick_test/fbank/raw_fbank_train.2.ark:9097512
mrjm1_sx128 quick_test/fbank/raw_fbank_train.4.ark:2949586
mrfk0_sx86 quick_test/fbank/raw_fbank_train.4.ark:2129278
mdss0_sx351 quick_test/fbank/raw_fbank_train.2.ark:9044786
mjjj0_sx263 quick_test/fbank/raw_fbank_train.3.ark:3334526
mkaj0_sx424 quick_test/fbank/raw_fbank_train.3.ark:5931403
mdwh0_si1168 quick_test/fbank/raw_fbank_train.2.ark:9342801
mgaf0_sx292 quick_test/fbank/raw_fbank_train.2.ark:11029262
fntb0_si679 quick_test/fbank/raw_fbank_train.1.ark:9689962
mmdm1_si783 quick_test/fbank/raw_fbank_train.3.ark:8917784
mjbg0_sx332 quick_test/fbank/raw_fbank_train.3.ark:2025233
mrdd0_sx330 quick_test/fbank/raw_fbank_train.4.ark:1432070
mrld0_sx334 quick_test/fbank/raw_fbank_train.4.ark:3296205
mjra0_sx66 quick_test/fbank/raw_fbank_train.3.ark:4519406
mrmb0_sx51 quick_test/fbank/raw_fbank_train.4.ark:3777156
fjwb1_si795 quick_test/fbank/raw_fbank_train.1.ark:5903916
mmgk0_sx332 quick_test/fbank/raw_fbank_train.3.ark:9493513
flmk0_si2295 quick_test/fbank/raw_fbank_train.1.ark:8260856
mtat1_sx239 quick_test/fbank/raw_fbank_train.4.ark:7507629
mrgm0_sx82 quick_test/fbank/raw_fbank_train.4.ark:2359168
mdjm0_sx195 quick_test/fbank/raw_fbank_train.2.ark:7252453
mmgk0_si692 quick_test/fbank/raw_fbank_train.3.ark:9467534
fcag0_si2133 quick_test/fbank/raw_fbank_train.1.ark:1272777
mkls1_sx195 quick_test/fbank/raw_fbank_train.3.ark:6909060
mter0_sx167 quick_test/fbank/raw_fbank_train.4.ark:8022882
flma0_sx163 quick_test/fbank/raw_fbank_train.1.ark:8081398
madd0_si538 quick_test/fbank/raw_fbank_train.2.ark:2232322
mmbs0_si1781 quick_test/fbank/raw_fbank_train.3.ark:8408106
fmkf0_si1536 quick_test/fbank/raw_fbank_train.1.ark:9259154
mprt0_sx400 quick_test/fbank/raw_fbank_train.4.ark:475729
fblv0_si1688 quick_test/fbank/raw_fbank_train.1.ark:954508
fkkh0_sx390 quick_test/fbank/raw_fbank_train.1.ark:6702376
mhit0_sx443 quick_test/fbank/raw_fbank_train.3.ark:1083098
fjxp0_sx312 quick_test/fbank/raw_fbank_train.1.ark:6138785
mjrp0_sx225 quick_test/fbank/raw_fbank_train.3.ark:4966354
fcke0_sx121 quick_test/fbank/raw_fbank_train.1.ark:1857040
mjrh1_sx64 quick_test/fbank/raw_fbank_train.3.ark:4816042
mwch0_sx452 quick_test/fbank/raw_fbank_train.4.ark:10832124
mtqc0_sx91 quick_test/fbank/raw_fbank_train.4.ark:9711293
fetb0_sx248 quick_test/fbank/raw_fbank_train.1.ark:4010684
mvjh0_si1556 quick_test/fbank/raw_fbank_train.4.ark:10205492
falk0_sx186 quick_test/fbank/raw_fbank_train.1.ark:252640
mges0_si851 quick_test/fbank/raw_fbank_train.3.ark:205091
mmwb0_sx359 quick_test/fbank/raw_fbank_train.3.ark:10220449
mtkd0_si1817 quick_test/fbank/raw_fbank_train.4.ark:8502300
mmws1_sx261 quick_test/fbank/raw_fbank_train.3.ark:10399313
mrre0_si952 quick_test/fbank/raw_fbank_train.4.ark:4312745
flag0_si834 quick_test/fbank/raw_fbank_train.1.ark:7237443
mejs0_sx70 quick_test/fbank/raw_fbank_train.2.ark:10120924
fksr0_sx161 quick_test/fbank/raw_fbank_train.1.ark:7052266
msat0_sx176 quick_test/fbank/raw_fbank_train.4.ark:5446495
mdjm0_sx285 quick_test/fbank/raw_fbank_train.2.ark:7260646
fceg0_si618 quick_test/fbank/raw_fbank_train.1.ark:1580492
mrws0_si1732 quick_test/fbank/raw_fbank_train.4.ark:5053648
mjwt0_si751 quick_test/fbank/raw_fbank_train.3.ark:5391067
mtpf0_sx245 quick_test/fbank/raw_fbank_train.4.ark:9253775
fjlg0_si1506 quick_test/fbank/raw_fbank_train.1.ark:5253818
mgxp0_sx187 quick_test/fbank/raw_fbank_train.3.ark:858151
fsah0_sx344 quick_test/fbank/raw_fbank_train.1.ark:11072465
mjmd0_si2288 quick_test/fbank/raw_fbank_train.3.ark:3979317
madd0_sx448 quick_test/fbank/raw_fbank_train.2.ark:2283094
mdss0_si2087 quick_test/fbank/raw_fbank_train.2.ark:9005614
mhit0_sx353 quick_test/fbank/raw_fbank_train.3.ark:1070425
mmag0_sx46 quick_test/fbank/raw_fbank_train.3.ark:8178427
faem0_si762 quick_test/fbank/raw_fbank_train.1.ark:28600
mdss0_sx441 quick_test/fbank/raw_fbank_train.2.ark:9056979
mprk0_sx107 quick_test/fbank/raw_fbank_train.4.ark:329494
mjws0_sx153 quick_test/fbank/raw_fbank_train.3.ark:5279875
fcjs0_sx347 quick_test/fbank/raw_fbank_train.1.ark:1770681
mmws1_sx81 quick_test/fbank/raw_fbank_train.3.ark:10436083
msjk0_si2226 quick_test/fbank/raw_fbank_train.4.ark:6352378
mjwg0_sx265 quick_test/fbank/raw_fbank_train.3.ark:5202243
mmgg0_sx449 quick_test/fbank/raw_fbank_train.3.ark:9421361
mafm0_si939 quick_test/fbank/raw_fbank_train.2.ark:2510318
mmlm0_sx357 quick_test/fbank/raw_fbank_train.3.ark:9681723
mded0_sx180 quick_test/fbank/raw_fbank_train.2.ark:6726543
mrms0_si2057 quick_test/fbank/raw_fbank_train.4.ark:4119261
mdlb0_si676 quick_test/fbank/raw_fbank_train.2.ark:7420246
msvs0_sx218 quick_test/fbank/raw_fbank_train.4.ark:7098849
mjeb1_sx387 quick_test/fbank/raw_fbank_train.3.ark:2771554
fpmy0_sx163 quick_test/fbank/raw_fbank_train.1.ark:10541914
mgrp0_sx57 quick_test/fbank/raw_fbank_train.3.ark:580011
mhit0_sx83 quick_test/fbank/raw_fbank_train.3.ark:1094530
mmaa0_si845 quick_test/fbank/raw_fbank_train.3.ark:7894053
fjdm2_si1582 quick_test/fbank/raw_fbank_train.1.ark:4839235
mjlb0_sx446 quick_test/fbank/raw_fbank_train.3.ark:3658907
fetb0_sx338 quick_test/fbank/raw_fbank_train.1.ark:4021517
msvs0_sx38 quick_test/fbank/raw_fbank_train.4.ark:7126754
mprd0_sx441 quick_test/fbank/raw_fbank_train.4.ark:254728
mdwd0_sx90 quick_test/fbank/raw_fbank_train.2.ark:9334087
mhjb0_sx297 quick_test/fbank/raw_fbank_train.3.ark:1167003
mljh0_sx154 quick_test/fbank/raw_fbank_train.3.ark:7600131
mdsj0_sx438 quick_test/fbank/raw_fbank_train.2.ark:8980186
mpsw0_si1067 quick_test/fbank/raw_fbank_train.4.ark:485643
fntb0_si573 quick_test/fbank/raw_fbank_train.1.ark:9679329
mjkr0_si1201 quick_test/fbank/raw_fbank_train.3.ark:3485123
msem1_si2070 quick_test/fbank/raw_fbank_train.4.ark:5896157
mfrm0_si1155 quick_test/fbank/raw_fbank_train.2.ark:10584681
fbjl0_sx112 quick_test/fbank/raw_fbank_train.1.ark:882109
msas0_sx386 quick_test/fbank/raw_fbank_train.4.ark:5407601
fpab1_sx301 quick_test/fbank/raw_fbank_train.1.ark:9843926
mbcg0_sx327 quick_test/fbank/raw_fbank_train.2.ark:3419204
mdma0_sx170 quick_test/fbank/raw_fbank_train.2.ark:8229120
mjrh0_sx135 quick_test/fbank/raw_fbank_train.3.ark:4671486
mcdr0_si1154 quick_test/fbank/raw_fbank_train.2.ark:4801810
mmgk0_si1322 quick_test/fbank/raw_fbank_train.3.ark:9448467
mdma0_sx440 quick_test/fbank/raw_fbank_train.2.ark:8282259
mjda0_si1661 quick_test/fbank/raw_fbank_train.3.ark:2073286
flma0_sx73 quick_test/fbank/raw_fbank_train.1.ark:8123249
mjeb0_si1286 quick_test/fbank/raw_fbank_train.3.ark:2582618
mges0_sx221 quick_test/fbank/raw_fbank_train.3.ark:226997
flag0_sx114 quick_test/fbank/raw_fbank_train.1.ark:7256596
mdlc1_sx265 quick_test/fbank/raw_fbank_train.2.ark:7666283
mjai0_sx74 quick_test/fbank/raw_fbank_train.3.ark:1957352
mafm0_sx129 quick_test/fbank/raw_fbank_train.2.ark:2526391
mjmm0_sx175 quick_test/fbank/raw_fbank_train.3.ark:4087375
fbas0_si2066 quick_test/fbank/raw_fbank_train.1.ark:559842
mtab0_si942 quick_test/fbank/raw_fbank_train.4.ark:7190128
mrmg0_si1080 quick_test/fbank/raw_fbank_train.4.ark:3787790
mcre0_si1751 quick_test/fbank/raw_fbank_train.2.ark:5533934
mjrg0_si1366 quick_test/fbank/raw_fbank_train.3.ark:4529000
fskl0_sx269 quick_test/fbank/raw_fbank_train.2.ark:399472
fdaw0_sx146 quick_test/fbank/raw_fbank_train.1.ark:2551617
fjhk0_sx392 quick_test/fbank/raw_fbank_train.1.ark:5147679
mrtj0_sx412 quick_test/fbank/raw_fbank_train.4.ark:4824418
fgcs0_sx406 quick_test/fbank/raw_fbank_train.1.ark:4246241
mjpm1_sx221 quick_test/fbank/raw_fbank_train.3.ark:4371363
mtkd0_sx107 quick_test/fbank/raw_fbank_train.4.ark:8538126
marw0_sx106 quick_test/fbank/raw_fbank_train.2.ark:3102543
fpaf0_sx64 quick_test/fbank/raw_fbank_train.1.ark:10182907
fdmy0_sx207 quick_test/fbank/raw_fbank_train.1.ark:3068337
mjxa0_sx247 quick_test/fbank/raw_fbank_train.3.ark:5509318
fdtd0_si931 quick_test/fbank/raw_fbank_train.1.ark:3261722
msat1_sx173 quick_test/fbank/raw_fbank_train.4.ark:5531121
mjrh0_sx45 quick_test/fbank/raw_fbank_train.3.ark:4716737
mbef0_sx21 quick_test/fbank/raw_fbank_train.2.ark:3515748
fcjf0_si1027 quick_test/fbank/raw_fbank_train.1.ark:1644050
fjwb1_sx165 quick_test/fbank/raw_fbank_train.1.ark:5914949
mcdr0_sx164 quick_test/fbank/raw_fbank_train.2.ark:4857110
mdss1_sx67 quick_test/fbank/raw_fbank_train.2.ark:9154316
mrdm0_si965 quick_test/fbank/raw_fbank_train.4.ark:1486003
fceg0_sx258 quick_test/fbank/raw_fbank_train.1.ark:1598238
mcal0_si508 quick_test/fbank/raw_fbank_train.2.ark:4546682
fclt0_si808 quick_test/fbank/raw_fbank_train.1.ark:1920912
mdsj0_si832 quick_test/fbank/raw_fbank_train.2.ark:8922902
flmc0_sx382 quick_test/fbank/raw_fbank_train.1.ark:8219994
fexm0_si482 quick_test/fbank/raw_fbank_train.1.ark:4086763
fltm0_si1070 quick_test/fbank/raw_fbank_train.1.ark:8419600
mbjv0_sx257 quick_test/fbank/raw_fbank_train.2.ark:3692806
fkdw0_sx217 quick_test/fbank/raw_fbank_train.1.ark:6453348
fsmm0_si1944 quick_test/fbank/raw_fbank_train.2.ark:756034
mrlk0_sx213 quick_test/fbank/raw_fbank_train.4.ark:3562688
mmlm0_si897 quick_test/fbank/raw_fbank_train.3.ark:9651504
mrcg0_sx78 quick_test/fbank/raw_fbank_train.4.ark:1261331
msrg0_sx141 quick_test/fbank/raw_fbank_train.4.ark:6774983
mbma1_si2214 quick_test/fbank/raw_fbank_train.2.ark:3838877
fear0_sx262 quick_test/fbank/raw_fbank_train.1.ark:3577664
mtpf0_sx65 quick_test/fbank/raw_fbank_train.4.ark:9290313
mlel0_si616 quick_test/fbank/raw_fbank_train.3.ark:7351608
fpls0_sx240 quick_test/fbank/raw_fbank_train.1.ark:10443964
mtcs0_si2265 quick_test/fbank/raw_fbank_train.4.ark:7670060
mstf0_sx46 quick_test/fbank/raw_fbank_train.4.ark:7024442
fsjs0_sx91 quick_test/fbank/raw_fbank_train.2.ark:138295
makr0_sx362 quick_test/fbank/raw_fbank_train.2.ark:2853854
mlsh0_sx337 quick_test/fbank/raw_fbank_train.3.ark:7828927
mbth0_si505 quick_test/fbank/raw_fbank_train.2.ark:4206936
mchl0_sx267 quick_test/fbank/raw_fbank_train.2.ark:5184579
marc0_sx288 quick_test/fbank/raw_fbank_train.2.ark:3049576
flet0_sx277 quick_test/fbank/raw_fbank_train.1.ark:7484313
mwch0_si1895 quick_test/fbank/raw_fbank_train.4.ark:10785318
fdaw0_sx416 quick_test/fbank/raw_fbank_train.1.ark:2584476
mfrm0_sx165 quick_test/fbank/raw_fbank_train.2.ark:10622382
mpsw0_sx257 quick_test/fbank/raw_fbank_train.4.ark:533609
mcal0_si1768 quick_test/fbank/raw_fbank_train.2.ark:4540009
mklw0_sx401 quick_test/fbank/raw_fbank_train.3.ark:7017720
mjfr0_si1605 quick_test/fbank/raw_fbank_train.3.ark:2963798
mctm0_si1980 quick_test/fbank/raw_fbank_train.2.ark:5826294
fkfb0_sx438 quick_test/fbank/raw_fbank_train.1.ark:6572919
mtjm0_sx416 quick_test/fbank/raw_fbank_train.4.ark:8258950
mrld0_sx154 quick_test/fbank/raw_fbank_train.4.ark:3276579
mrws0_sx112 quick_test/fbank/raw_fbank_train.4.ark:5072434
mctm0_sx360 quick_test/fbank/raw_fbank_train.2.ark:5873106
fmjb0_sx7 quick_test/fbank/raw_fbank_train.1.ark:8907738
mlel0_sx76 quick_test/fbank/raw_fbank_train.3.ark:7428092
mkdd0_sx307 quick_test/fbank/raw_fbank_train.3.ark:6223285
mdwh0_sx125 quick_test/fbank/raw_fbank_train.2.ark:9392061
mdlr1_sx219 quick_test/fbank/raw_fbank_train.2.ark:8142487
fntb0_sx393 quick_test/fbank/raw_fbank_train.1.ark:9752766
mcef0_sx415 quick_test/fbank/raw_fbank_train.2.ark:4983914
frll0_sx164 quick_test/fbank/raw_fbank_train.1.ark:10824829
mbcg0_si486 quick_test/fbank/raw_fbank_train.2.ark:3376992
fbmh0_si1766 quick_test/fbank/raw_fbank_train.1.ark:1066534
fjhk0_sx122 quick_test/fbank/raw_fbank_train.1.ark:5098188
fsjw0_si1963 quick_test/fbank/raw_fbank_train.2.ark:171363
mtat0_sx390 quick_test/fbank/raw_fbank_train.4.ark:7440542
mdlb0_sx316 quick_test/fbank/raw_fbank_train.2.ark:7461025
fjsk0_sx62 quick_test/fbank/raw_fbank_train.1.ark:5767711
mrjt0_si1805 quick_test/fbank/raw_fbank_train.4.ark:3022945
fcdr1_si1186 quick_test/fbank/raw_fbank_train.1.ark:1433240
mntw0_si1698 quick_test/fbank/raw_fbank_train.3.ark:10648958
mdbp0_sx168 quick_test/fbank/raw_fbank_train.2.ark:6331883
fmjb0_si547 quick_test/fbank/raw_fbank_train.1.ark:8862808
mree0_sx204 quick_test/fbank/raw_fbank_train.4.ark:1703960
fcjf0_sx217 quick_test/fbank/raw_fbank_train.1.ark:1689503
mrtc0_sx288 quick_test/fbank/raw_fbank_train.4.ark:4701272
msem1_si810 quick_test/fbank/raw_fbank_train.4.ark:5918310
fgdp0_sx268 quick_test/fbank/raw_fbank_train.1.ark:4323080
mpgh0_si675 quick_test/fbank/raw_fbank_train.3.ark:11028698
fgrw0_sx162 quick_test/fbank/raw_fbank_train.1.ark:4544538
mrhl0_sx75 quick_test/fbank/raw_fbank_train.4.ark:2563416
mbgt0_sx441 quick_test/fbank/raw_fbank_train.2.ark:3623087
fpjf0_sx236 quick_test/fbank/raw_fbank_train.1.ark:10347659
mdhl0_si2069 quick_test/fbank/raw_fbank_train.2.ark:7012832
mchl0_si1347 quick_test/fbank/raw_fbank_train.2.ark:5131685
mapv0_sx393 quick_test/fbank/raw_fbank_train.2.ark:2981584
fpaz0_si963 quick_test/fbank/raw_fbank_train.1.ark:10221808
mcre0_sx221 quick_test/fbank/raw_fbank_train.2.ark:5560080
mwsb0_sx96 quick_test/fbank/raw_fbank_train.4.ark:11430545
mpfu0_sx178 quick_test/fbank/raw_fbank_train.3.ark:10945700
mjjj0_sx353 quick_test/fbank/raw_fbank_train.3.ark:3349959
fmmh0_si907 quick_test/fbank/raw_fbank_train.1.ark:9374930
mejl0_si1654 quick_test/fbank/raw_fbank_train.2.ark:9951382
mjjb0_sx149 quick_test/fbank/raw_fbank_train.3.ark:3207348
fskl0_si1529 quick_test/fbank/raw_fbank_train.2.ark:347179
mfxv0_si1635 quick_test/fbank/raw_fbank_train.2.ark:10905066
mmar0_si1336 quick_test/fbank/raw_fbank_train.3.ark:8274407
mbwp0_si1531 quick_test/fbank/raw_fbank_train.2.ark:4292407
mdas0_sx276 quick_test/fbank/raw_fbank_train.2.ark:6166740
ftbr0_sx291 quick_test/fbank/raw_fbank_train.2.ark:1417548
mrav0_si2268 quick_test/fbank/raw_fbank_train.4.ark:991197
mdma0_si2060 quick_test/fbank/raw_fbank_train.2.ark:8216367
mtju0_sx220 quick_test/fbank/raw_fbank_train.4.ark:8443654
mkag0_si1609 quick_test/fbank/raw_fbank_train.3.ark:5659915
mlel0_sx346 quick_test/fbank/raw_fbank_train.3.ark:7402387
mdas0_sx21 quick_test/fbank/raw_fbank_train.2.ark:6159267
fpjf0_sx146 quick_test/fbank/raw_fbank_train.1.ark:10338106
mrfl0_sx256 quick_test/fbank/raw_fbank_train.4.ark:2200205
mwrp0_sx363 quick_test/fbank/raw_fbank_train.4.ark:11330370
mcpm0_si1824 quick_test/fbank/raw_fbank_train.2.ark:5432795
fjlr0_sx241 quick_test/fbank/raw_fbank_train.1.ark:5401457
mded0_sx270 quick_test/fbank/raw_fbank_train.2.ark:6738856
mcef0_si1765 quick_test/fbank/raw_fbank_train.2.ark:4924789
mclm0_sx196 quick_test/fbank/raw_fbank_train.2.ark:5390581
mcss0_sx30 quick_test/fbank/raw_fbank_train.2.ark:5682255
mtpp0_sx338 quick_test/fbank/raw_fbank_train.4.ark:9445498
fgmb0_si1145 quick_test/fbank/raw_fbank_train.1.ark:4384012
mmar0_sx256 quick_test/fbank/raw_fbank_train.3.ark:8340380
mjpm0_sx378 quick_test/fbank/raw_fbank_train.3.ark:4319756
mrld0_sx64 quick_test/fbank/raw_fbank_train.4.ark:3315750
flmc0_sx112 quick_test/fbank/raw_fbank_train.1.ark:8168823
fbmj0_si516 quick_test/fbank/raw_fbank_train.1.ark:1162598
mwgr0_sx436 quick_test/fbank/raw_fbank_train.4.ark:11135360
fjlg0_si2306 quick_test/fbank/raw_fbank_train.1.ark:5279526
mrds0_sx357 quick_test/fbank/raw_fbank_train.4.ark:1612607
fsjk1_si1025 quick_test/fbank/raw_fbank_train.1.ark:11839380
maeo0_sx156 quick_test/fbank/raw_fbank_train.2.ark:2440486
fpaf0_sx334 quick_test/fbank/raw_fbank_train.1.ark:10160162
msdb0_sx107 quick_test/fbank/raw_fbank_train.4.ark:5622867
mjdg0_si1705 quick_test/fbank/raw_fbank_train.3.ark:2405395
mrew1_sx240 quick_test/fbank/raw_fbank_train.4.ark:1997234
mdlm0_sx424 quick_test/fbank/raw_fbank_train.2.ark:7962503
mjws0_sx63 quick_test/fbank/raw_fbank_train.3.ark:5342046
mrdm0_sx65 quick_test/fbank/raw_fbank_train.4.ark:1547287
mtwh1_si2142 quick_test/fbank/raw_fbank_train.4.ark:10017795
mjwg0_si813 quick_test/fbank/raw_fbank_train.3.ark:5141104
maeb0_sx90 quick_test/fbank/raw_fbank_train.2.ark:2394111
fajw0_sx363 quick_test/fbank/raw_fbank_train.1.ark:182475
mdrd0_sx122 quick_test/fbank/raw_fbank_train.2.ark:8828470
fsrh0_sx401 quick_test/fbank/raw_fbank_train.2.ark:1128634
mjsr0_sx254 quick_test/fbank/raw_fbank_train.3.ark:5077779
mbgt0_si711 quick_test/fbank/raw_fbank_train.2.ark:3565715
mfmc0_sx232 quick_test/fbank/raw_fbank_train.2.ark:10533429
msmc0_sx107 quick_test/fbank/raw_fbank_train.4.ark:6480548
mjmm0_si1885 quick_test/fbank/raw_fbank_train.3.ark:4069029
fskc0_sx336 quick_test/fbank/raw_fbank_train.2.ark:308440
mdlb0_si1936 quick_test/fbank/raw_fbank_train.2.ark:7408213
mclm0_sx16 quick_test/fbank/raw_fbank_train.2.ark:5382588
fdxw0_sx161 quick_test/fbank/raw_fbank_train.1.ark:3373381
mmgc0_sx45 quick_test/fbank/raw_fbank_train.3.ark:9338767
fgcs0_sx226 quick_test/fbank/raw_fbank_train.1.ark:4224575
fklh0_sx357 quick_test/fbank/raw_fbank_train.1.ark:6980147
mfwk0_sx259 quick_test/fbank/raw_fbank_train.2.ark:10721920
milb0_si903 quick_test/fbank/raw_fbank_train.3.ark:1598995
mdpb0_sx416 quick_test/fbank/raw_fbank_train.2.ark:8582974
fmjf0_sx84 quick_test/fbank/raw_fbank_train.1.ark:9018915
mrgs0_sx366 quick_test/fbank/raw_fbank_train.4.ark:2437248
fexm0_sx111 quick_test/fbank/raw_fbank_train.1.ark:4104076
mcew0_sx452 quick_test/fbank/raw_fbank_train.2.ark:5101339
mjrk0_si1662 quick_test/fbank/raw_fbank_train.3.ark:4826276
fsak0_si1300 quick_test/fbank/raw_fbank_train.1.ark:11102684
mrfk0_sx446 quick_test/fbank/raw_fbank_train.4.ark:2118886
mtqc0_si1441 quick_test/fbank/raw_fbank_train.4.ark:9590262
mdrd0_si752 quick_test/fbank/raw_fbank_train.2.ark:8805877
mrfl0_si526 quick_test/fbank/raw_fbank_train.4.ark:2166259
feac0_sx165 quick_test/fbank/raw_fbank_train.1.ark:3470486
mrlj1_si2332 quick_test/fbank/raw_fbank_train.4.ark:3442757
mtwh1_sx162 quick_test/fbank/raw_fbank_train.4.ark:10035181
mjai0_sx164 quick_test/fbank/raw_fbank_train.3.ark:1917181
msmc0_sx287 quick_test/fbank/raw_fbank_train.4.ark:6514966
mmeb0_si1357 quick_test/fbank/raw_fbank_train.3.ark:9167672
mfxv0_si1005 quick_test/fbank/raw_fbank_train.2.ark:10870718
msdh0_si2240 quick_test/fbank/raw_fbank_train.4.ark:5668386
fhlm0_sx120 quick_test/fbank/raw_fbank_train.1.ark:4645003
mzmb0_sx356 quick_test/fbank/raw_fbank_train.4.ark:11622890
mjda0_si2291 quick_test/fbank/raw_fbank_train.3.ark:2082960
mbsb0_sx3 quick_test/fbank/raw_fbank_train.2.ark:4163884
mewm0_si718 quick_test/fbank/raw_fbank_train.2.ark:10325753
mpeb0_si600 quick_test/fbank/raw_fbank_train.3.ark:10832482
mjpm0_sx198 quick_test/fbank/raw_fbank_train.3.ark:4293010
mjrp0_si585 quick_test/fbank/raw_fbank_train.3.ark:4940408
mjwg0_si895 quick_test/fbank/raw_fbank_train.3.ark:5161137
mwar0_sx325 quick_test/fbank/raw_fbank_train.4.ark:10740145
mmgc0_sx315 quick_test/fbank/raw_fbank_train.3.ark:9317142
mlbc0_sx159 quick_test/fbank/raw_fbank_train.3.ark:7274056
mfer0_sx232 quick_test/fbank/raw_fbank_train.2.ark:10437004
ftbw0_si1345 quick_test/fbank/raw_fbank_train.2.ark:1437855
fscn0_sx356 quick_test/fbank/raw_fbank_train.1.ark:11388620
mkaj0_sx64 quick_test/fbank/raw_fbank_train.3.ark:5941555
mtml0_sx345 quick_test/fbank/raw_fbank_train.4.ark:8959253
mrmh0_sx211 quick_test/fbank/raw_fbank_train.4.ark:3940470
mkag0_sx439 quick_test/fbank/raw_fbank_train.3.ark:5738393
mcxm0_sx451 quick_test/fbank/raw_fbank_train.2.ark:5978364
fmpg0_sx342 quick_test/fbank/raw_fbank_train.1.ark:9523332
fleh0_si1681 quick_test/fbank/raw_fbank_train.1.ark:7339235
mrcw0_sx291 quick_test/fbank/raw_fbank_train.4.ark:1345803
mpfu0_sx88 quick_test/fbank/raw_fbank_train.3.ark:10998871
mrjt0_sx238 quick_test/fbank/raw_fbank_train.4.ark:3057644
mjjm0_sx17 quick_test/fbank/raw_fbank_train.3.ark:3441350
mmdm1_si1650 quick_test/fbank/raw_fbank_train.3.ark:8901157
mctm0_si1350 quick_test/fbank/raw_fbank_train.2.ark:5809260
mcef0_sx325 quick_test/fbank/raw_fbank_train.2.ark:4974081
mreh1_sx339 quick_test/fbank/raw_fbank_train.4.ark:1819218
mhbs0_sx405 quick_test/fbank/raw_fbank_train.3.ark:986353
mwsh0_si2266 quick_test/fbank/raw_fbank_train.4.ark:11460253
mstf0_sx226 quick_test/fbank/raw_fbank_train.4.ark:6984424
mlel0_sx166 quick_test/fbank/raw_fbank_train.3.ark:7370801
mtkp0_sx123 quick_test/fbank/raw_fbank_train.4.ark:8651111
mdlc0_si1395 quick_test/fbank/raw_fbank_train.2.ark:7502404
mrfk0_si1706 quick_test/fbank/raw_fbank_train.4.ark:2068640
mrmh0_sx121 quick_test/fbank/raw_fbank_train.4.ark:3929077
mkdb0_si872 quick_test/fbank/raw_fbank_train.3.ark:6078961
makb0_sx386 quick_test/fbank/raw_fbank_train.2.ark:2799974
mtxs0_sx160 quick_test/fbank/raw_fbank_train.4.ark:10133927
mjac0_sx341 quick_test/fbank/raw_fbank_train.3.ark:1727637
fskl0_sx359 quick_test/fbank/raw_fbank_train.2.ark:408025
mtml0_sx75 quick_test/fbank/raw_fbank_train.4.ark:8988198
fjsp0_sx264 quick_test/fbank/raw_fbank_train.1.ark:5827758
mclk0_si2290 quick_test/fbank/raw_fbank_train.2.ark:5238745
fecd0_sx428 quick_test/fbank/raw_fbank_train.1.ark:3724555
fsls0_sx66 quick_test/fbank/raw_fbank_train.2.ark:628141
fjsk0_sx152 quick_test/fbank/raw_fbank_train.1.ark:5714700
fceg0_sx438 quick_test/fbank/raw_fbank_train.1.ark:1621624
mpsw0_si2327 quick_test/fbank/raw_fbank_train.4.ark:505351
fjhk0_si1022 quick_test/fbank/raw_fbank_train.1.ark:5060887
fjlr0_si601 quick_test/fbank/raw_fbank_train.1.ark:5376511
fdas1_sx201 quick_test/fbank/raw_fbank_train.1.ark:2458704
mgsh0_si1176 quick_test/fbank/raw_fbank_train.3.ark:593125
flet0_sx237 quick_test/fbank/raw_fbank_train.1.ark:7477560
mkls0_sx447 quick_test/fbank/raw_fbank_train.3.ark:6823589
mrab1_si1478 quick_test/fbank/raw_fbank_train.4.ark:664133
fsjw0_sx73 quick_test/fbank/raw_fbank_train.2.ark:242760
mges0_si1481 quick_test/fbank/raw_fbank_train.3.ark:193384
mgsl0_sx264 quick_test/fbank/raw_fbank_train.3.ark:755880
fear0_si1882 quick_test/fbank/raw_fbank_train.1.ark:3543525
fdfb0_si1948 quick_test/fbank/raw_fbank_train.1.ark:2623816
mchl0_sx177 quick_test/fbank/raw_fbank_train.2.ark:5176586
mrwa0_sx343 quick_test/fbank/raw_fbank_train.4.ark:4997035
mefg0_sx375 quick_test/fbank/raw_fbank_train.2.ark:9815531
mmdb0_si1617 quick_test/fbank/raw_fbank_train.3.ark:8622156
mmdm1_sx153 quick_test/fbank/raw_fbank_train.3.ark:8928537
fskp0_si468 quick_test/fbank/raw_fbank_train.2.ark:474431
fklh0_sx447 quick_test/fbank/raw_fbank_train.1.ark:6995180
mklr0_sx69 quick_test/fbank/raw_fbank_train.3.ark:6726115
mdef0_si2193 quick_test/fbank/raw_fbank_train.2.ark:6818696
msas0_si746 quick_test/fbank/raw_fbank_train.4.ark:5341437
mjrg0_sx352 quick_test/fbank/raw_fbank_train.3.ark:4600078
mgxp0_si457 quick_test/fbank/raw_fbank_train.3.ark:827245
fklc0_sx85 quick_test/fbank/raw_fbank_train.1.ark:6808081
mtab0_si2202 quick_test/fbank/raw_fbank_train.4.ark:7180135
msah1_si1679 quick_test/fbank/raw_fbank_train.4.ark:5233898
mtdb0_sx141 quick_test/fbank/raw_fbank_train.4.ark:7805471
fdkn0_si1081 quick_test/fbank/raw_fbank_train.1.ark:2787113
mmgc0_si1305 quick_test/fbank/raw_fbank_train.3.ark:9258055
mjfr0_si2235 quick_test/fbank/raw_fbank_train.3.ark:2977472
mntw0_sx202 quick_test/fbank/raw_fbank_train.3.ark:10686298
mjee0_si607 quick_test/fbank/raw_fbank_train.3.ark:2811095
mdwm0_sx433 quick_test/fbank/raw_fbank_train.2.ark:9546137
flac0_sx91 quick_test/fbank/raw_fbank_train.1.ark:7197662
fklc1_sx58 quick_test/fbank/raw_fbank_train.1.ark:6903627
fcmm0_sx420 quick_test/fbank/raw_fbank_train.1.ark:2175975
mrtc0_sx18 quick_test/fbank/raw_fbank_train.4.ark:4678086
