mvrw0_sx45 quick_test/data-fmllr-tri3/train/data/feats_fmllr_train.10.ark:13368804
mgjc0_si1965 quick_test/data-fmllr-tri3/train/data/feats_fmllr_train.6.ark:1170961
mbml0_sx179 quick_test/data-fmllr-tri3/train/data/feats_fmllr_train.4.ark:6450667
mfxv0_si1635 quick_test/data-fmllr-tri3/train/data/feats_fmllr_train.5.ark:16002143
fkkh0_sx390 quick_test/data-fmllr-tri3/train/data/feats_fmllr_train.2.ark:7254456
mges0_sx41 quick_test/data-fmllr-tri3/train/data/feats_fmllr_train.6.ark:1024797
fsjg0_sx40 quick_test/data-fmllr-tri3/train/data/feats_fmllr_train.3.ark:8690971
mgaf0_sx22 quick_test/data-fmllr-tri3/train/data/feats_fmllr_train.5.ark:16453320
fjxp0_si492 quick_test/data-fmllr-tri3/train/data/feats_fmllr_train.2.ark:4951316
mdef0_sx303 quick_test/data-fmllr-tri3/train/data/feats_fmllr_train.5.ark:244310
fntb0_si573 quick_test/data-fmllr-tri3/train/data/feats_fmllr_train.3.ark:417537
mmab1_sx324 quick_test/data-fmllr-tri3/train/data/feats_fmllr_train.7.ark:13236271
msms0_sx263 quick_test/data-fmllr-tri3/train/data/feats_fmllr_train.9.ark:16816922
fgrw0_sx252 quick_test/data-fmllr-tri3/train/data/feats_fmllr_train.1.ark:17756715
mrab0_sx324 quick_test/data-fmllr-tri3/train/data/feats_fmllr_train.8.ark:11158864
mesg0_si1962 quick_test/data-fmllr-tri3/train/data/feats_fmllr_train.5.ark:13020539
mdlh0_si700 quick_test/data-fmllr-tri3/train/data/feats_fmllr_train.5.ark:3995999
msds0_sx87 quick_test/data-fmllr-tri3/train/data/feats_fmllr_train.9.ark:13612226
fcag0_sx153 quick_test/data-fmllr-tri3/train/data/feats_fmllr_train.1.ark:4988456
mjac0_sx251 quick_test/data-fmllr-tri3/train/data/feats_fmllr_train.6.ark:6615937
mtmn0_sx254 quick_test/data-fmllr-tri3/train/data/feats_fmllr_train.10.ark:7912886
mtjg0_si2157 quick_test/data-fmllr-tri3/train/data/feats_fmllr_train.10.ark:4119491
mrre0_si952 quick_test/data-fmllr-tri3/train/data/feats_fmllr_train.9.ark:7553152
mbwp0_sx349 quick_test/data-fmllr-tri3/train/data/feats_fmllr_train.4.ark:7933028
mrcg0_sx438 quick_test/data-fmllr-tri3/train/data/feats_fmllr_train.8.ark:13571395
mpgh0_si1554 quick_test/data-fmllr-tri3/train/data/feats_fmllr_train.8.ark:6819919
mhxl0_sx62 quick_test/data-fmllr-tri3/train/data/feats_fmllr_train.6.ark:6074333
mbef0_sx201 quick_test/data-fmllr-tri3/train/data/feats_fmllr_train.4.ark:4657129
mlns0_sx147 quick_test/data-fmllr-tri3/train/data/feats_fmllr_train.7.ark:11966286
mrjm1_sx38 quick_test/data-fmllr-tri3/train/data/feats_fmllr_train.9.ark:2392139
mdma0_si1430 quick_test/data-fmllr-tri3/train/data/feats_fmllr_train.5.ark:5503720
mjfh0_si1107 quick_test/data-fmllr-tri3/train/data/feats_fmllr_train.6.ark:11215581
mgsh0_si546 quick_test/data-fmllr-tri3/train/data/feats_fmllr_train.6.ark:2430332
falr0_sx155 quick_test/data-fmllr-tri3/train/data/feats_fmllr_train.1.ark:1348261
mdps0_sx449 quick_test/data-fmllr-tri3/train/data/feats_fmllr_train.5.ark:7675181
mtlc0_sx217 quick_test/data-fmllr-tri3/train/data/feats_fmllr_train.10.ark:7099651
mhbs0_sx135 quick_test/data-fmllr-tri3/train/data/feats_fmllr_train.6.ark:3722524
fdmy0_sx117 quick_test/data-fmllr-tri3/train/data/feats_fmllr_train.1.ark:11877326
mjac0_sx431 quick_test/data-fmllr-tri3/train/data/feats_fmllr_train.6.ark:6765138
fgdp0_si1618 quick_test/data-fmllr-tri3/train/data/feats_fmllr_train.1.ark:16604491
mmds0_si1973 quick_test/data-fmllr-tri3/train/data/feats_fmllr_train.7.ark:17077214
fbcg1_sx352 quick_test/data-fmllr-tri3/train/data/feats_fmllr_train.1.ark:2681928
mdwm0_sx106 quick_test/data-fmllr-tri3/train/data/feats_fmllr_train.5.ark:10549157
mtwh1_si882 quick_test/data-fmllr-tri3/train/data/feats_fmllr_train.10.ark:11633081
mdma0_sx350 quick_test/data-fmllr-tri3/train/data/feats_fmllr_train.5.ark:5742709
mmxs0_sx156 quick_test/data-fmllr-tri3/train/data/feats_fmllr_train.8.ark:4748940
freh0_sx145 quick_test/data-fmllr-tri3/train/data/feats_fmllr_train.3.ark:4171063
mrsp0_si1429 quick_test/data-fmllr-tri3/train/data/feats_fmllr_train.9.ark:8344572
mtrr0_sx198 quick_test/data-fmllr-tri3/train/data/feats_fmllr_train.10.ark:11038807
mjlb0_si986 quick_test/data-fmllr-tri3/train/data/feats_fmllr_train.6.ark:14051555
mkaj0_si2044 quick_test/data-fmllr-tri3/train/data/feats_fmllr_train.7.ark:4846644
mprd0_sx441 quick_test/data-fmllr-tri3/train/data/feats_fmllr_train.8.ark:9730504
msdb0_si1637 quick_test/data-fmllr-tri3/train/data/feats_fmllr_train.9.ark:12586189
mmvp0_si654 quick_test/data-fmllr-tri3/train/data/feats_fmllr_train.8.ark:3060686
mkls1_sx285 quick_test/data-fmllr-tri3/train/data/feats_fmllr_train.7.ark:8899829
mwar0_si1045 quick_test/data-fmllr-tri3/train/data/feats_fmllr_train.10.ark:14170707
mdem0_sx68 quick_test/data-fmllr-tri3/train/data/feats_fmllr_train.5.ark:774819
fleh0_sx151 quick_test/data-fmllr-tri3/train/data/feats_fmllr_train.2.ark:9805150
mdks0_si1066 quick_test/data-fmllr-tri3/train/data/feats_fmllr_train.5.ark:1926538
fdtd0_sx321 quick_test/data-fmllr-tri3/train/data/feats_fmllr_train.1.ark:12894642
mmjb1_sx148 quick_test/data-fmllr-tri3/train/data/feats_fmllr_train.8.ark:1178028
fcke0_si1111 quick_test/data-fmllr-tri3/train/data/feats_fmllr_train.1.ark:7059756
mdps0_sx269 quick_test/data-fmllr-tri3/train/data/feats_fmllr_train.5.ark:7586327
fhxs0_sx265 quick_test/data-fmllr-tri3/train/data/feats_fmllr_train.1.ark:18663231
makr0_sx362 quick_test/data-fmllr-tri3/train/data/feats_fmllr_train.4.ark:2124277
mejl0_sx152 quick_test/data-fmllr-tri3/train/data/feats_fmllr_train.5.ark:12376479
mrtc0_sx378 quick_test/data-fmllr-tri3/train/data/feats_fmllr_train.9.ark:9123538
falk0_sx366 quick_test/data-fmllr-tri3/train/data/feats_fmllr_train.1.ark:1064740
mddc0_si2049 quick_test/data-fmllr-tri3/train/data/feats_fmllr_train.4.ark:16715667
mjjj0_sx353 quick_test/data-fmllr-tri3/train/data/feats_fmllr_train.6.ark:13027145
fntb0_sx393 quick_test/data-fmllr-tri3/train/data/feats_fmllr_train.3.ark:702978
mdtb0_sx300 quick_test/data-fmllr-tri3/train/data/feats_fmllr_train.5.ark:9452239
ftbr0_sx381 quick_test/data-fmllr-tri3/train/data/feats_fmllr_train.3.ark:14551054
mdwh0_sx125 quick_test/data-fmllr-tri3/train/data/feats_fmllr_train.5.ark:10126060
mwre0_si1687 quick_test/data-fmllr-tri3/train/data/feats_fmllr_train.10.ark:16092143
fskp0_sx288 quick_test/data-fmllr-tri3/train/data/feats_fmllr_train.3.ark:11003793
mpsw0_si1697 quick_test/data-fmllr-tri3/train/data/feats_fmllr_train.8.ark:10666539
fsjg0_si940 quick_test/data-fmllr-tri3/train/data/feats_fmllr_train.3.ark:8408304
mdwh0_si1925 quick_test/data-fmllr-tri3/train/data/feats_fmllr_train.5.ark:10013206
mrms0_si1113 quick_test/data-fmllr-tri3/train/data/feats_fmllr_train.9.ark:6741622
mbar0_sx59 quick_test/data-fmllr-tri3/train/data/feats_fmllr_train.4.ark:3722158
fsgf0_sx27 quick_test/data-fmllr-tri3/train/data/feats_fmllr_train.3.ark:8184327
mtrr0_si2178 quick_test/data-fmllr-tri3/train/data/feats_fmllr_train.10.ark:10841260
fkaa0_sx38 quick_test/data-fmllr-tri3/train/data/feats_fmllr_train.2.ark:5499800
mses0_sx419 quick_test/data-fmllr-tri3/train/data/feats_fmllr_train.9.ark:14436955
fmjf0_sx354 quick_test/data-fmllr-tri3/train/data/feats_fmllr_train.2.ark:16170438
mklr0_si1059 quick_test/data-fmllr-tri3/train/data/feats_fmllr_train.7.ark:7862271
fsdc0_sx52 quick_test/data-fmllr-tri3/train/data/feats_fmllr_train.3.ark:7531627
mwem0_sx240 quick_test/data-fmllr-tri3/train/data/feats_fmllr_train.10.ark:15416750
fsjw0_sx433 quick_test/data-fmllr-tri3/train/data/feats_fmllr_train.3.ark:9891623
mdma0_sx170 quick_test/data-fmllr-tri3/train/data/feats_fmllr_train.5.ark:5607295
mgrl0_si2127 quick_test/data-fmllr-tri3/train/data/feats_fmllr_train.6.ark:1544751
mprk0_si1727 quick_test/data-fmllr-tri3/train/data/feats_fmllr_train.8.ark:9912826
mjwg0_sx175 quick_test/data-fmllr-tri3/train/data/feats_fmllr_train.7.ark:2162780
mrdd0_si1680 quick_test/data-fmllr-tri3/train/data/feats_fmllr_train.8.ark:14108974
fpac0_sx211 quick_test/data-fmllr-tri3/train/data/feats_fmllr_train.3.ark:1428292
mrdd0_sx277 quick_test/data-fmllr-tri3/train/data/feats_fmllr_train.8.ark:14270843
mmlm0_sx177 quick_test/data-fmllr-tri3/train/data/feats_fmllr_train.8.ark:1563045
mprb0_sx215 quick_test/data-fmllr-tri3/train/data/feats_fmllr_train.8.ark:9170873
mjeb1_sx27 quick_test/data-fmllr-tri3/train/data/feats_fmllr_train.6.ark:10704082
mkag0_sx259 quick_test/data-fmllr-tri3/train/data/feats_fmllr_train.7.ark:4236372
mejs0_sx250 quick_test/data-fmllr-tri3/train/data/feats_fmllr_train.5.ark:12811123
fdjh0_sx215 quick_test/data-fmllr-tri3/train/data/feats_fmllr_train.1.ark:10664861
mbth0_sx212 quick_test/data-fmllr-tri3/train/data/feats_fmllr_train.4.ark:7512944
fbas0_si2066 quick_test/data-fmllr-tri3/train/data/feats_fmllr_train.1.ark:2181150
mrlj1_sx321 quick_test/data-fmllr-tri3/train/data/feats_fmllr_train.9.ark:4263917
mjma0_si2125 quick_test/data-fmllr-tri3/train/data/feats_fmllr_train.6.ark:15104980
mbom0_si1644 quick_test/data-fmllr-tri3/train/data/feats_fmllr_train.4.ark:6738350
mree0_si1104 quick_test/data-fmllr-tri3/train/data/feats_fmllr_train.8.ark:15129918
mdlc0_si2025 quick_test/data-fmllr-tri3/train/data/feats_fmllr_train.5.ark:2865721
fjdm2_sx412 quick_test/data-fmllr-tri3/train/data/feats_fmllr_train.2.ark:317937
fsbk0_sx439 quick_test/data-fmllr-tri3/train/data/feats_fmllr_train.3.ark:6640127
mmam0_si1668 quick_test/data-fmllr-tri3/train/data/feats_fmllr_train.7.ark:13909397
mram0_sx105 quick_test/data-fmllr-tri3/train/data/feats_fmllr_train.8.ark:12294982
fklc1_sx58 quick_test/data-fmllr-tri3/train/data/feats_fmllr_train.2.ark:8037291
fpaz0_sx63 quick_test/data-fmllr-tri3/train/data/feats_fmllr_train.3.ark:2783743
fjrp1_si2062 quick_test/data-fmllr-tri3/train/data/feats_fmllr_train.2.ark:2870684
fdml0_si1149 quick_test/data-fmllr-tri3/train/data/feats_fmllr_train.1.ark:11281667
fjsp0_si804 quick_test/data-fmllr-tri3/train/data/feats_fmllr_train.2.ark:3748266
fjxm0_sx131 quick_test/data-fmllr-tri3/train/data/feats_fmllr_train.2.ark:4539286
mrlj0_sx340 quick_test/data-fmllr-tri3/train/data/feats_fmllr_train.9.ark:3951379
msmc0_sx17 quick_test/data-fmllr-tri3/train/data/feats_fmllr_train.9.ark:16045127
mfxs0_sx54 quick_test/data-fmllr-tri3/train/data/feats_fmllr_train.5.ark:15812619
mrfk0_si1706 quick_test/data-fmllr-tri3/train/data/feats_fmllr_train.8.ark:16782494
freh0_sx325 quick_test/data-fmllr-tri3/train/data/feats_fmllr_train.3.ark:4244077
mdcd0_sx245 quick_test/data-fmllr-tri3/train/data/feats_fmllr_train.4.ark:16090514
mprd0_sx351 quick_test/data-fmllr-tri3/train/data/feats_fmllr_train.8.ark:9671757
mbma1_si954 quick_test/data-fmllr-tri3/train/data/feats_fmllr_train.4.ark:5996823
fcdr1_sx196 quick_test/data-fmllr-tri3/train/data/feats_fmllr_train.1.ark:5917103
mkah0_sx358 quick_test/data-fmllr-tri3/train/data/feats_fmllr_train.7.ark:4671495
mrdm0_sx245 quick_test/data-fmllr-tri3/train/data/feats_fmllr_train.8.ark:14613913
mrcg0_si798 quick_test/data-fmllr-tri3/train/data/feats_fmllr_train.8.ark:13347447
fsdc0_si2234 quick_test/data-fmllr-tri3/train/data/feats_fmllr_train.3.ark:7332773
mrjh0_sx79 quick_test/data-fmllr-tri3/train/data/feats_fmllr_train.9.ark:1642131
mjjm0_sx17 quick_test/data-fmllr-tri3/train/data/feats_fmllr_train.6.ark:13383014
fsrh0_si1719 quick_test/data-fmllr-tri3/train/data/feats_fmllr_train.3.ark:13120614
fspm0_si1871 quick_test/data-fmllr-tri3/train/data/feats_fmllr_train.3.ark:12783785
mjrp0_sx135 quick_test/data-fmllr-tri3/train/data/feats_fmllr_train.7.ark:1255467
mpgr1_sx329 quick_test/data-fmllr-tri3/train/data/feats_fmllr_train.8.ark:7745289
mjwt0_sx301 quick_test/data-fmllr-tri3/train/data/feats_fmllr_train.7.ark:3115908
mjxl0_sx452 quick_test/data-fmllr-tri3/train/data/feats_fmllr_train.7.ark:3903089
mejl0_sx242 quick_test/data-fmllr-tri3/train/data/feats_fmllr_train.5.ark:12416506
mrfk0_sx446 quick_test/data-fmllr-tri3/train/data/feats_fmllr_train.8.ark:16976550
mchl0_si1977 quick_test/data-fmllr-tri3/train/data/feats_fmllr_train.4.ark:11121722
mpar0_sx316 quick_test/data-fmllr-tri3/train/data/feats_fmllr_train.8.ark:5954764
mgag0_sx331 quick_test/data-fmllr-tri3/train/data/feats_fmllr_train.5.ark:16805697
fsah0_si1874 quick_test/data-fmllr-tri3/train/data/feats_fmllr_train.3.ark:5598437
maeb0_sx450 quick_test/data-fmllr-tri3/train/data/feats_fmllr_train.4.ark:288656
mrmh0_sx391 quick_test/data-fmllr-tri3/train/data/feats_fmllr_train.9.ark:6216737
mjeb0_sx170 quick_test/data-fmllr-tri3/train/data/feats_fmllr_train.6.ark:10177892
fsrh0_sx131 quick_test/data-fmllr-tri3/train/data/feats_fmllr_train.3.ark:13225016
fjrb0_si672 quick_test/data-fmllr-tri3/train/data/feats_fmllr_train.2.ark:2480734
mcdc0_si1922 quick_test/data-fmllr-tri3/train/data/feats_fmllr_train.4.ark:9029409
mrso0_sx309 quick_test/data-fmllr-tri3/train/data/feats_fmllr_train.9.ark:8183211
mtab0_sx42 quick_test/data-fmllr-tri3/train/data/feats_fmllr_train.10.ark:901379
falr0_sx65 quick_test/data-fmllr-tri3/train/data/feats_fmllr_train.1.ark:1531248
mpsw0_sx24 quick_test/data-fmllr-tri3/train/data/feats_fmllr_train.8.ark:10784700
milb0_si807 quick_test/data-fmllr-tri3/train/data/feats_fmllr_train.6.ark:6160148
mbwp0_si1531 quick_test/data-fmllr-tri3/train/data/feats_fmllr_train.4.ark:7708092
mdpb0_sx56 quick_test/data-fmllr-tri3/train/data/feats_fmllr_train.5.ark:7025813
fbas0_sx127 quick_test/data-fmllr-tri3/train/data/feats_fmllr_train.1.ark:2279417
mmea0_si758 quick_test/data-fmllr-tri3/train/data/feats_fmllr_train.7.ark:17396818
mfer0_sx322 quick_test/data-fmllr-tri3/train/data/feats_fmllr_train.5.ark:14236496
mjeb0_sx206 quick_test/data-fmllr-tri3/train/data/feats_fmllr_train.6.ark:10250879
marc0_sx18 quick_test/data-fmllr-tri3/train/data/feats_fmllr_train.4.ark:2811883
mdlh0_sx430 quick_test/data-fmllr-tri3/train/data/feats_fmllr_train.5.ark:4228587
mjls0_sx106 quick_test/data-fmllr-tri3/train/data/feats_fmllr_train.6.ark:14838577
mprk0_sx17 quick_test/data-fmllr-tri3/train/data/feats_fmllr_train.8.ark:10070826
fksr0_si487 quick_test/data-fmllr-tri3/train/data/feats_fmllr_train.2.ark:8573431
mfmc0_sx52 quick_test/data-fmllr-tri3/train/data/feats_fmllr_train.5.ark:14704766
mlsh0_sx157 quick_test/data-fmllr-tri3/train/data/feats_fmllr_train.7.ark:12338183
fmjf0_sx84 quick_test/data-fmllr-tri3/train/data/feats_fmllr_train.2.ark:16265691
mmam0_sx157 quick_test/data-fmllr-tri3/train/data/feats_fmllr_train.7.ark:13974892
mpsw0_sx167 quick_test/data-fmllr-tri3/train/data/feats_fmllr_train.8.ark:10738434
mprb0_si1215 quick_test/data-fmllr-tri3/train/data/feats_fmllr_train.8.ark:8965832
fgrw0_si1990 quick_test/data-fmllr-tri3/train/data/feats_fmllr_train.1.ark:17649781
fscn0_sx356 quick_test/data-fmllr-tri3/train/data/feats_fmllr_train.3.ark:7071836
fsbk0_si1069 quick_test/data-fmllr-tri3/train/data/feats_fmllr_train.3.ark:6333883
mgag0_si645 quick_test/data-fmllr-tri3/train/data/feats_fmllr_train.5.ark:16632949
mtas0_sx35 quick_test/data-fmllr-tri3/train/data/feats_fmllr_train.10.ark:1167489
maeo0_sx66 quick_test/data-fmllr-tri3/train/data/feats_fmllr_train.4.ark:710980
mjjb0_sx329 quick_test/data-fmllr-tri3/train/data/feats_fmllr_train.6.ark:12580528
mdlr0_sx153 quick_test/data-fmllr-tri3/train/data/feats_fmllr_train.5.ark:4787980
fsls0_sx246 quick_test/data-fmllr-tri3/train/data/feats_fmllr_train.3.ark:11347825
mjrg0_sx286 quick_test/data-fmllr-tri3/train/data/feats_fmllr_train.6.ark:17822287
mdem0_si800 quick_test/data-fmllr-tri3/train/data/feats_fmllr_train.5.ark:464285
fmah1_sx429 quick_test/data-fmllr-tri3/train/data/feats_fmllr_train.2.ark:14618559
fbch0_sx326 quick_test/data-fmllr-tri3/train/data/feats_fmllr_train.1.ark:3115744
flmk0_sx405 quick_test/data-fmllr-tri3/train/data/feats_fmllr_train.2.ark:13496786
ftbr0_sx111 quick_test/data-fmllr-tri3/train/data/feats_fmllr_train.3.ark:14390147
mtas0_si2015 quick_test/data-fmllr-tri3/train/data/feats_fmllr_train.10.ark:993915
fdkn0_sx271 quick_test/data-fmllr-tri3/train/data/feats_fmllr_train.1.ark:11062839
fmpg0_si2232 quick_test/data-fmllr-tri3/train/data/feats_fmllr_train.2.ark:17976052
fjsk0_si2312 quick_test/data-fmllr-tri3/train/data/feats_fmllr_train.2.ark:3379249
mrmg0_si1080 quick_test/data-fmllr-tri3/train/data/feats_fmllr_train.9.ark:5511529
flmc0_sx112 quick_test/data-fmllr-tri3/train/data/feats_fmllr_train.2.ark:12959527
mtat1_sx419 quick_test/data-fmllr-tri3/train/data/feats_fmllr_train.10.ark:1970804
mkaj0_sx64 quick_test/data-fmllr-tri3/train/data/feats_fmllr_train.7.ark:5106485
mtlb0_si1764 quick_test/data-fmllr-tri3/train/data/feats_fmllr_train.10.ark:6569273
msrg0_sx411 quick_test/data-fmllr-tri3/train/data/feats_fmllr_train.9.ark:17258633
fljd0_sx256 quick_test/data-fmllr-tri3/train/data/feats_fmllr_train.2.ark:11412287
fpmy0_sx343 quick_test/data-fmllr-tri3/train/data/feats_fmllr_train.3.ark:3903567
mtmn0_si582 quick_test/data-fmllr-tri3/train/data/feats_fmllr_train.10.ark:7771712
fskp0_sx18 quick_test/data-fmllr-tri3/train/data/feats_fmllr_train.3.ark:10928219
mtdb0_sx411 quick_test/data-fmllr-tri3/train/data/feats_fmllr_train.10.ark:3126815
mrml0_sx341 quick_test/data-fmllr-tri3/train/data/feats_fmllr_train.9.ark:6577861
mdpb0_sx326 quick_test/data-fmllr-tri3/train/data/feats_fmllr_train.5.ark:6944000
flja0_sx358 quick_test/data-fmllr-tri3/train/data/feats_fmllr_train.2.ark:11051777
mmdm1_sx243 quick_test/data-fmllr-tri3/train/data/feats_fmllr_train.7.ark:16800758
fhlm0_sx210 quick_test/data-fmllr-tri3/train/data/feats_fmllr_train.1.ark:18143172
mrfk0_si2336 quick_test/data-fmllr-tri3/train/data/feats_fmllr_train.8.ark:16806362
fsjg0_si2200 quick_test/data-fmllr-tri3/train/data/feats_fmllr_train.3.ark:8355317
fbjl0_sx112 quick_test/data-fmllr-tri3/train/data/feats_fmllr_train.1.ark:3435587
mpmb0_si871 quick_test/data-fmllr-tri3/train/data/feats_fmllr_train.8.ark:8082705
mtpf0_si1235 quick_test/data-fmllr-tri3/train/data/feats_fmllr_train.10.ark:8452411
mfer0_si862 quick_test/data-fmllr-tri3/train/data/feats_fmllr_train.5.ark:14074975
mrab1_si2108 quick_test/data-fmllr-tri3/train/data/feats_fmllr_train.8.ark:11368893
fmmh0_sx7 quick_test/data-fmllr-tri3/train/data/feats_fmllr_train.2.ark:17844290
mdmt0_sx302 quick_test/data-fmllr-tri3/train/data/feats_fmllr_train.5.ark:6144686
mkah0_si898 quick_test/data-fmllr-tri3/train/data/feats_fmllr_train.7.ark:4511094
mges0_sx311 quick_test/data-fmllr-tri3/train/data/feats_fmllr_train.6.ark:916904
mdsj0_sx22 quick_test/data-fmllr-tri3/train/data/feats_fmllr_train.5.ark:8394280
mjwg0_sx265 quick_test/data-fmllr-tri3/train/data/feats_fmllr_train.7.ark:2230967
feme0_sx245 quick_test/data-fmllr-tri3/train/data/feats_fmllr_train.1.ark:15211571
mkjo0_sx437 quick_test/data-fmllr-tri3/train/data/feats_fmllr_train.7.ark:7400080
medr0_sx384 quick_test/data-fmllr-tri3/train/data/feats_fmllr_train.5.ark:11386819
mmxs0_si2136 quick_test/data-fmllr-tri3/train/data/feats_fmllr_train.8.ark:4612859
mbar0_si1319 quick_test/data-fmllr-tri3/train/data/feats_fmllr_train.4.ark:3375569
mnet0_sx96 quick_test/data-fmllr-tri3/train/data/feats_fmllr_train.8.ark:5278702
mrfl0_sx256 quick_test/data-fmllr-tri3/train/data/feats_fmllr_train.8.ark:17293513
fltm0_sx170 quick_test/data-fmllr-tri3/train/data/feats_fmllr_train.2.ark:14040661
mbml0_sx269 quick_test/data-fmllr-tri3/train/data/feats_fmllr_train.4.ark:6495494
mhmg0_sx285 quick_test/data-fmllr-tri3/train/data/feats_fmllr_train.6.ark:4871416
mrvg0_si1770 quick_test/data-fmllr-tri3/train/data/feats_fmllr_train.9.ark:9706691
mjxa0_sx337 quick_test/data-fmllr-tri3/train/data/feats_fmllr_train.7.ark:3484605
fvfb0_sx222 quick_test/data-fmllr-tri3/train/data/feats_fmllr_train.3.ark:15930882
mklw0_sx131 quick_test/data-fmllr-tri3/train/data/feats_fmllr_train.7.ark:9127007
mcae0_sx187 quick_test/data-fmllr-tri3/train/data/feats_fmllr_train.4.ark:8351751
mdks0_si2326 quick_test/data-fmllr-tri3/train/data/feats_fmllr_train.5.ark:1990114
fhxs0_sx175 quick_test/data-fmllr-tri3/train/data/feats_fmllr_train.1.ark:18588164
fajw0_sx273 quick_test/data-fmllr-tri3/train/data/feats_fmllr_train.1.ark:638099
fkde0_si2221 quick_test/data-fmllr-tri3/train/data/feats_fmllr_train.2.ark:5768711
mdlb0_si676 quick_test/data-fmllr-tri3/train/data/feats_fmllr_train.5.ark:2461851
fcaj0_sx39 quick_test/data-fmllr-tri3/train/data/feats_fmllr_train.1.ark:5496593
mrwa0_si973 quick_test/data-fmllr-tri3/train/data/feats_fmllr_train.9.ark:10096055
mjrh0_si1125 quick_test/data-fmllr-tri3/train/data/feats_fmllr_train.7.ark:13
fssb0_sx272 quick_test/data-fmllr-tri3/train/data/feats_fmllr_train.3.ark:13688301
mefg0_si491 quick_test/data-fmllr-tri3/train/data/feats_fmllr_train.5.ark:11461913
mfer0_si2122 quick_test/data-fmllr-tri3/train/data/feats_fmllr_train.5.ark:14053828
medr0_sx114 quick_test/data-fmllr-tri3/train/data/feats_fmllr_train.5.ark:11242872
fmmh0_sx367 quick_test/data-fmllr-tri3/train/data/feats_fmllr_train.2.ark:17737198
fnkl0_sx82 quick_test/data-fmllr-tri3/train/data/feats_fmllr_train.3.ark:328522
fpac0_si2011 quick_test/data-fmllr-tri3/train/data/feats_fmllr_train.3.ark:1269171
mjkr0_sx121 quick_test/data-fmllr-tri3/train/data/feats_fmllr_train.6.ark:13724645
mjlg1_si1012 quick_test/data-fmllr-tri3/train/data/feats_fmllr_train.6.ark:14302757
mbsb0_sx93 quick_test/data-fmllr-tri3/train/data/feats_fmllr_train.4.ark:7266248
fjlg0_si2306 quick_test/data-fmllr-tri3/train/data/feats_fmllr_train.2.ark:1714060
mcpm0_si564 quick_test/data-fmllr-tri3/train/data/feats_fmllr_train.4.ark:12213253
mmjb1_si778 quick_test/data-fmllr-tri3/train/data/feats_fmllr_train.8.ark:1137201
fssb0_sx182 quick_test/data-fmllr-tri3/train/data/feats_fmllr_train.3.ark:13643314
frjb0_sx347 quick_test/data-fmllr-tri3/train/data/feats_fmllr_train.3.ark:4535975
mabc0_si781 quick_test/data-fmllr-tri3/train/data/feats_fmllr_train.3.ark:16920439
mhmr0_sx39 quick_test/data-fmllr-tri3/train/data/feats_fmllr_train.6.ark:5277873
mjhi0_sx428 quick_test/data-fmllr-tri3/train/data/feats_fmllr_train.6.ark:12232657
mmaa0_si1588 quick_test/data-fmllr-tri3/train/data/feats_fmllr_train.7.ark:12587758
fcag0_si1503 quick_test/data-fmllr-tri3/train/data/feats_fmllr_train.1.ark:4895413
mtmn0_sx164 quick_test/data-fmllr-tri3/train/data/feats_fmllr_train.10.ark:7856379
mrgs0_sx366 quick_test/data-fmllr-tri3/train/data/feats_fmllr_train.9.ark:257589
fmjb0_si547 quick_test/data-fmllr-tri3/train/data/feats_fmllr_train.2.ark:15659262
mrre0_si704 quick_test/data-fmllr-tri3/train/data/feats_fmllr_train.9.ark:7499525
mctm0_si1980 quick_test/data-fmllr-tri3/train/data/feats_fmllr_train.4.ark:13676013
mtlb0_sx234 quick_test/data-fmllr-tri3/train/data/feats_fmllr_train.10.ark:6680074
fpab1_si841 quick_test/data-fmllr-tri3/train/data/feats_fmllr_train.3.ark:872501
mjjm0_sx197 quick_test/data-fmllr-tri3/train/data/feats_fmllr_train.6.ark:13415201
mdcm0_sx220 quick_test/data-fmllr-tri3/train/data/feats_fmllr_train.4.ark:16466571
fklc0_si1615 quick_test/data-fmllr-tri3/train/data/feats_fmllr_train.2.ark:7304084
fjen0_sx417 quick_test/data-fmllr-tri3/train/data/feats_fmllr_train.2.ark:747115
marw0_sx349 quick_test/data-fmllr-tri3/train/data/feats_fmllr_train.4.ark:3247034
mtju0_si760 quick_test/data-fmllr-tri3/train/data/feats_fmllr_train.10.ark:5394889
mdlm0_si604 quick_test/data-fmllr-tri3/train/data/feats_fmllr_train.5.ark:4389336
mvrw0_sx315 quick_test/data-fmllr-tri3/train/data/feats_fmllr_train.10.ark:13299151
mpgr0_si1410 quick_test/data-fmllr-tri3/train/data/feats_fmllr_train.8.ark:7151815
mdwm0_si2176 quick_test/data-fmllr-tri3/train/data/feats_fmllr_train.5.ark:10437103
mbma1_si2214 quick_test/data-fmllr-tri3/train/data/feats_fmllr_train.4.ark:5947996
fmju0_sx219 quick_test/data-fmllr-tri3/train/data/feats_fmllr_train.2.ark:16542468
fcdr1_sx16 quick_test/data-fmllr-tri3/train/data/feats_fmllr_train.1.ark:5875636
fntb0_si679 quick_test/data-fmllr-tri3/train/data/feats_fmllr_train.3.ark:458684
mtpr0_sx250 quick_test/data-fmllr-tri3/train/data/feats_fmllr_train.10.ark:9746771
mkls1_sx105 quick_test/data-fmllr-tri3/train/data/feats_fmllr_train.7.ark:8780229
mjma0_si1495 quick_test/data-fmllr-tri3/train/data/feats_fmllr_train.6.ark:15057912
fdas1_si1461 quick_test/data-fmllr-tri3/train/data/feats_fmllr_train.1.ark:9329219
fsah0_sx434 quick_test/data-fmllr-tri3/train/data/feats_fmllr_train.3.ark:5872972
mjls0_sx376 quick_test/data-fmllr-tri3/train/data/feats_fmllr_train.6.ark:15009724
mcdr0_sx74 quick_test/data-fmllr-tri3/train/data/feats_fmllr_train.4.ark:10082004
fkaa0_si1208 quick_test/data-fmllr-tri3/train/data/feats_fmllr_train.2.ark:5196758
mjrg0_sx106 quick_test/data-fmllr-tri3/train/data/feats_fmllr_train.6.ark:17754074
mljh0_sx154 quick_test/data-fmllr-tri3/train/data/feats_fmllr_train.7.ark:11557909
mjrk0_sx340 quick_test/data-fmllr-tri3/train/data/feats_fmllr_train.7.ark:996424
mkls1_si2175 quick_test/data-fmllr-tri3/train/data/feats_fmllr_train.7.ark:8673135
mewm0_si718 quick_test/data-fmllr-tri3/train/data/feats_fmllr_train.5.ark:13751398
mjpm1_sx311 quick_test/data-fmllr-tri3/train/data/feats_fmllr_train.6.ark:17040894
maeb0_sx360 quick_test/data-fmllr-tri3/train/data/feats_fmllr_train.4.ark:242549
mdlc2_sx354 quick_test/data-fmllr-tri3/train/data/feats_fmllr_train.5.ark:3781944
faem0_si762 quick_test/data-fmllr-tri3/train/data/feats_fmllr_train.1.ark:111588
mbsb0_si723 quick_test/data-fmllr-tri3/train/data/feats_fmllr_train.4.ark:7093636
mjmd0_sx218 quick_test/data-fmllr-tri3/train/data/feats_fmllr_train.6.ark:15578879
mcre0_sx221 quick_test/data-fmllr-tri3/train/data/feats_fmllr_train.4.ark:12640245
fblv0_sx428 quick_test/data-fmllr-tri3/train/data/feats_fmllr_train.1.ark:3985486
fgmb0_si515 quick_test/data-fmllr-tri3/train/data/feats_fmllr_train.1.ark:17186043
mrre0_si1334 quick_test/data-fmllr-tri3/train/data/feats_fmllr_train.9.ark:7416938
fdnc0_sx378 quick_test/data-fmllr-tri3/train/data/feats_fmllr_train.1.ark:12532691
fdnc0_si1278 quick_test/data-fmllr-tri3/train/data/feats_fmllr_train.1.ark:12146741
mdjm0_si1455 quick_test/data-fmllr-tri3/train/data/feats_fmllr_train.5.ark:1555441
flac0_sx181 quick_test/data-fmllr-tri3/train/data/feats_fmllr_train.2.ark:8994795
mwdk0_si806 quick_test/data-fmllr-tri3/train/data/feats_fmllr_train.10.ark:14967358
mclm0_si2086 quick_test/data-fmllr-tri3/train/data/feats_fmllr_train.4.ark:11816369
fskl0_sx89 quick_test/data-fmllr-tri3/train/data/feats_fmllr_train.3.ark:10691123
mrjb1_sx120 quick_test/data-fmllr-tri3/train/data/feats_fmllr_train.9.ark:999088
fear0_sx82 quick_test/data-fmllr-tri3/train/data/feats_fmllr_train.1.ark:14089720
fvmh0_si2096 quick_test/data-fmllr-tri3/train/data/feats_fmllr_train.3.ark:16560195
mtrt0_si1857 quick_test/data-fmllr-tri3/train/data/feats_fmllr_train.10.ark:11267397
mhxl0_sx422 quick_test/data-fmllr-tri3/train/data/feats_fmllr_train.6.ark:6013027
fpjf0_sx146 quick_test/data-fmllr-tri3/train/data/feats_fmllr_train.3.ark:2983374
mrkm0_sx187 quick_test/data-fmllr-tri3/train/data/feats_fmllr_train.9.ark:3128013
fbjl0_sx292 quick_test/data-fmllr-tri3/train/data/feats_fmllr_train.1.ark:3556307
fcaj0_sx219 quick_test/data-fmllr-tri3/train/data/feats_fmllr_train.1.ark:5394460
mejs0_si610 quick_test/data-fmllr-tri3/train/data/feats_fmllr_train.5.ark:12703229
fdjh0_sx305 quick_test/data-fmllr-tri3/train/data/feats_fmllr_train.1.ark:10710008
mmlm0_si1527 quick_test/data-fmllr-tri3/train/data/feats_fmllr_train.8.ark:1439763
fmkf0_sx276 quick_test/data-fmllr-tri3/train/data/feats_fmllr_train.2.ark:17344503
mtab0_sx222 quick_test/data-fmllr-tri3/train/data/feats_fmllr_train.10.ark:724659
fskc0_sx426 quick_test/data-fmllr-tri3/train/data/feats_fmllr_train.3.ark:10260800
mlsh0_si1417 quick_test/data-fmllr-tri3/train/data/feats_fmllr_train.7.ark:12180661
mrml0_sx251 quick_test/data-fmllr-tri3/train/data/feats_fmllr_train.9.ark:6504874
mreh1_sx159 quick_test/data-fmllr-tri3/train/data/feats_fmllr_train.8.ark:15713578
mdhl0_si809 quick_test/data-fmllr-tri3/train/data/feats_fmllr_train.5.ark:919702
mtrr0_si1548 quick_test/data-fmllr-tri3/train/data/feats_fmllr_train.10.ark:10803792
mrav0_si1008 quick_test/data-fmllr-tri3/train/data/feats_fmllr_train.8.ark:12512557
fsdc0_sx322 quick_test/data-fmllr-tri3/train/data/feats_fmllr_train.3.ark:7454134
ftbw0_sx85 quick_test/data-fmllr-tri3/train/data/feats_fmllr_train.3.ark:14932871
mjbg0_si1232 quick_test/data-fmllr-tri3/train/data/feats_fmllr_train.6.ark:7645946
fklh0_sx87 quick_test/data-fmllr-tri3/train/data/feats_fmllr_train.2.ark:8437028
mprt0_sx310 quick_test/data-fmllr-tri3/train/data/feats_fmllr_train.8.ark:10507550
mrfl0_sx76 quick_test/data-fmllr-tri3/train/data/feats_fmllr_train.8.ark:17435353
mcre0_si1751 quick_test/data-fmllr-tri3/train/data/feats_fmllr_train.4.ark:12538431
mdks0_sx436 quick_test/data-fmllr-tri3/train/data/feats_fmllr_train.5.ark:2222542
mjlg1_sx292 quick_test/data-fmllr-tri3/train/data/feats_fmllr_train.6.ark:14561320
mdns0_sx111 quick_test/data-fmllr-tri3/train/data/feats_fmllr_train.5.ark:6466449
mpgr1_si1269 quick_test/data-fmllr-tri3/train/data/feats_fmllr_train.8.ark:7506592
fmkf0_sx366 quick_test/data-fmllr-tri3/train/data/feats_fmllr_train.2.ark:17384530
mrem0_si511 quick_test/data-fmllr-tri3/train/data/feats_fmllr_train.8.ark:16013900
mjrk0_sx160 quick_test/data-fmllr-tri3/train/data/feats_fmllr_train.7.ark:887730
mdss1_sx427 quick_test/data-fmllr-tri3/train/data/feats_fmllr_train.5.ark:9169329
mmwb0_sx359 quick_test/data-fmllr-tri3/train/data/feats_fmllr_train.8.ark:3742905
mdbb1_si1636 quick_test/data-fmllr-tri3/train/data/feats_fmllr_train.4.ark:15179278
ftlg0_si840 quick_test/data-fmllr-tri3/train/data/feats_fmllr_train.3.ark:15123033
fpmy0_sx163 quick_test/data-fmllr-tri3/train/data/feats_fmllr_train.3.ark:3776446
mpar0_sx226 quick_test/data-fmllr-tri3/train/data/feats_fmllr_train.8.ark:5915217
mdlc2_sx444 quick_test/data-fmllr-tri3/train/data/feats_fmllr_train.5.ark:3817011
mmdb0_si987 quick_test/data-fmllr-tri3/train/data/feats_fmllr_train.7.ark:15563253
mmds0_sx353 quick_test/data-fmllr-tri3/train/data/feats_fmllr_train.7.ark:17209002
mdma0_sx80 quick_test/data-fmllr-tri3/train/data/feats_fmllr_train.5.ark:5889962
mjwt0_sx391 quick_test/data-fmllr-tri3/train/data/feats_fmllr_train.7.ark:3210041
mrlr0_sx386 quick_test/data-fmllr-tri3/train/data/feats_fmllr_train.9.ark:5112564
mjfh0_sx117 quick_test/data-fmllr-tri3/train/data/feats_fmllr_train.6.ark:11358223
mrkm0_si1267 quick_test/data-fmllr-tri3/train/data/feats_fmllr_train.9.ark:2892731
mjma0_sx55 quick_test/data-fmllr-tri3/train/data/feats_fmllr_train.6.ark:15374101
mmwb0_sx269 quick_test/data-fmllr-tri3/train/data/feats_fmllr_train.8.ark:3694078
msdb0_sx107 quick_test/data-fmllr-tri3/train/data/feats_fmllr_train.9.ark:12648164
fsjw0_sx343 quick_test/data-fmllr-tri3/train/data/feats_fmllr_train.3.ark:9834796
mntw0_si2328 quick_test/data-fmllr-tri3/train/data/feats_fmllr_train.8.ark:5487266
msfh0_si1216 quick_test/data-fmllr-tri3/train/data/feats_fmllr_train.9.ark:14503249
mbcg0_si2217 quick_test/data-fmllr-tri3/train/data/feats_fmllr_train.4.ark:4113444
fcrz0_sx343 quick_test/data-fmllr-tri3/train/data/feats_fmllr_train.1.ark:8786841
mmws1_si1071 quick_test/data-fmllr-tri3/train/data/feats_fmllr_train.8.ark:4306722
mprk0_sx287 quick_test/data-fmllr-tri3/train/data/feats_fmllr_train.8.ark:10164640
fvkb0_si1159 quick_test/data-fmllr-tri3/train/data/feats_fmllr_train.3.ark:16098030
msvs0_sx38 quick_test/data-fmllr-tri3/train/data/feats_fmllr_train.10.ark:358255
mrcg0_si1428 quick_test/data-fmllr-tri3/train/data/feats_fmllr_train.8.ark:13228352
fecd0_sx248 quick_test/data-fmllr-tri3/train/data/feats_fmllr_train.1.ark:14389537
msah1_sx419 quick_test/data-fmllr-tri3/train/data/feats_fmllr_train.9.ark:11346735
mrtj0_sx52 quick_test/data-fmllr-tri3/train/data/feats_fmllr_train.9.ark:9601355
fkdw0_si1207 quick_test/data-fmllr-tri3/train/data/feats_fmllr_train.2.ark:6053993
fjwb1_sx345 quick_test/data-fmllr-tri3/train/data/feats_fmllr_train.2.ark:4268083
mwch0_si1895 quick_test/data-fmllr-tri3/train/data/feats_fmllr_train.10.ark:14589353
mjrh1_sx424 quick_test/data-fmllr-tri3/train/data/feats_fmllr_train.7.ark:681994
mtjg0_sx350 quick_test/data-fmllr-tri3/train/data/feats_fmllr_train.10.ark:4315919
mabc0_sx421 quick_test/data-fmllr-tri3/train/data/feats_fmllr_train.3.ark:17098787
mrtc0_sx108 quick_test/data-fmllr-tri3/train/data/feats_fmllr_train.9.ark:8931591
mdmt0_si2341 quick_test/data-fmllr-tri3/train/data/feats_fmllr_train.5.ark:5949218
mjhi0_sx338 quick_test/data-fmllr-tri3/train/data/feats_fmllr_train.6.ark:12182550
feme0_sx335 quick_test/data-fmllr-tri3/train/data/feats_fmllr_train.1.ark:15255278
marc0_sx108 quick_test/data-fmllr-tri3/train/data/feats_fmllr_train.4.ark:2775057
mkah0_sx448 quick_test/data-fmllr-tri3/train/data/feats_fmllr_train.7.ark:4713762
flet0_si1137 quick_test/data-fmllr-tri3/train/data/feats_fmllr_train.2.ark:10052325
mgsl0_sx444 quick_test/data-fmllr-tri3/train/data/feats_fmllr_train.6.ark:3032734
mrdd0_sx60 quick_test/data-fmllr-tri3/train/data/feats_fmllr_train.8.ark:14357136
mjda0_sx41 quick_test/data-fmllr-tri3/train/data/feats_fmllr_train.6.ark:8323154
mapv0_si1923 quick_test/data-fmllr-tri3/train/data/feats_fmllr_train.4.ark:2321186
mejs0_si1240 quick_test/data-fmllr-tri3/train/data/feats_fmllr_train.5.ark:12598374
mmrp0_si717 quick_test/data-fmllr-tri3/train/data/feats_fmllr_train.8.ark:2177185
fgmb0_si1145 quick_test/data-fmllr-tri3/train/data/feats_fmllr_train.1.ark:17059428
falk0_sx96 quick_test/data-fmllr-tri3/train/data/feats_fmllr_train.1.ark:1160151
flac0_si901 quick_test/data-fmllr-tri3/train/data/feats_fmllr_train.2.ark:8966768
fsrh0_sx41 quick_test/data-fmllr-tri3/train/data/feats_fmllr_train.3.ark:13434243
mtcs0_sx172 quick_test/data-fmllr-tri3/train/data/feats_fmllr_train.10.ark:2582837
fjwb1_sx75 quick_test/data-fmllr-tri3/train/data/feats_fmllr_train.2.ark:4365896
mmcc0_sx438 quick_test/data-fmllr-tri3/train/data/feats_fmllr_train.7.ark:15383624
mjfr0_sx345 quick_test/data-fmllr-tri3/train/data/feats_fmllr_train.6.ark:11772894
mfmc0_si1762 quick_test/data-fmllr-tri3/train/data/feats_fmllr_train.5.ark:14404445
mdem0_sx158 quick_test/data-fmllr-tri3/train/data/feats_fmllr_train.5.ark:547832
mdns0_sx201 quick_test/data-fmllr-tri3/train/data/feats_fmllr_train.5.ark:6508076
mrtc0_sx198 quick_test/data-fmllr-tri3/train/data/feats_fmllr_train.9.ark:9026044
mjeb0_sx386 quick_test/data-fmllr-tri3/train/data/feats_fmllr_train.6.ark:10380239
fjsp0_sx444 quick_test/data-fmllr-tri3/train/data/feats_fmllr_train.2.ark:3938294
mclk0_sx220 quick_test/data-fmllr-tri3/train/data/feats_fmllr_train.4.ark:11588873
mdhl0_sx179 quick_test/data-fmllr-tri3/train/data/feats_fmllr_train.5.ark:969009
mdsj0_sx438 quick_test/data-fmllr-tri3/train/data/feats_fmllr_train.5.ark:8528441
mlns0_si2037 quick_test/data-fmllr-tri3/train/data/feats_fmllr_train.7.ark:11867992
flja0_si1708 quick_test/data-fmllr-tri3/train/data/feats_fmllr_train.2.ark:10876148
mjfh0_si1737 quick_test/data-fmllr-tri3/train/data/feats_fmllr_train.6.ark:11256729
fcyl0_si667 quick_test/data-fmllr-tri3/train/data/feats_fmllr_train.1.ark:9023297
milb0_sx3 quick_test/data-fmllr-tri3/train/data/feats_fmllr_train.6.ark:6364894
mlbc0_si609 quick_test/data-fmllr-tri3/train/data/feats_fmllr_train.7.ark:10225071
marw0_si646 quick_test/data-fmllr-tri3/train/data/feats_fmllr_train.4.ark:3050287
fetb0_sx158 quick_test/data-fmllr-tri3/train/data/feats_fmllr_train.1.ark:15569361
mdbp0_sx348 quick_test/data-fmllr-tri3/train/data/feats_fmllr_train.4.ark:15723764
mtat0_sx300 quick_test/data-fmllr-tri3/train/data/feats_fmllr_train.10.ark:1542586
fpaf0_sx424 quick_test/data-fmllr-tri3/train/data/feats_fmllr_train.3.ark:2336941
fklc0_sx355 quick_test/data-fmllr-tri3/train/data/feats_fmllr_train.2.ark:7578300
fklc1_si1048 quick_test/data-fmllr-tri3/train/data/feats_fmllr_train.2.ark:7709261
madc0_si1997 quick_test/data-fmllr-tri3/train/data/feats_fmllr_train.3.ark:17247989
fmkf0_si906 quick_test/data-fmllr-tri3/train/data/feats_fmllr_train.2.ark:17253729
flmc0_sx292 quick_test/data-fmllr-tri3/train/data/feats_fmllr_train.2.ark:13040860
makr0_si1982 quick_test/data-fmllr-tri3/train/data/feats_fmllr_train.4.ark:1990569
mpgr0_sx60 quick_test/data-fmllr-tri3/train/data/feats_fmllr_train.8.ark:7457284
mjws0_sx243 quick_test/data-fmllr-tri3/train/data/feats_fmllr_train.7.ark:2592944
mgrl0_si867 quick_test/data-fmllr-tri3/train/data/feats_fmllr_train.6.ark:1588618
mtjm0_si1226 quick_test/data-fmllr-tri3/train/data/feats_fmllr_train.10.ark:4469440
mmws1_sx351 quick_test/data-fmllr-tri3/train/data/feats_fmllr_train.8.ark:4495658
fskc0_sx336 quick_test/data-fmllr-tri3/train/data/feats_fmllr_train.3.ark:10198853
mmgc0_sx225 quick_test/data-fmllr-tri3/train/data/feats_fmllr_train.8.ark:195163
fsag0_sx63 quick_test/data-fmllr-tri3/train/data/feats_fmllr_train.3.ark:5485421
mdlr0_sx243 quick_test/data-fmllr-tri3/train/data/feats_fmllr_train.5.ark:4843527
mzmb0_sx176 quick_test/data-fmllr-tri3/train/data/feats_fmllr_train.10.ark:17744423
mrre0_sx344 quick_test/data-fmllr-tri3/train/data/feats_fmllr_train.9.ark:7734193
mpgr1_sx149 quick_test/data-fmllr-tri3/train/data/feats_fmllr_train.8.ark:7646675
fclt0_sx268 quick_test/data-fmllr-tri3/train/data/feats_fmllr_train.1.ark:7593042
medr0_si2004 quick_test/data-fmllr-tri3/train/data/feats_fmllr_train.5.ark:11117058
mgag0_sx61 quick_test/data-fmllr-tri3/train/data/feats_fmllr_train.5.ark:16879670
flma0_sx73 quick_test/data-fmllr-tri3/train/data/feats_fmllr_train.2.ark:12782777
msdh0_sx350 quick_test/data-fmllr-tri3/train/data/feats_fmllr_train.9.ark:13033875
fljg0_si1611 quick_test/data-fmllr-tri3/train/data/feats_fmllr_train.2.ark:11583595
mmws1_sx441 quick_test/data-fmllr-tri3/train/data/feats_fmllr_train.8.ark:4545125
mjpm1_si1897 quick_test/data-fmllr-tri3/train/data/feats_fmllr_train.6.ark:16841558
mjxl0_sx362 quick_test/data-fmllr-tri3/train/data/feats_fmllr_train.7.ark:3842582
mjpm0_sx378 quick_test/data-fmllr-tri3/train/data/feats_fmllr_train.6.ark:16792730
fmju0_si1389 quick_test/data-fmllr-tri3/train/data/feats_fmllr_train.2.ark:16331479
mbom0_sx204 quick_test/data-fmllr-tri3/train/data/feats_fmllr_train.4.ark:6846752
maeo0_sx156 quick_test/data-fmllr-tri3/train/data/feats_fmllr_train.4.ark:517913
fljd0_sx346 quick_test/data-fmllr-tri3/train/data/feats_fmllr_train.2.ark:11453274
mjdc0_sx261 quick_test/data-fmllr-tri3/train/data/feats_fmllr_train.6.ark:8583931
mbbr0_si1055 quick_test/data-fmllr-tri3/train/data/feats_fmllr_train.4.ark:3752266
mjkr0_si571 quick_test/data-fmllr-tri3/train/data/feats_fmllr_train.6.ark:13664778
mjfr0_si1605 quick_test/data-fmllr-tri3/train/data/feats_fmllr_train.6.ark:11522678
mkes0_sx173 quick_test/data-fmllr-tri3/train/data/feats_fmllr_train.7.ark:6904582
mjdc0_sx441 quick_test/data-fmllr-tri3/train/data/feats_fmllr_train.6.ark:8660145
feme0_sx155 quick_test/data-fmllr-tri3/train/data/feats_fmllr_train.1.ark:15155704
mjkr0_sx391 quick_test/data-fmllr-tri3/train/data/feats_fmllr_train.6.ark:13911472
fcrz0_sx73 quick_test/data-fmllr-tri3/train/data/feats_fmllr_train.1.ark:8883854
fbjl0_sx22 quick_test/data-fmllr-tri3/train/data/feats_fmllr_train.1.ark:3509560
mlel0_si1876 quick_test/data-fmllr-tri3/train/data/feats_fmllr_train.7.ark:10550861
msdh0_sx80 quick_test/data-fmllr-tri3/train/data/feats_fmllr_train.9.ark:13156648
fdml0_sx339 quick_test/data-fmllr-tri3/train/data/feats_fmllr_train.1.ark:11482124
fsak0_sx400 quick_test/data-fmllr-tri3/train/data/feats_fmllr_train.3.ark:6290175
fmbg0_si1790 quick_test/data-fmllr-tri3/train/data/feats_fmllr_train.2.ark:14791121
mrsp0_si799 quick_test/data-fmllr-tri3/train/data/feats_fmllr_train.9.ark:8475187
fdas1_sx291 quick_test/data-fmllr-tri3/train/data/feats_fmllr_train.1.ark:9649061
fmju0_sx309 quick_test/data-fmllr-tri3/train/data/feats_fmllr_train.2.ark:16590495
mtwh1_sx252 quick_test/data-fmllr-tri3/train/data/feats_fmllr_train.10.ark:11715215
mejs0_sx70 quick_test/data-fmllr-tri3/train/data/feats_fmllr_train.5.ark:12958403
flkm0_si686 quick_test/data-fmllr-tri3/train/data/feats_fmllr_train.2.ark:12179546
mljh0_sx64 quick_test/data-fmllr-tri3/train/data/feats_fmllr_train.7.ark:11783456
mrms0_si2057 quick_test/data-fmllr-tri3/train/data/feats_fmllr_train.9.ark:6802770
fsbk0_sx169 quick_test/data-fmllr-tri3/train/data/feats_fmllr_train.3.ark:6455886
fcag0_sx243 quick_test/data-fmllr-tri3/train/data/feats_fmllr_train.1.ark:5040003
mtrc0_sx170 quick_test/data-fmllr-tri3/train/data/feats_fmllr_train.10.ark:10604777
mmws0_si1518 quick_test/data-fmllr-tri3/train/data/feats_fmllr_train.8.ark:3940266
mkdb0_sx152 quick_test/data-fmllr-tri3/train/data/feats_fmllr_train.7.ark:5688572
mtpr0_sx70 quick_test/data-fmllr-tri3/train/data/feats_fmllr_train.10.ark:9926851
fjen0_sx147 quick_test/data-fmllr-tri3/train/data/feats_fmllr_train.2.ark:571034
msat1_si1703 quick_test/data-fmllr-tri3/train/data/feats_fmllr_train.9.ark:12208051
fvfb0_sx402 quick_test/data-fmllr-tri3/train/data/feats_fmllr_train.3.ark:16031576
msvs0_si2198 quick_test/data-fmllr-tri3/train/data/feats_fmllr_train.10.ark:41321
mfwk0_si1879 quick_test/data-fmllr-tri3/train/data/feats_fmllr_train.5.ark:15163120
mklw0_sx401 quick_test/data-fmllr-tri3/train/data/feats_fmllr_train.7.ark:9290608
mkdt0_si814 quick_test/data-fmllr-tri3/train/data/feats_fmllr_train.7.ark:6362391
mjjb0_sx419 quick_test/data-fmllr-tri3/train/data/feats_fmllr_train.6.ark:12641195
mhbs0_si2205 quick_test/data-fmllr-tri3/train/data/feats_fmllr_train.6.ark:3607270
mfer0_sx412 quick_test/data-fmllr-tri3/train/data/feats_fmllr_train.5.ark:14270283
mrav0_sx378 quick_test/data-fmllr-tri3/train/data/feats_fmllr_train.8.ark:12811947
mtjs0_sx112 quick_test/data-fmllr-tri3/train/data/feats_fmllr_train.10.ark:5058059
fspm0_sx431 quick_test/data-fmllr-tri3/train/data/feats_fmllr_train.3.ark:13040880
faem0_sx402 quick_test/data-fmllr-tri3/train/data/feats_fmllr_train.1.ark:304336
fceg0_sx258 quick_test/data-fmllr-tri3/train/data/feats_fmllr_train.1.ark:6221134
mdem0_si608 quick_test/data-fmllr-tri3/train/data/feats_fmllr_train.5.ark:393858
mrkm0_sx97 quick_test/data-fmllr-tri3/train/data/feats_fmllr_train.9.ark:3340918
mrew1_si2130 quick_test/data-fmllr-tri3/train/data/feats_fmllr_train.8.ark:16392517
mtat1_si1627 quick_test/data-fmllr-tri3/train/data/feats_fmllr_train.10.ark:1668749
mjpg0_si561 quick_test/data-fmllr-tri3/train/data/feats_fmllr_train.6.ark:16212219
mpar0_sx406 quick_test/data-fmllr-tri3/train/data/feats_fmllr_train.8.ark:5989671
mnet0_sx366 quick_test/data-fmllr-tri3/train/data/feats_fmllr_train.8.ark:5191131
mapv0_sx303 quick_test/data-fmllr-tri3/train/data/feats_fmllr_train.4.ark:2544814
meal0_sx287 quick_test/data-fmllr-tri3/train/data/feats_fmllr_train.5.ark:10946708
mdtb0_si1200 quick_test/data-fmllr-tri3/train/data/feats_fmllr_train.5.ark:9250983
fjlr0_sx151 quick_test/data-fmllr-tri3/train/data/feats_fmllr_train.2.ark:2135264
marc0_si558 quick_test/data-fmllr-tri3/train/data/feats_fmllr_train.4.ark:2720630
mjxl0_sx92 quick_test/data-fmllr-tri3/train/data/feats_fmllr_train.7.ark:3964715
mjkr0_sx301 quick_test/data-fmllr-tri3/train/data/feats_fmllr_train.6.ark:13819899
maeb0_sx270 quick_test/data-fmllr-tri3/train/data/feats_fmllr_train.4.ark:201882
mljh0_sx424 quick_test/data-fmllr-tri3/train/data/feats_fmllr_train.7.ark:11725830
mjae0_sx264 quick_test/data-fmllr-tri3/train/data/feats_fmllr_train.6.ark:7044822
mdcm0_si1480 quick_test/data-fmllr-tri3/train/data/feats_fmllr_train.4.ark:16264542
fltm0_sx440 quick_test/data-fmllr-tri3/train/data/feats_fmllr_train.2.ark:14239622
mgar0_si1212 quick_test/data-fmllr-tri3/train/data/feats_fmllr_train.6.ark:13
msfh0_sx46 quick_test/data-fmllr-tri3/train/data/feats_fmllr_train.9.ark:14934158
mrpc1_si2026 quick_test/data-fmllr-tri3/train/data/feats_fmllr_train.9.ark:7143468
mmbs0_sx251 quick_test/data-fmllr-tri3/train/data/feats_fmllr_train.7.ark:14880313
mesj0_si2257 quick_test/data-fmllr-tri3/train/data/feats_fmllr_train.5.ark:13431316
msvs0_sx218 quick_test/data-fmllr-tri3/train/data/feats_fmllr_train.10.ark:249402
mclk0_sx400 quick_test/data-fmllr-tri3/train/data/feats_fmllr_train.4.ark:11725433
mcpm0_si1824 quick_test/data-fmllr-tri3/train/data/feats_fmllr_train.4.ark:12146346
mtxs0_sx250 quick_test/data-fmllr-tri3/train/data/feats_fmllr_train.10.ark:12125513
mjhi0_sx158 quick_test/data-fmllr-tri3/train/data/feats_fmllr_train.6.ark:12114816
mjae0_si1524 quick_test/data-fmllr-tri3/train/data/feats_fmllr_train.6.ark:6859592
fljg0_sx171 quick_test/data-fmllr-tri3/train/data/feats_fmllr_train.2.ark:11750717
mpgh0_sx294 quick_test/data-fmllr-tri3/train/data/feats_fmllr_train.8.ark:7086480
mdbb1_sx196 quick_test/data-fmllr-tri3/train/data/feats_fmllr_train.4.ark:15338426
mcal0_si508 quick_test/data-fmllr-tri3/train/data/feats_fmllr_train.4.ark:8700259
mter0_sx437 quick_test/data-fmllr-tri3/train/data/feats_fmllr_train.10.ark:3977809
milb0_sx273 quick_test/data-fmllr-tri3/train/data/feats_fmllr_train.6.ark:6330789
mljc0_si595 quick_test/data-fmllr-tri3/train/data/feats_fmllr_train.7.ark:11057825
mjeb0_si656 quick_test/data-fmllr-tri3/train/data/feats_fmllr_train.6.ark:10139625
mljh0_si1422 quick_test/data-fmllr-tri3/train/data/feats_fmllr_train.7.ark:11379455
mtml0_sx165 quick_test/data-fmllr-tri3/train/data/feats_fmllr_train.10.ark:7399842
feeh0_sx212 quick_test/data-fmllr-tri3/train/data/feats_fmllr_train.1.ark:14798074
mmgk0_sx332 quick_test/data-fmllr-tri3/train/data/feats_fmllr_train.8.ark:912745
fpls0_si960 quick_test/data-fmllr-tri3/train/data/feats_fmllr_train.3.ark:3288524
mrld0_si1594 quick_test/data-fmllr-tri3/train/data/feats_fmllr_train.9.ark:3385266
fjrb0_si1932 quick_test/data-fmllr-tri3/train/data/feats_fmllr_train.2.ark:2443267
fvmh0_si1466 quick_test/data-fmllr-tri3/train/data/feats_fmllr_train.3.ark:16493127
mrew1_si870 quick_test/data-fmllr-tri3/train/data/feats_fmllr_train.8.ark:16413504
mtpr0_si2230 quick_test/data-fmllr-tri3/train/data/feats_fmllr_train.10.ark:9569570
mpgr0_si2040 quick_test/data-fmllr-tri3/train/data/feats_fmllr_train.8.ark:7217123
mjlb0_sx86 quick_test/data-fmllr-tri3/train/data/feats_fmllr_train.6.ark:14267369
mtlc0_si1313 quick_test/data-fmllr-tri3/train/data/feats_fmllr_train.10.ark:6890262
mjrh0_si1840 quick_test/data-fmllr-tri3/train/data/feats_fmllr_train.7.ark:89029
fpad0_sx266 quick_test/data-fmllr-tri3/train/data/feats_fmllr_train.3.ark:1839389
mmdm0_si1311 quick_test/data-fmllr-tri3/train/data/feats_fmllr_train.7.ark:16233392
mdlh0_sx340 quick_test/data-fmllr-tri3/train/data/feats_fmllr_train.5.ark:4176880
mded0_sx360 quick_test/data-fmllr-tri3/train/data/feats_fmllr_train.4.ark:17263672
mrew1_si1500 quick_test/data-fmllr-tri3/train/data/feats_fmllr_train.8.ark:16352169
fgcs0_si856 quick_test/data-fmllr-tri3/train/data/feats_fmllr_train.1.ark:16336009
mkdd0_sx217 quick_test/data-fmllr-tri3/train/data/feats_fmllr_train.7.ark:6173456
fjsp0_sx354 quick_test/data-fmllr-tri3/train/data/feats_fmllr_train.2.ark:3894747
mtdb0_sx51 quick_test/data-fmllr-tri3/train/data/feats_fmllr_train.10.ark:3177561
fjlr0_sx331 quick_test/data-fmllr-tri3/train/data/feats_fmllr_train.2.ark:2232438
mcdr0_sx434 quick_test/data-fmllr-tri3/train/data/feats_fmllr_train.4.ark:10041178
mewm0_sx88 quick_test/data-fmllr-tri3/train/data/feats_fmllr_train.5.ark:13974412
fklc0_sx85 quick_test/data-fmllr-tri3/train/data/feats_fmllr_train.2.ark:7666193
mjjm0_si1251 quick_test/data-fmllr-tri3/train/data/feats_fmllr_train.6.ark:13161626
mgak0_sx136 quick_test/data-fmllr-tri3/train/data/feats_fmllr_train.5.ark:17080421
fjxp0_si1122 quick_test/data-fmllr-tri3/train/data/feats_fmllr_train.2.ark:4841021
mdjm0_sx375 quick_test/data-fmllr-tri3/train/data/feats_fmllr_train.5.ark:1880910
mbcg0_si957 quick_test/data-fmllr-tri3/train/data/feats_fmllr_train.4.ark:4183098
fkfb0_sx168 quick_test/data-fmllr-tri3/train/data/feats_fmllr_train.2.ark:6598132
fmjf0_sx444 quick_test/data-fmllr-tri3/train/data/feats_fmllr_train.2.ark:16216065
fmem0_si1377 quick_test/data-fmllr-tri3/train/data/feats_fmllr_train.2.ark:15090989
msds0_sx267 quick_test/data-fmllr-tri3/train/data/feats_fmllr_train.9.ark:13429586
mbsb0_sx3 quick_test/data-fmllr-tri3/train/data/feats_fmllr_train.4.ark:7209235
flma0_sx163 quick_test/data-fmllr-tri3/train/data/feats_fmllr_train.2.ark:12620910
mrab1_sx308 quick_test/data-fmllr-tri3/train/data/feats_fmllr_train.8.ark:11565801
mesg0_sx342 quick_test/data-fmllr-tri3/train/data/feats_fmllr_train.5.ark:13213127
mrdd0_si1050 quick_test/data-fmllr-tri3/train/data/feats_fmllr_train.8.ark:14046066
mtjm0_sx236 quick_test/data-fmllr-tri3/train/data/feats_fmllr_train.10.ark:4685549
mpeb0_sx60 quick_test/data-fmllr-tri3/train/data/feats_fmllr_train.8.ark:6365114
mejs0_si1870 quick_test/data-fmllr-tri3/train/data/feats_fmllr_train.5.ark:12666562
mjrk0_sx430 quick_test/data-fmllr-tri3/train/data/feats_fmllr_train.7.ark:1041411
mjls0_si1726 quick_test/data-fmllr-tri3/train/data/feats_fmllr_train.6.ark:14711003
mdpk0_si1053 quick_test/data-fmllr-tri3/train/data/feats_fmllr_train.5.ark:7068081
mwgr0_sx346 quick_test/data-fmllr-tri3/train/data/feats_fmllr_train.10.ark:15894594
mgar0_sx42 quick_test/data-fmllr-tri3/train/data/feats_fmllr_train.6.ark:347883
mmdm0_sx411 quick_test/data-fmllr-tri3/train/data/feats_fmllr_train.7.ark:16521715
feac0_sx345 quick_test/data-fmllr-tri3/train/data/feats_fmllr_train.1.ark:13598250
mdas0_si1266 quick_test/data-fmllr-tri3/train/data/feats_fmllr_train.4.ark:14766236
mcae0_sx97 quick_test/data-fmllr-tri3/train/data/feats_fmllr_train.4.ark:8563216
flac0_sx361 quick_test/data-fmllr-tri3/train/data/feats_fmllr_train.2.ark:9082849
msds0_sx357 quick_test/data-fmllr-tri3/train/data/feats_fmllr_train.9.ark:13497133
mwrp0_si1443 quick_test/data-fmllr-tri3/train/data/feats_fmllr_train.10.ark:16419533
fkdw0_sx217 quick_test/data-fmllr-tri3/train/data/feats_fmllr_train.2.ark:6284662
fkfb0_si2238 quick_test/data-fmllr-tri3/train/data/feats_fmllr_train.2.ark:6506558
mjfr0_sx75 quick_test/data-fmllr-tri3/train/data/feats_fmllr_train.6.ark:11902867
fsag0_sx423 quick_test/data-fmllr-tri3/train/data/feats_fmllr_train.3.ark:5415795
mbth0_sx392 quick_test/data-fmllr-tri3/train/data/feats_fmllr_train.4.ark:7656704
fapb0_sx253 quick_test/data-fmllr-tri3/train/data/feats_fmllr_train.1.ark:1818106
mljh0_si1324 quick_test/data-fmllr-tri3/train/data/feats_fmllr_train.7.ark:11325187
mmvp0_sx294 quick_test/data-fmllr-tri3/train/data/feats_fmllr_train.8.ark:3263647
mjeb1_si2097 quick_test/data-fmllr-tri3/train/data/feats_fmllr_train.6.ark:10492135
mdwh0_sx35 quick_test/data-fmllr-tri3/train/data/feats_fmllr_train.5.ark:10286460
mreh1_sx69 quick_test/data-fmllr-tri3/train/data/feats_fmllr_train.8.ark:15912085
mram0_sx195 quick_test/data-fmllr-tri3/train/data/feats_fmllr_train.8.ark:12384795
mmgk0_sx62 quick_test/data-fmllr-tri3/train/data/feats_fmllr_train.8.ark:998238
mwsb0_si2256 quick_test/data-fmllr-tri3/train/data/feats_fmllr_train.10.ark:16839937
mtpr0_si506 quick_test/data-fmllr-tri3/train/data/feats_fmllr_train.10.ark:9650717
mgjc0_si1256 quick_test/data-fmllr-tri3/train/data/feats_fmllr_train.6.ark:1075385
mtwh1_si2142 quick_test/data-fmllr-tri3/train/data/feats_fmllr_train.10.ark:11607934
mgjc0_sx165 quick_test/data-fmllr-tri3/train/data/feats_fmllr_train.6.ark:1222828
fsjs0_sx451 quick_test/data-fmllr-tri3/train/data/feats_fmllr_train.3.ark:9472846
fhlm0_si1560 quick_test/data-fmllr-tri3/train/data/feats_fmllr_train.1.ark:17959863
frll0_sx254 quick_test/data-fmllr-tri3/train/data/feats_fmllr_train.3.ark:4924644
mrkm0_sx7 quick_test/data-fmllr-tri3/train/data/feats_fmllr_train.9.ark:3287132
mhrm0_sx328 quick_test/data-fmllr-tri3/train/data/feats_fmllr_train.6.ark:5560464
fmem0_si2007 quick_test/data-fmllr-tri3/train/data/feats_fmllr_train.2.ark:15152617
mefg0_sx195 quick_test/data-fmllr-tri3/train/data/feats_fmllr_train.5.ark:11691460
fvmh0_sx26 quick_test/data-fmllr-tri3/train/data/feats_fmllr_train.3.ark:16751982
mjae0_sx444 quick_test/data-fmllr-tri3/train/data/feats_fmllr_train.6.ark:7141836
fmjf0_sx264 quick_test/data-fmllr-tri3/train/data/feats_fmllr_train.2.ark:16126251
freh0_sx415 quick_test/data-fmllr-tri3/train/data/feats_fmllr_train.3.ark:4274664
mdrd0_si2012 quick_test/data-fmllr-tri3/train/data/feats_fmllr_train.5.ark:7806943
mtjm0_sx416 quick_test/data-fmllr-tri3/train/data/feats_fmllr_train.10.ark:4765123
msah1_sx239 quick_test/data-fmllr-tri3/train/data/feats_fmllr_train.9.ark:11252281
msas0_si2006 quick_test/data-fmllr-tri3/train/data/feats_fmllr_train.9.ark:11499457
mtpr0_si1600 quick_test/data-fmllr-tri3/train/data/feats_fmllr_train.10.ark:9517702
mvlo0_sx157 quick_test/data-fmllr-tri3/train/data/feats_fmllr_train.10.ark:12856320
mgxp0_si457 quick_test/data-fmllr-tri3/train/data/feats_fmllr_train.6.ark:3218895
fbmj0_si1776 quick_test/data-fmllr-tri3/train/data/feats_fmllr_train.1.ark:4460317
msmr0_sx55 quick_test/data-fmllr-tri3/train/data/feats_fmllr_train.9.ark:16555505
mjai0_si1604 quick_test/data-fmllr-tri3/train/data/feats_fmllr_train.6.ark:7268130
mctm0_si1350 quick_test/data-fmllr-tri3/train/data/feats_fmllr_train.4.ark:13609265
mcef0_si1765 quick_test/data-fmllr-tri3/train/data/feats_fmllr_train.4.ark:10169740
mrem0_sx331 quick_test/data-fmllr-tri3/train/data/feats_fmllr_train.8.ark:16207608
mmdg0_sx340 quick_test/data-fmllr-tri3/train/data/feats_fmllr_train.7.ark:16099231
mgak0_si1036 quick_test/data-fmllr-tri3/train/data/feats_fmllr_train.5.ark:16923058
mnet0_sx186 quick_test/data-fmllr-tri3/train/data/feats_fmllr_train.8.ark:5119717
mcdr0_sx254 quick_test/data-fmllr-tri3/train/data/feats_fmllr_train.4.ark:9968324
mklw0_si2201 quick_test/data-fmllr-tri3/train/data/feats_fmllr_train.7.ark:9096900
msmr0_sx145 quick_test/data-fmllr-tri3/train/data/feats_fmllr_train.9.ark:16386918
fnkl0_si1522 quick_test/data-fmllr-tri3/train/data/feats_fmllr_train.3.ark:13
fceg0_sx168 quick_test/data-fmllr-tri3/train/data/feats_fmllr_train.1.ark:6191987
frll0_si1514 quick_test/data-fmllr-tri3/train/data/feats_fmllr_train.3.ark:4704856
fmah1_si879 quick_test/data-fmllr-tri3/train/data/feats_fmllr_train.2.ark:14411091
mrlk0_si1468 quick_test/data-fmllr-tri3/train/data/feats_fmllr_train.9.ark:4399358
flmk0_si2295 quick_test/data-fmllr-tri3/train/data/feats_fmllr_train.2.ark:13317958
mcew0_si2072 quick_test/data-fmllr-tri3/train/data/feats_fmllr_train.4.ark:10537957
msfv0_sx182 quick_test/data-fmllr-tri3/train/data/feats_fmllr_train.9.ark:15153788
fetb0_sx338 quick_test/data-fmllr-tri3/train/data/feats_fmllr_train.1.ark:15646855
fmkf0_si1536 quick_test/data-fmllr-tri3/train/data/feats_fmllr_train.2.ark:17201702
fkkh0_si1920 quick_test/data-fmllr-tri3/train/data/feats_fmllr_train.2.ark:6962455
fhlm0_sx120 quick_test/data-fmllr-tri3/train/data/feats_fmllr_train.1.ark:18077065
mzmb0_sx86 quick_test/data-fmllr-tri3/train/data/feats_fmllr_train.10.ark:17940210
mjjb0_si1277 quick_test/data-fmllr-tri3/train/data/feats_fmllr_train.6.ark:12393539
mmgg0_sx179 quick_test/data-fmllr-tri3/train/data/feats_fmllr_train.8.ark:498234
fcke0_sx121 quick_test/data-fmllr-tri3/train/data/feats_fmllr_train.1.ark:7224478
mjra0_si606 quick_test/data-fmllr-tri3/train/data/feats_fmllr_train.6.ark:17322630
mjrh1_sx244 quick_test/data-fmllr-tri3/train/data/feats_fmllr_train.7.ark:594420
mpeb0_sx330 quick_test/data-fmllr-tri3/train/data/feats_fmllr_train.8.ark:6262501
mfrm0_sx75 quick_test/data-fmllr-tri3/train/data/feats_fmllr_train.5.ark:15087064
flmc0_sx336 quick_test/data-fmllr-tri3/train/data/feats_fmllr_train.2.ark:13094967
flag0_si2094 quick_test/data-fmllr-tri3/train/data/feats_fmllr_train.2.ark:9301838
mjls0_si466 quick_test/data-fmllr-tri3/train/data/feats_fmllr_train.6.ark:14800790
mjkr0_si1831 quick_test/data-fmllr-tri3/train/data/feats_fmllr_train.6.ark:13615791
fdml0_si2075 quick_test/data-fmllr-tri3/train/data/feats_fmllr_train.1.ark:11379483
fkkh0_sx30 quick_test/data-fmllr-tri3/train/data/feats_fmllr_train.2.ark:7181762
mtbc0_si1803 quick_test/data-fmllr-tri3/train/data/feats_fmllr_train.10.ark:2089446
mmab1_sx54 quick_test/data-fmllr-tri3/train/data/feats_fmllr_train.7.ark:13354244
fpmy0_sx253 quick_test/data-fmllr-tri3/train/data/feats_fmllr_train.3.ark:3859700
mdlc2_si984 quick_test/data-fmllr-tri3/train/data/feats_fmllr_train.5.ark:3621383
mjws0_si1143 quick_test/data-fmllr-tri3/train/data/feats_fmllr_train.7.ark:2403875
mdhs0_si1530 quick_test/data-fmllr-tri3/train/data/feats_fmllr_train.5.ark:1207864
mtrc0_sx363 quick_test/data-fmllr-tri3/train/data/feats_fmllr_train.10.ark:10734298
meal0_sx197 quick_test/data-fmllr-tri3/train/data/feats_fmllr_train.5.ark:10917401
frll0_si805 quick_test/data-fmllr-tri3/train/data/feats_fmllr_train.3.ark:4743443
mkag0_si2239 quick_test/data-fmllr-tri3/train/data/feats_fmllr_train.7.ark:4075651
ftlg0_si1743 quick_test/data-fmllr-tri3/train/data/feats_fmllr_train.3.ark:14971459
mmvp0_sx347 quick_test/data-fmllr-tri3/train/data/feats_fmllr_train.8.ark:3309594
fpac0_si1921 quick_test/data-fmllr-tri3/train/data/feats_fmllr_train.3.ark:1188503
fpaf0_sx334 quick_test/data-fmllr-tri3/train/data/feats_fmllr_train.3.ark:2290994
mmgk0_si1952 quick_test/data-fmllr-tri3/train/data/feats_fmllr_train.8.ark:793277
mcre0_sx401 quick_test/data-fmllr-tri3/train/data/feats_fmllr_train.4.ark:12729098
msas0_sx206 quick_test/data-fmllr-tri3/train/data/feats_fmllr_train.9.ark:11667698
mgrl0_sx147 quick_test/data-fmllr-tri3/train/data/feats_fmllr_train.6.ark:1649925
flma0_si613 quick_test/data-fmllr-tri3/train/data/feats_fmllr_train.2.ark:12567283
fpab1_sx211 quick_test/data-fmllr-tri3/train/data/feats_fmllr_train.3.ark:1006475
mwac0_sx431 quick_test/data-fmllr-tri3/train/data/feats_fmllr_train.10.ark:13770915
fsls0_si2316 quick_test/data-fmllr-tri3/train/data/feats_fmllr_train.3.ark:11197984
mrhl0_sx345 quick_test/data-fmllr-tri3/train/data/feats_fmllr_train.9.ark:652204
fdxw0_sx431 quick_test/data-fmllr-tri3/train/data/feats_fmllr_train.1.ark:13265740
mkls0_si2067 quick_test/data-fmllr-tri3/train/data/feats_fmllr_train.7.ark:8317585
ftlg0_sx123 quick_test/data-fmllr-tri3/train/data/feats_fmllr_train.3.ark:15164980
mtjg0_sx260 quick_test/data-fmllr-tri3/train/data/feats_fmllr_train.10.ark:4270132
fbcg1_sx262 quick_test/data-fmllr-tri3/train/data/feats_fmllr_train.1.ark:2640621
mbcg0_si486 quick_test/data-fmllr-tri3/train/data/feats_fmllr_train.4.ark:4155871
mmeb0_si727 quick_test/data-fmllr-tri3/train/data/feats_fmllr_train.7.ark:17750315
mjwt0_si1381 quick_test/data-fmllr-tri3/train/data/feats_fmllr_train.7.ark:2892920
mtrt0_sx147 quick_test/data-fmllr-tri3/train/data/feats_fmllr_train.10.ark:11359291
mjjm0_si1457 quick_test/data-fmllr-tri3/train/data/feats_fmllr_train.6.ark:13239894
fltm0_sx350 quick_test/data-fmllr-tri3/train/data/feats_fmllr_train.2.ark:14164395
fscn0_sx86 quick_test/data-fmllr-tri3/train/data/feats_fmllr_train.3.ark:7182129
mtjm0_si655 quick_test/data-fmllr-tri3/train/data/feats_fmllr_train.10.ark:4585975
mtat1_si779 quick_test/data-fmllr-tri3/train/data/feats_fmllr_train.10.ark:1701256
mdhl0_sx269 quick_test/data-fmllr-tri3/train/data/feats_fmllr_train.5.ark:1017356
fsah0_si614 quick_test/data-fmllr-tri3/train/data/feats_fmllr_train.3.ark:5639584
mrre0_sx74 quick_test/data-fmllr-tri3/train/data/feats_fmllr_train.9.ark:7824806
mrtj0_sx142 quick_test/data-fmllr-tri3/train/data/feats_fmllr_train.9.ark:9359648
fklc0_sx175 quick_test/data-fmllr-tri3/train/data/feats_fmllr_train.2.ark:7447046
fpmy0_sx73 quick_test/data-fmllr-tri3/train/data/feats_fmllr_train.3.ark:3959913
meal0_sx347 quick_test/data-fmllr-tri3/train/data/feats_fmllr_train.5.ark:10988335
msdh0_si2240 quick_test/data-fmllr-tri3/train/data/feats_fmllr_train.9.ark:12821927
mlel0_sx166 quick_test/data-fmllr-tri3/train/data/feats_fmllr_train.7.ark:10662755
fsah0_sx327 quick_test/data-fmllr-tri3/train/data/feats_fmllr_train.3.ark:5760758
falk0_sx6 quick_test/data-fmllr-tri3/train/data/feats_fmllr_train.1.ark:1121405
fjxm0_si1971 quick_test/data-fmllr-tri3/train/data/feats_fmllr_train.2.ark:4451712
fdmy0_sx27 quick_test/data-fmllr-tri3/train/data/feats_fmllr_train.1.ark:11980899
msfv0_si1262 quick_test/data-fmllr-tri3/train/data/feats_fmllr_train.9.ark:14979466
makr0_sx452 quick_test/data-fmllr-tri3/train/data/feats_fmllr_train.4.ark:2167824
mmws1_sx81 quick_test/data-fmllr-tri3/train/data/feats_fmllr_train.8.ark:4580511
mkls1_sx375 quick_test/data-fmllr-tri3/train/data/feats_fmllr_train.7.ark:8939376
ftbr0_si2181 quick_test/data-fmllr-tri3/train/data/feats_fmllr_train.3.ark:14284653
fmkc0_si1041 quick_test/data-fmllr-tri3/train/data/feats_fmllr_train.2.ark:16733616
mmdg0_sx160 quick_test/data-fmllr-tri3/train/data/feats_fmllr_train.7.ark:15979657
mgrl0_si1497 quick_test/data-fmllr-tri3/train/data/feats_fmllr_train.6.ark:1506803
mpgh0_sx384 quick_test/data-fmllr-tri3/train/data/feats_fmllr_train.8.ark:7118987
mdbb1_sx106 quick_test/data-fmllr-tri3/train/data/feats_fmllr_train.4.ark:15269413
mcdr0_si524 quick_test/data-fmllr-tri3/train/data/feats_fmllr_train.4.ark:9831310
mmdg0_sx70 quick_test/data-fmllr-tri3/train/data/feats_fmllr_train.7.ark:16216884
fdtd0_si931 quick_test/data-fmllr-tri3/train/data/feats_fmllr_train.1.ark:12689414
mtcs0_si1972 quick_test/data-fmllr-tri3/train/data/feats_fmllr_train.10.ark:2446435
mclk0_si1660 quick_test/data-fmllr-tri3/train/data/feats_fmllr_train.4.ark:11365724
mwar0_si2305 quick_test/data-fmllr-tri3/train/data/feats_fmllr_train.10.ark:14290443
