flod0_sx207 quick_test/mfcc/raw_mfcc_train.1.ark:2742027
mtrt0_sx57 quick_test/mfcc/raw_mfcc_train.4.ark:3265336
mfwk0_si1879 quick_test/mfcc/raw_mfcc_train.2.ark:3493678
fsmm0_sx234 quick_test/mfcc/raw_mfcc_train.2.ark:258233
fclt0_sx358 quick_test/mfcc/raw_mfcc_train.1.ark:642276
falr0_sx65 quick_test/mfcc/raw_mfcc_train.1.ark:128603
mapv0_sx123 quick_test/mfcc/raw_mfcc_train.2.ark:958909
mmsm0_sx26 quick_test/mfcc/raw_mfcc_train.3.ark:3264119
makb0_sx26 quick_test/mfcc/raw_mfcc_train.2.ark:908186
fmpg0_si1602 quick_test/mfcc/raw_mfcc_train.1.ark:3086166
mkdb0_sx332 quick_test/mfcc/raw_mfcc_train.3.ark:1998788
fgcs0_si2116 quick_test/mfcc/raw_mfcc_train.1.ark:1368012
mtwh1_sx72 quick_test/mfcc/raw_mfcc_train.4.ark:3294383
mjai0_sx74 quick_test/mfcc/raw_mfcc_train.3.ark:639698
fsjg0_sx130 quick_test/mfcc/raw_mfcc_train.1.ark:3840635
mcew0_sx452 quick_test/mfcc/raw_mfcc_train.2.ark:1667290
fgmb0_si515 quick_test/mfcc/raw_mfcc_train.1.ark:1443065
mrsp0_sx169 quick_test/mfcc/raw_mfcc_train.4.ark:1490425
fmmh0_si907 quick_test/mfcc/raw_mfcc_train.1.ark:3063194
mgrp0_si1317 quick_test/mfcc/raw_mfcc_train.3.ark:157847
mdks0_si2326 quick_test/mfcc/raw_mfcc_train.2.ark:2385730
mclm0_sx196 quick_test/mfcc/raw_mfcc_train.2.ark:1761808
flja0_si2338 quick_test/mfcc/raw_mfcc_train.1.ark:2496245
mrlk0_si1468 quick_test/mfcc/raw_mfcc_train.4.ark:1144146
fsrh0_sx401 quick_test/mfcc/raw_mfcc_train.2.ark:368827
mmeb0_si727 quick_test/mfcc/raw_mfcc_train.3.ark:3003981
mmab1_si2124 quick_test/mfcc/raw_mfcc_train.3.ark:2606997
fpaz0_sx63 quick_test/mfcc/raw_mfcc_train.1.ark:3361095
mpgh0_sx24 quick_test/mfcc/raw_mfcc_train.3.ark:3618915
fetb0_sx68 quick_test/mfcc/raw_mfcc_train.1.ark:1322919
msem1_si810 quick_test/mfcc/raw_mfcc_train.4.ark:1933974
mrxb0_sx145 quick_test/mfcc/raw_mfcc_train.4.ark:1688575
mmlm0_sx87 quick_test/mfcc/raw_mfcc_train.3.ark:3170947
mrem0_sx421 quick_test/mfcc/raw_mfcc_train.4.ark:631897
mjws0_sx423 quick_test/mfcc/raw_mfcc_train.3.ark:1740654
mvjh0_sx296 quick_test/mfcc/raw_mfcc_train.4.ark:3359192
mvlo0_sx157 quick_test/mfcc/raw_mfcc_train.4.ark:3378378
mjfh0_sx117 quick_test/mfcc/raw_mfcc_train.3.ark:954570
mtjm0_si655 quick_test/mfcc/raw_mfcc_train.4.ark:2683610
mbma0_si1852 quick_test/mfcc/raw_mfcc_train.2.ark:1227585
flhd0_si1344 quick_test/mfcc/raw_mfcc_train.1.ark:2455936
fsjw0_sx73 quick_test/mfcc/raw_mfcc_train.2.ark:79329
ftlg0_si840 quick_test/mfcc/raw_mfcc_train.2.ark:514527
mtat0_si1110 quick_test/mfcc/raw_mfcc_train.4.ark:2402950
mrdd0_si1680 quick_test/mfcc/raw_mfcc_train.4.ark:451227
fblv0_sx158 quick_test/mfcc/raw_mfcc_train.1.ark:323517
mmws0_sx258 quick_test/mfcc/raw_mfcc_train.3.ark:3370858
mtpf0_si1235 quick_test/mfcc/raw_mfcc_train.4.ark:3008282
feme0_si1505 quick_test/mfcc/raw_mfcc_train.1.ark:1259191
flja0_sx268 quick_test/mfcc/raw_mfcc_train.1.ark:2503942
mkjo0_sx424 quick_test/mfcc/raw_mfcc_train.3.ark:2130185
mnet0_si2076 quick_test/mfcc/raw_mfcc_train.3.ark:3449826
fjkl0_sx32 quick_test/mfcc/raw_mfcc_train.1.ark:1708996
fjlg0_sx179 quick_test/mfcc/raw_mfcc_train.1.ark:1727494
mrtj0_sx322 quick_test/mfcc/raw_mfcc_train.4.ark:1572557
mwdk0_sx266 quick_test/mfcc/raw_mfcc_train.4.ark:3565514
mmag0_sx316 quick_test/mfcc/raw_mfcc_train.3.ark:2663346
mklw0_si1844 quick_test/mfcc/raw_mfcc_train.3.ark:2275030
mfrm0_si1717 quick_test/mfcc/raw_mfcc_train.2.ark:3464565
mcth0_si1209 quick_test/mfcc/raw_mfcc_train.2.ark:1867079
fsgf0_sx297 quick_test/mfcc/raw_mfcc_train.1.ark:3817523
falr0_sx155 quick_test/mfcc/raw_mfcc_train.1.ark:113197
mhmg0_sx375 quick_test/mfcc/raw_mfcc_train.3.ark:413051
mmds0_si1973 quick_test/mfcc/raw_mfcc_train.3.ark:2946998
fpls0_si1590 quick_test/mfcc/raw_mfcc_train.1.ark:3396456
fjwb1_si2055 quick_test/mfcc/raw_mfcc_train.1.ark:1920163
mkls1_sx195 quick_test/mfcc/raw_mfcc_train.3.ark:2257905
makr0_si722 quick_test/mfcc/raw_mfcc_train.2.ark:925305
mdlc1_si1435 quick_test/mfcc/raw_mfcc_train.2.ark:2486636
maeo0_si1326 quick_test/mfcc/raw_mfcc_train.2.ark:785101
mtlc0_sx397 quick_test/mfcc/raw_mfcc_train.4.ark:2902815
mtbc0_si543 quick_test/mfcc/raw_mfcc_train.4.ark:2478193
fgrw0_si1990 quick_test/mfcc/raw_mfcc_train.1.ark:1481824
fbch0_sx416 quick_test/mfcc/raw_mfcc_train.1.ark:265716
fsjs0_sx361 quick_test/mfcc/raw_mfcc_train.2.ark:36281
fgdp0_si988 quick_test/mfcc/raw_mfcc_train.1.ark:1402058
mdcm0_si850 quick_test/mfcc/raw_mfcc_train.2.ark:2131786
mmbs0_sx71 quick_test/mfcc/raw_mfcc_train.3.ark:2776800
fgrw0_sx342 quick_test/mfcc/raw_mfcc_train.1.ark:1494377
mctm0_sx450 quick_test/mfcc/raw_mfcc_train.2.ark:1923495
fskp0_sx18 quick_test/mfcc/raw_mfcc_train.2.ark:162094
mmlm0_si2150 quick_test/mfcc/raw_mfcc_train.3.ark:3148507
mlsh0_sx247 quick_test/mfcc/raw_mfcc_train.3.ark:2552694
mgak0_sx406 quick_test/mfcc/raw_mfcc_train.2.ark:3669682
mdpk0_si1683 quick_test/mfcc/raw_mfcc_train.2.ark:2816895
mrfk0_si2336 quick_test/mfcc/raw_mfcc_train.4.ark:678082
mzmb0_si1166 quick_test/mfcc/raw_mfcc_train.4.ark:3777081
mzmb0_sx356 quick_test/mfcc/raw_mfcc_train.4.ark:3798047
mrjt0_sx418 quick_test/mfcc/raw_mfcc_train.4.ark:1007600
mmab1_sx54 quick_test/mfcc/raw_mfcc_train.3.ark:2634520
mmea0_sx38 quick_test/mfcc/raw_mfcc_train.3.ark:2988702
mwgr0_si976 quick_test/mfcc/raw_mfcc_train.4.ark:3620865
mjrp0_sx315 quick_test/mfcc/raw_mfcc_train.3.ark:1625908
fsdc0_si1942 quick_test/mfcc/raw_mfcc_train.1.ark:3739465
mtat1_sx419 quick_test/mfcc/raw_mfcc_train.4.ark:2464111
flmc0_si1372 quick_test/mfcc/raw_mfcc_train.1.ark:2657311
mjae0_sx354 quick_test/mfcc/raw_mfcc_train.3.ark:596209
mbjv0_si617 quick_test/mfcc/raw_mfcc_train.2.ark:1198415
mjrk0_sx250 quick_test/mfcc/raw_mfcc_train.3.ark:1592616
mkdd0_sx37 quick_test/mfcc/raw_mfcc_train.3.ark:2036135
mkam0_si1465 quick_test/mfcc/raw_mfcc_train.3.ark:1954290
mgag0_sx61 quick_test/mfcc/raw_mfcc_train.2.ark:3638274
mwar0_si1045 quick_test/mfcc/raw_mfcc_train.4.ark:3489085
mgrp0_sx417 quick_test/mfcc/raw_mfcc_train.3.ark:185151
mdpb0_sx326 quick_test/mfcc/raw_mfcc_train.2.ark:2801591
mjjb0_sx419 quick_test/mfcc/raw_mfcc_train.3.ark:1062454
flmk0_sx135 quick_test/mfcc/raw_mfcc_train.1.ark:2702553
msfh0_si586 quick_test/mfcc/raw_mfcc_train.4.ark:2005238
mdcd0_si1415 quick_test/mfcc/raw_mfcc_train.2.ark:2090348
fljg0_si1611 quick_test/mfcc/raw_mfcc_train.1.ark:2553648
fapb0_sx73 quick_test/mfcc/raw_mfcc_train.1.ark:167544
mgaf0_si652 quick_test/mfcc/raw_mfcc_train.2.ark:3594270
mkls0_sx357 quick_test/mfcc/raw_mfcc_train.3.ark:2225089
fjen0_sx57 quick_test/mfcc/raw_mfcc_train.1.ark:1649244
fcjs0_sx167 quick_test/mfcc/raw_mfcc_train.1.ark:571233
mjrk0_si880 quick_test/mfcc/raw_mfcc_train.3.ark:1581890
mmwb0_sx89 quick_test/mfcc/raw_mfcc_train.3.ark:3352245
mlns0_sx327 quick_test/mfcc/raw_mfcc_train.3.ark:2523524
mfxs0_si1674 quick_test/mfcc/raw_mfcc_train.2.ark:3521768
mrkm0_si637 quick_test/mfcc/raw_mfcc_train.4.ark:1030184
mmeb0_sx187 quick_test/mfcc/raw_mfcc_train.3.ark:3006887
fpls0_sx150 quick_test/mfcc/raw_mfcc_train.1.ark:3409660
mrai0_si1954 quick_test/mfcc/raw_mfcc_train.4.ark:250116
mjrh0_si1125 quick_test/mfcc/raw_mfcc_train.3.ark:1512925
meal0_sx107 quick_test/mfcc/raw_mfcc_train.2.ark:3133367
fsbk0_sx439 quick_test/mfcc/raw_mfcc_train.1.ark:3685086
fleh0_si1051 quick_test/mfcc/raw_mfcc_train.1.ark:2392303
mjma0_si1495 quick_test/mfcc/raw_mfcc_train.3.ark:1265559
fnkl0_sx196 quick_test/mfcc/raw_mfcc_train.1.ark:3144908
fskc0_sx336 quick_test/mfcc/raw_mfcc_train.2.ark:100810
mrkm0_si1391 quick_test/mfcc/raw_mfcc_train.4.ark:1023456
fbas0_si1387 quick_test/mfcc/raw_mfcc_train.1.ark:172245
mtjg0_sx350 quick_test/mfcc/raw_mfcc_train.4.ark:2660993
mdps0_sx449 quick_test/mfcc/raw_mfcc_train.2.ark:2863293
mjws0_si1143 quick_test/mfcc/raw_mfcc_train.3.ark:1714715
mjbg0_sx62 quick_test/mfcc/raw_mfcc_train.3.ark:671918
mdsj0_si1462 quick_test/mfcc/raw_mfcc_train.2.ark:2907525
fvmh0_si1466 quick_test/mfcc/raw_mfcc_train.2.ark:629895
mstf0_sx316 quick_test/mfcc/raw_mfcc_train.4.ark:2286148
mdem0_sx428 quick_test/mfcc/raw_mfcc_train.2.ark:2277395
marw0_sx106 quick_test/mfcc/raw_mfcc_train.2.ark:1014039
mgag0_si645 quick_test/mfcc/raw_mfcc_train.2.ark:3617420
fgrw0_sx72 quick_test/mfcc/raw_mfcc_train.1.ark:1504569
mjxl0_si1172 quick_test/mfcc/raw_mfcc_train.3.ark:1815961
flod0_sx117 quick_test/mfcc/raw_mfcc_train.1.ark:2733836
mbar0_sx419 quick_test/mfcc/raw_mfcc_train.2.ark:1063218
mpgh0_si924 quick_test/mfcc/raw_mfcc_train.3.ark:3609665
mcdd0_sx343 quick_test/mfcc/raw_mfcc_train.2.ark:1557704
mrjm0_sx238 quick_test/mfcc/raw_mfcc_train.4.ark:933151
mhmg0_sx15 quick_test/mfcc/raw_mfcc_train.3.ark:403670
mjrp0_si1845 quick_test/mfcc/raw_mfcc_train.3.ark:1609045
fsma0_sx181 quick_test/mfcc/raw_mfcc_train.2.ark:221379
mkrg0_sx141 quick_test/mfcc/raw_mfcc_train.3.ark:2317781
fsrh0_si671 quick_test/mfcc/raw_mfcc_train.2.ark:351548
mstf0_sx46 quick_test/mfcc/raw_mfcc_train.4.ark:2295365
mdwh0_sx125 quick_test/mfcc/raw_mfcc_train.2.ark:3069579
mpeb0_sx150 quick_test/mfcc/raw_mfcc_train.3.ark:3545677
fdfb0_sx58 quick_test/mfcc/raw_mfcc_train.1.ark:875820
msrr0_sx30 quick_test/mfcc/raw_mfcc_train.4.ark:2253371
fmem0_sx333 quick_test/mfcc/raw_mfcc_train.1.ark:2872978
mcdc0_sx392 quick_test/mfcc/raw_mfcc_train.2.ark:1536509
fklc1_si1048 quick_test/mfcc/raw_mfcc_train.1.ark:2228061
fmmh0_sx187 quick_test/mfcc/raw_mfcc_train.1.ark:3067504
fjlr0_si601 quick_test/mfcc/raw_mfcc_train.1.ark:1756729
mlns0_si1407 quick_test/mfcc/raw_mfcc_train.3.ark:2506679
fltm0_sx260 quick_test/mfcc/raw_mfcc_train.1.ark:2766025
mwdk0_si806 quick_test/mfcc/raw_mfcc_train.4.ark:3556244
fskp0_si468 quick_test/mfcc/raw_mfcc_train.2.ark:155048
fsrh0_sx41 quick_test/mfcc/raw_mfcc_train.2.ark:372590
fear0_sx262 quick_test/mfcc/raw_mfcc_train.1.ark:1169102
mmxs0_sx156 quick_test/mfcc/raw_mfcc_train.3.ark:3424719
mjpg0_sx291 quick_test/mfcc/raw_mfcc_train.3.ark:1376351
mrlj1_si2332 quick_test/mfcc/raw_mfcc_train.4.ark:1124942
fkdw0_sx397 quick_test/mfcc/raw_mfcc_train.1.ark:2117109
mwdk0_si1436 quick_test/mfcc/raw_mfcc_train.4.ark:3547727
mcpm0_si564 quick_test/mfcc/raw_mfcc_train.2.ark:1781189
mkam0_sx236 quick_test/mfcc/raw_mfcc_train.3.ark:1964366
mmab1_sx324 quick_test/mfcc/raw_mfcc_train.3.ark:2624666
mkah0_sx358 quick_test/mfcc/raw_mfcc_train.3.ark:1905030
madd0_si1295 quick_test/mfcc/raw_mfcc_train.2.ark:722366
mbml0_sx179 quick_test/mfcc/raw_mfcc_train.2.ark:1296925
fpab1_sx391 quick_test/mfcc/raw_mfcc_train.1.ark:3224107
mesg0_si1332 quick_test/mfcc/raw_mfcc_train.2.ark:3309106
fdjh0_sx395 quick_test/mfcc/raw_mfcc_train.1.ark:906895
mntw0_sx168 quick_test/mfcc/raw_mfcc_train.3.ark:3489117
mprb0_sx305 quick_test/mfcc/raw_mfcc_train.4.ark:41624
fcmg0_sx72 quick_test/mfcc/raw_mfcc_train.1.ark:685572
mrcg0_si798 quick_test/mfcc/raw_mfcc_train.4.ark:387329
mram0_sx105 quick_test/mfcc/raw_mfcc_train.4.ark:298712
fcrz0_si2053 quick_test/mfcc/raw_mfcc_train.1.ark:724723
mmds0_sx263 quick_test/mfcc/raw_mfcc_train.3.ark:2955586
mdbp0_sx168 quick_test/mfcc/raw_mfcc_train.2.ark:2069474
mdps0_sx179 quick_test/mfcc/raw_mfcc_train.2.ark:2851897
mtbc0_sx347 quick_test/mfcc/raw_mfcc_train.4.ark:2491149
fsag0_sx333 quick_test/mfcc/raw_mfcc_train.1.ark:3575759
mfmc0_sx232 quick_test/mfcc/raw_mfcc_train.2.ark:3442689
mdlr0_sx63 quick_test/mfcc/raw_mfcc_train.2.ark:2639897
mtpp0_sx428 quick_test/mfcc/raw_mfcc_train.4.ark:3090469
mtwh1_si2142 quick_test/mfcc/raw_mfcc_train.4.ark:3273438
mdlh0_si1960 quick_test/mfcc/raw_mfcc_train.2.ark:2546564
mmdg0_sx340 quick_test/mfcc/raw_mfcc_train.3.ark:2864838
mdpb0_sx56 quick_test/mfcc/raw_mfcc_train.2.ark:2808507
mtxs0_si1690 quick_test/mfcc/raw_mfcc_train.4.ark:3303044
mrdd0_sx330 quick_test/mfcc/raw_mfcc_train.4.ark:467981
mjdc0_sx351 quick_test/mfcc/raw_mfcc_train.3.ark:724098
ftbr0_si2181 quick_test/mfcc/raw_mfcc_train.2.ark:444116
mhmg0_si1365 quick_test/mfcc/raw_mfcc_train.3.ark:387236
ftmg0_sx92 quick_test/mfcc/raw_mfcc_train.2.ark:564096
mmlm0_sx447 quick_test/mfcc/raw_mfcc_train.3.ark:3168029
fcke0_sx301 quick_test/mfcc/raw_mfcc_train.1.ark:613736
mrmb0_sx231 quick_test/mfcc/raw_mfcc_train.4.ark:1223511
flkm0_si620 quick_test/mfcc/raw_mfcc_train.1.ark:2596352
mmds0_sx173 quick_test/mfcc/raw_mfcc_train.3.ark:2951562
mvlo0_sx337 quick_test/mfcc/raw_mfcc_train.4.ark:3386257
mrab0_sx324 quick_test/mfcc/raw_mfcc_train.4.ark:203433
mmjb1_si778 quick_test/mfcc/raw_mfcc_train.3.ark:3121417
fjlg0_sx359 quick_test/mfcc/raw_mfcc_train.1.ark:1735061
mmaa0_sx215 quick_test/mfcc/raw_mfcc_train.3.ark:2589541
mhmr0_sx129 quick_test/mfcc/raw_mfcc_train.3.ark:430696
feeh0_si1112 quick_test/mfcc/raw_mfcc_train.1.ark:1225893
feac0_si1245 quick_test/mfcc/raw_mfcc_train.1.ark:1120838
mzmb0_si1796 quick_test/mfcc/raw_mfcc_train.4.ark:3782237
mjrh1_si514 quick_test/mfcc/raw_mfcc_train.3.ark:1555170
fjsp0_sx444 quick_test/mfcc/raw_mfcc_train.1.ark:1911686
mbom0_si1644 quick_test/mfcc/raw_mfcc_train.2.ark:1321109
mtrr0_si918 quick_test/mfcc/raw_mfcc_train.4.ark:3212621
fjdm2_si1964 quick_test/mfcc/raw_mfcc_train.1.ark:1584768
fjrp1_sx352 quick_test/mfcc/raw_mfcc_train.1.ark:1838452
ftlg0_sx303 quick_test/mfcc/raw_mfcc_train.2.ark:526339
mdcm0_si1480 quick_test/mfcc/raw_mfcc_train.2.ark:2121956
fceg0_sx348 quick_test/mfcc/raw_mfcc_train.1.ark:525672
mmeb0_sx327 quick_test/mfcc/raw_mfcc_train.3.ark:3009338
mjsr0_sx74 quick_test/mfcc/raw_mfcc_train.3.ark:1672024
falr0_sx335 quick_test/mfcc/raw_mfcc_train.1.ark:120595
fljg0_sx81 quick_test/mfcc/raw_mfcc_train.1.ark:2588186
fpab1_sx211 quick_test/mfcc/raw_mfcc_train.1.ark:3211971
mdlc2_sx174 quick_test/mfcc/raw_mfcc_train.2.ark:2527757
makb0_si1646 quick_test/mfcc/raw_mfcc_train.2.ark:888086
mklw0_sx131 quick_test/mfcc/raw_mfcc_train.3.ark:2279725
mclm0_si1456 quick_test/mfcc/raw_mfcc_train.2.ark:1743625
mdas0_sx186 quick_test/mfcc/raw_mfcc_train.2.ark:2010147
mkrg0_si861 quick_test/mfcc/raw_mfcc_train.3.ark:2312106
ftbr0_sx291 quick_test/mfcc/raw_mfcc_train.2.ark:463260
mtat0_sx210 quick_test/mfcc/raw_mfcc_train.4.ark:2422895
fjkl0_sx212 quick_test/mfcc/raw_mfcc_train.1.ark:1700923
mrjm1_si1298 quick_test/mfcc/raw_mfcc_train.4.ark:950846
mprk0_sx107 quick_test/mfcc/raw_mfcc_train.4.ark:107608
mrhl0_si1515 quick_test/mfcc/raw_mfcc_train.4.ark:811088
mclm0_sx16 quick_test/mfcc/raw_mfcc_train.2.ark:1759188
frjb0_sx167 quick_test/mfcc/raw_mfcc_train.1.ark:3501090
mdef0_sx303 quick_test/mfcc/raw_mfcc_train.2.ark:2238891
mjlb0_si1616 quick_test/mfcc/raw_mfcc_train.3.ark:1172255
maeb0_sx180 quick_test/mfcc/raw_mfcc_train.2.ark:767295
mdem0_sx338 quick_test/mfcc/raw_mfcc_train.2.ark:2272630
fexm0_sx366 quick_test/mfcc/raw_mfcc_train.1.ark:1355015
mrwa0_sx253 quick_test/mfcc/raw_mfcc_train.4.ark:1629968
fexm0_si1101 quick_test/mfcc/raw_mfcc_train.1.ark:1326515
mkls0_sx177 quick_test/mfcc/raw_mfcc_train.3.ark:2217314
fjrp1_si2062 quick_test/mfcc/raw_mfcc_train.1.ark:1822109
fjsk0_sx422 quick_test/mfcc/raw_mfcc_train.1.ark:1879727
fdml0_sx159 quick_test/mfcc/raw_mfcc_train.1.ark:958360
mabc0_sx331 quick_test/mfcc/raw_mfcc_train.2.ark:677685
mrlr0_si1826 quick_test/mfcc/raw_mfcc_train.4.ark:1182249
flag0_si1464 quick_test/mfcc/raw_mfcc_train.1.ark:2355196
mejl0_sx62 quick_test/mfcc/raw_mfcc_train.2.ark:3273967
mjwg0_si813 quick_test/mfcc/raw_mfcc_train.3.ark:1680190
mtas0_sx125 quick_test/mfcc/raw_mfcc_train.4.ark:2387367
mdcd0_si785 quick_test/mfcc/raw_mfcc_train.2.ark:2097175
fmbg0_sx440 quick_test/mfcc/raw_mfcc_train.1.ark:2840460
mkdd0_sx217 quick_test/mfcc/raw_mfcc_train.3.ark:2031247
mwad0_si1749 quick_test/mfcc/raw_mfcc_train.4.ark:3468560
mrtc0_sx378 quick_test/mfcc/raw_mfcc_train.4.ark:1540806
mrjm0_si1858 quick_test/mfcc/raw_mfcc_train.4.ark:924050
mrlr0_sx116 quick_test/mfcc/raw_mfcc_train.4.ark:1190180
mrem0_si1591 quick_test/mfcc/raw_mfcc_train.4.ark:607506
mjai0_sx164 quick_test/mfcc/raw_mfcc_train.3.ark:626554
mmlm0_si897 quick_test/mfcc/raw_mfcc_train.3.ark:3154143
mkln0_sx68 quick_test/mfcc/raw_mfcc_train.3.ark:2169827
mlns0_sx237 quick_test/mfcc/raw_mfcc_train.3.ark:2521333
mddc0_si1419 quick_test/mfcc/raw_mfcc_train.2.ark:2154344
mdjm0_sx15 quick_test/mfcc/raw_mfcc_train.2.ark:2366536
msdh0_sx440 quick_test/mfcc/raw_mfcc_train.4.ark:1875439
flag0_sx294 quick_test/mfcc/raw_mfcc_train.1.ark:2383461
mdlc0_si2025 quick_test/mfcc/raw_mfcc_train.2.ark:2458897
fmbg0_sx350 quick_test/mfcc/raw_mfcc_train.1.ark:2835617
mmaa0_si845 quick_test/mfcc/raw_mfcc_train.3.ark:2579751
mvlo0_si517 quick_test/mfcc/raw_mfcc_train.4.ark:3372534
fbmj0_sx426 quick_test/mfcc/raw_mfcc_train.1.ark:402678
fskc0_si1416 quick_test/mfcc/raw_mfcc_train.2.ark:83822
fbas0_sx37 quick_test/mfcc/raw_mfcc_train.1.ark:199029
mgrl0_sx417 quick_test/mfcc/raw_mfcc_train.3.ark:151151
mmdm1_si1650 quick_test/mfcc/raw_mfcc_train.3.ark:2908804
mtmt0_sx128 quick_test/mfcc/raw_mfcc_train.4.ark:2989371
fsah0_si614 quick_test/mfcc/raw_mfcc_train.1.ark:3601093
fcdr1_sx106 quick_test/mfcc/raw_mfcc_train.1.ark:488850
mcae0_si1447 quick_test/mfcc/raw_mfcc_train.2.ark:1436625
flja0_si1708 quick_test/mfcc/raw_mfcc_train.1.ark:2494144
mmwb0_sx359 quick_test/mfcc/raw_mfcc_train.3.ark:3340012
mjsr0_si2054 quick_test/mfcc/raw_mfcc_train.3.ark:1641329
mjpm0_sx108 quick_test/mfcc/raw_mfcc_train.3.ark:1396421
faem0_sx42 quick_test/mfcc/raw_mfcc_train.1.ark:29767
fjxp0_si1122 quick_test/mfcc/raw_mfcc_train.1.ark:1987460
mrdm0_sx425 quick_test/mfcc/raw_mfcc_train.4.ark:503112
mcpm0_si1194 quick_test/mfcc/raw_mfcc_train.2.ark:1771866
mmar0_sx346 quick_test/mfcc/raw_mfcc_train.3.ark:2730255
mmam0_sx337 quick_test/mfcc/raw_mfcc_train.3.ark:2693824
mabc0_sx151 quick_test/mfcc/raw_mfcc_train.2.ark:670872
fhxs0_si2302 quick_test/mfcc/raw_mfcc_train.1.ark:1547257
fcaj0_sx39 quick_test/mfcc/raw_mfcc_train.1.ark:461448
mwsh0_si1426 quick_test/mfcc/raw_mfcc_train.4.ark:3738583
mdef0_sx213 quick_test/mfcc/raw_mfcc_train.2.ark:2235387
mpfu0_sx448 quick_test/mfcc/raw_mfcc_train.3.ark:3589487
mjwt0_sx211 quick_test/mfcc/raw_mfcc_train.3.ark:1770103
mwad0_si1062 quick_test/mfcc/raw_mfcc_train.4.ark:3464288
fgdp0_sx178 quick_test/mfcc/raw_mfcc_train.1.ark:1407473
mrlj0_sx160 quick_test/mfcc/raw_mfcc_train.4.ark:1098605
fdaw0_sx236 quick_test/mfcc/raw_mfcc_train.1.ark:837353
mtrt0_sx254 quick_test/mfcc/raw_mfcc_train.4.ark:3258433
mrjh0_sx79 quick_test/mfcc/raw_mfcc_train.4.ark:912430
mwsh0_sx436 quick_test/mfcc/raw_mfcc_train.4.ark:3768799
mdhl0_si1439 quick_test/mfcc/raw_mfcc_train.2.ark:2287653
mwsb0_sx96 quick_test/mfcc/raw_mfcc_train.4.ark:3735221
mbgt0_sx351 quick_test/mfcc/raw_mfcc_train.2.ark:1178840
fnkl0_sx172 quick_test/mfcc/raw_mfcc_train.1.ark:3140585
mrwa0_sx73 quick_test/mfcc/raw_mfcc_train.4.ark:1642364
mpar0_sx316 quick_test/mfcc/raw_mfcc_train.3.ark:3526199
mhit0_si1613 quick_test/mfcc/raw_mfcc_train.3.ark:328868
fsmm0_sx54 quick_test/mfcc/raw_mfcc_train.2.ark:273671
fjkl0_si1562 quick_test/mfcc/raw_mfcc_train.1.ark:1685801
mrcg0_si1428 quick_test/mfcc/raw_mfcc_train.4.ark:377382
fcjf0_sx307 quick_test/mfcc/raw_mfcc_train.1.ark:554407
mefg0_sx195 quick_test/mfcc/raw_mfcc_train.2.ark:3201353
mddc0_sx159 quick_test/mfcc/raw_mfcc_train.2.ark:2166404
mpgr1_sx149 quick_test/mfcc/raw_mfcc_train.3.ark:3668794
mppc0_si782 quick_test/mfcc/raw_mfcc_train.3.ark:3752218
mtju0_sx40 quick_test/mfcc/raw_mfcc_train.4.ark:2767133
fvkb0_si529 quick_test/mfcc/raw_mfcc_train.2.ark:602436
fbmh0_sx326 quick_test/mfcc/raw_mfcc_train.1.ark:363927
mwrp0_sx183 quick_test/mfcc/raw_mfcc_train.4.ark:3692423
feac0_sx75 quick_test/mfcc/raw_mfcc_train.1.ark:1151086
fkaa0_si1838 quick_test/mfcc/raw_mfcc_train.1.ark:2021559
fvfb0_si1510 quick_test/mfcc/raw_mfcc_train.2.ark:571496
fssb0_sx92 quick_test/mfcc/raw_mfcc_train.2.ark:408190
frll0_sx254 quick_test/mfcc/raw_mfcc_train.1.ark:3541115
fvfb0_sx312 quick_test/mfcc/raw_mfcc_train.2.ark:585994
mmdb0_sx357 quick_test/mfcc/raw_mfcc_train.3.ark:2831748
mjpg0_sx201 quick_test/mfcc/raw_mfcc_train.3.ark:1370618
mjjb0_sx239 quick_test/mfcc/raw_mfcc_train.3.ark:1053132
mkaj0_si1414 quick_test/mfcc/raw_mfcc_train.3.ark:1917141
fskl0_sx179 quick_test/mfcc/raw_mfcc_train.2.ark:126268
fdaw0_si1406 quick_test/mfcc/raw_mfcc_train.1.ark:824071
mrmb0_si951 quick_test/mfcc/raw_mfcc_train.4.ark:1214280
mrfk0_sx176 quick_test/mfcc/raw_mfcc_train.4.ark:680949
mmab1_sx144 quick_test/mfcc/raw_mfcc_train.3.ark:2616904
mkag0_si979 quick_test/mfcc/raw_mfcc_train.3.ark:1858270
fetb0_sx338 quick_test/mfcc/raw_mfcc_train.1.ark:1314092
fmmh0_sx367 quick_test/mfcc/raw_mfcc_train.1.ark:3070358
fljd0_sx166 quick_test/mfcc/raw_mfcc_train.1.ark:2533853
mwre0_sx427 quick_test/mfcc/raw_mfcc_train.4.ark:3669610
mdwh0_si1925 quick_test/mfcc/raw_mfcc_train.2.ark:3060140
mdlr0_si603 quick_test/mfcc/raw_mfcc_train.2.ark:2617568
mrav0_si1008 quick_test/mfcc/raw_mfcc_train.4.ark:317064
mrjh0_sx307 quick_test/mfcc/raw_mfcc_train.4.ark:904721
mmws0_sx168 quick_test/mfcc/raw_mfcc_train.3.ark:3367783
mtpr0_si1600 quick_test/mfcc/raw_mfcc_train.4.ark:3098075
fdas1_sx291 quick_test/mfcc/raw_mfcc_train.1.ark:810710
mbma0_sx232 quick_test/mfcc/raw_mfcc_train.2.ark:1236329
mmdm0_sx411 quick_test/mfcc/raw_mfcc_train.3.ark:2900379
fdkn0_si1202 quick_test/mfcc/raw_mfcc_train.1.ark:914854
fsms1_sx244 quick_test/mfcc/raw_mfcc_train.2.ark:294040
mprb0_si1205 quick_test/mfcc/raw_mfcc_train.4.ark:16173
mmds0_si713 quick_test/mfcc/raw_mfcc_train.3.ark:2948890
fklc1_sx58 quick_test/mfcc/raw_mfcc_train.1.ark:2255658
fdfb0_si1318 quick_test/mfcc/raw_mfcc_train.1.ark:852123
msfv0_sx272 quick_test/mfcc/raw_mfcc_train.4.ark:2051134
mtmn0_si2324 quick_test/mfcc/raw_mfcc_train.4.ark:2945750
mnet0_sx96 quick_test/mfcc/raw_mfcc_train.3.ark:3469378
makr0_sx272 quick_test/mfcc/raw_mfcc_train.2.ark:930480
mmvp0_sx114 quick_test/mfcc/raw_mfcc_train.3.ark:3291931
mdpb0_si1760 quick_test/mfcc/raw_mfcc_train.2.ark:2777999
mkls1_si915 quick_test/mfcc/raw_mfcc_train.3.ark:2244573
fmkf0_sx96 quick_test/mfcc/raw_mfcc_train.1.ark:3049092
maeb0_si1411 quick_test/mfcc/raw_mfcc_train.2.ark:754052
fkfb0_sx78 quick_test/mfcc/raw_mfcc_train.1.ark:2156023
mcef0_sx145 quick_test/mfcc/raw_mfcc_train.2.ark:1618722
mfer0_sx142 quick_test/mfcc/raw_mfcc_train.2.ark:3407343
mfmc0_sx142 quick_test/mfcc/raw_mfcc_train.2.ark:3437755
mrgm0_sx416 quick_test/mfcc/raw_mfcc_train.4.ark:760234
msem1_sx180 quick_test/mfcc/raw_mfcc_train.4.ark:1943016
freh0_sx55 quick_test/mfcc/raw_mfcc_train.1.ark:3489229
fksr0_sx366 quick_test/mfcc/raw_mfcc_train.1.ark:2312413
mkxl0_si1815 quick_test/mfcc/raw_mfcc_train.3.ark:2335919
mprb0_sx215 quick_test/mfcc/raw_mfcc_train.4.ark:36378
mjws0_sx63 quick_test/mfcc/raw_mfcc_train.3.ark:1745808
mbjv0_sx167 quick_test/mfcc/raw_mfcc_train.2.ark:1202699
frll0_sx344 quick_test/mfcc/raw_mfcc_train.1.ark:3544502
fgmb0_si1145 quick_test/mfcc/raw_mfcc_train.1.ark:1432507
mhrm0_sx238 quick_test/mfcc/raw_mfcc_train.3.ark:464365
fapb0_sx433 quick_test/mfcc/raw_mfcc_train.1.ark:161818
mjda0_sx41 quick_test/mfcc/raw_mfcc_train.3.ark:699874
mljc0_si595 quick_test/mfcc/raw_mfcc_train.3.ark:2441866
fskp0_sx288 quick_test/mfcc/raw_mfcc_train.2.ark:168504
fkde0_sx61 quick_test/mfcc/raw_mfcc_train.1.ark:2084370
mmgg0_si1709 quick_test/mfcc/raw_mfcc_train.3.ark:3061547
mrlj0_si790 quick_test/mfcc/raw_mfcc_train.4.ark:1093125
msjk0_si1596 quick_test/mfcc/raw_mfcc_train.4.ark:2069427
mcss0_sx300 quick_test/mfcc/raw_mfcc_train.2.ark:1859875
mmag0_sx46 quick_test/mfcc/raw_mfcc_train.3.ark:2672641
mdlr1_sx309 quick_test/mfcc/raw_mfcc_train.2.ark:2665720
mses0_sx239 quick_test/mfcc/raw_mfcc_train.4.ark:1979702
maeb0_si2250 quick_test/mfcc/raw_mfcc_train.2.ark:759494
mmab1_sx234 quick_test/mfcc/raw_mfcc_train.3.ark:2620629
mdpb0_si866 quick_test/mfcc/raw_mfcc_train.2.ark:2788271
fjhk0_sx32 quick_test/mfcc/raw_mfcc_train.1.ark:1678480
medr0_sx114 quick_test/mfcc/raw_mfcc_train.2.ark:3163559
msat0_si2156 quick_test/mfcc/raw_mfcc_train.4.ark:1773766
mkdt0_si2153 quick_test/mfcc/raw_mfcc_train.3.ark:2043885
mrmb0_sx411 quick_test/mfcc/raw_mfcc_train.4.ark:1230402
mjrh1_si1774 quick_test/mfcc/raw_mfcc_train.3.ark:1551614
mkrg0_sx51 quick_test/mfcc/raw_mfcc_train.3.ark:2329390
makr0_si1982 quick_test/mfcc/raw_mfcc_train.2.ark:921320
mdcm0_sx310 quick_test/mfcc/raw_mfcc_train.2.ark:2143598
mjls0_si466 quick_test/mfcc/raw_mfcc_train.3.ark:1243859
mbth0_si757 quick_test/mfcc/raw_mfcc_train.2.ark:1378949
mcdc0_si1922 quick_test/mfcc/raw_mfcc_train.2.ark:1513731
mjai0_si1604 quick_test/mfcc/raw_mfcc_train.3.ark:611050
mtdp0_si1274 quick_test/mfcc/raw_mfcc_train.4.ark:2569024
flkm0_sx116 quick_test/mfcc/raw_mfcc_train.1.ark:2605739
mpgr0_sx60 quick_test/mfcc/raw_mfcc_train.3.ark:3652864
mmdb0_si987 quick_test/mfcc/raw_mfcc_train.3.ark:2819806
msrg0_si1221 quick_test/mfcc/raw_mfcc_train.4.ark:2201253
mjjj0_si1163 quick_test/mfcc/raw_mfcc_train.3.ark:1069462
mdhl0_sx179 quick_test/mfcc/raw_mfcc_train.2.ark:2299661
mrdd0_sx240 quick_test/mfcc/raw_mfcc_train.4.ark:461207
mwrp0_si1525 quick_test/mfcc/raw_mfcc_train.4.ark:3683932
mtat1_sx329 quick_test/mfcc/raw_mfcc_train.4.ark:2458254
ftaj0_si474 quick_test/mfcc/raw_mfcc_train.2.ark:415524
mbcg0_sx147 quick_test/mfcc/raw_mfcc_train.2.ark:1111424
mpgr0_sx240 quick_test/mfcc/raw_mfcc_train.3.ark:3640312
mrvg0_sx240 quick_test/mfcc/raw_mfcc_train.4.ark:1598906
msds0_si2337 quick_test/mfcc/raw_mfcc_train.4.ark:1895437
mmxs0_sx66 quick_test/mfcc/raw_mfcc_train.3.ark:3441464
mrpc1_sx402 quick_test/mfcc/raw_mfcc_train.4.ark:1391904
mdtb0_sx120 quick_test/mfcc/raw_mfcc_train.2.ark:3005946
mcth0_sx309 quick_test/mfcc/raw_mfcc_train.2.ark:1887161
mmrp0_sx54 quick_test/mfcc/raw_mfcc_train.3.ark:3236581
mreh1_sx69 quick_test/mfcc/raw_mfcc_train.4.ark:602857
mprd0_si801 quick_test/mfcc/raw_mfcc_train.4.ark:61667
mjlb0_sx176 quick_test/mfcc/raw_mfcc_train.3.ark:1184107
mcre0_si1725 quick_test/mfcc/raw_mfcc_train.2.ark:1806511
fvkb0_si1789 quick_test/mfcc/raw_mfcc_train.2.ark:599868
mwsb0_sx186 quick_test/mfcc/raw_mfcc_train.4.ark:3722482
mlsh0_sx67 quick_test/mfcc/raw_mfcc_train.3.ark:2565649
mlel0_sx76 quick_test/mfcc/raw_mfcc_train.3.ark:2427530
mdma0_si2060 quick_test/mfcc/raw_mfcc_train.2.ark:2685309
mlel0_sx256 quick_test/mfcc/raw_mfcc_train.3.ark:2414484
mtjg0_si2157 quick_test/mfcc/raw_mfcc_train.4.ark:2644494
mrab0_si594 quick_test/mfcc/raw_mfcc_train.4.ark:193532
mjpm1_sx131 quick_test/mfcc/raw_mfcc_train.3.ark:1425676
frll0_si884 quick_test/mfcc/raw_mfcc_train.1.ark:3532183
mmwb0_sx179 quick_test/mfcc/raw_mfcc_train.3.ark:3330755
mtpg0_sx33 quick_test/mfcc/raw_mfcc_train.4.ark:3061356
fdnc0_sx108 quick_test/mfcc/raw_mfcc_train.1.ark:1035941
mbom0_sx294 quick_test/mfcc/raw_mfcc_train.2.ark:1333189
mrhl0_sx165 quick_test/mfcc/raw_mfcc_train.4.ark:822121
mklw0_si1571 quick_test/mfcc/raw_mfcc_train.3.ark:2268223
mcew0_sx272 quick_test/mfcc/raw_mfcc_train.2.ark:1656967
mmbs0_sx161 quick_test/mfcc/raw_mfcc_train.3.ark:2756753
mbma0_sx412 quick_test/mfcc/raw_mfcc_train.2.ark:1244273
mesj0_si2039 quick_test/mfcc/raw_mfcc_train.2.ark:3341416
mtml0_sx75 quick_test/mfcc/raw_mfcc_train.4.ark:2936985
mjde0_sx220 quick_test/mfcc/raw_mfcc_train.3.ark:756218
mlsh0_si787 quick_test/mfcc/raw_mfcc_train.3.ark:2545478
fgdp0_si2248 quick_test/mfcc/raw_mfcc_train.1.ark:1397683
mpmb0_sx61 quick_test/mfcc/raw_mfcc_train.3.ark:3736985
mcew0_si812 quick_test/mfcc/raw_mfcc_train.2.ark:1646189
mgaw0_si1165 quick_test/mfcc/raw_mfcc_train.3.ark:32441
fjkl0_si932 quick_test/mfcc/raw_mfcc_train.1.ark:1689677
mwre0_sx157 quick_test/mfcc/raw_mfcc_train.4.ark:3656966
mjee0_sx67 quick_test/mfcc/raw_mfcc_train.3.ark:937367
mfxv0_sx375 quick_test/mfcc/raw_mfcc_train.2.ark:3579544
mmgk0_si1322 quick_test/mfcc/raw_mfcc_train.3.ark:3087753
mrfk0_sx446 quick_test/mfcc/raw_mfcc_train.4.ark:692449
flac0_sx451 quick_test/mfcc/raw_mfcc_train.1.ark:2347031
mmsm0_si1106 quick_test/mfcc/raw_mfcc_train.3.ark:3241724
mgsl0_si797 quick_test/mfcc/raw_mfcc_train.3.ark:236142
mpfu0_si628 quick_test/mfcc/raw_mfcc_train.3.ark:3573833
fcdr1_sx16 quick_test/mfcc/raw_mfcc_train.1.ark:493055
mtdb0_si1401 quick_test/mfcc/raw_mfcc_train.4.ark:2536194
fcrz0_si793 quick_test/mfcc/raw_mfcc_train.1.ark:728123
mtjs0_si562 quick_test/mfcc/raw_mfcc_train.4.ark:2716726
mmgg0_sx269 quick_test/mfcc/raw_mfcc_train.3.ark:3071514
fdkn0_sx91 quick_test/mfcc/raw_mfcc_train.1.ark:943808
fcdr1_si1816 quick_test/mfcc/raw_mfcc_train.1.ark:475758
mkdb0_sx422 quick_test/mfcc/raw_mfcc_train.3.ark:2003072
fgrw0_sx162 quick_test/mfcc/raw_mfcc_train.1.ark:1484925
mppc0_sx422 quick_test/mfcc/raw_mfcc_train.4.ark:7917
mrkm0_sx7 quick_test/mfcc/raw_mfcc_train.4.ark:1050269
mhjb0_si1647 quick_test/mfcc/raw_mfcc_train.3.ark:364371
fbmh0_sx146 quick_test/mfcc/raw_mfcc_train.1.ark:357491
fsjw0_sx253 quick_test/mfcc/raw_mfcc_train.2.ark:67154
mhrm0_sx148 quick_test/mfcc/raw_mfcc_train.3.ark:460718
mrml0_sx71 quick_test/mfcc/raw_mfcc_train.4.ark:1336804
mtpp0_sx68 quick_test/mfcc/raw_mfcc_train.4.ark:3094817
mdlc0_sx225 quick_test/mfcc/raw_mfcc_train.2.ark:2471853
mtpg0_sx213 quick_test/mfcc/raw_mfcc_train.4.ark:3054726
mkln0_si1598 quick_test/mfcc/raw_mfcc_train.3.ark:2142205
fpac0_si1921 quick_test/mfcc/raw_mfcc_train.1.ark:3227300
mjdg0_sx232 quick_test/mfcc/raw_mfcc_train.3.ark:793313
mtjs0_sx382 quick_test/mfcc/raw_mfcc_train.4.ark:2738483
mtkd0_sx17 quick_test/mfcc/raw_mfcc_train.4.ark:2794047
mmam0_sx427 quick_test/mfcc/raw_mfcc_train.3.ark:2697263
mter0_sx257 quick_test/mfcc/raw_mfcc_train.4.ark:2629307
megj0_si1337 quick_test/mfcc/raw_mfcc_train.2.ark:3212568
mjxl0_si1795 quick_test/mfcc/raw_mfcc_train.3.ark:1822352
mjpg0_sx21 quick_test/mfcc/raw_mfcc_train.3.ark:1373653
mcss0_sx210 quick_test/mfcc/raw_mfcc_train.2.ark:1853986
mdwm0_sx16 quick_test/mfcc/raw_mfcc_train.2.ark:3108421
mgrp0_sx57 quick_test/mfcc/raw_mfcc_train.3.ark:189564
mvrw0_sx225 quick_test/mfcc/raw_mfcc_train.4.ark:3413321
fmmh0_sx7 quick_test/mfcc/raw_mfcc_train.1.ark:3079327
mree0_sx24 quick_test/mfcc/raw_mfcc_train.4.ark:560315
mgrp0_sx327 quick_test/mfcc/raw_mfcc_train.3.ark:178904
mtml0_sx165 quick_test/mfcc/raw_mfcc_train.4.ark:2919928
fjxp0_si492 quick_test/mfcc/raw_mfcc_train.1.ark:1996692
mkam0_sx416 quick_test/mfcc/raw_mfcc_train.3.ark:1971894
mbma1_sx324 quick_test/mfcc/raw_mfcc_train.2.ark:1271948
feeh0_sx392 quick_test/mfcc/raw_mfcc_train.1.ark:1254971
msat1_sx173 quick_test/mfcc/raw_mfcc_train.4.ark:1807443
mjxa0_sx427 quick_test/mfcc/raw_mfcc_train.3.ark:1808888
feme0_sx65 quick_test/mfcc/raw_mfcc_train.1.ark:1291376
mhmr0_si1119 quick_test/mfcc/raw_mfcc_train.3.ark:416868
mtwh1_sx252 quick_test/mfcc/raw_mfcc_train.4.ark:3282559
mjmm0_si625 quick_test/mfcc/raw_mfcc_train.3.ark:1332626
mmgg0_sx359 quick_test/mfcc/raw_mfcc_train.3.ark:3074381
mrpc1_sx312 quick_test/mfcc/raw_mfcc_train.4.ark:1386736
flet0_sx417 quick_test/mfcc/raw_mfcc_train.1.ark:2448382
mrhl0_si885 quick_test/mfcc/raw_mfcc_train.4.ark:817902
msvs0_sx128 quick_test/mfcc/raw_mfcc_train.4.ark:2315532
fjrb0_sx402 quick_test/mfcc/raw_mfcc_train.1.ark:1804225
mjlb0_sx86 quick_test/mfcc/raw_mfcc_train.3.ark:1199032
mrcg0_sx348 quick_test/mfcc/raw_mfcc_train.4.ark:400649
mmws0_sx438 quick_test/mfcc/raw_mfcc_train.3.ark:3379075
mtcs0_sx352 quick_test/mfcc/raw_mfcc_train.4.ark:2522575
mtas0_sx215 quick_test/mfcc/raw_mfcc_train.4.ark:2390026
fkaa0_sx398 quick_test/mfcc/raw_mfcc_train.1.ark:2047847
mtkp0_sx393 quick_test/mfcc/raw_mfcc_train.4.ark:2840886
mbgt0_sx441 quick_test/mfcc/raw_mfcc_train.2.ark:1184177
mcae0_si817 quick_test/mfcc/raw_mfcc_train.2.ark:1451278
mrlj0_sx340 quick_test/mfcc/raw_mfcc_train.4.ark:1106263
fnkl0_si2152 quick_test/mfcc/raw_mfcc_train.1.ark:3130925
mpgr1_si1269 quick_test/mfcc/raw_mfcc_train.3.ark:3657006
mtlb0_si504 quick_test/mfcc/raw_mfcc_train.4.ark:2852518
frjb0_sx347 quick_test/mfcc/raw_mfcc_train.1.ark:3508592
fdfb0_sx328 quick_test/mfcc/raw_mfcc_train.1.ark:868280
mgar0_si1842 quick_test/mfcc/raw_mfcc_train.3.ark:7907
mafm0_si2199 quick_test/mfcc/raw_mfcc_train.2.ark:818915
mjdm0_si1340 quick_test/mfcc/raw_mfcc_train.3.ark:808304
fapb0_sx163 quick_test/mfcc/raw_mfcc_train.1.ark:148368
fjsp0_sx354 quick_test/mfcc/raw_mfcc_train.1.ark:1908013
mmgc0_si1935 quick_test/mfcc/raw_mfcc_train.3.ark:3031134
fsdj0_si1115 quick_test/mfcc/raw_mfcc_train.1.ark:3763773
mtjm0_sx236 quick_test/mfcc/raw_mfcc_train.4.ark:2691970
fjdm2_si1582 quick_test/mfcc/raw_mfcc_train.1.ark:1581172
mjdc0_sx171 quick_test/mfcc/raw_mfcc_train.3.ark:717311
mwad0_sx72 quick_test/mfcc/raw_mfcc_train.4.ark:3487114
fdas1_si831 quick_test/mfcc/raw_mfcc_train.1.ark:793705
milb0_si903 quick_test/mfcc/raw_mfcc_train.3.ark:522586
mgrl0_sx327 quick_test/mfcc/raw_mfcc_train.3.ark:143916
fpaz0_si1593 quick_test/mfcc/raw_mfcc_train.1.ark:3331173
mesj0_sx277 quick_test/mfcc/raw_mfcc_train.2.ark:3357682
mewm0_sx268 quick_test/mfcc/raw_mfcc_train.2.ark:3383724
mrab0_si1854 quick_test/mfcc/raw_mfcc_train.4.ark:187831
fsrh0_si1931 quick_test/mfcc/raw_mfcc_train.2.ark:348161
mdwm0_sx376 quick_test/mfcc/raw_mfcc_train.2.ark:3116235
fkdw0_sx127 quick_test/mfcc/raw_mfcc_train.1.ark:2105850
mwrp0_sx3 quick_test/mfcc/raw_mfcc_train.4.ark:3699832
mjrh1_sx64 quick_test/mfcc/raw_mfcc_train.3.ark:1573963
mkaj0_sx154 quick_test/mfcc/raw_mfcc_train.3.ark:1928694
mkaj0_sx64 quick_test/mfcc/raw_mfcc_train.3.ark:1941721
mgxp0_sx277 quick_test/mfcc/raw_mfcc_train.3.ark:283584
mrlk0_sx33 quick_test/mfcc/raw_mfcc_train.4.ark:1169941
fsms1_si2134 quick_test/mfcc/raw_mfcc_train.2.ark:282176
mdss1_sx337 quick_test/mfcc/raw_mfcc_train.2.ark:2985623
fjxm0_sx131 quick_test/mfcc/raw_mfcc_train.1.ark:1962270
mljh0_sx334 quick_test/mfcc/raw_mfcc_train.3.ark:2493658
mmdg0_sx250 quick_test/mfcc/raw_mfcc_train.3.ark:2860177
mkdb0_sx152 quick_test/mfcc/raw_mfcc_train.3.ark:1990636
mesg0_sx252 quick_test/mfcc/raw_mfcc_train.2.ark:3325879
mmsm0_si476 quick_test/mfcc/raw_mfcc_train.3.ark:3250943
fapb0_si1063 quick_test/mfcc/raw_mfcc_train.1.ark:131783
mtrt0_si1227 quick_test/mfcc/raw_mfcc_train.4.ark:3238091
fhlm0_si930 quick_test/mfcc/raw_mfcc_train.1.ark:1513796
mdns0_si1011 quick_test/mfcc/raw_mfcc_train.2.ark:2745832
fcmg0_sx342 quick_test/mfcc/raw_mfcc_train.1.ark:675276
mrgm0_sx262 quick_test/mfcc/raw_mfcc_train.4.ark:756262
mrmg0_si1710 quick_test/mfcc/raw_mfcc_train.4.ark:1241721
mhxl0_sx332 quick_test/mfcc/raw_mfcc_train.3.ark:500828
mdhs0_sx360 quick_test/mfcc/raw_mfcc_train.2.ark:2338784
mdsj0_si2092 quick_test/mfcc/raw_mfcc_train.2.ark:2913318
mpmb0_sx151 quick_test/mfcc/raw_mfcc_train.3.ark:3713233
msds0_sx267 quick_test/mfcc/raw_mfcc_train.4.ark:1903225
mtjg0_sx440 quick_test/mfcc/raw_mfcc_train.4.ark:2666109
flod0_sx387 quick_test/mfcc/raw_mfcc_train.1.ark:2747527
mhit0_si983 quick_test/mfcc/raw_mfcc_train.3.ark:335578
mcxm0_sx181 quick_test/mfcc/raw_mfcc_train.2.ark:1942329
fmpg0_sx72 quick_test/mfcc/raw_mfcc_train.1.ark:3124253
mjsr0_sx344 quick_test/mfcc/raw_mfcc_train.3.ark:1663574
maeb0_si990 quick_test/mfcc/raw_mfcc_train.2.ark:762920
ftbw0_sx445 quick_test/mfcc/raw_mfcc_train.2.ark:495389
msat1_si1073 quick_test/mfcc/raw_mfcc_train.4.ark:1795980
mjrg0_sx376 quick_test/mfcc/raw_mfcc_train.3.ark:1509160
mmbs0_sx431 quick_test/mfcc/raw_mfcc_train.3.ark:2772075
mrmb0_sx51 quick_test/mfcc/raw_mfcc_train.4.ark:1234269
mrlr0_sx296 quick_test/mfcc/raw_mfcc_train.4.ark:1200756
mrmg0_sx450 quick_test/mfcc/raw_mfcc_train.4.ark:1261699
msms0_si1433 quick_test/mfcc/raw_mfcc_train.4.ark:2168943
mppc0_sx332 quick_test/mfcc/raw_mfcc_train.4.ark:3971
mdbb1_si1006 quick_test/mfcc/raw_mfcc_train.2.ark:2025584
flod0_si1287 quick_test/mfcc/raw_mfcc_train.1.ark:2721542
mjpm1_si2280 quick_test/mfcc/raw_mfcc_train.3.ark:1417836
fpad0_sx356 quick_test/mfcc/raw_mfcc_train.1.ark:3285763
mjdm0_si1937 quick_test/mfcc/raw_mfcc_train.3.ark:815462
mrws0_sx202 quick_test/mfcc/raw_mfcc_train.4.ark:1661043
mjbg0_sx152 quick_test/mfcc/raw_mfcc_train.3.ark:653184
mhbs0_sx315 quick_test/mfcc/raw_mfcc_train.3.ark:318993
mkes0_sx353 quick_test/mfcc/raw_mfcc_train.3.ark:2100917
mkah0_si1528 quick_test/mfcc/raw_mfcc_train.3.ark:1884207
mwar0_si1675 quick_test/mfcc/raw_mfcc_train.4.ark:3495398
mdlh0_sx340 quick_test/mfcc/raw_mfcc_train.2.ark:2569206
mdcm0_si2110 quick_test/mfcc/raw_mfcc_train.2.ark:2127762
mprk0_si467 quick_test/mfcc/raw_mfcc_train.4.ark:102011
mrav0_sx378 quick_test/mfcc/raw_mfcc_train.4.ark:342334
mhjb0_sx387 quick_test/mfcc/raw_mfcc_train.3.ark:383822
fbcg1_sx262 quick_test/mfcc/raw_mfcc_train.1.ark:221576
fgmb0_sx245 quick_test/mfcc/raw_mfcc_train.1.ark:1452283
mfwk0_sx169 quick_test/mfcc/raw_mfcc_train.2.ark:3500504
frjb0_si1470 quick_test/mfcc/raw_mfcc_train.1.ark:3496603
mctm0_sx90 quick_test/mfcc/raw_mfcc_train.2.ark:1927817
mrlk0_si843 quick_test/mfcc/raw_mfcc_train.4.ark:1155432
medr0_sx204 quick_test/mfcc/raw_mfcc_train.2.ark:3166959
mree0_sx294 quick_test/mfcc/raw_mfcc_train.4.ark:563442
fclt0_sx178 quick_test/mfcc/raw_mfcc_train.1.ark:633617
mtpg0_si2013 quick_test/mfcc/raw_mfcc_train.4.ark:3043330
mwem0_si1320 quick_test/mfcc/raw_mfcc_train.4.ark:3579855
mcdd0_si1513 quick_test/mfcc/raw_mfcc_train.2.ark:1540625
mrxb0_sx55 quick_test/mfcc/raw_mfcc_train.4.ark:1702902
mdwd0_si1260 quick_test/mfcc/raw_mfcc_train.2.ark:3023519
mtrr0_sx108 quick_test/mfcc/raw_mfcc_train.4.ark:3218101
mkah0_sx88 quick_test/mfcc/raw_mfcc_train.3.ark:1912323
mdbp0_sx348 quick_test/mfcc/raw_mfcc_train.2.ark:2076534
mmdm1_si2043 quick_test/mfcc/raw_mfcc_train.3.ark:2911295
mreh1_sx339 quick_test/mfcc/raw_mfcc_train.4.ark:594498
mfrm0_sx345 quick_test/mfcc/raw_mfcc_train.2.ark:3478959
mpar0_sx226 quick_test/mfcc/raw_mfcc_train.3.ark:3522851
mrso0_si2289 quick_test/mfcc/raw_mfcc_train.4.ark:1448553
fceg0_si618 quick_test/mfcc/raw_mfcc_train.1.ark:516395
mjxa0_sx247 quick_test/mfcc/raw_mfcc_train.3.ark:1800463
mrre0_si1334 quick_test/mfcc/raw_mfcc_train.4.ark:1397963
falk0_si658 quick_test/mfcc/raw_mfcc_train.1.ark:76033
mjeb0_sx386 quick_test/mfcc/raw_mfcc_train.3.ark:872409
mjrg0_sx106 quick_test/mfcc/raw_mfcc_train.3.ark:1492584
mmxs0_si629 quick_test/mfcc/raw_mfcc_train.3.ark:3416957
fcdr1_si556 quick_test/mfcc/raw_mfcc_train.1.ark:482135
mtbc0_sx273 quick_test/mfcc/raw_mfcc_train.4.ark:2487931
fdkn0_sx181 quick_test/mfcc/raw_mfcc_train.1.ark:924216
mdlm0_sx244 quick_test/mfcc/raw_mfcc_train.2.ark:2596634
mdss0_si621 quick_test/mfcc/raw_mfcc_train.2.ark:2946077
mwch0_si1895 quick_test/mfcc/raw_mfcc_train.4.ark:3524316
fvmh0_sx116 quick_test/mfcc/raw_mfcc_train.2.ark:644867
fbas0_si1472 quick_test/mfcc/raw_mfcc_train.1.ark:177011
fsgf0_sx27 quick_test/mfcc/raw_mfcc_train.1.ark:3814734
fgrw0_sx252 quick_test/mfcc/raw_mfcc_train.1.ark:1490782
mwdk0_sx356 quick_test/mfcc/raw_mfcc_train.4.ark:3568849
mklw0_sx401 quick_test/mfcc/raw_mfcc_train.3.ark:2293422
mdtb0_sx321 quick_test/mfcc/raw_mfcc_train.2.ark:3015717
mlel0_si1876 quick_test/mfcc/raw_mfcc_train.3.ark:2399461
fgdp0_sx88 quick_test/mfcc/raw_mfcc_train.1.ark:1426376
mdlh0_sx250 quick_test/mfcc/raw_mfcc_train.2.ark:2564909
fpmy0_sx343 quick_test/mfcc/raw_mfcc_train.1.ark:3455184
msmr0_sx55 quick_test/mfcc/raw_mfcc_train.4.ark:2165165
mmjb1_sx418 quick_test/mfcc/raw_mfcc_train.3.ark:3137396
mfer0_sx52 quick_test/mfcc/raw_mfcc_train.2.ark:3421943
fear0_sx82 quick_test/mfcc/raw_mfcc_train.1.ark:1183526
mdbb1_sx196 quick_test/mfcc/raw_mfcc_train.2.ark:2044145
mreh1_si969 quick_test/mfcc/raw_mfcc_train.4.ark:579202
feac0_si615 quick_test/mfcc/raw_mfcc_train.1.ark:1128380
megj0_si1967 quick_test/mfcc/raw_mfcc_train.2.ark:3220662
mrfl0_sx346 quick_test/mfcc/raw_mfcc_train.4.ark:722854
mjsr0_sx254 quick_test/mfcc/raw_mfcc_train.3.ark:1659498
fjdm2_sx52 quick_test/mfcc/raw_mfcc_train.1.ark:1611863
fbmj0_si1776 quick_test/mfcc/raw_mfcc_train.1.ark:374283
mjjj0_sx353 quick_test/mfcc/raw_mfcc_train.3.ark:1094757
mrso0_sx129 quick_test/mfcc/raw_mfcc_train.4.ark:1452447
mdlc0_sx135 quick_test/mfcc/raw_mfcc_train.2.ark:2467543
fjlr0_sx151 quick_test/mfcc/raw_mfcc_train.1.ark:1760467
msas0_sx206 quick_test/mfcc/raw_mfcc_train.4.ark:1754672
mbcg0_si2217 quick_test/mfcc/raw_mfcc_train.2.ark:1100145
mcdc0_sx302 quick_test/mfcc/raw_mfcc_train.2.ark:1529229
mprd0_sx81 quick_test/mfcc/raw_mfcc_train.4.ark:87025
fsgf0_sx117 quick_test/mfcc/raw_mfcc_train.1.ark:3808273
mjeb1_sx387 quick_test/mfcc/raw_mfcc_train.3.ark:905746
msfh0_sx226 quick_test/mfcc/raw_mfcc_train.4.ark:2014833
mjdc0_sx261 quick_test/mfcc/raw_mfcc_train.3.ark:721738
mjrk0_sx160 quick_test/mfcc/raw_mfcc_train.3.ark:1587617
fjen0_sx417 quick_test/mfcc/raw_mfcc_train.1.ark:1643765
fbas0_si2066 quick_test/mfcc/raw_mfcc_train.1.ark:182895
mmrp0_sx414 quick_test/mfcc/raw_mfcc_train.3.ark:3232025
mjws0_si513 quick_test/mfcc/raw_mfcc_train.3.ark:1721763
fdnc0_sx18 quick_test/mfcc/raw_mfcc_train.1.ark:1039873
mmds0_sx83 quick_test/mfcc/raw_mfcc_train.3.ark:2964875
mdlb0_si676 quick_test/mfcc/raw_mfcc_train.2.ark:2425138
mjmd0_sx218 quick_test/mfcc/raw_mfcc_train.3.ark:1309508
majp0_si2334 quick_test/mfcc/raw_mfcc_train.2.ark:852455
milb0_sx363 quick_test/mfcc/raw_mfcc_train.3.ark:537744
mmdm1_sx63 quick_test/mfcc/raw_mfcc_train.3.ark:2938272
mjjj0_si1793 quick_test/mfcc/raw_mfcc_train.3.ark:1077231
mjdg0_si1705 quick_test/mfcc/raw_mfcc_train.3.ark:786097
mtrc0_sx93 quick_test/mfcc/raw_mfcc_train.4.ark:3203329
fskl0_si1529 quick_test/mfcc/raw_mfcc_train.2.ark:113467
fsjw0_sx433 quick_test/mfcc/raw_mfcc_train.2.ark:74903
mtmn0_sx254 quick_test/mfcc/raw_mfcc_train.4.ark:2962827
mgsl0_sx444 quick_test/mfcc/raw_mfcc_train.3.ark:254786
fceg0_si1248 quick_test/mfcc/raw_mfcc_train.1.ark:509841
fsag0_si1323 quick_test/mfcc/raw_mfcc_train.1.ark:3554416
mmws1_si2331 quick_test/mfcc/raw_mfcc_train.3.ark:3395446
fmkf0_si906 quick_test/mfcc/raw_mfcc_train.1.ark:3029729
mtbc0_sx363 quick_test/mfcc/raw_mfcc_train.4.ark:2496252
msvs0_sx38 quick_test/mfcc/raw_mfcc_train.4.ark:2328773
mjeb1_sx27 quick_test/mfcc/raw_mfcc_train.3.ark:899531
fvmh0_si2096 quick_test/mfcc/raw_mfcc_train.2.ark:635480
mrfk0_si1076 quick_test/mfcc/raw_mfcc_train.4.ark:670175
mrab1_sx128 quick_test/mfcc/raw_mfcc_train.4.ark:230113
mtpp0_si1508 quick_test/mfcc/raw_mfcc_train.4.ark:3067949
fpmy0_sx163 quick_test/mfcc/raw_mfcc_train.1.ark:3444451
fssb0_si1082 quick_test/mfcc/raw_mfcc_train.2.ark:377434
mkdd0_si1567 quick_test/mfcc/raw_mfcc_train.3.ark:2011744
mwgr0_si2236 quick_test/mfcc/raw_mfcc_train.4.ark:3617374
flod0_si657 quick_test/mfcc/raw_mfcc_train.1.ark:2729877
