mram0_si1951 quick_test/data-fmllr-tri3/train/data/feats_fmllr_train.8.ark:12225995
mmsm0_sx116 quick_test/data-fmllr-tri3/train/data/feats_fmllr_train.8.ark:2748016
mrwa0_sx253 quick_test/data-fmllr-tri3/train/data/feats_fmllr_train.9.ark:10186029
fsmm0_sx324 quick_test/data-fmllr-tri3/train/data/feats_fmllr_train.3.ark:12132259
fpls0_si960 quick_test/data-fmllr-tri3/train/data/feats_fmllr_train.3.ark:3288524
mfmc0_sx52 quick_test/data-fmllr-tri3/train/data/feats_fmllr_train.5.ark:14704766
mbma1_sx54 quick_test/data-fmllr-tri3/train/data/feats_fmllr_train.4.ark:6271197
mrmh0_sx121 quick_test/data-fmllr-tri3/train/data/feats_fmllr_train.9.ark:6061430
mdtb0_si1830 quick_test/data-fmllr-tri3/train/data/feats_fmllr_train.5.ark:9281891
mcth0_si1209 quick_test/data-fmllr-tri3/train/data/feats_fmllr_train.4.ark:13233848
mcae0_si2077 quick_test/data-fmllr-tri3/train/data/feats_fmllr_train.4.ark:8199057
mkaj0_si784 quick_test/data-fmllr-tri3/train/data/feats_fmllr_train.7.ark:4909391
mjda0_sx41 quick_test/data-fmllr-tri3/train/data/feats_fmllr_train.6.ark:8323154
mprk0_si1727 quick_test/data-fmllr-tri3/train/data/feats_fmllr_train.8.ark:9912826
mtcs0_sx82 quick_test/data-fmllr-tri3/train/data/feats_fmllr_train.10.ark:2785024
mmws1_sx441 quick_test/data-fmllr-tri3/train/data/feats_fmllr_train.8.ark:4545125
mmrp0_sx144 quick_test/data-fmllr-tri3/train/data/feats_fmllr_train.8.ark:2272599
meal0_si1547 quick_test/data-fmllr-tri3/train/data/feats_fmllr_train.5.ark:10773932
mrxb0_sx235 quick_test/data-fmllr-tri3/train/data/feats_fmllr_train.9.ark:10924703
mrjm0_sx238 quick_test/data-fmllr-tri3/train/data/feats_fmllr_train.9.ark:1888829
marw0_si1906 quick_test/data-fmllr-tri3/train/data/feats_fmllr_train.4.ark:3016820
mbgt0_sx351 quick_test/data-fmllr-tri3/train/data/feats_fmllr_train.4.ark:5047133
mpgh0_si924 quick_test/data-fmllr-tri3/train/data/feats_fmllr_train.8.ark:6947173
mrcw0_sx111 quick_test/data-fmllr-tri3/train/data/feats_fmllr_train.8.ark:13866891
mrlk0_si2140 quick_test/data-fmllr-tri3/train/data/feats_fmllr_train.9.ark:4472826
mdmt0_si572 quick_test/data-fmllr-tri3/train/data/feats_fmllr_train.5.ark:5973245
mmxs0_si2136 quick_test/data-fmllr-tri3/train/data/feats_fmllr_train.8.ark:4612859
mjeb0_sx296 quick_test/data-fmllr-tri3/train/data/feats_fmllr_train.6.ark:10338772
mdps0_si719 quick_test/data-fmllr-tri3/train/data/feats_fmllr_train.5.ark:7496193
fsrh0_sx221 quick_test/data-fmllr-tri3/train/data/feats_fmllr_train.3.ark:13264403
fdfb0_sx328 quick_test/data-fmllr-tri3/train/data/feats_fmllr_train.1.ark:10332671
mtrr0_sx18 quick_test/data-fmllr-tri3/train/data/feats_fmllr_train.10.ark:10994620
mmds0_sx353 quick_test/data-fmllr-tri3/train/data/feats_fmllr_train.7.ark:17209002
mrtc0_sx18 quick_test/data-fmllr-tri3/train/data/feats_fmllr_train.9.ark:8978497
fvmh0_sx26 quick_test/data-fmllr-tri3/train/data/feats_fmllr_train.3.ark:16751982
fmkf0_sx186 quick_test/data-fmllr-tri3/train/data/feats_fmllr_train.2.ark:17307836
mnet0_sx276 quick_test/data-fmllr-tri3/train/data/feats_fmllr_train.8.ark:5155264
mrbc0_si1859 quick_test/data-fmllr-tri3/train/data/feats_fmllr_train.8.ark:12894563
mgag0_si645 quick_test/data-fmllr-tri3/train/data/feats_fmllr_train.5.ark:16632949
fsma0_sx181 quick_test/data-fmllr-tri3/train/data/feats_fmllr_train.3.ark:11632948
mdas0_sx6 quick_test/data-fmllr-tri3/train/data/feats_fmllr_train.4.ark:15034236
mjhi0_sx338 quick_test/data-fmllr-tri3/train/data/feats_fmllr_train.6.ark:12182550
fjrp1_si2062 quick_test/data-fmllr-tri3/train/data/feats_fmllr_train.2.ark:2870684
fsbk0_si2329 quick_test/data-fmllr-tri3/train/data/feats_fmllr_train.3.ark:6421299
msrr0_si1761 quick_test/data-fmllr-tri3/train/data/feats_fmllr_train.9.ark:17384795
mjma0_sx415 quick_test/data-fmllr-tri3/train/data/feats_fmllr_train.6.ark:15339035
mjbg0_sx332 quick_test/data-fmllr-tri3/train/data/feats_fmllr_train.6.ark:7872323
mctm0_sx360 quick_test/data-fmllr-tri3/train/data/feats_fmllr_train.4.ark:13857721
mjbg0_sx242 quick_test/data-fmllr-tri3/train/data/feats_fmllr_train.6.ark:7820616
mmsm0_sx26 quick_test/data-fmllr-tri3/train/data/feats_fmllr_train.8.ark:2835429
mdps0_sx269 quick_test/data-fmllr-tri3/train/data/feats_fmllr_train.5.ark:7586327
flet0_sx147 quick_test/data-fmllr-tri3/train/data/feats_fmllr_train.2.ark:10228407
mlns0_sx147 quick_test/data-fmllr-tri3/train/data/feats_fmllr_train.7.ark:11966286
fksr0_sx366 quick_test/data-fmllr-tri3/train/data/feats_fmllr_train.2.ark:8712552
mlns0_sx417 quick_test/data-fmllr-tri3/train/data/feats_fmllr_train.7.ark:12090207
fnkl0_si2152 quick_test/data-fmllr-tri3/train/data/feats_fmllr_train.3.ark:40521
fsdj0_si1745 quick_test/data-fmllr-tri3/train/data/feats_fmllr_train.3.ark:7648483
mmbs0_sx341 quick_test/data-fmllr-tri3/train/data/feats_fmllr_train.7.ark:14942740
fceg0_si1248 quick_test/data-fmllr-tri3/train/data/feats_fmllr_train.1.ark:6075585
mdlr1_sx399 quick_test/data-fmllr-tri3/train/data/feats_fmllr_train.5.ark:5426384
mstf0_si1396 quick_test/data-fmllr-tri3/train/data/feats_fmllr_train.9.ark:17729943
mkls0_si1533 quick_test/data-fmllr-tri3/train/data/feats_fmllr_train.7.ark:8286997
flhd0_sx174 quick_test/data-fmllr-tri3/train/data/feats_fmllr_train.2.ark:10539345
mrfk0_sx266 quick_test/data-fmllr-tri3/train/data/feats_fmllr_train.8.ark:16896976
mgak0_sx136 quick_test/data-fmllr-tri3/train/data/feats_fmllr_train.5.ark:17080421
mdlc0_sx315 quick_test/data-fmllr-tri3/train/data/feats_fmllr_train.5.ark:3057669
mrew1_si1500 quick_test/data-fmllr-tri3/train/data/feats_fmllr_train.8.ark:16352169
mpgr1_sx239 quick_test/data-fmllr-tri3/train/data/feats_fmllr_train.8.ark:7702862
mdem0_si608 quick_test/data-fmllr-tri3/train/data/feats_fmllr_train.5.ark:393858
fhxs0_si2335 quick_test/data-fmllr-tri3/train/data/feats_fmllr_train.1.ark:18546217
mdef0_si1123 quick_test/data-fmllr-tri3/train/data/feats_fmllr_train.5.ark:13
feeh0_sx32 quick_test/data-fmllr-tri3/train/data/feats_fmllr_train.1.ark:14896847
mbsb0_sx183 quick_test/data-fmllr-tri3/train/data/feats_fmllr_train.4.ark:7152703
frll0_si884 quick_test/data-fmllr-tri3/train/data/feats_fmllr_train.3.ark:4818030
mljh0_sx244 quick_test/data-fmllr-tri3/train/data/feats_fmllr_train.7.ark:11610896
mgar0_sx222 quick_test/data-fmllr-tri3/train/data/feats_fmllr_train.6.ark:181083
mdwd0_sx180 quick_test/data-fmllr-tri3/train/data/feats_fmllr_train.5.ark:9729523
mmaa0_si1588 quick_test/data-fmllr-tri3/train/data/feats_fmllr_train.7.ark:12587758
freh0_si1315 quick_test/data-fmllr-tri3/train/data/feats_fmllr_train.3.ark:4008901
mdas0_si1896 quick_test/data-fmllr-tri3/train/data/feats_fmllr_train.4.ark:14804504
mdss0_si621 quick_test/data-fmllr-tri3/train/data/feats_fmllr_train.5.ark:8660844
msmc0_sx107 quick_test/data-fmllr-tri3/train/data/feats_fmllr_train.9.ark:15990221
ftbw0_sx265 quick_test/data-fmllr-tri3/train/data/feats_fmllr_train.3.ark:14809911
fjlr0_si601 quick_test/data-fmllr-tri3/train/data/feats_fmllr_train.2.ark:2090917
mtrt0_sx57 quick_test/data-fmllr-tri3/train/data/feats_fmllr_train.10.ark:11511558
fmjf0_sx354 quick_test/data-fmllr-tri3/train/data/feats_fmllr_train.2.ark:16170438
ftlg0_sx213 quick_test/data-fmllr-tri3/train/data/feats_fmllr_train.3.ark:15217807
fsag0_sx243 quick_test/data-fmllr-tri3/train/data/feats_fmllr_train.3.ark:5283901
mdps0_si1651 quick_test/data-fmllr-tri3/train/data/feats_fmllr_train.5.ark:7415338
mppc0_si2042 quick_test/data-fmllr-tri3/train/data/feats_fmllr_train.8.ark:8622255
mrai0_si1954 quick_test/data-fmllr-tri3/train/data/feats_fmllr_train.8.ark:11715162
mefg0_si465 quick_test/data-fmllr-tri3/train/data/feats_fmllr_train.5.ark:11417726
mpeb0_sx150 quick_test/data-fmllr-tri3/train/data/feats_fmllr_train.8.ark:6184527
mklw0_si1571 quick_test/data-fmllr-tri3/train/data/feats_fmllr_train.7.ark:8990444
mmag0_si1756 quick_test/data-fmllr-tri3/train/data/feats_fmllr_train.7.ark:13465180
mtpr0_sx340 quick_test/data-fmllr-tri3/train/data/feats_fmllr_train.10.ark:9803758
mmjb1_si778 quick_test/data-fmllr-tri3/train/data/feats_fmllr_train.8.ark:1137201
flhd0_sx264 quick_test/data-fmllr-tri3/train/data/feats_fmllr_train.2.ark:10600492
mtpp0_sx158 quick_test/data-fmllr-tri3/train/data/feats_fmllr_train.10.ark:9298687
flmc0_si2002 quick_test/data-fmllr-tri3/train/data/feats_fmllr_train.2.ark:12884593
mwsh0_sx76 quick_test/data-fmllr-tri3/train/data/feats_fmllr_train.10.ark:17537273
fkaa0_si1208 quick_test/data-fmllr-tri3/train/data/feats_fmllr_train.2.ark:5196758
mstf0_sx136 quick_test/data-fmllr-tri3/train/data/feats_fmllr_train.9.ark:17891624
mcdd0_si1513 quick_test/data-fmllr-tri3/train/data/feats_fmllr_train.4.ark:9348798
falk0_sx366 quick_test/data-fmllr-tri3/train/data/feats_fmllr_train.1.ark:1064740
mdpb0_sx326 quick_test/data-fmllr-tri3/train/data/feats_fmllr_train.5.ark:6944000
mjee0_sx67 quick_test/data-fmllr-tri3/train/data/feats_fmllr_train.6.ark:11153153
mpsw0_si2327 quick_test/data-fmllr-tri3/train/data/feats_fmllr_train.8.ark:10705287
fmbg0_sx260 quick_test/data-fmllr-tri3/train/data/feats_fmllr_train.2.ark:14860776
mesg0_sx342 quick_test/data-fmllr-tri3/train/data/feats_fmllr_train.5.ark:13213127
mtjm0_sx326 quick_test/data-fmllr-tri3/train/data/feats_fmllr_train.10.ark:4720616
frjb0_sx437 quick_test/data-fmllr-tri3/train/data/feats_fmllr_train.3.ark:4597762
fnkl0_si1522 quick_test/data-fmllr-tri3/train/data/feats_fmllr_train.3.ark:13
megj0_sx77 quick_test/data-fmllr-tri3/train/data/feats_fmllr_train.5.ark:12207569
mtrt0_sx147 quick_test/data-fmllr-tri3/train/data/feats_fmllr_train.10.ark:11359291
mfxv0_si1635 quick_test/data-fmllr-tri3/train/data/feats_fmllr_train.5.ark:16002143
feac0_si1245 quick_test/data-fmllr-tri3/train/data/feats_fmllr_train.1.ark:13343074
msah1_sx419 quick_test/data-fmllr-tri3/train/data/feats_fmllr_train.9.ark:11346735
makr0_sx362 quick_test/data-fmllr-tri3/train/data/feats_fmllr_train.4.ark:2124277
mgrl0_si1497 quick_test/data-fmllr-tri3/train/data/feats_fmllr_train.6.ark:1506803
mhit0_sx353 quick_test/data-fmllr-tri3/train/data/feats_fmllr_train.6.ark:4163915
mcth0_sx399 quick_test/data-fmllr-tri3/train/data/feats_fmllr_train.4.ark:13570997
mjma0_sx145 quick_test/data-fmllr-tri3/train/data/feats_fmllr_train.6.ark:15230634
mrai0_si792 quick_test/data-fmllr-tri3/train/data/feats_fmllr_train.8.ark:11810097
mjdm0_sx170 quick_test/data-fmllr-tri3/train/data/feats_fmllr_train.6.ark:9746635
mtwh1_si1512 quick_test/data-fmllr-tri3/train/data/feats_fmllr_train.10.ark:11556066
fjhk0_sx392 quick_test/data-fmllr-tri3/train/data/feats_fmllr_train.2.ark:1201919
mddc0_si789 quick_test/data-fmllr-tri3/train/data/feats_fmllr_train.4.ark:16737934
mrjm1_si1928 quick_test/data-fmllr-tri3/train/data/feats_fmllr_train.9.ark:2162245
mkdb0_si588 quick_test/data-fmllr-tri3/train/data/feats_fmllr_train.7.ark:5604358
flhd0_sx354 quick_test/data-fmllr-tri3/train/data/feats_fmllr_train.2.ark:10645319
mtkd0_si630 quick_test/data-fmllr-tri3/train/data/feats_fmllr_train.10.ark:5774626
fgdp0_si988 quick_test/data-fmllr-tri3/train/data/feats_fmllr_train.1.ark:16694626
fmpg0_sx162 quick_test/data-fmllr-tri3/train/data/feats_fmllr_train.2.ark:18115146
mjjj0_sx263 quick_test/data-fmllr-tri3/train/data/feats_fmllr_train.6.ark:12966798
mtml0_si1695 quick_test/data-fmllr-tri3/train/data/feats_fmllr_train.10.ark:7285067
mwre0_sx157 quick_test/data-fmllr-tri3/train/data/feats_fmllr_train.10.ark:16165478
mcdr0_sx254 quick_test/data-fmllr-tri3/train/data/feats_fmllr_train.4.ark:9968324
fcag0_sx153 quick_test/data-fmllr-tri3/train/data/feats_fmllr_train.1.ark:4988456
mkaj0_sx64 quick_test/data-fmllr-tri3/train/data/feats_fmllr_train.7.ark:5106485
mdss1_si1713 quick_test/data-fmllr-tri3/train/data/feats_fmllr_train.5.ark:8958634
fcmg0_sx72 quick_test/data-fmllr-tri3/train/data/feats_fmllr_train.1.ark:8160380
mmam0_sx247 quick_test/data-fmllr-tri3/train/data/feats_fmllr_train.7.ark:14006279
mtat0_sx390 quick_test/data-fmllr-tri3/train/data/feats_fmllr_train.10.ark:1578773
milb0_sx183 quick_test/data-fmllr-tri3/train/data/feats_fmllr_train.6.ark:6286602
mmdm1_sx63 quick_test/data-fmllr-tri3/train/data/feats_fmllr_train.7.ark:16973158
fmpg0_si1602 quick_test/data-fmllr-tri3/train/data/feats_fmllr_train.2.ark:17925144
mjwg0_sx85 quick_test/data-fmllr-tri3/train/data/feats_fmllr_train.7.ark:2361607
mjee0_si1237 quick_test/data-fmllr-tri3/train/data/feats_fmllr_train.6.ark:10834884
mwch0_sx272 quick_test/data-fmllr-tri3/train/data/feats_fmllr_train.10.ark:14687035
mgrp0_si687 quick_test/data-fmllr-tri3/train/data/feats_fmllr_train.6.ark:1984515
flmk0_sx135 quick_test/data-fmllr-tri3/train/data/feats_fmllr_train.2.ark:13358145
mbom0_sx294 quick_test/data-fmllr-tri3/train/data/feats_fmllr_train.4.ark:6880379
fkfb0_sx168 quick_test/data-fmllr-tri3/train/data/feats_fmllr_train.2.ark:6598132
mtbc0_si543 quick_test/data-fmllr-tri3/train/data/feats_fmllr_train.10.ark:2137473
mdma0_sx440 quick_test/data-fmllr-tri3/train/data/feats_fmllr_train.5.ark:5815696
msfh0_sx316 quick_test/data-fmllr-tri3/train/data/feats_fmllr_train.9.ark:14820025
fcjf0_sx307 quick_test/data-fmllr-tri3/train/data/feats_fmllr_train.1.ark:6602498
mrlj0_si790 quick_test/data-fmllr-tri3/train/data/feats_fmllr_train.9.ark:3794658
mrjt0_si1498 quick_test/data-fmllr-tri3/train/data/feats_fmllr_train.9.ark:2495074
mhmr0_si1692 quick_test/data-fmllr-tri3/train/data/feats_fmllr_train.6.ark:4998219
fltm0_si2330 quick_test/data-fmllr-tri3/train/data/feats_fmllr_train.2.ark:14009274
msmr0_sx55 quick_test/data-fmllr-tri3/train/data/feats_fmllr_train.9.ark:16555505
mmgk0_si1952 quick_test/data-fmllr-tri3/train/data/feats_fmllr_train.8.ark:793277
fskl0_sx179 quick_test/data-fmllr-tri3/train/data/feats_fmllr_train.3.ark:10502216
fsjw0_si1963 quick_test/data-fmllr-tri3/train/data/feats_fmllr_train.3.ark:9667168
mbml0_si1169 quick_test/data-fmllr-tri3/train/data/feats_fmllr_train.4.ark:6332185
msat1_si2333 quick_test/data-fmllr-tri3/train/data/feats_fmllr_train.9.ark:12250319
mgag0_sx151 quick_test/data-fmllr-tri3/train/data/feats_fmllr_train.5.ark:16727403
fntb0_sx123 quick_test/data-fmllr-tri3/train/data/feats_fmllr_train.3.ark:538071
mdwm0_sx376 quick_test/data-fmllr-tri3/train/data/feats_fmllr_train.5.ark:10682037
fbmh0_sx56 quick_test/data-fmllr-tri3/train/data/feats_fmllr_train.1.ark:4416289
mdwm0_si2176 quick_test/data-fmllr-tri3/train/data/feats_fmllr_train.5.ark:10437103
mter0_sx77 quick_test/data-fmllr-tri3/train/data/feats_fmllr_train.10.ark:4043115
fsjs0_sx181 quick_test/data-fmllr-tri3/train/data/feats_fmllr_train.3.ark:9321725
fpab1_si1471 quick_test/data-fmllr-tri3/train/data/feats_fmllr_train.3.ark:741406
fjxp0_sx312 quick_test/data-fmllr-tri3/train/data/feats_fmllr_train.2.ark:5058277
fdaw0_si1406 quick_test/data-fmllr-tri3/train/data/feats_fmllr_train.1.ark:9808504
fsjk1_sx125 quick_test/data-fmllr-tri3/train/data/feats_fmllr_train.3.ark:8963748
mjwt0_si1381 quick_test/data-fmllr-tri3/train/data/feats_fmllr_train.7.ark:2892920
mdrd0_sx122 quick_test/data-fmllr-tri3/train/data/feats_fmllr_train.5.ark:7938197
mrjt0_si868 quick_test/data-fmllr-tri3/train/data/feats_fmllr_train.9.ark:2565369
mbef0_sx21 quick_test/data-fmllr-tri3/train/data/feats_fmllr_train.4.ark:4694275
mjxa0_sx157 quick_test/data-fmllr-tri3/train/data/feats_fmllr_train.7.ark:3392071
mafm0_sx219 quick_test/data-fmllr-tri3/train/data/feats_fmllr_train.4.ark:894637
mbjv0_sx347 quick_test/data-fmllr-tri3/train/data/feats_fmllr_train.4.ark:5408630
mmsm0_si1736 quick_test/data-fmllr-tri3/train/data/feats_fmllr_train.8.ark:2635802
fcrz0_si1913 quick_test/data-fmllr-tri3/train/data/feats_fmllr_train.1.ark:8563505
mjrk0_sx160 quick_test/data-fmllr-tri3/train/data/feats_fmllr_train.7.ark:887730
mtpp0_si878 quick_test/data-fmllr-tri3/train/data/feats_fmllr_train.10.ark:9258500
mdwd0_sx360 quick_test/data-fmllr-tri3/train/data/feats_fmllr_train.5.ark:9805737
mges0_si1481 quick_test/data-fmllr-tri3/train/data/feats_fmllr_train.6.ark:751328
mtjm0_sx416 quick_test/data-fmllr-tri3/train/data/feats_fmllr_train.10.ark:4765123
mrml0_sx251 quick_test/data-fmllr-tri3/train/data/feats_fmllr_train.9.ark:6504874
mmrp0_sx414 quick_test/data-fmllr-tri3/train/data/feats_fmllr_train.8.ark:2452040
mcre0_si1751 quick_test/data-fmllr-tri3/train/data/feats_fmllr_train.4.ark:12538431
mrab1_sx308 quick_test/data-fmllr-tri3/train/data/feats_fmllr_train.8.ark:11565801
fdtd0_si2191 quick_test/data-fmllr-tri3/train/data/feats_fmllr_train.1.ark:12638347
maeo0_sx66 quick_test/data-fmllr-tri3/train/data/feats_fmllr_train.4.ark:710980
mjlb0_sx266 quick_test/data-fmllr-tri3/train/data/feats_fmllr_train.6.ark:14146969
mwch0_si1895 quick_test/data-fmllr-tri3/train/data/feats_fmllr_train.10.ark:14589353
fleh0_sx331 quick_test/data-fmllr-tri3/train/data/feats_fmllr_train.2.ark:9903604
mprk0_sx107 quick_test/data-fmllr-tri3/train/data/feats_fmllr_train.8.ark:10022640
mmxs0_sx426 quick_test/data-fmllr-tri3/train/data/feats_fmllr_train.8.ark:4894781
msvs0_sx38 quick_test/data-fmllr-tri3/train/data/feats_fmllr_train.10.ark:358255
fleh0_si2311 quick_test/data-fmllr-tri3/train/data/feats_fmllr_train.2.ark:9770883
fpad0_sx356 quick_test/data-fmllr-tri3/train/data/feats_fmllr_train.3.ark:1886456
mfer0_sx52 quick_test/data-fmllr-tri3/train/data/feats_fmllr_train.5.ark:14310149
mmpm0_sx341 quick_test/data-fmllr-tri3/train/data/feats_fmllr_train.8.ark:2012597
mlns0_sx57 quick_test/data-fmllr-tri3/train/data/feats_fmllr_train.7.ark:12143833
msrg0_si1851 quick_test/data-fmllr-tri3/train/data/feats_fmllr_train.9.ark:17046818
flet0_sx417 quick_test/data-fmllr-tri3/train/data/feats_fmllr_train.2.ark:10331208
mkls0_sx87 quick_test/data-fmllr-tri3/train/data/feats_fmllr_train.7.ark:8579319
mcef0_sx55 quick_test/data-fmllr-tri3/train/data/feats_fmllr_train.4.ark:10439821
fmju0_sx39 quick_test/data-fmllr-tri3/train/data/feats_fmllr_train.2.ark:16644121
fmjf0_sx84 quick_test/data-fmllr-tri3/train/data/feats_fmllr_train.2.ark:16265691
msat0_sx176 quick_test/data-fmllr-tri3/train/data/feats_fmllr_train.9.ark:11964848
flag0_sx384 quick_test/data-fmllr-tri3/train/data/feats_fmllr_train.2.ark:9613519
mter0_sx257 quick_test/data-fmllr-tri3/train/data/feats_fmllr_train.10.ark:3939222
fltm0_si1700 quick_test/data-fmllr-tri3/train/data/feats_fmllr_train.2.ark:13967006
mbbr0_sx65 quick_test/data-fmllr-tri3/train/data/feats_fmllr_train.4.ark:4078856
fjxp0_sx132 quick_test/data-fmllr-tri3/train/data/feats_fmllr_train.2.ark:4979663
mjfr0_sx255 quick_test/data-fmllr-tri3/train/data/feats_fmllr_train.6.ark:11723427
mrlk0_sx213 quick_test/data-fmllr-tri3/train/data/feats_fmllr_train.9.ark:4638827
fjxp0_sx402 quick_test/data-fmllr-tri3/train/data/feats_fmllr_train.2.ark:5114944
feac0_si1875 quick_test/data-fmllr-tri3/train/data/feats_fmllr_train.1.ark:13380702
mjlg1_sx292 quick_test/data-fmllr-tri3/train/data/feats_fmllr_train.6.ark:14561320
mjda0_sx401 quick_test/data-fmllr-tri3/train/data/feats_fmllr_train.6.ark:8273528
mvrw0_si1485 quick_test/data-fmllr-tri3/train/data/feats_fmllr_train.10.ark:13095495
fdjh0_sx395 quick_test/data-fmllr-tri3/train/data/feats_fmllr_train.1.ark:10791341
mhbs0_sx135 quick_test/data-fmllr-tri3/train/data/feats_fmllr_train.6.ark:3722524
mljc0_si1225 quick_test/data-fmllr-tri3/train/data/feats_fmllr_train.7.ark:10940010
mdcd0_sx65 quick_test/data-fmllr-tri3/train/data/feats_fmllr_train.4.ark:16231874
mwch0_si2252 quick_test/data-fmllr-tri3/train/data/feats_fmllr_train.10.ark:14609541
mjxl0_sx182 quick_test/data-fmllr-tri3/train/data/feats_fmllr_train.7.ark:3759968
mtbc0_sx93 quick_test/data-fmllr-tri3/train/data/feats_fmllr_train.10.ark:2410567
mjfr0_si2235 quick_test/data-fmllr-tri3/train/data/feats_fmllr_train.6.ark:11575986
mtqc0_sx181 quick_test/data-fmllr-tri3/train/data/feats_fmllr_train.10.ark:10151121
fblv0_si2318 quick_test/data-fmllr-tri3/train/data/feats_fmllr_train.1.ark:3799778
fksr0_sx161 quick_test/data-fmllr-tri3/train/data/feats_fmllr_train.2.ark:8615218
mded0_sx90 quick_test/data-fmllr-tri3/train/data/feats_fmllr_train.4.ark:17369325
fjwb1_sx435 quick_test/data-fmllr-tri3/train/data/feats_fmllr_train.2.ark:4311790
mklw0_si1844 quick_test/data-fmllr-tri3/train/data/feats_fmllr_train.7.ark:9072552
mtml0_sx255 quick_test/data-fmllr-tri3/train/data/feats_fmllr_train.10.ark:7454109
mcth0_sx39 quick_test/data-fmllr-tri3/train/data/feats_fmllr_train.4.ark:13523130
mjae0_sx264 quick_test/data-fmllr-tri3/train/data/feats_fmllr_train.6.ark:7044822
mjfh0_sx297 quick_test/data-fmllr-tri3/train/data/feats_fmllr_train.6.ark:11449823
mrav0_si2268 quick_test/data-fmllr-tri3/train/data/feats_fmllr_train.8.ark:12593253
mdma0_sx80 quick_test/data-fmllr-tri3/train/data/feats_fmllr_train.5.ark:5889962
mcef0_sx415 quick_test/data-fmllr-tri3/train/data/feats_fmllr_train.4.ark:10399315
marc0_si1818 quick_test/data-fmllr-tri3/train/data/feats_fmllr_train.4.ark:2685883
feme0_si1505 quick_test/data-fmllr-tri3/train/data/feats_fmllr_train.1.ark:14992742
mrms0_sx30 quick_test/data-fmllr-tri3/train/data/feats_fmllr_train.9.ark:6989598
fbch0_sx326 quick_test/data-fmllr-tri3/train/data/feats_fmllr_train.1.ark:3115744
fpls0_si2220 quick_test/data-fmllr-tri3/train/data/feats_fmllr_train.3.ark:3242097
mclm0_sx106 quick_test/data-fmllr-tri3/train/data/feats_fmllr_train.4.ark:11917383
mdns0_sx201 quick_test/data-fmllr-tri3/train/data/feats_fmllr_train.5.ark:6508076
mtmn0_si582 quick_test/data-fmllr-tri3/train/data/feats_fmllr_train.10.ark:7771712
mcew0_sx362 quick_test/data-fmllr-tri3/train/data/feats_fmllr_train.4.ark:10784625
fltm0_sx350 quick_test/data-fmllr-tri3/train/data/feats_fmllr_train.2.ark:14164395
mrmb0_si1581 quick_test/data-fmllr-tri3/train/data/feats_fmllr_train.9.ark:5146512
mtkd0_sx287 quick_test/data-fmllr-tri3/train/data/feats_fmllr_train.10.ark:5980173
mses0_sx239 quick_test/data-fmllr-tri3/train/data/feats_fmllr_train.9.ark:14344261
mjhi0_sx248 quick_test/data-fmllr-tri3/train/data/feats_fmllr_train.6.ark:12147483
fjhk0_sx32 quick_test/data-fmllr-tri3/train/data/feats_fmllr_train.2.ark:1161092
fleh0_si1681 quick_test/data-fmllr-tri3/train/data/feats_fmllr_train.2.ark:9732615
mreh1_sx159 quick_test/data-fmllr-tri3/train/data/feats_fmllr_train.8.ark:15713578
mrlj1_si2301 quick_test/data-fmllr-tri3/train/data/feats_fmllr_train.9.ark:4108768
mlel0_sx256 quick_test/data-fmllr-tri3/train/data/feats_fmllr_train.7.ark:10730782
mmws1_si2331 quick_test/data-fmllr-tri3/train/data/feats_fmllr_train.8.ark:4403578
mwad0_si2322 quick_test/data-fmllr-tri3/train/data/feats_fmllr_train.10.ark:13948305
mbar0_sx59 quick_test/data-fmllr-tri3/train/data/feats_fmllr_train.4.ark:3722158
mewm0_sx268 quick_test/data-fmllr-tri3/train/data/feats_fmllr_train.5.ark:13858012
mdsj0_sx438 quick_test/data-fmllr-tri3/train/data/feats_fmllr_train.5.ark:8528441
mhmr0_si489 quick_test/data-fmllr-tri3/train/data/feats_fmllr_train.6.ark:5070566
mgxp0_sx277 quick_test/data-fmllr-tri3/train/data/feats_fmllr_train.6.ark:3377216
mlbc0_si609 quick_test/data-fmllr-tri3/train/data/feats_fmllr_train.7.ark:10225071
mhjb0_si2277 quick_test/data-fmllr-tri3/train/data/feats_fmllr_train.6.ark:4382932
mtjm0_sx236 quick_test/data-fmllr-tri3/train/data/feats_fmllr_train.10.ark:4685549
msvs0_sx308 quick_test/data-fmllr-tri3/train/data/feats_fmllr_train.10.ark:305269
mrms0_si1113 quick_test/data-fmllr-tri3/train/data/feats_fmllr_train.9.ark:6741622
mrgm0_sx262 quick_test/data-fmllr-tri3/train/data/feats_fmllr_train.8.ark:17738690
fmah1_sx159 quick_test/data-fmllr-tri3/train/data/feats_fmllr_train.2.ark:14486638
mjpg0_sx381 quick_test/data-fmllr-tri3/train/data/feats_fmllr_train.6.ark:16403713
fvfb0_sx222 quick_test/data-fmllr-tri3/train/data/feats_fmllr_train.3.ark:15930882
fjwb1_sx345 quick_test/data-fmllr-tri3/train/data/feats_fmllr_train.2.ark:4268083
mkes0_si1253 quick_test/data-fmllr-tri3/train/data/feats_fmllr_train.7.ark:6725940
fkdw0_sx397 quick_test/data-fmllr-tri3/train/data/feats_fmllr_train.2.ark:6385222
mmrp0_si717 quick_test/data-fmllr-tri3/train/data/feats_fmllr_train.8.ark:2177185
mrlj1_sx321 quick_test/data-fmllr-tri3/train/data/feats_fmllr_train.9.ark:4263917
mchl0_sx357 quick_test/data-fmllr-tri3/train/data/feats_fmllr_train.4.ark:11236843
mmgg0_si1709 quick_test/data-fmllr-tri3/train/data/feats_fmllr_train.8.ark:428579
mhit0_si983 quick_test/data-fmllr-tri3/train/data/feats_fmllr_train.6.ark:3993914
mpgh0_sx384 quick_test/data-fmllr-tri3/train/data/feats_fmllr_train.8.ark:7118987
fexm0_sx201 quick_test/data-fmllr-tri3/train/data/feats_fmllr_train.1.ark:16017765
fmmh0_sx420 quick_test/data-fmllr-tri3/train/data/feats_fmllr_train.2.ark:17782985
mprb0_si575 quick_test/data-fmllr-tri3/train/data/feats_fmllr_train.8.ark:9048419
mtmt0_sx308 quick_test/data-fmllr-tri3/train/data/feats_fmllr_train.10.ark:8311530
mjmm0_sx85 quick_test/data-fmllr-tri3/train/data/feats_fmllr_train.6.ark:16072776
msah1_si1049 quick_test/data-fmllr-tri3/train/data/feats_fmllr_train.9.ark:11101451
mtlb0_si1134 quick_test/data-fmllr-tri3/train/data/feats_fmllr_train.10.ark:6498845
mrws0_si1732 quick_test/data-fmllr-tri3/train/data/feats_fmllr_train.9.ark:10440565
fskp0_sx198 quick_test/data-fmllr-tri3/train/data/feats_fmllr_train.3.ark:10966646
mdss0_sx351 quick_test/data-fmllr-tri3/train/data/feats_fmllr_train.5.ark:8778525
mtas0_si2015 quick_test/data-fmllr-tri3/train/data/feats_fmllr_train.10.ark:993915
mdas0_sx186 quick_test/data-fmllr-tri3/train/data/feats_fmllr_train.4.ark:14936558
msdh0_sx440 quick_test/data-fmllr-tri3/train/data/feats_fmllr_train.9.ark:13097582
fhlm0_si930 quick_test/data-fmllr-tri3/train/data/feats_fmllr_train.1.ark:18029998
mdns0_sx381 quick_test/data-fmllr-tri3/train/data/feats_fmllr_train.5.ark:6625916
fdjh0_sx215 quick_test/data-fmllr-tri3/train/data/feats_fmllr_train.1.ark:10664861
mmws0_si1518 quick_test/data-fmllr-tri3/train/data/feats_fmllr_train.8.ark:3940266
mdlc0_si2025 quick_test/data-fmllr-tri3/train/data/feats_fmllr_train.5.ark:2865721
fclt0_sx268 quick_test/data-fmllr-tri3/train/data/feats_fmllr_train.1.ark:7593042
fcdr1_si556 quick_test/data-fmllr-tri3/train/data/feats_fmllr_train.1.ark:5744543
fajw0_sx363 quick_test/data-fmllr-tri3/train/data/feats_fmllr_train.1.ark:710471
mtjs0_sx292 quick_test/data-fmllr-tri3/train/data/feats_fmllr_train.10.ark:5179899
mkdt0_si2153 quick_test/data-fmllr-tri3/train/data/feats_fmllr_train.7.ark:6322364
flkm0_si686 quick_test/data-fmllr-tri3/train/data/feats_fmllr_train.2.ark:12179546
mtab0_sx402 quick_test/data-fmllr-tri3/train/data/feats_fmllr_train.10.ark:850313
mjjm0_sx197 quick_test/data-fmllr-tri3/train/data/feats_fmllr_train.6.ark:13415201
mdhs0_sx270 quick_test/data-fmllr-tri3/train/data/feats_fmllr_train.5.ark:1398373
mses0_sx419 quick_test/data-fmllr-tri3/train/data/feats_fmllr_train.9.ark:14436955
mejs0_sx160 quick_test/data-fmllr-tri3/train/data/feats_fmllr_train.5.ark:12749336
fscn0_si705 quick_test/data-fmllr-tri3/train/data/feats_fmllr_train.3.ark:6854475
mmws0_si888 quick_test/data-fmllr-tri3/train/data/feats_fmllr_train.8.ark:4022400
mmeb0_si1357 quick_test/data-fmllr-tri3/train/data/feats_fmllr_train.7.ark:17654900
mjlb0_si1616 quick_test/data-fmllr-tri3/train/data/feats_fmllr_train.6.ark:13949420
fmbg0_si2264 quick_test/data-fmllr-tri3/train/data/feats_fmllr_train.2.ark:14828109
mtrt0_sx417 quick_test/data-fmllr-tri3/train/data/feats_fmllr_train.10.ark:11464172
mdpb0_si1760 quick_test/data-fmllr-tri3/train/data/feats_fmllr_train.5.ark:6661944
mram0_sx195 quick_test/data-fmllr-tri3/train/data/feats_fmllr_train.8.ark:12384795
fskc0_si2046 quick_test/data-fmllr-tri3/train/data/feats_fmllr_train.3.ark:10040025
mtdb0_sx321 quick_test/data-fmllr-tri3/train/data/feats_fmllr_train.10.ark:3072388
fcmm0_sx183 quick_test/data-fmllr-tri3/train/data/feats_fmllr_train.1.ark:8344010
mjdg0_si1042 quick_test/data-fmllr-tri3/train/data/feats_fmllr_train.6.ark:9246815
fdfb0_si1948 quick_test/data-fmllr-tri3/train/data/feats_fmllr_train.1.ark:10205682
mdmt0_sx122 quick_test/data-fmllr-tri3/train/data/feats_fmllr_train.5.ark:6036312
mjjb0_si1139 quick_test/data-fmllr-tri3/train/data/feats_fmllr_train.6.ark:12331111
mtjg0_sx260 quick_test/data-fmllr-tri3/train/data/feats_fmllr_train.10.ark:4270132
madd0_si538 quick_test/data-fmllr-tri3/train/data/feats_fmllr_train.3.ark:17676873
mwac0_sx161 quick_test/data-fmllr-tri3/train/data/feats_fmllr_train.10.ark:13575474
mgar0_sx42 quick_test/data-fmllr-tri3/train/data/feats_fmllr_train.6.ark:347883
fjxp0_si1122 quick_test/data-fmllr-tri3/train/data/feats_fmllr_train.2.ark:4841021
mjrk0_si2103 quick_test/data-fmllr-tri3/train/data/feats_fmllr_train.7.ark:792316
mjhi0_si698 quick_test/data-fmllr-tri3/train/data/feats_fmllr_train.6.ark:12057509
mgsl0_sx264 quick_test/data-fmllr-tri3/train/data/feats_fmllr_train.6.ark:2940360
fskl0_si899 quick_test/data-fmllr-tri3/train/data/feats_fmllr_train.3.ark:10459789
flmc0_sx382 quick_test/data-fmllr-tri3/train/data/feats_fmllr_train.2.ark:13158674
fsag0_si693 quick_test/data-fmllr-tri3/train/data/feats_fmllr_train.3.ark:5163367
mbar0_sx329 quick_test/data-fmllr-tri3/train/data/feats_fmllr_train.4.ark:3620025
mwad0_si1749 quick_test/data-fmllr-tri3/train/data/feats_fmllr_train.10.ark:13929717
mafm0_si1569 quick_test/data-fmllr-tri3/train/data/feats_fmllr_train.4.ark:746368
mdjm0_sx15 quick_test/data-fmllr-tri3/train/data/feats_fmllr_train.5.ark:1763869
mesj0_sx7 quick_test/data-fmllr-tri3/train/data/feats_fmllr_train.5.ark:13628409
mgsl0_sx174 quick_test/data-fmllr-tri3/train/data/feats_fmllr_train.6.ark:2879853
mcth0_sx129 quick_test/data-fmllr-tri3/train/data/feats_fmllr_train.4.ark:13379530
mbma0_si592 quick_test/data-fmllr-tri3/train/data/feats_fmllr_train.4.ark:5653726
mmgk0_sx152 quick_test/data-fmllr-tri3/train/data/feats_fmllr_train.8.ark:843891
mmds0_si1973 quick_test/data-fmllr-tri3/train/data/feats_fmllr_train.7.ark:17077214
fcjs0_si1607 quick_test/data-fmllr-tri3/train/data/feats_fmllr_train.1.ark:6700339
mcss0_si1380 quick_test/data-fmllr-tri3/train/data/feats_fmllr_train.4.ark:12832672
mesg0_si1332 quick_test/data-fmllr-tri3/train/data/feats_fmllr_train.5.ark:12972831
mtxs0_si1690 quick_test/data-fmllr-tri3/train/data/feats_fmllr_train.10.ark:11959031
fpad0_si716 quick_test/data-fmllr-tri3/train/data/feats_fmllr_train.3.ark:1700135
mrbc0_sx329 quick_test/data-fmllr-tri3/train/data/feats_fmllr_train.8.ark:13086191
mbgt0_sx441 quick_test/data-fmllr-tri3/train/data/feats_fmllr_train.4.ark:5111160
fdaw0_sx146 quick_test/data-fmllr-tri3/train/data/feats_fmllr_train.1.ark:9925199
mdrd0_sx32 quick_test/data-fmllr-tri3/train/data/feats_fmllr_train.5.ark:8102597
mrmb0_sx51 quick_test/data-fmllr-tri3/train/data/feats_fmllr_train.9.ark:5470381
makb0_si1646 quick_test/data-fmllr-tri3/train/data/feats_fmllr_train.4.ark:1594831
fjrp1_sx262 quick_test/data-fmllr-tri3/train/data/feats_fmllr_train.2.ark:3000685
fpad0_sx86 quick_test/data-fmllr-tri3/train/data/feats_fmllr_train.3.ark:1988749
flkm0_sx80 quick_test/data-fmllr-tri3/train/data/feats_fmllr_train.2.ark:12444320
mhjb0_sx387 quick_test/data-fmllr-tri3/train/data/feats_fmllr_train.6.ark:4566106
mrew1_si2130 quick_test/data-fmllr-tri3/train/data/feats_fmllr_train.8.ark:16392517
mbef0_si651 quick_test/data-fmllr-tri3/train/data/feats_fmllr_train.4.ark:4562035
mrjb1_si1413 quick_test/data-fmllr-tri3/train/data/feats_fmllr_train.9.ark:841273
mdwm0_sx433 quick_test/data-fmllr-tri3/train/data/feats_fmllr_train.5.ark:10725744
mmam0_si1597 quick_test/data-fmllr-tri3/train/data/feats_fmllr_train.7.ark:13850169
mcew0_si2072 quick_test/data-fmllr-tri3/train/data/feats_fmllr_train.4.ark:10537957
mjac0_sx251 quick_test/data-fmllr-tri3/train/data/feats_fmllr_train.6.ark:6615937
mdlc2_sx264 quick_test/data-fmllr-tri3/train/data/feats_fmllr_train.5.ark:3739197
mdlm0_sx244 quick_test/data-fmllr-tri3/train/data/feats_fmllr_train.5.ark:4502830
mbth0_sx302 quick_test/data-fmllr-tri3/train/data/feats_fmllr_train.4.ark:7567051
fbmj0_si1776 quick_test/data-fmllr-tri3/train/data/feats_fmllr_train.1.ark:4460317
fcdr1_si1816 quick_test/data-fmllr-tri3/train/data/feats_fmllr_train.1.ark:5667716
maeo0_sx246 quick_test/data-fmllr-tri3/train/data/feats_fmllr_train.4.ark:561140
mrtc0_si1458 quick_test/data-fmllr-tri3/train/data/feats_fmllr_train.9.ark:8751509
mmws0_sx258 quick_test/data-fmllr-tri3/train/data/feats_fmllr_train.8.ark:4110934
mdhl0_sx449 quick_test/data-fmllr-tri3/train/data/feats_fmllr_train.5.ark:1108290
fsag0_sx423 quick_test/data-fmllr-tri3/train/data/feats_fmllr_train.3.ark:5415795
mwrp0_sx93 quick_test/data-fmllr-tri3/train/data/feats_fmllr_train.10.ark:16759721
mtmt0_sx38 quick_test/data-fmllr-tri3/train/data/feats_fmllr_train.10.ark:8353476
mtpf0_sx425 quick_test/data-fmllr-tri3/train/data/feats_fmllr_train.10.ark:8751774
mrtc0_sx198 quick_test/data-fmllr-tri3/train/data/feats_fmllr_train.9.ark:9026044
mmxs0_sx66 quick_test/data-fmllr-tri3/train/data/feats_fmllr_train.8.ark:4948407
fklc0_sx175 quick_test/data-fmllr-tri3/train/data/feats_fmllr_train.2.ark:7447046
mdks0_sx436 quick_test/data-fmllr-tri3/train/data/feats_fmllr_train.5.ark:2222542
mwsh0_si796 quick_test/data-fmllr-tri3/train/data/feats_fmllr_train.10.ark:17245139
mlsh0_sx337 quick_test/data-fmllr-tri3/train/data/feats_fmllr_train.7.ark:12448157
mkls1_sx15 quick_test/data-fmllr-tri3/train/data/feats_fmllr_train.7.ark:8822175
mree0_si1734 quick_test/data-fmllr-tri3/train/data/feats_fmllr_train.8.ark:15202906
flhd0_si1974 quick_test/data-fmllr-tri3/train/data/feats_fmllr_train.2.ark:10491478
mwar0_si1675 quick_test/data-fmllr-tri3/train/data/feats_fmllr_train.10.ark:14246735
mbsb0_si1983 quick_test/data-fmllr-tri3/train/data/feats_fmllr_train.4.ark:7070569
mmrp0_sx54 quick_test/data-fmllr-tri3/train/data/feats_fmllr_train.8.ark:2506466
mtlc0_sx307 quick_test/data-fmllr-tri3/train/data/feats_fmllr_train.10.ark:7131038
flag0_sx24 quick_test/data-fmllr-tri3/train/data/feats_fmllr_train.2.ark:9512825
mmjb1_sx148 quick_test/data-fmllr-tri3/train/data/feats_fmllr_train.8.ark:1178028
mcdr0_sx164 quick_test/data-fmllr-tri3/train/data/feats_fmllr_train.4.ark:9907337
fjsp0_si1434 quick_test/data-fmllr-tri3/train/data/feats_fmllr_train.2.ark:3658931
fpaf0_sx64 quick_test/data-fmllr-tri3/train/data/feats_fmllr_train.3.ark:2379207
mafm0_sx39 quick_test/data-fmllr-tri3/train/data/feats_fmllr_train.4.ark:988130
mtat0_sx300 quick_test/data-fmllr-tri3/train/data/feats_fmllr_train.10.ark:1542586
mcal0_sx58 quick_test/data-fmllr-tri3/train/data/feats_fmllr_train.4.ark:8924873
mdlr1_si1299 quick_test/data-fmllr-tri3/train/data/feats_fmllr_train.5.ark:5059635
mrab1_sx38 quick_test/data-fmllr-tri3/train/data/feats_fmllr_train.8.ark:11616707
mjsr0_sx254 quick_test/data-fmllr-tri3/train/data/feats_fmllr_train.7.ark:1744191
mhxl0_sx422 quick_test/data-fmllr-tri3/train/data/feats_fmllr_train.6.ark:6013027
fkfb0_si2238 quick_test/data-fmllr-tri3/train/data/feats_fmllr_train.2.ark:6506558
fcmg0_sx162 quick_test/data-fmllr-tri3/train/data/feats_fmllr_train.1.ark:7944433
msrg0_si591 quick_test/data-fmllr-tri3/train/data/feats_fmllr_train.9.ark:17071165
mrcg0_sx258 quick_test/data-fmllr-tri3/train/data/feats_fmllr_train.8.ark:13449261
mmws1_si1701 quick_test/data-fmllr-tri3/train/data/feats_fmllr_train.8.ark:4364830
mdem0_sx338 quick_test/data-fmllr-tri3/train/data/feats_fmllr_train.5.ark:646286
mtkd0_sx197 quick_test/data-fmllr-tri3/train/data/feats_fmllr_train.10.ark:5938066
mjjm0_si827 quick_test/data-fmllr-tri3/train/data/feats_fmllr_train.6.ark:13298001
mwgr0_si976 quick_test/data-fmllr-tri3/train/data/feats_fmllr_train.10.ark:15736113
mtkp0_sx33 quick_test/data-fmllr-tri3/train/data/feats_fmllr_train.10.ark:6419910
fjxm0_sx221 quick_test/data-fmllr-tri3/train/data/feats_fmllr_train.2.ark:4581553
fetb0_si518 quick_test/data-fmllr-tri3/train/data/feats_fmllr_train.1.ark:15513974
fskl0_si1529 quick_test/data-fmllr-tri3/train/data/feats_fmllr_train.3.ark:10349654
fblv0_sx68 quick_test/data-fmllr-tri3/train/data/feats_fmllr_train.1.ark:4039592
mkls0_sx267 quick_test/data-fmllr-tri3/train/data/feats_fmllr_train.7.ark:8417959
mkag0_sx30 quick_test/data-fmllr-tri3/train/data/feats_fmllr_train.7.ark:4287758
mbcg0_sx147 quick_test/data-fmllr-tri3/train/data/feats_fmllr_train.4.ark:4247285
mrlk0_sx123 quick_test/data-fmllr-tri3/train/data/feats_fmllr_train.9.ark:4587120
fsbk0_sx79 quick_test/data-fmllr-tri3/train/data/feats_fmllr_train.3.ark:6700153
medr0_sx384 quick_test/data-fmllr-tri3/train/data/feats_fmllr_train.5.ark:11386819
mcew0_si812 quick_test/data-fmllr-tri3/train/data/feats_fmllr_train.4.ark:10604864
fjkl0_sx32 quick_test/data-fmllr-tri3/train/data/feats_fmllr_train.2.ark:1523389
mdtb0_sx321 quick_test/data-fmllr-tri3/train/data/feats_fmllr_train.5.ark:9484746
flac0_sx361 quick_test/data-fmllr-tri3/train/data/feats_fmllr_train.2.ark:9082849
mcss0_sx30 quick_test/data-fmllr-tri3/train/data/feats_fmllr_train.4.ark:13116486
madd0_sx268 quick_test/data-fmllr-tri3/train/data/feats_fmllr_train.3.ark:17780447
mdwd0_si1890 quick_test/data-fmllr-tri3/train/data/feats_fmllr_train.5.ark:9647549
mrjb1_sx210 quick_test/data-fmllr-tri3/train/data/feats_fmllr_train.9.ark:1064075
mlel0_sx346 quick_test/data-fmllr-tri3/train/data/feats_fmllr_train.7.ark:10786329
mtpg0_sx123 quick_test/data-fmllr-tri3/train/data/feats_fmllr_train.10.ark:8962950
mmam0_sx427 quick_test/data-fmllr-tri3/train/data/feats_fmllr_train.7.ark:14101533
fjlg0_sx89 quick_test/data-fmllr-tri3/train/data/feats_fmllr_train.2.ark:1950194
fdtd0_sx391 quick_test/data-fmllr-tri3/train/data/feats_fmllr_train.1.ark:12968269
flja0_sx268 quick_test/data-fmllr-tri3/train/data/feats_fmllr_train.2.ark:10991750
mpeb0_si600 quick_test/data-fmllr-tri3/train/data/feats_fmllr_train.8.ark:6117620
frjb0_sx347 quick_test/data-fmllr-tri3/train/data/feats_fmllr_train.3.ark:4535975
mmdm1_si783 quick_test/data-fmllr-tri3/train/data/feats_fmllr_train.7.ark:16685824
mlsh0_sx67 quick_test/data-fmllr-tri3/train/data/feats_fmllr_train.7.ark:12533170
mtat1_si1409 quick_test/data-fmllr-tri3/train/data/feats_fmllr_train.10.ark:1622481
fmkc0_sx442 quick_test/data-fmllr-tri3/train/data/feats_fmllr_train.2.ark:17034900
mgsh0_sx186 quick_test/data-fmllr-tri3/train/data/feats_fmllr_train.6.ark:2530706
fpaz0_sx153 quick_test/data-fmllr-tri3/train/data/feats_fmllr_train.3.ark:2596277
mrlk0_sx303 quick_test/data-fmllr-tri3/train/data/feats_fmllr_train.9.ark:4672454
mrlr0_sx386 quick_test/data-fmllr-tri3/train/data/feats_fmllr_train.9.ark:5112564
mprt0_sx400 quick_test/data-fmllr-tri3/train/data/feats_fmllr_train.8.ark:10590963
mjmd0_sx38 quick_test/data-fmllr-tri3/train/data/feats_fmllr_train.6.ark:15659572
mwrp0_sx363 quick_test/data-fmllr-tri3/train/data/feats_fmllr_train.10.ark:16707215
mtbc0_sx363 quick_test/data-fmllr-tri3/train/data/feats_fmllr_train.10.ark:2353101
mclk0_sx310 quick_test/data-fmllr-tri3/train/data/feats_fmllr_train.4.ark:11643940
mrfk0_sx86 quick_test/data-fmllr-tri3/train/data/feats_fmllr_train.8.ark:17016736
fmju0_sx399 quick_test/data-fmllr-tri3/train/data/feats_fmllr_train.2.ark:16692948
mrvg0_sx240 quick_test/data-fmllr-tri3/train/data/feats_fmllr_train.9.ark:9817012
fjxp0_si1752 quick_test/data-fmllr-tri3/train/data/feats_fmllr_train.2.ark:4884409
fcjf0_sx397 quick_test/data-fmllr-tri3/train/data/feats_fmllr_train.1.ark:6661431
fjrp1_sx352 quick_test/data-fmllr-tri3/train/data/feats_fmllr_train.2.ark:3065192
mkdt0_sx443 quick_test/data-fmllr-tri3/train/data/feats_fmllr_train.7.ark:6634206
mtjs0_sx112 quick_test/data-fmllr-tri3/train/data/feats_fmllr_train.10.ark:5058059
mjai0_sx164 quick_test/data-fmllr-tri3/train/data/feats_fmllr_train.6.ark:7453971
mdma0_sx350 quick_test/data-fmllr-tri3/train/data/feats_fmllr_train.5.ark:5742709
mclm0_si2086 quick_test/data-fmllr-tri3/train/data/feats_fmllr_train.4.ark:11816369
msat1_sx353 quick_test/data-fmllr-tri3/train/data/feats_fmllr_train.9.ark:12392160
flac0_sx181 quick_test/data-fmllr-tri3/train/data/feats_fmllr_train.2.ark:8994795
mdbp0_sx348 quick_test/data-fmllr-tri3/train/data/feats_fmllr_train.4.ark:15723764
mmeb0_si727 quick_test/data-fmllr-tri3/train/data/feats_fmllr_train.7.ark:17750315
mjpg0_sx201 quick_test/data-fmllr-tri3/train/data/feats_fmllr_train.6.ark:16304433
fsgf0_sx27 quick_test/data-fmllr-tri3/train/data/feats_fmllr_train.3.ark:8184327
mkes0_si623 quick_test/data-fmllr-tri3/train/data/feats_fmllr_train.7.ark:6838155
mwch0_sx182 quick_test/data-fmllr-tri3/train/data/feats_fmllr_train.10.ark:14657248
fdml0_si1779 quick_test/data-fmllr-tri3/train/data/feats_fmllr_train.1.ark:11339295
flac0_sx271 quick_test/data-fmllr-tri3/train/data/feats_fmllr_train.2.ark:9044422
mhmg0_sx105 quick_test/data-fmllr-tri3/train/data/feats_fmllr_train.6.ark:4766216
mjda0_si1661 quick_test/data-fmllr-tri3/train/data/feats_fmllr_train.6.ark:8058992
mjeb0_si656 quick_test/data-fmllr-tri3/train/data/feats_fmllr_train.6.ark:10139625
mgjc0_sx345 quick_test/data-fmllr-tri3/train/data/feats_fmllr_train.6.ark:1331682
fgrw0_si1782 quick_test/data-fmllr-tri3/train/data/feats_fmllr_train.1.ark:17591513
mabc0_si2041 quick_test/data-fmllr-tri3/train/data/feats_fmllr_train.3.ark:16875292
mhmg0_sx195 quick_test/data-fmllr-tri3/train/data/feats_fmllr_train.6.ark:4844029
fclt0_sx88 quick_test/data-fmllr-tri3/train/data/feats_fmllr_train.1.ark:7724962
mkrg0_si1491 quick_test/data-fmllr-tri3/train/data/feats_fmllr_train.7.ark:9393382
mjsr0_si2054 quick_test/data-fmllr-tri3/train/data/feats_fmllr_train.7.ark:1525550
fgcs0_sx226 quick_test/data-fmllr-tri3/train/data/feats_fmllr_train.1.ark:16438303
mbar0_sx149 quick_test/data-fmllr-tri3/train/data/feats_fmllr_train.4.ark:3512771
fjen0_sx57 quick_test/data-fmllr-tri3/train/data/feats_fmllr_train.2.ark:812901
fdnc0_si1908 quick_test/data-fmllr-tri3/train/data/feats_fmllr_train.1.ark:12230129
mctm0_si1350 quick_test/data-fmllr-tri3/train/data/feats_fmllr_train.4.ark:13609265
mzmb0_sx266 quick_test/data-fmllr-tri3/train/data/feats_fmllr_train.10.ark:17803010
mrml0_sx161 quick_test/data-fmllr-tri3/train/data/feats_fmllr_train.9.ark:6430287
fexm0_sx381 quick_test/data-fmllr-tri3/train/data/feats_fmllr_train.1.ark:16206646
mtbc0_sx273 quick_test/data-fmllr-tri3/train/data/feats_fmllr_train.10.ark:2254007
fclt0_si1438 quick_test/data-fmllr-tri3/train/data/feats_fmllr_train.1.ark:7404133
fsms1_sx244 quick_test/data-fmllr-tri3/train/data/feats_fmllr_train.3.ark:12499009
mdbb1_si1636 quick_test/data-fmllr-tri3/train/data/feats_fmllr_train.4.ark:15179278
mpar0_sx406 quick_test/data-fmllr-tri3/train/data/feats_fmllr_train.8.ark:5989671
mrbc0_sx59 quick_test/data-fmllr-tri3/train/data/feats_fmllr_train.8.ark:13195684
mjwt0_sx211 quick_test/data-fmllr-tri3/train/data/feats_fmllr_train.7.ark:3065641
fcyl0_sx127 quick_test/data-fmllr-tri3/train/data/feats_fmllr_train.1.ark:9102844
msas0_sx26 quick_test/data-fmllr-tri3/train/data/feats_fmllr_train.9.ark:11727084
msmc0_sx377 quick_test/data-fmllr-tri3/train/data/feats_fmllr_train.9.ark:16170488
fmah1_sx69 quick_test/data-fmllr-tri3/train/data/feats_fmllr_train.2.ark:14660665
mabc0_sx331 quick_test/data-fmllr-tri3/train/data/feats_fmllr_train.3.ark:17059720
fetb0_sx338 quick_test/data-fmllr-tri3/train/data/feats_fmllr_train.1.ark:15646855
fgmb0_sx65 quick_test/data-fmllr-tri3/train/data/feats_fmllr_train.1.ark:17463777
milb0_si2163 quick_test/data-fmllr-tri3/train/data/feats_fmllr_train.6.ark:6120761
mdas0_si636 quick_test/data-fmllr-tri3/train/data/feats_fmllr_train.4.ark:14871411
mdcm0_si850 quick_test/data-fmllr-tri3/train/data/feats_fmllr_train.4.ark:16382197
mbjv0_sx77 quick_test/data-fmllr-tri3/train/data/feats_fmllr_train.4.ark:5512523
mjxl0_si542 quick_test/data-fmllr-tri3/train/data/feats_fmllr_train.7.ark:3714501
mrws0_sx382 quick_test/data-fmllr-tri3/train/data/feats_fmllr_train.9.ark:10662166
mrsp0_si2059 quick_test/data-fmllr-tri3/train/data/feats_fmllr_train.9.ark:8423800
fcrz0_sx343 quick_test/data-fmllr-tri3/train/data/feats_fmllr_train.1.ark:8786841
mcre0_sx24 quick_test/data-fmllr-tri3/train/data/feats_fmllr_train.4.ark:12692911
maeo0_si1655 quick_test/data-fmllr-tri3/train/data/feats_fmllr_train.4.ark:435138
mkls1_sx285 quick_test/data-fmllr-tri3/train/data/feats_fmllr_train.7.ark:8899829
mtju0_sx400 quick_test/data-fmllr-tri3/train/data/feats_fmllr_train.10.ark:5623023
fbcg1_sx352 quick_test/data-fmllr-tri3/train/data/feats_fmllr_train.1.ark:2681928
mcdd0_si2143 quick_test/data-fmllr-tri3/train/data/feats_fmllr_train.4.ark:9381466
mjxl0_si1172 quick_test/data-fmllr-tri3/train/data/feats_fmllr_train.7.ark:3610126
fcmm0_si1083 quick_test/data-fmllr-tri3/train/data/feats_fmllr_train.1.ark:8195768
mkag0_sx439 quick_test/data-fmllr-tri3/train/data/feats_fmllr_train.7.ark:4317385
mfxs0_sx324 quick_test/data-fmllr-tri3/train/data/feats_fmllr_train.5.ark:15696566
msfv0_sx272 quick_test/data-fmllr-tri3/train/data/feats_fmllr_train.9.ark:15196855
mdcm0_sx40 quick_test/data-fmllr-tri3/train/data/feats_fmllr_train.4.ark:16562304
fetb0_sx158 quick_test/data-fmllr-tri3/train/data/feats_fmllr_train.1.ark:15569361
mkls1_si2175 quick_test/data-fmllr-tri3/train/data/feats_fmllr_train.7.ark:8673135
mmpm0_sx431 quick_test/data-fmllr-tri3/train/data/feats_fmllr_train.8.ark:2062864
mkes0_sx83 quick_test/data-fmllr-tri3/train/data/feats_fmllr_train.7.ark:7105329
mjpm1_si761 quick_test/data-fmllr-tri3/train/data/feats_fmllr_train.6.ark:16894253
fkde0_sx61 quick_test/data-fmllr-tri3/train/data/feats_fmllr_train.2.ark:5995565
mmdg0_sx70 quick_test/data-fmllr-tri3/train/data/feats_fmllr_train.7.ark:16216884
mjlg1_sx22 quick_test/data-fmllr-tri3/train/data/feats_fmllr_train.6.ark:14527213
mtlb0_sx414 quick_test/data-fmllr-tri3/train/data/feats_fmllr_train.10.ark:6790688
mtlc0_sx397 quick_test/data-fmllr-tri3/train/data/feats_fmllr_train.10.ark:7195891
mdks0_si1066 quick_test/data-fmllr-tri3/train/data/feats_fmllr_train.5.ark:1926538
fjdm2_si1582 quick_test/data-fmllr-tri3/train/data/feats_fmllr_train.2.ark:13
mljh0_si1422 quick_test/data-fmllr-tri3/train/data/feats_fmllr_train.7.ark:11379455
fbjl0_si1552 quick_test/data-fmllr-tri3/train/data/feats_fmllr_train.1.ark:3276465
mrml0_sx431 quick_test/data-fmllr-tri3/train/data/feats_fmllr_train.9.ark:6634528
mses0_sx329 quick_test/data-fmllr-tri3/train/data/feats_fmllr_train.9.ark:14387168
mclk0_si1660 quick_test/data-fmllr-tri3/train/data/feats_fmllr_train.4.ark:11365724
mfrm0_sx75 quick_test/data-fmllr-tri3/train/data/feats_fmllr_train.5.ark:15087064
mpsw0_si1697 quick_test/data-fmllr-tri3/train/data/feats_fmllr_train.8.ark:10666539
mzmb0_sx86 quick_test/data-fmllr-tri3/train/data/feats_fmllr_train.10.ark:17940210
mjac0_sx71 quick_test/data-fmllr-tri3/train/data/feats_fmllr_train.6.ark:6817004
mntw0_si2328 quick_test/data-fmllr-tri3/train/data/feats_fmllr_train.8.ark:5487266
medr0_si744 quick_test/data-fmllr-tri3/train/data/feats_fmllr_train.5.ark:11182685
ftbw0_sx355 quick_test/data-fmllr-tri3/train/data/feats_fmllr_train.3.ark:14854098
mjwg0_sx355 quick_test/data-fmllr-tri3/train/data/feats_fmllr_train.7.ark:2280434
mntw0_sx202 quick_test/data-fmllr-tri3/train/data/feats_fmllr_train.8.ark:5552280
fljd0_si1516 quick_test/data-fmllr-tri3/train/data/feats_fmllr_train.2.ark:11200178
mmrp0_si2034 quick_test/data-fmllr-tri3/train/data/feats_fmllr_train.8.ark:2152358
mrhl0_si2145 quick_test/data-fmllr-tri3/train/data/feats_fmllr_train.9.ark:450176
feme0_sx425 quick_test/data-fmllr-tri3/train/data/feats_fmllr_train.1.ark:15331625
mtpp0_sx68 quick_test/data-fmllr-tri3/train/data/feats_fmllr_train.10.ark:9479274
mnet0_si2076 quick_test/data-fmllr-tri3/train/data/feats_fmllr_train.8.ark:5047983
mrab0_sx234 quick_test/data-fmllr-tri3/train/data/feats_fmllr_train.8.ark:11114837
fmem0_sx387 quick_test/data-fmllr-tri3/train/data/feats_fmllr_train.2.ark:15466219
msdb0_si1007 quick_test/data-fmllr-tri3/train/data/feats_fmllr_train.9.ark:12525841
mmdm1_sx153 quick_test/data-fmllr-tri3/train/data/feats_fmllr_train.7.ark:16727451
madd0_sx178 quick_test/data-fmllr-tri3/train/data/feats_fmllr_train.3.ark:17721860
mtrr0_sx198 quick_test/data-fmllr-tri3/train/data/feats_fmllr_train.10.ark:11038807
mrjb1_sx390 quick_test/data-fmllr-tri3/train/data/feats_fmllr_train.9.ark:1179515
mvlo0_sx67 quick_test/data-fmllr-tri3/train/data/feats_fmllr_train.10.ark:13034027
mbcg0_sx417 quick_test/data-fmllr-tri3/train/data/feats_fmllr_train.4.ark:4388806
fcmg0_sx432 quick_test/data-fmllr-tri3/train/data/feats_fmllr_train.1.ark:8087074
mdlr1_sx129 quick_test/data-fmllr-tri3/train/data/feats_fmllr_train.5.ark:5225157
msms0_sx173 quick_test/data-fmllr-tri3/train/data/feats_fmllr_train.9.ark:16761855
mter0_sx17 quick_test/data-fmllr-tri3/train/data/feats_fmllr_train.10.ark:3908155
mrlr0_sx206 quick_test/data-fmllr-tri3/train/data/feats_fmllr_train.9.ark:4982404
mdma0_sx260 quick_test/data-fmllr-tri3/train/data/feats_fmllr_train.5.ark:5685722
fgdp0_si1618 quick_test/data-fmllr-tri3/train/data/feats_fmllr_train.1.ark:16604491
mdwd0_sx90 quick_test/data-fmllr-tri3/train/data/feats_fmllr_train.5.ark:9899710
fvmh0_sx296 quick_test/data-fmllr-tri3/train/data/feats_fmllr_train.3.ark:16784809
fssb0_sx272 quick_test/data-fmllr-tri3/train/data/feats_fmllr_train.3.ark:13688301
mpeb0_sx240 quick_test/data-fmllr-tri3/train/data/feats_fmllr_train.8.ark:6220554
fmju0_si2019 quick_test/data-fmllr-tri3/train/data/feats_fmllr_train.2.ark:16407667
mwrp0_si2073 quick_test/data-fmllr-tri3/train/data/feats_fmllr_train.10.ark:16526789
fdmy0_sx207 quick_test/data-fmllr-tri3/train/data/feats_fmllr_train.1.ark:11935273
frll0_si805 quick_test/data-fmllr-tri3/train/data/feats_fmllr_train.3.ark:4743443
mlns0_si777 quick_test/data-fmllr-tri3/train/data/feats_fmllr_train.7.ark:11924979
fbcg1_si1612 quick_test/data-fmllr-tri3/train/data/feats_fmllr_train.1.ark:2469312
mcxm0_sx361 quick_test/data-fmllr-tri3/train/data/feats_fmllr_train.4.ark:14229618
mrmh0_sx391 quick_test/data-fmllr-tri3/train/data/feats_fmllr_train.9.ark:6216737
mcxm0_si1351 quick_test/data-fmllr-tri3/train/data/feats_fmllr_train.4.ark:13986762
mree0_si1959 quick_test/data-fmllr-tri3/train/data/feats_fmllr_train.8.ark:15254774
mwdk0_si1436 quick_test/data-fmllr-tri3/train/data/feats_fmllr_train.10.ark:14865863
flma0_si1873 quick_test/data-fmllr-tri3/train/data/feats_fmllr_train.2.ark:12513176
mdss1_si697 quick_test/data-fmllr-tri3/train/data/feats_fmllr_train.5.ark:8982501
mtat1_sx419 quick_test/data-fmllr-tri3/train/data/feats_fmllr_train.10.ark:1970804
fcrz0_si2053 quick_test/data-fmllr-tri3/train/data/feats_fmllr_train.1.ark:8625613
fjlr0_sx151 quick_test/data-fmllr-tri3/train/data/feats_fmllr_train.2.ark:2135264
msah1_si1679 quick_test/data-fmllr-tri3/train/data/feats_fmllr_train.9.ark:11139399
mrlj0_sx70 quick_test/data-fmllr-tri3/train/data/feats_fmllr_train.9.ark:4044712
mwad0_sx252 quick_test/data-fmllr-tri3/train/data/feats_fmllr_train.10.ark:14022759
fpaz0_si1593 quick_test/data-fmllr-tri3/train/data/feats_fmllr_train.3.ark:2427075
fbcg1_sx172 quick_test/data-fmllr-tri3/train/data/feats_fmllr_train.1.ark:2589554
mvlo0_sx247 quick_test/data-fmllr-tri3/train/data/feats_fmllr_train.10.ark:12892987
mcss0_sx390 quick_test/data-fmllr-tri3/train/data/feats_fmllr_train.4.ark:13186140
fsak0_sx130 quick_test/data-fmllr-tri3/train/data/feats_fmllr_train.3.ark:6105268
mtjs0_sx22 quick_test/data-fmllr-tri3/train/data/feats_fmllr_train.10.ark:5145952
fvmh0_sx386 quick_test/data-fmllr-tri3/train/data/feats_fmllr_train.3.ark:16820836
fkaa0_sx308 quick_test/data-fmllr-tri3/train/data/feats_fmllr_train.2.ark:5443294
mdbp0_sx78 quick_test/data-fmllr-tri3/train/data/feats_fmllr_train.4.ark:15851977
fjrp1_si1432 quick_test/data-fmllr-tri3/train/data/feats_fmllr_train.2.ark:2765376
mrem0_sx151 quick_test/data-fmllr-tri3/train/data/feats_fmllr_train.8.ark:16122274
mrai0_sx342 quick_test/data-fmllr-tri3/train/data/feats_fmllr_train.8.ark:11978338
mjpm1_sx311 quick_test/data-fmllr-tri3/train/data/feats_fmllr_train.6.ark:17040894
mmgg0_sx89 quick_test/data-fmllr-tri3/train/data/feats_fmllr_train.8.ark:702021
mklw0_sx401 quick_test/data-fmllr-tri3/train/data/feats_fmllr_train.7.ark:9290608
faem0_si1392 quick_test/data-fmllr-tri3/train/data/feats_fmllr_train.1.ark:13
mpar0_sx316 quick_test/data-fmllr-tri3/train/data/feats_fmllr_train.8.ark:5954764
mbbr0_sx245 quick_test/data-fmllr-tri3/train/data/feats_fmllr_train.4.ark:3943896
mses0_sx59 quick_test/data-fmllr-tri3/train/data/feats_fmllr_train.9.ark:14475541
fmmh0_sx367 quick_test/data-fmllr-tri3/train/data/feats_fmllr_train.2.ark:17737198
fceg0_si1878 quick_test/data-fmllr-tri3/train/data/feats_fmllr_train.1.ark:6132733
fltm0_sx80 quick_test/data-fmllr-tri3/train/data/feats_fmllr_train.2.ark:14304608
mrds0_sx447 quick_test/data-fmllr-tri3/train/data/feats_fmllr_train.8.ark:15059784
mmab1_sx144 quick_test/data-fmllr-tri3/train/data/feats_fmllr_train.7.ark:13144057
fjsp0_sx264 quick_test/data-fmllr-tri3/train/data/feats_fmllr_train.2.ark:3848800
mded0_sx360 quick_test/data-fmllr-tri3/train/data/feats_fmllr_train.4.ark:17263672
mljh0_sx334 quick_test/data-fmllr-tri3/train/data/feats_fmllr_train.7.ark:11677003
mmeb0_sx97 quick_test/data-fmllr-tri3/train/data/feats_fmllr_train.7.ark:17961967
mgsl0_sx84 quick_test/data-fmllr-tri3/train/data/feats_fmllr_train.6.ark:3090200
fmbg0_sx80 quick_test/data-fmllr-tri3/train/data/feats_fmllr_train.2.ark:15057521
mtjs0_si1822 quick_test/data-fmllr-tri3/train/data/feats_fmllr_train.10.ark:4887605
fclt0_si808 quick_test/data-fmllr-tri3/train/data/feats_fmllr_train.1.ark:7470268
mjrp0_si585 quick_test/data-fmllr-tri3/train/data/feats_fmllr_train.7.ark:1208560
mgjc0_sx435 quick_test/data-fmllr-tri3/train/data/feats_fmllr_train.6.ark:1387229
mdcd0_si2045 quick_test/data-fmllr-tri3/train/data/feats_fmllr_train.4.ark:15932673
fsjw0_sx433 quick_test/data-fmllr-tri3/train/data/feats_fmllr_train.3.ark:9891623
falk0_sx186 quick_test/data-fmllr-tri3/train/data/feats_fmllr_train.1.ark:984206
mdlb0_si676 quick_test/data-fmllr-tri3/train/data/feats_fmllr_train.5.ark:2461851
fgmb0_sx425 quick_test/data-fmllr-tri3/train/data/feats_fmllr_train.1.ark:17426311
frjb0_si1470 quick_test/data-fmllr-tri3/train/data/feats_fmllr_train.3.ark:4395066
megj0_si1967 quick_test/data-fmllr-tri3/train/data/feats_fmllr_train.5.ark:11922450
mfer0_si1492 quick_test/data-fmllr-tri3/train/data/feats_fmllr_train.5.ark:14027720
fear0_si1252 quick_test/data-fmllr-tri3/train/data/feats_fmllr_train.1.ark:13743451
fdjh0_sx305 quick_test/data-fmllr-tri3/train/data/feats_fmllr_train.1.ark:10710008
mtcs0_sx442 quick_test/data-fmllr-tri3/train/data/feats_fmllr_train.10.ark:2728518
mrfl0_si1156 quick_test/data-fmllr-tri3/train/data/feats_fmllr_train.8.ark:17052284
mmgg0_si1079 quick_test/data-fmllr-tri3/train/data/feats_fmllr_train.8.ark:354791
mrlr0_si566 quick_test/data-fmllr-tri3/train/data/feats_fmllr_train.9.ark:4895630
fpls0_sx150 quick_test/data-fmllr-tri3/train/data/feats_fmllr_train.3.ark:3361511
mter0_sx167 quick_test/data-fmllr-tri3/train/data/feats_fmllr_train.10.ark:3847169
majp0_si1704 quick_test/data-fmllr-tri3/train/data/feats_fmllr_train.4.ark:1098613
mljc0_sx55 quick_test/data-fmllr-tri3/train/data/feats_fmllr_train.7.ark:11281959
mgxp0_si525 quick_test/data-fmllr-tri3/train/data/feats_fmllr_train.6.ark:3266282
mtju0_sx220 quick_test/data-fmllr-tri3/train/data/feats_fmllr_train.10.ark:5484543
mjmd0_si1028 quick_test/data-fmllr-tri3/train/data/feats_fmllr_train.6.ark:15419409
mdwd0_sx450 quick_test/data-fmllr-tri3/train/data/feats_fmllr_train.5.ark:9848324
mcew0_sx452 quick_test/data-fmllr-tri3/train/data/feats_fmllr_train.4.ark:10857932
mdem0_sx68 quick_test/data-fmllr-tri3/train/data/feats_fmllr_train.5.ark:774819
mrlj1_sx141 quick_test/data-fmllr-tri3/train/data/feats_fmllr_train.9.ark:4197623
mdbp0_sx438 quick_test/data-fmllr-tri3/train/data/feats_fmllr_train.4.ark:15781551
falr0_sx65 quick_test/data-fmllr-tri3/train/data/feats_fmllr_train.1.ark:1531248
fskp0_sx18 quick_test/data-fmllr-tri3/train/data/feats_fmllr_train.3.ark:10928219
mdem0_si1868 quick_test/data-fmllr-tri3/train/data/feats_fmllr_train.5.ark:352071
mbma0_sx232 quick_test/data-fmllr-tri3/train/data/feats_fmllr_train.4.ark:5729780
mrfk0_si2336 quick_test/data-fmllr-tri3/train/data/feats_fmllr_train.8.ark:16806362
fcaj0_si849 quick_test/data-fmllr-tri3/train/data/feats_fmllr_train.1.ark:5292966
mhmg0_sx15 quick_test/data-fmllr-tri3/train/data/feats_fmllr_train.6.ark:4802082
mprd0_sx81 quick_test/data-fmllr-tri3/train/data/feats_fmllr_train.8.ark:9775970
mrds0_si1167 quick_test/data-fmllr-tri3/train/data/feats_fmllr_train.8.ark:14788261
mjdm0_sx260 quick_test/data-fmllr-tri3/train/data/feats_fmllr_train.6.ark:9827782
mmgk0_sx332 quick_test/data-fmllr-tri3/train/data/feats_fmllr_train.8.ark:912745
mdlh0_sx430 quick_test/data-fmllr-tri3/train/data/feats_fmllr_train.5.ark:4228587
mrvg0_sx330 quick_test/data-fmllr-tri3/train/data/feats_fmllr_train.9.ark:9858959
mmab1_sx54 quick_test/data-fmllr-tri3/train/data/feats_fmllr_train.7.ark:13354244
fvkb0_sx79 quick_test/data-fmllr-tri3/train/data/feats_fmllr_train.3.ark:16448939
mjxa0_si2137 quick_test/data-fmllr-tri3/train/data/feats_fmllr_train.7.ark:3309617
msjk0_sx336 quick_test/data-fmllr-tri3/train/data/feats_fmllr_train.9.ark:15666219
fsbk0_sx169 quick_test/data-fmllr-tri3/train/data/feats_fmllr_train.3.ark:6455886
fmjb0_sx367 quick_test/data-fmllr-tri3/train/data/feats_fmllr_train.2.ark:15778703
mdjm0_sx105 quick_test/data-fmllr-tri3/train/data/feats_fmllr_train.5.ark:1728323
fvfb0_sx132 quick_test/data-fmllr-tri3/train/data/feats_fmllr_train.3.ark:15891335
mgaw0_si1165 quick_test/data-fmllr-tri3/train/data/feats_fmllr_train.6.ark:385831
mjma0_sx235 quick_test/data-fmllr-tri3/train/data/feats_fmllr_train.6.ark:15268101
mrew1_sx330 quick_test/data-fmllr-tri3/train/data/feats_fmllr_train.8.ark:16549745
fjsp0_si1763 quick_test/data-fmllr-tri3/train/data/feats_fmllr_train.2.ark:3728719
mjlb0_sx356 quick_test/data-fmllr-tri3/train/data/feats_fmllr_train.6.ark:14183796
mgar0_si1694 quick_test/data-fmllr-tri3/train/data/feats_fmllr_train.6.ark:59241
mjwg0_si895 quick_test/data-fmllr-tri3/train/data/feats_fmllr_train.7.ark:2069313
mfxs0_sx414 quick_test/data-fmllr-tri3/train/data/feats_fmllr_train.5.ark:15763633
mesg0_si1962 quick_test/data-fmllr-tri3/train/data/feats_fmllr_train.5.ark:13020539
fjdm2_sx232 quick_test/data-fmllr-tri3/train/data/feats_fmllr_train.2.ark:208443
mrtj0_sx232 quick_test/data-fmllr-tri3/train/data/feats_fmllr_train.9.ark:9429915
mfmc0_sx142 quick_test/data-fmllr-tri3/train/data/feats_fmllr_train.5.ark:14498099
mhmg0_si1365 quick_test/data-fmllr-tri3/train/data/feats_fmllr_train.6.ark:4606454
fsls0_si2316 quick_test/data-fmllr-tri3/train/data/feats_fmllr_train.3.ark:11197984
mdlc0_sx135 quick_test/data-fmllr-tri3/train/data/feats_fmllr_train.5.ark:2968815
fjxm0_sx401 quick_test/data-fmllr-tri3/train/data/feats_fmllr_train.2.ark:4704807
mdwh0_sx305 quick_test/data-fmllr-tri3/train/data/feats_fmllr_train.5.ark:10231074
mrso0_sx39 quick_test/data-fmllr-tri3/train/data/feats_fmllr_train.9.ark:8245637
mgrp0_sx417 quick_test/data-fmllr-tri3/train/data/feats_fmllr_train.6.ark:2202223
mjjj0_si533 quick_test/data-fmllr-tri3/train/data/feats_fmllr_train.6.ark:12855704
mrab0_sx54 quick_test/data-fmllr-tri3/train/data/feats_fmllr_train.8.ark:11271397
mdlc1_sx355 quick_test/data-fmllr-tri3/train/data/feats_fmllr_train.5.ark:3467007
mrcw0_si2001 quick_test/data-fmllr-tri3/train/data/feats_fmllr_train.8.ark:13748917
fsjk1_sx35 quick_test/data-fmllr-tri3/train/data/feats_fmllr_train.3.ark:9086868
mjws0_sx63 quick_test/data-fmllr-tri3/train/data/feats_fmllr_train.7.ark:2774944
mcre0_sx131 quick_test/data-fmllr-tri3/train/data/feats_fmllr_train.4.ark:12600058
fntb0_sx33 quick_test/data-fmllr-tri3/train/data/feats_fmllr_train.3.ark:660231
mapv0_sx123 quick_test/data-fmllr-tri3/train/data/feats_fmllr_train.4.ark:2436600
fsjk1_si1025 quick_test/data-fmllr-tri3/train/data/feats_fmllr_train.3.ark:8826386
mkls0_si2067 quick_test/data-fmllr-tri3/train/data/feats_fmllr_train.7.ark:8317585
feme0_si2135 quick_test/data-fmllr-tri3/train/data/feats_fmllr_train.1.ark:15042850
fkkh0_si1290 quick_test/data-fmllr-tri3/train/data/feats_fmllr_train.2.ark:6890107
mrgs0_sx96 quick_test/data-fmllr-tri3/train/data/feats_fmllr_train.9.ark:387400
fntb0_si679 quick_test/data-fmllr-tri3/train/data/feats_fmllr_train.3.ark:458684
mrav0_sx378 quick_test/data-fmllr-tri3/train/data/feats_fmllr_train.8.ark:12811947
mwem0_sx420 quick_test/data-fmllr-tri3/train/data/feats_fmllr_train.10.ark:15520644
mapv0_sx393 quick_test/data-fmllr-tri3/train/data/feats_fmllr_train.4.ark:2621347
mmam0_si1668 quick_test/data-fmllr-tri3/train/data/feats_fmllr_train.7.ark:13909397
mtqc0_si1441 quick_test/data-fmllr-tri3/train/data/feats_fmllr_train.10.ark:9943519
mbef0_sx201 quick_test/data-fmllr-tri3/train/data/feats_fmllr_train.4.ark:4657129
mcew0_si1442 quick_test/data-fmllr-tri3/train/data/feats_fmllr_train.4.ark:10485769
mmeb0_sx7 quick_test/data-fmllr-tri3/train/data/feats_fmllr_train.7.ark:17925141
mddc0_sx429 quick_test/data-fmllr-tri3/train/data/feats_fmllr_train.4.ark:16914362
mwre0_sx67 quick_test/data-fmllr-tri3/train/data/feats_fmllr_train.10.ark:16347665
mdlh0_sx160 quick_test/data-fmllr-tri3/train/data/feats_fmllr_train.5.ark:4055866
mhmg0_sx285 quick_test/data-fmllr-tri3/train/data/feats_fmllr_train.6.ark:4871416
mmaa0_sx125 quick_test/data-fmllr-tri3/train/data/feats_fmllr_train.7.ark:12774080
