mrfk0_sx356 quick_test/fbank/raw_fbank_train.4.ark:2107133
fdfb0_si1948 quick_test/fbank/raw_fbank_train.1.ark:2623816
mrpc1_si1482 quick_test/fbank/raw_fbank_train.4.ark:4193853
mjbg0_sx152 quick_test/fbank/raw_fbank_train.3.ark:1998567
fdtd0_sx321 quick_test/fbank/raw_fbank_train.1.ark:3314414
mhrm0_si1475 quick_test/fbank/raw_fbank_train.3.ark:1378280
mrmh0_si2281 quick_test/fbank/raw_fbank_train.4.ark:3916724
fecd0_si788 quick_test/fbank/raw_fbank_train.1.ark:3667063
mjai0_sx164 quick_test/fbank/raw_fbank_train.3.ark:1917181
mjrh1_sx424 quick_test/fbank/raw_fbank_train.3.ark:4804610
mzmb0_sx356 quick_test/fbank/raw_fbank_train.4.ark:11622890
fssb0_sx452 quick_test/fbank/raw_fbank_train.2.ark:1233900
mdcd0_sx335 quick_test/fbank/raw_fbank_train.2.ark:6457734
mjai0_sx344 quick_test/fbank/raw_fbank_train.3.ark:1938487
mdlr1_sx309 quick_test/fbank/raw_fbank_train.2.ark:8156440
meal0_sx287 quick_test/fbank/raw_fbank_train.2.ark:9603457
mewm0_si1978 quick_test/fbank/raw_fbank_train.2.ark:10319960
mtdb0_si771 quick_test/fbank/raw_fbank_train.4.ark:7786958
fsak0_sx220 quick_test/fbank/raw_fbank_train.1.ark:11149057
fmah1_si1509 quick_test/fbank/raw_fbank_train.1.ark:8523346
mmdm1_sx153 quick_test/fbank/raw_fbank_train.3.ark:8928537
mfxv0_sx15 quick_test/fbank/raw_fbank_train.2.ark:10922931
mmsm0_sx296 quick_test/fbank/raw_fbank_train.3.ark:10000110
fhlm0_sx390 quick_test/fbank/raw_fbank_train.1.ark:4704135
mjxa0_si1507 quick_test/fbank/raw_fbank_train.3.ark:5463105
mgjc0_sx345 quick_test/fbank/raw_fbank_train.3.ark:342976
fcke0_si481 quick_test/fbank/raw_fbank_train.1.ark:1837847
mtpg0_sx393 quick_test/fbank/raw_fbank_train.4.ark:9378658
mppc0_sx62 quick_test/fbank/raw_fbank_train.4.ark:37510
mcxm0_si721 quick_test/fbank/raw_fbank_train.2.ark:5933832
fbjl0_si2182 quick_test/fbank/raw_fbank_train.1.ark:853843
mrjh0_sx307 quick_test/fbank/raw_fbank_train.4.ark:2768801
mfxs0_sx414 quick_test/fbank/raw_fbank_train.2.ark:10844052
mrew1_sx420 quick_test/fbank/raw_fbank_train.4.ark:2023180
milb0_sx183 quick_test/fbank/raw_fbank_train.3.ark:1617028
mjdc0_sx261 quick_test/fbank/raw_fbank_train.3.ark:2208331
mjda0_sx221 quick_test/fbank/raw_fbank_train.3.ark:2103746
mjjm0_sx377 quick_test/fbank/raw_fbank_train.3.ark:3472729
mesg0_si1962 quick_test/fbank/raw_fbank_train.2.ark:10137152
fpjf0_si1046 quick_test/fbank/raw_fbank_train.1.ark:10299125
mcdc0_sx32 quick_test/fbank/raw_fbank_train.2.ark:4689798
mdlc2_si984 quick_test/fbank/raw_fbank_train.2.ark:7718442
fsah0_sx344 quick_test/fbank/raw_fbank_train.1.ark:11072465
mjae0_si1999 quick_test/fbank/raw_fbank_train.3.ark:1778010
mbsb0_sx3 quick_test/fbank/raw_fbank_train.2.ark:4163884
mprd0_si1431 quick_test/fbank/raw_fbank_train.4.ark:165489
mwrp0_sx93 quick_test/fbank/raw_fbank_train.4.ark:11343842
fbas0_sx217 quick_test/fbank/raw_fbank_train.1.ark:593028
mrxb0_sx145 quick_test/fbank/raw_fbank_train.4.ark:5167579
flma0_sx163 quick_test/fbank/raw_fbank_train.1.ark:8081398
mgar0_si1694 quick_test/fbank/raw_fbank_train.3.ark:15167
mbsb0_si1983 quick_test/fbank/raw_fbank_train.2.ark:4127834
mpfu0_si1258 quick_test/fbank/raw_fbank_train.3.ark:10909360
mrfk0_si2336 quick_test/fbank/raw_fbank_train.4.ark:2074954
mreh1_sx339 quick_test/fbank/raw_fbank_train.4.ark:1819218
msas0_sx26 quick_test/fbank/raw_fbank_train.4.ark:5384975
makb0_sx206 quick_test/fbank/raw_fbank_train.2.ark:2767276
mded0_si1800 quick_test/fbank/raw_fbank_train.2.ark:6694077
mjls0_sx376 quick_test/fbank/raw_fbank_train.3.ark:3860150
fsak0_sx400 quick_test/fbank/raw_fbank_train.1.ark:11188355
mrre0_sx164 quick_test/fbank/raw_fbank_train.4.ark:4332898
mcdd0_sx343 quick_test/fbank/raw_fbank_train.2.ark:4765871
mgxp0_sx7 quick_test/fbank/raw_fbank_train.3.ark:893208
mdcd0_sx425 quick_test/fbank/raw_fbank_train.2.ark:6475527
fsrh0_sx311 quick_test/fbank/raw_fbank_train.2.ark:1112121
fpmy0_sx73 quick_test/fbank/raw_fbank_train.1.ark:10589165
mtqc0_sx361 quick_test/fbank/raw_fbank_train.4.ark:9675308
mrre0_si952 quick_test/fbank/raw_fbank_train.4.ark:4312745
fssb0_sx272 quick_test/fbank/raw_fbank_train.2.ark:1205394
fjrb0_sx312 quick_test/fbank/raw_fbank_train.1.ark:5505475
fltm0_sx260 quick_test/fbank/raw_fbank_train.1.ark:8465374
mcew0_sx452 quick_test/fbank/raw_fbank_train.2.ark:5101339
mcdr0_sx254 quick_test/fbank/raw_fbank_train.2.ark:4872703
mrab1_sx218 quick_test/fbank/raw_fbank_train.4.ark:714706
mlsh0_sx247 quick_test/fbank/raw_fbank_train.3.ark:7811214
fetb0_sx338 quick_test/fbank/raw_fbank_train.1.ark:4021517
mgaf0_sx292 quick_test/fbank/raw_fbank_train.2.ark:11029262
mpgr1_sx329 quick_test/fbank/raw_fbank_train.3.ark:11251521
mgjc0_si1256 quick_test/fbank/raw_fbank_train.3.ark:277169
mpgr1_sx149 quick_test/fbank/raw_fbank_train.3.ark:11226175
fsdc0_si2234 quick_test/fbank/raw_fbank_train.1.ark:11455587
mcpm0_si564 quick_test/fbank/raw_fbank_train.2.ark:5449868
mjma0_si2125 quick_test/fbank/raw_fbank_train.3.ark:3884658
mhjb0_si2277 quick_test/fbank/raw_fbank_train.3.ark:1126912
mhmg0_sx285 quick_test/fbank/raw_fbank_train.3.ark:1253188
mdlr1_si1299 quick_test/fbank/raw_fbank_train.2.ark:8088394
mmgc0_sx315 quick_test/fbank/raw_fbank_train.3.ark:9317142
mjrg0_sx376 quick_test/fbank/raw_fbank_train.3.ark:4617751
mjfh0_sx117 quick_test/fbank/raw_fbank_train.3.ark:2920953
mmcc0_sx168 quick_test/fbank/raw_fbank_train.3.ark:8550157
mdac0_si1261 quick_test/fbank/raw_fbank_train.2.ark:6003830
mpgr0_si780 quick_test/fbank/raw_fbank_train.3.ark:11122436
mejl0_si962 quick_test/fbank/raw_fbank_train.2.ark:9959415
mcal0_si1138 quick_test/fbank/raw_fbank_train.2.ark:4523335
mrjb1_si1413 quick_test/fbank/raw_fbank_train.4.ark:2587324
mgjc0_sx255 quick_test/fbank/raw_fbank_train.3.ark:330383
mafm0_sx309 quick_test/fbank/raw_fbank_train.2.ark:2549497
mtqc0_si480 quick_test/fbank/raw_fbank_train.4.ark:9633249
mafm0_si2199 quick_test/fbank/raw_fbank_train.2.ark:2505605
fcmg0_si1872 quick_test/fbank/raw_fbank_train.1.ark:2031618
mctm0_sx360 quick_test/fbank/raw_fbank_train.2.ark:5873106
mree0_sx24 quick_test/fbank/raw_fbank_train.4.ark:1714592
mjdm0_si974 quick_test/fbank/raw_fbank_train.3.ark:2500860
fpmy0_sx163 quick_test/fbank/raw_fbank_train.1.ark:10541914
mtlb0_sx54 quick_test/fbank/raw_fbank_train.4.ark:8790947
mhjb0_si1017 quick_test/fbank/raw_fbank_train.3.ark:1105444
fjxp0_si492 quick_test/fbank/raw_fbank_train.1.ark:6111006
mrcg0_sx78 quick_test/fbank/raw_fbank_train.4.ark:1261331
fdmy0_sx297 quick_test/fbank/raw_fbank_train.1.ark:3093002
mrso0_sx399 quick_test/fbank/raw_fbank_train.4.ark:4502695
fvfb0_si1510 quick_test/fbank/raw_fbank_train.2.ark:1748723
mtcs0_sx352 quick_test/fbank/raw_fbank_train.4.ark:7719832
fsag0_sx423 quick_test/fbank/raw_fbank_train.1.ark:10963873
fssb0_si1712 quick_test/fbank/raw_fbank_train.2.ark:1170054
fbcg1_sx262 quick_test/fbank/raw_fbank_train.1.ark:678173
mjdm0_si1340 quick_test/fbank/raw_fbank_train.3.ark:2473313
mses0_sx419 quick_test/fbank/raw_fbank_train.4.ark:6082188
mjwg0_sx355 quick_test/fbank/raw_fbank_train.3.ark:5214956
mjma0_sx55 quick_test/fbank/raw_fbank_train.3.ark:3954015
mkdb0_si588 quick_test/fbank/raw_fbank_train.3.ark:6069488
mdjm0_si2085 quick_test/fbank/raw_fbank_train.2.ark:7206242
fkde0_si1771 quick_test/fbank/raw_fbank_train.1.ark:6302543
mlel0_sx76 quick_test/fbank/raw_fbank_train.3.ark:7428092
mdlc2_sx174 quick_test/fbank/raw_fbank_train.2.ark:7734275
mjpg0_sx111 quick_test/fbank/raw_fbank_train.3.ark:4185320
mtkd0_sx197 quick_test/fbank/raw_fbank_train.4.ark:8560151
fjrp1_sx262 quick_test/fbank/raw_fbank_train.1.ark:5610187
mdlh0_sx70 quick_test/fbank/raw_fbank_train.2.ark:7890870
mrbc0_sx329 quick_test/fbank/raw_fbank_train.4.ark:1118241
msat0_si896 quick_test/fbank/raw_fbank_train.4.ark:5437742
fkde0_sx421 quick_test/fbank/raw_fbank_train.1.ark:6367669
mrvg0_sx150 quick_test/fbank/raw_fbank_train.4.ark:4884184
makb0_sx116 quick_test/fbank/raw_fbank_train.2.ark:2750603
mlbc0_sx429 quick_test/fbank/raw_fbank_train.3.ark:7305435
mmgk0_sx62 quick_test/fbank/raw_fbank_train.3.ark:9515578
mmdm0_si1311 quick_test/fbank/raw_fbank_train.3.ark:8801212
fmkc0_si1041 quick_test/fbank/raw_fbank_train.1.ark:9139014
fdas1_sx21 quick_test/fbank/raw_fbank_train.1.ark:2472376
fjrb0_sx402 quick_test/fbank/raw_fbank_train.1.ark:5521828
fbmj0_si815 quick_test/fbank/raw_fbank_train.1.ark:1180311
mvjh0_sx26 quick_test/fbank/raw_fbank_train.4.ark:10271577
mjrk0_si1662 quick_test/fbank/raw_fbank_train.3.ark:4826276
fbjl0_sx292 quick_test/fbank/raw_fbank_train.1.ark:913327
fetb0_sx428 quick_test/fbank/raw_fbank_train.1.ark:4034550
mdhl0_sx269 quick_test/fbank/raw_fbank_train.2.ark:7048731
mlbc0_si1869 quick_test/fbank/raw_fbank_train.3.ark:7249590
mdlc0_sx225 quick_test/fbank/raw_fbank_train.2.ark:7563297
mkes0_si1883 quick_test/fbank/raw_fbank_train.3.ark:6371002
fjwb1_si795 quick_test/fbank/raw_fbank_train.1.ark:5903916
mrab1_sx308 quick_test/fbank/raw_fbank_train.4.ark:727059
maeo0_sx156 quick_test/fbank/raw_fbank_train.2.ark:2440486
mmgc0_sx45 quick_test/fbank/raw_fbank_train.3.ark:9338767
mklw0_sx401 quick_test/fbank/raw_fbank_train.3.ark:7017720
msfv0_sx92 quick_test/fbank/raw_fbank_train.4.ark:6319030
mclm0_sx376 quick_test/fbank/raw_fbank_train.2.ark:5411207
majp0_sx444 quick_test/fbank/raw_fbank_train.2.ark:2664556
mvrw0_sx225 quick_test/fbank/raw_fbank_train.4.ark:10445795
flma0_si1873 quick_test/fbank/raw_fbank_train.1.ark:8053772
mkln0_si1598 quick_test/fbank/raw_fbank_train.3.ark:6555058
mbgt0_sx351 quick_test/fbank/raw_fbank_train.2.ark:3606734
mwdk0_sx176 quick_test/fbank/raw_fbank_train.4.ark:10896090
fleh0_sx331 quick_test/fbank/raw_fbank_train.1.ark:7383368
mrmh0_si1349 quick_test/fbank/raw_fbank_train.4.ark:3901410
mfxs0_si2225 quick_test/fbank/raw_fbank_train.2.ark:10785646
fmpg0_si972 quick_test/fbank/raw_fbank_train.1.ark:9472113
fjdm2_sx142 quick_test/fbank/raw_fbank_train.1.ark:4876136
msrr0_si1761 quick_test/fbank/raw_fbank_train.4.ark:6839582
fcyl0_si1927 quick_test/fbank/raw_fbank_train.1.ark:2307860
mjsr0_sx164 quick_test/fbank/raw_fbank_train.3.ark:5063586
mgaw0_sx265 quick_test/fbank/raw_fbank_train.3.ark:155652
mtat0_si811 quick_test/fbank/raw_fbank_train.4.ark:7385138
msdb0_sx377 quick_test/fbank/raw_fbank_train.4.ark:5653638
mmxs0_sx426 quick_test/fbank/raw_fbank_train.3.ark:10517075
mbml0_sx449 quick_test/fbank/raw_fbank_train.2.ark:4003587
mwch0_sx92 quick_test/fbank/raw_fbank_train.4.ark:10846316
mdwm0_sx286 quick_test/fbank/raw_fbank_train.2.ark:9519991
mges0_si1481 quick_test/fbank/raw_fbank_train.3.ark:193384
mrjt0_sx148 quick_test/fbank/raw_fbank_train.4.ark:3047651
mwre0_si1057 quick_test/fbank/raw_fbank_train.4.ark:11155506
mtlc0_sx307 quick_test/fbank/raw_fbank_train.4.ark:8866707
fjen0_sx237 quick_test/fbank/raw_fbank_train.1.ark:5000475
fvfb0_sx312 quick_test/fbank/raw_fbank_train.2.ark:1793056
mfxv0_si1342 quick_test/fbank/raw_fbank_train.2.ark:10887392
mjls0_si1726 quick_test/fbank/raw_fbank_train.3.ark:3783393
flac0_sx181 quick_test/fbank/raw_fbank_train.1.ark:7149931
fsjw0_sx163 quick_test/fbank/raw_fbank_train.2.ark:194309
fjen0_si2307 quick_test/fbank/raw_fbank_train.1.ark:4971449
mdlr0_sx423 quick_test/fbank/raw_fbank_train.2.ark:8062848
mrlr0_sx116 quick_test/fbank/raw_fbank_train.4.ark:3642320
fsjw0_sx433 quick_test/fbank/raw_fbank_train.2.ark:229208
mdwd0_sx180 quick_test/fbank/raw_fbank_train.2.ark:9290156
mkjo0_sx437 quick_test/fbank/raw_fbank_train.3.ark:6531232
mdac0_si1837 quick_test/fbank/raw_fbank_train.2.ark:6015024
msmc0_sx17 quick_test/fbank/raw_fbank_train.4.ark:6494620
mges0_si2111 quick_test/fbank/raw_fbank_train.3.ark:198938
mtjm0_si1856 quick_test/fbank/raw_fbank_train.4.ark:8198545
mtdb0_sx321 quick_test/fbank/raw_fbank_train.4.ark:7824337
mdlr0_si1233 quick_test/fbank/raw_fbank_train.2.ark:7983209
fjwb1_sx75 quick_test/fbank/raw_fbank_train.1.ark:5960840
fsjg0_sx310 quick_test/fbank/raw_fbank_train.1.ark:11789281
mcth0_sx129 quick_test/fbank/raw_fbank_train.2.ark:5750095
maeb0_sx180 quick_test/fbank/raw_fbank_train.2.ark:2347740
mjdg0_sx142 quick_test/fbank/raw_fbank_train.3.ark:2414628
fskp0_sx288 quick_test/fbank/raw_fbank_train.2.ark:515562
mtqc0_si2071 quick_test/fbank/raw_fbank_train.4.ark:9621696
fgmb0_si1775 quick_test/fbank/raw_fbank_train.1.ark:4403806
msmr0_sx415 quick_test/fbank/raw_fbank_train.4.ark:6616032
fdnc0_si2287 quick_test/fbank/raw_fbank_train.1.ark:3162457
fgrw0_sx252 quick_test/fbank/raw_fbank_train.1.ark:4562491
mesj0_sx7 quick_test/fbank/raw_fbank_train.2.ark:10293620
flod0_si1287 quick_test/fbank/raw_fbank_train.1.ark:8329334
mrjh0_sx79 quick_test/fbank/raw_fbank_train.4.ark:2792386
msas0_sx206 quick_test/fbank/raw_fbank_train.4.ark:5369783
mmgc0_si1305 quick_test/fbank/raw_fbank_train.3.ark:9258055
mtlc0_sx37 quick_test/fbank/raw_fbank_train.4.ark:8873219
mclm0_sx196 quick_test/fbank/raw_fbank_train.2.ark:5390581
fpab1_sx301 quick_test/fbank/raw_fbank_train.1.ark:9843926
mdlc1_si1435 quick_test/fbank/raw_fbank_train.2.ark:7608509
fsrh0_sx221 quick_test/fbank/raw_fbank_train.2.ark:1096648
mbjv0_sx257 quick_test/fbank/raw_fbank_train.2.ark:3692806
mmvp0_sx294 quick_test/fbank/raw_fbank_train.3.ark:10097863
mjsr0_si1424 quick_test/fbank/raw_fbank_train.3.ark:5006966
mbma0_sx322 quick_test/fbank/raw_fbank_train.2.ark:3796224
mdma0_sx170 quick_test/fbank/raw_fbank_train.2.ark:8229120
flet0_sx57 quick_test/fbank/raw_fbank_train.1.ark:7505658
mfer0_si2122 quick_test/fbank/raw_fbank_train.2.ark:10403785
mtjs0_si1192 quick_test/fbank/raw_fbank_train.4.ark:8280896
mkah0_sx448 quick_test/fbank/raw_fbank_train.3.ark:5840258
mjwg0_sx265 quick_test/fbank/raw_fbank_train.3.ark:5202243
mvlo0_sx427 quick_test/fbank/raw_fbank_train.4.ark:10375236
mjrg0_sx352 quick_test/fbank/raw_fbank_train.3.ark:4600078
mdrd0_si2012 quick_test/fbank/raw_fbank_train.2.ark:8794964
mdwm0_si2176 quick_test/fbank/raw_fbank_train.2.ark:9471900
fbch0_sx326 quick_test/fbank/raw_fbank_train.1.ark:800070
fcrz0_sx163 quick_test/fbank/raw_fbank_train.1.ark:2239581
fsjw0_si1333 quick_test/fbank/raw_fbank_train.2.ark:150289
mlsh0_si2047 quick_test/fbank/raw_fbank_train.3.ark:7777715
msas0_sx296 quick_test/fbank/raw_fbank_train.4.ark:5396288
mzmb0_sx176 quick_test/fbank/raw_fbank_train.4.ark:11596944
makr0_si722 quick_test/fbank/raw_fbank_train.2.ark:2831235
maeo0_sx426 quick_test/fbank/raw_fbank_train.2.ark:2475505
mrms0_sx210 quick_test/fbank/raw_fbank_train.4.ark:4159121
mlns0_sx327 quick_test/fbank/raw_fbank_train.3.ark:7721942
mrcw0_sx291 quick_test/fbank/raw_fbank_train.4.ark:1345803
mpeb0_si1034 quick_test/fbank/raw_fbank_train.3.ark:10819455
fjdm2_si1582 quick_test/fbank/raw_fbank_train.1.ark:4839235
fklc0_sx85 quick_test/fbank/raw_fbank_train.1.ark:6808081
fcke0_sx301 quick_test/fbank/raw_fbank_train.1.ark:1878146
frll0_si805 quick_test/fbank/raw_fbank_train.1.ark:10791283
ftaj0_si474 quick_test/fbank/raw_fbank_train.2.ark:1271559
fbmj0_sx426 quick_test/fbank/raw_fbank_train.1.ark:1232523
mwem0_si1393 quick_test/fbank/raw_fbank_train.4.ark:10968209
fklh0_sx177 quick_test/fbank/raw_fbank_train.1.ark:6958081
mtat1_sx59 quick_test/fbank/raw_fbank_train.4.ark:7556167
mjrk0_sx70 quick_test/fbank/raw_fbank_train.3.ark:4912907
mjdm0_sx350 quick_test/fbank/raw_fbank_train.3.ark:2539959
mrtc0_si2088 quick_test/fbank/raw_fbank_train.4.ark:4638948
mrhl0_sx165 quick_test/fbank/raw_fbank_train.4.ark:2515885
fjsp0_si1434 quick_test/fbank/raw_fbank_train.1.ark:5778905
mjac0_sx251 quick_test/fbank/raw_fbank_train.3.ark:1702131
faem0_si2022 quick_test/fbank/raw_fbank_train.1.ark:19327
mhrm0_sx58 quick_test/fbank/raw_fbank_train.3.ark:1458751
mkam0_sx416 quick_test/fbank/raw_fbank_train.3.ark:6033909
mdns0_sx291 quick_test/fbank/raw_fbank_train.2.ark:8480508
mded0_si1170 quick_test/fbank/raw_fbank_train.2.ark:6681163
mdrd0_sx392 quick_test/fbank/raw_fbank_train.2.ark:8883001
mfmc0_sx142 quick_test/fbank/raw_fbank_train.2.ark:10518316
fljg0_sx441 quick_test/fbank/raw_fbank_train.1.ark:7907328
fjdm2_sx322 quick_test/fbank/raw_fbank_train.1.ark:4908882
fklc1_si1048 quick_test/fbank/raw_fbank_train.1.ark:6819195
mrlj1_si1671 quick_test/fbank/raw_fbank_train.4.ark:3414689
mtju0_sx220 quick_test/fbank/raw_fbank_train.4.ark:8443654
mrfl0_sx436 quick_test/fbank/raw_fbank_train.4.ark:2227351
feeh0_si1112 quick_test/fbank/raw_fbank_train.1.ark:3751581
mrlr0_si566 quick_test/fbank/raw_fbank_train.4.ark:3628967
fgdp0_si2248 quick_test/fbank/raw_fbank_train.1.ark:4277341
fgcs0_si856 quick_test/fbank/raw_fbank_train.1.ark:4198309
madc0_sx377 quick_test/fbank/raw_fbank_train.2.ark:2197221
mtdb0_si2031 quick_test/fbank/raw_fbank_train.4.ark:7779405
feac0_sx435 quick_test/fbank/raw_fbank_train.1.ark:3506825
flma0_sx253 quick_test/fbank/raw_fbank_train.1.ark:8090831
mnet0_sx186 quick_test/fbank/raw_fbank_train.3.ark:10575041
mvjh0_si1556 quick_test/fbank/raw_fbank_train.4.ark:10205492
mdss0_sx261 quick_test/fbank/raw_fbank_train.2.ark:9038073
mchl0_si1977 quick_test/fbank/raw_fbank_train.2.ark:5168673
mrxb0_sx235 quick_test/fbank/raw_fbank_train.4.ark:5178492
mbgt0_si1341 quick_test/fbank/raw_fbank_train.2.ark:3539328
fsjg0_sx40 quick_test/fbank/raw_fbank_train.1.ark:11804833
flmc0_sx382 quick_test/fbank/raw_fbank_train.1.ark:8219994
mwsb0_si996 quick_test/fbank/raw_fbank_train.4.ark:11373863
mdwh0_sx215 quick_test/fbank/raw_fbank_train.2.ark:9403174
mdpk0_si1683 quick_test/fbank/raw_fbank_train.2.ark:8619114
ftaj0_si699 quick_test/fbank/raw_fbank_train.2.ark:1280472
mdem0_si800 quick_test/fbank/raw_fbank_train.2.ark:6907000
fklh0_si1887 quick_test/fbank/raw_fbank_train.1.ark:6940775
mrab0_sx414 quick_test/fbank/raw_fbank_train.4.ark:638427
mrmg0_si2340 quick_test/fbank/raw_fbank_train.4.ark:3811218
mbwp0_si1969 quick_test/fbank/raw_fbank_train.2.ark:4299001
fgcs0_sx46 quick_test/fbank/raw_fbank_train.1.ark:4259073
mjlb0_sx176 quick_test/fbank/raw_fbank_train.3.ark:3623368
mrhl0_sx435 quick_test/fbank/raw_fbank_train.4.ark:2549184
mlbc0_sx69 quick_test/fbank/raw_fbank_train.3.ark:7317547
mbbr0_sx245 quick_test/fbank/raw_fbank_train.2.ark:3322267
msms0_si2063 quick_test/fbank/raw_fbank_train.4.ark:6655012
mhit0_sx353 quick_test/fbank/raw_fbank_train.3.ark:1070425
madc0_sx197 quick_test/fbank/raw_fbank_train.2.ark:2174275
mdjm0_sx285 quick_test/fbank/raw_fbank_train.2.ark:7260646
mkaj0_si784 quick_test/fbank/raw_fbank_train.3.ark:5890551
mrbc0_sx239 quick_test/fbank/raw_fbank_train.4.ark:1106008
mmjb1_sx58 quick_test/fbank/raw_fbank_train.3.ark:9614003
mctm0_si720 quick_test/fbank/raw_fbank_train.2.ark:5843327
mfxv0_sx285 quick_test/fbank/raw_fbank_train.2.ark:10940837
fjsk0_sx152 quick_test/fbank/raw_fbank_train.1.ark:5714700
fajw0_sx273 quick_test/fbank/raw_fbank_train.1.ark:163691
fjwb1_sx345 quick_test/fbank/raw_fbank_train.1.ark:5935695
fsmm0_sx54 quick_test/fbank/raw_fbank_train.2.ark:837431
mpgr0_sx60 quick_test/fbank/raw_fbank_train.3.ark:11177440
fklc1_si2308 quick_test/fbank/raw_fbank_train.1.ark:6845623
mdpb0_sx416 quick_test/fbank/raw_fbank_train.2.ark:8582974
mdbp0_sx78 quick_test/fbank/raw_fbank_train.2.ark:6386214
mcpm0_sx24 quick_test/fbank/raw_fbank_train.2.ark:5486446
fsma0_si991 quick_test/fbank/raw_fbank_train.2.ark:659122
mdcm0_sx130 quick_test/fbank/raw_fbank_train.2.ark:6533693
fcjs0_sx167 quick_test/fbank/raw_fbank_train.1.ark:1748055
mmwb0_si1619 quick_test/fbank/raw_fbank_train.3.ark:10141763
mdbb1_sx196 quick_test/fbank/raw_fbank_train.2.ark:6254363
mmdm0_sx321 quick_test/fbank/raw_fbank_train.3.ark:8860778
fsjk1_sx215 quick_test/fbank/raw_fbank_train.2.ark:12
mclk0_si650 quick_test/fbank/raw_fbank_train.2.ark:5255498
mdlh0_sx160 quick_test/fbank/raw_fbank_train.2.ark:7830179
mdhs0_sx270 quick_test/fbank/raw_fbank_train.2.ark:7146756
mmwb0_sx179 quick_test/fbank/raw_fbank_train.3.ark:10192103
mmdb0_sx447 quick_test/fbank/raw_fbank_train.3.ark:8678281
mefg0_si491 quick_test/fbank/raw_fbank_train.2.ark:9736414
fpaz0_sx153 quick_test/fbank/raw_fbank_train.1.ark:10238561
megj0_sx167 quick_test/fbank/raw_fbank_train.2.ark:9876945
fskl0_sx269 quick_test/fbank/raw_fbank_train.2.ark:399472
mjhi0_sx338 quick_test/fbank/raw_fbank_train.3.ark:3133268
mrre0_sx344 quick_test/fbank/raw_fbank_train.4.ark:4359044
mrmh0_sx121 quick_test/fbank/raw_fbank_train.4.ark:3929077
mrpc1_si2112 quick_test/fbank/raw_fbank_train.4.ark:4214361
fmmh0_si907 quick_test/fbank/raw_fbank_train.1.ark:9374930
fjhk0_si1652 quick_test/fbank/raw_fbank_train.1.ark:5071801
mmea0_si1388 quick_test/fbank/raw_fbank_train.3.ark:9082167
mdks0_sx256 quick_test/fbank/raw_fbank_train.2.ark:7330367
fhlm0_sx120 quick_test/fbank/raw_fbank_train.1.ark:4645003
mgrl0_sx237 quick_test/fbank/raw_fbank_train.3.ark:434928
mejl0_si1654 quick_test/fbank/raw_fbank_train.2.ark:9951382
mcxm0_sx271 quick_test/fbank/raw_fbank_train.2.ark:5958578
mhmr0_sx39 quick_test/fbank/raw_fbank_train.3.ark:1357573
mwrp0_si1443 quick_test/fbank/raw_fbank_train.4.ark:11256372
flmc0_si1372 quick_test/fbank/raw_fbank_train.1.ark:8132803
mljc0_si1225 quick_test/fbank/raw_fbank_train.3.ark:7441846
flag0_sx24 quick_test/fbank/raw_fbank_train.1.ark:7282901
mmab1_sx414 quick_test/fbank/raw_fbank_train.3.ark:8049290
megj0_si1967 quick_test/fbank/raw_fbank_train.2.ark:9854319
marc0_si1188 quick_test/fbank/raw_fbank_train.2.ark:2992418
fcjf0_sx127 quick_test/fbank/raw_fbank_train.1.ark:1683070
mbgt0_sx441 quick_test/fbank/raw_fbank_train.2.ark:3623087
mprt0_sx40 quick_test/fbank/raw_fbank_train.4.ark:463896
fdaw0_sx416 quick_test/fbank/raw_fbank_train.1.ark:2584476
fkfb0_si978 quick_test/fbank/raw_fbank_train.1.ark:6519627
mkaj0_sx244 quick_test/fbank/raw_fbank_train.3.ark:5910577
mrre0_si704 quick_test/fbank/raw_fbank_train.4.ark:4298992
mdwd0_si1260 quick_test/fbank/raw_fbank_train.2.ark:9251096
mjws0_si1143 quick_test/fbank/raw_fbank_train.3.ark:5246855
mdcm0_si1480 quick_test/fbank/raw_fbank_train.2.ark:6492473
fhlm0_si1560 quick_test/fbank/raw_fbank_train.1.ark:4614663
fsls0_sx202 quick_test/fbank/raw_fbank_train.2.ark:595883
mgrp0_sx57 quick_test/fbank/raw_fbank_train.3.ark:580011
mfer0_sx142 quick_test/fbank/raw_fbank_train.2.ark:10425291
mklw0_sx41 quick_test/fbank/raw_fbank_train.3.ark:7029952
mmbs0_sx71 quick_test/fbank/raw_fbank_train.3.ark:8497263
mjde0_sx400 quick_test/fbank/raw_fbank_train.3.ark:2363133
fklh0_sx87 quick_test/fbank/raw_fbank_train.1.ark:7006332
msms0_si1433 quick_test/fbank/raw_fbank_train.4.ark:6637578
mpar0_sx406 quick_test/fbank/raw_fbank_train.3.ark:10799109
fkkh0_si1290 quick_test/fbank/raw_fbank_train.1.ark:6608865
mljh0_sx154 quick_test/fbank/raw_fbank_train.3.ark:7600131
mpar0_si946 quick_test/fbank/raw_fbank_train.3.ark:10756017
mbjv0_sx437 quick_test/fbank/raw_fbank_train.2.ark:3714632
mmgg0_sx269 quick_test/fbank/raw_fbank_train.3.ark:9398775
mgrp0_sx327 quick_test/fbank/raw_fbank_train.3.ark:547346
fljg0_sx351 quick_test/fbank/raw_fbank_train.1.ark:7887895
mjxa0_si877 quick_test/fbank/raw_fbank_train.3.ark:5489852
mwsb0_sx366 quick_test/fbank/raw_fbank_train.4.ark:11408442
fsjk1_si2285 quick_test/fbank/raw_fbank_train.1.ark:11852134
fcmm0_sx273 quick_test/fbank/raw_fbank_train.1.ark:2153789
mclk0_si1660 quick_test/fbank/raw_fbank_train.2.ark:5231751
mdwh0_si665 quick_test/fbank/raw_fbank_train.2.ark:9372468
fklc1_si1678 quick_test/fbank/raw_fbank_train.1.ark:6837869
mhmr0_si489 quick_test/fbank/raw_fbank_train.3.ark:1304362
mcdr0_si524 quick_test/fbank/raw_fbank_train.2.ark:4837757
fmah1_si2139 quick_test/fbank/raw_fbank_train.1.ark:8535180
mprk0_si1727 quick_test/fbank/raw_fbank_train.4.ark:301348
mtab0_si2202 quick_test/fbank/raw_fbank_train.4.ark:7180135
mwsb0_sx96 quick_test/fbank/raw_fbank_train.4.ark:11430545
mrjm0_sx58 quick_test/fbank/raw_fbank_train.4.ark:2894092
mlel0_sx436 quick_test/fbank/raw_fbank_train.3.ark:7416260
mprt0_si495 quick_test/fbank/raw_fbank_train.4.ark:412812
mpgh0_si1554 quick_test/fbank/raw_fbank_train.3.ark:11012905
mgaf0_si1282 quick_test/fbank/raw_fbank_train.2.ark:10965064
mvrw0_sx135 quick_test/fbank/raw_fbank_train.4.ark:10434242
mdss0_si621 quick_test/fbank/raw_fbank_train.2.ark:9014327
fdaw0_sx236 quick_test/fbank/raw_fbank_train.1.ark:2562410
mwad0_sx342 quick_test/fbank/raw_fbank_train.4.ark:10647799
marw0_sx16 quick_test/fbank/raw_fbank_train.2.ark:3114575
mtlc0_sx127 quick_test/fbank/raw_fbank_train.4.ark:8851801
fsak0_si1300 quick_test/fbank/raw_fbank_train.1.ark:11102684
fpaz0_si2223 quick_test/fbank/raw_fbank_train.1.ark:10202575
fdaw0_si2036 quick_test/fbank/raw_fbank_train.1.ark:2532184
fpjf0_si1676 quick_test/fbank/raw_fbank_train.1.ark:10326473
fsag0_si693 quick_test/fbank/raw_fbank_train.1.ark:10899381
mtrt0_si1857 quick_test/fbank/raw_fbank_train.4.ark:9929890
fjhk0_sx302 quick_test/fbank/raw_fbank_train.1.ark:5127014
mjac0_sx341 quick_test/fbank/raw_fbank_train.3.ark:1727637
mrmb0_sx321 quick_test/fbank/raw_fbank_train.4.ark:3751251
mrem0_sx331 quick_test/fbank/raw_fbank_train.4.ark:1920762
mrsp0_si1429 quick_test/fbank/raw_fbank_train.4.ark:4515449
mtjm0_si1226 quick_test/fbank/raw_fbank_train.4.ark:8182951
fsgf0_sx117 quick_test/fbank/raw_fbank_train.1.ark:11655310
fklh0_sx267 quick_test/fbank/raw_fbank_train.1.ark:6966274
madd0_si1295 quick_test/fbank/raw_fbank_train.2.ark:2210255
fdas1_sx381 quick_test/fbank/raw_fbank_train.1.ark:2492122
fetb0_sx158 quick_test/fbank/raw_fbank_train.1.ark:4001451
mjwg0_si813 quick_test/fbank/raw_fbank_train.3.ark:5141104
mdpb0_si2126 quick_test/fbank/raw_fbank_train.2.ark:8518209
frll0_sx434 quick_test/fbank/raw_fbank_train.1.ark:10857808
mtjs0_sx292 quick_test/fbank/raw_fbank_train.4.ark:8365414
mclk0_sx130 quick_test/fbank/raw_fbank_train.2.ark:5278651
mkls0_sx177 quick_test/fbank/raw_fbank_train.3.ark:6784850
mmdb0_si1358 quick_test/fbank/raw_fbank_train.3.ark:8607522
mbml0_si1799 quick_test/fbank/raw_fbank_train.2.ark:3946022
mcdr0_sx164 quick_test/fbank/raw_fbank_train.2.ark:4857110
ftlg0_si1743 quick_test/fbank/raw_fbank_train.2.ark:1535880
mrew1_si1500 quick_test/fbank/raw_fbank_train.4.ark:1957941
mrmg0_si1080 quick_test/fbank/raw_fbank_train.4.ark:3787790
fgdp0_sx358 quick_test/fbank/raw_fbank_train.1.ark:4338593
mrlr0_sx386 quick_test/fbank/raw_fbank_train.4.ark:3684931
mdlr0_si1863 quick_test/fbank/raw_fbank_train.2.ark:7999443
fdml0_si1149 quick_test/fbank/raw_fbank_train.1.ark:2900779
mgaw0_sx175 quick_test/fbank/raw_fbank_train.3.ark:141259
mjfr0_si1605 quick_test/fbank/raw_fbank_train.3.ark:2963798
fmjf0_sx444 quick_test/fbank/raw_fbank_train.1.ark:9006163
fltm0_sx350 quick_test/fbank/raw_fbank_train.1.ark:8479047
msdb0_sx17 quick_test/fbank/raw_fbank_train.4.ark:5631579
ftaj0_sx69 quick_test/fbank/raw_fbank_train.2.ark:1330876
mtjm0_sx146 quick_test/fbank/raw_fbank_train.4.ark:8228531
mmws0_si559 quick_test/fbank/raw_fbank_train.3.ark:10283741
mjrh0_sx225 quick_test/fbank/raw_fbank_train.3.ark:4685039
mmds0_sx83 quick_test/fbank/raw_fbank_train.3.ark:9072653
mrem0_sx241 quick_test/fbank/raw_fbank_train.4.ark:1910929
mjma0_si865 quick_test/fbank/raw_fbank_train.3.ark:3902731
mmaa0_sx125 quick_test/fbank/raw_fbank_train.3.ark:7912486
mjmm0_sx265 quick_test/fbank/raw_fbank_train.3.ark:4104048
msat0_sx86 quick_test/fbank/raw_fbank_train.4.ark:5488266
mcxm0_sx91 quick_test/fbank/raw_fbank_train.2.ark:5993276
fssb0_si1082 quick_test/fbank/raw_fbank_train.2.ark:1154980
mtjm0_si655 quick_test/fbank/raw_fbank_train.4.ark:8212778
mbcg0_sx417 quick_test/fbank/raw_fbank_train.2.ark:3436957
fjhk0_sx122 quick_test/fbank/raw_fbank_train.1.ark:5098188
mtbc0_sx347 quick_test/fbank/raw_fbank_train.4.ark:7623687
mtpp0_sx428 quick_test/fbank/raw_fbank_train.4.ark:9457771
msds0_sx357 quick_test/fbank/raw_fbank_train.4.ark:5841344
mcae0_sx277 quick_test/fbank/raw_fbank_train.2.ark:4466525
mrms0_sx300 quick_test/fbank/raw_fbank_train.4.ark:4174346
mmxs0_si876 quick_test/fbank/raw_fbank_train.3.ark:10470783
fcke0_sx31 quick_test/fbank/raw_fbank_train.1.ark:1889138
fcmg0_si1142 quick_test/fbank/raw_fbank_train.1.ark:2000270
fklc0_si2245 quick_test/fbank/raw_fbank_train.1.ark:6723044
mkjo0_si2147 quick_test/fbank/raw_fbank_train.3.ark:6478587
mtxs0_sx250 quick_test/fbank/raw_fbank_train.4.ark:10151000
mram0_sx195 quick_test/fbank/raw_fbank_train.4.ark:937349
fcyl0_si667 quick_test/fbank/raw_fbank_train.1.ark:2320253
mjlb0_sx446 quick_test/fbank/raw_fbank_train.3.ark:3658907
mdhs0_sx360 quick_test/fbank/raw_fbank_train.2.ark:7155989
flod0_si657 quick_test/fbank/raw_fbank_train.1.ark:8354841
fcmm0_si453 quick_test/fbank/raw_fbank_train.1.ark:2135483
mgrp0_si687 quick_test/fbank/raw_fbank_train.3.ark:510687
medr0_sx24 quick_test/fbank/raw_fbank_train.2.ark:9699282
fsjk1_sx125 quick_test/fbank/raw_fbank_train.1.ark:11874760
mmlm0_si897 quick_test/fbank/raw_fbank_train.3.ark:9651504
mrhl0_si885 quick_test/fbank/raw_fbank_train.4.ark:2502972
mjae0_si1524 quick_test/fbank/raw_fbank_train.3.ark:1764776
fcdr1_sx16 quick_test/fbank/raw_fbank_train.1.ark:1509092
fdkn0_sx271 quick_test/fbank/raw_fbank_train.1.ark:2844687
flkm0_sx80 quick_test/fbank/raw_fbank_train.1.ark:8035864
mtlc0_si1313 quick_test/fbank/raw_fbank_train.4.ark:8804781
mrml0_sx341 quick_test/fbank/raw_fbank_train.4.ark:4061648
mdlb0_si1936 quick_test/fbank/raw_fbank_train.2.ark:7408213
fljg0_sx261 quick_test/fbank/raw_fbank_train.1.ark:7878622
mrcw0_si2001 quick_test/fbank/raw_fbank_train.4.ark:1288079
mmxs0_si2136 quick_test/fbank/raw_fbank_train.3.ark:10444517
mdpk0_sx243 quick_test/fbank/raw_fbank_train.2.ark:8646093
mewm0_si718 quick_test/fbank/raw_fbank_train.2.ark:10325753
msdh0_sx440 quick_test/fbank/raw_fbank_train.4.ark:5739031
mmcc0_sx78 quick_test/fbank/raw_fbank_train.3.ark:8598448
mmea0_sx398 quick_test/fbank/raw_fbank_train.3.ark:9156238
mdem0_si608 quick_test/fbank/raw_fbank_train.2.ark:6889047
fbmj0_sx66 quick_test/fbank/raw_fbank_train.1.ark:1245595
mvlo0_si517 quick_test/fbank/raw_fbank_train.4.ark:10320984
fskp0_sx198 quick_test/fbank/raw_fbank_train.2.ark:505929
mrjb1_si1020 quick_test/fbank/raw_fbank_train.4.ark:2572610
fmem0_sx297 quick_test/fbank/raw_fbank_train.1.ark:8781641
mhrm0_sx328 quick_test/fbank/raw_fbank_train.3.ark:1430646
fbch0_si956 quick_test/fbank/raw_fbank_train.1.ark:747058
fgcs0_sx136 quick_test/fbank/raw_fbank_train.1.ark:4208462
mdpb0_sx56 quick_test/fbank/raw_fbank_train.2.ark:8593446
mbth0_si505 quick_test/fbank/raw_fbank_train.2.ark:4206936
mmws1_si1071 quick_test/fbank/raw_fbank_train.3.ark:10365212
mmam0_sx427 quick_test/fbank/raw_fbank_train.3.ark:8253701
mjda0_sx131 quick_test/fbank/raw_fbank_train.3.ark:2096233
mppc0_si782 quick_test/fbank/raw_fbank_train.3.ark:11481832
mjpm1_sx311 quick_test/fbank/raw_fbank_train.3.ark:4383876
mrlj0_sx340 quick_test/fbank/raw_fbank_train.4.ark:3385630
mfxv0_sx195 quick_test/fbank/raw_fbank_train.2.ark:10933004
mrgs0_sx6 quick_test/fbank/raw_fbank_train.4.ark:2452199
fcrz0_sx343 quick_test/fbank/raw_fbank_train.1.ark:2259407
mbth0_si2102 quick_test/fbank/raw_fbank_train.2.ark:4185983
mjhi0_si698 quick_test/fbank/raw_fbank_train.3.ark:3100969
mbjv0_sx167 quick_test/fbank/raw_fbank_train.2.ark:3679733
fpad0_sx356 quick_test/fbank/raw_fbank_train.1.ark:10056256
mdlc1_sx355 quick_test/fbank/raw_fbank_train.2.ark:7678116
fmbg0_si2264 quick_test/fbank/raw_fbank_train.1.ark:8649479
mcef0_si842 quick_test/fbank/raw_fbank_train.2.ark:4935662
mntw0_si2328 quick_test/fbank/raw_fbank_train.3.ark:10669352
mjmd0_sx218 quick_test/fbank/raw_fbank_train.3.ark:4006943
mkxl0_sx105 quick_test/fbank/raw_fbank_train.3.ark:7182431
mbwp0_si1531 quick_test/fbank/raw_fbank_train.2.ark:4292407
mvjh0_si2186 quick_test/fbank/raw_fbank_train.4.ark:10223766
mrms0_sx120 quick_test/fbank/raw_fbank_train.4.ark:4146568
mmjb1_si778 quick_test/fbank/raw_fbank_train.3.ark:9551359
mjeb0_si1916 quick_test/fbank/raw_fbank_train.3.ark:2596212
fmbg0_sx440 quick_test/fbank/raw_fbank_train.1.ark:8693169
mcew0_si2072 quick_test/fbank/raw_fbank_train.2.ark:5019614
mhit0_sx83 quick_test/fbank/raw_fbank_train.3.ark:1094530
fmbg0_si1790 quick_test/fbank/raw_fbank_train.1.ark:8639885
mtmn0_sx74 quick_test/fbank/raw_fbank_train.4.ark:9096343
fltm0_sx170 quick_test/fbank/raw_fbank_train.1.ark:8447421
mded0_sx90 quick_test/fbank/raw_fbank_train.2.ark:6776634
mprb0_si1215 quick_test/fbank/raw_fbank_train.4.ark:59058
mfer0_sx52 quick_test/fbank/raw_fbank_train.2.ark:10469942
fsms1_si874 quick_test/fbank/raw_fbank_train.2.ark:875332
mrtc0_si1458 quick_test/fbank/raw_fbank_train.4.ark:4619954
mbwp0_sx349 quick_test/fbank/raw_fbank_train.2.ark:4350373
mter0_sx167 quick_test/fbank/raw_fbank_train.4.ark:8022882
mrwa0_si2233 quick_test/fbank/raw_fbank_train.4.ark:4950903
mmws1_si2331 quick_test/fbank/raw_fbank_train.3.ark:10390120
mmam0_si1668 quick_test/fbank/raw_fbank_train.3.ark:8203935
mcef0_si1135 quick_test/fbank/raw_fbank_train.2.ark:4912995
fsma0_si2251 quick_test/fbank/raw_fbank_train.2.ark:645929
fsak0_sx130 quick_test/fbank/raw_fbank_train.1.ark:11140744
fjsp0_sx174 quick_test/fbank/raw_fbank_train.1.ark:5812205
mrcw0_sx21 quick_test/fbank/raw_fbank_train.4.ark:1338690
mrab1_si2108 quick_test/fbank/raw_fbank_train.4.ark:676447
mjae0_sx84 quick_test/fbank/raw_fbank_train.3.ark:1851648
fbjl0_si922 quick_test/fbank/raw_fbank_train.1.ark:864036
mjrh1_si1774 quick_test/fbank/raw_fbank_train.3.ark:4747685
fkfb0_sx258 quick_test/fbank/raw_fbank_train.1.ark:6543813
fmkc0_sx82 quick_test/fbank/raw_fbank_train.1.ark:9229326
fajw0_si1263 quick_test/fbank/raw_fbank_train.1.ark:100358
mdlr0_sx153 quick_test/fbank/raw_fbank_train.2.ark:8018749
mmpm0_si2321 quick_test/fbank/raw_fbank_train.3.ark:9735010
mmcc0_si1338 quick_test/fbank/raw_fbank_train.3.ark:8509457
mvrw0_si2115 quick_test/fbank/raw_fbank_train.4.ark:10416176
mkag0_si1609 quick_test/fbank/raw_fbank_train.3.ark:5659915
mrew1_sx240 quick_test/fbank/raw_fbank_train.4.ark:1997234
mtcs0_sx82 quick_test/fbank/raw_fbank_train.4.ark:7750417
fcmm0_sx93 quick_test/fbank/raw_fbank_train.1.ark:2192847
mtpp0_sx158 quick_test/fbank/raw_fbank_train.4.ark:9424552
mjfr0_sx165 quick_test/fbank/raw_fbank_train.3.ark:3000898
mmlm0_sx267 quick_test/fbank/raw_fbank_train.3.ark:9669130
mdbp0_sx438 quick_test/fbank/raw_fbank_train.2.ark:6368262
mdsj0_sx22 quick_test/fbank/raw_fbank_train.2.ark:8945607
mcre0_sx131 quick_test/fbank/raw_fbank_train.2.ark:5549687
mdwm0_sx16 quick_test/fbank/raw_fbank_train.2.ark:9510958
mfwk0_sx349 quick_test/fbank/raw_fbank_train.2.ark:10733113
fbch0_sx236 quick_test/fbank/raw_fbank_train.1.ark:789957
mgaf0_sx112 quick_test/fbank/raw_fbank_train.2.ark:11005924
fljg0_sx171 quick_test/fbank/raw_fbank_train.1.ark:7858309
makr0_sx92 quick_test/fbank/raw_fbank_train.2.ark:2875919
mpfu0_sx358 quick_test/fbank/raw_fbank_train.3.ark:10973286
mses0_sx59 quick_test/fbank/raw_fbank_train.4.ark:6092180
mkls0_sx87 quick_test/fbank/raw_fbank_train.3.ark:6834701
mtjg0_sx80 quick_test/fbank/raw_fbank_train.4.ark:8174757
fbjl0_sx382 quick_test/fbank/raw_fbank_train.1.ark:928160
mrlr0_si1826 quick_test/fbank/raw_fbank_train.4.ark:3618054
fklc0_sx445 quick_test/fbank/raw_fbank_train.1.ark:6796409
mwch0_sx182 quick_test/fbank/raw_fbank_train.4.ark:10802985
mefg0_sx105 quick_test/fbank/raw_fbank_train.2.ark:9773520
fgmb0_sx425 quick_test/fbank/raw_fbank_train.1.ark:4477811
mmlm0_si1527 quick_test/fbank/raw_fbank_train.3.ark:9629077
mtwh1_si882 quick_test/fbank/raw_fbank_train.4.ark:10024428
mcae0_sx7 quick_test/fbank/raw_fbank_train.2.ark:4495749
mrwa0_sx73 quick_test/fbank/raw_fbank_train.4.ark:5026220
msfh0_sx46 quick_test/fbank/raw_fbank_train.4.ark:6209605
flhd0_si1827 quick_test/fbank/raw_fbank_train.1.ark:7527406
ftlg0_sx303 quick_test/fbank/raw_fbank_train.2.ark:1610605
fcmg0_sx162 quick_test/fbank/raw_fbank_train.1.ark:2042571
mmeb0_si727 quick_test/fbank/raw_fbank_train.3.ark:9192219
mgsl0_sx264 quick_test/fbank/raw_fbank_train.3.ark:755880
mjpm1_si1897 quick_test/fbank/raw_fbank_train.3.ark:4332310
mmag0_sx406 quick_test/fbank/raw_fbank_train.3.ark:8162555
mrfk0_sx446 quick_test/fbank/raw_fbank_train.4.ark:2118886
mmdg0_sx160 quick_test/fbank/raw_fbank_train.3.ark:8736047
mcpm0_sx294 quick_test/fbank/raw_fbank_train.2.ark:5495359
mbma1_si954 quick_test/fbank/raw_fbank_train.2.ark:3851430
fdnc0_sx198 quick_test/fbank/raw_fbank_train.1.ark:3195355
mjpm1_si2280 quick_test/fbank/raw_fbank_train.3.ark:4338264
fpab1_sx31 quick_test/fbank/raw_fbank_train.1.ark:9858438
mrso0_si1206 quick_test/fbank/raw_fbank_train.4.ark:4395303
falk0_si456 quick_test/fbank/raw_fbank_train.1.ark:220934
fvkb0_si1159 quick_test/fbank/raw_fbank_train.2.ark:1825835
mtat0_sx300 quick_test/fbank/raw_fbank_train.4.ark:7431149
flma0_si613 quick_test/fbank/raw_fbank_train.1.ark:8067645
mbma1_si2207 quick_test/fbank/raw_fbank_train.2.ark:3831163
mjai0_sx254 quick_test/fbank/raw_fbank_train.3.ark:1930614
mjwg0_sx85 quick_test/fbank/raw_fbank_train.3.ark:5235941
flhd0_sx444 quick_test/fbank/raw_fbank_train.1.ark:7584132
mrai0_si792 quick_test/fbank/raw_fbank_train.4.ark:789865
fdas1_si1461 quick_test/fbank/raw_fbank_train.1.ark:2398811
meal0_si1547 quick_test/fbank/raw_fbank_train.2.ark:9558531
mjjb0_si1277 quick_test/fbank/raw_fbank_train.3.ark:3187401
fltm0_si2330 quick_test/fbank/raw_fbank_train.1.ark:8439228
fexm0_sx366 quick_test/fbank/raw_fbank_train.1.ark:4146815
mtkd0_si630 quick_test/fbank/raw_fbank_train.4.ark:8518253
fmkf0_si1018 quick_test/fbank/raw_fbank_train.1.ark:9241000
mmam0_si2227 quick_test/fbank/raw_fbank_train.3.ark:8213049
fntb0_si1203 quick_test/fbank/raw_fbank_train.1.ark:9669336
mrjm0_si1095 quick_test/fbank/raw_fbank_train.4.ark:2807340
fjrb0_sx222 quick_test/fbank/raw_fbank_train.1.ark:5493002
frll0_sx74 quick_test/fbank/raw_fbank_train.1.ark:10867520
fntb0_sx393 quick_test/fbank/raw_fbank_train.1.ark:9752766
feeh0_sx32 quick_test/fbank/raw_fbank_train.1.ark:3828819
fecd0_sx158 quick_test/fbank/raw_fbank_train.1.ark:3687976
mreh1_si1599 quick_test/fbank/raw_fbank_train.4.ark:1743972
mpgr0_sx420 quick_test/fbank/raw_fbank_train.3.ark:11162328
mrml0_sx251 quick_test/fbank/raw_fbank_train.4.ark:4043055
fjxm0_si1971 quick_test/fbank/raw_fbank_train.1.ark:5982988
fssb0_sx92 quick_test/fbank/raw_fbank_train.2.ark:1249132
fsls0_sx156 quick_test/fbank/raw_fbank_train.2.ark:581650
mhbs0_si2205 quick_test/fbank/raw_fbank_train.3.ark:927108
mdlh0_si700 quick_test/fbank/raw_fbank_train.2.ark:7814866
mjae0_sx174 quick_test/fbank/raw_fbank_train.3.ark:1797037
fjsk0_sx422 quick_test/fbank/raw_fbank_train.1.ark:5753039
fjxm0_si581 quick_test/fbank/raw_fbank_train.1.ark:5990461
mdpk0_sx333 quick_test/fbank/raw_fbank_train.2.ark:8657166
fpaf0_sx334 quick_test/fbank/raw_fbank_train.1.ark:10160162
mcal0_sx148 quick_test/fbank/raw_fbank_train.2.ark:4554035
mjma0_sx145 quick_test/fbank/raw_fbank_train.3.ark:3916764
majp0_si1074 quick_test/fbank/raw_fbank_train.2.ark:2580956
mbwp0_sx439 quick_test/fbank/raw_fbank_train.2.ark:4367846
mljh0_si1422 quick_test/fbank/raw_fbank_train.3.ark:7554825
mdrd0_sx122 quick_test/fbank/raw_fbank_train.2.ark:8828470
mkdt0_sx173 quick_test/fbank/raw_fbank_train.3.ark:6294643
mree0_sx204 quick_test/fbank/raw_fbank_train.4.ark:1703960
fsag0_si1323 quick_test/fbank/raw_fbank_train.1.ark:10878274
mtju0_sx400 quick_test/fbank/raw_fbank_train.4.ark:8479312
fkkh0_sx300 quick_test/fbank/raw_fbank_train.1.ark:6692303
mtrr0_si1548 quick_test/fbank/raw_fbank_train.4.ark:9810871
fmpg0_sx72 quick_test/fbank/raw_fbank_train.1.ark:9561917
mmeb0_si1357 quick_test/fbank/raw_fbank_train.3.ark:9167672
fvmh0_sx116 quick_test/fbank/raw_fbank_train.2.ark:1973240
fsdc0_si1942 quick_test/fbank/raw_fbank_train.1.ark:11444833
fmpg0_sx252 quick_test/fbank/raw_fbank_train.1.ark:9511659
mchl0_si1404 quick_test/fbank/raw_fbank_train.2.ark:5152079
mmaa0_sx305 quick_test/fbank/raw_fbank_train.3.ark:7937112
mmds0_sx443 quick_test/fbank/raw_fbank_train.3.ark:9062901
fdxw0_sx341 quick_test/fbank/raw_fbank_train.1.ark:3399087
mrjh0_sx259 quick_test/fbank/raw_fbank_train.4.ark:2754928
mbom0_sx114 quick_test/fbank/raw_fbank_train.2.ark:4060314
fspm0_si1871 quick_test/fbank/raw_fbank_train.2.ark:972684
mjls0_si466 quick_test/fbank/raw_fbank_train.3.ark:3806186
fmem0_sx207 quick_test/fbank/raw_fbank_train.1.ark:8773088
mdwm0_sx376 quick_test/fbank/raw_fbank_train.2.ark:9534864
flma0_sx343 quick_test/fbank/raw_fbank_train.1.ark:8098824
mdma0_sx260 quick_test/fbank/raw_fbank_train.2.ark:8249073
fjhk0_sx212 quick_test/fbank/raw_fbank_train.1.ark:5112301
mesg0_sx432 quick_test/fbank/raw_fbank_train.2.ark:10200517
mjde0_sx130 quick_test/fbank/raw_fbank_train.3.ark:2300362
mjde0_sx220 quick_test/fbank/raw_fbank_train.3.ark:2313875
fcyl0_sx37 quick_test/fbank/raw_fbank_train.1.ark:2375024
fjdm2_si2212 quick_test/fbank/raw_fbank_train.1.ark:4864063
fkaa0_si1838 quick_test/fbank/raw_fbank_train.1.ark:6187038
mmlm0_sx357 quick_test/fbank/raw_fbank_train.3.ark:9681723
fblv0_si1058 quick_test/fbank/raw_fbank_train.1.ark:941034
mjrh1_si1558 quick_test/fbank/raw_fbank_train.3.ark:4728331
mtml0_sx345 quick_test/fbank/raw_fbank_train.4.ark:8959253
ftbw0_si715 quick_test/fbank/raw_fbank_train.2.ark:1458042
mmab1_sx324 quick_test/fbank/raw_fbank_train.3.ark:8031497
flag0_sx294 quick_test/fbank/raw_fbank_train.1.ark:7294734
makb0_sx386 quick_test/fbank/raw_fbank_train.2.ark:2799974
mbth0_sx212 quick_test/fbank/raw_fbank_train.2.ark:4242235
mrvg0_si1140 quick_test/fbank/raw_fbank_train.4.ark:4854044
mvlo0_sx157 quick_test/fbank/raw_fbank_train.4.ark:10338897
falr0_si1955 quick_test/fbank/raw_fbank_train.1.ark:324237
mmjb1_sx328 quick_test/fbank/raw_fbank_train.3.ark:9585658
mabc0_si1620 quick_test/fbank/raw_fbank_train.2.ark:2020165
flja0_si1708 quick_test/fbank/raw_fbank_train.1.ark:7633432
fsjw0_si1963 quick_test/fbank/raw_fbank_train.2.ark:171363
mrlk0_si843 quick_test/fbank/raw_fbank_train.4.ark:3536022
fsgf0_si1557 quick_test/fbank/raw_fbank_train.1.ark:11605690
mjae0_sx354 quick_test/fbank/raw_fbank_train.3.ark:1824223
mdlb0_sx46 quick_test/fbank/raw_fbank_train.2.ark:7492010
mdtb0_sx300 quick_test/fbank/raw_fbank_train.2.ark:9218756
mtjg0_sx170 quick_test/fbank/raw_fbank_train.4.ark:8113946
fvkb0_si1789 quick_test/fbank/raw_fbank_train.2.ark:1835469
fcdr1_sx196 quick_test/fbank/raw_fbank_train.1.ark:1519805
maeb0_si2250 quick_test/fbank/raw_fbank_train.2.ark:2323874
mfrm0_si1717 quick_test/fbank/raw_fbank_train.2.ark:10600395
fpmy0_sx196 quick_test/fbank/raw_fbank_train.1.ark:10554307
mkah0_si1528 quick_test/fbank/raw_fbank_train.3.ark:5765619
mtrt0_sx147 quick_test/fbank/raw_fbank_train.4.ark:9953556
mwsb0_si2256 quick_test/fbank/raw_fbank_train.4.ark:11364590
mrre0_sx254 quick_test/fbank/raw_fbank_train.4.ark:4348771
flmk0_sx225 quick_test/fbank/raw_fbank_train.1.ark:8286282
feeh0_si1742 quick_test/fbank/raw_fbank_train.1.ark:3766015
mbef0_si651 quick_test/fbank/raw_fbank_train.2.ark:3481650
mtab0_sx402 quick_test/fbank/raw_fbank_train.4.ark:7252540
mpmb0_sx241 quick_test/fbank/raw_fbank_train.3.ark:11379833
fjwb1_sx165 quick_test/fbank/raw_fbank_train.1.ark:5914949
msem1_sx180 quick_test/fbank/raw_fbank_train.4.ark:5946063
mrab0_sx324 quick_test/fbank/raw_fbank_train.4.ark:622554
fdmy0_sx207 quick_test/fbank/raw_fbank_train.1.ark:3068337
fntb0_sx33 quick_test/fbank/raw_fbank_train.1.ark:9741733
mhmr0_si1119 quick_test/fbank/raw_fbank_train.3.ark:1275495
mklr0_sx69 quick_test/fbank/raw_fbank_train.3.ark:6726115
mmpm0_sx341 quick_test/fbank/raw_fbank_train.3.ark:9776789
mtat0_sx210 quick_test/fbank/raw_fbank_train.4.ark:7414844
fdfb0_si2010 quick_test/fbank/raw_fbank_train.1.ark:2630490
mkls0_si1437 quick_test/fbank/raw_fbank_train.3.ark:6736749
fjlr0_si601 quick_test/fbank/raw_fbank_train.1.ark:5376511
mtrr0_sx18 quick_test/fbank/raw_fbank_train.4.ark:9859963
mkln0_sx158 quick_test/fbank/raw_fbank_train.3.ark:6593878
mtwh1_sx72 quick_test/fbank/raw_fbank_train.4.ark:10081832
mejs0_sx160 quick_test/fbank/raw_fbank_train.2.ark:10067273
madd0_si538 quick_test/fbank/raw_fbank_train.2.ark:2232322
mcdr0_sx344 quick_test/fbank/raw_fbank_train.2.ark:4881216
mrkm0_sx277 quick_test/fbank/raw_fbank_train.4.ark:3183949
