mrab0_sx54 quick_test/fbank/raw_fbank_train.4.ark:651379
fgrw0_si1152 quick_test/fbank/raw_fbank_train.1.ark:4498917
mmaa0_sx305 quick_test/fbank/raw_fbank_train.3.ark:7937112
mrlj1_sx51 quick_test/fbank/raw_fbank_train.4.ark:3491601
mdpb0_si866 quick_test/fbank/raw_fbank_train.2.ark:8531522
fbas0_sx127 quick_test/fbank/raw_fbank_train.1.ark:584755
mrws0_si1732 quick_test/fbank/raw_fbank_train.4.ark:5053648
mwad0_sx342 quick_test/fbank/raw_fbank_train.4.ark:10647799
mrwa0_si2233 quick_test/fbank/raw_fbank_train.4.ark:4950903
flac0_sx91 quick_test/fbank/raw_fbank_train.1.ark:7197662
mmpm0_si2321 quick_test/fbank/raw_fbank_train.3.ark:9735010
mclk0_sx220 quick_test/fbank/raw_fbank_train.2.ark:5288924
mree0_si1734 quick_test/fbank/raw_fbank_train.4.ark:1662660
mesj0_si2039 quick_test/fbank/raw_fbank_train.2.ark:10223743
mlbc0_sx69 quick_test/fbank/raw_fbank_train.3.ark:7317547
fcmm0_si1083 quick_test/fbank/raw_fbank_train.1.ark:2107136
mtrr0_sx108 quick_test/fbank/raw_fbank_train.4.ark:9848491
fvfb0_si1510 quick_test/fbank/raw_fbank_train.2.ark:1748723
mmgc0_sx315 quick_test/fbank/raw_fbank_train.3.ark:9317142
mprk0_si467 quick_test/fbank/raw_fbank_train.4.ark:312341
mjrk0_sx160 quick_test/fbank/raw_fbank_train.3.ark:4857776
mkdt0_si814 quick_test/fbank/raw_fbank_train.3.ark:6264537
fskl0_sx449 quick_test/fbank/raw_fbank_train.2.ark:421698
mwsh0_si796 quick_test/fbank/raw_fbank_train.4.ark:11469006
mmsm0_sx386 quick_test/fbank/raw_fbank_train.3.ark:10010583
mdhs0_sx450 quick_test/fbank/raw_fbank_train.2.ark:7166542
mafm0_sx39 quick_test/fbank/raw_fbank_train.2.ark:2561849
mtkd0_si1187 quick_test/fbank/raw_fbank_train.4.ark:8491346
fmjf0_sx264 quick_test/fbank/raw_fbank_train.1.ark:8983017
fmkf0_sx186 quick_test/fbank/raw_fbank_train.1.ark:9286380
mrdm0_sx425 quick_test/fbank/raw_fbank_train.4.ark:1539615
mbsb0_sx183 quick_test/fbank/raw_fbank_train.2.ark:4149060
mcdr0_si1154 quick_test/fbank/raw_fbank_train.2.ark:4801810
fdfb0_si2010 quick_test/fbank/raw_fbank_train.1.ark:2630490
mrai0_sx72 quick_test/fbank/raw_fbank_train.4.ark:864389
mcdd0_sx73 quick_test/fbank/raw_fbank_train.2.ark:4790696
msmc0_si647 quick_test/fbank/raw_fbank_train.4.ark:6465955
mrmh0_sx121 quick_test/fbank/raw_fbank_train.4.ark:3929077
fajw0_sx3 quick_test/fbank/raw_fbank_train.1.ark:175282
mdac0_sx451 quick_test/fbank/raw_fbank_train.2.ark:6081789
fskl0_sx89 quick_test/fbank/raw_fbank_train.2.ark:434970
mafm0_sx219 quick_test/fbank/raw_fbank_train.2.ark:2537784
mtas0_sx305 quick_test/fbank/raw_fbank_train.4.ark:7325492
fmah1_si879 quick_test/fbank/raw_fbank_train.1.ark:8542453
mrcw0_sx381 quick_test/fbank/raw_fbank_train.4.ark:1355676
fdjh0_si2195 quick_test/fbank/raw_fbank_train.1.ark:2702882
fmjf0_si1884 quick_test/fbank/raw_fbank_train.1.ark:8939478
mhbs0_si945 quick_test/fbank/raw_fbank_train.3.ark:939381
mkxl0_si1815 quick_test/fbank/raw_fbank_train.3.ark:7147724
mrfl0_sx436 quick_test/fbank/raw_fbank_train.4.ark:2227351
mlsh0_si1417 quick_test/fbank/raw_fbank_train.3.ark:7760321
mstf0_sx46 quick_test/fbank/raw_fbank_train.4.ark:7024442
fkdw0_sx127 quick_test/fbank/raw_fbank_train.1.ark:6445155
mbcg0_sx417 quick_test/fbank/raw_fbank_train.2.ark:3436957
megj0_sx257 quick_test/fbank/raw_fbank_train.2.ark:9896538
mdef0_sx33 quick_test/fbank/raw_fbank_train.2.ark:6858107
fkfb0_si2238 quick_test/fbank/raw_fbank_train.1.ark:6510554
medr0_si744 quick_test/fbank/raw_fbank_train.2.ark:9664184
fjkl0_sx32 quick_test/fbank/raw_fbank_train.1.ark:5230471
mtdb0_sx141 quick_test/fbank/raw_fbank_train.4.ark:7805471
fjsp0_sx444 quick_test/fbank/raw_fbank_train.1.ark:5850824
mrkm0_si1391 quick_test/fbank/raw_fbank_train.4.ark:3132210
mrds0_sx357 quick_test/fbank/raw_fbank_train.4.ark:1612607
mrlj1_si1671 quick_test/fbank/raw_fbank_train.4.ark:3414689
mjdc0_sx441 quick_test/fbank/raw_fbank_train.3.ark:2228077
fbmh0_si1766 quick_test/fbank/raw_fbank_train.1.ark:1066534
mrhl0_si885 quick_test/fbank/raw_fbank_train.4.ark:2502972
fdkn0_si1202 quick_test/fbank/raw_fbank_train.1.ark:2799427
fkfb0_si978 quick_test/fbank/raw_fbank_train.1.ark:6519627
mcpm0_si1824 quick_test/fbank/raw_fbank_train.2.ark:5432795
mprk0_sx107 quick_test/fbank/raw_fbank_train.4.ark:329494
ftmg0_si902 quick_test/fbank/raw_fbank_train.2.ark:1658211
mtpp0_si878 quick_test/fbank/raw_fbank_train.4.ark:9414159
fgcs0_sx46 quick_test/fbank/raw_fbank_train.1.ark:4259073
mdpk0_si1053 quick_test/fbank/raw_fbank_train.2.ark:8604360
mwgr0_sx346 quick_test/fbank/raw_fbank_train.4.ark:11121327
mjeb0_si1286 quick_test/fbank/raw_fbank_train.3.ark:2582618
fgdp0_si988 quick_test/fbank/raw_fbank_train.1.ark:4290734
mjfh0_si1737 quick_test/fbank/raw_fbank_train.3.ark:2894887
mrlr0_sx26 quick_test/fbank/raw_fbank_train.4.ark:3664665
mtjm0_sx326 quick_test/fbank/raw_fbank_train.4.ark:8247477
fsls0_sx246 quick_test/fbank/raw_fbank_train.2.ark:603996
mmwb0_si1619 quick_test/fbank/raw_fbank_train.3.ark:10141763
mrlj1_si2332 quick_test/fbank/raw_fbank_train.4.ark:3442757
mjdc0_sx351 quick_test/fbank/raw_fbank_train.3.ark:2215524
mtdb0_sx411 quick_test/fbank/raw_fbank_train.4.ark:7838290
flmk0_sx135 quick_test/fbank/raw_fbank_train.1.ark:8271249
mgar0_sx402 quick_test/fbank/raw_fbank_train.3.ark:76853
fbch0_si956 quick_test/fbank/raw_fbank_train.1.ark:747058
mclm0_sx16 quick_test/fbank/raw_fbank_train.2.ark:5382588
fdaw0_si1406 quick_test/fbank/raw_fbank_train.1.ark:2521750
mmgk0_sx422 quick_test/fbank/raw_fbank_train.3.ark:9503346
mpeb0_sx420 quick_test/fbank/raw_fbank_train.3.ark:10881974
mjbg0_sx242 quick_test/fbank/raw_fbank_train.3.ark:2011960
fmpg0_sx342 quick_test/fbank/raw_fbank_train.1.ark:9523332
mrso0_si1659 quick_test/fbank/raw_fbank_train.4.ark:4417737
fdnc0_si1278 quick_test/fbank/raw_fbank_train.1.ark:3122589
mtjs0_si1192 quick_test/fbank/raw_fbank_train.4.ark:8280896
fsgf0_si1557 quick_test/fbank/raw_fbank_train.1.ark:11605690
mcal0_sx328 quick_test/fbank/raw_fbank_train.2.ark:4574901
mwar0_si2305 quick_test/fbank/raw_fbank_train.4.ark:10708166
ftlg0_sx213 quick_test/fbank/raw_fbank_train.2.ark:1598852
fsah0_sx164 quick_test/fbank/raw_fbank_train.1.ark:11040199
fklc0_sx445 quick_test/fbank/raw_fbank_train.1.ark:6796409
mrew1_sx60 quick_test/fbank/raw_fbank_train.4.ark:2037012
fntb0_sx303 quick_test/fbank/raw_fbank_train.1.ark:9732861
fljd0_sx256 quick_test/fbank/raw_fbank_train.1.ark:7771277
mpgh0_sx204 quick_test/fbank/raw_fbank_train.3.ark:11064797
mgak0_si1666 quick_test/fbank/raw_fbank_train.2.ark:11161427
fjhk0_sx32 quick_test/fbank/raw_fbank_train.1.ark:5137126
fcrz0_si2053 quick_test/fbank/raw_fbank_train.1.ark:2217715
mjhi0_si698 quick_test/fbank/raw_fbank_train.3.ark:3100969
mstf0_si852 quick_test/fbank/raw_fbank_train.4.ark:6950078
fpmy0_si1153 quick_test/fbank/raw_fbank_train.1.ark:10487974
mtmt0_sx308 quick_test/fbank/raw_fbank_train.4.ark:9170143
mjpm0_sx198 quick_test/fbank/raw_fbank_train.3.ark:4293010
fksr0_sx161 quick_test/fbank/raw_fbank_train.1.ark:7052266
mjpm0_si1368 quick_test/fbank/raw_fbank_train.3.ark:4228245
mmds0_sx263 quick_test/fbank/raw_fbank_train.3.ark:9044275
mrsp0_sx79 quick_test/fbank/raw_fbank_train.4.ark:4609560
mljh0_si694 quick_test/fbank/raw_fbank_train.3.ark:7581698
mkah0_si2158 quick_test/fbank/raw_fbank_train.3.ark:5777533
mbsb0_sx363 quick_test/fbank/raw_fbank_train.2.ark:4169317
fblv0_sx338 quick_test/fbank/raw_fbank_train.1.ark:1009361
mdwd0_sx270 quick_test/fbank/raw_fbank_train.2.ark:9300709
mrjh0_sx79 quick_test/fbank/raw_fbank_train.4.ark:2792386
mejs0_sx160 quick_test/fbank/raw_fbank_train.2.ark:10067273
mdmt0_sx212 quick_test/fbank/raw_fbank_train.2.ark:8353098
mclk0_sx310 quick_test/fbank/raw_fbank_train.2.ark:5303037
mgaf0_si652 quick_test/fbank/raw_fbank_train.2.ark:10997211
mmws0_sx258 quick_test/fbank/raw_fbank_train.3.ark:10314880
mdss0_si621 quick_test/fbank/raw_fbank_train.2.ark:9014327
mkaj0_si1414 quick_test/fbank/raw_fbank_train.3.ark:5866404
mdlm0_sx334 quick_test/fbank/raw_fbank_train.2.ark:7955230
megj0_sx167 quick_test/fbank/raw_fbank_train.2.ark:9876945
fpab1_si2101 quick_test/fbank/raw_fbank_train.1.ark:9776474
mdlm0_sx424 quick_test/fbank/raw_fbank_train.2.ark:7962503
mdlh0_si574 quick_test/fbank/raw_fbank_train.2.ark:7806553
mdlc2_si1614 quick_test/fbank/raw_fbank_train.2.ark:7705615
mrbc0_sx59 quick_test/fbank/raw_fbank_train.4.ark:1146306
fjsp0_si804 quick_test/fbank/raw_fbank_train.1.ark:5801932
mgaf0_sx202 quick_test/fbank/raw_fbank_train.2.ark:11015837
fdaw0_sx56 quick_test/fbank/raw_fbank_train.1.ark:2595188
mtml0_si2325 quick_test/fbank/raw_fbank_train.4.ark:8921634
fpaf0_si1054 quick_test/fbank/raw_fbank_train.1.ark:10092195
fjrp1_sx352 quick_test/fbank/raw_fbank_train.1.ark:5626660
fjlr0_si1231 quick_test/fbank/raw_fbank_train.1.ark:5351804
mdcm0_si2110 quick_test/fbank/raw_fbank_train.2.ark:6510267
fjkl0_sx212 quick_test/fbank/raw_fbank_train.1.ark:5205766
mmxs0_sx426 quick_test/fbank/raw_fbank_train.3.ark:10517075
mdbb1_sx376 quick_test/fbank/raw_fbank_train.2.ark:6277629
mmaa0_si2105 quick_test/fbank/raw_fbank_train.3.ark:7883980
fdaw0_sx326 quick_test/fbank/raw_fbank_train.1.ark:2572723
fsbk0_sx79 quick_test/fbank/raw_fbank_train.1.ark:11293621
mkaj0_sx64 quick_test/fbank/raw_fbank_train.3.ark:5941555
mrgm0_sx442 quick_test/fbank/raw_fbank_train.4.ark:2338056
fdas1_si2091 quick_test/fbank/raw_fbank_train.1.ark:2418765
fljg0_si2241 quick_test/fbank/raw_fbank_train.1.ark:7829443
mjlg1_si2272 quick_test/fbank/raw_fbank_train.3.ark:3700961
mmeb0_sx187 quick_test/fbank/raw_fbank_train.3.ark:9201092
mdwd0_sx90 quick_test/fbank/raw_fbank_train.2.ark:9334087
mtpg0_sx213 quick_test/fbank/raw_fbank_train.4.ark:9348480
mkjo0_si887 quick_test/fbank/raw_fbank_train.3.ark:6487340
fsjs0_sx361 quick_test/fbank/raw_fbank_train.2.ark:110990
mbml0_sx449 quick_test/fbank/raw_fbank_train.2.ark:4003587
mdks0_sx76 quick_test/fbank/raw_fbank_train.2.ark:7368185
fmkc0_sx442 quick_test/fbank/raw_fbank_train.1.ark:9216414
mrjt0_sx58 quick_test/fbank/raw_fbank_train.4.ark:3097182
mdpk0_sx333 quick_test/fbank/raw_fbank_train.2.ark:8657166
ftbr0_sx381 quick_test/fbank/raw_fbank_train.2.ark:1427661
mefg0_sx375 quick_test/fbank/raw_fbank_train.2.ark:9815531
fmem0_si2007 quick_test/fbank/raw_fbank_train.1.ark:8733029
maeo0_si1956 quick_test/fbank/raw_fbank_train.2.ark:2430413
mkls0_sx177 quick_test/fbank/raw_fbank_train.3.ark:6784850
fklc0_si1615 quick_test/fbank/raw_fbank_train.1.ark:6715130
medr0_si2004 quick_test/fbank/raw_fbank_train.2.ark:9647431
fjlr0_si601 quick_test/fbank/raw_fbank_train.1.ark:5376511
msas0_sx26 quick_test/fbank/raw_fbank_train.4.ark:5384975
mvjh0_si2186 quick_test/fbank/raw_fbank_train.4.ark:10223766
mljc0_sx145 quick_test/fbank/raw_fbank_train.3.ark:7483506
fsjs0_si1171 quick_test/fbank/raw_fbank_train.2.ark:43184
mbef0_sx201 quick_test/fbank/raw_fbank_train.2.ark:3506116
msdh0_sx260 quick_test/fbank/raw_fbank_train.4.ark:5710525
mgag0_sx151 quick_test/fbank/raw_fbank_train.2.ark:11092268
fvkb0_sx259 quick_test/fbank/raw_fbank_train.2.ark:1868888
mjpm0_sx108 quick_test/fbank/raw_fbank_train.3.ark:4272785
mlsh0_sx427 quick_test/fbank/raw_fbank_train.3.ark:7840840
mjee0_sx157 quick_test/fbank/raw_fbank_train.3.ark:2819728
mrgm0_si1162 quick_test/fbank/raw_fbank_train.4.ark:2249817
mdem0_si1868 quick_test/fbank/raw_fbank_train.2.ark:6878254
fljd0_si2146 quick_test/fbank/raw_fbank_train.1.ark:7737098
mjxa0_si877 quick_test/fbank/raw_fbank_train.3.ark:5489852
mdem0_si800 quick_test/fbank/raw_fbank_train.2.ark:6907000
mgrp0_sx237 quick_test/fbank/raw_fbank_train.3.ark:538873
mljc0_si595 quick_test/fbank/raw_fbank_train.3.ark:7471993
mesj0_sx187 quick_test/fbank/raw_fbank_train.2.ark:10266763
mwch0_sx182 quick_test/fbank/raw_fbank_train.4.ark:10802985
mrml0_sx161 quick_test/fbank/raw_fbank_train.4.ark:4024062
mter0_sx77 quick_test/fbank/raw_fbank_train.4.ark:8073252
mkes0_sx443 quick_test/fbank/raw_fbank_train.3.ark:6443727
fjsk0_sx62 quick_test/fbank/raw_fbank_train.1.ark:5767711
fklc1_sx238 quick_test/fbank/raw_fbank_train.1.ark:6864609
mvlo0_si517 quick_test/fbank/raw_fbank_train.4.ark:10320984
mtbc0_sx363 quick_test/fbank/raw_fbank_train.4.ark:7639320
fjrp1_sx262 quick_test/fbank/raw_fbank_train.1.ark:5610187
mrlj0_sx160 quick_test/fbank/raw_fbank_train.4.ark:3362204
fgdp0_sx448 quick_test/fbank/raw_fbank_train.1.ark:4351786
msrg0_sx51 quick_test/fbank/raw_fbank_train.4.ark:6818954
fsls0_si1686 quick_test/fbank/raw_fbank_train.2.ark:551303
fsjw0_sx433 quick_test/fbank/raw_fbank_train.2.ark:229208
fbch0_sx416 quick_test/fbank/raw_fbank_train.1.ark:813303
mrbc0_sx239 quick_test/fbank/raw_fbank_train.4.ark:1106008
fetb0_sx68 quick_test/fbank/raw_fbank_train.1.ark:4048542
fbcg1_sx352 quick_test/fbank/raw_fbank_train.1.ark:688846
mgaw0_si1165 quick_test/fbank/raw_fbank_train.3.ark:99239
mprb0_sx305 quick_test/fbank/raw_fbank_train.4.ark:127430
mkaj0_si784 quick_test/fbank/raw_fbank_train.3.ark:5890551
fntb0_si573 quick_test/fbank/raw_fbank_train.1.ark:9679329
flag0_si1464 quick_test/fbank/raw_fbank_train.1.ark:7208176
mgaw0_sx445 quick_test/fbank/raw_fbank_train.3.ark:175598
mvrw0_si855 quick_test/fbank/raw_fbank_train.4.ark:10421329
mdps0_sx179 quick_test/fbank/raw_fbank_train.2.ark:8726125
fdmy0_sx207 quick_test/fbank/raw_fbank_train.1.ark:3068337
mrms0_sx390 quick_test/fbank/raw_fbank_train.4.ark:4183019
mmaa0_sx395 quick_test/fbank/raw_fbank_train.3.ark:7958737
mjbg0_sx422 quick_test/fbank/raw_fbank_train.3.ark:2040626
mjrk0_sx70 quick_test/fbank/raw_fbank_train.3.ark:4912907
mtlb0_sx234 quick_test/fbank/raw_fbank_train.4.ark:8750849
mbma0_sx412 quick_test/fbank/raw_fbank_train.2.ark:3806897
flod0_sx207 quick_test/fbank/raw_fbank_train.1.ark:8392020
fbch0_si1586 quick_test/fbank/raw_fbank_train.1.ark:731665
mcew0_sx452 quick_test/fbank/raw_fbank_train.2.ark:5101339
mwch0_si1622 quick_test/fbank/raw_fbank_train.4.ark:10772924
mrws0_sx112 quick_test/fbank/raw_fbank_train.4.ark:5072434
mdtb0_si1200 quick_test/fbank/raw_fbank_train.2.ark:9166710
fntb0_sx213 quick_test/fbank/raw_fbank_train.1.ark:9722388
fsms1_sx244 quick_test/fbank/raw_fbank_train.2.ark:899758
mrds0_sx267 quick_test/fbank/raw_fbank_train.4.ark:1600014
fkaa0_si578 quick_test/fbank/raw_fbank_train.1.ark:6199071
mclk0_sx400 quick_test/fbank/raw_fbank_train.2.ark:5324102
mrcg0_sx258 quick_test/fbank/raw_fbank_train.4.ark:1211433
mbbr0_si2315 quick_test/fbank/raw_fbank_train.2.ark:3301561
fetb0_sx248 quick_test/fbank/raw_fbank_train.1.ark:4010684
mjeb1_si1467 quick_test/fbank/raw_fbank_train.3.ark:2678883
ftbr0_si921 quick_test/fbank/raw_fbank_train.2.ark:1369097
mdwm0_sx376 quick_test/fbank/raw_fbank_train.2.ark:9534864
mfwk0_sx79 quick_test/fbank/raw_fbank_train.2.ark:10764178
mkln0_si1598 quick_test/fbank/raw_fbank_train.3.ark:6555058
mtpp0_si2138 quick_test/fbank/raw_fbank_train.4.ark:9405806
mkam0_sx146 quick_test/fbank/raw_fbank_train.3.ark:6000610
mrgs0_sx366 quick_test/fbank/raw_fbank_train.4.ark:2437248
mjsr0_sx164 quick_test/fbank/raw_fbank_train.3.ark:5063586
falr0_sx245 quick_test/fbank/raw_fbank_train.1.ark:358776
mjxl0_sx452 quick_test/fbank/raw_fbank_train.3.ark:5632049
flod0_si1287 quick_test/fbank/raw_fbank_train.1.ark:8329334
mtpf0_si1865 quick_test/fbank/raw_fbank_train.4.ark:9219836
mtpr0_sx70 quick_test/fbank/raw_fbank_train.4.ark:9585748
fdml0_sx159 quick_test/fbank/raw_fbank_train.1.ark:2932600
mtqc0_si2071 quick_test/fbank/raw_fbank_train.4.ark:9621696
mpfu0_sx448 quick_test/fbank/raw_fbank_train.3.ark:10983599
mjbg0_si1232 quick_test/fbank/raw_fbank_train.3.ark:1966906
mmcc0_sx78 quick_test/fbank/raw_fbank_train.3.ark:8598448
mrgm0_sx82 quick_test/fbank/raw_fbank_train.4.ark:2359168
mdsj0_sx292 quick_test/fbank/raw_fbank_train.2.ark:8955040
flmk0_sx45 quick_test/fbank/raw_fbank_train.1.ark:8318060
mlel0_sx346 quick_test/fbank/raw_fbank_train.3.ark:7402387
fclt0_sx88 quick_test/fbank/raw_fbank_train.1.ark:1986316
fjxp0_si492 quick_test/fbank/raw_fbank_train.1.ark:6111006
fapb0_sx433 quick_test/fbank/raw_fbank_train.1.ark:495268
mtcs0_si712 quick_test/fbank/raw_fbank_train.4.ark:7676613
mjwt0_si1381 quick_test/fbank/raw_fbank_train.3.ark:5372234
fdml0_si2075 quick_test/fbank/raw_fbank_train.1.ark:2925927
fksr0_sx217 quick_test/fbank/raw_fbank_train.1.ark:7068619
fhxs0_si1075 quick_test/fbank/raw_fbank_train.1.ark:4717169
fcke0_sx121 quick_test/fbank/raw_fbank_train.1.ark:1857040
mhit0_sx353 quick_test/fbank/raw_fbank_train.3.ark:1070425
mhbs0_sx135 quick_test/fbank/raw_fbank_train.3.ark:956614
mtwh1_sx252 quick_test/fbank/raw_fbank_train.4.ark:10045654
mreh1_si1599 quick_test/fbank/raw_fbank_train.4.ark:1743972
mgaf0_si1282 quick_test/fbank/raw_fbank_train.2.ark:10965064
mmar0_si1966 quick_test/fbank/raw_fbank_train.3.ark:8289281
msvs0_sx398 quick_test/fbank/raw_fbank_train.4.ark:7141107
mapv0_sx393 quick_test/fbank/raw_fbank_train.2.ark:2981584
mdjm0_sx15 quick_test/fbank/raw_fbank_train.2.ark:7240900
majp0_si1704 quick_test/fbank/raw_fbank_train.2.ark:2590510
mdlr0_sx243 quick_test/fbank/raw_fbank_train.2.ark:8032982
mclk0_sx130 quick_test/fbank/raw_fbank_train.2.ark:5278651
mmeb0_si1357 quick_test/fbank/raw_fbank_train.3.ark:9167672
mewm0_si1978 quick_test/fbank/raw_fbank_train.2.ark:10319960
fdxw0_si1511 quick_test/fbank/raw_fbank_train.1.ark:3343801
fear0_si622 quick_test/fbank/raw_fbank_train.1.ark:3551958
mdac0_si1837 quick_test/fbank/raw_fbank_train.2.ark:6015024
mtab0_sx312 quick_test/fbank/raw_fbank_train.4.ark:7233467
msdb0_sx107 quick_test/fbank/raw_fbank_train.4.ark:5622867
fhxs0_si2335 quick_test/fbank/raw_fbank_train.1.ark:4764717
mjai0_sx164 quick_test/fbank/raw_fbank_train.3.ark:1917181
mjwg0_sx85 quick_test/fbank/raw_fbank_train.3.ark:5235941
mbcg0_si486 quick_test/fbank/raw_fbank_train.2.ark:3376992
fsma0_sx271 quick_test/fbank/raw_fbank_train.2.ark:691908
mjae0_sx354 quick_test/fbank/raw_fbank_train.3.ark:1824223
fmbg0_sx80 quick_test/fbank/raw_fbank_train.1.ark:8708561
fpjf0_si1046 quick_test/fbank/raw_fbank_train.1.ark:10299125
mppc0_sx422 quick_test/fbank/raw_fbank_train.4.ark:24198
mjwg0_sx445 quick_test/fbank/raw_fbank_train.3.ark:5225829
mhjb0_sx207 quick_test/fbank/raw_fbank_train.3.ark:1152098
mdlh0_si700 quick_test/fbank/raw_fbank_train.2.ark:7814866
mchl0_si1347 quick_test/fbank/raw_fbank_train.2.ark:5131685
mtxs0_si1690 quick_test/fbank/raw_fbank_train.4.ark:10108340
mabc0_sx241 quick_test/fbank/raw_fbank_train.2.ark:2065258
mtab0_sx402 quick_test/fbank/raw_fbank_train.4.ark:7252540
mlbc0_si1869 quick_test/fbank/raw_fbank_train.3.ark:7249590
mbma1_sx324 quick_test/fbank/raw_fbank_train.2.ark:3891569
mpsw0_sx167 quick_test/fbank/raw_fbank_train.4.ark:513984
msfh0_si1738 quick_test/fbank/raw_fbank_train.4.ark:6113048
mmag0_sx406 quick_test/fbank/raw_fbank_train.3.ark:8162555
feeh0_sx212 quick_test/fbank/raw_fbank_train.1.ark:3803434
mljc0_sx415 quick_test/fbank/raw_fbank_train.3.ark:7518605
mvjh0_si1556 quick_test/fbank/raw_fbank_train.4.ark:10205492
mdns0_sx21 quick_test/fbank/raw_fbank_train.2.ark:8472075
fmah1_sx339 quick_test/fbank/raw_fbank_train.1.ark:8585032
mmws1_si2331 quick_test/fbank/raw_fbank_train.3.ark:10390120
fvkb0_sx169 quick_test/fbank/raw_fbank_train.2.ark:1857215
mkrg0_sx411 quick_test/fbank/raw_fbank_train.3.ark:7117264
mtpp0_si1508 quick_test/fbank/raw_fbank_train.4.ark:9388892
mjde0_sx220 quick_test/fbank/raw_fbank_train.3.ark:2313875
mtrt0_sx147 quick_test/fbank/raw_fbank_train.4.ark:9953556
fnkl0_si892 quick_test/fbank/raw_fbank_train.1.ark:9592858
fmkc0_sx82 quick_test/fbank/raw_fbank_train.1.ark:9229326
mcef0_si842 quick_test/fbank/raw_fbank_train.2.ark:4935662
fsms1_si2134 quick_test/fbank/raw_fbank_train.2.ark:863459
fkaa0_sx128 quick_test/fbank/raw_fbank_train.1.ark:6213664
mjeb0_sx386 quick_test/fbank/raw_fbank_train.3.ark:2669529
mtmn0_si582 quick_test/fbank/raw_fbank_train.4.ark:9031379
mklr0_sx69 quick_test/fbank/raw_fbank_train.3.ark:6726115
mrtc0_si828 quick_test/fbank/raw_fbank_train.4.ark:4654141
mgxp0_sx7 quick_test/fbank/raw_fbank_train.3.ark:893208
mvlo0_sx157 quick_test/fbank/raw_fbank_train.4.ark:10338897
mjsr0_sx434 quick_test/fbank/raw_fbank_train.3.ark:5102725
fpaf0_si1684 quick_test/fbank/raw_fbank_train.1.ark:10115189
mhbs0_sx45 quick_test/fbank/raw_fbank_train.3.ark:996385
mhrm0_sx328 quick_test/fbank/raw_fbank_train.3.ark:1430646
fpaz0_si1593 quick_test/fbank/raw_fbank_train.1.ark:10195221
fjsk0_si1682 quick_test/fbank/raw_fbank_train.1.ark:5695913
mdef0_si2193 quick_test/fbank/raw_fbank_train.2.ark:6818696
mdtb0_sx300 quick_test/fbank/raw_fbank_train.2.ark:9218756
mtat0_sx120 quick_test/fbank/raw_fbank_train.4.ark:7401811
mstf0_sx226 quick_test/fbank/raw_fbank_train.4.ark:6984424
mrai0_sx342 quick_test/fbank/raw_fbank_train.4.ark:832964
mtat0_si811 quick_test/fbank/raw_fbank_train.4.ark:7385138
fmpg0_sx72 quick_test/fbank/raw_fbank_train.1.ark:9561917
makr0_si1982 quick_test/fbank/raw_fbank_train.2.ark:2819042
fmkc0_sx262 quick_test/fbank/raw_fbank_train.1.ark:9188908
mkln0_sx158 quick_test/fbank/raw_fbank_train.3.ark:6593878
ftmg0_sx452 quick_test/fbank/raw_fbank_train.2.ark:1712543
mdlc1_sx85 quick_test/fbank/raw_fbank_train.2.ark:7696541
fsdj0_si1115 quick_test/fbank/raw_fbank_train.1.ark:11519145
mkxl0_sx375 quick_test/fbank/raw_fbank_train.3.ark:7221042
mcpm0_sx204 quick_test/fbank/raw_fbank_train.2.ark:5476454
mrjm0_si1095 quick_test/fbank/raw_fbank_train.4.ark:2807340
mdcd0_sx65 quick_test/fbank/raw_fbank_train.2.ark:6483959
mejs0_si1240 quick_test/fbank/raw_fbank_train.2.ark:10028493
mtrc0_sx273 quick_test/fbank/raw_fbank_train.4.ark:9785012
mbma1_sx54 quick_test/fbank/raw_fbank_train.2.ark:3921754
mrai0_sx162 quick_test/fbank/raw_fbank_train.4.ark:809738
mmdg0_si520 quick_test/fbank/raw_fbank_train.3.ark:8722894
mmws1_sx261 quick_test/fbank/raw_fbank_train.3.ark:10399313
mrjt0_sx418 quick_test/fbank/raw_fbank_train.4.ark:3083630
mhbs0_si2205 quick_test/fbank/raw_fbank_train.3.ark:927108
mjdg0_sx142 quick_test/fbank/raw_fbank_train.3.ark:2414628
fmem0_sx387 quick_test/fbank/raw_fbank_train.1.ark:8813507
fvmh0_sx206 quick_test/fbank/raw_fbank_train.2.ark:1981553
fecd0_si788 quick_test/fbank/raw_fbank_train.1.ark:3667063
mrmg0_sx90 quick_test/fbank/raw_fbank_train.4.ark:3876542
mjrp0_sx225 quick_test/fbank/raw_fbank_train.3.ark:4966354
fmkf0_sx366 quick_test/fbank/raw_fbank_train.1.ark:9306246
fecd0_si2048 quick_test/fbank/raw_fbank_train.1.ark:3656390
mtbc0_sx93 quick_test/fbank/raw_fbank_train.4.ark:7654032
mmws0_si559 quick_test/fbank/raw_fbank_train.3.ark:10283741
mdlm0_si1864 quick_test/fbank/raw_fbank_train.2.ark:7909338
mmag0_si1756 quick_test/fbank/raw_fbank_train.3.ark:8090110
mjpm1_sx311 quick_test/fbank/raw_fbank_train.3.ark:4383876
mwre0_si2317 quick_test/fbank/raw_fbank_train.4.ark:11181414
mrjm0_sx418 quick_test/fbank/raw_fbank_train.4.ark:2880660
mmdb0_sx177 quick_test/fbank/raw_fbank_train.3.ark:8646222
mdef0_si1123 quick_test/fbank/raw_fbank_train.2.ark:6787468
mjhi0_sx248 quick_test/fbank/raw_fbank_train.3.ark:3124155
mrlk0_sx123 quick_test/fbank/raw_fbank_train.4.ark:3549415
mdlr0_si1863 quick_test/fbank/raw_fbank_train.2.ark:7999443
mjfh0_si477 quick_test/fbank/raw_fbank_train.3.ark:2905800
marw0_si646 quick_test/fbank/raw_fbank_train.2.ark:3092630
mgaw0_sx265 quick_test/fbank/raw_fbank_train.3.ark:155652
mmdg0_si1780 quick_test/fbank/raw_fbank_train.3.ark:8694547
mbsb0_sx3 quick_test/fbank/raw_fbank_train.2.ark:4163884
mbsb0_si1983 quick_test/fbank/raw_fbank_train.2.ark:4127834
mrwa0_si973 quick_test/fbank/raw_fbank_train.4.ark:4965096
mpar0_sx46 quick_test/fbank/raw_fbank_train.3.ark:10811581
mrgs0_sx276 quick_test/fbank/raw_fbank_train.4.ark:2426135
mtmt0_sx218 quick_test/fbank/raw_fbank_train.4.ark:9158190
fdtd0_si2191 quick_test/fbank/raw_fbank_train.1.ark:3248609
mpfu0_si628 quick_test/fbank/raw_fbank_train.3.ark:10935707
feme0_sx245 quick_test/fbank/raw_fbank_train.1.ark:3909579
mfwk0_si619 quick_test/fbank/raw_fbank_train.2.ark:10699534
fpls0_sx240 quick_test/fbank/raw_fbank_train.1.ark:10443964
mcxm0_si1981 quick_test/fbank/raw_fbank_train.2.ark:5917839
mdcd0_sx245 quick_test/fbank/raw_fbank_train.2.ark:6447581
mmws0_sx348 quick_test/fbank/raw_fbank_train.3.ark:10327433
msmr0_si1150 quick_test/fbank/raw_fbank_train.4.ark:6539793
ftbr0_si2181 quick_test/fbank/raw_fbank_train.2.ark:1358984
mbjv0_sx77 quick_test/fbank/raw_fbank_train.2.ark:3726544
fceg0_sx168 quick_test/fbank/raw_fbank_train.1.ark:1590605
mljh0_si1422 quick_test/fbank/raw_fbank_train.3.ark:7554825
fdjh0_si935 quick_test/fbank/raw_fbank_train.1.ark:2715635
mrgm0_sx416 quick_test/fbank/raw_fbank_train.4.ark:2326423
mvrw0_sx225 quick_test/fbank/raw_fbank_train.4.ark:10445795
faem0_si2022 quick_test/fbank/raw_fbank_train.1.ark:19327
fkdw0_sx217 quick_test/fbank/raw_fbank_train.1.ark:6453348
fpaz0_si963 quick_test/fbank/raw_fbank_train.1.ark:10221808
mtrc0_sx363 quick_test/fbank/raw_fbank_train.4.ark:9792805
mjjb0_sx329 quick_test/fbank/raw_fbank_train.3.ark:3235534
fmju0_si1389 quick_test/fbank/raw_fbank_train.1.ark:9035709
mkdt0_si2153 quick_test/fbank/raw_fbank_train.3.ark:6254184
mrai0_si792 quick_test/fbank/raw_fbank_train.4.ark:789865
mtlc0_si1477 quick_test/fbank/raw_fbank_train.4.ark:8821975
fcdr1_si1816 quick_test/fbank/raw_fbank_train.1.ark:1456074
fbjl0_si1552 quick_test/fbank/raw_fbank_train.1.ark:841289
faem0_sx42 quick_test/fbank/raw_fbank_train.1.ark:91084
mrpc1_si2026 quick_test/fbank/raw_fbank_train.4.ark:4207207
mdsj0_sx112 quick_test/fbank/raw_fbank_train.2.ark:8934055
mefg0_sx15 quick_test/fbank/raw_fbank_train.2.ark:9783592
mdlc2_sx174 quick_test/fbank/raw_fbank_train.2.ark:7734275
mlns0_sx417 quick_test/fbank/raw_fbank_train.3.ark:7737015
mcal0_sx148 quick_test/fbank/raw_fbank_train.2.ark:4554035
fleh0_sx241 quick_test/fbank/raw_fbank_train.1.ark:7372095
fsag0_si693 quick_test/fbank/raw_fbank_train.1.ark:10899381
mcal0_sx418 quick_test/fbank/raw_fbank_train.2.ark:4589094
mrso0_sx39 quick_test/fbank/raw_fbank_train.4.ark:4490022
flkm0_sx116 quick_test/fbank/raw_fbank_train.1.ark:7975013
fspm0_sx161 quick_test/fbank/raw_fbank_train.2.ark:992630
mchl0_sx177 quick_test/fbank/raw_fbank_train.2.ark:5176586
mtpr0_si1600 quick_test/fbank/raw_fbank_train.4.ark:9481037
mprd0_si1431 quick_test/fbank/raw_fbank_train.4.ark:165489
mjfr0_sx165 quick_test/fbank/raw_fbank_train.3.ark:3000898
mbwp0_sx79 quick_test/fbank/raw_fbank_train.2.ark:4381878
mges0_si851 quick_test/fbank/raw_fbank_train.3.ark:205091
mtrc0_si993 quick_test/fbank/raw_fbank_train.4.ark:9751193
mdlc2_sx354 quick_test/fbank/raw_fbank_train.2.ark:7759621
mmea0_sx128 quick_test/fbank/raw_fbank_train.3.ark:9116667
marc0_si1188 quick_test/fbank/raw_fbank_train.2.ark:2992418
mmvp0_sx204 quick_test/fbank/raw_fbank_train.3.ark:10085950
mcew0_sx92 quick_test/fbank/raw_fbank_train.2.ark:5117851
fpac0_sx391 quick_test/fbank/raw_fbank_train.1.ark:9974256
fexm0_sx381 quick_test/fbank/raw_fbank_train.1.ark:4164928
mdwh0_sx305 quick_test/fbank/raw_fbank_train.2.ark:9419007
mrlj0_si790 quick_test/fbank/raw_fbank_train.4.ark:3345411
mkag0_sx30 quick_test/fbank/raw_fbank_train.3.ark:5730640
mcae0_sx277 quick_test/fbank/raw_fbank_train.2.ark:4466525
fmju0_sx129 quick_test/fbank/raw_fbank_train.1.ark:9076689
fcdr1_si1186 quick_test/fbank/raw_fbank_train.1.ark:1433240
mrmg0_sx360 quick_test/fbank/raw_fbank_train.4.ark:3848557
fdfb0_sx58 quick_test/fbank/raw_fbank_train.1.ark:2680014
fbas0_sx37 quick_test/fbank/raw_fbank_train.1.ark:609213
mmdm1_sx153 quick_test/fbank/raw_fbank_train.3.ark:8928537
fsdc0_si2234 quick_test/fbank/raw_fbank_train.1.ark:11455587
mdks0_sx436 quick_test/fbank/raw_fbank_train.2.ark:7359033
fgmb0_si1775 quick_test/fbank/raw_fbank_train.1.ark:4403806
mcth0_sx219 quick_test/fbank/raw_fbank_train.2.ark:5761408
fcjs0_si2237 quick_test/fbank/raw_fbank_train.1.ark:1729509
fdtd0_si1561 quick_test/fbank/raw_fbank_train.1.ark:3235615
mhmr0_si1692 quick_test/fbank/raw_fbank_train.3.ark:1285929
fsjk1_sx125 quick_test/fbank/raw_fbank_train.1.ark:11874760
mdcd0_sx155 quick_test/fbank/raw_fbank_train.2.ark:6435308
fnkl0_sx196 quick_test/fbank/raw_fbank_train.1.ark:9625124
fjrb0_si1302 quick_test/fbank/raw_fbank_train.1.ark:5451789
mdwh0_si1925 quick_test/fbank/raw_fbank_train.2.ark:9363155
mgsh0_si1176 quick_test/fbank/raw_fbank_train.3.ark:593125
fmkf0_sx6 quick_test/fbank/raw_fbank_train.1.ark:9321757
mbjv0_sx257 quick_test/fbank/raw_fbank_train.2.ark:3692806
mram0_sx15 quick_test/fbank/raw_fbank_train.4.ark:924196
ftaj0_sx69 quick_test/fbank/raw_fbank_train.2.ark:1330876
mcdc0_sx32 quick_test/fbank/raw_fbank_train.2.ark:4689798
flja0_si1708 quick_test/fbank/raw_fbank_train.1.ark:7633432
mjlg1_sx112 quick_test/fbank/raw_fbank_train.3.ark:3717274
mcpm0_si1194 quick_test/fbank/raw_fbank_train.2.ark:5421321
mtat1_si1409 quick_test/fbank/raw_fbank_train.4.ark:7451816
mjsr0_sx254 quick_test/fbank/raw_fbank_train.3.ark:5077779
mclm0_sx196 quick_test/fbank/raw_fbank_train.2.ark:5390581
mprt0_si1210 quick_test/fbank/raw_fbank_train.4.ark:396779
mgsl0_sx174 quick_test/fbank/raw_fbank_train.3.ark:740407
mmvp0_si654 quick_test/fbank/raw_fbank_train.3.ark:10046084
mrjh0_sx169 quick_test/fbank/raw_fbank_train.4.ark:2736135
mfwk0_sx349 quick_test/fbank/raw_fbank_train.2.ark:10733113
mpsw0_sx257 quick_test/fbank/raw_fbank_train.4.ark:533609
mjrg0_sx106 quick_test/fbank/raw_fbank_train.3.ark:4567020
mjdc0_sx261 quick_test/fbank/raw_fbank_train.3.ark:2208331
msds0_si1707 quick_test/fbank/raw_fbank_train.4.ark:5786291
mhrm0_sx418 quick_test/fbank/raw_fbank_train.3.ark:1443159
mdwm0_si2176 quick_test/fbank/raw_fbank_train.2.ark:9471900
mdjm0_si825 quick_test/fbank/raw_fbank_train.2.ark:7219115
mmjb1_sx148 quick_test/fbank/raw_fbank_train.3.ark:9561912
fspm0_sx71 quick_test/fbank/raw_fbank_train.2.ark:1049961
fear0_si1252 quick_test/fbank/raw_fbank_train.1.ark:3532851
fdtd0_sx121 quick_test/fbank/raw_fbank_train.1.ark:3273435
mjjm0_sx377 quick_test/fbank/raw_fbank_train.3.ark:3472729
mrtc0_sx18 quick_test/fbank/raw_fbank_train.4.ark:4678086
mkjo0_sx437 quick_test/fbank/raw_fbank_train.3.ark:6531232
maeb0_sx450 quick_test/fbank/raw_fbank_train.2.ark:2381439
mbar0_sx329 quick_test/fbank/raw_fbank_train.2.ark:3238874
feeh0_sx392 quick_test/fbank/raw_fbank_train.1.ark:3840572
fsma0_si991 quick_test/fbank/raw_fbank_train.2.ark:659122
mjls0_sx376 quick_test/fbank/raw_fbank_train.3.ark:3860150
mrcg0_si2058 quick_test/fbank/raw_fbank_train.4.ark:1174374
mgrp0_sx327 quick_test/fbank/raw_fbank_train.3.ark:547346
mrld0_sx64 quick_test/fbank/raw_fbank_train.4.ark:3315750
mjra0_si1236 quick_test/fbank/raw_fbank_train.3.ark:4430535
mdcm0_sx220 quick_test/fbank/raw_fbank_train.2.ark:6544366
mrdm0_sx155 quick_test/fbank/raw_fbank_train.4.ark:1497276
mbwp0_si709 quick_test/fbank/raw_fbank_train.2.ark:4310114
fapb0_sx73 quick_test/fbank/raw_fbank_train.1.ark:512820
mdns0_sx291 quick_test/fbank/raw_fbank_train.2.ark:8480508
fjwb1_sx345 quick_test/fbank/raw_fbank_train.1.ark:5935695
msem1_sx360 quick_test/fbank/raw_fbank_train.4.ark:5971649
mjfr0_si1605 quick_test/fbank/raw_fbank_train.3.ark:2963798
mefg0_si465 quick_test/fbank/raw_fbank_train.2.ark:9725021
fpab1_sx211 quick_test/fbank/raw_fbank_train.1.ark:9830373
mrpc1_sx402 quick_test/fbank/raw_fbank_train.4.ark:4259493
msms0_si803 quick_test/fbank/raw_fbank_train.4.ark:6665125
mbjv0_si1877 quick_test/fbank/raw_fbank_train.2.ark:3657267
fdxw0_sx71 quick_test/fbank/raw_fbank_train.1.ark:3421512
madc0_si1367 quick_test/fbank/raw_fbank_train.2.ark:2103670
mdwd0_si1890 quick_test/fbank/raw_fbank_train.2.ark:9268970
mhmg0_sx285 quick_test/fbank/raw_fbank_train.3.ark:1253188
mrms0_sx300 quick_test/fbank/raw_fbank_train.4.ark:4174346
fntb0_sx33 quick_test/fbank/raw_fbank_train.1.ark:9741733
mmdg0_si2035 quick_test/fbank/raw_fbank_train.3.ark:8714261
msds0_sx447 quick_test/fbank/raw_fbank_train.4.ark:5860057
mjmm0_sx85 quick_test/fbank/raw_fbank_train.3.ark:4134226
fkaa0_sx308 quick_test/fbank/raw_fbank_train.1.ark:6237810
mbgt0_si711 quick_test/fbank/raw_fbank_train.2.ark:3565715
fmju0_si759 quick_test/fbank/raw_fbank_train.1.ark:9063296
mtcs0_si2265 quick_test/fbank/raw_fbank_train.4.ark:7670060
mbef0_sx381 quick_test/fbank/raw_fbank_train.2.ark:3531414
msms0_sx443 quick_test/fbank/raw_fbank_train.4.ark:6714657
mrmg0_si2340 quick_test/fbank/raw_fbank_train.4.ark:3811218
mkln0_si2228 quick_test/fbank/raw_fbank_train.3.ark:6568972
mrab1_si848 quick_test/fbank/raw_fbank_train.4.ark:687480
mtdb0_sx321 quick_test/fbank/raw_fbank_train.4.ark:7824337
mcef0_si1135 quick_test/fbank/raw_fbank_train.2.ark:4912995
mdtb0_sx390 quick_test/fbank/raw_fbank_train.2.ark:9241062
mdma0_si1430 quick_test/fbank/raw_fbank_train.2.ark:8202533
fgcs0_sx136 quick_test/fbank/raw_fbank_train.1.ark:4208462
fkde0_sx421 quick_test/fbank/raw_fbank_train.1.ark:6367669
mjxa0_sx247 quick_test/fbank/raw_fbank_train.3.ark:5509318
flma0_sx253 quick_test/fbank/raw_fbank_train.1.ark:8090831
mmgk0_si1952 quick_test/fbank/raw_fbank_train.3.ark:9462261
mmgk0_si692 quick_test/fbank/raw_fbank_train.3.ark:9467534
mjxl0_sx182 quick_test/fbank/raw_fbank_train.3.ark:5595230
mgjc0_sx75 quick_test/fbank/raw_fbank_train.3.ark:375521
fdtd0_sx391 quick_test/fbank/raw_fbank_train.1.ark:3333167
mcdc0_si1292 quick_test/fbank/raw_fbank_train.2.ark:4620320
madc0_si1997 quick_test/fbank/raw_fbank_train.2.ark:2121984
flma0_sx163 quick_test/fbank/raw_fbank_train.1.ark:8081398
mkls1_si2175 quick_test/fbank/raw_fbank_train.3.ark:6858849
fvmh0_sx296 quick_test/fbank/raw_fbank_train.2.ark:2002378
mtat0_sx300 quick_test/fbank/raw_fbank_train.4.ark:7431149
fdjh0_si1565 quick_test/fbank/raw_fbank_train.1.ark:2692888
mkxl0_sx195 quick_test/fbank/raw_fbank_train.3.ark:7202856
mdks0_sx346 quick_test/fbank/raw_fbank_train.2.ark:7342280
fsmm0_sx414 quick_test/fbank/raw_fbank_train.2.ark:823439
mtkp0_sx33 quick_test/fbank/raw_fbank_train.4.ark:8683729
fcdr1_si556 quick_test/fbank/raw_fbank_train.1.ark:1475627
mbef0_sx291 quick_test/fbank/raw_fbank_train.2.ark:3522581
mdwh0_sx125 quick_test/fbank/raw_fbank_train.2.ark:9392061
mklr0_sx159 quick_test/fbank/raw_fbank_train.3.ark:6682224
mdss1_si697 quick_test/fbank/raw_fbank_train.2.ark:9097512
mrlr0_si1826 quick_test/fbank/raw_fbank_train.4.ark:3618054
mkjo0_si1517 quick_test/fbank/raw_fbank_train.3.ark:6465913
mdlm0_si1234 quick_test/fbank/raw_fbank_train.2.ark:7895504
fsdc0_sx322 quick_test/fbank/raw_fbank_train.1.ark:11486966
fkdw0_si577 quick_test/fbank/raw_fbank_train.1.ark:6433882
mbgt0_sx441 quick_test/fbank/raw_fbank_train.2.ark:3623087
msfv0_sx452 quick_test/fbank/raw_fbank_train.4.ark:6302878
mdlh0_sx340 quick_test/fbank/raw_fbank_train.2.ark:7861125
mlns0_sx147 quick_test/fbank/raw_fbank_train.3.ark:7704996
mrjb1_sx300 quick_test/fbank/raw_fbank_train.4.ark:2663449
mhit0_si2243 quick_test/fbank/raw_fbank_train.3.ark:1018333
msfh0_sx226 quick_test/fbank/raw_fbank_train.4.ark:6165867
mtjm0_si1226 quick_test/fbank/raw_fbank_train.4.ark:8182951
mses0_si1589 quick_test/fbank/raw_fbank_train.4.ark:6012468
mses0_sx59 quick_test/fbank/raw_fbank_train.4.ark:6092180
mrdd0_si1050 quick_test/fbank/raw_fbank_train.4.ark:1364790
fssb0_si1712 quick_test/fbank/raw_fbank_train.2.ark:1170054
mrds0_sx447 quick_test/fbank/raw_fbank_train.4.ark:1625840
mdlc1_sx445 quick_test/fbank/raw_fbank_train.2.ark:7687909
mrso0_sx309 quick_test/fbank/raw_fbank_train.4.ark:4474070
mcdd0_sx163 quick_test/fbank/raw_fbank_train.2.ark:4746205
mdrd0_sx212 quick_test/fbank/raw_fbank_train.2.ark:8843183
mrvg0_si1140 quick_test/fbank/raw_fbank_train.4.ark:4854044
mkjo0_sx257 quick_test/fbank/raw_fbank_train.3.ark:6511046
fbjl0_sx22 quick_test/fbank/raw_fbank_train.1.ark:901294
msrg0_sx321 quick_test/fbank/raw_fbank_train.4.ark:6793089
mreh1_si2229 quick_test/fbank/raw_fbank_train.4.ark:1764526
mgag0_sx421 quick_test/fbank/raw_fbank_train.2.ark:11122287
msdb0_sx17 quick_test/fbank/raw_fbank_train.4.ark:5631579
fjhk0_si1022 quick_test/fbank/raw_fbank_train.1.ark:5060887
mgaw0_si1802 quick_test/fbank/raw_fbank_train.3.ark:117273
mbjv0_sx347 quick_test/fbank/raw_fbank_train.2.ark:3699879
fljd0_si1516 quick_test/fbank/raw_fbank_train.1.ark:7716864
mjee0_sx247 quick_test/fbank/raw_fbank_train.3.ark:2829761
mmpm0_si1061 quick_test/fbank/raw_fbank_train.3.ark:9712502
fdaw0_si2036 quick_test/fbank/raw_fbank_train.1.ark:2532184
mdhs0_sx180 quick_test/fbank/raw_fbank_train.2.ark:7135763
ftlg0_si840 quick_test/fbank/raw_fbank_train.2.ark:1574466
fmpg0_sx162 quick_test/fbank/raw_fbank_train.1.ark:9493746
mrwa0_sx73 quick_test/fbank/raw_fbank_train.4.ark:5026220
mtju0_sx310 quick_test/fbank/raw_fbank_train.4.ark:8457487
mesg0_si1332 quick_test/fbank/raw_fbank_train.2.ark:10124878
mrai0_sx432 quick_test/fbank/raw_fbank_train.4.ark:846557
mcef0_sx145 quick_test/fbank/raw_fbank_train.2.ark:4952655
msfv0_si1262 quick_test/fbank/raw_fbank_train.4.ark:6221279
msdb0_sx197 quick_test/fbank/raw_fbank_train.4.ark:5637612
mrcg0_si1428 quick_test/fbank/raw_fbank_train.4.ark:1154820
mbth0_si2102 quick_test/fbank/raw_fbank_train.2.ark:4185983
frll0_sx164 quick_test/fbank/raw_fbank_train.1.ark:10824829
fcaj0_sx309 quick_test/fbank/raw_fbank_train.1.ark:1399221
fsak0_sx400 quick_test/fbank/raw_fbank_train.1.ark:11188355
makr0_si722 quick_test/fbank/raw_fbank_train.2.ark:2831235
mjrh0_sx45 quick_test/fbank/raw_fbank_train.3.ark:4716737
mjma0_si1495 quick_test/fbank/raw_fbank_train.3.ark:3872544
mlns0_si1407 quick_test/fbank/raw_fbank_train.3.ark:7670456
mdbp0_sx258 quick_test/fbank/raw_fbank_train.2.ark:6340876
mjrh1_si514 quick_test/fbank/raw_fbank_train.3.ark:4758558
madd0_si538 quick_test/fbank/raw_fbank_train.2.ark:2232322
fssb0_sx92 quick_test/fbank/raw_fbank_train.2.ark:1249132
fdnc0_sx378 quick_test/fbank/raw_fbank_train.1.ark:3221501
mjls0_si1726 quick_test/fbank/raw_fbank_train.3.ark:3783393
mcdd0_si2143 quick_test/fbank/raw_fbank_train.2.ark:4722179
fgrw0_sx432 quick_test/fbank/raw_fbank_train.1.ark:4586637
faem0_sx222 quick_test/fbank/raw_fbank_train.1.ark:51746
mtdp0_sx81 quick_test/fbank/raw_fbank_train.4.ark:7969268
fsak0_sx40 quick_test/fbank/raw_fbank_train.1.ark:11176562
fsjw0_si703 quick_test/fbank/raw_fbank_train.2.ark:183676
mdbp0_si1158 quick_test/fbank/raw_fbank_train.2.ark:6289383
fcdr1_sx106 quick_test/fbank/raw_fbank_train.1.ark:1496220
msat1_sx173 quick_test/fbank/raw_fbank_train.4.ark:5531121
mcew0_sx272 quick_test/fbank/raw_fbank_train.2.ark:5069713
mhmr0_sx309 quick_test/fbank/raw_fbank_train.3.ark:1345021
mrbc0_si599 quick_test/fbank/raw_fbank_train.4.ark:1079902
mmpm0_sx251 quick_test/fbank/raw_fbank_train.3.ark:9762236
mrdd0_sx330 quick_test/fbank/raw_fbank_train.4.ark:1432070
feeh0_si471 quick_test/fbank/raw_fbank_train.1.ark:3779728
fleh0_si1681 quick_test/fbank/raw_fbank_train.1.ark:7339235
mejl0_sx62 quick_test/fbank/raw_fbank_train.2.ark:10017379
frll0_sx74 quick_test/fbank/raw_fbank_train.1.ark:10867520
fjrb0_si1932 quick_test/fbank/raw_fbank_train.1.ark:5467023
mpsw0_si1067 quick_test/fbank/raw_fbank_train.4.ark:485643
mclk0_si650 quick_test/fbank/raw_fbank_train.2.ark:5255498
mhjb0_sx297 quick_test/fbank/raw_fbank_train.3.ark:1167003
mesg0_sx162 quick_test/fbank/raw_fbank_train.2.ark:10162978
mtmt0_si1748 quick_test/fbank/raw_fbank_train.4.ark:9119451
mklw0_sx311 quick_test/fbank/raw_fbank_train.3.ark:6998967
mabc0_si2041 quick_test/fbank/raw_fbank_train.2.ark:2026039
msdb0_sx377 quick_test/fbank/raw_fbank_train.4.ark:5653638
mrbc0_sx419 quick_test/fbank/raw_fbank_train.4.ark:1133474
marw0_sx376 quick_test/fbank/raw_fbank_train.2.ark:3163994
fbas0_si1387 quick_test/fbank/raw_fbank_train.1.ark:527214
frjb0_si1794 quick_test/fbank/raw_fbank_train.1.ark:10707612
mdcd0_sx425 quick_test/fbank/raw_fbank_train.2.ark:6475527
mcpm0_sx294 quick_test/fbank/raw_fbank_train.2.ark:5495359
fcmg0_sx162 quick_test/fbank/raw_fbank_train.1.ark:2042571
mfmc0_sx52 quick_test/fbank/raw_fbank_train.2.ark:10571367
milb0_sx183 quick_test/fbank/raw_fbank_train.3.ark:1617028
mmdb0_si1358 quick_test/fbank/raw_fbank_train.3.ark:8607522
mdpb0_sx236 quick_test/fbank/raw_fbank_train.2.ark:8560908
mrms0_si2057 quick_test/fbank/raw_fbank_train.4.ark:4119261
msat1_sx263 quick_test/fbank/raw_fbank_train.4.ark:5546754
fskc0_sx426 quick_test/fbank/raw_fbank_train.2.ark:324273
fsdj0_sx125 quick_test/fbank/raw_fbank_train.1.ark:11556085
mmdm0_si1941 quick_test/fbank/raw_fbank_train.3.ark:8823126
freh0_sx55 quick_test/fbank/raw_fbank_train.1.ark:10678870
mter0_si1787 quick_test/fbank/raw_fbank_train.4.ark:7999496
fbjl0_sx382 quick_test/fbank/raw_fbank_train.1.ark:928160
mhmg0_si735 quick_test/fbank/raw_fbank_train.3.ark:1207017
fsgf0_sx27 quick_test/fbank/raw_fbank_train.1.ark:11675055
mjdm0_sx170 quick_test/fbank/raw_fbank_train.3.ark:2506973
mlel0_sx256 quick_test/fbank/raw_fbank_train.3.ark:7388154
mmbs0_sx431 quick_test/fbank/raw_fbank_train.3.ark:8482791
msjk0_si966 quick_test/fbank/raw_fbank_train.4.ark:6361251
mkdd0_sx307 quick_test/fbank/raw_fbank_train.3.ark:6223285
mmgc0_sx405 quick_test/fbank/raw_fbank_train.3.ark:9329015
mrav0_sx198 quick_test/fbank/raw_fbank_train.4.ark:1026695
mdss1_sx427 quick_test/fbank/raw_fbank_train.2.ark:9145604
mtxs0_sx250 quick_test/fbank/raw_fbank_train.4.ark:10151000
mded0_si540 quick_test/fbank/raw_fbank_train.2.ark:6707190
mpar0_si1576 quick_test/fbank/raw_fbank_train.3.ark:10734870
mwar0_sx235 quick_test/fbank/raw_fbank_train.4.ark:10728952
mjai0_si710 quick_test/fbank/raw_fbank_train.3.ark:1898868
mjrk0_sx250 quick_test/fbank/raw_fbank_train.3.ark:4873089
mjra0_si1866 quick_test/fbank/raw_fbank_train.3.ark:4442129
mdlm0_sx244 quick_test/fbank/raw_fbank_train.2.ark:7945037
mtpr0_sx160 quick_test/fbank/raw_fbank_train.4.ark:9522537
mcpm0_sx384 quick_test/fbank/raw_fbank_train.2.ark:5504192
flhd0_si1974 quick_test/fbank/raw_fbank_train.1.ark:7534840
mddc0_si789 quick_test/fbank/raw_fbank_train.2.ark:6614285
mpfu0_sx268 quick_test/fbank/raw_fbank_train.3.ark:10959973
mpeb0_sx330 quick_test/fbank/raw_fbank_train.3.ark:10869741
fgdp0_sx358 quick_test/fbank/raw_fbank_train.1.ark:4338593
fksr0_sx397 quick_test/fbank/raw_fbank_train.1.ark:7104477
mjda0_sx221 quick_test/fbank/raw_fbank_train.3.ark:2103746
mkdd0_sx37 quick_test/fbank/raw_fbank_train.3.ark:6230477
mwrp0_sx183 quick_test/fbank/raw_fbank_train.4.ark:11299673
mmwb0_sx179 quick_test/fbank/raw_fbank_train.3.ark:10192103
ftbw0_sx175 quick_test/fbank/raw_fbank_train.2.ark:1476675
mtxs0_si1060 quick_test/fbank/raw_fbank_train.4.ark:10089186
mwem0_sx330 quick_test/fbank/raw_fbank_train.4.ark:11012182
mejs0_si610 quick_test/fbank/raw_fbank_train.2.ark:10055400
msrg0_sx231 quick_test/fbank/raw_fbank_train.4.ark:6786896
mcdr0_sx164 quick_test/fbank/raw_fbank_train.2.ark:4857110
fdas1_si1461 quick_test/fbank/raw_fbank_train.1.ark:2398811
msat0_si1526 quick_test/fbank/raw_fbank_train.4.ark:5419035
mclm0_sx286 quick_test/fbank/raw_fbank_train.2.ark:5397814
mrld0_si1594 quick_test/fbank/raw_fbank_train.4.ark:3239599
mrlj1_sx321 quick_test/fbank/raw_fbank_train.4.ark:3466536
fmbg0_sx3 quick_test/fbank/raw_fbank_train.1.ark:8670583
mdbb1_si2056 quick_test/fbank/raw_fbank_train.2.ark:6220745
mjde0_sx310 quick_test/fbank/raw_fbank_train.3.ark:2332388
mddc0_sx429 quick_test/fbank/raw_fbank_train.2.ark:6659777
mgsh0_sx6 quick_test/fbank/raw_fbank_train.3.ark:673882
mjwt0_sx391 quick_test/fbank/raw_fbank_train.3.ark:5453591
mcdd0_sx433 quick_test/fbank/raw_fbank_train.2.ark:4778224
mprt0_sx400 quick_test/fbank/raw_fbank_train.4.ark:475729
mrpc1_sx132 quick_test/fbank/raw_fbank_train.4.ark:4223194
msdh0_si2113 quick_test/fbank/raw_fbank_train.4.ark:5663032
mdss1_sx337 quick_test/fbank/raw_fbank_train.2.ark:9135251
mkes0_si1253 quick_test/fbank/raw_fbank_train.3.ark:6357848
mjbg0_sx332 quick_test/fbank/raw_fbank_train.3.ark:2025233
mmdm0_sx321 quick_test/fbank/raw_fbank_train.3.ark:8860778
mppc0_sx152 quick_test/fbank/raw_fbank_train.3.ark:11494145
msah1_sx419 quick_test/fbank/raw_fbank_train.4.ark:5287464
mjrg0_si1996 quick_test/fbank/raw_fbank_train.3.ark:4542394
