mjdg0_sx232 quick_test/mfcc/raw_mfcc_train.3.ark:793313
madd0_si538 quick_test/mfcc/raw_mfcc_train.2.ark:729583
flja0_sx358 quick_test/mfcc/raw_mfcc_train.1.ark:2508954
mjdg0_sx142 quick_test/mfcc/raw_mfcc_train.3.ark:789120
msds0_sx357 quick_test/mfcc/raw_mfcc_train.4.ark:1908848
mgjc0_si1965 quick_test/mfcc/raw_mfcc_train.3.ark:98663
fsms1_si1504 quick_test/mfcc/raw_mfcc_train.2.ark:278320
fpls0_sx150 quick_test/mfcc/raw_mfcc_train.1.ark:3409660
fcjf0_sx217 quick_test/mfcc/raw_mfcc_train.1.ark:552047
mmpm0_sx431 quick_test/mfcc/raw_mfcc_train.3.ark:3199326
fsrh0_sx401 quick_test/mfcc/raw_mfcc_train.2.ark:368827
mmws1_si1701 quick_test/mfcc/raw_mfcc_train.3.ark:3392162
mmeb0_si1987 quick_test/mfcc/raw_mfcc_train.3.ark:3001127
flkm0_sx80 quick_test/mfcc/raw_mfcc_train.1.ark:2625604
mtrr0_si1548 quick_test/mfcc/raw_mfcc_train.4.ark:3205807
mmdm1_si2043 quick_test/mfcc/raw_mfcc_train.3.ark:2911295
fljg0_si1611 quick_test/mfcc/raw_mfcc_train.1.ark:2553648
mdem0_sx68 quick_test/mfcc/raw_mfcc_train.2.ark:2283342
mjmd0_sx218 quick_test/mfcc/raw_mfcc_train.3.ark:1309508
flja0_sx268 quick_test/mfcc/raw_mfcc_train.1.ark:2503942
msdh0_sx260 quick_test/mfcc/raw_mfcc_train.4.ark:1866130
msms0_sx263 quick_test/mfcc/raw_mfcc_train.4.ark:2187081
mdsj0_sx382 quick_test/mfcc/raw_mfcc_train.2.ark:2931344
mjpm0_si738 quick_test/mfcc/raw_mfcc_train.3.ark:1392683
msdh0_sx350 quick_test/mfcc/raw_mfcc_train.4.ark:1870128
mjde0_sx400 quick_test/mfcc/raw_mfcc_train.3.ark:772293
fltm0_si1700 quick_test/mfcc/raw_mfcc_train.1.ark:2753913
mjjj0_sx83 quick_test/mfcc/raw_mfcc_train.3.ark:1102674
fsdj0_sx35 quick_test/mfcc/raw_mfcc_train.1.ark:3785629
mmcc0_sx258 quick_test/mfcc/raw_mfcc_train.3.ark:2796415
fdnc0_sx18 quick_test/mfcc/raw_mfcc_train.1.ark:1039873
fmbg0_sx260 quick_test/mfcc/raw_mfcc_train.1.ark:2828962
mmag0_sx406 quick_test/mfcc/raw_mfcc_train.3.ark:2667461
msmc0_sx17 quick_test/mfcc/raw_mfcc_train.4.ark:2122213
fpac0_si1921 quick_test/mfcc/raw_mfcc_train.1.ark:3227300
mjlg1_sx202 quick_test/mfcc/raw_mfcc_train.3.ark:1218609
mmeb0_si727 quick_test/mfcc/raw_mfcc_train.3.ark:3003981
mbgt0_sx81 quick_test/mfcc/raw_mfcc_train.2.ark:1187810
mrmh0_sx31 quick_test/mfcc/raw_mfcc_train.4.ark:1294828
fjkl0_sx32 quick_test/mfcc/raw_mfcc_train.1.ark:1708996
fceg0_sx78 quick_test/mfcc/raw_mfcc_train.1.ark:534512
fjlg0_sx89 quick_test/mfcc/raw_mfcc_train.1.ark:1744889
mtas0_sx215 quick_test/mfcc/raw_mfcc_train.4.ark:2390026
mdps0_si1651 quick_test/mfcc/raw_mfcc_train.2.ark:2841371
mpgr1_sx59 quick_test/mfcc/raw_mfcc_train.3.ark:3686033
mrbc0_si1859 quick_test/mfcc/raw_mfcc_train.4.ark:349318
mcth0_sx399 quick_test/mfcc/raw_mfcc_train.2.ark:1895416
mclk0_sx400 quick_test/mfcc/raw_mfcc_train.2.ark:1740068
mrgs0_sx276 quick_test/mfcc/raw_mfcc_train.4.ark:792797
mtcs0_sx262 quick_test/mfcc/raw_mfcc_train.4.ark:2519357
mcal0_sx148 quick_test/mfcc/raw_mfcc_train.2.ark:1488455
fbcg1_si1612 quick_test/mfcc/raw_mfcc_train.1.ark:207117
fsbk0_sx349 quick_test/mfcc/raw_mfcc_train.1.ark:3678436
mcth0_si579 quick_test/mfcc/raw_mfcc_train.2.ark:1874608
mafm0_si2199 quick_test/mfcc/raw_mfcc_train.2.ark:818915
mjrh1_sx424 quick_test/mfcc/raw_mfcc_train.3.ark:1570226
feac0_si615 quick_test/mfcc/raw_mfcc_train.1.ark:1128380
fsjg0_sx40 quick_test/mfcc/raw_mfcc_train.1.ark:3857113
fmkf0_sx366 quick_test/mfcc/raw_mfcc_train.1.ark:3040761
maeb0_sx450 quick_test/mfcc/raw_mfcc_train.2.ark:778314
faem0_sx42 quick_test/mfcc/raw_mfcc_train.1.ark:29767
mrwa0_sx343 quick_test/mfcc/raw_mfcc_train.4.ark:1632835
mrdm0_sx245 quick_test/mfcc/raw_mfcc_train.4.ark:493738
mrjm0_sx418 quick_test/mfcc/raw_mfcc_train.4.ark:941277
majp0_si1704 quick_test/mfcc/raw_mfcc_train.2.ark:846688
mcef0_sx235 quick_test/mfcc/raw_mfcc_train.2.ark:1622161
mdpb0_si866 quick_test/mfcc/raw_mfcc_train.2.ark:2788271
flja0_si1708 quick_test/mfcc/raw_mfcc_train.1.ark:2494144
mgak0_si2296 quick_test/mfcc/raw_mfcc_train.2.ark:3651883
mrso0_si1206 quick_test/mfcc/raw_mfcc_train.4.ark:1436265
feeh0_sx32 quick_test/mfcc/raw_mfcc_train.1.ark:1251129
mkln0_si2228 quick_test/mfcc/raw_mfcc_train.3.ark:2146750
fcjf0_si1027 quick_test/mfcc/raw_mfcc_train.1.ark:537185
mdlc1_sx445 quick_test/mfcc/raw_mfcc_train.2.ark:2512576
mtdb0_sx321 quick_test/mfcc/raw_mfcc_train.4.ark:2556718
mdlc0_sx135 quick_test/mfcc/raw_mfcc_train.2.ark:2467543
mprk0_sx197 quick_test/mfcc/raw_mfcc_train.4.ark:116032
fsma0_si991 quick_test/mfcc/raw_mfcc_train.2.ark:215431
fpab1_si1471 quick_test/mfcc/raw_mfcc_train.1.ark:3189894
mtas0_si755 quick_test/mfcc/raw_mfcc_train.4.ark:2384318
mpar0_sx226 quick_test/mfcc/raw_mfcc_train.3.ark:3522851
mwre0_sx67 quick_test/mfcc/raw_mfcc_train.4.ark:3672307
mtxs0_sx340 quick_test/mfcc/raw_mfcc_train.4.ark:3321377
fpjf0_sx352 quick_test/mfcc/raw_mfcc_train.1.ark:3387342
mjeb1_sx207 quick_test/mfcc/raw_mfcc_train.3.ark:896405
mrai0_sx72 quick_test/mfcc/raw_mfcc_train.4.ark:282431
madc0_sx197 quick_test/mfcc/raw_mfcc_train.2.ark:710605
mkls1_si2175 quick_test/mfcc/raw_mfcc_train.3.ark:2241498
fdxw0_si2141 quick_test/mfcc/raw_mfcc_train.1.ark:1095413
mdcd0_sx155 quick_test/mfcc/raw_mfcc_train.2.ark:2103266
fcmg0_si1242 quick_test/mfcc/raw_mfcc_train.1.ark:660219
falk0_sx366 quick_test/mfcc/raw_mfcc_train.1.ark:89353
fmkf0_si1536 quick_test/mfcc/raw_mfcc_train.1.ark:3025367
feeh0_si471 quick_test/mfcc/raw_mfcc_train.1.ark:1235086
mjlg1_sx112 quick_test/mfcc/raw_mfcc_train.3.ark:1214806
mdks0_si1696 quick_test/mfcc/raw_mfcc_train.2.ark:2382797
mbef0_sx111 quick_test/mfcc/raw_mfcc_train.2.ark:1143084
mdtb0_sx390 quick_test/mfcc/raw_mfcc_train.2.ark:3020235
flac0_sx361 quick_test/mfcc/raw_mfcc_train.1.ark:2343579
fkfb0_sx438 quick_test/mfcc/raw_mfcc_train.1.ark:2147619
madd0_si1295 quick_test/mfcc/raw_mfcc_train.2.ark:722366
mtpr0_si1600 quick_test/mfcc/raw_mfcc_train.4.ark:3098075
majp0_sx264 quick_test/mfcc/raw_mfcc_train.2.ark:862453
fkfb0_si978 quick_test/mfcc/raw_mfcc_train.1.ark:2130210
mdlr1_si669 quick_test/mfcc/raw_mfcc_train.2.ark:2651399
mgaw0_sx445 quick_test/mfcc/raw_mfcc_train.3.ark:57392
fhxs0_sx265 quick_test/mfcc/raw_mfcc_train.1.ark:1566597
mtas0_sx305 quick_test/mfcc/raw_mfcc_train.4.ark:2393699
mlel0_sx76 quick_test/mfcc/raw_mfcc_train.3.ark:2427530
mprk0_sx377 quick_test/mfcc/raw_mfcc_train.4.ark:125003
ftmg0_sx92 quick_test/mfcc/raw_mfcc_train.2.ark:564096
mtlb0_sx144 quick_test/mfcc/raw_mfcc_train.4.ark:2855905
mrcg0_sx438 quick_test/mfcc/raw_mfcc_train.4.ark:406064
fskl0_sx269 quick_test/mfcc/raw_mfcc_train.2.ark:130552
mkln0_si1598 quick_test/mfcc/raw_mfcc_train.3.ark:2142205
mrfl0_si1156 quick_test/mfcc/raw_mfcc_train.4.ark:698872
fmkf0_sx96 quick_test/mfcc/raw_mfcc_train.1.ark:3049092
mdhl0_si809 quick_test/mfcc/raw_mfcc_train.2.ark:2295520
mtmn0_sx344 quick_test/mfcc/raw_mfcc_train.4.ark:2965824
mbth0_si757 quick_test/mfcc/raw_mfcc_train.2.ark:1378949
mjde0_sx130 quick_test/mfcc/raw_mfcc_train.3.ark:751804
mcew0_sx272 quick_test/mfcc/raw_mfcc_train.2.ark:1656967
mchl0_sx87 quick_test/mfcc/raw_mfcc_train.2.ark:1706692
fjxp0_sx312 quick_test/mfcc/raw_mfcc_train.1.ark:2005787
fpab1_sx211 quick_test/mfcc/raw_mfcc_train.1.ark:3211971
mwac0_si2231 quick_test/mfcc/raw_mfcc_train.4.ark:3430907
mjdc0_sx441 quick_test/mfcc/raw_mfcc_train.3.ark:728200
mtpr0_si2230 quick_test/mfcc/raw_mfcc_train.4.ark:3102425
mrso0_si1659 quick_test/mfcc/raw_mfcc_train.4.ark:1443579
mcre0_sx401 quick_test/mfcc/raw_mfcc_train.2.ark:1824720
mhxl0_si512 quick_test/mfcc/raw_mfcc_train.3.ark:485057
mbml0_si1799 quick_test/mfcc/raw_mfcc_train.2.ark:1289735
fsbk0_si2329 quick_test/mfcc/raw_mfcc_train.1.ark:3666767
mbom0_sx204 quick_test/mfcc/raw_mfcc_train.2.ark:1330322
fdaw0_sx146 quick_test/mfcc/raw_mfcc_train.1.ark:833823
fcjs0_si2237 quick_test/mfcc/raw_mfcc_train.1.ark:565161
fapb0_si2323 quick_test/mfcc/raw_mfcc_train.1.ark:141081
mtrr0_si2178 quick_test/mfcc/raw_mfcc_train.4.ark:3208987
fbas0_sx217 quick_test/mfcc/raw_mfcc_train.1.ark:193725
fjen0_si1047 quick_test/mfcc/raw_mfcc_train.1.ark:1616135
mgrp0_si1947 quick_test/mfcc/raw_mfcc_train.3.ark:163562
mkdb0_sx242 quick_test/mfcc/raw_mfcc_train.3.ark:1994569
fssb0_sx362 quick_test/mfcc/raw_mfcc_train.2.ark:397270
fljd0_sx436 quick_test/mfcc/raw_mfcc_train.1.ark:2547147
mwsb0_si2256 quick_test/mfcc/raw_mfcc_train.4.ark:3713654
fvkb0_sx259 quick_test/mfcc/raw_mfcc_train.2.ark:610796
mbwp0_si709 quick_test/mfcc/raw_mfcc_train.2.ark:1408802
mkdt0_sx173 quick_test/mfcc/raw_mfcc_train.3.ark:2057101
mkjo0_sx167 quick_test/mfcc/raw_mfcc_train.3.ark:2123619
mdjm0_si2085 quick_test/mfcc/raw_mfcc_train.2.ark:2355206
mwre0_si2317 quick_test/mfcc/raw_mfcc_train.4.ark:3653787
mbbr0_si1055 quick_test/mfcc/raw_mfcc_train.2.ark:1069719
mwad0_si1062 quick_test/mfcc/raw_mfcc_train.4.ark:3464288
fbcg1_sx172 quick_test/mfcc/raw_mfcc_train.1.ark:217292
mgar0_sx402 quick_test/mfcc/raw_mfcc_train.3.ark:25121
fsah0_si1244 quick_test/mfcc/raw_mfcc_train.1.ark:3592901
mcae0_si817 quick_test/mfcc/raw_mfcc_train.2.ark:1451278
mpsw0_si1697 quick_test/mfcc/raw_mfcc_train.4.ark:161813
msat1_sx353 quick_test/mfcc/raw_mfcc_train.4.ark:1815829
mlel0_si1876 quick_test/mfcc/raw_mfcc_train.3.ark:2399461
fmju0_si759 quick_test/mfcc/raw_mfcc_train.1.ark:2961377
fpaf0_si1054 quick_test/mfcc/raw_mfcc_train.1.ark:3297510
mdps0_si1979 quick_test/mfcc/raw_mfcc_train.2.ark:2843823
mtmt0_sx308 quick_test/mfcc/raw_mfcc_train.4.ark:2996431
mdas0_sx96 quick_test/mfcc/raw_mfcc_train.2.ark:2022014
mbom0_si1644 quick_test/mfcc/raw_mfcc_train.2.ark:1321109
mrds0_sx177 quick_test/mfcc/raw_mfcc_train.4.ark:520165
fmpg0_sx162 quick_test/mfcc/raw_mfcc_train.1.ark:3102009
mdcm0_si1480 quick_test/mfcc/raw_mfcc_train.2.ark:2121956
fsmm0_sx324 quick_test/mfcc/raw_mfcc_train.2.ark:263297
mrws0_sx22 quick_test/mfcc/raw_mfcc_train.4.ark:1662986
fhlm0_sx349 quick_test/mfcc/raw_mfcc_train.1.ark:1531023
mgak0_si1666 quick_test/mfcc/raw_mfcc_train.2.ark:3647975
mrjb1_si1020 quick_test/mfcc/raw_mfcc_train.4.ark:840668
mdhl0_sx269 quick_test/mfcc/raw_mfcc_train.2.ark:2303724
mvjh0_sx206 quick_test/mfcc/raw_mfcc_train.4.ark:3352237
msat1_sx173 quick_test/mfcc/raw_mfcc_train.4.ark:1807443
mmdb0_sx177 quick_test/mfcc/raw_mfcc_train.3.ark:2825481
fjrp1_sx352 quick_test/mfcc/raw_mfcc_train.1.ark:1838452
mjeb0_si1286 quick_test/mfcc/raw_mfcc_train.3.ark:844007
makr0_si1352 quick_test/mfcc/raw_mfcc_train.2.ark:918400
mses0_sx149 quick_test/mfcc/raw_mfcc_train.4.ark:1975977
mrfk0_sx446 quick_test/mfcc/raw_mfcc_train.4.ark:692449
flod0_si1287 quick_test/mfcc/raw_mfcc_train.1.ark:2721542
mdma0_si1238 quick_test/mfcc/raw_mfcc_train.2.ark:2677896
fkde0_sx61 quick_test/mfcc/raw_mfcc_train.1.ark:2084370
mkes0_sx443 quick_test/mfcc/raw_mfcc_train.3.ark:2105799
mwrp0_sx363 quick_test/mfcc/raw_mfcc_train.4.ark:3702465
fclt0_sx358 quick_test/mfcc/raw_mfcc_train.1.ark:642276
mrfl0_si526 quick_test/mfcc/raw_mfcc_train.4.ark:707935
mhbs0_si945 quick_test/mfcc/raw_mfcc_train.3.ark:306960
fjwb1_sx255 quick_test/mfcc/raw_mfcc_train.1.ark:1936480
fkkh0_sx300 quick_test/mfcc/raw_mfcc_train.1.ark:2186597
fpaz0_sx423 quick_test/mfcc/raw_mfcc_train.1.ark:3356539
flet0_si1767 quick_test/mfcc/raw_mfcc_train.1.ark:2429055
msmr0_si1405 quick_test/mfcc/raw_mfcc_train.4.ark:2143895
mrdd0_si2310 quick_test/mfcc/raw_mfcc_train.4.ark:455109
mmea0_sx308 quick_test/mfcc/raw_mfcc_train.3.ark:2985420
mpar0_sx136 quick_test/mfcc/raw_mfcc_train.3.ark:3518242
fcmg0_sx72 quick_test/mfcc/raw_mfcc_train.1.ark:685572
mcxm0_sx451 quick_test/mfcc/raw_mfcc_train.2.ark:1953933
mtmt0_sx128 quick_test/mfcc/raw_mfcc_train.4.ark:2989371
mlbc0_sx159 quick_test/mfcc/raw_mfcc_train.3.ark:2377201
mtxs0_si1060 quick_test/mfcc/raw_mfcc_train.4.ark:3296796
fexm0_si1101 quick_test/mfcc/raw_mfcc_train.1.ark:1326515
mjdm0_sx440 quick_test/mfcc/raw_mfcc_train.3.ark:835673
mrjb1_sx300 quick_test/mfcc/raw_mfcc_train.4.ark:870325
mmpm0_si2321 quick_test/mfcc/raw_mfcc_train.3.ark:3181462
fbmj0_si516 quick_test/mfcc/raw_mfcc_train.1.ark:379841
fksr0_sx366 quick_test/mfcc/raw_mfcc_train.1.ark:2312413
mpsw0_si2327 quick_test/mfcc/raw_mfcc_train.4.ark:165097
mbar0_si1949 quick_test/mfcc/raw_mfcc_train.2.ark:1043150
mtdb0_sx51 quick_test/mfcc/raw_mfcc_train.4.ark:2565532
mrjh0_si889 quick_test/mfcc/raw_mfcc_train.4.ark:884868
fcyl0_si1927 quick_test/mfcc/raw_mfcc_train.1.ark:754199
milb0_sx183 quick_test/mfcc/raw_mfcc_train.3.ark:528469
feme0_si875 quick_test/mfcc/raw_mfcc_train.1.ark:1266590
mrab1_sx128 quick_test/mfcc/raw_mfcc_train.4.ark:230113
fjwb1_si795 quick_test/mfcc/raw_mfcc_train.1.ark:1929030
fvmh0_si2096 quick_test/mfcc/raw_mfcc_train.2.ark:635480
mrre0_sx74 quick_test/mfcc/raw_mfcc_train.4.ark:1432045
mrtc0_si828 quick_test/mfcc/raw_mfcc_train.4.ark:1520791
ftmg0_si2162 quick_test/mfcc/raw_mfcc_train.2.ark:538731
mpgr1_sx329 quick_test/mfcc/raw_mfcc_train.3.ark:3677076
fljd0_sx166 quick_test/mfcc/raw_mfcc_train.1.ark:2533853
msas0_si2006 quick_test/mfcc/raw_mfcc_train.4.ark:1740598
mmdm1_sx153 quick_test/mfcc/raw_mfcc_train.3.ark:2917770
fcrz0_si793 quick_test/mfcc/raw_mfcc_train.1.ark:728123
fntb0_si1203 quick_test/mfcc/raw_mfcc_train.1.ark:3159366
mfmc0_sx232 quick_test/mfcc/raw_mfcc_train.2.ark:3442689
mpgh0_sx384 quick_test/mfcc/raw_mfcc_train.3.ark:3624298
mmpm0_sx161 quick_test/mfcc/raw_mfcc_train.3.ark:3184875
mmam0_sx247 quick_test/mfcc/raw_mfcc_train.3.ark:2689254
falr0_si1325 quick_test/mfcc/raw_mfcc_train.1.ark:101592
mewm0_sx448 quick_test/mfcc/raw_mfcc_train.2.ark:3390810
mrtc0_sx288 quick_test/mfcc/raw_mfcc_train.4.ark:1536197
fsgf0_sx297 quick_test/mfcc/raw_mfcc_train.1.ark:3817523
mram0_si1905 quick_test/mfcc/raw_mfcc_train.4.ark:289675
mrwa0_sx433 quick_test/mfcc/raw_mfcc_train.4.ark:1637652
mrlj0_sx160 quick_test/mfcc/raw_mfcc_train.4.ark:1098605
mmds0_sx353 quick_test/mfcc/raw_mfcc_train.3.ark:2958245
mklr0_sx249 quick_test/mfcc/raw_mfcc_train.3.ark:2187714
fhxs0_sx445 quick_test/mfcc/raw_mfcc_train.1.ark:1574255
fclt0_si1438 quick_test/mfcc/raw_mfcc_train.1.ark:622103
mjeb1_sx297 quick_test/mfcc/raw_mfcc_train.3.ark:902476
feeh0_si1742 quick_test/mfcc/raw_mfcc_train.1.ark:1230607
mrsp0_sx169 quick_test/mfcc/raw_mfcc_train.4.ark:1490425
flkm0_sx440 quick_test/mfcc/raw_mfcc_train.1.ark:2619891
mrld0_sx424 quick_test/mfcc/raw_mfcc_train.4.ark:1079875
mjpg0_sx21 quick_test/mfcc/raw_mfcc_train.3.ark:1373653
mdpk0_sx153 quick_test/mfcc/raw_mfcc_train.2.ark:2821797
mjpm1_si761 quick_test/mfcc/raw_mfcc_train.3.ark:1420430
mwar0_si1675 quick_test/mfcc/raw_mfcc_train.4.ark:3495398
mjai0_si710 quick_test/mfcc/raw_mfcc_train.3.ark:620580
mcdd0_si2143 quick_test/mfcc/raw_mfcc_train.2.ark:1543415
mjrh1_si514 quick_test/mfcc/raw_mfcc_train.3.ark:1555170
mljh0_sx424 quick_test/mfcc/raw_mfcc_train.3.ark:2497760
mrjb1_sx210 quick_test/mfcc/raw_mfcc_train.4.ark:863981
fsak0_si1930 quick_test/mfcc/raw_mfcc_train.1.ark:3633851
fapb0_sx163 quick_test/mfcc/raw_mfcc_train.1.ark:148368
mpgr0_si2040 quick_test/mfcc/raw_mfcc_train.3.ark:3632543
mkdd0_sx127 quick_test/mfcc/raw_mfcc_train.3.ark:2028718
mkxl0_sx105 quick_test/mfcc/raw_mfcc_train.3.ark:2347244
mhmg0_sx15 quick_test/mfcc/raw_mfcc_train.3.ark:403670
fcmm0_sx273 quick_test/mfcc/raw_mfcc_train.1.ark:703835
mfmc0_si502 quick_test/mfcc/raw_mfcc_train.2.ark:3433874
fsdc0_si1942 quick_test/mfcc/raw_mfcc_train.1.ark:3739465
mhxl0_si1772 quick_test/mfcc/raw_mfcc_train.3.ark:481241
fspm0_si1241 quick_test/mfcc/raw_mfcc_train.2.ark:310591
fvfb0_si2292 quick_test/mfcc/raw_mfcc_train.2.ark:576860
mgag0_si1321 quick_test/mfcc/raw_mfcc_train.2.ark:3612447
fpad0_si1976 quick_test/mfcc/raw_mfcc_train.1.ark:3266820
mdrd0_si1382 quick_test/mfcc/raw_mfcc_train.2.ark:2870951
marw0_si1906 quick_test/mfcc/raw_mfcc_train.2.ark:1007941
fajw0_sx363 quick_test/mfcc/raw_mfcc_train.1.ark:59625
mdlb0_sx226 quick_test/mfcc/raw_mfcc_train.2.ark:2433615
mbar0_sx419 quick_test/mfcc/raw_mfcc_train.2.ark:1063218
mtjg0_sx440 quick_test/mfcc/raw_mfcc_train.4.ark:2666109
mprt0_sx220 quick_test/mfcc/raw_mfcc_train.4.ark:143889
madc0_sx287 quick_test/mfcc/raw_mfcc_train.2.ark:714031
mrld0_sx64 quick_test/mfcc/raw_mfcc_train.4.ark:1083417
mrmh0_si1021 quick_test/mfcc/raw_mfcc_train.4.ark:1269851
mgxp0_si1087 quick_test/mfcc/raw_mfcc_train.3.ark:264277
mbma1_si2214 quick_test/mfcc/raw_mfcc_train.2.ark:1254734
mmrp0_si717 quick_test/mfcc/raw_mfcc_train.3.ark:3209019
fcag0_sx333 quick_test/mfcc/raw_mfcc_train.1.ark:426753
mrcw0_sx111 quick_test/mfcc/raw_mfcc_train.4.ark:430748
marc0_sx18 quick_test/mfcc/raw_mfcc_train.2.ark:990614
mwsb0_si996 quick_test/mfcc/raw_mfcc_train.4.ark:3716690
mmea0_sx398 quick_test/mfcc/raw_mfcc_train.3.ark:2992219
fjsk0_sx242 quick_test/mfcc/raw_mfcc_train.1.ark:1871328
fntb0_sx393 quick_test/mfcc/raw_mfcc_train.1.ark:3186636
fbmh0_si970 quick_test/mfcc/raw_mfcc_train.1.ark:351582
makr0_sx182 quick_test/mfcc/raw_mfcc_train.2.ark:928081
fmem0_sx297 quick_test/mfcc/raw_mfcc_train.1.ark:2869370
fdxw0_sx161 quick_test/mfcc/raw_mfcc_train.1.ark:1102330
madd0_sx268 quick_test/mfcc/raw_mfcc_train.2.ark:738268
fdtd0_si2191 quick_test/mfcc/raw_mfcc_train.1.ark:1061555
mwch0_sx182 quick_test/mfcc/raw_mfcc_train.4.ark:3530103
msfv0_sx92 quick_test/mfcc/raw_mfcc_train.4.ark:2064856
mkes0_si623 quick_test/mfcc/raw_mfcc_train.3.ark:2087142
mjwg0_si2155 quick_test/mfcc/raw_mfcc_train.3.ark:1676907
mtrc0_sx183 quick_test/mfcc/raw_mfcc_train.4.ark:3194183
msah1_sx419 quick_test/mfcc/raw_mfcc_train.4.ark:1727784
mrmh0_si2281 quick_test/mfcc/raw_mfcc_train.4.ark:1279877
flhd0_sx444 quick_test/mfcc/raw_mfcc_train.1.ark:2478054
mdac0_sx91 quick_test/mfcc/raw_mfcc_train.2.ark:1992788
mmdg0_si1780 quick_test/mfcc/raw_mfcc_train.3.ark:2841298
fmem0_sx333 quick_test/mfcc/raw_mfcc_train.1.ark:2872978
msmr0_sx55 quick_test/mfcc/raw_mfcc_train.4.ark:2165165
mkls1_si915 quick_test/mfcc/raw_mfcc_train.3.ark:2244573
mrjm0_sx328 quick_test/mfcc/raw_mfcc_train.4.ark:936642
fgrw0_sx72 quick_test/mfcc/raw_mfcc_train.1.ark:1504569
mwsh0_si2266 quick_test/mfcc/raw_mfcc_train.4.ark:3744922
mtdb0_si771 quick_test/mfcc/raw_mfcc_train.4.ark:2544503
mtmn0_sx434 quick_test/mfcc/raw_mfcc_train.4.ark:2968769
fmpg0_sx342 quick_test/mfcc/raw_mfcc_train.1.ark:3111669
msms0_si2063 quick_test/mfcc/raw_mfcc_train.4.ark:2174632
mrew1_sx60 quick_test/mfcc/raw_mfcc_train.4.ark:665682
fmkc0_sx172 quick_test/mfcc/raw_mfcc_train.1.ark:2997855
mjfr0_sx75 quick_test/mfcc/raw_mfcc_train.3.ark:1000440
ftlg0_si1743 quick_test/mfcc/raw_mfcc_train.2.ark:501942
ftbw0_sx445 quick_test/mfcc/raw_mfcc_train.2.ark:495389
mcpm0_sx384 quick_test/mfcc/raw_mfcc_train.2.ark:1798955
fcjf0_sx397 quick_test/mfcc/raw_mfcc_train.1.ark:559464
mmvp0_sx347 quick_test/mfcc/raw_mfcc_train.3.ark:3303860
mkaj0_si1414 quick_test/mfcc/raw_mfcc_train.3.ark:1917141
mrsp0_sx439 quick_test/mfcc/raw_mfcc_train.4.ark:1501236
mkls0_si1533 quick_test/mfcc/raw_mfcc_train.3.ark:2209044
flmk0_si1229 quick_test/mfcc/raw_mfcc_train.1.ark:2693542
faem0_si2022 quick_test/mfcc/raw_mfcc_train.1.ark:6313
fkde0_sx151 quick_test/mfcc/raw_mfcc_train.1.ark:2068093
fdkn0_sx181 quick_test/mfcc/raw_mfcc_train.1.ark:924216
fjdm2_sx142 quick_test/mfcc/raw_mfcc_train.1.ark:1593233
mtdp0_sx81 quick_test/mfcc/raw_mfcc_train.4.ark:2604044
mmdm1_sx423 quick_test/mfcc/raw_mfcc_train.3.ark:2933274
mdpk0_sx423 quick_test/mfcc/raw_mfcc_train.2.ark:2833986
mntw0_sx258 quick_test/mfcc/raw_mfcc_train.3.ark:3495046
fljg0_sx441 quick_test/mfcc/raw_mfcc_train.1.ark:2583630
fpjf0_sx56 quick_test/mfcc/raw_mfcc_train.1.ark:3392964
msrr0_si501 quick_test/mfcc/raw_mfcc_train.4.ark:2240520
mdmt0_sx32 quick_test/mfcc/raw_mfcc_train.2.ark:2738303
mwch0_si1895 quick_test/mfcc/raw_mfcc_train.4.ark:3524316
fcdr1_sx376 quick_test/mfcc/raw_mfcc_train.1.ark:505556
fsrh0_si1719 quick_test/mfcc/raw_mfcc_train.2.ark:346164
mljh0_si694 quick_test/mfcc/raw_mfcc_train.3.ark:2477699
mjee0_si1237 quick_test/mfcc/raw_mfcc_train.3.ark:910564
fbas0_si1387 quick_test/mfcc/raw_mfcc_train.1.ark:172245
mgsl0_sx84 quick_test/mfcc/raw_mfcc_train.3.ark:259589
fkaa0_si1838 quick_test/mfcc/raw_mfcc_train.1.ark:2021559
mtml0_sx255 quick_test/mfcc/raw_mfcc_train.4.ark:2924472
mjrp0_sx225 quick_test/mfcc/raw_mfcc_train.3.ark:1623106
mlbc0_sx339 quick_test/mfcc/raw_mfcc_train.3.ark:2384144
fpac0_si2011 quick_test/mfcc/raw_mfcc_train.1.ark:3233990
mtrt0_si1857 quick_test/mfcc/raw_mfcc_train.4.ark:3244690
fsjg0_si2200 quick_test/mfcc/raw_mfcc_train.1.ark:3829168
fjsp0_si1434 quick_test/mfcc/raw_mfcc_train.1.ark:1888178
mdmt0_sx122 quick_test/mfcc/raw_mfcc_train.2.ark:2725413
fgcs0_sx226 quick_test/mfcc/raw_mfcc_train.1.ark:1380422
mjdm0_si1340 quick_test/mfcc/raw_mfcc_train.3.ark:808304
mtju0_sx400 quick_test/mfcc/raw_mfcc_train.4.ark:2770702
ftlg0_sx33 quick_test/mfcc/raw_mfcc_train.2.ark:529413
mafm0_sx129 quick_test/mfcc/raw_mfcc_train.2.ark:825715
mrjt0_sx328 quick_test/mfcc/raw_mfcc_train.4.ark:1002835
msfv0_si1892 quick_test/mfcc/raw_mfcc_train.4.ark:2036020
mrcw0_sx291 quick_test/mfcc/raw_mfcc_train.4.ark:439764
mjda0_si1661 quick_test/mfcc/raw_mfcc_train.3.ark:677602
mdmt0_sx392 quick_test/mfcc/raw_mfcc_train.2.ark:2741781
frll0_sx74 quick_test/mfcc/raw_mfcc_train.1.ark:3550898
mjjm0_sx377 quick_test/mfcc/raw_mfcc_train.3.ark:1134880
mrab0_sx234 quick_test/mfcc/raw_mfcc_train.4.ark:199721
mrew1_si1500 quick_test/mfcc/raw_mfcc_train.4.ark:639828
mljh0_si1422 quick_test/mfcc/raw_mfcc_train.3.ark:2468943
mfer0_sx322 quick_test/mfcc/raw_mfcc_train.2.ark:3415690
fntb0_si573 quick_test/mfcc/raw_mfcc_train.1.ark:3162636
faem0_sx222 quick_test/mfcc/raw_mfcc_train.1.ark:16916
fjhk0_si1652 quick_test/mfcc/raw_mfcc_train.1.ark:1657138
mjbg0_si1724 quick_test/mfcc/raw_mfcc_train.3.ark:647384
mcss0_sx300 quick_test/mfcc/raw_mfcc_train.2.ark:1859875
mjjb0_sx329 quick_test/mfcc/raw_mfcc_train.3.ark:1057390
mdns0_sx111 quick_test/mfcc/raw_mfcc_train.2.ark:2761441
mjkr0_si1201 quick_test/mfcc/raw_mfcc_train.3.ark:1138931
mgrp0_sx57 quick_test/mfcc/raw_mfcc_train.3.ark:189564
fsmm0_sx54 quick_test/mfcc/raw_mfcc_train.2.ark:273671
mstf0_sx136 quick_test/mfcc/raw_mfcc_train.4.ark:2277502
mbar0_si1319 quick_test/mfcc/raw_mfcc_train.2.ark:1038033
fdaw0_sx56 quick_test/mfcc/raw_mfcc_train.1.ark:848072
mcpm0_si564 quick_test/mfcc/raw_mfcc_train.2.ark:1781189
makr0_sx452 quick_test/mfcc/raw_mfcc_train.2.ark:936396
mhmr0_si489 quick_test/mfcc/raw_mfcc_train.3.ark:426295
fdmy0_si714 quick_test/mfcc/raw_mfcc_train.1.ark:989154
mafm0_si1569 quick_test/mfcc/raw_mfcc_train.2.ark:816853
mwdk0_sx176 quick_test/mfcc/raw_mfcc_train.4.ark:3560541
mcae0_si1447 quick_test/mfcc/raw_mfcc_train.2.ark:1436625
mjae0_si2154 quick_test/mfcc/raw_mfcc_train.3.ark:584215
mbwp0_si1969 quick_test/mfcc/raw_mfcc_train.2.ark:1405168
mpgh0_si924 quick_test/mfcc/raw_mfcc_train.3.ark:3609665
mmxs0_sx156 quick_test/mfcc/raw_mfcc_train.3.ark:3424719
fsma0_sx451 quick_test/mfcc/raw_mfcc_train.2.ark:233425
mbsb0_sx363 quick_test/mfcc/raw_mfcc_train.2.ark:1362775
mkln0_sx68 quick_test/mfcc/raw_mfcc_train.3.ark:2169827
mjmm0_si1885 quick_test/mfcc/raw_mfcc_train.3.ark:1329798
fgcs0_sx316 quick_test/mfcc/raw_mfcc_train.1.ark:1384316
fpaf0_sx334 quick_test/mfcc/raw_mfcc_train.1.ark:3319712
mdlr0_sx243 quick_test/mfcc/raw_mfcc_train.2.ark:2625395
mtxs0_sx70 quick_test/mfcc/raw_mfcc_train.4.ark:3332362
mdlc1_sx175 quick_test/mfcc/raw_mfcc_train.2.ark:2500257
mdjm0_sx105 quick_test/mfcc/raw_mfcc_train.2.ark:2363514
mprk0_si1097 quick_test/mfcc/raw_mfcc_train.4.ark:90478
mrml0_si791 quick_test/mfcc/raw_mfcc_train.4.ark:1310107
mtrt0_sx57 quick_test/mfcc/raw_mfcc_train.4.ark:3265336
mdmt0_si1832 quick_test/mfcc/raw_mfcc_train.2.ark:2716291
mcdr0_sx434 quick_test/mfcc/raw_mfcc_train.2.ark:1598770
mprt0_sx310 quick_test/mfcc/raw_mfcc_train.4.ark:148355
mtas0_sx125 quick_test/mfcc/raw_mfcc_train.4.ark:2387367
mjeb0_sx296 quick_test/mfcc/raw_mfcc_train.3.ark:868905
flod0_sx171 quick_test/mfcc/raw_mfcc_train.1.ark:2736963
mmeb0_sx367 quick_test/mfcc/raw_mfcc_train.3.ark:3015221
fjxm0_sx401 quick_test/mfcc/raw_mfcc_train.1.ark:1976123
fsak0_sx400 quick_test/mfcc/raw_mfcc_train.1.ark:3655706
mjwt0_sx301 quick_test/mfcc/raw_mfcc_train.3.ark:1774322
mtjs0_si562 quick_test/mfcc/raw_mfcc_train.4.ark:2716726
mfer0_si2122 quick_test/mfcc/raw_mfcc_train.2.ark:3400309
mprd0_si1431 quick_test/mfcc/raw_mfcc_train.4.ark:54060
mhmr0_si1692 quick_test/mfcc/raw_mfcc_train.3.ark:420282
fmem0_si2007 quick_test/mfcc/raw_mfcc_train.1.ark:2853482
mmgg0_sx179 quick_test/mfcc/raw_mfcc_train.3.ark:3067477
mmeb0_sx7 quick_test/mfcc/raw_mfcc_train.3.ark:3018723
mpgr0_sx330 quick_test/mfcc/raw_mfcc_train.3.ark:3643855
mjai0_sx344 quick_test/mfcc/raw_mfcc_train.3.ark:633523
mdbb1_sx16 quick_test/mfcc/raw_mfcc_train.2.ark:2041304
fjwb1_si2055 quick_test/mfcc/raw_mfcc_train.1.ark:1920163
meal0_sx347 quick_test/mfcc/raw_mfcc_train.2.ark:3142202
mmdm0_sx411 quick_test/mfcc/raw_mfcc_train.3.ark:2900379
mtjm0_sx416 quick_test/mfcc/raw_mfcc_train.4.ark:2698705
fsdc0_si2234 quick_test/mfcc/raw_mfcc_train.1.ark:3742983
fmkc0_sx262 quick_test/mfcc/raw_mfcc_train.1.ark:3002425
mgaw0_sx355 quick_test/mfcc/raw_mfcc_train.3.ark:54590
mjmd0_sx308 quick_test/mfcc/raw_mfcc_train.3.ark:1312934
mjmm0_si1255 quick_test/mfcc/raw_mfcc_train.3.ark:1324174
mjxa0_sx157 quick_test/mfcc/raw_mfcc_train.3.ark:1797570
fcmm0_sx420 quick_test/mfcc/raw_mfcc_train.1.ark:711090
mtjm0_sx56 quick_test/mfcc/raw_mfcc_train.4.ark:2702182
mjrk0_si2103 quick_test/mfcc/raw_mfcc_train.3.ark:1579595
falr0_sx425 quick_test/mfcc/raw_mfcc_train.1.ark:125958
fpaf0_si1684 quick_test/mfcc/raw_mfcc_train.1.ark:3305006
mrjt0_sx148 quick_test/mfcc/raw_mfcc_train.4.ark:995840
feeh0_sx212 quick_test/mfcc/raw_mfcc_train.1.ark:1242835
mrlj0_sx70 quick_test/mfcc/raw_mfcc_train.4.ark:1114115
mmeb0_sx97 quick_test/mfcc/raw_mfcc_train.3.ark:3021849
mwar0_sx55 quick_test/mfcc/raw_mfcc_train.4.ark:3515850
fspm0_si1871 quick_test/mfcc/raw_mfcc_train.2.ark:317853
mjwg0_si895 quick_test/mfcc/raw_mfcc_train.3.ark:1686723
mvrw0_si1485 quick_test/mfcc/raw_mfcc_train.4.ark:3398485
mcxm0_sx271 quick_test/mfcc/raw_mfcc_train.2.ark:1947458
mpgr1_si1499 quick_test/mfcc/raw_mfcc_train.3.ark:3659367
mtpf0_sx65 quick_test/mfcc/raw_mfcc_train.4.ark:3035709
mfxs0_sx54 quick_test/mfcc/raw_mfcc_train.2.ark:3548338
mkxl0_si1815 quick_test/mfcc/raw_mfcc_train.3.ark:2335919
fmpg0_sx432 quick_test/mfcc/raw_mfcc_train.1.ark:3117461
mdlb0_sx46 quick_test/mfcc/raw_mfcc_train.2.ark:2448572
msfh0_sx46 quick_test/mfcc/raw_mfcc_train.4.ark:2029114
mter0_si1787 quick_test/mfcc/raw_mfcc_train.4.ark:2613914
mdlh0_sx160 quick_test/mfcc/raw_mfcc_train.2.ark:2559104
mkrg0_sx231 quick_test/mfcc/raw_mfcc_train.3.ark:2322052
mmws0_sx348 quick_test/mfcc/raw_mfcc_train.3.ark:3374960
mram0_sx375 quick_test/mfcc/raw_mfcc_train.4.ark:312818
freh0_sx325 quick_test/mfcc/raw_mfcc_train.1.ark:3483795
mtmt0_si1118 quick_test/mfcc/raw_mfcc_train.4.ark:2975998
mjfh0_sx27 quick_test/mfcc/raw_mfcc_train.3.ark:960017
mesg0_si702 quick_test/mfcc/raw_mfcc_train.2.ark:3315764
fhlm0_si2190 quick_test/mfcc/raw_mfcc_train.1.ark:1509889
mdlm0_si604 quick_test/mfcc/raw_mfcc_train.2.ark:2587143
fdas1_sx111 quick_test/mfcc/raw_mfcc_train.1.ark:800069
mdns0_sx201 quick_test/mfcc/raw_mfcc_train.2.ark:2764958
mcae0_si2077 quick_test/mfcc/raw_mfcc_train.2.ark:1444108
mrcw0_sx381 quick_test/mfcc/raw_mfcc_train.4.ark:442995
mdtb0_si570 quick_test/mfcc/raw_mfcc_train.2.ark:3001389
mwgr0_si2236 quick_test/mfcc/raw_mfcc_train.4.ark:3617374
fsjg0_si940 quick_test/mfcc/raw_mfcc_train.1.ark:3833608
fbcg1_sx352 quick_test/mfcc/raw_mfcc_train.1.ark:225067
mdlc2_sx174 quick_test/mfcc/raw_mfcc_train.2.ark:2527757
mmaa0_sx215 quick_test/mfcc/raw_mfcc_train.3.ark:2589541
fcmm0_sx363 quick_test/mfcc/raw_mfcc_train.1.ark:707183
fskp0_sx108 quick_test/mfcc/raw_mfcc_train.2.ark:158669
fbjl0_si2182 quick_test/mfcc/raw_mfcc_train.1.ark:278959
mrcw0_si741 quick_test/mfcc/raw_mfcc_train.4.ark:425008
mmds0_sx173 quick_test/mfcc/raw_mfcc_train.3.ark:2951562
fvfb0_si1510 quick_test/mfcc/raw_mfcc_train.2.ark:571496
fklc0_sx445 quick_test/mfcc/raw_mfcc_train.1.ark:2220611
fdml0_sx69 quick_test/mfcc/raw_mfcc_train.1.ark:972050
mmcc0_si708 quick_test/mfcc/raw_mfcc_train.3.ark:2789797
fdfb0_sx58 quick_test/mfcc/raw_mfcc_train.1.ark:875820
marc0_sx378 quick_test/mfcc/raw_mfcc_train.2.ark:1000554
mntw0_si1068 quick_test/mfcc/raw_mfcc_train.3.ark:3473039
mdlr1_sx309 quick_test/mfcc/raw_mfcc_train.2.ark:2665720
mjda0_sx41 quick_test/mfcc/raw_mfcc_train.3.ark:699874
mjjb0_sx419 quick_test/mfcc/raw_mfcc_train.3.ark:1062454
mgrl0_si2127 quick_test/mfcc/raw_mfcc_train.3.ark:129978
fklc1_sx418 quick_test/mfcc/raw_mfcc_train.1.ark:2250959
mjdm0_sx170 quick_test/mfcc/raw_mfcc_train.3.ark:819311
mmea0_si758 quick_test/mfcc/raw_mfcc_train.3.ark:2974180
mtrr0_si918 quick_test/mfcc/raw_mfcc_train.4.ark:3212621
mrwa0_sx163 quick_test/mfcc/raw_mfcc_train.4.ark:1626256
mjsr0_si1424 quick_test/mfcc/raw_mfcc_train.3.ark:1636394
fkdw0_sx397 quick_test/mfcc/raw_mfcc_train.1.ark:2117109
mesj0_sx367 quick_test/mfcc/raw_mfcc_train.2.ark:3360731
mwsb0_sx276 quick_test/mfcc/raw_mfcc_train.4.ark:3725258
ftaj0_si699 quick_test/mfcc/raw_mfcc_train.2.ark:418443
mhit0_si983 quick_test/mfcc/raw_mfcc_train.3.ark:335578
ftlg0_sx393 quick_test/mfcc/raw_mfcc_train.2.ark:532813
mree0_si1104 quick_test/mfcc/raw_mfcc_train.4.ark:537282
mjkr0_si1831 quick_test/mfcc/raw_mfcc_train.3.ark:1144204
mrlj1_sx231 quick_test/mfcc/raw_mfcc_train.4.ark:1131131
mjjb0_si1277 quick_test/mfcc/raw_mfcc_train.3.ark:1041657
mcre0_si1725 quick_test/mfcc/raw_mfcc_train.2.ark:1806511
fvkb0_si1789 quick_test/mfcc/raw_mfcc_train.2.ark:599868
mdhl0_sx449 quick_test/mfcc/raw_mfcc_train.2.ark:2311382
mtcs0_sx172 quick_test/mfcc/raw_mfcc_train.4.ark:2515593
mjrh0_sx45 quick_test/mfcc/raw_mfcc_train.3.ark:1541510
fbcg1_sx442 quick_test/mfcc/raw_mfcc_train.1.ark:230807
fkde0_sx421 quick_test/mfcc/raw_mfcc_train.1.ark:2080555
mdlr0_si1233 quick_test/mfcc/raw_mfcc_train.2.ark:2609129
mjrh0_si1755 quick_test/mfcc/raw_mfcc_train.3.ark:1516352
fjlg0_si2306 quick_test/mfcc/raw_mfcc_train.1.ark:1725030
mrsp0_sx196 quick_test/mfcc/raw_mfcc_train.4.ark:1494865
mjlg1_sx382 quick_test/mfcc/raw_mfcc_train.3.ark:1228054
mtml0_si1695 quick_test/mfcc/raw_mfcc_train.4.ark:2910332
mrdm0_si1595 quick_test/mfcc/raw_mfcc_train.4.ark:482212
mtab0_sx42 quick_test/mfcc/raw_mfcc_train.4.ark:2374116
fjrb0_si1932 quick_test/mfcc/raw_mfcc_train.1.ark:1786302
mrtj0_sx232 quick_test/mfcc/raw_mfcc_train.4.ark:1566375
fetb0_sx338 quick_test/mfcc/raw_mfcc_train.1.ark:1314092
fntb0_sx303 quick_test/mfcc/raw_mfcc_train.1.ark:3180123
fsjw0_sx253 quick_test/mfcc/raw_mfcc_train.2.ark:67154
mrvg0_sx330 quick_test/mfcc/raw_mfcc_train.4.ark:1602449
mpeb0_sx150 quick_test/mfcc/raw_mfcc_train.3.ark:3545677
fjlr0_si601 quick_test/mfcc/raw_mfcc_train.1.ark:1756729
fpmy0_si1783 quick_test/mfcc/raw_mfcc_train.1.ark:3433036
mbsb0_sx3 quick_test/mfcc/raw_mfcc_train.2.ark:1360987
mdbb1_sx286 quick_test/mfcc/raw_mfcc_train.2.ark:2046765
fdtd0_sx211 quick_test/mfcc/raw_mfcc_train.1.ark:1074043
fmkf0_sx186 quick_test/mfcc/raw_mfcc_train.1.ark:3034260
fjxp0_sx42 quick_test/mfcc/raw_mfcc_train.1.ark:2014510
mclm0_sx376 quick_test/mfcc/raw_mfcc_train.2.ark:1768556
msjk0_si966 quick_test/mfcc/raw_mfcc_train.4.ark:2078646
mmdm0_sx141 quick_test/mfcc/raw_mfcc_train.3.ark:2889178
mhrm0_si958 quick_test/mfcc/raw_mfcc_train.3.ark:456564
fclt0_sx448 quick_test/mfcc/raw_mfcc_train.1.ark:645715
fdml0_si1149 quick_test/mfcc/raw_mfcc_train.1.ark:947950
mmdb0_sx447 quick_test/mfcc/raw_mfcc_train.3.ark:2835967
mjai0_si1604 quick_test/mfcc/raw_mfcc_train.3.ark:611050
mbth0_sx122 quick_test/mfcc/raw_mfcc_train.2.ark:1381803
fpmy0_si1153 quick_test/mfcc/raw_mfcc_train.1.ark:3426853
mkrg0_sx141 quick_test/mfcc/raw_mfcc_train.3.ark:2317781
mcal0_si1138 quick_test/mfcc/raw_mfcc_train.2.ark:1478410
fvkb0_sx349 quick_test/mfcc/raw_mfcc_train.2.ark:615301
msem1_si1440 quick_test/mfcc/raw_mfcc_train.4.ark:1922402
mpgr1_sx149 quick_test/mfcc/raw_mfcc_train.3.ark:3668794
fleh0_sx421 quick_test/mfcc/raw_mfcc_train.1.ark:2416267
fbmj0_si815 quick_test/mfcc/raw_mfcc_train.1.ark:385620
frll0_si805 quick_test/mfcc/raw_mfcc_train.1.ark:3525988
mbma0_si592 quick_test/mfcc/raw_mfcc_train.2.ark:1229880
mjkr0_sx211 quick_test/mfcc/raw_mfcc_train.3.ark:1157758
fdtd0_si1561 quick_test/mfcc/raw_mfcc_train.1.ark:1057309
mdlr1_sx39 quick_test/mfcc/raw_mfcc_train.2.ark:2670250
mrjh0_sx79 quick_test/mfcc/raw_mfcc_train.4.ark:912430
mdcm0_sx400 quick_test/mfcc/raw_mfcc_train.2.ark:2150683
mmws1_sx261 quick_test/mfcc/raw_mfcc_train.3.ark:3398456
fjwb1_sx75 quick_test/mfcc/raw_mfcc_train.1.ark:1947641
flag0_sx294 quick_test/mfcc/raw_mfcc_train.1.ark:2383461
mgsh0_sx276 quick_test/mfcc/raw_mfcc_train.3.ark:216505
mtkp0_si2283 quick_test/mfcc/raw_mfcc_train.4.ark:2814052
mrml0_si2051 quick_test/mfcc/raw_mfcc_train.4.ark:1307552
mjmm0_sx355 quick_test/mfcc/raw_mfcc_train.3.ark:1345101
mtdb0_sx411 quick_test/mfcc/raw_mfcc_train.4.ark:2561275
mdsj0_si832 quick_test/mfcc/raw_mfcc_train.2.ark:2916185
mcpm0_sx114 quick_test/mfcc/raw_mfcc_train.2.ark:1786279
mkam0_sx236 quick_test/mfcc/raw_mfcc_train.3.ark:1964366
mrkm0_si637 quick_test/mfcc/raw_mfcc_train.4.ark:1030184
mtju0_sx40 quick_test/mfcc/raw_mfcc_train.4.ark:2767133
mprd0_sx351 quick_test/mfcc/raw_mfcc_train.4.ark:78289
mlsh0_sx427 quick_test/mfcc/raw_mfcc_train.3.ark:2562367
fmah1_si1509 quick_test/mfcc/raw_mfcc_train.1.ark:2784955
mprb0_si1205 quick_test/mfcc/raw_mfcc_train.4.ark:16173
mvrw0_si855 quick_test/mfcc/raw_mfcc_train.4.ark:3405325
mwac0_sx431 quick_test/mfcc/raw_mfcc_train.4.ark:3455252
mmws1_sx81 quick_test/mfcc/raw_mfcc_train.3.ark:3410494
mbml0_si1169 quick_test/mfcc/raw_mfcc_train.2.ark:1286893
marc0_si1188 quick_test/mfcc/raw_mfcc_train.2.ark:978002
mkdd0_sx397 quick_test/mfcc/raw_mfcc_train.3.ark:2039782
mtdp0_sx261 quick_test/mfcc/raw_mfcc_train.4.ark:2589022
fblv0_si1058 quick_test/mfcc/raw_mfcc_train.1.ark:307452
mrmh0_sx211 quick_test/mfcc/raw_mfcc_train.4.ark:1287639
mtcs0_sx442 quick_test/mfcc/raw_mfcc_train.4.ark:2527834
fbch0_sx146 quick_test/mfcc/raw_mfcc_train.1.ark:254177
mrjm1_sx398 quick_test/mfcc/raw_mfcc_train.4.ark:979443
fsjw0_si1963 quick_test/mfcc/raw_mfcc_train.2.ark:55992
mrkm0_si1267 quick_test/mfcc/raw_mfcc_train.4.ark:1017416
mbma1_si2207 quick_test/mfcc/raw_mfcc_train.2.ark:1252204
falr0_sx155 quick_test/mfcc/raw_mfcc_train.1.ark:113197
mlns0_sx237 quick_test/mfcc/raw_mfcc_train.3.ark:2521333
mdss1_si1327 quick_test/mfcc/raw_mfcc_train.2.ark:2966477
fdaw0_sx236 quick_test/mfcc/raw_mfcc_train.1.ark:837353
msat0_sx446 quick_test/mfcc/raw_mfcc_train.4.ark:1789518
mlns0_sx417 quick_test/mfcc/raw_mfcc_train.3.ark:2528445
fljd0_si1516 quick_test/mfcc/raw_mfcc_train.1.ark:2521416
mcae0_sx277 quick_test/mfcc/raw_mfcc_train.2.ark:1459859
mmvp0_sx294 quick_test/mfcc/raw_mfcc_train.3.ark:3299992
mges0_si851 quick_test/mfcc/raw_mfcc_train.3.ark:67067
fklc0_si985 quick_test/mfcc/raw_mfcc_train.1.ark:2199354
mjac0_sx341 quick_test/mfcc/raw_mfcc_train.3.ark:564639
mwsb0_sx186 quick_test/mfcc/raw_mfcc_train.4.ark:3722482
mbma1_sx54 quick_test/mfcc/raw_mfcc_train.2.ark:1281802
mges0_sx131 quick_test/mfcc/raw_mfcc_train.3.ark:71689
fskl0_si1529 quick_test/mfcc/raw_mfcc_train.2.ark:113467
mrms0_sx120 quick_test/mfcc/raw_mfcc_train.4.ark:1354957
flkm0_si620 quick_test/mfcc/raw_mfcc_train.1.ark:2596352
ftmg0_sx272 quick_test/mfcc/raw_mfcc_train.2.ark:551856
fpls0_si1590 quick_test/mfcc/raw_mfcc_train.1.ark:3396456
fleh0_sx331 quick_test/mfcc/raw_mfcc_train.1.ark:2412425
flja0_sx178 quick_test/mfcc/raw_mfcc_train.1.ark:2498579
mkrg0_si2121 quick_test/mfcc/raw_mfcc_train.3.ark:2307198
falk0_si658 quick_test/mfcc/raw_mfcc_train.1.ark:76033
mljh0_sx334 quick_test/mfcc/raw_mfcc_train.3.ark:2493658
mjfr0_sx255 quick_test/mfcc/raw_mfcc_train.3.ark:985457
mmws1_sx27 quick_test/mfcc/raw_mfcc_train.3.ark:3401049
msms0_sx353 quick_test/mfcc/raw_mfcc_train.4.ark:2190234
mzmb0_si1796 quick_test/mfcc/raw_mfcc_train.4.ark:3782237
mljc0_sx325 quick_test/mfcc/raw_mfcc_train.3.ark:2453561
mwre0_sx247 quick_test/mfcc/raw_mfcc_train.4.ark:3660457
fdnc0_si2287 quick_test/mfcc/raw_mfcc_train.1.ark:1033399
fsjg0_sx400 quick_test/mfcc/raw_mfcc_train.1.ark:3862606
mgrl0_sx57 quick_test/mfcc/raw_mfcc_train.3.ark:155109
mdas0_sx276 quick_test/mfcc/raw_mfcc_train.2.ark:2015490
mbef0_sx201 quick_test/mfcc/raw_mfcc_train.2.ark:1145938
fskp0_sx378 quick_test/mfcc/raw_mfcc_train.2.ark:172489
mmjb1_si778 quick_test/mfcc/raw_mfcc_train.3.ark:3121417
mnet0_sx6 quick_test/mfcc/raw_mfcc_train.3.ark:3466551
mkes0_sx263 quick_test/mfcc/raw_mfcc_train.3.ark:2097608
mdcd0_si1415 quick_test/mfcc/raw_mfcc_train.2.ark:2090348
fmkc0_si1041 quick_test/mfcc/raw_mfcc_train.1.ark:2986119
msfv0_si632 quick_test/mfcc/raw_mfcc_train.4.ark:2041253
fsak0_sx220 quick_test/mfcc/raw_mfcc_train.1.ark:3642868
mjai0_si682 quick_test/mfcc/raw_mfcc_train.3.ark:614658
mdlr0_sx153 quick_test/mfcc/raw_mfcc_train.2.ark:2620747
mrab1_sx38 quick_test/mfcc/raw_mfcc_train.4.ark:241846
mkam0_sx416 quick_test/mfcc/raw_mfcc_train.3.ark:1971894
mejl0_sx242 quick_test/mfcc/raw_mfcc_train.2.ark:3262286
mljc0_sx415 quick_test/mfcc/raw_mfcc_train.3.ark:2457104
mjrk0_sx160 quick_test/mfcc/raw_mfcc_train.3.ark:1587617
mbgt0_sx441 quick_test/mfcc/raw_mfcc_train.2.ark:1184177
mtat1_sx419 quick_test/mfcc/raw_mfcc_train.4.ark:2464111
mhbs0_sx405 quick_test/mfcc/raw_mfcc_train.3.ark:322315
mdsj0_sx292 quick_test/mfcc/raw_mfcc_train.2.ark:2926696
flmc0_sx112 quick_test/mfcc/raw_mfcc_train.1.ark:2669085
mdjm0_si1455 quick_test/mfcc/raw_mfcc_train.2.ark:2349062
fmem0_si747 quick_test/mfcc/raw_mfcc_train.1.ark:2858208
mrai0_sx252 quick_test/mfcc/raw_mfcc_train.4.ark:268774
fsag0_si1323 quick_test/mfcc/raw_mfcc_train.1.ark:3554416
mrwa0_si973 quick_test/mfcc/raw_mfcc_train.4.ark:1622388
mwsb0_si1626 quick_test/mfcc/raw_mfcc_train.4.ark:3710084
mdhs0_si900 quick_test/mfcc/raw_mfcc_train.2.ark:2326439
mchl0_si1347 quick_test/mfcc/raw_mfcc_train.2.ark:1677197
mwem0_si1950 quick_test/mfcc/raw_mfcc_train.4.ark:3587398
mrjm0_sx148 quick_test/mfcc/raw_mfcc_train.4.ark:929335
mtdb0_sx231 quick_test/mfcc/raw_mfcc_train.4.ark:2554995
mwdk0_sx266 quick_test/mfcc/raw_mfcc_train.4.ark:3565514
fbch0_sx326 quick_test/mfcc/raw_mfcc_train.1.ark:261393
mmdg0_sx430 quick_test/mfcc/raw_mfcc_train.3.ark:2869395
fdxw0_sx251 quick_test/mfcc/raw_mfcc_train.1.ark:1106705
mrld0_si2224 quick_test/mfcc/raw_mfcc_train.4.ark:1062771
mtml0_sx435 quick_test/mfcc/raw_mfcc_train.4.ark:2931311
mdlb0_sx406 quick_test/mfcc/raw_mfcc_train.2.ark:2442768
fcaj0_si1804 quick_test/mfcc/raw_mfcc_train.1.ark:441914
mdlc1_sx265 quick_test/mfcc/raw_mfcc_train.2.ark:2505503
mbbr0_sx425 quick_test/mfcc/raw_mfcc_train.2.ark:1094606
mdma0_sx440 quick_test/mfcc/raw_mfcc_train.2.ark:2706813
mejs0_sx250 quick_test/mfcc/raw_mfcc_train.2.ark:3295428
fpab1_sx301 quick_test/mfcc/raw_mfcc_train.1.ark:3216398
fsjk1_si1025 quick_test/mfcc/raw_mfcc_train.1.ark:3868386
mges0_sx311 quick_test/mfcc/raw_mfcc_train.3.ark:77345
mtrc0_si1623 quick_test/mfcc/raw_mfcc_train.4.ark:3177931
mmrp0_sx54 quick_test/mfcc/raw_mfcc_train.3.ark:3236581
mwsh0_sx76 quick_test/mfcc/raw_mfcc_train.4.ark:3772198
mpeb0_si1034 quick_test/mfcc/raw_mfcc_train.3.ark:3535827
fbmh0_sx146 quick_test/mfcc/raw_mfcc_train.1.ark:357491
msrg0_sx231 quick_test/mfcc/raw_mfcc_train.4.ark:2217740
mgsh0_si1806 quick_test/mfcc/raw_mfcc_train.3.ark:200006
mclk0_si650 quick_test/mfcc/raw_mfcc_train.2.ark:1717661
mclk0_sx310 quick_test/mfcc/raw_mfcc_train.2.ark:1733178
mrlj1_sx411 quick_test/mfcc/raw_mfcc_train.4.ark:1137242
mppc0_si782 quick_test/mfcc/raw_mfcc_train.3.ark:3752218
mbjv0_sx437 quick_test/mfcc/raw_mfcc_train.2.ark:1214108
mdbp0_sx168 quick_test/mfcc/raw_mfcc_train.2.ark:2069474
mmgc0_si1935 quick_test/mfcc/raw_mfcc_train.3.ark:3031134
mdks0_sx436 quick_test/mfcc/raw_mfcc_train.2.ark:2405154
fmju0_sx309 quick_test/mfcc/raw_mfcc_train.1.ark:2974086
mgak0_sx136 quick_test/mfcc/raw_mfcc_train.2.ark:3655127
mejl0_sx422 quick_test/mfcc/raw_mfcc_train.2.ark:3269918
mmdm0_sx231 quick_test/mfcc/raw_mfcc_train.3.ark:2893397
fkkh0_sx30 quick_test/mfcc/raw_mfcc_train.1.ark:2183717
frjb0_sx77 quick_test/mfcc/raw_mfcc_train.1.ark:3518784
mcdd0_sx343 quick_test/mfcc/raw_mfcc_train.2.ark:1557704
mbml0_sx89 quick_test/mfcc/raw_mfcc_train.2.ark:1312747
fdfb0_si1318 quick_test/mfcc/raw_mfcc_train.1.ark:852123
fsrh0_si1931 quick_test/mfcc/raw_mfcc_train.2.ark:348161
mafm0_sx39 quick_test/mfcc/raw_mfcc_train.2.ark:837305
mgsh0_si1176 quick_test/mfcc/raw_mfcc_train.3.ark:193849
msvs0_sx218 quick_test/mfcc/raw_mfcc_train.4.ark:2319660
mdsj0_sx22 quick_test/mfcc/raw_mfcc_train.2.ark:2923608
mlbc0_si609 quick_test/mfcc/raw_mfcc_train.3.ark:2372046
mhit0_si2243 quick_test/mfcc/raw_mfcc_train.3.ark:332776
fjhk0_sx32 quick_test/mfcc/raw_mfcc_train.1.ark:1678480
mtkd0_si1187 quick_test/mfcc/raw_mfcc_train.4.ark:2774636
fgmb0_si1145 quick_test/mfcc/raw_mfcc_train.1.ark:1432507
mrfl0_sx166 quick_test/mfcc/raw_mfcc_train.4.ark:713402
mjwg0_sx175 quick_test/mfcc/raw_mfcc_train.3.ark:1694452
mdbb1_si1636 quick_test/mfcc/raw_mfcc_train.2.ark:2030675
mrhl0_si2145 quick_test/mfcc/raw_mfcc_train.4.ark:812617
mchl0_si1404 quick_test/mfcc/raw_mfcc_train.2.ark:1683848
mjrh0_sx315 quick_test/mfcc/raw_mfcc_train.3.ark:1533905
fsgf0_sx387 quick_test/mfcc/raw_mfcc_train.1.ark:3820572
fspm0_sx71 quick_test/mfcc/raw_mfcc_train.2.ark:343101
ftlg0_sx303 quick_test/mfcc/raw_mfcc_train.2.ark:526339
fcdr1_si556 quick_test/mfcc/raw_mfcc_train.1.ark:482135
msas0_sx26 quick_test/mfcc/raw_mfcc_train.4.ark:1759631
mrso0_si2289 quick_test/mfcc/raw_mfcc_train.4.ark:1448553
fnkl0_si892 quick_test/mfcc/raw_mfcc_train.1.ark:3134377
mtdp0_sx351 quick_test/mfcc/raw_mfcc_train.4.ark:2591954
mrmg0_si1080 quick_test/mfcc/raw_mfcc_train.4.ark:1237748
mrdm0_sx65 quick_test/mfcc/raw_mfcc_train.4.ark:505627
fsah0_sx344 quick_test/mfcc/raw_mfcc_train.1.ark:3617819
mjbg0_sx62 quick_test/mfcc/raw_mfcc_train.3.ark:671918
mvrw0_sx45 quick_test/mfcc/raw_mfcc_train.4.ark:3421635
fsdc0_sx52 quick_test/mfcc/raw_mfcc_train.1.ark:3759813
mrdm0_si1044 quick_test/mfcc/raw_mfcc_train.4.ark:476640
mmxs0_si629 quick_test/mfcc/raw_mfcc_train.3.ark:3416957
mbcg0_si2217 quick_test/mfcc/raw_mfcc_train.2.ark:1100145
