mjeb1_sx117 quick_test/data-fmllr-tri3/train/data/feats_fmllr_train.6.ark:10627549
mdpk0_sx153 quick_test/data-fmllr-tri3/train/data/feats_fmllr_train.5.ark:7182723
mjma0_sx415 quick_test/data-fmllr-tri3/train/data/feats_fmllr_train.6.ark:15339035
fvkb0_sx349 quick_test/data-fmllr-tri3/train/data/feats_fmllr_train.3.ark:16318486
fblv0_sx338 quick_test/data-fmllr-tri3/train/data/feats_fmllr_train.1.ark:3930739
mree0_sx294 quick_test/data-fmllr-tri3/train/data/feats_fmllr_train.8.ark:15441921
mdps0_si719 quick_test/data-fmllr-tri3/train/data/feats_fmllr_train.5.ark:7496193
ftlg0_sx33 quick_test/data-fmllr-tri3/train/data/feats_fmllr_train.3.ark:15299620
mtrc0_sx183 quick_test/data-fmllr-tri3/train/data/feats_fmllr_train.10.ark:10667364
feme0_sx335 quick_test/data-fmllr-tri3/train/data/feats_fmllr_train.1.ark:15255278
mcss0_si688 quick_test/data-fmllr-tri3/train/data/feats_fmllr_train.4.ark:12901019
mgxp0_sx277 quick_test/data-fmllr-tri3/train/data/feats_fmllr_train.6.ark:3377216
mmsm0_sx116 quick_test/data-fmllr-tri3/train/data/feats_fmllr_train.8.ark:2748016
fpaf0_sx154 quick_test/data-fmllr-tri3/train/data/feats_fmllr_train.3.ark:2192060
fdaw0_sx146 quick_test/data-fmllr-tri3/train/data/feats_fmllr_train.1.ark:9925199
fsbk0_sx349 quick_test/data-fmllr-tri3/train/data/feats_fmllr_train.3.ark:6559940
mddc0_si1419 quick_test/data-fmllr-tri3/train/data/feats_fmllr_train.4.ark:16649879
mrtj0_si1551 quick_test/data-fmllr-tri3/train/data/feats_fmllr_train.9.ark:9173806
mrfl0_sx166 quick_test/data-fmllr-tri3/train/data/feats_fmllr_train.8.ark:17226126
mjfr0_sx255 quick_test/data-fmllr-tri3/train/data/feats_fmllr_train.6.ark:11723427
mbef0_sx291 quick_test/data-fmllr-tri3/train/data/feats_fmllr_train.4.ark:4720222
fmpg0_sx342 quick_test/data-fmllr-tri3/train/data/feats_fmllr_train.2.ark:18230720
mrfl0_si1156 quick_test/data-fmllr-tri3/train/data/feats_fmllr_train.8.ark:17052284
fpad0_sx446 quick_test/data-fmllr-tri3/train/data/feats_fmllr_train.3.ark:1943923
mesj0_sx367 quick_test/data-fmllr-tri3/train/data/feats_fmllr_train.5.ark:13586624
mlel0_sx346 quick_test/data-fmllr-tri3/train/data/feats_fmllr_train.7.ark:10786329
mdbp0_sx168 quick_test/data-fmllr-tri3/train/data/feats_fmllr_train.4.ark:15640190
fjen0_sx417 quick_test/data-fmllr-tri3/train/data/feats_fmllr_train.2.ark:747115
mdef0_sx33 quick_test/data-fmllr-tri3/train/data/feats_fmllr_train.5.ark:274256
fajw0_si633 quick_test/data-fmllr-tri3/train/data/feats_fmllr_train.1.ark:512445
mhjb0_sx27 quick_test/data-fmllr-tri3/train/data/feats_fmllr_train.6.ark:4506372
makr0_si1352 quick_test/data-fmllr-tri3/train/data/feats_fmllr_train.4.ark:1956301
mcew0_sx92 quick_test/data-fmllr-tri3/train/data/feats_fmllr_train.4.ark:10922598
fgcs0_sx406 quick_test/data-fmllr-tri3/train/data/feats_fmllr_train.1.ark:16522197
mrld0_sx244 quick_test/data-fmllr-tri3/train/data/feats_fmllr_train.9.ark:3565215
mbcg0_sx147 quick_test/data-fmllr-tri3/train/data/feats_fmllr_train.4.ark:4247285
mdks0_si2326 quick_test/data-fmllr-tri3/train/data/feats_fmllr_train.5.ark:1990114
msmr0_sx55 quick_test/data-fmllr-tri3/train/data/feats_fmllr_train.9.ark:16555505
mlbc0_sx339 quick_test/data-fmllr-tri3/train/data/feats_fmllr_train.7.ark:10368992
mprt0_sx310 quick_test/data-fmllr-tri3/train/data/feats_fmllr_train.8.ark:10507550
msfh0_sx316 quick_test/data-fmllr-tri3/train/data/feats_fmllr_train.9.ark:14820025
fsma0_sx271 quick_test/data-fmllr-tri3/train/data/feats_fmllr_train.3.ark:11689775
fcjs0_sx257 quick_test/data-fmllr-tri3/train/data/feats_fmllr_train.1.ark:6859168
fcmm0_sx183 quick_test/data-fmllr-tri3/train/data/feats_fmllr_train.1.ark:8344010
mdpb0_si1760 quick_test/data-fmllr-tri3/train/data/feats_fmllr_train.5.ark:6661944
mrds0_si1797 quick_test/data-fmllr-tri3/train/data/feats_fmllr_train.8.ark:14817409
mrjt0_sx238 quick_test/data-fmllr-tri3/train/data/feats_fmllr_train.9.ark:2674063
flja0_si1078 quick_test/data-fmllr-tri3/train/data/feats_fmllr_train.2.ark:10780920
fpac0_si1921 quick_test/data-fmllr-tri3/train/data/feats_fmllr_train.3.ark:1188503
mbbr0_si1055 quick_test/data-fmllr-tri3/train/data/feats_fmllr_train.4.ark:3752266
mjwg0_si2155 quick_test/data-fmllr-tri3/train/data/feats_fmllr_train.7.ark:1951819
msem1_si2070 quick_test/data-fmllr-tri3/train/data/feats_fmllr_train.9.ark:13710842
faem0_sx402 quick_test/data-fmllr-tri3/train/data/feats_fmllr_train.1.ark:304336
mmgg0_si1079 quick_test/data-fmllr-tri3/train/data/feats_fmllr_train.8.ark:354791
mrlj0_si2050 quick_test/data-fmllr-tri3/train/data/feats_fmllr_train.9.ark:3764391
msms0_sx353 quick_test/data-fmllr-tri3/train/data/feats_fmllr_train.9.ark:16854069
mrab0_sx234 quick_test/data-fmllr-tri3/train/data/feats_fmllr_train.8.ark:11114837
mwgr0_si976 quick_test/data-fmllr-tri3/train/data/feats_fmllr_train.10.ark:15736113
mjjj0_sx353 quick_test/data-fmllr-tri3/train/data/feats_fmllr_train.6.ark:13027145
fjrb0_si1932 quick_test/data-fmllr-tri3/train/data/feats_fmllr_train.2.ark:2443267
mrdm0_sx155 quick_test/data-fmllr-tri3/train/data/feats_fmllr_train.8.ark:14560766
mntw0_sx258 quick_test/data-fmllr-tri3/train/data/feats_fmllr_train.8.ark:5584627
mpar0_si1576 quick_test/data-fmllr-tri3/train/data/feats_fmllr_train.8.ark:5741028
fcrz0_si1913 quick_test/data-fmllr-tri3/train/data/feats_fmllr_train.1.ark:8563505
mmrp0_sx54 quick_test/data-fmllr-tri3/train/data/feats_fmllr_train.8.ark:2506466
mtpg0_sx213 quick_test/data-fmllr-tri3/train/data/feats_fmllr_train.10.ark:9004097
mrab0_si1224 quick_test/data-fmllr-tri3/train/data/feats_fmllr_train.8.ark:10934728
fblv0_si1688 quick_test/data-fmllr-tri3/train/data/feats_fmllr_train.1.ark:3716870
fvkb0_sx439 quick_test/data-fmllr-tri3/train/data/feats_fmllr_train.3.ark:16395953
mrjb1_si2021 quick_test/data-fmllr-tri3/train/data/feats_fmllr_train.9.ark:923541
fmah1_sx429 quick_test/data-fmllr-tri3/train/data/feats_fmllr_train.2.ark:14618559
mwrp0_sx273 quick_test/data-fmllr-tri3/train/data/feats_fmllr_train.10.ark:16633883
fgrw0_si1990 quick_test/data-fmllr-tri3/train/data/feats_fmllr_train.1.ark:17649781
mjda0_sx401 quick_test/data-fmllr-tri3/train/data/feats_fmllr_train.6.ark:8273528
mbbr0_sx335 quick_test/data-fmllr-tri3/train/data/feats_fmllr_train.4.ark:3979923
msfh0_sx406 quick_test/data-fmllr-tri3/train/data/feats_fmllr_train.9.ark:14863412
mjda0_si1661 quick_test/data-fmllr-tri3/train/data/feats_fmllr_train.6.ark:8058992
mrhl0_si1515 quick_test/data-fmllr-tri3/train/data/feats_fmllr_train.9.ark:433028
mprd0_si801 quick_test/data-fmllr-tri3/train/data/feats_fmllr_train.8.ark:9472156
mtdb0_sx411 quick_test/data-fmllr-tri3/train/data/feats_fmllr_train.10.ark:3126815
mrmh0_sx31 quick_test/data-fmllr-tri3/train/data/feats_fmllr_train.9.ark:6190790
mhxl0_si612 quick_test/data-fmllr-tri3/train/data/feats_fmllr_train.6.ark:5812439
ftmg0_si902 quick_test/data-fmllr-tri3/train/data/feats_fmllr_train.3.ark:15446930
fskl0_si899 quick_test/data-fmllr-tri3/train/data/feats_fmllr_train.3.ark:10459789
mmdm0_sx411 quick_test/data-fmllr-tri3/train/data/feats_fmllr_train.7.ark:16521715
mrav0_sx378 quick_test/data-fmllr-tri3/train/data/feats_fmllr_train.8.ark:12811947
mtkp0_sx123 quick_test/data-fmllr-tri3/train/data/feats_fmllr_train.10.ark:6293590
fjxp0_si1122 quick_test/data-fmllr-tri3/train/data/feats_fmllr_train.2.ark:4841021
mrtc0_sx108 quick_test/data-fmllr-tri3/train/data/feats_fmllr_train.9.ark:8931591
mrai0_si1954 quick_test/data-fmllr-tri3/train/data/feats_fmllr_train.8.ark:11715162
feac0_sx345 quick_test/data-fmllr-tri3/train/data/feats_fmllr_train.1.ark:13598250
mcae0_si817 quick_test/data-fmllr-tri3/train/data/feats_fmllr_train.4.ark:8285644
flod0_sx387 quick_test/data-fmllr-tri3/train/data/feats_fmllr_train.2.ark:13891750
mrav0_sx18 quick_test/data-fmllr-tri3/train/data/feats_fmllr_train.8.ark:12694906
mdcm0_sx400 quick_test/data-fmllr-tri3/train/data/feats_fmllr_train.4.ark:16606491
mclm0_sx106 quick_test/data-fmllr-tri3/train/data/feats_fmllr_train.4.ark:11917383
mbjv0_sx347 quick_test/data-fmllr-tri3/train/data/feats_fmllr_train.4.ark:5408630
fdmy0_sx117 quick_test/data-fmllr-tri3/train/data/feats_fmllr_train.1.ark:11877326
mchl0_sx267 quick_test/data-fmllr-tri3/train/data/feats_fmllr_train.4.ark:11182576
mesg0_sx162 quick_test/data-fmllr-tri3/train/data/feats_fmllr_train.5.ark:13121073
freh0_si1945 quick_test/data-fmllr-tri3/train/data/feats_fmllr_train.3.ark:4065889
fmkc0_sx442 quick_test/data-fmllr-tri3/train/data/feats_fmllr_train.2.ark:17034900
fmju0_sx129 quick_test/data-fmllr-tri3/train/data/feats_fmllr_train.2.ark:16491241
mapv0_sx393 quick_test/data-fmllr-tri3/train/data/feats_fmllr_train.4.ark:2621347
mmeb0_sx7 quick_test/data-fmllr-tri3/train/data/feats_fmllr_train.7.ark:17925141
mrmg0_sx270 quick_test/data-fmllr-tri3/train/data/feats_fmllr_train.9.ark:5704919
mtrr0_si918 quick_test/data-fmllr-tri3/train/data/feats_fmllr_train.10.ark:10884327
mrds0_sx357 quick_test/data-fmllr-tri3/train/data/feats_fmllr_train.8.ark:15008237
fear0_si1882 quick_test/data-fmllr-tri3/train/data/feats_fmllr_train.1.ark:13784759
mdsj0_sx292 quick_test/data-fmllr-tri3/train/data/feats_fmllr_train.5.ark:8430627
mtas0_sx125 quick_test/data-fmllr-tri3/train/data/feats_fmllr_train.10.ark:1057809
fcmg0_sx432 quick_test/data-fmllr-tri3/train/data/feats_fmllr_train.1.ark:8087074
mkrg0_sx31 quick_test/data-fmllr-tri3/train/data/feats_fmllr_train.7.ark:9650157
mjdc0_si2165 quick_test/data-fmllr-tri3/train/data/feats_fmllr_train.6.ark:8408490
mjrh1_sx334 quick_test/data-fmllr-tri3/train/data/feats_fmllr_train.7.ark:646287
msds0_si1707 quick_test/data-fmllr-tri3/train/data/feats_fmllr_train.9.ark:13282464
fjlr0_sx241 quick_test/data-fmllr-tri3/train/data/feats_fmllr_train.2.ark:2187931
maeo0_si1326 quick_test/data-fmllr-tri3/train/data/feats_fmllr_train.4.ark:368870
mdlh0_si574 quick_test/data-fmllr-tri3/train/data/feats_fmllr_train.5.ark:3964132
msrg0_sx231 quick_test/data-fmllr-tri3/train/data/feats_fmllr_train.9.ark:17180979
mljc0_si595 quick_test/data-fmllr-tri3/train/data/feats_fmllr_train.7.ark:11057825
mrai0_sx162 quick_test/data-fmllr-tri3/train/data/feats_fmllr_train.8.ark:11888204
flhd0_sx264 quick_test/data-fmllr-tri3/train/data/feats_fmllr_train.2.ark:10600492
mpfu0_sx88 quick_test/data-fmllr-tri3/train/data/feats_fmllr_train.8.ark:6765171
fksr0_sx217 quick_test/data-fmllr-tri3/train/data/feats_fmllr_train.2.ark:8679245
mdwm0_si1546 quick_test/data-fmllr-tri3/train/data/feats_fmllr_train.5.ark:10394195
mgsh0_sx186 quick_test/data-fmllr-tri3/train/data/feats_fmllr_train.6.ark:2530706
mwsh0_si1426 quick_test/data-fmllr-tri3/train/data/feats_fmllr_train.10.ark:17135164
fmmh0_sx7 quick_test/data-fmllr-tri3/train/data/feats_fmllr_train.2.ark:17844290
mwac0_si971 quick_test/data-fmllr-tri3/train/data/feats_fmllr_train.10.ark:13532087
mbwp0_sx259 quick_test/data-fmllr-tri3/train/data/feats_fmllr_train.4.ark:7873961
mcae0_sx367 quick_test/data-fmllr-tri3/train/data/feats_fmllr_train.4.ark:8442685
mwsb0_sx186 quick_test/data-fmllr-tri3/train/data/feats_fmllr_train.10.ark:16945271
mkrg0_si861 quick_test/data-fmllr-tri3/train/data/feats_fmllr_train.7.ark:9513917
mtrt0_sx57 quick_test/data-fmllr-tri3/train/data/feats_fmllr_train.10.ark:11511558
mjfh0_si1737 quick_test/data-fmllr-tri3/train/data/feats_fmllr_train.6.ark:11256729
mewm0_sx178 quick_test/data-fmllr-tri3/train/data/feats_fmllr_train.5.ark:13798785
fapb0_sx163 quick_test/data-fmllr-tri3/train/data/feats_fmllr_train.1.ark:1767839
mstf0_sx46 quick_test/data-fmllr-tri3/train/data/feats_fmllr_train.9.ark:18104851
mjsr0_si794 quick_test/data-fmllr-tri3/train/data/feats_fmllr_train.7.ark:1606217
mjlg1_sx112 quick_test/data-fmllr-tri3/train/data/feats_fmllr_train.6.ark:14454840
majp0_sx174 quick_test/data-fmllr-tri3/train/data/feats_fmllr_train.4.ark:1219468
mabc0_si2041 quick_test/data-fmllr-tri3/train/data/feats_fmllr_train.3.ark:16875292
mcdc0_sx392 quick_test/data-fmllr-tri3/train/data/feats_fmllr_train.4.ark:9299810
mdns0_sx111 quick_test/data-fmllr-tri3/train/data/feats_fmllr_train.5.ark:6466449
mmxs0_sx156 quick_test/data-fmllr-tri3/train/data/feats_fmllr_train.8.ark:4748940
mbar0_si1949 quick_test/data-fmllr-tri3/train/data/feats_fmllr_train.4.ark:3436877
marw0_si646 quick_test/data-fmllr-tri3/train/data/feats_fmllr_train.4.ark:3050287
mkln0_sx428 quick_test/data-fmllr-tri3/train/data/feats_fmllr_train.7.ark:7766857
mjai0_si1604 quick_test/data-fmllr-tri3/train/data/feats_fmllr_train.6.ark:7268130
mrcw0_si741 quick_test/data-fmllr-tri3/train/data/feats_fmllr_train.8.ark:13797904
fpac0_sx391 quick_test/data-fmllr-tri3/train/data/feats_fmllr_train.3.ark:1566772
mrdd0_si1050 quick_test/data-fmllr-tri3/train/data/feats_fmllr_train.8.ark:14046066
feme0_sx65 quick_test/data-fmllr-tri3/train/data/feats_fmllr_train.1.ark:15377251
fklc0_sx265 quick_test/data-fmllr-tri3/train/data/feats_fmllr_train.2.ark:7527073
mfxs0_si2304 quick_test/data-fmllr-tri3/train/data/feats_fmllr_train.5.ark:15562565
mges0_sx311 quick_test/data-fmllr-tri3/train/data/feats_fmllr_train.6.ark:916904
mjda0_sx311 quick_test/data-fmllr-tri3/train/data/feats_fmllr_train.6.ark:8217981
mtpr0_sx160 quick_test/data-fmllr-tri3/train/data/feats_fmllr_train.10.ark:9679544
mjrh1_sx154 quick_test/data-fmllr-tri3/train/data/feats_fmllr_train.7.ark:547833
fjwb1_si748 quick_test/data-fmllr-tri3/train/data/feats_fmllr_train.2.ark:4078695
mbma1_sx324 quick_test/data-fmllr-tri3/train/data/feats_fmllr_train.4.ark:6153224
mjrk0_si880 quick_test/data-fmllr-tri3/train/data/feats_fmllr_train.7.ark:818903
fbch0_si959 quick_test/data-fmllr-tri3/train/data/feats_fmllr_train.1.ark:2955823
mtas0_sx305 quick_test/data-fmllr-tri3/train/data/feats_fmllr_train.10.ark:1132423
mmwb0_si2249 quick_test/data-fmllr-tri3/train/data/feats_fmllr_train.8.ark:3483917
mbar0_sx59 quick_test/data-fmllr-tri3/train/data/feats_fmllr_train.4.ark:3722158
mbar0_sx329 quick_test/data-fmllr-tri3/train/data/feats_fmllr_train.4.ark:3620025
msdh0_sx170 quick_test/data-fmllr-tri3/train/data/feats_fmllr_train.9.ark:12916221
fsak0_sx40 quick_test/data-fmllr-tri3/train/data/feats_fmllr_train.3.ark:6244388
mmds0_si713 quick_test/data-fmllr-tri3/train/data/feats_fmllr_train.7.ark:17098841
fsdc0_sx232 quick_test/data-fmllr-tri3/train/data/feats_fmllr_train.3.ark:7404827
mpeb0_sx150 quick_test/data-fmllr-tri3/train/data/feats_fmllr_train.8.ark:6184527
mrav0_si1638 quick_test/data-fmllr-tri3/train/data/feats_fmllr_train.8.ark:12541065
msem1_sx450 quick_test/data-fmllr-tri3/train/data/feats_fmllr_train.9.ark:14056257
fcag0_sx153 quick_test/data-fmllr-tri3/train/data/feats_fmllr_train.1.ark:4988456
fhlm0_sx349 quick_test/data-fmllr-tri3/train/data/feats_fmllr_train.1.ark:18235386
mfwk0_si1249 quick_test/data-fmllr-tri3/train/data/feats_fmllr_train.5.ark:15124372
mtkp0_sx213 quick_test/data-fmllr-tri3/train/data/feats_fmllr_train.10.ark:6340337
mkdb0_si2132 quick_test/data-fmllr-tri3/train/data/feats_fmllr_train.7.ark:5552331
mmdg0_sx250 quick_test/data-fmllr-tri3/train/data/feats_fmllr_train.7.ark:16043524
mtpg0_sx303 quick_test/data-fmllr-tri3/train/data/feats_fmllr_train.10.ark:9043484
fsjg0_sx130 quick_test/data-fmllr-tri3/train/data/feats_fmllr_train.3.ark:8493131
msfv0_sx272 quick_test/data-fmllr-tri3/train/data/feats_fmllr_train.9.ark:15196855
mapv0_si663 quick_test/data-fmllr-tri3/train/data/feats_fmllr_train.4.ark:2364733
mtqc0_sx271 quick_test/data-fmllr-tri3/train/data/feats_fmllr_train.10.ark:10227148
mrlk0_si1468 quick_test/data-fmllr-tri3/train/data/feats_fmllr_train.9.ark:4399358
fdml0_si2075 quick_test/data-fmllr-tri3/train/data/feats_fmllr_train.1.ark:11379483
fskl0_si1529 quick_test/data-fmllr-tri3/train/data/feats_fmllr_train.3.ark:10349654
flag0_si1464 quick_test/data-fmllr-tri3/train/data/feats_fmllr_train.2.ark:9220850
fjkl0_sx122 quick_test/data-fmllr-tri3/train/data/feats_fmllr_train.2.ark:1371469
fcjf0_si648 quick_test/data-fmllr-tri3/train/data/feats_fmllr_train.1.ark:6493137
mgsh0_si1176 quick_test/data-fmllr-tri3/train/data/feats_fmllr_train.6.ark:2305957
ftbw0_sx355 quick_test/data-fmllr-tri3/train/data/feats_fmllr_train.3.ark:14854098
meal0_sx377 quick_test/data-fmllr-tri3/train/data/feats_fmllr_train.5.ark:11042922
mrlj0_sx430 quick_test/data-fmllr-tri3/train/data/feats_fmllr_train.9.ark:3989966
mmpm0_sx251 quick_test/data-fmllr-tri3/train/data/feats_fmllr_train.8.ark:1955770
mdas0_sx186 quick_test/data-fmllr-tri3/train/data/feats_fmllr_train.4.ark:14936558
mtjg0_sx440 quick_test/data-fmllr-tri3/train/data/feats_fmllr_train.10.ark:4377226
mcal0_sx328 quick_test/data-fmllr-tri3/train/data/feats_fmllr_train.4.ark:8808980
mdjm0_si1455 quick_test/data-fmllr-tri3/train/data/feats_fmllr_train.5.ark:1555441
mrkm0_si1267 quick_test/data-fmllr-tri3/train/data/feats_fmllr_train.9.ark:2892731
mhjb0_sx387 quick_test/data-fmllr-tri3/train/data/feats_fmllr_train.6.ark:4566106
mlsh0_si1417 quick_test/data-fmllr-tri3/train/data/feats_fmllr_train.7.ark:12180661
fjwb1_sx435 quick_test/data-fmllr-tri3/train/data/feats_fmllr_train.2.ark:4311790
mrms0_si1113 quick_test/data-fmllr-tri3/train/data/feats_fmllr_train.9.ark:6741622
mram0_sx285 quick_test/data-fmllr-tri3/train/data/feats_fmllr_train.8.ark:12416502
mtrc0_sx273 quick_test/data-fmllr-tri3/train/data/feats_fmllr_train.10.ark:10704511
fjdm2_sx412 quick_test/data-fmllr-tri3/train/data/feats_fmllr_train.2.ark:317937
fsjw0_sx73 quick_test/data-fmllr-tri3/train/data/feats_fmllr_train.3.ark:9944449
fceg0_sx348 quick_test/data-fmllr-tri3/train/data/feats_fmllr_train.1.ark:6262121
maeo0_sx336 quick_test/data-fmllr-tri3/train/data/feats_fmllr_train.4.ark:593327
fdfb0_sx418 quick_test/data-fmllr-tri3/train/data/feats_fmllr_train.1.ark:10376538
mjsr0_sx254 quick_test/data-fmllr-tri3/train/data/feats_fmllr_train.7.ark:1744191
mhjb0_sx297 quick_test/data-fmllr-tri3/train/data/feats_fmllr_train.6.ark:4537759
mdbb1_si1636 quick_test/data-fmllr-tri3/train/data/feats_fmllr_train.4.ark:15179278
fmjb0_sx277 quick_test/data-fmllr-tri3/train/data/feats_fmllr_train.2.ark:15742836
frjb0_sx347 quick_test/data-fmllr-tri3/train/data/feats_fmllr_train.3.ark:4535975
frjb0_si1470 quick_test/data-fmllr-tri3/train/data/feats_fmllr_train.3.ark:4395066
mfer0_sx412 quick_test/data-fmllr-tri3/train/data/feats_fmllr_train.5.ark:14270283
mljc0_sx145 quick_test/data-fmllr-tri3/train/data/feats_fmllr_train.7.ark:11102492
mstf0_sx136 quick_test/data-fmllr-tri3/train/data/feats_fmllr_train.9.ark:17891624
mrws0_sx202 quick_test/data-fmllr-tri3/train/data/feats_fmllr_train.9.ark:10555206
mwdk0_sx266 quick_test/data-fmllr-tri3/train/data/feats_fmllr_train.10.ark:15078132
fpls0_sx60 quick_test/data-fmllr-tri3/train/data/feats_fmllr_train.3.ark:3512016
mpgr1_si1269 quick_test/data-fmllr-tri3/train/data/feats_fmllr_train.8.ark:7506592
fmkc0_sx262 quick_test/data-fmllr-tri3/train/data/feats_fmllr_train.2.ark:16927646
fclt0_si808 quick_test/data-fmllr-tri3/train/data/feats_fmllr_train.1.ark:7470268
mrcg0_si1428 quick_test/data-fmllr-tri3/train/data/feats_fmllr_train.8.ark:13228352
mjae0_sx264 quick_test/data-fmllr-tri3/train/data/feats_fmllr_train.6.ark:7044822
mrew1_sx150 quick_test/data-fmllr-tri3/train/data/feats_fmllr_train.8.ark:16467611
maeo0_si1655 quick_test/data-fmllr-tri3/train/data/feats_fmllr_train.4.ark:435138
mdwd0_si1890 quick_test/data-fmllr-tri3/train/data/feats_fmllr_train.5.ark:9647549
mjdg0_sx322 quick_test/data-fmllr-tri3/train/data/feats_fmllr_train.6.ark:9492392
mrjm1_si1928 quick_test/data-fmllr-tri3/train/data/feats_fmllr_train.9.ark:2162245
fgdp0_sx88 quick_test/data-fmllr-tri3/train/data/feats_fmllr_train.1.ark:16985640
mbma1_sx54 quick_test/data-fmllr-tri3/train/data/feats_fmllr_train.4.ark:6271197
mdbb1_si1006 quick_test/data-fmllr-tri3/train/data/feats_fmllr_train.4.ark:15118290
mbom0_sx294 quick_test/data-fmllr-tri3/train/data/feats_fmllr_train.4.ark:6880379
mfxs0_sx54 quick_test/data-fmllr-tri3/train/data/feats_fmllr_train.5.ark:15812619
mjlb0_sx356 quick_test/data-fmllr-tri3/train/data/feats_fmllr_train.6.ark:14183796
mhmg0_sx195 quick_test/data-fmllr-tri3/train/data/feats_fmllr_train.6.ark:4844029
faem0_si762 quick_test/data-fmllr-tri3/train/data/feats_fmllr_train.1.ark:111588
mejl0_sx152 quick_test/data-fmllr-tri3/train/data/feats_fmllr_train.5.ark:12376479
fsls0_si1056 quick_test/data-fmllr-tri3/train/data/feats_fmllr_train.3.ark:11094088
fcjf0_sx397 quick_test/data-fmllr-tri3/train/data/feats_fmllr_train.1.ark:6661431
mtat0_si1740 quick_test/data-fmllr-tri3/train/data/feats_fmllr_train.10.ark:1314132
mnet0_si2076 quick_test/data-fmllr-tri3/train/data/feats_fmllr_train.8.ark:5047983
mtkp0_si454 quick_test/data-fmllr-tri3/train/data/feats_fmllr_train.10.ark:6223643
mcre0_si1751 quick_test/data-fmllr-tri3/train/data/feats_fmllr_train.4.ark:12538431
mesj0_si2257 quick_test/data-fmllr-tri3/train/data/feats_fmllr_train.5.ark:13431316
fapb0_si2323 quick_test/data-fmllr-tri3/train/data/feats_fmllr_train.1.ark:1679812
mfxv0_si1005 quick_test/data-fmllr-tri3/train/data/feats_fmllr_train.5.ark:15867527
mtlb0_sx414 quick_test/data-fmllr-tri3/train/data/feats_fmllr_train.10.ark:6790688
mdlc0_sx135 quick_test/data-fmllr-tri3/train/data/feats_fmllr_train.5.ark:2968815
mmpm0_si1691 quick_test/data-fmllr-tri3/train/data/feats_fmllr_train.8.ark:1803688
mreh1_si969 quick_test/data-fmllr-tri3/train/data/feats_fmllr_train.8.ark:15629231
mjfh0_sx27 quick_test/data-fmllr-tri3/train/data/feats_fmllr_train.6.ark:11421956
msds0_si2337 quick_test/data-fmllr-tri3/train/data/feats_fmllr_train.9.ark:13337052
fbch0_sx56 quick_test/data-fmllr-tri3/train/data/feats_fmllr_train.1.ark:3228117
fajw0_sx183 quick_test/data-fmllr-tri3/train/data/feats_fmllr_train.1.ark:591032
madc0_sx17 quick_test/data-fmllr-tri3/train/data/feats_fmllr_train.3.ark:17420549
mtjs0_sx382 quick_test/data-fmllr-tri3/train/data/feats_fmllr_train.10.ark:5239766
mwar0_sx325 quick_test/data-fmllr-tri3/train/data/feats_fmllr_train.10.ark:14414204
mrai0_si2052 quick_test/data-fmllr-tri3/train/data/feats_fmllr_train.8.ark:11738870
fvkb0_sx259 quick_test/data-fmllr-tri3/train/data/feats_fmllr_train.3.ark:16264699
mcdd0_si1513 quick_test/data-fmllr-tri3/train/data/feats_fmllr_train.4.ark:9348798
fsak0_sx310 quick_test/data-fmllr-tri3/train/data/feats_fmllr_train.3.ark:6192042
fkdw0_sx397 quick_test/data-fmllr-tri3/train/data/feats_fmllr_train.2.ark:6385222
flmk0_sx135 quick_test/data-fmllr-tri3/train/data/feats_fmllr_train.2.ark:13358145
flet0_si507 quick_test/data-fmllr-tri3/train/data/feats_fmllr_train.2.ark:10154460
meal0_si2177 quick_test/data-fmllr-tri3/train/data/feats_fmllr_train.5.ark:10811080
marc0_sx288 quick_test/data-fmllr-tri3/train/data/feats_fmllr_train.4.ark:2883617
mrjh0_si914 quick_test/data-fmllr-tri3/train/data/feats_fmllr_train.9.ark:1389197
mtdp0_sx351 quick_test/data-fmllr-tri3/train/data/feats_fmllr_train.10.ark:3492766
mkdb0_sx152 quick_test/data-fmllr-tri3/train/data/feats_fmllr_train.7.ark:5688572
fsbk0_si1069 quick_test/data-fmllr-tri3/train/data/feats_fmllr_train.3.ark:6333883
mjlg1_si1642 quick_test/data-fmllr-tri3/train/data/feats_fmllr_train.6.ark:14346145
mbsb0_sx183 quick_test/data-fmllr-tri3/train/data/feats_fmllr_train.4.ark:7152703
mnet0_sx276 quick_test/data-fmllr-tri3/train/data/feats_fmllr_train.8.ark:5155264
marw0_sx349 quick_test/data-fmllr-tri3/train/data/feats_fmllr_train.4.ark:3247034
mrdd0_sx277 quick_test/data-fmllr-tri3/train/data/feats_fmllr_train.8.ark:14270843
mjkr0_sx121 quick_test/data-fmllr-tri3/train/data/feats_fmllr_train.6.ark:13724645
fscn0_si626 quick_test/data-fmllr-tri3/train/data/feats_fmllr_train.3.ark:6805968
fpls0_si960 quick_test/data-fmllr-tri3/train/data/feats_fmllr_train.3.ark:3288524
mmdg0_si2035 quick_test/data-fmllr-tri3/train/data/feats_fmllr_train.7.ark:15895283
mrlk0_si2140 quick_test/data-fmllr-tri3/train/data/feats_fmllr_train.9.ark:4472826
mmbs0_si1781 quick_test/data-fmllr-tri3/train/data/feats_fmllr_train.7.ark:14703912
mmgk0_sx152 quick_test/data-fmllr-tri3/train/data/feats_fmllr_train.8.ark:843891
mwac0_sx71 quick_test/data-fmllr-tri3/train/data/feats_fmllr_train.10.ark:13834941
mkdt0_si814 quick_test/data-fmllr-tri3/train/data/feats_fmllr_train.7.ark:6362391
mcre0_sx221 quick_test/data-fmllr-tri3/train/data/feats_fmllr_train.4.ark:12640245
mmea0_sx128 quick_test/data-fmllr-tri3/train/data/feats_fmllr_train.7.ark:17457805
mtrr0_sx108 quick_test/data-fmllr-tri3/train/data/feats_fmllr_train.10.ark:10950114
mmrp0_si2034 quick_test/data-fmllr-tri3/train/data/feats_fmllr_train.8.ark:2152358
freh0_sx145 quick_test/data-fmllr-tri3/train/data/feats_fmllr_train.3.ark:4171063
fbjl0_sx112 quick_test/data-fmllr-tri3/train/data/feats_fmllr_train.1.ark:3435587
mjxa0_sx67 quick_test/data-fmllr-tri3/train/data/feats_fmllr_train.7.ark:3561298
fbcg1_sx352 quick_test/data-fmllr-tri3/train/data/feats_fmllr_train.1.ark:2681928
mjlb0_si986 quick_test/data-fmllr-tri3/train/data/feats_fmllr_train.6.ark:14051555
mjee0_si607 quick_test/data-fmllr-tri3/train/data/feats_fmllr_train.6.ark:10931259
flja0_sx88 quick_test/data-fmllr-tri3/train/data/feats_fmllr_train.2.ark:11143990
mrdm0_si1044 quick_test/data-fmllr-tri3/train/data/feats_fmllr_train.8.ark:14410124
mrdm0_sx245 quick_test/data-fmllr-tri3/train/data/feats_fmllr_train.8.ark:14613913
mdlc2_sx84 quick_test/data-fmllr-tri3/train/data/feats_fmllr_train.5.ark:3858797
mdks0_sx436 quick_test/data-fmllr-tri3/train/data/feats_fmllr_train.5.ark:2222542
mclk0_sx220 quick_test/data-fmllr-tri3/train/data/feats_fmllr_train.4.ark:11588873
mdcm0_si850 quick_test/data-fmllr-tri3/train/data/feats_fmllr_train.4.ark:16382197
mjkr0_si1201 quick_test/data-fmllr-tri3/train/data/feats_fmllr_train.6.ark:13552563
mjda0_si1031 quick_test/data-fmllr-tri3/train/data/feats_fmllr_train.6.ark:8039444
mpgr0_si2040 quick_test/data-fmllr-tri3/train/data/feats_fmllr_train.8.ark:7217123
fjlr0_sx331 quick_test/data-fmllr-tri3/train/data/feats_fmllr_train.2.ark:2232438
fsdj0_sx305 quick_test/data-fmllr-tri3/train/data/feats_fmllr_train.3.ark:7800271
mded0_sx450 quick_test/data-fmllr-tri3/train/data/feats_fmllr_train.4.ark:17313459
mhrm0_sx418 quick_test/data-fmllr-tri3/train/data/feats_fmllr_train.6.ark:5609131
mwre0_sx67 quick_test/data-fmllr-tri3/train/data/feats_fmllr_train.10.ark:16347665
fksr0_sx161 quick_test/data-fmllr-tri3/train/data/feats_fmllr_train.2.ark:8615218
mtmn0_si2324 quick_test/data-fmllr-tri3/train/data/feats_fmllr_train.10.ark:7707685
mdtb0_si1830 quick_test/data-fmllr-tri3/train/data/feats_fmllr_train.5.ark:9281891
mwsh0_sx256 quick_test/data-fmllr-tri3/train/data/feats_fmllr_train.10.ark:17387113
mbar0_sx239 quick_test/data-fmllr-tri3/train/data/feats_fmllr_train.4.ark:3571998
mcpm0_si1194 quick_test/data-fmllr-tri3/train/data/feats_fmllr_train.4.ark:12101838
mmws1_sx81 quick_test/data-fmllr-tri3/train/data/feats_fmllr_train.8.ark:4580511
fljd0_sx256 quick_test/data-fmllr-tri3/train/data/feats_fmllr_train.2.ark:11412287
fsjs0_si1801 quick_test/data-fmllr-tri3/train/data/feats_fmllr_train.3.ark:9202311
fmah1_sx69 quick_test/data-fmllr-tri3/train/data/feats_fmllr_train.2.ark:14660665
mtat1_sx329 quick_test/data-fmllr-tri3/train/data/feats_fmllr_train.10.ark:1900377
ftbw0_sx85 quick_test/data-fmllr-tri3/train/data/feats_fmllr_train.3.ark:14932871
mtxs0_si1690 quick_test/data-fmllr-tri3/train/data/feats_fmllr_train.10.ark:11959031
maeb0_si990 quick_test/data-fmllr-tri3/train/data/feats_fmllr_train.4.ark:105828
mrai0_sx342 quick_test/data-fmllr-tri3/train/data/feats_fmllr_train.8.ark:11978338
mwad0_si1749 quick_test/data-fmllr-tri3/train/data/feats_fmllr_train.10.ark:13929717
mtrt0_sx417 quick_test/data-fmllr-tri3/train/data/feats_fmllr_train.10.ark:11464172
mcxm0_sx451 quick_test/data-fmllr-tri3/train/data/feats_fmllr_train.4.ark:14266285
mhmr0_si1692 quick_test/data-fmllr-tri3/train/data/feats_fmllr_train.6.ark:4998219
mrgs0_si1356 quick_test/data-fmllr-tri3/train/data/feats_fmllr_train.9.ark:13
mjfh0_si1107 quick_test/data-fmllr-tri3/train/data/feats_fmllr_train.6.ark:11215581
mges0_sx131 quick_test/data-fmllr-tri3/train/data/feats_fmllr_train.6.ark:850610
mwad0_si1062 quick_test/data-fmllr-tri3/train/data/feats_fmllr_train.10.ark:13878809
mmwb0_sx269 quick_test/data-fmllr-tri3/train/data/feats_fmllr_train.8.ark:3694078
mmdm1_sx423 quick_test/data-fmllr-tri3/train/data/feats_fmllr_train.7.ark:16913292
fsdc0_sx142 quick_test/data-fmllr-tri3/train/data/feats_fmllr_train.3.ark:7355680
mwad0_sx72 quick_test/data-fmllr-tri3/train/data/feats_fmllr_train.10.ark:14148119
mbsb0_sx93 quick_test/data-fmllr-tri3/train/data/feats_fmllr_train.4.ark:7266248
mgsh0_sx276 quick_test/data-fmllr-tri3/train/data/feats_fmllr_train.6.ark:2576493
fdxw0_si881 quick_test/data-fmllr-tri3/train/data/feats_fmllr_train.1.ark:13063392
msfv0_sx452 quick_test/data-fmllr-tri3/train/data/feats_fmllr_train.9.ark:15297549
fskl0_si2159 quick_test/data-fmllr-tri3/train/data/feats_fmllr_train.3.ark:10395922
feac0_sx75 quick_test/data-fmllr-tri3/train/data/feats_fmllr_train.1.ark:13703743
msat0_sx266 quick_test/data-fmllr-tri3/train/data/feats_fmllr_train.9.ark:12012395
mgxp0_si525 quick_test/data-fmllr-tri3/train/data/feats_fmllr_train.6.ark:3266282
mkln0_sx68 quick_test/data-fmllr-tri3/train/data/feats_fmllr_train.7.ark:7820963
mtpf0_sx425 quick_test/data-fmllr-tri3/train/data/feats_fmllr_train.10.ark:8751774
fexm0_si1101 quick_test/data-fmllr-tri3/train/data/feats_fmllr_train.1.ark:15794776
mmvp0_sx204 quick_test/data-fmllr-tri3/train/data/feats_fmllr_train.8.ark:3217380
fgrw0_si1782 quick_test/data-fmllr-tri3/train/data/feats_fmllr_train.1.ark:17591513
fltm0_sx80 quick_test/data-fmllr-tri3/train/data/feats_fmllr_train.2.ark:14304608
mprt0_sx220 quick_test/data-fmllr-tri3/train/data/feats_fmllr_train.8.ark:10454243
mdwh0_si1925 quick_test/data-fmllr-tri3/train/data/feats_fmllr_train.5.ark:10013206
mjjj0_si1793 quick_test/data-fmllr-tri3/train/data/feats_fmllr_train.6.ark:12818077
mjlb0_si2246 quick_test/data-fmllr-tri3/train/data/feats_fmllr_train.6.ark:14017128
feac0_si1245 quick_test/data-fmllr-tri3/train/data/feats_fmllr_train.1.ark:13343074
mkdd0_sx307 quick_test/data-fmllr-tri3/train/data/feats_fmllr_train.7.ark:6202923
mrav0_si1008 quick_test/data-fmllr-tri3/train/data/feats_fmllr_train.8.ark:12512557
mwsh0_sx436 quick_test/data-fmllr-tri3/train/data/feats_fmllr_train.10.ark:17497087
marc0_si558 quick_test/data-fmllr-tri3/train/data/feats_fmllr_train.4.ark:2720630
mmdm1_si1650 quick_test/data-fmllr-tri3/train/data/feats_fmllr_train.7.ark:16622089
makb0_si2276 quick_test/data-fmllr-tri3/train/data/feats_fmllr_train.4.ark:1643339
msat1_si1703 quick_test/data-fmllr-tri3/train/data/feats_fmllr_train.9.ark:12208051
fjhk0_si2282 quick_test/data-fmllr-tri3/train/data/feats_fmllr_train.2.ark:931865
mram0_si1905 quick_test/data-fmllr-tri3/train/data/feats_fmllr_train.8.ark:12187087
ftmg0_si2162 quick_test/data-fmllr-tri3/train/data/feats_fmllr_train.3.ark:15409303
mbma0_sx142 quick_test/data-fmllr-tri3/train/data/feats_fmllr_train.4.ark:5677113
mwsh0_sx76 quick_test/data-fmllr-tri3/train/data/feats_fmllr_train.10.ark:17537273
fsdc0_sx52 quick_test/data-fmllr-tri3/train/data/feats_fmllr_train.3.ark:7531627
mcxm0_sx361 quick_test/data-fmllr-tri3/train/data/feats_fmllr_train.4.ark:14229618
mdns0_sx201 quick_test/data-fmllr-tri3/train/data/feats_fmllr_train.5.ark:6508076
mrai0_sx72 quick_test/data-fmllr-tri3/train/data/feats_fmllr_train.8.ark:12101271
fpaf0_si2314 quick_test/data-fmllr-tri3/train/data/feats_fmllr_train.3.ark:2162273
mrsp0_sx439 quick_test/data-fmllr-tri3/train/data/feats_fmllr_train.9.ark:8651455
fjsk0_si1682 quick_test/data-fmllr-tri3/train/data/feats_fmllr_train.2.ark:3336661
mdlh0_sx430 quick_test/data-fmllr-tri3/train/data/feats_fmllr_train.5.ark:4228587
mpsw0_sx24 quick_test/data-fmllr-tri3/train/data/feats_fmllr_train.8.ark:10784700
fecd0_sx428 quick_test/data-fmllr-tri3/train/data/feats_fmllr_train.1.ark:14490871
mrtj0_si772 quick_test/data-fmllr-tri3/train/data/feats_fmllr_train.9.ark:9271301
mmdg0_si520 quick_test/data-fmllr-tri3/train/data/feats_fmllr_train.7.ark:15928430
fmju0_si759 quick_test/data-fmllr-tri3/train/data/feats_fmllr_train.2.ark:16439054
fcmm0_sx420 quick_test/data-fmllr-tri3/train/data/feats_fmllr_train.1.ark:8462811
mdks0_sx166 quick_test/data-fmllr-tri3/train/data/feats_fmllr_train.5.ark:2037341
mfrm0_si1155 quick_test/data-fmllr-tri3/train/data/feats_fmllr_train.5.ark:14756634
mjdc0_sx441 quick_test/data-fmllr-tri3/train/data/feats_fmllr_train.6.ark:8660145
fdas1_sx111 quick_test/data-fmllr-tri3/train/data/feats_fmllr_train.1.ark:9523061
mwsb0_sx6 quick_test/data-fmllr-tri3/train/data/feats_fmllr_train.10.ark:17062790
mdlm0_sx154 quick_test/data-fmllr-tri3/train/data/feats_fmllr_train.5.ark:4468883
mbwp0_sx79 quick_test/data-fmllr-tri3/train/data/feats_fmllr_train.4.ark:8056281
mclm0_si2086 quick_test/data-fmllr-tri3/train/data/feats_fmllr_train.4.ark:11816369
fcke0_si1111 quick_test/data-fmllr-tri3/train/data/feats_fmllr_train.1.ark:7059756
mbml0_sx359 quick_test/data-fmllr-tri3/train/data/feats_fmllr_train.4.ark:6532961
fklc0_sx355 quick_test/data-fmllr-tri3/train/data/feats_fmllr_train.2.ark:7578300
mtrc0_si1623 quick_test/data-fmllr-tri3/train/data/feats_fmllr_train.10.ark:10473976
fcmg0_sx72 quick_test/data-fmllr-tri3/train/data/feats_fmllr_train.1.ark:8160380
fsjg0_sx400 quick_test/data-fmllr-tri3/train/data/feats_fmllr_train.3.ark:8756918
fmjb0_sx367 quick_test/data-fmllr-tri3/train/data/feats_fmllr_train.2.ark:15778703
mmvp0_si1284 quick_test/data-fmllr-tri3/train/data/feats_fmllr_train.8.ark:2969111
mdlb0_sx316 quick_test/data-fmllr-tri3/train/data/feats_fmllr_train.5.ark:2620812
mjxl0_si542 quick_test/data-fmllr-tri3/train/data/feats_fmllr_train.7.ark:3714501
msrg0_si1221 quick_test/data-fmllr-tri3/train/data/feats_fmllr_train.9.ark:16984710
ftmg0_sx362 quick_test/data-fmllr-tri3/train/data/feats_fmllr_train.3.ark:15607171
fbas0_sx397 quick_test/data-fmllr-tri3/train/data/feats_fmllr_train.1.ark:2416324
mrsp0_si2059 quick_test/data-fmllr-tri3/train/data/feats_fmllr_train.9.ark:8423800
mdlr0_sx243 quick_test/data-fmllr-tri3/train/data/feats_fmllr_train.5.ark:4843527
mmdb0_sx357 quick_test/data-fmllr-tri3/train/data/feats_fmllr_train.7.ark:15705254
mjwt0_si1291 quick_test/data-fmllr-tri3/train/data/feats_fmllr_train.7.ark:2817532
mmbs0_sx161 quick_test/data-fmllr-tri3/train/data/feats_fmllr_train.7.ark:14812126
mtju0_sx130 quick_test/data-fmllr-tri3/train/data/feats_fmllr_train.10.ark:5445156
mfwk0_sx169 quick_test/data-fmllr-tri3/train/data/feats_fmllr_train.5.ark:15243814
fsbk0_sx439 quick_test/data-fmllr-tri3/train/data/feats_fmllr_train.3.ark:6640127
mgar0_sx402 quick_test/data-fmllr-tri3/train/data/feats_fmllr_train.6.ark:299057
mcpm0_sx114 quick_test/data-fmllr-tri3/train/data/feats_fmllr_train.4.ark:12274240
mdwd0_sx360 quick_test/data-fmllr-tri3/train/data/feats_fmllr_train.5.ark:9805737
fpmy0_sx343 quick_test/data-fmllr-tri3/train/data/feats_fmllr_train.3.ark:3903567
mrml0_sx71 quick_test/data-fmllr-tri3/train/data/feats_fmllr_train.9.ark:6692474
mjlg1_sx292 quick_test/data-fmllr-tri3/train/data/feats_fmllr_train.6.ark:14561320
fexm0_sx291 quick_test/data-fmllr-tri3/train/data/feats_fmllr_train.1.ark:16080032
mwac0_si2231 quick_test/data-fmllr-tri3/train/data/feats_fmllr_train.10.ark:13479580
mkaj0_si1414 quick_test/data-fmllr-tri3/train/data/feats_fmllr_train.7.ark:4815576
fgdp0_sx268 quick_test/data-fmllr-tri3/train/data/feats_fmllr_train.1.ark:16821240
mrjh0_sx169 quick_test/data-fmllr-tri3/train/data/feats_fmllr_train.9.ark:1422664
mrgs0_si1986 quick_test/data-fmllr-tri3/train/data/feats_fmllr_train.9.ark:75081
mmpm0_sx431 quick_test/data-fmllr-tri3/train/data/feats_fmllr_train.8.ark:2062864
mtjm0_sx236 quick_test/data-fmllr-tri3/train/data/feats_fmllr_train.10.ark:4685549
mdks0_sx346 quick_test/data-fmllr-tri3/train/data/feats_fmllr_train.5.ark:2156915
mtpf0_si605 quick_test/data-fmllr-tri3/train/data/feats_fmllr_train.10.ark:8541906
fdml0_si1779 quick_test/data-fmllr-tri3/train/data/feats_fmllr_train.1.ark:11339295
mpgh0_sx294 quick_test/data-fmllr-tri3/train/data/feats_fmllr_train.8.ark:7086480
makb0_si1016 quick_test/data-fmllr-tri3/train/data/feats_fmllr_train.4.ark:1498323
mkls0_si2067 quick_test/data-fmllr-tri3/train/data/feats_fmllr_train.7.ark:8317585
mwch0_sx452 quick_test/data-fmllr-tri3/train/data/feats_fmllr_train.10.ark:14769649
mjrp0_si1845 quick_test/data-fmllr-tri3/train/data/feats_fmllr_train.7.ark:1141493
fcaj0_si1479 quick_test/data-fmllr-tri3/train/data/feats_fmllr_train.1.ark:5242831
mpfu0_si628 quick_test/data-fmllr-tri3/train/data/feats_fmllr_train.8.ark:6519437
mabc0_sx151 quick_test/data-fmllr-tri3/train/data/feats_fmllr_train.3.ark:16979186
fdml0_sx339 quick_test/data-fmllr-tri3/train/data/feats_fmllr_train.1.ark:11482124
mmdg0_sx340 quick_test/data-fmllr-tri3/train/data/feats_fmllr_train.7.ark:16099231
mesj0_sx97 quick_test/data-fmllr-tri3/train/data/feats_fmllr_train.5.ark:13660275
mtqc0_sx181 quick_test/data-fmllr-tri3/train/data/feats_fmllr_train.10.ark:10151121
mgar0_sx312 quick_test/data-fmllr-tri3/train/data/feats_fmllr_train.6.ark:234870
mdsj0_si2092 quick_test/data-fmllr-tri3/train/data/feats_fmllr_train.5.ark:8272600
medr0_sx294 quick_test/data-fmllr-tri3/train/data/feats_fmllr_train.5.ark:11355112
fsjs0_si541 quick_test/data-fmllr-tri3/train/data/feats_fmllr_train.3.ark:9261858
mmbs0_sx431 quick_test/data-fmllr-tri3/train/data/feats_fmllr_train.7.ark:14995727
mcss0_sx300 quick_test/data-fmllr-tri3/train/data/feats_fmllr_train.4.ark:13148513
mmsm0_sx206 quick_test/data-fmllr-tri3/train/data/feats_fmllr_train.8.ark:2784203
fclt0_si2068 quick_test/data-fmllr-tri3/train/data/feats_fmllr_train.1.ark:7449441
msat0_si1526 quick_test/data-fmllr-tri3/train/data/feats_fmllr_train.9.ark:11859166
fjlr0_sx421 quick_test/data-fmllr-tri3/train/data/feats_fmllr_train.2.ark:2283185
msas0_sx386 quick_test/data-fmllr-tri3/train/data/feats_fmllr_train.9.ark:11814818
mgag0_sx241 quick_test/data-fmllr-tri3/train/data/feats_fmllr_train.5.ark:16771430
fdxw0_sx251 quick_test/data-fmllr-tri3/train/data/feats_fmllr_train.1.ark:13175766
mabc0_sx421 quick_test/data-fmllr-tri3/train/data/feats_fmllr_train.3.ark:17098787
mkls0_si1533 quick_test/data-fmllr-tri3/train/data/feats_fmllr_train.7.ark:8286997
mtlb0_si504 quick_test/data-fmllr-tri3/train/data/feats_fmllr_train.10.ark:6598420
mrld0_sx154 quick_test/data-fmllr-tri3/train/data/feats_fmllr_train.9.ark:3529028
fdtd0_si2191 quick_test/data-fmllr-tri3/train/data/feats_fmllr_train.1.ark:12638347
mfxv0_si1635 quick_test/data-fmllr-tri3/train/data/feats_fmllr_train.5.ark:16002143
mrjm1_sx38 quick_test/data-fmllr-tri3/train/data/feats_fmllr_train.9.ark:2392139
mtbc0_sx363 quick_test/data-fmllr-tri3/train/data/feats_fmllr_train.10.ark:2353101
mmeb0_sx367 quick_test/data-fmllr-tri3/train/data/feats_fmllr_train.7.ark:17883676
mtmn0_sx164 quick_test/data-fmllr-tri3/train/data/feats_fmllr_train.10.ark:7856379
mtpp0_si1508 quick_test/data-fmllr-tri3/train/data/feats_fmllr_train.10.ark:9160205
mdlr0_si603 quick_test/data-fmllr-tri3/train/data/feats_fmllr_train.5.ark:4750513
mjeb1_si1467 quick_test/data-fmllr-tri3/train/data/feats_fmllr_train.6.ark:10416267
mcal0_sx238 quick_test/data-fmllr-tri3/train/data/feats_fmllr_train.4.ark:8769593
fbmh0_si1136 quick_test/data-fmllr-tri3/train/data/feats_fmllr_train.1.ark:4082660
mrcw0_si1371 quick_test/data-fmllr-tri3/train/data/feats_fmllr_train.8.ark:13699929
fjxm0_sx41 quick_test/data-fmllr-tri3/train/data/feats_fmllr_train.2.ark:4761313
fpjf0_sx326 quick_test/data-fmllr-tri3/train/data/feats_fmllr_train.3.ark:3058948
mtmn0_sx434 quick_test/data-fmllr-tri3/train/data/feats_fmllr_train.10.ark:7982700
mjjb0_sx419 quick_test/data-fmllr-tri3/train/data/feats_fmllr_train.6.ark:12641195
fsah0_si1244 quick_test/data-fmllr-tri3/train/data/feats_fmllr_train.3.ark:5542089
mjkr0_si1831 quick_test/data-fmllr-tri3/train/data/feats_fmllr_train.6.ark:13615791
mkrg0_sx51 quick_test/data-fmllr-tri3/train/data/feats_fmllr_train.7.ark:9718370
fbmh0_sx236 quick_test/data-fmllr-tri3/train/data/feats_fmllr_train.1.ark:4302929
mjde0_sx40 quick_test/data-fmllr-tri3/train/data/feats_fmllr_train.6.ark:9128360
mbgt0_si1841 quick_test/data-fmllr-tri3/train/data/feats_fmllr_train.4.ark:4811345
mstf0_si1396 quick_test/data-fmllr-tri3/train/data/feats_fmllr_train.9.ark:17729943
mejl0_sx422 quick_test/data-fmllr-tri3/train/data/feats_fmllr_train.5.ark:12507120
fsgf0_sx27 quick_test/data-fmllr-tri3/train/data/feats_fmllr_train.3.ark:8184327
mmlm0_si2150 quick_test/data-fmllr-tri3/train/data/feats_fmllr_train.8.ark:1458991
mnet0_si1446 quick_test/data-fmllr-tri3/train/data/feats_fmllr_train.8.ark:4986355
msrg0_sx321 quick_test/data-fmllr-tri3/train/data/feats_fmllr_train.9.ark:17204366
fscn0_sx86 quick_test/data-fmllr-tri3/train/data/feats_fmllr_train.3.ark:7182129
fcke0_sx391 quick_test/data-fmllr-tri3/train/data/feats_fmllr_train.1.ark:7373865
mdas0_sx276 quick_test/data-fmllr-tri3/train/data/feats_fmllr_train.4.ark:14999011
mjfr0_si975 quick_test/data-fmllr-tri3/train/data/feats_fmllr_train.6.ark:11616813
fbas0_sx127 quick_test/data-fmllr-tri3/train/data/feats_fmllr_train.1.ark:2279417
mwar0_sx55 quick_test/data-fmllr-tri3/train/data/feats_fmllr_train.10.ark:14488497
fcrz0_sx433 quick_test/data-fmllr-tri3/train/data/feats_fmllr_train.1.ark:8833428
fecd0_sx68 quick_test/data-fmllr-tri3/train/data/feats_fmllr_train.1.ark:14549297
mkdt0_si2153 quick_test/data-fmllr-tri3/train/data/feats_fmllr_train.7.ark:6322364
mjee0_sx157 quick_test/data-fmllr-tri3/train/data/feats_fmllr_train.6.ark:10964406
mdlc1_si2144 quick_test/data-fmllr-tri3/train/data/feats_fmllr_train.5.ark:3334126
mjeb0_si656 quick_test/data-fmllr-tri3/train/data/feats_fmllr_train.6.ark:10139625
mrcw0_sx111 quick_test/data-fmllr-tri3/train/data/feats_fmllr_train.8.ark:13866891
mpeb0_si600 quick_test/data-fmllr-tri3/train/data/feats_fmllr_train.8.ark:6117620
mkdt0_sx353 quick_test/data-fmllr-tri3/train/data/feats_fmllr_train.7.ark:6578499
mrfl0_sx346 quick_test/data-fmllr-tri3/train/data/feats_fmllr_train.8.ark:17339140
mjee0_sx337 quick_test/data-fmllr-tri3/train/data/feats_fmllr_train.6.ark:11061420
mgrp0_sx237 quick_test/data-fmllr-tri3/train/data/feats_fmllr_train.6.ark:2094489
ftbw0_sx265 quick_test/data-fmllr-tri3/train/data/feats_fmllr_train.3.ark:14809911
meal0_sx107 quick_test/data-fmllr-tri3/train/data/feats_fmllr_train.5.ark:10884574
fdfb0_sx58 quick_test/data-fmllr-tri3/train/data/feats_fmllr_train.1.ark:10422164
fsjg0_si1570 quick_test/data-fmllr-tri3/train/data/feats_fmllr_train.3.ark:8298329
mprb0_sx305 quick_test/data-fmllr-tri3/train/data/feats_fmllr_train.8.ark:9233780
fdmy0_sx387 quick_test/data-fmllr-tri3/train/data/feats_fmllr_train.1.ark:12079033
mkdt0_sx443 quick_test/data-fmllr-tri3/train/data/feats_fmllr_train.7.ark:6634206
mjjj0_sx83 quick_test/data-fmllr-tri3/train/data/feats_fmllr_train.6.ark:13121278
mrcw0_sx201 quick_test/data-fmllr-tri3/train/data/feats_fmllr_train.8.ark:13901958
flac0_sx91 quick_test/data-fmllr-tri3/train/data/feats_fmllr_train.2.ark:9180182
mses0_si2219 quick_test/data-fmllr-tri3/train/data/feats_fmllr_train.9.ark:14253007
mmgc0_si2184 quick_test/data-fmllr-tri3/train/data/feats_fmllr_train.8.ark:120549
mrso0_si1659 quick_test/data-fmllr-tri3/train/data/feats_fmllr_train.9.ark:7963422
mtdb0_sx51 quick_test/data-fmllr-tri3/train/data/feats_fmllr_train.10.ark:3177561
mjdm0_sx260 quick_test/data-fmllr-tri3/train/data/feats_fmllr_train.6.ark:9827782
fjhk0_sx392 quick_test/data-fmllr-tri3/train/data/feats_fmllr_train.2.ark:1201919
mwad0_sx252 quick_test/data-fmllr-tri3/train/data/feats_fmllr_train.10.ark:14022759
mntw0_sx348 quick_test/data-fmllr-tri3/train/data/feats_fmllr_train.8.ark:5640334
mcre0_si1121 quick_test/data-fmllr-tri3/train/data/feats_fmllr_train.4.ark:12454695
msdb0_sx197 quick_test/data-fmllr-tri3/train/data/feats_fmllr_train.9.ark:12704377
msrr0_si1131 quick_test/data-fmllr-tri3/train/data/feats_fmllr_train.9.ark:17342047
mjjm0_sx287 quick_test/data-fmllr-tri3/train/data/feats_fmllr_train.6.ark:13457468
mkdd0_si937 quick_test/data-fmllr-tri3/train/data/feats_fmllr_train.7.ark:6078042
fjrb0_si1302 quick_test/data-fmllr-tri3/train/data/feats_fmllr_train.2.ark:2383719
fsbk0_sx79 quick_test/data-fmllr-tri3/train/data/feats_fmllr_train.3.ark:6700153
msvs0_sx308 quick_test/data-fmllr-tri3/train/data/feats_fmllr_train.10.ark:305269
mjkr0_sx211 quick_test/data-fmllr-tri3/train/data/feats_fmllr_train.6.ark:13777632
mstf0_sx226 quick_test/data-fmllr-tri3/train/data/feats_fmllr_train.9.ark:17948931
mtjs0_sx112 quick_test/data-fmllr-tri3/train/data/feats_fmllr_train.10.ark:5058059
fcjf0_si1027 quick_test/data-fmllr-tri3/train/data/feats_fmllr_train.1.ark:6398842
mdlm0_sx244 quick_test/data-fmllr-tri3/train/data/feats_fmllr_train.5.ark:4502830
fdjh0_sx125 quick_test/data-fmllr-tri3/train/data/feats_fmllr_train.1.ark:10626914
fpaz0_si963 quick_test/data-fmllr-tri3/train/data/feats_fmllr_train.3.ark:2530650
mjmm0_sx445 quick_test/data-fmllr-tri3/train/data/feats_fmllr_train.6.ark:16039310
mcss0_sx30 quick_test/data-fmllr-tri3/train/data/feats_fmllr_train.4.ark:13116486
milb0_sx363 quick_test/data-fmllr-tri3/train/data/feats_fmllr_train.6.ark:6395801
mdbb1_sx376 quick_test/data-fmllr-tri3/train/data/feats_fmllr_train.4.ark:15428720
fdkn0_si1711 quick_test/data-fmllr-tri3/train/data/feats_fmllr_train.1.ark:10964385
mmam0_sx67 quick_test/data-fmllr-tri3/train/data/feats_fmllr_train.7.ark:14132759
mgag0_si645 quick_test/data-fmllr-tri3/train/data/feats_fmllr_train.5.ark:16632949
mmaa0_si1588 quick_test/data-fmllr-tri3/train/data/feats_fmllr_train.7.ark:12587758
mwar0_si1045 quick_test/data-fmllr-tri3/train/data/feats_fmllr_train.10.ark:14170707
mkag0_sx30 quick_test/data-fmllr-tri3/train/data/feats_fmllr_train.7.ark:4287758
mlbc0_sx159 quick_test/data-fmllr-tri3/train/data/feats_fmllr_train.7.ark:10286858
msah1_si1049 quick_test/data-fmllr-tri3/train/data/feats_fmllr_train.9.ark:11101451
fscn0_sx176 quick_test/data-fmllr-tri3/train/data/feats_fmllr_train.3.ark:6940742
mjpm1_sx221 quick_test/data-fmllr-tri3/train/data/feats_fmllr_train.6.ark:16992227
mrab1_si848 quick_test/data-fmllr-tri3/train/data/feats_fmllr_train.8.ark:11411640
fjen0_si1047 quick_test/data-fmllr-tri3/train/data/feats_fmllr_train.2.ark:417031
ftmg0_si1532 quick_test/data-fmllr-tri3/train/data/feats_fmllr_train.3.ark:15382715
mmjb1_si1408 quick_test/data-fmllr-tri3/train/data/feats_fmllr_train.8.ark:1034426
fdtd0_sx391 quick_test/data-fmllr-tri3/train/data/feats_fmllr_train.1.ark:12968269
msmr0_si1405 quick_test/data-fmllr-tri3/train/data/feats_fmllr_train.9.ark:16303664
mtkd0_si1187 quick_test/data-fmllr-tri3/train/data/feats_fmllr_train.10.ark:5669771
mefg0_sx285 quick_test/data-fmllr-tri3/train/data/feats_fmllr_train.5.ark:11724767
mgsl0_sx354 quick_test/data-fmllr-tri3/train/data/feats_fmllr_train.6.ark:2985827
mrfl0_sx256 quick_test/data-fmllr-tri3/train/data/feats_fmllr_train.8.ark:17293513
fskp0_sx18 quick_test/data-fmllr-tri3/train/data/feats_fmllr_train.3.ark:10928219
msrg0_si1851 quick_test/data-fmllr-tri3/train/data/feats_fmllr_train.9.ark:17046818
mdwm0_si916 quick_test/data-fmllr-tri3/train/data/feats_fmllr_train.5.ark:10479370
fgmb0_sx335 quick_test/data-fmllr-tri3/train/data/feats_fmllr_train.1.ark:17345804
mgak0_sx316 quick_test/data-fmllr-tri3/train/data/feats_fmllr_train.5.ark:17209115
mkls1_si915 quick_test/data-fmllr-tri3/train/data/feats_fmllr_train.7.ark:8709322
mddc0_sx69 quick_test/data-fmllr-tri3/train/data/feats_fmllr_train.4.ark:16956628
fsgf0_si2187 quick_test/data-fmllr-tri3/train/data/feats_fmllr_train.3.ark:7959420
mzmb0_si536 quick_test/data-fmllr-tri3/train/data/feats_fmllr_train.10.ark:17687756
mgsh0_sx96 quick_test/data-fmllr-tri3/train/data/feats_fmllr_train.6.ark:2664064
mjrh0_si1125 quick_test/data-fmllr-tri3/train/data/feats_fmllr_train.7.ark:13
fhlm0_si930 quick_test/data-fmllr-tri3/train/data/feats_fmllr_train.1.ark:18029998
mrms0_si2057 quick_test/data-fmllr-tri3/train/data/feats_fmllr_train.9.ark:6802770
mmag0_sx316 quick_test/data-fmllr-tri3/train/data/feats_fmllr_train.7.ark:13699048
mafm0_sx399 quick_test/data-fmllr-tri3/train/data/feats_fmllr_train.4.ark:1026077
mpmb0_sx151 quick_test/data-fmllr-tri3/train/data/feats_fmllr_train.8.ark:8180332
msjk0_si966 quick_test/data-fmllr-tri3/train/data/feats_fmllr_train.9.ark:15525498
fceg0_si1248 quick_test/data-fmllr-tri3/train/data/feats_fmllr_train.1.ark:6075585
mhxl0_si512 quick_test/data-fmllr-tri3/train/data/feats_fmllr_train.6.ark:5768892
fjkl0_sx32 quick_test/data-fmllr-tri3/train/data/feats_fmllr_train.2.ark:1523389
mmlm0_sx447 quick_test/data-fmllr-tri3/train/data/feats_fmllr_train.8.ark:1690966
msjk0_sx246 quick_test/data-fmllr-tri3/train/data/feats_fmllr_train.9.ark:15623312
frjb0_si1794 quick_test/data-fmllr-tri3/train/data/feats_fmllr_train.3.ark:4418454
msvs0_si2198 quick_test/data-fmllr-tri3/train/data/feats_fmllr_train.10.ark:41321
fhxs0_sx265 quick_test/data-fmllr-tri3/train/data/feats_fmllr_train.1.ark:18663231
msem1_sx270 quick_test/data-fmllr-tri3/train/data/feats_fmllr_train.9.ark:13968203
fcmm0_sx363 quick_test/data-fmllr-tri3/train/data/feats_fmllr_train.1.ark:8416384
mgag0_sx331 quick_test/data-fmllr-tri3/train/data/feats_fmllr_train.5.ark:16805697
mrgs0_sx276 quick_test/data-fmllr-tri3/train/data/feats_fmllr_train.9.ark:214522
mrso0_si2289 quick_test/data-fmllr-tri3/train/data/feats_fmllr_train.9.ark:8022970
fexm0_sx381 quick_test/data-fmllr-tri3/train/data/feats_fmllr_train.1.ark:16206646
fscn0_sx446 quick_test/data-fmllr-tri3/train/data/feats_fmllr_train.3.ark:7122743
mpar0_sx226 quick_test/data-fmllr-tri3/train/data/feats_fmllr_train.8.ark:5915217
madc0_sx107 quick_test/data-fmllr-tri3/train/data/feats_fmllr_train.3.ark:17374923
mmag0_sx226 quick_test/data-fmllr-tri3/train/data/feats_fmllr_train.7.ark:13649101
mdlc1_sx445 quick_test/data-fmllr-tri3/train/data/feats_fmllr_train.5.ark:3504794
fsag0_sx63 quick_test/data-fmllr-tri3/train/data/feats_fmllr_train.3.ark:5485421
mlns0_sx147 quick_test/data-fmllr-tri3/train/data/feats_fmllr_train.7.ark:11966286
mgag0_sx421 quick_test/data-fmllr-tri3/train/data/feats_fmllr_train.5.ark:16843324
fksr0_sx397 quick_test/data-fmllr-tri3/train/data/feats_fmllr_train.2.ark:8818525
flkm0_sx260 quick_test/data-fmllr-tri3/train/data/feats_fmllr_train.2.ark:12246640
madd0_sx448 quick_test/data-fmllr-tri3/train/data/feats_fmllr_train.3.ark:17874421
mdma0_sx440 quick_test/data-fmllr-tri3/train/data/feats_fmllr_train.5.ark:5815696
mjkr0_sx31 quick_test/data-fmllr-tri3/train/data/feats_fmllr_train.6.ark:13876565
msms0_sx263 quick_test/data-fmllr-tri3/train/data/feats_fmllr_train.9.ark:16816922
mdlc2_sx444 quick_test/data-fmllr-tri3/train/data/feats_fmllr_train.5.ark:3817011
mchl0_sx177 quick_test/data-fmllr-tri3/train/data/feats_fmllr_train.4.ark:11151989
mapv0_sx33 quick_test/data-fmllr-tri3/train/data/feats_fmllr_train.4.ark:2582760
fskp0_sx378 quick_test/data-fmllr-tri3/train/data/feats_fmllr_train.3.ark:11051180
mbom0_sx384 quick_test/data-fmllr-tri3/train/data/feats_fmllr_train.4.ark:6980273
fpaf0_si1054 quick_test/data-fmllr-tri3/train/data/feats_fmllr_train.3.ark:2026057
fjsk0_si1052 quick_test/data-fmllr-tri3/train/data/feats_fmllr_train.2.ark:3263193
mjpm0_sx18 quick_test/data-fmllr-tri3/train/data/feats_fmllr_train.6.ark:16650089
mewm0_si1348 quick_test/data-fmllr-tri3/train/data/feats_fmllr_train.5.ark:13692783
mbjv0_sx77 quick_test/data-fmllr-tri3/train/data/feats_fmllr_train.4.ark:5512523
fbmj0_sx336 quick_test/data-fmllr-tri3/train/data/feats_fmllr_train.1.ark:4723812
mrlr0_sx206 quick_test/data-fmllr-tri3/train/data/feats_fmllr_train.9.ark:4982404
mdps0_sx179 quick_test/data-fmllr-tri3/train/data/feats_fmllr_train.5.ark:7539900
mcew0_si1442 quick_test/data-fmllr-tri3/train/data/feats_fmllr_train.4.ark:10485769
mtmt0_sx398 quick_test/data-fmllr-tri3/train/data/feats_fmllr_train.10.ark:8399103
mmbs0_si1151 quick_test/data-fmllr-tri3/train/data/feats_fmllr_train.7.ark:14666924
mhrm0_sx148 quick_test/data-fmllr-tri3/train/data/feats_fmllr_train.6.ark:5479290
msdb0_si1007 quick_test/data-fmllr-tri3/train/data/feats_fmllr_train.9.ark:12525841
fkde0_sx61 quick_test/data-fmllr-tri3/train/data/feats_fmllr_train.2.ark:5995565
mjwt0_si1381 quick_test/data-fmllr-tri3/train/data/feats_fmllr_train.7.ark:2892920
mkls1_sx375 quick_test/data-fmllr-tri3/train/data/feats_fmllr_train.7.ark:8939376
mter0_sx437 quick_test/data-fmllr-tri3/train/data/feats_fmllr_train.10.ark:3977809
mjra0_si1866 quick_test/data-fmllr-tri3/train/data/feats_fmllr_train.6.ark:17268363
mjeb1_sx387 quick_test/data-fmllr-tri3/train/data/feats_fmllr_train.6.ark:10777256
mdss1_sx157 quick_test/data-fmllr-tri3/train/data/feats_fmllr_train.5.ark:9039328
fsmm0_si1944 quick_test/data-fmllr-tri3/train/data/feats_fmllr_train.3.ark:11939351
mkdt0_sx263 quick_test/data-fmllr-tri3/train/data/feats_fmllr_train.7.ark:6541032
fltm0_si1070 quick_test/data-fmllr-tri3/train/data/feats_fmllr_train.2.ark:13933538
msrr0_sx51 quick_test/data-fmllr-tri3/train/data/feats_fmllr_train.9.ark:17683835
mvjh0_sx386 quick_test/data-fmllr-tri3/train/data/feats_fmllr_train.10.ark:12665970
fdtd0_sx211 quick_test/data-fmllr-tri3/train/data/feats_fmllr_train.1.ark:12787068
mdks0_sx76 quick_test/data-fmllr-tri3/train/data/feats_fmllr_train.5.ark:2257768
fmju0_sx309 quick_test/data-fmllr-tri3/train/data/feats_fmllr_train.2.ark:16590495
fntb0_sx303 quick_test/data-fmllr-tri3/train/data/feats_fmllr_train.3.ark:626125
mrml0_si1421 quick_test/data-fmllr-tri3/train/data/feats_fmllr_train.9.ark:6248925
fsms1_sx347 quick_test/data-fmllr-tri3/train/data/feats_fmllr_train.3.ark:12589623
mdmt0_sx212 quick_test/data-fmllr-tri3/train/data/feats_fmllr_train.5.ark:6090739
mdcm0_sx310 quick_test/data-fmllr-tri3/train/data/feats_fmllr_train.4.ark:16522598
mdpb0_sx236 quick_test/data-fmllr-tri3/train/data/feats_fmllr_train.5.ark:6899813
milb0_sx273 quick_test/data-fmllr-tri3/train/data/feats_fmllr_train.6.ark:6330789
mpar0_sx136 quick_test/data-fmllr-tri3/train/data/feats_fmllr_train.8.ark:5860150
fdmy0_si714 quick_test/data-fmllr-tri3/train/data/feats_fmllr_train.1.ark:11772179
flja0_sx178 quick_test/data-fmllr-tri3/train/data/feats_fmllr_train.2.ark:10927403
mcth0_sx219 quick_test/data-fmllr-tri3/train/data/feats_fmllr_train.4.ark:13423397
fbas0_sx37 quick_test/data-fmllr-tri3/train/data/feats_fmllr_train.1.ark:2373097
mtju0_si760 quick_test/data-fmllr-tri3/train/data/feats_fmllr_train.10.ark:5394889
mjmd0_sx308 quick_test/data-fmllr-tri3/train/data/feats_fmllr_train.6.ark:15619386
fmmh0_sx97 quick_test/data-fmllr-tri3/train/data/feats_fmllr_train.2.ark:17889436
mdwh0_sx305 quick_test/data-fmllr-tri3/train/data/feats_fmllr_train.5.ark:10231074
mmdb0_si987 quick_test/data-fmllr-tri3/train/data/feats_fmllr_train.7.ark:15563253
mgaw0_si535 quick_test/data-fmllr-tri3/train/data/feats_fmllr_train.6.ark:516126
mwar0_sx415 quick_test/data-fmllr-tri3/train/data/feats_fmllr_train.10.ark:14449911
mkxl0_sx195 quick_test/data-fmllr-tri3/train/data/feats_fmllr_train.7.ark:10010374
mstf0_si766 quick_test/data-fmllr-tri3/train/data/feats_fmllr_train.9.ark:17783250
mvjh0_sx296 quick_test/data-fmllr-tri3/train/data/feats_fmllr_train.10.ark:12628503
feac0_sx165 quick_test/data-fmllr-tri3/train/data/feats_fmllr_train.1.ark:13500916
fkdw0_si1891 quick_test/data-fmllr-tri3/train/data/feats_fmllr_train.2.ark:6129701
mmrp0_si717 quick_test/data-fmllr-tri3/train/data/feats_fmllr_train.8.ark:2177185
mrjt0_si1805 quick_test/data-fmllr-tri3/train/data/feats_fmllr_train.9.ark:2539422
mwre0_si2317 quick_test/data-fmllr-tri3/train/data/feats_fmllr_train.10.ark:16128011
fcag0_si1641 quick_test/data-fmllr-tri3/train/data/feats_fmllr_train.1.ark:4931761
fpls0_sx240 quick_test/data-fmllr-tri3/train/data/feats_fmllr_train.3.ark:3394338
fsls0_sx246 quick_test/data-fmllr-tri3/train/data/feats_fmllr_train.3.ark:11347825
fcmm0_si1957 quick_test/data-fmllr-tri3/train/data/feats_fmllr_train.1.ark:8235956
mlns0_sx237 quick_test/data-fmllr-tri3/train/data/feats_fmllr_train.7.ark:12005993
marc0_sx378 quick_test/data-fmllr-tri3/train/data/feats_fmllr_train.4.ark:2929244
mpsw0_si2327 quick_test/data-fmllr-tri3/train/data/feats_fmllr_train.8.ark:10705287
msms0_sx83 quick_test/data-fmllr-tri3/train/data/feats_fmllr_train.9.ark:16944042
mcal0_sx418 quick_test/data-fmllr-tri3/train/data/feats_fmllr_train.4.ark:8864367
mjfr0_si2235 quick_test/data-fmllr-tri3/train/data/feats_fmllr_train.6.ark:11575986
mmea0_si758 quick_test/data-fmllr-tri3/train/data/feats_fmllr_train.7.ark:17396818
fskc0_sx246 quick_test/data-fmllr-tri3/train/data/feats_fmllr_train.3.ark:10161386
mtab0_sx312 quick_test/data-fmllr-tri3/train/data/feats_fmllr_train.10.ark:775406
fsjs0_sx91 quick_test/data-fmllr-tri3/train/data/feats_fmllr_train.3.ark:9537672
mapv0_sx213 quick_test/data-fmllr-tri3/train/data/feats_fmllr_train.4.ark:2495827
mtxs0_sx70 quick_test/data-fmllr-tri3/train/data/feats_fmllr_train.10.ark:12309913
mjac0_sx71 quick_test/data-fmllr-tri3/train/data/feats_fmllr_train.6.ark:6817004
mjsr0_sx344 quick_test/data-fmllr-tri3/train/data/feats_fmllr_train.7.ark:1792698
mzmb0_si1166 quick_test/data-fmllr-tri3/train/data/feats_fmllr_train.10.ark:17595701
mbma1_sx414 quick_test/data-fmllr-tri3/train/data/feats_fmllr_train.4.ark:6224451
mtju0_si2020 quick_test/data-fmllr-tri3/train/data/feats_fmllr_train.10.ark:5304434
fkfb0_sx168 quick_test/data-fmllr-tri3/train/data/feats_fmllr_train.2.ark:6598132
msmr0_sx235 quick_test/data-fmllr-tri3/train/data/feats_fmllr_train.9.ark:16433025
mejl0_sx242 quick_test/data-fmllr-tri3/train/data/feats_fmllr_train.5.ark:12416506
fdxw0_sx431 quick_test/data-fmllr-tri3/train/data/feats_fmllr_train.1.ark:13265740
flhd0_sx354 quick_test/data-fmllr-tri3/train/data/feats_fmllr_train.2.ark:10645319
mhmr0_sx219 quick_test/data-fmllr-tri3/train/data/feats_fmllr_train.6.ark:5170300
fjhk0_si1022 quick_test/data-fmllr-tri3/train/data/feats_fmllr_train.2.ark:864449
mrso0_sx219 quick_test/data-fmllr-tri3/train/data/feats_fmllr_train.9.ark:8121104
mjda0_si2291 quick_test/data-fmllr-tri3/train/data/feats_fmllr_train.6.ark:8096300
mdbp0_sx348 quick_test/data-fmllr-tri3/train/data/feats_fmllr_train.4.ark:15723764
mlsh0_sx67 quick_test/data-fmllr-tri3/train/data/feats_fmllr_train.7.ark:12533170
fsma0_sx181 quick_test/data-fmllr-tri3/train/data/feats_fmllr_train.3.ark:11632948
makr0_sx182 quick_test/data-fmllr-tri3/train/data/feats_fmllr_train.4.ark:2070463
mjmd0_sx398 quick_test/data-fmllr-tri3/train/data/feats_fmllr_train.6.ark:15705839
mdtb0_si1200 quick_test/data-fmllr-tri3/train/data/feats_fmllr_train.5.ark:9250983
fljg0_sx81 quick_test/data-fmllr-tri3/train/data/feats_fmllr_train.2.ark:11997064
mrem0_si961 quick_test/data-fmllr-tri3/train/data/feats_fmllr_train.8.ark:16083687
fcag0_sx63 quick_test/data-fmllr-tri3/train/data/feats_fmllr_train.1.ark:5201683
fmpg0_si1602 quick_test/data-fmllr-tri3/train/data/feats_fmllr_train.2.ark:17925144
mrmh0_sx391 quick_test/data-fmllr-tri3/train/data/feats_fmllr_train.9.ark:6216737
mprb0_si1205 quick_test/data-fmllr-tri3/train/data/feats_fmllr_train.8.ark:8928844
mrjm0_si1858 quick_test/data-fmllr-tri3/train/data/feats_fmllr_train.9.ark:1780135
fkdw0_si577 quick_test/data-fmllr-tri3/train/data/feats_fmllr_train.2.ark:6209568
mrlj1_sx411 quick_test/data-fmllr-tri3/train/data/feats_fmllr_train.9.ark:4317704
fpab1_sx211 quick_test/data-fmllr-tri3/train/data/feats_fmllr_train.3.ark:1006475
mrkm0_sx7 quick_test/data-fmllr-tri3/train/data/feats_fmllr_train.9.ark:3287132
mhmr0_sx309 quick_test/data-fmllr-tri3/train/data/feats_fmllr_train.6.ark:5229047
mrlr0_sx26 quick_test/data-fmllr-tri3/train/data/feats_fmllr_train.9.ark:5034270
mfxs0_sx234 quick_test/data-fmllr-tri3/train/data/feats_fmllr_train.5.ark:15645499
mdps0_sx449 quick_test/data-fmllr-tri3/train/data/feats_fmllr_train.5.ark:7675181
flmc0_sx336 quick_test/data-fmllr-tri3/train/data/feats_fmllr_train.2.ark:13094967
fdas1_si2091 quick_test/data-fmllr-tri3/train/data/feats_fmllr_train.1.ark:9407647
mbef0_sx111 quick_test/data-fmllr-tri3/train/data/feats_fmllr_train.4.ark:4623662
mpgr1_sx59 quick_test/data-fmllr-tri3/train/data/feats_fmllr_train.8.ark:7852222
mddc0_si789 quick_test/data-fmllr-tri3/train/data/feats_fmllr_train.4.ark:16737934
mcew0_sx182 quick_test/data-fmllr-tri3/train/data/feats_fmllr_train.4.ark:10688731
flkm0_si1880 quick_test/data-fmllr-tri3/train/data/feats_fmllr_train.2.ark:12043492
fmkf0_sx276 quick_test/data-fmllr-tri3/train/data/feats_fmllr_train.2.ark:17344503
mjra0_sx156 quick_test/data-fmllr-tri3/train/data/feats_fmllr_train.6.ark:17365537
mdem0_sx338 quick_test/data-fmllr-tri3/train/data/feats_fmllr_train.5.ark:646286
mdcd0_sx65 quick_test/data-fmllr-tri3/train/data/feats_fmllr_train.4.ark:16231874
mgag0_sx61 quick_test/data-fmllr-tri3/train/data/feats_fmllr_train.5.ark:16879670
mctm0_sx90 quick_test/data-fmllr-tri3/train/data/feats_fmllr_train.4.ark:13956494
mntw0_si1698 quick_test/data-fmllr-tri3/train/data/feats_fmllr_train.8.ark:5407078
fsma0_sx451 quick_test/data-fmllr-tri3/train/data/feats_fmllr_train.3.ark:11776229
mdpk0_sx423 quick_test/data-fmllr-tri3/train/data/feats_fmllr_train.5.ark:7327764
mjpm0_si1368 quick_test/data-fmllr-tri3/train/data/feats_fmllr_train.6.ark:16436381
