mrld0_si964 quick_test/data-fmllr-tri3/train/data/feats_fmllr_train.9.ark:3471401
mcal0_sx238 quick_test/data-fmllr-tri3/train/data/feats_fmllr_train.4.ark:8769593
mrre0_si704 quick_test/data-fmllr-tri3/train/data/feats_fmllr_train.9.ark:7499525
fjrb0_sx402 quick_test/data-fmllr-tri3/train/data/feats_fmllr_train.2.ark:2655562
mtpg0_si1383 quick_test/data-fmllr-tri3/train/data/feats_fmllr_train.10.ark:8808948
mcef0_si1135 quick_test/data-fmllr-tri3/train/data/feats_fmllr_train.4.ark:10123952
mtlb0_si504 quick_test/data-fmllr-tri3/train/data/feats_fmllr_train.10.ark:6598420
mwch0_si2252 quick_test/data-fmllr-tri3/train/data/feats_fmllr_train.10.ark:14609541
fsms1_sx334 quick_test/data-fmllr-tri3/train/data/feats_fmllr_train.3.ark:12548636
mtpr0_si1600 quick_test/data-fmllr-tri3/train/data/feats_fmllr_train.10.ark:9517702
fkaa0_sx218 quick_test/data-fmllr-tri3/train/data/feats_fmllr_train.2.ark:5389507
mjpm0_si738 quick_test/data-fmllr-tri3/train/data/feats_fmllr_train.6.ark:16566036
mmws0_sx78 quick_test/data-fmllr-tri3/train/data/feats_fmllr_train.8.ark:4271814
mmwb0_si1619 quick_test/data-fmllr-tri3/train/data/feats_fmllr_train.8.ark:3435089
mcdc0_sx212 quick_test/data-fmllr-tri3/train/data/feats_fmllr_train.4.ark:9161010
mrld0_si1594 quick_test/data-fmllr-tri3/train/data/feats_fmllr_train.9.ark:3385266
mrvg0_si1770 quick_test/data-fmllr-tri3/train/data/feats_fmllr_train.9.ark:9706691
mvlo0_si1777 quick_test/data-fmllr-tri3/train/data/feats_fmllr_train.10.ark:12749866
mmdm0_sx321 quick_test/data-fmllr-tri3/train/data/feats_fmllr_train.7.ark:16464728
mtjg0_si1520 quick_test/data-fmllr-tri3/train/data/feats_fmllr_train.10.ark:4089063
mrlr0_si566 quick_test/data-fmllr-tri3/train/data/feats_fmllr_train.9.ark:4895630
mfrm0_si1785 quick_test/data-fmllr-tri3/train/data/feats_fmllr_train.5.ark:14858930
flja0_si1078 quick_test/data-fmllr-tri3/train/data/feats_fmllr_train.2.ark:10780920
madc0_si1997 quick_test/data-fmllr-tri3/train/data/feats_fmllr_train.3.ark:17247989
mdma0_si1430 quick_test/data-fmllr-tri3/train/data/feats_fmllr_train.5.ark:5503720
fgcs0_sx136 quick_test/data-fmllr-tri3/train/data/feats_fmllr_train.1.ark:16375236
mgag0_sx421 quick_test/data-fmllr-tri3/train/data/feats_fmllr_train.5.ark:16843324
mjma0_sx415 quick_test/data-fmllr-tri3/train/data/feats_fmllr_train.6.ark:15339035
mrmg0_sx90 quick_test/data-fmllr-tri3/train/data/feats_fmllr_train.9.ark:5856839
mjae0_si1999 quick_test/data-fmllr-tri3/train/data/feats_fmllr_train.6.ark:6911140
mrms0_si2100 quick_test/data-fmllr-tri3/train/data/feats_fmllr_train.9.ark:6872078
mjwt0_sx121 quick_test/data-fmllr-tri3/train/data/feats_fmllr_train.7.ark:3015854
fexm0_sx201 quick_test/data-fmllr-tri3/train/data/feats_fmllr_train.1.ark:16017765
maeb0_si1411 quick_test/data-fmllr-tri3/train/data/feats_fmllr_train.4.ark:13
mcdr0_sx434 quick_test/data-fmllr-tri3/train/data/feats_fmllr_train.4.ark:10041178
mpar0_si946 quick_test/data-fmllr-tri3/train/data/feats_fmllr_train.8.ark:5822843
mmbs0_sx161 quick_test/data-fmllr-tri3/train/data/feats_fmllr_train.7.ark:14812126
fsjk1_sx215 quick_test/data-fmllr-tri3/train/data/feats_fmllr_train.3.ark:8999775
mmwb0_si989 quick_test/data-fmllr-tri3/train/data/feats_fmllr_train.8.ark:3577864
msjk0_sx66 quick_test/data-fmllr-tri3/train/data/feats_fmllr_train.9.ark:15787072
freh0_sx55 quick_test/data-fmllr-tri3/train/data/feats_fmllr_train.3.ark:4307650
fskp0_si1728 quick_test/data-fmllr-tri3/train/data/feats_fmllr_train.3.ark:10804939
mtmn0_sx254 quick_test/data-fmllr-tri3/train/data/feats_fmllr_train.10.ark:7912886
fdkn0_si1711 quick_test/data-fmllr-tri3/train/data/feats_fmllr_train.1.ark:10964385
flac0_si901 quick_test/data-fmllr-tri3/train/data/feats_fmllr_train.2.ark:8966768
mdcd0_si785 quick_test/data-fmllr-tri3/train/data/feats_fmllr_train.4.ark:15969500
fcmm0_si1083 quick_test/data-fmllr-tri3/train/data/feats_fmllr_train.1.ark:8195768
mhxl0_si1772 quick_test/data-fmllr-tri3/train/data/feats_fmllr_train.6.ark:5723585
mgag0_si691 quick_test/data-fmllr-tri3/train/data/feats_fmllr_train.5.ark:16663216
mrab1_si2108 quick_test/data-fmllr-tri3/train/data/feats_fmllr_train.8.ark:11368893
makb0_sx296 quick_test/data-fmllr-tri3/train/data/feats_fmllr_train.4.ark:1875446
fklc0_sx445 quick_test/data-fmllr-tri3/train/data/feats_fmllr_train.2.ark:7620887
mtcs0_sx172 quick_test/data-fmllr-tri3/train/data/feats_fmllr_train.10.ark:2582837
mtas0_sx125 quick_test/data-fmllr-tri3/train/data/feats_fmllr_train.10.ark:1057809
fmkf0_si1018 quick_test/data-fmllr-tri3/train/data/feats_fmllr_train.2.ark:17130474
mrlj1_sx321 quick_test/data-fmllr-tri3/train/data/feats_fmllr_train.9.ark:4263917
mprb0_sx125 quick_test/data-fmllr-tri3/train/data/feats_fmllr_train.8.ark:9127006
fjdm2_sx322 quick_test/data-fmllr-tri3/train/data/feats_fmllr_train.2.ark:271670
fdas1_si2091 quick_test/data-fmllr-tri3/train/data/feats_fmllr_train.1.ark:9407647
mrpc1_sx42 quick_test/data-fmllr-tri3/train/data/feats_fmllr_train.9.ark:7385070
mrtj0_si772 quick_test/data-fmllr-tri3/train/data/feats_fmllr_train.9.ark:9271301
frll0_si1514 quick_test/data-fmllr-tri3/train/data/feats_fmllr_train.3.ark:4704856
mbma1_sx324 quick_test/data-fmllr-tri3/train/data/feats_fmllr_train.4.ark:6153224
mjsr0_si2054 quick_test/data-fmllr-tri3/train/data/feats_fmllr_train.7.ark:1525550
mwar0_si1045 quick_test/data-fmllr-tri3/train/data/feats_fmllr_train.10.ark:14170707
fbcg1_sx172 quick_test/data-fmllr-tri3/train/data/feats_fmllr_train.1.ark:2589554
mjae0_sx174 quick_test/data-fmllr-tri3/train/data/feats_fmllr_train.6.ark:6984475
fsjg0_sx130 quick_test/data-fmllr-tri3/train/data/feats_fmllr_train.3.ark:8493131
mtwh1_si882 quick_test/data-fmllr-tri3/train/data/feats_fmllr_train.10.ark:11633081
mbsb0_si723 quick_test/data-fmllr-tri3/train/data/feats_fmllr_train.4.ark:7093636
mcth0_sx399 quick_test/data-fmllr-tri3/train/data/feats_fmllr_train.4.ark:13570997
mjrh1_si514 quick_test/data-fmllr-tri3/train/data/feats_fmllr_train.7.ark:503326
mtpr0_sx250 quick_test/data-fmllr-tri3/train/data/feats_fmllr_train.10.ark:9746771
mjwg0_sx355 quick_test/data-fmllr-tri3/train/data/feats_fmllr_train.7.ark:2280434
fhxs0_sx85 quick_test/data-fmllr-tri3/train/data/feats_fmllr_train.1.ark:18790351
fapb0_sx433 quick_test/data-fmllr-tri3/train/data/feats_fmllr_train.1.ark:1928400
mtkp0_sx393 quick_test/data-fmllr-tri3/train/data/feats_fmllr_train.10.ark:6460257
fbcg1_si982 quick_test/data-fmllr-tri3/train/data/feats_fmllr_train.1.ark:2526007
mgag0_sx151 quick_test/data-fmllr-tri3/train/data/feats_fmllr_train.5.ark:16727403
mdns0_sx21 quick_test/data-fmllr-tri3/train/data/feats_fmllr_train.5.ark:6554182
mmag0_si1756 quick_test/data-fmllr-tri3/train/data/feats_fmllr_train.7.ark:13465180
mrre0_sx74 quick_test/data-fmllr-tri3/train/data/feats_fmllr_train.9.ark:7824806
msms0_si803 quick_test/data-fmllr-tri3/train/data/feats_fmllr_train.9.ark:16707748
mtjm0_sx236 quick_test/data-fmllr-tri3/train/data/feats_fmllr_train.10.ark:4685549
mjhi0_sx248 quick_test/data-fmllr-tri3/train/data/feats_fmllr_train.6.ark:12147483
mapv0_sx33 quick_test/data-fmllr-tri3/train/data/feats_fmllr_train.4.ark:2582760
mdmt0_sx392 quick_test/data-fmllr-tri3/train/data/feats_fmllr_train.5.ark:6231139
fpac0_si2011 quick_test/data-fmllr-tri3/train/data/feats_fmllr_train.3.ark:1269171
mbma1_sx144 quick_test/data-fmllr-tri3/train/data/feats_fmllr_train.4.ark:6061010
mefg0_si491 quick_test/data-fmllr-tri3/train/data/feats_fmllr_train.5.ark:11461913
fsjw0_sx253 quick_test/data-fmllr-tri3/train/data/feats_fmllr_train.3.ark:9799569
mjls0_si1096 quick_test/data-fmllr-tri3/train/data/feats_fmllr_train.6.ark:14655615
mtmt0_sx38 quick_test/data-fmllr-tri3/train/data/feats_fmllr_train.10.ark:8353476
mrab0_sx234 quick_test/data-fmllr-tri3/train/data/feats_fmllr_train.8.ark:11114837
feme0_sx425 quick_test/data-fmllr-tri3/train/data/feats_fmllr_train.1.ark:15331625
mdwd0_si1890 quick_test/data-fmllr-tri3/train/data/feats_fmllr_train.5.ark:9647549
maeo0_sx66 quick_test/data-fmllr-tri3/train/data/feats_fmllr_train.4.ark:710980
mtmn0_si2324 quick_test/data-fmllr-tri3/train/data/feats_fmllr_train.10.ark:7707685
mjeb0_si1916 quick_test/data-fmllr-tri3/train/data/feats_fmllr_train.6.ark:10095278
fmah1_si879 quick_test/data-fmllr-tri3/train/data/feats_fmllr_train.2.ark:14411091
fpaf0_sx424 quick_test/data-fmllr-tri3/train/data/feats_fmllr_train.3.ark:2336941
mfer0_sx412 quick_test/data-fmllr-tri3/train/data/feats_fmllr_train.5.ark:14270283
fkkh0_sx300 quick_test/data-fmllr-tri3/train/data/feats_fmllr_train.2.ark:7215549
fjxm0_sx311 quick_test/data-fmllr-tri3/train/data/feats_fmllr_train.2.ark:4628460
mree0_sx24 quick_test/data-fmllr-tri3/train/data/feats_fmllr_train.8.ark:15405094
fvfb0_sx42 quick_test/data-fmllr-tri3/train/data/feats_fmllr_train.3.ark:16067762
fcdr1_sx196 quick_test/data-fmllr-tri3/train/data/feats_fmllr_train.1.ark:5917103
flhd0_si1827 quick_test/data-fmllr-tri3/train/data/feats_fmllr_train.2.ark:10463130
mlel0_sx436 quick_test/data-fmllr-tri3/train/data/feats_fmllr_train.7.ark:10840436
mklr0_si1059 quick_test/data-fmllr-tri3/train/data/feats_fmllr_train.7.ark:7862271
mdbp0_si1788 quick_test/data-fmllr-tri3/train/data/feats_fmllr_train.4.ark:15502856
mmgk0_sx62 quick_test/data-fmllr-tri3/train/data/feats_fmllr_train.8.ark:998238
feeh0_si1742 quick_test/data-fmllr-tri3/train/data/feats_fmllr_train.1.ark:14652553
fvkb0_sx439 quick_test/data-fmllr-tri3/train/data/feats_fmllr_train.3.ark:16395953
mvlo0_si1147 quick_test/data-fmllr-tri3/train/data/feats_fmllr_train.10.ark:12702958
mgak0_sx226 quick_test/data-fmllr-tri3/train/data/feats_fmllr_train.5.ark:17155808
mbbr0_sx155 quick_test/data-fmllr-tri3/train/data/feats_fmllr_train.4.ark:3894429
fjrb0_sx312 quick_test/data-fmllr-tri3/train/data/feats_fmllr_train.2.ark:2591535
fmah1_si1509 quick_test/data-fmllr-tri3/train/data/feats_fmllr_train.2.ark:14337436
mcal0_sx328 quick_test/data-fmllr-tri3/train/data/feats_fmllr_train.4.ark:8808980
fdas1_si1461 quick_test/data-fmllr-tri3/train/data/feats_fmllr_train.1.ark:9329219
mtpp0_si878 quick_test/data-fmllr-tri3/train/data/feats_fmllr_train.10.ark:9258500
mrmb0_si1581 quick_test/data-fmllr-tri3/train/data/feats_fmllr_train.9.ark:5146512
mrtc0_si828 quick_test/data-fmllr-tri3/train/data/feats_fmllr_train.9.ark:8885484
fcjf0_sx397 quick_test/data-fmllr-tri3/train/data/feats_fmllr_train.1.ark:6661431
mddc0_sx429 quick_test/data-fmllr-tri3/train/data/feats_fmllr_train.4.ark:16914362
fltm0_si2330 quick_test/data-fmllr-tri3/train/data/feats_fmllr_train.2.ark:14009274
mtkd0_sx287 quick_test/data-fmllr-tri3/train/data/feats_fmllr_train.10.ark:5980173
msat1_si1073 quick_test/data-fmllr-tri3/train/data/feats_fmllr_train.9.ark:12156183
mrpc1_sx312 quick_test/data-fmllr-tri3/train/data/feats_fmllr_train.9.ark:7283737
mcth0_sx129 quick_test/data-fmllr-tri3/train/data/feats_fmllr_train.4.ark:13379530
fsjs0_sx181 quick_test/data-fmllr-tri3/train/data/feats_fmllr_train.3.ark:9321725
mmvp0_si1284 quick_test/data-fmllr-tri3/train/data/feats_fmllr_train.8.ark:2969111
mprd0_sx351 quick_test/data-fmllr-tri3/train/data/feats_fmllr_train.8.ark:9671757
flja0_sx358 quick_test/data-fmllr-tri3/train/data/feats_fmllr_train.2.ark:11051777
mbar0_sx329 quick_test/data-fmllr-tri3/train/data/feats_fmllr_train.4.ark:3620025
maeb0_si2250 quick_test/data-fmllr-tri3/train/data/feats_fmllr_train.4.ark:65321
mrms0_sx390 quick_test/data-fmllr-tri3/train/data/feats_fmllr_train.9.ark:7049492
mesg0_sx342 quick_test/data-fmllr-tri3/train/data/feats_fmllr_train.5.ark:13213127
mdwh0_si665 quick_test/data-fmllr-tri3/train/data/feats_fmllr_train.5.ark:10049073
mkls1_sx375 quick_test/data-fmllr-tri3/train/data/feats_fmllr_train.7.ark:8939376
meal0_si2177 quick_test/data-fmllr-tri3/train/data/feats_fmllr_train.5.ark:10811080
fsdc0_sx52 quick_test/data-fmllr-tri3/train/data/feats_fmllr_train.3.ark:7531627
mrjb1_sx30 quick_test/data-fmllr-tri3/train/data/feats_fmllr_train.9.ark:1105701
mjpm0_si1998 quick_test/data-fmllr-tri3/train/data/feats_fmllr_train.6.ark:16506809
mjkr0_sx211 quick_test/data-fmllr-tri3/train/data/feats_fmllr_train.6.ark:13777632
mdjm0_si825 quick_test/data-fmllr-tri3/train/data/feats_fmllr_train.5.ark:1679496
mmea0_sx308 quick_test/data-fmllr-tri3/train/data/feats_fmllr_train.7.ark:17530179
mram0_sx285 quick_test/data-fmllr-tri3/train/data/feats_fmllr_train.8.ark:12416502
fmkc0_si1072 quick_test/data-fmllr-tri3/train/data/feats_fmllr_train.2.ark:16805484
ftlg0_sx303 quick_test/data-fmllr-tri3/train/data/feats_fmllr_train.3.ark:15263434
mded0_si1800 quick_test/data-fmllr-tri3/train/data/feats_fmllr_train.4.ark:17047404
mprk0_sx287 quick_test/data-fmllr-tri3/train/data/feats_fmllr_train.8.ark:10164640
fjdm2_sx412 quick_test/data-fmllr-tri3/train/data/feats_fmllr_train.2.ark:317937
fsma0_sx451 quick_test/data-fmllr-tri3/train/data/feats_fmllr_train.3.ark:11776229
mlbc0_sx339 quick_test/data-fmllr-tri3/train/data/feats_fmllr_train.7.ark:10368992
mfwk0_si619 quick_test/data-fmllr-tri3/train/data/feats_fmllr_train.5.ark:15202187
mdcm0_si2110 quick_test/data-fmllr-tri3/train/data/feats_fmllr_train.4.ark:16334330
mmdm1_sx423 quick_test/data-fmllr-tri3/train/data/feats_fmllr_train.7.ark:16913292
mprk0_si467 quick_test/data-fmllr-tri3/train/data/feats_fmllr_train.8.ark:9955413
fklh0_si1887 quick_test/data-fmllr-tri3/train/data/feats_fmllr_train.2.ark:8183107
mjeb0_sx206 quick_test/data-fmllr-tri3/train/data/feats_fmllr_train.6.ark:10250879
fbas0_si1387 quick_test/data-fmllr-tri3/train/data/feats_fmllr_train.1.ark:2053414
mbth0_sx392 quick_test/data-fmllr-tri3/train/data/feats_fmllr_train.4.ark:7656704
fpac0_sx391 quick_test/data-fmllr-tri3/train/data/feats_fmllr_train.3.ark:1566772
mwem0_si1950 quick_test/data-fmllr-tri3/train/data/feats_fmllr_train.10.ark:15337496
mhxl0_si612 quick_test/data-fmllr-tri3/train/data/feats_fmllr_train.6.ark:5812439
mwch0_si1622 quick_test/data-fmllr-tri3/train/data/feats_fmllr_train.10.ark:14541165
mwgr0_si1606 quick_test/data-fmllr-tri3/train/data/feats_fmllr_train.10.ark:15655898
mgsl0_si534 quick_test/data-fmllr-tri3/train/data/feats_fmllr_train.6.ark:2773079
fkaa0_sx398 quick_test/data-fmllr-tri3/train/data/feats_fmllr_train.2.ark:5559347
fmkc0_sx442 quick_test/data-fmllr-tri3/train/data/feats_fmllr_train.2.ark:17034900
mtat1_sx419 quick_test/data-fmllr-tri3/train/data/feats_fmllr_train.10.ark:1970804
fvkb0_si1159 quick_test/data-fmllr-tri3/train/data/feats_fmllr_train.3.ark:16098030
mfmc0_sx142 quick_test/data-fmllr-tri3/train/data/feats_fmllr_train.5.ark:14498099
mrdd0_si2310 quick_test/data-fmllr-tri3/train/data/feats_fmllr_train.8.ark:14155082
mjls0_si466 quick_test/data-fmllr-tri3/train/data/feats_fmllr_train.6.ark:14800790
mmxs0_sx66 quick_test/data-fmllr-tri3/train/data/feats_fmllr_train.8.ark:4948407
fcdr1_sx106 quick_test/data-fmllr-tri3/train/data/feats_fmllr_train.1.ark:5825530
mfer0_sx142 quick_test/data-fmllr-tri3/train/data/feats_fmllr_train.5.ark:14137082
mmsm0_sx116 quick_test/data-fmllr-tri3/train/data/feats_fmllr_train.8.ark:2748016
mjjm0_sx287 quick_test/data-fmllr-tri3/train/data/feats_fmllr_train.6.ark:13457468
msdb0_sx377 quick_test/data-fmllr-tri3/train/data/feats_fmllr_train.9.ark:12765711
mkdd0_si1567 quick_test/data-fmllr-tri3/train/data/feats_fmllr_train.7.ark:5940067
fpmy0_si523 quick_test/data-fmllr-tri3/train/data/feats_fmllr_train.3.ark:3679299
mdlr0_si1863 quick_test/data-fmllr-tri3/train/data/feats_fmllr_train.5.ark:4713526
fmpg0_si972 quick_test/data-fmllr-tri3/train/data/feats_fmllr_train.2.ark:18029999
falk0_sx6 quick_test/data-fmllr-tri3/train/data/feats_fmllr_train.1.ark:1121405
mgxp0_sx7 quick_test/data-fmllr-tri3/train/data/feats_fmllr_train.6.ark:3475828
fsjs0_sx451 quick_test/data-fmllr-tri3/train/data/feats_fmllr_train.3.ark:9472846
mrso0_si1659 quick_test/data-fmllr-tri3/train/data/feats_fmllr_train.9.ark:7963422
msjk0_sx246 quick_test/data-fmllr-tri3/train/data/feats_fmllr_train.9.ark:15623312
fklc1_sx328 quick_test/data-fmllr-tri3/train/data/feats_fmllr_train.2.ark:7928598
mtwh1_sx342 quick_test/data-fmllr-tri3/train/data/feats_fmllr_train.10.ark:11759082
mbjv0_sx347 quick_test/data-fmllr-tri3/train/data/feats_fmllr_train.4.ark:5408630
fkde0_sx331 quick_test/data-fmllr-tri3/train/data/feats_fmllr_train.2.ark:5895192
fklh0_si627 quick_test/data-fmllr-tri3/train/data/feats_fmllr_train.2.ark:8205534
mdcd0_sx155 quick_test/data-fmllr-tri3/train/data/feats_fmllr_train.4.ark:16042807
mtrc0_sx93 quick_test/data-fmllr-tri3/train/data/feats_fmllr_train.10.ark:10774964
mbjv0_si617 quick_test/data-fmllr-tri3/train/data/feats_fmllr_train.4.ark:5279749
fnkl0_sx262 quick_test/data-fmllr-tri3/train/data/feats_fmllr_train.3.ark:236469
mhjb0_sx117 quick_test/data-fmllr-tri3/train/data/feats_fmllr_train.6.ark:4446479
mcal0_sx418 quick_test/data-fmllr-tri3/train/data/feats_fmllr_train.4.ark:8864367
makr0_sx92 quick_test/data-fmllr-tri3/train/data/feats_fmllr_train.4.ark:2209770
mrsp0_si2059 quick_test/data-fmllr-tri3/train/data/feats_fmllr_train.9.ark:8423800
mwrp0_sx273 quick_test/data-fmllr-tri3/train/data/feats_fmllr_train.10.ark:16633883
mdac0_sx361 quick_test/data-fmllr-tri3/train/data/feats_fmllr_train.4.ark:14627755
mrlj1_sx411 quick_test/data-fmllr-tri3/train/data/feats_fmllr_train.9.ark:4317704
mtat0_sx300 quick_test/data-fmllr-tri3/train/data/feats_fmllr_train.10.ark:1542586
mkes0_sx443 quick_test/data-fmllr-tri3/train/data/feats_fmllr_train.7.ark:7061143
mmdb0_sx357 quick_test/data-fmllr-tri3/train/data/feats_fmllr_train.7.ark:15705254
flmk0_si1035 quick_test/data-fmllr-tri3/train/data/feats_fmllr_train.2.ark:13204142
fjxp0_si492 quick_test/data-fmllr-tri3/train/data/feats_fmllr_train.2.ark:4951316
fdtd0_sx211 quick_test/data-fmllr-tri3/train/data/feats_fmllr_train.1.ark:12787068
mjma0_sx325 quick_test/data-fmllr-tri3/train/data/feats_fmllr_train.6.ark:15305888
mtwh1_sx252 quick_test/data-fmllr-tri3/train/data/feats_fmllr_train.10.ark:11715215
mjjm0_si1251 quick_test/data-fmllr-tri3/train/data/feats_fmllr_train.6.ark:13161626
fskc0_sx66 quick_test/data-fmllr-tri3/train/data/feats_fmllr_train.3.ark:10309146
fpjf0_si1046 quick_test/data-fmllr-tri3/train/data/feats_fmllr_train.3.ark:2831611
mdhs0_sx450 quick_test/data-fmllr-tri3/train/data/feats_fmllr_train.5.ark:1474747
mafm0_sx309 quick_test/data-fmllr-tri3/train/data/feats_fmllr_train.4.ark:940104
mjlg1_sx202 quick_test/data-fmllr-tri3/train/data/feats_fmllr_train.6.ark:14499987
mdlc2_sx264 quick_test/data-fmllr-tri3/train/data/feats_fmllr_train.5.ark:3739197
mjdg0_si1672 quick_test/data-fmllr-tri3/train/data/feats_fmllr_train.6.ark:9291003
mmdm0_si1311 quick_test/data-fmllr-tri3/train/data/feats_fmllr_train.7.ark:16233392
mlbc0_si609 quick_test/data-fmllr-tri3/train/data/feats_fmllr_train.7.ark:10225071
mram0_sx195 quick_test/data-fmllr-tri3/train/data/feats_fmllr_train.8.ark:12384795
mlns0_sx57 quick_test/data-fmllr-tri3/train/data/feats_fmllr_train.7.ark:12143833
mafm0_sx39 quick_test/data-fmllr-tri3/train/data/feats_fmllr_train.4.ark:988130
msfv0_sx272 quick_test/data-fmllr-tri3/train/data/feats_fmllr_train.9.ark:15196855
mjrh1_sx424 quick_test/data-fmllr-tri3/train/data/feats_fmllr_train.7.ark:681994
mbcg0_sx147 quick_test/data-fmllr-tri3/train/data/feats_fmllr_train.4.ark:4247285
mtas0_si2015 quick_test/data-fmllr-tri3/train/data/feats_fmllr_train.10.ark:993915
fdtd0_sx321 quick_test/data-fmllr-tri3/train/data/feats_fmllr_train.1.ark:12894642
mram0_si1275 quick_test/data-fmllr-tri3/train/data/feats_fmllr_train.8.ark:12136659
mdef0_sx303 quick_test/data-fmllr-tri3/train/data/feats_fmllr_train.5.ark:244310
mpgr0_sx330 quick_test/data-fmllr-tri3/train/data/feats_fmllr_train.8.ark:7349711
mdlc2_si984 quick_test/data-fmllr-tri3/train/data/feats_fmllr_train.5.ark:3621383
mcdd0_sx73 quick_test/data-fmllr-tri3/train/data/feats_fmllr_train.4.ark:9647227
mjjm0_si1457 quick_test/data-fmllr-tri3/train/data/feats_fmllr_train.6.ark:13239894
fscn0_si626 quick_test/data-fmllr-tri3/train/data/feats_fmllr_train.3.ark:6805968
mrjm1_sx218 quick_test/data-fmllr-tri3/train/data/feats_fmllr_train.9.ark:2291126
mmsm0_sx26 quick_test/data-fmllr-tri3/train/data/feats_fmllr_train.8.ark:2835429
mgxp0_sx97 quick_test/data-fmllr-tri3/train/data/feats_fmllr_train.6.ark:3521774
mrtc0_si1458 quick_test/data-fmllr-tri3/train/data/feats_fmllr_train.9.ark:8751509
mrjh0_si1519 quick_test/data-fmllr-tri3/train/data/feats_fmllr_train.9.ark:1237303
mmeb0_sx327 quick_test/data-fmllr-tri3/train/data/feats_fmllr_train.7.ark:17812929
mdwm0_sx376 quick_test/data-fmllr-tri3/train/data/feats_fmllr_train.5.ark:10682037
mrxb0_si955 quick_test/data-fmllr-tri3/train/data/feats_fmllr_train.9.ark:10816489
mdsj0_si2092 quick_test/data-fmllr-tri3/train/data/feats_fmllr_train.5.ark:8272600
mrsp0_sx439 quick_test/data-fmllr-tri3/train/data/feats_fmllr_train.9.ark:8651455
mdtb0_sx300 quick_test/data-fmllr-tri3/train/data/feats_fmllr_train.5.ark:9452239
fkfb0_si978 quick_test/data-fmllr-tri3/train/data/feats_fmllr_train.2.ark:6541465
ftbr0_sx201 quick_test/data-fmllr-tri3/train/data/feats_fmllr_train.3.ark:14429854
mgxp0_si1087 quick_test/data-fmllr-tri3/train/data/feats_fmllr_train.6.ark:3146228
mcae0_sx277 quick_test/data-fmllr-tri3/train/data/feats_fmllr_train.4.ark:8387938
mdlr0_sx63 quick_test/data-fmllr-tri3/train/data/feats_fmllr_train.5.ark:5017047
mkrg0_sx411 quick_test/data-fmllr-tri3/train/data/feats_fmllr_train.7.ark:9677704
mgaf0_si1282 quick_test/data-fmllr-tri3/train/data/feats_fmllr_train.5.ark:16233825
fdnc0_sx288 quick_test/data-fmllr-tri3/train/data/feats_fmllr_train.1.ark:12471704
medr0_si744 quick_test/data-fmllr-tri3/train/data/feats_fmllr_train.5.ark:11182685
mfxs0_si2304 quick_test/data-fmllr-tri3/train/data/feats_fmllr_train.5.ark:15562565
fdaw0_si1271 quick_test/data-fmllr-tri3/train/data/feats_fmllr_train.1.ark:9731036
ftbw0_si1975 quick_test/data-fmllr-tri3/train/data/feats_fmllr_train.3.ark:14626470
mgrl0_sx147 quick_test/data-fmllr-tri3/train/data/feats_fmllr_train.6.ark:1649925
mmaa0_si1588 quick_test/data-fmllr-tri3/train/data/feats_fmllr_train.7.ark:12587758
fcrz0_si2053 quick_test/data-fmllr-tri3/train/data/feats_fmllr_train.1.ark:8625613
falk0_si1086 quick_test/data-fmllr-tri3/train/data/feats_fmllr_train.1.ark:814845
mfer0_sx322 quick_test/data-fmllr-tri3/train/data/feats_fmllr_train.5.ark:14236496
mwgr0_si976 quick_test/data-fmllr-tri3/train/data/feats_fmllr_train.10.ark:15736113
mlbc0_si1869 quick_test/data-fmllr-tri3/train/data/feats_fmllr_train.7.ark:10191764
fhlm0_si1560 quick_test/data-fmllr-tri3/train/data/feats_fmllr_train.1.ark:17959863
mgaf0_sx112 quick_test/data-fmllr-tri3/train/data/feats_fmllr_train.5.ark:16393107
mjpm0_si1368 quick_test/data-fmllr-tri3/train/data/feats_fmllr_train.6.ark:16436381
mrjb1_sx120 quick_test/data-fmllr-tri3/train/data/feats_fmllr_train.9.ark:999088
fljg0_si2241 quick_test/data-fmllr-tri3/train/data/feats_fmllr_train.2.ark:11638023
mtpg0_sx123 quick_test/data-fmllr-tri3/train/data/feats_fmllr_train.10.ark:8962950
mgag0_si1321 quick_test/data-fmllr-tri3/train/data/feats_fmllr_train.5.ark:16573402
mdmt0_si572 quick_test/data-fmllr-tri3/train/data/feats_fmllr_train.5.ark:5973245
flma0_si613 quick_test/data-fmllr-tri3/train/data/feats_fmllr_train.2.ark:12567283
mmwb0_sx89 quick_test/data-fmllr-tri3/train/data/feats_fmllr_train.8.ark:3890158
fjen0_si1047 quick_test/data-fmllr-tri3/train/data/feats_fmllr_train.2.ark:417031
mhit0_sx173 quick_test/data-fmllr-tri3/train/data/feats_fmllr_train.6.ark:4069301
mhbs0_si945 quick_test/data-fmllr-tri3/train/data/feats_fmllr_train.6.ark:3654977
fear0_sx172 quick_test/data-fmllr-tri3/train/data/feats_fmllr_train.1.ark:13866413
mctm0_sx90 quick_test/data-fmllr-tri3/train/data/feats_fmllr_train.4.ark:13956494
fjen0_sx57 quick_test/data-fmllr-tri3/train/data/feats_fmllr_train.2.ark:812901
mrbc0_sx329 quick_test/data-fmllr-tri3/train/data/feats_fmllr_train.8.ark:13086191
fmbg0_sx440 quick_test/data-fmllr-tri3/train/data/feats_fmllr_train.2.ark:14997335
mrfl0_sx436 quick_test/data-fmllr-tri3/train/data/feats_fmllr_train.8.ark:17399327
mmcc0_si708 quick_test/data-fmllr-tri3/train/data/feats_fmllr_train.7.ark:15207196
mdbb1_si1006 quick_test/data-fmllr-tri3/train/data/feats_fmllr_train.4.ark:15118290
mmgc0_si1935 quick_test/data-fmllr-tri3/train/data/feats_fmllr_train.8.ark:67561
maeb0_sx270 quick_test/data-fmllr-tri3/train/data/feats_fmllr_train.4.ark:201882
mkes0_sx173 quick_test/data-fmllr-tri3/train/data/feats_fmllr_train.7.ark:6904582
mtmt0_si488 quick_test/data-fmllr-tri3/train/data/feats_fmllr_train.10.ark:8153369
fljg0_sx171 quick_test/data-fmllr-tri3/train/data/feats_fmllr_train.2.ark:11750717
fmmh0_sx420 quick_test/data-fmllr-tri3/train/data/feats_fmllr_train.2.ark:17782985
mgjc0_si1335 quick_test/data-fmllr-tri3/train/data/feats_fmllr_train.6.ark:1120533
mrlj0_si1420 quick_test/data-fmllr-tri3/train/data/feats_fmllr_train.9.ark:3714123
mjls0_sx16 quick_test/data-fmllr-tri3/train/data/feats_fmllr_train.6.ark:14880843
mcdr0_si1784 quick_test/data-fmllr-tri3/train/data/feats_fmllr_train.4.ark:9753523
mrlj1_sx51 quick_test/data-fmllr-tri3/train/data/feats_fmllr_train.9.ark:4361410
mrew1_si1500 quick_test/data-fmllr-tri3/train/data/feats_fmllr_train.8.ark:16352169
fvfb0_si1032 quick_test/data-fmllr-tri3/train/data/feats_fmllr_train.3.ark:15754452
mter0_sx257 quick_test/data-fmllr-tri3/train/data/feats_fmllr_train.10.ark:3939222
flkm0_si1880 quick_test/data-fmllr-tri3/train/data/feats_fmllr_train.2.ark:12043492
mtju0_si2020 quick_test/data-fmllr-tri3/train/data/feats_fmllr_train.10.ark:5304434
mlns0_sx417 quick_test/data-fmllr-tri3/train/data/feats_fmllr_train.7.ark:12090207
mjra0_sx156 quick_test/data-fmllr-tri3/train/data/feats_fmllr_train.6.ark:17365537
mkls0_sx177 quick_test/data-fmllr-tri3/train/data/feats_fmllr_train.7.ark:8385452
fklc0_si2245 quick_test/data-fmllr-tri3/train/data/feats_fmllr_train.2.ark:7334352
mtpf0_si1235 quick_test/data-fmllr-tri3/train/data/feats_fmllr_train.10.ark:8452411
mjpg0_sx111 quick_test/data-fmllr-tri3/train/data/feats_fmllr_train.6.ark:16271606
flmc0_si1372 quick_test/data-fmllr-tri3/train/data/feats_fmllr_train.2.ark:12819605
mcef0_sx55 quick_test/data-fmllr-tri3/train/data/feats_fmllr_train.4.ark:10439821
mpfu0_si1258 quick_test/data-fmllr-tri3/train/data/feats_fmllr_train.8.ark:6416822
mejs0_si1870 quick_test/data-fmllr-tri3/train/data/feats_fmllr_train.5.ark:12666562
fhlm0_sx349 quick_test/data-fmllr-tri3/train/data/feats_fmllr_train.1.ark:18235386
mhit0_si1613 quick_test/data-fmllr-tri3/train/data/feats_fmllr_train.6.ark:3914659
mram0_sx15 quick_test/data-fmllr-tri3/train/data/feats_fmllr_train.8.ark:12333568
fsbk0_si1069 quick_test/data-fmllr-tri3/train/data/feats_fmllr_train.3.ark:6333883
mjpg0_si1821 quick_test/data-fmllr-tri3/train/data/feats_fmllr_train.6.ark:16147392
fecd0_si788 quick_test/data-fmllr-tri3/train/data/feats_fmllr_train.1.ark:14266443
mjlg1_sx22 quick_test/data-fmllr-tri3/train/data/feats_fmllr_train.6.ark:14527213
mtrc0_si589 quick_test/data-fmllr-tri3/train/data/feats_fmllr_train.10.ark:10508083
fbch0_si959 quick_test/data-fmllr-tri3/train/data/feats_fmllr_train.1.ark:2955823
mmjb1_sx238 quick_test/data-fmllr-tri3/train/data/feats_fmllr_train.8.ark:1219975
fklc1_sx148 quick_test/data-fmllr-tri3/train/data/feats_fmllr_train.2.ark:7841024
mabc0_sx151 quick_test/data-fmllr-tri3/train/data/feats_fmllr_train.3.ark:16979186
fmkc0_sx172 quick_test/data-fmllr-tri3/train/data/feats_fmllr_train.2.ark:16873059
mtkd0_si630 quick_test/data-fmllr-tri3/train/data/feats_fmllr_train.10.ark:5774626
fjwb1_sx255 quick_test/data-fmllr-tri3/train/data/feats_fmllr_train.2.ark:4233496
fsak0_sx400 quick_test/data-fmllr-tri3/train/data/feats_fmllr_train.3.ark:6290175
fsls0_si1056 quick_test/data-fmllr-tri3/train/data/feats_fmllr_train.3.ark:11094088
megj0_si1337 quick_test/data-fmllr-tri3/train/data/feats_fmllr_train.5.ark:11824502
mwac0_sx161 quick_test/data-fmllr-tri3/train/data/feats_fmllr_train.10.ark:13575474
mbml0_sx449 quick_test/data-fmllr-tri3/train/data/feats_fmllr_train.4.ark:6588828
fsah0_sx434 quick_test/data-fmllr-tri3/train/data/feats_fmllr_train.3.ark:5872972
mctm0_sx180 quick_test/data-fmllr-tri3/train/data/feats_fmllr_train.4.ark:13776707
mtrr0_sx378 quick_test/data-fmllr-tri3/train/data/feats_fmllr_train.10.ark:11132621
mtrc0_sx363 quick_test/data-fmllr-tri3/train/data/feats_fmllr_train.10.ark:10734298
mdhl0_sx359 quick_test/data-fmllr-tri3/train/data/feats_fmllr_train.5.ark:1047623
mbef0_sx291 quick_test/data-fmllr-tri3/train/data/feats_fmllr_train.4.ark:4720222
fdmy0_si714 quick_test/data-fmllr-tri3/train/data/feats_fmllr_train.1.ark:11772179
fbas0_sx397 quick_test/data-fmllr-tri3/train/data/feats_fmllr_train.1.ark:2416324
mjlb0_si2246 quick_test/data-fmllr-tri3/train/data/feats_fmllr_train.6.ark:14017128
mbml0_si1169 quick_test/data-fmllr-tri3/train/data/feats_fmllr_train.4.ark:6332185
mjrk0_sx430 quick_test/data-fmllr-tri3/train/data/feats_fmllr_train.7.ark:1041411
fbmh0_sx416 quick_test/data-fmllr-tri3/train/data/feats_fmllr_train.1.ark:4376423
mmdg0_sx160 quick_test/data-fmllr-tri3/train/data/feats_fmllr_train.7.ark:15979657
fntb0_sx123 quick_test/data-fmllr-tri3/train/data/feats_fmllr_train.3.ark:538071
fpls0_sx3 quick_test/data-fmllr-tri3/train/data/feats_fmllr_train.3.ark:3441083
mtjm0_si1226 quick_test/data-fmllr-tri3/train/data/feats_fmllr_train.10.ark:4469440
mbml0_si539 quick_test/data-fmllr-tri3/train/data/feats_fmllr_train.4.ark:6409840
fjen0_si2307 quick_test/data-fmllr-tri3/train/data/feats_fmllr_train.2.ark:515007
fcmm0_si453 quick_test/data-fmllr-tri3/train/data/feats_fmllr_train.1.ark:8306383
madd0_si1295 quick_test/data-fmllr-tri3/train/data/feats_fmllr_train.3.ark:17591378
mesg0_sx432 quick_test/data-fmllr-tri3/train/data/feats_fmllr_train.5.ark:13267074
mdwh0_sx35 quick_test/data-fmllr-tri3/train/data/feats_fmllr_train.5.ark:10286460
mchl0_sx447 quick_test/data-fmllr-tri3/train/data/feats_fmllr_train.4.ark:11289670
fdkn0_sx91 quick_test/data-fmllr-tri3/train/data/feats_fmllr_train.1.ark:11232359
fkde0_sx421 quick_test/data-fmllr-tri3/train/data/feats_fmllr_train.2.ark:5950259
mfer0_sx52 quick_test/data-fmllr-tri3/train/data/feats_fmllr_train.5.ark:14310149
fdtd0_si1561 quick_test/data-fmllr-tri3/train/data/feats_fmllr_train.1.ark:12587759
makb0_si1646 quick_test/data-fmllr-tri3/train/data/feats_fmllr_train.4.ark:1594831
mreh1_si2229 quick_test/data-fmllr-tri3/train/data/feats_fmllr_train.8.ark:15599284
mjai0_si1604 quick_test/data-fmllr-tri3/train/data/feats_fmllr_train.6.ark:7268130
ftbr0_sx381 quick_test/data-fmllr-tri3/train/data/feats_fmllr_train.3.ark:14551054
mapv0_si663 quick_test/data-fmllr-tri3/train/data/feats_fmllr_train.4.ark:2364733
mpsw0_sx77 quick_test/data-fmllr-tri3/train/data/feats_fmllr_train.8.ark:10895340
fajw0_si633 quick_test/data-fmllr-tri3/train/data/feats_fmllr_train.1.ark:512445
mejs0_sx160 quick_test/data-fmllr-tri3/train/data/feats_fmllr_train.5.ark:12749336
fcag0_sx333 quick_test/data-fmllr-tri3/train/data/feats_fmllr_train.1.ark:5084510
mrjm0_si1228 quick_test/data-fmllr-tri3/train/data/feats_fmllr_train.9.ark:1734827
mjls0_si1726 quick_test/data-fmllr-tri3/train/data/feats_fmllr_train.6.ark:14711003
mrmb0_si2211 quick_test/data-fmllr-tri3/train/data/feats_fmllr_train.9.ark:5188780
mrem0_sx421 quick_test/data-fmllr-tri3/train/data/feats_fmllr_train.8.ark:16257875
mtkp0_sx33 quick_test/data-fmllr-tri3/train/data/feats_fmllr_train.10.ark:6419910
mdcm0_sx130 quick_test/data-fmllr-tri3/train/data/feats_fmllr_train.4.ark:16425264
mklw0_sx311 quick_test/data-fmllr-tri3/train/data/feats_fmllr_train.7.ark:9216981
mrkm0_sx97 quick_test/data-fmllr-tri3/train/data/feats_fmllr_train.9.ark:3340918
mdks0_si1696 quick_test/data-fmllr-tri3/train/data/feats_fmllr_train.5.ark:1955686
freh0_sx235 quick_test/data-fmllr-tri3/train/data/feats_fmllr_train.3.ark:4206450
ftbw0_sx265 quick_test/data-fmllr-tri3/train/data/feats_fmllr_train.3.ark:14809911
msfv0_si1892 quick_test/data-fmllr-tri3/train/data/feats_fmllr_train.9.ark:15015814
mjai0_si710 quick_test/data-fmllr-tri3/train/data/feats_fmllr_train.6.ark:7382104
mcdd0_sx343 quick_test/data-fmllr-tri3/train/data/feats_fmllr_train.4.ark:9550694
mtkd0_si1187 quick_test/data-fmllr-tri3/train/data/feats_fmllr_train.10.ark:5669771
mdhs0_sx180 quick_test/data-fmllr-tri3/train/data/feats_fmllr_train.5.ark:1355786
fbcg1_sx262 quick_test/data-fmllr-tri3/train/data/feats_fmllr_train.1.ark:2640621
fbcg1_sx82 quick_test/data-fmllr-tri3/train/data/feats_fmllr_train.1.ark:2808221
fjlg0_sx89 quick_test/data-fmllr-tri3/train/data/feats_fmllr_train.2.ark:1950194
mrmg0_sx360 quick_test/data-fmllr-tri3/train/data/feats_fmllr_train.9.ark:5747666
mtat1_si1409 quick_test/data-fmllr-tri3/train/data/feats_fmllr_train.10.ark:1622481
fhxs0_sx445 quick_test/data-fmllr-tri3/train/data/feats_fmllr_train.1.ark:18754165
mhit0_si983 quick_test/data-fmllr-tri3/train/data/feats_fmllr_train.6.ark:3993914
fcjf0_sx37 quick_test/data-fmllr-tri3/train/data/feats_fmllr_train.1.ark:6625404
fkfb0_sx258 quick_test/data-fmllr-tri3/train/data/feats_fmllr_train.2.ark:6635439
ftbr0_si921 quick_test/data-fmllr-tri3/train/data/feats_fmllr_train.3.ark:14323720
fspm0_sx251 quick_test/data-fmllr-tri3/train/data/feats_fmllr_train.3.ark:12919386
mfxs0_sx144 quick_test/data-fmllr-tri3/train/data/feats_fmllr_train.5.ark:15603072
mntw0_si1068 quick_test/data-fmllr-tri3/train/data/feats_fmllr_train.8.ark:5322090
mlsh0_si1417 quick_test/data-fmllr-tri3/train/data/feats_fmllr_train.7.ark:12180661
mrab0_si1224 quick_test/data-fmllr-tri3/train/data/feats_fmllr_train.8.ark:10934728
fskl0_sx449 quick_test/data-fmllr-tri3/train/data/feats_fmllr_train.3.ark:10639417
mrdm0_si1595 quick_test/data-fmllr-tri3/train/data/feats_fmllr_train.8.ark:14477032
fjsp0_si804 quick_test/data-fmllr-tri3/train/data/feats_fmllr_train.2.ark:3748266
mpmb0_sx61 quick_test/data-fmllr-tri3/train/data/feats_fmllr_train.8.ark:8466039
msah1_sx239 quick_test/data-fmllr-tri3/train/data/feats_fmllr_train.9.ark:11252281
msem1_si1440 quick_test/data-fmllr-tri3/train/data/feats_fmllr_train.9.ark:13658974
mjrh1_sx334 quick_test/data-fmllr-tri3/train/data/feats_fmllr_train.7.ark:646287
mdtb0_sx321 quick_test/data-fmllr-tri3/train/data/feats_fmllr_train.5.ark:9484746
mtjg0_sx350 quick_test/data-fmllr-tri3/train/data/feats_fmllr_train.10.ark:4315919
mkdt0_si2153 quick_test/data-fmllr-tri3/train/data/feats_fmllr_train.7.ark:6322364
mrws0_si1102 quick_test/data-fmllr-tri3/train/data/feats_fmllr_train.9.ark:10372857
mdlc2_sx174 quick_test/data-fmllr-tri3/train/data/feats_fmllr_train.5.ark:3683330
mmcc0_sx258 quick_test/data-fmllr-tri3/train/data/feats_fmllr_train.7.ark:15285330
mjae0_sx84 quick_test/data-fmllr-tri3/train/data/feats_fmllr_train.6.ark:7197382
fdas1_sx21 quick_test/data-fmllr-tri3/train/data/feats_fmllr_train.1.ark:9616554
fgrw0_sx252 quick_test/data-fmllr-tri3/train/data/feats_fmllr_train.1.ark:17756715
mrjb1_si1020 quick_test/data-fmllr-tri3/train/data/feats_fmllr_train.9.ark:783805
mdmt0_si1832 quick_test/data-fmllr-tri3/train/data/feats_fmllr_train.5.ark:5929030
mmpm0_sx431 quick_test/data-fmllr-tri3/train/data/feats_fmllr_train.8.ark:2062864
mhmr0_sx39 quick_test/data-fmllr-tri3/train/data/feats_fmllr_train.6.ark:5277873
mmds0_si713 quick_test/data-fmllr-tri3/train/data/feats_fmllr_train.7.ark:17098841
fskc0_si1416 quick_test/data-fmllr-tri3/train/data/feats_fmllr_train.3.ark:9998077
fpac0_sx31 quick_test/data-fmllr-tri3/train/data/feats_fmllr_train.3.ark:1533145
msrr0_si1761 quick_test/data-fmllr-tri3/train/data/feats_fmllr_train.9.ark:17384795
mmaa0_sx35 quick_test/data-fmllr-tri3/train/data/feats_fmllr_train.7.ark:12914800
mjdc0_sx81 quick_test/data-fmllr-tri3/train/data/feats_fmllr_train.6.ark:8696651
feac0_sx345 quick_test/data-fmllr-tri3/train/data/feats_fmllr_train.1.ark:13598250
msvs0_si938 quick_test/data-fmllr-tri3/train/data/feats_fmllr_train.10.ark:123908
mdbp0_si528 quick_test/data-fmllr-tri3/train/data/feats_fmllr_train.4.ark:15555843
fmem0_sx117 quick_test/data-fmllr-tri3/train/data/feats_fmllr_train.2.ark:15257311
fntb0_sx213 quick_test/data-fmllr-tri3/train/data/feats_fmllr_train.3.ark:585618
mtbc0_sx183 quick_test/data-fmllr-tri3/train/data/feats_fmllr_train.10.ark:2212700
ftmg0_si902 quick_test/data-fmllr-tri3/train/data/feats_fmllr_train.3.ark:15446930
fcag0_sx153 quick_test/data-fmllr-tri3/train/data/feats_fmllr_train.1.ark:4988456
mnet0_sx6 quick_test/data-fmllr-tri3/train/data/feats_fmllr_train.8.ark:5245556
mbma0_si592 quick_test/data-fmllr-tri3/train/data/feats_fmllr_train.4.ark:5653726
flmc0_si742 quick_test/data-fmllr-tri3/train/data/feats_fmllr_train.2.ark:12913740
mrbc0_sx59 quick_test/data-fmllr-tri3/train/data/feats_fmllr_train.8.ark:13195684
mdwm0_sx286 quick_test/data-fmllr-tri3/train/data/feats_fmllr_train.5.ark:10623930
mntw0_sx78 quick_test/data-fmllr-tri3/train/data/feats_fmllr_train.8.ark:5697640
mmjb1_si778 quick_test/data-fmllr-tri3/train/data/feats_fmllr_train.8.ark:1137201
mprb0_si1205 quick_test/data-fmllr-tri3/train/data/feats_fmllr_train.8.ark:8928844
fpmy0_sx196 quick_test/data-fmllr-tri3/train/data/feats_fmllr_train.3.ark:3824633
fjen0_si1677 quick_test/data-fmllr-tri3/train/data/feats_fmllr_train.2.ark:463299
mpar0_sx406 quick_test/data-fmllr-tri3/train/data/feats_fmllr_train.8.ark:5989671
mjdc0_sx171 quick_test/data-fmllr-tri3/train/data/feats_fmllr_train.6.ark:8531104
mrjb1_sx210 quick_test/data-fmllr-tri3/train/data/feats_fmllr_train.9.ark:1064075
flag0_si2094 quick_test/data-fmllr-tri3/train/data/feats_fmllr_train.2.ark:9301838
mrlj0_sx250 quick_test/data-fmllr-tri3/train/data/feats_fmllr_train.9.ark:3912312
ftaj0_sx339 quick_test/data-fmllr-tri3/train/data/feats_fmllr_train.3.ark:14106144
mbma0_si1852 quick_test/data-fmllr-tri3/train/data/feats_fmllr_train.4.ark:5627139
fecd0_sx248 quick_test/data-fmllr-tri3/train/data/feats_fmllr_train.1.ark:14389537
msms0_si2063 quick_test/data-fmllr-tri3/train/data/feats_fmllr_train.9.ark:16668681
mjrg0_sx16 quick_test/data-fmllr-tri3/train/data/feats_fmllr_train.6.ark:17791540
mtjs0_sx382 quick_test/data-fmllr-tri3/train/data/feats_fmllr_train.10.ark:5239766
mntw0_si2328 quick_test/data-fmllr-tri3/train/data/feats_fmllr_train.8.ark:5487266
mpgh0_sx24 quick_test/data-fmllr-tri3/train/data/feats_fmllr_train.8.ark:7056053
msms0_sx443 quick_test/data-fmllr-tri3/train/data/feats_fmllr_train.9.ark:16900336
mclm0_si2086 quick_test/data-fmllr-tri3/train/data/feats_fmllr_train.4.ark:11816369
mbwp0_si1969 quick_test/data-fmllr-tri3/train/data/feats_fmllr_train.4.ark:7733080
mrml0_sx431 quick_test/data-fmllr-tri3/train/data/feats_fmllr_train.9.ark:6634528
fclt0_sx358 quick_test/data-fmllr-tri3/train/data/feats_fmllr_train.1.ark:7644109
mjdg0_sx142 quick_test/data-fmllr-tri3/train/data/feats_fmllr_train.6.ark:9388338
fdtd0_sx301 quick_test/data-fmllr-tri3/train/data/feats_fmllr_train.1.ark:12833975
mjxl0_sx362 quick_test/data-fmllr-tri3/train/data/feats_fmllr_train.7.ark:3842582
ftlg0_sx213 quick_test/data-fmllr-tri3/train/data/feats_fmllr_train.3.ark:15217807
mjdm0_si1937 quick_test/data-fmllr-tri3/train/data/feats_fmllr_train.6.ark:9702581
mrvg0_sx420 quick_test/data-fmllr-tri3/train/data/feats_fmllr_train.9.ark:9898986
mjfh0_sx207 quick_test/data-fmllr-tri3/train/data/feats_fmllr_train.6.ark:11393930
meal0_si917 quick_test/data-fmllr-tri3/train/data/feats_fmllr_train.5.ark:10850627
mmdm0_sx411 quick_test/data-fmllr-tri3/train/data/feats_fmllr_train.7.ark:16521715
mtqc0_si480 quick_test/data-fmllr-tri3/train/data/feats_fmllr_train.10.ark:10112694
mjwt0_sx211 quick_test/data-fmllr-tri3/train/data/feats_fmllr_train.7.ark:3065641
mtju0_sx40 quick_test/data-fmllr-tri3/train/data/feats_fmllr_train.10.ark:5580756
mrld0_sx424 quick_test/data-fmllr-tri3/train/data/feats_fmllr_train.9.ark:3638229
fskc0_si2046 quick_test/data-fmllr-tri3/train/data/feats_fmllr_train.3.ark:10040025
mjjb0_si1769 quick_test/data-fmllr-tri3/train/data/feats_fmllr_train.6.ark:12430047
mpgr0_si1410 quick_test/data-fmllr-tri3/train/data/feats_fmllr_train.8.ark:7151815
fcmm0_sx183 quick_test/data-fmllr-tri3/train/data/feats_fmllr_train.1.ark:8344010
mjee0_sx157 quick_test/data-fmllr-tri3/train/data/feats_fmllr_train.6.ark:10964406
majp0_sx264 quick_test/data-fmllr-tri3/train/data/feats_fmllr_train.4.ark:1287655
fljg0_si981 quick_test/data-fmllr-tri3/train/data/feats_fmllr_train.2.ark:11672930
fkkh0_si660 quick_test/data-fmllr-tri3/train/data/feats_fmllr_train.2.ark:7043602
mgsh0_sx276 quick_test/data-fmllr-tri3/train/data/feats_fmllr_train.6.ark:2576493
msfh0_si1738 quick_test/data-fmllr-tri3/train/data/feats_fmllr_train.9.ark:14556237
mdwh0_sx305 quick_test/data-fmllr-tri3/train/data/feats_fmllr_train.5.ark:10231074
fljg0_sx441 quick_test/data-fmllr-tri3/train/data/feats_fmllr_train.2.ark:11942638
mdlc0_sx315 quick_test/data-fmllr-tri3/train/data/feats_fmllr_train.5.ark:3057669
fmem0_sx207 quick_test/data-fmllr-tri3/train/data/feats_fmllr_train.2.ark:15308698
fpmy0_sx253 quick_test/data-fmllr-tri3/train/data/feats_fmllr_train.3.ark:3859700
fetb0_sx158 quick_test/data-fmllr-tri3/train/data/feats_fmllr_train.1.ark:15569361
fcag0_si1503 quick_test/data-fmllr-tri3/train/data/feats_fmllr_train.1.ark:4895413
fcyl0_sx127 quick_test/data-fmllr-tri3/train/data/feats_fmllr_train.1.ark:9102844
fklc0_sx265 quick_test/data-fmllr-tri3/train/data/feats_fmllr_train.2.ark:7527073
fjxp0_sx132 quick_test/data-fmllr-tri3/train/data/feats_fmllr_train.2.ark:4979663
frll0_sx74 quick_test/data-fmllr-tri3/train/data/feats_fmllr_train.3.ark:5040084
fbjl0_sx382 quick_test/data-fmllr-tri3/train/data/feats_fmllr_train.1.ark:3614254
mjai0_sx344 quick_test/data-fmllr-tri3/train/data/feats_fmllr_train.6.ark:7536425
mrai0_sx72 quick_test/data-fmllr-tri3/train/data/feats_fmllr_train.8.ark:12101271
mdjm0_si2085 quick_test/data-fmllr-tri3/train/data/feats_fmllr_train.5.ark:1629389
mrlj0_sx430 quick_test/data-fmllr-tri3/train/data/feats_fmllr_train.9.ark:3989966
fsgf0_sx117 quick_test/data-fmllr-tri3/train/data/feats_fmllr_train.3.ark:8108114
mdwh0_sx215 quick_test/data-fmllr-tri3/train/data/feats_fmllr_train.5.ark:10169127
fcmm0_sx363 quick_test/data-fmllr-tri3/train/data/feats_fmllr_train.1.ark:8416384
mbsb0_sx363 quick_test/data-fmllr-tri3/train/data/feats_fmllr_train.4.ark:7229582
makb0_si2276 quick_test/data-fmllr-tri3/train/data/feats_fmllr_train.4.ark:1643339
mhjb0_si1647 quick_test/data-fmllr-tri3/train/data/feats_fmllr_train.6.ark:4336664
mrcw0_sx201 quick_test/data-fmllr-tri3/train/data/feats_fmllr_train.8.ark:13901958
mtcs0_si1972 quick_test/data-fmllr-tri3/train/data/feats_fmllr_train.10.ark:2446435
maeo0_sx336 quick_test/data-fmllr-tri3/train/data/feats_fmllr_train.4.ark:593327
fmjb0_sx277 quick_test/data-fmllr-tri3/train/data/feats_fmllr_train.2.ark:15742836
mpmb0_sx421 quick_test/data-fmllr-tri3/train/data/feats_fmllr_train.8.ark:8371133
fcmg0_sx162 quick_test/data-fmllr-tri3/train/data/feats_fmllr_train.1.ark:7944433
mses0_si2216 quick_test/data-fmllr-tri3/train/data/feats_fmllr_train.9.ark:14224979
mrgm0_si532 quick_test/data-fmllr-tri3/train/data/feats_fmllr_train.8.ark:17597196
mprt0_si1210 quick_test/data-fmllr-tri3/train/data/feats_fmllr_train.8.ark:10284855
mclk0_sx40 quick_test/data-fmllr-tri3/train/data/feats_fmllr_train.4.ark:11680606
fmpg0_sx72 quick_test/data-fmllr-tri3/train/data/feats_fmllr_train.2.ark:18382293
fklh0_si1257 quick_test/data-fmllr-tri3/train/data/feats_fmllr_train.2.ark:8100519
mprt0_si495 quick_test/data-fmllr-tri3/train/data/feats_fmllr_train.8.ark:10347602
fhxs0_sx175 quick_test/data-fmllr-tri3/train/data/feats_fmllr_train.1.ark:18588164
fsls0_sx246 quick_test/data-fmllr-tri3/train/data/feats_fmllr_train.3.ark:11347825
mjjm0_sx377 quick_test/data-fmllr-tri3/train/data/feats_fmllr_train.6.ark:13504375
fsag0_si693 quick_test/data-fmllr-tri3/train/data/feats_fmllr_train.3.ark:5163367
mtbc0_si1803 quick_test/data-fmllr-tri3/train/data/feats_fmllr_train.10.ark:2089446
fdnc0_si1278 quick_test/data-fmllr-tri3/train/data/feats_fmllr_train.1.ark:12146741
fmjf0_si1254 quick_test/data-fmllr-tri3/train/data/feats_fmllr_train.2.ark:15918782
mwdk0_sx86 quick_test/data-fmllr-tri3/train/data/feats_fmllr_train.10.ark:15210212
mtmt0_sx218 quick_test/data-fmllr-tri3/train/data/feats_fmllr_train.10.ark:8265103
msat0_sx446 quick_test/data-fmllr-tri3/train/data/feats_fmllr_train.9.ark:12079969
mdbb1_si2056 quick_test/data-fmllr-tri3/train/data/feats_fmllr_train.4.ark:15208106
fssb0_sx362 quick_test/data-fmllr-tri3/train/data/feats_fmllr_train.3.ark:13728008
mjde0_si1120 quick_test/data-fmllr-tri3/train/data/feats_fmllr_train.6.ark:8727719
mrai0_sx252 quick_test/data-fmllr-tri3/train/data/feats_fmllr_train.8.ark:11938151
mtjs0_sx202 quick_test/data-fmllr-tri3/train/data/feats_fmllr_train.10.ark:5111366
mbcg0_si2217 quick_test/data-fmllr-tri3/train/data/feats_fmllr_train.4.ark:4113444
mwdk0_sx176 quick_test/data-fmllr-tri3/train/data/feats_fmllr_train.10.ark:15018585
mfxs0_si2225 quick_test/data-fmllr-tri3/train/data/feats_fmllr_train.5.ark:15536937
mvjh0_sx116 quick_test/data-fmllr-tri3/train/data/feats_fmllr_train.10.ark:12511303
mkls1_sx105 quick_test/data-fmllr-tri3/train/data/feats_fmllr_train.7.ark:8780229
mhrm0_si958 quick_test/data-fmllr-tri3/train/data/feats_fmllr_train.6.ark:5429823
fsjg0_sx220 quick_test/data-fmllr-tri3/train/data/feats_fmllr_train.3.ark:8545798
mrcg0_sx258 quick_test/data-fmllr-tri3/train/data/feats_fmllr_train.8.ark:13449261
mwgr0_sx256 quick_test/data-fmllr-tri3/train/data/feats_fmllr_train.10.ark:15854887
mcae0_si817 quick_test/data-fmllr-tri3/train/data/feats_fmllr_train.4.ark:8285644
fbmh0_sx236 quick_test/data-fmllr-tri3/train/data/feats_fmllr_train.1.ark:4302929
mmrp0_sx324 quick_test/data-fmllr-tri3/train/data/feats_fmllr_train.8.ark:2378413
mtjs0_sx112 quick_test/data-fmllr-tri3/train/data/feats_fmllr_train.10.ark:5058059
fdtd0_sx121 quick_test/data-fmllr-tri3/train/data/feats_fmllr_train.1.ark:12734881
meal0_sx347 quick_test/data-fmllr-tri3/train/data/feats_fmllr_train.5.ark:10988335
mmgk0_sx152 quick_test/data-fmllr-tri3/train/data/feats_fmllr_train.8.ark:843891
medr0_sx114 quick_test/data-fmllr-tri3/train/data/feats_fmllr_train.5.ark:11242872
mesj0_si2257 quick_test/data-fmllr-tri3/train/data/feats_fmllr_train.5.ark:13431316
fjen0_sx147 quick_test/data-fmllr-tri3/train/data/feats_fmllr_train.2.ark:571034
mkah0_si898 quick_test/data-fmllr-tri3/train/data/feats_fmllr_train.7.ark:4511094
mclk0_sx310 quick_test/data-fmllr-tri3/train/data/feats_fmllr_train.4.ark:11643940
mdlh0_sx430 quick_test/data-fmllr-tri3/train/data/feats_fmllr_train.5.ark:4228587
mdrd0_si2012 quick_test/data-fmllr-tri3/train/data/feats_fmllr_train.5.ark:7806943
mmam0_sx247 quick_test/data-fmllr-tri3/train/data/feats_fmllr_train.7.ark:14006279
fsmm0_sx54 quick_test/data-fmllr-tri3/train/data/feats_fmllr_train.3.ark:12256632
mhrm0_sx238 quick_test/data-fmllr-tri3/train/data/feats_fmllr_train.6.ark:5522517
fjlr0_sx151 quick_test/data-fmllr-tri3/train/data/feats_fmllr_train.2.ark:2135264
mkrg0_sx31 quick_test/data-fmllr-tri3/train/data/feats_fmllr_train.7.ark:9650157
mdsj0_sx382 quick_test/data-fmllr-tri3/train/data/feats_fmllr_train.5.ark:8486174
mjde0_sx310 quick_test/data-fmllr-tri3/train/data/feats_fmllr_train.6.ark:9067694
fsgf0_sx207 quick_test/data-fmllr-tri3/train/data/feats_fmllr_train.3.ark:8150061
fdjh0_si1565 quick_test/data-fmllr-tri3/train/data/feats_fmllr_train.1.ark:10472272
mrtj0_si2032 quick_test/data-fmllr-tri3/train/data/feats_fmllr_train.9.ark:9231754
fmmh0_sx7 quick_test/data-fmllr-tri3/train/data/feats_fmllr_train.2.ark:17844290
mrmg0_sx450 quick_test/data-fmllr-tri3/train/data/feats_fmllr_train.9.ark:5796333
mdns0_sx381 quick_test/data-fmllr-tri3/train/data/feats_fmllr_train.5.ark:6625916
fbch0_si1586 quick_test/data-fmllr-tri3/train/data/feats_fmllr_train.1.ark:2849049
fbmh0_sx326 quick_test/data-fmllr-tri3/train/data/feats_fmllr_train.1.ark:4337836
mjrh1_si1774 quick_test/data-fmllr-tri3/train/data/feats_fmllr_train.7.ark:461219
mmcc0_si1338 quick_test/data-fmllr-tri3/train/data/feats_fmllr_train.7.ark:15099621
mdps0_sx269 quick_test/data-fmllr-tri3/train/data/feats_fmllr_train.5.ark:7586327
mtrt0_sx147 quick_test/data-fmllr-tri3/train/data/feats_fmllr_train.10.ark:11359291
mwre0_si1057 quick_test/data-fmllr-tri3/train/data/feats_fmllr_train.10.ark:16027155
mwre0_sx67 quick_test/data-fmllr-tri3/train/data/feats_fmllr_train.10.ark:16347665
mdrd0_sx302 quick_test/data-fmllr-tri3/train/data/feats_fmllr_train.5.ark:8054091
mmgc0_sx405 quick_test/data-fmllr-tri3/train/data/feats_fmllr_train.8.ark:275537
mjfh0_si477 quick_test/data-fmllr-tri3/train/data/feats_fmllr_train.6.ark:11298996
madc0_si737 quick_test/data-fmllr-tri3/train/data/feats_fmllr_train.3.ark:17298416
msdb0_sx197 quick_test/data-fmllr-tri3/train/data/feats_fmllr_train.9.ark:12704377
msrr0_si1131 quick_test/data-fmllr-tri3/train/data/feats_fmllr_train.9.ark:17342047
mdas0_sx186 quick_test/data-fmllr-tri3/train/data/feats_fmllr_train.4.ark:14936558
mljh0_si1422 quick_test/data-fmllr-tri3/train/data/feats_fmllr_train.7.ark:11379455
fltm0_sx440 quick_test/data-fmllr-tri3/train/data/feats_fmllr_train.2.ark:14239622
mdma0_sx80 quick_test/data-fmllr-tri3/train/data/feats_fmllr_train.5.ark:5889962
ftaj0_si699 quick_test/data-fmllr-tri3/train/data/feats_fmllr_train.3.ark:13980303
fsjk1_sx395 quick_test/data-fmllr-tri3/train/data/feats_fmllr_train.3.ark:9124015
msrr0_si501 quick_test/data-fmllr-tri3/train/data/feats_fmllr_train.9.ark:17451382
mlbc0_sx429 quick_test/data-fmllr-tri3/train/data/feats_fmllr_train.7.ark:10408219
mkaj0_sx334 quick_test/data-fmllr-tri3/train/data/feats_fmllr_train.7.ark:5035552
falk0_sx276 quick_test/data-fmllr-tri3/train/data/feats_fmllr_train.1.ark:1022473
mkam0_si1316 quick_test/data-fmllr-tri3/train/data/feats_fmllr_train.7.ark:5210221
mdss1_sx157 quick_test/data-fmllr-tri3/train/data/feats_fmllr_train.5.ark:9039328
ftaj0_sx69 quick_test/data-fmllr-tri3/train/data/feats_fmllr_train.3.ark:14174997
mrsp0_sx259 quick_test/data-fmllr-tri3/train/data/feats_fmllr_train.9.ark:8604868
madd0_sx88 quick_test/data-fmllr-tri3/train/data/feats_fmllr_train.3.ark:17915567
mcxm0_sx361 quick_test/data-fmllr-tri3/train/data/feats_fmllr_train.4.ark:14229618
mreh1_si1599 quick_test/data-fmllr-tri3/train/data/feats_fmllr_train.8.ark:15518456
mtmt0_si1748 quick_test/data-fmllr-tri3/train/data/feats_fmllr_train.10.ark:8114302
mclk0_sx130 quick_test/data-fmllr-tri3/train/data/feats_fmllr_train.4.ark:11549166
majp0_si1074 quick_test/data-fmllr-tri3/train/data/feats_fmllr_train.4.ark:1061785
fvmh0_sx206 quick_test/data-fmllr-tri3/train/data/feats_fmllr_train.3.ark:16704276
mkdb0_sx422 quick_test/data-fmllr-tri3/train/data/feats_fmllr_train.7.ark:5836653
mmgc0_si2184 quick_test/data-fmllr-tri3/train/data/feats_fmllr_train.8.ark:120549
mrcg0_sx168 quick_test/data-fmllr-tri3/train/data/feats_fmllr_train.8.ark:13407314
mmam0_sx157 quick_test/data-fmllr-tri3/train/data/feats_fmllr_train.7.ark:13974892
ftbw0_sx355 quick_test/data-fmllr-tri3/train/data/feats_fmllr_train.3.ark:14854098
fssb0_sx92 quick_test/data-fmllr-tri3/train/data/feats_fmllr_train.3.ark:13859101
mjsr0_sx434 quick_test/data-fmllr-tri3/train/data/feats_fmllr_train.7.ark:1841205
mjai0_sx254 quick_test/data-fmllr-tri3/train/data/feats_fmllr_train.6.ark:7506318
mmag0_sx316 quick_test/data-fmllr-tri3/train/data/feats_fmllr_train.7.ark:13699048
fspm0_sx161 quick_test/data-fmllr-tri3/train/data/feats_fmllr_train.3.ark:12860799
mkln0_sx338 quick_test/data-fmllr-tri3/train/data/feats_fmllr_train.7.ark:7713390
mjkr0_si571 quick_test/data-fmllr-tri3/train/data/feats_fmllr_train.6.ark:13664778
mbth0_si2102 quick_test/data-fmllr-tri3/train/data/feats_fmllr_train.4.ark:7293476
mmag0_sx226 quick_test/data-fmllr-tri3/train/data/feats_fmllr_train.7.ark:13649101
mrfk0_sx356 quick_test/data-fmllr-tri3/train/data/feats_fmllr_train.8.ark:16930923
fvkb0_sx349 quick_test/data-fmllr-tri3/train/data/feats_fmllr_train.3.ark:16318486
fmkf0_sx276 quick_test/data-fmllr-tri3/train/data/feats_fmllr_train.2.ark:17344503
mkjo0_sx437 quick_test/data-fmllr-tri3/train/data/feats_fmllr_train.7.ark:7400080
mbom0_si1644 quick_test/data-fmllr-tri3/train/data/feats_fmllr_train.4.ark:6738350
mafm0_si1569 quick_test/data-fmllr-tri3/train/data/feats_fmllr_train.4.ark:746368
mkln0_sx248 quick_test/data-fmllr-tri3/train/data/feats_fmllr_train.7.ark:7677363
mrds0_si537 quick_test/data-fmllr-tri3/train/data/feats_fmllr_train.8.ark:14869436
fdxw0_sx341 quick_test/data-fmllr-tri3/train/data/feats_fmllr_train.1.ark:13223633
mrjm0_si1095 quick_test/data-fmllr-tri3/train/data/feats_fmllr_train.9.ark:1700559
mmxs0_sx336 quick_test/data-fmllr-tri3/train/data/feats_fmllr_train.8.ark:4831234
mkls1_sx285 quick_test/data-fmllr-tri3/train/data/feats_fmllr_train.7.ark:8899829
fsms1_si1504 quick_test/data-fmllr-tri3/train/data/feats_fmllr_train.3.ark:12312180
fjkl0_sx392 quick_test/data-fmllr-tri3/train/data/feats_fmllr_train.2.ark:1564696
mrcw0_sx381 quick_test/data-fmllr-tri3/train/data/feats_fmllr_train.8.ark:14010998
mtjs0_si1192 quick_test/data-fmllr-tri3/train/data/feats_fmllr_train.10.ark:4850137
mrai0_sx432 quick_test/data-fmllr-tri3/train/data/feats_fmllr_train.8.ark:12031325
freh0_si1315 quick_test/data-fmllr-tri3/train/data/feats_fmllr_train.3.ark:4008901
mmvp0_sx294 quick_test/data-fmllr-tri3/train/data/feats_fmllr_train.8.ark:3263647
mprk0_sx377 quick_test/data-fmllr-tri3/train/data/feats_fmllr_train.8.ark:10230107
flhd0_si1974 quick_test/data-fmllr-tri3/train/data/feats_fmllr_train.2.ark:10491478
fmah1_sx69 quick_test/data-fmllr-tri3/train/data/feats_fmllr_train.2.ark:14660665
mprd0_sx171 quick_test/data-fmllr-tri3/train/data/feats_fmllr_train.8.ark:9560183
mrab0_si1854 quick_test/data-fmllr-tri3/train/data/feats_fmllr_train.8.ark:10973476
mmdm0_si1941 quick_test/data-fmllr-tri3/train/data/feats_fmllr_train.7.ark:16319660
fljd0_sx76 quick_test/data-fmllr-tri3/train/data/feats_fmllr_train.2.ark:11535247
mkxl0_si1185 quick_test/data-fmllr-tri3/train/data/feats_fmllr_train.7.ark:9755998
mrmh0_si2281 quick_test/data-fmllr-tri3/train/data/feats_fmllr_train.9.ark:6013403
msfv0_si632 quick_test/data-fmllr-tri3/train/data/feats_fmllr_train.9.ark:15078561
majp0_sx444 quick_test/data-fmllr-tri3/train/data/feats_fmllr_train.4.ark:1387869
mcew0_si1442 quick_test/data-fmllr-tri3/train/data/feats_fmllr_train.4.ark:10485769
mdpb0_si2126 quick_test/data-fmllr-tri3/train/data/feats_fmllr_train.5.ark:6733172
mrgs0_si1986 quick_test/data-fmllr-tri3/train/data/feats_fmllr_train.9.ark:75081
ftmg0_si1532 quick_test/data-fmllr-tri3/train/data/feats_fmllr_train.3.ark:15382715
mjma0_sx145 quick_test/data-fmllr-tri3/train/data/feats_fmllr_train.6.ark:15230634
fmju0_si759 quick_test/data-fmllr-tri3/train/data/feats_fmllr_train.2.ark:16439054
mejs0_sx430 quick_test/data-fmllr-tri3/train/data/feats_fmllr_train.5.ark:12897737
mbom0_si2274 quick_test/data-fmllr-tri3/train/data/feats_fmllr_train.4.ark:6768778
mdss0_sx81 quick_test/data-fmllr-tri3/train/data/feats_fmllr_train.5.ark:8869138
mcae0_sx367 quick_test/data-fmllr-tri3/train/data/feats_fmllr_train.4.ark:8442685
fpaz0_sx63 quick_test/data-fmllr-tri3/train/data/feats_fmllr_train.3.ark:2783743
mppc0_sx422 quick_test/data-fmllr-tri3/train/data/feats_fmllr_train.8.ark:8830550
fsjk1_sx125 quick_test/data-fmllr-tri3/train/data/feats_fmllr_train.3.ark:8963748
fcjs0_si2237 quick_test/data-fmllr-tri3/train/data/feats_fmllr_train.1.ark:6728207
mwdk0_si2017 quick_test/data-fmllr-tri3/train/data/feats_fmllr_train.10.ark:14931171
mdpk0_si1683 quick_test/data-fmllr-tri3/train/data/feats_fmllr_train.5.ark:7125709
ftbr0_sx111 quick_test/data-fmllr-tri3/train/data/feats_fmllr_train.3.ark:14390147
fsgf0_sx297 quick_test/data-fmllr-tri3/train/data/feats_fmllr_train.3.ark:8216994
mklr0_si2319 quick_test/data-fmllr-tri3/train/data/feats_fmllr_train.7.ark:7958807
mtjm0_si655 quick_test/data-fmllr-tri3/train/data/feats_fmllr_train.10.ark:4585975
fcjs0_sx437 quick_test/data-fmllr-tri3/train/data/feats_fmllr_train.1.ark:6950742
mtpp0_sx248 quick_test/data-fmllr-tri3/train/data/feats_fmllr_train.10.ark:9338874
mtjm0_sx56 quick_test/data-fmllr-tri3/train/data/feats_fmllr_train.10.ark:4806269
mjdc0_si1161 quick_test/data-fmllr-tri3/train/data/feats_fmllr_train.6.ark:8372142
mwrp0_si2073 quick_test/data-fmllr-tri3/train/data/feats_fmllr_train.10.ark:16526789
mcdd0_sx253 quick_test/data-fmllr-tri3/train/data/feats_fmllr_train.4.ark:9517547
fdkn0_sx271 quick_test/data-fmllr-tri3/train/data/feats_fmllr_train.1.ark:11062839
mkxl0_sx195 quick_test/data-fmllr-tri3/train/data/feats_fmllr_train.7.ark:10010374
mjra0_sx336 quick_test/data-fmllr-tri3/train/data/feats_fmllr_train.6.ark:17450231
mrld0_sx244 quick_test/data-fmllr-tri3/train/data/feats_fmllr_train.9.ark:3565215
fjkl0_sx32 quick_test/data-fmllr-tri3/train/data/feats_fmllr_train.2.ark:1523389
mjlb0_sx266 quick_test/data-fmllr-tri3/train/data/feats_fmllr_train.6.ark:14146969
mmdm0_sx141 quick_test/data-fmllr-tri3/train/data/feats_fmllr_train.7.ark:16388834
fleh0_sx421 quick_test/data-fmllr-tri3/train/data/feats_fmllr_train.2.ark:9949231
mkag0_sx169 quick_test/data-fmllr-tri3/train/data/feats_fmllr_train.7.ark:4189305
fcyl0_si667 quick_test/data-fmllr-tri3/train/data/feats_fmllr_train.1.ark:9023297
mtrr0_si1548 quick_test/data-fmllr-tri3/train/data/feats_fmllr_train.10.ark:10803792
fsjg0_si2200 quick_test/data-fmllr-tri3/train/data/feats_fmllr_train.3.ark:8355317
msat0_si1526 quick_test/data-fmllr-tri3/train/data/feats_fmllr_train.9.ark:11859166
mjhi0_sx338 quick_test/data-fmllr-tri3/train/data/feats_fmllr_train.6.ark:12182550
mlel0_sx256 quick_test/data-fmllr-tri3/train/data/feats_fmllr_train.7.ark:10730782
mwch0_sx92 quick_test/data-fmllr-tri3/train/data/feats_fmllr_train.10.ark:14825035
mbjv0_si1877 quick_test/data-fmllr-tri3/train/data/feats_fmllr_train.4.ark:5243722
mjdm0_sx440 quick_test/data-fmllr-tri3/train/data/feats_fmllr_train.6.ark:9943036
mrpc1_si2112 quick_test/data-fmllr-tri3/train/data/feats_fmllr_train.9.ark:7170696
fpjf0_sx326 quick_test/data-fmllr-tri3/train/data/feats_fmllr_train.3.ark:3058948
mbcg0_si957 quick_test/data-fmllr-tri3/train/data/feats_fmllr_train.4.ark:4183098
mdlb0_sx136 quick_test/data-fmllr-tri3/train/data/feats_fmllr_train.5.ark:2493238
mmgg0_sx269 quick_test/data-fmllr-tri3/train/data/feats_fmllr_train.8.ark:546261
frll0_si805 quick_test/data-fmllr-tri3/train/data/feats_fmllr_train.3.ark:4743443
mkdd0_sx397 quick_test/data-fmllr-tri3/train/data/feats_fmllr_train.7.ark:6273536
fsdc0_sx232 quick_test/data-fmllr-tri3/train/data/feats_fmllr_train.3.ark:7404827
fljd0_sx346 quick_test/data-fmllr-tri3/train/data/feats_fmllr_train.2.ark:11453274
mwre0_sx247 quick_test/data-fmllr-tri3/train/data/feats_fmllr_train.10.ark:16206785
mpgr0_si2040 quick_test/data-fmllr-tri3/train/data/feats_fmllr_train.8.ark:7217123
mcdr0_sx254 quick_test/data-fmllr-tri3/train/data/feats_fmllr_train.4.ark:9968324
mcdc0_sx32 quick_test/data-fmllr-tri3/train/data/feats_fmllr_train.4.ark:9256103
mtas0_sx215 quick_test/data-fmllr-tri3/train/data/feats_fmllr_train.10.ark:1088876
mmpm0_si1691 quick_test/data-fmllr-tri3/train/data/feats_fmllr_train.8.ark:1803688
mmeb0_si727 quick_test/data-fmllr-tri3/train/data/feats_fmllr_train.7.ark:17750315
mdtb0_sx120 quick_test/data-fmllr-tri3/train/data/feats_fmllr_train.5.ark:9369465
makb0_si1016 quick_test/data-fmllr-tri3/train/data/feats_fmllr_train.4.ark:1498323
mkdb0_sx62 quick_test/data-fmllr-tri3/train/data/feats_fmllr_train.7.ark:5896359
mjsr0_si1424 quick_test/data-fmllr-tri3/train/data/feats_fmllr_train.7.ark:1466482
mstf0_si766 quick_test/data-fmllr-tri3/train/data/feats_fmllr_train.9.ark:17783250
mdlh0_sx70 quick_test/data-fmllr-tri3/train/data/feats_fmllr_train.5.ark:4293093
mmxs0_si876 quick_test/data-fmllr-tri3/train/data/feats_fmllr_train.8.ark:4715153
mfrm0_si1717 quick_test/data-fmllr-tri3/train/data/feats_fmllr_train.5.ark:14818102
mefg0_sx285 quick_test/data-fmllr-tri3/train/data/feats_fmllr_train.5.ark:11724767
fskl0_si899 quick_test/data-fmllr-tri3/train/data/feats_fmllr_train.3.ark:10459789
fsgf0_si927 quick_test/data-fmllr-tri3/train/data/feats_fmllr_train.3.ark:8023607
fbch0_sx326 quick_test/data-fmllr-tri3/train/data/feats_fmllr_train.1.ark:3115744
mjeb0_sx386 quick_test/data-fmllr-tri3/train/data/feats_fmllr_train.6.ark:10380239
mbom0_sx294 quick_test/data-fmllr-tri3/train/data/feats_fmllr_train.4.ark:6880379
mjde0_sx40 quick_test/data-fmllr-tri3/train/data/feats_fmllr_train.6.ark:9128360
mrgs0_si1356 quick_test/data-fmllr-tri3/train/data/feats_fmllr_train.9.ark:13
mwad0_sx72 quick_test/data-fmllr-tri3/train/data/feats_fmllr_train.10.ark:14148119
mmvp0_si654 quick_test/data-fmllr-tri3/train/data/feats_fmllr_train.8.ark:3060686
mmlm0_si1527 quick_test/data-fmllr-tri3/train/data/feats_fmllr_train.8.ark:1439763
mkxl0_si1958 quick_test/data-fmllr-tri3/train/data/feats_fmllr_train.7.ark:9866134
falr0_sx335 quick_test/data-fmllr-tri3/train/data/feats_fmllr_train.1.ark:1435995
mclm0_si1456 quick_test/data-fmllr-tri3/train/data/feats_fmllr_train.4.ark:11767541
mwsb0_sx276 quick_test/data-fmllr-tri3/train/data/feats_fmllr_train.10.ark:16977778
msdb0_si1637 quick_test/data-fmllr-tri3/train/data/feats_fmllr_train.9.ark:12586189
