mdns0_sx291 quick_test/fbank/raw_fbank_train.2.ark:8480508
mtlc0_sx217 quick_test/fbank/raw_fbank_train.4.ark:8858514
mtjm0_sx236 quick_test/fbank/raw_fbank_train.4.ark:8238364
mjxl0_sx182 quick_test/fbank/raw_fbank_train.3.ark:5595230
mmea0_si758 quick_test/fbank/raw_fbank_train.3.ark:9101074
mrlk0_sx213 quick_test/fbank/raw_fbank_train.4.ark:3562688
mabc0_sx241 quick_test/fbank/raw_fbank_train.2.ark:2065258
feac0_si1875 quick_test/fbank/raw_fbank_train.1.ark:3439740
fssb0_sx452 quick_test/fbank/raw_fbank_train.2.ark:1233900
mfxs0_sx144 quick_test/fbank/raw_fbank_train.2.ark:10802873
fsjw0_sx73 quick_test/fbank/raw_fbank_train.2.ark:242760
mfrm0_sx75 quick_test/fbank/raw_fbank_train.2.ark:10669713
fdxw0_sx431 quick_test/fbank/raw_fbank_train.1.ark:3409960
fmem0_sx333 quick_test/fbank/raw_fbank_train.1.ark:8792674
mcae0_sx277 quick_test/fbank/raw_fbank_train.2.ark:4466525
majp0_sx354 quick_test/fbank/raw_fbank_train.2.ark:2652163
mhit0_sx353 quick_test/fbank/raw_fbank_train.3.ark:1070425
mesj0_sx367 quick_test/fbank/raw_fbank_train.2.ark:10282829
mabc0_sx331 quick_test/fbank/raw_fbank_train.2.ark:2073531
fksr0_sx161 quick_test/fbank/raw_fbank_train.1.ark:7052266
mljh0_sx424 quick_test/fbank/raw_fbank_train.3.ark:7643150
mtkd0_sx197 quick_test/fbank/raw_fbank_train.4.ark:8560151
mjra0_sx426 quick_test/fbank/raw_fbank_train.3.ark:4505854
mjai0_si1604 quick_test/fbank/raw_fbank_train.3.ark:1869682
fjen0_si1047 quick_test/fbank/raw_fbank_train.1.ark:4946261
mbma0_si592 quick_test/fbank/raw_fbank_train.2.ark:3762885
flag0_si1464 quick_test/fbank/raw_fbank_train.1.ark:7208176
mjma0_si1495 quick_test/fbank/raw_fbank_train.3.ark:3872544
fmkf0_sx366 quick_test/fbank/raw_fbank_train.1.ark:9306246
mesg0_si702 quick_test/fbank/raw_fbank_train.2.ark:10145225
mtjm0_sx326 quick_test/fbank/raw_fbank_train.4.ark:8247477
fljd0_si2146 quick_test/fbank/raw_fbank_train.1.ark:7737098
flhd0_si1344 quick_test/fbank/raw_fbank_train.1.ark:7516492
fmpg0_sx162 quick_test/fbank/raw_fbank_train.1.ark:9493746
mjdm0_sx260 quick_test/fbank/raw_fbank_train.3.ark:2527606
fcaj0_si849 quick_test/fbank/raw_fbank_train.1.ark:1359962
mbma1_si2207 quick_test/fbank/raw_fbank_train.2.ark:3831163
fdtd0_sx391 quick_test/fbank/raw_fbank_train.1.ark:3333167
mprk0_si467 quick_test/fbank/raw_fbank_train.4.ark:312341
mnet0_sx366 quick_test/fbank/raw_fbank_train.3.ark:10593587
mgar0_sx132 quick_test/fbank/raw_fbank_train.3.ark:34474
mjjm0_sx107 quick_test/fbank/raw_fbank_train.3.ark:3432518
mjjm0_sx377 quick_test/fbank/raw_fbank_train.3.ark:3472729
mcew0_sx272 quick_test/fbank/raw_fbank_train.2.ark:5069713
mjhi0_sx338 quick_test/fbank/raw_fbank_train.3.ark:3133268
mbma0_sx52 quick_test/fbank/raw_fbank_train.2.ark:3819009
mrai0_sx252 quick_test/fbank/raw_fbank_train.4.ark:822571
fsls0_sx202 quick_test/fbank/raw_fbank_train.2.ark:595883
msem1_si2070 quick_test/fbank/raw_fbank_train.4.ark:5896157
mvrw0_sx405 quick_test/fbank/raw_fbank_train.4.ark:10462061
mtlc0_si1313 quick_test/fbank/raw_fbank_train.4.ark:8804781
mtkd0_sx107 quick_test/fbank/raw_fbank_train.4.ark:8538126
mmrp0_sx54 quick_test/fbank/raw_fbank_train.3.ark:9903718
fspm0_si1871 quick_test/fbank/raw_fbank_train.2.ark:972684
mrre0_sx254 quick_test/fbank/raw_fbank_train.4.ark:4348771
mwem0_sx330 quick_test/fbank/raw_fbank_train.4.ark:11012182
mrfk0_si2336 quick_test/fbank/raw_fbank_train.4.ark:2074954
mrfk0_sx356 quick_test/fbank/raw_fbank_train.4.ark:2107133
fear0_sx172 quick_test/fbank/raw_fbank_train.1.ark:3564631
mdss0_si1881 quick_test/fbank/raw_fbank_train.2.ark:8997500
mjrp0_sx225 quick_test/fbank/raw_fbank_train.3.ark:4966354
fcag0_sx153 quick_test/fbank/raw_fbank_train.1.ark:1281410
mfxv0_sx105 quick_test/fbank/raw_fbank_train.2.ark:10913619
mesj0_si2257 quick_test/fbank/raw_fbank_train.2.ark:10242617
mtdb0_si2031 quick_test/fbank/raw_fbank_train.4.ark:7779405
mjrh0_sx135 quick_test/fbank/raw_fbank_train.3.ark:4671486
mtdp0_si2151 quick_test/fbank/raw_fbank_train.4.ark:7889184
mrtj0_sx52 quick_test/fbank/raw_fbank_train.4.ark:4837610
mjrh1_si1774 quick_test/fbank/raw_fbank_train.3.ark:4747685
mkes0_si1253 quick_test/fbank/raw_fbank_train.3.ark:6357848
mtjg0_sx170 quick_test/fbank/raw_fbank_train.4.ark:8113946
fcjs0_sx347 quick_test/fbank/raw_fbank_train.1.ark:1770681
flmk0_sx315 quick_test/fbank/raw_fbank_train.1.ark:8295275
mdwd0_si557 quick_test/fbank/raw_fbank_train.2.ark:9283963
mwar0_si1045 quick_test/fbank/raw_fbank_train.4.ark:10677538
flmk0_sx405 quick_test/fbank/raw_fbank_train.1.ark:8306948
mtpr0_si1600 quick_test/fbank/raw_fbank_train.4.ark:9481037
fsrh0_sx401 quick_test/fbank/raw_fbank_train.2.ark:1128634
mcae0_si817 quick_test/fbank/raw_fbank_train.2.ark:4440259
mjda0_sx311 quick_test/fbank/raw_fbank_train.3.ark:2114419
mkdt0_si2153 quick_test/fbank/raw_fbank_train.3.ark:6254184
mpsw0_si1067 quick_test/fbank/raw_fbank_train.4.ark:485643
ftmg0_sx92 quick_test/fbank/raw_fbank_train.2.ark:1726095
mdmt0_sx212 quick_test/fbank/raw_fbank_train.2.ark:8353098
mfer0_sx412 quick_test/fbank/raw_fbank_train.2.ark:10459630
madc0_sx17 quick_test/fbank/raw_fbank_train.2.ark:2166162
mjlb0_sx446 quick_test/fbank/raw_fbank_train.3.ark:3658907
mcre0_si1725 quick_test/fbank/raw_fbank_train.2.ark:5527300
mtxs0_sx70 quick_test/fbank/raw_fbank_train.4.ark:10198138
meal0_sx347 quick_test/fbank/raw_fbank_train.2.ark:9614210
mfxv0_sx285 quick_test/fbank/raw_fbank_train.2.ark:10940837
mmaa0_sx305 quick_test/fbank/raw_fbank_train.3.ark:7937112
mgar0_sx42 quick_test/fbank/raw_fbank_train.3.ark:89405
mmag0_si496 quick_test/fbank/raw_fbank_train.3.ark:8108063
fpaz0_sx153 quick_test/fbank/raw_fbank_train.1.ark:10238561
flmc0_sx382 quick_test/fbank/raw_fbank_train.1.ark:8219994
fssb0_sx182 quick_test/fbank/raw_fbank_train.2.ark:1193801
mmag0_si1126 quick_test/fbank/raw_fbank_train.3.ark:8076636
mcal0_si1138 quick_test/fbank/raw_fbank_train.2.ark:4523335
mrdd0_si2310 quick_test/fbank/raw_fbank_train.4.ark:1392738
mapv0_si663 quick_test/fbank/raw_fbank_train.2.ark:2915700
mlbc0_si609 quick_test/fbank/raw_fbank_train.3.ark:7258263
mlel0_sx166 quick_test/fbank/raw_fbank_train.3.ark:7370801
mbar0_si1319 quick_test/fbank/raw_fbank_train.2.ark:3176028
fapb0_sx253 quick_test/fbank/raw_fbank_train.1.ark:467002
mstf0_si1396 quick_test/fbank/raw_fbank_train.4.ark:6928292
mdlc0_sx135 quick_test/fbank/raw_fbank_train.2.ark:7550104
fmem0_si2007 quick_test/fbank/raw_fbank_train.1.ark:8733029
mprd0_si801 quick_test/fbank/raw_fbank_train.4.ark:188756
mkes0_si623 quick_test/fbank/raw_fbank_train.3.ark:6386595
mrem0_sx61 quick_test/fbank/raw_fbank_train.4.ark:1945467
mfer0_si1492 quick_test/fbank/raw_fbank_train.2.ark:10396911
mkxl0_si1958 quick_test/fbank/raw_fbank_train.3.ark:7165758
mter0_sx437 quick_test/fbank/raw_fbank_train.4.ark:8056580
mcth0_si1209 quick_test/fbank/raw_fbank_train.2.ark:5712635
mcdr0_sx164 quick_test/fbank/raw_fbank_train.2.ark:4857110
mejl0_si1592 quick_test/fbank/raw_fbank_train.2.ark:9941108
mtjs0_sx292 quick_test/fbank/raw_fbank_train.4.ark:8365414
mprb0_sx395 quick_test/fbank/raw_fbank_train.4.ark:152335
fdkn0_sx271 quick_test/fbank/raw_fbank_train.1.ark:2844687
mvjh0_si1556 quick_test/fbank/raw_fbank_train.4.ark:10205492
fjlg0_si1506 quick_test/fbank/raw_fbank_train.1.ark:5253818
mtab0_sx222 quick_test/fbank/raw_fbank_train.4.ark:7220434
mcae0_sx7 quick_test/fbank/raw_fbank_train.2.ark:4495749
mntw0_sx348 quick_test/fbank/raw_fbank_train.3.ark:10709004
flmk0_sx45 quick_test/fbank/raw_fbank_train.1.ark:8318060
fceg0_si1248 quick_test/fbank/raw_fbank_train.1.ark:1560465
fvmh0_sx116 quick_test/fbank/raw_fbank_train.2.ark:1973240
fpmy0_si1783 quick_test/fbank/raw_fbank_train.1.ark:10506928
mrwa0_sx433 quick_test/fbank/raw_fbank_train.4.ark:5011788
mvrw0_sx135 quick_test/fbank/raw_fbank_train.4.ark:10434242
mdlc1_sx175 quick_test/fbank/raw_fbank_train.2.ark:7650210
fmju0_sx129 quick_test/fbank/raw_fbank_train.1.ark:9076689
mcpm0_sx384 quick_test/fbank/raw_fbank_train.2.ark:5504192
mmab1_si2124 quick_test/fbank/raw_fbank_train.3.ark:7977405
fmkf0_si1018 quick_test/fbank/raw_fbank_train.1.ark:9241000
fpls0_si1590 quick_test/fbank/raw_fbank_train.1.ark:10394991
feme0_sx65 quick_test/fbank/raw_fbank_train.1.ark:3952037
fgmb0_sx65 quick_test/fbank/raw_fbank_train.1.ark:4487523
mgsh0_si1806 quick_test/fbank/raw_fbank_train.3.ark:611999
mjra0_si1236 quick_test/fbank/raw_fbank_train.3.ark:4430535
fjsk0_si1682 quick_test/fbank/raw_fbank_train.1.ark:5695913
mjlg1_sx22 quick_test/fbank/raw_fbank_train.3.ark:3736059
mfxs0_si1674 quick_test/fbank/raw_fbank_train.2.ark:10775372
mcdc0_sx212 quick_test/fbank/raw_fbank_train.2.ark:4665333
mgsl0_sx174 quick_test/fbank/raw_fbank_train.3.ark:740407
mtkd0_sx17 quick_test/fbank/raw_fbank_train.4.ark:8550798
msmc0_sx287 quick_test/fbank/raw_fbank_train.4.ark:6514966
mhjb0_si1647 quick_test/fbank/raw_fbank_train.3.ark:1114998
mmaa0_si1588 quick_test/fbank/raw_fbank_train.3.ark:7864866
fpac0_sx121 quick_test/fbank/raw_fbank_train.1.ark:9925645
mjrk0_sx250 quick_test/fbank/raw_fbank_train.3.ark:4873089
mdss0_sx261 quick_test/fbank/raw_fbank_train.2.ark:9038073
mdcd0_sx335 quick_test/fbank/raw_fbank_train.2.ark:6457734
mjlb0_si986 quick_test/fbank/raw_fbank_train.3.ark:3613335
mreh1_si969 quick_test/fbank/raw_fbank_train.4.ark:1772359
mbcg0_si957 quick_test/fbank/raw_fbank_train.2.ark:3384145
mdmt0_sx32 quick_test/fbank/raw_fbank_train.2.ark:8378603
mcpm0_sx24 quick_test/fbank/raw_fbank_train.2.ark:5486446
mtqc0_si2071 quick_test/fbank/raw_fbank_train.4.ark:9621696
mrbc0_sx329 quick_test/fbank/raw_fbank_train.4.ark:1118241
fsma0_si991 quick_test/fbank/raw_fbank_train.2.ark:659122
ftlg0_si1743 quick_test/fbank/raw_fbank_train.2.ark:1535880
fklh0_sx267 quick_test/fbank/raw_fbank_train.1.ark:6966274
mjwt0_sx211 quick_test/fbank/raw_fbank_train.3.ark:5416453
mjrh1_sx334 quick_test/fbank/raw_fbank_train.3.ark:4795337
fjhk0_sx212 quick_test/fbank/raw_fbank_train.1.ark:5112301
mjae0_sx84 quick_test/fbank/raw_fbank_train.3.ark:1851648
mhbs0_si945 quick_test/fbank/raw_fbank_train.3.ark:939381
fjrp1_si802 quick_test/fbank/raw_fbank_train.1.ark:5584721
fklc0_si1615 quick_test/fbank/raw_fbank_train.1.ark:6715130
mkjo0_sx77 quick_test/fbank/raw_fbank_train.3.ark:6545344
mdrd0_sx212 quick_test/fbank/raw_fbank_train.2.ark:8843183
mjma0_sx55 quick_test/fbank/raw_fbank_train.3.ark:3954015
mpmb0_sx241 quick_test/fbank/raw_fbank_train.3.ark:11379833
mwrp0_sx183 quick_test/fbank/raw_fbank_train.4.ark:11299673
fjlr0_sx241 quick_test/fbank/raw_fbank_train.1.ark:5401457
mmcc0_sx258 quick_test/fbank/raw_fbank_train.3.ark:8557270
mdks0_sx76 quick_test/fbank/raw_fbank_train.2.ark:7368185
mrjt0_sx418 quick_test/fbank/raw_fbank_train.4.ark:3083630
mrjh0_sx79 quick_test/fbank/raw_fbank_train.4.ark:2792386
mrgs0_sx6 quick_test/fbank/raw_fbank_train.4.ark:2452199
mfxv0_sx375 quick_test/fbank/raw_fbank_train.2.ark:10952110
mjjb0_si1769 quick_test/fbank/raw_fbank_train.3.ark:3196875
mter0_sx167 quick_test/fbank/raw_fbank_train.4.ark:8022882
mwem0_si1950 quick_test/fbank/raw_fbank_train.4.ark:10978243
mkls1_sx195 quick_test/fbank/raw_fbank_train.3.ark:6909060
mljc0_sx235 quick_test/fbank/raw_fbank_train.3.ark:7495619
mrml0_sx161 quick_test/fbank/raw_fbank_train.4.ark:4024062
mwsb0_sx6 quick_test/fbank/raw_fbank_train.4.ark:11422033
mwdk0_si2017 quick_test/fbank/raw_fbank_train.4.ark:10873544
mdtb0_sx210 quick_test/fbank/raw_fbank_train.2.ark:9209763
mkls1_si2175 quick_test/fbank/raw_fbank_train.3.ark:6858849
mrlj0_sx430 quick_test/fbank/raw_fbank_train.4.ark:3395623
mdcd0_si2045 quick_test/fbank/raw_fbank_train.2.ark:6407082
fmkc0_si1072 quick_test/fbank/raw_fbank_train.1.ark:9157328
mrjb1_si1413 quick_test/fbank/raw_fbank_train.4.ark:2587324
maeb0_sx90 quick_test/fbank/raw_fbank_train.2.ark:2394111
mfxv0_si1342 quick_test/fbank/raw_fbank_train.2.ark:10887392
fpaf0_si1684 quick_test/fbank/raw_fbank_train.1.ark:10115189
fsma0_sx181 quick_test/fbank/raw_fbank_train.2.ark:677355
mdtb0_si1830 quick_test/fbank/raw_fbank_train.2.ark:9174784
mrav0_si1638 quick_test/fbank/raw_fbank_train.4.ark:977803
mjrh0_si1840 quick_test/fbank/raw_fbank_train.3.ark:4652213
fajw0_sx3 quick_test/fbank/raw_fbank_train.1.ark:175282
fmjb0_sx367 quick_test/fbank/raw_fbank_train.1.ark:8893707
mges0_sx41 quick_test/fbank/raw_fbank_train.3.ark:264175
fmkf0_si906 quick_test/fbank/raw_fbank_train.1.ark:9272507
mmpm0_si1061 quick_test/fbank/raw_fbank_train.3.ark:9712502
mram0_sx285 quick_test/fbank/raw_fbank_train.4.ark:945622
mreh1_sx249 quick_test/fbank/raw_fbank_train.4.ark:1808265
maeb0_sx360 quick_test/fbank/raw_fbank_train.2.ark:2369566
mdef0_sx33 quick_test/fbank/raw_fbank_train.2.ark:6858107
mbbr0_sx65 quick_test/fbank/raw_fbank_train.2.ark:3357045
mcdd0_sx73 quick_test/fbank/raw_fbank_train.2.ark:4790696
fntb0_si573 quick_test/fbank/raw_fbank_train.1.ark:9679329
mjpm1_si1897 quick_test/fbank/raw_fbank_train.3.ark:4332310
mtdb0_sx321 quick_test/fbank/raw_fbank_train.4.ark:7824337
mkxl0_sx375 quick_test/fbank/raw_fbank_train.3.ark:7221042
mkdb0_sx152 quick_test/fbank/raw_fbank_train.3.ark:6091234
mtab0_sx402 quick_test/fbank/raw_fbank_train.4.ark:7252540
fsdc0_sx52 quick_test/fbank/raw_fbank_train.1.ark:11507031
fcke0_si1741 quick_test/fbank/raw_fbank_train.1.ark:1819694
mtwh1_sx72 quick_test/fbank/raw_fbank_train.4.ark:10081832
mjrh0_sx315 quick_test/fbank/raw_fbank_train.3.ark:4693472
fkde0_sx331 quick_test/fbank/raw_fbank_train.1.ark:6353556
mabc0_si2041 quick_test/fbank/raw_fbank_train.2.ark:2026039
mtat0_si1740 quick_test/fbank/raw_fbank_train.4.ark:7372305
mbwp0_si1969 quick_test/fbank/raw_fbank_train.2.ark:4299001
fapb0_sx163 quick_test/fbank/raw_fbank_train.1.ark:454089
marc0_si1188 quick_test/fbank/raw_fbank_train.2.ark:2992418
fskl0_sx89 quick_test/fbank/raw_fbank_train.2.ark:434970
mdhs0_si900 quick_test/fbank/raw_fbank_train.2.ark:7118210
msah1_sx239 quick_test/fbank/raw_fbank_train.4.ark:5263158
mdss1_sx67 quick_test/fbank/raw_fbank_train.2.ark:9154316
mtpf0_sx245 quick_test/fbank/raw_fbank_train.4.ark:9253775
marw0_sx286 quick_test/fbank/raw_fbank_train.2.ark:3125528
msfh0_sx136 quick_test/fbank/raw_fbank_train.4.ark:6149314
mrjh0_si914 quick_test/fbank/raw_fbank_train.4.ark:2727422
mljc0_si1225 quick_test/fbank/raw_fbank_train.3.ark:7441846
mdef0_si1123 quick_test/fbank/raw_fbank_train.2.ark:6787468
mvjh0_si926 quick_test/fbank/raw_fbank_train.4.ark:10238199
mljh0_si1422 quick_test/fbank/raw_fbank_train.3.ark:7554825
fdaw0_si2036 quick_test/fbank/raw_fbank_train.1.ark:2532184
mrlj1_sx231 quick_test/fbank/raw_fbank_train.4.ark:3461663
mmwb0_sx179 quick_test/fbank/raw_fbank_train.3.ark:10192103
ftbw0_sx175 quick_test/fbank/raw_fbank_train.2.ark:1476675
mpmb0_si2131 quick_test/fbank/raw_fbank_train.3.ark:11314654
fklh0_sx447 quick_test/fbank/raw_fbank_train.1.ark:6995180
mjdm0_sx80 quick_test/fbank/raw_fbank_train.3.ark:2572864
flet0_sx147 quick_test/fbank/raw_fbank_train.1.ark:7466647
mrjm0_si1095 quick_test/fbank/raw_fbank_train.4.ark:2807340
mjrk0_si880 quick_test/fbank/raw_fbank_train.3.ark:4840223
mmdb0_sx357 quick_test/fbank/raw_fbank_train.3.ark:8665368
mlsh0_sx427 quick_test/fbank/raw_fbank_train.3.ark:7840840
fpjf0_sx236 quick_test/fbank/raw_fbank_train.1.ark:10347659
mrws0_sx382 quick_test/fbank/raw_fbank_train.4.ark:5111125
fsak0_sx310 quick_test/fbank/raw_fbank_train.1.ark:11163130
fblv0_si1058 quick_test/fbank/raw_fbank_train.1.ark:941034
mmjb1_sx148 quick_test/fbank/raw_fbank_train.3.ark:9561912
feme0_si2135 quick_test/fbank/raw_fbank_train.1.ark:3866360
fmkc0_si1041 quick_test/fbank/raw_fbank_train.1.ark:9139014
mdwm0_sx106 quick_test/fbank/raw_fbank_train.2.ark:9500606
mdks0_si1696 quick_test/fbank/raw_fbank_train.2.ark:7290587
mtpp0_sx158 quick_test/fbank/raw_fbank_train.4.ark:9424552
mdcm0_sx220 quick_test/fbank/raw_fbank_train.2.ark:6544366
mrkm0_sx367 quick_test/fbank/raw_fbank_train.4.ark:3198102
msds0_sx357 quick_test/fbank/raw_fbank_train.4.ark:5841344
mwsh0_sx436 quick_test/fbank/raw_fbank_train.4.ark:11533378
fsmm0_sx54 quick_test/fbank/raw_fbank_train.2.ark:837431
mmwb0_si2249 quick_test/fbank/raw_fbank_train.3.ark:10154317
mrml0_sx251 quick_test/fbank/raw_fbank_train.4.ark:4043055
mppc0_sx242 quick_test/fbank/raw_fbank_train.4.ark:12
mjac0_sx71 quick_test/fbank/raw_fbank_train.3.ark:1753782
fljd0_sx346 quick_test/fbank/raw_fbank_train.1.ark:7781870
mcth0_si1839 quick_test/fbank/raw_fbank_train.2.ark:5726949
mtpf0_sx65 quick_test/fbank/raw_fbank_train.4.ark:9290313
mbcg0_si2217 quick_test/fbank/raw_fbank_train.2.ark:3366039
fgcs0_si1486 quick_test/fbank/raw_fbank_train.1.ark:4175922
mgag0_sx151 quick_test/fbank/raw_fbank_train.2.ark:11092268
fceg0_si618 quick_test/fbank/raw_fbank_train.1.ark:1580492
fdfb0_sx418 quick_test/fbank/raw_fbank_train.1.ark:2668262
mjda0_si2291 quick_test/fbank/raw_fbank_train.3.ark:2082960
mklw0_sx41 quick_test/fbank/raw_fbank_train.3.ark:7029952
mdlc2_sx174 quick_test/fbank/raw_fbank_train.2.ark:7734275
mtrt0_sx237 quick_test/fbank/raw_fbank_train.4.ark:9965469
mrab0_sx414 quick_test/fbank/raw_fbank_train.4.ark:638427
mjkr0_sx391 quick_test/fbank/raw_fbank_train.3.ark:3577274
mwsb0_sx276 quick_test/fbank/raw_fbank_train.4.ark:11400089
fpls0_sx150 quick_test/fbank/raw_fbank_train.1.ark:10435411
mwsb0_si996 quick_test/fbank/raw_fbank_train.4.ark:11373863
fsjs0_sx361 quick_test/fbank/raw_fbank_train.2.ark:110990
mbwp0_sx439 quick_test/fbank/raw_fbank_train.2.ark:4367846
fecd0_si788 quick_test/fbank/raw_fbank_train.1.ark:3667063
mmam0_si2227 quick_test/fbank/raw_fbank_train.3.ark:8213049
mlsh0_si787 quick_test/fbank/raw_fbank_train.3.ark:7789148
fcrz0_sx433 quick_test/fbank/raw_fbank_train.1.ark:2271400
mdtb0_si1200 quick_test/fbank/raw_fbank_train.2.ark:9166710
mppc0_si1412 quick_test/fbank/raw_fbank_train.3.ark:11454885
mrso0_sx219 quick_test/fbank/raw_fbank_train.4.ark:4458197
mdhs0_sx90 quick_test/fbank/raw_fbank_train.2.ark:7179214
fear0_si1882 quick_test/fbank/raw_fbank_train.1.ark:3543525
mdks0_si2326 quick_test/fbank/raw_fbank_train.2.ark:7299541
fcmg0_sx72 quick_test/fbank/raw_fbank_train.1.ark:2097942
mgaf0_sx202 quick_test/fbank/raw_fbank_train.2.ark:11015837
mljc0_sx415 quick_test/fbank/raw_fbank_train.3.ark:7518605
mmag0_sx136 quick_test/fbank/raw_fbank_train.3.ark:8120176
mjpg0_sx381 quick_test/fbank/raw_fbank_train.3.ark:4219731
mkah0_sx88 quick_test/fbank/raw_fbank_train.3.ark:5851650
mjxl0_sx272 quick_test/fbank/raw_fbank_train.3.ark:5605023
mrds0_sx267 quick_test/fbank/raw_fbank_train.4.ark:1600014
fklc1_si1048 quick_test/fbank/raw_fbank_train.1.ark:6819195
mcew0_si2072 quick_test/fbank/raw_fbank_train.2.ark:5019614
mdns0_si873 quick_test/fbank/raw_fbank_train.2.ark:8430657
mrws0_si1102 quick_test/fbank/raw_fbank_train.4.ark:5036374
mrab1_sx398 quick_test/fbank/raw_fbank_train.4.ark:752604
mjeb1_sx207 quick_test/fbank/raw_fbank_train.3.ark:2743016
mrml0_si791 quick_test/fbank/raw_fbank_train.4.ark:4009189
mjee0_si607 quick_test/fbank/raw_fbank_train.3.ark:2811095
fmbg0_si1160 quick_test/fbank/raw_fbank_train.1.ark:8618491
mrab0_sx234 quick_test/fbank/raw_fbank_train.4.ark:611201
fsms1_sx244 quick_test/fbank/raw_fbank_train.2.ark:899758
mjmm0_si1255 quick_test/fbank/raw_fbank_train.3.ark:4051795
flja0_sx268 quick_test/fbank/raw_fbank_train.1.ark:7663372
feac0_sx75 quick_test/fbank/raw_fbank_train.1.ark:3522577
mmdb0_si987 quick_test/fbank/raw_fbank_train.3.ark:8628829
mmdg0_sx430 quick_test/fbank/raw_fbank_train.3.ark:8780586
mjmm0_sx265 quick_test/fbank/raw_fbank_train.3.ark:4104048
mtat1_sx149 quick_test/fbank/raw_fbank_train.4.ark:7490276
mpmb0_sx61 quick_test/fbank/raw_fbank_train.3.ark:11435171
mprt0_sx310 quick_test/fbank/raw_fbank_train.4.ark:454184
mjdg0_sx322 quick_test/fbank/raw_fbank_train.3.ark:2441334
mtdp0_si1521 quick_test/fbank/raw_fbank_train.4.ark:7869270
fmah1_si2139 quick_test/fbank/raw_fbank_train.1.ark:8535180
fsjw0_sx253 quick_test/fbank/raw_fbank_train.2.ark:205502
mkag0_sx439 quick_test/fbank/raw_fbank_train.3.ark:5738393
mclk0_sx220 quick_test/fbank/raw_fbank_train.2.ark:5288924
mtpg0_sx123 quick_test/fbank/raw_fbank_train.4.ark:9337847
mtdp0_sx81 quick_test/fbank/raw_fbank_train.4.ark:7969268
fblv0_si2318 quick_test/fbank/raw_fbank_train.1.ark:975582
mmws0_sx168 quick_test/fbank/raw_fbank_train.3.ark:10305487
fgdp0_sx178 quick_test/fbank/raw_fbank_train.1.ark:4307327
mjeb1_si2097 quick_test/fbank/raw_fbank_train.3.ark:2698197
mdas0_si1266 quick_test/fbank/raw_fbank_train.2.ark:6106815
fsdj0_sx125 quick_test/fbank/raw_fbank_train.1.ark:11556085
mkjo0_sx437 quick_test/fbank/raw_fbank_train.3.ark:6531232
mjac0_sx307 quick_test/fbank/raw_fbank_train.3.ark:1719284
mrbc0_sx149 quick_test/fbank/raw_fbank_train.4.ark:1092055
fvfb0_sx402 quick_test/fbank/raw_fbank_train.2.ark:1808529
mbml0_si1799 quick_test/fbank/raw_fbank_train.2.ark:3946022
msvs0_sx128 quick_test/fbank/raw_fbank_train.4.ark:7086216
fear0_si622 quick_test/fbank/raw_fbank_train.1.ark:3551958
mjjb0_sx419 quick_test/fbank/raw_fbank_train.3.ark:3251047
mfer0_sx142 quick_test/fbank/raw_fbank_train.2.ark:10425291
mwem0_si1320 quick_test/fbank/raw_fbank_train.4.ark:10955175
mjjj0_si1163 quick_test/fbank/raw_fbank_train.3.ark:3272473
mbwp0_si709 quick_test/fbank/raw_fbank_train.2.ark:4310114
mtqc0_sx451 quick_test/fbank/raw_fbank_train.4.ark:9690461
mpfu0_si628 quick_test/fbank/raw_fbank_train.3.ark:10935707
fsag0_sx423 quick_test/fbank/raw_fbank_train.1.ark:10963873
fcrz0_sx253 quick_test/fbank/raw_fbank_train.1.ark:2250894
mpeb0_si600 quick_test/fbank/raw_fbank_train.3.ark:10832482
fclt0_si2068 quick_test/fbank/raw_fbank_train.1.ark:1915359
mdpb0_si1760 quick_test/fbank/raw_fbank_train.2.ark:8500055
fcdr1_sx16 quick_test/fbank/raw_fbank_train.1.ark:1509092
flag0_si2094 quick_test/fbank/raw_fbank_train.1.ark:7228770
mdks0_sx166 quick_test/fbank/raw_fbank_train.2.ark:7311694
ftlg0_sx303 quick_test/fbank/raw_fbank_train.2.ark:1610605
fspm0_sx251 quick_test/fbank/raw_fbank_train.2.ark:1007623
mtrt0_sx147 quick_test/fbank/raw_fbank_train.4.ark:9953556
mjrk0_sx340 quick_test/fbank/raw_fbank_train.3.ark:4885642
mklr0_si2319 quick_test/fbank/raw_fbank_train.3.ark:6675071
mklw0_sx311 quick_test/fbank/raw_fbank_train.3.ark:6998967
mjls0_sx376 quick_test/fbank/raw_fbank_train.3.ark:3860150
mrpc1_sx42 quick_test/fbank/raw_fbank_train.4.ark:4269685
fgmb0_sx155 quick_test/fbank/raw_fbank_train.1.ark:4428512
mabc0_sx61 quick_test/fbank/raw_fbank_train.2.ark:2093396
mgjc0_sx255 quick_test/fbank/raw_fbank_train.3.ark:330383
mcdd0_sx163 quick_test/fbank/raw_fbank_train.2.ark:4746205
mcpm0_si1824 quick_test/fbank/raw_fbank_train.2.ark:5432795
mjfr0_si975 quick_test/fbank/raw_fbank_train.3.ark:2988025
mcss0_sx390 quick_test/fbank/raw_fbank_train.2.ark:5700361
frjb0_sx167 quick_test/fbank/raw_fbank_train.1.ark:10715085
mlns0_si777 quick_test/fbank/raw_fbank_train.3.ark:7694323
mram0_si1275 quick_test/fbank/raw_fbank_train.4.ark:873583
mjpg0_sx111 quick_test/fbank/raw_fbank_train.3.ark:4185320
feeh0_si1112 quick_test/fbank/raw_fbank_train.1.ark:3751581
majp0_sx444 quick_test/fbank/raw_fbank_train.2.ark:2664556
mrmb0_sx411 quick_test/fbank/raw_fbank_train.4.ark:3765324
msvs0_sx398 quick_test/fbank/raw_fbank_train.4.ark:7141107
mjfh0_sx27 quick_test/fbank/raw_fbank_train.3.ark:2937578
fpaz0_sx243 quick_test/fbank/raw_fbank_train.1.ark:10253034
mkag0_si1609 quick_test/fbank/raw_fbank_train.3.ark:5659915
mbcg0_sx147 quick_test/fbank/raw_fbank_train.2.ark:3400538
mkag0_si2239 quick_test/fbank/raw_fbank_train.3.ark:5676229
mclk0_si650 quick_test/fbank/raw_fbank_train.2.ark:5255498
mklr0_sx249 quick_test/fbank/raw_fbank_train.3.ark:6694257
mpsw0_si2327 quick_test/fbank/raw_fbank_train.4.ark:505351
mprd0_sx81 quick_test/fbank/raw_fbank_train.4.ark:266440
mbgt0_sx81 quick_test/fbank/raw_fbank_train.2.ark:3634199
mbar0_si689 quick_test/fbank/raw_fbank_train.2.ark:3196775
mrmh0_sx211 quick_test/fbank/raw_fbank_train.4.ark:3940470
mrmh0_sx31 quick_test/fbank/raw_fbank_train.4.ark:3962455
mdas0_sx276 quick_test/fbank/raw_fbank_train.2.ark:6166740
mclk0_sx40 quick_test/fbank/raw_fbank_train.2.ark:5312549
mklw0_si1571 quick_test/fbank/raw_fbank_train.3.ark:6940600
fleh0_sx331 quick_test/fbank/raw_fbank_train.1.ark:7383368
fdxw0_sx161 quick_test/fbank/raw_fbank_train.1.ark:3373381
mhmg0_sx15 quick_test/fbank/raw_fbank_train.3.ark:1235162
mses0_sx239 quick_test/fbank/raw_fbank_train.4.ark:6058322
mdhl0_sx359 quick_test/fbank/raw_fbank_train.2.ark:7056644
fcaj0_sx39 quick_test/fbank/raw_fbank_train.1.ark:1412253
fjrb0_si1302 quick_test/fbank/raw_fbank_train.1.ark:5451789
msjk0_si966 quick_test/fbank/raw_fbank_train.4.ark:6361251
mntw0_si2328 quick_test/fbank/raw_fbank_train.3.ark:10669352
mgxp0_sx277 quick_test/fbank/raw_fbank_train.3.ark:867864
mrhl0_sx165 quick_test/fbank/raw_fbank_train.4.ark:2515885
msfh0_si586 quick_test/fbank/raw_fbank_train.4.ark:6136481
msmc0_si647 quick_test/fbank/raw_fbank_train.4.ark:6465955
fcdr1_sx106 quick_test/fbank/raw_fbank_train.1.ark:1496220
mnet0_sx6 quick_test/fbank/raw_fbank_train.3.ark:10607538
mhjb0_sx387 quick_test/fbank/raw_fbank_train.3.ark:1174436
mtlb0_sx234 quick_test/fbank/raw_fbank_train.4.ark:8750849
msmr0_sx235 quick_test/fbank/raw_fbank_train.4.ark:6594366
mgjc0_si1335 quick_test/fbank/raw_fbank_train.3.ark:288803
mkaj0_sx424 quick_test/fbank/raw_fbank_train.3.ark:5931403
mjjm0_sx197 quick_test/fbank/raw_fbank_train.3.ark:3449743
fmjb0_sx277 quick_test/fbank/raw_fbank_train.1.ark:8884394
frll0_sx254 quick_test/fbank/raw_fbank_train.1.ark:10837622
mdac0_sx181 quick_test/fbank/raw_fbank_train.2.ark:6045050
mljh0_sx154 quick_test/fbank/raw_fbank_train.3.ark:7600131
mmws1_sx261 quick_test/fbank/raw_fbank_train.3.ark:10399313
mdjm0_si2085 quick_test/fbank/raw_fbank_train.2.ark:7206242
mkrg0_sx411 quick_test/fbank/raw_fbank_train.3.ark:7117264
makr0_si1352 quick_test/fbank/raw_fbank_train.2.ark:2810128
mtrc0_si589 quick_test/fbank/raw_fbank_train.4.ark:9734520
mhmr0_sx309 quick_test/fbank/raw_fbank_train.3.ark:1345021
mmds0_sx353 quick_test/fbank/raw_fbank_train.3.ark:9052388
mdrd0_si1382 quick_test/fbank/raw_fbank_train.2.ark:8784410
mtrt0_sx57 quick_test/fbank/raw_fbank_train.4.ark:9993007
mhrm0_sx238 quick_test/fbank/raw_fbank_train.3.ark:1420813
mtdb0_sx411 quick_test/fbank/raw_fbank_train.4.ark:7838290
mprk0_sx17 quick_test/fbank/raw_fbank_train.4.ark:341886
mesg0_sx252 quick_test/fbank/raw_fbank_train.2.ark:10176211
mbgt0_sx441 quick_test/fbank/raw_fbank_train.2.ark:3623087
mdpb0_si2126 quick_test/fbank/raw_fbank_train.2.ark:8518209
mhrm0_sx418 quick_test/fbank/raw_fbank_train.3.ark:1443159
feeh0_sx212 quick_test/fbank/raw_fbank_train.1.ark:3803434
fajw0_si633 quick_test/fbank/raw_fbank_train.1.ark:131585
mbom0_sx294 quick_test/fbank/raw_fbank_train.2.ark:4078900
mdlc2_sx444 quick_test/fbank/raw_fbank_train.2.ark:7768734
fmbg0_sx350 quick_test/fbank/raw_fbank_train.1.ark:8678336
mjbg0_si1724 quick_test/fbank/raw_fbank_train.3.ark:1980860
mrxb0_sx415 quick_test/fbank/raw_fbank_train.4.ark:5200438
fskl0_si1529 quick_test/fbank/raw_fbank_train.2.ark:347179
mfwk0_sx259 quick_test/fbank/raw_fbank_train.2.ark:10721920
mvjh0_sx386 quick_test/fbank/raw_fbank_train.4.ark:10289923
fdfb0_sx58 quick_test/fbank/raw_fbank_train.1.ark:2680014
mdpk0_sx63 quick_test/fbank/raw_fbank_train.2.ark:8684191
mwar0_si2305 quick_test/fbank/raw_fbank_train.4.ark:10708166
mrew1_sx330 quick_test/fbank/raw_fbank_train.4.ark:2009067
mbgt0_si711 quick_test/fbank/raw_fbank_train.2.ark:3565715
fsbk0_sx259 quick_test/fbank/raw_fbank_train.1.ark:11243963
maeo0_sx156 quick_test/fbank/raw_fbank_train.2.ark:2440486
mdlc0_si2025 quick_test/fbank/raw_fbank_train.2.ark:7523638
mrcw0_si2001 quick_test/fbank/raw_fbank_train.4.ark:1288079
fjxm0_si1971 quick_test/fbank/raw_fbank_train.1.ark:5982988
mjls0_si1726 quick_test/fbank/raw_fbank_train.3.ark:3783393
mwac0_si1601 quick_test/fbank/raw_fbank_train.4.ark:10480687
mkah0_si898 quick_test/fbank/raw_fbank_train.3.ark:5788206
mdps0_sx449 quick_test/fbank/raw_fbank_train.2.ark:8760984
mdwd0_si1260 quick_test/fbank/raw_fbank_train.2.ark:9251096
majp0_si2334 quick_test/fbank/raw_fbank_train.2.ark:2608184
fvfb0_si2292 quick_test/fbank/raw_fbank_train.2.ark:1765157
mvlo0_si1147 quick_test/fbank/raw_fbank_train.4.ark:10299517
fjdm2_sx232 quick_test/fbank/raw_fbank_train.1.ark:4892729
mjmm0_sx355 quick_test/fbank/raw_fbank_train.3.ark:4115841
flkm0_sx260 quick_test/fbank/raw_fbank_train.1.ark:7985406
mkes0_sx443 quick_test/fbank/raw_fbank_train.3.ark:6443727
mprt0_sx40 quick_test/fbank/raw_fbank_train.4.ark:463896
mcdc0_si662 quick_test/fbank/raw_fbank_train.2.ark:4641227
megj0_si1337 quick_test/fbank/raw_fbank_train.2.ark:9829485
mbma1_sx54 quick_test/fbank/raw_fbank_train.2.ark:3921754
mmeb0_sx327 quick_test/fbank/raw_fbank_train.3.ark:9208565
mjpm1_si2280 quick_test/fbank/raw_fbank_train.3.ark:4338264
makb0_sx116 quick_test/fbank/raw_fbank_train.2.ark:2750603
mdlh0_si574 quick_test/fbank/raw_fbank_train.2.ark:7806553
mtlb0_sx144 quick_test/fbank/raw_fbank_train.4.ark:8740096
mtbc0_si543 quick_test/fbank/raw_fbank_train.4.ark:7584028
fsag0_si1323 quick_test/fbank/raw_fbank_train.1.ark:10878274
mcef0_si1135 quick_test/fbank/raw_fbank_train.2.ark:4912995
mrkm0_si1391 quick_test/fbank/raw_fbank_train.4.ark:3132210
mdmt0_sx122 quick_test/fbank/raw_fbank_train.2.ark:8339145
mewm0_sx268 quick_test/fbank/raw_fbank_train.2.ark:10353099
fcmg0_sx162 quick_test/fbank/raw_fbank_train.1.ark:2042571
fsdc0_si1312 quick_test/fbank/raw_fbank_train.1.ark:11428079
fljd0_sx76 quick_test/fbank/raw_fbank_train.1.ark:7803055
msem1_sx270 quick_test/fbank/raw_fbank_train.4.ark:5961536
mrpc1_si1482 quick_test/fbank/raw_fbank_train.4.ark:4193853
fgrw0_sx432 quick_test/fbank/raw_fbank_train.1.ark:4586637
mmgk0_sx422 quick_test/fbank/raw_fbank_train.3.ark:9503346
fdnc0_si1908 quick_test/fbank/raw_fbank_train.1.ark:3143783
mpmb0_sx151 quick_test/fbank/raw_fbank_train.3.ark:11362360
mpgh0_si675 quick_test/fbank/raw_fbank_train.3.ark:11028698
faem0_sx402 quick_test/fbank/raw_fbank_train.1.ark:78172
fmjf0_sx264 quick_test/fbank/raw_fbank_train.1.ark:8983017
mcef0_sx235 quick_test/fbank/raw_fbank_train.2.ark:4963168
mrem0_sx151 quick_test/fbank/raw_fbank_train.4.ark:1898736
fear0_sx352 quick_test/fbank/raw_fbank_train.1.ark:3588537
mjrh1_sx244 quick_test/fbank/raw_fbank_train.3.ark:4782024
mtkp0_si454 quick_test/fbank/raw_fbank_train.4.ark:8633278
flja0_si1708 quick_test/fbank/raw_fbank_train.1.ark:7633432
fmbg0_sx3 quick_test/fbank/raw_fbank_train.1.ark:8670583
mmdm0_sx321 quick_test/fbank/raw_fbank_train.3.ark:8860778
fdas1_sx201 quick_test/fbank/raw_fbank_train.1.ark:2458704
fklh0_si1257 quick_test/fbank/raw_fbank_train.1.ark:6919781
fleh0_si1051 quick_test/fbank/raw_fbank_train.1.ark:7321801
mclm0_sx376 quick_test/fbank/raw_fbank_train.2.ark:5411207
mhit0_sx83 quick_test/fbank/raw_fbank_train.3.ark:1094530
mjrp0_si1835 quick_test/fbank/raw_fbank_train.3.ark:4917821
mrwa0_sx73 quick_test/fbank/raw_fbank_train.4.ark:5026220
mjdg0_sx412 quick_test/fbank/raw_fbank_train.3.ark:2450727
flma0_si613 quick_test/fbank/raw_fbank_train.1.ark:8067645
mjpg0_sx201 quick_test/fbank/raw_fbank_train.3.ark:4193873
mdbp0_sx168 quick_test/fbank/raw_fbank_train.2.ark:6331883
msvs0_si2198 quick_test/fbank/raw_fbank_train.4.ark:7045790
fdmy0_sx387 quick_test/fbank/raw_fbank_train.1.ark:3105315
mbma0_sx232 quick_test/fbank/raw_fbank_train.2.ark:3782591
frjb0_si1427 quick_test/fbank/raw_fbank_train.1.ark:10690344
mkls0_si2067 quick_test/fbank/raw_fbank_train.3.ark:6767537
fmkc0_sx172 quick_test/fbank/raw_fbank_train.1.ark:9174915
mefg0_sx195 quick_test/fbank/raw_fbank_train.2.ark:9795185
mrcw0_sx21 quick_test/fbank/raw_fbank_train.4.ark:1338690
mwgr0_sx166 quick_test/fbank/raw_fbank_train.4.ark:11095821
frll0_si1514 quick_test/fbank/raw_fbank_train.1.ark:10781290
mded0_sx90 quick_test/fbank/raw_fbank_train.2.ark:6776634
msfv0_si632 quick_test/fbank/raw_fbank_train.4.ark:6246746
mtat0_si1110 quick_test/fbank/raw_fbank_train.4.ark:7353751
fskp0_sx378 quick_test/fbank/raw_fbank_train.2.ark:527755
mjdm0_si974 quick_test/fbank/raw_fbank_train.3.ark:2500860
mgrl0_si867 quick_test/fbank/raw_fbank_train.3.ark:408942
mrdd0_sx60 quick_test/fbank/raw_fbank_train.4.ark:1444982
fpaz0_sx27 quick_test/fbank/raw_fbank_train.1.ark:10265146
mdpk0_si1053 quick_test/fbank/raw_fbank_train.2.ark:8604360
fjlg0_sx449 quick_test/fbank/raw_fbank_train.1.ark:5324898
freh0_si685 quick_test/fbank/raw_fbank_train.1.ark:10632786
mejs0_si610 quick_test/fbank/raw_fbank_train.2.ark:10055400
mrab0_sx324 quick_test/fbank/raw_fbank_train.4.ark:622554
feeh0_sx122 quick_test/fbank/raw_fbank_train.1.ark:3790001
ftlg0_sx33 quick_test/fbank/raw_fbank_train.2.ark:1619997
mkls0_sx267 quick_test/fbank/raw_fbank_train.3.ark:6793323
fdxw0_sx71 quick_test/fbank/raw_fbank_train.1.ark:3421512
mgrl0_sx57 quick_test/fbank/raw_fbank_train.3.ark:474546
mbml0_sx179 quick_test/fbank/raw_fbank_train.2.ark:3968008
mcal0_si508 quick_test/fbank/raw_fbank_train.2.ark:4546682
mrcg0_si1428 quick_test/fbank/raw_fbank_train.4.ark:1154820
msem1_sx90 quick_test/fbank/raw_fbank_train.4.ark:6000154
fgrw0_sx72 quick_test/fbank/raw_fbank_train.1.ark:4604709
mtdp0_sx441 quick_test/fbank/raw_fbank_train.4.ark:7953516
mjee0_sx157 quick_test/fbank/raw_fbank_train.3.ark:2819728
fsdj0_si485 quick_test/fbank/raw_fbank_train.1.ark:11547612
fclt0_sx178 quick_test/fbank/raw_fbank_train.1.ark:1938905
msmr0_si775 quick_test/fbank/raw_fbank_train.4.ark:6571980
marc0_sx18 quick_test/fbank/raw_fbank_train.2.ark:3030950
fdas1_sx111 quick_test/fbank/raw_fbank_train.1.ark:2448311
fsbk0_sx349 quick_test/fbank/raw_fbank_train.1.ark:11257876
mdpb0_si866 quick_test/fbank/raw_fbank_train.2.ark:8531522
fexm0_si1731 quick_test/fbank/raw_fbank_train.1.ark:4072290
mwch0_sx362 quick_test/fbank/raw_fbank_train.4.ark:10820091
mrfl0_sx76 quick_test/fbank/raw_fbank_train.4.ark:2236703
mgaf0_sx22 quick_test/fbank/raw_fbank_train.2.ark:11021669
msdb0_sx377 quick_test/fbank/raw_fbank_train.4.ark:5653638
mses0_si2219 quick_test/fbank/raw_fbank_train.4.ark:6034816
mcdr0_sx344 quick_test/fbank/raw_fbank_train.2.ark:4881216
mrfl0_sx346 quick_test/fbank/raw_fbank_train.4.ark:2211958
mtrr0_sx378 quick_test/fbank/raw_fbank_train.4.ark:9895502
mtml0_si1695 quick_test/fbank/raw_fbank_train.4.ark:8906600
flmc0_si742 quick_test/fbank/raw_fbank_train.1.ark:8157030
madc0_sx377 quick_test/fbank/raw_fbank_train.2.ark:2197221
mkln0_si2228 quick_test/fbank/raw_fbank_train.3.ark:6568972
flmk0_sx135 quick_test/fbank/raw_fbank_train.1.ark:8271249
msrr0_sx30 quick_test/fbank/raw_fbank_train.4.ark:6895913
mrcg0_sx168 quick_test/fbank/raw_fbank_train.4.ark:1200600
mrcw0_sx291 quick_test/fbank/raw_fbank_train.4.ark:1345803
fjsk0_sx152 quick_test/fbank/raw_fbank_train.1.ark:5714700
mcxm0_sx451 quick_test/fbank/raw_fbank_train.2.ark:5978364
fpaf0_si1054 quick_test/fbank/raw_fbank_train.1.ark:10092195
mmlm0_si2150 quick_test/fbank/raw_fbank_train.3.ark:9634231
ftbw0_sx445 quick_test/fbank/raw_fbank_train.2.ark:1515854
mmxs0_si2136 quick_test/fbank/raw_fbank_train.3.ark:10444517
mtas0_si2015 quick_test/fbank/raw_fbank_train.4.ark:7289480
mtas0_sx305 quick_test/fbank/raw_fbank_train.4.ark:7325492
mdlc0_sx45 quick_test/fbank/raw_fbank_train.2.ark:7596475
mjac0_sx251 quick_test/fbank/raw_fbank_train.3.ark:1702131
mtkd0_si630 quick_test/fbank/raw_fbank_train.4.ark:8518253
mtdp0_sx351 quick_test/fbank/raw_fbank_train.4.ark:7932203
fjlr0_sx421 quick_test/fbank/raw_fbank_train.1.ark:5425963
mjmd0_si2288 quick_test/fbank/raw_fbank_train.3.ark:3979317
fkde0_si1771 quick_test/fbank/raw_fbank_train.1.ark:6302543
mrtj0_sx412 quick_test/fbank/raw_fbank_train.4.ark:4824418
mfmc0_si502 quick_test/fbank/raw_fbank_train.2.ark:10506443
meal0_si2177 quick_test/fbank/raw_fbank_train.2.ark:9568165
fpab1_si1471 quick_test/fbank/raw_fbank_train.1.ark:9762720
msah1_si1679 quick_test/fbank/raw_fbank_train.4.ark:5233898
fkfb0_sx168 quick_test/fbank/raw_fbank_train.1.ark:6534140
maeo0_sx426 quick_test/fbank/raw_fbank_train.2.ark:2475505
mbef0_sx111 quick_test/fbank/raw_fbank_train.2.ark:3497403
mfrm0_si1717 quick_test/fbank/raw_fbank_train.2.ark:10600395
mtab0_si2202 quick_test/fbank/raw_fbank_train.4.ark:7180135
mjjm0_sx287 quick_test/fbank/raw_fbank_train.3.ark:3460656
msas0_sx386 quick_test/fbank/raw_fbank_train.4.ark:5407601
mrjm1_sx218 quick_test/fbank/raw_fbank_train.4.ark:2959139
mfwk0_si1249 quick_test/fbank/raw_fbank_train.2.ark:10679387
fmjf0_si1254 quick_test/fbank/raw_fbank_train.1.ark:8929764
mlbc0_sx249 quick_test/fbank/raw_fbank_train.3.ark:7285449
mtas0_sx125 quick_test/fbank/raw_fbank_train.4.ark:7306146
mtwh1_sx252 quick_test/fbank/raw_fbank_train.4.ark:10045654
mhit0_si1613 quick_test/fbank/raw_fbank_train.3.ark:1006379
msat0_sx446 quick_test/fbank/raw_fbank_train.4.ark:5476314
fcyl0_si1927 quick_test/fbank/raw_fbank_train.1.ark:2307860
mhmg0_sx195 quick_test/fbank/raw_fbank_train.3.ark:1245995
mgxp0_sx367 quick_test/fbank/raw_fbank_train.3.ark:879177
mtas0_si1385 quick_test/fbank/raw_fbank_train.4.ark:7275006
mklr0_sx159 quick_test/fbank/raw_fbank_train.3.ark:6682224
mcth0_sx399 quick_test/fbank/raw_fbank_train.2.ark:5799346
mjdc0_sx81 quick_test/fbank/raw_fbank_train.3.ark:2237549
mdas0_sx96 quick_test/fbank/raw_fbank_train.2.ark:6186683
mrsp0_si799 quick_test/fbank/raw_fbank_train.4.ark:4548796
mdlr0_sx333 quick_test/fbank/raw_fbank_train.2.ark:8045855
mkag0_si979 quick_test/fbank/raw_fbank_train.3.ark:5686222
fcmm0_si1083 quick_test/fbank/raw_fbank_train.1.ark:2107136
mgsh0_sx6 quick_test/fbank/raw_fbank_train.3.ark:673882
mtjg0_sx80 quick_test/fbank/raw_fbank_train.4.ark:8174757
msah1_sx59 quick_test/fbank/raw_fbank_train.4.ark:5298616
mvrw0_si855 quick_test/fbank/raw_fbank_train.4.ark:10421329
mtlc0_sx397 quick_test/fbank/raw_fbank_train.4.ark:8883612
mbjv0_sx347 quick_test/fbank/raw_fbank_train.2.ark:3699879
flmc0_si2002 quick_test/fbank/raw_fbank_train.1.ark:8149397
maeb0_si1411 quick_test/fbank/raw_fbank_train.2.ark:2307200
fmkf0_sx6 quick_test/fbank/raw_fbank_train.1.ark:9321757
fcmg0_sx252 quick_test/fbank/raw_fbank_train.1.ark:2056444
msms0_sx83 quick_test/fbank/raw_fbank_train.4.ark:6725929
mpar0_si2206 quick_test/fbank/raw_fbank_train.3.ark:10740944
mafm0_sx309 quick_test/fbank/raw_fbank_train.2.ark:2549497
meal0_si1547 quick_test/fbank/raw_fbank_train.2.ark:9558531
fcmg0_si1872 quick_test/fbank/raw_fbank_train.1.ark:2031618
mgaw0_sx265 quick_test/fbank/raw_fbank_train.3.ark:155652
mbml0_si539 quick_test/fbank/raw_fbank_train.2.ark:3957455
mpgr0_si780 quick_test/fbank/raw_fbank_train.3.ark:11122436
flet0_si507 quick_test/fbank/raw_fbank_train.1.ark:7447814
mjmd0_si1658 quick_test/fbank/raw_fbank_train.3.ark:3975083
fjsp0_sx444 quick_test/fbank/raw_fbank_train.1.ark:5850824
mrvg0_sx330 quick_test/fbank/raw_fbank_train.4.ark:4904090
mdac0_si631 quick_test/fbank/raw_fbank_train.2.ark:6024217
fcaj0_sx399 quick_test/fbank/raw_fbank_train.1.ark:1422766
flhd0_sx444 quick_test/fbank/raw_fbank_train.1.ark:7584132
fscn0_si626 quick_test/fbank/raw_fbank_train.1.ark:11320768
mjwt0_si751 quick_test/fbank/raw_fbank_train.3.ark:5391067
feme0_sx245 quick_test/fbank/raw_fbank_train.1.ark:3909579
fmah1_sx69 quick_test/fbank/raw_fbank_train.1.ark:8606577
mjde0_si463 quick_test/fbank/raw_fbank_train.3.ark:2270936
mkls1_sx285 quick_test/fbank/raw_fbank_train.3.ark:6917253
fetb0_si1148 quick_test/fbank/raw_fbank_train.1.ark:3962311
fdjh0_sx305 quick_test/fbank/raw_fbank_train.1.ark:2754054
fmem0_sx207 quick_test/fbank/raw_fbank_train.1.ark:8773088
mdlc1_si2065 quick_test/fbank/raw_fbank_train.2.ark:7627623
mmxs0_sx246 quick_test/fbank/raw_fbank_train.3.ark:10491129
mhjb0_si1017 quick_test/fbank/raw_fbank_train.3.ark:1105444
mree0_sx204 quick_test/fbank/raw_fbank_train.4.ark:1703960
flhd0_sx264 quick_test/fbank/raw_fbank_train.1.ark:7562786
mclm0_sx286 quick_test/fbank/raw_fbank_train.2.ark:5397814
falk0_sx96 quick_test/fbank/raw_fbank_train.1.ark:298009
fecd0_si2048 quick_test/fbank/raw_fbank_train.1.ark:3656390
mjfh0_si1737 quick_test/fbank/raw_fbank_train.3.ark:2894887
fblv0_sx68 quick_test/fbank/raw_fbank_train.1.ark:1037266
mpeb0_sx330 quick_test/fbank/raw_fbank_train.3.ark:10869741
mjmd0_sx128 quick_test/fbank/raw_fbank_train.3.ark:3997390
mvlo0_sx427 quick_test/fbank/raw_fbank_train.4.ark:10375236
mgaw0_si1802 quick_test/fbank/raw_fbank_train.3.ark:117273
fpmy0_sx163 quick_test/fbank/raw_fbank_train.1.ark:10541914
mmws1_sx27 quick_test/fbank/raw_fbank_train.3.ark:10407225
fssb0_sx272 quick_test/fbank/raw_fbank_train.2.ark:1205394
mabc0_sx151 quick_test/fbank/raw_fbank_train.2.ark:2052705
mdcd0_sx65 quick_test/fbank/raw_fbank_train.2.ark:6483959
mtmn0_si582 quick_test/fbank/raw_fbank_train.4.ark:9031379
mhxl0_si612 quick_test/fbank/raw_fbank_train.3.ark:1495371
mbma0_sx412 quick_test/fbank/raw_fbank_train.2.ark:3806897
mmrp0_si2034 quick_test/fbank/raw_fbank_train.3.ark:9812768
fdtd0_si931 quick_test/fbank/raw_fbank_train.1.ark:3261722
mjws0_sx63 quick_test/fbank/raw_fbank_train.3.ark:5342046
mtcs0_si1972 quick_test/fbank/raw_fbank_train.4.ark:7663346
madd0_si1295 quick_test/fbank/raw_fbank_train.2.ark:2210255
fcyl0_sx217 quick_test/fbank/raw_fbank_train.1.ark:2348999
mkjo0_sx167 quick_test/fbank/raw_fbank_train.3.ark:6498213
mjjb0_sx329 quick_test/fbank/raw_fbank_train.3.ark:3235534
fhlm0_sx210 quick_test/fbank/raw_fbank_train.1.ark:4661876
mpmb0_sx331 quick_test/fbank/raw_fbank_train.3.ark:11393706
mljh0_sx64 quick_test/fbank/raw_fbank_train.3.ark:7657902
fear0_si1252 quick_test/fbank/raw_fbank_train.1.ark:3532851
mgsl0_sx264 quick_test/fbank/raw_fbank_train.3.ark:755880
mjrg0_si1366 quick_test/fbank/raw_fbank_train.3.ark:4529000
mpfu0_sx358 quick_test/fbank/raw_fbank_train.3.ark:10973286
fdxw0_si1511 quick_test/fbank/raw_fbank_train.1.ark:3343801
fssb0_sx92 quick_test/fbank/raw_fbank_train.2.ark:1249132
mwac0_sx431 quick_test/fbank/raw_fbank_train.4.ark:10574126
mjae0_si1999 quick_test/fbank/raw_fbank_train.3.ark:1778010
mjeb0_sx206 quick_test/fbank/raw_fbank_train.3.ark:2636151
fbch0_sx146 quick_test/fbank/raw_fbank_train.1.ark:778004
mtlb0_sx414 quick_test/fbank/raw_fbank_train.4.ark:8779195
fjxm0_sx221 quick_test/fbank/raw_fbank_train.1.ark:6016487
mrem0_si961 quick_test/fbank/raw_fbank_train.4.ark:1888743
fnkl0_sx262 quick_test/fbank/raw_fbank_train.1.ark:9632677
fhxs0_sx355 quick_test/fbank/raw_fbank_train.1.ark:4806056
fljg0_si1611 quick_test/fbank/raw_fbank_train.1.ark:7815489
mgsh0_si546 quick_test/fbank/raw_fbank_train.3.ark:624912
mmbs0_si521 quick_test/fbank/raw_fbank_train.3.ark:8416499
milb0_sx93 quick_test/fbank/raw_fbank_train.3.ark:1656117
mmdm0_si1311 quick_test/fbank/raw_fbank_train.3.ark:8801212
mmsm0_sx386 quick_test/fbank/raw_fbank_train.3.ark:10010583
mdac0_si1837 quick_test/fbank/raw_fbank_train.2.ark:6015024
fbjl0_si1552 quick_test/fbank/raw_fbank_train.1.ark:841289
msdh0_sx440 quick_test/fbank/raw_fbank_train.4.ark:5739031
fceg0_sx438 quick_test/fbank/raw_fbank_train.1.ark:1621624
fbjl0_sx382 quick_test/fbank/raw_fbank_train.1.ark:928160
fsls0_si1686 quick_test/fbank/raw_fbank_train.2.ark:551303
mdcd0_sx245 quick_test/fbank/raw_fbank_train.2.ark:6447581
mrtc0_sx108 quick_test/fbank/raw_fbank_train.4.ark:4666014
fjkl0_sx122 quick_test/fbank/raw_fbank_train.1.ark:5191453
fgdp0_sx88 quick_test/fbank/raw_fbank_train.1.ark:4365218
mrai0_sx432 quick_test/fbank/raw_fbank_train.4.ark:846557
mpgr0_sx420 quick_test/fbank/raw_fbank_train.3.ark:11162328
fcjs0_sx77 quick_test/fbank/raw_fbank_train.1.ark:1802706
mklr0_si1059 quick_test/fbank/raw_fbank_train.3.ark:6650243
msrg0_si1851 quick_test/fbank/raw_fbank_train.4.ark:6752317
fhxs0_sx175 quick_test/fbank/raw_fbank_train.1.ark:4775550
falr0_sx425 quick_test/fbank/raw_fbank_train.1.ark:385482
fjxp0_sx402 quick_test/fbank/raw_fbank_train.1.ark:6153298
mfwk0_sx349 quick_test/fbank/raw_fbank_train.2.ark:10733113
msah1_sx149 quick_test/fbank/raw_fbank_train.4.ark:5250245
