mrxb0_si955 quick_test/fbank/raw_fbank_train.4.ark:5150746
mprk0_sx107 quick_test/fbank/raw_fbank_train.4.ark:329494
mjpg0_sx111 quick_test/fbank/raw_fbank_train.3.ark:4185320
flkm0_sx116 quick_test/fbank/raw_fbank_train.1.ark:7975013
mcxm0_si1351 quick_test/fbank/raw_fbank_train.2.ark:5906405
mreh1_si1599 quick_test/fbank/raw_fbank_train.4.ark:1743972
mjrh1_sx424 quick_test/fbank/raw_fbank_train.3.ark:4804610
mtjg0_sx170 quick_test/fbank/raw_fbank_train.4.ark:8113946
mdcm0_sx130 quick_test/fbank/raw_fbank_train.2.ark:6533693
fcdr1_sx376 quick_test/fbank/raw_fbank_train.1.ark:1547351
mjjm0_si1251 quick_test/fbank/raw_fbank_train.3.ark:3384618
fmkf0_si1018 quick_test/fbank/raw_fbank_train.1.ark:9241000
mtwh1_sx432 quick_test/fbank/raw_fbank_train.4.ark:10067600
madc0_si1997 quick_test/fbank/raw_fbank_train.2.ark:2121984
msat1_si1073 quick_test/fbank/raw_fbank_train.4.ark:5496060
mhit0_si983 quick_test/fbank/raw_fbank_train.3.ark:1026886
mjpg0_si561 quick_test/fbank/raw_fbank_train.3.ark:4170127
ftbr0_sx381 quick_test/fbank/raw_fbank_train.2.ark:1427661
fntb0_si573 quick_test/fbank/raw_fbank_train.1.ark:9679329
fskc0_sx66 quick_test/fbank/raw_fbank_train.2.ark:336705
mdbp0_sx438 quick_test/fbank/raw_fbank_train.2.ark:6368262
mfmc0_sx232 quick_test/fbank/raw_fbank_train.2.ark:10533429
fjrb0_si672 quick_test/fbank/raw_fbank_train.1.ark:5476736
marw0_sx349 quick_test/fbank/raw_fbank_train.2.ark:3143201
fdml0_si1779 quick_test/fbank/raw_fbank_train.1.ark:2915533
mlbc0_sx339 quick_test/fbank/raw_fbank_train.3.ark:7295282
mafm0_sx399 quick_test/fbank/raw_fbank_train.2.ark:2571682
fvfb0_sx222 quick_test/fbank/raw_fbank_train.2.ark:1782663
mtlb0_si1764 quick_test/fbank/raw_fbank_train.4.ark:8722110
mtrt0_sx417 quick_test/fbank/raw_fbank_train.4.ark:9980815
mjrh0_si1755 quick_test/fbank/raw_fbank_train.3.ark:4639739
flag0_sx384 quick_test/fbank/raw_fbank_train.1.ark:7308767
mfrm0_si1717 quick_test/fbank/raw_fbank_train.2.ark:10600395
mhbs0_si945 quick_test/fbank/raw_fbank_train.3.ark:939381
fmjb0_si547 quick_test/fbank/raw_fbank_train.1.ark:8862808
mzmb0_si1796 quick_test/fbank/raw_fbank_train.4.ark:11574518
mcae0_sx367 quick_test/fbank/raw_fbank_train.2.ark:4480558
mmea0_si1388 quick_test/fbank/raw_fbank_train.3.ark:9082167
fjsk0_sx332 quick_test/fbank/raw_fbank_train.1.ark:5739206
fklc0_sx265 quick_test/fbank/raw_fbank_train.1.ark:6772263
mmdb0_si987 quick_test/fbank/raw_fbank_train.3.ark:8628829
mdlr0_si603 quick_test/fbank/raw_fbank_train.2.ark:8009036
mdks0_sx166 quick_test/fbank/raw_fbank_train.2.ark:7311694
flet0_sx417 quick_test/fbank/raw_fbank_train.1.ark:7493386
mmws0_sx348 quick_test/fbank/raw_fbank_train.3.ark:10327433
marc0_si1188 quick_test/fbank/raw_fbank_train.2.ark:2992418
mjhi0_si1328 quick_test/fbank/raw_fbank_train.3.ark:3072543
mvlo0_sx427 quick_test/fbank/raw_fbank_train.4.ark:10375236
mmwb0_sx179 quick_test/fbank/raw_fbank_train.3.ark:10192103
mmsm0_si476 quick_test/fbank/raw_fbank_train.3.ark:9947699
mmvp0_si1284 quick_test/fbank/raw_fbank_train.3.ark:10022497
mtat0_sx390 quick_test/fbank/raw_fbank_train.4.ark:7440542
fsjs0_si1171 quick_test/fbank/raw_fbank_train.2.ark:43184
mlbc0_si1869 quick_test/fbank/raw_fbank_train.3.ark:7249590
fsma0_si1621 quick_test/fbank/raw_fbank_train.2.ark:639335
mtwh1_sx252 quick_test/fbank/raw_fbank_train.4.ark:10045654
mrjm1_sx38 quick_test/fbank/raw_fbank_train.4.ark:2985084
mbjv0_sx347 quick_test/fbank/raw_fbank_train.2.ark:3699879
mkxl0_sx285 quick_test/fbank/raw_fbank_train.3.ark:7211129
fsdj0_sx125 quick_test/fbank/raw_fbank_train.1.ark:11556085
fear0_si622 quick_test/fbank/raw_fbank_train.1.ark:3551958
mdpb0_sx146 quick_test/fbank/raw_fbank_train.2.ark:8549875
mbth0_si757 quick_test/fbank/raw_fbank_train.2.ark:4218809
mmpm0_sx251 quick_test/fbank/raw_fbank_train.3.ark:9762236
mdss1_sx427 quick_test/fbank/raw_fbank_train.2.ark:9145604
madc0_sx107 quick_test/fbank/raw_fbank_train.2.ark:2154410
mwac0_sx161 quick_test/fbank/raw_fbank_train.4.ark:10524227
fdnc0_sx108 quick_test/fbank/raw_fbank_train.1.ark:3170210
mdwm0_si2176 quick_test/fbank/raw_fbank_train.2.ark:9471900
mfmc0_sx412 quick_test/fbank/raw_fbank_train.2.ark:10559415
flmc0_sx382 quick_test/fbank/raw_fbank_train.1.ark:8219994
msmr0_si1405 quick_test/fbank/raw_fbank_train.4.ark:6560987
mmgk0_sx242 quick_test/fbank/raw_fbank_train.3.ark:9484320
mfxs0_sx414 quick_test/fbank/raw_fbank_train.2.ark:10844052
fjwb1_si748 quick_test/fbank/raw_fbank_train.1.ark:5886963
mwsh0_sx256 quick_test/fbank/raw_fbank_train.4.ark:11505192
mchl0_si1977 quick_test/fbank/raw_fbank_train.2.ark:5168673
mpmb0_sx421 quick_test/fbank/raw_fbank_train.3.ark:11411099
mkdd0_si1567 quick_test/fbank/raw_fbank_train.3.ark:6155839
mrlr0_si566 quick_test/fbank/raw_fbank_train.4.ark:3628967
mtlc0_si1313 quick_test/fbank/raw_fbank_train.4.ark:8804781
fjhk0_si2282 quick_test/fbank/raw_fbank_train.1.ark:5078435
mdem0_sx248 quick_test/fbank/raw_fbank_train.2.ark:6939226
mjpg0_si1821 quick_test/fbank/raw_fbank_train.3.ark:4153574
mkah0_si1528 quick_test/fbank/raw_fbank_train.3.ark:5765619
mmws0_sx168 quick_test/fbank/raw_fbank_train.3.ark:10305487
mnet0_sx6 quick_test/fbank/raw_fbank_train.3.ark:10607538
megj0_sx437 quick_test/fbank/raw_fbank_train.2.ark:9911882
fmpg0_sx252 quick_test/fbank/raw_fbank_train.1.ark:9511659
mjxl0_sx92 quick_test/fbank/raw_fbank_train.3.ark:5647801
mmam0_sx67 quick_test/fbank/raw_fbank_train.3.ark:8261853
fbmh0_si1136 quick_test/fbank/raw_fbank_train.1.ark:1048380
mjdg0_sx142 quick_test/fbank/raw_fbank_train.3.ark:2414628
fjxp0_sx402 quick_test/fbank/raw_fbank_train.1.ark:6153298
mrab1_si2108 quick_test/fbank/raw_fbank_train.4.ark:676447
mjae0_sx84 quick_test/fbank/raw_fbank_train.3.ark:1851648
mbgt0_sx351 quick_test/fbank/raw_fbank_train.2.ark:3606734
fklc1_sx328 quick_test/fbank/raw_fbank_train.1.ark:6875762
mbom0_sx114 quick_test/fbank/raw_fbank_train.2.ark:4060314
mtdp0_sx261 quick_test/fbank/raw_fbank_train.4.ark:7923250
flmk0_si2295 quick_test/fbank/raw_fbank_train.1.ark:8260856
frll0_sx74 quick_test/fbank/raw_fbank_train.1.ark:10867520
mtmn0_sx344 quick_test/fbank/raw_fbank_train.4.ark:9076518
mjee0_sx247 quick_test/fbank/raw_fbank_train.3.ark:2829761
flhd0_si1974 quick_test/fbank/raw_fbank_train.1.ark:7534840
mdlc1_si2144 quick_test/fbank/raw_fbank_train.2.ark:7643857
mkdt0_sx173 quick_test/fbank/raw_fbank_train.3.ark:6294643
fhlm0_si2190 quick_test/fbank/raw_fbank_train.1.ark:4620937
mnet0_sx186 quick_test/fbank/raw_fbank_train.3.ark:10575041
fdas1_sx381 quick_test/fbank/raw_fbank_train.1.ark:2492122
fltm0_sx260 quick_test/fbank/raw_fbank_train.1.ark:8465374
fkkh0_sx210 quick_test/fbank/raw_fbank_train.1.ark:6672958
mgrp0_sx57 quick_test/fbank/raw_fbank_train.3.ark:580011
fmjf0_si1884 quick_test/fbank/raw_fbank_train.1.ark:8939478
mdps0_sx179 quick_test/fbank/raw_fbank_train.2.ark:8726125
fhlm0_sx210 quick_test/fbank/raw_fbank_train.1.ark:4661876
mcxm0_sx181 quick_test/fbank/raw_fbank_train.2.ark:5942865
mmds0_sx263 quick_test/fbank/raw_fbank_train.3.ark:9044275
mjmd0_sx218 quick_test/fbank/raw_fbank_train.3.ark:4006943
mljh0_si1324 quick_test/fbank/raw_fbank_train.3.ark:7540911
mmws1_sx81 quick_test/fbank/raw_fbank_train.3.ark:10436083
mrtj0_sx52 quick_test/fbank/raw_fbank_train.4.ark:4837610
mcdr0_si1154 quick_test/fbank/raw_fbank_train.2.ark:4801810
mjeb0_sx206 quick_test/fbank/raw_fbank_train.3.ark:2636151
mdjm0_si1455 quick_test/fbank/raw_fbank_train.2.ark:7187408
mdlb0_sx316 quick_test/fbank/raw_fbank_train.2.ark:7461025
mrgs0_si1986 quick_test/fbank/raw_fbank_train.4.ark:2390236
mtjg0_sx260 quick_test/fbank/raw_fbank_train.4.ark:8131739
mmwb0_sx359 quick_test/fbank/raw_fbank_train.3.ark:10220449
msrg0_si1221 quick_test/fbank/raw_fbank_train.4.ark:6736443
mmdm0_sx231 quick_test/fbank/raw_fbank_train.3.ark:8854025
mpfu0_sx268 quick_test/fbank/raw_fbank_train.3.ark:10959973
faem0_sx222 quick_test/fbank/raw_fbank_train.1.ark:51746
mstf0_si1396 quick_test/fbank/raw_fbank_train.4.ark:6928292
mwac0_sx431 quick_test/fbank/raw_fbank_train.4.ark:10574126
frll0_sx164 quick_test/fbank/raw_fbank_train.1.ark:10824829
fjlg0_sx359 quick_test/fbank/raw_fbank_train.1.ark:5310185
fjxm0_si1971 quick_test/fbank/raw_fbank_train.1.ark:5982988
mtlc0_sx397 quick_test/fbank/raw_fbank_train.4.ark:8883612
msdh0_sx350 quick_test/fbank/raw_fbank_train.4.ark:5722758
mtab0_sx42 quick_test/fbank/raw_fbank_train.4.ark:7265652
mrjt0_sx328 quick_test/fbank/raw_fbank_train.4.ark:3069037
mjkr0_sx211 quick_test/fbank/raw_fbank_train.3.ark:3542776
mtxs0_sx160 quick_test/fbank/raw_fbank_train.4.ark:10133927
fbmh0_sx56 quick_test/fbank/raw_fbank_train.1.ark:1134211
fksr0_sx161 quick_test/fbank/raw_fbank_train.1.ark:7052266
mdbp0_sx348 quick_test/fbank/raw_fbank_train.2.ark:6353469
ftbw0_si715 quick_test/fbank/raw_fbank_train.2.ark:1458042
mrew1_sx150 quick_test/fbank/raw_fbank_train.4.ark:1987841
mtpf0_sx155 quick_test/fbank/raw_fbank_train.4.ark:9243542
fsjk1_si696 quick_test/fbank/raw_fbank_train.1.ark:11860367
mdwh0_si1925 quick_test/fbank/raw_fbank_train.2.ark:9363155
mpgh0_sx24 quick_test/fbank/raw_fbank_train.3.ark:11073669
fcjf0_si648 quick_test/fbank/raw_fbank_train.1.ark:1668317
mjda0_sx41 quick_test/fbank/raw_fbank_train.3.ark:2141404
maeo0_si1655 quick_test/fbank/raw_fbank_train.2.ark:2419099
mpgr0_sx240 quick_test/fbank/raw_fbank_train.3.ark:11139022
mwar0_si1675 quick_test/fbank/raw_fbank_train.4.ark:10696892
mrlj1_si2301 quick_test/fbank/raw_fbank_train.4.ark:3426363
mmlm0_si897 quick_test/fbank/raw_fbank_train.3.ark:9651504
mhit0_sx443 quick_test/fbank/raw_fbank_train.3.ark:1083098
mrfk0_sx86 quick_test/fbank/raw_fbank_train.4.ark:2129278
mjpm1_sx41 quick_test/fbank/raw_fbank_train.3.ark:4415421
fhxs0_sx175 quick_test/fbank/raw_fbank_train.1.ark:4775550
mdwh0_sx305 quick_test/fbank/raw_fbank_train.2.ark:9419007
flmk0_sx315 quick_test/fbank/raw_fbank_train.1.ark:8295275
mrdm0_si1044 quick_test/fbank/raw_fbank_train.4.ark:1458576
mwar0_si1045 quick_test/fbank/raw_fbank_train.4.ark:10677538
mkxl0_sx105 quick_test/fbank/raw_fbank_train.3.ark:7182431
fcjs0_si1607 quick_test/fbank/raw_fbank_train.1.ark:1722195
mrdm0_sx155 quick_test/fbank/raw_fbank_train.4.ark:1497276
mzmb0_si536 quick_test/fbank/raw_fbank_train.4.ark:11582431
mclk0_si650 quick_test/fbank/raw_fbank_train.2.ark:5255498
mses0_si2216 quick_test/fbank/raw_fbank_train.4.ark:6027462
fpad0_si1976 quick_test/fbank/raw_fbank_train.1.ark:9998244
mjjm0_sx287 quick_test/fbank/raw_fbank_train.3.ark:3460656
mrdm0_si965 quick_test/fbank/raw_fbank_train.4.ark:1486003
mcdr0_si524 quick_test/fbank/raw_fbank_train.2.ark:4837757
mkdt0_sx443 quick_test/fbank/raw_fbank_train.3.ark:6334222
falr0_si695 quick_test/fbank/raw_fbank_train.1.ark:334750
fdtd0_si1561 quick_test/fbank/raw_fbank_train.1.ark:3235615
fbcg1_sx262 quick_test/fbank/raw_fbank_train.1.ark:678173
mmea0_sx38 quick_test/fbank/raw_fbank_train.3.ark:9145485
mesg0_sx342 quick_test/fbank/raw_fbank_train.2.ark:10186684
mbcg0_sx57 quick_test/fbank/raw_fbank_train.2.ark:3448149
mklw0_sx131 quick_test/fbank/raw_fbank_train.3.ark:6975781
mkls0_si1437 quick_test/fbank/raw_fbank_train.3.ark:6736749
mmjb1_si1408 quick_test/fbank/raw_fbank_train.3.ark:9524972
fljd0_sx346 quick_test/fbank/raw_fbank_train.1.ark:7781870
fljd0_si886 quick_test/fbank/raw_fbank_train.1.ark:7747051
ftbw0_si1975 quick_test/fbank/raw_fbank_train.2.ark:1447209
fsak0_si670 quick_test/fbank/raw_fbank_train.1.ark:11128511
mdtb0_sx210 quick_test/fbank/raw_fbank_train.2.ark:9209763
mmab1_sx324 quick_test/fbank/raw_fbank_train.3.ark:8031497
fvfb0_si1510 quick_test/fbank/raw_fbank_train.2.ark:1748723
mjsr0_sx164 quick_test/fbank/raw_fbank_train.3.ark:5063586
fjsk0_sx62 quick_test/fbank/raw_fbank_train.1.ark:5767711
mrlk0_sx303 quick_test/fbank/raw_fbank_train.4.ark:3571441
mjma0_sx145 quick_test/fbank/raw_fbank_train.3.ark:3916764
fsag0_sx63 quick_test/fbank/raw_fbank_train.1.ark:10981625
mlsh0_sx67 quick_test/fbank/raw_fbank_train.3.ark:7850872
mgsh0_si546 quick_test/fbank/raw_fbank_train.3.ark:624912
mgxp0_sx7 quick_test/fbank/raw_fbank_train.3.ark:893208
flma0_sx253 quick_test/fbank/raw_fbank_train.1.ark:8090831
mrms0_sx30 quick_test/fbank/raw_fbank_train.4.ark:4167353
fscn0_si705 quick_test/fbank/raw_fbank_train.1.ark:11333241
fpad0_sx266 quick_test/fbank/raw_fbank_train.1.ark:10044143
mmdb0_si1617 quick_test/fbank/raw_fbank_train.3.ark:8622156
flmc0_sx22 quick_test/fbank/raw_fbank_train.1.ark:8179935
fsjk1_sx35 quick_test/fbank/raw_fbank_train.2.ark:22477
mgsl0_si1164 quick_test/fbank/raw_fbank_train.3.ark:701108
faem0_si1392 quick_test/fbank/raw_fbank_train.1.ark:13
mtrc0_si589 quick_test/fbank/raw_fbank_train.4.ark:9734520
mrmg0_sx450 quick_test/fbank/raw_fbank_train.4.ark:3861070
mbbr0_si2315 quick_test/fbank/raw_fbank_train.2.ark:3301561
mdhl0_si1439 quick_test/fbank/raw_fbank_train.2.ark:6999558
milb0_si807 quick_test/fbank/raw_fbank_train.3.ark:1584722
mtpr0_sx250 quick_test/fbank/raw_fbank_train.4.ark:9539690
mkes0_sx353 quick_test/fbank/raw_fbank_train.3.ark:6428774
mejs0_si610 quick_test/fbank/raw_fbank_train.2.ark:10055400
fdfb0_sx418 quick_test/fbank/raw_fbank_train.1.ark:2668262
mjdg0_si1042 quick_test/fbank/raw_fbank_train.3.ark:2378207
fjdm2_si1582 quick_test/fbank/raw_fbank_train.1.ark:4839235
mcdc0_sx302 quick_test/fbank/raw_fbank_train.2.ark:4678806
mrsp0_si2059 quick_test/fbank/raw_fbank_train.4.ark:4535603
mbbr0_si1685 quick_test/fbank/raw_fbank_train.2.ark:3291167
mrjh0_si1519 quick_test/fbank/raw_fbank_train.4.ark:2688756
madd0_sx358 quick_test/fbank/raw_fbank_train.2.ark:2272341
fcjf0_sx307 quick_test/fbank/raw_fbank_train.1.ark:1696696
mwdk0_si1436 quick_test/fbank/raw_fbank_train.4.ark:10856870
mgrl0_si1497 quick_test/fbank/raw_fbank_train.3.ark:387795
fsjw0_sx433 quick_test/fbank/raw_fbank_train.2.ark:229208
mntw0_si1068 quick_test/fbank/raw_fbank_train.3.ark:10627364
fpaf0_si2314 quick_test/fbank/raw_fbank_train.1.ark:10126943
mjai0_si682 quick_test/fbank/raw_fbank_train.3.ark:1880715
mchl0_sx87 quick_test/fbank/raw_fbank_train.2.ark:5221957
fear0_si1252 quick_test/fbank/raw_fbank_train.1.ark:3532851
mbom0_sx204 quick_test/fbank/raw_fbank_train.2.ark:4070147
mrab0_sx414 quick_test/fbank/raw_fbank_train.4.ark:638427
mmar0_sx436 quick_test/fbank/raw_fbank_train.3.ark:8373166
mtdb0_sx141 quick_test/fbank/raw_fbank_train.4.ark:7805471
faem0_si762 quick_test/fbank/raw_fbank_train.1.ark:28600
mjpm0_sx378 quick_test/fbank/raw_fbank_train.3.ark:4319756
mrbc0_sx59 quick_test/fbank/raw_fbank_train.4.ark:1146306
msrr0_sx30 quick_test/fbank/raw_fbank_train.4.ark:6895913
mcal0_sx58 quick_test/fbank/raw_fbank_train.2.ark:4604566
ftlg0_sx213 quick_test/fbank/raw_fbank_train.2.ark:1598852
mdlr0_sx333 quick_test/fbank/raw_fbank_train.2.ark:8045855
maeb0_sx270 quick_test/fbank/raw_fbank_train.2.ark:2359053
mkxl0_si1185 quick_test/fbank/raw_fbank_train.3.ark:7137530
fsjw0_si1333 quick_test/fbank/raw_fbank_train.2.ark:150289
feeh0_sx32 quick_test/fbank/raw_fbank_train.1.ark:3828819
mjwg0_sx175 quick_test/fbank/raw_fbank_train.3.ark:5184850
fksr0_si487 quick_test/fbank/raw_fbank_train.1.ark:7041473
mrwa0_sx343 quick_test/fbank/raw_fbank_train.4.ark:4997035
mjjj0_sx443 quick_test/fbank/raw_fbank_train.3.ark:3362872
mpgr0_si2040 quick_test/fbank/raw_fbank_train.3.ark:11115323
mmjb1_si2038 quick_test/fbank/raw_fbank_train.3.ark:9537366
mtab0_sx312 quick_test/fbank/raw_fbank_train.4.ark:7233467
fpaf0_sx244 quick_test/fbank/raw_fbank_train.1.ark:10145929
mkam0_si1316 quick_test/fbank/raw_fbank_train.3.ark:5968183
mjdg0_sx52 quick_test/fbank/raw_fbank_train.3.ark:2461719
mkaj0_si1414 quick_test/fbank/raw_fbank_train.3.ark:5866404
mbml0_sx179 quick_test/fbank/raw_fbank_train.2.ark:3968008
fmju0_si759 quick_test/fbank/raw_fbank_train.1.ark:9063296
mmgg0_si1079 quick_test/fbank/raw_fbank_train.3.ark:9349521
mkxl0_sx15 quick_test/fbank/raw_fbank_train.3.ark:7192023
mkln0_si1598 quick_test/fbank/raw_fbank_train.3.ark:6555058
fjlr0_sx151 quick_test/fbank/raw_fbank_train.1.ark:5387944
fjxm0_sx401 quick_test/fbank/raw_fbank_train.1.ark:6047993
mwsh0_sx436 quick_test/fbank/raw_fbank_train.4.ark:11533378
fexm0_sx366 quick_test/fbank/raw_fbank_train.1.ark:4146815
mreh1_sx339 quick_test/fbank/raw_fbank_train.4.ark:1819218
fklc1_sx238 quick_test/fbank/raw_fbank_train.1.ark:6864609
fsbk0_si1699 quick_test/fbank/raw_fbank_train.1.ark:11215303
flhd0_sx84 quick_test/fbank/raw_fbank_train.1.ark:7595724
fleh0_sx151 quick_test/fbank/raw_fbank_train.1.ark:7358062
fsma0_sx271 quick_test/fbank/raw_fbank_train.2.ark:691908
mree0_si1734 quick_test/fbank/raw_fbank_train.4.ark:1662660
mejl0_sx242 quick_test/fbank/raw_fbank_train.2.ark:9981641
mrav0_sx198 quick_test/fbank/raw_fbank_train.4.ark:1026695
freh0_sx415 quick_test/fbank/raw_fbank_train.1.ark:10670278
mrcg0_si1428 quick_test/fbank/raw_fbank_train.4.ark:1154820
marw0_sx16 quick_test/fbank/raw_fbank_train.2.ark:3114575
mstf0_sx136 quick_test/fbank/raw_fbank_train.4.ark:6969751
mdwd0_si1260 quick_test/fbank/raw_fbank_train.2.ark:9251096
mkaj0_si784 quick_test/fbank/raw_fbank_train.3.ark:5890551
mmds0_sx83 quick_test/fbank/raw_fbank_train.3.ark:9072653
mcss0_sx210 quick_test/fbank/raw_fbank_train.2.ark:5672623
msat1_sx173 quick_test/fbank/raw_fbank_train.4.ark:5531121
mtqc0_si480 quick_test/fbank/raw_fbank_train.4.ark:9633249
mrav0_si2268 quick_test/fbank/raw_fbank_train.4.ark:991197
fjen0_si2307 quick_test/fbank/raw_fbank_train.1.ark:4971449
mram0_sx195 quick_test/fbank/raw_fbank_train.4.ark:937349
mmeb0_si1987 quick_test/fbank/raw_fbank_train.3.ark:9183506
flmc0_sx336 quick_test/fbank/raw_fbank_train.1.ark:8203721
fpac0_si661 quick_test/fbank/raw_fbank_train.1.ark:9906572
mrbc0_sx239 quick_test/fbank/raw_fbank_train.4.ark:1106008
mdrd0_sx212 quick_test/fbank/raw_fbank_train.2.ark:8843183
fsah0_sx327 quick_test/fbank/raw_fbank_train.1.ark:11052192
fetb0_si1778 quick_test/fbank/raw_fbank_train.1.ark:3972865
fgrw0_sx252 quick_test/fbank/raw_fbank_train.1.ark:4562491
mdps0_si1979 quick_test/fbank/raw_fbank_train.2.ark:8701419
flmc0_si1372 quick_test/fbank/raw_fbank_train.1.ark:8132803
mesg0_sx72 quick_test/fbank/raw_fbank_train.2.ark:10216749
mrjm1_si1298 quick_test/fbank/raw_fbank_train.4.ark:2909966
fsls0_sx426 quick_test/fbank/raw_fbank_train.2.ark:614149
fdaw0_sx326 quick_test/fbank/raw_fbank_train.1.ark:2572723
mhxl0_si612 quick_test/fbank/raw_fbank_train.3.ark:1495371
fscn0_sx266 quick_test/fbank/raw_fbank_train.1.ark:11374867
mprb0_si1215 quick_test/fbank/raw_fbank_train.4.ark:59058
mpeb0_si600 quick_test/fbank/raw_fbank_train.3.ark:10832482
fsag0_sx153 quick_test/fbank/raw_fbank_train.1.ark:10911254
fklc0_sx175 quick_test/fbank/raw_fbank_train.1.ark:6751910
mmds0_si713 quick_test/fbank/raw_fbank_train.3.ark:9023809
fljg0_sx261 quick_test/fbank/raw_fbank_train.1.ark:7878622
flac0_si2161 quick_test/fbank/raw_fbank_train.1.ark:7136145
fdjh0_sx35 quick_test/fbank/raw_fbank_train.1.ark:2764726
mmds0_sx353 quick_test/fbank/raw_fbank_train.3.ark:9052388
mabc0_si2041 quick_test/fbank/raw_fbank_train.2.ark:2026039
madc0_sx17 quick_test/fbank/raw_fbank_train.2.ark:2166162
mklr0_sx339 quick_test/fbank/raw_fbank_train.3.ark:6705090
mkdb0_sx422 quick_test/fbank/raw_fbank_train.3.ark:6129293
mwgr0_si976 quick_test/fbank/raw_fbank_train.4.ark:11080668
mapv0_sx213 quick_test/fbank/raw_fbank_train.2.ark:2949166
mjhi0_sx248 quick_test/fbank/raw_fbank_train.3.ark:3124155
mdks0_si1696 quick_test/fbank/raw_fbank_train.2.ark:7290587
mjdm0_sx80 quick_test/fbank/raw_fbank_train.3.ark:2572864
mbma0_si1222 quick_test/fbank/raw_fbank_train.2.ark:3736458
mppc0_sx422 quick_test/fbank/raw_fbank_train.4.ark:24198
fsbk0_sx349 quick_test/fbank/raw_fbank_train.1.ark:11257876
fcyl0_si1297 quick_test/fbank/raw_fbank_train.1.ark:2295266
flja0_sx268 quick_test/fbank/raw_fbank_train.1.ark:7663372
mtkd0_sx287 quick_test/fbank/raw_fbank_train.4.ark:8571024
mrdd0_si1050 quick_test/fbank/raw_fbank_train.4.ark:1364790
fcag0_si1641 quick_test/fbank/raw_fbank_train.1.ark:1266543
flod0_sx171 quick_test/fbank/raw_fbank_train.1.ark:8376507
msjk0_si2226 quick_test/fbank/raw_fbank_train.4.ark:6352378
mfxv0_si1635 quick_test/fbank/raw_fbank_train.2.ark:10905066
msfv0_si632 quick_test/fbank/raw_fbank_train.4.ark:6246746
fsak0_si1930 quick_test/fbank/raw_fbank_train.1.ark:11121518
mprd0_si801 quick_test/fbank/raw_fbank_train.4.ark:188756
mmxs0_sx426 quick_test/fbank/raw_fbank_train.3.ark:10517075
fnkl0_sx196 quick_test/fbank/raw_fbank_train.1.ark:9625124
mjfr0_si975 quick_test/fbank/raw_fbank_train.3.ark:2988025
fcaj0_sx399 quick_test/fbank/raw_fbank_train.1.ark:1422766
mprb0_sx215 quick_test/fbank/raw_fbank_train.4.ark:111357
mdlc1_sx445 quick_test/fbank/raw_fbank_train.2.ark:7687909
mjee0_sx427 quick_test/fbank/raw_fbank_train.3.ark:2857587
fscn0_si1886 quick_test/fbank/raw_fbank_train.1.ark:11309495
mclk0_sx400 quick_test/fbank/raw_fbank_train.2.ark:5324102
mtjg0_si890 quick_test/fbank/raw_fbank_train.4.ark:8098793
fklc0_sx85 quick_test/fbank/raw_fbank_train.1.ark:6808081
fkaa0_sx38 quick_test/fbank/raw_fbank_train.1.ark:6252282
mdmt0_si2341 quick_test/fbank/raw_fbank_train.2.ark:8316679
fcjs0_sx257 quick_test/fbank/raw_fbank_train.1.ark:1763288
mcal0_sx328 quick_test/fbank/raw_fbank_train.2.ark:4574901
fleh0_sx331 quick_test/fbank/raw_fbank_train.1.ark:7383368
fjxm0_sx221 quick_test/fbank/raw_fbank_train.1.ark:6016487
mctm0_si1350 quick_test/fbank/raw_fbank_train.2.ark:5809260
flet0_si1137 quick_test/fbank/raw_fbank_train.1.ark:7421587
mdbp0_si1158 quick_test/fbank/raw_fbank_train.2.ark:6289383
msas0_si2006 quick_test/fbank/raw_fbank_train.4.ark:5326684
fsgf0_sx297 quick_test/fbank/raw_fbank_train.1.ark:11683568
mkls1_sx105 quick_test/fbank/raw_fbank_train.3.ark:6886315
fjhk0_sx32 quick_test/fbank/raw_fbank_train.1.ark:5137126
mvrw0_si855 quick_test/fbank/raw_fbank_train.4.ark:10421329
flja0_si1078 quick_test/fbank/raw_fbank_train.1.ark:7609278
mdma0_sx440 quick_test/fbank/raw_fbank_train.2.ark:8282259
mwsb0_si1626 quick_test/fbank/raw_fbank_train.4.ark:11353676
mdss0_sx81 quick_test/fbank/raw_fbank_train.2.ark:9068131
mdlc1_si1435 quick_test/fbank/raw_fbank_train.2.ark:7608509
fsjs0_sx271 quick_test/fbank/raw_fbank_train.2.ark:99277
mrvg0_sx330 quick_test/fbank/raw_fbank_train.4.ark:4904090
mstf0_sx46 quick_test/fbank/raw_fbank_train.4.ark:7024442
fdnc0_si1908 quick_test/fbank/raw_fbank_train.1.ark:3143783
mbcg0_sx327 quick_test/fbank/raw_fbank_train.2.ark:3419204
msrg0_si591 quick_test/fbank/raw_fbank_train.4.ark:6758750
mjlb0_si1616 quick_test/fbank/raw_fbank_train.3.ark:3587108
mtjs0_si1192 quick_test/fbank/raw_fbank_train.4.ark:8280896
mmeb0_sx327 quick_test/fbank/raw_fbank_train.3.ark:9208565
mfmc0_si502 quick_test/fbank/raw_fbank_train.2.ark:10506443
mtcs0_sx442 quick_test/fbank/raw_fbank_train.4.ark:7735945
fvfb0_sx402 quick_test/fbank/raw_fbank_train.2.ark:1808529
mmgg0_si1709 quick_test/fbank/raw_fbank_train.3.ark:9368315
mrdd0_sx330 quick_test/fbank/raw_fbank_train.4.ark:1432070
mwar0_sx145 quick_test/fbank/raw_fbank_train.4.ark:10717679
fblv0_si2318 quick_test/fbank/raw_fbank_train.1.ark:975582
marc0_sx108 quick_test/fbank/raw_fbank_train.2.ark:3021398
mjws0_sx243 quick_test/fbank/raw_fbank_train.3.ark:5295508
mmaa0_si1588 quick_test/fbank/raw_fbank_train.3.ark:7864866
mctm0_si1980 quick_test/fbank/raw_fbank_train.2.ark:5826294
ftmg0_si902 quick_test/fbank/raw_fbank_train.2.ark:1658211
maeb0_sx360 quick_test/fbank/raw_fbank_train.2.ark:2369566
mmbs0_sx251 quick_test/fbank/raw_fbank_train.3.ark:8453245
mmvp0_sx114 quick_test/fbank/raw_fbank_train.3.ark:10073197
fjkl0_sx302 quick_test/fbank/raw_fbank_train.1.ark:5220079
mwar0_sx55 quick_test/fbank/raw_fbank_train.4.ark:10759410
fvfb0_sx132 quick_test/fbank/raw_fbank_train.2.ark:1772430
mtkp0_sx393 quick_test/fbank/raw_fbank_train.4.ark:8694162
mdlc2_si984 quick_test/fbank/raw_fbank_train.2.ark:7718442
mmjb1_sx148 quick_test/fbank/raw_fbank_train.3.ark:9561912
fajw0_sx93 quick_test/fbank/raw_fbank_train.1.ark:196227
mmjb1_si778 quick_test/fbank/raw_fbank_train.3.ark:9551359
fjwb1_sx435 quick_test/fbank/raw_fbank_train.1.ark:5946968
mrml0_si791 quick_test/fbank/raw_fbank_train.4.ark:4009189
mcdc0_sx32 quick_test/fbank/raw_fbank_train.2.ark:4689798
mmab1_si2124 quick_test/fbank/raw_fbank_train.3.ark:7977405
fljg0_sx171 quick_test/fbank/raw_fbank_train.1.ark:7858309
makr0_si722 quick_test/fbank/raw_fbank_train.2.ark:2831235
fskp0_sx18 quick_test/fbank/raw_fbank_train.2.ark:495976
mmsm0_sx386 quick_test/fbank/raw_fbank_train.3.ark:10010583
fljg0_sx81 quick_test/fbank/raw_fbank_train.1.ark:7921280
mkrg0_sx411 quick_test/fbank/raw_fbank_train.3.ark:7117264
mhrm0_si1475 quick_test/fbank/raw_fbank_train.3.ark:1378280
mbar0_si1319 quick_test/fbank/raw_fbank_train.2.ark:3176028
mdac0_sx361 quick_test/fbank/raw_fbank_train.2.ark:6071156
mjsr0_si1424 quick_test/fbank/raw_fbank_train.3.ark:5006966
mbgt0_sx261 quick_test/fbank/raw_fbank_train.2.ark:3597101
mvjh0_sx386 quick_test/fbank/raw_fbank_train.4.ark:10289923
mmdm0_sx321 quick_test/fbank/raw_fbank_train.3.ark:8860778
mdma0_si1430 quick_test/fbank/raw_fbank_train.2.ark:8202533
fcmg0_si1242 quick_test/fbank/raw_fbank_train.1.ark:2020344
fsrh0_si671 quick_test/fbank/raw_fbank_train.2.ark:1075742
fkfb0_si2238 quick_test/fbank/raw_fbank_train.1.ark:6510554
flet0_sx237 quick_test/fbank/raw_fbank_train.1.ark:7477560
fdkn0_sx181 quick_test/fbank/raw_fbank_train.1.ark:2828094
mrab0_sx324 quick_test/fbank/raw_fbank_train.4.ark:622554
fmkf0_si1536 quick_test/fbank/raw_fbank_train.1.ark:9259154
fsbk0_sx259 quick_test/fbank/raw_fbank_train.1.ark:11243963
mlel0_sx76 quick_test/fbank/raw_fbank_train.3.ark:7428092
mrvg0_sx240 quick_test/fbank/raw_fbank_train.4.ark:4893257
mmsm0_sx26 quick_test/fbank/raw_fbank_train.3.ark:9988037
mkrg0_sx231 quick_test/fbank/raw_fbank_train.3.ark:7105399
mmrp0_si774 quick_test/fbank/raw_fbank_train.3.ark:9829554
mlbc0_sx249 quick_test/fbank/raw_fbank_train.3.ark:7285449
freh0_sx235 quick_test/fbank/raw_fbank_train.1.ark:10652532
mrgm0_sx416 quick_test/fbank/raw_fbank_train.4.ark:2326423
mrab0_si1224 quick_test/fbank/raw_fbank_train.4.ark:564788
mrdm0_sx335 quick_test/fbank/raw_fbank_train.4.ark:1521262
fpad0_si1346 quick_test/fbank/raw_fbank_train.1.ark:9984130
mdlc0_si1395 quick_test/fbank/raw_fbank_train.2.ark:7502404
fexm0_sx111 quick_test/fbank/raw_fbank_train.1.ark:4104076
fnkl0_sx442 quick_test/fbank/raw_fbank_train.1.ark:9643430
msvs0_sx38 quick_test/fbank/raw_fbank_train.4.ark:7126754
msmc0_sx107 quick_test/fbank/raw_fbank_train.4.ark:6480548
fsdj0_sx395 quick_test/fbank/raw_fbank_train.1.ark:11595016
mcxm0_sx271 quick_test/fbank/raw_fbank_train.2.ark:5958578
mclm0_sx196 quick_test/fbank/raw_fbank_train.2.ark:5390581
fhxs0_si1075 quick_test/fbank/raw_fbank_train.1.ark:4717169
mrws0_sx382 quick_test/fbank/raw_fbank_train.4.ark:5111125
mcre0_si1751 quick_test/fbank/raw_fbank_train.2.ark:5533934
fpaz0_sx423 quick_test/fbank/raw_fbank_train.1.ark:10272859
fsjs0_sx451 quick_test/fbank/raw_fbank_train.2.ark:121743
mjdg0_sx232 quick_test/fbank/raw_fbank_train.3.ark:2427461
mjfh0_si477 quick_test/fbank/raw_fbank_train.3.ark:2905800
mrxb0_sx55 quick_test/fbank/raw_fbank_train.4.ark:5211390
mgaw0_si535 quick_test/fbank/raw_fbank_train.3.ark:132506
fajw0_sx183 quick_test/fbank/raw_fbank_train.1.ark:151578
fbjl0_si2182 quick_test/fbank/raw_fbank_train.1.ark:853843
mjpm0_si738 quick_test/fbank/raw_fbank_train.3.ark:4261352
mrtc0_sx108 quick_test/fbank/raw_fbank_train.4.ark:4666014
mdwm0_sx16 quick_test/fbank/raw_fbank_train.2.ark:9510958
mtpg0_sx213 quick_test/fbank/raw_fbank_train.4.ark:9348480
mnet0_si1446 quick_test/fbank/raw_fbank_train.3.ark:10540661
mmwb0_si989 quick_test/fbank/raw_fbank_train.3.ark:10178150
mjfh0_sx207 quick_test/fbank/raw_fbank_train.3.ark:2930226
mtat1_sx329 quick_test/fbank/raw_fbank_train.4.ark:7523022
mlns0_sx237 quick_test/fbank/raw_fbank_train.3.ark:7715269
mrgm0_sx172 quick_test/fbank/raw_fbank_train.4.ark:2297677
fgmb0_sx65 quick_test/fbank/raw_fbank_train.1.ark:4487523
mmrp0_sx54 quick_test/fbank/raw_fbank_train.3.ark:9903718
mkaj0_sx334 quick_test/fbank/raw_fbank_train.3.ark:5923130
frjb0_sx437 quick_test/fbank/raw_fbank_train.1.ark:10753824
flet0_si507 quick_test/fbank/raw_fbank_train.1.ark:7447814
mtpp0_si878 quick_test/fbank/raw_fbank_train.4.ark:9414159
fkkh0_sx120 quick_test/fbank/raw_fbank_train.1.ark:6659245
fblv0_sx338 quick_test/fbank/raw_fbank_train.1.ark:1009361
fmah1_sx159 quick_test/fbank/raw_fbank_train.1.ark:8561686
fclt0_sx448 quick_test/fbank/raw_fbank_train.1.ark:1975924
mklw0_sx41 quick_test/fbank/raw_fbank_train.3.ark:7029952
msmr0_sx325 quick_test/fbank/raw_fbank_train.4.ark:6606479
fdas1_sx201 quick_test/fbank/raw_fbank_train.1.ark:2458704
mewm0_si1348 quick_test/fbank/raw_fbank_train.2.ark:10310406
fcke0_sx211 quick_test/fbank/raw_fbank_train.1.ark:1867433
flja0_sx358 quick_test/fbank/raw_fbank_train.1.ark:7678725
fcag0_sx153 quick_test/fbank/raw_fbank_train.1.ark:1281410
mjjj0_si533 quick_test/fbank/raw_fbank_train.3.ark:3306060
mrcg0_sx438 quick_test/fbank/raw_fbank_train.4.ark:1242659
mrso0_sx309 quick_test/fbank/raw_fbank_train.4.ark:4474070
fajw0_sx273 quick_test/fbank/raw_fbank_train.1.ark:163691
mtju0_si2269 quick_test/fbank/raw_fbank_train.4.ark:8414195
fdkn0_sx451 quick_test/fbank/raw_fbank_train.1.ark:2869233
fbmh0_si970 quick_test/fbank/raw_fbank_train.1.ark:1076127
freh0_si1945 quick_test/fbank/raw_fbank_train.1.ark:10616353
fntb0_si1203 quick_test/fbank/raw_fbank_train.1.ark:9669336
makb0_si2276 quick_test/fbank/raw_fbank_train.2.ark:2729810
mkag0_si2239 quick_test/fbank/raw_fbank_train.3.ark:5676229
fspm0_sx161 quick_test/fbank/raw_fbank_train.2.ark:992630
mdwh0_si665 quick_test/fbank/raw_fbank_train.2.ark:9372468
fkde0_sx331 quick_test/fbank/raw_fbank_train.1.ark:6353556
mmjb1_sx328 quick_test/fbank/raw_fbank_train.3.ark:9585658
mrld0_sx244 quick_test/fbank/raw_fbank_train.4.ark:3285972
mapv0_sx303 quick_test/fbank/raw_fbank_train.2.ark:2961759
ftbw0_sx175 quick_test/fbank/raw_fbank_train.2.ark:1476675
mrpc1_si2026 quick_test/fbank/raw_fbank_train.4.ark:4207207
mtjg0_sx440 quick_test/fbank/raw_fbank_train.4.ark:8159205
mdpb0_sx326 quick_test/fbank/raw_fbank_train.2.ark:8572301
mrab0_sx144 quick_test/fbank/raw_fbank_train.4.ark:600768
mdcd0_sx425 quick_test/fbank/raw_fbank_train.2.ark:6475527
msah1_si2309 quick_test/fbank/raw_fbank_train.4.ark:5240052
fjhk0_si1652 quick_test/fbank/raw_fbank_train.1.ark:5071801
mjpg0_sx201 quick_test/fbank/raw_fbank_train.3.ark:4193873
mrab1_sx218 quick_test/fbank/raw_fbank_train.4.ark:714706
fgcs0_si856 quick_test/fbank/raw_fbank_train.1.ark:4198309
fsak0_sx400 quick_test/fbank/raw_fbank_train.1.ark:11188355
mjra0_sx246 quick_test/fbank/raw_fbank_train.3.ark:4479268
fecd0_si788 quick_test/fbank/raw_fbank_train.1.ark:3667063
fdjh0_si1565 quick_test/fbank/raw_fbank_train.1.ark:2692888
fcmm0_si453 quick_test/fbank/raw_fbank_train.1.ark:2135483
mdss1_si1713 quick_test/fbank/raw_fbank_train.2.ark:9091199
mrml0_si1421 quick_test/fbank/raw_fbank_train.4.ark:3977682
mrgm0_sx262 quick_test/fbank/raw_fbank_train.4.ark:2314270
mdas0_sx96 quick_test/fbank/raw_fbank_train.2.ark:6186683
mafm0_sx309 quick_test/fbank/raw_fbank_train.2.ark:2549497
maeo0_si1326 quick_test/fbank/raw_fbank_train.2.ark:2402185
mkdb0_si588 quick_test/fbank/raw_fbank_train.3.ark:6069488
mjrp0_sx315 quick_test/fbank/raw_fbank_train.3.ark:4974907
msfv0_sx272 quick_test/fbank/raw_fbank_train.4.ark:6277012
fmjf0_si624 quick_test/fbank/raw_fbank_train.1.ark:8947831
mtdp0_si2151 quick_test/fbank/raw_fbank_train.4.ark:7889184
mgsl0_si797 quick_test/fbank/raw_fbank_train.3.ark:722574
mbar0_sx149 quick_test/fbank/raw_fbank_train.2.ark:3211368
makr0_sx362 quick_test/fbank/raw_fbank_train.2.ark:2853854
mrjt0_sx58 quick_test/fbank/raw_fbank_train.4.ark:3097182
fkde0_si1771 quick_test/fbank/raw_fbank_train.1.ark:6302543
mrlr0_sx386 quick_test/fbank/raw_fbank_train.4.ark:3684931
mbwp0_si1969 quick_test/fbank/raw_fbank_train.2.ark:4299001
mklw0_sx221 quick_test/fbank/raw_fbank_train.3.ark:6986334
msah1_sx239 quick_test/fbank/raw_fbank_train.4.ark:5263158
mges0_si2111 quick_test/fbank/raw_fbank_train.3.ark:198938
mrjb1_sx30 quick_test/fbank/raw_fbank_train.4.ark:2654816
mdlr1_sx399 quick_test/fbank/raw_fbank_train.2.ark:8182505
feac0_si1245 quick_test/fbank/raw_fbank_train.1.ark:3429986
mjwt0_sx121 quick_test/fbank/raw_fbank_train.3.ark:5403660
msrr0_sx51 quick_test/fbank/raw_fbank_train.4.ark:6916418
mrew1_si2130 quick_test/fbank/raw_fbank_train.4.ark:1968375
mdhs0_sx180 quick_test/fbank/raw_fbank_train.2.ark:7135763
meal0_si1547 quick_test/fbank/raw_fbank_train.2.ark:9558531
mtbc0_si1803 quick_test/fbank/raw_fbank_train.4.ark:7571675
fbas0_si1472 quick_test/fbank/raw_fbank_train.1.ark:541808
fkde0_si1141 quick_test/fbank/raw_fbank_train.1.ark:6283389
mrlk0_si2140 quick_test/fbank/raw_fbank_train.4.ark:3520149
mdas0_sx21 quick_test/fbank/raw_fbank_train.2.ark:6159267
mbma1_sx414 quick_test/fbank/raw_fbank_train.2.ark:3909722
fmem0_sx387 quick_test/fbank/raw_fbank_train.1.ark:8813507
fcdr1_sx196 quick_test/fbank/raw_fbank_train.1.ark:1519805
mtwh1_si2142 quick_test/fbank/raw_fbank_train.4.ark:10017795
fssb0_si2342 quick_test/fbank/raw_fbank_train.2.ark:1187448
mmlm0_sx87 quick_test/fbank/raw_fbank_train.3.ark:9702868
mjjb0_sx329 quick_test/fbank/raw_fbank_train.3.ark:3235534
mrre0_sx254 quick_test/fbank/raw_fbank_train.4.ark:4348771
maeb0_sx90 quick_test/fbank/raw_fbank_train.2.ark:2394111
fjen0_si1677 quick_test/fbank/raw_fbank_train.1.ark:4958175
makb0_sx296 quick_test/fbank/raw_fbank_train.2.ark:2789221
mjma0_si2125 quick_test/fbank/raw_fbank_train.3.ark:3884658
msat0_si1526 quick_test/fbank/raw_fbank_train.4.ark:5419035
mtlc0_sx127 quick_test/fbank/raw_fbank_train.4.ark:8851801
mdbb1_si1636 quick_test/fbank/raw_fbank_train.2.ark:6213191
fklc1_si2308 quick_test/fbank/raw_fbank_train.1.ark:6845623
mjjm0_sx17 quick_test/fbank/raw_fbank_train.3.ark:3441350
mdcd0_si2045 quick_test/fbank/raw_fbank_train.2.ark:6407082
mtlb0_sx54 quick_test/fbank/raw_fbank_train.4.ark:8790947
mrpc1_si2112 quick_test/fbank/raw_fbank_train.4.ark:4214361
msdb0_si1007 quick_test/fbank/raw_fbank_train.4.ark:5591246
mpfu0_sx178 quick_test/fbank/raw_fbank_train.3.ark:10945700
mjdm0_si974 quick_test/fbank/raw_fbank_train.3.ark:2500860
fdjh0_sx305 quick_test/fbank/raw_fbank_train.1.ark:2754054
mrmg0_sx360 quick_test/fbank/raw_fbank_train.4.ark:3848557
fbas0_sx217 quick_test/fbank/raw_fbank_train.1.ark:593028
fmju0_sx129 quick_test/fbank/raw_fbank_train.1.ark:9076689
mjdm0_sx260 quick_test/fbank/raw_fbank_train.3.ark:2527606
fsbk0_si1069 quick_test/fbank/raw_fbank_train.1.ark:11199629
mdlc2_sx174 quick_test/fbank/raw_fbank_train.2.ark:7734275
majp0_sx174 quick_test/fbank/raw_fbank_train.2.ark:2621417
mwar0_sx235 quick_test/fbank/raw_fbank_train.4.ark:10728952
msjk0_si1596 quick_test/fbank/raw_fbank_train.4.ark:6333024
fksr0_sx397 quick_test/fbank/raw_fbank_train.1.ark:7104477
mbsb0_sx3 quick_test/fbank/raw_fbank_train.2.ark:4163884
mtpr0_sx70 quick_test/fbank/raw_fbank_train.4.ark:9585748
mmws0_si888 quick_test/fbank/raw_fbank_train.3.ark:10292054
mjwt0_sx31 quick_test/fbank/raw_fbank_train.3.ark:5443958
mdwd0_sx270 quick_test/fbank/raw_fbank_train.2.ark:9300709
mfxv0_si1005 quick_test/fbank/raw_fbank_train.2.ark:10870718
fpaz0_si2223 quick_test/fbank/raw_fbank_train.1.ark:10202575
fcjs0_sx347 quick_test/fbank/raw_fbank_train.1.ark:1770681
mpgh0_sx294 quick_test/fbank/raw_fbank_train.3.ark:11081622
mdlc0_sx135 quick_test/fbank/raw_fbank_train.2.ark:7550104
mtpp0_sx428 quick_test/fbank/raw_fbank_train.4.ark:9457771
fmbg0_sx80 quick_test/fbank/raw_fbank_train.1.ark:8708561
mmws1_sx27 quick_test/fbank/raw_fbank_train.3.ark:10407225
ftbr0_si2181 quick_test/fbank/raw_fbank_train.2.ark:1358984
mlel0_si1876 quick_test/fbank/raw_fbank_train.3.ark:7342135
mvjh0_si926 quick_test/fbank/raw_fbank_train.4.ark:10238199
mrjm0_si1858 quick_test/fbank/raw_fbank_train.4.ark:2827928
mter0_si1787 quick_test/fbank/raw_fbank_train.4.ark:7999496
mtat1_sx419 quick_test/fbank/raw_fbank_train.4.ark:7540975
mjdm0_si1340 quick_test/fbank/raw_fbank_train.3.ark:2473313
mrbc0_sx149 quick_test/fbank/raw_fbank_train.4.ark:1092055
mpfu0_si1888 quick_test/fbank/raw_fbank_train.3.ark:10929274
fjxp0_sx222 quick_test/fbank/raw_fbank_train.1.ark:6128432
fmah1_si2139 quick_test/fbank/raw_fbank_train.1.ark:8535180
mbef0_si1911 quick_test/fbank/raw_fbank_train.2.ark:3471977
mjai0_sx254 quick_test/fbank/raw_fbank_train.3.ark:1930614
flag0_si1464 quick_test/fbank/raw_fbank_train.1.ark:7208176
mzmb0_sx86 quick_test/fbank/raw_fbank_train.4.ark:11647275
msat0_sx266 quick_test/fbank/raw_fbank_train.4.ark:5458728
mdlc1_sx175 quick_test/fbank/raw_fbank_train.2.ark:7650210
msdb0_sx377 quick_test/fbank/raw_fbank_train.4.ark:5653638
frjb0_si1470 quick_test/fbank/raw_fbank_train.1.ark:10701418
mmar0_si1966 quick_test/fbank/raw_fbank_train.3.ark:8289281
mhmg0_sx375 quick_test/fbank/raw_fbank_train.3.ark:1263821
fsdc0_si1312 quick_test/fbank/raw_fbank_train.1.ark:11428079
mjxl0_si1795 quick_test/fbank/raw_fbank_train.3.ark:5576324
mklr0_sx159 quick_test/fbank/raw_fbank_train.3.ark:6682224
fgcs0_sx136 quick_test/fbank/raw_fbank_train.1.ark:4208462
fsjk1_si1025 quick_test/fbank/raw_fbank_train.1.ark:11839380
mmwb0_sx269 quick_test/fbank/raw_fbank_train.3.ark:10207896
fjxm0_sx41 quick_test/fbank/raw_fbank_train.1.ark:6062465
mtml0_sx255 quick_test/fbank/raw_fbank_train.4.ark:8949900
mklw0_sx401 quick_test/fbank/raw_fbank_train.3.ark:7017720
mdac0_si1261 quick_test/fbank/raw_fbank_train.2.ark:6003830
mgrp0_sx237 quick_test/fbank/raw_fbank_train.3.ark:538873
mrjh0_sx307 quick_test/fbank/raw_fbank_train.4.ark:2768801
feme0_sx335 quick_test/fbank/raw_fbank_train.1.ark:3920852
mctm0_sx360 quick_test/fbank/raw_fbank_train.2.ark:5873106
ftmg0_sx272 quick_test/fbank/raw_fbank_train.2.ark:1688637
mjpg0_sx291 quick_test/fbank/raw_fbank_train.3.ark:4211378
fljd0_si1516 quick_test/fbank/raw_fbank_train.1.ark:7716864
mejl0_sx152 quick_test/fbank/raw_fbank_train.2.ark:9971288
mtlc0_sx37 quick_test/fbank/raw_fbank_train.4.ark:8873219
mkam0_si1250 quick_test/fbank/raw_fbank_train.3.ark:5950269
mdcd0_sx155 quick_test/fbank/raw_fbank_train.2.ark:6435308
majp0_sx444 quick_test/fbank/raw_fbank_train.2.ark:2664556
mkah0_sx448 quick_test/fbank/raw_fbank_train.3.ark:5840258
mrml0_sx431 quick_test/fbank/raw_fbank_train.4.ark:4076161
mdpk0_sx423 quick_test/fbank/raw_fbank_train.2.ark:8671359
mdrd0_si2012 quick_test/fbank/raw_fbank_train.2.ark:8794964
mdwd0_sx180 quick_test/fbank/raw_fbank_train.2.ark:9290156
mejs0_sx160 quick_test/fbank/raw_fbank_train.2.ark:10067273
flet0_sx57 quick_test/fbank/raw_fbank_train.1.ark:7505658
fmkc0_si1702 quick_test/fbank/raw_fbank_train.1.ark:9166682
mbom0_si2274 quick_test/fbank/raw_fbank_train.2.ark:4049961
fsag0_sx423 quick_test/fbank/raw_fbank_train.1.ark:10963873
fbmh0_sx416 quick_test/fbank/raw_fbank_train.1.ark:1123899
mjkr0_sx391 quick_test/fbank/raw_fbank_train.3.ark:3577274
mges0_sx311 quick_test/fbank/raw_fbank_train.3.ark:236510
mdhs0_sx270 quick_test/fbank/raw_fbank_train.2.ark:7146756
fmkf0_sx276 quick_test/fbank/raw_fbank_train.1.ark:9295893
mmgg0_sx179 quick_test/fbank/raw_fbank_train.3.ark:9386422
mcdc0_si1922 quick_test/fbank/raw_fbank_train.2.ark:4631394
mrhl0_sx435 quick_test/fbank/raw_fbank_train.4.ark:2549184
fvkb0_sx439 quick_test/fbank/raw_fbank_train.2.ark:1902394
mjjb0_sx149 quick_test/fbank/raw_fbank_train.3.ark:3207348
fcdr1_si1186 quick_test/fbank/raw_fbank_train.1.ark:1433240
mdma0_sx170 quick_test/fbank/raw_fbank_train.2.ark:8229120
msfv0_sx362 quick_test/fbank/raw_fbank_train.4.ark:6288205
mdwm0_si1546 quick_test/fbank/raw_fbank_train.2.ark:9460826
mjfh0_sx387 quick_test/fbank/raw_fbank_train.3.ark:2953124
falk0_sx6 quick_test/fbank/raw_fbank_train.1.ark:287977
mhit0_si2243 quick_test/fbank/raw_fbank_train.3.ark:1018333
mntw0_sx168 quick_test/fbank/raw_fbank_train.3.ark:10676625
mrew1_si1500 quick_test/fbank/raw_fbank_train.4.ark:1957941
ftbw0_sx355 quick_test/fbank/raw_fbank_train.2.ark:1505501
flac0_sx451 quick_test/fbank/raw_fbank_train.1.ark:7183190
mrtc0_sx198 quick_test/fbank/raw_fbank_train.4.ark:4690319
mcew0_sx92 quick_test/fbank/raw_fbank_train.2.ark:5117851
mkes0_si1883 quick_test/fbank/raw_fbank_train.3.ark:6371002
fksr0_si1117 quick_test/fbank/raw_fbank_train.1.ark:7017286
makb0_sx26 quick_test/fbank/raw_fbank_train.2.ark:2778908
mcdd0_si2143 quick_test/fbank/raw_fbank_train.2.ark:4722179
mdas0_sx186 quick_test/fbank/raw_fbank_train.2.ark:6150435
mtkd0_si1817 quick_test/fbank/raw_fbank_train.4.ark:8502300
mdlr1_si669 quick_test/fbank/raw_fbank_train.2.ark:8112581
mlbc0_si1239 quick_test/fbank/raw_fbank_train.3.ark:7232996
fkdw0_sx397 quick_test/fbank/raw_fbank_train.1.ark:6479526
mgak0_sx406 quick_test/fbank/raw_fbank_train.2.ark:11227873
fcaj0_sx129 quick_test/fbank/raw_fbank_train.1.ark:1374195
fdxw0_si2141 quick_test/fbank/raw_fbank_train.1.ark:3352235
msrg0_sx321 quick_test/fbank/raw_fbank_train.4.ark:6793089
msvs0_sx218 quick_test/fbank/raw_fbank_train.4.ark:7098849
mtju0_sx40 quick_test/fbank/raw_fbank_train.4.ark:8468399
mfxv0_sx375 quick_test/fbank/raw_fbank_train.2.ark:10952110
fkfb0_sx168 quick_test/fbank/raw_fbank_train.1.ark:6534140
mjfr0_sx255 quick_test/fbank/raw_fbank_train.3.ark:3015371
mrjb1_si1020 quick_test/fbank/raw_fbank_train.4.ark:2572610
mrso0_sx39 quick_test/fbank/raw_fbank_train.4.ark:4490022
feac0_si615 quick_test/fbank/raw_fbank_train.1.ark:3453053
fcrz0_sx343 quick_test/fbank/raw_fbank_train.1.ark:2259407
mkls0_sx87 quick_test/fbank/raw_fbank_train.3.ark:6834701
feme0_si875 quick_test/fbank/raw_fbank_train.1.ark:3876113
fdmy0_si567 quick_test/fbank/raw_fbank_train.1.ark:3001238
msmr0_si1150 quick_test/fbank/raw_fbank_train.4.ark:6539793
mdem0_si1868 quick_test/fbank/raw_fbank_train.2.ark:6878254
mabc0_si1620 quick_test/fbank/raw_fbank_train.2.ark:2020165
mfwk0_sx439 quick_test/fbank/raw_fbank_train.2.ark:10750346
msmr0_sx145 quick_test/fbank/raw_fbank_train.4.ark:6582493
mwre0_si1687 quick_test/fbank/raw_fbank_train.4.ark:11172100
mmag0_sx226 quick_test/fbank/raw_fbank_train.3.ark:8137129
mcdd0_sx163 quick_test/fbank/raw_fbank_train.2.ark:4746205
fexm0_sx201 quick_test/fbank/raw_fbank_train.1.ark:4116669
mpar0_si946 quick_test/fbank/raw_fbank_train.3.ark:10756017
mrem0_si511 quick_test/fbank/raw_fbank_train.4.ark:1870950
mdlm0_si1864 quick_test/fbank/raw_fbank_train.2.ark:7909338
mrav0_sx18 quick_test/fbank/raw_fbank_train.4.ark:1017302
fjhk0_sx302 quick_test/fbank/raw_fbank_train.1.ark:5127014
mwac0_sx71 quick_test/fbank/raw_fbank_train.4.ark:10590478
mprt0_si1210 quick_test/fbank/raw_fbank_train.4.ark:396779
mcef0_sx415 quick_test/fbank/raw_fbank_train.2.ark:4983914
mhit0_sx353 quick_test/fbank/raw_fbank_train.3.ark:1070425
mcth0_si579 quick_test/fbank/raw_fbank_train.2.ark:5735662
fdjh0_sx215 quick_test/fbank/raw_fbank_train.1.ark:2742421
flmk0_si1035 quick_test/fbank/raw_fbank_train.1.ark:8231708
fbjl0_sx22 quick_test/fbank/raw_fbank_train.1.ark:901294
mrsp0_sx169 quick_test/fbank/raw_fbank_train.4.ark:4561189
mjeb0_sx26 quick_test/fbank/raw_fbank_train.3.ark:2649863
msrg0_si1851 quick_test/fbank/raw_fbank_train.4.ark:6752317
msas0_si746 quick_test/fbank/raw_fbank_train.4.ark:5341437
mjrg0_si736 quick_test/fbank/raw_fbank_train.3.ark:4548347
mjls0_sx196 quick_test/fbank/raw_fbank_train.3.ark:3836644
mrav0_sx288 quick_test/fbank/raw_fbank_train.4.ark:1036048
mwsh0_sx346 quick_test/fbank/raw_fbank_train.4.ark:11518025
fpab1_si1471 quick_test/fbank/raw_fbank_train.1.ark:9762720
mwsh0_si1426 quick_test/fbank/raw_fbank_train.4.ark:11440819
majp0_sx84 quick_test/fbank/raw_fbank_train.2.ark:2677708
mmdm1_sx423 quick_test/fbank/raw_fbank_train.3.ark:8976036
fljg0_si1611 quick_test/fbank/raw_fbank_train.1.ark:7815489
fmbg0_sx350 quick_test/fbank/raw_fbank_train.1.ark:8678336
mrmb0_sx411 quick_test/fbank/raw_fbank_train.4.ark:3765324
mjac0_sx431 quick_test/fbank/raw_fbank_train.3.ark:1740470
