mbma0_sx142 /u/ravanelm//kaldi-trunk/egs/timit_rev/s5/fbank/raw_fbank_train.2.ark:3769078
msdh0_si2240 /u/ravanelm//kaldi-trunk/egs/timit_rev/s5/fbank/raw_fbank_train.4.ark:5668386
msdh0_sx350 /u/ravanelm//kaldi-trunk/egs/timit_rev/s5/fbank/raw_fbank_train.4.ark:5722758
fdas1_si831 /u/ravanelm//kaldi-trunk/egs/timit_rev/s5/fbank/raw_fbank_train.1.ark:2428798
mpar0_sx316 /u/ravanelm//kaldi-trunk/egs/timit_rev/s5/fbank/raw_fbank_train.3.ark:10790036
mkjo0_si2147 /u/ravanelm//kaldi-trunk/egs/timit_rev/s5/fbank/raw_fbank_train.3.ark:6478587
fspm0_si611 /u/ravanelm//kaldi-trunk/egs/timit_rev/s5/fbank/raw_fbank_train.2.ark:982877
msms0_si803 /u/ravanelm//kaldi-trunk/egs/timit_rev/s5/fbank/raw_fbank_train.4.ark:6665125
mjhi0_si555 /u/ravanelm//kaldi-trunk/egs/timit_rev/s5/fbank/raw_fbank_train.3.ark:3092336
majp0_sx354 /u/ravanelm//kaldi-trunk/egs/timit_rev/s5/fbank/raw_fbank_train.2.ark:2652163
mdhl0_si1439 /u/ravanelm//kaldi-trunk/egs/timit_rev/s5/fbank/raw_fbank_train.2.ark:6999558
fdkn0_si1202 /u/ravanelm//kaldi-trunk/egs/timit_rev/s5/fbank/raw_fbank_train.1.ark:2799427
mjbg0_si1232 /u/ravanelm//kaldi-trunk/egs/timit_rev/s5/fbank/raw_fbank_train.3.ark:1966906
mtjm0_si1226 /u/ravanelm//kaldi-trunk/egs/timit_rev/s5/fbank/raw_fbank_train.4.ark:8182951
mkls1_sx285 /u/ravanelm//kaldi-trunk/egs/timit_rev/s5/fbank/raw_fbank_train.3.ark:6917253
mrds0_sx177 /u/ravanelm//kaldi-trunk/egs/timit_rev/s5/fbank/raw_fbank_train.4.ark:1591741
fclt0_sx88 /u/ravanelm//kaldi-trunk/egs/timit_rev/s5/fbank/raw_fbank_train.1.ark:1986316
mdsj0_si832 /u/ravanelm//kaldi-trunk/egs/timit_rev/s5/fbank/raw_fbank_train.2.ark:8922902
flag0_si834 /u/ravanelm//kaldi-trunk/egs/timit_rev/s5/fbank/raw_fbank_train.1.ark:7237443
mrws0_sx112 /u/ravanelm//kaldi-trunk/egs/timit_rev/s5/fbank/raw_fbank_train.4.ark:5072434
freh0_sx415 /u/ravanelm//kaldi-trunk/egs/timit_rev/s5/fbank/raw_fbank_train.1.ark:10670278
fmjf0_si1884 /u/ravanelm//kaldi-trunk/egs/timit_rev/s5/fbank/raw_fbank_train.1.ark:8939478
fjsk0_si2312 /u/ravanelm//kaldi-trunk/egs/timit_rev/s5/fbank/raw_fbank_train.1.ark:5706907
mjpg0_sx21 /u/ravanelm//kaldi-trunk/egs/timit_rev/s5/fbank/raw_fbank_train.3.ark:4203145
mljh0_sx424 /u/ravanelm//kaldi-trunk/egs/timit_rev/s5/fbank/raw_fbank_train.3.ark:7643150
mpmb0_si1501 /u/ravanelm//kaldi-trunk/egs/timit_rev/s5/fbank/raw_fbank_train.3.ark:11286660
mmag0_sx226 /u/ravanelm//kaldi-trunk/egs/timit_rev/s5/fbank/raw_fbank_train.3.ark:8137129
mpgr1_si1499 /u/ravanelm//kaldi-trunk/egs/timit_rev/s5/fbank/raw_fbank_train.3.ark:11197308
fklh0_sx87 /u/ravanelm//kaldi-trunk/egs/timit_rev/s5/fbank/raw_fbank_train.1.ark:7006332
mdjm0_sx105 /u/ravanelm//kaldi-trunk/egs/timit_rev/s5/fbank/raw_fbank_train.2.ark:7231668
mrlk0_sx393 /u/ravanelm//kaldi-trunk/egs/timit_rev/s5/fbank/raw_fbank_train.4.ark:3589026
mjrh0_sx45 /u/ravanelm//kaldi-trunk/egs/timit_rev/s5/fbank/raw_fbank_train.3.ark:4716737
mjda0_sx401 /u/ravanelm//kaldi-trunk/egs/timit_rev/s5/fbank/raw_fbank_train.3.ark:2128652
mrmh0_sx211 /u/ravanelm//kaldi-trunk/egs/timit_rev/s5/fbank/raw_fbank_train.4.ark:3940470
freh0_si1945 /u/ravanelm//kaldi-trunk/egs/timit_rev/s5/fbank/raw_fbank_train.1.ark:10616353
mmdb0_si1617 /u/ravanelm//kaldi-trunk/egs/timit_rev/s5/fbank/raw_fbank_train.3.ark:8622156
mtkd0_si1817 /u/ravanelm//kaldi-trunk/egs/timit_rev/s5/fbank/raw_fbank_train.4.ark:8502300
msjk0_si1596 /u/ravanelm//kaldi-trunk/egs/timit_rev/s5/fbank/raw_fbank_train.4.ark:6333024
fsjg0_si1570 /u/ravanelm//kaldi-trunk/egs/timit_rev/s5/fbank/raw_fbank_train.1.ark:11704595
mbma1_sx414 /u/ravanelm//kaldi-trunk/egs/timit_rev/s5/fbank/raw_fbank_train.2.ark:3909722
fjsp0_sx84 /u/ravanelm//kaldi-trunk/egs/timit_rev/s5/fbank/raw_fbank_train.1.ark:5862656
fskc0_sx426 /u/ravanelm//kaldi-trunk/egs/timit_rev/s5/fbank/raw_fbank_train.2.ark:324273
mrml0_sx251 /u/ravanelm//kaldi-trunk/egs/timit_rev/s5/fbank/raw_fbank_train.4.ark:4043055
mtmt0_si1748 /u/ravanelm//kaldi-trunk/egs/timit_rev/s5/fbank/raw_fbank_train.4.ark:9119451
mgrl0_si1497 /u/ravanelm//kaldi-trunk/egs/timit_rev/s5/fbank/raw_fbank_train.3.ark:387795
flmk0_sx405 /u/ravanelm//kaldi-trunk/egs/timit_rev/s5/fbank/raw_fbank_train.1.ark:8306948
mdma0_sx350 /u/ravanelm//kaldi-trunk/egs/timit_rev/s5/fbank/raw_fbank_train.2.ark:8263666
mmar0_si706 /u/ravanelm//kaldi-trunk/egs/timit_rev/s5/fbank/raw_fbank_train.3.ark:8309234
fblv0_si1058 /u/ravanelm//kaldi-trunk/egs/timit_rev/s5/fbank/raw_fbank_train.1.ark:941034
mtxs0_si1060 /u/ravanelm//kaldi-trunk/egs/timit_rev/s5/fbank/raw_fbank_train.4.ark:10089186
fltm0_si2330 /u/ravanelm//kaldi-trunk/egs/timit_rev/s5/fbank/raw_fbank_train.1.ark:8439228
mrcw0_si1371 /u/ravanelm//kaldi-trunk/egs/timit_rev/s5/fbank/raw_fbank_train.4.ark:1275485
fclt0_sx448 /u/ravanelm//kaldi-trunk/egs/timit_rev/s5/fbank/raw_fbank_train.1.ark:1975924
flet0_sx147 /u/ravanelm//kaldi-trunk/egs/timit_rev/s5/fbank/raw_fbank_train.1.ark:7466647
mrmh0_si1021 /u/ravanelm//kaldi-trunk/egs/timit_rev/s5/fbank/raw_fbank_train.4.ark:3886016
mmxs0_sx246 /u/ravanelm//kaldi-trunk/egs/timit_rev/s5/fbank/raw_fbank_train.3.ark:10491129
fpjf0_si1046 /u/ravanelm//kaldi-trunk/egs/timit_rev/s5/fbank/raw_fbank_train.1.ark:10299125
mgrp0_si1317 /u/ravanelm//kaldi-trunk/egs/timit_rev/s5/fbank/raw_fbank_train.3.ark:482900
mwgr0_sx436 /u/ravanelm//kaldi-trunk/egs/timit_rev/s5/fbank/raw_fbank_train.4.ark:11135360
mjrh1_sx154 /u/ravanelm//kaldi-trunk/egs/timit_rev/s5/fbank/raw_fbank_train.3.ark:4770031
mgjc0_sx165 /u/ravanelm//kaldi-trunk/egs/timit_rev/s5/fbank/raw_fbank_train.3.ark:315070
mzmb0_sx356 /u/ravanelm//kaldi-trunk/egs/timit_rev/s5/fbank/raw_fbank_train.4.ark:11622890
mjwt0_si1381 /u/ravanelm//kaldi-trunk/egs/timit_rev/s5/fbank/raw_fbank_train.3.ark:5372234
mmdm0_si681 /u/ravanelm//kaldi-trunk/egs/timit_rev/s5/fbank/raw_fbank_train.3.ark:8830839
feeh0_si1112 /u/ravanelm//kaldi-trunk/egs/timit_rev/s5/fbank/raw_fbank_train.1.ark:3751581
mrjm1_sx398 /u/ravanelm//kaldi-trunk/egs/timit_rev/s5/fbank/raw_fbank_train.4.ark:2997477
mdpk0_sx423 /u/ravanelm//kaldi-trunk/egs/timit_rev/s5/fbank/raw_fbank_train.2.ark:8671359
mtju0_sx40 /u/ravanelm//kaldi-trunk/egs/timit_rev/s5/fbank/raw_fbank_train.4.ark:8468399
maeo0_sx426 /u/ravanelm//kaldi-trunk/egs/timit_rev/s5/fbank/raw_fbank_train.2.ark:2475505
mmpm0_sx161 /u/ravanelm//kaldi-trunk/egs/timit_rev/s5/fbank/raw_fbank_train.3.ark:9745443
fscn0_sx176 /u/ravanelm//kaldi-trunk/egs/timit_rev/s5/fbank/raw_fbank_train.1.ark:11355154
fmkf0_sx186 /u/ravanelm//kaldi-trunk/egs/timit_rev/s5/fbank/raw_fbank_train.1.ark:9286380
mdlr1_sx129 /u/ravanelm//kaldi-trunk/egs/timit_rev/s5/fbank/raw_fbank_train.2.ark:8130814
mtmt0_sx218 /u/ravanelm//kaldi-trunk/egs/timit_rev/s5/fbank/raw_fbank_train.4.ark:9158190
mvrw0_si855 /u/ravanelm//kaldi-trunk/egs/timit_rev/s5/fbank/raw_fbank_train.4.ark:10421329
mesj0_si2039 /u/ravanelm//kaldi-trunk/egs/timit_rev/s5/fbank/raw_fbank_train.2.ark:10223743
mdlh0_si574 /u/ravanelm//kaldi-trunk/egs/timit_rev/s5/fbank/raw_fbank_train.2.ark:7806553
fmjf0_si1254 /u/ravanelm//kaldi-trunk/egs/timit_rev/s5/fbank/raw_fbank_train.1.ark:8929764
mrlj1_si2332 /u/ravanelm//kaldi-trunk/egs/timit_rev/s5/fbank/raw_fbank_train.4.ark:3442757
mjeb1_si1467 /u/ravanelm//kaldi-trunk/egs/timit_rev/s5/fbank/raw_fbank_train.3.ark:2678883
mdcd0_sx65 /u/ravanelm//kaldi-trunk/egs/timit_rev/s5/fbank/raw_fbank_train.2.ark:6483959
mhbs0_sx45 /u/ravanelm//kaldi-trunk/egs/timit_rev/s5/fbank/raw_fbank_train.3.ark:996385
msfh0_sx316 /u/ravanelm//kaldi-trunk/egs/timit_rev/s5/fbank/raw_fbank_train.4.ark:6180380
fdfb0_sx58 /u/ravanelm//kaldi-trunk/egs/timit_rev/s5/fbank/raw_fbank_train.1.ark:2680014
mrkm0_si1267 /u/ravanelm//kaldi-trunk/egs/timit_rev/s5/fbank/raw_fbank_train.4.ark:3113696
fhlm0_si930 /u/ravanelm//kaldi-trunk/egs/timit_rev/s5/fbank/raw_fbank_train.1.ark:4632890
fsdj0_sx215 /u/ravanelm//kaldi-trunk/egs/timit_rev/s5/fbank/raw_fbank_train.1.ark:11564718
mmjb1_si1408 /u/ravanelm//kaldi-trunk/egs/timit_rev/s5/fbank/raw_fbank_train.3.ark:9524972
mmdb0_si987 /u/ravanelm//kaldi-trunk/egs/timit_rev/s5/fbank/raw_fbank_train.3.ark:8628829
fmju0_sx309 /u/ravanelm//kaldi-trunk/egs/timit_rev/s5/fbank/raw_fbank_train.1.ark:9102195
mses0_si2216 /u/ravanelm//kaldi-trunk/egs/timit_rev/s5/fbank/raw_fbank_train.4.ark:6027462
fvkb0_si1159 /u/ravanelm//kaldi-trunk/egs/timit_rev/s5/fbank/raw_fbank_train.2.ark:1825835
fdaw0_sx56 /u/ravanelm//kaldi-trunk/egs/timit_rev/s5/fbank/raw_fbank_train.1.ark:2595188
msdb0_sx197 /u/ravanelm//kaldi-trunk/egs/timit_rev/s5/fbank/raw_fbank_train.4.ark:5637612
mkln0_sx248 /u/ravanelm//kaldi-trunk/egs/timit_rev/s5/fbank/raw_fbank_train.3.ark:6602631
mdss1_si1713 /u/ravanelm//kaldi-trunk/egs/timit_rev/s5/fbank/raw_fbank_train.2.ark:9091199
milb0_sx183 /u/ravanelm//kaldi-trunk/egs/timit_rev/s5/fbank/raw_fbank_train.3.ark:1617028
mrhl0_si1515 /u/ravanelm//kaldi-trunk/egs/timit_rev/s5/fbank/raw_fbank_train.4.ark:2482145
fecd0_sx68 /u/ravanelm//kaldi-trunk/egs/timit_rev/s5/fbank/raw_fbank_train.1.ark:3739507
mdpb0_si2126 /u/ravanelm//kaldi-trunk/egs/timit_rev/s5/fbank/raw_fbank_train.2.ark:8518209
mrdd0_sx60 /u/ravanelm//kaldi-trunk/egs/timit_rev/s5/fbank/raw_fbank_train.4.ark:1444982
mcew0_sx452 /u/ravanelm//kaldi-trunk/egs/timit_rev/s5/fbank/raw_fbank_train.2.ark:5101339
fpls0_si960 /u/ravanelm//kaldi-trunk/egs/timit_rev/s5/fbank/raw_fbank_train.1.ark:10416818
mrcw0_sx291 /u/ravanelm//kaldi-trunk/egs/timit_rev/s5/fbank/raw_fbank_train.4.ark:1345803
flet0_si507 /u/ravanelm//kaldi-trunk/egs/timit_rev/s5/fbank/raw_fbank_train.1.ark:7447814
fcaj0_sx219 /u/ravanelm//kaldi-trunk/egs/timit_rev/s5/fbank/raw_fbank_train.1.ark:1386028
mjdc0_si2165 /u/ravanelm//kaldi-trunk/egs/timit_rev/s5/fbank/raw_fbank_train.3.ark:2163432
feeh0_sx122 /u/ravanelm//kaldi-trunk/egs/timit_rev/s5/fbank/raw_fbank_train.1.ark:3790001
mlns0_sx147 /u/ravanelm//kaldi-trunk/egs/timit_rev/s5/fbank/raw_fbank_train.3.ark:7704996
mapv0_sx393 /u/ravanelm//kaldi-trunk/egs/timit_rev/s5/fbank/raw_fbank_train.2.ark:2981584
mrjt0_sx328 /u/ravanelm//kaldi-trunk/egs/timit_rev/s5/fbank/raw_fbank_train.4.ark:3069037
mbjv0_sx347 /u/ravanelm//kaldi-trunk/egs/timit_rev/s5/fbank/raw_fbank_train.2.ark:3699879
fskp0_sx198 /u/ravanelm//kaldi-trunk/egs/timit_rev/s5/fbank/raw_fbank_train.2.ark:505929
mjdm0_sx170 /u/ravanelm//kaldi-trunk/egs/timit_rev/s5/fbank/raw_fbank_train.3.ark:2506973
mcxm0_sx271 /u/ravanelm//kaldi-trunk/egs/timit_rev/s5/fbank/raw_fbank_train.2.ark:5958578
mkls1_si2175 /u/ravanelm//kaldi-trunk/egs/timit_rev/s5/fbank/raw_fbank_train.3.ark:6858849
mbcg0_sx57 /u/ravanelm//kaldi-trunk/egs/timit_rev/s5/fbank/raw_fbank_train.2.ark:3448149
mjkr0_si571 /u/ravanelm//kaldi-trunk/egs/timit_rev/s5/fbank/raw_fbank_train.3.ark:3513870
mhxl0_sx242 /u/ravanelm//kaldi-trunk/egs/timit_rev/s5/fbank/raw_fbank_train.3.ark:1519917
marw0_si1906 /u/ravanelm//kaldi-trunk/egs/timit_rev/s5/fbank/raw_fbank_train.2.ark:3083917
msmc0_sx197 /u/ravanelm//kaldi-trunk/egs/timit_rev/s5/fbank/raw_fbank_train.4.ark:6503253
mbma0_sx232 /u/ravanelm//kaldi-trunk/egs/timit_rev/s5/fbank/raw_fbank_train.2.ark:3782591
mrab0_sx54 /u/ravanelm//kaldi-trunk/egs/timit_rev/s5/fbank/raw_fbank_train.4.ark:651379
mtpf0_sx425 /u/ravanelm//kaldi-trunk/egs/timit_rev/s5/fbank/raw_fbank_train.4.ark:9283321
mkjo0_sx77 /u/ravanelm//kaldi-trunk/egs/timit_rev/s5/fbank/raw_fbank_train.3.ark:6545344
mlbc0_si1239 /u/ravanelm//kaldi-trunk/egs/timit_rev/s5/fbank/raw_fbank_train.3.ark:7232996
mkdt0_sx263 /u/ravanelm//kaldi-trunk/egs/timit_rev/s5/fbank/raw_fbank_train.3.ark:6310236
mrmb0_sx141 /u/ravanelm//kaldi-trunk/egs/timit_rev/s5/fbank/raw_fbank_train.4.ark:3730665
fleh0_sx151 /u/ravanelm//kaldi-trunk/egs/timit_rev/s5/fbank/raw_fbank_train.1.ark:7358062
msem1_si810 /u/ravanelm//kaldi-trunk/egs/timit_rev/s5/fbank/raw_fbank_train.4.ark:5918310
mmws0_sx348 /u/ravanelm//kaldi-trunk/egs/timit_rev/s5/fbank/raw_fbank_train.3.ark:10327433
msat1_sx353 /u/ravanelm//kaldi-trunk/egs/timit_rev/s5/fbank/raw_fbank_train.4.ark:5556787
mfxs0_si2225 /u/ravanelm//kaldi-trunk/egs/timit_rev/s5/fbank/raw_fbank_train.2.ark:10785646
mtpg0_sx303 /u/ravanelm//kaldi-trunk/egs/timit_rev/s5/fbank/raw_fbank_train.4.ark:9358673
fbcg1_si1612 /u/ravanelm//kaldi-trunk/egs/timit_rev/s5/fbank/raw_fbank_train.1.ark:633960
mrsp0_sx169 /u/ravanelm//kaldi-trunk/egs/timit_rev/s5/fbank/raw_fbank_train.4.ark:4561189
mrds0_sx87 /u/ravanelm//kaldi-trunk/egs/timit_rev/s5/fbank/raw_fbank_train.4.ark:1635112
mdwh0_si1168 /u/ravanelm//kaldi-trunk/egs/timit_rev/s5/fbank/raw_fbank_train.2.ark:9342801
mdns0_sx201 /u/ravanelm//kaldi-trunk/egs/timit_rev/s5/fbank/raw_fbank_train.2.ark:8460203
mjxa0_sx157 /u/ravanelm//kaldi-trunk/egs/timit_rev/s5/fbank/raw_fbank_train.3.ark:5500485
mjac0_sx251 /u/ravanelm//kaldi-trunk/egs/timit_rev/s5/fbank/raw_fbank_train.3.ark:1702131
fceg0_sx348 /u/ravanelm//kaldi-trunk/egs/timit_rev/s5/fbank/raw_fbank_train.1.ark:1608831
fklc0_sx265 /u/ravanelm//kaldi-trunk/egs/timit_rev/s5/fbank/raw_fbank_train.1.ark:6772263
mklr0_sx429 /u/ravanelm//kaldi-trunk/egs/timit_rev/s5/fbank/raw_fbank_train.3.ark:6715723
mjkr0_sx301 /u/ravanelm//kaldi-trunk/egs/timit_rev/s5/fbank/raw_fbank_train.3.ark:3553689
mrab1_sx128 /u/ravanelm//kaldi-trunk/egs/timit_rev/s5/fbank/raw_fbank_train.4.ark:704233
msdh0_si980 /u/ravanelm//kaldi-trunk/egs/timit_rev/s5/fbank/raw_fbank_train.4.ark:5674379
msas0_sx296 /u/ravanelm//kaldi-trunk/egs/timit_rev/s5/fbank/raw_fbank_train.4.ark:5396288
mtat1_sx59 /u/ravanelm//kaldi-trunk/egs/timit_rev/s5/fbank/raw_fbank_train.4.ark:7556167
fmah1_sx159 /u/ravanelm//kaldi-trunk/egs/timit_rev/s5/fbank/raw_fbank_train.1.ark:8561686
mprt0_si1210 /u/ravanelm//kaldi-trunk/egs/timit_rev/s5/fbank/raw_fbank_train.4.ark:396779
milb0_sx273 /u/ravanelm//kaldi-trunk/egs/timit_rev/s5/fbank/raw_fbank_train.3.ark:1628421
msdb0_sx377 /u/ravanelm//kaldi-trunk/egs/timit_rev/s5/fbank/raw_fbank_train.4.ark:5653638
mcpm0_si1194 /u/ravanelm//kaldi-trunk/egs/timit_rev/s5/fbank/raw_fbank_train.2.ark:5421321
mclk0_si1660 /u/ravanelm//kaldi-trunk/egs/timit_rev/s5/fbank/raw_fbank_train.2.ark:5231751
mprd0_si801 /u/ravanelm//kaldi-trunk/egs/timit_rev/s5/fbank/raw_fbank_train.4.ark:188756
fsdc0_sx232 /u/ravanelm//kaldi-trunk/egs/timit_rev/s5/fbank/raw_fbank_train.1.ark:11474293
flag0_sx384 /u/ravanelm//kaldi-trunk/egs/timit_rev/s5/fbank/raw_fbank_train.1.ark:7308767
ftbr0_sx21 /u/ravanelm//kaldi-trunk/egs/timit_rev/s5/fbank/raw_fbank_train.2.ark:1408555
mbgt0_si1341 /u/ravanelm//kaldi-trunk/egs/timit_rev/s5/fbank/raw_fbank_train.2.ark:3539328
mdpb0_si1760 /u/ravanelm//kaldi-trunk/egs/timit_rev/s5/fbank/raw_fbank_train.2.ark:8500055
fssb0_si1082 /u/ravanelm//kaldi-trunk/egs/timit_rev/s5/fbank/raw_fbank_train.2.ark:1154980
flac0_si2161 /u/ravanelm//kaldi-trunk/egs/timit_rev/s5/fbank/raw_fbank_train.1.ark:7136145
mjdc0_sx261 /u/ravanelm//kaldi-trunk/egs/timit_rev/s5/fbank/raw_fbank_train.3.ark:2208331
mpmb0_sx151 /u/ravanelm//kaldi-trunk/egs/timit_rev/s5/fbank/raw_fbank_train.3.ark:11362360
mmaa0_sx215 /u/ravanelm//kaldi-trunk/egs/timit_rev/s5/fbank/raw_fbank_train.3.ark:7924039
mpgh0_si675 /u/ravanelm//kaldi-trunk/egs/timit_rev/s5/fbank/raw_fbank_train.3.ark:11028698
meal0_si1547 /u/ravanelm//kaldi-trunk/egs/timit_rev/s5/fbank/raw_fbank_train.2.ark:9558531
feme0_sx65 /u/ravanelm//kaldi-trunk/egs/timit_rev/s5/fbank/raw_fbank_train.1.ark:3952037
mtkd0_sx197 /u/ravanelm//kaldi-trunk/egs/timit_rev/s5/fbank/raw_fbank_train.4.ark:8560151
fmju0_sx129 /u/ravanelm//kaldi-trunk/egs/timit_rev/s5/fbank/raw_fbank_train.1.ark:9076689
mbar0_sx239 /u/ravanelm//kaldi-trunk/egs/timit_rev/s5/fbank/raw_fbank_train.2.ark:3226521
frjb0_si1794 /u/ravanelm//kaldi-trunk/egs/timit_rev/s5/fbank/raw_fbank_train.1.ark:10707612
mjhi0_sx248 /u/ravanelm//kaldi-trunk/egs/timit_rev/s5/fbank/raw_fbank_train.3.ark:3124155
fpaf0_sx424 /u/ravanelm//kaldi-trunk/egs/timit_rev/s5/fbank/raw_fbank_train.1.ark:10171995
mmsm0_sx386 /u/ravanelm//kaldi-trunk/egs/timit_rev/s5/fbank/raw_fbank_train.3.ark:10010583
fsrh0_sx41 /u/ravanelm//kaldi-trunk/egs/timit_rev/s5/fbank/raw_fbank_train.2.ark:1140146
fsgf0_sx117 /u/ravanelm//kaldi-trunk/egs/timit_rev/s5/fbank/raw_fbank_train.1.ark:11655310
mcpm0_sx114 /u/ravanelm//kaldi-trunk/egs/timit_rev/s5/fbank/raw_fbank_train.2.ark:5465461
mdmt0_sx212 /u/ravanelm//kaldi-trunk/egs/timit_rev/s5/fbank/raw_fbank_train.2.ark:8353098
frjb0_sx257 /u/ravanelm//kaldi-trunk/egs/timit_rev/s5/fbank/raw_fbank_train.1.ark:10729838
flmk0_sx135 /u/ravanelm//kaldi-trunk/egs/timit_rev/s5/fbank/raw_fbank_train.1.ark:8271249
fkdw0_si1207 /u/ravanelm//kaldi-trunk/egs/timit_rev/s5/fbank/raw_fbank_train.1.ark:6394295
mjde0_sx220 /u/ravanelm//kaldi-trunk/egs/timit_rev/s5/fbank/raw_fbank_train.3.ark:2313875
mrfl0_sx256 /u/ravanelm//kaldi-trunk/egs/timit_rev/s5/fbank/raw_fbank_train.4.ark:2200205
fsag0_si1953 /u/ravanelm//kaldi-trunk/egs/timit_rev/s5/fbank/raw_fbank_train.1.ark:10894868
fkaa0_sx218 /u/ravanelm//kaldi-trunk/egs/timit_rev/s5/fbank/raw_fbank_train.1.ark:6224017
mjra0_sx246 /u/ravanelm//kaldi-trunk/egs/timit_rev/s5/fbank/raw_fbank_train.3.ark:4479268
mses0_si1589 /u/ravanelm//kaldi-trunk/egs/timit_rev/s5/fbank/raw_fbank_train.4.ark:6012468
falk0_sx6 /u/ravanelm//kaldi-trunk/egs/timit_rev/s5/fbank/raw_fbank_train.1.ark:287977
mcre0_sx401 /u/ravanelm//kaldi-trunk/egs/timit_rev/s5/fbank/raw_fbank_train.2.ark:5582985
fskp0_sx378 /u/ravanelm//kaldi-trunk/egs/timit_rev/s5/fbank/raw_fbank_train.2.ark:527755
mtrr0_si1548 /u/ravanelm//kaldi-trunk/egs/timit_rev/s5/fbank/raw_fbank_train.4.ark:9810871
makr0_sx92 /u/ravanelm//kaldi-trunk/egs/timit_rev/s5/fbank/raw_fbank_train.2.ark:2875919
madc0_sx197 /u/ravanelm//kaldi-trunk/egs/timit_rev/s5/fbank/raw_fbank_train.2.ark:2174275
mrjt0_si868 /u/ravanelm//kaldi-trunk/egs/timit_rev/s5/fbank/raw_fbank_train.4.ark:3029778
mjxa0_si2137 /u/ravanelm//kaldi-trunk/egs/timit_rev/s5/fbank/raw_fbank_train.3.ark:5479179
mdlb0_si1936 /u/ravanelm//kaldi-trunk/egs/timit_rev/s5/fbank/raw_fbank_train.2.ark:7408213
fsjk1_sx305 /u/ravanelm//kaldi-trunk/egs/timit_rev/s5/fbank/raw_fbank_train.2.ark:12285
fjwb1_sx255 /u/ravanelm//kaldi-trunk/egs/timit_rev/s5/fbank/raw_fbank_train.1.ark:5926702
mclm0_sx286 /u/ravanelm//kaldi-trunk/egs/timit_rev/s5/fbank/raw_fbank_train.2.ark:5397814
fblv0_si1688 /u/ravanelm//kaldi-trunk/egs/timit_rev/s5/fbank/raw_fbank_train.1.ark:954508
mbjv0_si617 /u/ravanelm//kaldi-trunk/egs/timit_rev/s5/fbank/raw_fbank_train.2.ark:3666620
mrmh0_sx391 /u/ravanelm//kaldi-trunk/egs/timit_rev/s5/fbank/raw_fbank_train.4.ark:3969288
mdss0_si2087 /u/ravanelm//kaldi-trunk/egs/timit_rev/s5/fbank/raw_fbank_train.2.ark:9005614
milb0_sx93 /u/ravanelm//kaldi-trunk/egs/timit_rev/s5/fbank/raw_fbank_train.3.ark:1656117
fear0_si622 /u/ravanelm//kaldi-trunk/egs/timit_rev/s5/fbank/raw_fbank_train.1.ark:3551958
mrdm0_si1044 /u/ravanelm//kaldi-trunk/egs/timit_rev/s5/fbank/raw_fbank_train.4.ark:1458576
mbgt0_si1841 /u/ravanelm//kaldi-trunk/egs/timit_rev/s5/fbank/raw_fbank_train.2.ark:3546402
mnet0_si1446 /u/ravanelm//kaldi-trunk/egs/timit_rev/s5/fbank/raw_fbank_train.3.ark:10540661
mjma0_sx415 /u/ravanelm//kaldi-trunk/egs/timit_rev/s5/fbank/raw_fbank_train.3.ark:3944903
fvmh0_sx116 /u/ravanelm//kaldi-trunk/egs/timit_rev/s5/fbank/raw_fbank_train.2.ark:1973240
mwdk0_sx86 /u/ravanelm//kaldi-trunk/egs/timit_rev/s5/fbank/raw_fbank_train.4.ark:10945381
feeh0_sx32 /u/ravanelm//kaldi-trunk/egs/timit_rev/s5/fbank/raw_fbank_train.1.ark:3828819
mree0_si1734 /u/ravanelm//kaldi-trunk/egs/timit_rev/s5/fbank/raw_fbank_train.4.ark:1662660
mmam0_sx67 /u/ravanelm//kaldi-trunk/egs/timit_rev/s5/fbank/raw_fbank_train.3.ark:8261853
mrdd0_si1050 /u/ravanelm//kaldi-trunk/egs/timit_rev/s5/fbank/raw_fbank_train.4.ark:1364790
mprk0_sx197 /u/ravanelm//kaldi-trunk/egs/timit_rev/s5/fbank/raw_fbank_train.4.ark:355279
mcef0_sx55 /u/ravanelm//kaldi-trunk/egs/timit_rev/s5/fbank/raw_fbank_train.2.ark:4994386
mdlc2_si2244 /u/ravanelm//kaldi-trunk/egs/timit_rev/s5/fbank/raw_fbank_train.2.ark:7712169
mjrp0_sx315 /u/ravanelm//kaldi-trunk/egs/timit_rev/s5/fbank/raw_fbank_train.3.ark:4974907
mnet0_si2076 /u/ravanelm//kaldi-trunk/egs/timit_rev/s5/fbank/raw_fbank_train.3.ark:10556415
fcag0_sx153 /u/ravanelm//kaldi-trunk/egs/timit_rev/s5/fbank/raw_fbank_train.1.ark:1281410
mwch0_si2252 /u/ravanelm//kaldi-trunk/egs/timit_rev/s5/fbank/raw_fbank_train.4.ark:10790712
mtrc0_si1623 /u/ravanelm//kaldi-trunk/egs/timit_rev/s5/fbank/raw_fbank_train.4.ark:9725647
fvmh0_sx26 /u/ravanelm//kaldi-trunk/egs/timit_rev/s5/fbank/raw_fbank_train.2.ark:1993825
mbsb0_sx183 /u/ravanelm//kaldi-trunk/egs/timit_rev/s5/fbank/raw_fbank_train.2.ark:4149060
mbbr0_si1055 /u/ravanelm//kaldi-trunk/egs/timit_rev/s5/fbank/raw_fbank_train.2.ark:3272973
mjrp0_sx45 /u/ravanelm//kaldi-trunk/egs/timit_rev/s5/fbank/raw_fbank_train.3.ark:4996452
feac0_sx345 /u/ravanelm//kaldi-trunk/egs/timit_rev/s5/fbank/raw_fbank_train.1.ark:3495512
fscn0_si626 /u/ravanelm//kaldi-trunk/egs/timit_rev/s5/fbank/raw_fbank_train.1.ark:11320768
mdsj0_sx438 /u/ravanelm//kaldi-trunk/egs/timit_rev/s5/fbank/raw_fbank_train.2.ark:8980186
madd0_sx88 /u/ravanelm//kaldi-trunk/egs/timit_rev/s5/fbank/raw_fbank_train.2.ark:2293726
mrtc0_si2088 /u/ravanelm//kaldi-trunk/egs/timit_rev/s5/fbank/raw_fbank_train.4.ark:4638948
mhxl0_sx152 /u/ravanelm//kaldi-trunk/egs/timit_rev/s5/fbank/raw_fbank_train.3.ark:1506084
mfer0_sx52 /u/ravanelm//kaldi-trunk/egs/timit_rev/s5/fbank/raw_fbank_train.2.ark:10469942
msat1_sx443 /u/ravanelm//kaldi-trunk/egs/timit_rev/s5/fbank/raw_fbank_train.4.ark:5568340
mcth0_sx399 /u/ravanelm//kaldi-trunk/egs/timit_rev/s5/fbank/raw_fbank_train.2.ark:5799346
mjdc0_sx81 /u/ravanelm//kaldi-trunk/egs/timit_rev/s5/fbank/raw_fbank_train.3.ark:2237549
fcyl0_sx397 /u/ravanelm//kaldi-trunk/egs/timit_rev/s5/fbank/raw_fbank_train.1.ark:2385857
fcjf0_sx397 /u/ravanelm//kaldi-trunk/egs/timit_rev/s5/fbank/raw_fbank_train.1.ark:1712121
marc0_sx108 /u/ravanelm//kaldi-trunk/egs/timit_rev/s5/fbank/raw_fbank_train.2.ark:3021398
fmmh0_sx367 /u/ravanelm//kaldi-trunk/egs/timit_rev/s5/fbank/raw_fbank_train.1.ark:9396836
mtjg0_sx260 /u/ravanelm//kaldi-trunk/egs/timit_rev/s5/fbank/raw_fbank_train.4.ark:8131739
maeb0_si2250 /u/ravanelm//kaldi-trunk/egs/timit_rev/s5/fbank/raw_fbank_train.2.ark:2323874
mfmc0_sx412 /u/ravanelm//kaldi-trunk/egs/timit_rev/s5/fbank/raw_fbank_train.2.ark:10559415
mrso0_sx399 /u/ravanelm//kaldi-trunk/egs/timit_rev/s5/fbank/raw_fbank_train.4.ark:4502695
fjlr0_sx61 /u/ravanelm//kaldi-trunk/egs/timit_rev/s5/fbank/raw_fbank_train.1.ark:5437435
mmlm0_sx267 /u/ravanelm//kaldi-trunk/egs/timit_rev/s5/fbank/raw_fbank_train.3.ark:9669130
mfmc0_sx52 /u/ravanelm//kaldi-trunk/egs/timit_rev/s5/fbank/raw_fbank_train.2.ark:10571367
msvs0_si938 /u/ravanelm//kaldi-trunk/egs/timit_rev/s5/fbank/raw_fbank_train.4.ark:7066783
falr0_sx425 /u/ravanelm//kaldi-trunk/egs/timit_rev/s5/fbank/raw_fbank_train.1.ark:385482
mjde0_si1120 /u/ravanelm//kaldi-trunk/egs/timit_rev/s5/fbank/raw_fbank_train.3.ark:2245663
mpfu0_sx178 /u/ravanelm//kaldi-trunk/egs/timit_rev/s5/fbank/raw_fbank_train.3.ark:10945700
mntw0_sx258 /u/ravanelm//kaldi-trunk/egs/timit_rev/s5/fbank/raw_fbank_train.3.ark:10694731
mefg0_sx105 /u/ravanelm//kaldi-trunk/egs/timit_rev/s5/fbank/raw_fbank_train.2.ark:9773520
mjjm0_sx377 /u/ravanelm//kaldi-trunk/egs/timit_rev/s5/fbank/raw_fbank_train.3.ark:3472729
mdas0_sx276 /u/ravanelm//kaldi-trunk/egs/timit_rev/s5/fbank/raw_fbank_train.2.ark:6166740
mrmb0_si951 /u/ravanelm//kaldi-trunk/egs/timit_rev/s5/fbank/raw_fbank_train.4.ark:3715992
fpjf0_si1676 /u/ravanelm//kaldi-trunk/egs/timit_rev/s5/fbank/raw_fbank_train.1.ark:10326473
mkdd0_sx307 /u/ravanelm//kaldi-trunk/egs/timit_rev/s5/fbank/raw_fbank_train.3.ark:6223285
mtml0_sx165 /u/ravanelm//kaldi-trunk/egs/timit_rev/s5/fbank/raw_fbank_train.4.ark:8935987
mjeb1_sx387 /u/ravanelm//kaldi-trunk/egs/timit_rev/s5/fbank/raw_fbank_train.3.ark:2771554
fklc0_sx85 /u/ravanelm//kaldi-trunk/egs/timit_rev/s5/fbank/raw_fbank_train.1.ark:6808081
mhmr0_sx39 /u/ravanelm//kaldi-trunk/egs/timit_rev/s5/fbank/raw_fbank_train.3.ark:1357573
mcdd0_sx433 /u/ravanelm//kaldi-trunk/egs/timit_rev/s5/fbank/raw_fbank_train.2.ark:4778224
fkde0_si2221 /u/ravanelm//kaldi-trunk/egs/timit_rev/s5/fbank/raw_fbank_train.1.ark:6320897
fcke0_sx301 /u/ravanelm//kaldi-trunk/egs/timit_rev/s5/fbank/raw_fbank_train.1.ark:1878146
mges0_si2111 /u/ravanelm//kaldi-trunk/egs/timit_rev/s5/fbank/raw_fbank_train.3.ark:198938
fsah0_sx327 /u/ravanelm//kaldi-trunk/egs/timit_rev/s5/fbank/raw_fbank_train.1.ark:11052192
mlbc0_sx339 /u/ravanelm//kaldi-trunk/egs/timit_rev/s5/fbank/raw_fbank_train.3.ark:7295282
mwre0_sx67 /u/ravanelm//kaldi-trunk/egs/timit_rev/s5/fbank/raw_fbank_train.4.ark:11238058
mrld0_si2224 /u/ravanelm//kaldi-trunk/egs/timit_rev/s5/fbank/raw_fbank_train.4.ark:3252633
falk0_sx366 /u/ravanelm//kaldi-trunk/egs/timit_rev/s5/fbank/raw_fbank_train.1.ark:273466
fetb0_sx68 /u/ravanelm//kaldi-trunk/egs/timit_rev/s5/fbank/raw_fbank_train.1.ark:4048542
mtlb0_sx414 /u/ravanelm//kaldi-trunk/egs/timit_rev/s5/fbank/raw_fbank_train.4.ark:8779195
mwem0_si1950 /u/ravanelm//kaldi-trunk/egs/timit_rev/s5/fbank/raw_fbank_train.4.ark:10978243
mrew1_si1500 /u/ravanelm//kaldi-trunk/egs/timit_rev/s5/fbank/raw_fbank_train.4.ark:1957941
mkxl0_sx105 /u/ravanelm//kaldi-trunk/egs/timit_rev/s5/fbank/raw_fbank_train.3.ark:7182431
fcyl0_sx37 /u/ravanelm//kaldi-trunk/egs/timit_rev/s5/fbank/raw_fbank_train.1.ark:2375024
fmju0_si2019 /u/ravanelm//kaldi-trunk/egs/timit_rev/s5/fbank/raw_fbank_train.1.ark:9055103
mtpg0_si2013 /u/ravanelm//kaldi-trunk/egs/timit_rev/s5/fbank/raw_fbank_train.4.ark:9313621
mcth0_si1209 /u/ravanelm//kaldi-trunk/egs/timit_rev/s5/fbank/raw_fbank_train.2.ark:5712635
mrtc0_sx288 /u/ravanelm//kaldi-trunk/egs/timit_rev/s5/fbank/raw_fbank_train.4.ark:4701272
mcew0_sx182 /u/ravanelm//kaldi-trunk/egs/timit_rev/s5/fbank/raw_fbank_train.2.ark:5058000
mkxl0_sx15 /u/ravanelm//kaldi-trunk/egs/timit_rev/s5/fbank/raw_fbank_train.3.ark:7192023
mdks0_si1066 /u/ravanelm//kaldi-trunk/egs/timit_rev/s5/fbank/raw_fbank_train.2.ark:7282953
flac0_sx271 /u/ravanelm//kaldi-trunk/egs/timit_rev/s5/fbank/raw_fbank_train.1.ark:7162684
majp0_sx84 /u/ravanelm//kaldi-trunk/egs/timit_rev/s5/fbank/raw_fbank_train.2.ark:2677708
mewm0_si718 /u/ravanelm//kaldi-trunk/egs/timit_rev/s5/fbank/raw_fbank_train.2.ark:10325753
marc0_sx288 /u/ravanelm//kaldi-trunk/egs/timit_rev/s5/fbank/raw_fbank_train.2.ark:3049576
mjrg0_si1996 /u/ravanelm//kaldi-trunk/egs/timit_rev/s5/fbank/raw_fbank_train.3.ark:4542394
mrsp0_sx196 /u/ravanelm//kaldi-trunk/egs/timit_rev/s5/fbank/raw_fbank_train.4.ark:4574782
mjac0_sx341 /u/ravanelm//kaldi-trunk/egs/timit_rev/s5/fbank/raw_fbank_train.3.ark:1727637
fsma0_sx451 /u/ravanelm//kaldi-trunk/egs/timit_rev/s5/fbank/raw_fbank_train.2.ark:714214
mdef0_si2193 /u/ravanelm//kaldi-trunk/egs/timit_rev/s5/fbank/raw_fbank_train.2.ark:6818696
mapv0_si663 /u/ravanelm//kaldi-trunk/egs/timit_rev/s5/fbank/raw_fbank_train.2.ark:2915700
mrai0_sx162 /u/ravanelm//kaldi-trunk/egs/timit_rev/s5/fbank/raw_fbank_train.4.ark:809738
mjrp0_sx405 /u/ravanelm//kaldi-trunk/egs/timit_rev/s5/fbank/raw_fbank_train.3.ark:4985900
fmpg0_sx432 /u/ravanelm//kaldi-trunk/egs/timit_rev/s5/fbank/raw_fbank_train.1.ark:9541085
mjls0_sx196 /u/ravanelm//kaldi-trunk/egs/timit_rev/s5/fbank/raw_fbank_train.3.ark:3836644
mrso0_sx129 /u/ravanelm//kaldi-trunk/egs/timit_rev/s5/fbank/raw_fbank_train.4.ark:4444884
mrds0_sx267 /u/ravanelm//kaldi-trunk/egs/timit_rev/s5/fbank/raw_fbank_train.4.ark:1600014
mtdb0_si1401 /u/ravanelm//kaldi-trunk/egs/timit_rev/s5/fbank/raw_fbank_train.4.ark:7761531
mwad0_sx252 /u/ravanelm//kaldi-trunk/egs/timit_rev/s5/fbank/raw_fbank_train.4.ark:10639166
mfxs0_si1674 /u/ravanelm//kaldi-trunk/egs/timit_rev/s5/fbank/raw_fbank_train.2.ark:10775372
mdwm0_sx106 /u/ravanelm//kaldi-trunk/egs/timit_rev/s5/fbank/raw_fbank_train.2.ark:9500606
mcdc0_sx212 /u/ravanelm//kaldi-trunk/egs/timit_rev/s5/fbank/raw_fbank_train.2.ark:4665333
mmws1_sx441 /u/ravanelm//kaldi-trunk/egs/timit_rev/s5/fbank/raw_fbank_train.3.ark:10426891
fssb0_si2342 /u/ravanelm//kaldi-trunk/egs/timit_rev/s5/fbank/raw_fbank_train.2.ark:1187448
ftbw0_sx445 /u/ravanelm//kaldi-trunk/egs/timit_rev/s5/fbank/raw_fbank_train.2.ark:1515854
mjlb0_sx86 /u/ravanelm//kaldi-trunk/egs/timit_rev/s5/fbank/raw_fbank_train.3.ark:3669019
mcdc0_si1922 /u/ravanelm//kaldi-trunk/egs/timit_rev/s5/fbank/raw_fbank_train.2.ark:4631394
mdlc2_sx264 /u/ravanelm//kaldi-trunk/egs/timit_rev/s5/fbank/raw_fbank_train.2.ark:7748588
mchl0_sx87 /u/ravanelm//kaldi-trunk/egs/timit_rev/s5/fbank/raw_fbank_train.2.ark:5221957
fsms1_sx334 /u/ravanelm//kaldi-trunk/egs/timit_rev/s5/fbank/raw_fbank_train.2.ark:912511
mtwh1_sx72 /u/ravanelm//kaldi-trunk/egs/timit_rev/s5/fbank/raw_fbank_train.4.ark:10081832
fljd0_sx76 /u/ravanelm//kaldi-trunk/egs/timit_rev/s5/fbank/raw_fbank_train.1.ark:7803055
fvmh0_sx386 /u/ravanelm//kaldi-trunk/egs/timit_rev/s5/fbank/raw_fbank_train.2.ark:2011731
mtmn0_sx74 /u/ravanelm//kaldi-trunk/egs/timit_rev/s5/fbank/raw_fbank_train.4.ark:9096343
mtat1_si1409 /u/ravanelm//kaldi-trunk/egs/timit_rev/s5/fbank/raw_fbank_train.4.ark:7451816
mmvp0_si1284 /u/ravanelm//kaldi-trunk/egs/timit_rev/s5/fbank/raw_fbank_train.3.ark:10022497
mhmr0_sx219 /u/ravanelm//kaldi-trunk/egs/timit_rev/s5/fbank/raw_fbank_train.3.ark:1329988
fleh0_si1051 /u/ravanelm//kaldi-trunk/egs/timit_rev/s5/fbank/raw_fbank_train.1.ark:7321801
mapv0_sx303 /u/ravanelm//kaldi-trunk/egs/timit_rev/s5/fbank/raw_fbank_train.2.ark:2961759
msds0_sx357 /u/ravanelm//kaldi-trunk/egs/timit_rev/s5/fbank/raw_fbank_train.4.ark:5841344
mkam0_si1465 /u/ravanelm//kaldi-trunk/egs/timit_rev/s5/fbank/raw_fbank_train.3.ark:5980017
mtkp0_sx33 /u/ravanelm//kaldi-trunk/egs/timit_rev/s5/fbank/raw_fbank_train.4.ark:8683729
mrms0_sx300 /u/ravanelm//kaldi-trunk/egs/timit_rev/s5/fbank/raw_fbank_train.4.ark:4174346
mmjb1_sx238 /u/ravanelm//kaldi-trunk/egs/timit_rev/s5/fbank/raw_fbank_train.3.ark:9572745
fvkb0_sx79 /u/ravanelm//kaldi-trunk/egs/timit_rev/s5/fbank/raw_fbank_train.2.ark:1915986
mjsr0_sx344 /u/ravanelm//kaldi-trunk/egs/timit_rev/s5/fbank/raw_fbank_train.3.ark:5090252
mdlc0_si2025 /u/ravanelm//kaldi-trunk/egs/timit_rev/s5/fbank/raw_fbank_train.2.ark:7523638
mjrg0_sx106 /u/ravanelm//kaldi-trunk/egs/timit_rev/s5/fbank/raw_fbank_train.3.ark:4567020
mrmg0_si1710 /u/ravanelm//kaldi-trunk/egs/timit_rev/s5/fbank/raw_fbank_train.4.ark:3799944
mlbc0_sx249 /u/ravanelm//kaldi-trunk/egs/timit_rev/s5/fbank/raw_fbank_train.3.ark:7285449
mvrw0_sx225 /u/ravanelm//kaldi-trunk/egs/timit_rev/s5/fbank/raw_fbank_train.4.ark:10445795
msvs0_sx308 /u/ravanelm//kaldi-trunk/egs/timit_rev/s5/fbank/raw_fbank_train.4.ark:7113162
fbcg1_si982 /u/ravanelm//kaldi-trunk/egs/timit_rev/s5/fbank/raw_fbank_train.1.ark:648827
mpsw0_sx257 /u/ravanelm//kaldi-trunk/egs/timit_rev/s5/fbank/raw_fbank_train.4.ark:533609
ftlg0_sx33 /u/ravanelm//kaldi-trunk/egs/timit_rev/s5/fbank/raw_fbank_train.2.ark:1619997
mcth0_sx129 /u/ravanelm//kaldi-trunk/egs/timit_rev/s5/fbank/raw_fbank_train.2.ark:5750095
fdas1_sx21 /u/ravanelm//kaldi-trunk/egs/timit_rev/s5/fbank/raw_fbank_train.1.ark:2472376
fjen0_sx237 /u/ravanelm//kaldi-trunk/egs/timit_rev/s5/fbank/raw_fbank_train.1.ark:5000475
mtdp0_si1521 /u/ravanelm//kaldi-trunk/egs/timit_rev/s5/fbank/raw_fbank_train.4.ark:7869270
mjbg0_sx332 /u/ravanelm//kaldi-trunk/egs/timit_rev/s5/fbank/raw_fbank_train.3.ark:2025233
mjws0_sx333 /u/ravanelm//kaldi-trunk/egs/timit_rev/s5/fbank/raw_fbank_train.3.ark:5308741
fkdw0_sx307 /u/ravanelm//kaldi-trunk/egs/timit_rev/s5/fbank/raw_fbank_train.1.ark:6461021
mdlm0_sx334 /u/ravanelm//kaldi-trunk/egs/timit_rev/s5/fbank/raw_fbank_train.2.ark:7955230
ftmg0_sx272 /u/ravanelm//kaldi-trunk/egs/timit_rev/s5/fbank/raw_fbank_train.2.ark:1688637
mjxa0_si877 /u/ravanelm//kaldi-trunk/egs/timit_rev/s5/fbank/raw_fbank_train.3.ark:5489852
fear0_sx172 /u/ravanelm//kaldi-trunk/egs/timit_rev/s5/fbank/raw_fbank_train.1.ark:3564631
fdaw0_sx416 /u/ravanelm//kaldi-trunk/egs/timit_rev/s5/fbank/raw_fbank_train.1.ark:2584476
mrws0_si1102 /u/ravanelm//kaldi-trunk/egs/timit_rev/s5/fbank/raw_fbank_train.4.ark:5036374
mcxm0_si1351 /u/ravanelm//kaldi-trunk/egs/timit_rev/s5/fbank/raw_fbank_train.2.ark:5906405
msvs0_si1568 /u/ravanelm//kaldi-trunk/egs/timit_rev/s5/fbank/raw_fbank_train.4.ark:7035116
mjlg1_sx202 /u/ravanelm//kaldi-trunk/egs/timit_rev/s5/fbank/raw_fbank_train.3.ark:3728907
mcdc0_sx32 /u/ravanelm//kaldi-trunk/egs/timit_rev/s5/fbank/raw_fbank_train.2.ark:4689798
mcdd0_si1513 /u/ravanelm//kaldi-trunk/egs/timit_rev/s5/fbank/raw_fbank_train.2.ark:4713665
mcre0_si1751 /u/ravanelm//kaldi-trunk/egs/timit_rev/s5/fbank/raw_fbank_train.2.ark:5533934
fsag0_sx423 /u/ravanelm//kaldi-trunk/egs/timit_rev/s5/fbank/raw_fbank_train.1.ark:10963873
mtrt0_si1857 /u/ravanelm//kaldi-trunk/egs/timit_rev/s5/fbank/raw_fbank_train.4.ark:9929890
mrvg0_sx240 /u/ravanelm//kaldi-trunk/egs/timit_rev/s5/fbank/raw_fbank_train.4.ark:4893257
fbas0_sx127 /u/ravanelm//kaldi-trunk/egs/timit_rev/s5/fbank/raw_fbank_train.1.ark:584755
fmjf0_si624 /u/ravanelm//kaldi-trunk/egs/timit_rev/s5/fbank/raw_fbank_train.1.ark:8947831
mcre0_si1725 /u/ravanelm//kaldi-trunk/egs/timit_rev/s5/fbank/raw_fbank_train.2.ark:5527300
mhmg0_sx15 /u/ravanelm//kaldi-trunk/egs/timit_rev/s5/fbank/raw_fbank_train.3.ark:1235162
maeo0_si1326 /u/ravanelm//kaldi-trunk/egs/timit_rev/s5/fbank/raw_fbank_train.2.ark:2402185
fsdc0_si1312 /u/ravanelm//kaldi-trunk/egs/timit_rev/s5/fbank/raw_fbank_train.1.ark:11428079
mdss1_sx337 /u/ravanelm//kaldi-trunk/egs/timit_rev/s5/fbank/raw_fbank_train.2.ark:9135251
mlsh0_sx427 /u/ravanelm//kaldi-trunk/egs/timit_rev/s5/fbank/raw_fbank_train.3.ark:7840840
fkde0_sx241 /u/ravanelm//kaldi-trunk/egs/timit_rev/s5/fbank/raw_fbank_train.1.ark:6342243
ftbr0_sx291 /u/ravanelm//kaldi-trunk/egs/timit_rev/s5/fbank/raw_fbank_train.2.ark:1417548
msfh0_si1738 /u/ravanelm//kaldi-trunk/egs/timit_rev/s5/fbank/raw_fbank_train.4.ark:6113048
fsag0_si1323 /u/ravanelm//kaldi-trunk/egs/timit_rev/s5/fbank/raw_fbank_train.1.ark:10878274
mbma0_sx52 /u/ravanelm//kaldi-trunk/egs/timit_rev/s5/fbank/raw_fbank_train.2.ark:3819009
fdnc0_sx378 /u/ravanelm//kaldi-trunk/egs/timit_rev/s5/fbank/raw_fbank_train.1.ark:3221501
mewm0_si1978 /u/ravanelm//kaldi-trunk/egs/timit_rev/s5/fbank/raw_fbank_train.2.ark:10319960
fskl0_sx89 /u/ravanelm//kaldi-trunk/egs/timit_rev/s5/fbank/raw_fbank_train.2.ark:434970
mjws0_sx153 /u/ravanelm//kaldi-trunk/egs/timit_rev/s5/fbank/raw_fbank_train.3.ark:5279875
mmcc0_si1338 /u/ravanelm//kaldi-trunk/egs/timit_rev/s5/fbank/raw_fbank_train.3.ark:8509457
fdkn0_sx451 /u/ravanelm//kaldi-trunk/egs/timit_rev/s5/fbank/raw_fbank_train.1.ark:2869233
mmxs0_si876 /u/ravanelm//kaldi-trunk/egs/timit_rev/s5/fbank/raw_fbank_train.3.ark:10470783
mklw0_si1571 /u/ravanelm//kaldi-trunk/egs/timit_rev/s5/fbank/raw_fbank_train.3.ark:6940600
fpaf0_si1684 /u/ravanelm//kaldi-trunk/egs/timit_rev/s5/fbank/raw_fbank_train.1.ark:10115189
fsjg0_sx310 /u/ravanelm//kaldi-trunk/egs/timit_rev/s5/fbank/raw_fbank_train.1.ark:11789281
flet0_sx57 /u/ravanelm//kaldi-trunk/egs/timit_rev/s5/fbank/raw_fbank_train.1.ark:7505658
fmkc0_si1041 /u/ravanelm//kaldi-trunk/egs/timit_rev/s5/fbank/raw_fbank_train.1.ark:9139014
fdfb0_sx238 /u/ravanelm//kaldi-trunk/egs/timit_rev/s5/fbank/raw_fbank_train.1.ark:2648116
mrlr0_sx206 /u/ravanelm//kaldi-trunk/egs/timit_rev/s5/fbank/raw_fbank_train.4.ark:3651353
fmkc0_si1702 /u/ravanelm//kaldi-trunk/egs/timit_rev/s5/fbank/raw_fbank_train.1.ark:9166682
fajw0_sx93 /u/ravanelm//kaldi-trunk/egs/timit_rev/s5/fbank/raw_fbank_train.1.ark:196227
mclm0_si1456 /u/ravanelm//kaldi-trunk/egs/timit_rev/s5/fbank/raw_fbank_train.2.ark:5334976
mjrg0_sx286 /u/ravanelm//kaldi-trunk/egs/timit_rev/s5/fbank/raw_fbank_train.3.ark:4584765
mzmb0_si1796 /u/ravanelm//kaldi-trunk/egs/timit_rev/s5/fbank/raw_fbank_train.4.ark:11574518
mrcw0_si741 /u/ravanelm//kaldi-trunk/egs/timit_rev/s5/fbank/raw_fbank_train.4.ark:1300672
fklh0_sx357 /u/ravanelm//kaldi-trunk/egs/timit_rev/s5/fbank/raw_fbank_train.1.ark:6980147
mapv0_si1923 /u/ravanelm//kaldi-trunk/egs/timit_rev/s5/fbank/raw_fbank_train.2.ark:2904467
mtpr0_sx70 /u/ravanelm//kaldi-trunk/egs/timit_rev/s5/fbank/raw_fbank_train.4.ark:9585748
mdns0_sx21 /u/ravanelm//kaldi-trunk/egs/timit_rev/s5/fbank/raw_fbank_train.2.ark:8472075
mtbc0_sx183 /u/ravanelm//kaldi-trunk/egs/timit_rev/s5/fbank/raw_fbank_train.4.ark:7603181
mcae0_sx367 /u/ravanelm//kaldi-trunk/egs/timit_rev/s5/fbank/raw_fbank_train.2.ark:4480558
medr0_sx384 /u/ravanelm//kaldi-trunk/egs/timit_rev/s5/fbank/raw_fbank_train.2.ark:9716948
mdps0_sx359 /u/ravanelm//kaldi-trunk/egs/timit_rev/s5/fbank/raw_fbank_train.2.ark:8746711
fapb0_si1063 /u/ravanelm//kaldi-trunk/egs/timit_rev/s5/fbank/raw_fbank_train.1.ark:403268
mjsr0_si794 /u/ravanelm//kaldi-trunk/egs/timit_rev/s5/fbank/raw_fbank_train.3.ark:5042593
mjwg0_sx265 /u/ravanelm//kaldi-trunk/egs/timit_rev/s5/fbank/raw_fbank_train.3.ark:5202243
mfer0_si1492 /u/ravanelm//kaldi-trunk/egs/timit_rev/s5/fbank/raw_fbank_train.2.ark:10396911
fkdw0_sx127 /u/ravanelm//kaldi-trunk/egs/timit_rev/s5/fbank/raw_fbank_train.1.ark:6445155
mdac0_si1837 /u/ravanelm//kaldi-trunk/egs/timit_rev/s5/fbank/raw_fbank_train.2.ark:6015024
fklc0_sx175 /u/ravanelm//kaldi-trunk/egs/timit_rev/s5/fbank/raw_fbank_train.1.ark:6751910
mtlb0_sx234 /u/ravanelm//kaldi-trunk/egs/timit_rev/s5/fbank/raw_fbank_train.4.ark:8750849
mded0_si1800 /u/ravanelm//kaldi-trunk/egs/timit_rev/s5/fbank/raw_fbank_train.2.ark:6694077
fsls0_si1686 /u/ravanelm//kaldi-trunk/egs/timit_rev/s5/fbank/raw_fbank_train.2.ark:551303
fljg0_sx351 /u/ravanelm//kaldi-trunk/egs/timit_rev/s5/fbank/raw_fbank_train.1.ark:7887895
mmxs0_si2136 /u/ravanelm//kaldi-trunk/egs/timit_rev/s5/fbank/raw_fbank_train.3.ark:10444517
mkls1_si1545 /u/ravanelm//kaldi-trunk/egs/timit_rev/s5/fbank/raw_fbank_train.3.ark:6845655
mdlb0_si1306 /u/ravanelm//kaldi-trunk/egs/timit_rev/s5/fbank/raw_fbank_train.2.ark:7383979
fgmb0_si1145 /u/ravanelm//kaldi-trunk/egs/timit_rev/s5/fbank/raw_fbank_train.1.ark:4384012
fsmm0_sx144 /u/ravanelm//kaldi-trunk/egs/timit_rev/s5/fbank/raw_fbank_train.2.ark:779420
mgsl0_si534 /u/ravanelm//kaldi-trunk/egs/timit_rev/s5/fbank/raw_fbank_train.3.ark:713021
mrfk0_sx266 /u/ravanelm//kaldi-trunk/egs/timit_rev/s5/fbank/raw_fbank_train.4.ark:2098300
fmjf0_sx174 /u/ravanelm//kaldi-trunk/egs/timit_rev/s5/fbank/raw_fbank_train.1.ark:8965344
mhjb0_sx117 /u/ravanelm//kaldi-trunk/egs/timit_rev/s5/fbank/raw_fbank_train.3.ark:1143145
mgrp0_sx57 /u/ravanelm//kaldi-trunk/egs/timit_rev/s5/fbank/raw_fbank_train.3.ark:580011
mrai0_si2052 /u/ravanelm//kaldi-trunk/egs/timit_rev/s5/fbank/raw_fbank_train.4.ark:771712
mkjo0_si887 /u/ravanelm//kaldi-trunk/egs/timit_rev/s5/fbank/raw_fbank_train.3.ark:6487340
mfxv0_si1005 /u/ravanelm//kaldi-trunk/egs/timit_rev/s5/fbank/raw_fbank_train.2.ark:10870718
falk0_si1086 /u/ravanelm//kaldi-trunk/egs/timit_rev/s5/fbank/raw_fbank_train.1.ark:209261
msjk0_sx336 /u/ravanelm//kaldi-trunk/egs/timit_rev/s5/fbank/raw_fbank_train.4.ark:6397470
mrdm0_si1595 /u/ravanelm//kaldi-trunk/egs/timit_rev/s5/fbank/raw_fbank_train.4.ark:1475650
mpgr0_si1410 /u/ravanelm//kaldi-trunk/egs/timit_rev/s5/fbank/raw_fbank_train.3.ark:11098649
mklw0_sx131 /u/ravanelm//kaldi-trunk/egs/timit_rev/s5/fbank/raw_fbank_train.3.ark:6975781
mtat1_sx329 /u/ravanelm//kaldi-trunk/egs/timit_rev/s5/fbank/raw_fbank_train.4.ark:7523022
mdsj0_si2092 /u/ravanelm//kaldi-trunk/egs/timit_rev/s5/fbank/raw_fbank_train.2.ark:8914149
mdlc1_sx355 /u/ravanelm//kaldi-trunk/egs/timit_rev/s5/fbank/raw_fbank_train.2.ark:7678116
mrem0_sx331 /u/ravanelm//kaldi-trunk/egs/timit_rev/s5/fbank/raw_fbank_train.4.ark:1920762
feeh0_sx302 /u/ravanelm//kaldi-trunk/egs/timit_rev/s5/fbank/raw_fbank_train.1.ark:3817107
fcjf0_sx127 /u/ravanelm//kaldi-trunk/egs/timit_rev/s5/fbank/raw_fbank_train.1.ark:1683070
makr0_sx452 /u/ravanelm//kaldi-trunk/egs/timit_rev/s5/fbank/raw_fbank_train.2.ark:2865087
flmc0_si2002 /u/ravanelm//kaldi-trunk/egs/timit_rev/s5/fbank/raw_fbank_train.1.ark:8149397
mjmd0_sx308 /u/ravanelm//kaldi-trunk/egs/timit_rev/s5/fbank/raw_fbank_train.3.ark:4017416
mrsp0_sx79 /u/ravanelm//kaldi-trunk/egs/timit_rev/s5/fbank/raw_fbank_train.4.ark:4609560
mbml0_si1799 /u/ravanelm//kaldi-trunk/egs/timit_rev/s5/fbank/raw_fbank_train.2.ark:3946022
feac0_sx255 /u/ravanelm//kaldi-trunk/egs/timit_rev/s5/fbank/raw_fbank_train.1.ark:3485039
feac0_si1875 /u/ravanelm//kaldi-trunk/egs/timit_rev/s5/fbank/raw_fbank_train.1.ark:3439740
mrjm1_si668 /u/ravanelm//kaldi-trunk/egs/timit_rev/s5/fbank/raw_fbank_train.4.ark:2937753
mjls0_si1096 /u/ravanelm//kaldi-trunk/egs/timit_rev/s5/fbank/raw_fbank_train.3.ark:3769199
mrcg0_sx78 /u/ravanelm//kaldi-trunk/egs/timit_rev/s5/fbank/raw_fbank_train.4.ark:1261331
fscn0_sx446 /u/ravanelm//kaldi-trunk/egs/timit_rev/s5/fbank/raw_fbank_train.1.ark:11401693
mklw0_sx401 /u/ravanelm//kaldi-trunk/egs/timit_rev/s5/fbank/raw_fbank_train.3.ark:7017720
fjlr0_sx331 /u/ravanelm//kaldi-trunk/egs/timit_rev/s5/fbank/raw_fbank_train.1.ark:5412930
fskp0_si1728 /u/ravanelm//kaldi-trunk/egs/timit_rev/s5/fbank/raw_fbank_train.2.ark:464118
fsag0_si693 /u/ravanelm//kaldi-trunk/egs/timit_rev/s5/fbank/raw_fbank_train.1.ark:10899381
mmbs0_si1781 /u/ravanelm//kaldi-trunk/egs/timit_rev/s5/fbank/raw_fbank_train.3.ark:8408106
mrcw0_sx381 /u/ravanelm//kaldi-trunk/egs/timit_rev/s5/fbank/raw_fbank_train.4.ark:1355676
fsdc0_sx412 /u/ravanelm//kaldi-trunk/egs/timit_rev/s5/fbank/raw_fbank_train.1.ark:11497159
mjda0_sx41 /u/ravanelm//kaldi-trunk/egs/timit_rev/s5/fbank/raw_fbank_train.3.ark:2141404
msrr0_sx411 /u/ravanelm//kaldi-trunk/egs/timit_rev/s5/fbank/raw_fbank_train.4.ark:6903506
mbom0_sx311 /u/ravanelm//kaldi-trunk/egs/timit_rev/s5/fbank/raw_fbank_train.2.ark:4089973
msmc0_sx377 /u/ravanelm//kaldi-trunk/egs/timit_rev/s5/fbank/raw_fbank_train.4.ark:6526999
mkls1_sx375 /u/ravanelm//kaldi-trunk/egs/timit_rev/s5/fbank/raw_fbank_train.3.ark:6927486
mdlc1_sx265 /u/ravanelm//kaldi-trunk/egs/timit_rev/s5/fbank/raw_fbank_train.2.ark:7666283
mded0_sx360 /u/ravanelm//kaldi-trunk/egs/timit_rev/s5/fbank/raw_fbank_train.2.ark:6749529
fvkb0_sx169 /u/ravanelm//kaldi-trunk/egs/timit_rev/s5/fbank/raw_fbank_train.2.ark:1857215
mpfu0_sx88 /u/ravanelm//kaldi-trunk/egs/timit_rev/s5/fbank/raw_fbank_train.3.ark:10998871
mbgt0_sx81 /u/ravanelm//kaldi-trunk/egs/timit_rev/s5/fbank/raw_fbank_train.2.ark:3634199
fpad0_sx356 /u/ravanelm//kaldi-trunk/egs/timit_rev/s5/fbank/raw_fbank_train.1.ark:10056256
mbbr0_sx65 /u/ravanelm//kaldi-trunk/egs/timit_rev/s5/fbank/raw_fbank_train.2.ark:3357045
mhit0_sx263 /u/ravanelm//kaldi-trunk/egs/timit_rev/s5/fbank/raw_fbank_train.3.ark:1060752
fdfb0_sx148 /u/ravanelm//kaldi-trunk/egs/timit_rev/s5/fbank/raw_fbank_train.1.ark:2638483
mjee0_si607 /u/ravanelm//kaldi-trunk/egs/timit_rev/s5/fbank/raw_fbank_train.3.ark:2811095
mram0_si1275 /u/ravanelm//kaldi-trunk/egs/timit_rev/s5/fbank/raw_fbank_train.4.ark:873583
mfmc0_si1762 /u/ravanelm//kaldi-trunk/egs/timit_rev/s5/fbank/raw_fbank_train.2.ark:10494210
mmab1_sx144 /u/ravanelm//kaldi-trunk/egs/timit_rev/s5/fbank/raw_fbank_train.3.ark:8007751
mejs0_sx250 /u/ravanelm//kaldi-trunk/egs/timit_rev/s5/fbank/raw_fbank_train.2.ark:10083066
fjxm0_sx131 /u/ravanelm//kaldi-trunk/egs/timit_rev/s5/fbank/raw_fbank_train.1.ark:6005574
mkam0_sx326 /u/ravanelm//kaldi-trunk/egs/timit_rev/s5/fbank/raw_fbank_train.3.ark:6021156
fjlr0_si1231 /u/ravanelm//kaldi-trunk/egs/timit_rev/s5/fbank/raw_fbank_train.1.ark:5351804
falk0_si456 /u/ravanelm//kaldi-trunk/egs/timit_rev/s5/fbank/raw_fbank_train.1.ark:220934
fhxs0_sx175 /u/ravanelm//kaldi-trunk/egs/timit_rev/s5/fbank/raw_fbank_train.1.ark:4775550
fbjl0_sx22 /u/ravanelm//kaldi-trunk/egs/timit_rev/s5/fbank/raw_fbank_train.1.ark:901294
mwsh0_sx256 /u/ravanelm//kaldi-trunk/egs/timit_rev/s5/fbank/raw_fbank_train.4.ark:11505192
mfxs0_sx234 /u/ravanelm//kaldi-trunk/egs/timit_rev/s5/fbank/raw_fbank_train.2.ark:10813826
mtrc0_sx170 /u/ravanelm//kaldi-trunk/egs/timit_rev/s5/fbank/raw_fbank_train.4.ark:9759386
mtbc0_si1173 /u/ravanelm//kaldi-trunk/egs/timit_rev/s5/fbank/raw_fbank_train.4.ark:7565721
mmcc0_sx168 /u/ravanelm//kaldi-trunk/egs/timit_rev/s5/fbank/raw_fbank_train.3.ark:8550157
mjfh0_sx387 /u/ravanelm//kaldi-trunk/egs/timit_rev/s5/fbank/raw_fbank_train.3.ark:2953124
msat0_sx86 /u/ravanelm//kaldi-trunk/egs/timit_rev/s5/fbank/raw_fbank_train.4.ark:5488266
mfxv0_sx105 /u/ravanelm//kaldi-trunk/egs/timit_rev/s5/fbank/raw_fbank_train.2.ark:10913619
fetb0_si1778 /u/ravanelm//kaldi-trunk/egs/timit_rev/s5/fbank/raw_fbank_train.1.ark:3972865
mrmg0_si2340 /u/ravanelm//kaldi-trunk/egs/timit_rev/s5/fbank/raw_fbank_train.4.ark:3811218
fsag0_sx333 /u/ravanelm//kaldi-trunk/egs/timit_rev/s5/fbank/raw_fbank_train.1.ark:10943600
mdef0_si1563 /u/ravanelm//kaldi-trunk/egs/timit_rev/s5/fbank/raw_fbank_train.2.ark:6807502
fcjs0_sx437 /u/ravanelm//kaldi-trunk/egs/timit_rev/s5/fbank/raw_fbank_train.1.ark:1786874
mjws0_si1773 /u/ravanelm//kaldi-trunk/egs/timit_rev/s5/fbank/raw_fbank_train.3.ark:5257249
fclt0_sx268 /u/ravanelm//kaldi-trunk/egs/timit_rev/s5/fbank/raw_fbank_train.1.ark:1952298
mchl0_sx447 /u/ravanelm//kaldi-trunk/egs/timit_rev/s5/fbank/raw_fbank_train.2.ark:5212045
mtju0_sx220 /u/ravanelm//kaldi-trunk/egs/timit_rev/s5/fbank/raw_fbank_train.4.ark:8443654
mhbs0_sx135 /u/ravanelm//kaldi-trunk/egs/timit_rev/s5/fbank/raw_fbank_train.3.ark:956614
mdjm0_sx15 /u/ravanelm//kaldi-trunk/egs/timit_rev/s5/fbank/raw_fbank_train.2.ark:7240900
mdks0_sx346 /u/ravanelm//kaldi-trunk/egs/timit_rev/s5/fbank/raw_fbank_train.2.ark:7342280
mjwt0_sx391 /u/ravanelm//kaldi-trunk/egs/timit_rev/s5/fbank/raw_fbank_train.3.ark:5453591
mfwk0_si1249 /u/ravanelm//kaldi-trunk/egs/timit_rev/s5/fbank/raw_fbank_train.2.ark:10679387
mjwg0_si813 /u/ravanelm//kaldi-trunk/egs/timit_rev/s5/fbank/raw_fbank_train.3.ark:5141104
mklr0_si2319 /u/ravanelm//kaldi-trunk/egs/timit_rev/s5/fbank/raw_fbank_train.3.ark:6675071
maeb0_sx450 /u/ravanelm//kaldi-trunk/egs/timit_rev/s5/fbank/raw_fbank_train.2.ark:2381439
mjfh0_si1737 /u/ravanelm//kaldi-trunk/egs/timit_rev/s5/fbank/raw_fbank_train.3.ark:2894887
fljd0_sx256 /u/ravanelm//kaldi-trunk/egs/timit_rev/s5/fbank/raw_fbank_train.1.ark:7771277
mdss0_sx351 /u/ravanelm//kaldi-trunk/egs/timit_rev/s5/fbank/raw_fbank_train.2.ark:9044786
mkdb0_sx332 /u/ravanelm//kaldi-trunk/egs/timit_rev/s5/fbank/raw_fbank_train.3.ark:6116180
mdcd0_sx245 /u/ravanelm//kaldi-trunk/egs/timit_rev/s5/fbank/raw_fbank_train.2.ark:6447581
fkde0_si1771 /u/ravanelm//kaldi-trunk/egs/timit_rev/s5/fbank/raw_fbank_train.1.ark:6302543
mhrm0_si1475 /u/ravanelm//kaldi-trunk/egs/timit_rev/s5/fbank/raw_fbank_train.3.ark:1378280
fdnc0_sx108 /u/ravanelm//kaldi-trunk/egs/timit_rev/s5/fbank/raw_fbank_train.1.ark:3170210
mmea0_sx38 /u/ravanelm//kaldi-trunk/egs/timit_rev/s5/fbank/raw_fbank_train.3.ark:9145485
flet0_sx417 /u/ravanelm//kaldi-trunk/egs/timit_rev/s5/fbank/raw_fbank_train.1.ark:7493386
faem0_si2022 /u/ravanelm//kaldi-trunk/egs/timit_rev/s5/fbank/raw_fbank_train.1.ark:19327
fjlr0_si601 /u/ravanelm//kaldi-trunk/egs/timit_rev/s5/fbank/raw_fbank_train.1.ark:5376511
mrtc0_si828 /u/ravanelm//kaldi-trunk/egs/timit_rev/s5/fbank/raw_fbank_train.4.ark:4654141
fmpg0_sx162 /u/ravanelm//kaldi-trunk/egs/timit_rev/s5/fbank/raw_fbank_train.1.ark:9493746
fljd0_sx346 /u/ravanelm//kaldi-trunk/egs/timit_rev/s5/fbank/raw_fbank_train.1.ark:7781870
mmgk0_sx62 /u/ravanelm//kaldi-trunk/egs/timit_rev/s5/fbank/raw_fbank_train.3.ark:9515578
fklc1_sx148 /u/ravanelm//kaldi-trunk/egs/timit_rev/s5/fbank/raw_fbank_train.1.ark:6853176
mbml0_si1169 /u/ravanelm//kaldi-trunk/egs/timit_rev/s5/fbank/raw_fbank_train.2.ark:3937348
medr0_si1374 /u/ravanelm//kaldi-trunk/egs/timit_rev/s5/fbank/raw_fbank_train.2.ark:9638077
maeb0_sx180 /u/ravanelm//kaldi-trunk/egs/timit_rev/s5/fbank/raw_fbank_train.2.ark:2347740
mjac0_si2148 /u/ravanelm//kaldi-trunk/egs/timit_rev/s5/fbank/raw_fbank_train.3.ark:1677185
fjrb0_si672 /u/ravanelm//kaldi-trunk/egs/timit_rev/s5/fbank/raw_fbank_train.1.ark:5476736
msat1_si1073 /u/ravanelm//kaldi-trunk/egs/timit_rev/s5/fbank/raw_fbank_train.4.ark:5496060
mmws1_sx27 /u/ravanelm//kaldi-trunk/egs/timit_rev/s5/fbank/raw_fbank_train.3.ark:10407225
fjsk0_sx422 /u/ravanelm//kaldi-trunk/egs/timit_rev/s5/fbank/raw_fbank_train.1.ark:5753039
mcdd0_si883 /u/ravanelm//kaldi-trunk/egs/timit_rev/s5/fbank/raw_fbank_train.2.ark:4733452
fpaz0_sx243 /u/ravanelm//kaldi-trunk/egs/timit_rev/s5/fbank/raw_fbank_train.1.ark:10253034
msmr0_si1150 /u/ravanelm//kaldi-trunk/egs/timit_rev/s5/fbank/raw_fbank_train.4.ark:6539793
mcss0_si1380 /u/ravanelm//kaldi-trunk/egs/timit_rev/s5/fbank/raw_fbank_train.2.ark:5609571
flac0_si1339 /u/ravanelm//kaldi-trunk/egs/timit_rev/s5/fbank/raw_fbank_train.1.ark:7115751
mprk0_si1727 /u/ravanelm//kaldi-trunk/egs/timit_rev/s5/fbank/raw_fbank_train.4.ark:301348
mrkm0_sx97 /u/ravanelm//kaldi-trunk/egs/timit_rev/s5/fbank/raw_fbank_train.4.ark:3228165
fbcg1_sx442 /u/ravanelm//kaldi-trunk/egs/timit_rev/s5/fbank/raw_fbank_train.1.ark:706439
mrkm0_sx7 /u/ravanelm//kaldi-trunk/egs/timit_rev/s5/fbank/raw_fbank_train.4.ark:3214373
fsak0_sx400 /u/ravanelm//kaldi-trunk/egs/timit_rev/s5/fbank/raw_fbank_train.1.ark:11188355
fsdj0_si485 /u/ravanelm//kaldi-trunk/egs/timit_rev/s5/fbank/raw_fbank_train.1.ark:11547612
mljc0_sx55 /u/ravanelm//kaldi-trunk/egs/timit_rev/s5/fbank/raw_fbank_train.3.ark:7529757
mmsm0_sx296 /u/ravanelm//kaldi-trunk/egs/timit_rev/s5/fbank/raw_fbank_train.3.ark:10000110
mpfu0_si1258 /u/ravanelm//kaldi-trunk/egs/timit_rev/s5/fbank/raw_fbank_train.3.ark:10909360
mtpf0_si1865 /u/ravanelm//kaldi-trunk/egs/timit_rev/s5/fbank/raw_fbank_train.4.ark:9219836
mrwa0_si1603 /u/ravanelm//kaldi-trunk/egs/timit_rev/s5/fbank/raw_fbank_train.4.ark:4941029
mesg0_sx342 /u/ravanelm//kaldi-trunk/egs/timit_rev/s5/fbank/raw_fbank_train.2.ark:10186684
mmbs0_si521 /u/ravanelm//kaldi-trunk/egs/timit_rev/s5/fbank/raw_fbank_train.3.ark:8416499
ftaj0_sx429 /u/ravanelm//kaldi-trunk/egs/timit_rev/s5/fbank/raw_fbank_train.2.ark:1321244
mrkm0_sx277 /u/ravanelm//kaldi-trunk/egs/timit_rev/s5/fbank/raw_fbank_train.4.ark:3183949
mdwd0_sx450 /u/ravanelm//kaldi-trunk/egs/timit_rev/s5/fbank/raw_fbank_train.2.ark:9320895
msmr0_si1405 /u/ravanelm//kaldi-trunk/egs/timit_rev/s5/fbank/raw_fbank_train.4.ark:6560987
frjb0_sx347 /u/ravanelm//kaldi-trunk/egs/timit_rev/s5/fbank/raw_fbank_train.1.ark:10738031
fklc0_si1615 /u/ravanelm//kaldi-trunk/egs/timit_rev/s5/fbank/raw_fbank_train.1.ark:6715130
msds0_si1707 /u/ravanelm//kaldi-trunk/egs/timit_rev/s5/fbank/raw_fbank_train.4.ark:5786291
mwch0_sx452 /u/ravanelm//kaldi-trunk/egs/timit_rev/s5/fbank/raw_fbank_train.4.ark:10832124
fpjf0_sx236 /u/ravanelm//kaldi-trunk/egs/timit_rev/s5/fbank/raw_fbank_train.1.ark:10347659
mmar0_sx76 /u/ravanelm//kaldi-trunk/egs/timit_rev/s5/fbank/raw_fbank_train.3.ark:8383838
mjmm0_sx175 /u/ravanelm//kaldi-trunk/egs/timit_rev/s5/fbank/raw_fbank_train.3.ark:4087375
mpsw0_si2327 /u/ravanelm//kaldi-trunk/egs/timit_rev/s5/fbank/raw_fbank_train.4.ark:505351
mjrh1_sx244 /u/ravanelm//kaldi-trunk/egs/timit_rev/s5/fbank/raw_fbank_train.3.ark:4782024
mwac0_sx71 /u/ravanelm//kaldi-trunk/egs/timit_rev/s5/fbank/raw_fbank_train.4.ark:10590478
mjdg0_sx322 /u/ravanelm//kaldi-trunk/egs/timit_rev/s5/fbank/raw_fbank_train.3.ark:2441334
fhlm0_si1560 /u/ravanelm//kaldi-trunk/egs/timit_rev/s5/fbank/raw_fbank_train.1.ark:4614663
msmc0_si509 /u/ravanelm//kaldi-trunk/egs/timit_rev/s5/fbank/raw_fbank_train.4.ark:6449402
mmgc0_sx315 /u/ravanelm//kaldi-trunk/egs/timit_rev/s5/fbank/raw_fbank_train.3.ark:9317142
mmsm0_sx206 /u/ravanelm//kaldi-trunk/egs/timit_rev/s5/fbank/raw_fbank_train.3.ark:9974885
mwem0_sx240 /u/ravanelm//kaldi-trunk/egs/timit_rev/s5/fbank/raw_fbank_train.4.ark:10998749
fsjs0_si541 /u/ravanelm//kaldi-trunk/egs/timit_rev/s5/fbank/raw_fbank_train.2.ark:67611
mdem0_sx248 /u/ravanelm//kaldi-trunk/egs/timit_rev/s5/fbank/raw_fbank_train.2.ark:6939226
msms0_si1433 /u/ravanelm//kaldi-trunk/egs/timit_rev/s5/fbank/raw_fbank_train.4.ark:6637578
mrxb0_si2215 /u/ravanelm//kaldi-trunk/egs/timit_rev/s5/fbank/raw_fbank_train.4.ark:5132073
mtwh1_sx342 /u/ravanelm//kaldi-trunk/egs/timit_rev/s5/fbank/raw_fbank_train.4.ark:10056967
fdxw0_sx161 /u/ravanelm//kaldi-trunk/egs/timit_rev/s5/fbank/raw_fbank_train.1.ark:3373381
fmjb0_sx277 /u/ravanelm//kaldi-trunk/egs/timit_rev/s5/fbank/raw_fbank_train.1.ark:8884394
mrlj1_si1671 /u/ravanelm//kaldi-trunk/egs/timit_rev/s5/fbank/raw_fbank_train.4.ark:3414689
fpaz0_sx27 /u/ravanelm//kaldi-trunk/egs/timit_rev/s5/fbank/raw_fbank_train.1.ark:10265146
mbma0_si1222 /u/ravanelm//kaldi-trunk/egs/timit_rev/s5/fbank/raw_fbank_train.2.ark:3736458
fceg0_sx78 /u/ravanelm//kaldi-trunk/egs/timit_rev/s5/fbank/raw_fbank_train.1.ark:1635896
mkam0_sx236 /u/ravanelm//kaldi-trunk/egs/timit_rev/s5/fbank/raw_fbank_train.3.ark:6010883
mdbb1_sx16 /u/ravanelm//kaldi-trunk/egs/timit_rev/s5/fbank/raw_fbank_train.2.ark:6245690
fsbk0_si2329 /u/ravanelm//kaldi-trunk/egs/timit_rev/s5/fbank/raw_fbank_train.1.ark:11222177
mdma0_si1430 /u/ravanelm//kaldi-trunk/egs/timit_rev/s5/fbank/raw_fbank_train.2.ark:8202533
falr0_sx65 /u/ravanelm//kaldi-trunk/egs/timit_rev/s5/fbank/raw_fbank_train.1.ark:393554
mdlr1_sx309 /u/ravanelm//kaldi-trunk/egs/timit_rev/s5/fbank/raw_fbank_train.2.ark:8156440
msem1_si2070 /u/ravanelm//kaldi-trunk/egs/timit_rev/s5/fbank/raw_fbank_train.4.ark:5896157
fljd0_si2146 /u/ravanelm//kaldi-trunk/egs/timit_rev/s5/fbank/raw_fbank_train.1.ark:7737098
mjra0_sx336 /u/ravanelm//kaldi-trunk/egs/timit_rev/s5/fbank/raw_fbank_train.3.ark:4488981
fdxw0_sx71 /u/ravanelm//kaldi-trunk/egs/timit_rev/s5/fbank/raw_fbank_train.1.ark:3421512
mdlc0_sx135 /u/ravanelm//kaldi-trunk/egs/timit_rev/s5/fbank/raw_fbank_train.2.ark:7550104
mbsb0_si1983 /u/ravanelm//kaldi-trunk/egs/timit_rev/s5/fbank/raw_fbank_train.2.ark:4127834
fpab1_si2101 /u/ravanelm//kaldi-trunk/egs/timit_rev/s5/fbank/raw_fbank_train.1.ark:9776474
msmc0_sx287 /u/ravanelm//kaldi-trunk/egs/timit_rev/s5/fbank/raw_fbank_train.4.ark:6514966
mree0_si1959 /u/ravanelm//kaldi-trunk/egs/timit_rev/s5/fbank/raw_fbank_train.4.ark:1675974
fspm0_sx161 /u/ravanelm//kaldi-trunk/egs/timit_rev/s5/fbank/raw_fbank_train.2.ark:992630
fbmh0_si1766 /u/ravanelm//kaldi-trunk/egs/timit_rev/s5/fbank/raw_fbank_train.1.ark:1066534
mmrp0_sx54 /u/ravanelm//kaldi-trunk/egs/timit_rev/s5/fbank/raw_fbank_train.3.ark:9903718
mprt0_sx400 /u/ravanelm//kaldi-trunk/egs/timit_rev/s5/fbank/raw_fbank_train.4.ark:475729
flmk0_sx315 /u/ravanelm//kaldi-trunk/egs/timit_rev/s5/fbank/raw_fbank_train.1.ark:8295275
fmjb0_sx97 /u/ravanelm//kaldi-trunk/egs/timit_rev/s5/fbank/raw_fbank_train.1.ark:8920050
mfxv0_si1342 /u/ravanelm//kaldi-trunk/egs/timit_rev/s5/fbank/raw_fbank_train.2.ark:10887392
mpeb0_sx420 /u/ravanelm//kaldi-trunk/egs/timit_rev/s5/fbank/raw_fbank_train.3.ark:10881974
mdtb0_si1200 /u/ravanelm//kaldi-trunk/egs/timit_rev/s5/fbank/raw_fbank_train.2.ark:9166710
fdjh0_si1565 /u/ravanelm//kaldi-trunk/egs/timit_rev/s5/fbank/raw_fbank_train.1.ark:2692888
mtmt0_si1118 /u/ravanelm//kaldi-trunk/egs/timit_rev/s5/fbank/raw_fbank_train.4.ark:9107617
mppc0_si782 /u/ravanelm//kaldi-trunk/egs/timit_rev/s5/fbank/raw_fbank_train.3.ark:11481832
mjma0_si1495 /u/ravanelm//kaldi-trunk/egs/timit_rev/s5/fbank/raw_fbank_train.3.ark:3872544
fcmm0_sx273 /u/ravanelm//kaldi-trunk/egs/timit_rev/s5/fbank/raw_fbank_train.1.ark:2153789
frll0_sx344 /u/ravanelm//kaldi-trunk/egs/timit_rev/s5/fbank/raw_fbank_train.1.ark:10847975
fbmj0_sx66 /u/ravanelm//kaldi-trunk/egs/timit_rev/s5/fbank/raw_fbank_train.1.ark:1245595
fgmb0_sx65 /u/ravanelm//kaldi-trunk/egs/timit_rev/s5/fbank/raw_fbank_train.1.ark:4487523
mrws0_si1732 /u/ravanelm//kaldi-trunk/egs/timit_rev/s5/fbank/raw_fbank_train.4.ark:5053648
flhd0_si1344 /u/ravanelm//kaldi-trunk/egs/timit_rev/s5/fbank/raw_fbank_train.1.ark:7516492
mlns0_sx417 /u/ravanelm//kaldi-trunk/egs/timit_rev/s5/fbank/raw_fbank_train.3.ark:7737015
feme0_sx335 /u/ravanelm//kaldi-trunk/egs/timit_rev/s5/fbank/raw_fbank_train.1.ark:3920852
mtjg0_sx350 /u/ravanelm//kaldi-trunk/egs/timit_rev/s5/fbank/raw_fbank_train.4.ark:8143532
msfv0_si632 /u/ravanelm//kaldi-trunk/egs/timit_rev/s5/fbank/raw_fbank_train.4.ark:6246746
mstf0_sx316 /u/ravanelm//kaldi-trunk/egs/timit_rev/s5/fbank/raw_fbank_train.4.ark:6996217
flag0_sx24 /u/ravanelm//kaldi-trunk/egs/timit_rev/s5/fbank/raw_fbank_train.1.ark:7282901
mgxp0_sx277 /u/ravanelm//kaldi-trunk/egs/timit_rev/s5/fbank/raw_fbank_train.3.ark:867864
marc0_si1188 /u/ravanelm//kaldi-trunk/egs/timit_rev/s5/fbank/raw_fbank_train.2.ark:2992418
flag0_si2094 /u/ravanelm//kaldi-trunk/egs/timit_rev/s5/fbank/raw_fbank_train.1.ark:7228770
fssb0_si1712 /u/ravanelm//kaldi-trunk/egs/timit_rev/s5/fbank/raw_fbank_train.2.ark:1170054
mkag0_sx259 /u/ravanelm//kaldi-trunk/egs/timit_rev/s5/fbank/raw_fbank_train.3.ark:5717448
mjde0_sx40 /u/ravanelm//kaldi-trunk/egs/timit_rev/s5/fbank/raw_fbank_train.3.ark:2347900
fpad0_sx446 /u/ravanelm//kaldi-trunk/egs/timit_rev/s5/fbank/raw_fbank_train.1.ark:10070969
msmr0_sx55 /u/ravanelm//kaldi-trunk/egs/timit_rev/s5/fbank/raw_fbank_train.4.ark:6626024
mtwh1_sx432 /u/ravanelm//kaldi-trunk/egs/timit_rev/s5/fbank/raw_fbank_train.4.ark:10067600
mrlr0_si1196 /u/ravanelm//kaldi-trunk/egs/timit_rev/s5/fbank/raw_fbank_train.4.ark:3600260
fecd0_sx158 /u/ravanelm//kaldi-trunk/egs/timit_rev/s5/fbank/raw_fbank_train.1.ark:3687976
mchl0_sx267 /u/ravanelm//kaldi-trunk/egs/timit_rev/s5/fbank/raw_fbank_train.2.ark:5184579
mmag0_si1126 /u/ravanelm//kaldi-trunk/egs/timit_rev/s5/fbank/raw_fbank_train.3.ark:8076636
mjjb0_sx239 /u/ravanelm//kaldi-trunk/egs/timit_rev/s5/fbank/raw_fbank_train.3.ark:3222501
mjeb1_sx27 /u/ravanelm//kaldi-trunk/egs/timit_rev/s5/fbank/raw_fbank_train.3.ark:2752568
mdbp0_sx258 /u/ravanelm//kaldi-trunk/egs/timit_rev/s5/fbank/raw_fbank_train.2.ark:6340876
fsmm0_sx324 /u/ravanelm//kaldi-trunk/egs/timit_rev/s5/fbank/raw_fbank_train.2.ark:805646
mjbg0_sx242 /u/ravanelm//kaldi-trunk/egs/timit_rev/s5/fbank/raw_fbank_train.3.ark:2011960
falk0_sx276 /u/ravanelm//kaldi-trunk/egs/timit_rev/s5/fbank/raw_fbank_train.1.ark:262553
mjdm0_sx260 /u/ravanelm//kaldi-trunk/egs/timit_rev/s5/fbank/raw_fbank_train.3.ark:2527606
fear0_si1252 /u/ravanelm//kaldi-trunk/egs/timit_rev/s5/fbank/raw_fbank_train.1.ark:3532851
mjrk0_sx160 /u/ravanelm//kaldi-trunk/egs/timit_rev/s5/fbank/raw_fbank_train.3.ark:4857776
mcre0_sx24 /u/ravanelm//kaldi-trunk/egs/timit_rev/s5/fbank/raw_fbank_train.2.ark:5573592
ftmg0_si1532 /u/ravanelm//kaldi-trunk/egs/timit_rev/s5/fbank/raw_fbank_train.2.ark:1641464
fjhk0_si1652 /u/ravanelm//kaldi-trunk/egs/timit_rev/s5/fbank/raw_fbank_train.1.ark:5071801
mdlc2_si1614 /u/ravanelm//kaldi-trunk/egs/timit_rev/s5/fbank/raw_fbank_train.2.ark:7705615
mrlk0_sx303 /u/ravanelm//kaldi-trunk/egs/timit_rev/s5/fbank/raw_fbank_train.4.ark:3571441
mjmm0_sx265 /u/ravanelm//kaldi-trunk/egs/timit_rev/s5/fbank/raw_fbank_train.3.ark:4104048
mrhl0_sx75 /u/ravanelm//kaldi-trunk/egs/timit_rev/s5/fbank/raw_fbank_train.4.ark:2563416
mmaa0_sx395 /u/ravanelm//kaldi-trunk/egs/timit_rev/s5/fbank/raw_fbank_train.3.ark:7958737
mjee0_si1867 /u/ravanelm//kaldi-trunk/egs/timit_rev/s5/fbank/raw_fbank_train.3.ark:2799502
mtab0_sx222 /u/ravanelm//kaldi-trunk/egs/timit_rev/s5/fbank/raw_fbank_train.4.ark:7220434
fskl0_si1529 /u/ravanelm//kaldi-trunk/egs/timit_rev/s5/fbank/raw_fbank_train.2.ark:347179
fljg0_si981 /u/ravanelm//kaldi-trunk/egs/timit_rev/s5/fbank/raw_fbank_train.1.ark:7838516
fmmh0_si1537 /u/ravanelm//kaldi-trunk/egs/timit_rev/s5/fbank/raw_fbank_train.1.ark:9345143
mmws0_sx438 /u/ravanelm//kaldi-trunk/egs/timit_rev/s5/fbank/raw_fbank_train.3.ark:10340026
mjxa0_sx247 /u/ravanelm//kaldi-trunk/egs/timit_rev/s5/fbank/raw_fbank_train.3.ark:5509318
fspm0_sx341 /u/ravanelm//kaldi-trunk/egs/timit_rev/s5/fbank/raw_fbank_train.2.ark:1026096
fdxw0_si1511 /u/ravanelm//kaldi-trunk/egs/timit_rev/s5/fbank/raw_fbank_train.1.ark:3343801
mmrp0_sx414 /u/ravanelm//kaldi-trunk/egs/timit_rev/s5/fbank/raw_fbank_train.3.ark:9889766
mrjt0_sx238 /u/ravanelm//kaldi-trunk/egs/timit_rev/s5/fbank/raw_fbank_train.4.ark:3057644
fkaa0_si578 /u/ravanelm//kaldi-trunk/egs/timit_rev/s5/fbank/raw_fbank_train.1.ark:6199071
fdaw0_sx326 /u/ravanelm//kaldi-trunk/egs/timit_rev/s5/fbank/raw_fbank_train.1.ark:2572723
fcrz0_sx433 /u/ravanelm//kaldi-trunk/egs/timit_rev/s5/fbank/raw_fbank_train.1.ark:2271400
freh0_si685 /u/ravanelm//kaldi-trunk/egs/timit_rev/s5/fbank/raw_fbank_train.1.ark:10632786
mefg0_si465 /u/ravanelm//kaldi-trunk/egs/timit_rev/s5/fbank/raw_fbank_train.2.ark:9725021
mjsr0_sx434 /u/ravanelm//kaldi-trunk/egs/timit_rev/s5/fbank/raw_fbank_train.3.ark:5102725
mdrd0_sx302 /u/ravanelm//kaldi-trunk/egs/timit_rev/s5/fbank/raw_fbank_train.2.ark:8858136
faem0_sx402 /u/ravanelm//kaldi-trunk/egs/timit_rev/s5/fbank/raw_fbank_train.1.ark:78172
mdlh0_sx430 /u/ravanelm//kaldi-trunk/egs/timit_rev/s5/fbank/raw_fbank_train.2.ark:7874398
mrml0_sx431 /u/ravanelm//kaldi-trunk/egs/timit_rev/s5/fbank/raw_fbank_train.4.ark:4076161
fsdj0_sx125 /u/ravanelm//kaldi-trunk/egs/timit_rev/s5/fbank/raw_fbank_train.1.ark:11556085
mstf0_sx226 /u/ravanelm//kaldi-trunk/egs/timit_rev/s5/fbank/raw_fbank_train.4.ark:6984424
mgsl0_sx174 /u/ravanelm//kaldi-trunk/egs/timit_rev/s5/fbank/raw_fbank_train.3.ark:740407
mtcs0_sx82 /u/ravanelm//kaldi-trunk/egs/timit_rev/s5/fbank/raw_fbank_train.4.ark:7750417
fpad0_si1976 /u/ravanelm//kaldi-trunk/egs/timit_rev/s5/fbank/raw_fbank_train.1.ark:9998244
flma0_sx343 /u/ravanelm//kaldi-trunk/egs/timit_rev/s5/fbank/raw_fbank_train.1.ark:8098824
msds0_si2337 /u/ravanelm//kaldi-trunk/egs/timit_rev/s5/fbank/raw_fbank_train.4.ark:5800285
mmeb0_si1987 /u/ravanelm//kaldi-trunk/egs/timit_rev/s5/fbank/raw_fbank_train.3.ark:9183506
mjpm0_sx108 /u/ravanelm//kaldi-trunk/egs/timit_rev/s5/fbank/raw_fbank_train.3.ark:4272785
milb0_sx363 /u/ravanelm//kaldi-trunk/egs/timit_rev/s5/fbank/raw_fbank_train.3.ark:1645365
flac0_sx91 /u/ravanelm//kaldi-trunk/egs/timit_rev/s5/fbank/raw_fbank_train.1.ark:7197662
mmpm0_si1061 /u/ravanelm//kaldi-trunk/egs/timit_rev/s5/fbank/raw_fbank_train.3.ark:9712502
mrew1_sx150 /u/ravanelm//kaldi-trunk/egs/timit_rev/s5/fbank/raw_fbank_train.4.ark:1987841
mrai0_sx72 /u/ravanelm//kaldi-trunk/egs/timit_rev/s5/fbank/raw_fbank_train.4.ark:864389
fpmy0_si1783 /u/ravanelm//kaldi-trunk/egs/timit_rev/s5/fbank/raw_fbank_train.1.ark:10506928
mhit0_si983 /u/ravanelm//kaldi-trunk/egs/timit_rev/s5/fbank/raw_fbank_train.3.ark:1026886
mkdt0_sx83 /u/ravanelm//kaldi-trunk/egs/timit_rev/s5/fbank/raw_fbank_train.3.ark:6347054
mwre0_si1687 /u/ravanelm//kaldi-trunk/egs/timit_rev/s5/fbank/raw_fbank_train.4.ark:11172100
mmds0_sx443 /u/ravanelm//kaldi-trunk/egs/timit_rev/s5/fbank/raw_fbank_train.3.ark:9062901
mdlr0_si1863 /u/ravanelm//kaldi-trunk/egs/timit_rev/s5/fbank/raw_fbank_train.2.ark:7999443
mjxl0_sx182 /u/ravanelm//kaldi-trunk/egs/timit_rev/s5/fbank/raw_fbank_train.3.ark:5595230
mmrp0_si2034 /u/ravanelm//kaldi-trunk/egs/timit_rev/s5/fbank/raw_fbank_train.3.ark:9812768
mrld0_sx64 /u/ravanelm//kaldi-trunk/egs/timit_rev/s5/fbank/raw_fbank_train.4.ark:3315750
flma0_si613 /u/ravanelm//kaldi-trunk/egs/timit_rev/s5/fbank/raw_fbank_train.1.ark:8067645
mdpb0_si866 /u/ravanelm//kaldi-trunk/egs/timit_rev/s5/fbank/raw_fbank_train.2.ark:8531522
mses0_sx239 /u/ravanelm//kaldi-trunk/egs/timit_rev/s5/fbank/raw_fbank_train.4.ark:6058322
fjsp0_sx354 /u/ravanelm//kaldi-trunk/egs/timit_rev/s5/fbank/raw_fbank_train.1.ark:5839591
mjpg0_sx201 /u/ravanelm//kaldi-trunk/egs/timit_rev/s5/fbank/raw_fbank_train.3.ark:4193873
fjen0_si2307 /u/ravanelm//kaldi-trunk/egs/timit_rev/s5/fbank/raw_fbank_train.1.ark:4971449
mmdm1_sx153 /u/ravanelm//kaldi-trunk/egs/timit_rev/s5/fbank/raw_fbank_train.3.ark:8928537
medr0_si2004 /u/ravanelm//kaldi-trunk/egs/timit_rev/s5/fbank/raw_fbank_train.2.ark:9647431
mcth0_si1839 /u/ravanelm//kaldi-trunk/egs/timit_rev/s5/fbank/raw_fbank_train.2.ark:5726949
fgdp0_sx178 /u/ravanelm//kaldi-trunk/egs/timit_rev/s5/fbank/raw_fbank_train.1.ark:4307327
mrbc0_sx329 /u/ravanelm//kaldi-trunk/egs/timit_rev/s5/fbank/raw_fbank_train.4.ark:1118241
mdbp0_si1788 /u/ravanelm//kaldi-trunk/egs/timit_rev/s5/fbank/raw_fbank_train.2.ark:6296857
freh0_si1315 /u/ravanelm//kaldi-trunk/egs/timit_rev/s5/fbank/raw_fbank_train.1.ark:10601759
mbjv0_sx257 /u/ravanelm//kaldi-trunk/egs/timit_rev/s5/fbank/raw_fbank_train.2.ark:3692806
mrjm1_si1928 /u/ravanelm//kaldi-trunk/egs/timit_rev/s5/fbank/raw_fbank_train.4.ark:2925880
msrg0_sx231 /u/ravanelm//kaldi-trunk/egs/timit_rev/s5/fbank/raw_fbank_train.4.ark:6786896
mges0_sx311 /u/ravanelm//kaldi-trunk/egs/timit_rev/s5/fbank/raw_fbank_train.3.ark:236510
ftbw0_si1975 /u/ravanelm//kaldi-trunk/egs/timit_rev/s5/fbank/raw_fbank_train.2.ark:1447209
mmaa0_sx305 /u/ravanelm//kaldi-trunk/egs/timit_rev/s5/fbank/raw_fbank_train.3.ark:7937112
mdbb1_si1636 /u/ravanelm//kaldi-trunk/egs/timit_rev/s5/fbank/raw_fbank_train.2.ark:6213191
mges0_si851 /u/ravanelm//kaldi-trunk/egs/timit_rev/s5/fbank/raw_fbank_train.3.ark:205091
mcef0_si1135 /u/ravanelm//kaldi-trunk/egs/timit_rev/s5/fbank/raw_fbank_train.2.ark:4912995
mrjt0_sx58 /u/ravanelm//kaldi-trunk/egs/timit_rev/s5/fbank/raw_fbank_train.4.ark:3097182
mrjt0_si1805 /u/ravanelm//kaldi-trunk/egs/timit_rev/s5/fbank/raw_fbank_train.4.ark:3022945
fjrp1_si802 /u/ravanelm//kaldi-trunk/egs/timit_rev/s5/fbank/raw_fbank_train.1.ark:5584721
mdem0_si1868 /u/ravanelm//kaldi-trunk/egs/timit_rev/s5/fbank/raw_fbank_train.2.ark:6878254
mjjm0_si1251 /u/ravanelm//kaldi-trunk/egs/timit_rev/s5/fbank/raw_fbank_train.3.ark:3384618
mzmb0_sx86 /u/ravanelm//kaldi-trunk/egs/timit_rev/s5/fbank/raw_fbank_train.4.ark:11647275
mrxb0_sx145 /u/ravanelm//kaldi-trunk/egs/timit_rev/s5/fbank/raw_fbank_train.4.ark:5167579
fsjs0_sx451 /u/ravanelm//kaldi-trunk/egs/timit_rev/s5/fbank/raw_fbank_train.2.ark:121743
mmdm1_sx333 /u/ravanelm//kaldi-trunk/egs/timit_rev/s5/fbank/raw_fbank_train.3.ark:8959483
mejs0_sx430 /u/ravanelm//kaldi-trunk/egs/timit_rev/s5/fbank/raw_fbank_train.2.ark:10105412
mjpg0_si1191 /u/ravanelm//kaldi-trunk/egs/timit_rev/s5/fbank/raw_fbank_train.3.ark:4143660
mwgr0_si976 /u/ravanelm//kaldi-trunk/egs/timit_rev/s5/fbank/raw_fbank_train.4.ark:11080668
mclm0_sx376 /u/ravanelm//kaldi-trunk/egs/timit_rev/s5/fbank/raw_fbank_train.2.ark:5411207
mwar0_sx145 /u/ravanelm//kaldi-trunk/egs/timit_rev/s5/fbank/raw_fbank_train.4.ark:10717679
mejl0_sx62 /u/ravanelm//kaldi-trunk/egs/timit_rev/s5/fbank/raw_fbank_train.2.ark:10017379
mrjh0_si889 /u/ravanelm//kaldi-trunk/egs/timit_rev/s5/fbank/raw_fbank_train.4.ark:2707989
mcth0_sx309 /u/ravanelm//kaldi-trunk/egs/timit_rev/s5/fbank/raw_fbank_train.2.ark:5774081
mdlm0_sx64 /u/ravanelm//kaldi-trunk/egs/timit_rev/s5/fbank/raw_fbank_train.2.ark:7974455
mejl0_sx242 /u/ravanelm//kaldi-trunk/egs/timit_rev/s5/fbank/raw_fbank_train.2.ark:9981641
fsrh0_sx131 /u/ravanelm//kaldi-trunk/egs/timit_rev/s5/fbank/raw_fbank_train.2.ark:1086455
ftbw0_si1345 /u/ravanelm//kaldi-trunk/egs/timit_rev/s5/fbank/raw_fbank_train.2.ark:1437855
falr0_si1325 /u/ravanelm//kaldi-trunk/egs/timit_rev/s5/fbank/raw_fbank_train.1.ark:310923
