mjxl0_sx272 quick_test/fbank/raw_fbank_train.3.ark:5605023
mdma0_sx170 quick_test/fbank/raw_fbank_train.2.ark:8229120
fspm0_sx161 quick_test/fbank/raw_fbank_train.2.ark:992630
mrcg0_sx78 quick_test/fbank/raw_fbank_train.4.ark:1261331
mjbg0_si1232 quick_test/fbank/raw_fbank_train.3.ark:1966906
mrmh0_sx301 quick_test/fbank/raw_fbank_train.4.ark:3950783
mtdb0_si2031 quick_test/fbank/raw_fbank_train.4.ark:7779405
flja0_si2338 quick_test/fbank/raw_fbank_train.1.ark:7639826
mtxs0_sx340 quick_test/fbank/raw_fbank_train.4.ark:10164473
msrg0_si1221 quick_test/fbank/raw_fbank_train.4.ark:6736443
ftmg0_sx452 quick_test/fbank/raw_fbank_train.2.ark:1712543
mdwd0_sx270 quick_test/fbank/raw_fbank_train.2.ark:9300709
fbch0_si959 quick_test/fbank/raw_fbank_train.1.ark:759051
maeb0_sx90 quick_test/fbank/raw_fbank_train.2.ark:2394111
mklw0_sx41 quick_test/fbank/raw_fbank_train.3.ark:7029952
mrwa0_si2233 quick_test/fbank/raw_fbank_train.4.ark:4950903
mdwd0_si1260 quick_test/fbank/raw_fbank_train.2.ark:9251096
mrmg0_sx180 quick_test/fbank/raw_fbank_train.4.ark:3825691
mcef0_si1135 quick_test/fbank/raw_fbank_train.2.ark:4912995
mlel0_si1246 quick_test/fbank/raw_fbank_train.3.ark:7328621
mcth0_sx309 quick_test/fbank/raw_fbank_train.2.ark:5774081
msfh0_sx46 quick_test/fbank/raw_fbank_train.4.ark:6209605
mbth0_sx392 quick_test/fbank/raw_fbank_train.2.ark:4279213
msem1_sx270 quick_test/fbank/raw_fbank_train.4.ark:5961536
fjxm0_si1211 quick_test/fbank/raw_fbank_train.1.ark:5969794
mwem0_sx420 quick_test/fbank/raw_fbank_train.4.ark:11025415
fjsk0_si1682 quick_test/fbank/raw_fbank_train.1.ark:5695913
mmsm0_sx116 quick_test/fbank/raw_fbank_train.3.ark:9965492
mcae0_si817 quick_test/fbank/raw_fbank_train.2.ark:4440259
fsgf0_si1557 quick_test/fbank/raw_fbank_train.1.ark:11605690
mbbr0_sx425 quick_test/fbank/raw_fbank_train.2.ark:3349133
mbma0_si1222 quick_test/fbank/raw_fbank_train.2.ark:3736458
mmrp0_sx54 quick_test/fbank/raw_fbank_train.3.ark:9903718
mtdb0_sx141 quick_test/fbank/raw_fbank_train.4.ark:7805471
mdlc1_sx85 quick_test/fbank/raw_fbank_train.2.ark:7696541
mdlb0_sx406 quick_test/fbank/raw_fbank_train.2.ark:7474218
fleh0_sx241 quick_test/fbank/raw_fbank_train.1.ark:7372095
mmea0_sx38 quick_test/fbank/raw_fbank_train.3.ark:9145485
mmds0_sx263 quick_test/fbank/raw_fbank_train.3.ark:9044275
fsak0_sx220 quick_test/fbank/raw_fbank_train.1.ark:11149057
mdef0_si2193 quick_test/fbank/raw_fbank_train.2.ark:6818696
msdh0_si2240 quick_test/fbank/raw_fbank_train.4.ark:5668386
mrcw0_sx291 quick_test/fbank/raw_fbank_train.4.ark:1345803
mtxs0_sx160 quick_test/fbank/raw_fbank_train.4.ark:10133927
flma0_sx343 quick_test/fbank/raw_fbank_train.1.ark:8098824
falr0_si1955 quick_test/fbank/raw_fbank_train.1.ark:324237
mrmg0_sx90 quick_test/fbank/raw_fbank_train.4.ark:3876542
mljc0_si1225 quick_test/fbank/raw_fbank_train.3.ark:7441846
mcal0_sx238 quick_test/fbank/raw_fbank_train.2.ark:4564708
mrai0_si1954 quick_test/fbank/raw_fbank_train.4.ark:765438
fblv0_si1058 quick_test/fbank/raw_fbank_train.1.ark:941034
flhd0_si1974 quick_test/fbank/raw_fbank_train.1.ark:7534840
mtmn0_si1064 quick_test/fbank/raw_fbank_train.4.ark:9001032
mdlc0_sx45 quick_test/fbank/raw_fbank_train.2.ark:7596475
mdlc1_sx265 quick_test/fbank/raw_fbank_train.2.ark:7666283
mrlk0_sx213 quick_test/fbank/raw_fbank_train.4.ark:3562688
mmgk0_sx422 quick_test/fbank/raw_fbank_train.3.ark:9503346
mmdm1_sx243 quick_test/fbank/raw_fbank_train.3.ark:8947210
fltm0_sx80 quick_test/fbank/raw_fbank_train.1.ark:8514792
mkes0_sx263 quick_test/fbank/raw_fbank_train.3.ark:6418661
mrds0_sx357 quick_test/fbank/raw_fbank_train.4.ark:1612607
mjrh1_sx154 quick_test/fbank/raw_fbank_train.3.ark:4770031
mrab1_sx398 quick_test/fbank/raw_fbank_train.4.ark:752604
mwar0_sx325 quick_test/fbank/raw_fbank_train.4.ark:10740145
mtrc0_si589 quick_test/fbank/raw_fbank_train.4.ark:9734520
fpad0_sx446 quick_test/fbank/raw_fbank_train.1.ark:10070969
mjpg0_sx111 quick_test/fbank/raw_fbank_train.3.ark:4185320
mwch0_sx272 quick_test/fbank/raw_fbank_train.4.ark:10810778
mrhl0_sx75 quick_test/fbank/raw_fbank_train.4.ark:2563416
fjen0_sx237 quick_test/fbank/raw_fbank_train.1.ark:5000475
mtdp0_si1274 quick_test/fbank/raw_fbank_train.4.ark:7861996
flmc0_si2002 quick_test/fbank/raw_fbank_train.1.ark:8149397
mvlo0_sx337 quick_test/fbank/raw_fbank_train.4.ark:10363003
fvkb0_si1789 quick_test/fbank/raw_fbank_train.2.ark:1835469
mvrw0_sx135 quick_test/fbank/raw_fbank_train.4.ark:10434242
fdtd0_si931 quick_test/fbank/raw_fbank_train.1.ark:3261722
mrsp0_sx259 quick_test/fbank/raw_fbank_train.4.ark:4582255
fcyl0_sx37 quick_test/fbank/raw_fbank_train.1.ark:2375024
mlns0_si2037 quick_test/fbank/raw_fbank_train.3.ark:7679730
mafm0_sx309 quick_test/fbank/raw_fbank_train.2.ark:2549497
fsrh0_si1719 quick_test/fbank/raw_fbank_train.2.ark:1059315
mlns0_si777 quick_test/fbank/raw_fbank_train.3.ark:7694323
mrlk0_si2140 quick_test/fbank/raw_fbank_train.4.ark:3520149
fclt0_sx448 quick_test/fbank/raw_fbank_train.1.ark:1975924
mfxs0_sx324 quick_test/fbank/raw_fbank_train.2.ark:10826939
mtjs0_sx202 quick_test/fbank/raw_fbank_train.4.ark:8347589
mrjh0_sx307 quick_test/fbank/raw_fbank_train.4.ark:2768801
mbbr0_si2315 quick_test/fbank/raw_fbank_train.2.ark:3301561
mtpr0_sx250 quick_test/fbank/raw_fbank_train.4.ark:9539690
fbcg1_si1612 quick_test/fbank/raw_fbank_train.1.ark:633960
mdtb0_sx390 quick_test/fbank/raw_fbank_train.2.ark:9241062
mbef0_si1911 quick_test/fbank/raw_fbank_train.2.ark:3471977
fbcg1_sx172 quick_test/fbank/raw_fbank_train.1.ark:665060
fsah0_si614 quick_test/fbank/raw_fbank_train.1.ark:11021206
mkls0_si2067 quick_test/fbank/raw_fbank_train.3.ark:6767537
mdcm0_sx130 quick_test/fbank/raw_fbank_train.2.ark:6533693
mrld0_sx244 quick_test/fbank/raw_fbank_train.4.ark:3285972
mmar0_sx346 quick_test/fbank/raw_fbank_train.3.ark:8354733
fjrb0_sx222 quick_test/fbank/raw_fbank_train.1.ark:5493002
msds0_si2337 quick_test/fbank/raw_fbank_train.4.ark:5800285
mwdk0_sx86 quick_test/fbank/raw_fbank_train.4.ark:10945381
fpaf0_sx424 quick_test/fbank/raw_fbank_train.1.ark:10171995
fmjf0_sx354 quick_test/fbank/raw_fbank_train.1.ark:8994410
mdlr1_si1299 quick_test/fbank/raw_fbank_train.2.ark:8088394
mwgr0_sx346 quick_test/fbank/raw_fbank_train.4.ark:11121327
mkln0_sx428 quick_test/fbank/raw_fbank_train.3.ark:6625697
fpmy0_sx343 quick_test/fbank/raw_fbank_train.1.ark:10574733
marc0_sx198 quick_test/fbank/raw_fbank_train.2.ark:3040583
ftmg0_si1532 quick_test/fbank/raw_fbank_train.2.ark:1641464
mrlj1_si2332 quick_test/fbank/raw_fbank_train.4.ark:3442757
mjls0_sx286 quick_test/fbank/raw_fbank_train.3.ark:3844277
mpgr1_sx419 quick_test/fbank/raw_fbank_train.3.ark:11266394
mmdm1_si783 quick_test/fbank/raw_fbank_train.3.ark:8917784
mdpk0_sx153 quick_test/fbank/raw_fbank_train.2.ark:8634060
mtbc0_sx93 quick_test/fbank/raw_fbank_train.4.ark:7654032
mdhl0_sx359 quick_test/fbank/raw_fbank_train.2.ark:7056644
fpaf0_sx334 quick_test/fbank/raw_fbank_train.1.ark:10160162
fmmh0_sx187 quick_test/fbank/raw_fbank_train.1.ark:9388123
milb0_sx363 quick_test/fbank/raw_fbank_train.3.ark:1645365
mjdc0_si531 quick_test/fbank/raw_fbank_train.3.ark:2171065
madc0_si1997 quick_test/fbank/raw_fbank_train.2.ark:2121984
mrjh0_si914 quick_test/fbank/raw_fbank_train.4.ark:2727422
fsjk1_sx125 quick_test/fbank/raw_fbank_train.1.ark:11874760
mlsh0_si1417 quick_test/fbank/raw_fbank_train.3.ark:7760321
msfh0_sx316 quick_test/fbank/raw_fbank_train.4.ark:6180380
faem0_sx42 quick_test/fbank/raw_fbank_train.1.ark:91084
mfxv0_sx105 quick_test/fbank/raw_fbank_train.2.ark:10913619
mtmt0_si1748 quick_test/fbank/raw_fbank_train.4.ark:9119451
mddc0_sx429 quick_test/fbank/raw_fbank_train.2.ark:6659777
mntw0_si1068 quick_test/fbank/raw_fbank_train.3.ark:10627364
mhmg0_si735 quick_test/fbank/raw_fbank_train.3.ark:1207017
fscn0_sx86 quick_test/fbank/raw_fbank_train.1.ark:11416885
mrjh0_sx259 quick_test/fbank/raw_fbank_train.4.ark:2754928
mrsp0_sx439 quick_test/fbank/raw_fbank_train.4.ark:4594248
mrmb0_si951 quick_test/fbank/raw_fbank_train.4.ark:3715992
mrhl0_si1515 quick_test/fbank/raw_fbank_train.4.ark:2482145
fpac0_si1921 quick_test/fbank/raw_fbank_train.1.ark:9877265
mkdd0_sx307 quick_test/fbank/raw_fbank_train.3.ark:6223285
fgmb0_si1145 quick_test/fbank/raw_fbank_train.1.ark:4384012
mrjm0_si1858 quick_test/fbank/raw_fbank_train.4.ark:2827928
msem1_si810 quick_test/fbank/raw_fbank_train.4.ark:5918310
fdxw0_si2141 quick_test/fbank/raw_fbank_train.1.ark:3352235
fcyl0_sx397 quick_test/fbank/raw_fbank_train.1.ark:2385857
fsjw0_sx253 quick_test/fbank/raw_fbank_train.2.ark:205502
mjac0_si2148 quick_test/fbank/raw_fbank_train.3.ark:1677185
mrab0_si1224 quick_test/fbank/raw_fbank_train.4.ark:564788
falr0_si1325 quick_test/fbank/raw_fbank_train.1.ark:310923
mkln0_si968 quick_test/fbank/raw_fbank_train.3.ark:6578405
mntw0_sx258 quick_test/fbank/raw_fbank_train.3.ark:10694731
ftaj0_sx249 quick_test/fbank/raw_fbank_train.2.ark:1304138
mbar0_sx149 quick_test/fbank/raw_fbank_train.2.ark:3211368
fsag0_si693 quick_test/fbank/raw_fbank_train.1.ark:10899381
mmlm0_sx267 quick_test/fbank/raw_fbank_train.3.ark:9669130
mdlr0_sx153 quick_test/fbank/raw_fbank_train.2.ark:8018749
mkah0_sx178 quick_test/fbank/raw_fbank_train.3.ark:5799319
mvjh0_sx386 quick_test/fbank/raw_fbank_train.4.ark:10289923
mrdd0_sx277 quick_test/fbank/raw_fbank_train.4.ark:1422717
makb0_sx296 quick_test/fbank/raw_fbank_train.2.ark:2789221
mgrl0_sx237 quick_test/fbank/raw_fbank_train.3.ark:434928
mgag0_si691 quick_test/fbank/raw_fbank_train.2.ark:11075875
mtjs0_sx292 quick_test/fbank/raw_fbank_train.4.ark:8365414
mmcc0_si1338 quick_test/fbank/raw_fbank_train.3.ark:8509457
mded0_sx180 quick_test/fbank/raw_fbank_train.2.ark:6726543
mtat0_sx300 quick_test/fbank/raw_fbank_train.4.ark:7431149
fjhk0_si2282 quick_test/fbank/raw_fbank_train.1.ark:5078435
mdss0_si621 quick_test/fbank/raw_fbank_train.2.ark:9014327
mtwh1_sx72 quick_test/fbank/raw_fbank_train.4.ark:10081832
mtat1_si1627 quick_test/fbank/raw_fbank_train.4.ark:7463730
mtbc0_si543 quick_test/fbank/raw_fbank_train.4.ark:7584028
fjlg0_sx269 quick_test/fbank/raw_fbank_train.1.ark:5299992
mrjt0_sx148 quick_test/fbank/raw_fbank_train.4.ark:3047651
fklh0_sx87 quick_test/fbank/raw_fbank_train.1.ark:7006332
mtmt0_sx398 quick_test/fbank/raw_fbank_train.4.ark:9192728
mjls0_si1726 quick_test/fbank/raw_fbank_train.3.ark:3783393
fjlr0_si1231 quick_test/fbank/raw_fbank_train.1.ark:5351804
mmar0_sx256 quick_test/fbank/raw_fbank_train.3.ark:8340380
marc0_sx378 quick_test/fbank/raw_fbank_train.2.ark:3061329
mrgs0_si1356 quick_test/fbank/raw_fbank_train.4.ark:2371122
mdlm0_sx244 quick_test/fbank/raw_fbank_train.2.ark:7945037
mrkm0_si637 quick_test/fbank/raw_fbank_train.4.ark:3152843
mrem0_si1591 quick_test/fbank/raw_fbank_train.4.ark:1859037
fsjw0_si1963 quick_test/fbank/raw_fbank_train.2.ark:171363
mfwk0_sx439 quick_test/fbank/raw_fbank_train.2.ark:10750346
mlsh0_sx337 quick_test/fbank/raw_fbank_train.3.ark:7828927
mtpf0_sx245 quick_test/fbank/raw_fbank_train.4.ark:9253775
mcal0_sx58 quick_test/fbank/raw_fbank_train.2.ark:4604566
fexm0_sx201 quick_test/fbank/raw_fbank_train.1.ark:4116669
mdrd0_sx32 quick_test/fbank/raw_fbank_train.2.ark:8870608
mdss0_sx351 quick_test/fbank/raw_fbank_train.2.ark:9044786
mkaj0_sx334 quick_test/fbank/raw_fbank_train.3.ark:5923130
fmmh0_si1537 quick_test/fbank/raw_fbank_train.1.ark:9345143
mpgh0_sx294 quick_test/fbank/raw_fbank_train.3.ark:11081622
milb0_si807 quick_test/fbank/raw_fbank_train.3.ark:1584722
mkag0_sx30 quick_test/fbank/raw_fbank_train.3.ark:5730640
fskp0_si468 quick_test/fbank/raw_fbank_train.2.ark:474431
fsah0_si1244 quick_test/fbank/raw_fbank_train.1.ark:10996139
mtlc0_sx307 quick_test/fbank/raw_fbank_train.4.ark:8866707
fsmm0_si1314 quick_test/fbank/raw_fbank_train.2.ark:744920
mzmb0_si536 quick_test/fbank/raw_fbank_train.4.ark:11582431
mjwt0_sx31 quick_test/fbank/raw_fbank_train.3.ark:5443958
mdhl0_sx269 quick_test/fbank/raw_fbank_train.2.ark:7048731
makb0_si1646 quick_test/fbank/raw_fbank_train.2.ark:2717336
mgak0_sx226 quick_test/fbank/raw_fbank_train.2.ark:11202487
mrab1_si848 quick_test/fbank/raw_fbank_train.4.ark:687480
mbwp0_si1531 quick_test/fbank/raw_fbank_train.2.ark:4292407
mree0_si1104 quick_test/fbank/raw_fbank_train.4.ark:1644066
mejs0_sx430 quick_test/fbank/raw_fbank_train.2.ark:10105412
fcmm0_si453 quick_test/fbank/raw_fbank_train.1.ark:2135483
mjpm0_sx378 quick_test/fbank/raw_fbank_train.3.ark:4319756
mrkm0_si1267 quick_test/fbank/raw_fbank_train.4.ark:3113696
mmeb0_si1987 quick_test/fbank/raw_fbank_train.3.ark:9183506
fmbg0_sx440 quick_test/fbank/raw_fbank_train.1.ark:8693169
mvrw0_si1485 quick_test/fbank/raw_fbank_train.4.ark:10400422
mpsw0_sx24 quick_test/fbank/raw_fbank_train.4.ark:525896
mgsh0_sx96 quick_test/fbank/raw_fbank_train.3.ark:685074
fecd0_sx248 quick_test/fbank/raw_fbank_train.1.ark:3698529
mmlm0_si897 quick_test/fbank/raw_fbank_train.3.ark:9651504
fjhk0_si1652 quick_test/fbank/raw_fbank_train.1.ark:5071801
fmjb0_si547 quick_test/fbank/raw_fbank_train.1.ark:8862808
mgxp0_sx97 quick_test/fbank/raw_fbank_train.3.ark:905040
mgaf0_si1282 quick_test/fbank/raw_fbank_train.2.ark:10965064
fscn0_si626 quick_test/fbank/raw_fbank_train.1.ark:11320768
fjlr0_si1861 quick_test/fbank/raw_fbank_train.1.ark:5369398
mtqc0_sx91 quick_test/fbank/raw_fbank_train.4.ark:9711293
fdjh0_sx125 quick_test/fbank/raw_fbank_train.1.ark:2732588
mjmd0_sx398 quick_test/fbank/raw_fbank_train.3.ark:4039721
mram0_si1951 quick_test/fbank/raw_fbank_train.4.ark:896611
fjrp1_sx442 quick_test/fbank/raw_fbank_train.1.ark:5648933
mjrh1_sx334 quick_test/fbank/raw_fbank_train.3.ark:4795337
mjjm0_sx197 quick_test/fbank/raw_fbank_train.3.ark:3449743
mkdb0_sx422 quick_test/fbank/raw_fbank_train.3.ark:6129293
fjxp0_sx132 quick_test/fbank/raw_fbank_train.1.ark:6118439
mgxp0_si525 quick_test/fbank/raw_fbank_train.3.ark:839438
fljd0_si886 quick_test/fbank/raw_fbank_train.1.ark:7747051
mgsh0_si1806 quick_test/fbank/raw_fbank_train.3.ark:611999
mwar0_sx415 quick_test/fbank/raw_fbank_train.4.ark:10749418
mhbs0_sx405 quick_test/fbank/raw_fbank_train.3.ark:986353
mbma0_si1852 quick_test/fbank/raw_fbank_train.2.ark:3755892
mclm0_sx16 quick_test/fbank/raw_fbank_train.2.ark:5382588
fcjf0_sx217 quick_test/fbank/raw_fbank_train.1.ark:1689503
frjb0_sx257 quick_test/fbank/raw_fbank_train.1.ark:10729838
mwac0_sx161 quick_test/fbank/raw_fbank_train.4.ark:10524227
mmeb0_sx97 quick_test/fbank/raw_fbank_train.3.ark:9246861
mtmn0_sx434 quick_test/fbank/raw_fbank_train.4.ark:9085511
mjdg0_sx52 quick_test/fbank/raw_fbank_train.3.ark:2461719
mmaa0_sx215 quick_test/fbank/raw_fbank_train.3.ark:7924039
mprt0_sx310 quick_test/fbank/raw_fbank_train.4.ark:454184
mjmd0_si1658 quick_test/fbank/raw_fbank_train.3.ark:3975083
fdtd0_sx121 quick_test/fbank/raw_fbank_train.1.ark:3273435
flod0_sx207 quick_test/fbank/raw_fbank_train.1.ark:8392020
mrjm0_sx238 quick_test/fbank/raw_fbank_train.4.ark:2855794
mdlc0_si765 quick_test/fbank/raw_fbank_train.2.ark:7540791
mdmt0_sx212 quick_test/fbank/raw_fbank_train.2.ark:8353098
mcae0_sx187 quick_test/fbank/raw_fbank_train.2.ark:4457132
mrlj0_sx160 quick_test/fbank/raw_fbank_train.4.ark:3362204
meal0_sx287 quick_test/fbank/raw_fbank_train.2.ark:9603457
mejs0_si1870 quick_test/fbank/raw_fbank_train.2.ark:10045887
mdhs0_si1530 quick_test/fbank/raw_fbank_train.2.ark:7097743
mwar0_si1675 quick_test/fbank/raw_fbank_train.4.ark:10696892
mbml0_sx359 quick_test/fbank/raw_fbank_train.2.ark:3989274
mcdd0_si2143 quick_test/fbank/raw_fbank_train.2.ark:4722179
fkkh0_sx30 quick_test/fbank/raw_fbank_train.1.ark:6683510
fjlg0_si1506 quick_test/fbank/raw_fbank_train.1.ark:5253818
fklh0_sx447 quick_test/fbank/raw_fbank_train.1.ark:6995180
fjdm2_sx232 quick_test/fbank/raw_fbank_train.1.ark:4892729
mjjm0_si827 quick_test/fbank/raw_fbank_train.3.ark:3419405
mjhi0_sx338 quick_test/fbank/raw_fbank_train.3.ark:3133268
mfxv0_sx195 quick_test/fbank/raw_fbank_train.2.ark:10933004
fsms1_si1504 quick_test/fbank/raw_fbank_train.2.ark:851665
mjwt0_sx211 quick_test/fbank/raw_fbank_train.3.ark:5416453
majp0_sx264 quick_test/fbank/raw_fbank_train.2.ark:2638810
mprk0_sx377 quick_test/fbank/raw_fbank_train.4.ark:382745
marw0_sx376 quick_test/fbank/raw_fbank_train.2.ark:3163994
msfh0_sx226 quick_test/fbank/raw_fbank_train.4.ark:6165867
fsbk0_sx439 quick_test/fbank/raw_fbank_train.1.ark:11278269
mjmm0_si1885 quick_test/fbank/raw_fbank_train.3.ark:4069029
mdtb0_si1830 quick_test/fbank/raw_fbank_train.2.ark:9174784
faem0_si762 quick_test/fbank/raw_fbank_train.1.ark:28600
fcdr1_sx376 quick_test/fbank/raw_fbank_train.1.ark:1547351
msrg0_si1851 quick_test/fbank/raw_fbank_train.4.ark:6752317
mjjj0_sx353 quick_test/fbank/raw_fbank_train.3.ark:3349959
mclk0_sx40 quick_test/fbank/raw_fbank_train.2.ark:5312549
mkam0_sx146 quick_test/fbank/raw_fbank_train.3.ark:6000610
mdhl0_sx179 quick_test/fbank/raw_fbank_train.2.ark:7036298
medr0_sx204 quick_test/fbank/raw_fbank_train.2.ark:9689970
mgaw0_sx355 quick_test/fbank/raw_fbank_train.3.ark:167045
mtrt0_si1227 quick_test/fbank/raw_fbank_train.4.ark:9909656
mpeb0_sx240 quick_test/fbank/raw_fbank_train.3.ark:10858908
fmjb0_sx277 quick_test/fbank/raw_fbank_train.1.ark:8884394
mtju0_si760 quick_test/fbank/raw_fbank_train.4.ark:8420548
mabc0_sx331 quick_test/fbank/raw_fbank_train.2.ark:2073531
fgdp0_si1618 quick_test/fbank/raw_fbank_train.1.ark:4267507
fsag0_sx333 quick_test/fbank/raw_fbank_train.1.ark:10943600
mkls1_sx195 quick_test/fbank/raw_fbank_train.3.ark:6909060
mjfr0_si2235 quick_test/fbank/raw_fbank_train.3.ark:2977472
mdac0_si1837 quick_test/fbank/raw_fbank_train.2.ark:6015024
mlbc0_sx159 quick_test/fbank/raw_fbank_train.3.ark:7274056
mdlc2_sx354 quick_test/fbank/raw_fbank_train.2.ark:7759621
mrso0_sx129 quick_test/fbank/raw_fbank_train.4.ark:4444884
mwrp0_sx183 quick_test/fbank/raw_fbank_train.4.ark:11299673
fljd0_si2146 quick_test/fbank/raw_fbank_train.1.ark:7737098
mjbg0_si1724 quick_test/fbank/raw_fbank_train.3.ark:1980860
mbwp0_sx259 quick_test/fbank/raw_fbank_train.2.ark:4335260
fsls0_si1686 quick_test/fbank/raw_fbank_train.2.ark:551303
mcss0_si750 quick_test/fbank/raw_fbank_train.2.ark:5646477
mklw0_sx131 quick_test/fbank/raw_fbank_train.3.ark:6975781
mmrp0_sx414 quick_test/fbank/raw_fbank_train.3.ark:9889766
mcef0_sx145 quick_test/fbank/raw_fbank_train.2.ark:4952655
mcdd0_sx73 quick_test/fbank/raw_fbank_train.2.ark:4790696
mmdb0_si1358 quick_test/fbank/raw_fbank_train.3.ark:8607522
fdkn0_sx361 quick_test/fbank/raw_fbank_train.1.ark:2857400
mdbp0_sx258 quick_test/fbank/raw_fbank_train.2.ark:6340876
mbbr0_sx335 quick_test/fbank/raw_fbank_train.2.ark:3331620
mmdb0_sx267 quick_test/fbank/raw_fbank_train.3.ark:8652975
madd0_sx88 quick_test/fbank/raw_fbank_train.2.ark:2293726
mjee0_si1867 quick_test/fbank/raw_fbank_train.3.ark:2799502
mwdk0_si806 quick_test/fbank/raw_fbank_train.4.ark:10882937
mrgs0_sx96 quick_test/fbank/raw_fbank_train.4.ark:2470391
mjls0_si466 quick_test/fbank/raw_fbank_train.3.ark:3806186
mjdc0_sx171 quick_test/fbank/raw_fbank_train.3.ark:2194778
fexm0_sx111 quick_test/fbank/raw_fbank_train.1.ark:4104076
mppc0_sx422 quick_test/fbank/raw_fbank_train.4.ark:24198
fspm0_si1241 quick_test/fbank/raw_fbank_train.2.ark:950410
feme0_sx245 quick_test/fbank/raw_fbank_train.1.ark:3909579
mklr0_sx159 quick_test/fbank/raw_fbank_train.3.ark:6682224
mpgr1_sx329 quick_test/fbank/raw_fbank_train.3.ark:11251521
mjsr0_sx74 quick_test/fbank/raw_fbank_train.3.ark:5116117
mtpp0_sx68 quick_test/fbank/raw_fbank_train.4.ark:9471083
mgaf0_si1912 quick_test/fbank/raw_fbank_train.2.ark:10981818
mtrr0_sx108 quick_test/fbank/raw_fbank_train.4.ark:9848491
mtrr0_sx378 quick_test/fbank/raw_fbank_train.4.ark:9895502
mmar0_si1966 quick_test/fbank/raw_fbank_train.3.ark:8289281
fpaf0_sx154 quick_test/fbank/raw_fbank_train.1.ark:10134736
mtkd0_sx377 quick_test/fbank/raw_fbank_train.4.ark:8587137
fcjf0_si1027 quick_test/fbank/raw_fbank_train.1.ark:1644050
mrlr0_si1826 quick_test/fbank/raw_fbank_train.4.ark:3618054
mdlb0_si1306 quick_test/fbank/raw_fbank_train.2.ark:7383979
mdlc0_sx315 quick_test/fbank/raw_fbank_train.2.ark:7573010
mefg0_si491 quick_test/fbank/raw_fbank_train.2.ark:9736414
fljd0_sx436 quick_test/fbank/raw_fbank_train.1.ark:7795623
marc0_sx18 quick_test/fbank/raw_fbank_train.2.ark:3030950
fdxw0_sx161 quick_test/fbank/raw_fbank_train.1.ark:3373381
mdrd0_si2012 quick_test/fbank/raw_fbank_train.2.ark:8794964
mrds0_sx87 quick_test/fbank/raw_fbank_train.4.ark:1635112
mnet0_sx366 quick_test/fbank/raw_fbank_train.3.ark:10593587
mtbc0_sx363 quick_test/fbank/raw_fbank_train.4.ark:7639320
mmxs0_sx426 quick_test/fbank/raw_fbank_train.3.ark:10517075
mtqc0_si480 quick_test/fbank/raw_fbank_train.4.ark:9633249
mgar0_sx42 quick_test/fbank/raw_fbank_train.3.ark:89405
mjee0_sx247 quick_test/fbank/raw_fbank_train.3.ark:2829761
fcmg0_sx72 quick_test/fbank/raw_fbank_train.1.ark:2097942
mtat1_sx239 quick_test/fbank/raw_fbank_train.4.ark:7507629
fcyl0_sx217 quick_test/fbank/raw_fbank_train.1.ark:2348999
fkkh0_si1290 quick_test/fbank/raw_fbank_train.1.ark:6608865
mkah0_sx88 quick_test/fbank/raw_fbank_train.3.ark:5851650
mtlc0_sx127 quick_test/fbank/raw_fbank_train.4.ark:8851801
mjxa0_sx337 quick_test/fbank/raw_fbank_train.3.ark:5524311
fmah1_sx339 quick_test/fbank/raw_fbank_train.1.ark:8585032
fbjl0_sx202 quick_test/fbank/raw_fbank_train.1.ark:894582
maeo0_sx426 quick_test/fbank/raw_fbank_train.2.ark:2475505
mljh0_si694 quick_test/fbank/raw_fbank_train.3.ark:7581698
fpmy0_sx163 quick_test/fbank/raw_fbank_train.1.ark:10541914
mdlr0_sx423 quick_test/fbank/raw_fbank_train.2.ark:8062848
mbsb0_si1983 quick_test/fbank/raw_fbank_train.2.ark:4127834
mjrg0_sx352 quick_test/fbank/raw_fbank_train.3.ark:4600078
mfxs0_si2225 quick_test/fbank/raw_fbank_train.2.ark:10785646
mmsm0_si1736 quick_test/fbank/raw_fbank_train.3.ark:9936746
mrdm0_sx155 quick_test/fbank/raw_fbank_train.4.ark:1497276
mrwa0_si1603 quick_test/fbank/raw_fbank_train.4.ark:4941029
mtkp0_sx33 quick_test/fbank/raw_fbank_train.4.ark:8683729
mtml0_sx255 quick_test/fbank/raw_fbank_train.4.ark:8949900
mdjm0_sx15 quick_test/fbank/raw_fbank_train.2.ark:7240900
mclk0_sx310 quick_test/fbank/raw_fbank_train.2.ark:5303037
ftmg0_sx362 quick_test/fbank/raw_fbank_train.2.ark:1699310
mdwm0_sx433 quick_test/fbank/raw_fbank_train.2.ark:9546137
mmpm0_sx431 quick_test/fbank/raw_fbank_train.3.ark:9789702
fmjb0_si1807 quick_test/fbank/raw_fbank_train.1.ark:8847335
mbml0_si1169 quick_test/fbank/raw_fbank_train.2.ark:3937348
mprt0_si580 quick_test/fbank/raw_fbank_train.4.ark:420045
fmkf0_sx96 quick_test/fbank/raw_fbank_train.1.ark:9331749
mhjb0_si1017 quick_test/fbank/raw_fbank_train.3.ark:1105444
mejs0_sx160 quick_test/fbank/raw_fbank_train.2.ark:10067273
mrdd0_sx60 quick_test/fbank/raw_fbank_train.4.ark:1444982
mtwh1_sx342 quick_test/fbank/raw_fbank_train.4.ark:10056967
mjai0_sx164 quick_test/fbank/raw_fbank_train.3.ark:1917181
fmjf0_si624 quick_test/fbank/raw_fbank_train.1.ark:8947831
mejl0_sx152 quick_test/fbank/raw_fbank_train.2.ark:9971288
fsah0_sx434 quick_test/fbank/raw_fbank_train.1.ark:11080938
ftaj0_sx69 quick_test/fbank/raw_fbank_train.2.ark:1330876
mmsm0_sx386 quick_test/fbank/raw_fbank_train.3.ark:10010583
mmws1_sx261 quick_test/fbank/raw_fbank_train.3.ark:10399313
flma0_sx253 quick_test/fbank/raw_fbank_train.1.ark:8090831
msms0_sx173 quick_test/fbank/raw_fbank_train.4.ark:6678998
flac0_sx91 quick_test/fbank/raw_fbank_train.1.ark:7197662
mdlc0_sx135 quick_test/fbank/raw_fbank_train.2.ark:7550104
fklc1_sx58 quick_test/fbank/raw_fbank_train.1.ark:6903627
mdef0_sx123 quick_test/fbank/raw_fbank_train.2.ark:6828569
fdaw0_si1406 quick_test/fbank/raw_fbank_train.1.ark:2521750
mjrp0_si1845 quick_test/fbank/raw_fbank_train.3.ark:4923295
mrhl0_sx345 quick_test/fbank/raw_fbank_train.4.ark:2538671
mjrk0_si2103 quick_test/fbank/raw_fbank_train.3.ark:4833230
mrmh0_si1349 quick_test/fbank/raw_fbank_train.4.ark:3901410
msat1_sx353 quick_test/fbank/raw_fbank_train.4.ark:5556787
mjmd0_sx308 quick_test/fbank/raw_fbank_train.3.ark:4017416
mmws0_si1518 quick_test/fbank/raw_fbank_train.3.ark:10270828
fscn0_si1886 quick_test/fbank/raw_fbank_train.1.ark:11309495
mhmg0_sx375 quick_test/fbank/raw_fbank_train.3.ark:1263821
mwsb0_sx96 quick_test/fbank/raw_fbank_train.4.ark:11430545
mtjs0_sx22 quick_test/fbank/raw_fbank_train.4.ark:8356581
mvrw0_si855 quick_test/fbank/raw_fbank_train.4.ark:10421329
fpac0_si661 quick_test/fbank/raw_fbank_train.1.ark:9906572
fklc1_sx148 quick_test/fbank/raw_fbank_train.1.ark:6853176
fkkh0_sx300 quick_test/fbank/raw_fbank_train.1.ark:6692303
mrcw0_si741 quick_test/fbank/raw_fbank_train.4.ark:1300672
fpjf0_sx146 quick_test/fbank/raw_fbank_train.1.ark:10338106
mjxa0_si2137 quick_test/fbank/raw_fbank_train.3.ark:5479179
mfrm0_sx165 quick_test/fbank/raw_fbank_train.2.ark:10622382
maeo0_sx66 quick_test/fbank/raw_fbank_train.2.ark:2490137
fdmy0_sx297 quick_test/fbank/raw_fbank_train.1.ark:3093002
fklc1_sx328 quick_test/fbank/raw_fbank_train.1.ark:6875762
mpeb0_si1034 quick_test/fbank/raw_fbank_train.3.ark:10819455
fjrp1_sx82 quick_test/fbank/raw_fbank_train.1.ark:5663005
mchl0_sx447 quick_test/fbank/raw_fbank_train.2.ark:5212045
msmr0_sx325 quick_test/fbank/raw_fbank_train.4.ark:6606479
mtrt0_sx147 quick_test/fbank/raw_fbank_train.4.ark:9953556
fntb0_si573 quick_test/fbank/raw_fbank_train.1.ark:9679329
mjdc0_sx81 quick_test/fbank/raw_fbank_train.3.ark:2237549
fsdc0_sx142 quick_test/fbank/raw_fbank_train.1.ark:11461660
mmdb0_si987 quick_test/fbank/raw_fbank_train.3.ark:8628829
fjen0_sx417 quick_test/fbank/raw_fbank_train.1.ark:5030861
mtat1_sx419 quick_test/fbank/raw_fbank_train.4.ark:7540975
msem1_si1440 quick_test/fbank/raw_fbank_train.4.ark:5882843
mjac0_sx71 quick_test/fbank/raw_fbank_train.3.ark:1753782
mtqc0_sx361 quick_test/fbank/raw_fbank_train.4.ark:9675308
mjhi0_si555 quick_test/fbank/raw_fbank_train.3.ark:3092336
faem0_sx312 quick_test/fbank/raw_fbank_train.1.ark:62819
fpaz0_sx243 quick_test/fbank/raw_fbank_train.1.ark:10253034
mrjm0_sx418 quick_test/fbank/raw_fbank_train.4.ark:2880660
mzmb0_sx356 quick_test/fbank/raw_fbank_train.4.ark:11622890
fskp0_si1098 quick_test/fbank/raw_fbank_train.2.ark:446364
mdbb1_sx106 quick_test/fbank/raw_fbank_train.2.ark:6236418
fmah1_si1509 quick_test/fbank/raw_fbank_train.1.ark:8523346
mdbb1_si1636 quick_test/fbank/raw_fbank_train.2.ark:6213191
fbmh0_si1136 quick_test/fbank/raw_fbank_train.1.ark:1048380
mtkd0_si1817 quick_test/fbank/raw_fbank_train.4.ark:8502300
fleh0_si2311 quick_test/fbank/raw_fbank_train.1.ark:7349149
mrjm1_sx218 quick_test/fbank/raw_fbank_train.4.ark:2959139
flma0_sx73 quick_test/fbank/raw_fbank_train.1.ark:8123249
mdns0_sx111 quick_test/fbank/raw_fbank_train.2.ark:8449450
fjdm2_sx322 quick_test/fbank/raw_fbank_train.1.ark:4908882
mdns0_si873 quick_test/fbank/raw_fbank_train.2.ark:8430657
mpmb0_sx61 quick_test/fbank/raw_fbank_train.3.ark:11435171
mvjh0_si1556 quick_test/fbank/raw_fbank_train.4.ark:10205492
mcef0_sx325 quick_test/fbank/raw_fbank_train.2.ark:4974081
mrml0_sx251 quick_test/fbank/raw_fbank_train.4.ark:4043055
mjws0_sx63 quick_test/fbank/raw_fbank_train.3.ark:5342046
mmab1_sx144 quick_test/fbank/raw_fbank_train.3.ark:8007751
fsmm0_sx324 quick_test/fbank/raw_fbank_train.2.ark:805646
mtrr0_sx18 quick_test/fbank/raw_fbank_train.4.ark:9859963
mpsw0_si1697 quick_test/fbank/raw_fbank_train.4.ark:495317
mjwt0_si1381 quick_test/fbank/raw_fbank_train.3.ark:5372234
falr0_si695 quick_test/fbank/raw_fbank_train.1.ark:334750
megj0_sx257 quick_test/fbank/raw_fbank_train.2.ark:9896538
mbml0_sx179 quick_test/fbank/raw_fbank_train.2.ark:3968008
feac0_sx165 quick_test/fbank/raw_fbank_train.1.ark:3470486
mrjh0_sx79 quick_test/fbank/raw_fbank_train.4.ark:2792386
mmgg0_sx359 quick_test/fbank/raw_fbank_train.3.ark:9407528
mdlb0_si676 quick_test/fbank/raw_fbank_train.2.ark:7420246
mrmb0_sx231 quick_test/fbank/raw_fbank_train.4.ark:3744258
mprk0_sx287 quick_test/fbank/raw_fbank_train.4.ark:366032
mrai0_sx72 quick_test/fbank/raw_fbank_train.4.ark:864389
mmws0_sx348 quick_test/fbank/raw_fbank_train.3.ark:10327433
fbas0_si1387 quick_test/fbank/raw_fbank_train.1.ark:527214
mcdr0_sx74 quick_test/fbank/raw_fbank_train.2.ark:4902161
mmlm0_sx447 quick_test/fbank/raw_fbank_train.3.ark:9693956
mjjm0_si1251 quick_test/fbank/raw_fbank_train.3.ark:3384618
mbsb0_si1353 quick_test/fbank/raw_fbank_train.2.ark:4112320
fsdc0_si1312 quick_test/fbank/raw_fbank_train.1.ark:11428079
mrfl0_sx166 quick_test/fbank/raw_fbank_train.4.ark:2183012
mrtj0_sx412 quick_test/fbank/raw_fbank_train.4.ark:4824418
mrso0_si1659 quick_test/fbank/raw_fbank_train.4.ark:4417737
fetb0_si1148 quick_test/fbank/raw_fbank_train.1.ark:3962311
mkln0_si2228 quick_test/fbank/raw_fbank_train.3.ark:6568972
mded0_si1170 quick_test/fbank/raw_fbank_train.2.ark:6681163
mpeb0_sx60 quick_test/fbank/raw_fbank_train.3.ark:10896086
mejl0_sx242 quick_test/fbank/raw_fbank_train.2.ark:9981641
mwsh0_sx256 quick_test/fbank/raw_fbank_train.4.ark:11505192
mwre0_sx337 quick_test/fbank/raw_fbank_train.4.ark:11216473
fmkc0_sx352 quick_test/fbank/raw_fbank_train.1.ark:9200381
mjpg0_sx21 quick_test/fbank/raw_fbank_train.3.ark:4203145
mcdr0_si1784 quick_test/fbank/raw_fbank_train.2.ark:4817964
mrfk0_si2336 quick_test/fbank/raw_fbank_train.4.ark:2074954
mtpg0_si753 quick_test/fbank/raw_fbank_train.4.ark:9321854
mmcc0_sx438 quick_test/fbank/raw_fbank_train.3.ark:8582536
mmcc0_si708 quick_test/fbank/raw_fbank_train.3.ark:8537044
fnkl0_sx196 quick_test/fbank/raw_fbank_train.1.ark:9625124
fjxm0_si581 quick_test/fbank/raw_fbank_train.1.ark:5990461
msds0_si1707 quick_test/fbank/raw_fbank_train.4.ark:5786291
mrlj0_sx70 quick_test/fbank/raw_fbank_train.4.ark:3409655
mrxb0_si955 quick_test/fbank/raw_fbank_train.4.ark:5150746
mtml0_si2325 quick_test/fbank/raw_fbank_train.4.ark:8921634
mjrg0_sx106 quick_test/fbank/raw_fbank_train.3.ark:4567020
fsdj0_si485 quick_test/fbank/raw_fbank_train.1.ark:11547612
mrjb1_si2021 quick_test/fbank/raw_fbank_train.4.ark:2608238
mfer0_sx322 quick_test/fbank/raw_fbank_train.2.ark:10450837
flmk0_sx405 quick_test/fbank/raw_fbank_train.1.ark:8306948
fdml0_si1779 quick_test/fbank/raw_fbank_train.1.ark:2915533
mkes0_sx83 quick_test/fbank/raw_fbank_train.3.ark:6455119
mrds0_sx447 quick_test/fbank/raw_fbank_train.4.ark:1625840
mjde0_sx310 quick_test/fbank/raw_fbank_train.3.ark:2332388
mmxs0_sx156 quick_test/fbank/raw_fbank_train.3.ark:10479576
fcmm0_sx363 quick_test/fbank/raw_fbank_train.1.ark:2164022
mjrh1_sx244 quick_test/fbank/raw_fbank_train.3.ark:4782024
mrjt0_sx238 quick_test/fbank/raw_fbank_train.4.ark:3057644
fpmy0_si1783 quick_test/fbank/raw_fbank_train.1.ark:10506928
mabc0_sx241 quick_test/fbank/raw_fbank_train.2.ark:2065258
mbef0_sx21 quick_test/fbank/raw_fbank_train.2.ark:3515748
mklw0_si1571 quick_test/fbank/raw_fbank_train.3.ark:6940600
mfer0_sx412 quick_test/fbank/raw_fbank_train.2.ark:10459630
mwre0_sx67 quick_test/fbank/raw_fbank_train.4.ark:11238058
mfmc0_sx52 quick_test/fbank/raw_fbank_train.2.ark:10571367
fsma0_sx271 quick_test/fbank/raw_fbank_train.2.ark:691908
mfxv0_si1342 quick_test/fbank/raw_fbank_train.2.ark:10887392
mbar0_si1319 quick_test/fbank/raw_fbank_train.2.ark:3176028
mlbc0_si1869 quick_test/fbank/raw_fbank_train.3.ark:7249590
mdss1_si1327 quick_test/fbank/raw_fbank_train.2.ark:9076685
mwsb0_sx276 quick_test/fbank/raw_fbank_train.4.ark:11400089
mbom0_si1644 quick_test/fbank/raw_fbank_train.2.ark:4042007
mrjm0_sx58 quick_test/fbank/raw_fbank_train.4.ark:2894092
mwad0_sx342 quick_test/fbank/raw_fbank_train.4.ark:10647799
mjai0_sx254 quick_test/fbank/raw_fbank_train.3.ark:1930614
mreh1_sx249 quick_test/fbank/raw_fbank_train.4.ark:1808265
fjsk0_sx62 quick_test/fbank/raw_fbank_train.1.ark:5767711
mdss1_sx337 quick_test/fbank/raw_fbank_train.2.ark:9135251
mewm0_sx358 quick_test/fbank/raw_fbank_train.2.ark:10364772
fdml0_sx339 quick_test/fbank/raw_fbank_train.1.ark:2952626
mgar0_si1212 quick_test/fbank/raw_fbank_train.3.ark:13
fmkc0_sx172 quick_test/fbank/raw_fbank_train.1.ark:9174915
mges0_si851 quick_test/fbank/raw_fbank_train.3.ark:205091
mrvg0_sx420 quick_test/fbank/raw_fbank_train.4.ark:4914443
mfxv0_sx15 quick_test/fbank/raw_fbank_train.2.ark:10922931
fdfb0_sx238 quick_test/fbank/raw_fbank_train.1.ark:2648116
mdwm0_sx376 quick_test/fbank/raw_fbank_train.2.ark:9534864
mtwh1_sx162 quick_test/fbank/raw_fbank_train.4.ark:10035181
fetb0_sx428 quick_test/fbank/raw_fbank_train.1.ark:4034550
msdb0_sx17 quick_test/fbank/raw_fbank_train.4.ark:5631579
mjdg0_si1042 quick_test/fbank/raw_fbank_train.3.ark:2378207
mrmh0_sx31 quick_test/fbank/raw_fbank_train.4.ark:3962455
fceg0_si618 quick_test/fbank/raw_fbank_train.1.ark:1580492
mvlo0_sx247 quick_test/fbank/raw_fbank_train.4.ark:10348410
fjsp0_si804 quick_test/fbank/raw_fbank_train.1.ark:5801932
mtat1_sx329 quick_test/fbank/raw_fbank_train.4.ark:7523022
mkam0_sx236 quick_test/fbank/raw_fbank_train.3.ark:6010883
mcss0_sx300 quick_test/fbank/raw_fbank_train.2.ark:5690608
mkdt0_sx173 quick_test/fbank/raw_fbank_train.3.ark:6294643
mrwa0_si973 quick_test/fbank/raw_fbank_train.4.ark:4965096
mklw0_sx311 quick_test/fbank/raw_fbank_train.3.ark:6998967
mrld0_si1594 quick_test/fbank/raw_fbank_train.4.ark:3239599
mrpc1_si1482 quick_test/fbank/raw_fbank_train.4.ark:4193853
mbsb0_sx3 quick_test/fbank/raw_fbank_train.2.ark:4163884
frjb0_sx167 quick_test/fbank/raw_fbank_train.1.ark:10715085
mmdm1_sx153 quick_test/fbank/raw_fbank_train.3.ark:8928537
mrfl0_sx436 quick_test/fbank/raw_fbank_train.4.ark:2227351
fsjs0_sx361 quick_test/fbank/raw_fbank_train.2.ark:110990
mmgc0_si2184 quick_test/fbank/raw_fbank_train.3.ark:9288883
mlel0_sx76 quick_test/fbank/raw_fbank_train.3.ark:7428092
fhxs0_si2302 quick_test/fbank/raw_fbank_train.1.ark:4735363
fkfb0_sx438 quick_test/fbank/raw_fbank_train.1.ark:6572919
fcrz0_si793 quick_test/fbank/raw_fbank_train.1.ark:2228108
mtjg0_si2157 quick_test/fbank/raw_fbank_train.4.ark:8093040
fskl0_sx89 quick_test/fbank/raw_fbank_train.2.ark:434970
mmea0_si2018 quick_test/fbank/raw_fbank_train.3.ark:9096761
mbjv0_si1247 quick_test/fbank/raw_fbank_train.2.ark:3645553
mljc0_sx235 quick_test/fbank/raw_fbank_train.3.ark:7495619
mbml0_sx449 quick_test/fbank/raw_fbank_train.2.ark:4003587
mdhs0_si2160 quick_test/fbank/raw_fbank_train.2.ark:7108297
flet0_sx147 quick_test/fbank/raw_fbank_train.1.ark:7466647
fcag0_sx423 quick_test/fbank/raw_fbank_train.1.ark:1321949
mbar0_sx419 quick_test/fbank/raw_fbank_train.2.ark:3253107
mjee0_si607 quick_test/fbank/raw_fbank_train.3.ark:2811095
fjsk0_sx152 quick_test/fbank/raw_fbank_train.1.ark:5714700
mtrc0_si993 quick_test/fbank/raw_fbank_train.4.ark:9751193
mtpp0_sx158 quick_test/fbank/raw_fbank_train.4.ark:9424552
mjde0_sx40 quick_test/fbank/raw_fbank_train.3.ark:2347900
mrav0_si1638 quick_test/fbank/raw_fbank_train.4.ark:977803
fmpg0_sx432 quick_test/fbank/raw_fbank_train.1.ark:9541085
mjxl0_si542 quick_test/fbank/raw_fbank_train.3.ark:5583517
fljg0_si2241 quick_test/fbank/raw_fbank_train.1.ark:7829443
faem0_si2022 quick_test/fbank/raw_fbank_train.1.ark:19327
mtpf0_si1235 quick_test/fbank/raw_fbank_train.4.ark:9206402
mapv0_sx123 quick_test/fbank/raw_fbank_train.2.ark:2934013
mtrt0_sx417 quick_test/fbank/raw_fbank_train.4.ark:9980815
mmds0_sx443 quick_test/fbank/raw_fbank_train.3.ark:9062901
mdlh0_sx160 quick_test/fbank/raw_fbank_train.2.ark:7830179
mjjj0_si1793 quick_test/fbank/raw_fbank_train.3.ark:3296307
mmdm0_si681 quick_test/fbank/raw_fbank_train.3.ark:8830839
mprd0_si801 quick_test/fbank/raw_fbank_train.4.ark:188756
fbch0_si956 quick_test/fbank/raw_fbank_train.1.ark:747058
mjeb1_si837 quick_test/fbank/raw_fbank_train.3.ark:2712550
frll0_sx254 quick_test/fbank/raw_fbank_train.1.ark:10837622
mtat0_si811 quick_test/fbank/raw_fbank_train.4.ark:7385138
mpgr1_si1269 quick_test/fbank/raw_fbank_train.3.ark:11190114
mjfh0_sx387 quick_test/fbank/raw_fbank_train.3.ark:2953124
mmag0_si1756 quick_test/fbank/raw_fbank_train.3.ark:8090110
mhjb0_sx297 quick_test/fbank/raw_fbank_train.3.ark:1167003
fdtd0_sx211 quick_test/fbank/raw_fbank_train.1.ark:3286828
fnkl0_sx262 quick_test/fbank/raw_fbank_train.1.ark:9632677
fssb0_si1082 quick_test/fbank/raw_fbank_train.2.ark:1154980
fsjg0_sx310 quick_test/fbank/raw_fbank_train.1.ark:11789281
fdas1_sx21 quick_test/fbank/raw_fbank_train.1.ark:2472376
fhxs0_sx355 quick_test/fbank/raw_fbank_train.1.ark:4806056
mmdg0_si1780 quick_test/fbank/raw_fbank_train.3.ark:8694547
flac0_sx361 quick_test/fbank/raw_fbank_train.1.ark:7172637
mkln0_sx158 quick_test/fbank/raw_fbank_train.3.ark:6593878
mjmd0_sx128 quick_test/fbank/raw_fbank_train.3.ark:3997390
fclt0_sx268 quick_test/fbank/raw_fbank_train.1.ark:1952298
fpab1_sx391 quick_test/fbank/raw_fbank_train.1.ark:9867511
mmsm0_sx206 quick_test/fbank/raw_fbank_train.3.ark:9974885
fksr0_sx366 quick_test/fbank/raw_fbank_train.1.ark:7077292
mdlm0_si1234 quick_test/fbank/raw_fbank_train.2.ark:7895504
msrr0_sx231 quick_test/fbank/raw_fbank_train.4.ark:6889841
mkls1_si915 quick_test/fbank/raw_fbank_train.3.ark:6868242
meal0_sx197 quick_test/fbank/raw_fbank_train.2.ark:9595784
mwar0_si2305 quick_test/fbank/raw_fbank_train.4.ark:10708166
mdmt0_sx392 quick_test/fbank/raw_fbank_train.2.ark:8389236
mgar0_si1694 quick_test/fbank/raw_fbank_train.3.ark:15167
mdks0_sx346 quick_test/fbank/raw_fbank_train.2.ark:7342280
mprb0_si1215 quick_test/fbank/raw_fbank_train.4.ark:59058
mtpf0_sx155 quick_test/fbank/raw_fbank_train.4.ark:9243542
mrcw0_sx201 quick_test/fbank/raw_fbank_train.4.ark:1327378
mjkr0_sx391 quick_test/fbank/raw_fbank_train.3.ark:3577274
mkaj0_si784 quick_test/fbank/raw_fbank_train.3.ark:5890551
fbcg1_sx262 quick_test/fbank/raw_fbank_train.1.ark:678173
flma0_si1243 quick_test/fbank/raw_fbank_train.1.ark:8045578
mtjs0_sx112 quick_test/fbank/raw_fbank_train.4.ark:8333916
fcaj0_si1804 quick_test/fbank/raw_fbank_train.1.ark:1352489
mdns0_sx21 quick_test/fbank/raw_fbank_train.2.ark:8472075
fcmg0_si1872 quick_test/fbank/raw_fbank_train.1.ark:2031618
mdas0_sx276 quick_test/fbank/raw_fbank_train.2.ark:6166740
mdlr0_sx333 quick_test/fbank/raw_fbank_train.2.ark:8045855
mdlr0_si603 quick_test/fbank/raw_fbank_train.2.ark:8009036
mbth0_si505 quick_test/fbank/raw_fbank_train.2.ark:4206936
mdlc2_sx174 quick_test/fbank/raw_fbank_train.2.ark:7734275
mrab0_sx234 quick_test/fbank/raw_fbank_train.4.ark:611201
mdbb1_sx376 quick_test/fbank/raw_fbank_train.2.ark:6277629
fmkc0_si1072 quick_test/fbank/raw_fbank_train.1.ark:9157328
mjdg0_sx142 quick_test/fbank/raw_fbank_train.3.ark:2414628
fpad0_sx86 quick_test/fbank/raw_fbank_train.1.ark:10082521
mdcd0_sx65 quick_test/fbank/raw_fbank_train.2.ark:6483959
fcjs0_si977 quick_test/fbank/raw_fbank_train.1.ark:1736222
mgsl0_si797 quick_test/fbank/raw_fbank_train.3.ark:722574
fjhk0_sx302 quick_test/fbank/raw_fbank_train.1.ark:5127014
mmdm0_sx231 quick_test/fbank/raw_fbank_train.3.ark:8854025
mwac0_sx341 quick_test/fbank/raw_fbank_train.4.ark:10560133
mfrm0_sx345 quick_test/fbank/raw_fbank_train.2.ark:10644408
fmkf0_sx186 quick_test/fbank/raw_fbank_train.1.ark:9286380
mmgc0_si1305 quick_test/fbank/raw_fbank_train.3.ark:9258055
mcpm0_si1824 quick_test/fbank/raw_fbank_train.2.ark:5432795
mjpm1_sx131 quick_test/fbank/raw_fbank_train.3.ark:4362250
mdps0_si719 quick_test/fbank/raw_fbank_train.2.ark:8714852
mrgm0_sx416 quick_test/fbank/raw_fbank_train.4.ark:2326423
mdpb0_si866 quick_test/fbank/raw_fbank_train.2.ark:8531522
mrew1_sx60 quick_test/fbank/raw_fbank_train.4.ark:2037012
mlel0_sx436 quick_test/fbank/raw_fbank_train.3.ark:7416260
mjda0_sx41 quick_test/fbank/raw_fbank_train.3.ark:2141404
mkxl0_sx195 quick_test/fbank/raw_fbank_train.3.ark:7202856
mmvp0_si1914 quick_test/fbank/raw_fbank_train.3.ark:10034331
fljg0_sx261 quick_test/fbank/raw_fbank_train.1.ark:7878622
mrtc0_sx198 quick_test/fbank/raw_fbank_train.4.ark:4690319
mter0_sx257 quick_test/fbank/raw_fbank_train.4.ark:8046587
mdbp0_sx348 quick_test/fbank/raw_fbank_train.2.ark:6353469
fdjh0_sx35 quick_test/fbank/raw_fbank_train.1.ark:2764726
mjrh0_sx405 quick_test/fbank/raw_fbank_train.3.ark:4705625
fcmg0_si1242 quick_test/fbank/raw_fbank_train.1.ark:2020344
mrem0_sx331 quick_test/fbank/raw_fbank_train.4.ark:1920762
mdwh0_sx125 quick_test/fbank/raw_fbank_train.2.ark:9392061
mrcg0_sx438 quick_test/fbank/raw_fbank_train.4.ark:1242659
flod0_sx297 quick_test/fbank/raw_fbank_train.1.ark:8400653
fbas0_sx217 quick_test/fbank/raw_fbank_train.1.ark:593028
mcth0_si579 quick_test/fbank/raw_fbank_train.2.ark:5735662
fsjk1_si1025 quick_test/fbank/raw_fbank_train.1.ark:11839380
mkls0_sx177 quick_test/fbank/raw_fbank_train.3.ark:6784850
fssb0_si1712 quick_test/fbank/raw_fbank_train.2.ark:1170054
mjxl0_si1795 quick_test/fbank/raw_fbank_train.3.ark:5576324
fjrp1_sx172 quick_test/fbank/raw_fbank_train.1.ark:5595234
fsbk0_si2329 quick_test/fbank/raw_fbank_train.1.ark:11222177
mdhs0_sx180 quick_test/fbank/raw_fbank_train.2.ark:7135763
mwsh0_si2266 quick_test/fbank/raw_fbank_train.4.ark:11460253
mgaf0_sx22 quick_test/fbank/raw_fbank_train.2.ark:11021669
mdwh0_si1925 quick_test/fbank/raw_fbank_train.2.ark:9363155
fdkn0_si1202 quick_test/fbank/raw_fbank_train.1.ark:2799427
mzmb0_sx266 quick_test/fbank/raw_fbank_train.4.ark:11611937
mcew0_si1442 quick_test/fbank/raw_fbank_train.2.ark:5006220
mapv0_si663 quick_test/fbank/raw_fbank_train.2.ark:2915700
mtab0_sx402 quick_test/fbank/raw_fbank_train.4.ark:7252540
mwch0_sx452 quick_test/fbank/raw_fbank_train.4.ark:10832124
majp0_sx444 quick_test/fbank/raw_fbank_train.2.ark:2664556
fsms1_sx334 quick_test/fbank/raw_fbank_train.2.ark:912511
mrlj1_sx411 quick_test/fbank/raw_fbank_train.4.ark:3480329
mprb0_si575 quick_test/fbank/raw_fbank_train.4.ark:80051
mmdm0_sx141 quick_test/fbank/raw_fbank_train.3.ark:8841112
msfh0_si1216 quick_test/fbank/raw_fbank_train.4.ark:6099454
mrtc0_sx288 quick_test/fbank/raw_fbank_train.4.ark:4701272
fsgf0_sx297 quick_test/fbank/raw_fbank_train.1.ark:11683568
mrgm0_sx262 quick_test/fbank/raw_fbank_train.4.ark:2314270
mdwd0_sx450 quick_test/fbank/raw_fbank_train.2.ark:9320895
mgaw0_si1165 quick_test/fbank/raw_fbank_train.3.ark:99239
mrre0_sx434 quick_test/fbank/raw_fbank_train.4.ark:4369797
mtjm0_sx326 quick_test/fbank/raw_fbank_train.4.ark:8247477
fklc0_sx445 quick_test/fbank/raw_fbank_train.1.ark:6796409
fdxw0_sx71 quick_test/fbank/raw_fbank_train.1.ark:3421512
mmsm0_sx296 quick_test/fbank/raw_fbank_train.3.ark:10000110
mhxl0_sx332 quick_test/fbank/raw_fbank_train.3.ark:1532390
mtqc0_sx451 quick_test/fbank/raw_fbank_train.4.ark:9690461
mpeb0_si600 quick_test/fbank/raw_fbank_train.3.ark:10832482
mhbs0_si945 quick_test/fbank/raw_fbank_train.3.ark:939381
feeh0_sx32 quick_test/fbank/raw_fbank_train.1.ark:3828819
mtrr0_si2178 quick_test/fbank/raw_fbank_train.4.ark:9820585
mmaa0_si2105 quick_test/fbank/raw_fbank_train.3.ark:7883980
fbcg1_sx352 quick_test/fbank/raw_fbank_train.1.ark:688846
mdpk0_si1683 quick_test/fbank/raw_fbank_train.2.ark:8619114
mgag0_sx421 quick_test/fbank/raw_fbank_train.2.ark:11122287
mses0_sx149 quick_test/fbank/raw_fbank_train.4.ark:6046929
fsak0_sx310 quick_test/fbank/raw_fbank_train.1.ark:11163130
msms0_sx443 quick_test/fbank/raw_fbank_train.4.ark:6714657
mprt0_si495 quick_test/fbank/raw_fbank_train.4.ark:412812
fcmm0_sx420 quick_test/fbank/raw_fbank_train.1.ark:2175975
mprd0_sx81 quick_test/fbank/raw_fbank_train.4.ark:266440
fsma0_si1621 quick_test/fbank/raw_fbank_train.2.ark:639335
mcpm0_sx24 quick_test/fbank/raw_fbank_train.2.ark:5486446
mtrc0_sx363 quick_test/fbank/raw_fbank_train.4.ark:9792805
mrfk0_sx176 quick_test/fbank/raw_fbank_train.4.ark:2083707
mtjg0_sx440 quick_test/fbank/raw_fbank_train.4.ark:8159205
mcpm0_sx204 quick_test/fbank/raw_fbank_train.2.ark:5476454
mdcd0_sx335 quick_test/fbank/raw_fbank_train.2.ark:6457734
mmwb0_sx359 quick_test/fbank/raw_fbank_train.3.ark:10220449
mrab0_si594 quick_test/fbank/raw_fbank_train.4.ark:592295
fhlm0_sx300 quick_test/fbank/raw_fbank_train.1.ark:4674189
fcyl0_si1927 quick_test/fbank/raw_fbank_train.1.ark:2307860
