mgjc0_sx435 quick_test/fbank/raw_fbank_train.3.ark:357209
mesg0_si1332 quick_test/fbank/raw_fbank_train.2.ark:10124878
mdjm0_sx375 quick_test/fbank/raw_fbank_train.2.ark:7271199
mdps0_sx449 quick_test/fbank/raw_fbank_train.2.ark:8760984
mabc0_sx331 quick_test/fbank/raw_fbank_train.2.ark:2073531
mdlc2_si2244 quick_test/fbank/raw_fbank_train.2.ark:7712169
mrms0_si2100 quick_test/fbank/raw_fbank_train.4.ark:4136935
fskl0_sx449 quick_test/fbank/raw_fbank_train.2.ark:421698
fmjb0_si1177 quick_test/fbank/raw_fbank_train.1.ark:8828981
msrr0_sx141 quick_test/fbank/raw_fbank_train.4.ark:6874608
mjbg0_sx62 quick_test/fbank/raw_fbank_train.3.ark:2055938
mdlr1_si1929 quick_test/fbank/raw_fbank_train.2.ark:8100748
mses0_sx329 quick_test/fbank/raw_fbank_train.4.ark:6069395
mabc0_si2041 quick_test/fbank/raw_fbank_train.2.ark:2026039
mhjb0_si2277 quick_test/fbank/raw_fbank_train.3.ark:1126912
mjjj0_sx353 quick_test/fbank/raw_fbank_train.3.ark:3349959
mjae0_sx174 quick_test/fbank/raw_fbank_train.3.ark:1797037
mrav0_si1638 quick_test/fbank/raw_fbank_train.4.ark:977803
mges0_si851 quick_test/fbank/raw_fbank_train.3.ark:205091
mmdg0_sx70 quick_test/fbank/raw_fbank_train.3.ark:8796738
fjrb0_sx42 quick_test/fbank/raw_fbank_train.1.ark:5540180
mpgr0_si1410 quick_test/fbank/raw_fbank_train.3.ark:11098649
mwar0_si1045 quick_test/fbank/raw_fbank_train.4.ark:10677538
fgrw0_sx72 quick_test/fbank/raw_fbank_train.1.ark:4604709
mkah0_sx178 quick_test/fbank/raw_fbank_train.3.ark:5799319
mjmd0_si1658 quick_test/fbank/raw_fbank_train.3.ark:3975083
mprb0_sx305 quick_test/fbank/raw_fbank_train.4.ark:127430
mdlh0_si574 quick_test/fbank/raw_fbank_train.2.ark:7806553
fscn0_sx266 quick_test/fbank/raw_fbank_train.1.ark:11374867
mjde0_sx400 quick_test/fbank/raw_fbank_train.3.ark:2363133
fsma0_sx451 quick_test/fbank/raw_fbank_train.2.ark:714214
mhrm0_sx418 quick_test/fbank/raw_fbank_train.3.ark:1443159
mmgc0_si1305 quick_test/fbank/raw_fbank_train.3.ark:9258055
mwgr0_sx436 quick_test/fbank/raw_fbank_train.4.ark:11135360
fklc1_sx418 quick_test/fbank/raw_fbank_train.1.ark:6889235
mlns0_sx417 quick_test/fbank/raw_fbank_train.3.ark:7737015
mzmb0_si1166 quick_test/fbank/raw_fbank_train.4.ark:11558724
mtab0_si942 quick_test/fbank/raw_fbank_train.4.ark:7190128
mjpm0_sx378 quick_test/fbank/raw_fbank_train.3.ark:4319756
mdem0_sx248 quick_test/fbank/raw_fbank_train.2.ark:6939226
mctm0_sx90 quick_test/fbank/raw_fbank_train.2.ark:5898491
mdef0_si2193 quick_test/fbank/raw_fbank_train.2.ark:6818696
fvfb0_si1032 quick_test/fbank/raw_fbank_train.2.ark:1737169
mkxl0_sx105 quick_test/fbank/raw_fbank_train.3.ark:7182431
fmjb0_sx277 quick_test/fbank/raw_fbank_train.1.ark:8884394
mpgr0_sx240 quick_test/fbank/raw_fbank_train.3.ark:11139022
mrhl0_sx75 quick_test/fbank/raw_fbank_train.4.ark:2563416
mrem0_sx421 quick_test/fbank/raw_fbank_train.4.ark:1933675
mcef0_sx145 quick_test/fbank/raw_fbank_train.2.ark:4952655
ftlg0_sx393 quick_test/fbank/raw_fbank_train.2.ark:1630390
fbmh0_sx56 quick_test/fbank/raw_fbank_train.1.ark:1134211
msds0_si2337 quick_test/fbank/raw_fbank_train.4.ark:5800285
mrfk0_sx446 quick_test/fbank/raw_fbank_train.4.ark:2118886
fsrh0_si671 quick_test/fbank/raw_fbank_train.2.ark:1075742
mljh0_sx64 quick_test/fbank/raw_fbank_train.3.ark:7657902
majp0_sx264 quick_test/fbank/raw_fbank_train.2.ark:2638810
mmam0_sx427 quick_test/fbank/raw_fbank_train.3.ark:8253701
mmws1_sx27 quick_test/fbank/raw_fbank_train.3.ark:10407225
mjrp0_si1835 quick_test/fbank/raw_fbank_train.3.ark:4917821
mtpr0_sx430 quick_test/fbank/raw_fbank_train.4.ark:9567476
fbas0_si2066 quick_test/fbank/raw_fbank_train.1.ark:559842
mrre0_si704 quick_test/fbank/raw_fbank_train.4.ark:4298992
mkxl0_si1185 quick_test/fbank/raw_fbank_train.3.ark:7137530
fjxp0_si1122 quick_test/fbank/raw_fbank_train.1.ark:6082739
fcjs0_sx437 quick_test/fbank/raw_fbank_train.1.ark:1786874
fkde0_si1141 quick_test/fbank/raw_fbank_train.1.ark:6283389
fdtd0_si931 quick_test/fbank/raw_fbank_train.1.ark:3261722
mwac0_si2231 quick_test/fbank/raw_fbank_train.4.ark:10499561
fsmm0_sx234 quick_test/fbank/raw_fbank_train.2.ark:790133
fjen0_sx237 quick_test/fbank/raw_fbank_train.1.ark:5000475
fssb0_sx182 quick_test/fbank/raw_fbank_train.2.ark:1193801
mcdr0_sx164 quick_test/fbank/raw_fbank_train.2.ark:4857110
fsjs0_sx91 quick_test/fbank/raw_fbank_train.2.ark:138295
mbgt0_sx171 quick_test/fbank/raw_fbank_train.2.ark:3578628
mjwg0_si2155 quick_test/fbank/raw_fbank_train.3.ark:5131071
mhrm0_sx238 quick_test/fbank/raw_fbank_train.3.ark:1420813
mjac0_sx431 quick_test/fbank/raw_fbank_train.3.ark:1740470
mtjm0_sx326 quick_test/fbank/raw_fbank_train.4.ark:8247477
mbom0_si1014 quick_test/fbank/raw_fbank_train.2.ark:4027053
fpaz0_sx423 quick_test/fbank/raw_fbank_train.1.ark:10272859
fbmj0_sx426 quick_test/fbank/raw_fbank_train.1.ark:1232523
flet0_sx417 quick_test/fbank/raw_fbank_train.1.ark:7493386
mdlm0_si1864 quick_test/fbank/raw_fbank_train.2.ark:7909338
fkkh0_sx390 quick_test/fbank/raw_fbank_train.1.ark:6702376
fmbg0_si1160 quick_test/fbank/raw_fbank_train.1.ark:8618491
mrsp0_sx439 quick_test/fbank/raw_fbank_train.4.ark:4594248
fexm0_sx111 quick_test/fbank/raw_fbank_train.1.ark:4104076
mdlb0_si676 quick_test/fbank/raw_fbank_train.2.ark:7420246
mvlo0_sx247 quick_test/fbank/raw_fbank_train.4.ark:10348410
fpaf0_sx334 quick_test/fbank/raw_fbank_train.1.ark:10160162
mmvp0_si1284 quick_test/fbank/raw_fbank_train.3.ark:10022497
mtlc0_sx37 quick_test/fbank/raw_fbank_train.4.ark:8873219
ftbr0_si1402 quick_test/fbank/raw_fbank_train.2.ark:1340710
mjdc0_sx351 quick_test/fbank/raw_fbank_train.3.ark:2215524
mjmd0_sx218 quick_test/fbank/raw_fbank_train.3.ark:4006943
mrlj1_sx231 quick_test/fbank/raw_fbank_train.4.ark:3461663
mbcg0_si486 quick_test/fbank/raw_fbank_train.2.ark:3376992
fpaz0_si2223 quick_test/fbank/raw_fbank_train.1.ark:10202575
mmam0_sx67 quick_test/fbank/raw_fbank_train.3.ark:8261853
ftbw0_si715 quick_test/fbank/raw_fbank_train.2.ark:1458042
feme0_sx155 quick_test/fbank/raw_fbank_train.1.ark:3895266
mesj0_si2257 quick_test/fbank/raw_fbank_train.2.ark:10242617
mreh1_sx69 quick_test/fbank/raw_fbank_train.4.ark:1844803
mcxm0_si1351 quick_test/fbank/raw_fbank_train.2.ark:5906405
mjws0_sx243 quick_test/fbank/raw_fbank_train.3.ark:5295508
mcdd0_sx253 quick_test/fbank/raw_fbank_train.2.ark:4757238
falk0_si658 quick_test/fbank/raw_fbank_train.1.ark:232687
mgak0_sx136 quick_test/fbank/raw_fbank_train.2.ark:11183294
mjfr0_si975 quick_test/fbank/raw_fbank_train.3.ark:2988025
mkxl0_sx375 quick_test/fbank/raw_fbank_train.3.ark:7221042
mpeb0_sx150 quick_test/fbank/raw_fbank_train.3.ark:10849555
mjpg0_si1821 quick_test/fbank/raw_fbank_train.3.ark:4153574
mdlc1_sx265 quick_test/fbank/raw_fbank_train.2.ark:7666283
mvrw0_sx45 quick_test/fbank/raw_fbank_train.4.ark:10471173
mtkd0_si630 quick_test/fbank/raw_fbank_train.4.ark:8518253
mjls0_sx196 quick_test/fbank/raw_fbank_train.3.ark:3836644
fbjl0_sx112 quick_test/fbank/raw_fbank_train.1.ark:882109
mtpp0_sx68 quick_test/fbank/raw_fbank_train.4.ark:9471083
ftbw0_sx355 quick_test/fbank/raw_fbank_train.2.ark:1505501
mrfl0_sx256 quick_test/fbank/raw_fbank_train.4.ark:2200205
mjae0_sx264 quick_test/fbank/raw_fbank_train.3.ark:1812470
mlbc0_sx159 quick_test/fbank/raw_fbank_train.3.ark:7274056
mdcd0_sx65 quick_test/fbank/raw_fbank_train.2.ark:6483959
fcdr1_sx106 quick_test/fbank/raw_fbank_train.1.ark:1496220
mrvg0_si510 quick_test/fbank/raw_fbank_train.4.ark:4874151
mbma0_sx52 quick_test/fbank/raw_fbank_train.2.ark:3819009
mmgc0_sx315 quick_test/fbank/raw_fbank_train.3.ark:9317142
mwsh0_sx436 quick_test/fbank/raw_fbank_train.4.ark:11533378
fsjk1_sx305 quick_test/fbank/raw_fbank_train.2.ark:12285
frll0_sx254 quick_test/fbank/raw_fbank_train.1.ark:10837622
mgaf0_sx22 quick_test/fbank/raw_fbank_train.2.ark:11021669
msat1_sx173 quick_test/fbank/raw_fbank_train.4.ark:5531121
mfxv0_si1635 quick_test/fbank/raw_fbank_train.2.ark:10905066
mded0_sx90 quick_test/fbank/raw_fbank_train.2.ark:6776634
fsrh0_sx311 quick_test/fbank/raw_fbank_train.2.ark:1112121
mbgt0_si711 quick_test/fbank/raw_fbank_train.2.ark:3565715
mjrh0_sx405 quick_test/fbank/raw_fbank_train.3.ark:4705625
falr0_sx65 quick_test/fbank/raw_fbank_train.1.ark:393554
mjrg0_si1996 quick_test/fbank/raw_fbank_train.3.ark:4542394
mmgc0_sx45 quick_test/fbank/raw_fbank_train.3.ark:9338767
mkln0_si2228 quick_test/fbank/raw_fbank_train.3.ark:6568972
mdma0_si2060 quick_test/fbank/raw_fbank_train.2.ark:8216367
mdbb1_si1006 quick_test/fbank/raw_fbank_train.2.ark:6197597
mjra0_si1866 quick_test/fbank/raw_fbank_train.3.ark:4442129
mrvg0_sx420 quick_test/fbank/raw_fbank_train.4.ark:4914443
mpsw0_si1697 quick_test/fbank/raw_fbank_train.4.ark:495317
mgsl0_sx84 quick_test/fbank/raw_fbank_train.3.ark:794378
mmxs0_sx66 quick_test/fbank/raw_fbank_train.3.ark:10530827
mmpm0_sx431 quick_test/fbank/raw_fbank_train.3.ark:9789702
mfwk0_si1879 quick_test/fbank/raw_fbank_train.2.ark:10689421
fbmh0_si970 quick_test/fbank/raw_fbank_train.1.ark:1076127
fkde0_sx61 quick_test/fbank/raw_fbank_train.1.ark:6379341
msms0_sx83 quick_test/fbank/raw_fbank_train.4.ark:6725929
maeb0_si990 quick_test/fbank/raw_fbank_train.2.ark:2334347
fdnc0_sx378 quick_test/fbank/raw_fbank_train.1.ark:3221501
msfv0_sx452 quick_test/fbank/raw_fbank_train.4.ark:6302878
mbbr0_sx335 quick_test/fbank/raw_fbank_train.2.ark:3331620
mmar0_sx346 quick_test/fbank/raw_fbank_train.3.ark:8354733
fjlg0_si1506 quick_test/fbank/raw_fbank_train.1.ark:5253818
mdma0_sx80 quick_test/fbank/raw_fbank_train.2.ark:8301171
mmar0_sx256 quick_test/fbank/raw_fbank_train.3.ark:8340380
mtjg0_sx80 quick_test/fbank/raw_fbank_train.4.ark:8174757
mwdk0_sx86 quick_test/fbank/raw_fbank_train.4.ark:10945381
mcae0_si817 quick_test/fbank/raw_fbank_train.2.ark:4440259
fklh0_si627 quick_test/fbank/raw_fbank_train.1.ark:6946728
mrwa0_sx163 quick_test/fbank/raw_fbank_train.4.ark:4976929
mdef0_sx213 quick_test/fbank/raw_fbank_train.2.ark:6839562
fssb0_si1712 quick_test/fbank/raw_fbank_train.2.ark:1170054
mzmb0_sx266 quick_test/fbank/raw_fbank_train.4.ark:11611937
mdhs0_sx360 quick_test/fbank/raw_fbank_train.2.ark:7155989
mfxv0_sx375 quick_test/fbank/raw_fbank_train.2.ark:10952110
mdwd0_sx360 quick_test/fbank/raw_fbank_train.2.ark:9309902
fgcs0_sx46 quick_test/fbank/raw_fbank_train.1.ark:4259073
falr0_si1955 quick_test/fbank/raw_fbank_train.1.ark:324237
mjhi0_si698 quick_test/fbank/raw_fbank_train.3.ark:3100969
mcef0_sx235 quick_test/fbank/raw_fbank_train.2.ark:4963168
mpgh0_sx24 quick_test/fbank/raw_fbank_train.3.ark:11073669
mrlj0_sx250 quick_test/fbank/raw_fbank_train.4.ark:3375517
mkdb0_si588 quick_test/fbank/raw_fbank_train.3.ark:6069488
mmcc0_sx258 quick_test/fbank/raw_fbank_train.3.ark:8557270
mkam0_sx146 quick_test/fbank/raw_fbank_train.3.ark:6000610
mdwm0_si1546 quick_test/fbank/raw_fbank_train.2.ark:9460826
fcjs0_sx347 quick_test/fbank/raw_fbank_train.1.ark:1770681
mmea0_sx128 quick_test/fbank/raw_fbank_train.3.ark:9116667
fmpg0_sx342 quick_test/fbank/raw_fbank_train.1.ark:9523332
feeh0_sx122 quick_test/fbank/raw_fbank_train.1.ark:3790001
mjde0_si1120 quick_test/fbank/raw_fbank_train.3.ark:2245663
mjeb0_si656 quick_test/fbank/raw_fbank_train.3.ark:2607645
mdss0_si2087 quick_test/fbank/raw_fbank_train.2.ark:9005614
fceg0_sx168 quick_test/fbank/raw_fbank_train.1.ark:1590605
mmam0_sx157 quick_test/fbank/raw_fbank_train.3.ark:8221002
msdb0_sx197 quick_test/fbank/raw_fbank_train.4.ark:5637612
mmgc0_si2184 quick_test/fbank/raw_fbank_train.3.ark:9288883
msfh0_sx136 quick_test/fbank/raw_fbank_train.4.ark:6149314
mmwb0_sx89 quick_test/fbank/raw_fbank_train.3.ark:10257954
fksr0_sx397 quick_test/fbank/raw_fbank_train.1.ark:7104477
mmdm0_sx231 quick_test/fbank/raw_fbank_train.3.ark:8854025
majp0_sx354 quick_test/fbank/raw_fbank_train.2.ark:2652163
mrjh0_si1519 quick_test/fbank/raw_fbank_train.4.ark:2688756
mprt0_si1210 quick_test/fbank/raw_fbank_train.4.ark:396779
mmws1_sx441 quick_test/fbank/raw_fbank_train.3.ark:10426891
milb0_sx93 quick_test/fbank/raw_fbank_train.3.ark:1656117
fsms1_sx154 quick_test/fbank/raw_fbank_train.2.ark:888925
mcdd0_sx343 quick_test/fbank/raw_fbank_train.2.ark:4765871
mgjc0_sx345 quick_test/fbank/raw_fbank_train.3.ark:342976
mdac0_sx361 quick_test/fbank/raw_fbank_train.2.ark:6071156
mmar0_si1966 quick_test/fbank/raw_fbank_train.3.ark:8289281
msfv0_sx182 quick_test/fbank/raw_fbank_train.4.ark:6265899
mdlr1_sx399 quick_test/fbank/raw_fbank_train.2.ark:8182505
mdks0_sx346 quick_test/fbank/raw_fbank_train.2.ark:7342280
mdma0_sx440 quick_test/fbank/raw_fbank_train.2.ark:8282259
mkaj0_sx64 quick_test/fbank/raw_fbank_train.3.ark:5941555
msmr0_sx415 quick_test/fbank/raw_fbank_train.4.ark:6616032
mclm0_sx196 quick_test/fbank/raw_fbank_train.2.ark:5390581
makr0_si722 quick_test/fbank/raw_fbank_train.2.ark:2831235
mtcs0_sx172 quick_test/fbank/raw_fbank_train.4.ark:7698486
mchl0_sx447 quick_test/fbank/raw_fbank_train.2.ark:5212045
mtas0_si1385 quick_test/fbank/raw_fbank_train.4.ark:7275006
mjws0_sx63 quick_test/fbank/raw_fbank_train.3.ark:5342046
mdpk0_sx63 quick_test/fbank/raw_fbank_train.2.ark:8684191
mrws0_sx292 quick_test/fbank/raw_fbank_train.4.ark:5098052
fsah0_sx74 quick_test/fbank/raw_fbank_train.1.ark:11091770
msmr0_si775 quick_test/fbank/raw_fbank_train.4.ark:6571980
fcke0_si481 quick_test/fbank/raw_fbank_train.1.ark:1837847
mjfr0_sx255 quick_test/fbank/raw_fbank_train.3.ark:3015371
mzmb0_sx86 quick_test/fbank/raw_fbank_train.4.ark:11647275
mmws0_sx78 quick_test/fbank/raw_fbank_train.3.ark:10356138
makr0_sx92 quick_test/fbank/raw_fbank_train.2.ark:2875919
fpjf0_si1676 quick_test/fbank/raw_fbank_train.1.ark:10326473
mtwh1_sx342 quick_test/fbank/raw_fbank_train.4.ark:10056967
fsls0_sx426 quick_test/fbank/raw_fbank_train.2.ark:614149
mwdk0_sx446 quick_test/fbank/raw_fbank_train.4.ark:10933829
mwem0_sx60 quick_test/fbank/raw_fbank_train.4.ark:11045687
mfwk0_sx169 quick_test/fbank/raw_fbank_train.2.ark:10710287
mdlc2_sx354 quick_test/fbank/raw_fbank_train.2.ark:7759621
mdwm0_sx433 quick_test/fbank/raw_fbank_train.2.ark:9546137
mmaa0_sx215 quick_test/fbank/raw_fbank_train.3.ark:7924039
mjrh0_sx135 quick_test/fbank/raw_fbank_train.3.ark:4671486
mmjb1_sx238 quick_test/fbank/raw_fbank_train.3.ark:9572745
mdps0_si1979 quick_test/fbank/raw_fbank_train.2.ark:8701419
fdxw0_sx341 quick_test/fbank/raw_fbank_train.1.ark:3399087
fkkh0_sx210 quick_test/fbank/raw_fbank_train.1.ark:6672958
mmbs0_si521 quick_test/fbank/raw_fbank_train.3.ark:8416499
marw0_si1906 quick_test/fbank/raw_fbank_train.2.ark:3083917
mmvp0_si1914 quick_test/fbank/raw_fbank_train.3.ark:10034331
mtbc0_si1803 quick_test/fbank/raw_fbank_train.4.ark:7571675
marw0_sx286 quick_test/fbank/raw_fbank_train.2.ark:3125528
mjxa0_si1507 quick_test/fbank/raw_fbank_train.3.ark:5463105
msdh0_sx350 quick_test/fbank/raw_fbank_train.4.ark:5722758
mhjb0_sx387 quick_test/fbank/raw_fbank_train.3.ark:1174436
mrws0_si1102 quick_test/fbank/raw_fbank_train.4.ark:5036374
mges0_sx311 quick_test/fbank/raw_fbank_train.3.ark:236510
mpgh0_sx114 quick_test/fbank/raw_fbank_train.3.ark:11055324
mjlb0_si986 quick_test/fbank/raw_fbank_train.3.ark:3613335
mdwm0_sx16 quick_test/fbank/raw_fbank_train.2.ark:9510958
fdtd0_si1561 quick_test/fbank/raw_fbank_train.1.ark:3235615
mkrg0_sx231 quick_test/fbank/raw_fbank_train.3.ark:7105399
flod0_sx117 quick_test/fbank/raw_fbank_train.1.ark:8366954
flma0_sx163 quick_test/fbank/raw_fbank_train.1.ark:8081398
fjsp0_sx354 quick_test/fbank/raw_fbank_train.1.ark:5839591
flhd0_si1974 quick_test/fbank/raw_fbank_train.1.ark:7534840
flja0_sx268 quick_test/fbank/raw_fbank_train.1.ark:7663372
mppc0_si1412 quick_test/fbank/raw_fbank_train.3.ark:11454885
ftbw0_sx85 quick_test/fbank/raw_fbank_train.2.ark:1525886
mmdm0_sx411 quick_test/fbank/raw_fbank_train.3.ark:8875371
fmpg0_sx252 quick_test/fbank/raw_fbank_train.1.ark:9511659
mcth0_sx219 quick_test/fbank/raw_fbank_train.2.ark:5761408
fkaa0_sx38 quick_test/fbank/raw_fbank_train.1.ark:6252282
mdhl0_si809 quick_test/fbank/raw_fbank_train.2.ark:7023625
mhit0_sx173 quick_test/fbank/raw_fbank_train.3.ark:1046079
mmgc0_si1935 quick_test/fbank/raw_fbank_train.3.ark:9275289
flet0_sx237 quick_test/fbank/raw_fbank_train.1.ark:7477560
mrlk0_sx123 quick_test/fbank/raw_fbank_train.4.ark:3549415
mdlr0_sx423 quick_test/fbank/raw_fbank_train.2.ark:8062848
mdlm0_sx334 quick_test/fbank/raw_fbank_train.2.ark:7955230
fajw0_si1263 quick_test/fbank/raw_fbank_train.1.ark:100358
mkdb0_si872 quick_test/fbank/raw_fbank_train.3.ark:6078961
flmk0_si1229 quick_test/fbank/raw_fbank_train.1.ark:8243662
flhd0_sx354 quick_test/fbank/raw_fbank_train.1.ark:7574339
mkaj0_si784 quick_test/fbank/raw_fbank_train.3.ark:5890551
mrds0_si1167 quick_test/fbank/raw_fbank_train.4.ark:1555881
mter0_sx167 quick_test/fbank/raw_fbank_train.4.ark:8022882
mdlr0_sx333 quick_test/fbank/raw_fbank_train.2.ark:8045855
mtrt0_si1227 quick_test/fbank/raw_fbank_train.4.ark:9909656
freh0_sx325 quick_test/fbank/raw_fbank_train.1.ark:10662285
mtrt0_si1857 quick_test/fbank/raw_fbank_train.4.ark:9929890
fmjf0_sx444 quick_test/fbank/raw_fbank_train.1.ark:9006163
mjrk0_sx70 quick_test/fbank/raw_fbank_train.3.ark:4912907
fsbk0_sx79 quick_test/fbank/raw_fbank_train.1.ark:11293621
mjrh0_sx45 quick_test/fbank/raw_fbank_train.3.ark:4716737
fpmy0_sx196 quick_test/fbank/raw_fbank_train.1.ark:10554307
mefg0_sx375 quick_test/fbank/raw_fbank_train.2.ark:9815531
mafm0_si1569 quick_test/fbank/raw_fbank_train.2.ark:2499331
falk0_sx366 quick_test/fbank/raw_fbank_train.1.ark:273466
mvrw0_si1485 quick_test/fbank/raw_fbank_train.4.ark:10400422
medr0_sx114 quick_test/fbank/raw_fbank_train.2.ark:9679577
fpjf0_sx352 quick_test/fbank/raw_fbank_train.1.ark:10367085
mrmg0_si1710 quick_test/fbank/raw_fbank_train.4.ark:3799944
mtkp0_sx33 quick_test/fbank/raw_fbank_train.4.ark:8683729
mrmg0_si2340 quick_test/fbank/raw_fbank_train.4.ark:3811218
mkrg0_si1491 quick_test/fbank/raw_fbank_train.3.ark:7044106
mmdm0_si1941 quick_test/fbank/raw_fbank_train.3.ark:8823126
mrjm1_sx308 quick_test/fbank/raw_fbank_train.4.ark:2971452
mmag0_sx46 quick_test/fbank/raw_fbank_train.3.ark:8178427
fsbk0_sx349 quick_test/fbank/raw_fbank_train.1.ark:11257876
mkam0_sx326 quick_test/fbank/raw_fbank_train.3.ark:6021156
mtkp0_si1023 quick_test/fbank/raw_fbank_train.4.ark:8599811
mjma0_si1495 quick_test/fbank/raw_fbank_train.3.ark:3872544
mmds0_si713 quick_test/fbank/raw_fbank_train.3.ark:9023809
msmc0_si509 quick_test/fbank/raw_fbank_train.4.ark:6449402
mdks0_sx166 quick_test/fbank/raw_fbank_train.2.ark:7311694
fmmh0_si2167 quick_test/fbank/raw_fbank_train.1.ark:9361097
mjrg0_sx286 quick_test/fbank/raw_fbank_train.3.ark:4584765
mmdb0_sx87 quick_test/fbank/raw_fbank_train.3.ark:8686273
mapv0_sx213 quick_test/fbank/raw_fbank_train.2.ark:2949166
fkkh0_si1920 quick_test/fbank/raw_fbank_train.1.ark:6627299
fjkl0_si1562 quick_test/fbank/raw_fbank_train.1.ark:5159513
mclm0_sx286 quick_test/fbank/raw_fbank_train.2.ark:5397814
feeh0_sx32 quick_test/fbank/raw_fbank_train.1.ark:3828819
mlel0_sx76 quick_test/fbank/raw_fbank_train.3.ark:7428092
msrg0_si591 quick_test/fbank/raw_fbank_train.4.ark:6758750
mvlo0_si1777 quick_test/fbank/raw_fbank_train.4.ark:10311591
flma0_sx343 quick_test/fbank/raw_fbank_train.1.ark:8098824
mdpb0_sx236 quick_test/fbank/raw_fbank_train.2.ark:8560908
mdac0_sx91 quick_test/fbank/raw_fbank_train.2.ark:6097301
mchl0_si1977 quick_test/fbank/raw_fbank_train.2.ark:5168673
msvs0_sx128 quick_test/fbank/raw_fbank_train.4.ark:7086216
mjeb0_si1916 quick_test/fbank/raw_fbank_train.3.ark:2596212
meal0_si1547 quick_test/fbank/raw_fbank_train.2.ark:9558531
mhrm0_sx148 quick_test/fbank/raw_fbank_train.3.ark:1409660
mvrw0_si855 quick_test/fbank/raw_fbank_train.4.ark:10421329
mdlr1_si1299 quick_test/fbank/raw_fbank_train.2.ark:8088394
mbth0_sx122 quick_test/fbank/raw_fbank_train.2.ark:4227522
mjeb0_sx170 quick_test/fbank/raw_fbank_train.3.ark:2617558
mtrc0_si993 quick_test/fbank/raw_fbank_train.4.ark:9751193
fpad0_si1346 quick_test/fbank/raw_fbank_train.1.ark:9984130
fcaj0_sx399 quick_test/fbank/raw_fbank_train.1.ark:1422766
mdbp0_sx258 quick_test/fbank/raw_fbank_train.2.ark:6340876
fscn0_sx356 quick_test/fbank/raw_fbank_train.1.ark:11388620
mmdm1_sx153 quick_test/fbank/raw_fbank_train.3.ark:8928537
msat1_sx443 quick_test/fbank/raw_fbank_train.4.ark:5568340
fjsk0_sx422 quick_test/fbank/raw_fbank_train.1.ark:5753039
fspm0_sx341 quick_test/fbank/raw_fbank_train.2.ark:1026096
fbjl0_si2182 quick_test/fbank/raw_fbank_train.1.ark:853843
fjwb1_sx345 quick_test/fbank/raw_fbank_train.1.ark:5935695
mtmt0_si1118 quick_test/fbank/raw_fbank_train.4.ark:9107617
mcal0_sx328 quick_test/fbank/raw_fbank_train.2.ark:4574901
fvmh0_sx296 quick_test/fbank/raw_fbank_train.2.ark:2002378
mjlg1_si1012 quick_test/fbank/raw_fbank_train.3.ark:3678213
megj0_sx437 quick_test/fbank/raw_fbank_train.2.ark:9911882
mdwh0_sx305 quick_test/fbank/raw_fbank_train.2.ark:9419007
msfh0_si1738 quick_test/fbank/raw_fbank_train.4.ark:6113048
mesj0_si997 quick_test/fbank/raw_fbank_train.2.ark:10251930
mgak0_sx406 quick_test/fbank/raw_fbank_train.2.ark:11227873
fljg0_sx171 quick_test/fbank/raw_fbank_train.1.ark:7858309
mfer0_sx322 quick_test/fbank/raw_fbank_train.2.ark:10450837
fbch0_sx146 quick_test/fbank/raw_fbank_train.1.ark:778004
fklc1_sx238 quick_test/fbank/raw_fbank_train.1.ark:6864609
mrmh0_sx211 quick_test/fbank/raw_fbank_train.4.ark:3940470
mrhl0_si1515 quick_test/fbank/raw_fbank_train.4.ark:2482145
mklr0_si1689 quick_test/fbank/raw_fbank_train.3.ark:6666317
fdfb0_si1948 quick_test/fbank/raw_fbank_train.1.ark:2623816
mcae0_sx187 quick_test/fbank/raw_fbank_train.2.ark:4457132
mwrp0_sx3 quick_test/fbank/raw_fbank_train.4.ark:11322337
mdwd0_sx270 quick_test/fbank/raw_fbank_train.2.ark:9300709
mrai0_si792 quick_test/fbank/raw_fbank_train.4.ark:789865
mklw0_sx221 quick_test/fbank/raw_fbank_train.3.ark:6986334
msmr0_si1150 quick_test/fbank/raw_fbank_train.4.ark:6539793
mjfh0_sx387 quick_test/fbank/raw_fbank_train.3.ark:2953124
mhrm0_si1475 quick_test/fbank/raw_fbank_train.3.ark:1378280
mpeb0_sx240 quick_test/fbank/raw_fbank_train.3.ark:10858908
mgsh0_si1806 quick_test/fbank/raw_fbank_train.3.ark:611999
fgdp0_sx268 quick_test/fbank/raw_fbank_train.1.ark:4323080
mjai0_sx164 quick_test/fbank/raw_fbank_train.3.ark:1917181
mrtc0_sx378 quick_test/fbank/raw_fbank_train.4.ark:4715385
mgsh0_si546 quick_test/fbank/raw_fbank_train.3.ark:624912
mdsj0_sx112 quick_test/fbank/raw_fbank_train.2.ark:8934055
fmkc0_sx172 quick_test/fbank/raw_fbank_train.1.ark:9174915
fjsk0_sx332 quick_test/fbank/raw_fbank_train.1.ark:5739206
mrlj1_sx411 quick_test/fbank/raw_fbank_train.4.ark:3480329
mmdb0_sx357 quick_test/fbank/raw_fbank_train.3.ark:8665368
fmju0_si759 quick_test/fbank/raw_fbank_train.1.ark:9063296
mmws1_si1701 quick_test/fbank/raw_fbank_train.3.ark:10380086
fscn0_si705 quick_test/fbank/raw_fbank_train.1.ark:11333241
fjkl0_sx32 quick_test/fbank/raw_fbank_train.1.ark:5230471
mejs0_si1870 quick_test/fbank/raw_fbank_train.2.ark:10045887
mrlk0_sx303 quick_test/fbank/raw_fbank_train.4.ark:3571441
mhrm0_si2218 quick_test/fbank/raw_fbank_train.3.ark:1385434
mjde0_sx220 quick_test/fbank/raw_fbank_train.3.ark:2313875
mbbr0_sx155 quick_test/fbank/raw_fbank_train.2.ark:3309554
flet0_sx147 quick_test/fbank/raw_fbank_train.1.ark:7466647
mcth0_sx129 quick_test/fbank/raw_fbank_train.2.ark:5750095
msat0_sx266 quick_test/fbank/raw_fbank_train.4.ark:5458728
mkag0_sx439 quick_test/fbank/raw_fbank_train.3.ark:5738393
mdtb0_si1200 quick_test/fbank/raw_fbank_train.2.ark:9166710
mrvg0_si1140 quick_test/fbank/raw_fbank_train.4.ark:4854044
mbef0_si651 quick_test/fbank/raw_fbank_train.2.ark:3481650
frll0_si884 quick_test/fbank/raw_fbank_train.1.ark:10810276
mdcd0_sx155 quick_test/fbank/raw_fbank_train.2.ark:6435308
mtpg0_sx213 quick_test/fbank/raw_fbank_train.4.ark:9348480
fdjh0_sx215 quick_test/fbank/raw_fbank_train.1.ark:2742421
msdh0_sx170 quick_test/fbank/raw_fbank_train.4.ark:5692652
fkdw0_si1891 quick_test/fbank/raw_fbank_train.1.ark:6413569
fhlm0_sx120 quick_test/fbank/raw_fbank_train.1.ark:4645003
mrdm0_sx65 quick_test/fbank/raw_fbank_train.4.ark:1547287
fmem0_si1377 quick_test/fbank/raw_fbank_train.1.ark:8717275
fkaa0_sx218 quick_test/fbank/raw_fbank_train.1.ark:6224017
mrlj0_si2050 quick_test/fbank/raw_fbank_train.4.ark:3337498
fkfb0_si978 quick_test/fbank/raw_fbank_train.1.ark:6519627
fblv0_sx158 quick_test/fbank/raw_fbank_train.1.ark:990255
mmar0_sx166 quick_test/fbank/raw_fbank_train.3.ark:8318587
ftmg0_sx182 quick_test/fbank/raw_fbank_train.2.ark:1678604
fjen0_sx417 quick_test/fbank/raw_fbank_train.1.ark:5030861
mrew1_sx420 quick_test/fbank/raw_fbank_train.4.ark:2023180
mwad0_sx342 quick_test/fbank/raw_fbank_train.4.ark:10647799
mrgm0_sx416 quick_test/fbank/raw_fbank_train.4.ark:2326423
fvkb0_sx439 quick_test/fbank/raw_fbank_train.2.ark:1902394
mdhl0_sx179 quick_test/fbank/raw_fbank_train.2.ark:7036298
mgrl0_sx147 quick_test/fbank/raw_fbank_train.3.ark:424615
mprb0_sx395 quick_test/fbank/raw_fbank_train.4.ark:152335
mpfu0_sx268 quick_test/fbank/raw_fbank_train.3.ark:10959973
fjsp0_sx84 quick_test/fbank/raw_fbank_train.1.ark:5862656
mrfl0_sx346 quick_test/fbank/raw_fbank_train.4.ark:2211958
msdh0_sx80 quick_test/fbank/raw_fbank_train.4.ark:5754143
mprd0_si801 quick_test/fbank/raw_fbank_train.4.ark:188756
flhd0_sx264 quick_test/fbank/raw_fbank_train.1.ark:7562786
mjpm0_si1998 quick_test/fbank/raw_fbank_train.3.ark:4246199
mdks0_sx256 quick_test/fbank/raw_fbank_train.2.ark:7330367
mapv0_sx393 quick_test/fbank/raw_fbank_train.2.ark:2981584
mdss0_sx81 quick_test/fbank/raw_fbank_train.2.ark:9068131
mdcm0_sx220 quick_test/fbank/raw_fbank_train.2.ark:6544366
marc0_sx108 quick_test/fbank/raw_fbank_train.2.ark:3021398
fcjf0_sx217 quick_test/fbank/raw_fbank_train.1.ark:1689503
mrlr0_sx26 quick_test/fbank/raw_fbank_train.4.ark:3664665
mfmc0_sx52 quick_test/fbank/raw_fbank_train.2.ark:10571367
fjwb1_sx75 quick_test/fbank/raw_fbank_train.1.ark:5960840
flja0_sx358 quick_test/fbank/raw_fbank_train.1.ark:7678725
fsgf0_sx297 quick_test/fbank/raw_fbank_train.1.ark:11683568
mtpf0_sx245 quick_test/fbank/raw_fbank_train.4.ark:9253775
mjjj0_si533 quick_test/fbank/raw_fbank_train.3.ark:3306060
mwch0_si1895 quick_test/fbank/raw_fbank_train.4.ark:10785318
fjsk0_si1682 quick_test/fbank/raw_fbank_train.1.ark:5695913
mcdd0_si1513 quick_test/fbank/raw_fbank_train.2.ark:4713665
mmvp0_sx294 quick_test/fbank/raw_fbank_train.3.ark:10097863
fbjl0_sx202 quick_test/fbank/raw_fbank_train.1.ark:894582
mjae0_si1524 quick_test/fbank/raw_fbank_train.3.ark:1764776
mdbp0_si1788 quick_test/fbank/raw_fbank_train.2.ark:6296857
mkes0_sx173 quick_test/fbank/raw_fbank_train.3.ark:6403548
mmcc0_sx348 quick_test/fbank/raw_fbank_train.3.ark:8568703
mbth0_sx302 quick_test/fbank/raw_fbank_train.2.ark:4256108
fjxm0_si581 quick_test/fbank/raw_fbank_train.1.ark:5990461
fdmy0_sx207 quick_test/fbank/raw_fbank_train.1.ark:3068337
fkdw0_si1207 quick_test/fbank/raw_fbank_train.1.ark:6394295
mtml0_si1065 quick_test/fbank/raw_fbank_train.4.ark:8893926
msfh0_sx226 quick_test/fbank/raw_fbank_train.4.ark:6165867
mtat0_sx30 quick_test/fbank/raw_fbank_train.4.ark:7423796
mdrd0_sx392 quick_test/fbank/raw_fbank_train.2.ark:8883001
fsjk1_sx395 quick_test/fbank/raw_fbank_train.2.ark:32110
mcdc0_sx32 quick_test/fbank/raw_fbank_train.2.ark:4689798
fsjg0_sx220 quick_test/fbank/raw_fbank_train.1.ark:11767848
maeb0_si2250 quick_test/fbank/raw_fbank_train.2.ark:2323874
mjrk0_sx250 quick_test/fbank/raw_fbank_train.3.ark:4873089
fskp0_si468 quick_test/fbank/raw_fbank_train.2.ark:474431
fsag0_si1953 quick_test/fbank/raw_fbank_train.1.ark:10894868
fmju0_sx399 quick_test/fbank/raw_fbank_train.1.ark:9128500
fmkf0_sx186 quick_test/fbank/raw_fbank_train.1.ark:9286380
mree0_sx294 quick_test/fbank/raw_fbank_train.4.ark:1724145
mrdd0_si1680 quick_test/fbank/raw_fbank_train.4.ark:1380864
mkdb0_si2132 quick_test/fbank/raw_fbank_train.3.ark:6056135
mmlm0_si1527 quick_test/fbank/raw_fbank_train.3.ark:9629077
feac0_sx255 quick_test/fbank/raw_fbank_train.1.ark:3485039
mjwt0_si1291 quick_test/fbank/raw_fbank_train.3.ark:5353040
mrwa0_sx433 quick_test/fbank/raw_fbank_train.4.ark:5011788
mgxp0_sx97 quick_test/fbank/raw_fbank_train.3.ark:905040
mkrg0_sx31 quick_test/fbank/raw_fbank_train.3.ark:7110031
mrcg0_sx168 quick_test/fbank/raw_fbank_train.4.ark:1200600
medr0_sx204 quick_test/fbank/raw_fbank_train.2.ark:9689970
fmjf0_si624 quick_test/fbank/raw_fbank_train.1.ark:8947831
fsag0_sx423 quick_test/fbank/raw_fbank_train.1.ark:10963873
mfwk0_sx439 quick_test/fbank/raw_fbank_train.2.ark:10750346
mdks0_sx76 quick_test/fbank/raw_fbank_train.2.ark:7368185
flac0_si901 quick_test/fbank/raw_fbank_train.1.ark:7142578
mkjo0_si887 quick_test/fbank/raw_fbank_train.3.ark:6487340
mtpg0_sx303 quick_test/fbank/raw_fbank_train.4.ark:9358673
mmdg0_sx250 quick_test/fbank/raw_fbank_train.3.ark:8752360
mjkr0_sx211 quick_test/fbank/raw_fbank_train.3.ark:3542776
msfv0_si1262 quick_test/fbank/raw_fbank_train.4.ark:6221279
fsma0_si1621 quick_test/fbank/raw_fbank_train.2.ark:639335
fhxs0_sx85 quick_test/fbank/raw_fbank_train.1.ark:4827481
mrsp0_si2059 quick_test/fbank/raw_fbank_train.4.ark:4535603
mmds0_sx263 quick_test/fbank/raw_fbank_train.3.ark:9044275
fmem0_sx333 quick_test/fbank/raw_fbank_train.1.ark:8792674
mmdb0_si1617 quick_test/fbank/raw_fbank_train.3.ark:8622156
mdlc0_si2025 quick_test/fbank/raw_fbank_train.2.ark:7523638
mtat1_sx149 quick_test/fbank/raw_fbank_train.4.ark:7490276
mgsl0_si534 quick_test/fbank/raw_fbank_train.3.ark:713021
fmmh0_sx187 quick_test/fbank/raw_fbank_train.1.ark:9388123
fsms1_sx334 quick_test/fbank/raw_fbank_train.2.ark:912511
mtab0_sx312 quick_test/fbank/raw_fbank_train.4.ark:7233467
mdmt0_sx212 quick_test/fbank/raw_fbank_train.2.ark:8353098
mjfh0_sx207 quick_test/fbank/raw_fbank_train.3.ark:2930226
fmbg0_sx440 quick_test/fbank/raw_fbank_train.1.ark:8693169
fsbk0_sx439 quick_test/fbank/raw_fbank_train.1.ark:11278269
makr0_sx452 quick_test/fbank/raw_fbank_train.2.ark:2865087
mbjv0_si1247 quick_test/fbank/raw_fbank_train.2.ark:3645553
mpgr0_sx60 quick_test/fbank/raw_fbank_train.3.ark:11177440
mjai0_sx254 quick_test/fbank/raw_fbank_train.3.ark:1930614
mtat0_sx210 quick_test/fbank/raw_fbank_train.4.ark:7414844
mbth0_sx32 quick_test/fbank/raw_fbank_train.2.ark:4267740
mgaf0_si1912 quick_test/fbank/raw_fbank_train.2.ark:10981818
fsjs0_si1171 quick_test/fbank/raw_fbank_train.2.ark:43184
fjwb1_si795 quick_test/fbank/raw_fbank_train.1.ark:5903916
mgag0_sx151 quick_test/fbank/raw_fbank_train.2.ark:11092268
falr0_sx155 quick_test/fbank/raw_fbank_train.1.ark:346423
marc0_sx18 quick_test/fbank/raw_fbank_train.2.ark:3030950
mjwg0_sx85 quick_test/fbank/raw_fbank_train.3.ark:5235941
flmc0_si2002 quick_test/fbank/raw_fbank_train.1.ark:8149397
majp0_sx174 quick_test/fbank/raw_fbank_train.2.ark:2621417
mcth0_sx399 quick_test/fbank/raw_fbank_train.2.ark:5799346
msfv0_sx92 quick_test/fbank/raw_fbank_train.4.ark:6319030
fsma0_si2251 quick_test/fbank/raw_fbank_train.2.ark:645929
fsah0_sx164 quick_test/fbank/raw_fbank_train.1.ark:11040199
mejs0_sx160 quick_test/fbank/raw_fbank_train.2.ark:10067273
mjpm0_si738 quick_test/fbank/raw_fbank_train.3.ark:4261352
mhmg0_si735 quick_test/fbank/raw_fbank_train.3.ark:1207017
msds0_sx267 quick_test/fbank/raw_fbank_train.4.ark:5824111
mrcw0_sx111 quick_test/fbank/raw_fbank_train.4.ark:1318265
mklw0_si1844 quick_test/fbank/raw_fbank_train.3.ark:6961474
mtrr0_si918 quick_test/fbank/raw_fbank_train.4.ark:9831698
mpsw0_sx24 quick_test/fbank/raw_fbank_train.4.ark:525896
mcss0_sx390 quick_test/fbank/raw_fbank_train.2.ark:5700361
mmwb0_sx359 quick_test/fbank/raw_fbank_train.3.ark:10220449
mmdm0_sx321 quick_test/fbank/raw_fbank_train.3.ark:8860778
mjls0_sx286 quick_test/fbank/raw_fbank_train.3.ark:3844277
mjdm0_sx80 quick_test/fbank/raw_fbank_train.3.ark:2572864
mjjm0_sx17 quick_test/fbank/raw_fbank_train.3.ark:3441350
fapb0_sx163 quick_test/fbank/raw_fbank_train.1.ark:454089
mbma0_si1222 quick_test/fbank/raw_fbank_train.2.ark:3736458
fclt0_sx268 quick_test/fbank/raw_fbank_train.1.ark:1952298
fskl0_sx89 quick_test/fbank/raw_fbank_train.2.ark:434970
mbom0_si2274 quick_test/fbank/raw_fbank_train.2.ark:4049961
fdml0_sx69 quick_test/fbank/raw_fbank_train.1.ark:2974451
mmcc0_sx438 quick_test/fbank/raw_fbank_train.3.ark:8582536
fcrz0_si793 quick_test/fbank/raw_fbank_train.1.ark:2228108
fsjg0_si940 quick_test/fbank/raw_fbank_train.1.ark:11732782
mjae0_si2154 quick_test/fbank/raw_fbank_train.3.ark:1787524
fmbg0_si2264 quick_test/fbank/raw_fbank_train.1.ark:8649479
feeh0_si1742 quick_test/fbank/raw_fbank_train.1.ark:3766015
mbjv0_sx437 quick_test/fbank/raw_fbank_train.2.ark:3714632
mmjb1_sx148 quick_test/fbank/raw_fbank_train.3.ark:9561912
fsdj0_sx35 quick_test/fbank/raw_fbank_train.1.ark:11585983
mdlr1_sx129 quick_test/fbank/raw_fbank_train.2.ark:8130814
mdem0_si800 quick_test/fbank/raw_fbank_train.2.ark:6907000
mrew1_sx240 quick_test/fbank/raw_fbank_train.4.ark:1997234
mjda0_sx311 quick_test/fbank/raw_fbank_train.3.ark:2114419
mgrl0_si867 quick_test/fbank/raw_fbank_train.3.ark:408942
mdhs0_si900 quick_test/fbank/raw_fbank_train.2.ark:7118210
fjhk0_sx392 quick_test/fbank/raw_fbank_train.1.ark:5147679
mpmb0_si871 quick_test/fbank/raw_fbank_train.3.ark:11337607
mjai0_sx74 quick_test/fbank/raw_fbank_train.3.ark:1957352
mjrh0_si1755 quick_test/fbank/raw_fbank_train.3.ark:4639739
ftbw0_sx175 quick_test/fbank/raw_fbank_train.2.ark:1476675
mram0_sx15 quick_test/fbank/raw_fbank_train.4.ark:924196
fgmb0_sx155 quick_test/fbank/raw_fbank_train.1.ark:4428512
mrjm0_sx328 quick_test/fbank/raw_fbank_train.4.ark:2866467
mgrl0_sx57 quick_test/fbank/raw_fbank_train.3.ark:474546
mjra0_sx246 quick_test/fbank/raw_fbank_train.3.ark:4479268
mdks0_si2326 quick_test/fbank/raw_fbank_train.2.ark:7299541
mrtj0_sx232 quick_test/fbank/raw_fbank_train.4.ark:4793712
mmbs0_sx431 quick_test/fbank/raw_fbank_train.3.ark:8482791
fkaa0_si578 quick_test/fbank/raw_fbank_train.1.ark:6199071
mwdk0_si2017 quick_test/fbank/raw_fbank_train.4.ark:10873544
mter0_sx257 quick_test/fbank/raw_fbank_train.4.ark:8046587
mbjv0_sx167 quick_test/fbank/raw_fbank_train.2.ark:3679733
mrbc0_sx419 quick_test/fbank/raw_fbank_train.4.ark:1133474
mafm0_si939 quick_test/fbank/raw_fbank_train.2.ark:2510318
mkls1_sx15 quick_test/fbank/raw_fbank_train.3.ark:6897147
mreh1_sx429 quick_test/fbank/raw_fbank_train.4.ark:1831531
mses0_sx59 quick_test/fbank/raw_fbank_train.4.ark:6092180
fjlg0_sx449 quick_test/fbank/raw_fbank_train.1.ark:5324898
mejs0_sx340 quick_test/fbank/raw_fbank_train.2.ark:10094539
msah1_sx419 quick_test/fbank/raw_fbank_train.4.ark:5287464
mjeb0_si1286 quick_test/fbank/raw_fbank_train.3.ark:2582618
fcjf0_si1657 quick_test/fbank/raw_fbank_train.1.ark:1656684
fpjf0_sx236 quick_test/fbank/raw_fbank_train.1.ark:10347659
fscn0_sx176 quick_test/fbank/raw_fbank_train.1.ark:11355154
fjrb0_si672 quick_test/fbank/raw_fbank_train.1.ark:5476736
mpmb0_si2131 quick_test/fbank/raw_fbank_train.3.ark:11314654
msas0_sx116 quick_test/fbank/raw_fbank_train.4.ark:5359590
mejl0_sx62 quick_test/fbank/raw_fbank_train.2.ark:10017379
mrfl0_si1156 quick_test/fbank/raw_fbank_train.4.ark:2138512
msds0_sx357 quick_test/fbank/raw_fbank_train.4.ark:5841344
mrvg0_si1770 quick_test/fbank/raw_fbank_train.4.ark:4864638
fbmh0_sx326 quick_test/fbank/raw_fbank_train.1.ark:1113906
mclk0_sx310 quick_test/fbank/raw_fbank_train.2.ark:5303037
mtpf0_si1865 quick_test/fbank/raw_fbank_train.4.ark:9219836
fdnc0_sx18 quick_test/fbank/raw_fbank_train.1.ark:3182242
mmeb0_si1987 quick_test/fbank/raw_fbank_train.3.ark:9183506
mtmt0_sx38 quick_test/fbank/raw_fbank_train.4.ark:9180975
mjrg0_si1366 quick_test/fbank/raw_fbank_train.3.ark:4529000
fmah1_sx429 quick_test/fbank/raw_fbank_train.1.ark:8595705
fljd0_sx166 quick_test/fbank/raw_fbank_train.1.ark:7754924
mcdd0_sx163 quick_test/fbank/raw_fbank_train.2.ark:4746205
mtjs0_sx112 quick_test/fbank/raw_fbank_train.4.ark:8333916
marw0_si646 quick_test/fbank/raw_fbank_train.2.ark:3092630
mrdm0_sx155 quick_test/fbank/raw_fbank_train.4.ark:1497276
mrgm0_sx442 quick_test/fbank/raw_fbank_train.4.ark:2338056
mrfl0_sx166 quick_test/fbank/raw_fbank_train.4.ark:2183012
marc0_si1818 quick_test/fbank/raw_fbank_train.2.ark:2998412
mdlh0_sx250 quick_test/fbank/raw_fbank_train.2.ark:7847972
mmds0_si1343 quick_test/fbank/raw_fbank_train.3.ark:9002662
fmmh0_sx97 quick_test/fbank/raw_fbank_train.1.ark:9435932
fcke0_sx301 quick_test/fbank/raw_fbank_train.1.ark:1878146
fhlm0_si1560 quick_test/fbank/raw_fbank_train.1.ark:4614663
mkls0_sx357 quick_test/fbank/raw_fbank_train.3.ark:6808636
mtrr0_sx378 quick_test/fbank/raw_fbank_train.4.ark:9895502
mprb0_si575 quick_test/fbank/raw_fbank_train.4.ark:80051
maeb0_sx270 quick_test/fbank/raw_fbank_train.2.ark:2359053
mlsh0_sx337 quick_test/fbank/raw_fbank_train.3.ark:7828927
mppc0_sx152 quick_test/fbank/raw_fbank_train.3.ark:11494145
mrmg0_si1080 quick_test/fbank/raw_fbank_train.4.ark:3787790
mjra0_sx426 quick_test/fbank/raw_fbank_train.3.ark:4505854
mrjm1_sx38 quick_test/fbank/raw_fbank_train.4.ark:2985084
mwar0_sx55 quick_test/fbank/raw_fbank_train.4.ark:10759410
mkdt0_sx263 quick_test/fbank/raw_fbank_train.3.ark:6310236
mtrc0_sx170 quick_test/fbank/raw_fbank_train.4.ark:9759386
fapb0_si1693 quick_test/fbank/raw_fbank_train.1.ark:420782
fjrp1_si802 quick_test/fbank/raw_fbank_train.1.ark:5584721
mbsb0_sx3 quick_test/fbank/raw_fbank_train.2.ark:4163884
mjac0_si1331 quick_test/fbank/raw_fbank_train.3.ark:1664231
mwsb0_sx186 quick_test/fbank/raw_fbank_train.4.ark:11391616
mmdg0_si1780 quick_test/fbank/raw_fbank_train.3.ark:8694547
makb0_sx386 quick_test/fbank/raw_fbank_train.2.ark:2799974
mdhs0_si2160 quick_test/fbank/raw_fbank_train.2.ark:7108297
feac0_sx435 quick_test/fbank/raw_fbank_train.1.ark:3506825
mtjg0_si1520 quick_test/fbank/raw_fbank_train.4.ark:8085086
fcmm0_sx273 quick_test/fbank/raw_fbank_train.1.ark:2153789
mtdb0_si771 quick_test/fbank/raw_fbank_train.4.ark:7786958
maeo0_sx66 quick_test/fbank/raw_fbank_train.2.ark:2490137
marc0_sx378 quick_test/fbank/raw_fbank_train.2.ark:3061329
msat1_si1703 quick_test/fbank/raw_fbank_train.4.ark:5509374
fmkf0_si1018 quick_test/fbank/raw_fbank_train.1.ark:9241000
mgjc0_si1965 quick_test/fbank/raw_fbank_train.3.ark:301757
fbas0_sx217 quick_test/fbank/raw_fbank_train.1.ark:593028
mwch0_sx452 quick_test/fbank/raw_fbank_train.4.ark:10832124
mtlc0_si847 quick_test/fbank/raw_fbank_train.4.ark:8840968
mlbc0_sx339 quick_test/fbank/raw_fbank_train.3.ark:7295282
mtxs0_sx430 quick_test/fbank/raw_fbank_train.4.ark:10177026
mdtb0_si570 quick_test/fbank/raw_fbank_train.2.ark:9183417
frll0_sx344 quick_test/fbank/raw_fbank_train.1.ark:10847975
mddc0_si2049 quick_test/fbank/raw_fbank_train.2.ark:6608372
fltm0_si1070 quick_test/fbank/raw_fbank_train.1.ark:8419600
mejs0_sx70 quick_test/fbank/raw_fbank_train.2.ark:10120924
maeb0_sx450 quick_test/fbank/raw_fbank_train.2.ark:2381439
mkaj0_sx244 quick_test/fbank/raw_fbank_train.3.ark:5910577
msms0_si1433 quick_test/fbank/raw_fbank_train.4.ark:6637578
fljg0_sx261 quick_test/fbank/raw_fbank_train.1.ark:7878622
mrab0_sx414 quick_test/fbank/raw_fbank_train.4.ark:638427
mgar0_si1212 quick_test/fbank/raw_fbank_train.3.ark:13
fklh0_sx87 quick_test/fbank/raw_fbank_train.1.ark:7006332
maeo0_sx426 quick_test/fbank/raw_fbank_train.2.ark:2475505
fskc0_sx156 quick_test/fbank/raw_fbank_train.2.ark:288174
mpar0_sx316 quick_test/fbank/raw_fbank_train.3.ark:10790036
mjrg0_sx106 quick_test/fbank/raw_fbank_train.3.ark:4567020
fsjw0_sx343 quick_test/fbank/raw_fbank_train.2.ark:214655
fjlr0_si601 quick_test/fbank/raw_fbank_train.1.ark:5376511
fcaj0_si1479 quick_test/fbank/raw_fbank_train.1.ark:1346735
mmvp0_si654 quick_test/fbank/raw_fbank_train.3.ark:10046084
mjhi0_si1328 quick_test/fbank/raw_fbank_train.3.ark:3072543
mejl0_si962 quick_test/fbank/raw_fbank_train.2.ark:9959415
mpar0_sx136 quick_test/fbank/raw_fbank_train.3.ark:10765690
mjeb0_sx296 quick_test/fbank/raw_fbank_train.3.ark:2658816
mmxs0_sx336 quick_test/fbank/raw_fbank_train.3.ark:10500842
mmbs0_sx341 quick_test/fbank/raw_fbank_train.3.ark:8469198
fleh0_si1681 quick_test/fbank/raw_fbank_train.1.ark:7339235
mafm0_sx219 quick_test/fbank/raw_fbank_train.2.ark:2537784
mtbc0_sx93 quick_test/fbank/raw_fbank_train.4.ark:7654032
mkah0_sx88 quick_test/fbank/raw_fbank_train.3.ark:5851650
mtas0_sx305 quick_test/fbank/raw_fbank_train.4.ark:7325492
mrmb0_sx51 quick_test/fbank/raw_fbank_train.4.ark:3777156
mfxs0_sx54 quick_test/fbank/raw_fbank_train.2.ark:10856644
mtat0_sx390 quick_test/fbank/raw_fbank_train.4.ark:7440542
mmag0_sx316 quick_test/fbank/raw_fbank_train.3.ark:8149962
mbar0_si1319 quick_test/fbank/raw_fbank_train.2.ark:3176028
mjpm1_sx221 quick_test/fbank/raw_fbank_train.3.ark:4371363
mjhi0_sx248 quick_test/fbank/raw_fbank_train.3.ark:3124155
fsah0_sx344 quick_test/fbank/raw_fbank_train.1.ark:11072465
fdnc0_si2287 quick_test/fbank/raw_fbank_train.1.ark:3162457
megj0_si1967 quick_test/fbank/raw_fbank_train.2.ark:9854319
fsdc0_si1942 quick_test/fbank/raw_fbank_train.1.ark:11444833
mmar0_sx76 quick_test/fbank/raw_fbank_train.3.ark:8383838
mjda0_sx221 quick_test/fbank/raw_fbank_train.3.ark:2103746
mtkd0_si1187 quick_test/fbank/raw_fbank_train.4.ark:8491346
msfv0_si1892 quick_test/fbank/raw_fbank_train.4.ark:6230713
feme0_sx65 quick_test/fbank/raw_fbank_train.1.ark:3952037
mdps0_sx359 quick_test/fbank/raw_fbank_train.2.ark:8746711
fmpg0_si972 quick_test/fbank/raw_fbank_train.1.ark:9472113
mjee0_sx337 quick_test/fbank/raw_fbank_train.3.ark:2844674
mbbr0_sx425 quick_test/fbank/raw_fbank_train.2.ark:3349133
mtmt0_si1748 quick_test/fbank/raw_fbank_train.4.ark:9119451
flmk0_sx405 quick_test/fbank/raw_fbank_train.1.ark:8306948
mrms0_sx120 quick_test/fbank/raw_fbank_train.4.ark:4146568
fecd0_si1418 quick_test/fbank/raw_fbank_train.1.ark:3633836
mfxv0_sx195 quick_test/fbank/raw_fbank_train.2.ark:10933004
mrkm0_sx187 quick_test/fbank/raw_fbank_train.4.ark:3173556
mdma0_sx260 quick_test/fbank/raw_fbank_train.2.ark:8249073
fcke0_sx121 quick_test/fbank/raw_fbank_train.1.ark:1857040
mkjo0_si2147 quick_test/fbank/raw_fbank_train.3.ark:6478587
mwad0_sx252 quick_test/fbank/raw_fbank_train.4.ark:10639166
mmrp0_sx54 quick_test/fbank/raw_fbank_train.3.ark:9903718
mdwh0_si1925 quick_test/fbank/raw_fbank_train.2.ark:9363155
mjee0_sx67 quick_test/fbank/raw_fbank_train.3.ark:2868299
majp0_sx84 quick_test/fbank/raw_fbank_train.2.ark:2677708
freh0_sx55 quick_test/fbank/raw_fbank_train.1.ark:10678870
ftbw0_sx265 quick_test/fbank/raw_fbank_train.2.ark:1494108
mrds0_sx357 quick_test/fbank/raw_fbank_train.4.ark:1612607
mpmb0_sx421 quick_test/fbank/raw_fbank_train.3.ark:11411099
msms0_sx353 quick_test/fbank/raw_fbank_train.4.ark:6702744
mrso0_si1659 quick_test/fbank/raw_fbank_train.4.ark:4417737
fvkb0_si1789 quick_test/fbank/raw_fbank_train.2.ark:1835469
fkaa0_sx398 quick_test/fbank/raw_fbank_train.1.ark:6267515
ftaj0_si699 quick_test/fbank/raw_fbank_train.2.ark:1280472
fcmg0_sx252 quick_test/fbank/raw_fbank_train.1.ark:2056444
mhit0_sx83 quick_test/fbank/raw_fbank_train.3.ark:1094530
mhmr0_sx129 quick_test/fbank/raw_fbank_train.3.ark:1317835
mjlg1_si1642 quick_test/fbank/raw_fbank_train.3.ark:3689407
fsdc0_sx232 quick_test/fbank/raw_fbank_train.1.ark:11474293
mjxl0_sx182 quick_test/fbank/raw_fbank_train.3.ark:5595230
mjjm0_sx287 quick_test/fbank/raw_fbank_train.3.ark:3460656
mkxl0_sx195 quick_test/fbank/raw_fbank_train.3.ark:7202856
madd0_si1295 quick_test/fbank/raw_fbank_train.2.ark:2210255
fsma0_sx361 quick_test/fbank/raw_fbank_train.2.ark:703381
mhbs0_sx135 quick_test/fbank/raw_fbank_train.3.ark:956614
mkxl0_sx285 quick_test/fbank/raw_fbank_train.3.ark:7211129
mstf0_si766 quick_test/fbank/raw_fbank_train.4.ark:6941965
mwac0_sx161 quick_test/fbank/raw_fbank_train.4.ark:10524227
fsdj0_si1115 quick_test/fbank/raw_fbank_train.1.ark:11519145
fpac0_sx121 quick_test/fbank/raw_fbank_train.1.ark:9925645
msmc0_sx17 quick_test/fbank/raw_fbank_train.4.ark:6494620
mkjo0_sx77 quick_test/fbank/raw_fbank_train.3.ark:6545344
