maeb0_sx450 /u/ravanelm//kaldi-trunk/egs/timit_rev/s5/fbank/raw_fbank_train.2.ark:2381439
mrwa0_sx163 /u/ravanelm//kaldi-trunk/egs/timit_rev/s5/fbank/raw_fbank_train.4.ark:4976929
mmgc0_si1935 /u/ravanelm//kaldi-trunk/egs/timit_rev/s5/fbank/raw_fbank_train.3.ark:9275289
mrlj1_si2301 /u/ravanelm//kaldi-trunk/egs/timit_rev/s5/fbank/raw_fbank_train.4.ark:3426363
mrjb1_sx390 /u/ravanelm//kaldi-trunk/egs/timit_rev/s5/fbank/raw_fbank_train.4.ark:2673962
flac0_sx361 /u/ravanelm//kaldi-trunk/egs/timit_rev/s5/fbank/raw_fbank_train.1.ark:7172637
fmbg0_si1790 /u/ravanelm//kaldi-trunk/egs/timit_rev/s5/fbank/raw_fbank_train.1.ark:8639885
ftbw0_sx85 /u/ravanelm//kaldi-trunk/egs/timit_rev/s5/fbank/raw_fbank_train.2.ark:1525886
mddc0_sx339 /u/ravanelm//kaldi-trunk/egs/timit_rev/s5/fbank/raw_fbank_train.2.ark:6650664
fpaf0_sx244 /u/ravanelm//kaldi-trunk/egs/timit_rev/s5/fbank/raw_fbank_train.1.ark:10145929
fsjk1_si696 /u/ravanelm//kaldi-trunk/egs/timit_rev/s5/fbank/raw_fbank_train.1.ark:11860367
mmlm0_sx267 /u/ravanelm//kaldi-trunk/egs/timit_rev/s5/fbank/raw_fbank_train.3.ark:9669130
mjws0_sx333 /u/ravanelm//kaldi-trunk/egs/timit_rev/s5/fbank/raw_fbank_train.3.ark:5308741
mdpb0_sx146 /u/ravanelm//kaldi-trunk/egs/timit_rev/s5/fbank/raw_fbank_train.2.ark:8549875
mdef0_si2193 /u/ravanelm//kaldi-trunk/egs/timit_rev/s5/fbank/raw_fbank_train.2.ark:6818696
fgcs0_si856 /u/ravanelm//kaldi-trunk/egs/timit_rev/s5/fbank/raw_fbank_train.1.ark:4198309
mrem0_si1591 /u/ravanelm//kaldi-trunk/egs/timit_rev/s5/fbank/raw_fbank_train.4.ark:1859037
mjpg0_si561 /u/ravanelm//kaldi-trunk/egs/timit_rev/s5/fbank/raw_fbank_train.3.ark:4170127
fsag0_si693 /u/ravanelm//kaldi-trunk/egs/timit_rev/s5/fbank/raw_fbank_train.1.ark:10899381
mapv0_sx213 /u/ravanelm//kaldi-trunk/egs/timit_rev/s5/fbank/raw_fbank_train.2.ark:2949166
mrcw0_si741 /u/ravanelm//kaldi-trunk/egs/timit_rev/s5/fbank/raw_fbank_train.4.ark:1300672
mded0_sx360 /u/ravanelm//kaldi-trunk/egs/timit_rev/s5/fbank/raw_fbank_train.2.ark:6749529
mjls0_si1096 /u/ravanelm//kaldi-trunk/egs/timit_rev/s5/fbank/raw_fbank_train.3.ark:3769199
mmws1_si2331 /u/ravanelm//kaldi-trunk/egs/timit_rev/s5/fbank/raw_fbank_train.3.ark:10390120
fjwb1_si748 /u/ravanelm//kaldi-trunk/egs/timit_rev/s5/fbank/raw_fbank_train.1.ark:5886963
mree0_si1104 /u/ravanelm//kaldi-trunk/egs/timit_rev/s5/fbank/raw_fbank_train.4.ark:1644066
fsjs0_sx451 /u/ravanelm//kaldi-trunk/egs/timit_rev/s5/fbank/raw_fbank_train.2.ark:121743
mrds0_si1797 /u/ravanelm//kaldi-trunk/egs/timit_rev/s5/fbank/raw_fbank_train.4.ark:1563515
mcxm0_si1351 /u/ravanelm//kaldi-trunk/egs/timit_rev/s5/fbank/raw_fbank_train.2.ark:5906405
mclk0_sx130 /u/ravanelm//kaldi-trunk/egs/timit_rev/s5/fbank/raw_fbank_train.2.ark:5278651
mree0_sx24 /u/ravanelm//kaldi-trunk/egs/timit_rev/s5/fbank/raw_fbank_train.4.ark:1714592
mmbs0_si1151 /u/ravanelm//kaldi-trunk/egs/timit_rev/s5/fbank/raw_fbank_train.3.ark:8398512
flag0_sx384 /u/ravanelm//kaldi-trunk/egs/timit_rev/s5/fbank/raw_fbank_train.1.ark:7308767
mtdb0_si1401 /u/ravanelm//kaldi-trunk/egs/timit_rev/s5/fbank/raw_fbank_train.4.ark:7761531
mprt0_sx130 /u/ravanelm//kaldi-trunk/egs/timit_rev/s5/fbank/raw_fbank_train.4.ark:431518
fksr0_sx217 /u/ravanelm//kaldi-trunk/egs/timit_rev/s5/fbank/raw_fbank_train.1.ark:7068619
mjda0_sx221 /u/ravanelm//kaldi-trunk/egs/timit_rev/s5/fbank/raw_fbank_train.3.ark:2103746
mntw0_sx202 /u/ravanelm//kaldi-trunk/egs/timit_rev/s5/fbank/raw_fbank_train.3.ark:10686298
mrld0_si2224 /u/ravanelm//kaldi-trunk/egs/timit_rev/s5/fbank/raw_fbank_train.4.ark:3252633
mrgm0_si1162 /u/ravanelm//kaldi-trunk/egs/timit_rev/s5/fbank/raw_fbank_train.4.ark:2249817
fmjb0_sx187 /u/ravanelm//kaldi-trunk/egs/timit_rev/s5/fbank/raw_fbank_train.1.ark:8877121
fsls0_sx426 /u/ravanelm//kaldi-trunk/egs/timit_rev/s5/fbank/raw_fbank_train.2.ark:614149
mmvp0_sx294 /u/ravanelm//kaldi-trunk/egs/timit_rev/s5/fbank/raw_fbank_train.3.ark:10097863
mtbc0_sx347 /u/ravanelm//kaldi-trunk/egs/timit_rev/s5/fbank/raw_fbank_train.4.ark:7623687
mdma0_si1430 /u/ravanelm//kaldi-trunk/egs/timit_rev/s5/fbank/raw_fbank_train.2.ark:8202533
mtwh1_sx162 /u/ravanelm//kaldi-trunk/egs/timit_rev/s5/fbank/raw_fbank_train.4.ark:10035181
mkls1_si1545 /u/ravanelm//kaldi-trunk/egs/timit_rev/s5/fbank/raw_fbank_train.3.ark:6845655
fklc1_sx238 /u/ravanelm//kaldi-trunk/egs/timit_rev/s5/fbank/raw_fbank_train.1.ark:6864609
frll0_si805 /u/ravanelm//kaldi-trunk/egs/timit_rev/s5/fbank/raw_fbank_train.1.ark:10791283
mjlb0_sx266 /u/ravanelm//kaldi-trunk/egs/timit_rev/s5/fbank/raw_fbank_train.3.ark:3637881
mafm0_sx129 /u/ravanelm//kaldi-trunk/egs/timit_rev/s5/fbank/raw_fbank_train.2.ark:2526391
mbma0_sx142 /u/ravanelm//kaldi-trunk/egs/timit_rev/s5/fbank/raw_fbank_train.2.ark:3769078
fbch0_si956 /u/ravanelm//kaldi-trunk/egs/timit_rev/s5/fbank/raw_fbank_train.1.ark:747058
fkfb0_si1608 /u/ravanelm//kaldi-trunk/egs/timit_rev/s5/fbank/raw_fbank_train.1.ark:6491200
fsrh0_sx131 /u/ravanelm//kaldi-trunk/egs/timit_rev/s5/fbank/raw_fbank_train.2.ark:1086455
mmdb0_sx177 /u/ravanelm//kaldi-trunk/egs/timit_rev/s5/fbank/raw_fbank_train.3.ark:8646222
mtpf0_sx155 /u/ravanelm//kaldi-trunk/egs/timit_rev/s5/fbank/raw_fbank_train.4.ark:9243542
fpad0_si1976 /u/ravanelm//kaldi-trunk/egs/timit_rev/s5/fbank/raw_fbank_train.1.ark:9998244
fntb0_sx123 /u/ravanelm//kaldi-trunk/egs/timit_rev/s5/fbank/raw_fbank_train.1.ark:9710155
mdpk0_sx243 /u/ravanelm//kaldi-trunk/egs/timit_rev/s5/fbank/raw_fbank_train.2.ark:8646093
mstf0_sx316 /u/ravanelm//kaldi-trunk/egs/timit_rev/s5/fbank/raw_fbank_train.4.ark:6996217
mbma1_sx324 /u/ravanelm//kaldi-trunk/egs/timit_rev/s5/fbank/raw_fbank_train.2.ark:3891569
mdlr1_si669 /u/ravanelm//kaldi-trunk/egs/timit_rev/s5/fbank/raw_fbank_train.2.ark:8112581
mtlb0_si504 /u/ravanelm//kaldi-trunk/egs/timit_rev/s5/fbank/raw_fbank_train.4.ark:8729743
freh0_sx55 /u/ravanelm//kaldi-trunk/egs/timit_rev/s5/fbank/raw_fbank_train.1.ark:10678870
fgdp0_sx358 /u/ravanelm//kaldi-trunk/egs/timit_rev/s5/fbank/raw_fbank_train.1.ark:4338593
fkaa0_sx128 /u/ravanelm//kaldi-trunk/egs/timit_rev/s5/fbank/raw_fbank_train.1.ark:6213664
mdps0_si719 /u/ravanelm//kaldi-trunk/egs/timit_rev/s5/fbank/raw_fbank_train.2.ark:8714852
fjlr0_sx331 /u/ravanelm//kaldi-trunk/egs/timit_rev/s5/fbank/raw_fbank_train.1.ark:5412930
mrtj0_si1551 /u/ravanelm//kaldi-trunk/egs/timit_rev/s5/fbank/raw_fbank_train.4.ark:4728299
mtjs0_sx382 /u/ravanelm//kaldi-trunk/egs/timit_rev/s5/fbank/raw_fbank_train.4.ark:8380727
mgaf0_sx112 /u/ravanelm//kaldi-trunk/egs/timit_rev/s5/fbank/raw_fbank_train.2.ark:11005924
fsrh0_sx41 /u/ravanelm//kaldi-trunk/egs/timit_rev/s5/fbank/raw_fbank_train.2.ark:1140146
msdh0_si980 /u/ravanelm//kaldi-trunk/egs/timit_rev/s5/fbank/raw_fbank_train.4.ark:5674379
mtrc0_si1623 /u/ravanelm//kaldi-trunk/egs/timit_rev/s5/fbank/raw_fbank_train.4.ark:9725647
mmdm0_sx51 /u/ravanelm//kaldi-trunk/egs/timit_rev/s5/fbank/raw_fbank_train.3.ark:8889683
mjdg0_si1042 /u/ravanelm//kaldi-trunk/egs/timit_rev/s5/fbank/raw_fbank_train.3.ark:2378207
ftmg0_sx182 /u/ravanelm//kaldi-trunk/egs/timit_rev/s5/fbank/raw_fbank_train.2.ark:1678604
mjde0_sx310 /u/ravanelm//kaldi-trunk/egs/timit_rev/s5/fbank/raw_fbank_train.3.ark:2332388
flkm0_sx440 /u/ravanelm//kaldi-trunk/egs/timit_rev/s5/fbank/raw_fbank_train.1.ark:8018352
mtrr0_sx108 /u/ravanelm//kaldi-trunk/egs/timit_rev/s5/fbank/raw_fbank_train.4.ark:9848491
mklr0_sx69 /u/ravanelm//kaldi-trunk/egs/timit_rev/s5/fbank/raw_fbank_train.3.ark:6726115
mjlg1_si1012 /u/ravanelm//kaldi-trunk/egs/timit_rev/s5/fbank/raw_fbank_train.3.ark:3678213
mmag0_sx226 /u/ravanelm//kaldi-trunk/egs/timit_rev/s5/fbank/raw_fbank_train.3.ark:8137129
mrld0_sx244 /u/ravanelm//kaldi-trunk/egs/timit_rev/s5/fbank/raw_fbank_train.4.ark:3285972
mkls0_sx177 /u/ravanelm//kaldi-trunk/egs/timit_rev/s5/fbank/raw_fbank_train.3.ark:6784850
msdh0_sx170 /u/ravanelm//kaldi-trunk/egs/timit_rev/s5/fbank/raw_fbank_train.4.ark:5692652
mter0_sx17 /u/ravanelm//kaldi-trunk/egs/timit_rev/s5/fbank/raw_fbank_train.4.ark:8038474
mree0_sx384 /u/ravanelm//kaldi-trunk/egs/timit_rev/s5/fbank/raw_fbank_train.4.ark:1735058
mtdb0_sx51 /u/ravanelm//kaldi-trunk/egs/timit_rev/s5/fbank/raw_fbank_train.4.ark:7851322
mdmt0_si572 /u/ravanelm//kaldi-trunk/egs/timit_rev/s5/fbank/raw_fbank_train.2.ark:8323032
mjde0_sx40 /u/ravanelm//kaldi-trunk/egs/timit_rev/s5/fbank/raw_fbank_train.3.ark:2347900
mjai0_si682 /u/ravanelm//kaldi-trunk/egs/timit_rev/s5/fbank/raw_fbank_train.3.ark:1880715
fjwb1_sx75 /u/ravanelm//kaldi-trunk/egs/timit_rev/s5/fbank/raw_fbank_train.1.ark:5960840
mgrp0_si1947 /u/ravanelm//kaldi-trunk/egs/timit_rev/s5/fbank/raw_fbank_train.3.ark:500414
mkdd0_sx37 /u/ravanelm//kaldi-trunk/egs/timit_rev/s5/fbank/raw_fbank_train.3.ark:6230477
mges0_sx221 /u/ravanelm//kaldi-trunk/egs/timit_rev/s5/fbank/raw_fbank_train.3.ark:226997
mctm0_si1980 /u/ravanelm//kaldi-trunk/egs/timit_rev/s5/fbank/raw_fbank_train.2.ark:5826294
fpjf0_si1259 /u/ravanelm//kaldi-trunk/egs/timit_rev/s5/fbank/raw_fbank_train.1.ark:10309879
fetb0_sx158 /u/ravanelm//kaldi-trunk/egs/timit_rev/s5/fbank/raw_fbank_train.1.ark:4001451
mjeb0_sx296 /u/ravanelm//kaldi-trunk/egs/timit_rev/s5/fbank/raw_fbank_train.3.ark:2658816
fear0_sx82 /u/ravanelm//kaldi-trunk/egs/timit_rev/s5/fbank/raw_fbank_train.1.ark:3621842
mjda0_si1661 /u/ravanelm//kaldi-trunk/egs/timit_rev/s5/fbank/raw_fbank_train.3.ark:2073286
mmdm0_sx411 /u/ravanelm//kaldi-trunk/egs/timit_rev/s5/fbank/raw_fbank_train.3.ark:8875371
flod0_sx207 /u/ravanelm//kaldi-trunk/egs/timit_rev/s5/fbank/raw_fbank_train.1.ark:8392020
mesg0_sx342 /u/ravanelm//kaldi-trunk/egs/timit_rev/s5/fbank/raw_fbank_train.2.ark:10186684
mjkr0_si1831 /u/ravanelm//kaldi-trunk/egs/timit_rev/s5/fbank/raw_fbank_train.3.ark:3501277
fvmh0_si1466 /u/ravanelm//kaldi-trunk/egs/timit_rev/s5/fbank/raw_fbank_train.2.ark:1927380
fmpg0_si1602 /u/ravanelm//kaldi-trunk/egs/timit_rev/s5/fbank/raw_fbank_train.1.ark:9445206
mbgt0_sx261 /u/ravanelm//kaldi-trunk/egs/timit_rev/s5/fbank/raw_fbank_train.2.ark:3597101
mkln0_sx68 /u/ravanelm//kaldi-trunk/egs/timit_rev/s5/fbank/raw_fbank_train.3.ark:6639569
fpjf0_si1676 /u/ravanelm//kaldi-trunk/egs/timit_rev/s5/fbank/raw_fbank_train.1.ark:10326473
mwad0_sx162 /u/ravanelm//kaldi-trunk/egs/timit_rev/s5/fbank/raw_fbank_train.4.ark:10629453
mejl0_sx332 /u/ravanelm//kaldi-trunk/egs/timit_rev/s5/fbank/raw_fbank_train.2.ark:9992834
mppc0_sx62 /u/ravanelm//kaldi-trunk/egs/timit_rev/s5/fbank/raw_fbank_train.4.ark:37510
mgsl0_sx354 /u/ravanelm//kaldi-trunk/egs/timit_rev/s5/fbank/raw_fbank_train.3.ark:767593
msvs0_si938 /u/ravanelm//kaldi-trunk/egs/timit_rev/s5/fbank/raw_fbank_train.4.ark:7066783
fcmg0_sx432 /u/ravanelm//kaldi-trunk/egs/timit_rev/s5/fbank/raw_fbank_train.1.ark:2079270
milb0_si807 /u/ravanelm//kaldi-trunk/egs/timit_rev/s5/fbank/raw_fbank_train.3.ark:1584722
mjjb0_si1277 /u/ravanelm//kaldi-trunk/egs/timit_rev/s5/fbank/raw_fbank_train.3.ark:3187401
mvjh0_sx116 /u/ravanelm//kaldi-trunk/egs/timit_rev/s5/fbank/raw_fbank_train.4.ark:10249872
mdem0_si1868 /u/ravanelm//kaldi-trunk/egs/timit_rev/s5/fbank/raw_fbank_train.2.ark:6878254
mdas0_sx21 /u/ravanelm//kaldi-trunk/egs/timit_rev/s5/fbank/raw_fbank_train.2.ark:6159267
msmc0_sx197 /u/ravanelm//kaldi-trunk/egs/timit_rev/s5/fbank/raw_fbank_train.4.ark:6503253
mjrh0_si1125 /u/ravanelm//kaldi-trunk/egs/timit_rev/s5/fbank/raw_fbank_train.3.ark:4629265
fpjf0_sx326 /u/ravanelm//kaldi-trunk/egs/timit_rev/s5/fbank/raw_fbank_train.1.ark:10357692
maeb0_si990 /u/ravanelm//kaldi-trunk/egs/timit_rev/s5/fbank/raw_fbank_train.2.ark:2334347
mrmb0_sx321 /u/ravanelm//kaldi-trunk/egs/timit_rev/s5/fbank/raw_fbank_train.4.ark:3751251
msmr0_sx55 /u/ravanelm//kaldi-trunk/egs/timit_rev/s5/fbank/raw_fbank_train.4.ark:6626024
mdhl0_sx269 /u/ravanelm//kaldi-trunk/egs/timit_rev/s5/fbank/raw_fbank_train.2.ark:7048731
mdpk0_sx153 /u/ravanelm//kaldi-trunk/egs/timit_rev/s5/fbank/raw_fbank_train.2.ark:8634060
mdps0_si1979 /u/ravanelm//kaldi-trunk/egs/timit_rev/s5/fbank/raw_fbank_train.2.ark:8701419
mmdm0_sx141 /u/ravanelm//kaldi-trunk/egs/timit_rev/s5/fbank/raw_fbank_train.3.ark:8841112
fhxs0_si2302 /u/ravanelm//kaldi-trunk/egs/timit_rev/s5/fbank/raw_fbank_train.1.ark:4735363
fsag0_sx63 /u/ravanelm//kaldi-trunk/egs/timit_rev/s5/fbank/raw_fbank_train.1.ark:10981625
fcjf0_si1027 /u/ravanelm//kaldi-trunk/egs/timit_rev/s5/fbank/raw_fbank_train.1.ark:1644050
fsrh0_sx221 /u/ravanelm//kaldi-trunk/egs/timit_rev/s5/fbank/raw_fbank_train.2.ark:1096648
fdkn0_si1081 /u/ravanelm//kaldi-trunk/egs/timit_rev/s5/fbank/raw_fbank_train.1.ark:2787113
mjra0_si1866 /u/ravanelm//kaldi-trunk/egs/timit_rev/s5/fbank/raw_fbank_train.3.ark:4442129
mtpf0_sx335 /u/ravanelm//kaldi-trunk/egs/timit_rev/s5/fbank/raw_fbank_train.4.ark:9267608
mjmd0_sx38 /u/ravanelm//kaldi-trunk/egs/timit_rev/s5/fbank/raw_fbank_train.3.ark:4027808
mrkm0_sx187 /u/ravanelm//kaldi-trunk/egs/timit_rev/s5/fbank/raw_fbank_train.4.ark:3173556
mcdr0_si1784 /u/ravanelm//kaldi-trunk/egs/timit_rev/s5/fbank/raw_fbank_train.2.ark:4817964
mhmr0_sx399 /u/ravanelm//kaldi-trunk/egs/timit_rev/s5/fbank/raw_fbank_train.3.ark:1368406
fcyl0_sx37 /u/ravanelm//kaldi-trunk/egs/timit_rev/s5/fbank/raw_fbank_train.1.ark:2375024
mjsr0_si794 /u/ravanelm//kaldi-trunk/egs/timit_rev/s5/fbank/raw_fbank_train.3.ark:5042593
mjwt0_sx31 /u/ravanelm//kaldi-trunk/egs/timit_rev/s5/fbank/raw_fbank_train.3.ark:5443958
fhlm0_sx300 /u/ravanelm//kaldi-trunk/egs/timit_rev/s5/fbank/raw_fbank_train.1.ark:4674189
maeb0_sx180 /u/ravanelm//kaldi-trunk/egs/timit_rev/s5/fbank/raw_fbank_train.2.ark:2347740
mrlj1_si2332 /u/ravanelm//kaldi-trunk/egs/timit_rev/s5/fbank/raw_fbank_train.4.ark:3442757
mntw0_sx258 /u/ravanelm//kaldi-trunk/egs/timit_rev/s5/fbank/raw_fbank_train.3.ark:10694731
mmwb0_sx269 /u/ravanelm//kaldi-trunk/egs/timit_rev/s5/fbank/raw_fbank_train.3.ark:10207896
mljh0_sx244 /u/ravanelm//kaldi-trunk/egs/timit_rev/s5/fbank/raw_fbank_train.3.ark:7613724
mdwd0_si1890 /u/ravanelm//kaldi-trunk/egs/timit_rev/s5/fbank/raw_fbank_train.2.ark:9268970
mrgm0_sx82 /u/ravanelm//kaldi-trunk/egs/timit_rev/s5/fbank/raw_fbank_train.4.ark:2359168
mrab0_si1854 /u/ravanelm//kaldi-trunk/egs/timit_rev/s5/fbank/raw_fbank_train.4.ark:574822
mram0_sx375 /u/ravanelm//kaldi-trunk/egs/timit_rev/s5/fbank/raw_fbank_train.4.ark:957335
flja0_si1078 /u/ravanelm//kaldi-trunk/egs/timit_rev/s5/fbank/raw_fbank_train.1.ark:7609278
mmdg0_si1780 /u/ravanelm//kaldi-trunk/egs/timit_rev/s5/fbank/raw_fbank_train.3.ark:8694547
mcef0_si1765 /u/ravanelm//kaldi-trunk/egs/timit_rev/s5/fbank/raw_fbank_train.2.ark:4924789
mtbc0_sx273 /u/ravanelm//kaldi-trunk/egs/timit_rev/s5/fbank/raw_fbank_train.4.ark:7613854
mded0_si1170 /u/ravanelm//kaldi-trunk/egs/timit_rev/s5/fbank/raw_fbank_train.2.ark:6681163
mmea0_sx38 /u/ravanelm//kaldi-trunk/egs/timit_rev/s5/fbank/raw_fbank_train.3.ark:9145485
mmab1_sx54 /u/ravanelm//kaldi-trunk/egs/timit_rev/s5/fbank/raw_fbank_train.3.ark:8061682
mjhi0_si1328 /u/ravanelm//kaldi-trunk/egs/timit_rev/s5/fbank/raw_fbank_train.3.ark:3072543
fjsp0_sx84 /u/ravanelm//kaldi-trunk/egs/timit_rev/s5/fbank/raw_fbank_train.1.ark:5862656
mjae0_sx354 /u/ravanelm//kaldi-trunk/egs/timit_rev/s5/fbank/raw_fbank_train.3.ark:1824223
marc0_sx198 /u/ravanelm//kaldi-trunk/egs/timit_rev/s5/fbank/raw_fbank_train.2.ark:3040583
mkah0_sx448 /u/ravanelm//kaldi-trunk/egs/timit_rev/s5/fbank/raw_fbank_train.3.ark:5840258
mcew0_si812 /u/ravanelm//kaldi-trunk/egs/timit_rev/s5/fbank/raw_fbank_train.2.ark:5036687
mkdd0_sx127 /u/ravanelm//kaldi-trunk/egs/timit_rev/s5/fbank/raw_fbank_train.3.ark:6207859
mjee0_si1237 /u/ravanelm//kaldi-trunk/egs/timit_rev/s5/fbank/raw_fbank_train.3.ark:2786308
mrws0_si1732 /u/ravanelm//kaldi-trunk/egs/timit_rev/s5/fbank/raw_fbank_train.4.ark:5053648
mjfr0_sx345 /u/ravanelm//kaldi-trunk/egs/timit_rev/s5/fbank/raw_fbank_train.3.ark:3028084
mklw0_si1844 /u/ravanelm//kaldi-trunk/egs/timit_rev/s5/fbank/raw_fbank_train.3.ark:6961474
mkjo0_si2147 /u/ravanelm//kaldi-trunk/egs/timit_rev/s5/fbank/raw_fbank_train.3.ark:6478587
mfxv0_sx195 /u/ravanelm//kaldi-trunk/egs/timit_rev/s5/fbank/raw_fbank_train.2.ark:10933004
fsjg0_sx40 /u/ravanelm//kaldi-trunk/egs/timit_rev/s5/fbank/raw_fbank_train.1.ark:11804833
mfxv0_si1005 /u/ravanelm//kaldi-trunk/egs/timit_rev/s5/fbank/raw_fbank_train.2.ark:10870718
mrtj0_sx232 /u/ravanelm//kaldi-trunk/egs/timit_rev/s5/fbank/raw_fbank_train.4.ark:4793712
mjrh0_sx225 /u/ravanelm//kaldi-trunk/egs/timit_rev/s5/fbank/raw_fbank_train.3.ark:4685039
medr0_si1374 /u/ravanelm//kaldi-trunk/egs/timit_rev/s5/fbank/raw_fbank_train.2.ark:9638077
mpeb0_si1860 /u/ravanelm//kaldi-trunk/egs/timit_rev/s5/fbank/raw_fbank_train.3.ark:10825569
fdml0_sx249 /u/ravanelm//kaldi-trunk/egs/timit_rev/s5/fbank/raw_fbank_train.1.ark:2944353
mpmb0_si871 /u/ravanelm//kaldi-trunk/egs/timit_rev/s5/fbank/raw_fbank_train.3.ark:11337607
mchl0_sx177 /u/ravanelm//kaldi-trunk/egs/timit_rev/s5/fbank/raw_fbank_train.2.ark:5176586
fpmy0_sx253 /u/ravanelm//kaldi-trunk/egs/timit_rev/s5/fbank/raw_fbank_train.1.ark:10563420
mdpk0_si552 /u/ravanelm//kaldi-trunk/egs/timit_rev/s5/fbank/raw_fbank_train.2.ark:8627147
mdsj0_sx112 /u/ravanelm//kaldi-trunk/egs/timit_rev/s5/fbank/raw_fbank_train.2.ark:8934055
mtpf0_sx425 /u/ravanelm//kaldi-trunk/egs/timit_rev/s5/fbank/raw_fbank_train.4.ark:9283321
mpar0_sx316 /u/ravanelm//kaldi-trunk/egs/timit_rev/s5/fbank/raw_fbank_train.3.ark:10790036
mrjm0_sx328 /u/ravanelm//kaldi-trunk/egs/timit_rev/s5/fbank/raw_fbank_train.4.ark:2866467
fjxp0_sx222 /u/ravanelm//kaldi-trunk/egs/timit_rev/s5/fbank/raw_fbank_train.1.ark:6128432
fjdm2_si1964 /u/ravanelm//kaldi-trunk/egs/timit_rev/s5/fbank/raw_fbank_train.1.ark:4850229
fgcs0_si2116 /u/ravanelm//kaldi-trunk/egs/timit_rev/s5/fbank/raw_fbank_train.1.ark:4186596
msfv0_si1262 /u/ravanelm//kaldi-trunk/egs/timit_rev/s5/fbank/raw_fbank_train.4.ark:6221279
fjlr0_si1231 /u/ravanelm//kaldi-trunk/egs/timit_rev/s5/fbank/raw_fbank_train.1.ark:5351804
mcss0_si1380 /u/ravanelm//kaldi-trunk/egs/timit_rev/s5/fbank/raw_fbank_train.2.ark:5609571
fjhk0_sx302 /u/ravanelm//kaldi-trunk/egs/timit_rev/s5/fbank/raw_fbank_train.1.ark:5127014
mmws1_si1701 /u/ravanelm//kaldi-trunk/egs/timit_rev/s5/fbank/raw_fbank_train.3.ark:10380086
fpac0_sx211 /u/ravanelm//kaldi-trunk/egs/timit_rev/s5/fbank/raw_fbank_train.1.ark:9938598
msat1_si1073 /u/ravanelm//kaldi-trunk/egs/timit_rev/s5/fbank/raw_fbank_train.4.ark:5496060
mjrk0_si2103 /u/ravanelm//kaldi-trunk/egs/timit_rev/s5/fbank/raw_fbank_train.3.ark:4833230
mdlm0_sx244 /u/ravanelm//kaldi-trunk/egs/timit_rev/s5/fbank/raw_fbank_train.2.ark:7945037
mdps0_sx359 /u/ravanelm//kaldi-trunk/egs/timit_rev/s5/fbank/raw_fbank_train.2.ark:8746711
fsah0_sx164 /u/ravanelm//kaldi-trunk/egs/timit_rev/s5/fbank/raw_fbank_train.1.ark:11040199
fapb0_si2323 /u/ravanelm//kaldi-trunk/egs/timit_rev/s5/fbank/raw_fbank_train.1.ark:431736
fvkb0_si529 /u/ravanelm//kaldi-trunk/egs/timit_rev/s5/fbank/raw_fbank_train.2.ark:1843302
fjen0_sx417 /u/ravanelm//kaldi-trunk/egs/timit_rev/s5/fbank/raw_fbank_train.1.ark:5030861
fsjs0_si1171 /u/ravanelm//kaldi-trunk/egs/timit_rev/s5/fbank/raw_fbank_train.2.ark:43184
fclt0_sx448 /u/ravanelm//kaldi-trunk/egs/timit_rev/s5/fbank/raw_fbank_train.1.ark:1975924
mkln0_sx428 /u/ravanelm//kaldi-trunk/egs/timit_rev/s5/fbank/raw_fbank_train.3.ark:6625697
fskp0_sx108 /u/ravanelm//kaldi-trunk/egs/timit_rev/s5/fbank/raw_fbank_train.2.ark:485504
mgaf0_sx382 /u/ravanelm//kaldi-trunk/egs/timit_rev/s5/fbank/raw_fbank_train.2.ark:11041735
fhlm0_si2190 /u/ravanelm//kaldi-trunk/egs/timit_rev/s5/fbank/raw_fbank_train.1.ark:4620937
fmem0_sx387 /u/ravanelm//kaldi-trunk/egs/timit_rev/s5/fbank/raw_fbank_train.1.ark:8813507
mrew1_si870 /u/ravanelm//kaldi-trunk/egs/timit_rev/s5/fbank/raw_fbank_train.4.ark:1973968
mdss1_sx247 /u/ravanelm//kaldi-trunk/egs/timit_rev/s5/fbank/raw_fbank_train.2.ark:9121138
fdjh0_sx35 /u/ravanelm//kaldi-trunk/egs/timit_rev/s5/fbank/raw_fbank_train.1.ark:2764726
mkls0_sx357 /u/ravanelm//kaldi-trunk/egs/timit_rev/s5/fbank/raw_fbank_train.3.ark:6808636
fbch0_sx236 /u/ravanelm//kaldi-trunk/egs/timit_rev/s5/fbank/raw_fbank_train.1.ark:789957
mewm0_sx448 /u/ravanelm//kaldi-trunk/egs/timit_rev/s5/fbank/raw_fbank_train.2.ark:10374765
mlel0_sx76 /u/ravanelm//kaldi-trunk/egs/timit_rev/s5/fbank/raw_fbank_train.3.ark:7428092
falr0_sx65 /u/ravanelm//kaldi-trunk/egs/timit_rev/s5/fbank/raw_fbank_train.1.ark:393554
mgxp0_sx97 /u/ravanelm//kaldi-trunk/egs/timit_rev/s5/fbank/raw_fbank_train.3.ark:905040
fceg0_sx348 /u/ravanelm//kaldi-trunk/egs/timit_rev/s5/fbank/raw_fbank_train.1.ark:1608831
mjmd0_sx308 /u/ravanelm//kaldi-trunk/egs/timit_rev/s5/fbank/raw_fbank_train.3.ark:4017416
mmds0_sx83 /u/ravanelm//kaldi-trunk/egs/timit_rev/s5/fbank/raw_fbank_train.3.ark:9072653
fbcg1_si982 /u/ravanelm//kaldi-trunk/egs/timit_rev/s5/fbank/raw_fbank_train.1.ark:648827
maeb0_sx270 /u/ravanelm//kaldi-trunk/egs/timit_rev/s5/fbank/raw_fbank_train.2.ark:2359053
fpmy0_si523 /u/ravanelm//kaldi-trunk/egs/timit_rev/s5/fbank/raw_fbank_train.1.ark:10517281
fsag0_sx243 /u/ravanelm//kaldi-trunk/egs/timit_rev/s5/fbank/raw_fbank_train.1.ark:10930207
mrgs0_si1986 /u/ravanelm//kaldi-trunk/egs/timit_rev/s5/fbank/raw_fbank_train.4.ark:2390236
mcef0_sx325 /u/ravanelm//kaldi-trunk/egs/timit_rev/s5/fbank/raw_fbank_train.2.ark:4974081
mjra0_sx336 /u/ravanelm//kaldi-trunk/egs/timit_rev/s5/fbank/raw_fbank_train.3.ark:4488981
meal0_sx107 /u/ravanelm//kaldi-trunk/egs/timit_rev/s5/fbank/raw_fbank_train.2.ark:9587231
mges0_sx311 /u/ravanelm//kaldi-trunk/egs/timit_rev/s5/fbank/raw_fbank_train.3.ark:236510
mmvp0_si654 /u/ravanelm//kaldi-trunk/egs/timit_rev/s5/fbank/raw_fbank_train.3.ark:10046084
mhmg0_si735 /u/ravanelm//kaldi-trunk/egs/timit_rev/s5/fbank/raw_fbank_train.3.ark:1207017
mejl0_si1654 /u/ravanelm//kaldi-trunk/egs/timit_rev/s5/fbank/raw_fbank_train.2.ark:9951382
mctm0_si1350 /u/ravanelm//kaldi-trunk/egs/timit_rev/s5/fbank/raw_fbank_train.2.ark:5809260
mclm0_sx106 /u/ravanelm//kaldi-trunk/egs/timit_rev/s5/fbank/raw_fbank_train.2.ark:5373476
mbbr0_si1055 /u/ravanelm//kaldi-trunk/egs/timit_rev/s5/fbank/raw_fbank_train.2.ark:3272973
feme0_sx335 /u/ravanelm//kaldi-trunk/egs/timit_rev/s5/fbank/raw_fbank_train.1.ark:3920852
mram0_si1951 /u/ravanelm//kaldi-trunk/egs/timit_rev/s5/fbank/raw_fbank_train.4.ark:896611
mbgt0_sx351 /u/ravanelm//kaldi-trunk/egs/timit_rev/s5/fbank/raw_fbank_train.2.ark:3606734
ftbw0_sx265 /u/ravanelm//kaldi-trunk/egs/timit_rev/s5/fbank/raw_fbank_train.2.ark:1494108
fskc0_sx426 /u/ravanelm//kaldi-trunk/egs/timit_rev/s5/fbank/raw_fbank_train.2.ark:324273
mmgg0_si1079 /u/ravanelm//kaldi-trunk/egs/timit_rev/s5/fbank/raw_fbank_train.3.ark:9349521
mjee0_si1867 /u/ravanelm//kaldi-trunk/egs/timit_rev/s5/fbank/raw_fbank_train.3.ark:2799502
mtjs0_sx22 /u/ravanelm//kaldi-trunk/egs/timit_rev/s5/fbank/raw_fbank_train.4.ark:8356581
mdlr0_si1233 /u/ravanelm//kaldi-trunk/egs/timit_rev/s5/fbank/raw_fbank_train.2.ark:7983209
mtjg0_si890 /u/ravanelm//kaldi-trunk/egs/timit_rev/s5/fbank/raw_fbank_train.4.ark:8098793
mklw0_sx401 /u/ravanelm//kaldi-trunk/egs/timit_rev/s5/fbank/raw_fbank_train.3.ark:7017720
fsdj0_sx305 /u/ravanelm//kaldi-trunk/egs/timit_rev/s5/fbank/raw_fbank_train.1.ark:11576271
mjpm0_sx198 /u/ravanelm//kaldi-trunk/egs/timit_rev/s5/fbank/raw_fbank_train.3.ark:4293010
mwch0_sx92 /u/ravanelm//kaldi-trunk/egs/timit_rev/s5/fbank/raw_fbank_train.4.ark:10846316
faem0_si1392 /u/ravanelm//kaldi-trunk/egs/timit_rev/s5/fbank/raw_fbank_train.1.ark:13
mrdd0_si1050 /u/ravanelm//kaldi-trunk/egs/timit_rev/s5/fbank/raw_fbank_train.4.ark:1364790
msfh0_sx226 /u/ravanelm//kaldi-trunk/egs/timit_rev/s5/fbank/raw_fbank_train.4.ark:6165867
mjai0_sx254 /u/ravanelm//kaldi-trunk/egs/timit_rev/s5/fbank/raw_fbank_train.3.ark:1930614
mdem0_si800 /u/ravanelm//kaldi-trunk/egs/timit_rev/s5/fbank/raw_fbank_train.2.ark:6907000
mdks0_sx346 /u/ravanelm//kaldi-trunk/egs/timit_rev/s5/fbank/raw_fbank_train.2.ark:7342280
mtwh1_sx432 /u/ravanelm//kaldi-trunk/egs/timit_rev/s5/fbank/raw_fbank_train.4.ark:10067600
mrjt0_sx238 /u/ravanelm//kaldi-trunk/egs/timit_rev/s5/fbank/raw_fbank_train.4.ark:3057644
msvs0_si1568 /u/ravanelm//kaldi-trunk/egs/timit_rev/s5/fbank/raw_fbank_train.4.ark:7035116
fdtd0_sx211 /u/ravanelm//kaldi-trunk/egs/timit_rev/s5/fbank/raw_fbank_train.1.ark:3286828
mrab0_si1224 /u/ravanelm//kaldi-trunk/egs/timit_rev/s5/fbank/raw_fbank_train.4.ark:564788
mtcs0_sx262 /u/ravanelm//kaldi-trunk/egs/timit_rev/s5/fbank/raw_fbank_train.4.ark:7709999
mwac0_sx71 /u/ravanelm//kaldi-trunk/egs/timit_rev/s5/fbank/raw_fbank_train.4.ark:10590478
fsgf0_sx27 /u/ravanelm//kaldi-trunk/egs/timit_rev/s5/fbank/raw_fbank_train.1.ark:11675055
fcdr1_si1186 /u/ravanelm//kaldi-trunk/egs/timit_rev/s5/fbank/raw_fbank_train.1.ark:1433240
mdss1_si1327 /u/ravanelm//kaldi-trunk/egs/timit_rev/s5/fbank/raw_fbank_train.2.ark:9076685
falr0_sx155 /u/ravanelm//kaldi-trunk/egs/timit_rev/s5/fbank/raw_fbank_train.1.ark:346423
mdlc0_sx405 /u/ravanelm//kaldi-trunk/egs/timit_rev/s5/fbank/raw_fbank_train.2.ark:7584803
fcmm0_sx93 /u/ravanelm//kaldi-trunk/egs/timit_rev/s5/fbank/raw_fbank_train.1.ark:2192847
mrjm0_sx148 /u/ravanelm//kaldi-trunk/egs/timit_rev/s5/fbank/raw_fbank_train.4.ark:2844121
madc0_sx107 /u/ravanelm//kaldi-trunk/egs/timit_rev/s5/fbank/raw_fbank_train.2.ark:2154410
mdns0_sx111 /u/ravanelm//kaldi-trunk/egs/timit_rev/s5/fbank/raw_fbank_train.2.ark:8449450
flac0_sx451 /u/ravanelm//kaldi-trunk/egs/timit_rev/s5/fbank/raw_fbank_train.1.ark:7183190
mtqc0_si480 /u/ravanelm//kaldi-trunk/egs/timit_rev/s5/fbank/raw_fbank_train.4.ark:9633249
fjrp1_si2062 /u/ravanelm//kaldi-trunk/egs/timit_rev/s5/fbank/raw_fbank_train.1.ark:5576648
mrjm0_sx58 /u/ravanelm//kaldi-trunk/egs/timit_rev/s5/fbank/raw_fbank_train.4.ark:2894092
mrbc0_si599 /u/ravanelm//kaldi-trunk/egs/timit_rev/s5/fbank/raw_fbank_train.4.ark:1079902
mbcg0_sx57 /u/ravanelm//kaldi-trunk/egs/timit_rev/s5/fbank/raw_fbank_train.2.ark:3448149
fgcs0_sx136 /u/ravanelm//kaldi-trunk/egs/timit_rev/s5/fbank/raw_fbank_train.1.ark:4208462
mfmc0_sx52 /u/ravanelm//kaldi-trunk/egs/timit_rev/s5/fbank/raw_fbank_train.2.ark:10571367
fkdw0_sx397 /u/ravanelm//kaldi-trunk/egs/timit_rev/s5/fbank/raw_fbank_train.1.ark:6479526
mgaw0_sx445 /u/ravanelm//kaldi-trunk/egs/timit_rev/s5/fbank/raw_fbank_train.3.ark:175598
mded0_sx450 /u/ravanelm//kaldi-trunk/egs/timit_rev/s5/fbank/raw_fbank_train.2.ark:6762322
mprd0_sx261 /u/ravanelm//kaldi-trunk/egs/timit_rev/s5/fbank/raw_fbank_train.4.ark:229422
mchl0_si1404 /u/ravanelm//kaldi-trunk/egs/timit_rev/s5/fbank/raw_fbank_train.2.ark:5152079
mrjm1_si1928 /u/ravanelm//kaldi-trunk/egs/timit_rev/s5/fbank/raw_fbank_train.4.ark:2925880
mctm0_sx270 /u/ravanelm//kaldi-trunk/egs/timit_rev/s5/fbank/raw_fbank_train.2.ark:5863793
fcmg0_si1242 /u/ravanelm//kaldi-trunk/egs/timit_rev/s5/fbank/raw_fbank_train.1.ark:2020344
fbmh0_sx326 /u/ravanelm//kaldi-trunk/egs/timit_rev/s5/fbank/raw_fbank_train.1.ark:1113906
mmab1_sx234 /u/ravanelm//kaldi-trunk/egs/timit_rev/s5/fbank/raw_fbank_train.3.ark:8019144
mcal0_sx148 /u/ravanelm//kaldi-trunk/egs/timit_rev/s5/fbank/raw_fbank_train.2.ark:4554035
fntb0_sx33 /u/ravanelm//kaldi-trunk/egs/timit_rev/s5/fbank/raw_fbank_train.1.ark:9741733
mrmb0_si1581 /u/ravanelm//kaldi-trunk/egs/timit_rev/s5/fbank/raw_fbank_train.4.ark:3693765
ftlg0_sx123 /u/ravanelm//kaldi-trunk/egs/timit_rev/s5/fbank/raw_fbank_train.2.ark:1585299
msrg0_si591 /u/ravanelm//kaldi-trunk/egs/timit_rev/s5/fbank/raw_fbank_train.4.ark:6758750
mpar0_si1576 /u/ravanelm//kaldi-trunk/egs/timit_rev/s5/fbank/raw_fbank_train.3.ark:10734870
mtjs0_si1192 /u/ravanelm//kaldi-trunk/egs/timit_rev/s5/fbank/raw_fbank_train.4.ark:8280896
mdlb0_sx46 /u/ravanelm//kaldi-trunk/egs/timit_rev/s5/fbank/raw_fbank_train.2.ark:7492010
mjma0_sx325 /u/ravanelm//kaldi-trunk/egs/timit_rev/s5/fbank/raw_fbank_train.3.ark:3936270
mrsp0_si2059 /u/ravanelm//kaldi-trunk/egs/timit_rev/s5/fbank/raw_fbank_train.4.ark:4535603
mbjv0_sx77 /u/ravanelm//kaldi-trunk/egs/timit_rev/s5/fbank/raw_fbank_train.2.ark:3726544
frjb0_sx77 /u/ravanelm//kaldi-trunk/egs/timit_rev/s5/fbank/raw_fbank_train.1.ark:10769256
mvrw0_si1485 /u/ravanelm//kaldi-trunk/egs/timit_rev/s5/fbank/raw_fbank_train.4.ark:10400422
mrai0_si792 /u/ravanelm//kaldi-trunk/egs/timit_rev/s5/fbank/raw_fbank_train.4.ark:789865
mtat0_sx120 /u/ravanelm//kaldi-trunk/egs/timit_rev/s5/fbank/raw_fbank_train.4.ark:7401811
mrgs0_sx96 /u/ravanelm//kaldi-trunk/egs/timit_rev/s5/fbank/raw_fbank_train.4.ark:2470391
mgag0_sx61 /u/ravanelm//kaldi-trunk/egs/timit_rev/s5/fbank/raw_fbank_train.2.ark:11131719
mded0_si1800 /u/ravanelm//kaldi-trunk/egs/timit_rev/s5/fbank/raw_fbank_train.2.ark:6694077
mrcg0_si2058 /u/ravanelm//kaldi-trunk/egs/timit_rev/s5/fbank/raw_fbank_train.4.ark:1174374
megj0_sx77 /u/ravanelm//kaldi-trunk/egs/timit_rev/s5/fbank/raw_fbank_train.2.ark:9927674
mmam0_sx427 /u/ravanelm//kaldi-trunk/egs/timit_rev/s5/fbank/raw_fbank_train.3.ark:8253701
ftlg0_si840 /u/ravanelm//kaldi-trunk/egs/timit_rev/s5/fbank/raw_fbank_train.2.ark:1574466
mdlc1_sx85 /u/ravanelm//kaldi-trunk/egs/timit_rev/s5/fbank/raw_fbank_train.2.ark:7696541
mbwp0_sx259 /u/ravanelm//kaldi-trunk/egs/timit_rev/s5/fbank/raw_fbank_train.2.ark:4335260
flac0_si1339 /u/ravanelm//kaldi-trunk/egs/timit_rev/s5/fbank/raw_fbank_train.1.ark:7115751
frll0_sx164 /u/ravanelm//kaldi-trunk/egs/timit_rev/s5/fbank/raw_fbank_train.1.ark:10824829
fgcs0_sx226 /u/ravanelm//kaldi-trunk/egs/timit_rev/s5/fbank/raw_fbank_train.1.ark:4224575
fbmh0_sx416 /u/ravanelm//kaldi-trunk/egs/timit_rev/s5/fbank/raw_fbank_train.1.ark:1123899
mjxl0_sx92 /u/ravanelm//kaldi-trunk/egs/timit_rev/s5/fbank/raw_fbank_train.3.ark:5647801
fjrb0_sx42 /u/ravanelm//kaldi-trunk/egs/timit_rev/s5/fbank/raw_fbank_train.1.ark:5540180
mdjm0_sx195 /u/ravanelm//kaldi-trunk/egs/timit_rev/s5/fbank/raw_fbank_train.2.ark:7252453
mhit0_si2243 /u/ravanelm//kaldi-trunk/egs/timit_rev/s5/fbank/raw_fbank_train.3.ark:1018333
fkfb0_sx258 /u/ravanelm//kaldi-trunk/egs/timit_rev/s5/fbank/raw_fbank_train.1.ark:6543813
fklc1_sx148 /u/ravanelm//kaldi-trunk/egs/timit_rev/s5/fbank/raw_fbank_train.1.ark:6853176
fljd0_si1516 /u/ravanelm//kaldi-trunk/egs/timit_rev/s5/fbank/raw_fbank_train.1.ark:7716864
fjhk0_sx392 /u/ravanelm//kaldi-trunk/egs/timit_rev/s5/fbank/raw_fbank_train.1.ark:5147679
fjxm0_sx401 /u/ravanelm//kaldi-trunk/egs/timit_rev/s5/fbank/raw_fbank_train.1.ark:6047993
mwar0_sx235 /u/ravanelm//kaldi-trunk/egs/timit_rev/s5/fbank/raw_fbank_train.4.ark:10728952
mmlm0_si1527 /u/ravanelm//kaldi-trunk/egs/timit_rev/s5/fbank/raw_fbank_train.3.ark:9629077
flod0_si657 /u/ravanelm//kaldi-trunk/egs/timit_rev/s5/fbank/raw_fbank_train.1.ark:8354841
fjhk0_si1652 /u/ravanelm//kaldi-trunk/egs/timit_rev/s5/fbank/raw_fbank_train.1.ark:5071801
mpgh0_sx204 /u/ravanelm//kaldi-trunk/egs/timit_rev/s5/fbank/raw_fbank_train.3.ark:11064797
mhmr0_sx129 /u/ravanelm//kaldi-trunk/egs/timit_rev/s5/fbank/raw_fbank_train.3.ark:1317835
mkjo0_si887 /u/ravanelm//kaldi-trunk/egs/timit_rev/s5/fbank/raw_fbank_train.3.ark:6487340
mmws1_sx81 /u/ravanelm//kaldi-trunk/egs/timit_rev/s5/fbank/raw_fbank_train.3.ark:10436083
fsmm0_sx414 /u/ravanelm//kaldi-trunk/egs/timit_rev/s5/fbank/raw_fbank_train.2.ark:823439
msds0_sx447 /u/ravanelm//kaldi-trunk/egs/timit_rev/s5/fbank/raw_fbank_train.4.ark:5860057
mhbs0_sx135 /u/ravanelm//kaldi-trunk/egs/timit_rev/s5/fbank/raw_fbank_train.3.ark:956614
mfmc0_si1132 /u/ravanelm//kaldi-trunk/egs/timit_rev/s5/fbank/raw_fbank_train.2.ark:10479536
mjpm1_sx401 /u/ravanelm//kaldi-trunk/egs/timit_rev/s5/fbank/raw_fbank_train.3.ark:4403389
mppc0_sx152 /u/ravanelm//kaldi-trunk/egs/timit_rev/s5/fbank/raw_fbank_train.3.ark:11494145
fmpg0_sx252 /u/ravanelm//kaldi-trunk/egs/timit_rev/s5/fbank/raw_fbank_train.1.ark:9511659
mbbr0_si1685 /u/ravanelm//kaldi-trunk/egs/timit_rev/s5/fbank/raw_fbank_train.2.ark:3291167
mrsp0_sx79 /u/ravanelm//kaldi-trunk/egs/timit_rev/s5/fbank/raw_fbank_train.4.ark:4609560
mtat0_sx30 /u/ravanelm//kaldi-trunk/egs/timit_rev/s5/fbank/raw_fbank_train.4.ark:7423796
flma0_si1873 /u/ravanelm//kaldi-trunk/egs/timit_rev/s5/fbank/raw_fbank_train.1.ark:8053772
fpac0_sx391 /u/ravanelm//kaldi-trunk/egs/timit_rev/s5/fbank/raw_fbank_train.1.ark:9974256
fecd0_sx158 /u/ravanelm//kaldi-trunk/egs/timit_rev/s5/fbank/raw_fbank_train.1.ark:3687976
mkjo0_sx257 /u/ravanelm//kaldi-trunk/egs/timit_rev/s5/fbank/raw_fbank_train.3.ark:6511046
mpgr0_si2040 /u/ravanelm//kaldi-trunk/egs/timit_rev/s5/fbank/raw_fbank_train.3.ark:11115323
mdwd0_sx270 /u/ravanelm//kaldi-trunk/egs/timit_rev/s5/fbank/raw_fbank_train.2.ark:9300709
mmgk0_si692 /u/ravanelm//kaldi-trunk/egs/timit_rev/s5/fbank/raw_fbank_train.3.ark:9467534
mdlc2_si1614 /u/ravanelm//kaldi-trunk/egs/timit_rev/s5/fbank/raw_fbank_train.2.ark:7705615
fsak0_sx130 /u/ravanelm//kaldi-trunk/egs/timit_rev/s5/fbank/raw_fbank_train.1.ark:11140744
mbma0_si1222 /u/ravanelm//kaldi-trunk/egs/timit_rev/s5/fbank/raw_fbank_train.2.ark:3736458
fdml0_sx339 /u/ravanelm//kaldi-trunk/egs/timit_rev/s5/fbank/raw_fbank_train.1.ark:2952626
mtpr0_si2230 /u/ravanelm//kaldi-trunk/egs/timit_rev/s5/fbank/raw_fbank_train.4.ark:9494351
mjbg0_si1232 /u/ravanelm//kaldi-trunk/egs/timit_rev/s5/fbank/raw_fbank_train.3.ark:1966906
mpgh0_sx114 /u/ravanelm//kaldi-trunk/egs/timit_rev/s5/fbank/raw_fbank_train.3.ark:11055324
mjlb0_sx356 /u/ravanelm//kaldi-trunk/egs/timit_rev/s5/fbank/raw_fbank_train.3.ark:3647434
msjk0_sx246 /u/ravanelm//kaldi-trunk/egs/timit_rev/s5/fbank/raw_fbank_train.4.ark:6386397
fhxs0_sx265 /u/ravanelm//kaldi-trunk/egs/timit_rev/s5/fbank/raw_fbank_train.1.ark:4794663
mprd0_sx351 /u/ravanelm//kaldi-trunk/egs/timit_rev/s5/fbank/raw_fbank_train.4.ark:239695
mtjs0_si1822 /u/ravanelm//kaldi-trunk/egs/timit_rev/s5/fbank/raw_fbank_train.4.ark:8290610
mrmg0_si2340 /u/ravanelm//kaldi-trunk/egs/timit_rev/s5/fbank/raw_fbank_train.4.ark:3811218
mgak0_si1666 /u/ravanelm//kaldi-trunk/egs/timit_rev/s5/fbank/raw_fbank_train.2.ark:11161427
mrkm0_si1267 /u/ravanelm//kaldi-trunk/egs/timit_rev/s5/fbank/raw_fbank_train.4.ark:3113696
mrwa0_sx253 /u/ravanelm//kaldi-trunk/egs/timit_rev/s5/fbank/raw_fbank_train.4.ark:4988282
ftaj0_sx159 /u/ravanelm//kaldi-trunk/egs/timit_rev/s5/fbank/raw_fbank_train.2.ark:1293665
mpar0_si946 /u/ravanelm//kaldi-trunk/egs/timit_rev/s5/fbank/raw_fbank_train.3.ark:10756017
mrjm0_sx238 /u/ravanelm//kaldi-trunk/egs/timit_rev/s5/fbank/raw_fbank_train.4.ark:2855794
mmdm1_si2043 /u/ravanelm//kaldi-trunk/egs/timit_rev/s5/fbank/raw_fbank_train.3.ark:8908751
mtwh1_si2142 /u/ravanelm//kaldi-trunk/egs/timit_rev/s5/fbank/raw_fbank_train.4.ark:10017795
mbwp0_sx349 /u/ravanelm//kaldi-trunk/egs/timit_rev/s5/fbank/raw_fbank_train.2.ark:4350373
mfxs0_si2304 /u/ravanelm//kaldi-trunk/egs/timit_rev/s5/fbank/raw_fbank_train.2.ark:10792400
mjws0_si513 /u/ravanelm//kaldi-trunk/egs/timit_rev/s5/fbank/raw_fbank_train.3.ark:5268402
msfv0_sx362 /u/ravanelm//kaldi-trunk/egs/timit_rev/s5/fbank/raw_fbank_train.4.ark:6288205
fsjg0_si940 /u/ravanelm//kaldi-trunk/egs/timit_rev/s5/fbank/raw_fbank_train.1.ark:11732782
ftbw0_si1345 /u/ravanelm//kaldi-trunk/egs/timit_rev/s5/fbank/raw_fbank_train.2.ark:1437855
mmab1_sx414 /u/ravanelm//kaldi-trunk/egs/timit_rev/s5/fbank/raw_fbank_train.3.ark:8049290
mdwd0_sx180 /u/ravanelm//kaldi-trunk/egs/timit_rev/s5/fbank/raw_fbank_train.2.ark:9290156
mstf0_sx136 /u/ravanelm//kaldi-trunk/egs/timit_rev/s5/fbank/raw_fbank_train.4.ark:6969751
mtju0_sx400 /u/ravanelm//kaldi-trunk/egs/timit_rev/s5/fbank/raw_fbank_train.4.ark:8479312
mdlc0_si765 /u/ravanelm//kaldi-trunk/egs/timit_rev/s5/fbank/raw_fbank_train.2.ark:7540791
fsls0_si2316 /u/ravanelm//kaldi-trunk/egs/timit_rev/s5/fbank/raw_fbank_train.2.ark:565497
fklh0_sx87 /u/ravanelm//kaldi-trunk/egs/timit_rev/s5/fbank/raw_fbank_train.1.ark:7006332
mmeb0_sx7 /u/ravanelm//kaldi-trunk/egs/timit_rev/s5/fbank/raw_fbank_train.3.ark:9237309
mkls0_sx87 /u/ravanelm//kaldi-trunk/egs/timit_rev/s5/fbank/raw_fbank_train.3.ark:6834701
mmjb1_sx418 /u/ravanelm//kaldi-trunk/egs/timit_rev/s5/fbank/raw_fbank_train.3.ark:9600251
mtcs0_sx442 /u/ravanelm//kaldi-trunk/egs/timit_rev/s5/fbank/raw_fbank_train.4.ark:7735945
mdlc1_si1435 /u/ravanelm//kaldi-trunk/egs/timit_rev/s5/fbank/raw_fbank_train.2.ark:7608509
fdnc0_sx288 /u/ravanelm//kaldi-trunk/egs/timit_rev/s5/fbank/raw_fbank_train.1.ark:3205908
mwrp0_sx273 /u/ravanelm//kaldi-trunk/egs/timit_rev/s5/fbank/raw_fbank_train.4.ark:11311346
mrdd0_si1680 /u/ravanelm//kaldi-trunk/egs/timit_rev/s5/fbank/raw_fbank_train.4.ark:1380864
fpmy0_sx343 /u/ravanelm//kaldi-trunk/egs/timit_rev/s5/fbank/raw_fbank_train.1.ark:10574733
mddc0_sx429 /u/ravanelm//kaldi-trunk/egs/timit_rev/s5/fbank/raw_fbank_train.2.ark:6659777
mkaj0_sx64 /u/ravanelm//kaldi-trunk/egs/timit_rev/s5/fbank/raw_fbank_train.3.ark:5941555
mwac0_sx161 /u/ravanelm//kaldi-trunk/egs/timit_rev/s5/fbank/raw_fbank_train.4.ark:10524227
fmjb0_sx7 /u/ravanelm//kaldi-trunk/egs/timit_rev/s5/fbank/raw_fbank_train.1.ark:8907738
mmab1_si1494 /u/ravanelm//kaldi-trunk/egs/timit_rev/s5/fbank/raw_fbank_train.3.ark:7970971
mprk0_sx197 /u/ravanelm//kaldi-trunk/egs/timit_rev/s5/fbank/raw_fbank_train.4.ark:355279
makr0_si722 /u/ravanelm//kaldi-trunk/egs/timit_rev/s5/fbank/raw_fbank_train.2.ark:2831235
mrvg0_sx420 /u/ravanelm//kaldi-trunk/egs/timit_rev/s5/fbank/raw_fbank_train.4.ark:4914443
mdma0_si1238 /u/ravanelm//kaldi-trunk/egs/timit_rev/s5/fbank/raw_fbank_train.2.ark:8193699
mbef0_sx291 /u/ravanelm//kaldi-trunk/egs/timit_rev/s5/fbank/raw_fbank_train.2.ark:3522581
mejs0_sx340 /u/ravanelm//kaldi-trunk/egs/timit_rev/s5/fbank/raw_fbank_train.2.ark:10094539
mdem0_sx338 /u/ravanelm//kaldi-trunk/egs/timit_rev/s5/fbank/raw_fbank_train.2.ark:6953539
mdem0_sx68 /u/ravanelm//kaldi-trunk/egs/timit_rev/s5/fbank/raw_fbank_train.2.ark:6986364
mrcg0_sx348 /u/ravanelm//kaldi-trunk/egs/timit_rev/s5/fbank/raw_fbank_train.4.ark:1226066
mdsj0_si832 /u/ravanelm//kaldi-trunk/egs/timit_rev/s5/fbank/raw_fbank_train.2.ark:8922902
fjen0_sx237 /u/ravanelm//kaldi-trunk/egs/timit_rev/s5/fbank/raw_fbank_train.1.ark:5000475
mcae0_sx187 /u/ravanelm//kaldi-trunk/egs/timit_rev/s5/fbank/raw_fbank_train.2.ark:4457132
fpaz0_sx423 /u/ravanelm//kaldi-trunk/egs/timit_rev/s5/fbank/raw_fbank_train.1.ark:10272859
ftlg0_sx213 /u/ravanelm//kaldi-trunk/egs/timit_rev/s5/fbank/raw_fbank_train.2.ark:1598852
mwre0_si2317 /u/ravanelm//kaldi-trunk/egs/timit_rev/s5/fbank/raw_fbank_train.4.ark:11181414
mmbs0_sx251 /u/ravanelm//kaldi-trunk/egs/timit_rev/s5/fbank/raw_fbank_train.3.ark:8453245
mmeb0_sx187 /u/ravanelm//kaldi-trunk/egs/timit_rev/s5/fbank/raw_fbank_train.3.ark:9201092
mlsh0_si1417 /u/ravanelm//kaldi-trunk/egs/timit_rev/s5/fbank/raw_fbank_train.3.ark:7760321
fdkn0_sx451 /u/ravanelm//kaldi-trunk/egs/timit_rev/s5/fbank/raw_fbank_train.1.ark:2869233
mtcs0_sx82 /u/ravanelm//kaldi-trunk/egs/timit_rev/s5/fbank/raw_fbank_train.4.ark:7750417
mrbc0_sx59 /u/ravanelm//kaldi-trunk/egs/timit_rev/s5/fbank/raw_fbank_train.4.ark:1146306
msfv0_sx92 /u/ravanelm//kaldi-trunk/egs/timit_rev/s5/fbank/raw_fbank_train.4.ark:6319030
mdwm0_sx376 /u/ravanelm//kaldi-trunk/egs/timit_rev/s5/fbank/raw_fbank_train.2.ark:9534864
mdlm0_sx424 /u/ravanelm//kaldi-trunk/egs/timit_rev/s5/fbank/raw_fbank_train.2.ark:7962503
mjxl0_si542 /u/ravanelm//kaldi-trunk/egs/timit_rev/s5/fbank/raw_fbank_train.3.ark:5583517
mcae0_sx97 /u/ravanelm//kaldi-trunk/egs/timit_rev/s5/fbank/raw_fbank_train.2.ark:4511381
makr0_sx272 /u/ravanelm//kaldi-trunk/egs/timit_rev/s5/fbank/raw_fbank_train.2.ark:2847021
mdlr1_sx219 /u/ravanelm//kaldi-trunk/egs/timit_rev/s5/fbank/raw_fbank_train.2.ark:8142487
mtrr0_si918 /u/ravanelm//kaldi-trunk/egs/timit_rev/s5/fbank/raw_fbank_train.4.ark:9831698
fpad0_si1346 /u/ravanelm//kaldi-trunk/egs/timit_rev/s5/fbank/raw_fbank_train.1.ark:9984130
mbml0_sx89 /u/ravanelm//kaldi-trunk/egs/timit_rev/s5/fbank/raw_fbank_train.2.ark:4016419
mwgr0_sx346 /u/ravanelm//kaldi-trunk/egs/timit_rev/s5/fbank/raw_fbank_train.4.ark:11121327
mrml0_sx341 /u/ravanelm//kaldi-trunk/egs/timit_rev/s5/fbank/raw_fbank_train.4.ark:4061648
msrr0_sx51 /u/ravanelm//kaldi-trunk/egs/timit_rev/s5/fbank/raw_fbank_train.4.ark:6916418
mjee0_sx247 /u/ravanelm//kaldi-trunk/egs/timit_rev/s5/fbank/raw_fbank_train.3.ark:2829761
msah1_si2309 /u/ravanelm//kaldi-trunk/egs/timit_rev/s5/fbank/raw_fbank_train.4.ark:5240052
mprt0_si1210 /u/ravanelm//kaldi-trunk/egs/timit_rev/s5/fbank/raw_fbank_train.4.ark:396779
msms0_sx263 /u/ravanelm//kaldi-trunk/egs/timit_rev/s5/fbank/raw_fbank_train.4.ark:6693111
fdaw0_sx146 /u/ravanelm//kaldi-trunk/egs/timit_rev/s5/fbank/raw_fbank_train.1.ark:2551617
mdhs0_sx450 /u/ravanelm//kaldi-trunk/egs/timit_rev/s5/fbank/raw_fbank_train.2.ark:7166542
medr0_sx294 /u/ravanelm//kaldi-trunk/egs/timit_rev/s5/fbank/raw_fbank_train.2.ark:9708675
mzmb0_si536 /u/ravanelm//kaldi-trunk/egs/timit_rev/s5/fbank/raw_fbank_train.4.ark:11582431
fdml0_sx69 /u/ravanelm//kaldi-trunk/egs/timit_rev/s5/fbank/raw_fbank_train.1.ark:2974451
mges0_si2111 /u/ravanelm//kaldi-trunk/egs/timit_rev/s5/fbank/raw_fbank_train.3.ark:198938
mkln0_sx158 /u/ravanelm//kaldi-trunk/egs/timit_rev/s5/fbank/raw_fbank_train.3.ark:6593878
mmeb0_sx97 /u/ravanelm//kaldi-trunk/egs/timit_rev/s5/fbank/raw_fbank_train.3.ark:9246861
mlns0_sx57 /u/ravanelm//kaldi-trunk/egs/timit_rev/s5/fbank/raw_fbank_train.3.ark:7750767
msrr0_si501 /u/ravanelm//kaldi-trunk/egs/timit_rev/s5/fbank/raw_fbank_train.4.ark:6856575
mrhl0_si885 /u/ravanelm//kaldi-trunk/egs/timit_rev/s5/fbank/raw_fbank_train.4.ark:2502972
mbef0_si1911 /u/ravanelm//kaldi-trunk/egs/timit_rev/s5/fbank/raw_fbank_train.2.ark:3471977
mrlk0_sx303 /u/ravanelm//kaldi-trunk/egs/timit_rev/s5/fbank/raw_fbank_train.4.ark:3571441
mbth0_sx122 /u/ravanelm//kaldi-trunk/egs/timit_rev/s5/fbank/raw_fbank_train.2.ark:4227522
mmbs0_sx341 /u/ravanelm//kaldi-trunk/egs/timit_rev/s5/fbank/raw_fbank_train.3.ark:8469198
fvfb0_sx312 /u/ravanelm//kaldi-trunk/egs/timit_rev/s5/fbank/raw_fbank_train.2.ark:1793056
fklh0_si627 /u/ravanelm//kaldi-trunk/egs/timit_rev/s5/fbank/raw_fbank_train.1.ark:6946728
mddc0_si2049 /u/ravanelm//kaldi-trunk/egs/timit_rev/s5/fbank/raw_fbank_train.2.ark:6608372
flhd0_si1827 /u/ravanelm//kaldi-trunk/egs/timit_rev/s5/fbank/raw_fbank_train.1.ark:7527406
mrlj0_sx70 /u/ravanelm//kaldi-trunk/egs/timit_rev/s5/fbank/raw_fbank_train.4.ark:3409655
mafm0_sx39 /u/ravanelm//kaldi-trunk/egs/timit_rev/s5/fbank/raw_fbank_train.2.ark:2561849
mrab1_sx218 /u/ravanelm//kaldi-trunk/egs/timit_rev/s5/fbank/raw_fbank_train.4.ark:714706
mwac0_sx251 /u/ravanelm//kaldi-trunk/egs/timit_rev/s5/fbank/raw_fbank_train.4.ark:10542300
mdlr0_sx153 /u/ravanelm//kaldi-trunk/egs/timit_rev/s5/fbank/raw_fbank_train.2.ark:8018749
mkdt0_sx443 /u/ravanelm//kaldi-trunk/egs/timit_rev/s5/fbank/raw_fbank_train.3.ark:6334222
mvjh0_si2186 /u/ravanelm//kaldi-trunk/egs/timit_rev/s5/fbank/raw_fbank_train.4.ark:10223766
mjdm0_sx170 /u/ravanelm//kaldi-trunk/egs/timit_rev/s5/fbank/raw_fbank_train.3.ark:2506973
mdlc2_si2244 /u/ravanelm//kaldi-trunk/egs/timit_rev/s5/fbank/raw_fbank_train.2.ark:7712169
fleh0_sx241 /u/ravanelm//kaldi-trunk/egs/timit_rev/s5/fbank/raw_fbank_train.1.ark:7372095
mtdb0_sx231 /u/ravanelm//kaldi-trunk/egs/timit_rev/s5/fbank/raw_fbank_train.4.ark:7819104
mram0_si1905 /u/ravanelm//kaldi-trunk/egs/timit_rev/s5/fbank/raw_fbank_train.4.ark:886537
mewm0_sx178 /u/ravanelm//kaldi-trunk/egs/timit_rev/s5/fbank/raw_fbank_train.2.ark:10337946
mmdm1_si1650 /u/ravanelm//kaldi-trunk/egs/timit_rev/s5/fbank/raw_fbank_train.3.ark:8901157
fmjf0_sx354 /u/ravanelm//kaldi-trunk/egs/timit_rev/s5/fbank/raw_fbank_train.1.ark:8994410
megj0_sx437 /u/ravanelm//kaldi-trunk/egs/timit_rev/s5/fbank/raw_fbank_train.2.ark:9911882
fsjw0_sx163 /u/ravanelm//kaldi-trunk/egs/timit_rev/s5/fbank/raw_fbank_train.2.ark:194309
mkdt0_si814 /u/ravanelm//kaldi-trunk/egs/timit_rev/s5/fbank/raw_fbank_train.3.ark:6264537
mtlc0_sx37 /u/ravanelm//kaldi-trunk/egs/timit_rev/s5/fbank/raw_fbank_train.4.ark:8873219
fmbg0_sx80 /u/ravanelm//kaldi-trunk/egs/timit_rev/s5/fbank/raw_fbank_train.1.ark:8708561
mjrg0_si736 /u/ravanelm//kaldi-trunk/egs/timit_rev/s5/fbank/raw_fbank_train.3.ark:4548347
fpaf0_si2314 /u/ravanelm//kaldi-trunk/egs/timit_rev/s5/fbank/raw_fbank_train.1.ark:10126943
mcae0_si2077 /u/ravanelm//kaldi-trunk/egs/timit_rev/s5/fbank/raw_fbank_train.2.ark:4418266
mefg0_si598 /u/ravanelm//kaldi-trunk/egs/timit_rev/s5/fbank/raw_fbank_train.2.ark:9754887
mpgh0_sx24 /u/ravanelm//kaldi-trunk/egs/timit_rev/s5/fbank/raw_fbank_train.3.ark:11073669
mded0_si540 /u/ravanelm//kaldi-trunk/egs/timit_rev/s5/fbank/raw_fbank_train.2.ark:6707190
mfer0_sx52 /u/ravanelm//kaldi-trunk/egs/timit_rev/s5/fbank/raw_fbank_train.2.ark:10469942
mwre0_sx67 /u/ravanelm//kaldi-trunk/egs/timit_rev/s5/fbank/raw_fbank_train.4.ark:11238058
fgdp0_si1618 /u/ravanelm//kaldi-trunk/egs/timit_rev/s5/fbank/raw_fbank_train.1.ark:4267507
mljc0_si595 /u/ravanelm//kaldi-trunk/egs/timit_rev/s5/fbank/raw_fbank_train.3.ark:7471993
mjda0_sx401 /u/ravanelm//kaldi-trunk/egs/timit_rev/s5/fbank/raw_fbank_train.3.ark:2128652
mtjm0_si1856 /u/ravanelm//kaldi-trunk/egs/timit_rev/s5/fbank/raw_fbank_train.4.ark:8198545
mjxa0_sx427 /u/ravanelm//kaldi-trunk/egs/timit_rev/s5/fbank/raw_fbank_train.3.ark:5535104
mtab0_si942 /u/ravanelm//kaldi-trunk/egs/timit_rev/s5/fbank/raw_fbank_train.4.ark:7190128
mmcc0_sx348 /u/ravanelm//kaldi-trunk/egs/timit_rev/s5/fbank/raw_fbank_train.3.ark:8568703
fcjf0_si1657 /u/ravanelm//kaldi-trunk/egs/timit_rev/s5/fbank/raw_fbank_train.1.ark:1656684
flod0_si1917 /u/ravanelm//kaldi-trunk/egs/timit_rev/s5/fbank/raw_fbank_train.1.ark:8344568
mkam0_si1316 /u/ravanelm//kaldi-trunk/egs/timit_rev/s5/fbank/raw_fbank_train.3.ark:5968183
mabc0_si781 /u/ravanelm//kaldi-trunk/egs/timit_rev/s5/fbank/raw_fbank_train.2.ark:2037672
fdnc0_sx18 /u/ravanelm//kaldi-trunk/egs/timit_rev/s5/fbank/raw_fbank_train.1.ark:3182242
fjhk0_si2282 /u/ravanelm//kaldi-trunk/egs/timit_rev/s5/fbank/raw_fbank_train.1.ark:5078435
fkkh0_sx120 /u/ravanelm//kaldi-trunk/egs/timit_rev/s5/fbank/raw_fbank_train.1.ark:6659245
mddc0_sx159 /u/ravanelm//kaldi-trunk/egs/timit_rev/s5/fbank/raw_fbank_train.2.ark:6628478
mgak0_sx46 /u/ravanelm//kaldi-trunk/egs/timit_rev/s5/fbank/raw_fbank_train.2.ark:11244145
mrjb1_si1020 /u/ravanelm//kaldi-trunk/egs/timit_rev/s5/fbank/raw_fbank_train.4.ark:2572610
fklc1_si1678 /u/ravanelm//kaldi-trunk/egs/timit_rev/s5/fbank/raw_fbank_train.1.ark:6837869
fceg0_sx78 /u/ravanelm//kaldi-trunk/egs/timit_rev/s5/fbank/raw_fbank_train.1.ark:1635896
fjen0_sx327 /u/ravanelm//kaldi-trunk/egs/timit_rev/s5/fbank/raw_fbank_train.1.ark:5009788
mdcd0_sx425 /u/ravanelm//kaldi-trunk/egs/timit_rev/s5/fbank/raw_fbank_train.2.ark:6475527
mdlr1_sx39 /u/ravanelm//kaldi-trunk/egs/timit_rev/s5/fbank/raw_fbank_train.2.ark:8170312
mdbp0_sx258 /u/ravanelm//kaldi-trunk/egs/timit_rev/s5/fbank/raw_fbank_train.2.ark:6340876
mcpm0_si564 /u/ravanelm//kaldi-trunk/egs/timit_rev/s5/fbank/raw_fbank_train.2.ark:5449868
mmsm0_sx26 /u/ravanelm//kaldi-trunk/egs/timit_rev/s5/fbank/raw_fbank_train.3.ark:9988037
mdas0_sx186 /u/ravanelm//kaldi-trunk/egs/timit_rev/s5/fbank/raw_fbank_train.2.ark:6150435
fexm0_si482 /u/ravanelm//kaldi-trunk/egs/timit_rev/s5/fbank/raw_fbank_train.1.ark:4086763
fsdc0_sx322 /u/ravanelm//kaldi-trunk/egs/timit_rev/s5/fbank/raw_fbank_train.1.ark:11486966
mtlb0_si1134 /u/ravanelm//kaldi-trunk/egs/timit_rev/s5/fbank/raw_fbank_train.4.ark:8704156
mges0_si851 /u/ravanelm//kaldi-trunk/egs/timit_rev/s5/fbank/raw_fbank_train.3.ark:205091
mdmt0_si2341 /u/ravanelm//kaldi-trunk/egs/timit_rev/s5/fbank/raw_fbank_train.2.ark:8316679
mtab0_sx312 /u/ravanelm//kaldi-trunk/egs/timit_rev/s5/fbank/raw_fbank_train.4.ark:7233467
mmag0_si1756 /u/ravanelm//kaldi-trunk/egs/timit_rev/s5/fbank/raw_fbank_train.3.ark:8090110
mrds0_sx447 /u/ravanelm//kaldi-trunk/egs/timit_rev/s5/fbank/raw_fbank_train.4.ark:1625840
mmea0_sx218 /u/ravanelm//kaldi-trunk/egs/timit_rev/s5/fbank/raw_fbank_train.3.ark:9125700
mmcc0_sx78 /u/ravanelm//kaldi-trunk/egs/timit_rev/s5/fbank/raw_fbank_train.3.ark:8598448
mtrc0_sx363 /u/ravanelm//kaldi-trunk/egs/timit_rev/s5/fbank/raw_fbank_train.4.ark:9792805
mmag0_sx406 /u/ravanelm//kaldi-trunk/egs/timit_rev/s5/fbank/raw_fbank_train.3.ark:8162555
mjwt0_sx121 /u/ravanelm//kaldi-trunk/egs/timit_rev/s5/fbank/raw_fbank_train.3.ark:5403660
mtjm0_si655 /u/ravanelm//kaldi-trunk/egs/timit_rev/s5/fbank/raw_fbank_train.4.ark:8212778
fcdr1_si556 /u/ravanelm//kaldi-trunk/egs/timit_rev/s5/fbank/raw_fbank_train.1.ark:1475627
fgmb0_si1145 /u/ravanelm//kaldi-trunk/egs/timit_rev/s5/fbank/raw_fbank_train.1.ark:4384012
msmc0_si509 /u/ravanelm//kaldi-trunk/egs/timit_rev/s5/fbank/raw_fbank_train.4.ark:6449402
fbjl0_sx202 /u/ravanelm//kaldi-trunk/egs/timit_rev/s5/fbank/raw_fbank_train.1.ark:894582
mbjv0_sx167 /u/ravanelm//kaldi-trunk/egs/timit_rev/s5/fbank/raw_fbank_train.2.ark:3679733
mwsh0_sx256 /u/ravanelm//kaldi-trunk/egs/timit_rev/s5/fbank/raw_fbank_train.4.ark:11505192
fsms1_sx347 /u/ravanelm//kaldi-trunk/egs/timit_rev/s5/fbank/raw_fbank_train.2.ark:923104
mjjm0_sx17 /u/ravanelm//kaldi-trunk/egs/timit_rev/s5/fbank/raw_fbank_train.3.ark:3441350
mtpp0_si878 /u/ravanelm//kaldi-trunk/egs/timit_rev/s5/fbank/raw_fbank_train.4.ark:9414159
fsak0_sx40 /u/ravanelm//kaldi-trunk/egs/timit_rev/s5/fbank/raw_fbank_train.1.ark:11176562
mrfl0_sx436 /u/ravanelm//kaldi-trunk/egs/timit_rev/s5/fbank/raw_fbank_train.4.ark:2227351
mjrg0_sx352 /u/ravanelm//kaldi-trunk/egs/timit_rev/s5/fbank/raw_fbank_train.3.ark:4600078
mcre0_sx401 /u/ravanelm//kaldi-trunk/egs/timit_rev/s5/fbank/raw_fbank_train.2.ark:5582985
mmpm0_sx341 /u/ravanelm//kaldi-trunk/egs/timit_rev/s5/fbank/raw_fbank_train.3.ark:9776789
mkdd0_si937 /u/ravanelm//kaldi-trunk/egs/timit_rev/s5/fbank/raw_fbank_train.3.ark:6191026
mvrw0_sx45 /u/ravanelm//kaldi-trunk/egs/timit_rev/s5/fbank/raw_fbank_train.4.ark:10471173
fcjf0_sx217 /u/ravanelm//kaldi-trunk/egs/timit_rev/s5/fbank/raw_fbank_train.1.ark:1689503
mmdb0_sx87 /u/ravanelm//kaldi-trunk/egs/timit_rev/s5/fbank/raw_fbank_train.3.ark:8686273
mkjo0_si1517 /u/ravanelm//kaldi-trunk/egs/timit_rev/s5/fbank/raw_fbank_train.3.ark:6465913
mbsb0_sx93 /u/ravanelm//kaldi-trunk/egs/timit_rev/s5/fbank/raw_fbank_train.2.ark:4178829
mtjs0_sx112 /u/ravanelm//kaldi-trunk/egs/timit_rev/s5/fbank/raw_fbank_train.4.ark:8333916
mkjo0_sx424 /u/ravanelm//kaldi-trunk/egs/timit_rev/s5/fbank/raw_fbank_train.3.ark:6518279
mpgr1_sx419 /u/ravanelm//kaldi-trunk/egs/timit_rev/s5/fbank/raw_fbank_train.3.ark:11266394
mjeb0_si1916 /u/ravanelm//kaldi-trunk/egs/timit_rev/s5/fbank/raw_fbank_train.3.ark:2596212
mrgs0_sx186 /u/ravanelm//kaldi-trunk/egs/timit_rev/s5/fbank/raw_fbank_train.4.ark:2414342
fcmm0_si1957 /u/ravanelm//kaldi-trunk/egs/timit_rev/s5/fbank/raw_fbank_train.1.ark:2117530
mkdd0_sx217 /u/ravanelm//kaldi-trunk/egs/timit_rev/s5/fbank/raw_fbank_train.3.ark:6215572
fmmh0_sx420 /u/ravanelm//kaldi-trunk/egs/timit_rev/s5/fbank/raw_fbank_train.1.ark:9408629
mjsr0_sx164 /u/ravanelm//kaldi-trunk/egs/timit_rev/s5/fbank/raw_fbank_train.3.ark:5063586
mgaf0_si652 /u/ravanelm//kaldi-trunk/egs/timit_rev/s5/fbank/raw_fbank_train.2.ark:10997211
mpeb0_si1034 /u/ravanelm//kaldi-trunk/egs/timit_rev/s5/fbank/raw_fbank_train.3.ark:10819455
fjsk0_si2312 /u/ravanelm//kaldi-trunk/egs/timit_rev/s5/fbank/raw_fbank_train.1.ark:5706907
fscn0_sx356 /u/ravanelm//kaldi-trunk/egs/timit_rev/s5/fbank/raw_fbank_train.1.ark:11388620
msfh0_sx46 /u/ravanelm//kaldi-trunk/egs/timit_rev/s5/fbank/raw_fbank_train.4.ark:6209605
mkxl0_sx105 /u/ravanelm//kaldi-trunk/egs/timit_rev/s5/fbank/raw_fbank_train.3.ark:7182431
fcke0_sx211 /u/ravanelm//kaldi-trunk/egs/timit_rev/s5/fbank/raw_fbank_train.1.ark:1867433
mdbp0_sx348 /u/ravanelm//kaldi-trunk/egs/timit_rev/s5/fbank/raw_fbank_train.2.ark:6353469
fbas0_sx127 /u/ravanelm//kaldi-trunk/egs/timit_rev/s5/fbank/raw_fbank_train.1.ark:584755
mmag0_sx46 /u/ravanelm//kaldi-trunk/egs/timit_rev/s5/fbank/raw_fbank_train.3.ark:8178427
mgak0_sx316 /u/ravanelm//kaldi-trunk/egs/timit_rev/s5/fbank/raw_fbank_train.2.ark:11216160
mlns0_sx237 /u/ravanelm//kaldi-trunk/egs/timit_rev/s5/fbank/raw_fbank_train.3.ark:7715269
fdtd0_sx301 /u/ravanelm//kaldi-trunk/egs/timit_rev/s5/fbank/raw_fbank_train.1.ark:3298901
mwar0_sx145 /u/ravanelm//kaldi-trunk/egs/timit_rev/s5/fbank/raw_fbank_train.4.ark:10717679
fvkb0_si1789 /u/ravanelm//kaldi-trunk/egs/timit_rev/s5/fbank/raw_fbank_train.2.ark:1835469
mhxl0_sx332 /u/ravanelm//kaldi-trunk/egs/timit_rev/s5/fbank/raw_fbank_train.3.ark:1532390
mmar0_si706 /u/ravanelm//kaldi-trunk/egs/timit_rev/s5/fbank/raw_fbank_train.3.ark:8309234
mclk0_si2290 /u/ravanelm//kaldi-trunk/egs/timit_rev/s5/fbank/raw_fbank_train.2.ark:5238745
mmpm0_sx431 /u/ravanelm//kaldi-trunk/egs/timit_rev/s5/fbank/raw_fbank_train.3.ark:9789702
mmlm0_sx177 /u/ravanelm//kaldi-trunk/egs/timit_rev/s5/fbank/raw_fbank_train.3.ark:9660937
mrdm0_sx65 /u/ravanelm//kaldi-trunk/egs/timit_rev/s5/fbank/raw_fbank_train.4.ark:1547287
mmgk0_sx152 /u/ravanelm//kaldi-trunk/egs/timit_rev/s5/fbank/raw_fbank_train.3.ark:9475607
fkkh0_si1920 /u/ravanelm//kaldi-trunk/egs/timit_rev/s5/fbank/raw_fbank_train.1.ark:6627299
mjhi0_sx248 /u/ravanelm//kaldi-trunk/egs/timit_rev/s5/fbank/raw_fbank_train.3.ark:3124155
mcal0_sx418 /u/ravanelm//kaldi-trunk/egs/timit_rev/s5/fbank/raw_fbank_train.2.ark:4589094
fhlm0_sx390 /u/ravanelm//kaldi-trunk/egs/timit_rev/s5/fbank/raw_fbank_train.1.ark:4704135
mdpb0_sx56 /u/ravanelm//kaldi-trunk/egs/timit_rev/s5/fbank/raw_fbank_train.2.ark:8593446
fjlg0_si2306 /u/ravanelm//kaldi-trunk/egs/timit_rev/s5/fbank/raw_fbank_train.1.ark:5279526
mtrc0_sx183 /u/ravanelm//kaldi-trunk/egs/timit_rev/s5/fbank/raw_fbank_train.4.ark:9775379
mwdk0_sx356 /u/ravanelm//kaldi-trunk/egs/timit_rev/s5/fbank/raw_fbank_train.4.ark:10921516
fpad0_si716 /u/ravanelm//kaldi-trunk/egs/timit_rev/s5/fbank/raw_fbank_train.1.ark:10008637
mjpm0_sx108 /u/ravanelm//kaldi-trunk/egs/timit_rev/s5/fbank/raw_fbank_train.3.ark:4272785
mjjm0_si827 /u/ravanelm//kaldi-trunk/egs/timit_rev/s5/fbank/raw_fbank_train.3.ark:3419405
mtjm0_si1226 /u/ravanelm//kaldi-trunk/egs/timit_rev/s5/fbank/raw_fbank_train.4.ark:8182951
mmwb0_sx359 /u/ravanelm//kaldi-trunk/egs/timit_rev/s5/fbank/raw_fbank_train.3.ark:10220449
msmr0_sx325 /u/ravanelm//kaldi-trunk/egs/timit_rev/s5/fbank/raw_fbank_train.4.ark:6606479
mjjj0_sx83 /u/ravanelm//kaldi-trunk/egs/timit_rev/s5/fbank/raw_fbank_train.3.ark:3374184
mjws0_sx153 /u/ravanelm//kaldi-trunk/egs/timit_rev/s5/fbank/raw_fbank_train.3.ark:5279875
fjrp1_sx262 /u/ravanelm//kaldi-trunk/egs/timit_rev/s5/fbank/raw_fbank_train.1.ark:5610187
mdss0_sx441 /u/ravanelm//kaldi-trunk/egs/timit_rev/s5/fbank/raw_fbank_train.2.ark:9056979
fnkl0_sx196 /u/ravanelm//kaldi-trunk/egs/timit_rev/s5/fbank/raw_fbank_train.1.ark:9625124
mjlg1_sx112 /u/ravanelm//kaldi-trunk/egs/timit_rev/s5/fbank/raw_fbank_train.3.ark:3717274
mrtc0_si828 /u/ravanelm//kaldi-trunk/egs/timit_rev/s5/fbank/raw_fbank_train.4.ark:4654141
mses0_sx419 /u/ravanelm//kaldi-trunk/egs/timit_rev/s5/fbank/raw_fbank_train.4.ark:6082188
mnet0_si1446 /u/ravanelm//kaldi-trunk/egs/timit_rev/s5/fbank/raw_fbank_train.3.ark:10540661
mtpp0_sx428 /u/ravanelm//kaldi-trunk/egs/timit_rev/s5/fbank/raw_fbank_train.4.ark:9457771
mlns0_si1407 /u/ravanelm//kaldi-trunk/egs/timit_rev/s5/fbank/raw_fbank_train.3.ark:7670456
mrjh0_si1519 /u/ravanelm//kaldi-trunk/egs/timit_rev/s5/fbank/raw_fbank_train.4.ark:2688756
mrre0_sx164 /u/ravanelm//kaldi-trunk/egs/timit_rev/s5/fbank/raw_fbank_train.4.ark:4332898
mkam0_sx416 /u/ravanelm//kaldi-trunk/egs/timit_rev/s5/fbank/raw_fbank_train.3.ark:6033909
mree0_si1734 /u/ravanelm//kaldi-trunk/egs/timit_rev/s5/fbank/raw_fbank_train.4.ark:1662660
mkes0_sx173 /u/ravanelm//kaldi-trunk/egs/timit_rev/s5/fbank/raw_fbank_train.3.ark:6403548
fexm0_sx381 /u/ravanelm//kaldi-trunk/egs/timit_rev/s5/fbank/raw_fbank_train.1.ark:4164928
fjen0_si1677 /u/ravanelm//kaldi-trunk/egs/timit_rev/s5/fbank/raw_fbank_train.1.ark:4958175
marc0_sx288 /u/ravanelm//kaldi-trunk/egs/timit_rev/s5/fbank/raw_fbank_train.2.ark:3049576
mtbc0_sx93 /u/ravanelm//kaldi-trunk/egs/timit_rev/s5/fbank/raw_fbank_train.4.ark:7654032
mcss0_sx210 /u/ravanelm//kaldi-trunk/egs/timit_rev/s5/fbank/raw_fbank_train.2.ark:5672623
mmsm0_si1736 /u/ravanelm//kaldi-trunk/egs/timit_rev/s5/fbank/raw_fbank_train.3.ark:9936746
mfer0_sx232 /u/ravanelm//kaldi-trunk/egs/timit_rev/s5/fbank/raw_fbank_train.2.ark:10437004
mtpp0_sx68 /u/ravanelm//kaldi-trunk/egs/timit_rev/s5/fbank/raw_fbank_train.4.ark:9471083
mejl0_sx152 /u/ravanelm//kaldi-trunk/egs/timit_rev/s5/fbank/raw_fbank_train.2.ark:9971288
fblv0_si1688 /u/ravanelm//kaldi-trunk/egs/timit_rev/s5/fbank/raw_fbank_train.1.ark:954508
mtml0_sx435 /u/ravanelm//kaldi-trunk/egs/timit_rev/s5/fbank/raw_fbank_train.4.ark:8970806
mmaa0_si845 /u/ravanelm//kaldi-trunk/egs/timit_rev/s5/fbank/raw_fbank_train.3.ark:7894053
mmea0_si1388 /u/ravanelm//kaldi-trunk/egs/timit_rev/s5/fbank/raw_fbank_train.3.ark:9082167
mbom0_si2274 /u/ravanelm//kaldi-trunk/egs/timit_rev/s5/fbank/raw_fbank_train.2.ark:4049961
mmws0_si1518 /u/ravanelm//kaldi-trunk/egs/timit_rev/s5/fbank/raw_fbank_train.3.ark:10270828
fcjf0_sx307 /u/ravanelm//kaldi-trunk/egs/timit_rev/s5/fbank/raw_fbank_train.1.ark:1696696
fntb0_sx393 /u/ravanelm//kaldi-trunk/egs/timit_rev/s5/fbank/raw_fbank_train.1.ark:9752766
mtmt0_sx128 /u/ravanelm//kaldi-trunk/egs/timit_rev/s5/fbank/raw_fbank_train.4.ark:9148557
mtxs0_sx160 /u/ravanelm//kaldi-trunk/egs/timit_rev/s5/fbank/raw_fbank_train.4.ark:10133927
mmds0_sx443 /u/ravanelm//kaldi-trunk/egs/timit_rev/s5/fbank/raw_fbank_train.3.ark:9062901
mcef0_sx55 /u/ravanelm//kaldi-trunk/egs/timit_rev/s5/fbank/raw_fbank_train.2.ark:4994386
mmws1_si1071 /u/ravanelm//kaldi-trunk/egs/timit_rev/s5/fbank/raw_fbank_train.3.ark:10365212
mreh1_si2229 /u/ravanelm//kaldi-trunk/egs/timit_rev/s5/fbank/raw_fbank_train.4.ark:1764526
fapb0_sx73 /u/ravanelm//kaldi-trunk/egs/timit_rev/s5/fbank/raw_fbank_train.1.ark:512820
mrgm0_si1792 /u/ravanelm//kaldi-trunk/egs/timit_rev/s5/fbank/raw_fbank_train.4.ark:2263091
mbth0_sx212 /u/ravanelm//kaldi-trunk/egs/timit_rev/s5/fbank/raw_fbank_train.2.ark:4242235
mmpm0_sx251 /u/ravanelm//kaldi-trunk/egs/timit_rev/s5/fbank/raw_fbank_train.3.ark:9762236
meal0_sx287 /u/ravanelm//kaldi-trunk/egs/timit_rev/s5/fbank/raw_fbank_train.2.ark:9603457
fltm0_sx260 /u/ravanelm//kaldi-trunk/egs/timit_rev/s5/fbank/raw_fbank_train.1.ark:8465374
fvkb0_sx439 /u/ravanelm//kaldi-trunk/egs/timit_rev/s5/fbank/raw_fbank_train.2.ark:1902394
fmkc0_sx352 /u/ravanelm//kaldi-trunk/egs/timit_rev/s5/fbank/raw_fbank_train.1.ark:9200381
mgjc0_sx75 /u/ravanelm//kaldi-trunk/egs/timit_rev/s5/fbank/raw_fbank_train.3.ark:375521
mgaf0_si1912 /u/ravanelm//kaldi-trunk/egs/timit_rev/s5/fbank/raw_fbank_train.2.ark:10981818
msjk0_sx426 /u/ravanelm//kaldi-trunk/egs/timit_rev/s5/fbank/raw_fbank_train.4.ark:6414463
mbcg0_sx417 /u/ravanelm//kaldi-trunk/egs/timit_rev/s5/fbank/raw_fbank_train.2.ark:3436957
fdnc0_sx198 /u/ravanelm//kaldi-trunk/egs/timit_rev/s5/fbank/raw_fbank_train.1.ark:3195355
mkdt0_sx83 /u/ravanelm//kaldi-trunk/egs/timit_rev/s5/fbank/raw_fbank_train.3.ark:6347054
mjai0_sx434 /u/ravanelm//kaldi-trunk/egs/timit_rev/s5/fbank/raw_fbank_train.3.ark:1948080
msmc0_sx107 /u/ravanelm//kaldi-trunk/egs/timit_rev/s5/fbank/raw_fbank_train.4.ark:6480548
fskc0_si1416 /u/ravanelm//kaldi-trunk/egs/timit_rev/s5/fbank/raw_fbank_train.2.ark:256514
fnkl0_sx172 /u/ravanelm//kaldi-trunk/egs/timit_rev/s5/fbank/raw_fbank_train.1.ark:9611891
msas0_si2006 /u/ravanelm//kaldi-trunk/egs/timit_rev/s5/fbank/raw_fbank_train.4.ark:5326684
fceg0_sx258 /u/ravanelm//kaldi-trunk/egs/timit_rev/s5/fbank/raw_fbank_train.1.ark:1598238
mhxl0_sx152 /u/ravanelm//kaldi-trunk/egs/timit_rev/s5/fbank/raw_fbank_train.3.ark:1506084
mdwd0_sx360 /u/ravanelm//kaldi-trunk/egs/timit_rev/s5/fbank/raw_fbank_train.2.ark:9309902
mrmg0_sx360 /u/ravanelm//kaldi-trunk/egs/timit_rev/s5/fbank/raw_fbank_train.4.ark:3848557
mrfk0_si1706 /u/ravanelm//kaldi-trunk/egs/timit_rev/s5/fbank/raw_fbank_train.4.ark:2068640
mjjm0_si1251 /u/ravanelm//kaldi-trunk/egs/timit_rev/s5/fbank/raw_fbank_train.3.ark:3384618
maeo0_sx336 /u/ravanelm//kaldi-trunk/egs/timit_rev/s5/fbank/raw_fbank_train.2.ark:2460032
fdmy0_sx27 /u/ravanelm//kaldi-trunk/egs/timit_rev/s5/fbank/raw_fbank_train.1.ark:3080089
mjfh0_si477 /u/ravanelm//kaldi-trunk/egs/timit_rev/s5/fbank/raw_fbank_train.3.ark:2905800
mcxm0_sx361 /u/ravanelm//kaldi-trunk/egs/timit_rev/s5/fbank/raw_fbank_train.2.ark:5968851
fcdr1_sx196 /u/ravanelm//kaldi-trunk/egs/timit_rev/s5/fbank/raw_fbank_train.1.ark:1519805
mrlj1_sx321 /u/ravanelm//kaldi-trunk/egs/timit_rev/s5/fbank/raw_fbank_train.4.ark:3466536
mrsp0_sx169 /u/ravanelm//kaldi-trunk/egs/timit_rev/s5/fbank/raw_fbank_train.4.ark:4561189
madc0_si737 /u/ravanelm//kaldi-trunk/egs/timit_rev/s5/fbank/raw_fbank_train.2.ark:2134937
mrso0_sx399 /u/ravanelm//kaldi-trunk/egs/timit_rev/s5/fbank/raw_fbank_train.4.ark:4502695
fcjf0_sx397 /u/ravanelm//kaldi-trunk/egs/timit_rev/s5/fbank/raw_fbank_train.1.ark:1712121
mdlc2_sx264 /u/ravanelm//kaldi-trunk/egs/timit_rev/s5/fbank/raw_fbank_train.2.ark:7748588
mjhi0_sx158 /u/ravanelm//kaldi-trunk/egs/timit_rev/s5/fbank/raw_fbank_train.3.ark:3115642
fdtd0_sx121 /u/ravanelm//kaldi-trunk/egs/timit_rev/s5/fbank/raw_fbank_train.1.ark:3273435
msmr0_sx145 /u/ravanelm//kaldi-trunk/egs/timit_rev/s5/fbank/raw_fbank_train.4.ark:6582493
fmjf0_si624 /u/ravanelm//kaldi-trunk/egs/timit_rev/s5/fbank/raw_fbank_train.1.ark:8947831
mdhs0_sx360 /u/ravanelm//kaldi-trunk/egs/timit_rev/s5/fbank/raw_fbank_train.2.ark:7155989
mtab0_sx42 /u/ravanelm//kaldi-trunk/egs/timit_rev/s5/fbank/raw_fbank_train.4.ark:7265652
mrlk0_sx33 /u/ravanelm//kaldi-trunk/egs/timit_rev/s5/fbank/raw_fbank_train.4.ark:3580393
mrvg0_si1140 /u/ravanelm//kaldi-trunk/egs/timit_rev/s5/fbank/raw_fbank_train.4.ark:4854044
fmmh0_si2167 /u/ravanelm//kaldi-trunk/egs/timit_rev/s5/fbank/raw_fbank_train.1.ark:9361097
mdwh0_si665 /u/ravanelm//kaldi-trunk/egs/timit_rev/s5/fbank/raw_fbank_train.2.ark:9372468
fjwb1_si2055 /u/ravanelm//kaldi-trunk/egs/timit_rev/s5/fbank/raw_fbank_train.1.ark:5876770
mrlj1_si1671 /u/ravanelm//kaldi-trunk/egs/timit_rev/s5/fbank/raw_fbank_train.4.ark:3414689
mesj0_sx7 /u/ravanelm//kaldi-trunk/egs/timit_rev/s5/fbank/raw_fbank_train.2.ark:10293620
fcmm0_sx273 /u/ravanelm//kaldi-trunk/egs/timit_rev/s5/fbank/raw_fbank_train.1.ark:2153789
fsah0_si1874 /u/ravanelm//kaldi-trunk/egs/timit_rev/s5/fbank/raw_fbank_train.1.ark:11010573
medr0_sx204 /u/ravanelm//kaldi-trunk/egs/timit_rev/s5/fbank/raw_fbank_train.2.ark:9689970
mtpr0_sx160 /u/ravanelm//kaldi-trunk/egs/timit_rev/s5/fbank/raw_fbank_train.4.ark:9522537
fspm0_sx161 /u/ravanelm//kaldi-trunk/egs/timit_rev/s5/fbank/raw_fbank_train.2.ark:992630
mkdb0_sx422 /u/ravanelm//kaldi-trunk/egs/timit_rev/s5/fbank/raw_fbank_train.3.ark:6129293
mgar0_sx222 /u/ravanelm//kaldi-trunk/egs/timit_rev/s5/fbank/raw_fbank_train.3.ark:46667
fkfb0_si2238 /u/ravanelm//kaldi-trunk/egs/timit_rev/s5/fbank/raw_fbank_train.1.ark:6510554
mkaj0_si2044 /u/ravanelm//kaldi-trunk/egs/timit_rev/s5/fbank/raw_fbank_train.3.ark:5874518
msrg0_si1221 /u/ravanelm//kaldi-trunk/egs/timit_rev/s5/fbank/raw_fbank_train.4.ark:6736443
mbbr0_sx245 /u/ravanelm//kaldi-trunk/egs/timit_rev/s5/fbank/raw_fbank_train.2.ark:3322267
fbmh0_si970 /u/ravanelm//kaldi-trunk/egs/timit_rev/s5/fbank/raw_fbank_train.1.ark:1076127
fbjl0_sx22 /u/ravanelm//kaldi-trunk/egs/timit_rev/s5/fbank/raw_fbank_train.1.ark:901294
mkrg0_sx141 /u/ravanelm//kaldi-trunk/egs/timit_rev/s5/fbank/raw_fbank_train.3.ark:7092326
mhbs0_si1575 /u/ravanelm//kaldi-trunk/egs/timit_rev/s5/fbank/raw_fbank_train.3.ark:916394
mtpg0_sx33 /u/ravanelm//kaldi-trunk/egs/timit_rev/s5/fbank/raw_fbank_train.4.ark:9368745
mjac0_si2148 /u/ravanelm//kaldi-trunk/egs/timit_rev/s5/fbank/raw_fbank_train.3.ark:1677185
mkag0_sx259 /u/ravanelm//kaldi-trunk/egs/timit_rev/s5/fbank/raw_fbank_train.3.ark:5717448
mrld0_si964 /u/ravanelm//kaldi-trunk/egs/timit_rev/s5/fbank/raw_fbank_train.4.ark:3261826
mkls1_sx105 /u/ravanelm//kaldi-trunk/egs/timit_rev/s5/fbank/raw_fbank_train.3.ark:6886315
fssb0_sx362 /u/ravanelm//kaldi-trunk/egs/timit_rev/s5/fbank/raw_fbank_train.2.ark:1215667
mrfl0_si1156 /u/ravanelm//kaldi-trunk/egs/timit_rev/s5/fbank/raw_fbank_train.4.ark:2138512
mvjh0_sx206 /u/ravanelm//kaldi-trunk/egs/timit_rev/s5/fbank/raw_fbank_train.4.ark:10258945
mmvp0_si1284 /u/ravanelm//kaldi-trunk/egs/timit_rev/s5/fbank/raw_fbank_train.3.ark:10022497
mtat1_si1627 /u/ravanelm//kaldi-trunk/egs/timit_rev/s5/fbank/raw_fbank_train.4.ark:7463730
mefg0_sx375 /u/ravanelm//kaldi-trunk/egs/timit_rev/s5/fbank/raw_fbank_train.2.ark:9815531
mjde0_si490 /u/ravanelm//kaldi-trunk/egs/timit_rev/s5/fbank/raw_fbank_train.3.ark:2279569
megj0_si1967 /u/ravanelm//kaldi-trunk/egs/timit_rev/s5/fbank/raw_fbank_train.2.ark:9854319
mdwm0_si2176 /u/ravanelm//kaldi-trunk/egs/timit_rev/s5/fbank/raw_fbank_train.2.ark:9471900
fbas0_sx307 /u/ravanelm//kaldi-trunk/egs/timit_rev/s5/fbank/raw_fbank_train.1.ark:602661
mprk0_sx107 /u/ravanelm//kaldi-trunk/egs/timit_rev/s5/fbank/raw_fbank_train.4.ark:329494
fsls0_si1056 /u/ravanelm//kaldi-trunk/egs/timit_rev/s5/fbank/raw_fbank_train.2.ark:538829
mfwk0_sx169 /u/ravanelm//kaldi-trunk/egs/timit_rev/s5/fbank/raw_fbank_train.2.ark:10710287
mdef0_sx393 /u/ravanelm//kaldi-trunk/egs/timit_rev/s5/fbank/raw_fbank_train.2.ark:6869820
msat1_sx83 /u/ravanelm//kaldi-trunk/egs/timit_rev/s5/fbank/raw_fbank_train.4.ark:5580092
fbjl0_sx112 /u/ravanelm//kaldi-trunk/egs/timit_rev/s5/fbank/raw_fbank_train.1.ark:882109
mjwg0_si895 /u/ravanelm//kaldi-trunk/egs/timit_rev/s5/fbank/raw_fbank_train.3.ark:5161137
fsjg0_sx220 /u/ravanelm//kaldi-trunk/egs/timit_rev/s5/fbank/raw_fbank_train.1.ark:11767848
mmlm0_si897 /u/ravanelm//kaldi-trunk/egs/timit_rev/s5/fbank/raw_fbank_train.3.ark:9651504
fpad0_sx86 /u/ravanelm//kaldi-trunk/egs/timit_rev/s5/fbank/raw_fbank_train.1.ark:10082521
mwad0_si2322 /u/ravanelm//kaldi-trunk/egs/timit_rev/s5/fbank/raw_fbank_train.4.ark:10619860
mrjm0_sx418 /u/ravanelm//kaldi-trunk/egs/timit_rev/s5/fbank/raw_fbank_train.4.ark:2880660
faem0_sx42 /u/ravanelm//kaldi-trunk/egs/timit_rev/s5/fbank/raw_fbank_train.1.ark:91084
mrmg0_sx180 /u/ravanelm//kaldi-trunk/egs/timit_rev/s5/fbank/raw_fbank_train.4.ark:3825691
mdwh0_sx215 /u/ravanelm//kaldi-trunk/egs/timit_rev/s5/fbank/raw_fbank_train.2.ark:9403174
mmcc0_sx168 /u/ravanelm//kaldi-trunk/egs/timit_rev/s5/fbank/raw_fbank_train.3.ark:8550157
mprb0_si575 /u/ravanelm//kaldi-trunk/egs/timit_rev/s5/fbank/raw_fbank_train.4.ark:80051
mctm0_sx180 /u/ravanelm//kaldi-trunk/egs/timit_rev/s5/fbank/raw_fbank_train.2.ark:5852160
fsak0_sx220 /u/ravanelm//kaldi-trunk/egs/timit_rev/s5/fbank/raw_fbank_train.1.ark:11149057
flja0_sx448 /u/ravanelm//kaldi-trunk/egs/timit_rev/s5/fbank/raw_fbank_train.1.ark:7690838
mjlb0_sx176 /u/ravanelm//kaldi-trunk/egs/timit_rev/s5/fbank/raw_fbank_train.3.ark:3623368
mjxa0_sx67 /u/ravanelm//kaldi-trunk/egs/timit_rev/s5/fbank/raw_fbank_train.3.ark:5544176
fpmy0_sx73 /u/ravanelm//kaldi-trunk/egs/timit_rev/s5/fbank/raw_fbank_train.1.ark:10589165
fsdc0_sx232 /u/ravanelm//kaldi-trunk/egs/timit_rev/s5/fbank/raw_fbank_train.1.ark:11474293
