mctm0_sx360 /u/ravanelm//kaldi-trunk/egs/timit_rev/s5/fbank/raw_fbank_train.2.ark:5873106
mtrr0_sx378 /u/ravanelm//kaldi-trunk/egs/timit_rev/s5/fbank/raw_fbank_train.4.ark:9895502
mtqc0_sx271 /u/ravanelm//kaldi-trunk/egs/timit_rev/s5/fbank/raw_fbank_train.4.ark:9662555
fceg0_si1878 /u/ravanelm//kaldi-trunk/egs/timit_rev/s5/fbank/raw_fbank_train.1.ark:1575099
mesg0_sx72 /u/ravanelm//kaldi-trunk/egs/timit_rev/s5/fbank/raw_fbank_train.2.ark:10216749
fdxw0_si2141 /u/ravanelm//kaldi-trunk/egs/timit_rev/s5/fbank/raw_fbank_train.1.ark:3352235
fmpg0_sx162 /u/ravanelm//kaldi-trunk/egs/timit_rev/s5/fbank/raw_fbank_train.1.ark:9493746
mfxs0_sx54 /u/ravanelm//kaldi-trunk/egs/timit_rev/s5/fbank/raw_fbank_train.2.ark:10856644
msah1_sx149 /u/ravanelm//kaldi-trunk/egs/timit_rev/s5/fbank/raw_fbank_train.4.ark:5250245
mrfl0_si1156 /u/ravanelm//kaldi-trunk/egs/timit_rev/s5/fbank/raw_fbank_train.4.ark:2138512
mjrg0_si1366 /u/ravanelm//kaldi-trunk/egs/timit_rev/s5/fbank/raw_fbank_train.3.ark:4529000
mfxs0_si2304 /u/ravanelm//kaldi-trunk/egs/timit_rev/s5/fbank/raw_fbank_train.2.ark:10792400
fbch0_sx56 /u/ravanelm//kaldi-trunk/egs/timit_rev/s5/fbank/raw_fbank_train.1.ark:828855
mrvg0_sx330 /u/ravanelm//kaldi-trunk/egs/timit_rev/s5/fbank/raw_fbank_train.4.ark:4904090
meal0_sx377 /u/ravanelm//kaldi-trunk/egs/timit_rev/s5/fbank/raw_fbank_train.2.ark:9628203
mmds0_si1343 /u/ravanelm//kaldi-trunk/egs/timit_rev/s5/fbank/raw_fbank_train.3.ark:9002662
flmc0_si742 /u/ravanelm//kaldi-trunk/egs/timit_rev/s5/fbank/raw_fbank_train.1.ark:8157030
fpjf0_si1676 /u/ravanelm//kaldi-trunk/egs/timit_rev/s5/fbank/raw_fbank_train.1.ark:10326473
mmjb1_sx238 /u/ravanelm//kaldi-trunk/egs/timit_rev/s5/fbank/raw_fbank_train.3.ark:9572745
fmmh0_sx7 /u/ravanelm//kaldi-trunk/egs/timit_rev/s5/fbank/raw_fbank_train.1.ark:9424300
mdks0_si2326 /u/ravanelm//kaldi-trunk/egs/timit_rev/s5/fbank/raw_fbank_train.2.ark:7299541
fcag0_si2133 /u/ravanelm//kaldi-trunk/egs/timit_rev/s5/fbank/raw_fbank_train.1.ark:1272777
mrws0_si1732 /u/ravanelm//kaldi-trunk/egs/timit_rev/s5/fbank/raw_fbank_train.4.ark:5053648
mtrr0_sx288 /u/ravanelm//kaldi-trunk/egs/timit_rev/s5/fbank/raw_fbank_train.4.ark:9881909
mkjo0_sx77 /u/ravanelm//kaldi-trunk/egs/timit_rev/s5/fbank/raw_fbank_train.3.ark:6545344
mdmt0_si1832 /u/ravanelm//kaldi-trunk/egs/timit_rev/s5/fbank/raw_fbank_train.2.ark:8311285
flma0_si1873 /u/ravanelm//kaldi-trunk/egs/timit_rev/s5/fbank/raw_fbank_train.1.ark:8053772
mlbc0_si1869 /u/ravanelm//kaldi-trunk/egs/timit_rev/s5/fbank/raw_fbank_train.3.ark:7249590
mdhs0_sx450 /u/ravanelm//kaldi-trunk/egs/timit_rev/s5/fbank/raw_fbank_train.2.ark:7166542
fmah1_sx249 /u/ravanelm//kaldi-trunk/egs/timit_rev/s5/fbank/raw_fbank_train.1.ark:8575239
mcdc0_si1922 /u/ravanelm//kaldi-trunk/egs/timit_rev/s5/fbank/raw_fbank_train.2.ark:4631394
mtkp0_sx213 /u/ravanelm//kaldi-trunk/egs/timit_rev/s5/fbank/raw_fbank_train.4.ark:8663144
fcmg0_si1872 /u/ravanelm//kaldi-trunk/egs/timit_rev/s5/fbank/raw_fbank_train.1.ark:2031618
mdef0_sx123 /u/ravanelm//kaldi-trunk/egs/timit_rev/s5/fbank/raw_fbank_train.2.ark:6828569
fvfb0_si1510 /u/ravanelm//kaldi-trunk/egs/timit_rev/s5/fbank/raw_fbank_train.2.ark:1748723
mrdm0_si1044 /u/ravanelm//kaldi-trunk/egs/timit_rev/s5/fbank/raw_fbank_train.4.ark:1458576
freh0_sx235 /u/ravanelm//kaldi-trunk/egs/timit_rev/s5/fbank/raw_fbank_train.1.ark:10652532
mdef0_si2193 /u/ravanelm//kaldi-trunk/egs/timit_rev/s5/fbank/raw_fbank_train.2.ark:6818696
mmvp0_si1284 /u/ravanelm//kaldi-trunk/egs/timit_rev/s5/fbank/raw_fbank_train.3.ark:10022497
feme0_sx245 /u/ravanelm//kaldi-trunk/egs/timit_rev/s5/fbank/raw_fbank_train.1.ark:3909579
mtat0_si1740 /u/ravanelm//kaldi-trunk/egs/timit_rev/s5/fbank/raw_fbank_train.4.ark:7372305
mjrp0_sx315 /u/ravanelm//kaldi-trunk/egs/timit_rev/s5/fbank/raw_fbank_train.3.ark:4974907
mtmn0_si1064 /u/ravanelm//kaldi-trunk/egs/timit_rev/s5/fbank/raw_fbank_train.4.ark:9001032
mjws0_sx153 /u/ravanelm//kaldi-trunk/egs/timit_rev/s5/fbank/raw_fbank_train.3.ark:5279875
mrcg0_sx438 /u/ravanelm//kaldi-trunk/egs/timit_rev/s5/fbank/raw_fbank_train.4.ark:1242659
marw0_sx106 /u/ravanelm//kaldi-trunk/egs/timit_rev/s5/fbank/raw_fbank_train.2.ark:3102543
mgar0_si1842 /u/ravanelm//kaldi-trunk/egs/timit_rev/s5/fbank/raw_fbank_train.3.ark:24161
msat1_si1703 /u/ravanelm//kaldi-trunk/egs/timit_rev/s5/fbank/raw_fbank_train.4.ark:5509374
mmds0_sx173 /u/ravanelm//kaldi-trunk/egs/timit_rev/s5/fbank/raw_fbank_train.3.ark:9031962
fvkb0_sx259 /u/ravanelm//kaldi-trunk/egs/timit_rev/s5/fbank/raw_fbank_train.2.ark:1868888
mfrm0_sx165 /u/ravanelm//kaldi-trunk/egs/timit_rev/s5/fbank/raw_fbank_train.2.ark:10622382
mwch0_sx452 /u/ravanelm//kaldi-trunk/egs/timit_rev/s5/fbank/raw_fbank_train.4.ark:10832124
mkln0_si968 /u/ravanelm//kaldi-trunk/egs/timit_rev/s5/fbank/raw_fbank_train.3.ark:6578405
fpls0_sx60 /u/ravanelm//kaldi-trunk/egs/timit_rev/s5/fbank/raw_fbank_train.1.ark:10474420
mrgs0_sx276 /u/ravanelm//kaldi-trunk/egs/timit_rev/s5/fbank/raw_fbank_train.4.ark:2426135
fsjg0_si1570 /u/ravanelm//kaldi-trunk/egs/timit_rev/s5/fbank/raw_fbank_train.1.ark:11704595
fvkb0_si1789 /u/ravanelm//kaldi-trunk/egs/timit_rev/s5/fbank/raw_fbank_train.2.ark:1835469
majp0_si2334 /u/ravanelm//kaldi-trunk/egs/timit_rev/s5/fbank/raw_fbank_train.2.ark:2608184
fsrh0_sx41 /u/ravanelm//kaldi-trunk/egs/timit_rev/s5/fbank/raw_fbank_train.2.ark:1140146
mhjb0_sx387 /u/ravanelm//kaldi-trunk/egs/timit_rev/s5/fbank/raw_fbank_train.3.ark:1174436
mkls0_si2067 /u/ravanelm//kaldi-trunk/egs/timit_rev/s5/fbank/raw_fbank_train.3.ark:6767537
fklh0_sx267 /u/ravanelm//kaldi-trunk/egs/timit_rev/s5/fbank/raw_fbank_train.1.ark:6966274
fbcg1_sx352 /u/ravanelm//kaldi-trunk/egs/timit_rev/s5/fbank/raw_fbank_train.1.ark:688846
mlns0_sx327 /u/ravanelm//kaldi-trunk/egs/timit_rev/s5/fbank/raw_fbank_train.3.ark:7721942
fsrh0_si1719 /u/ravanelm//kaldi-trunk/egs/timit_rev/s5/fbank/raw_fbank_train.2.ark:1059315
mtab0_si942 /u/ravanelm//kaldi-trunk/egs/timit_rev/s5/fbank/raw_fbank_train.4.ark:7190128
mwad0_sx342 /u/ravanelm//kaldi-trunk/egs/timit_rev/s5/fbank/raw_fbank_train.4.ark:10647799
mdlc2_sx174 /u/ravanelm//kaldi-trunk/egs/timit_rev/s5/fbank/raw_fbank_train.2.ark:7734275
mdhl0_sx269 /u/ravanelm//kaldi-trunk/egs/timit_rev/s5/fbank/raw_fbank_train.2.ark:7048731
mrgs0_sx96 /u/ravanelm//kaldi-trunk/egs/timit_rev/s5/fbank/raw_fbank_train.4.ark:2470391
fbch0_si1586 /u/ravanelm//kaldi-trunk/egs/timit_rev/s5/fbank/raw_fbank_train.1.ark:731665
mmdm0_si681 /u/ravanelm//kaldi-trunk/egs/timit_rev/s5/fbank/raw_fbank_train.3.ark:8830839
mntw0_sx202 /u/ravanelm//kaldi-trunk/egs/timit_rev/s5/fbank/raw_fbank_train.3.ark:10686298
fskc0_si2046 /u/ravanelm//kaldi-trunk/egs/timit_rev/s5/fbank/raw_fbank_train.2.ark:267348
mkag0_sx79 /u/ravanelm//kaldi-trunk/egs/timit_rev/s5/fbank/raw_fbank_train.3.ark:5753265
makr0_sx92 /u/ravanelm//kaldi-trunk/egs/timit_rev/s5/fbank/raw_fbank_train.2.ark:2875919
mgrl0_si2127 /u/ravanelm//kaldi-trunk/egs/timit_rev/s5/fbank/raw_fbank_train.3.ark:397629
mvrw0_sx135 /u/ravanelm//kaldi-trunk/egs/timit_rev/s5/fbank/raw_fbank_train.4.ark:10434242
mmpm0_sx341 /u/ravanelm//kaldi-trunk/egs/timit_rev/s5/fbank/raw_fbank_train.3.ark:9776789
medr0_sx294 /u/ravanelm//kaldi-trunk/egs/timit_rev/s5/fbank/raw_fbank_train.2.ark:9708675
mtrc0_sx363 /u/ravanelm//kaldi-trunk/egs/timit_rev/s5/fbank/raw_fbank_train.4.ark:9792805
mprd0_sx81 /u/ravanelm//kaldi-trunk/egs/timit_rev/s5/fbank/raw_fbank_train.4.ark:266440
mrwa0_sx433 /u/ravanelm//kaldi-trunk/egs/timit_rev/s5/fbank/raw_fbank_train.4.ark:5011788
mjdm0_sx440 /u/ravanelm//kaldi-trunk/egs/timit_rev/s5/fbank/raw_fbank_train.3.ark:2557112
fsms1_sx244 /u/ravanelm//kaldi-trunk/egs/timit_rev/s5/fbank/raw_fbank_train.2.ark:899758
mkam0_sx146 /u/ravanelm//kaldi-trunk/egs/timit_rev/s5/fbank/raw_fbank_train.3.ark:6000610
feme0_si875 /u/ravanelm//kaldi-trunk/egs/timit_rev/s5/fbank/raw_fbank_train.1.ark:3876113
mwac0_sx251 /u/ravanelm//kaldi-trunk/egs/timit_rev/s5/fbank/raw_fbank_train.4.ark:10542300
fdml0_sx429 /u/ravanelm//kaldi-trunk/egs/timit_rev/s5/fbank/raw_fbank_train.1.ark:2963139
fjrp1_sx442 /u/ravanelm//kaldi-trunk/egs/timit_rev/s5/fbank/raw_fbank_train.1.ark:5648933
fsjw0_sx343 /u/ravanelm//kaldi-trunk/egs/timit_rev/s5/fbank/raw_fbank_train.2.ark:214655
mclk0_sx400 /u/ravanelm//kaldi-trunk/egs/timit_rev/s5/fbank/raw_fbank_train.2.ark:5324102
mrjh0_sx259 /u/ravanelm//kaldi-trunk/egs/timit_rev/s5/fbank/raw_fbank_train.4.ark:2754928
mkah0_sx358 /u/ravanelm//kaldi-trunk/egs/timit_rev/s5/fbank/raw_fbank_train.3.ark:5829345
fcmm0_si1083 /u/ravanelm//kaldi-trunk/egs/timit_rev/s5/fbank/raw_fbank_train.1.ark:2107136
mjra0_sx336 /u/ravanelm//kaldi-trunk/egs/timit_rev/s5/fbank/raw_fbank_train.3.ark:4488981
mtjs0_sx112 /u/ravanelm//kaldi-trunk/egs/timit_rev/s5/fbank/raw_fbank_train.4.ark:8333916
mjls0_sx106 /u/ravanelm//kaldi-trunk/egs/timit_rev/s5/fbank/raw_fbank_train.3.ark:3815979
mjmd0_si1028 /u/ravanelm//kaldi-trunk/egs/timit_rev/s5/fbank/raw_fbank_train.3.ark:3965689
mrlj0_sx70 /u/ravanelm//kaldi-trunk/egs/timit_rev/s5/fbank/raw_fbank_train.4.ark:3409655
fdaw0_sx56 /u/ravanelm//kaldi-trunk/egs/timit_rev/s5/fbank/raw_fbank_train.1.ark:2595188
mpgh0_si675 /u/ravanelm//kaldi-trunk/egs/timit_rev/s5/fbank/raw_fbank_train.3.ark:11028698
megj0_sx77 /u/ravanelm//kaldi-trunk/egs/timit_rev/s5/fbank/raw_fbank_train.2.ark:9927674
mjmd0_sx38 /u/ravanelm//kaldi-trunk/egs/timit_rev/s5/fbank/raw_fbank_train.3.ark:4027808
mrtj0_sx232 /u/ravanelm//kaldi-trunk/egs/timit_rev/s5/fbank/raw_fbank_train.4.ark:4793712
fcjf0_sx37 /u/ravanelm//kaldi-trunk/egs/timit_rev/s5/fbank/raw_fbank_train.1.ark:1702768
mkaj0_sx424 /u/ravanelm//kaldi-trunk/egs/timit_rev/s5/fbank/raw_fbank_train.3.ark:5931403
mrjh0_sx307 /u/ravanelm//kaldi-trunk/egs/timit_rev/s5/fbank/raw_fbank_train.4.ark:2768801
mmvp0_sx114 /u/ravanelm//kaldi-trunk/egs/timit_rev/s5/fbank/raw_fbank_train.3.ark:10073197
mded0_si1170 /u/ravanelm//kaldi-trunk/egs/timit_rev/s5/fbank/raw_fbank_train.2.ark:6681163
mkah0_sx268 /u/ravanelm//kaldi-trunk/egs/timit_rev/s5/fbank/raw_fbank_train.3.ark:5816112
mcdr0_sx164 /u/ravanelm//kaldi-trunk/egs/timit_rev/s5/fbank/raw_fbank_train.2.ark:4857110
fmkc0_si1072 /u/ravanelm//kaldi-trunk/egs/timit_rev/s5/fbank/raw_fbank_train.1.ark:9157328
fsjs0_si1171 /u/ravanelm//kaldi-trunk/egs/timit_rev/s5/fbank/raw_fbank_train.2.ark:43184
fltm0_si1700 /u/ravanelm//kaldi-trunk/egs/timit_rev/s5/fbank/raw_fbank_train.1.ark:8428314
mkdb0_sx332 /u/ravanelm//kaldi-trunk/egs/timit_rev/s5/fbank/raw_fbank_train.3.ark:6116180
mmab1_sx414 /u/ravanelm//kaldi-trunk/egs/timit_rev/s5/fbank/raw_fbank_train.3.ark:8049290
mkln0_sx248 /u/ravanelm//kaldi-trunk/egs/timit_rev/s5/fbank/raw_fbank_train.3.ark:6602631
fecd0_si788 /u/ravanelm//kaldi-trunk/egs/timit_rev/s5/fbank/raw_fbank_train.1.ark:3667063
mtkd0_sx377 /u/ravanelm//kaldi-trunk/egs/timit_rev/s5/fbank/raw_fbank_train.4.ark:8587137
mdjm0_sx15 /u/ravanelm//kaldi-trunk/egs/timit_rev/s5/fbank/raw_fbank_train.2.ark:7240900
mdcm0_si2110 /u/ravanelm//kaldi-trunk/egs/timit_rev/s5/fbank/raw_fbank_train.2.ark:6510267
mafm0_sx129 /u/ravanelm//kaldi-trunk/egs/timit_rev/s5/fbank/raw_fbank_train.2.ark:2526391
fcjf0_si1657 /u/ravanelm//kaldi-trunk/egs/timit_rev/s5/fbank/raw_fbank_train.1.ark:1656684
mrdm0_sx155 /u/ravanelm//kaldi-trunk/egs/timit_rev/s5/fbank/raw_fbank_train.4.ark:1497276
mcss0_sx210 /u/ravanelm//kaldi-trunk/egs/timit_rev/s5/fbank/raw_fbank_train.2.ark:5672623
mbsb0_sx3 /u/ravanelm//kaldi-trunk/egs/timit_rev/s5/fbank/raw_fbank_train.2.ark:4163884
mkam0_sx416 /u/ravanelm//kaldi-trunk/egs/timit_rev/s5/fbank/raw_fbank_train.3.ark:6033909
msmc0_si647 /u/ravanelm//kaldi-trunk/egs/timit_rev/s5/fbank/raw_fbank_train.4.ark:6465955
mstf0_si1396 /u/ravanelm//kaldi-trunk/egs/timit_rev/s5/fbank/raw_fbank_train.4.ark:6928292
mcpm0_sx114 /u/ravanelm//kaldi-trunk/egs/timit_rev/s5/fbank/raw_fbank_train.2.ark:5465461
fceg0_sx78 /u/ravanelm//kaldi-trunk/egs/timit_rev/s5/fbank/raw_fbank_train.1.ark:1635896
mrab0_sx54 /u/ravanelm//kaldi-trunk/egs/timit_rev/s5/fbank/raw_fbank_train.4.ark:651379
mgjc0_sx435 /u/ravanelm//kaldi-trunk/egs/timit_rev/s5/fbank/raw_fbank_train.3.ark:357209
mjfh0_sx207 /u/ravanelm//kaldi-trunk/egs/timit_rev/s5/fbank/raw_fbank_train.3.ark:2930226
mejl0_si1592 /u/ravanelm//kaldi-trunk/egs/timit_rev/s5/fbank/raw_fbank_train.2.ark:9941108
fpls0_sx240 /u/ravanelm//kaldi-trunk/egs/timit_rev/s5/fbank/raw_fbank_train.1.ark:10443964
mtrc0_sx93 /u/ravanelm//kaldi-trunk/egs/timit_rev/s5/fbank/raw_fbank_train.4.ark:9803317
mdwh0_sx215 /u/ravanelm//kaldi-trunk/egs/timit_rev/s5/fbank/raw_fbank_train.2.ark:9403174
mjma0_sx145 /u/ravanelm//kaldi-trunk/egs/timit_rev/s5/fbank/raw_fbank_train.3.ark:3916764
mbbr0_sx65 /u/ravanelm//kaldi-trunk/egs/timit_rev/s5/fbank/raw_fbank_train.2.ark:3357045
mmpm0_si1061 /u/ravanelm//kaldi-trunk/egs/timit_rev/s5/fbank/raw_fbank_train.3.ark:9712502
mjdg0_sx322 /u/ravanelm//kaldi-trunk/egs/timit_rev/s5/fbank/raw_fbank_train.3.ark:2441334
mlbc0_sx69 /u/ravanelm//kaldi-trunk/egs/timit_rev/s5/fbank/raw_fbank_train.3.ark:7317547
mgar0_sx402 /u/ravanelm//kaldi-trunk/egs/timit_rev/s5/fbank/raw_fbank_train.3.ark:76853
fjxp0_si1752 /u/ravanelm//kaldi-trunk/egs/timit_rev/s5/fbank/raw_fbank_train.1.ark:6093933
mrtc0_si2088 /u/ravanelm//kaldi-trunk/egs/timit_rev/s5/fbank/raw_fbank_train.4.ark:4638948
mrjm0_si1095 /u/ravanelm//kaldi-trunk/egs/timit_rev/s5/fbank/raw_fbank_train.4.ark:2807340
msfh0_si1216 /u/ravanelm//kaldi-trunk/egs/timit_rev/s5/fbank/raw_fbank_train.4.ark:6099454
fmkc0_si1041 /u/ravanelm//kaldi-trunk/egs/timit_rev/s5/fbank/raw_fbank_train.1.ark:9139014
mrlj0_si790 /u/ravanelm//kaldi-trunk/egs/timit_rev/s5/fbank/raw_fbank_train.4.ark:3345411
msrr0_sx51 /u/ravanelm//kaldi-trunk/egs/timit_rev/s5/fbank/raw_fbank_train.4.ark:6916418
fmju0_sx39 /u/ravanelm//kaldi-trunk/egs/timit_rev/s5/fbank/raw_fbank_train.1.ark:9115947
mrmh0_sx211 /u/ravanelm//kaldi-trunk/egs/timit_rev/s5/fbank/raw_fbank_train.4.ark:3940470
fcmg0_sx432 /u/ravanelm//kaldi-trunk/egs/timit_rev/s5/fbank/raw_fbank_train.1.ark:2079270
mcew0_sx92 /u/ravanelm//kaldi-trunk/egs/timit_rev/s5/fbank/raw_fbank_train.2.ark:5117851
fcdr1_sx286 /u/ravanelm//kaldi-trunk/egs/timit_rev/s5/fbank/raw_fbank_train.1.ark:1529638
mtwh1_sx342 /u/ravanelm//kaldi-trunk/egs/timit_rev/s5/fbank/raw_fbank_train.4.ark:10056967
mljh0_sx64 /u/ravanelm//kaldi-trunk/egs/timit_rev/s5/fbank/raw_fbank_train.3.ark:7657902
mtqc0_si480 /u/ravanelm//kaldi-trunk/egs/timit_rev/s5/fbank/raw_fbank_train.4.ark:9633249
mjbg0_sx62 /u/ravanelm//kaldi-trunk/egs/timit_rev/s5/fbank/raw_fbank_train.3.ark:2055938
fcaj0_sx219 /u/ravanelm//kaldi-trunk/egs/timit_rev/s5/fbank/raw_fbank_train.1.ark:1386028
fsrh0_sx311 /u/ravanelm//kaldi-trunk/egs/timit_rev/s5/fbank/raw_fbank_train.2.ark:1112121
fmah1_sx159 /u/ravanelm//kaldi-trunk/egs/timit_rev/s5/fbank/raw_fbank_train.1.ark:8561686
mpmb0_sx151 /u/ravanelm//kaldi-trunk/egs/timit_rev/s5/fbank/raw_fbank_train.3.ark:11362360
mwch0_sx272 /u/ravanelm//kaldi-trunk/egs/timit_rev/s5/fbank/raw_fbank_train.4.ark:10810778
mgsl0_si1164 /u/ravanelm//kaldi-trunk/egs/timit_rev/s5/fbank/raw_fbank_train.3.ark:701108
fajw0_sx3 /u/ravanelm//kaldi-trunk/egs/timit_rev/s5/fbank/raw_fbank_train.1.ark:175282
mtrt0_si1857 /u/ravanelm//kaldi-trunk/egs/timit_rev/s5/fbank/raw_fbank_train.4.ark:9929890
mtjm0_sx146 /u/ravanelm//kaldi-trunk/egs/timit_rev/s5/fbank/raw_fbank_train.4.ark:8228531
mgrp0_si687 /u/ravanelm//kaldi-trunk/egs/timit_rev/s5/fbank/raw_fbank_train.3.ark:510687
msem1_sx270 /u/ravanelm//kaldi-trunk/egs/timit_rev/s5/fbank/raw_fbank_train.4.ark:5961536
mges0_si1481 /u/ravanelm//kaldi-trunk/egs/timit_rev/s5/fbank/raw_fbank_train.3.ark:193384
fgcs0_sx406 /u/ravanelm//kaldi-trunk/egs/timit_rev/s5/fbank/raw_fbank_train.1.ark:4246241
fjsk0_sx152 /u/ravanelm//kaldi-trunk/egs/timit_rev/s5/fbank/raw_fbank_train.1.ark:5714700
fjlg0_si1889 /u/ravanelm//kaldi-trunk/egs/timit_rev/s5/fbank/raw_fbank_train.1.ark:5260372
mjac0_sx71 /u/ravanelm//kaldi-trunk/egs/timit_rev/s5/fbank/raw_fbank_train.3.ark:1753782
mbwp0_si709 /u/ravanelm//kaldi-trunk/egs/timit_rev/s5/fbank/raw_fbank_train.2.ark:4310114
mwsh0_sx436 /u/ravanelm//kaldi-trunk/egs/timit_rev/s5/fbank/raw_fbank_train.4.ark:11533378
mhbs0_sx225 /u/ravanelm//kaldi-trunk/egs/timit_rev/s5/fbank/raw_fbank_train.3.ark:968407
mrvg0_si510 /u/ravanelm//kaldi-trunk/egs/timit_rev/s5/fbank/raw_fbank_train.4.ark:4874151
mjpm0_sx378 /u/ravanelm//kaldi-trunk/egs/timit_rev/s5/fbank/raw_fbank_train.3.ark:4319756
mgag0_sx241 /u/ravanelm//kaldi-trunk/egs/timit_rev/s5/fbank/raw_fbank_train.2.ark:11103621
fmkc0_sx262 /u/ravanelm//kaldi-trunk/egs/timit_rev/s5/fbank/raw_fbank_train.1.ark:9188908
mwem0_si1320 /u/ravanelm//kaldi-trunk/egs/timit_rev/s5/fbank/raw_fbank_train.4.ark:10955175
mctm0_sx180 /u/ravanelm//kaldi-trunk/egs/timit_rev/s5/fbank/raw_fbank_train.2.ark:5852160
milb0_si807 /u/ravanelm//kaldi-trunk/egs/timit_rev/s5/fbank/raw_fbank_train.3.ark:1584722
mrwa0_sx163 /u/ravanelm//kaldi-trunk/egs/timit_rev/s5/fbank/raw_fbank_train.4.ark:4976929
ftbr0_sx111 /u/ravanelm//kaldi-trunk/egs/timit_rev/s5/fbank/raw_fbank_train.2.ark:1386050
msat0_si2156 /u/ravanelm//kaldi-trunk/egs/timit_rev/s5/fbank/raw_fbank_train.4.ark:5428189
mtas0_sx395 /u/ravanelm//kaldi-trunk/egs/timit_rev/s5/fbank/raw_fbank_train.4.ark:7342677
mdlb0_sx226 /u/ravanelm//kaldi-trunk/egs/timit_rev/s5/fbank/raw_fbank_train.2.ark:7446192
fvmh0_sx26 /u/ravanelm//kaldi-trunk/egs/timit_rev/s5/fbank/raw_fbank_train.2.ark:1993825
fmmh0_sx97 /u/ravanelm//kaldi-trunk/egs/timit_rev/s5/fbank/raw_fbank_train.1.ark:9435932
fjsk0_sx242 /u/ravanelm//kaldi-trunk/egs/timit_rev/s5/fbank/raw_fbank_train.1.ark:5727333
fdfb0_sx58 /u/ravanelm//kaldi-trunk/egs/timit_rev/s5/fbank/raw_fbank_train.1.ark:2680014
fpaz0_si2223 /u/ravanelm//kaldi-trunk/egs/timit_rev/s5/fbank/raw_fbank_train.1.ark:10202575
mtab0_si1572 /u/ravanelm//kaldi-trunk/egs/timit_rev/s5/fbank/raw_fbank_train.4.ark:7158301
maeb0_sx90 /u/ravanelm//kaldi-trunk/egs/timit_rev/s5/fbank/raw_fbank_train.2.ark:2394111
msdh0_sx260 /u/ravanelm//kaldi-trunk/egs/timit_rev/s5/fbank/raw_fbank_train.4.ark:5710525
mnet0_sx6 /u/ravanelm//kaldi-trunk/egs/timit_rev/s5/fbank/raw_fbank_train.3.ark:10607538
feeh0_si1742 /u/ravanelm//kaldi-trunk/egs/timit_rev/s5/fbank/raw_fbank_train.1.ark:3766015
fmah1_si879 /u/ravanelm//kaldi-trunk/egs/timit_rev/s5/fbank/raw_fbank_train.1.ark:8542453
mdbp0_sx348 /u/ravanelm//kaldi-trunk/egs/timit_rev/s5/fbank/raw_fbank_train.2.ark:6353469
fdml0_si2075 /u/ravanelm//kaldi-trunk/egs/timit_rev/s5/fbank/raw_fbank_train.1.ark:2925927
mclm0_sx16 /u/ravanelm//kaldi-trunk/egs/timit_rev/s5/fbank/raw_fbank_train.2.ark:5382588
mrml0_si2051 /u/ravanelm//kaldi-trunk/egs/timit_rev/s5/fbank/raw_fbank_train.4.ark:4001396
mrmb0_sx51 /u/ravanelm//kaldi-trunk/egs/timit_rev/s5/fbank/raw_fbank_train.4.ark:3777156
mbml0_sx449 /u/ravanelm//kaldi-trunk/egs/timit_rev/s5/fbank/raw_fbank_train.2.ark:4003587
mjee0_si1237 /u/ravanelm//kaldi-trunk/egs/timit_rev/s5/fbank/raw_fbank_train.3.ark:2786308
fsma0_sx271 /u/ravanelm//kaldi-trunk/egs/timit_rev/s5/fbank/raw_fbank_train.2.ark:691908
fsah0_sx327 /u/ravanelm//kaldi-trunk/egs/timit_rev/s5/fbank/raw_fbank_train.1.ark:11052192
msmc0_si1907 /u/ravanelm//kaldi-trunk/egs/timit_rev/s5/fbank/raw_fbank_train.4.ark:6438969
mtjm0_sx326 /u/ravanelm//kaldi-trunk/egs/timit_rev/s5/fbank/raw_fbank_train.4.ark:8247477
mljc0_si1225 /u/ravanelm//kaldi-trunk/egs/timit_rev/s5/fbank/raw_fbank_train.3.ark:7441846
mtkp0_sx33 /u/ravanelm//kaldi-trunk/egs/timit_rev/s5/fbank/raw_fbank_train.4.ark:8683729
msrg0_si1851 /u/ravanelm//kaldi-trunk/egs/timit_rev/s5/fbank/raw_fbank_train.4.ark:6752317
mgsh0_sx186 /u/ravanelm//kaldi-trunk/egs/timit_rev/s5/fbank/raw_fbank_train.3.ark:650698
mwre0_si1057 /u/ravanelm//kaldi-trunk/egs/timit_rev/s5/fbank/raw_fbank_train.4.ark:11155506
flhd0_si1827 /u/ravanelm//kaldi-trunk/egs/timit_rev/s5/fbank/raw_fbank_train.1.ark:7527406
meal0_sx197 /u/ravanelm//kaldi-trunk/egs/timit_rev/s5/fbank/raw_fbank_train.2.ark:9595784
msvs0_sx38 /u/ravanelm//kaldi-trunk/egs/timit_rev/s5/fbank/raw_fbank_train.4.ark:7126754
ftmg0_si2162 /u/ravanelm//kaldi-trunk/egs/timit_rev/s5/fbank/raw_fbank_train.2.ark:1648458
fsgf0_sx207 /u/ravanelm//kaldi-trunk/egs/timit_rev/s5/fbank/raw_fbank_train.1.ark:11666143
fljg0_sx261 /u/ravanelm//kaldi-trunk/egs/timit_rev/s5/fbank/raw_fbank_train.1.ark:7878622
fmpg0_sx72 /u/ravanelm//kaldi-trunk/egs/timit_rev/s5/fbank/raw_fbank_train.1.ark:9561917
fdkn0_sx451 /u/ravanelm//kaldi-trunk/egs/timit_rev/s5/fbank/raw_fbank_train.1.ark:2869233
mlsh0_sx427 /u/ravanelm//kaldi-trunk/egs/timit_rev/s5/fbank/raw_fbank_train.3.ark:7840840
mabc0_si1620 /u/ravanelm//kaldi-trunk/egs/timit_rev/s5/fbank/raw_fbank_train.2.ark:2020165
mrws0_si1102 /u/ravanelm//kaldi-trunk/egs/timit_rev/s5/fbank/raw_fbank_train.4.ark:5036374
frll0_sx254 /u/ravanelm//kaldi-trunk/egs/timit_rev/s5/fbank/raw_fbank_train.1.ark:10837622
fgcs0_sx316 /u/ravanelm//kaldi-trunk/egs/timit_rev/s5/fbank/raw_fbank_train.1.ark:4236488
msah1_si1679 /u/ravanelm//kaldi-trunk/egs/timit_rev/s5/fbank/raw_fbank_train.4.ark:5233898
mkdb0_sx422 /u/ravanelm//kaldi-trunk/egs/timit_rev/s5/fbank/raw_fbank_train.3.ark:6129293
ftaj0_sx339 /u/ravanelm//kaldi-trunk/egs/timit_rev/s5/fbank/raw_fbank_train.2.ark:1312971
flhd0_sx444 /u/ravanelm//kaldi-trunk/egs/timit_rev/s5/fbank/raw_fbank_train.1.ark:7584132
mgjc0_si1256 /u/ravanelm//kaldi-trunk/egs/timit_rev/s5/fbank/raw_fbank_train.3.ark:277169
fsjs0_sx91 /u/ravanelm//kaldi-trunk/egs/timit_rev/s5/fbank/raw_fbank_train.2.ark:138295
mbml0_sx269 /u/ravanelm//kaldi-trunk/egs/timit_rev/s5/fbank/raw_fbank_train.2.ark:3979561
mwem0_sx420 /u/ravanelm//kaldi-trunk/egs/timit_rev/s5/fbank/raw_fbank_train.4.ark:11025415
mmag0_sx46 /u/ravanelm//kaldi-trunk/egs/timit_rev/s5/fbank/raw_fbank_train.3.ark:8178427
mges0_sx311 /u/ravanelm//kaldi-trunk/egs/timit_rev/s5/fbank/raw_fbank_train.3.ark:236510
mkah0_sx178 /u/ravanelm//kaldi-trunk/egs/timit_rev/s5/fbank/raw_fbank_train.3.ark:5799319
mpfu0_sx448 /u/ravanelm//kaldi-trunk/egs/timit_rev/s5/fbank/raw_fbank_train.3.ark:10983599
fbmj0_sx156 /u/ravanelm//kaldi-trunk/egs/timit_rev/s5/fbank/raw_fbank_train.1.ark:1189104
fjsp0_si1434 /u/ravanelm//kaldi-trunk/egs/timit_rev/s5/fbank/raw_fbank_train.1.ark:5778905
mvrw0_sx225 /u/ravanelm//kaldi-trunk/egs/timit_rev/s5/fbank/raw_fbank_train.4.ark:10445795
fjkl0_sx32 /u/ravanelm//kaldi-trunk/egs/timit_rev/s5/fbank/raw_fbank_train.1.ark:5230471
mgar0_sx132 /u/ravanelm//kaldi-trunk/egs/timit_rev/s5/fbank/raw_fbank_train.3.ark:34474
mkag0_sx439 /u/ravanelm//kaldi-trunk/egs/timit_rev/s5/fbank/raw_fbank_train.3.ark:5738393
mzmb0_sx176 /u/ravanelm//kaldi-trunk/egs/timit_rev/s5/fbank/raw_fbank_train.4.ark:11596944
mwrp0_si2073 /u/ravanelm//kaldi-trunk/egs/timit_rev/s5/fbank/raw_fbank_train.4.ark:11283880
mdlb0_si1306 /u/ravanelm//kaldi-trunk/egs/timit_rev/s5/fbank/raw_fbank_train.2.ark:7383979
mkah0_si2158 /u/ravanelm//kaldi-trunk/egs/timit_rev/s5/fbank/raw_fbank_train.3.ark:5777533
mdlm0_sx424 /u/ravanelm//kaldi-trunk/egs/timit_rev/s5/fbank/raw_fbank_train.2.ark:7962503
fsjk1_si2285 /u/ravanelm//kaldi-trunk/egs/timit_rev/s5/fbank/raw_fbank_train.1.ark:11852134
frll0_sx434 /u/ravanelm//kaldi-trunk/egs/timit_rev/s5/fbank/raw_fbank_train.1.ark:10857808
mjra0_si1866 /u/ravanelm//kaldi-trunk/egs/timit_rev/s5/fbank/raw_fbank_train.3.ark:4442129
fsag0_sx153 /u/ravanelm//kaldi-trunk/egs/timit_rev/s5/fbank/raw_fbank_train.1.ark:10911254
mjsr0_sx254 /u/ravanelm//kaldi-trunk/egs/timit_rev/s5/fbank/raw_fbank_train.3.ark:5077779
mrkm0_sx367 /u/ravanelm//kaldi-trunk/egs/timit_rev/s5/fbank/raw_fbank_train.4.ark:3198102
madd0_sx88 /u/ravanelm//kaldi-trunk/egs/timit_rev/s5/fbank/raw_fbank_train.2.ark:2293726
mdcd0_sx245 /u/ravanelm//kaldi-trunk/egs/timit_rev/s5/fbank/raw_fbank_train.2.ark:6447581
fpab1_sx121 /u/ravanelm//kaldi-trunk/egs/timit_rev/s5/fbank/raw_fbank_train.1.ark:9815980
mhmg0_si1995 /u/ravanelm//kaldi-trunk/egs/timit_rev/s5/fbank/raw_fbank_train.3.ark:1196064
mcef0_sx145 /u/ravanelm//kaldi-trunk/egs/timit_rev/s5/fbank/raw_fbank_train.2.ark:4952655
flet0_sx417 /u/ravanelm//kaldi-trunk/egs/timit_rev/s5/fbank/raw_fbank_train.1.ark:7493386
mjda0_sx131 /u/ravanelm//kaldi-trunk/egs/timit_rev/s5/fbank/raw_fbank_train.3.ark:2096233
mrmh0_si2281 /u/ravanelm//kaldi-trunk/egs/timit_rev/s5/fbank/raw_fbank_train.4.ark:3916724
frll0_sx74 /u/ravanelm//kaldi-trunk/egs/timit_rev/s5/fbank/raw_fbank_train.1.ark:10867520
mmaa0_sx305 /u/ravanelm//kaldi-trunk/egs/timit_rev/s5/fbank/raw_fbank_train.3.ark:7937112
mreh1_sx249 /u/ravanelm//kaldi-trunk/egs/timit_rev/s5/fbank/raw_fbank_train.4.ark:1808265
freh0_si1945 /u/ravanelm//kaldi-trunk/egs/timit_rev/s5/fbank/raw_fbank_train.1.ark:10616353
mdps0_sx179 /u/ravanelm//kaldi-trunk/egs/timit_rev/s5/fbank/raw_fbank_train.2.ark:8726125
flod0_si657 /u/ravanelm//kaldi-trunk/egs/timit_rev/s5/fbank/raw_fbank_train.1.ark:8354841
fcyl0_si667 /u/ravanelm//kaldi-trunk/egs/timit_rev/s5/fbank/raw_fbank_train.1.ark:2320253
fsjw0_sx253 /u/ravanelm//kaldi-trunk/egs/timit_rev/s5/fbank/raw_fbank_train.2.ark:205502
mjsr0_si2054 /u/ravanelm//kaldi-trunk/egs/timit_rev/s5/fbank/raw_fbank_train.3.ark:5022080
mtxs0_sx430 /u/ravanelm//kaldi-trunk/egs/timit_rev/s5/fbank/raw_fbank_train.4.ark:10177026
mwar0_sx415 /u/ravanelm//kaldi-trunk/egs/timit_rev/s5/fbank/raw_fbank_train.4.ark:10749418
mpgr1_si1499 /u/ravanelm//kaldi-trunk/egs/timit_rev/s5/fbank/raw_fbank_train.3.ark:11197308
mpmb0_sx61 /u/ravanelm//kaldi-trunk/egs/timit_rev/s5/fbank/raw_fbank_train.3.ark:11435171
mwch0_si1622 /u/ravanelm//kaldi-trunk/egs/timit_rev/s5/fbank/raw_fbank_train.4.ark:10772924
mrgm0_sx262 /u/ravanelm//kaldi-trunk/egs/timit_rev/s5/fbank/raw_fbank_train.4.ark:2314270
mwdk0_sx86 /u/ravanelm//kaldi-trunk/egs/timit_rev/s5/fbank/raw_fbank_train.4.ark:10945381
ftmg0_sx92 /u/ravanelm//kaldi-trunk/egs/timit_rev/s5/fbank/raw_fbank_train.2.ark:1726095
mfxs0_si2225 /u/ravanelm//kaldi-trunk/egs/timit_rev/s5/fbank/raw_fbank_train.2.ark:10785646
fapb0_sx343 /u/ravanelm//kaldi-trunk/egs/timit_rev/s5/fbank/raw_fbank_train.1.ark:479235
mrlj1_sx51 /u/ravanelm//kaldi-trunk/egs/timit_rev/s5/fbank/raw_fbank_train.4.ark:3491601
mmds0_sx263 /u/ravanelm//kaldi-trunk/egs/timit_rev/s5/fbank/raw_fbank_train.3.ark:9044275
mjda0_si1031 /u/ravanelm//kaldi-trunk/egs/timit_rev/s5/fbank/raw_fbank_train.3.ark:2068052
maeb0_si1411 /u/ravanelm//kaldi-trunk/egs/timit_rev/s5/fbank/raw_fbank_train.2.ark:2307200
mvrw0_sx45 /u/ravanelm//kaldi-trunk/egs/timit_rev/s5/fbank/raw_fbank_train.4.ark:10471173
fjxm0_si1211 /u/ravanelm//kaldi-trunk/egs/timit_rev/s5/fbank/raw_fbank_train.1.ark:5969794
fntb0_sx393 /u/ravanelm//kaldi-trunk/egs/timit_rev/s5/fbank/raw_fbank_train.1.ark:9752766
fdas1_si2091 /u/ravanelm//kaldi-trunk/egs/timit_rev/s5/fbank/raw_fbank_train.1.ark:2418765
mmdm1_sx243 /u/ravanelm//kaldi-trunk/egs/timit_rev/s5/fbank/raw_fbank_train.3.ark:8947210
mcef0_si842 /u/ravanelm//kaldi-trunk/egs/timit_rev/s5/fbank/raw_fbank_train.2.ark:4935662
mbma0_si1852 /u/ravanelm//kaldi-trunk/egs/timit_rev/s5/fbank/raw_fbank_train.2.ark:3755892
mded0_sx90 /u/ravanelm//kaldi-trunk/egs/timit_rev/s5/fbank/raw_fbank_train.2.ark:6776634
mjjj0_si1163 /u/ravanelm//kaldi-trunk/egs/timit_rev/s5/fbank/raw_fbank_train.3.ark:3272473
mmbs0_sx161 /u/ravanelm//kaldi-trunk/egs/timit_rev/s5/fbank/raw_fbank_train.3.ark:8435852
fgmb0_si515 /u/ravanelm//kaldi-trunk/egs/timit_rev/s5/fbank/raw_fbank_train.1.ark:4416359
mdjm0_si1455 /u/ravanelm//kaldi-trunk/egs/timit_rev/s5/fbank/raw_fbank_train.2.ark:7187408
mclk0_sx220 /u/ravanelm//kaldi-trunk/egs/timit_rev/s5/fbank/raw_fbank_train.2.ark:5288924
mdwh0_si1925 /u/ravanelm//kaldi-trunk/egs/timit_rev/s5/fbank/raw_fbank_train.2.ark:9363155
mkrg0_si1491 /u/ravanelm//kaldi-trunk/egs/timit_rev/s5/fbank/raw_fbank_train.3.ark:7044106
fvfb0_sx42 /u/ravanelm//kaldi-trunk/egs/timit_rev/s5/fbank/raw_fbank_train.2.ark:1817921
mmjb1_sx58 /u/ravanelm//kaldi-trunk/egs/timit_rev/s5/fbank/raw_fbank_train.3.ark:9614003
fbmj0_si516 /u/ravanelm//kaldi-trunk/egs/timit_rev/s5/fbank/raw_fbank_train.1.ark:1162598
mgag0_si691 /u/ravanelm//kaldi-trunk/egs/timit_rev/s5/fbank/raw_fbank_train.2.ark:11075875
mdlm0_si1234 /u/ravanelm//kaldi-trunk/egs/timit_rev/s5/fbank/raw_fbank_train.2.ark:7895504
fskl0_si899 /u/ravanelm//kaldi-trunk/egs/timit_rev/s5/fbank/raw_fbank_train.2.ark:375406
mdss0_sx81 /u/ravanelm//kaldi-trunk/egs/timit_rev/s5/fbank/raw_fbank_train.2.ark:9068131
mewm0_sx88 /u/ravanelm//kaldi-trunk/egs/timit_rev/s5/fbank/raw_fbank_train.2.ark:10383237
mjai0_sx344 /u/ravanelm//kaldi-trunk/egs/timit_rev/s5/fbank/raw_fbank_train.3.ark:1938487
falk0_si658 /u/ravanelm//kaldi-trunk/egs/timit_rev/s5/fbank/raw_fbank_train.1.ark:232687
mrcw0_sx291 /u/ravanelm//kaldi-trunk/egs/timit_rev/s5/fbank/raw_fbank_train.4.ark:1345803
mpmb0_si2131 /u/ravanelm//kaldi-trunk/egs/timit_rev/s5/fbank/raw_fbank_train.3.ark:11314654
mjeb0_sx296 /u/ravanelm//kaldi-trunk/egs/timit_rev/s5/fbank/raw_fbank_train.3.ark:2658816
fjrb0_sx222 /u/ravanelm//kaldi-trunk/egs/timit_rev/s5/fbank/raw_fbank_train.1.ark:5493002
mrms0_si2057 /u/ravanelm//kaldi-trunk/egs/timit_rev/s5/fbank/raw_fbank_train.4.ark:4119261
mjjj0_si1793 /u/ravanelm//kaldi-trunk/egs/timit_rev/s5/fbank/raw_fbank_train.3.ark:3296307
ftlg0_si840 /u/ravanelm//kaldi-trunk/egs/timit_rev/s5/fbank/raw_fbank_train.2.ark:1574466
fblv0_sx248 /u/ravanelm//kaldi-trunk/egs/timit_rev/s5/fbank/raw_fbank_train.1.ark:999568
fsls0_si1056 /u/ravanelm//kaldi-trunk/egs/timit_rev/s5/fbank/raw_fbank_train.2.ark:538829
mejl0_sx242 /u/ravanelm//kaldi-trunk/egs/timit_rev/s5/fbank/raw_fbank_train.2.ark:9981641
msah1_sx419 /u/ravanelm//kaldi-trunk/egs/timit_rev/s5/fbank/raw_fbank_train.4.ark:5287464
fexm0_sx366 /u/ravanelm//kaldi-trunk/egs/timit_rev/s5/fbank/raw_fbank_train.1.ark:4146815
fkde0_sx151 /u/ravanelm//kaldi-trunk/egs/timit_rev/s5/fbank/raw_fbank_train.1.ark:6329530
mejl0_sx332 /u/ravanelm//kaldi-trunk/egs/timit_rev/s5/fbank/raw_fbank_train.2.ark:9992834
mvjh0_sx116 /u/ravanelm//kaldi-trunk/egs/timit_rev/s5/fbank/raw_fbank_train.4.ark:10249872
fjwb1_sx165 /u/ravanelm//kaldi-trunk/egs/timit_rev/s5/fbank/raw_fbank_train.1.ark:5914949
mefg0_si465 /u/ravanelm//kaldi-trunk/egs/timit_rev/s5/fbank/raw_fbank_train.2.ark:9725021
mmgg0_si2339 /u/ravanelm//kaldi-trunk/egs/timit_rev/s5/fbank/raw_fbank_train.3.ark:9376869
fpad0_si716 /u/ravanelm//kaldi-trunk/egs/timit_rev/s5/fbank/raw_fbank_train.1.ark:10008637
mrmg0_sx180 /u/ravanelm//kaldi-trunk/egs/timit_rev/s5/fbank/raw_fbank_train.4.ark:3825691
mmcc0_sx348 /u/ravanelm//kaldi-trunk/egs/timit_rev/s5/fbank/raw_fbank_train.3.ark:8568703
mjlb0_sx86 /u/ravanelm//kaldi-trunk/egs/timit_rev/s5/fbank/raw_fbank_train.3.ark:3669019
mjpg0_sx111 /u/ravanelm//kaldi-trunk/egs/timit_rev/s5/fbank/raw_fbank_train.3.ark:4185320
fsrh0_sx221 /u/ravanelm//kaldi-trunk/egs/timit_rev/s5/fbank/raw_fbank_train.2.ark:1096648
mhrm0_sx148 /u/ravanelm//kaldi-trunk/egs/timit_rev/s5/fbank/raw_fbank_train.3.ark:1409660
mdtb0_si570 /u/ravanelm//kaldi-trunk/egs/timit_rev/s5/fbank/raw_fbank_train.2.ark:9183417
mgrp0_sx57 /u/ravanelm//kaldi-trunk/egs/timit_rev/s5/fbank/raw_fbank_train.3.ark:580011
msmr0_sx325 /u/ravanelm//kaldi-trunk/egs/timit_rev/s5/fbank/raw_fbank_train.4.ark:6606479
mddc0_si1419 /u/ravanelm//kaldi-trunk/egs/timit_rev/s5/fbank/raw_fbank_train.2.ark:6591578
mrxb0_si2215 /u/ravanelm//kaldi-trunk/egs/timit_rev/s5/fbank/raw_fbank_train.4.ark:5132073
mtkp0_si1023 /u/ravanelm//kaldi-trunk/egs/timit_rev/s5/fbank/raw_fbank_train.4.ark:8599811
mdks0_sx346 /u/ravanelm//kaldi-trunk/egs/timit_rev/s5/fbank/raw_fbank_train.2.ark:7342280
mtat1_sx329 /u/ravanelm//kaldi-trunk/egs/timit_rev/s5/fbank/raw_fbank_train.4.ark:7523022
mtas0_si755 /u/ravanelm//kaldi-trunk/egs/timit_rev/s5/fbank/raw_fbank_train.4.ark:7296833
mrlj0_si1420 /u/ravanelm//kaldi-trunk/egs/timit_rev/s5/fbank/raw_fbank_train.4.ark:3324584
mjrp0_si1845 /u/ravanelm//kaldi-trunk/egs/timit_rev/s5/fbank/raw_fbank_train.3.ark:4923295
mclm0_si826 /u/ravanelm//kaldi-trunk/egs/timit_rev/s5/fbank/raw_fbank_train.2.ark:5358803
frjb0_sx77 /u/ravanelm//kaldi-trunk/egs/timit_rev/s5/fbank/raw_fbank_train.1.ark:10769256
fsah0_sx164 /u/ravanelm//kaldi-trunk/egs/timit_rev/s5/fbank/raw_fbank_train.1.ark:11040199
mbml0_sx89 /u/ravanelm//kaldi-trunk/egs/timit_rev/s5/fbank/raw_fbank_train.2.ark:4016419
fjen0_si2307 /u/ravanelm//kaldi-trunk/egs/timit_rev/s5/fbank/raw_fbank_train.1.ark:4971449
mdwd0_sx360 /u/ravanelm//kaldi-trunk/egs/timit_rev/s5/fbank/raw_fbank_train.2.ark:9309902
mtat0_sx390 /u/ravanelm//kaldi-trunk/egs/timit_rev/s5/fbank/raw_fbank_train.4.ark:7440542
flmc0_sx22 /u/ravanelm//kaldi-trunk/egs/timit_rev/s5/fbank/raw_fbank_train.1.ark:8179935
maeb0_sx180 /u/ravanelm//kaldi-trunk/egs/timit_rev/s5/fbank/raw_fbank_train.2.ark:2347740
mrre0_sx74 /u/ravanelm//kaldi-trunk/egs/timit_rev/s5/fbank/raw_fbank_train.4.ark:4382389
mtkp0_si454 /u/ravanelm//kaldi-trunk/egs/timit_rev/s5/fbank/raw_fbank_train.4.ark:8633278
mcxm0_si1981 /u/ravanelm//kaldi-trunk/egs/timit_rev/s5/fbank/raw_fbank_train.2.ark:5917839
mrlr0_si1826 /u/ravanelm//kaldi-trunk/egs/timit_rev/s5/fbank/raw_fbank_train.4.ark:3618054
mdhs0_si900 /u/ravanelm//kaldi-trunk/egs/timit_rev/s5/fbank/raw_fbank_train.2.ark:7118210
mpgh0_sx114 /u/ravanelm//kaldi-trunk/egs/timit_rev/s5/fbank/raw_fbank_train.3.ark:11055324
fetb0_sx158 /u/ravanelm//kaldi-trunk/egs/timit_rev/s5/fbank/raw_fbank_train.1.ark:4001451
mrav0_sx18 /u/ravanelm//kaldi-trunk/egs/timit_rev/s5/fbank/raw_fbank_train.4.ark:1017302
mafm0_sx309 /u/ravanelm//kaldi-trunk/egs/timit_rev/s5/fbank/raw_fbank_train.2.ark:2549497
fcaj0_sx39 /u/ravanelm//kaldi-trunk/egs/timit_rev/s5/fbank/raw_fbank_train.1.ark:1412253
fjrp1_sx82 /u/ravanelm//kaldi-trunk/egs/timit_rev/s5/fbank/raw_fbank_train.1.ark:5663005
fdas1_sx21 /u/ravanelm//kaldi-trunk/egs/timit_rev/s5/fbank/raw_fbank_train.1.ark:2472376
mmag0_si1756 /u/ravanelm//kaldi-trunk/egs/timit_rev/s5/fbank/raw_fbank_train.3.ark:8090110
mree0_sx24 /u/ravanelm//kaldi-trunk/egs/timit_rev/s5/fbank/raw_fbank_train.4.ark:1714592
fkdw0_si1891 /u/ravanelm//kaldi-trunk/egs/timit_rev/s5/fbank/raw_fbank_train.1.ark:6413569
mcal0_si1768 /u/ravanelm//kaldi-trunk/egs/timit_rev/s5/fbank/raw_fbank_train.2.ark:4540009
mjxl0_si542 /u/ravanelm//kaldi-trunk/egs/timit_rev/s5/fbank/raw_fbank_train.3.ark:5583517
mcdr0_sx254 /u/ravanelm//kaldi-trunk/egs/timit_rev/s5/fbank/raw_fbank_train.2.ark:4872703
fmjf0_sx174 /u/ravanelm//kaldi-trunk/egs/timit_rev/s5/fbank/raw_fbank_train.1.ark:8965344
fbmh0_sx56 /u/ravanelm//kaldi-trunk/egs/timit_rev/s5/fbank/raw_fbank_train.1.ark:1134211
mmdb0_si987 /u/ravanelm//kaldi-trunk/egs/timit_rev/s5/fbank/raw_fbank_train.3.ark:8628829
mrpc1_si2026 /u/ravanelm//kaldi-trunk/egs/timit_rev/s5/fbank/raw_fbank_train.4.ark:4207207
mdwm0_sx376 /u/ravanelm//kaldi-trunk/egs/timit_rev/s5/fbank/raw_fbank_train.2.ark:9534864
fmjf0_sx264 /u/ravanelm//kaldi-trunk/egs/timit_rev/s5/fbank/raw_fbank_train.1.ark:8983017
mmea0_si1388 /u/ravanelm//kaldi-trunk/egs/timit_rev/s5/fbank/raw_fbank_train.3.ark:9082167
mrtj0_si1551 /u/ravanelm//kaldi-trunk/egs/timit_rev/s5/fbank/raw_fbank_train.4.ark:4728299
mzmb0_sx86 /u/ravanelm//kaldi-trunk/egs/timit_rev/s5/fbank/raw_fbank_train.4.ark:11647275
mjra0_si606 /u/ravanelm//kaldi-trunk/egs/timit_rev/s5/fbank/raw_fbank_train.3.ark:4456042
frjb0_sx167 /u/ravanelm//kaldi-trunk/egs/timit_rev/s5/fbank/raw_fbank_train.1.ark:10715085
mjmm0_si625 /u/ravanelm//kaldi-trunk/egs/timit_rev/s5/fbank/raw_fbank_train.3.ark:4077662
mjwg0_si813 /u/ravanelm//kaldi-trunk/egs/timit_rev/s5/fbank/raw_fbank_train.3.ark:5141104
mcdr0_sx434 /u/ravanelm//kaldi-trunk/egs/timit_rev/s5/fbank/raw_fbank_train.2.ark:4891609
mrab0_si594 /u/ravanelm//kaldi-trunk/egs/timit_rev/s5/fbank/raw_fbank_train.4.ark:592295
fjhk0_sx212 /u/ravanelm//kaldi-trunk/egs/timit_rev/s5/fbank/raw_fbank_train.1.ark:5112301
flja0_si1708 /u/ravanelm//kaldi-trunk/egs/timit_rev/s5/fbank/raw_fbank_train.1.ark:7633432
mhxl0_si612 /u/ravanelm//kaldi-trunk/egs/timit_rev/s5/fbank/raw_fbank_train.3.ark:1495371
mrxb0_sx325 /u/ravanelm//kaldi-trunk/egs/timit_rev/s5/fbank/raw_fbank_train.4.ark:5189765
mljh0_sx244 /u/ravanelm//kaldi-trunk/egs/timit_rev/s5/fbank/raw_fbank_train.3.ark:7613724
mcre0_si1121 /u/ravanelm//kaldi-trunk/egs/timit_rev/s5/fbank/raw_fbank_train.2.ark:5512306
mmjb1_sx328 /u/ravanelm//kaldi-trunk/egs/timit_rev/s5/fbank/raw_fbank_train.3.ark:9585658
fsgf0_sx117 /u/ravanelm//kaldi-trunk/egs/timit_rev/s5/fbank/raw_fbank_train.1.ark:11655310
fcjf0_si648 /u/ravanelm//kaldi-trunk/egs/timit_rev/s5/fbank/raw_fbank_train.1.ark:1668317
fjkl0_si2192 /u/ravanelm//kaldi-trunk/egs/timit_rev/s5/fbank/raw_fbank_train.1.ark:5164747
mkdd0_sx37 /u/ravanelm//kaldi-trunk/egs/timit_rev/s5/fbank/raw_fbank_train.3.ark:6230477
mpgr0_sx240 /u/ravanelm//kaldi-trunk/egs/timit_rev/s5/fbank/raw_fbank_train.3.ark:11139022
fjxp0_sx42 /u/ravanelm//kaldi-trunk/egs/timit_rev/s5/fbank/raw_fbank_train.1.ark:6165490
fgcs0_sx226 /u/ravanelm//kaldi-trunk/egs/timit_rev/s5/fbank/raw_fbank_train.1.ark:4224575
mrcw0_sx381 /u/ravanelm//kaldi-trunk/egs/timit_rev/s5/fbank/raw_fbank_train.4.ark:1355676
mtjg0_sx350 /u/ravanelm//kaldi-trunk/egs/timit_rev/s5/fbank/raw_fbank_train.4.ark:8143532
mejl0_sx62 /u/ravanelm//kaldi-trunk/egs/timit_rev/s5/fbank/raw_fbank_train.2.ark:10017379
mlsh0_sx337 /u/ravanelm//kaldi-trunk/egs/timit_rev/s5/fbank/raw_fbank_train.3.ark:7828927
makr0_si722 /u/ravanelm//kaldi-trunk/egs/timit_rev/s5/fbank/raw_fbank_train.2.ark:2831235
mpar0_si2206 /u/ravanelm//kaldi-trunk/egs/timit_rev/s5/fbank/raw_fbank_train.3.ark:10740944
fdkn0_sx91 /u/ravanelm//kaldi-trunk/egs/timit_rev/s5/fbank/raw_fbank_train.1.ark:2888105
msdb0_sx17 /u/ravanelm//kaldi-trunk/egs/timit_rev/s5/fbank/raw_fbank_train.4.ark:5631579
mrsp0_si2059 /u/ravanelm//kaldi-trunk/egs/timit_rev/s5/fbank/raw_fbank_train.4.ark:4535603
msah1_sx59 /u/ravanelm//kaldi-trunk/egs/timit_rev/s5/fbank/raw_fbank_train.4.ark:5298616
maeo0_sx426 /u/ravanelm//kaldi-trunk/egs/timit_rev/s5/fbank/raw_fbank_train.2.ark:2475505
mcre0_sx131 /u/ravanelm//kaldi-trunk/egs/timit_rev/s5/fbank/raw_fbank_train.2.ark:5549687
fpaf0_si1684 /u/ravanelm//kaldi-trunk/egs/timit_rev/s5/fbank/raw_fbank_train.1.ark:10115189
flet0_sx147 /u/ravanelm//kaldi-trunk/egs/timit_rev/s5/fbank/raw_fbank_train.1.ark:7466647
fklc0_sx445 /u/ravanelm//kaldi-trunk/egs/timit_rev/s5/fbank/raw_fbank_train.1.ark:6796409
fjwb1_si795 /u/ravanelm//kaldi-trunk/egs/timit_rev/s5/fbank/raw_fbank_train.1.ark:5903916
mwgr0_si1606 /u/ravanelm//kaldi-trunk/egs/timit_rev/s5/fbank/raw_fbank_train.4.ark:11059921
fblv0_sx68 /u/ravanelm//kaldi-trunk/egs/timit_rev/s5/fbank/raw_fbank_train.1.ark:1037266
mdtb0_sx321 /u/ravanelm//kaldi-trunk/egs/timit_rev/s5/fbank/raw_fbank_train.2.ark:9227229
mtmn0_si582 /u/ravanelm//kaldi-trunk/egs/timit_rev/s5/fbank/raw_fbank_train.4.ark:9031379
mtlb0_sx54 /u/ravanelm//kaldi-trunk/egs/timit_rev/s5/fbank/raw_fbank_train.4.ark:8790947
mbjv0_sx167 /u/ravanelm//kaldi-trunk/egs/timit_rev/s5/fbank/raw_fbank_train.2.ark:3679733
fjxp0_sx402 /u/ravanelm//kaldi-trunk/egs/timit_rev/s5/fbank/raw_fbank_train.1.ark:6153298
fjlg0_sx359 /u/ravanelm//kaldi-trunk/egs/timit_rev/s5/fbank/raw_fbank_train.1.ark:5310185
fsms1_sx347 /u/ravanelm//kaldi-trunk/egs/timit_rev/s5/fbank/raw_fbank_train.2.ark:923104
mbth0_sx32 /u/ravanelm//kaldi-trunk/egs/timit_rev/s5/fbank/raw_fbank_train.2.ark:4267740
mrlj0_sx430 /u/ravanelm//kaldi-trunk/egs/timit_rev/s5/fbank/raw_fbank_train.4.ark:3395623
mtjs0_sx292 /u/ravanelm//kaldi-trunk/egs/timit_rev/s5/fbank/raw_fbank_train.4.ark:8365414
mgxp0_sx277 /u/ravanelm//kaldi-trunk/egs/timit_rev/s5/fbank/raw_fbank_train.3.ark:867864
mdlb0_sx46 /u/ravanelm//kaldi-trunk/egs/timit_rev/s5/fbank/raw_fbank_train.2.ark:7492010
mtmt0_sx398 /u/ravanelm//kaldi-trunk/egs/timit_rev/s5/fbank/raw_fbank_train.4.ark:9192728
fvfb0_si1032 /u/ravanelm//kaldi-trunk/egs/timit_rev/s5/fbank/raw_fbank_train.2.ark:1737169
msem1_sx360 /u/ravanelm//kaldi-trunk/egs/timit_rev/s5/fbank/raw_fbank_train.4.ark:5971649
mjma0_si2125 /u/ravanelm//kaldi-trunk/egs/timit_rev/s5/fbank/raw_fbank_train.3.ark:3884658
mjde0_si463 /u/ravanelm//kaldi-trunk/egs/timit_rev/s5/fbank/raw_fbank_train.3.ark:2270936
fdfb0_sx148 /u/ravanelm//kaldi-trunk/egs/timit_rev/s5/fbank/raw_fbank_train.1.ark:2638483
ftaj0_si699 /u/ravanelm//kaldi-trunk/egs/timit_rev/s5/fbank/raw_fbank_train.2.ark:1280472
fdnc0_si1278 /u/ravanelm//kaldi-trunk/egs/timit_rev/s5/fbank/raw_fbank_train.1.ark:3122589
mdwd0_sx90 /u/ravanelm//kaldi-trunk/egs/timit_rev/s5/fbank/raw_fbank_train.2.ark:9334087
mfxv0_sx195 /u/ravanelm//kaldi-trunk/egs/timit_rev/s5/fbank/raw_fbank_train.2.ark:10933004
mgsh0_sx6 /u/ravanelm//kaldi-trunk/egs/timit_rev/s5/fbank/raw_fbank_train.3.ark:673882
mrew1_sx60 /u/ravanelm//kaldi-trunk/egs/timit_rev/s5/fbank/raw_fbank_train.4.ark:2037012
fntb0_si679 /u/ravanelm//kaldi-trunk/egs/timit_rev/s5/fbank/raw_fbank_train.1.ark:9689962
mhxl0_sx242 /u/ravanelm//kaldi-trunk/egs/timit_rev/s5/fbank/raw_fbank_train.3.ark:1519917
mwgr0_si976 /u/ravanelm//kaldi-trunk/egs/timit_rev/s5/fbank/raw_fbank_train.4.ark:11080668
flod0_sx297 /u/ravanelm//kaldi-trunk/egs/timit_rev/s5/fbank/raw_fbank_train.1.ark:8400653
mtpp0_sx338 /u/ravanelm//kaldi-trunk/egs/timit_rev/s5/fbank/raw_fbank_train.4.ark:9445498
mdas0_sx6 /u/ravanelm//kaldi-trunk/egs/timit_rev/s5/fbank/raw_fbank_train.2.ark:6175891
mdpk0_sx243 /u/ravanelm//kaldi-trunk/egs/timit_rev/s5/fbank/raw_fbank_train.2.ark:8646093
fmah1_si2139 /u/ravanelm//kaldi-trunk/egs/timit_rev/s5/fbank/raw_fbank_train.1.ark:8535180
mntw0_sx168 /u/ravanelm//kaldi-trunk/egs/timit_rev/s5/fbank/raw_fbank_train.3.ark:10676625
fsms1_si2134 /u/ravanelm//kaldi-trunk/egs/timit_rev/s5/fbank/raw_fbank_train.2.ark:863459
msat1_sx443 /u/ravanelm//kaldi-trunk/egs/timit_rev/s5/fbank/raw_fbank_train.4.ark:5568340
mkes0_si1883 /u/ravanelm//kaldi-trunk/egs/timit_rev/s5/fbank/raw_fbank_train.3.ark:6371002
mdwd0_sx450 /u/ravanelm//kaldi-trunk/egs/timit_rev/s5/fbank/raw_fbank_train.2.ark:9320895
mdjm0_sx375 /u/ravanelm//kaldi-trunk/egs/timit_rev/s5/fbank/raw_fbank_train.2.ark:7271199
mhbs0_si1575 /u/ravanelm//kaldi-trunk/egs/timit_rev/s5/fbank/raw_fbank_train.3.ark:916394
mjls0_si1096 /u/ravanelm//kaldi-trunk/egs/timit_rev/s5/fbank/raw_fbank_train.3.ark:3769199
fgrw0_si1782 /u/ravanelm//kaldi-trunk/egs/timit_rev/s5/fbank/raw_fbank_train.1.ark:4520151
mtjs0_sx202 /u/ravanelm//kaldi-trunk/egs/timit_rev/s5/fbank/raw_fbank_train.4.ark:8347589
mrre0_sx254 /u/ravanelm//kaldi-trunk/egs/timit_rev/s5/fbank/raw_fbank_train.4.ark:4348771
mrgs0_si726 /u/ravanelm//kaldi-trunk/egs/timit_rev/s5/fbank/raw_fbank_train.4.ark:2396469
fceg0_sx258 /u/ravanelm//kaldi-trunk/egs/timit_rev/s5/fbank/raw_fbank_train.1.ark:1598238
fmkf0_sx186 /u/ravanelm//kaldi-trunk/egs/timit_rev/s5/fbank/raw_fbank_train.1.ark:9286380
mmsm0_sx26 /u/ravanelm//kaldi-trunk/egs/timit_rev/s5/fbank/raw_fbank_train.3.ark:9988037
mtml0_sx435 /u/ravanelm//kaldi-trunk/egs/timit_rev/s5/fbank/raw_fbank_train.4.ark:8970806
fhlm0_si1560 /u/ravanelm//kaldi-trunk/egs/timit_rev/s5/fbank/raw_fbank_train.1.ark:4614663
fdnc0_si1908 /u/ravanelm//kaldi-trunk/egs/timit_rev/s5/fbank/raw_fbank_train.1.ark:3143783
mtpg0_si2013 /u/ravanelm//kaldi-trunk/egs/timit_rev/s5/fbank/raw_fbank_train.4.ark:9313621
maeo0_si1956 /u/ravanelm//kaldi-trunk/egs/timit_rev/s5/fbank/raw_fbank_train.2.ark:2430413
mrgm0_sx82 /u/ravanelm//kaldi-trunk/egs/timit_rev/s5/fbank/raw_fbank_train.4.ark:2359168
makb0_sx386 /u/ravanelm//kaldi-trunk/egs/timit_rev/s5/fbank/raw_fbank_train.2.ark:2799974
medr0_sx24 /u/ravanelm//kaldi-trunk/egs/timit_rev/s5/fbank/raw_fbank_train.2.ark:9699282
mvrw0_sx315 /u/ravanelm//kaldi-trunk/egs/timit_rev/s5/fbank/raw_fbank_train.4.ark:10453068
mhit0_si1613 /u/ravanelm//kaldi-trunk/egs/timit_rev/s5/fbank/raw_fbank_train.3.ark:1006379
mgxp0_sx367 /u/ravanelm//kaldi-trunk/egs/timit_rev/s5/fbank/raw_fbank_train.3.ark:879177
fdmy0_sx387 /u/ravanelm//kaldi-trunk/egs/timit_rev/s5/fbank/raw_fbank_train.1.ark:3105315
mrjm1_si1298 /u/ravanelm//kaldi-trunk/egs/timit_rev/s5/fbank/raw_fbank_train.4.ark:2909966
mhjb0_si2277 /u/ravanelm//kaldi-trunk/egs/timit_rev/s5/fbank/raw_fbank_train.3.ark:1126912
mrre0_si704 /u/ravanelm//kaldi-trunk/egs/timit_rev/s5/fbank/raw_fbank_train.4.ark:4298992
milb0_sx363 /u/ravanelm//kaldi-trunk/egs/timit_rev/s5/fbank/raw_fbank_train.3.ark:1645365
mtcs0_sx262 /u/ravanelm//kaldi-trunk/egs/timit_rev/s5/fbank/raw_fbank_train.4.ark:7709999
fdaw0_sx146 /u/ravanelm//kaldi-trunk/egs/timit_rev/s5/fbank/raw_fbank_train.1.ark:2551617
mjsr0_sx344 /u/ravanelm//kaldi-trunk/egs/timit_rev/s5/fbank/raw_fbank_train.3.ark:5090252
mcew0_sx452 /u/ravanelm//kaldi-trunk/egs/timit_rev/s5/fbank/raw_fbank_train.2.ark:5101339
fmem0_si2007 /u/ravanelm//kaldi-trunk/egs/timit_rev/s5/fbank/raw_fbank_train.1.ark:8733029
mhmg0_sx285 /u/ravanelm//kaldi-trunk/egs/timit_rev/s5/fbank/raw_fbank_train.3.ark:1253188
mcdc0_sx302 /u/ravanelm//kaldi-trunk/egs/timit_rev/s5/fbank/raw_fbank_train.2.ark:4678806
mbbr0_sx425 /u/ravanelm//kaldi-trunk/egs/timit_rev/s5/fbank/raw_fbank_train.2.ark:3349133
mded0_si1800 /u/ravanelm//kaldi-trunk/egs/timit_rev/s5/fbank/raw_fbank_train.2.ark:6694077
mtwh1_sx72 /u/ravanelm//kaldi-trunk/egs/timit_rev/s5/fbank/raw_fbank_train.4.ark:10081832
fbmh0_sx326 /u/ravanelm//kaldi-trunk/egs/timit_rev/s5/fbank/raw_fbank_train.1.ark:1113906
mjxl0_sx182 /u/ravanelm//kaldi-trunk/egs/timit_rev/s5/fbank/raw_fbank_train.3.ark:5595230
mrws0_sx22 /u/ravanelm//kaldi-trunk/egs/timit_rev/s5/fbank/raw_fbank_train.4.ark:5089259
mkxl0_si1958 /u/ravanelm//kaldi-trunk/egs/timit_rev/s5/fbank/raw_fbank_train.3.ark:7165758
mhmr0_si489 /u/ravanelm//kaldi-trunk/egs/timit_rev/s5/fbank/raw_fbank_train.3.ark:1304362
makb0_sx116 /u/ravanelm//kaldi-trunk/egs/timit_rev/s5/fbank/raw_fbank_train.2.ark:2750603
fdml0_sx159 /u/ravanelm//kaldi-trunk/egs/timit_rev/s5/fbank/raw_fbank_train.1.ark:2932600
mtjm0_sx416 /u/ravanelm//kaldi-trunk/egs/timit_rev/s5/fbank/raw_fbank_train.4.ark:8258950
fbas0_si1387 /u/ravanelm//kaldi-trunk/egs/timit_rev/s5/fbank/raw_fbank_train.1.ark:527214
mjhi0_sx428 /u/ravanelm//kaldi-trunk/egs/timit_rev/s5/fbank/raw_fbank_train.3.ark:3146141
fsak0_si670 /u/ravanelm//kaldi-trunk/egs/timit_rev/s5/fbank/raw_fbank_train.1.ark:11128511
mkdt0_si893 /u/ravanelm//kaldi-trunk/egs/timit_rev/s5/fbank/raw_fbank_train.3.ark:6282650
msrr0_sx411 /u/ravanelm//kaldi-trunk/egs/timit_rev/s5/fbank/raw_fbank_train.4.ark:6903506
msat1_sx173 /u/ravanelm//kaldi-trunk/egs/timit_rev/s5/fbank/raw_fbank_train.4.ark:5531121
mrld0_si964 /u/ravanelm//kaldi-trunk/egs/timit_rev/s5/fbank/raw_fbank_train.4.ark:3261826
mtrt0_sx237 /u/ravanelm//kaldi-trunk/egs/timit_rev/s5/fbank/raw_fbank_train.4.ark:9965469
mtxs0_sx70 /u/ravanelm//kaldi-trunk/egs/timit_rev/s5/fbank/raw_fbank_train.4.ark:10198138
mdns0_sx21 /u/ravanelm//kaldi-trunk/egs/timit_rev/s5/fbank/raw_fbank_train.2.ark:8472075
fdjh0_si935 /u/ravanelm//kaldi-trunk/egs/timit_rev/s5/fbank/raw_fbank_train.1.ark:2715635
fntb0_si1203 /u/ravanelm//kaldi-trunk/egs/timit_rev/s5/fbank/raw_fbank_train.1.ark:9669336
mjwg0_sx355 /u/ravanelm//kaldi-trunk/egs/timit_rev/s5/fbank/raw_fbank_train.3.ark:5214956
fgrw0_sx432 /u/ravanelm//kaldi-trunk/egs/timit_rev/s5/fbank/raw_fbank_train.1.ark:4586637
fsrh0_si671 /u/ravanelm//kaldi-trunk/egs/timit_rev/s5/fbank/raw_fbank_train.2.ark:1075742
mfwk0_sx79 /u/ravanelm//kaldi-trunk/egs/timit_rev/s5/fbank/raw_fbank_train.2.ark:10764178
mdma0_si2060 /u/ravanelm//kaldi-trunk/egs/timit_rev/s5/fbank/raw_fbank_train.2.ark:8216367
mdlc2_si1614 /u/ravanelm//kaldi-trunk/egs/timit_rev/s5/fbank/raw_fbank_train.2.ark:7705615
mrew1_si1500 /u/ravanelm//kaldi-trunk/egs/timit_rev/s5/fbank/raw_fbank_train.4.ark:1957941
mmam0_sx427 /u/ravanelm//kaldi-trunk/egs/timit_rev/s5/fbank/raw_fbank_train.3.ark:8253701
mrvg0_sx240 /u/ravanelm//kaldi-trunk/egs/timit_rev/s5/fbank/raw_fbank_train.4.ark:4893257
fmjb0_sx7 /u/ravanelm//kaldi-trunk/egs/timit_rev/s5/fbank/raw_fbank_train.1.ark:8907738
mtwh1_sx432 /u/ravanelm//kaldi-trunk/egs/timit_rev/s5/fbank/raw_fbank_train.4.ark:10067600
fdnc0_sx288 /u/ravanelm//kaldi-trunk/egs/timit_rev/s5/fbank/raw_fbank_train.1.ark:3205908
mpgr0_sx330 /u/ravanelm//kaldi-trunk/egs/timit_rev/s5/fbank/raw_fbank_train.3.ark:11149855
mjda0_sx401 /u/ravanelm//kaldi-trunk/egs/timit_rev/s5/fbank/raw_fbank_train.3.ark:2128652
msat1_sx83 /u/ravanelm//kaldi-trunk/egs/timit_rev/s5/fbank/raw_fbank_train.4.ark:5580092
mrgs0_sx366 /u/ravanelm//kaldi-trunk/egs/timit_rev/s5/fbank/raw_fbank_train.4.ark:2437248
fskp0_si468 /u/ravanelm//kaldi-trunk/egs/timit_rev/s5/fbank/raw_fbank_train.2.ark:474431
mdks0_sx256 /u/ravanelm//kaldi-trunk/egs/timit_rev/s5/fbank/raw_fbank_train.2.ark:7330367
fbjl0_si2182 /u/ravanelm//kaldi-trunk/egs/timit_rev/s5/fbank/raw_fbank_train.1.ark:853843
mefg0_sx15 /u/ravanelm//kaldi-trunk/egs/timit_rev/s5/fbank/raw_fbank_train.2.ark:9783592
mkls1_sx285 /u/ravanelm//kaldi-trunk/egs/timit_rev/s5/fbank/raw_fbank_train.3.ark:6917253
mvrw0_si2115 /u/ravanelm//kaldi-trunk/egs/timit_rev/s5/fbank/raw_fbank_train.4.ark:10416176
mrtj0_si2032 /u/ravanelm//kaldi-trunk/egs/timit_rev/s5/fbank/raw_fbank_train.4.ark:4743133
fsag0_sx423 /u/ravanelm//kaldi-trunk/egs/timit_rev/s5/fbank/raw_fbank_train.1.ark:10963873
mvlo0_sx157 /u/ravanelm//kaldi-trunk/egs/timit_rev/s5/fbank/raw_fbank_train.4.ark:10338897
frjb0_si1470 /u/ravanelm//kaldi-trunk/egs/timit_rev/s5/fbank/raw_fbank_train.1.ark:10701418
mdlb0_sx316 /u/ravanelm//kaldi-trunk/egs/timit_rev/s5/fbank/raw_fbank_train.2.ark:7461025
mrsp0_sx79 /u/ravanelm//kaldi-trunk/egs/timit_rev/s5/fbank/raw_fbank_train.4.ark:4609560
flmc0_si1372 /u/ravanelm//kaldi-trunk/egs/timit_rev/s5/fbank/raw_fbank_train.1.ark:8132803
mdlc0_sx225 /u/ravanelm//kaldi-trunk/egs/timit_rev/s5/fbank/raw_fbank_train.2.ark:7563297
maeo0_si1326 /u/ravanelm//kaldi-trunk/egs/timit_rev/s5/fbank/raw_fbank_train.2.ark:2402185
mrpc1_si2112 /u/ravanelm//kaldi-trunk/egs/timit_rev/s5/fbank/raw_fbank_train.4.ark:4214361
mdks0_si1066 /u/ravanelm//kaldi-trunk/egs/timit_rev/s5/fbank/raw_fbank_train.2.ark:7282953
mprt0_sx220 /u/ravanelm//kaldi-trunk/egs/timit_rev/s5/fbank/raw_fbank_train.4.ark:440511
mvrw0_si855 /u/ravanelm//kaldi-trunk/egs/timit_rev/s5/fbank/raw_fbank_train.4.ark:10421329
msdh0_sx440 /u/ravanelm//kaldi-trunk/egs/timit_rev/s5/fbank/raw_fbank_train.4.ark:5739031
mtrt0_sx417 /u/ravanelm//kaldi-trunk/egs/timit_rev/s5/fbank/raw_fbank_train.4.ark:9980815
fkde0_sx421 /u/ravanelm//kaldi-trunk/egs/timit_rev/s5/fbank/raw_fbank_train.1.ark:6367669
fdxw0_sx431 /u/ravanelm//kaldi-trunk/egs/timit_rev/s5/fbank/raw_fbank_train.1.ark:3409960
mkln0_si1598 /u/ravanelm//kaldi-trunk/egs/timit_rev/s5/fbank/raw_fbank_train.3.ark:6555058
mdsj0_si2092 /u/ravanelm//kaldi-trunk/egs/timit_rev/s5/fbank/raw_fbank_train.2.ark:8914149
fjxm0_sx221 /u/ravanelm//kaldi-trunk/egs/timit_rev/s5/fbank/raw_fbank_train.1.ark:6016487
mjai0_sx164 /u/ravanelm//kaldi-trunk/egs/timit_rev/s5/fbank/raw_fbank_train.3.ark:1917181
fbjl0_sx22 /u/ravanelm//kaldi-trunk/egs/timit_rev/s5/fbank/raw_fbank_train.1.ark:901294
fkdw0_sx397 /u/ravanelm//kaldi-trunk/egs/timit_rev/s5/fbank/raw_fbank_train.1.ark:6479526
fltm0_sx350 /u/ravanelm//kaldi-trunk/egs/timit_rev/s5/fbank/raw_fbank_train.1.ark:8479047
fjlr0_sx421 /u/ravanelm//kaldi-trunk/egs/timit_rev/s5/fbank/raw_fbank_train.1.ark:5425963
ftbw0_sx355 /u/ravanelm//kaldi-trunk/egs/timit_rev/s5/fbank/raw_fbank_train.2.ark:1505501
mmrp0_si717 /u/ravanelm//kaldi-trunk/egs/timit_rev/s5/fbank/raw_fbank_train.3.ark:9819321
fkfb0_si2238 /u/ravanelm//kaldi-trunk/egs/timit_rev/s5/fbank/raw_fbank_train.1.ark:6510554
fljd0_si1516 /u/ravanelm//kaldi-trunk/egs/timit_rev/s5/fbank/raw_fbank_train.1.ark:7716864
mrlk0_sx303 /u/ravanelm//kaldi-trunk/egs/timit_rev/s5/fbank/raw_fbank_train.4.ark:3571441
fcmg0_si1242 /u/ravanelm//kaldi-trunk/egs/timit_rev/s5/fbank/raw_fbank_train.1.ark:2020344
mcew0_sx362 /u/ravanelm//kaldi-trunk/egs/timit_rev/s5/fbank/raw_fbank_train.2.ark:5082666
mdlr1_si1929 /u/ravanelm//kaldi-trunk/egs/timit_rev/s5/fbank/raw_fbank_train.2.ark:8100748
mrem0_sx151 /u/ravanelm//kaldi-trunk/egs/timit_rev/s5/fbank/raw_fbank_train.4.ark:1898736
fpaf0_sx244 /u/ravanelm//kaldi-trunk/egs/timit_rev/s5/fbank/raw_fbank_train.1.ark:10145929
mjdg0_si1672 /u/ravanelm//kaldi-trunk/egs/timit_rev/s5/fbank/raw_fbank_train.3.ark:2389601
mrpc1_sx402 /u/ravanelm//kaldi-trunk/egs/timit_rev/s5/fbank/raw_fbank_train.4.ark:4259493
mrws0_sx202 /u/ravanelm//kaldi-trunk/egs/timit_rev/s5/fbank/raw_fbank_train.4.ark:5083347
mdlr0_sx63 /u/ravanelm//kaldi-trunk/egs/timit_rev/s5/fbank/raw_fbank_train.2.ark:8077400
falk0_si456 /u/ravanelm//kaldi-trunk/egs/timit_rev/s5/fbank/raw_fbank_train.1.ark:220934
flhd0_si1344 /u/ravanelm//kaldi-trunk/egs/timit_rev/s5/fbank/raw_fbank_train.1.ark:7516492
falk0_sx6 /u/ravanelm//kaldi-trunk/egs/timit_rev/s5/fbank/raw_fbank_train.1.ark:287977
fmbg0_sx3 /u/ravanelm//kaldi-trunk/egs/timit_rev/s5/fbank/raw_fbank_train.1.ark:8670583
mkxl0_si1185 /u/ravanelm//kaldi-trunk/egs/timit_rev/s5/fbank/raw_fbank_train.3.ark:7137530
fsjw0_si1333 /u/ravanelm//kaldi-trunk/egs/timit_rev/s5/fbank/raw_fbank_train.2.ark:150289
mkdd0_si937 /u/ravanelm//kaldi-trunk/egs/timit_rev/s5/fbank/raw_fbank_train.3.ark:6191026
mmdb0_sx267 /u/ravanelm//kaldi-trunk/egs/timit_rev/s5/fbank/raw_fbank_train.3.ark:8652975
mrew1_sx330 /u/ravanelm//kaldi-trunk/egs/timit_rev/s5/fbank/raw_fbank_train.4.ark:2009067
mlbc0_si1239 /u/ravanelm//kaldi-trunk/egs/timit_rev/s5/fbank/raw_fbank_train.3.ark:7232996
mrlk0_si843 /u/ravanelm//kaldi-trunk/egs/timit_rev/s5/fbank/raw_fbank_train.4.ark:3536022
mtat1_si1627 /u/ravanelm//kaldi-trunk/egs/timit_rev/s5/fbank/raw_fbank_train.4.ark:7463730
msdh0_sx170 /u/ravanelm//kaldi-trunk/egs/timit_rev/s5/fbank/raw_fbank_train.4.ark:5692652
fjrb0_sx402 /u/ravanelm//kaldi-trunk/egs/timit_rev/s5/fbank/raw_fbank_train.1.ark:5521828
msmc0_sx377 /u/ravanelm//kaldi-trunk/egs/timit_rev/s5/fbank/raw_fbank_train.4.ark:6526999
mtju0_sx220 /u/ravanelm//kaldi-trunk/egs/timit_rev/s5/fbank/raw_fbank_train.4.ark:8443654
mwsb0_sx6 /u/ravanelm//kaldi-trunk/egs/timit_rev/s5/fbank/raw_fbank_train.4.ark:11422033
fmem0_sx333 /u/ravanelm//kaldi-trunk/egs/timit_rev/s5/fbank/raw_fbank_train.1.ark:8792674
mjws0_si1773 /u/ravanelm//kaldi-trunk/egs/timit_rev/s5/fbank/raw_fbank_train.3.ark:5257249
fpaf0_si2314 /u/ravanelm//kaldi-trunk/egs/timit_rev/s5/fbank/raw_fbank_train.1.ark:10126943
fdaw0_si1271 /u/ravanelm//kaldi-trunk/egs/timit_rev/s5/fbank/raw_fbank_train.1.ark:2502036
mrfl0_sx256 /u/ravanelm//kaldi-trunk/egs/timit_rev/s5/fbank/raw_fbank_train.4.ark:2200205
mjkr0_si571 /u/ravanelm//kaldi-trunk/egs/timit_rev/s5/fbank/raw_fbank_train.3.ark:3513870
faem0_si2022 /u/ravanelm//kaldi-trunk/egs/timit_rev/s5/fbank/raw_fbank_train.1.ark:19327
mrds0_sx447 /u/ravanelm//kaldi-trunk/egs/timit_rev/s5/fbank/raw_fbank_train.4.ark:1625840
frjb0_sx257 /u/ravanelm//kaldi-trunk/egs/timit_rev/s5/fbank/raw_fbank_train.1.ark:10729838
freh0_sx145 /u/ravanelm//kaldi-trunk/egs/timit_rev/s5/fbank/raw_fbank_train.1.ark:10643339
mmgg0_sx179 /u/ravanelm//kaldi-trunk/egs/timit_rev/s5/fbank/raw_fbank_train.3.ark:9386422
msmr0_sx55 /u/ravanelm//kaldi-trunk/egs/timit_rev/s5/fbank/raw_fbank_train.4.ark:6626024
msms0_si803 /u/ravanelm//kaldi-trunk/egs/timit_rev/s5/fbank/raw_fbank_train.4.ark:6665125
mkjo0_sx424 /u/ravanelm//kaldi-trunk/egs/timit_rev/s5/fbank/raw_fbank_train.3.ark:6518279
mhit0_sx353 /u/ravanelm//kaldi-trunk/egs/timit_rev/s5/fbank/raw_fbank_train.3.ark:1070425
mcxm0_sx451 /u/ravanelm//kaldi-trunk/egs/timit_rev/s5/fbank/raw_fbank_train.2.ark:5978364
mmgg0_sx359 /u/ravanelm//kaldi-trunk/egs/timit_rev/s5/fbank/raw_fbank_train.3.ark:9407528
fpaf0_sx154 /u/ravanelm//kaldi-trunk/egs/timit_rev/s5/fbank/raw_fbank_train.1.ark:10134736
mrds0_si1797 /u/ravanelm//kaldi-trunk/egs/timit_rev/s5/fbank/raw_fbank_train.4.ark:1563515
fbas0_sx307 /u/ravanelm//kaldi-trunk/egs/timit_rev/s5/fbank/raw_fbank_train.1.ark:602661
mcef0_si1765 /u/ravanelm//kaldi-trunk/egs/timit_rev/s5/fbank/raw_fbank_train.2.ark:4924789
mjde0_si490 /u/ravanelm//kaldi-trunk/egs/timit_rev/s5/fbank/raw_fbank_train.3.ark:2279569
mljh0_sx154 /u/ravanelm//kaldi-trunk/egs/timit_rev/s5/fbank/raw_fbank_train.3.ark:7600131
mdks0_si1696 /u/ravanelm//kaldi-trunk/egs/timit_rev/s5/fbank/raw_fbank_train.2.ark:7290587
mrdm0_sx65 /u/ravanelm//kaldi-trunk/egs/timit_rev/s5/fbank/raw_fbank_train.4.ark:1547287
mjlg1_sx382 /u/ravanelm//kaldi-trunk/egs/timit_rev/s5/fbank/raw_fbank_train.3.ark:3757765
mdwh0_sx125 /u/ravanelm//kaldi-trunk/egs/timit_rev/s5/fbank/raw_fbank_train.2.ark:9392061
fdfb0_si1318 /u/ravanelm//kaldi-trunk/egs/timit_rev/s5/fbank/raw_fbank_train.1.ark:2607582
fpaf0_sx64 /u/ravanelm//kaldi-trunk/egs/timit_rev/s5/fbank/raw_fbank_train.1.ark:10182907
mmds0_si1973 /u/ravanelm//kaldi-trunk/egs/timit_rev/s5/fbank/raw_fbank_train.3.ark:9018056
mrlj0_sx250 /u/ravanelm//kaldi-trunk/egs/timit_rev/s5/fbank/raw_fbank_train.4.ark:3375517
fexm0_sx381 /u/ravanelm//kaldi-trunk/egs/timit_rev/s5/fbank/raw_fbank_train.1.ark:4164928
mjsr0_sx74 /u/ravanelm//kaldi-trunk/egs/timit_rev/s5/fbank/raw_fbank_train.3.ark:5116117
mtcs0_sx172 /u/ravanelm//kaldi-trunk/egs/timit_rev/s5/fbank/raw_fbank_train.4.ark:7698486
maeb0_sx360 /u/ravanelm//kaldi-trunk/egs/timit_rev/s5/fbank/raw_fbank_train.2.ark:2369566
mmwb0_sx179 /u/ravanelm//kaldi-trunk/egs/timit_rev/s5/fbank/raw_fbank_train.3.ark:10192103
mvlo0_si1147 /u/ravanelm//kaldi-trunk/egs/timit_rev/s5/fbank/raw_fbank_train.4.ark:10299517
mwsb0_si996 /u/ravanelm//kaldi-trunk/egs/timit_rev/s5/fbank/raw_fbank_train.4.ark:11373863
mtpg0_sx213 /u/ravanelm//kaldi-trunk/egs/timit_rev/s5/fbank/raw_fbank_train.4.ark:9348480
fmjb0_sx97 /u/ravanelm//kaldi-trunk/egs/timit_rev/s5/fbank/raw_fbank_train.1.ark:8920050
mjrk0_sx340 /u/ravanelm//kaldi-trunk/egs/timit_rev/s5/fbank/raw_fbank_train.3.ark:4885642
fjhk0_si2282 /u/ravanelm//kaldi-trunk/egs/timit_rev/s5/fbank/raw_fbank_train.1.ark:5078435
mtpp0_sx68 /u/ravanelm//kaldi-trunk/egs/timit_rev/s5/fbank/raw_fbank_train.4.ark:9471083
mtas0_sx305 /u/ravanelm//kaldi-trunk/egs/timit_rev/s5/fbank/raw_fbank_train.4.ark:7325492
mmdg0_sx160 /u/ravanelm//kaldi-trunk/egs/timit_rev/s5/fbank/raw_fbank_train.3.ark:8736047
mbma0_sx412 /u/ravanelm//kaldi-trunk/egs/timit_rev/s5/fbank/raw_fbank_train.2.ark:3806897
mjeb1_si1467 /u/ravanelm//kaldi-trunk/egs/timit_rev/s5/fbank/raw_fbank_train.3.ark:2678883
mjpm0_si1368 /u/ravanelm//kaldi-trunk/egs/timit_rev/s5/fbank/raw_fbank_train.3.ark:4228245
mhxl0_si512 /u/ravanelm//kaldi-trunk/egs/timit_rev/s5/fbank/raw_fbank_train.3.ark:1484138
fceg0_si618 /u/ravanelm//kaldi-trunk/egs/timit_rev/s5/fbank/raw_fbank_train.1.ark:1580492
mram0_sx285 /u/ravanelm//kaldi-trunk/egs/timit_rev/s5/fbank/raw_fbank_train.4.ark:945622
msjk0_sx336 /u/ravanelm//kaldi-trunk/egs/timit_rev/s5/fbank/raw_fbank_train.4.ark:6397470
fmkc0_sx82 /u/ravanelm//kaldi-trunk/egs/timit_rev/s5/fbank/raw_fbank_train.1.ark:9229326
mbsb0_sx273 /u/ravanelm//kaldi-trunk/egs/timit_rev/s5/fbank/raw_fbank_train.2.ark:4156493
msms0_sx83 /u/ravanelm//kaldi-trunk/egs/timit_rev/s5/fbank/raw_fbank_train.4.ark:6725929
mewm0_si718 /u/ravanelm//kaldi-trunk/egs/timit_rev/s5/fbank/raw_fbank_train.2.ark:10325753
mdwd0_sx270 /u/ravanelm//kaldi-trunk/egs/timit_rev/s5/fbank/raw_fbank_train.2.ark:9300709
fceg0_sx438 /u/ravanelm//kaldi-trunk/egs/timit_rev/s5/fbank/raw_fbank_train.1.ark:1621624
mprt0_sx40 /u/ravanelm//kaldi-trunk/egs/timit_rev/s5/fbank/raw_fbank_train.4.ark:463896
mdac0_sx91 /u/ravanelm//kaldi-trunk/egs/timit_rev/s5/fbank/raw_fbank_train.2.ark:6097301
mjmd0_sx218 /u/ravanelm//kaldi-trunk/egs/timit_rev/s5/fbank/raw_fbank_train.3.ark:4006943
mtab0_si2202 /u/ravanelm//kaldi-trunk/egs/timit_rev/s5/fbank/raw_fbank_train.4.ark:7180135
mdlm0_sx64 /u/ravanelm//kaldi-trunk/egs/timit_rev/s5/fbank/raw_fbank_train.2.ark:7974455
mddc0_sx249 /u/ravanelm//kaldi-trunk/egs/timit_rev/s5/fbank/raw_fbank_train.2.ark:6640591
mrmb0_si1581 /u/ravanelm//kaldi-trunk/egs/timit_rev/s5/fbank/raw_fbank_train.4.ark:3693765
fpaz0_sx423 /u/ravanelm//kaldi-trunk/egs/timit_rev/s5/fbank/raw_fbank_train.1.ark:10272859
mdcd0_sx65 /u/ravanelm//kaldi-trunk/egs/timit_rev/s5/fbank/raw_fbank_train.2.ark:6483959
mbma1_sx54 /u/ravanelm//kaldi-trunk/egs/timit_rev/s5/fbank/raw_fbank_train.2.ark:3921754
mdps0_sx449 /u/ravanelm//kaldi-trunk/egs/timit_rev/s5/fbank/raw_fbank_train.2.ark:8760984
mkls0_si1437 /u/ravanelm//kaldi-trunk/egs/timit_rev/s5/fbank/raw_fbank_train.3.ark:6736749
mtmt0_sx38 /u/ravanelm//kaldi-trunk/egs/timit_rev/s5/fbank/raw_fbank_train.4.ark:9180975
msrg0_si591 /u/ravanelm//kaldi-trunk/egs/timit_rev/s5/fbank/raw_fbank_train.4.ark:6758750
mkrg0_sx51 /u/ravanelm//kaldi-trunk/egs/timit_rev/s5/fbank/raw_fbank_train.3.ark:7127776
mprd0_si801 /u/ravanelm//kaldi-trunk/egs/timit_rev/s5/fbank/raw_fbank_train.4.ark:188756
fdmy0_si1197 /u/ravanelm//kaldi-trunk/egs/timit_rev/s5/fbank/raw_fbank_train.1.ark:2985005
mcew0_sx182 /u/ravanelm//kaldi-trunk/egs/timit_rev/s5/fbank/raw_fbank_train.2.ark:5058000
fssb0_sx362 /u/ravanelm//kaldi-trunk/egs/timit_rev/s5/fbank/raw_fbank_train.2.ark:1215667
fbas0_si2066 /u/ravanelm//kaldi-trunk/egs/timit_rev/s5/fbank/raw_fbank_train.1.ark:559842
feeh0_si471 /u/ravanelm//kaldi-trunk/egs/timit_rev/s5/fbank/raw_fbank_train.1.ark:3779728
fcdr1_si1186 /u/ravanelm//kaldi-trunk/egs/timit_rev/s5/fbank/raw_fbank_train.1.ark:1433240
fdmy0_sx297 /u/ravanelm//kaldi-trunk/egs/timit_rev/s5/fbank/raw_fbank_train.1.ark:3093002
mmws1_sx441 /u/ravanelm//kaldi-trunk/egs/timit_rev/s5/fbank/raw_fbank_train.3.ark:10426891
mjxa0_si877 /u/ravanelm//kaldi-trunk/egs/timit_rev/s5/fbank/raw_fbank_train.3.ark:5489852
mhit0_sx173 /u/ravanelm//kaldi-trunk/egs/timit_rev/s5/fbank/raw_fbank_train.3.ark:1046079
fjsk0_sx332 /u/ravanelm//kaldi-trunk/egs/timit_rev/s5/fbank/raw_fbank_train.1.ark:5739206
mppc0_si1412 /u/ravanelm//kaldi-trunk/egs/timit_rev/s5/fbank/raw_fbank_train.3.ark:11454885
msfh0_sx46 /u/ravanelm//kaldi-trunk/egs/timit_rev/s5/fbank/raw_fbank_train.4.ark:6209605
mjjb0_sx239 /u/ravanelm//kaldi-trunk/egs/timit_rev/s5/fbank/raw_fbank_train.3.ark:3222501
mstf0_sx226 /u/ravanelm//kaldi-trunk/egs/timit_rev/s5/fbank/raw_fbank_train.4.ark:6984424
mpgr0_sx420 /u/ravanelm//kaldi-trunk/egs/timit_rev/s5/fbank/raw_fbank_train.3.ark:11162328
mhmr0_sx129 /u/ravanelm//kaldi-trunk/egs/timit_rev/s5/fbank/raw_fbank_train.3.ark:1317835
fklh0_sx177 /u/ravanelm//kaldi-trunk/egs/timit_rev/s5/fbank/raw_fbank_train.1.ark:6958081
mrem0_si511 /u/ravanelm//kaldi-trunk/egs/timit_rev/s5/fbank/raw_fbank_train.4.ark:1870950
mljc0_sx235 /u/ravanelm//kaldi-trunk/egs/timit_rev/s5/fbank/raw_fbank_train.3.ark:7495619
fmbg0_sx440 /u/ravanelm//kaldi-trunk/egs/timit_rev/s5/fbank/raw_fbank_train.1.ark:8693169
mjfr0_sx75 /u/ravanelm//kaldi-trunk/egs/timit_rev/s5/fbank/raw_fbank_train.3.ark:3061269
mfer0_sx52 /u/ravanelm//kaldi-trunk/egs/timit_rev/s5/fbank/raw_fbank_train.2.ark:10469942
mrso0_sx219 /u/ravanelm//kaldi-trunk/egs/timit_rev/s5/fbank/raw_fbank_train.4.ark:4458197
fntb0_sx303 /u/ravanelm//kaldi-trunk/egs/timit_rev/s5/fbank/raw_fbank_train.1.ark:9732861
mrsp0_si799 /u/ravanelm//kaldi-trunk/egs/timit_rev/s5/fbank/raw_fbank_train.4.ark:4548796
mjdc0_sx351 /u/ravanelm//kaldi-trunk/egs/timit_rev/s5/fbank/raw_fbank_train.3.ark:2215524
mntw0_sx258 /u/ravanelm//kaldi-trunk/egs/timit_rev/s5/fbank/raw_fbank_train.3.ark:10694731
fjwb1_si748 /u/ravanelm//kaldi-trunk/egs/timit_rev/s5/fbank/raw_fbank_train.1.ark:5886963
flag0_sx114 /u/ravanelm//kaldi-trunk/egs/timit_rev/s5/fbank/raw_fbank_train.1.ark:7256596
fcdr1_si556 /u/ravanelm//kaldi-trunk/egs/timit_rev/s5/fbank/raw_fbank_train.1.ark:1475627
mlbc0_sx249 /u/ravanelm//kaldi-trunk/egs/timit_rev/s5/fbank/raw_fbank_train.3.ark:7285449
mtpp0_sx158 /u/ravanelm//kaldi-trunk/egs/timit_rev/s5/fbank/raw_fbank_train.4.ark:9424552
mtpp0_si1508 /u/ravanelm//kaldi-trunk/egs/timit_rev/s5/fbank/raw_fbank_train.4.ark:9388892
ftmg0_sx452 /u/ravanelm//kaldi-trunk/egs/timit_rev/s5/fbank/raw_fbank_train.2.ark:1712543
mfwk0_si619 /u/ravanelm//kaldi-trunk/egs/timit_rev/s5/fbank/raw_fbank_train.2.ark:10699534
msem1_sx90 /u/ravanelm//kaldi-trunk/egs/timit_rev/s5/fbank/raw_fbank_train.4.ark:6000154
mtwh1_si2142 /u/ravanelm//kaldi-trunk/egs/timit_rev/s5/fbank/raw_fbank_train.4.ark:10017795
frjb0_sx437 /u/ravanelm//kaldi-trunk/egs/timit_rev/s5/fbank/raw_fbank_train.1.ark:10753824
fjlr0_si1861 /u/ravanelm//kaldi-trunk/egs/timit_rev/s5/fbank/raw_fbank_train.1.ark:5369398
fdtd0_si931 /u/ravanelm//kaldi-trunk/egs/timit_rev/s5/fbank/raw_fbank_train.1.ark:3261722
mwar0_sx235 /u/ravanelm//kaldi-trunk/egs/timit_rev/s5/fbank/raw_fbank_train.4.ark:10728952
mjrp0_sx405 /u/ravanelm//kaldi-trunk/egs/timit_rev/s5/fbank/raw_fbank_train.3.ark:4985900
medr0_si2004 /u/ravanelm//kaldi-trunk/egs/timit_rev/s5/fbank/raw_fbank_train.2.ark:9647431
fkkh0_sx210 /u/ravanelm//kaldi-trunk/egs/timit_rev/s5/fbank/raw_fbank_train.1.ark:6672958
mmeb0_si727 /u/ravanelm//kaldi-trunk/egs/timit_rev/s5/fbank/raw_fbank_train.3.ark:9192219
msdh0_si2240 /u/ravanelm//kaldi-trunk/egs/timit_rev/s5/fbank/raw_fbank_train.4.ark:5668386
mesg0_si702 /u/ravanelm//kaldi-trunk/egs/timit_rev/s5/fbank/raw_fbank_train.2.ark:10145225
mkls1_sx15 /u/ravanelm//kaldi-trunk/egs/timit_rev/s5/fbank/raw_fbank_train.3.ark:6897147
mtlc0_si847 /u/ravanelm//kaldi-trunk/egs/timit_rev/s5/fbank/raw_fbank_train.4.ark:8840968
mmxs0_si629 /u/ravanelm//kaldi-trunk/egs/timit_rev/s5/fbank/raw_fbank_train.3.ark:10455830
mcxm0_sx91 /u/ravanelm//kaldi-trunk/egs/timit_rev/s5/fbank/raw_fbank_train.2.ark:5993276
fjxp0_sx222 /u/ravanelm//kaldi-trunk/egs/timit_rev/s5/fbank/raw_fbank_train.1.ark:6128432
fljg0_si1611 /u/ravanelm//kaldi-trunk/egs/timit_rev/s5/fbank/raw_fbank_train.1.ark:7815489
fkfb0_si1608 /u/ravanelm//kaldi-trunk/egs/timit_rev/s5/fbank/raw_fbank_train.1.ark:6491200
mdpb0_si2126 /u/ravanelm//kaldi-trunk/egs/timit_rev/s5/fbank/raw_fbank_train.2.ark:8518209
mmaa0_sx35 /u/ravanelm//kaldi-trunk/egs/timit_rev/s5/fbank/raw_fbank_train.3.ark:7948704
msms0_sx263 /u/ravanelm//kaldi-trunk/egs/timit_rev/s5/fbank/raw_fbank_train.4.ark:6693111
mrab0_sx144 /u/ravanelm//kaldi-trunk/egs/timit_rev/s5/fbank/raw_fbank_train.4.ark:600768
flmk0_si1035 /u/ravanelm//kaldi-trunk/egs/timit_rev/s5/fbank/raw_fbank_train.1.ark:8231708
fjlr0_sx331 /u/ravanelm//kaldi-trunk/egs/timit_rev/s5/fbank/raw_fbank_train.1.ark:5412930
fapb0_si1063 /u/ravanelm//kaldi-trunk/egs/timit_rev/s5/fbank/raw_fbank_train.1.ark:403268
mrfl0_sx76 /u/ravanelm//kaldi-trunk/egs/timit_rev/s5/fbank/raw_fbank_train.4.ark:2236703
mzmb0_sx266 /u/ravanelm//kaldi-trunk/egs/timit_rev/s5/fbank/raw_fbank_train.4.ark:11611937
fjrp1_si1432 /u/ravanelm//kaldi-trunk/egs/timit_rev/s5/fbank/raw_fbank_train.1.ark:5549974
mlbc0_sx159 /u/ravanelm//kaldi-trunk/egs/timit_rev/s5/fbank/raw_fbank_train.3.ark:7274056
mprt0_si580 /u/ravanelm//kaldi-trunk/egs/timit_rev/s5/fbank/raw_fbank_train.4.ark:420045
