fsah0_si614 quick_test/mfcc/raw_mfcc_train.1.ark:3601093
mjxa0_si877 quick_test/mfcc/raw_mfcc_train.3.ark:1794092
fsjk1_sx305 quick_test/mfcc/raw_mfcc_train.2.ark:4023
mhit0_sx353 quick_test/mfcc/raw_mfcc_train.3.ark:349795
mhit0_si1613 quick_test/mfcc/raw_mfcc_train.3.ark:328868
mdlm0_sx424 quick_test/mfcc/raw_mfcc_train.2.ark:2602355
mcdc0_sx122 quick_test/mfcc/raw_mfcc_train.2.ark:1520466
mjwg0_sx85 quick_test/mfcc/raw_mfcc_train.3.ark:1711145
mdwm0_si2176 quick_test/mfcc/raw_mfcc_train.2.ark:3095661
mrtj0_sx52 quick_test/mfcc/raw_mfcc_train.4.ark:1580708
msem1_sx90 quick_test/mfcc/raw_mfcc_train.4.ark:1960684
mdbb1_sx106 quick_test/mfcc/raw_mfcc_train.2.ark:2038269
mgrl0_si1497 quick_test/mfcc/raw_mfcc_train.3.ark:126759
mrlr0_sx386 quick_test/mfcc/raw_mfcc_train.4.ark:1204117
mdbp0_sx438 quick_test/mfcc/raw_mfcc_train.2.ark:2081364
mmlm0_si897 quick_test/mfcc/raw_mfcc_train.3.ark:3154143
mmaa0_si1588 quick_test/mfcc/raw_mfcc_train.3.ark:2570220
fjsp0_sx354 quick_test/mfcc/raw_mfcc_train.1.ark:1908013
mjxa0_sx67 quick_test/mfcc/raw_mfcc_train.3.ark:1811858
fbcg1_si1612 quick_test/mfcc/raw_mfcc_train.1.ark:207117
fajw0_sx93 quick_test/mfcc/raw_mfcc_train.1.ark:64116
mdhl0_sx449 quick_test/mfcc/raw_mfcc_train.2.ark:2311382
fmmh0_sx97 quick_test/mfcc/raw_mfcc_train.1.ark:3083129
msvs0_sx398 quick_test/mfcc/raw_mfcc_train.4.ark:2333460
mmbs0_sx251 quick_test/mfcc/raw_mfcc_train.3.ark:2762428
mgsh0_si546 quick_test/mfcc/raw_mfcc_train.3.ark:204225
mjeb1_sx27 quick_test/mfcc/raw_mfcc_train.3.ark:899531
mrgs0_sx366 quick_test/mfcc/raw_mfcc_train.4.ark:796431
fcmm0_sx420 quick_test/mfcc/raw_mfcc_train.1.ark:711090
mtat1_sx239 quick_test/mfcc/raw_mfcc_train.4.ark:2453229
mdef0_si1563 quick_test/mfcc/raw_mfcc_train.2.ark:2224900
mmam0_si1668 quick_test/mfcc/raw_mfcc_train.3.ark:2680977
fajw0_sx273 quick_test/mfcc/raw_mfcc_train.1.ark:53477
mdns0_sx21 quick_test/mfcc/raw_mfcc_train.2.ark:2768838
mrws0_si1732 quick_test/mfcc/raw_mfcc_train.4.ark:1651324
mnet0_sx96 quick_test/mfcc/raw_mfcc_train.3.ark:3469378
mmdm1_si2043 quick_test/mfcc/raw_mfcc_train.3.ark:2911295
mmab1_sx324 quick_test/mfcc/raw_mfcc_train.3.ark:2624666
mjpg0_si1821 quick_test/mfcc/raw_mfcc_train.3.ark:1357454
mjae0_si1999 quick_test/mfcc/raw_mfcc_train.3.ark:581100
mrtc0_sx108 quick_test/mfcc/raw_mfcc_train.4.ark:1524672
fsjw0_si1333 quick_test/mfcc/raw_mfcc_train.2.ark:49120
mmaa0_sx215 quick_test/mfcc/raw_mfcc_train.3.ark:2589541
mmab1_sx234 quick_test/mfcc/raw_mfcc_train.3.ark:2620629
msds0_si1707 quick_test/mfcc/raw_mfcc_train.4.ark:1890866
mtbc0_si1173 quick_test/mfcc/raw_mfcc_train.4.ark:2472198
mejs0_sx250 quick_test/mfcc/raw_mfcc_train.2.ark:3295428
freh0_sx325 quick_test/mfcc/raw_mfcc_train.1.ark:3483795
fhxs0_sx355 quick_test/mfcc/raw_mfcc_train.1.ark:1570322
fmmh0_si907 quick_test/mfcc/raw_mfcc_train.1.ark:3063194
fdtd0_sx211 quick_test/mfcc/raw_mfcc_train.1.ark:1074043
msmr0_sx55 quick_test/mfcc/raw_mfcc_train.4.ark:2165165
msat0_si1526 quick_test/mfcc/raw_mfcc_train.4.ark:1770768
mjrh0_sx315 quick_test/mfcc/raw_mfcc_train.3.ark:1533905
mkrg0_sx411 quick_test/mfcc/raw_mfcc_train.3.ark:2325952
fcjf0_si648 quick_test/mfcc/raw_mfcc_train.1.ark:545117
makr0_si722 quick_test/mfcc/raw_mfcc_train.2.ark:925305
msmc0_sx287 quick_test/mfcc/raw_mfcc_train.4.ark:2128870
fmbg0_si1160 quick_test/mfcc/raw_mfcc_train.1.ark:2816056
mjkr0_si1831 quick_test/mfcc/raw_mfcc_train.3.ark:1144204
fcke0_sx211 quick_test/mfcc/raw_mfcc_train.1.ark:610232
fdmy0_si1197 quick_test/mfcc/raw_mfcc_train.1.ark:975503
mrjm1_sx38 quick_test/mfcc/raw_mfcc_train.4.ark:975393
mkam0_si1250 quick_test/mfcc/raw_mfcc_train.3.ark:1944576
mbef0_si1281 quick_test/mfcc/raw_mfcc_train.2.ark:1130413
fclt0_sx448 quick_test/mfcc/raw_mfcc_train.1.ark:645715
mjmd0_sx398 quick_test/mfcc/raw_mfcc_train.3.ark:1320227
mprd0_sx441 quick_test/mfcc/raw_mfcc_train.4.ark:83197
mbcg0_si486 quick_test/mfcc/raw_mfcc_train.2.ark:1103727
fjrp1_si1432 quick_test/mfcc/raw_mfcc_train.1.ark:1813417
fskc0_si2046 quick_test/mfcc/raw_mfcc_train.2.ark:87366
fmah1_sx69 quick_test/mfcc/raw_mfcc_train.1.ark:2812161
mbma0_sx412 quick_test/mfcc/raw_mfcc_train.2.ark:1244273
fajw0_sx3 quick_test/mfcc/raw_mfcc_train.1.ark:57265
fsma0_si2251 quick_test/mfcc/raw_mfcc_train.2.ark:211121
mjlg1_sx112 quick_test/mfcc/raw_mfcc_train.3.ark:1214806
flmk0_si1035 quick_test/mfcc/raw_mfcc_train.1.ark:2689634
fmah1_sx429 quick_test/mfcc/raw_mfcc_train.1.ark:2808606
mvlo0_si1147 quick_test/mfcc/raw_mfcc_train.4.ark:3365512
mjee0_si607 quick_test/mfcc/raw_mfcc_train.3.ark:918665
mntw0_si1068 quick_test/mfcc/raw_mfcc_train.3.ark:3473039
mwac0_si1601 quick_test/mfcc/raw_mfcc_train.4.ark:3424750
mkdd0_sx217 quick_test/mfcc/raw_mfcc_train.3.ark:2031247
mtqc0_sx361 quick_test/mfcc/raw_mfcc_train.4.ark:3161504
mpmb0_sx241 quick_test/mfcc/raw_mfcc_train.3.ark:3718934
flod0_sx297 quick_test/mfcc/raw_mfcc_train.1.ark:2744855
fjxp0_sx402 quick_test/mfcc/raw_mfcc_train.1.ark:2010526
fpaf0_sx424 quick_test/mfcc/raw_mfcc_train.1.ark:3323580
msdh0_sx440 quick_test/mfcc/raw_mfcc_train.4.ark:1875439
mjjj0_sx83 quick_test/mfcc/raw_mfcc_train.3.ark:1102674
mvjh0_sx206 quick_test/mfcc/raw_mfcc_train.4.ark:3352237
mgrl0_sx327 quick_test/mfcc/raw_mfcc_train.3.ark:143916
mdmt0_si1832 quick_test/mfcc/raw_mfcc_train.2.ark:2716291
mrav0_si2268 quick_test/mfcc/raw_mfcc_train.4.ark:323892
mdpk0_sx243 quick_test/mfcc/raw_mfcc_train.2.ark:2825730
flja0_si1708 quick_test/mfcc/raw_mfcc_train.1.ark:2494144
mwad0_si1062 quick_test/mfcc/raw_mfcc_train.4.ark:3464288
mmag0_sx226 quick_test/mfcc/raw_mfcc_train.3.ark:2659153
fcjf0_sx127 quick_test/mfcc/raw_mfcc_train.1.ark:549934
mrgs0_sx276 quick_test/mfcc/raw_mfcc_train.4.ark:792797
fkfb0_sx78 quick_test/mfcc/raw_mfcc_train.1.ark:2156023
mrso0_sx399 quick_test/mfcc/raw_mfcc_train.4.ark:1471324
mjpm0_sx378 quick_test/mfcc/raw_mfcc_train.3.ark:1411775
fpmy0_si1153 quick_test/mfcc/raw_mfcc_train.1.ark:3426853
mbsb0_sx183 quick_test/mfcc/raw_mfcc_train.2.ark:1356126
mcae0_sx187 quick_test/mfcc/raw_mfcc_train.2.ark:1456784
mrmg0_si1080 quick_test/mfcc/raw_mfcc_train.4.ark:1237748
mtlb0_si504 quick_test/mfcc/raw_mfcc_train.4.ark:2852518
fsdc0_si1312 quick_test/mfcc/raw_mfcc_train.1.ark:3733997
mrav0_si1008 quick_test/mfcc/raw_mfcc_train.4.ark:317064
mcal0_sx328 quick_test/mfcc/raw_mfcc_train.2.ark:1495281
mcpm0_sx204 quick_test/mfcc/raw_mfcc_train.2.ark:1789874
fbmh0_si1766 quick_test/mfcc/raw_mfcc_train.1.ark:348442
madd0_sx358 quick_test/mfcc/raw_mfcc_train.2.ark:742656
mrai0_sx72 quick_test/mfcc/raw_mfcc_train.4.ark:282431
mtrr0_sx18 quick_test/mfcc/raw_mfcc_train.4.ark:3221851
mrdd0_si2310 quick_test/mfcc/raw_mfcc_train.4.ark:455109
mhjb0_sx117 quick_test/mfcc/raw_mfcc_train.3.ark:373564
mprt0_si1210 quick_test/mfcc/raw_mfcc_train.4.ark:129587
mrds0_sx267 quick_test/mfcc/raw_mfcc_train.4.ark:522876
mkag0_si979 quick_test/mfcc/raw_mfcc_train.3.ark:1858270
mmdg0_sx340 quick_test/mfcc/raw_mfcc_train.3.ark:2864838
mnet0_sx366 quick_test/mfcc/raw_mfcc_train.3.ark:3461996
mprd0_sx171 quick_test/mfcc/raw_mfcc_train.4.ark:68954
mrml0_sx71 quick_test/mfcc/raw_mfcc_train.4.ark:1336804
fapb0_sx73 quick_test/mfcc/raw_mfcc_train.1.ark:167544
mdss1_si697 quick_test/mfcc/raw_mfcc_train.2.ark:2973291
fsjk1_sx215 quick_test/mfcc/raw_mfcc_train.2.ark:12
fcjs0_si977 quick_test/mfcc/raw_mfcc_train.1.ark:567365
falk0_sx366 quick_test/mfcc/raw_mfcc_train.1.ark:89353
mgak0_si1666 quick_test/mfcc/raw_mfcc_train.2.ark:3647975
mljh0_si1422 quick_test/mfcc/raw_mfcc_train.3.ark:2468943
fklh0_sx357 quick_test/mfcc/raw_mfcc_train.1.ark:2280662
mbwp0_sx439 quick_test/mfcc/raw_mfcc_train.2.ark:1427654
mejs0_si1240 quick_test/mfcc/raw_mfcc_train.2.ark:3277602
mdss0_sx261 quick_test/mfcc/raw_mfcc_train.2.ark:2953839
mjlg1_si2272 quick_test/mfcc/raw_mfcc_train.3.ark:1209482
fgmb0_sx155 quick_test/mfcc/raw_mfcc_train.1.ark:1447037
mjpm0_si1998 quick_test/mfcc/raw_mfcc_train.3.ark:1387736
mdma0_si2060 quick_test/mfcc/raw_mfcc_train.2.ark:2685309
mmwb0_si2249 quick_test/mfcc/raw_mfcc_train.3.ark:3318430
mjjb0_si1139 quick_test/mfcc/raw_mfcc_train.3.ark:1036449
mdtb0_sx390 quick_test/mfcc/raw_mfcc_train.2.ark:3020235
mrld0_sx64 quick_test/mfcc/raw_mfcc_train.4.ark:1083417
mmam0_sx247 quick_test/mfcc/raw_mfcc_train.3.ark:2689254
mgsh0_sx96 quick_test/mfcc/raw_mfcc_train.3.ark:223887
mjmm0_sx265 quick_test/mfcc/raw_mfcc_train.3.ark:1341246
mrld0_sx154 quick_test/mfcc/raw_mfcc_train.4.ark:1070598
fnkl0_sx262 quick_test/mfcc/raw_mfcc_train.1.ark:3147385
mrbc0_si1665 quick_test/mfcc/raw_mfcc_train.4.ark:346034
fsms1_sx347 quick_test/mfcc/raw_mfcc_train.2.ark:301672
falk0_sx186 quick_test/mfcc/raw_mfcc_train.1.ark:82540
mklw0_sx311 quick_test/mfcc/raw_mfcc_train.3.ark:2287305
mdhl0_si1439 quick_test/mfcc/raw_mfcc_train.2.ark:2287653
fdmy0_si714 quick_test/mfcc/raw_mfcc_train.1.ark:989154
mtkp0_si2283 quick_test/mfcc/raw_mfcc_train.4.ark:2814052
fpjf0_sx326 quick_test/mfcc/raw_mfcc_train.1.ark:3384267
mhxl0_sx422 quick_test/mfcc/raw_mfcc_train.3.ark:505567
freh0_sx55 quick_test/mfcc/raw_mfcc_train.1.ark:3489229
mtlc0_sx217 quick_test/mfcc/raw_mfcc_train.4.ark:2894592
mmgg0_sx449 quick_test/mfcc/raw_mfcc_train.3.ark:3078899
mjrh1_sx64 quick_test/mfcc/raw_mfcc_train.3.ark:1573963
fskp0_sx288 quick_test/mfcc/raw_mfcc_train.2.ark:168504
fsak0_sx40 quick_test/mfcc/raw_mfcc_train.1.ark:3651851
mnet0_si2076 quick_test/mfcc/raw_mfcc_train.3.ark:3449826
mrsp0_sx196 quick_test/mfcc/raw_mfcc_train.4.ark:1494865
fssb0_sx452 quick_test/mfcc/raw_mfcc_train.2.ark:403218
mrmh0_sx31 quick_test/mfcc/raw_mfcc_train.4.ark:1294828
mcss0_sx210 quick_test/mfcc/raw_mfcc_train.2.ark:1853986
fpls0_sx330 quick_test/mfcc/raw_mfcc_train.1.ark:3418558
msat0_sx446 quick_test/mfcc/raw_mfcc_train.4.ark:1789518
fmju0_sx219 quick_test/mfcc/raw_mfcc_train.1.ark:2970049
mdlh0_sx250 quick_test/mfcc/raw_mfcc_train.2.ark:2564909
mdtb0_si570 quick_test/mfcc/raw_mfcc_train.2.ark:3001389
mdtb0_sx321 quick_test/mfcc/raw_mfcc_train.2.ark:3015717
mjjj0_si533 quick_test/mfcc/raw_mfcc_train.3.ark:1080423
fksr0_si487 quick_test/mfcc/raw_mfcc_train.1.ark:2300705
fsjk1_sx125 quick_test/mfcc/raw_mfcc_train.1.ark:3879952
mprd0_si2061 quick_test/mfcc/raw_mfcc_train.4.ark:59216
mrjh0_sx439 quick_test/mfcc/raw_mfcc_train.4.ark:907159
mdss0_sx171 quick_test/mfcc/raw_mfcc_train.2.ark:2949516
mjpg0_sx291 quick_test/mfcc/raw_mfcc_train.3.ark:1376351
mdma0_sx170 quick_test/mfcc/raw_mfcc_train.2.ark:2689476
fsms1_si1504 quick_test/mfcc/raw_mfcc_train.2.ark:278320
fmah1_sx249 quick_test/mfcc/raw_mfcc_train.1.ark:2801910
mtwh1_sx252 quick_test/mfcc/raw_mfcc_train.4.ark:3282559
mmdb0_sx177 quick_test/mfcc/raw_mfcc_train.3.ark:2825481
fpad0_si1346 quick_test/mfcc/raw_mfcc_train.1.ark:3262210
mtab0_sx312 quick_test/mfcc/raw_mfcc_train.4.ark:2363612
mrms0_si1113 quick_test/mfcc/raw_mfcc_train.4.ark:1340933
mtdb0_sx141 quick_test/mfcc/raw_mfcc_train.4.ark:2550542
mrcg0_si798 quick_test/mfcc/raw_mfcc_train.4.ark:387329
mprk0_si1097 quick_test/mfcc/raw_mfcc_train.4.ark:90478
fssb0_si1712 quick_test/mfcc/raw_mfcc_train.2.ark:382356
mbwp0_si1969 quick_test/mfcc/raw_mfcc_train.2.ark:1405168
fjen0_sx327 quick_test/mfcc/raw_mfcc_train.1.ark:1636894
mrlj1_sx411 quick_test/mfcc/raw_mfcc_train.4.ark:1137242
mgaw0_si1165 quick_test/mfcc/raw_mfcc_train.3.ark:32441
mvrw0_sx315 quick_test/mfcc/raw_mfcc_train.4.ark:3415707
fgdp0_sx268 quick_test/mfcc/raw_mfcc_train.1.ark:1412615
mclm0_sx286 quick_test/mfcc/raw_mfcc_train.2.ark:1764181
mpar0_si1576 quick_test/mfcc/raw_mfcc_train.3.ark:3508158
mjpm0_sx198 quick_test/mfcc/raw_mfcc_train.3.ark:1403038
mrml0_si1421 quick_test/mfcc/raw_mfcc_train.4.ark:1299822
mfwk0_si619 quick_test/mfcc/raw_mfcc_train.2.ark:3496987
mlns0_sx147 quick_test/mfcc/raw_mfcc_train.3.ark:2517972
fsma0_sx181 quick_test/mfcc/raw_mfcc_train.2.ark:221379
fcjs0_si2237 quick_test/mfcc/raw_mfcc_train.1.ark:565161
fpaf0_si2314 quick_test/mfcc/raw_mfcc_train.1.ark:3308849
feac0_sx75 quick_test/mfcc/raw_mfcc_train.1.ark:1151086
mrlk0_si2140 quick_test/mfcc/raw_mfcc_train.4.ark:1150251
fjdm2_si2212 quick_test/mfcc/raw_mfcc_train.1.ark:1589287
mtmt0_sx38 quick_test/mfcc/raw_mfcc_train.4.ark:2999973
mjrg0_si736 quick_test/mfcc/raw_mfcc_train.3.ark:1486493
mjrh0_sx405 quick_test/mfcc/raw_mfcc_train.3.ark:1537877
mbsb0_sx273 quick_test/mfcc/raw_mfcc_train.2.ark:1358564
flma0_si1243 quick_test/mfcc/raw_mfcc_train.1.ark:2628784
mrav0_sx108 quick_test/mfcc/raw_mfcc_train.4.ark:328969
mjmd0_si2288 quick_test/mfcc/raw_mfcc_train.3.ark:1300485
mdss1_si1713 quick_test/mfcc/raw_mfcc_train.2.ark:2971217
fpac0_sx211 quick_test/mfcc/raw_mfcc_train.1.ark:3247323
mkjo0_sx424 quick_test/mfcc/raw_mfcc_train.3.ark:2130185
mcdr0_sx434 quick_test/mfcc/raw_mfcc_train.2.ark:1598770
fmmh0_sx420 quick_test/mfcc/raw_mfcc_train.1.ark:3074213
mabc0_sx331 quick_test/mfcc/raw_mfcc_train.2.ark:677685
mdss1_sx337 quick_test/mfcc/raw_mfcc_train.2.ark:2985623
fjlr0_sx241 quick_test/mfcc/raw_mfcc_train.1.ark:1764881
fssb0_sx92 quick_test/mfcc/raw_mfcc_train.2.ark:408190
mwgr0_si1606 quick_test/mfcc/raw_mfcc_train.4.ark:3614077
mkxl0_si1958 quick_test/mfcc/raw_mfcc_train.3.ark:2341803
mmws0_sx258 quick_test/mfcc/raw_mfcc_train.3.ark:3370858
fsak0_si670 quick_test/mfcc/raw_mfcc_train.1.ark:3636146
fcaj0_sx399 quick_test/mfcc/raw_mfcc_train.1.ark:464887
fkde0_sx421 quick_test/mfcc/raw_mfcc_train.1.ark:2080555
fdas1_si1461 quick_test/mfcc/raw_mfcc_train.1.ark:783914
mmlm0_sx357 quick_test/mfcc/raw_mfcc_train.3.ark:3164031
flhd0_si1344 quick_test/mfcc/raw_mfcc_train.1.ark:2455936
mmds0_sx173 quick_test/mfcc/raw_mfcc_train.3.ark:2951562
mmws0_si1518 quick_test/mfcc/raw_mfcc_train.3.ark:3356452
mdbp0_sx78 quick_test/mfcc/raw_mfcc_train.2.ark:2087220
mtrt0_si1227 quick_test/mfcc/raw_mfcc_train.4.ark:3238091
mtqc0_si2071 quick_test/mfcc/raw_mfcc_train.4.ark:3143991
fltm0_si1070 quick_test/mfcc/raw_mfcc_train.1.ark:2751058
fgrw0_sx72 quick_test/mfcc/raw_mfcc_train.1.ark:1504569
mtdb0_si771 quick_test/mfcc/raw_mfcc_train.4.ark:2544503
mtdp0_sx81 quick_test/mfcc/raw_mfcc_train.4.ark:2604044
mtju0_sx310 quick_test/mfcc/raw_mfcc_train.4.ark:2763565
fbch0_si956 quick_test/mfcc/raw_mfcc_train.1.ark:244075
fbcg1_sx352 quick_test/mfcc/raw_mfcc_train.1.ark:225067
mcew0_si1442 quick_test/mfcc/raw_mfcc_train.2.ark:1636242
mjra0_sx156 quick_test/mfcc/raw_mfcc_train.3.ark:1459936
fdas1_sx291 quick_test/mfcc/raw_mfcc_train.1.ark:810710
fmah1_sx159 quick_test/mfcc/raw_mfcc_train.1.ark:2797483
marc0_sx288 quick_test/mfcc/raw_mfcc_train.2.ark:996712
msrg0_sx321 quick_test/mfcc/raw_mfcc_train.4.ark:2219775
mdjm0_sx15 quick_test/mfcc/raw_mfcc_train.2.ark:2366536
fetb0_sx428 quick_test/mfcc/raw_mfcc_train.1.ark:1318350
mrpc1_sx132 quick_test/mfcc/raw_mfcc_train.4.ark:1380040
fblv0_si1688 quick_test/mfcc/raw_mfcc_train.1.ark:311854
mmeb0_si1987 quick_test/mfcc/raw_mfcc_train.3.ark:3001127
mses0_sx419 quick_test/mfcc/raw_mfcc_train.4.ark:1987503
mrfl0_si1786 quick_test/mfcc/raw_mfcc_train.4.ark:705055
fpaf0_sx334 quick_test/mfcc/raw_mfcc_train.1.ark:3319712
fljd0_si1516 quick_test/mfcc/raw_mfcc_train.1.ark:2521416
majp0_si1074 quick_test/mfcc/raw_mfcc_train.2.ark:843560
fdnc0_si2287 quick_test/mfcc/raw_mfcc_train.1.ark:1033399
mbjv0_sx167 quick_test/mfcc/raw_mfcc_train.2.ark:1202699
fmem0_si747 quick_test/mfcc/raw_mfcc_train.1.ark:2858208
mkdd0_si937 quick_test/mfcc/raw_mfcc_train.3.ark:2023225
mrsp0_sx259 quick_test/mfcc/raw_mfcc_train.4.ark:1497316
msfh0_sx226 quick_test/mfcc/raw_mfcc_train.4.ark:2014833
mdcd0_sx155 quick_test/mfcc/raw_mfcc_train.2.ark:2103266
mklr0_sx339 quick_test/mfcc/raw_mfcc_train.3.ark:2191257
mtab0_sx42 quick_test/mfcc/raw_mfcc_train.4.ark:2374116
mddc0_sx429 quick_test/mfcc/raw_mfcc_train.2.ark:2176643
fsjk1_si2285 quick_test/mfcc/raw_mfcc_train.1.ark:3872554
mdlb0_si1306 quick_test/mfcc/raw_mfcc_train.2.ark:2413306
mtpf0_sx155 quick_test/mfcc/raw_mfcc_train.4.ark:3020420
mbef0_si651 quick_test/mfcc/raw_mfcc_train.2.ark:1137942
mbgt0_sx81 quick_test/mfcc/raw_mfcc_train.2.ark:1187810
mtxs0_sx250 quick_test/mfcc/raw_mfcc_train.4.ark:3316976
mjrh1_sx334 quick_test/mfcc/raw_mfcc_train.3.ark:1567190
mcxm0_sx91 quick_test/mfcc/raw_mfcc_train.2.ark:1958801
mjeb1_si2097 quick_test/mfcc/raw_mfcc_train.3.ark:881772
fmmh0_sx187 quick_test/mfcc/raw_mfcc_train.1.ark:3067504
fsma0_sx271 quick_test/mfcc/raw_mfcc_train.2.ark:226131
fcag0_sx333 quick_test/mfcc/raw_mfcc_train.1.ark:426753
mtrc0_si1623 quick_test/mfcc/raw_mfcc_train.4.ark:3177931
mcxm0_si721 quick_test/mfcc/raw_mfcc_train.2.ark:1939371
fskc0_sx426 quick_test/mfcc/raw_mfcc_train.2.ark:105978
mclk0_sx40 quick_test/mfcc/raw_mfcc_train.2.ark:1736291
fsbk0_sx439 quick_test/mfcc/raw_mfcc_train.1.ark:3685086
fcmm0_sx363 quick_test/mfcc/raw_mfcc_train.1.ark:707183
fntb0_sx303 quick_test/mfcc/raw_mfcc_train.1.ark:3180123
mdns0_si1011 quick_test/mfcc/raw_mfcc_train.2.ark:2745832
ftaj0_sx339 quick_test/mfcc/raw_mfcc_train.2.ark:429072
mbjv0_sx347 quick_test/mfcc/raw_mfcc_train.2.ark:1209291
mdac0_sx451 quick_test/mfcc/raw_mfcc_train.2.ark:1987725
mreh1_sx159 quick_test/mfcc/raw_mfcc_train.4.ark:586190
mdwd0_sx270 quick_test/mfcc/raw_mfcc_train.2.ark:3039733
fbch0_si1586 quick_test/mfcc/raw_mfcc_train.1.ark:239050
mefg0_sx195 quick_test/mfcc/raw_mfcc_train.2.ark:3201353
maeo0_si1326 quick_test/mfcc/raw_mfcc_train.2.ark:785101
fdxw0_si1511 quick_test/mfcc/raw_mfcc_train.1.ark:1092649
mmxs0_sx66 quick_test/mfcc/raw_mfcc_train.3.ark:3441464
mpgr1_sx329 quick_test/mfcc/raw_mfcc_train.3.ark:3677076
mtdp0_sx171 quick_test/mfcc/raw_mfcc_train.4.ark:2582957
mdef0_sx393 quick_test/mfcc/raw_mfcc_train.2.ark:2245287
mejs0_sx430 quick_test/mfcc/raw_mfcc_train.2.ark:3302735
mdbp0_sx348 quick_test/mfcc/raw_mfcc_train.2.ark:2076534
fcyl0_sx349 quick_test/mfcc/raw_mfcc_train.1.ark:770464
fntb0_sx33 quick_test/mfcc/raw_mfcc_train.1.ark:3183028
mhmg0_sx15 quick_test/mfcc/raw_mfcc_train.3.ark:403670
flmc0_si2002 quick_test/mfcc/raw_mfcc_train.1.ark:2662727
mrai0_si1954 quick_test/mfcc/raw_mfcc_train.4.ark:250116
fsjk1_si696 quick_test/mfcc/raw_mfcc_train.1.ark:3875252
mded0_si540 quick_test/mfcc/raw_mfcc_train.2.ark:2192142
fexm0_si1731 quick_test/mfcc/raw_mfcc_train.1.ark:1330683
fmjf0_sx354 quick_test/mfcc/raw_mfcc_train.1.ark:2938877
mmjb1_sx418 quick_test/mfcc/raw_mfcc_train.3.ark:3137396
mlsh0_sx247 quick_test/mfcc/raw_mfcc_train.3.ark:2552694
mbom0_si1644 quick_test/mfcc/raw_mfcc_train.2.ark:1321109
mmdm1_sx423 quick_test/mfcc/raw_mfcc_train.3.ark:2933274
mrvg0_sx150 quick_test/mfcc/raw_mfcc_train.4.ark:1595935
fdtd0_sx301 quick_test/mfcc/raw_mfcc_train.1.ark:1077989
fcjs0_sx437 quick_test/mfcc/raw_mfcc_train.1.ark:583916
flhd0_sx174 quick_test/mfcc/raw_mfcc_train.1.ark:2465969
mjxa0_sx427 quick_test/mfcc/raw_mfcc_train.3.ark:1808888
fgdp0_si2248 quick_test/mfcc/raw_mfcc_train.1.ark:1397683
mtdb0_si1401 quick_test/mfcc/raw_mfcc_train.4.ark:2536194
maeb0_sx450 quick_test/mfcc/raw_mfcc_train.2.ark:778314
mbma0_sx52 quick_test/mfcc/raw_mfcc_train.2.ark:1248231
mrso0_sx219 quick_test/mfcc/raw_mfcc_train.4.ark:1456796
fsma0_si991 quick_test/mfcc/raw_mfcc_train.2.ark:215431
mddc0_sx339 quick_test/mfcc/raw_mfcc_train.2.ark:2173659
mprt0_sx310 quick_test/mfcc/raw_mfcc_train.4.ark:148355
mgrp0_sx327 quick_test/mfcc/raw_mfcc_train.3.ark:178904
fbjl0_sx112 quick_test/mfcc/raw_mfcc_train.1.ark:288190
mbbr0_sx335 quick_test/mfcc/raw_mfcc_train.2.ark:1088892
fsjg0_si2200 quick_test/mfcc/raw_mfcc_train.1.ark:3829168
mmdb0_sx267 quick_test/mfcc/raw_mfcc_train.3.ark:2827698
mmdb0_si1617 quick_test/mfcc/raw_mfcc_train.3.ark:2817615
mabc0_sx61 quick_test/mfcc/raw_mfcc_train.2.ark:684185
fsrh0_si1719 quick_test/mfcc/raw_mfcc_train.2.ark:346164
fsjg0_si940 quick_test/mfcc/raw_mfcc_train.1.ark:3833608
fklh0_sx87 quick_test/mfcc/raw_mfcc_train.1.ark:2289216
mtrt0_sx417 quick_test/mfcc/raw_mfcc_train.4.ark:3261352
mdrd0_sx392 quick_test/mfcc/raw_mfcc_train.2.ark:2903149
mhjb0_sx387 quick_test/mfcc/raw_mfcc_train.3.ark:383822
freh0_sx235 quick_test/mfcc/raw_mfcc_train.1.ark:3480603
mgar0_si1842 quick_test/mfcc/raw_mfcc_train.3.ark:7907
mjrp0_sx405 quick_test/mfcc/raw_mfcc_train.3.ark:1629503
marw0_si1276 quick_test/mfcc/raw_mfcc_train.2.ark:1004072
mewm0_si1978 quick_test/mfcc/raw_mfcc_train.2.ark:3372887
mkrg0_sx231 quick_test/mfcc/raw_mfcc_train.3.ark:2322052
mrpc1_sx42 quick_test/mfcc/raw_mfcc_train.4.ark:1395238
mprk0_sx17 quick_test/mfcc/raw_mfcc_train.4.ark:111657
mwre0_sx157 quick_test/mfcc/raw_mfcc_train.4.ark:3656966
msrr0_sx51 quick_test/mfcc/raw_mfcc_train.4.ark:2260079
mljc0_si1855 quick_test/mfcc/raw_mfcc_train.3.ark:2439181
fsgf0_sx27 quick_test/mfcc/raw_mfcc_train.1.ark:3814734
mtpr0_si506 quick_test/mfcc/raw_mfcc_train.4.ark:3109153
mrem0_si511 quick_test/mfcc/raw_mfcc_train.4.ark:611400
fpjf0_si1259 quick_test/mfcc/raw_mfcc_train.1.ark:3368638
marw0_si646 quick_test/mfcc/raw_mfcc_train.2.ark:1010795
mdwh0_sx395 quick_test/mfcc/raw_mfcc_train.2.ark:3086714
flet0_sx147 quick_test/mfcc/raw_mfcc_train.1.ark:2439625
mree0_si1104 quick_test/mfcc/raw_mfcc_train.4.ark:537282
mdef0_si2193 quick_test/mfcc/raw_mfcc_train.2.ark:2228561
mjwt0_sx301 quick_test/mfcc/raw_mfcc_train.3.ark:1774322
mmab1_sx414 quick_test/mfcc/raw_mfcc_train.3.ark:2630471
mtas0_si2015 quick_test/mfcc/raw_mfcc_train.4.ark:2381906
fmpg0_sx432 quick_test/mfcc/raw_mfcc_train.1.ark:3117461
mwsh0_sx436 quick_test/mfcc/raw_mfcc_train.4.ark:3768799
mclm0_sx376 quick_test/mfcc/raw_mfcc_train.2.ark:1768556
mgjc0_sx75 quick_test/mfcc/raw_mfcc_train.3.ark:122747
mdlc1_sx85 quick_test/mfcc/raw_mfcc_train.2.ark:2515403
mtjs0_sx202 quick_test/mfcc/raw_mfcc_train.4.ark:2727647
mtml0_sx345 quick_test/mfcc/raw_mfcc_train.4.ark:2927534
mtjm0_sx236 quick_test/mfcc/raw_mfcc_train.4.ark:2691970
faem0_sx222 quick_test/mfcc/raw_mfcc_train.1.ark:16916
mbgt0_sx351 quick_test/mfcc/raw_mfcc_train.2.ark:1178840
feeh0_si1742 quick_test/mfcc/raw_mfcc_train.1.ark:1230607
mdbb1_sx286 quick_test/mfcc/raw_mfcc_train.2.ark:2046765
mdjm0_sx375 quick_test/mfcc/raw_mfcc_train.2.ark:2376450
mhmg0_si735 quick_test/mfcc/raw_mfcc_train.3.ark:394479
mmgc0_si1935 quick_test/mfcc/raw_mfcc_train.3.ark:3031134
mbom0_sx311 quick_test/mfcc/raw_mfcc_train.2.ark:1336810
mtlc0_sx127 quick_test/mfcc/raw_mfcc_train.4.ark:2892388
mkrg0_si861 quick_test/mfcc/raw_mfcc_train.3.ark:2312106
mjac0_sx307 quick_test/mfcc/raw_mfcc_train.3.ark:561902
mdwd0_si1890 quick_test/mfcc/raw_mfcc_train.2.ark:3029351
mcef0_sx235 quick_test/mfcc/raw_mfcc_train.2.ark:1622161
mjxl0_sx362 quick_test/mfcc/raw_mfcc_train.3.ark:1835523
mrfl0_si526 quick_test/mfcc/raw_mfcc_train.4.ark:707935
fmmh0_si2167 quick_test/mfcc/raw_mfcc_train.1.ark:3058676
mjhi0_sx158 quick_test/mfcc/raw_mfcc_train.3.ark:1018201
mhjb0_si2277 quick_test/mfcc/raw_mfcc_train.3.ark:368266
flag0_sx384 quick_test/mfcc/raw_mfcc_train.1.ark:2388044
mdtb0_si1200 quick_test/mfcc/raw_mfcc_train.2.ark:2995914
fdml0_si1149 quick_test/mfcc/raw_mfcc_train.1.ark:947950
mjra0_sx426 quick_test/mfcc/raw_mfcc_train.3.ark:1472593
mrcg0_sx168 quick_test/mfcc/raw_mfcc_train.4.ark:392328
mgrp0_si687 quick_test/mfcc/raw_mfcc_train.3.ark:166923
frll0_si1514 quick_test/mfcc/raw_mfcc_train.1.ark:3522718
mhrm0_sx328 quick_test/mfcc/raw_mfcc_train.3.ark:467583
msrr0_sx30 quick_test/mfcc/raw_mfcc_train.4.ark:2253371
fgcs0_sx316 quick_test/mfcc/raw_mfcc_train.1.ark:1384316
mrml0_sx341 quick_test/mfcc/raw_mfcc_train.4.ark:1327223
mtwh1_si1512 quick_test/mfcc/raw_mfcc_train.4.ark:3269088
mmws0_sx78 quick_test/mfcc/raw_mfcc_train.3.ark:3384333
fskl0_si899 quick_test/mfcc/raw_mfcc_train.2.ark:122686
mrmb0_sx231 quick_test/mfcc/raw_mfcc_train.4.ark:1223511
mjda0_si1661 quick_test/mfcc/raw_mfcc_train.3.ark:677602
mbef0_sx381 quick_test/mfcc/raw_mfcc_train.2.ark:1154226
mmar0_si1336 quick_test/mfcc/raw_mfcc_train.3.ark:2704037
fsls0_sx66 quick_test/mfcc/raw_mfcc_train.2.ark:205294
mmag0_si1126 quick_test/mfcc/raw_mfcc_train.3.ark:2639403
mklw0_sx221 quick_test/mfcc/raw_mfcc_train.3.ark:2283177
mtat1_sx419 quick_test/mfcc/raw_mfcc_train.4.ark:2464111
mtlb0_sx414 quick_test/mfcc/raw_mfcc_train.4.ark:2868679
mbom0_si2274 quick_test/mfcc/raw_mfcc_train.2.ark:1323717
mlns0_sx57 quick_test/mfcc/raw_mfcc_train.3.ark:2532936
mrfk0_si1076 quick_test/mfcc/raw_mfcc_train.4.ark:670175
mesg0_si702 quick_test/mfcc/raw_mfcc_train.2.ark:3315764
mefg0_si465 quick_test/mfcc/raw_mfcc_train.2.ark:3178439
mdma0_si1238 quick_test/mfcc/raw_mfcc_train.2.ark:2677896
fjhk0_si1652 quick_test/mfcc/raw_mfcc_train.1.ark:1657138
mter0_sx167 quick_test/mfcc/raw_mfcc_train.4.ark:2621559
fdaw0_sx146 quick_test/mfcc/raw_mfcc_train.1.ark:833823
flma0_si613 quick_test/mfcc/raw_mfcc_train.1.ark:2636001
fvmh0_sx26 quick_test/mfcc/raw_mfcc_train.2.ark:651601
fjkl0_sx302 quick_test/mfcc/raw_mfcc_train.1.ark:1705597
mjws0_sx333 quick_test/mfcc/raw_mfcc_train.3.ark:1734940
mtat1_si1409 quick_test/mfcc/raw_mfcc_train.4.ark:2435000
flet0_si1767 quick_test/mfcc/raw_mfcc_train.1.ark:2429055
mdpb0_sx236 quick_test/mfcc/raw_mfcc_train.2.ark:2797866
mprd0_si801 quick_test/mfcc/raw_mfcc_train.4.ark:61667
mrhl0_sx345 quick_test/mfcc/raw_mfcc_train.4.ark:829571
mgak0_si2296 quick_test/mfcc/raw_mfcc_train.2.ark:3651883
mjpm0_sx108 quick_test/mfcc/raw_mfcc_train.3.ark:1396421
fkaa0_si1208 quick_test/mfcc/raw_mfcc_train.1.ark:2017443
fmbg0_sx80 quick_test/mfcc/raw_mfcc_train.1.ark:2845484
mrlr0_sx26 quick_test/mfcc/raw_mfcc_train.4.ark:1197486
fltm0_sx80 quick_test/mfcc/raw_mfcc_train.1.ark:2782152
mfwk0_si1249 quick_test/mfcc/raw_mfcc_train.2.ark:3490394
fsah0_sx344 quick_test/mfcc/raw_mfcc_train.1.ark:3617819
fbmh0_si970 quick_test/mfcc/raw_mfcc_train.1.ark:351582
mhrm0_si2218 quick_test/mfcc/raw_mfcc_train.3.ark:452800
mmdg0_sx70 quick_test/mfcc/raw_mfcc_train.3.ark:2874666
fhxs0_si2302 quick_test/mfcc/raw_mfcc_train.1.ark:1547257
mjda0_sx401 quick_test/mfcc/raw_mfcc_train.3.ark:695708
fscn0_sx266 quick_test/mfcc/raw_mfcc_train.1.ark:3716614
fsrh0_sx221 quick_test/mfcc/raw_mfcc_train.2.ark:358387
fjsk0_si2312 quick_test/mfcc/raw_mfcc_train.1.ark:1864645
mmam0_si2227 quick_test/mfcc/raw_mfcc_train.3.ark:2683962
fksr0_sx397 quick_test/mfcc/raw_mfcc_train.1.ark:2321292
mjls0_sx16 quick_test/mfcc/raw_mfcc_train.3.ark:1250632
mrlk0_sx123 quick_test/mfcc/raw_mfcc_train.4.ark:1159807
mdma0_sx440 quick_test/mfcc/raw_mfcc_train.2.ark:2706813
mlbc0_sx159 quick_test/mfcc/raw_mfcc_train.3.ark:2377201
ftaj0_sx69 quick_test/mfcc/raw_mfcc_train.2.ark:434935
meal0_si2177 quick_test/mfcc/raw_mfcc_train.2.ark:3127126
mkag0_sx30 quick_test/mfcc/raw_mfcc_train.3.ark:1872772
mrre0_sx254 quick_test/mfcc/raw_mfcc_train.4.ark:1421053
fclt0_si2068 quick_test/mfcc/raw_mfcc_train.1.ark:625920
flet0_sx57 quick_test/mfcc/raw_mfcc_train.1.ark:2452392
flmk0_sx45 quick_test/mfcc/raw_mfcc_train.1.ark:2717855
flod0_si1287 quick_test/mfcc/raw_mfcc_train.1.ark:2721542
mmar0_si1966 quick_test/mfcc/raw_mfcc_train.3.ark:2708894
mtat0_si1740 quick_test/mfcc/raw_mfcc_train.4.ark:2409003
mtab0_si2202 quick_test/mfcc/raw_mfcc_train.4.ark:2346190
mcef0_sx145 quick_test/mfcc/raw_mfcc_train.2.ark:1618722
falk0_sx6 quick_test/mfcc/raw_mfcc_train.1.ark:94090
mklw0_si1571 quick_test/mfcc/raw_mfcc_train.3.ark:2268223
mtcs0_sx82 quick_test/mfcc/raw_mfcc_train.4.ark:2532559
fdjh0_sx215 quick_test/mfcc/raw_mfcc_train.1.ark:896215
mjwt0_si751 quick_test/mfcc/raw_mfcc_train.3.ark:1761808
flod0_sx387 quick_test/mfcc/raw_mfcc_train.1.ark:2747527
fpls0_sx150 quick_test/mfcc/raw_mfcc_train.1.ark:3409660
mchl0_sx177 quick_test/mfcc/raw_mfcc_train.2.ark:1691858
fsjk1_sx395 quick_test/mfcc/raw_mfcc_train.2.ark:10510
mapv0_si1293 quick_test/mfcc/raw_mfcc_train.2.ark:942819
msvs0_sx38 quick_test/mfcc/raw_mfcc_train.4.ark:2328773
mmdg0_si2035 quick_test/mfcc/raw_mfcc_train.3.ark:2847728
mfwk0_sx439 quick_test/mfcc/raw_mfcc_train.2.ark:3513590
mrgs0_si1986 quick_test/mfcc/raw_mfcc_train.4.ark:781063
mkdb0_si872 quick_test/mfcc/raw_mfcc_train.3.ark:1986625
mlsh0_sx427 quick_test/mfcc/raw_mfcc_train.3.ark:2562367
mpgr1_si1499 quick_test/mfcc/raw_mfcc_train.3.ark:3659367
mdsj0_si2092 quick_test/mfcc/raw_mfcc_train.2.ark:2913318
fvfb0_si1510 quick_test/mfcc/raw_mfcc_train.2.ark:571496
mmws1_si2331 quick_test/mfcc/raw_mfcc_train.3.ark:3395446
fpad0_si716 quick_test/mfcc/raw_mfcc_train.1.ark:3270220
fjhk0_si2282 quick_test/mfcc/raw_mfcc_train.1.ark:1659317
mtrc0_si589 quick_test/mfcc/raw_mfcc_train.4.ark:3180837
feac0_sx435 quick_test/mfcc/raw_mfcc_train.1.ark:1145945
mtpg0_si1383 quick_test/mfcc/raw_mfcc_train.4.ark:3038330
mjmd0_sx308 quick_test/mfcc/raw_mfcc_train.3.ark:1312934
mmgg0_si1079 quick_test/mfcc/raw_mfcc_train.3.ark:3055416
fdaw0_si2036 quick_test/mfcc/raw_mfcc_train.1.ark:827485
fcrz0_sx253 quick_test/mfcc/raw_mfcc_train.1.ark:735573
mtlb0_sx54 quick_test/mfcc/raw_mfcc_train.4.ark:2872520
mjrh1_si514 quick_test/mfcc/raw_mfcc_train.3.ark:1555170
mesj0_si997 quick_test/mfcc/raw_mfcc_train.2.ark:3350622
mbar0_sx59 quick_test/mfcc/raw_mfcc_train.2.ark:1067137
fbch0_sx56 quick_test/mfcc/raw_mfcc_train.1.ark:270792
mrfk0_sx446 quick_test/mfcc/raw_mfcc_train.4.ark:692449
mlbc0_si1239 quick_test/mfcc/raw_mfcc_train.3.ark:2363789
fleh0_sx421 quick_test/mfcc/raw_mfcc_train.1.ark:2416267
mrjm1_sx308 quick_test/mfcc/raw_mfcc_train.4.ark:970941
msvs0_sx128 quick_test/mfcc/raw_mfcc_train.4.ark:2315532
mmvp0_sx347 quick_test/mfcc/raw_mfcc_train.3.ark:3303860
mtab0_sx132 quick_test/mfcc/raw_mfcc_train.4.ark:2354485
fljg0_si981 quick_test/mfcc/raw_mfcc_train.1.ark:2561177
mrab0_si594 quick_test/mfcc/raw_mfcc_train.4.ark:193532
fpmy0_sx163 quick_test/mfcc/raw_mfcc_train.1.ark:3444451
fjsk0_si1682 quick_test/mfcc/raw_mfcc_train.1.ark:1861049
mjde0_si490 quick_test/mfcc/raw_mfcc_train.3.ark:745024
mrwa0_sx73 quick_test/mfcc/raw_mfcc_train.4.ark:1642364
fskl0_si2159 quick_test/mfcc/raw_mfcc_train.2.ark:117362
mfrm0_si1717 quick_test/mfcc/raw_mfcc_train.2.ark:3464565
fhxs0_sx265 quick_test/mfcc/raw_mfcc_train.1.ark:1566597
mkjo0_sx167 quick_test/mfcc/raw_mfcc_train.3.ark:2123619
mmar0_sx436 quick_test/mfcc/raw_mfcc_train.3.ark:2736268
mgag0_si1321 quick_test/mfcc/raw_mfcc_train.2.ark:3612447
msjk0_sx66 quick_test/mfcc/raw_mfcc_train.4.ark:2100572
fsmm0_sx234 quick_test/mfcc/raw_mfcc_train.2.ark:258233
mlns0_si777 quick_test/mfcc/raw_mfcc_train.3.ark:2514481
mjde0_sx130 quick_test/mfcc/raw_mfcc_train.3.ark:751804
fetb0_si1148 quick_test/mfcc/raw_mfcc_train.1.ark:1294738
mdks0_si2326 quick_test/mfcc/raw_mfcc_train.2.ark:2385730
mrcg0_sx78 quick_test/mfcc/raw_mfcc_train.4.ark:412154
fdkn0_sx271 quick_test/mfcc/raw_mfcc_train.1.ark:929631
mrgm0_sx262 quick_test/mfcc/raw_mfcc_train.4.ark:756262
fpls0_si960 quick_test/mfcc/raw_mfcc_train.1.ark:3403595
mwem0_si1950 quick_test/mfcc/raw_mfcc_train.4.ark:3587398
mtju0_si2020 quick_test/mfcc/raw_mfcc_train.4.ark:2743873
mwac0_sx431 quick_test/mfcc/raw_mfcc_train.4.ark:3455252
mrld0_si964 quick_test/mfcc/raw_mfcc_train.4.ark:1065781
ftlg0_sx213 quick_test/mfcc/raw_mfcc_train.2.ark:522497
mjhi0_si1328 quick_test/mfcc/raw_mfcc_train.3.ark:1004127
mclm0_si826 quick_test/mfcc/raw_mfcc_train.2.ark:1751414
mmgc0_sx135 quick_test/mfcc/raw_mfcc_train.3.ark:3038104
makb0_sx26 quick_test/mfcc/raw_mfcc_train.2.ark:908186
mrai0_sx252 quick_test/mfcc/raw_mfcc_train.4.ark:268774
msmr0_sx235 quick_test/mfcc/raw_mfcc_train.4.ark:2154810
mwsb0_sx366 quick_test/mfcc/raw_mfcc_train.4.ark:3727995
mrjm1_sx398 quick_test/mfcc/raw_mfcc_train.4.ark:979443
fdnc0_sx18 quick_test/mfcc/raw_mfcc_train.1.ark:1039873
mhbs0_sx315 quick_test/mfcc/raw_mfcc_train.3.ark:318993
fbmj0_si1776 quick_test/mfcc/raw_mfcc_train.1.ark:374283
mtjg0_sx170 quick_test/mfcc/raw_mfcc_train.4.ark:2651333
mjmm0_si1255 quick_test/mfcc/raw_mfcc_train.3.ark:1324174
fjrp1_sx352 quick_test/mfcc/raw_mfcc_train.1.ark:1838452
mtmt0_sx308 quick_test/mfcc/raw_mfcc_train.4.ark:2996431
mjjj0_sx173 quick_test/mfcc/raw_mfcc_train.3.ark:1085214
mrmg0_sx450 quick_test/mfcc/raw_mfcc_train.4.ark:1261699
fnkl0_si1522 quick_test/mfcc/raw_mfcc_train.1.ark:3127498
mjai0_sx344 quick_test/mfcc/raw_mfcc_train.3.ark:633523
mtmn0_sx344 quick_test/mfcc/raw_mfcc_train.4.ark:2965824
mgaf0_si1912 quick_test/mfcc/raw_mfcc_train.2.ark:3589245
fdtd0_sx321 quick_test/mfcc/raw_mfcc_train.1.ark:1083053
mrdd0_sx60 quick_test/mfcc/raw_mfcc_train.4.ark:472199
fsjg0_sx310 quick_test/mfcc/raw_mfcc_train.1.ark:3852037
msds0_si2337 quick_test/mfcc/raw_mfcc_train.4.ark:1895437
mstf0_si1396 quick_test/mfcc/raw_mfcc_train.4.ark:2263961
mwdk0_sx86 quick_test/mfcc/raw_mfcc_train.4.ark:3576649
mppc0_si2042 quick_test/mfcc/raw_mfcc_train.3.ark:3749949
mjpg0_sx111 quick_test/mfcc/raw_mfcc_train.3.ark:1367816
msah1_si1049 quick_test/mfcc/raw_mfcc_train.4.ark:1707044
mljh0_si1324 quick_test/mfcc/raw_mfcc_train.3.ark:2464398
milb0_sx93 quick_test/mfcc/raw_mfcc_train.3.ark:541260
mjpm0_si738 quick_test/mfcc/raw_mfcc_train.3.ark:1392683
mrhl0_sx435 quick_test/mfcc/raw_mfcc_train.4.ark:833010
mtpr0_sx160 quick_test/mfcc/raw_mfcc_train.4.ark:3111630
mfer0_sx412 quick_test/mfcc/raw_mfcc_train.2.ark:3418570
mbbr0_si1055 quick_test/mfcc/raw_mfcc_train.2.ark:1069719
mtdp0_sx261 quick_test/mfcc/raw_mfcc_train.4.ark:2589022
mtpr0_si1600 quick_test/mfcc/raw_mfcc_train.4.ark:3098075
majp0_sx354 quick_test/mfcc/raw_mfcc_train.2.ark:866815
mtlb0_si1134 quick_test/mfcc/raw_mfcc_train.4.ark:2844157
mdlb0_sx136 quick_test/mfcc/raw_mfcc_train.2.ark:2427823
fjrb0_sx402 quick_test/mfcc/raw_mfcc_train.1.ark:1804225
mppc0_sx152 quick_test/mfcc/raw_mfcc_train.3.ark:3756242
mrlj1_sx321 quick_test/mfcc/raw_mfcc_train.4.ark:1132737
fmkf0_si1536 quick_test/mfcc/raw_mfcc_train.1.ark:3025367
mtat0_sx30 quick_test/mfcc/raw_mfcc_train.4.ark:2425826
fgcs0_si856 quick_test/mfcc/raw_mfcc_train.1.ark:1371841
mdcd0_sx65 quick_test/mfcc/raw_mfcc_train.2.ark:2119166
msdh0_sx170 quick_test/mfcc/raw_mfcc_train.4.ark:1860299
msem1_si810 quick_test/mfcc/raw_mfcc_train.4.ark:1933974
mtkd0_sx107 quick_test/mfcc/raw_mfcc_train.4.ark:2789907
fpjf0_sx352 quick_test/mfcc/raw_mfcc_train.1.ark:3387342
mhmr0_sx309 quick_test/mfcc/raw_mfcc_train.3.ark:439576
fcmg0_si1242 quick_test/mfcc/raw_mfcc_train.1.ark:660219
fkaa0_sx308 quick_test/mfcc/raw_mfcc_train.1.ark:2038149
fsms1_sx64 quick_test/mfcc/raw_mfcc_train.2.ark:306956
mtbc0_si1803 quick_test/mfcc/raw_mfcc_train.4.ark:2474156
mjjb0_si1769 quick_test/mfcc/raw_mfcc_train.3.ark:1044759
mrpc1_sx222 quick_test/mfcc/raw_mfcc_train.4.ark:1383011
mpsw0_si1697 quick_test/mfcc/raw_mfcc_train.4.ark:161813
mrld0_sx334 quick_test/mfcc/raw_mfcc_train.4.ark:1077021
mtas0_sx125 quick_test/mfcc/raw_mfcc_train.4.ark:2387367
fsms1_sx334 quick_test/mfcc/raw_mfcc_train.2.ark:298207
mjrg0_si1996 quick_test/mfcc/raw_mfcc_train.3.ark:1484536
mpgh0_si1554 quick_test/mfcc/raw_mfcc_train.3.ark:3599056
mmea0_sx308 quick_test/mfcc/raw_mfcc_train.3.ark:2985420
mrfl0_sx256 quick_test/mfcc/raw_mfcc_train.4.ark:719012
fsak0_si1930 quick_test/mfcc/raw_mfcc_train.1.ark:3633851
mclm0_sx196 quick_test/mfcc/raw_mfcc_train.2.ark:1761808
mrmh0_si1349 quick_test/mfcc/raw_mfcc_train.4.ark:1274877
fmkc0_sx442 quick_test/mfcc/raw_mfcc_train.1.ark:3011409
ftbw0_sx355 quick_test/mfcc/raw_mfcc_train.2.ark:492002
mdac0_si1261 quick_test/mfcc/raw_mfcc_train.2.ark:1962254
mbom0_si1014 quick_test/mfcc/raw_mfcc_train.2.ark:1316226
mdwm0_sx106 quick_test/mfcc/raw_mfcc_train.2.ark:3105035
fjkl0_si1562 quick_test/mfcc/raw_mfcc_train.1.ark:1685801
mjpm0_sx18 quick_test/mfcc/raw_mfcc_train.3.ark:1399781
mjrk0_si1662 quick_test/mfcc/raw_mfcc_train.3.ark:1577312
mmdm1_sx243 quick_test/mfcc/raw_mfcc_train.3.ark:2923861
fkaa0_sx398 quick_test/mfcc/raw_mfcc_train.1.ark:2047847
fdas1_sx21 quick_test/mfcc/raw_mfcc_train.1.ark:807934
mfxs0_sx414 quick_test/mfcc/raw_mfcc_train.2.ark:3544224
mdps0_si1651 quick_test/mfcc/raw_mfcc_train.2.ark:2841371
mbjv0_si617 quick_test/mfcc/raw_mfcc_train.2.ark:1198415
mtmn0_si1064 quick_test/mfcc/raw_mfcc_train.4.ark:2941179
mrws0_sx202 quick_test/mfcc/raw_mfcc_train.4.ark:1661043
fmah1_si879 quick_test/mfcc/raw_mfcc_train.1.ark:2791210
fsdj0_si485 quick_test/mfcc/raw_mfcc_train.1.ark:3773070
flja0_sx268 quick_test/mfcc/raw_mfcc_train.1.ark:2503942
mrjm1_sx128 quick_test/mfcc/raw_mfcc_train.4.ark:963790
mwrp0_si1525 quick_test/mfcc/raw_mfcc_train.4.ark:3683932
mdss0_si1881 quick_test/mfcc/raw_mfcc_train.2.ark:2940563
mbth0_si505 quick_test/mfcc/raw_mfcc_train.2.ark:1375068
mnet0_sx186 quick_test/mfcc/raw_mfcc_train.3.ark:3455924
mejl0_sx332 quick_test/mfcc/raw_mfcc_train.2.ark:3265946
fbcg1_sx262 quick_test/mfcc/raw_mfcc_train.1.ark:221576
mkdd0_sx127 quick_test/mfcc/raw_mfcc_train.3.ark:2028718
mmgk0_sx422 quick_test/mfcc/raw_mfcc_train.3.ark:3105723
msat1_sx443 quick_test/mfcc/raw_mfcc_train.4.ark:1819606
mrre0_si704 quick_test/mfcc/raw_mfcc_train.4.ark:1404808
mrtc0_sx18 quick_test/mfcc/raw_mfcc_train.4.ark:1528617
fapb0_sx343 quick_test/mfcc/raw_mfcc_train.1.ark:156585
fdnc0_sx198 quick_test/mfcc/raw_mfcc_train.1.ark:1044157
mdlr1_sx39 quick_test/mfcc/raw_mfcc_train.2.ark:2670250
ftaj0_sx429 quick_test/mfcc/raw_mfcc_train.2.ark:431783
mdbp0_si1788 quick_test/mfcc/raw_mfcc_train.2.ark:2058046
fjxp0_sx222 quick_test/mfcc/raw_mfcc_train.1.ark:2002400
msem1_sx270 quick_test/mfcc/raw_mfcc_train.4.ark:1948067
mrms0_sx30 quick_test/mfcc/raw_mfcc_train.4.ark:1361756
mjeb1_si837 quick_test/mfcc/raw_mfcc_train.3.ark:886459
falk0_sx96 quick_test/mfcc/raw_mfcc_train.1.ark:97372
fgrw0_si1782 quick_test/mfcc/raw_mfcc_train.1.ark:1476954
fjhk0_sx392 quick_test/mfcc/raw_mfcc_train.1.ark:1681932
fgcs0_si2116 quick_test/mfcc/raw_mfcc_train.1.ark:1368012
mrws0_sx382 quick_test/mfcc/raw_mfcc_train.4.ark:1670137
mdlh0_si1960 quick_test/mfcc/raw_mfcc_train.2.ark:2546564
mmvp0_sx114 quick_test/mfcc/raw_mfcc_train.3.ark:3291931
mkam0_sx236 quick_test/mfcc/raw_mfcc_train.3.ark:1964366
mfxv0_sx15 quick_test/mfcc/raw_mfcc_train.2.ark:3569994
fcmg0_sx432 quick_test/mfcc/raw_mfcc_train.1.ark:679482
mfer0_sx142 quick_test/mfcc/raw_mfcc_train.2.ark:3407343
mtpg0_sx393 quick_test/mfcc/raw_mfcc_train.4.ark:3064600
mjra0_si1236 quick_test/mfcc/raw_mfcc_train.3.ark:1447980
mjeb0_sx386 quick_test/mfcc/raw_mfcc_train.3.ark:872409
mrws0_si1102 quick_test/mfcc/raw_mfcc_train.4.ark:1645687
fpab1_sx391 quick_test/mfcc/raw_mfcc_train.1.ark:3224107
mmgg0_sx269 quick_test/mfcc/raw_mfcc_train.3.ark:3071514
ftaj0_si474 quick_test/mfcc/raw_mfcc_train.2.ark:415524
mrmh0_sx211 quick_test/mfcc/raw_mfcc_train.4.ark:1287639
mgar0_si1212 quick_test/mfcc/raw_mfcc_train.3.ark:13
mcew0_sx272 quick_test/mfcc/raw_mfcc_train.2.ark:1656967
mrfl0_sx436 quick_test/mfcc/raw_mfcc_train.4.ark:727879
mlsh0_sx67 quick_test/mfcc/raw_mfcc_train.3.ark:2565649
mcew0_sx182 quick_test/mfcc/raw_mfcc_train.2.ark:1653138
mjxa0_si1507 quick_test/mfcc/raw_mfcc_train.3.ark:1785354
mejl0_sx242 quick_test/mfcc/raw_mfcc_train.2.ark:3262286
mmwb0_sx359 quick_test/mfcc/raw_mfcc_train.3.ark:3340012
mrds0_sx177 quick_test/mfcc/raw_mfcc_train.4.ark:520165
mmcc0_sx348 quick_test/mfcc/raw_mfcc_train.3.ark:2800153
mjpg0_sx381 quick_test/mfcc/raw_mfcc_train.3.ark:1379088
fnkl0_sx442 quick_test/mfcc/raw_mfcc_train.1.ark:3150902
mtju0_sx40 quick_test/mfcc/raw_mfcc_train.4.ark:2767133
fpac0_sx121 quick_test/mfcc/raw_mfcc_train.1.ark:3243091
mprt0_sx220 quick_test/mfcc/raw_mfcc_train.4.ark:143889
mjdc0_si531 quick_test/mfcc/raw_mfcc_train.3.ark:709582
falr0_si695 quick_test/mfcc/raw_mfcc_train.1.ark:109381
fhxs0_si2335 quick_test/mfcc/raw_mfcc_train.1.ark:1556820
msjk0_si2226 quick_test/mfcc/raw_mfcc_train.4.ark:2075740
mrre0_sx74 quick_test/mfcc/raw_mfcc_train.4.ark:1432045
megj0_sx257 quick_test/mfcc/raw_mfcc_train.2.ark:3234450
mjeb0_si656 quick_test/mfcc/raw_mfcc_train.3.ark:852186
fcrz0_sx433 quick_test/mfcc/raw_mfcc_train.1.ark:742282
frll0_si884 quick_test/mfcc/raw_mfcc_train.1.ark:3532183
mmab1_si2124 quick_test/mfcc/raw_mfcc_train.3.ark:2606997
mrkm0_si1267 quick_test/mfcc/raw_mfcc_train.4.ark:1017416
fpad0_sx86 quick_test/mfcc/raw_mfcc_train.1.ark:3294343
mdlr1_si1299 quick_test/mfcc/raw_mfcc_train.2.ark:2643493
fjxp0_si1122 quick_test/mfcc/raw_mfcc_train.1.ark:1987460
mdpb0_sx326 quick_test/mfcc/raw_mfcc_train.2.ark:2801591
mtjm0_sx326 quick_test/mfcc/raw_mfcc_train.4.ark:2694954
mlbc0_si1869 quick_test/mfcc/raw_mfcc_train.3.ark:2369205
fgdp0_si988 quick_test/mfcc/raw_mfcc_train.1.ark:1402058
mjwg0_si895 quick_test/mfcc/raw_mfcc_train.3.ark:1686723
mbbr0_sx155 quick_test/mfcc/raw_mfcc_train.2.ark:1081676
flkm0_si686 quick_test/mfcc/raw_mfcc_train.1.ark:2603418
mtpf0_sx335 quick_test/mfcc/raw_mfcc_train.4.ark:3028286
fhlm0_sx390 quick_test/mfcc/raw_mfcc_train.1.ark:1537062
fcag0_sx153 quick_test/mfcc/raw_mfcc_train.1.ark:418679
mrfk0_sx176 quick_test/mfcc/raw_mfcc_train.4.ark:680949
mrtj0_sx322 quick_test/mfcc/raw_mfcc_train.4.ark:1572557
flmk0_sx405 quick_test/mfcc/raw_mfcc_train.1.ark:2714222
mwgr0_si976 quick_test/mfcc/raw_mfcc_train.4.ark:3620865
mkes0_sx173 quick_test/mfcc/raw_mfcc_train.3.ark:2092674
mjmm0_si625 quick_test/mfcc/raw_mfcc_train.3.ark:1332626
mrjm1_si1928 quick_test/mfcc/raw_mfcc_train.4.ark:956041
faem0_sx42 quick_test/mfcc/raw_mfcc_train.1.ark:29767
ftbr0_sx21 quick_test/mfcc/raw_mfcc_train.2.ark:460315
fkde0_si2221 quick_test/mfcc/raw_mfcc_train.1.ark:2065265
mhbs0_sx405 quick_test/mfcc/raw_mfcc_train.3.ark:322315
marc0_si1188 quick_test/mfcc/raw_mfcc_train.2.ark:978002
mrtc0_sx288 quick_test/mfcc/raw_mfcc_train.4.ark:1536197
fdtd0_sx121 quick_test/mfcc/raw_mfcc_train.1.ark:1069668
flmk0_sx135 quick_test/mfcc/raw_mfcc_train.1.ark:2702553
flkm0_sx80 quick_test/mfcc/raw_mfcc_train.1.ark:2625604
flac0_sx271 quick_test/mfcc/raw_mfcc_train.1.ark:2340322
mdlb0_sx46 quick_test/mfcc/raw_mfcc_train.2.ark:2448572
fkdw0_sx37 quick_test/mfcc/raw_mfcc_train.1.ark:2113618
mrjt0_sx58 quick_test/mfcc/raw_mfcc_train.4.ark:1012026
mbef0_sx291 quick_test/mfcc/raw_mfcc_train.2.ark:1151333
mbjv0_si1877 quick_test/mfcc/raw_mfcc_train.2.ark:1195353
mdlm0_sx244 quick_test/mfcc/raw_mfcc_train.2.ark:2596634
fhlm0_sx349 quick_test/mfcc/raw_mfcc_train.1.ark:1531023
mfwk0_sx79 quick_test/mfcc/raw_mfcc_train.2.ark:3518107
fexm0_sx201 quick_test/mfcc/raw_mfcc_train.1.ark:1345173
mmsm0_sx296 quick_test/mfcc/raw_mfcc_train.3.ark:3268065
mmsm0_sx116 quick_test/mfcc/raw_mfcc_train.3.ark:3256748
mtcs0_sx352 quick_test/mfcc/raw_mfcc_train.4.ark:2522575
