fetb0_si1778 quick_test/fbank/raw_fbank_train.1.ark:3972865
mdrd0_sx302 quick_test/fbank/raw_fbank_train.2.ark:8858136
mlel0_sx436 quick_test/fbank/raw_fbank_train.3.ark:7416260
megj0_sx437 quick_test/fbank/raw_fbank_train.2.ark:9911882
mdlm0_sx424 quick_test/fbank/raw_fbank_train.2.ark:7962503
medr0_sx294 quick_test/fbank/raw_fbank_train.2.ark:9708675
fpaf0_sx244 quick_test/fbank/raw_fbank_train.1.ark:10145929
mcal0_si1138 quick_test/fbank/raw_fbank_train.2.ark:4523335
mklr0_sx249 quick_test/fbank/raw_fbank_train.3.ark:6694257
mjrk0_si880 quick_test/fbank/raw_fbank_train.3.ark:4840223
mjrh1_sx334 quick_test/fbank/raw_fbank_train.3.ark:4795337
mrpc1_sx222 quick_test/fbank/raw_fbank_train.4.ark:4232267
mprd0_si801 quick_test/fbank/raw_fbank_train.4.ark:188756
msat0_sx356 quick_test/fbank/raw_fbank_train.4.ark:5466801
mmcc0_si708 quick_test/fbank/raw_fbank_train.3.ark:8537044
mbjv0_sx257 quick_test/fbank/raw_fbank_train.2.ark:3692806
mjdm0_sx350 quick_test/fbank/raw_fbank_train.3.ark:2539959
mmxs0_sx156 quick_test/fbank/raw_fbank_train.3.ark:10479576
mwar0_sx235 quick_test/fbank/raw_fbank_train.4.ark:10728952
mdas0_sx21 quick_test/fbank/raw_fbank_train.2.ark:6159267
mmvp0_sx347 quick_test/fbank/raw_fbank_train.3.ark:10109696
mjrg0_si1366 quick_test/fbank/raw_fbank_train.3.ark:4529000
mhit0_sx263 quick_test/fbank/raw_fbank_train.3.ark:1060752
mdef0_sx303 quick_test/fbank/raw_fbank_train.2.ark:6850275
mjac0_si1331 quick_test/fbank/raw_fbank_train.3.ark:1664231
mclm0_si826 quick_test/fbank/raw_fbank_train.2.ark:5358803
fvmh0_si836 quick_test/fbank/raw_fbank_train.2.ark:1955767
ftlg0_sx393 quick_test/fbank/raw_fbank_train.2.ark:1630390
mdlc0_sx225 quick_test/fbank/raw_fbank_train.2.ark:7563297
mfmc0_sx412 quick_test/fbank/raw_fbank_train.2.ark:10559415
mjdg0_sx142 quick_test/fbank/raw_fbank_train.3.ark:2414628
mjrp0_si1845 quick_test/fbank/raw_fbank_train.3.ark:4923295
falr0_si695 quick_test/fbank/raw_fbank_train.1.ark:334750
mrkm0_sx277 quick_test/fbank/raw_fbank_train.4.ark:3183949
mkls1_si1545 quick_test/fbank/raw_fbank_train.3.ark:6845655
mpar0_si2206 quick_test/fbank/raw_fbank_train.3.ark:10740944
mpgr0_sx330 quick_test/fbank/raw_fbank_train.3.ark:11149855
mvlo0_si517 quick_test/fbank/raw_fbank_train.4.ark:10320984
mwem0_si1950 quick_test/fbank/raw_fbank_train.4.ark:10978243
mrcg0_si798 quick_test/fbank/raw_fbank_train.4.ark:1185287
fcke0_sx301 quick_test/fbank/raw_fbank_train.1.ark:1878146
mjkr0_si1201 quick_test/fbank/raw_fbank_train.3.ark:3485123
mrjm1_sx128 quick_test/fbank/raw_fbank_train.4.ark:2949586
mrjb1_si2021 quick_test/fbank/raw_fbank_train.4.ark:2608238
fgdp0_si2248 quick_test/fbank/raw_fbank_train.1.ark:4277341
mjac0_sx307 quick_test/fbank/raw_fbank_train.3.ark:1719284
msem1_sx180 quick_test/fbank/raw_fbank_train.4.ark:5946063
fksr0_si487 quick_test/fbank/raw_fbank_train.1.ark:7041473
mmdb0_sx267 quick_test/fbank/raw_fbank_train.3.ark:8652975
mrpc1_sx132 quick_test/fbank/raw_fbank_train.4.ark:4223194
mejs0_sx70 quick_test/fbank/raw_fbank_train.2.ark:10120924
fcmm0_si453 quick_test/fbank/raw_fbank_train.1.ark:2135483
fscn0_sx266 quick_test/fbank/raw_fbank_train.1.ark:11374867
mrkm0_si1267 quick_test/fbank/raw_fbank_train.4.ark:3113696
fbmh0_sx146 quick_test/fbank/raw_fbank_train.1.ark:1094240
mchl0_sx87 quick_test/fbank/raw_fbank_train.2.ark:5221957
flhd0_sx444 quick_test/fbank/raw_fbank_train.1.ark:7584132
mjeb1_sx27 quick_test/fbank/raw_fbank_train.3.ark:2752568
mdhl0_sx359 quick_test/fbank/raw_fbank_train.2.ark:7056644
mpeb0_si1860 quick_test/fbank/raw_fbank_train.3.ark:10825569
mpar0_si1576 quick_test/fbank/raw_fbank_train.3.ark:10734870
mhjb0_si1647 quick_test/fbank/raw_fbank_train.3.ark:1114998
mgsl0_sx444 quick_test/fbank/raw_fbank_train.3.ark:779666
mfwk0_sx79 quick_test/fbank/raw_fbank_train.2.ark:10764178
mtbc0_si1173 quick_test/fbank/raw_fbank_train.4.ark:7565721
mzmb0_si1166 quick_test/fbank/raw_fbank_train.4.ark:11558724
mrjm1_si1298 quick_test/fbank/raw_fbank_train.4.ark:2909966
mtwh1_sx72 quick_test/fbank/raw_fbank_train.4.ark:10081832
mtat0_si811 quick_test/fbank/raw_fbank_train.4.ark:7385138
mjra0_sx156 quick_test/fbank/raw_fbank_train.3.ark:4467115
mcef0_sx325 quick_test/fbank/raw_fbank_train.2.ark:4974081
fdfb0_si1318 quick_test/fbank/raw_fbank_train.1.ark:2607582
fskc0_si786 quick_test/fbank/raw_fbank_train.2.ark:280901
mmwb0_si989 quick_test/fbank/raw_fbank_train.3.ark:10178150
fklh0_sx447 quick_test/fbank/raw_fbank_train.1.ark:6995180
fjkl0_sx122 quick_test/fbank/raw_fbank_train.1.ark:5191453
flod0_sx387 quick_test/fbank/raw_fbank_train.1.ark:8408806
mjmm0_si625 quick_test/fbank/raw_fbank_train.3.ark:4077662
mrlr0_sx296 quick_test/fbank/raw_fbank_train.4.ark:3674658
mtju0_si2020 quick_test/fbank/raw_fbank_train.4.ark:8397241
fntb0_si573 quick_test/fbank/raw_fbank_train.1.ark:9679329
mprk0_sx287 quick_test/fbank/raw_fbank_train.4.ark:366032
mpmb0_si871 quick_test/fbank/raw_fbank_train.3.ark:11337607
mdhl0_sx269 quick_test/fbank/raw_fbank_train.2.ark:7048731
fjsp0_sx444 quick_test/fbank/raw_fbank_train.1.ark:5850824
makr0_si1982 quick_test/fbank/raw_fbank_train.2.ark:2819042
mdpb0_sx236 quick_test/fbank/raw_fbank_train.2.ark:8560908
mrbc0_sx239 quick_test/fbank/raw_fbank_train.4.ark:1106008
mrcg0_sx78 quick_test/fbank/raw_fbank_train.4.ark:1261331
ftbr0_si1402 quick_test/fbank/raw_fbank_train.2.ark:1340710
mfwk0_sx349 quick_test/fbank/raw_fbank_train.2.ark:10733113
mkam0_sx146 quick_test/fbank/raw_fbank_train.3.ark:6000610
mlsh0_si787 quick_test/fbank/raw_fbank_train.3.ark:7789148
fdml0_si2075 quick_test/fbank/raw_fbank_train.1.ark:2925927
fcdr1_sx196 quick_test/fbank/raw_fbank_train.1.ark:1519805
msat1_sx443 quick_test/fbank/raw_fbank_train.4.ark:5568340
mrmb0_sx321 quick_test/fbank/raw_fbank_train.4.ark:3751251
ftlg0_sx33 quick_test/fbank/raw_fbank_train.2.ark:1619997
fjdm2_sx412 quick_test/fbank/raw_fbank_train.1.ark:4920795
mkdb0_sx332 quick_test/fbank/raw_fbank_train.3.ark:6116180
fecd0_sx68 quick_test/fbank/raw_fbank_train.1.ark:3739507
mdem0_sx428 quick_test/fbank/raw_fbank_train.2.ark:6968132
mjae0_sx84 quick_test/fbank/raw_fbank_train.3.ark:1851648
mjjj0_si1793 quick_test/fbank/raw_fbank_train.3.ark:3296307
fcrz0_sx433 quick_test/fbank/raw_fbank_train.1.ark:2271400
mcpm0_si1824 quick_test/fbank/raw_fbank_train.2.ark:5432795
maeb0_sx180 quick_test/fbank/raw_fbank_train.2.ark:2347740
mrre0_sx254 quick_test/fbank/raw_fbank_train.4.ark:4348771
mdsj0_sx112 quick_test/fbank/raw_fbank_train.2.ark:8934055
mjpm1_si2280 quick_test/fbank/raw_fbank_train.3.ark:4338264
maeb0_sx360 quick_test/fbank/raw_fbank_train.2.ark:2369566
mrai0_sx162 quick_test/fbank/raw_fbank_train.4.ark:809738
mjrg0_sx286 quick_test/fbank/raw_fbank_train.3.ark:4584765
mhrm0_sx238 quick_test/fbank/raw_fbank_train.3.ark:1420813
mjee0_si607 quick_test/fbank/raw_fbank_train.3.ark:2811095
fceg0_sx78 quick_test/fbank/raw_fbank_train.1.ark:1635896
mtpf0_sx335 quick_test/fbank/raw_fbank_train.4.ark:9267608
mdef0_si1563 quick_test/fbank/raw_fbank_train.2.ark:6807502
mtxs0_sx340 quick_test/fbank/raw_fbank_train.4.ark:10164473
fntb0_sx393 quick_test/fbank/raw_fbank_train.1.ark:9752766
fetb0_sx248 quick_test/fbank/raw_fbank_train.1.ark:4010684
mejl0_sx242 quick_test/fbank/raw_fbank_train.2.ark:9981641
msmr0_si1405 quick_test/fbank/raw_fbank_train.4.ark:6560987
mrkm0_sx187 quick_test/fbank/raw_fbank_train.4.ark:3173556
mges0_sx401 quick_test/fbank/raw_fbank_train.3.ark:254383
mtmn0_sx74 quick_test/fbank/raw_fbank_train.4.ark:9096343
mjwg0_sx265 quick_test/fbank/raw_fbank_train.3.ark:5202243
mmvp0_sx294 quick_test/fbank/raw_fbank_train.3.ark:10097863
fbjl0_sx202 quick_test/fbank/raw_fbank_train.1.ark:894582
fnkl0_sx262 quick_test/fbank/raw_fbank_train.1.ark:9632677
fsak0_sx40 quick_test/fbank/raw_fbank_train.1.ark:11176562
fdxw0_sx71 quick_test/fbank/raw_fbank_train.1.ark:3421512
mjpm0_sx108 quick_test/fbank/raw_fbank_train.3.ark:4272785
ftlg0_si1743 quick_test/fbank/raw_fbank_train.2.ark:1535880
mdhs0_sx360 quick_test/fbank/raw_fbank_train.2.ark:7155989
mpgh0_si1554 quick_test/fbank/raw_fbank_train.3.ark:11012905
mvjh0_si2186 quick_test/fbank/raw_fbank_train.4.ark:10223766
mjsr0_sx74 quick_test/fbank/raw_fbank_train.3.ark:5116117
fmah1_si879 quick_test/fbank/raw_fbank_train.1.ark:8542453
mfrm0_sx345 quick_test/fbank/raw_fbank_train.2.ark:10644408
fssb0_si1712 quick_test/fbank/raw_fbank_train.2.ark:1170054
mmrp0_sx324 quick_test/fbank/raw_fbank_train.3.ark:9871013
fcag0_si1503 quick_test/fbank/raw_fbank_train.1.ark:1257109
fsgf0_sx297 quick_test/fbank/raw_fbank_train.1.ark:11683568
fdkn0_si1081 quick_test/fbank/raw_fbank_train.1.ark:2787113
msms0_sx443 quick_test/fbank/raw_fbank_train.4.ark:6714657
mdbb1_sx196 quick_test/fbank/raw_fbank_train.2.ark:6254363
fmju0_si1389 quick_test/fbank/raw_fbank_train.1.ark:9035709
mprt0_sx310 quick_test/fbank/raw_fbank_train.4.ark:454184
mtxs0_si1060 quick_test/fbank/raw_fbank_train.4.ark:10089186
mpgr1_sx329 quick_test/fbank/raw_fbank_train.3.ark:11251521
fmju0_sx309 quick_test/fbank/raw_fbank_train.1.ark:9102195
fdml0_sx69 quick_test/fbank/raw_fbank_train.1.ark:2974451
mmgg0_sx359 quick_test/fbank/raw_fbank_train.3.ark:9407528
mnet0_sx186 quick_test/fbank/raw_fbank_train.3.ark:10575041
fnkl0_sx172 quick_test/fbank/raw_fbank_train.1.ark:9611891
fapb0_si1063 quick_test/fbank/raw_fbank_train.1.ark:403268
mjsr0_sx344 quick_test/fbank/raw_fbank_train.3.ark:5090252
fcyl0_sx217 quick_test/fbank/raw_fbank_train.1.ark:2348999
mjdg0_si1672 quick_test/fbank/raw_fbank_train.3.ark:2389601
mmdm0_si1311 quick_test/fbank/raw_fbank_train.3.ark:8801212
fkkh0_si660 quick_test/fbank/raw_fbank_train.1.ark:6647932
mjfh0_si1107 quick_test/fbank/raw_fbank_train.3.ark:2884253
mmaa0_sx215 quick_test/fbank/raw_fbank_train.3.ark:7924039
mwac0_sx251 quick_test/fbank/raw_fbank_train.4.ark:10542300
mrmg0_sx90 quick_test/fbank/raw_fbank_train.4.ark:3876542
mrai0_sx72 quick_test/fbank/raw_fbank_train.4.ark:864389
fjhk0_si1652 quick_test/fbank/raw_fbank_train.1.ark:5071801
mdcd0_sx155 quick_test/fbank/raw_fbank_train.2.ark:6435308
mesj0_sx187 quick_test/fbank/raw_fbank_train.2.ark:10266763
mtpp0_si2138 quick_test/fbank/raw_fbank_train.4.ark:9405806
mree0_sx204 quick_test/fbank/raw_fbank_train.4.ark:1703960
fleh0_si1051 quick_test/fbank/raw_fbank_train.1.ark:7321801
mgak0_sx46 quick_test/fbank/raw_fbank_train.2.ark:11244145
mjee0_sx337 quick_test/fbank/raw_fbank_train.3.ark:2844674
msrg0_sx231 quick_test/fbank/raw_fbank_train.4.ark:6786896
mmaa0_sx35 quick_test/fbank/raw_fbank_train.3.ark:7948704
mgar0_sx402 quick_test/fbank/raw_fbank_train.3.ark:76853
mdss0_sx261 quick_test/fbank/raw_fbank_train.2.ark:9038073
mfxv0_sx195 quick_test/fbank/raw_fbank_train.2.ark:10933004
fvkb0_si1789 quick_test/fbank/raw_fbank_train.2.ark:1835469
mtwh1_sx432 quick_test/fbank/raw_fbank_train.4.ark:10067600
fkfb0_sx258 quick_test/fbank/raw_fbank_train.1.ark:6543813
fmjf0_si1254 quick_test/fbank/raw_fbank_train.1.ark:8929764
fljg0_si1611 quick_test/fbank/raw_fbank_train.1.ark:7815489
mwdk0_si806 quick_test/fbank/raw_fbank_train.4.ark:10882937
fcmg0_si1142 quick_test/fbank/raw_fbank_train.1.ark:2000270
mvrw0_sx135 quick_test/fbank/raw_fbank_train.4.ark:10434242
fsls0_sx156 quick_test/fbank/raw_fbank_train.2.ark:581650
mrkm0_si1391 quick_test/fbank/raw_fbank_train.4.ark:3132210
fear0_sx172 quick_test/fbank/raw_fbank_train.1.ark:3564631
msds0_sx267 quick_test/fbank/raw_fbank_train.4.ark:5824111
mbom0_sx204 quick_test/fbank/raw_fbank_train.2.ark:4070147
mbwp0_sx169 quick_test/fbank/raw_fbank_train.2.ark:4323427
mdwm0_sx16 quick_test/fbank/raw_fbank_train.2.ark:9510958
mjra0_si606 quick_test/fbank/raw_fbank_train.3.ark:4456042
mcal0_sx328 quick_test/fbank/raw_fbank_train.2.ark:4574901
msds0_si2337 quick_test/fbank/raw_fbank_train.4.ark:5800285
msdh0_si2113 quick_test/fbank/raw_fbank_train.4.ark:5663032
mdsj0_si2092 quick_test/fbank/raw_fbank_train.2.ark:8914149
majp0_sx264 quick_test/fbank/raw_fbank_train.2.ark:2638810
fsmm0_sx234 quick_test/fbank/raw_fbank_train.2.ark:790133
mdsj0_si1462 quick_test/fbank/raw_fbank_train.2.ark:8896395
mkln0_si968 quick_test/fbank/raw_fbank_train.3.ark:6578405
mjma0_sx55 quick_test/fbank/raw_fbank_train.3.ark:3954015
mtxs0_si2320 quick_test/fbank/raw_fbank_train.4.ark:10115494
mbar0_si1949 quick_test/fbank/raw_fbank_train.2.ark:3191702
mkes0_sx443 quick_test/fbank/raw_fbank_train.3.ark:6443727
mrlj0_si2050 quick_test/fbank/raw_fbank_train.4.ark:3337498
mjmd0_si1658 quick_test/fbank/raw_fbank_train.3.ark:3975083
fsma0_sx91 quick_test/fbank/raw_fbank_train.2.ark:733726
fgmb0_si1775 quick_test/fbank/raw_fbank_train.1.ark:4403806
fjen0_si1677 quick_test/fbank/raw_fbank_train.1.ark:4958175
mpfu0_sx448 quick_test/fbank/raw_fbank_train.3.ark:10983599
mrhl0_si885 quick_test/fbank/raw_fbank_train.4.ark:2502972
fsag0_si1323 quick_test/fbank/raw_fbank_train.1.ark:10878274
mwac0_sx71 quick_test/fbank/raw_fbank_train.4.ark:10590478
mgxp0_si1087 quick_test/fbank/raw_fbank_train.3.ark:808732
fkfb0_sx78 quick_test/fbank/raw_fbank_train.1.ark:6598711
mjrg0_si736 quick_test/fbank/raw_fbank_train.3.ark:4548347
mbar0_sx239 quick_test/fbank/raw_fbank_train.2.ark:3226521
flkm0_sx350 quick_test/fbank/raw_fbank_train.1.ark:7999999
ftbr0_sx201 quick_test/fbank/raw_fbank_train.2.ark:1396323
fksr0_sx217 quick_test/fbank/raw_fbank_train.1.ark:7068619
mewm0_si1348 quick_test/fbank/raw_fbank_train.2.ark:10310406
fklc0_sx265 quick_test/fbank/raw_fbank_train.1.ark:6772263
ftlg0_si483 quick_test/fbank/raw_fbank_train.2.ark:1554953
mdtb0_sx120 quick_test/fbank/raw_fbank_train.2.ark:9197370
mjrk0_sx250 quick_test/fbank/raw_fbank_train.3.ark:4873089
mjkr0_sx391 quick_test/fbank/raw_fbank_train.3.ark:3577274
mtwh1_sx342 quick_test/fbank/raw_fbank_train.4.ark:10056967
mwem0_sx60 quick_test/fbank/raw_fbank_train.4.ark:11045687
mwre0_si1057 quick_test/fbank/raw_fbank_train.4.ark:11155506
mvlo0_sx157 quick_test/fbank/raw_fbank_train.4.ark:10338897
fblv0_sx338 quick_test/fbank/raw_fbank_train.1.ark:1009361
fskc0_sx66 quick_test/fbank/raw_fbank_train.2.ark:336705
fpac0_sx31 quick_test/fbank/raw_fbank_train.1.ark:9965503
mhxl0_sx152 quick_test/fbank/raw_fbank_train.3.ark:1506084
fsbk0_sx259 quick_test/fbank/raw_fbank_train.1.ark:11243963
fsdc0_sx142 quick_test/fbank/raw_fbank_train.1.ark:11461660
mklr0_sx69 quick_test/fbank/raw_fbank_train.3.ark:6726115
fnkl0_sx196 quick_test/fbank/raw_fbank_train.1.ark:9625124
mjai0_sx74 quick_test/fbank/raw_fbank_train.3.ark:1957352
fbmj0_sx426 quick_test/fbank/raw_fbank_train.1.ark:1232523
mwsh0_sx166 quick_test/fbank/raw_fbank_train.4.ark:11488239
flet0_sx277 quick_test/fbank/raw_fbank_train.1.ark:7484313
mmws1_sx81 quick_test/fbank/raw_fbank_train.3.ark:10436083
fcaj0_si1804 quick_test/fbank/raw_fbank_train.1.ark:1352489
mwrp0_sx183 quick_test/fbank/raw_fbank_train.4.ark:11299673
fjwb1_si2055 quick_test/fbank/raw_fbank_train.1.ark:5876770
msdb0_sx377 quick_test/fbank/raw_fbank_train.4.ark:5653638
mrmb0_sx411 quick_test/fbank/raw_fbank_train.4.ark:3765324
mdcm0_sx310 quick_test/fbank/raw_fbank_train.2.ark:6558719
fcaj0_sx309 quick_test/fbank/raw_fbank_train.1.ark:1399221
mrms0_sx390 quick_test/fbank/raw_fbank_train.4.ark:4183019
mljc0_sx235 quick_test/fbank/raw_fbank_train.3.ark:7495619
mrew1_sx150 quick_test/fbank/raw_fbank_train.4.ark:1987841
mwar0_si2305 quick_test/fbank/raw_fbank_train.4.ark:10708166
mrhl0_sx255 quick_test/fbank/raw_fbank_train.4.ark:2529078
mrso0_sx399 quick_test/fbank/raw_fbank_train.4.ark:4502695
mrcg0_si1428 quick_test/fbank/raw_fbank_train.4.ark:1154820
msds0_si1707 quick_test/fbank/raw_fbank_train.4.ark:5786291
fceg0_si618 quick_test/fbank/raw_fbank_train.1.ark:1580492
fjsk0_si2312 quick_test/fbank/raw_fbank_train.1.ark:5706907
mbcg0_sx57 quick_test/fbank/raw_fbank_train.2.ark:3448149
mapv0_si1293 quick_test/fbank/raw_fbank_train.2.ark:2884713
mdlr1_sx219 quick_test/fbank/raw_fbank_train.2.ark:8142487
mkdb0_si872 quick_test/fbank/raw_fbank_train.3.ark:6078961
mjrh1_sx154 quick_test/fbank/raw_fbank_train.3.ark:4770031
mrhl0_si1515 quick_test/fbank/raw_fbank_train.4.ark:2482145
marw0_si1276 quick_test/fbank/raw_fbank_train.2.ark:3072083
mkdd0_sx307 quick_test/fbank/raw_fbank_train.3.ark:6223285
flma0_sx163 quick_test/fbank/raw_fbank_train.1.ark:8081398
mpgr1_sx419 quick_test/fbank/raw_fbank_train.3.ark:11266394
mses0_sx149 quick_test/fbank/raw_fbank_train.4.ark:6046929
mrlr0_sx26 quick_test/fbank/raw_fbank_train.4.ark:3664665
mfwk0_sx439 quick_test/fbank/raw_fbank_train.2.ark:10750346
fntb0_si1203 quick_test/fbank/raw_fbank_train.1.ark:9669336
mwsh0_sx436 quick_test/fbank/raw_fbank_train.4.ark:11533378
mmlm0_sx357 quick_test/fbank/raw_fbank_train.3.ark:9681723
mjhi0_sx428 quick_test/fbank/raw_fbank_train.3.ark:3146141
mgaf0_si652 quick_test/fbank/raw_fbank_train.2.ark:10997211
mdlc2_sx444 quick_test/fbank/raw_fbank_train.2.ark:7768734
mkls1_si915 quick_test/fbank/raw_fbank_train.3.ark:6868242
fsjs0_sx271 quick_test/fbank/raw_fbank_train.2.ark:99277
mtbc0_sx347 quick_test/fbank/raw_fbank_train.4.ark:7623687
mrmg0_si1080 quick_test/fbank/raw_fbank_train.4.ark:3787790
mwgr0_sx76 quick_test/fbank/raw_fbank_train.4.ark:11143952
fjlg0_sx359 quick_test/fbank/raw_fbank_train.1.ark:5310185
mjee0_sx247 quick_test/fbank/raw_fbank_train.3.ark:2829761
ftmg0_si2162 quick_test/fbank/raw_fbank_train.2.ark:1648458
mpmb0_sx61 quick_test/fbank/raw_fbank_train.3.ark:11435171
mcre0_si1725 quick_test/fbank/raw_fbank_train.2.ark:5527300
fjdm2_si1964 quick_test/fbank/raw_fbank_train.1.ark:4850229
flmc0_si1372 quick_test/fbank/raw_fbank_train.1.ark:8132803
mjwt0_si751 quick_test/fbank/raw_fbank_train.3.ark:5391067
mmdm1_sx333 quick_test/fbank/raw_fbank_train.3.ark:8959483
fskp0_sx108 quick_test/fbank/raw_fbank_train.2.ark:485504
ftlg0_sx123 quick_test/fbank/raw_fbank_train.2.ark:1585299
mhrm0_sx148 quick_test/fbank/raw_fbank_train.3.ark:1409660
mwad0_sx432 quick_test/fbank/raw_fbank_train.4.ark:10657752
fpad0_sx446 quick_test/fbank/raw_fbank_train.1.ark:10070969
mtkp0_sx123 quick_test/fbank/raw_fbank_train.4.ark:8651111
mtjs0_si1192 quick_test/fbank/raw_fbank_train.4.ark:8280896
mtat1_sx329 quick_test/fbank/raw_fbank_train.4.ark:7523022
makb0_si1016 quick_test/fbank/raw_fbank_train.2.ark:2692862
ftaj0_sx429 quick_test/fbank/raw_fbank_train.2.ark:1321244
msvs0_si1568 quick_test/fbank/raw_fbank_train.4.ark:7035116
mmwb0_si2249 quick_test/fbank/raw_fbank_train.3.ark:10154317
msmc0_sx197 quick_test/fbank/raw_fbank_train.4.ark:6503253
ftmg0_sx272 quick_test/fbank/raw_fbank_train.2.ark:1688637
mprk0_sx17 quick_test/fbank/raw_fbank_train.4.ark:341886
mejl0_si1592 quick_test/fbank/raw_fbank_train.2.ark:9941108
falr0_sx425 quick_test/fbank/raw_fbank_train.1.ark:385482
fdml0_si1149 quick_test/fbank/raw_fbank_train.1.ark:2900779
mjrh1_si1774 quick_test/fbank/raw_fbank_train.3.ark:4747685
fpab1_sx121 quick_test/fbank/raw_fbank_train.1.ark:9815980
mjwt0_sx301 quick_test/fbank/raw_fbank_train.3.ark:5429366
fskc0_sx336 quick_test/fbank/raw_fbank_train.2.ark:308440
fljg0_sx171 quick_test/fbank/raw_fbank_train.1.ark:7858309
fear0_sx262 quick_test/fbank/raw_fbank_train.1.ark:3577664
mmlm0_si1527 quick_test/fbank/raw_fbank_train.3.ark:9629077
fcdr1_sx106 quick_test/fbank/raw_fbank_train.1.ark:1496220
mhit0_sx173 quick_test/fbank/raw_fbank_train.3.ark:1046079
mprd0_sx261 quick_test/fbank/raw_fbank_train.4.ark:229422
mgsh0_si546 quick_test/fbank/raw_fbank_train.3.ark:624912
fpac0_sx301 quick_test/fbank/raw_fbank_train.1.ark:9950431
mtjs0_si562 quick_test/fbank/raw_fbank_train.4.ark:8314123
mkdd0_sx37 quick_test/fbank/raw_fbank_train.3.ark:6230477
mfer0_si2122 quick_test/fbank/raw_fbank_train.2.ark:10403785
mreh1_sx339 quick_test/fbank/raw_fbank_train.4.ark:1819218
mdtb0_sx300 quick_test/fbank/raw_fbank_train.2.ark:9218756
mejs0_si1870 quick_test/fbank/raw_fbank_train.2.ark:10045887
mtkd0_si1817 quick_test/fbank/raw_fbank_train.4.ark:8502300
mmcc0_sx348 quick_test/fbank/raw_fbank_train.3.ark:8568703
mwac0_si2231 quick_test/fbank/raw_fbank_train.4.ark:10499561
fcaj0_si1479 quick_test/fbank/raw_fbank_train.1.ark:1346735
mhxl0_si612 quick_test/fbank/raw_fbank_train.3.ark:1495371
fbch0_si956 quick_test/fbank/raw_fbank_train.1.ark:747058
flag0_si1464 quick_test/fbank/raw_fbank_train.1.ark:7208176
mrdm0_sx155 quick_test/fbank/raw_fbank_train.4.ark:1497276
mjws0_sx333 quick_test/fbank/raw_fbank_train.3.ark:5308741
msat1_si1703 quick_test/fbank/raw_fbank_train.4.ark:5509374
fdmy0_si567 quick_test/fbank/raw_fbank_train.1.ark:3001238
mbsb0_sx93 quick_test/fbank/raw_fbank_train.2.ark:4178829
mmsm0_sx296 quick_test/fbank/raw_fbank_train.3.ark:10000110
frll0_sx164 quick_test/fbank/raw_fbank_train.1.ark:10824829
fsmm0_si1944 quick_test/fbank/raw_fbank_train.2.ark:756034
fapb0_si1693 quick_test/fbank/raw_fbank_train.1.ark:420782
mejl0_sx152 quick_test/fbank/raw_fbank_train.2.ark:9971288
mbsb0_si723 quick_test/fbank/raw_fbank_train.2.ark:4133947
mlel0_sx76 quick_test/fbank/raw_fbank_train.3.ark:7428092
fsdj0_si485 quick_test/fbank/raw_fbank_train.1.ark:11547612
mrlr0_si1196 quick_test/fbank/raw_fbank_train.4.ark:3600260
mfxs0_si1674 quick_test/fbank/raw_fbank_train.2.ark:10775372
mdlh0_si574 quick_test/fbank/raw_fbank_train.2.ark:7806553
fsdj0_sx35 quick_test/fbank/raw_fbank_train.1.ark:11585983
fcdr1_si1186 quick_test/fbank/raw_fbank_train.1.ark:1433240
fjkl0_si2192 quick_test/fbank/raw_fbank_train.1.ark:5164747
mpsw0_sx167 quick_test/fbank/raw_fbank_train.4.ark:513984
mdss0_sx171 quick_test/fbank/raw_fbank_train.2.ark:9024840
mtrc0_sx93 quick_test/fbank/raw_fbank_train.4.ark:9803317
mjfr0_sx345 quick_test/fbank/raw_fbank_train.3.ark:3028084
freh0_sx235 quick_test/fbank/raw_fbank_train.1.ark:10652532
fmju0_sx219 quick_test/fbank/raw_fbank_train.1.ark:9089842
flmc0_sx336 quick_test/fbank/raw_fbank_train.1.ark:8203721
fklc1_sx418 quick_test/fbank/raw_fbank_train.1.ark:6889235
mdhl0_si2069 quick_test/fbank/raw_fbank_train.2.ark:7012832
fkdw0_sx127 quick_test/fbank/raw_fbank_train.1.ark:6445155
fsdj0_sx305 quick_test/fbank/raw_fbank_train.1.ark:11576271
mrjm1_sx308 quick_test/fbank/raw_fbank_train.4.ark:2971452
fvfb0_sx312 quick_test/fbank/raw_fbank_train.2.ark:1793056
fklc0_si2245 quick_test/fbank/raw_fbank_train.1.ark:6723044
fhxs0_sx175 quick_test/fbank/raw_fbank_train.1.ark:4775550
mabc0_sx151 quick_test/fbank/raw_fbank_train.2.ark:2052705
mlns0_si2037 quick_test/fbank/raw_fbank_train.3.ark:7679730
mmaa0_sx305 quick_test/fbank/raw_fbank_train.3.ark:7937112
mtju0_si760 quick_test/fbank/raw_fbank_train.4.ark:8420548
fkde0_sx421 quick_test/fbank/raw_fbank_train.1.ark:6367669
ftaj0_sx159 quick_test/fbank/raw_fbank_train.2.ark:1293665
mdlb0_sx226 quick_test/fbank/raw_fbank_train.2.ark:7446192
mbom0_si1014 quick_test/fbank/raw_fbank_train.2.ark:4027053
mdwh0_si1925 quick_test/fbank/raw_fbank_train.2.ark:9363155
mwre0_si2317 quick_test/fbank/raw_fbank_train.4.ark:11181414
mcxm0_si1981 quick_test/fbank/raw_fbank_train.2.ark:5917839
fjwb1_sx165 quick_test/fbank/raw_fbank_train.1.ark:5914949
mkaj0_sx244 quick_test/fbank/raw_fbank_train.3.ark:5910577
fbcg1_si2242 quick_test/fbank/raw_fbank_train.1.ark:640234
ftmg0_sx452 quick_test/fbank/raw_fbank_train.2.ark:1712543
fear0_sx82 quick_test/fbank/raw_fbank_train.1.ark:3621842
fdmy0_si714 quick_test/fbank/raw_fbank_train.1.ark:3026871
meal0_sx107 quick_test/fbank/raw_fbank_train.2.ark:9587231
mjls0_sx106 quick_test/fbank/raw_fbank_train.3.ark:3815979
mmeb0_si1987 quick_test/fbank/raw_fbank_train.3.ark:9183506
mgar0_sx312 quick_test/fbank/raw_fbank_train.3.ark:60460
fmkc0_sx172 quick_test/fbank/raw_fbank_train.1.ark:9174915
mdbb1_si1006 quick_test/fbank/raw_fbank_train.2.ark:6197597
fdjh0_sx35 quick_test/fbank/raw_fbank_train.1.ark:2764726
fdfb0_sx148 quick_test/fbank/raw_fbank_train.1.ark:2638483
mdlc2_si1614 quick_test/fbank/raw_fbank_train.2.ark:7705615
mwsb0_si996 quick_test/fbank/raw_fbank_train.4.ark:11373863
mewm0_si718 quick_test/fbank/raw_fbank_train.2.ark:10325753
fecd0_sx338 quick_test/fbank/raw_fbank_train.1.ark:3711002
marc0_sx18 quick_test/fbank/raw_fbank_train.2.ark:3030950
flod0_sx117 quick_test/fbank/raw_fbank_train.1.ark:8366954
fdtd0_sx121 quick_test/fbank/raw_fbank_train.1.ark:3273435
mfxs0_sx234 quick_test/fbank/raw_fbank_train.2.ark:10813826
fajw0_si1263 quick_test/fbank/raw_fbank_train.1.ark:100358
mtdp0_si1274 quick_test/fbank/raw_fbank_train.4.ark:7861996
fskl0_si2159 quick_test/fbank/raw_fbank_train.2.ark:359093
mfxv0_sx105 quick_test/fbank/raw_fbank_train.2.ark:10913619
ftmg0_si902 quick_test/fbank/raw_fbank_train.2.ark:1658211
mpgh0_sx114 quick_test/fbank/raw_fbank_train.3.ark:11055324
mlbc0_sx249 quick_test/fbank/raw_fbank_train.3.ark:7285449
fjxm0_si581 quick_test/fbank/raw_fbank_train.1.ark:5990461
mvjh0_si1556 quick_test/fbank/raw_fbank_train.4.ark:10205492
mbjv0_si1247 quick_test/fbank/raw_fbank_train.2.ark:3645553
mesj0_si2039 quick_test/fbank/raw_fbank_train.2.ark:10223743
mrjb1_sx120 quick_test/fbank/raw_fbank_train.4.ark:2627471
mdlb0_sx316 quick_test/fbank/raw_fbank_train.2.ark:7461025
fsjg0_si1570 quick_test/fbank/raw_fbank_train.1.ark:11704595
mtat1_si1627 quick_test/fbank/raw_fbank_train.4.ark:7463730
mprb0_si1205 quick_test/fbank/raw_fbank_train.4.ark:49464
mesj0_sx97 quick_test/fbank/raw_fbank_train.2.ark:10301932
mprt0_sx220 quick_test/fbank/raw_fbank_train.4.ark:440511
mdss1_si1327 quick_test/fbank/raw_fbank_train.2.ark:9076685
fmpg0_si972 quick_test/fbank/raw_fbank_train.1.ark:9472113
fvfb0_sx42 quick_test/fbank/raw_fbank_train.2.ark:1817921
fgmb0_si1145 quick_test/fbank/raw_fbank_train.1.ark:4384012
mjwt0_sx121 quick_test/fbank/raw_fbank_train.3.ark:5403660
mjls0_si1726 quick_test/fbank/raw_fbank_train.3.ark:3783393
mjac0_sx341 quick_test/fbank/raw_fbank_train.3.ark:1727637
madc0_sx287 quick_test/fbank/raw_fbank_train.2.ark:2184748
mrkm0_sx7 quick_test/fbank/raw_fbank_train.4.ark:3214373
mpgh0_sx204 quick_test/fbank/raw_fbank_train.3.ark:11064797
mtxs0_sx160 quick_test/fbank/raw_fbank_train.4.ark:10133927
mpgr0_sx150 quick_test/fbank/raw_fbank_train.3.ark:11131909
mwar0_sx145 quick_test/fbank/raw_fbank_train.4.ark:10717679
fltm0_sx440 quick_test/fbank/raw_fbank_train.1.ark:8498200
meal0_sx347 quick_test/fbank/raw_fbank_train.2.ark:9614210
fmmh0_sx7 quick_test/fbank/raw_fbank_train.1.ark:9424300
mrdd0_sx330 quick_test/fbank/raw_fbank_train.4.ark:1432070
mrdd0_si2310 quick_test/fbank/raw_fbank_train.4.ark:1392738
marw0_sx286 quick_test/fbank/raw_fbank_train.2.ark:3125528
fcmg0_si1242 quick_test/fbank/raw_fbank_train.1.ark:2020344
mjxa0_si1507 quick_test/fbank/raw_fbank_train.3.ark:5463105
mcdc0_si662 quick_test/fbank/raw_fbank_train.2.ark:4641227
feac0_sx345 quick_test/fbank/raw_fbank_train.1.ark:3495512
fjlg0_si1889 quick_test/fbank/raw_fbank_train.1.ark:5260372
mtlc0_si1313 quick_test/fbank/raw_fbank_train.4.ark:8804781
mmdb0_sx447 quick_test/fbank/raw_fbank_train.3.ark:8678281
mjlg1_sx112 quick_test/fbank/raw_fbank_train.3.ark:3717274
mrlj0_sx430 quick_test/fbank/raw_fbank_train.4.ark:3395623
fklh0_si1257 quick_test/fbank/raw_fbank_train.1.ark:6919781
mjls0_sx376 quick_test/fbank/raw_fbank_train.3.ark:3860150
mrew1_si870 quick_test/fbank/raw_fbank_train.4.ark:1973968
madd0_si1295 quick_test/fbank/raw_fbank_train.2.ark:2210255
fjrb0_sx132 quick_test/fbank/raw_fbank_train.1.ark:5482809
fcjf0_sx217 quick_test/fbank/raw_fbank_train.1.ark:1689503
faem0_si762 quick_test/fbank/raw_fbank_train.1.ark:28600
mkam0_sx236 quick_test/fbank/raw_fbank_train.3.ark:6010883
mtab0_si2202 quick_test/fbank/raw_fbank_train.4.ark:7180135
mrjt0_sx58 quick_test/fbank/raw_fbank_train.4.ark:3097182
mrgm0_sx416 quick_test/fbank/raw_fbank_train.4.ark:2326423
mrgs0_sx186 quick_test/fbank/raw_fbank_train.4.ark:2414342
fjwb1_si748 quick_test/fbank/raw_fbank_train.1.ark:5886963
mwdk0_sx446 quick_test/fbank/raw_fbank_train.4.ark:10933829
fpjf0_si1046 quick_test/fbank/raw_fbank_train.1.ark:10299125
mjlg1_si1012 quick_test/fbank/raw_fbank_train.3.ark:3678213
fjen0_si2307 quick_test/fbank/raw_fbank_train.1.ark:4971449
mded0_si1800 quick_test/fbank/raw_fbank_train.2.ark:6694077
msvs0_sx398 quick_test/fbank/raw_fbank_train.4.ark:7141107
mdcm0_sx130 quick_test/fbank/raw_fbank_train.2.ark:6533693
fsgf0_sx117 quick_test/fbank/raw_fbank_train.1.ark:11655310
mkag0_si2239 quick_test/fbank/raw_fbank_train.3.ark:5676229
mjjm0_sx377 quick_test/fbank/raw_fbank_train.3.ark:3472729
mwrp0_si1525 quick_test/fbank/raw_fbank_train.4.ark:11273686
fcjs0_sx77 quick_test/fbank/raw_fbank_train.1.ark:1802706
fbch0_sx416 quick_test/fbank/raw_fbank_train.1.ark:813303
fblv0_sx158 quick_test/fbank/raw_fbank_train.1.ark:990255
flmk0_sx225 quick_test/fbank/raw_fbank_train.1.ark:8286282
fpaz0_si2223 quick_test/fbank/raw_fbank_train.1.ark:10202575
mdlc2_sx174 quick_test/fbank/raw_fbank_train.2.ark:7734275
fkdw0_sx217 quick_test/fbank/raw_fbank_train.1.ark:6453348
fmkf0_sx366 quick_test/fbank/raw_fbank_train.1.ark:9306246
mrgs0_sx366 quick_test/fbank/raw_fbank_train.4.ark:2437248
meal0_sx377 quick_test/fbank/raw_fbank_train.2.ark:9628203
mjma0_sx325 quick_test/fbank/raw_fbank_train.3.ark:3936270
mrgm0_si1792 quick_test/fbank/raw_fbank_train.4.ark:2263091
mmdm0_sx321 quick_test/fbank/raw_fbank_train.3.ark:8860778
mcew0_sx182 quick_test/fbank/raw_fbank_train.2.ark:5058000
mtkp0_si1023 quick_test/fbank/raw_fbank_train.4.ark:8599811
fsls0_si1686 quick_test/fbank/raw_fbank_train.2.ark:551303
fsma0_sx451 quick_test/fbank/raw_fbank_train.2.ark:714214
mmar0_si706 quick_test/fbank/raw_fbank_train.3.ark:8309234
falr0_si1955 quick_test/fbank/raw_fbank_train.1.ark:324237
mmws0_sx438 quick_test/fbank/raw_fbank_train.3.ark:10340026
msrg0_sx51 quick_test/fbank/raw_fbank_train.4.ark:6818954
mmlm0_si897 quick_test/fbank/raw_fbank_train.3.ark:9651504
mmsm0_si476 quick_test/fbank/raw_fbank_train.3.ark:9947699
mmag0_sx136 quick_test/fbank/raw_fbank_train.3.ark:8120176
majp0_si1074 quick_test/fbank/raw_fbank_train.2.ark:2580956
makb0_sx116 quick_test/fbank/raw_fbank_train.2.ark:2750603
mmgk0_si1322 quick_test/fbank/raw_fbank_train.3.ark:9448467
fdfb0_sx238 quick_test/fbank/raw_fbank_train.1.ark:2648116
mjpg0_si561 quick_test/fbank/raw_fbank_train.3.ark:4170127
mrab0_sx144 quick_test/fbank/raw_fbank_train.4.ark:600768
mabc0_sx241 quick_test/fbank/raw_fbank_train.2.ark:2065258
mkah0_sx88 quick_test/fbank/raw_fbank_train.3.ark:5851650
fgdp0_sx178 quick_test/fbank/raw_fbank_train.1.ark:4307327
fspm0_si611 quick_test/fbank/raw_fbank_train.2.ark:982877
mesj0_sx277 quick_test/fbank/raw_fbank_train.2.ark:10273516
mppc0_sx422 quick_test/fbank/raw_fbank_train.4.ark:24198
fpaf0_si2314 quick_test/fbank/raw_fbank_train.1.ark:10126943
mctm0_si720 quick_test/fbank/raw_fbank_train.2.ark:5843327
mbjv0_sx167 quick_test/fbank/raw_fbank_train.2.ark:3679733
mgxp0_si457 quick_test/fbank/raw_fbank_train.3.ark:827245
mdlm0_si604 quick_test/fbank/raw_fbank_train.2.ark:7915971
mmag0_sx46 quick_test/fbank/raw_fbank_train.3.ark:8178427
mjai0_si682 quick_test/fbank/raw_fbank_train.3.ark:1880715
fsgf0_sx387 quick_test/fbank/raw_fbank_train.1.ark:11692881
fljg0_sx81 quick_test/fbank/raw_fbank_train.1.ark:7921280
fbmh0_si1136 quick_test/fbank/raw_fbank_train.1.ark:1048380
fmjb0_si547 quick_test/fbank/raw_fbank_train.1.ark:8862808
mclk0_si2290 quick_test/fbank/raw_fbank_train.2.ark:5238745
flhd0_sx84 quick_test/fbank/raw_fbank_train.1.ark:7595724
mcef0_sx145 quick_test/fbank/raw_fbank_train.2.ark:4952655
mbbr0_sx425 quick_test/fbank/raw_fbank_train.2.ark:3349133
mchl0_si1977 quick_test/fbank/raw_fbank_train.2.ark:5168673
mrkm0_si637 quick_test/fbank/raw_fbank_train.4.ark:3152843
mdbp0_si528 quick_test/fbank/raw_fbank_train.2.ark:6310450
fcke0_si1741 quick_test/fbank/raw_fbank_train.1.ark:1819694
mrjm0_sx328 quick_test/fbank/raw_fbank_train.4.ark:2866467
fcdr1_sx376 quick_test/fbank/raw_fbank_train.1.ark:1547351
mjfh0_si477 quick_test/fbank/raw_fbank_train.3.ark:2905800
madc0_si1367 quick_test/fbank/raw_fbank_train.2.ark:2103670
mdlc2_si2244 quick_test/fbank/raw_fbank_train.2.ark:7712169
mrjh0_sx307 quick_test/fbank/raw_fbank_train.4.ark:2768801
fmjf0_sx264 quick_test/fbank/raw_fbank_train.1.ark:8983017
mctm0_sx450 quick_test/fbank/raw_fbank_train.2.ark:5885259
fsjg0_sx400 quick_test/fbank/raw_fbank_train.1.ark:11821666
mrso0_sx219 quick_test/fbank/raw_fbank_train.4.ark:4458197
fljg0_sx351 quick_test/fbank/raw_fbank_train.1.ark:7887895
mrtj0_si2032 quick_test/fbank/raw_fbank_train.4.ark:4743133
mgxp0_sx97 quick_test/fbank/raw_fbank_train.3.ark:905040
fjrb0_sx222 quick_test/fbank/raw_fbank_train.1.ark:5493002
mmds0_sx443 quick_test/fbank/raw_fbank_train.3.ark:9062901
fecd0_sx248 quick_test/fbank/raw_fbank_train.1.ark:3698529
marw0_sx106 quick_test/fbank/raw_fbank_train.2.ark:3102543
fmkc0_sx262 quick_test/fbank/raw_fbank_train.1.ark:9188908
feme0_sx245 quick_test/fbank/raw_fbank_train.1.ark:3909579
mram0_sx285 quick_test/fbank/raw_fbank_train.4.ark:945622
mtqc0_sx271 quick_test/fbank/raw_fbank_train.4.ark:9662555
fklc1_si2308 quick_test/fbank/raw_fbank_train.1.ark:6845623
fjhk0_sx302 quick_test/fbank/raw_fbank_train.1.ark:5127014
mges0_sx131 quick_test/fbank/raw_fbank_train.3.ark:219244
fvfb0_si1510 quick_test/fbank/raw_fbank_train.2.ark:1748723
mjmd0_sx218 quick_test/fbank/raw_fbank_train.3.ark:4006943
fcmm0_sx363 quick_test/fbank/raw_fbank_train.1.ark:2164022
mclm0_sx376 quick_test/fbank/raw_fbank_train.2.ark:5411207
mabc0_sx61 quick_test/fbank/raw_fbank_train.2.ark:2093396
fksr0_sx37 quick_test/fbank/raw_fbank_train.1.ark:7093684
fjhk0_sx122 quick_test/fbank/raw_fbank_train.1.ark:5098188
fltm0_sx170 quick_test/fbank/raw_fbank_train.1.ark:8447421
mter0_si1157 quick_test/fbank/raw_fbank_train.4.ark:7981702
mjfr0_si1605 quick_test/fbank/raw_fbank_train.3.ark:2963798
mjpm0_sx378 quick_test/fbank/raw_fbank_train.3.ark:4319756
mdpk0_si552 quick_test/fbank/raw_fbank_train.2.ark:8627147
mdrd0_si1382 quick_test/fbank/raw_fbank_train.2.ark:8784410
mjmm0_sx445 quick_test/fbank/raw_fbank_train.3.ark:4125514
mmar0_sx256 quick_test/fbank/raw_fbank_train.3.ark:8340380
mgjc0_si1335 quick_test/fbank/raw_fbank_train.3.ark:288803
maeo0_sx156 quick_test/fbank/raw_fbank_train.2.ark:2440486
mcew0_sx92 quick_test/fbank/raw_fbank_train.2.ark:5117851
mjde0_sx40 quick_test/fbank/raw_fbank_train.3.ark:2347900
mjls0_sx196 quick_test/fbank/raw_fbank_train.3.ark:3836644
mrlk0_si843 quick_test/fbank/raw_fbank_train.4.ark:3536022
fpmy0_si523 quick_test/fbank/raw_fbank_train.1.ark:10517281
mfxv0_sx285 quick_test/fbank/raw_fbank_train.2.ark:10940837
fcdr1_sx16 quick_test/fbank/raw_fbank_train.1.ark:1509092
fdkn0_sx451 quick_test/fbank/raw_fbank_train.1.ark:2869233
mtxs0_sx430 quick_test/fbank/raw_fbank_train.4.ark:10177026
mdtb0_sx390 quick_test/fbank/raw_fbank_train.2.ark:9241062
mwch0_si1622 quick_test/fbank/raw_fbank_train.4.ark:10772924
mmaa0_si845 quick_test/fbank/raw_fbank_train.3.ark:7894053
flmk0_sx45 quick_test/fbank/raw_fbank_train.1.ark:8318060
fcyl0_sx397 quick_test/fbank/raw_fbank_train.1.ark:2385857
mcef0_si1765 quick_test/fbank/raw_fbank_train.2.ark:4924789
mtab0_si942 quick_test/fbank/raw_fbank_train.4.ark:7190128
msmc0_sx17 quick_test/fbank/raw_fbank_train.4.ark:6494620
majp0_sx84 quick_test/fbank/raw_fbank_train.2.ark:2677708
makb0_sx206 quick_test/fbank/raw_fbank_train.2.ark:2767276
fecd0_si1418 quick_test/fbank/raw_fbank_train.1.ark:3633836
mbsb0_sx3 quick_test/fbank/raw_fbank_train.2.ark:4163884
mrjh0_si914 quick_test/fbank/raw_fbank_train.4.ark:2727422
mhrm0_si958 quick_test/fbank/raw_fbank_train.3.ark:1396947
mtjg0_si1520 quick_test/fbank/raw_fbank_train.4.ark:8085086
mljc0_si595 quick_test/fbank/raw_fbank_train.3.ark:7471993
mram0_sx15 quick_test/fbank/raw_fbank_train.4.ark:924196
flmk0_si2295 quick_test/fbank/raw_fbank_train.1.ark:8260856
mbjv0_si617 quick_test/fbank/raw_fbank_train.2.ark:3666620
mjma0_si2125 quick_test/fbank/raw_fbank_train.3.ark:3884658
mrso0_si1659 quick_test/fbank/raw_fbank_train.4.ark:4417737
mdcm0_si1480 quick_test/fbank/raw_fbank_train.2.ark:6492473
msmr0_sx235 quick_test/fbank/raw_fbank_train.4.ark:6594366
mddc0_si1419 quick_test/fbank/raw_fbank_train.2.ark:6591578
mnet0_si1446 quick_test/fbank/raw_fbank_train.3.ark:10540661
mdtb0_sx210 quick_test/fbank/raw_fbank_train.2.ark:9209763
feac0_sx165 quick_test/fbank/raw_fbank_train.1.ark:3470486
mrem0_si1591 quick_test/fbank/raw_fbank_train.4.ark:1859037
mmbs0_sx71 quick_test/fbank/raw_fbank_train.3.ark:8497263
fljg0_si981 quick_test/fbank/raw_fbank_train.1.ark:7838516
fmkc0_sx82 quick_test/fbank/raw_fbank_train.1.ark:9229326
msjk0_si966 quick_test/fbank/raw_fbank_train.4.ark:6361251
mjeb0_sx170 quick_test/fbank/raw_fbank_train.3.ark:2617558
mtjg0_sx170 quick_test/fbank/raw_fbank_train.4.ark:8113946
mrab1_sx218 quick_test/fbank/raw_fbank_train.4.ark:714706
fkkh0_sx300 quick_test/fbank/raw_fbank_train.1.ark:6692303
fljd0_sx346 quick_test/fbank/raw_fbank_train.1.ark:7781870
mjkr0_si1831 quick_test/fbank/raw_fbank_train.3.ark:3501277
mjrh1_si514 quick_test/fbank/raw_fbank_train.3.ark:4758558
fntb0_sx303 quick_test/fbank/raw_fbank_train.1.ark:9732861
msfv0_sx92 quick_test/fbank/raw_fbank_train.4.ark:6319030
mkln0_si2228 quick_test/fbank/raw_fbank_train.3.ark:6568972
mrem0_sx61 quick_test/fbank/raw_fbank_train.4.ark:1945467
fsag0_sx153 quick_test/fbank/raw_fbank_train.1.ark:10911254
mbef0_si1281 quick_test/fbank/raw_fbank_train.2.ark:3458623
mgxp0_sx187 quick_test/fbank/raw_fbank_train.3.ark:858151
mkrg0_sx231 quick_test/fbank/raw_fbank_train.3.ark:7105399
mkaj0_si1414 quick_test/fbank/raw_fbank_train.3.ark:5866404
mreh1_si2229 quick_test/fbank/raw_fbank_train.4.ark:1764526
mtkp0_sx393 quick_test/fbank/raw_fbank_train.4.ark:8694162
fpad0_si1976 quick_test/fbank/raw_fbank_train.1.ark:9998244
mrxb0_sx415 quick_test/fbank/raw_fbank_train.4.ark:5200438
mdrd0_si752 quick_test/fbank/raw_fbank_train.2.ark:8805877
mmam0_sx67 quick_test/fbank/raw_fbank_train.3.ark:8261853
mejl0_sx332 quick_test/fbank/raw_fbank_train.2.ark:9992834
feeh0_sx302 quick_test/fbank/raw_fbank_train.1.ark:3817107
fmkf0_sx96 quick_test/fbank/raw_fbank_train.1.ark:9331749
mdlr0_sx63 quick_test/fbank/raw_fbank_train.2.ark:8077400
mwch0_sx92 quick_test/fbank/raw_fbank_train.4.ark:10846316
mrvg0_sx60 quick_test/fbank/raw_fbank_train.4.ark:4928715
fsak0_si670 quick_test/fbank/raw_fbank_train.1.ark:11128511
mjeb0_si1286 quick_test/fbank/raw_fbank_train.3.ark:2582618
mrml0_si791 quick_test/fbank/raw_fbank_train.4.ark:4009189
mrtc0_sx288 quick_test/fbank/raw_fbank_train.4.ark:4701272
mfrm0_si1717 quick_test/fbank/raw_fbank_train.2.ark:10600395
mvjh0_sx116 quick_test/fbank/raw_fbank_train.4.ark:10249872
fcjs0_sx347 quick_test/fbank/raw_fbank_train.1.ark:1770681
faem0_sx222 quick_test/fbank/raw_fbank_train.1.ark:51746
fskp0_sx378 quick_test/fbank/raw_fbank_train.2.ark:527755
fkfb0_sx438 quick_test/fbank/raw_fbank_train.1.ark:6572919
mdmt0_sx32 quick_test/fbank/raw_fbank_train.2.ark:8378603
msdb0_sx17 quick_test/fbank/raw_fbank_train.4.ark:5631579
fdxw0_sx341 quick_test/fbank/raw_fbank_train.1.ark:3399087
fmjb0_si1177 quick_test/fbank/raw_fbank_train.1.ark:8828981
mefg0_sx375 quick_test/fbank/raw_fbank_train.2.ark:9815531
fmbg0_sx350 quick_test/fbank/raw_fbank_train.1.ark:8678336
mpgh0_sx294 quick_test/fbank/raw_fbank_train.3.ark:11081622
fexm0_si1731 quick_test/fbank/raw_fbank_train.1.ark:4072290
mpgr1_si2129 quick_test/fbank/raw_fbank_train.3.ark:11214742
msfh0_si1216 quick_test/fbank/raw_fbank_train.4.ark:6099454
fmkf0_sx276 quick_test/fbank/raw_fbank_train.1.ark:9295893
mrem0_sx421 quick_test/fbank/raw_fbank_train.4.ark:1933675
mfxs0_sx144 quick_test/fbank/raw_fbank_train.2.ark:10802873
mrab0_sx324 quick_test/fbank/raw_fbank_train.4.ark:622554
mdhl0_si1439 quick_test/fbank/raw_fbank_train.2.ark:6999558
mddc0_si2049 quick_test/fbank/raw_fbank_train.2.ark:6608372
mmxs0_si629 quick_test/fbank/raw_fbank_train.3.ark:10455830
fcmm0_sx93 quick_test/fbank/raw_fbank_train.1.ark:2192847
mdhs0_sx180 quick_test/fbank/raw_fbank_train.2.ark:7135763
mjwt0_sx31 quick_test/fbank/raw_fbank_train.3.ark:5443958
mlsh0_sx427 quick_test/fbank/raw_fbank_train.3.ark:7840840
mtrc0_sx363 quick_test/fbank/raw_fbank_train.4.ark:9792805
mljh0_sx64 quick_test/fbank/raw_fbank_train.3.ark:7657902
mjae0_si1524 quick_test/fbank/raw_fbank_train.3.ark:1764776
mdbb1_sx106 quick_test/fbank/raw_fbank_train.2.ark:6236418
mgag0_sx241 quick_test/fbank/raw_fbank_train.2.ark:11103621
msfh0_sx226 quick_test/fbank/raw_fbank_train.4.ark:6165867
mrws0_si1102 quick_test/fbank/raw_fbank_train.4.ark:5036374
mmag0_sx406 quick_test/fbank/raw_fbank_train.3.ark:8162555
fleh0_sx151 quick_test/fbank/raw_fbank_train.1.ark:7358062
mbcg0_si957 quick_test/fbank/raw_fbank_train.2.ark:3384145
mklr0_sx159 quick_test/fbank/raw_fbank_train.3.ark:6682224
mrjh0_sx439 quick_test/fbank/raw_fbank_train.4.ark:2776234
fsjs0_si541 quick_test/fbank/raw_fbank_train.2.ark:67611
fbcg1_sx262 quick_test/fbank/raw_fbank_train.1.ark:678173
mrjh0_sx259 quick_test/fbank/raw_fbank_train.4.ark:2754928
mjkr0_sx211 quick_test/fbank/raw_fbank_train.3.ark:3542776
fklc1_sx238 quick_test/fbank/raw_fbank_train.1.ark:6864609
mmab1_sx234 quick_test/fbank/raw_fbank_train.3.ark:8019144
mesj0_sx367 quick_test/fbank/raw_fbank_train.2.ark:10282829
mvrw0_si855 quick_test/fbank/raw_fbank_train.4.ark:10421329
mstf0_sx316 quick_test/fbank/raw_fbank_train.4.ark:6996217
mkjo0_sx257 quick_test/fbank/raw_fbank_train.3.ark:6511046
mrkm0_sx367 quick_test/fbank/raw_fbank_train.4.ark:3198102
mrtc0_si828 quick_test/fbank/raw_fbank_train.4.ark:4654141
mjpm0_sx18 quick_test/fbank/raw_fbank_train.3.ark:4283057
fsbk0_sx349 quick_test/fbank/raw_fbank_train.1.ark:11257876
mmgc0_sx135 quick_test/fbank/raw_fbank_train.3.ark:9296596
mgsh0_sx96 quick_test/fbank/raw_fbank_train.3.ark:685074
mmpm0_sx251 quick_test/fbank/raw_fbank_train.3.ark:9762236
mjkr0_sx31 quick_test/fbank/raw_fbank_train.3.ark:3568201
mcal0_si508 quick_test/fbank/raw_fbank_train.2.ark:4546682
fsmm0_si684 quick_test/fbank/raw_fbank_train.2.ark:766867
mrem0_si511 quick_test/fbank/raw_fbank_train.4.ark:1870950
mrre0_sx434 quick_test/fbank/raw_fbank_train.4.ark:4369797
mdmt0_sx392 quick_test/fbank/raw_fbank_train.2.ark:8389236
ftmg0_sx362 quick_test/fbank/raw_fbank_train.2.ark:1699310
mbar0_si1319 quick_test/fbank/raw_fbank_train.2.ark:3176028
mdbp0_si1788 quick_test/fbank/raw_fbank_train.2.ark:6296857
mdps0_sx449 quick_test/fbank/raw_fbank_train.2.ark:8760984
mrav0_si1638 quick_test/fbank/raw_fbank_train.4.ark:977803
mdmt0_sx212 quick_test/fbank/raw_fbank_train.2.ark:8353098
fvkb0_sx439 quick_test/fbank/raw_fbank_train.2.ark:1902394
mrmg0_si2340 quick_test/fbank/raw_fbank_train.4.ark:3811218
fsjk1_sx395 quick_test/fbank/raw_fbank_train.2.ark:32110
mkdb0_sx242 quick_test/fbank/raw_fbank_train.3.ark:6103267
msat0_sx86 quick_test/fbank/raw_fbank_train.4.ark:5488266
mcss0_sx300 quick_test/fbank/raw_fbank_train.2.ark:5690608
fmem0_si2007 quick_test/fbank/raw_fbank_train.1.ark:8733029
mwdk0_sx176 quick_test/fbank/raw_fbank_train.4.ark:10896090
mmjb1_sx238 quick_test/fbank/raw_fbank_train.3.ark:9572745
mcss0_si750 quick_test/fbank/raw_fbank_train.2.ark:5646477
fljg0_sx441 quick_test/fbank/raw_fbank_train.1.ark:7907328
mdbp0_sx258 quick_test/fbank/raw_fbank_train.2.ark:6340876
mfwk0_si1249 quick_test/fbank/raw_fbank_train.2.ark:10679387
fkfb0_sx348 quick_test/fbank/raw_fbank_train.1.ark:6557806
mjda0_si1031 quick_test/fbank/raw_fbank_train.3.ark:2068052
fpmy0_sx163 quick_test/fbank/raw_fbank_train.1.ark:10541914
mejs0_si610 quick_test/fbank/raw_fbank_train.2.ark:10055400
mcdd0_sx433 quick_test/fbank/raw_fbank_train.2.ark:4778224
mtrt0_sx254 quick_test/fbank/raw_fbank_train.4.ark:9971902
fsjs0_si1801 quick_test/fbank/raw_fbank_train.2.ark:52378
mrai0_si2052 quick_test/fbank/raw_fbank_train.4.ark:771712
fsdc0_sx232 quick_test/fbank/raw_fbank_train.1.ark:11474293
mtml0_sx165 quick_test/fbank/raw_fbank_train.4.ark:8935987
mhbs0_si2205 quick_test/fbank/raw_fbank_train.3.ark:927108
fecd0_sx428 quick_test/fbank/raw_fbank_train.1.ark:3724555
