fcjs0_si2237 quick_test/fbank/raw_fbank_train.1.ark:1729509
mwad0_sx252 quick_test/fbank/raw_fbank_train.4.ark:10639166
mgag0_sx151 quick_test/fbank/raw_fbank_train.2.ark:11092268
mntw0_si2328 quick_test/fbank/raw_fbank_train.3.ark:10669352
fntb0_sx393 quick_test/fbank/raw_fbank_train.1.ark:9752766
falk0_sx186 quick_test/fbank/raw_fbank_train.1.ark:252640
fdjh0_sx215 quick_test/fbank/raw_fbank_train.1.ark:2742421
fskc0_si2046 quick_test/fbank/raw_fbank_train.2.ark:267348
fsag0_sx423 quick_test/fbank/raw_fbank_train.1.ark:10963873
mtqc0_sx361 quick_test/fbank/raw_fbank_train.4.ark:9675308
mbef0_sx201 quick_test/fbank/raw_fbank_train.2.ark:3506116
msmc0_si1907 quick_test/fbank/raw_fbank_train.4.ark:6438969
ftbr0_si921 quick_test/fbank/raw_fbank_train.2.ark:1369097
mrab1_si848 quick_test/fbank/raw_fbank_train.4.ark:687480
fsjs0_sx91 quick_test/fbank/raw_fbank_train.2.ark:138295
mcae0_sx277 quick_test/fbank/raw_fbank_train.2.ark:4466525
fnkl0_sx442 quick_test/fbank/raw_fbank_train.1.ark:9643430
fdjh0_si2195 quick_test/fbank/raw_fbank_train.1.ark:2702882
fcmg0_sx432 quick_test/fbank/raw_fbank_train.1.ark:2079270
mgag0_sx61 quick_test/fbank/raw_fbank_train.2.ark:11131719
fbch0_si959 quick_test/fbank/raw_fbank_train.1.ark:759051
fmjf0_sx174 quick_test/fbank/raw_fbank_train.1.ark:8965344
mtat1_sx419 quick_test/fbank/raw_fbank_train.4.ark:7540975
msrr0_si501 quick_test/fbank/raw_fbank_train.4.ark:6856575
fsma0_sx271 quick_test/fbank/raw_fbank_train.2.ark:691908
fcaj0_sx309 quick_test/fbank/raw_fbank_train.1.ark:1399221
mrav0_sx378 quick_test/fbank/raw_fbank_train.4.ark:1047601
mmeb0_sx367 quick_test/fbank/raw_fbank_train.3.ark:9226598
mdss1_si1327 quick_test/fbank/raw_fbank_train.2.ark:9076685
mjwt0_sx391 quick_test/fbank/raw_fbank_train.3.ark:5453591
mjlg1_si1642 quick_test/fbank/raw_fbank_train.3.ark:3689407
mjdc0_si2165 quick_test/fbank/raw_fbank_train.3.ark:2163432
mjxa0_sx67 quick_test/fbank/raw_fbank_train.3.ark:5544176
mjkr0_sx391 quick_test/fbank/raw_fbank_train.3.ark:3577274
mdrd0_sx32 quick_test/fbank/raw_fbank_train.2.ark:8870608
megj0_si707 quick_test/fbank/raw_fbank_train.2.ark:9859992
mcre0_si1751 quick_test/fbank/raw_fbank_train.2.ark:5533934
fcjf0_sx37 quick_test/fbank/raw_fbank_train.1.ark:1702768
fsgf0_sx387 quick_test/fbank/raw_fbank_train.1.ark:11692881
fmjf0_sx84 quick_test/fbank/raw_fbank_train.1.ark:9018915
mdem0_si608 quick_test/fbank/raw_fbank_train.2.ark:6889047
mdjm0_si1455 quick_test/fbank/raw_fbank_train.2.ark:7187408
mgsl0_si534 quick_test/fbank/raw_fbank_train.3.ark:713021
ftmg0_sx182 quick_test/fbank/raw_fbank_train.2.ark:1678604
mkln0_sx68 quick_test/fbank/raw_fbank_train.3.ark:6639569
mrlk0_sx123 quick_test/fbank/raw_fbank_train.4.ark:3549415
mrjh0_sx439 quick_test/fbank/raw_fbank_train.4.ark:2776234
mtdb0_sx411 quick_test/fbank/raw_fbank_train.4.ark:7838290
mddc0_sx69 quick_test/fbank/raw_fbank_train.2.ark:6670689
mprb0_si1215 quick_test/fbank/raw_fbank_train.4.ark:59058
mdcm0_sx130 quick_test/fbank/raw_fbank_train.2.ark:6533693
msat1_si2333 quick_test/fbank/raw_fbank_train.4.ark:5520288
mjeb1_si2097 quick_test/fbank/raw_fbank_train.3.ark:2698197
fjkl0_sx392 quick_test/fbank/raw_fbank_train.1.ark:5241144
mdlr1_si1299 quick_test/fbank/raw_fbank_train.2.ark:8088394
flma0_si1243 quick_test/fbank/raw_fbank_train.1.ark:8045578
mwac0_sx431 quick_test/fbank/raw_fbank_train.4.ark:10574126
msas0_sx26 quick_test/fbank/raw_fbank_train.4.ark:5384975
mklw0_sx401 quick_test/fbank/raw_fbank_train.3.ark:7017720
fear0_si1882 quick_test/fbank/raw_fbank_train.1.ark:3543525
mrds0_sx87 quick_test/fbank/raw_fbank_train.4.ark:1635112
msds0_si1077 quick_test/fbank/raw_fbank_train.4.ark:5763057
fspm0_sx71 quick_test/fbank/raw_fbank_train.2.ark:1049961
mjdg0_sx52 quick_test/fbank/raw_fbank_train.3.ark:2461719
maeb0_sx270 quick_test/fbank/raw_fbank_train.2.ark:2359053
mdbp0_sx78 quick_test/fbank/raw_fbank_train.2.ark:6386214
fjrb0_sx132 quick_test/fbank/raw_fbank_train.1.ark:5482809
mjma0_sx145 quick_test/fbank/raw_fbank_train.3.ark:3916764
fapb0_sx343 quick_test/fbank/raw_fbank_train.1.ark:479235
fsls0_sx202 quick_test/fbank/raw_fbank_train.2.ark:595883
feac0_sx345 quick_test/fbank/raw_fbank_train.1.ark:3495512
mrms0_sx390 quick_test/fbank/raw_fbank_train.4.ark:4183019
mcdr0_sx74 quick_test/fbank/raw_fbank_train.2.ark:4902161
mrdm0_si1044 quick_test/fbank/raw_fbank_train.4.ark:1458576
fsma0_si1621 quick_test/fbank/raw_fbank_train.2.ark:639335
mjda0_sx131 quick_test/fbank/raw_fbank_train.3.ark:2096233
mlel0_sx256 quick_test/fbank/raw_fbank_train.3.ark:7388154
mdlr0_sx153 quick_test/fbank/raw_fbank_train.2.ark:8018749
mtbc0_sx93 quick_test/fbank/raw_fbank_train.4.ark:7654032
mtmn0_si1064 quick_test/fbank/raw_fbank_train.4.ark:9001032
fear0_si622 quick_test/fbank/raw_fbank_train.1.ark:3551958
mjee0_sx157 quick_test/fbank/raw_fbank_train.3.ark:2819728
fskc0_sx246 quick_test/fbank/raw_fbank_train.2.ark:298727
mdlr1_sx129 quick_test/fbank/raw_fbank_train.2.ark:8130814
flod0_si1287 quick_test/fbank/raw_fbank_train.1.ark:8329334
fmbg0_si1790 quick_test/fbank/raw_fbank_train.1.ark:8639885
mbar0_si689 quick_test/fbank/raw_fbank_train.2.ark:3196775
fsag0_si1323 quick_test/fbank/raw_fbank_train.1.ark:10878274
mtcs0_si712 quick_test/fbank/raw_fbank_train.4.ark:7676613
mrld0_si1594 quick_test/fbank/raw_fbank_train.4.ark:3239599
mljc0_sx325 quick_test/fbank/raw_fbank_train.3.ark:7507772
mjlg1_sx112 quick_test/fbank/raw_fbank_train.3.ark:3717274
ftbr0_sx291 quick_test/fbank/raw_fbank_train.2.ark:1417548
fmkf0_sx6 quick_test/fbank/raw_fbank_train.1.ark:9321757
fjlg0_sx89 quick_test/fbank/raw_fbank_train.1.ark:5340290
fljd0_si886 quick_test/fbank/raw_fbank_train.1.ark:7747051
mhit0_si2243 quick_test/fbank/raw_fbank_train.3.ark:1018333
mpsw0_si1067 quick_test/fbank/raw_fbank_train.4.ark:485643
mjda0_si1661 quick_test/fbank/raw_fbank_train.3.ark:2073286
fvfb0_sx222 quick_test/fbank/raw_fbank_train.2.ark:1782663
mkam0_si1465 quick_test/fbank/raw_fbank_train.3.ark:5980017
fhxs0_si1075 quick_test/fbank/raw_fbank_train.1.ark:4717169
fsrh0_sx131 quick_test/fbank/raw_fbank_train.2.ark:1086455
mgxp0_sx277 quick_test/fbank/raw_fbank_train.3.ark:867864
mdsj0_si832 quick_test/fbank/raw_fbank_train.2.ark:8922902
fpaz0_sx63 quick_test/fbank/raw_fbank_train.1.ark:10286811
fdfb0_sx328 quick_test/fbank/raw_fbank_train.1.ark:2656949
mkaj0_sx154 quick_test/fbank/raw_fbank_train.3.ark:5901744
fjlr0_sx421 quick_test/fbank/raw_fbank_train.1.ark:5425963
mtpp0_sx248 quick_test/fbank/raw_fbank_train.4.ark:9434945
fexm0_sx381 quick_test/fbank/raw_fbank_train.1.ark:4164928
mtrt0_sx237 quick_test/fbank/raw_fbank_train.4.ark:9965469
mddc0_si1419 quick_test/fbank/raw_fbank_train.2.ark:6591578
mtcs0_si2265 quick_test/fbank/raw_fbank_train.4.ark:7670060
faem0_sx312 quick_test/fbank/raw_fbank_train.1.ark:62819
mjkr0_sx301 quick_test/fbank/raw_fbank_train.3.ark:3553689
mesj0_sx187 quick_test/fbank/raw_fbank_train.2.ark:10266763
fvkb0_sx259 quick_test/fbank/raw_fbank_train.2.ark:1868888
mjdm0_si974 quick_test/fbank/raw_fbank_train.3.ark:2500860
mjwg0_sx85 quick_test/fbank/raw_fbank_train.3.ark:5235941
mdma0_sx260 quick_test/fbank/raw_fbank_train.2.ark:8249073
mgak0_si1666 quick_test/fbank/raw_fbank_train.2.ark:11161427
fljd0_sx166 quick_test/fbank/raw_fbank_train.1.ark:7754924
mjrk0_sx250 quick_test/fbank/raw_fbank_train.3.ark:4873089
mcal0_sx58 quick_test/fbank/raw_fbank_train.2.ark:4604566
mrws0_si472 quick_test/fbank/raw_fbank_train.4.ark:5060801
mtjs0_si1822 quick_test/fbank/raw_fbank_train.4.ark:8290610
fjhk0_sx212 quick_test/fbank/raw_fbank_train.1.ark:5112301
mjlg1_sx292 quick_test/fbank/raw_fbank_train.3.ark:3744932
mcpm0_sx204 quick_test/fbank/raw_fbank_train.2.ark:5476454
fsbk0_sx79 quick_test/fbank/raw_fbank_train.1.ark:11293621
fkfb0_si2238 quick_test/fbank/raw_fbank_train.1.ark:6510554
fbas0_si1472 quick_test/fbank/raw_fbank_train.1.ark:541808
mtmt0_sx128 quick_test/fbank/raw_fbank_train.4.ark:9148557
fcke0_sx31 quick_test/fbank/raw_fbank_train.1.ark:1889138
mgsh0_si1806 quick_test/fbank/raw_fbank_train.3.ark:611999
mmeb0_sx327 quick_test/fbank/raw_fbank_train.3.ark:9208565
mkdt0_sx83 quick_test/fbank/raw_fbank_train.3.ark:6347054
fkaa0_sx128 quick_test/fbank/raw_fbank_train.1.ark:6213664
fsbk0_si1699 quick_test/fbank/raw_fbank_train.1.ark:11215303
mtkp0_sx303 quick_test/fbank/raw_fbank_train.4.ark:8673937
fklc1_sx328 quick_test/fbank/raw_fbank_train.1.ark:6875762
mgar0_si1212 quick_test/fbank/raw_fbank_train.3.ark:13
fecd0_sx248 quick_test/fbank/raw_fbank_train.1.ark:3698529
mrfk0_sx356 quick_test/fbank/raw_fbank_train.4.ark:2107133
mrgs0_si726 quick_test/fbank/raw_fbank_train.4.ark:2396469
mpar0_sx46 quick_test/fbank/raw_fbank_train.3.ark:10811581
fsmm0_sx54 quick_test/fbank/raw_fbank_train.2.ark:837431
mjlb0_si1616 quick_test/fbank/raw_fbank_train.3.ark:3587108
mjeb0_sx386 quick_test/fbank/raw_fbank_train.3.ark:2669529
msvs0_sx398 quick_test/fbank/raw_fbank_train.4.ark:7141107
mwch0_sx272 quick_test/fbank/raw_fbank_train.4.ark:10810778
mjrh0_si1125 quick_test/fbank/raw_fbank_train.3.ark:4629265
mrvg0_si1770 quick_test/fbank/raw_fbank_train.4.ark:4864638
mjpg0_si561 quick_test/fbank/raw_fbank_train.3.ark:4170127
fsjg0_sx310 quick_test/fbank/raw_fbank_train.1.ark:11789281
mreh1_sx249 quick_test/fbank/raw_fbank_train.4.ark:1808265
frjb0_sx347 quick_test/fbank/raw_fbank_train.1.ark:10738031
flod0_sx207 quick_test/fbank/raw_fbank_train.1.ark:8392020
fdtd0_si931 quick_test/fbank/raw_fbank_train.1.ark:3261722
mbom0_sx311 quick_test/fbank/raw_fbank_train.2.ark:4089973
mjae0_sx84 quick_test/fbank/raw_fbank_train.3.ark:1851648
mejs0_sx250 quick_test/fbank/raw_fbank_train.2.ark:10083066
mfer0_si862 quick_test/fbank/raw_fbank_train.2.ark:10409418
mhxl0_sx242 quick_test/fbank/raw_fbank_train.3.ark:1519917
mljc0_sx145 quick_test/fbank/raw_fbank_train.3.ark:7483506
mlbc0_si1239 quick_test/fbank/raw_fbank_train.3.ark:7232996
mmab1_sx54 quick_test/fbank/raw_fbank_train.3.ark:8061682
mstf0_sx226 quick_test/fbank/raw_fbank_train.4.ark:6984424
mpfu0_si628 quick_test/fbank/raw_fbank_train.3.ark:10935707
mdbb1_sx196 quick_test/fbank/raw_fbank_train.2.ark:6254363
mrlr0_sx386 quick_test/fbank/raw_fbank_train.4.ark:3684931
fmmh0_si2167 quick_test/fbank/raw_fbank_train.1.ark:9361097
mdss0_sx261 quick_test/fbank/raw_fbank_train.2.ark:9038073
mdpb0_si2126 quick_test/fbank/raw_fbank_train.2.ark:8518209
mtpr0_si506 quick_test/fbank/raw_fbank_train.4.ark:9514984
mcre0_sx221 quick_test/fbank/raw_fbank_train.2.ark:5560080
mrjm1_sx308 quick_test/fbank/raw_fbank_train.4.ark:2971452
madc0_sx377 quick_test/fbank/raw_fbank_train.2.ark:2197221
marc0_si1818 quick_test/fbank/raw_fbank_train.2.ark:2998412
mwsh0_sx76 quick_test/fbank/raw_fbank_train.4.ark:11543770
mjfh0_sx117 quick_test/fbank/raw_fbank_train.3.ark:2920953
fajw0_sx183 quick_test/fbank/raw_fbank_train.1.ark:151578
flag0_sx384 quick_test/fbank/raw_fbank_train.1.ark:7308767
fjdm2_si1582 quick_test/fbank/raw_fbank_train.1.ark:4839235
feac0_si615 quick_test/fbank/raw_fbank_train.1.ark:3453053
mrld0_sx64 quick_test/fbank/raw_fbank_train.4.ark:3315750
mbgt0_sx351 quick_test/fbank/raw_fbank_train.2.ark:3606734
mdem0_sx338 quick_test/fbank/raw_fbank_train.2.ark:6953539
mrjm0_sx418 quick_test/fbank/raw_fbank_train.4.ark:2880660
fdaw0_sx416 quick_test/fbank/raw_fbank_train.1.ark:2584476
mmws1_si2331 quick_test/fbank/raw_fbank_train.3.ark:10390120
mstf0_sx136 quick_test/fbank/raw_fbank_train.4.ark:6969751
mrpc1_sx312 quick_test/fbank/raw_fbank_train.4.ark:4243660
mjde0_sx40 quick_test/fbank/raw_fbank_train.3.ark:2347900
mwdk0_si2017 quick_test/fbank/raw_fbank_train.4.ark:10873544
mmag0_sx136 quick_test/fbank/raw_fbank_train.3.ark:8120176
mrcg0_sx168 quick_test/fbank/raw_fbank_train.4.ark:1200600
msfv0_si632 quick_test/fbank/raw_fbank_train.4.ark:6246746
mdtb0_sx390 quick_test/fbank/raw_fbank_train.2.ark:9241062
mses0_si2216 quick_test/fbank/raw_fbank_train.4.ark:6027462
mjjm0_sx287 quick_test/fbank/raw_fbank_train.3.ark:3460656
mmsm0_sx116 quick_test/fbank/raw_fbank_train.3.ark:9965492
msem1_sx90 quick_test/fbank/raw_fbank_train.4.ark:6000154
fcke0_sx211 quick_test/fbank/raw_fbank_train.1.ark:1867433
mdlc0_si1395 quick_test/fbank/raw_fbank_train.2.ark:7502404
medr0_sx114 quick_test/fbank/raw_fbank_train.2.ark:9679577
mlsh0_sx337 quick_test/fbank/raw_fbank_train.3.ark:7828927
mdtb0_sx321 quick_test/fbank/raw_fbank_train.2.ark:9227229
mmdm0_si1941 quick_test/fbank/raw_fbank_train.3.ark:8823126
mjpm0_sx378 quick_test/fbank/raw_fbank_train.3.ark:4319756
mkrg0_sx141 quick_test/fbank/raw_fbank_train.3.ark:7092326
msdb0_sx287 quick_test/fbank/raw_fbank_train.4.ark:5645005
msfh0_si586 quick_test/fbank/raw_fbank_train.4.ark:6136481
mrjt0_sx328 quick_test/fbank/raw_fbank_train.4.ark:3069037
flkm0_sx80 quick_test/fbank/raw_fbank_train.1.ark:8035864
mmws1_sx261 quick_test/fbank/raw_fbank_train.3.ark:10399313
fsgf0_sx27 quick_test/fbank/raw_fbank_train.1.ark:11675055
mgjc0_sx165 quick_test/fbank/raw_fbank_train.3.ark:315070
mjmm0_si1885 quick_test/fbank/raw_fbank_train.3.ark:4069029
mmea0_sx218 quick_test/fbank/raw_fbank_train.3.ark:9125700
mbwp0_sx79 quick_test/fbank/raw_fbank_train.2.ark:4381878
mmwb0_sx359 quick_test/fbank/raw_fbank_train.3.ark:10220449
mmwb0_sx179 quick_test/fbank/raw_fbank_train.3.ark:10192103
mfer0_si1492 quick_test/fbank/raw_fbank_train.2.ark:10396911
mdlc1_sx445 quick_test/fbank/raw_fbank_train.2.ark:7687909
mhbs0_si2205 quick_test/fbank/raw_fbank_train.3.ark:927108
fceg0_si1248 quick_test/fbank/raw_fbank_train.1.ark:1560465
fhlm0_sx210 quick_test/fbank/raw_fbank_train.1.ark:4661876
mfmc0_sx232 quick_test/fbank/raw_fbank_train.2.ark:10533429
fdxw0_sx161 quick_test/fbank/raw_fbank_train.1.ark:3373381
megj0_sx257 quick_test/fbank/raw_fbank_train.2.ark:9896538
majp0_sx264 quick_test/fbank/raw_fbank_train.2.ark:2638810
fmjf0_sx354 quick_test/fbank/raw_fbank_train.1.ark:8994410
msat1_sx83 quick_test/fbank/raw_fbank_train.4.ark:5580092
mjjb0_sx59 quick_test/fbank/raw_fbank_train.3.ark:3263639
mdef0_sx123 quick_test/fbank/raw_fbank_train.2.ark:6828569
mmgk0_si692 quick_test/fbank/raw_fbank_train.3.ark:9467534
mfmc0_sx52 quick_test/fbank/raw_fbank_train.2.ark:10571367
mhrm0_si2218 quick_test/fbank/raw_fbank_train.3.ark:1385434
fcaj0_sx219 quick_test/fbank/raw_fbank_train.1.ark:1386028
mbjv0_sx257 quick_test/fbank/raw_fbank_train.2.ark:3692806
mkdb0_si2132 quick_test/fbank/raw_fbank_train.3.ark:6056135
mhjb0_si1647 quick_test/fbank/raw_fbank_train.3.ark:1114998
ftaj0_si1329 quick_test/fbank/raw_fbank_train.2.ark:1263166
mrai0_sx72 quick_test/fbank/raw_fbank_train.4.ark:864389
mrlr0_si1196 quick_test/fbank/raw_fbank_train.4.ark:3600260
mjwt0_sx31 quick_test/fbank/raw_fbank_train.3.ark:5443958
mmvp0_si654 quick_test/fbank/raw_fbank_train.3.ark:10046084
mcre0_si1725 quick_test/fbank/raw_fbank_train.2.ark:5527300
flma0_sx73 quick_test/fbank/raw_fbank_train.1.ark:8123249
mrem0_si511 quick_test/fbank/raw_fbank_train.4.ark:1870950
marc0_si558 quick_test/fbank/raw_fbank_train.2.ark:3007445
mkam0_sx56 quick_test/fbank/raw_fbank_train.3.ark:6044461
falr0_si1325 quick_test/fbank/raw_fbank_train.1.ark:310923
fkkh0_sx300 quick_test/fbank/raw_fbank_train.1.ark:6692303
mtcs0_sx442 quick_test/fbank/raw_fbank_train.4.ark:7735945
mpsw0_si1697 quick_test/fbank/raw_fbank_train.4.ark:495317
mtjg0_sx440 quick_test/fbank/raw_fbank_train.4.ark:8159205
mjsr0_si1424 quick_test/fbank/raw_fbank_train.3.ark:5006966
mmam0_si1597 quick_test/fbank/raw_fbank_train.3.ark:8188781
fvmh0_sx206 quick_test/fbank/raw_fbank_train.2.ark:1981553
fljd0_sx76 quick_test/fbank/raw_fbank_train.1.ark:7803055
fskp0_si468 quick_test/fbank/raw_fbank_train.2.ark:474431
fapb0_si1063 quick_test/fbank/raw_fbank_train.1.ark:403268
fdtd0_sx211 quick_test/fbank/raw_fbank_train.1.ark:3286828
fjdm2_si1964 quick_test/fbank/raw_fbank_train.1.ark:4850229
fcyl0_sx37 quick_test/fbank/raw_fbank_train.1.ark:2375024
mjjj0_sx443 quick_test/fbank/raw_fbank_train.3.ark:3362872
mjrp0_sx135 quick_test/fbank/raw_fbank_train.3.ark:4952481
mbwp0_si709 quick_test/fbank/raw_fbank_train.2.ark:4310114
mkes0_si1253 quick_test/fbank/raw_fbank_train.3.ark:6357848
fhlm0_sx349 quick_test/fbank/raw_fbank_train.1.ark:4685622
fcke0_si481 quick_test/fbank/raw_fbank_train.1.ark:1837847
mdlc0_si765 quick_test/fbank/raw_fbank_train.2.ark:7540791
mbsb0_sx363 quick_test/fbank/raw_fbank_train.2.ark:4169317
fbcg1_si1612 quick_test/fbank/raw_fbank_train.1.ark:633960
mtjg0_si2157 quick_test/fbank/raw_fbank_train.4.ark:8093040
mkag0_si2239 quick_test/fbank/raw_fbank_train.3.ark:5676229
fkde0_si1771 quick_test/fbank/raw_fbank_train.1.ark:6302543
fjlr0_si1231 quick_test/fbank/raw_fbank_train.1.ark:5351804
mcew0_sx272 quick_test/fbank/raw_fbank_train.2.ark:5069713
mddc0_si2049 quick_test/fbank/raw_fbank_train.2.ark:6608372
mrld0_sx154 quick_test/fbank/raw_fbank_train.4.ark:3276579
mejl0_sx152 quick_test/fbank/raw_fbank_train.2.ark:9971288
fpmy0_si1783 quick_test/fbank/raw_fbank_train.1.ark:10506928
mprt0_sx400 quick_test/fbank/raw_fbank_train.4.ark:475729
mdpb0_sx416 quick_test/fbank/raw_fbank_train.2.ark:8582974
mdrd0_si2012 quick_test/fbank/raw_fbank_train.2.ark:8794964
mrfl0_sx256 quick_test/fbank/raw_fbank_train.4.ark:2200205
mded0_sx450 quick_test/fbank/raw_fbank_train.2.ark:6762322
mrcg0_sx438 quick_test/fbank/raw_fbank_train.4.ark:1242659
mdlc1_sx175 quick_test/fbank/raw_fbank_train.2.ark:7650210
mcre0_sx131 quick_test/fbank/raw_fbank_train.2.ark:5549687
fbas0_sx37 quick_test/fbank/raw_fbank_train.1.ark:609213
mabc0_sx421 quick_test/fbank/raw_fbank_train.2.ark:2083644
mrld0_sx334 quick_test/fbank/raw_fbank_train.4.ark:3296205
fjsk0_sx62 quick_test/fbank/raw_fbank_train.1.ark:5767711
mrlk0_sx303 quick_test/fbank/raw_fbank_train.4.ark:3571441
mjpg0_sx381 quick_test/fbank/raw_fbank_train.3.ark:4219731
mtdp0_sx81 quick_test/fbank/raw_fbank_train.4.ark:7969268
maeo0_sx66 quick_test/fbank/raw_fbank_train.2.ark:2490137
mhmr0_sx129 quick_test/fbank/raw_fbank_train.3.ark:1317835
mtju0_sx310 quick_test/fbank/raw_fbank_train.4.ark:8457487
fklh0_sx87 quick_test/fbank/raw_fbank_train.1.ark:7006332
fbmh0_sx416 quick_test/fbank/raw_fbank_train.1.ark:1123899
msrg0_sx411 quick_test/fbank/raw_fbank_train.4.ark:6807002
msdh0_si980 quick_test/fbank/raw_fbank_train.4.ark:5674379
mrlj1_sx51 quick_test/fbank/raw_fbank_train.4.ark:3491601
mdwh0_sx395 quick_test/fbank/raw_fbank_train.2.ark:9444512
fkkh0_sx120 quick_test/fbank/raw_fbank_train.1.ark:6659245
fdfb0_sx418 quick_test/fbank/raw_fbank_train.1.ark:2668262
mabc0_sx241 quick_test/fbank/raw_fbank_train.2.ark:2065258
mdem0_si800 quick_test/fbank/raw_fbank_train.2.ark:6907000
mram0_sx195 quick_test/fbank/raw_fbank_train.4.ark:937349
milb0_sx183 quick_test/fbank/raw_fbank_train.3.ark:1617028
mram0_sx15 quick_test/fbank/raw_fbank_train.4.ark:924196
mjda0_si2291 quick_test/fbank/raw_fbank_train.3.ark:2082960
fpad0_si1346 quick_test/fbank/raw_fbank_train.1.ark:9984130
flmk0_si2295 quick_test/fbank/raw_fbank_train.1.ark:8260856
fkaa0_sx398 quick_test/fbank/raw_fbank_train.1.ark:6267515
msdb0_si1007 quick_test/fbank/raw_fbank_train.4.ark:5591246
mbjv0_si1877 quick_test/fbank/raw_fbank_train.2.ark:3657267
mjda0_sx41 quick_test/fbank/raw_fbank_train.3.ark:2141404
mfmc0_sx412 quick_test/fbank/raw_fbank_train.2.ark:10559415
makr0_si1982 quick_test/fbank/raw_fbank_train.2.ark:2819042
mdlr0_si603 quick_test/fbank/raw_fbank_train.2.ark:8009036
fsjs0_sx361 quick_test/fbank/raw_fbank_train.2.ark:110990
fkdw0_sx397 quick_test/fbank/raw_fbank_train.1.ark:6479526
fcag0_sx333 quick_test/fbank/raw_fbank_train.1.ark:1306116
mppc0_sx62 quick_test/fbank/raw_fbank_train.4.ark:37510
mewm0_sx448 quick_test/fbank/raw_fbank_train.2.ark:10374765
fjwb1_sx255 quick_test/fbank/raw_fbank_train.1.ark:5926702
mkrg0_si861 quick_test/fbank/raw_fbank_train.3.ark:7074933
mgsh0_si546 quick_test/fbank/raw_fbank_train.3.ark:624912
mrdm0_si965 quick_test/fbank/raw_fbank_train.4.ark:1486003
mjmd0_sx308 quick_test/fbank/raw_fbank_train.3.ark:4017416
mpmb0_sx151 quick_test/fbank/raw_fbank_train.3.ark:11362360
fsmm0_si1944 quick_test/fbank/raw_fbank_train.2.ark:756034
fgrw0_si1782 quick_test/fbank/raw_fbank_train.1.ark:4520151
mfxv0_si1005 quick_test/fbank/raw_fbank_train.2.ark:10870718
mstf0_si852 quick_test/fbank/raw_fbank_train.4.ark:6950078
fgdp0_sx178 quick_test/fbank/raw_fbank_train.1.ark:4307327
mfrm0_sx435 quick_test/fbank/raw_fbank_train.2.ark:10654961
fsgf0_si2187 quick_test/fbank/raw_fbank_train.1.ark:11617444
mcae0_sx367 quick_test/fbank/raw_fbank_train.2.ark:4480558
fdjh0_sx125 quick_test/fbank/raw_fbank_train.1.ark:2732588
fssb0_sx362 quick_test/fbank/raw_fbank_train.2.ark:1215667
mcdr0_sx164 quick_test/fbank/raw_fbank_train.2.ark:4857110
mddc0_sx339 quick_test/fbank/raw_fbank_train.2.ark:6650664
mgrp0_si687 quick_test/fbank/raw_fbank_train.3.ark:510687
fcmg0_si1872 quick_test/fbank/raw_fbank_train.1.ark:2031618
mdef0_si1563 quick_test/fbank/raw_fbank_train.2.ark:6807502
mdlc0_sx405 quick_test/fbank/raw_fbank_train.2.ark:7584803
flmc0_sx336 quick_test/fbank/raw_fbank_train.1.ark:8203721
feme0_si1505 quick_test/fbank/raw_fbank_train.1.ark:3853486
msat1_si1073 quick_test/fbank/raw_fbank_train.4.ark:5496060
mkag0_sx259 quick_test/fbank/raw_fbank_train.3.ark:5717448
mppc0_si1412 quick_test/fbank/raw_fbank_train.3.ark:11454885
fcrz0_sx73 quick_test/fbank/raw_fbank_train.1.ark:2284352
msvs0_si1568 quick_test/fbank/raw_fbank_train.4.ark:7035116
fvmh0_si2096 quick_test/fbank/raw_fbank_train.2.ark:1944494
mhjb0_sx297 quick_test/fbank/raw_fbank_train.3.ark:1167003
mwdk0_si806 quick_test/fbank/raw_fbank_train.4.ark:10882937
mjxa0_sx337 quick_test/fbank/raw_fbank_train.3.ark:5524311
mmeb0_si1357 quick_test/fbank/raw_fbank_train.3.ark:9167672
mlbc0_sx159 quick_test/fbank/raw_fbank_train.3.ark:7274056
mtjm0_si1226 quick_test/fbank/raw_fbank_train.4.ark:8182951
mdwm0_sx16 quick_test/fbank/raw_fbank_train.2.ark:9510958
mrjb1_si1020 quick_test/fbank/raw_fbank_train.4.ark:2572610
mwad0_sx162 quick_test/fbank/raw_fbank_train.4.ark:10629453
mkdb0_sx152 quick_test/fbank/raw_fbank_train.3.ark:6091234
mcdd0_si2143 quick_test/fbank/raw_fbank_train.2.ark:4722179
fjrb0_si1302 quick_test/fbank/raw_fbank_train.1.ark:5451789
mkdb0_si588 quick_test/fbank/raw_fbank_train.3.ark:6069488
mdlh0_si700 quick_test/fbank/raw_fbank_train.2.ark:7814866
mdhl0_sx359 quick_test/fbank/raw_fbank_train.2.ark:7056644
mdlh0_sx250 quick_test/fbank/raw_fbank_train.2.ark:7847972
fcmm0_sx183 quick_test/fbank/raw_fbank_train.1.ark:2145236
fdml0_sx429 quick_test/fbank/raw_fbank_train.1.ark:2963139
mklr0_si2319 quick_test/fbank/raw_fbank_train.3.ark:6675071
mmdg0_si2035 quick_test/fbank/raw_fbank_train.3.ark:8714261
fmkf0_si906 quick_test/fbank/raw_fbank_train.1.ark:9272507
mjlb0_si2246 quick_test/fbank/raw_fbank_train.3.ark:3604382
mpgr0_si780 quick_test/fbank/raw_fbank_train.3.ark:11122436
fsmm0_sx414 quick_test/fbank/raw_fbank_train.2.ark:823439
mtpp0_sx68 quick_test/fbank/raw_fbank_train.4.ark:9471083
fsdc0_sx142 quick_test/fbank/raw_fbank_train.1.ark:11461660
mmxs0_sx336 quick_test/fbank/raw_fbank_train.3.ark:10500842
faem0_si1392 quick_test/fbank/raw_fbank_train.1.ark:13
mdpk0_sx243 quick_test/fbank/raw_fbank_train.2.ark:8646093
madd0_sx178 quick_test/fbank/raw_fbank_train.2.ark:2243915
mjeb0_sx296 quick_test/fbank/raw_fbank_train.3.ark:2658816
mrmg0_si1710 quick_test/fbank/raw_fbank_train.4.ark:3799944
mwgr0_sx346 quick_test/fbank/raw_fbank_train.4.ark:11121327
mfwk0_sx439 quick_test/fbank/raw_fbank_train.2.ark:10750346
mgak0_sx46 quick_test/fbank/raw_fbank_train.2.ark:11244145
mkrg0_sx231 quick_test/fbank/raw_fbank_train.3.ark:7105399
mwsb0_sx6 quick_test/fbank/raw_fbank_train.4.ark:11422033
mjjj0_sx173 quick_test/fbank/raw_fbank_train.3.ark:3320733
mesj0_si2039 quick_test/fbank/raw_fbank_train.2.ark:10223743
mtjs0_si1192 quick_test/fbank/raw_fbank_train.4.ark:8280896
fcyl0_sx397 quick_test/fbank/raw_fbank_train.1.ark:2385857
mter0_si1157 quick_test/fbank/raw_fbank_train.4.ark:7981702
ftlg0_si840 quick_test/fbank/raw_fbank_train.2.ark:1574466
fdtd0_si1561 quick_test/fbank/raw_fbank_train.1.ark:3235615
mjpg0_sx291 quick_test/fbank/raw_fbank_train.3.ark:4211378
mtrc0_si1623 quick_test/fbank/raw_fbank_train.4.ark:9725647
msrr0_si1131 quick_test/fbank/raw_fbank_train.4.ark:6828548
mhxl0_si512 quick_test/fbank/raw_fbank_train.3.ark:1484138
mdcm0_sx310 quick_test/fbank/raw_fbank_train.2.ark:6558719
fmem0_sx333 quick_test/fbank/raw_fbank_train.1.ark:8792674
fexm0_si1101 quick_test/fbank/raw_fbank_train.1.ark:4059536
mjpg0_si1191 quick_test/fbank/raw_fbank_train.3.ark:4143660
fmmh0_si907 quick_test/fbank/raw_fbank_train.1.ark:9374930
mhrm0_si958 quick_test/fbank/raw_fbank_train.3.ark:1396947
fbas0_sx127 quick_test/fbank/raw_fbank_train.1.ark:584755
mjrh0_sx135 quick_test/fbank/raw_fbank_train.3.ark:4671486
mhmg0_si1365 quick_test/fbank/raw_fbank_train.3.ark:1184870
mbar0_sx59 quick_test/fbank/raw_fbank_train.2.ark:3265099
frll0_si1514 quick_test/fbank/raw_fbank_train.1.ark:10781290
mrgs0_sx96 quick_test/fbank/raw_fbank_train.4.ark:2470391
mdbb1_sx286 quick_test/fbank/raw_fbank_train.2.ark:6262356
msms0_sx443 quick_test/fbank/raw_fbank_train.4.ark:6714657
mjeb0_sx206 quick_test/fbank/raw_fbank_train.3.ark:2636151
mfxv0_sx105 quick_test/fbank/raw_fbank_train.2.ark:10913619
fexm0_sx111 quick_test/fbank/raw_fbank_train.1.ark:4104076
mtmt0_sx38 quick_test/fbank/raw_fbank_train.4.ark:9180975
mbth0_si2102 quick_test/fbank/raw_fbank_train.2.ark:4185983
mkah0_sx358 quick_test/fbank/raw_fbank_train.3.ark:5829345
mklw0_si1571 quick_test/fbank/raw_fbank_train.3.ark:6940600
mkls1_sx15 quick_test/fbank/raw_fbank_train.3.ark:6897147
mljh0_sx424 quick_test/fbank/raw_fbank_train.3.ark:7643150
mmaa0_sx35 quick_test/fbank/raw_fbank_train.3.ark:7948704
mtrr0_sx288 quick_test/fbank/raw_fbank_train.4.ark:9881909
mgjc0_sx255 quick_test/fbank/raw_fbank_train.3.ark:330383
fjdm2_sx52 quick_test/fbank/raw_fbank_train.1.ark:4933187
fajw0_sx273 quick_test/fbank/raw_fbank_train.1.ark:163691
mwac0_sx161 quick_test/fbank/raw_fbank_train.4.ark:10524227
fmmh0_sx187 quick_test/fbank/raw_fbank_train.1.ark:9388123
mdlr1_si669 quick_test/fbank/raw_fbank_train.2.ark:8112581
mjeb0_sx26 quick_test/fbank/raw_fbank_train.3.ark:2649863
mree0_sx24 quick_test/fbank/raw_fbank_train.4.ark:1714592
mdtb0_si1200 quick_test/fbank/raw_fbank_train.2.ark:9166710
mrso0_sx309 quick_test/fbank/raw_fbank_train.4.ark:4474070
mlsh0_si1417 quick_test/fbank/raw_fbank_train.3.ark:7760321
mtjs0_sx22 quick_test/fbank/raw_fbank_train.4.ark:8356581
mcdd0_sx343 quick_test/fbank/raw_fbank_train.2.ark:4765871
mtqc0_sx451 quick_test/fbank/raw_fbank_train.4.ark:9690461
mreh1_sx429 quick_test/fbank/raw_fbank_train.4.ark:1831531
mdlc1_si2065 quick_test/fbank/raw_fbank_train.2.ark:7627623
fapb0_sx163 quick_test/fbank/raw_fbank_train.1.ark:454089
mrlk0_sx213 quick_test/fbank/raw_fbank_train.4.ark:3562688
feac0_sx435 quick_test/fbank/raw_fbank_train.1.ark:3506825
fssb0_sx92 quick_test/fbank/raw_fbank_train.2.ark:1249132
mrtc0_si828 quick_test/fbank/raw_fbank_train.4.ark:4654141
fmah1_sx69 quick_test/fbank/raw_fbank_train.1.ark:8606577
mmar0_sx166 quick_test/fbank/raw_fbank_train.3.ark:8318587
fbjl0_sx202 quick_test/fbank/raw_fbank_train.1.ark:894582
mjai0_sx254 quick_test/fbank/raw_fbank_train.3.ark:1930614
mbml0_sx179 quick_test/fbank/raw_fbank_train.2.ark:3968008
mbma1_sx324 quick_test/fbank/raw_fbank_train.2.ark:3891569
mvjh0_sx206 quick_test/fbank/raw_fbank_train.4.ark:10258945
mgrl0_si1497 quick_test/fbank/raw_fbank_train.3.ark:387795
feac0_sx165 quick_test/fbank/raw_fbank_train.1.ark:3470486
mrhl0_si2145 quick_test/fbank/raw_fbank_train.4.ark:2486779
mdas0_si1266 quick_test/fbank/raw_fbank_train.2.ark:6106815
mjhi0_si698 quick_test/fbank/raw_fbank_train.3.ark:3100969
msfv0_sx362 quick_test/fbank/raw_fbank_train.4.ark:6288205
mjfh0_si1107 quick_test/fbank/raw_fbank_train.3.ark:2884253
fdnc0_sx108 quick_test/fbank/raw_fbank_train.1.ark:3170210
fecd0_sx68 quick_test/fbank/raw_fbank_train.1.ark:3739507
mmam0_sx157 quick_test/fbank/raw_fbank_train.3.ark:8221002
mtqc0_si1441 quick_test/fbank/raw_fbank_train.4.ark:9590262
mklw0_sx131 quick_test/fbank/raw_fbank_train.3.ark:6975781
fskc0_si1416 quick_test/fbank/raw_fbank_train.2.ark:256514
mrdd0_si2310 quick_test/fbank/raw_fbank_train.4.ark:1392738
medr0_sx204 quick_test/fbank/raw_fbank_train.2.ark:9689970
fjlg0_sx179 quick_test/fbank/raw_fbank_train.1.ark:5287039
mlsh0_sx247 quick_test/fbank/raw_fbank_train.3.ark:7811214
msfh0_si1216 quick_test/fbank/raw_fbank_train.4.ark:6099454
mdbp0_sx258 quick_test/fbank/raw_fbank_train.2.ark:6340876
mtmn0_si582 quick_test/fbank/raw_fbank_train.4.ark:9031379
mrtc0_si1458 quick_test/fbank/raw_fbank_train.4.ark:4619954
mafm0_si1569 quick_test/fbank/raw_fbank_train.2.ark:2499331
mdlc0_si2025 quick_test/fbank/raw_fbank_train.2.ark:7523638
mrav0_si2268 quick_test/fbank/raw_fbank_train.4.ark:991197
msms0_sx353 quick_test/fbank/raw_fbank_train.4.ark:6702744
fljg0_sx261 quick_test/fbank/raw_fbank_train.1.ark:7878622
mrws0_si1102 quick_test/fbank/raw_fbank_train.4.ark:5036374
fdml0_si2075 quick_test/fbank/raw_fbank_train.1.ark:2925927
mrms0_si1113 quick_test/fbank/raw_fbank_train.4.ark:4103627
mjrh1_si514 quick_test/fbank/raw_fbank_train.3.ark:4758558
mrso0_sx219 quick_test/fbank/raw_fbank_train.4.ark:4458197
mdwh0_si665 quick_test/fbank/raw_fbank_train.2.ark:9372468
fskc0_si786 quick_test/fbank/raw_fbank_train.2.ark:280901
mdlc2_sx354 quick_test/fbank/raw_fbank_train.2.ark:7759621
fgmb0_si1145 quick_test/fbank/raw_fbank_train.1.ark:4384012
mbwp0_si1969 quick_test/fbank/raw_fbank_train.2.ark:4299001
fbjl0_si922 quick_test/fbank/raw_fbank_train.1.ark:864036
mcew0_sx452 quick_test/fbank/raw_fbank_train.2.ark:5101339
fpls0_sx150 quick_test/fbank/raw_fbank_train.1.ark:10435411
flod0_sx387 quick_test/fbank/raw_fbank_train.1.ark:8408806
mter0_sx257 quick_test/fbank/raw_fbank_train.4.ark:8046587
mzmb0_sx176 quick_test/fbank/raw_fbank_train.4.ark:11596944
flja0_si1078 quick_test/fbank/raw_fbank_train.1.ark:7609278
mdlm0_sx154 quick_test/fbank/raw_fbank_train.2.ark:7936204
mcef0_si842 quick_test/fbank/raw_fbank_train.2.ark:4935662
mdac0_sx91 quick_test/fbank/raw_fbank_train.2.ark:6097301
mesg0_si1332 quick_test/fbank/raw_fbank_train.2.ark:10124878
fgdp0_sx88 quick_test/fbank/raw_fbank_train.1.ark:4365218
fcjs0_sx437 quick_test/fbank/raw_fbank_train.1.ark:1786874
mtpp0_si1508 quick_test/fbank/raw_fbank_train.4.ark:9388892
mdns0_si873 quick_test/fbank/raw_fbank_train.2.ark:8430657
mjai0_sx74 quick_test/fbank/raw_fbank_train.3.ark:1957352
fjdm2_sx322 quick_test/fbank/raw_fbank_train.1.ark:4908882
msah1_sx239 quick_test/fbank/raw_fbank_train.4.ark:5263158
fbmh0_si970 quick_test/fbank/raw_fbank_train.1.ark:1076127
mdwm0_si1546 quick_test/fbank/raw_fbank_train.2.ark:9460826
mjsr0_sx344 quick_test/fbank/raw_fbank_train.3.ark:5090252
mddc0_si789 quick_test/fbank/raw_fbank_train.2.ark:6614285
fdkn0_sx181 quick_test/fbank/raw_fbank_train.1.ark:2828094
mdks0_si1696 quick_test/fbank/raw_fbank_train.2.ark:7290587
mdrd0_sx392 quick_test/fbank/raw_fbank_train.2.ark:8883001
mbcg0_sx57 quick_test/fbank/raw_fbank_train.2.ark:3448149
mree0_sx294 quick_test/fbank/raw_fbank_train.4.ark:1724145
mwsh0_si1426 quick_test/fbank/raw_fbank_train.4.ark:11440819
fcmm0_si1083 quick_test/fbank/raw_fbank_train.1.ark:2107136
mkls0_si1533 quick_test/fbank/raw_fbank_train.3.ark:6759543
mklr0_sx249 quick_test/fbank/raw_fbank_train.3.ark:6694257
mdjm0_si2085 quick_test/fbank/raw_fbank_train.2.ark:7206242
mwem0_sx60 quick_test/fbank/raw_fbank_train.4.ark:11045687
fdkn0_si1202 quick_test/fbank/raw_fbank_train.1.ark:2799427
mjma0_sx325 quick_test/fbank/raw_fbank_train.3.ark:3936270
mpmb0_sx241 quick_test/fbank/raw_fbank_train.3.ark:11379833
mwsb0_sx96 quick_test/fbank/raw_fbank_train.4.ark:11430545
mbjv0_si1247 quick_test/fbank/raw_fbank_train.2.ark:3645553
mgar0_sx402 quick_test/fbank/raw_fbank_train.3.ark:76853
mapv0_sx393 quick_test/fbank/raw_fbank_train.2.ark:2981584
mrpc1_sx42 quick_test/fbank/raw_fbank_train.4.ark:4269685
mdlb0_sx316 quick_test/fbank/raw_fbank_train.2.ark:7461025
mjwg0_sx445 quick_test/fbank/raw_fbank_train.3.ark:5225829
fcrz0_si1913 quick_test/fbank/raw_fbank_train.1.ark:2201841
mmrp0_si774 quick_test/fbank/raw_fbank_train.3.ark:9829554
mkam0_sx326 quick_test/fbank/raw_fbank_train.3.ark:6021156
fbch0_sx146 quick_test/fbank/raw_fbank_train.1.ark:778004
mkdt0_si814 quick_test/fbank/raw_fbank_train.3.ark:6264537
falk0_sx366 quick_test/fbank/raw_fbank_train.1.ark:273466
mfwk0_sx79 quick_test/fbank/raw_fbank_train.2.ark:10764178
mkls0_sx87 quick_test/fbank/raw_fbank_train.3.ark:6834701
fskp0_sx378 quick_test/fbank/raw_fbank_train.2.ark:527755
mtpg0_sx123 quick_test/fbank/raw_fbank_train.4.ark:9337847
fjlg0_sx269 quick_test/fbank/raw_fbank_train.1.ark:5299992
mzmb0_sx266 quick_test/fbank/raw_fbank_train.4.ark:11611937
mgjc0_si1965 quick_test/fbank/raw_fbank_train.3.ark:301757
fsdj0_si485 quick_test/fbank/raw_fbank_train.1.ark:11547612
mmpm0_sx161 quick_test/fbank/raw_fbank_train.3.ark:9745443
fskl0_si1529 quick_test/fbank/raw_fbank_train.2.ark:347179
fcag0_si2133 quick_test/fbank/raw_fbank_train.1.ark:1272777
fkkh0_sx210 quick_test/fbank/raw_fbank_train.1.ark:6672958
fklc0_si1615 quick_test/fbank/raw_fbank_train.1.ark:6715130
mrab0_sx414 quick_test/fbank/raw_fbank_train.4.ark:638427
mljc0_si1225 quick_test/fbank/raw_fbank_train.3.ark:7441846
mfer0_sx412 quick_test/fbank/raw_fbank_train.2.ark:10459630
fpls0_si1590 quick_test/fbank/raw_fbank_train.1.ark:10394991
mclk0_si1660 quick_test/fbank/raw_fbank_train.2.ark:5231751
msds0_sx357 quick_test/fbank/raw_fbank_train.4.ark:5841344
mtml0_sx255 quick_test/fbank/raw_fbank_train.4.ark:8949900
mtrt0_si597 quick_test/fbank/raw_fbank_train.4.ark:9943403
mcae0_si817 quick_test/fbank/raw_fbank_train.2.ark:4440259
mvrw0_si2115 quick_test/fbank/raw_fbank_train.4.ark:10416176
mgar0_sx42 quick_test/fbank/raw_fbank_train.3.ark:89405
mkln0_si1598 quick_test/fbank/raw_fbank_train.3.ark:6555058
mrlj1_sx411 quick_test/fbank/raw_fbank_train.4.ark:3480329
mmlm0_si897 quick_test/fbank/raw_fbank_train.3.ark:9651504
mjrg0_si1366 quick_test/fbank/raw_fbank_train.3.ark:4529000
msrg0_si1221 quick_test/fbank/raw_fbank_train.4.ark:6736443
fskp0_sx108 quick_test/fbank/raw_fbank_train.2.ark:485504
mtml0_sx435 quick_test/fbank/raw_fbank_train.4.ark:8970806
mzmb0_si536 quick_test/fbank/raw_fbank_train.4.ark:11582431
mrsp0_sx259 quick_test/fbank/raw_fbank_train.4.ark:4582255
fceg0_sx348 quick_test/fbank/raw_fbank_train.1.ark:1608831
fsjs0_sx271 quick_test/fbank/raw_fbank_train.2.ark:99277
mtdb0_sx141 quick_test/fbank/raw_fbank_train.4.ark:7805471
flac0_sx181 quick_test/fbank/raw_fbank_train.1.ark:7149931
mkls1_si1545 quick_test/fbank/raw_fbank_train.3.ark:6845655
mrjm1_sx38 quick_test/fbank/raw_fbank_train.4.ark:2985084
mmrp0_sx414 quick_test/fbank/raw_fbank_train.3.ark:9889766
mtas0_sx215 quick_test/fbank/raw_fbank_train.4.ark:7314259
fjlr0_sx241 quick_test/fbank/raw_fbank_train.1.ark:5401457
fcmm0_sx93 quick_test/fbank/raw_fbank_train.1.ark:2192847
mabc0_si1620 quick_test/fbank/raw_fbank_train.2.ark:2020165
mjrp0_sx405 quick_test/fbank/raw_fbank_train.3.ark:4985900
mgag0_si645 quick_test/fbank/raw_fbank_train.2.ark:11067962
fmem0_sx387 quick_test/fbank/raw_fbank_train.1.ark:8813507
mstf0_si766 quick_test/fbank/raw_fbank_train.4.ark:6941965
mlns0_si1407 quick_test/fbank/raw_fbank_train.3.ark:7670456
mjls0_sx376 quick_test/fbank/raw_fbank_train.3.ark:3860150
mcdc0_si1292 quick_test/fbank/raw_fbank_train.2.ark:4620320
fmmh0_sx7 quick_test/fbank/raw_fbank_train.1.ark:9424300
mtkd0_sx17 quick_test/fbank/raw_fbank_train.4.ark:8550798
fmpg0_si972 quick_test/fbank/raw_fbank_train.1.ark:9472113
fgrw0_si1152 quick_test/fbank/raw_fbank_train.1.ark:4498917
mrmb0_sx141 quick_test/fbank/raw_fbank_train.4.ark:3730665
mkln0_sx338 quick_test/fbank/raw_fbank_train.3.ark:6611984
fapb0_sx433 quick_test/fbank/raw_fbank_train.1.ark:495268
mmpm0_si2321 quick_test/fbank/raw_fbank_train.3.ark:9735010
mprb0_si575 quick_test/fbank/raw_fbank_train.4.ark:80051
mmaa0_sx395 quick_test/fbank/raw_fbank_train.3.ark:7958737
fspm0_si1241 quick_test/fbank/raw_fbank_train.2.ark:950410
mgaf0_si652 quick_test/fbank/raw_fbank_train.2.ark:10997211
medr0_sx24 quick_test/fbank/raw_fbank_train.2.ark:9699282
fdml0_sx159 quick_test/fbank/raw_fbank_train.1.ark:2932600
msrr0_sx51 quick_test/fbank/raw_fbank_train.4.ark:6916418
fjrp1_sx442 quick_test/fbank/raw_fbank_train.1.ark:5648933
mmea0_si758 quick_test/fbank/raw_fbank_train.3.ark:9101074
fdfb0_si1318 quick_test/fbank/raw_fbank_train.1.ark:2607582
fhlm0_sx300 quick_test/fbank/raw_fbank_train.1.ark:4674189
fpls0_si2220 quick_test/fbank/raw_fbank_train.1.ark:10404865
mrkm0_sx187 quick_test/fbank/raw_fbank_train.4.ark:3173556
mwad0_si1062 quick_test/fbank/raw_fbank_train.4.ark:10601792
mgsl0_sx174 quick_test/fbank/raw_fbank_train.3.ark:740407
freh0_sx55 quick_test/fbank/raw_fbank_train.1.ark:10678870
maeb0_sx90 quick_test/fbank/raw_fbank_train.2.ark:2394111
mjrh1_si1558 quick_test/fbank/raw_fbank_train.3.ark:4728331
mjae0_sx264 quick_test/fbank/raw_fbank_train.3.ark:1812470
mdwd0_si1260 quick_test/fbank/raw_fbank_train.2.ark:9251096
mjrk0_sx430 quick_test/fbank/raw_fbank_train.3.ark:4897235
mfxs0_si2304 quick_test/fbank/raw_fbank_train.2.ark:10792400
makb0_si1646 quick_test/fbank/raw_fbank_train.2.ark:2717336
mjrg0_sx376 quick_test/fbank/raw_fbank_train.3.ark:4617751
mwgr0_si1606 quick_test/fbank/raw_fbank_train.4.ark:11059921
mjws0_sx153 quick_test/fbank/raw_fbank_train.3.ark:5279875
mcdr0_sx344 quick_test/fbank/raw_fbank_train.2.ark:4881216
frll0_si884 quick_test/fbank/raw_fbank_train.1.ark:10810276
mrlj0_si2050 quick_test/fbank/raw_fbank_train.4.ark:3337498
fdaw0_si1406 quick_test/fbank/raw_fbank_train.1.ark:2521750
mmgk0_sx422 quick_test/fbank/raw_fbank_train.3.ark:9503346
mlbc0_sx429 quick_test/fbank/raw_fbank_train.3.ark:7305435
fjxp0_si492 quick_test/fbank/raw_fbank_train.1.ark:6111006
fsgf0_sx117 quick_test/fbank/raw_fbank_train.1.ark:11655310
fsls0_sx66 quick_test/fbank/raw_fbank_train.2.ark:628141
mbth0_si505 quick_test/fbank/raw_fbank_train.2.ark:4206936
mprk0_si467 quick_test/fbank/raw_fbank_train.4.ark:312341
fmbg0_sx80 quick_test/fbank/raw_fbank_train.1.ark:8708561
mdbp0_si528 quick_test/fbank/raw_fbank_train.2.ark:6310450
mgsl0_sx84 quick_test/fbank/raw_fbank_train.3.ark:794378
fvkb0_sx79 quick_test/fbank/raw_fbank_train.2.ark:1915986
mdbp0_sx348 quick_test/fbank/raw_fbank_train.2.ark:6353469
meal0_si2177 quick_test/fbank/raw_fbank_train.2.ark:9568165
mrvg0_sx420 quick_test/fbank/raw_fbank_train.4.ark:4914443
fcag0_sx153 quick_test/fbank/raw_fbank_train.1.ark:1281410
fcjs0_si1607 quick_test/fbank/raw_fbank_train.1.ark:1722195
mmsm0_sx206 quick_test/fbank/raw_fbank_train.3.ark:9974885
mkam0_si1316 quick_test/fbank/raw_fbank_train.3.ark:5968183
fsbk0_si2329 quick_test/fbank/raw_fbank_train.1.ark:11222177
mtmt0_sx218 quick_test/fbank/raw_fbank_train.4.ark:9158190
fpjf0_sx352 quick_test/fbank/raw_fbank_train.1.ark:10367085
fmpg0_sx342 quick_test/fbank/raw_fbank_train.1.ark:9523332
mbma0_sx52 quick_test/fbank/raw_fbank_train.2.ark:3819009
fjen0_sx327 quick_test/fbank/raw_fbank_train.1.ark:5009788
mrew1_si870 quick_test/fbank/raw_fbank_train.4.ark:1973968
mram0_sx375 quick_test/fbank/raw_fbank_train.4.ark:957335
mrml0_sx431 quick_test/fbank/raw_fbank_train.4.ark:4076161
mmag0_si496 quick_test/fbank/raw_fbank_train.3.ark:8108063
fpaz0_si2223 quick_test/fbank/raw_fbank_train.1.ark:10202575
mjfh0_sx387 quick_test/fbank/raw_fbank_train.3.ark:2953124
mkdt0_sx443 quick_test/fbank/raw_fbank_train.3.ark:6334222
mmaa0_si1588 quick_test/fbank/raw_fbank_train.3.ark:7864866
mgak0_si1036 quick_test/fbank/raw_fbank_train.2.ark:11142913
flja0_sx358 quick_test/fbank/raw_fbank_train.1.ark:7678725
mbjv0_sx347 quick_test/fbank/raw_fbank_train.2.ark:3699879
fcke0_si1741 quick_test/fbank/raw_fbank_train.1.ark:1819694
fjrp1_si802 quick_test/fbank/raw_fbank_train.1.ark:5584721
fdaw0_sx56 quick_test/fbank/raw_fbank_train.1.ark:2595188
mfer0_sx52 quick_test/fbank/raw_fbank_train.2.ark:10469942
feac0_si1245 quick_test/fbank/raw_fbank_train.1.ark:3429986
fnkl0_sx262 quick_test/fbank/raw_fbank_train.1.ark:9632677
fdaw0_sx146 quick_test/fbank/raw_fbank_train.1.ark:2551617
fclt0_si1438 quick_test/fbank/raw_fbank_train.1.ark:1903685
falr0_si1955 quick_test/fbank/raw_fbank_train.1.ark:324237
mtlb0_si504 quick_test/fbank/raw_fbank_train.4.ark:8729743
fjsk0_si1682 quick_test/fbank/raw_fbank_train.1.ark:5695913
fgrw0_sx72 quick_test/fbank/raw_fbank_train.1.ark:4604709
mdmt0_si1832 quick_test/fbank/raw_fbank_train.2.ark:8311285
fskl0_sx179 quick_test/fbank/raw_fbank_train.2.ark:386359
fjrb0_si1932 quick_test/fbank/raw_fbank_train.1.ark:5467023
mjpg0_sx201 quick_test/fbank/raw_fbank_train.3.ark:4193873
mjbg0_sx332 quick_test/fbank/raw_fbank_train.3.ark:2025233
falk0_si658 quick_test/fbank/raw_fbank_train.1.ark:232687
mchl0_sx87 quick_test/fbank/raw_fbank_train.2.ark:5221957
fgcs0_si856 quick_test/fbank/raw_fbank_train.1.ark:4198309
mjpm0_sx288 quick_test/fbank/raw_fbank_train.3.ark:4307083
mjeb0_si656 quick_test/fbank/raw_fbank_train.3.ark:2607645
mbml0_sx89 quick_test/fbank/raw_fbank_train.2.ark:4016419
feme0_sx155 quick_test/fbank/raw_fbank_train.1.ark:3895266
mses0_si2219 quick_test/fbank/raw_fbank_train.4.ark:6034816
ftaj0_si474 quick_test/fbank/raw_fbank_train.2.ark:1271559
mtlb0_sx144 quick_test/fbank/raw_fbank_train.4.ark:8740096
mges0_si851 quick_test/fbank/raw_fbank_train.3.ark:205091
flhd0_sx354 quick_test/fbank/raw_fbank_train.1.ark:7574339
mcss0_sx300 quick_test/fbank/raw_fbank_train.2.ark:5690608
mbar0_sx239 quick_test/fbank/raw_fbank_train.2.ark:3226521
fdas1_sx201 quick_test/fbank/raw_fbank_train.1.ark:2458704
fbch0_sx416 quick_test/fbank/raw_fbank_train.1.ark:813303
mree0_si1959 quick_test/fbank/raw_fbank_train.4.ark:1675974
mwsh0_si2266 quick_test/fbank/raw_fbank_train.4.ark:11460253
fecd0_si2048 quick_test/fbank/raw_fbank_train.1.ark:3656390
fblv0_si1058 quick_test/fbank/raw_fbank_train.1.ark:941034
mrvg0_si1140 quick_test/fbank/raw_fbank_train.4.ark:4854044
fdmy0_sx27 quick_test/fbank/raw_fbank_train.1.ark:3080089
flkm0_sx260 quick_test/fbank/raw_fbank_train.1.ark:7985406
maeo0_sx426 quick_test/fbank/raw_fbank_train.2.ark:2475505
fcjf0_si1027 quick_test/fbank/raw_fbank_train.1.ark:1644050
mjmd0_si2288 quick_test/fbank/raw_fbank_train.3.ark:3979317
fsdc0_si2234 quick_test/fbank/raw_fbank_train.1.ark:11455587
mbsb0_si1353 quick_test/fbank/raw_fbank_train.2.ark:4112320
mgsh0_si1176 quick_test/fbank/raw_fbank_train.3.ark:593125
mkes0_si1883 quick_test/fbank/raw_fbank_train.3.ark:6371002
mmag0_sx226 quick_test/fbank/raw_fbank_train.3.ark:8137129
mhjb0_sx117 quick_test/fbank/raw_fbank_train.3.ark:1143145
mtat0_sx210 quick_test/fbank/raw_fbank_train.4.ark:7414844
fsjg0_si2200 quick_test/fbank/raw_fbank_train.1.ark:11719189
mzmb0_sx86 quick_test/fbank/raw_fbank_train.4.ark:11647275
fsms1_si874 quick_test/fbank/raw_fbank_train.2.ark:875332
mmam0_si1668 quick_test/fbank/raw_fbank_train.3.ark:8203935
mdpk0_sx63 quick_test/fbank/raw_fbank_train.2.ark:8684191
mjsr0_si2054 quick_test/fbank/raw_fbank_train.3.ark:5022080
marc0_sx108 quick_test/fbank/raw_fbank_train.2.ark:3021398
mtjg0_si890 quick_test/fbank/raw_fbank_train.4.ark:8098793
mtcs0_sx172 quick_test/fbank/raw_fbank_train.4.ark:7698486
majp0_si2334 quick_test/fbank/raw_fbank_train.2.ark:2608184
msjk0_si1596 quick_test/fbank/raw_fbank_train.4.ark:6333024
fklh0_sx267 quick_test/fbank/raw_fbank_train.1.ark:6966274
mbgt0_si1341 quick_test/fbank/raw_fbank_train.2.ark:3539328
mrjm0_sx238 quick_test/fbank/raw_fbank_train.4.ark:2855794
mrgm0_sx442 quick_test/fbank/raw_fbank_train.4.ark:2338056
mjpm0_si738 quick_test/fbank/raw_fbank_train.3.ark:4261352
mmab1_si1494 quick_test/fbank/raw_fbank_train.3.ark:7970971
