flod0_sx207 raw_TIMIT_200ms/train/flod0_sx207.ark:12
mtrt0_sx57 raw_TIMIT_200ms/train/mtrt0_sx57.ark:11
mfwk0_si1879 raw_TIMIT_200ms/train/mfwk0_si1879.ark:13
fsmm0_sx234 raw_TIMIT_200ms/train/fsmm0_sx234.ark:12
fclt0_sx358 raw_TIMIT_200ms/train/fclt0_sx358.ark:12
falr0_sx65 raw_TIMIT_200ms/train/falr0_sx65.ark:11
mapv0_sx123 raw_TIMIT_200ms/train/mapv0_sx123.ark:12
mmsm0_sx26 raw_TIMIT_200ms/train/mmsm0_sx26.ark:11
makb0_sx26 raw_TIMIT_200ms/train/makb0_sx26.ark:11
fmpg0_si1602 raw_TIMIT_200ms/train/fmpg0_si1602.ark:13
mkdb0_sx332 raw_TIMIT_200ms/train/mkdb0_sx332.ark:12
fgcs0_si2116 raw_TIMIT_200ms/train/fgcs0_si2116.ark:13
mtwh1_sx72 raw_TIMIT_200ms/train/mtwh1_sx72.ark:11
mjai0_sx74 raw_TIMIT_200ms/train/mjai0_sx74.ark:11
fsjg0_sx130 raw_TIMIT_200ms/train/fsjg0_sx130.ark:12
mcew0_sx452 raw_TIMIT_200ms/train/mcew0_sx452.ark:12
fgmb0_si515 raw_TIMIT_200ms/train/fgmb0_si515.ark:12
mrsp0_sx169 raw_TIMIT_200ms/train/mrsp0_sx169.ark:12
fmmh0_si907 raw_TIMIT_200ms/train/fmmh0_si907.ark:12
mgrp0_si1317 raw_TIMIT_200ms/train/mgrp0_si1317.ark:13
mdks0_si2326 raw_TIMIT_200ms/train/mdks0_si2326.ark:13
mclm0_sx196 raw_TIMIT_200ms/train/mclm0_sx196.ark:12
flja0_si2338 raw_TIMIT_200ms/train/flja0_si2338.ark:13
mrlk0_si1468 raw_TIMIT_200ms/train/mrlk0_si1468.ark:13
fsrh0_sx401 raw_TIMIT_200ms/train/fsrh0_sx401.ark:12
mmeb0_si727 raw_TIMIT_200ms/train/mmeb0_si727.ark:12
mmab1_si2124 raw_TIMIT_200ms/train/mmab1_si2124.ark:13
fpaz0_sx63 raw_TIMIT_200ms/train/fpaz0_sx63.ark:11
mpgh0_sx24 raw_TIMIT_200ms/train/mpgh0_sx24.ark:11
fetb0_sx68 raw_TIMIT_200ms/train/fetb0_sx68.ark:11
msem1_si810 raw_TIMIT_200ms/train/msem1_si810.ark:12
mrxb0_sx145 raw_TIMIT_200ms/train/mrxb0_sx145.ark:12
mmlm0_sx87 raw_TIMIT_200ms/train/mmlm0_sx87.ark:11
mrem0_sx421 raw_TIMIT_200ms/train/mrem0_sx421.ark:12
mjws0_sx423 raw_TIMIT_200ms/train/mjws0_sx423.ark:12
mvjh0_sx296 raw_TIMIT_200ms/train/mvjh0_sx296.ark:12
mvlo0_sx157 raw_TIMIT_200ms/train/mvlo0_sx157.ark:12
mjfh0_sx117 raw_TIMIT_200ms/train/mjfh0_sx117.ark:12
mtjm0_si655 raw_TIMIT_200ms/train/mtjm0_si655.ark:12
mbma0_si1852 raw_TIMIT_200ms/train/mbma0_si1852.ark:13
flhd0_si1344 raw_TIMIT_200ms/train/flhd0_si1344.ark:13
fsjw0_sx73 raw_TIMIT_200ms/train/fsjw0_sx73.ark:11
ftlg0_si840 raw_TIMIT_200ms/train/ftlg0_si840.ark:12
mtat0_si1110 raw_TIMIT_200ms/train/mtat0_si1110.ark:13
mrdd0_si1680 raw_TIMIT_200ms/train/mrdd0_si1680.ark:13
fblv0_sx158 raw_TIMIT_200ms/train/fblv0_sx158.ark:12
mmws0_sx258 raw_TIMIT_200ms/train/mmws0_sx258.ark:12
mtpf0_si1235 raw_TIMIT_200ms/train/mtpf0_si1235.ark:13
feme0_si1505 raw_TIMIT_200ms/train/feme0_si1505.ark:13
flja0_sx268 raw_TIMIT_200ms/train/flja0_sx268.ark:12
mkjo0_sx424 raw_TIMIT_200ms/train/mkjo0_sx424.ark:12
mnet0_si2076 raw_TIMIT_200ms/train/mnet0_si2076.ark:13
fjkl0_sx32 raw_TIMIT_200ms/train/fjkl0_sx32.ark:11
fjlg0_sx179 raw_TIMIT_200ms/train/fjlg0_sx179.ark:12
mrtj0_sx322 raw_TIMIT_200ms/train/mrtj0_sx322.ark:12
mwdk0_sx266 raw_TIMIT_200ms/train/mwdk0_sx266.ark:12
mmag0_sx316 raw_TIMIT_200ms/train/mmag0_sx316.ark:12
mklw0_si1844 raw_TIMIT_200ms/train/mklw0_si1844.ark:13
mfrm0_si1717 raw_TIMIT_200ms/train/mfrm0_si1717.ark:13
mcth0_si1209 raw_TIMIT_200ms/train/mcth0_si1209.ark:13
fsgf0_sx297 raw_TIMIT_200ms/train/fsgf0_sx297.ark:12
falr0_sx155 raw_TIMIT_200ms/train/falr0_sx155.ark:12
mhmg0_sx375 raw_TIMIT_200ms/train/mhmg0_sx375.ark:12
mmds0_si1973 raw_TIMIT_200ms/train/mmds0_si1973.ark:13
fpls0_si1590 raw_TIMIT_200ms/train/fpls0_si1590.ark:13
fjwb1_si2055 raw_TIMIT_200ms/train/fjwb1_si2055.ark:13
mkls1_sx195 raw_TIMIT_200ms/train/mkls1_sx195.ark:12
makr0_si722 raw_TIMIT_200ms/train/makr0_si722.ark:12
mdlc1_si1435 raw_TIMIT_200ms/train/mdlc1_si1435.ark:13
maeo0_si1326 raw_TIMIT_200ms/train/maeo0_si1326.ark:13
mtlc0_sx397 raw_TIMIT_200ms/train/mtlc0_sx397.ark:12
mtbc0_si543 raw_TIMIT_200ms/train/mtbc0_si543.ark:12
fgrw0_si1990 raw_TIMIT_200ms/train/fgrw0_si1990.ark:13
fbch0_sx416 raw_TIMIT_200ms/train/fbch0_sx416.ark:12
fsjs0_sx361 raw_TIMIT_200ms/train/fsjs0_sx361.ark:12
fgdp0_si988 raw_TIMIT_200ms/train/fgdp0_si988.ark:12
mdcm0_si850 raw_TIMIT_200ms/train/mdcm0_si850.ark:12
mmbs0_sx71 raw_TIMIT_200ms/train/mmbs0_sx71.ark:11
fgrw0_sx342 raw_TIMIT_200ms/train/fgrw0_sx342.ark:12
mctm0_sx450 raw_TIMIT_200ms/train/mctm0_sx450.ark:12
fskp0_sx18 raw_TIMIT_200ms/train/fskp0_sx18.ark:11
mmlm0_si2150 raw_TIMIT_200ms/train/mmlm0_si2150.ark:13
mlsh0_sx247 raw_TIMIT_200ms/train/mlsh0_sx247.ark:12
mgak0_sx406 raw_TIMIT_200ms/train/mgak0_sx406.ark:12
mdpk0_si1683 raw_TIMIT_200ms/train/mdpk0_si1683.ark:13
mrfk0_si2336 raw_TIMIT_200ms/train/mrfk0_si2336.ark:13
mzmb0_si1166 raw_TIMIT_200ms/train/mzmb0_si1166.ark:13
mzmb0_sx356 raw_TIMIT_200ms/train/mzmb0_sx356.ark:12
mrjt0_sx418 raw_TIMIT_200ms/train/mrjt0_sx418.ark:12
mmab1_sx54 raw_TIMIT_200ms/train/mmab1_sx54.ark:11
mmea0_sx38 raw_TIMIT_200ms/train/mmea0_sx38.ark:11
mwgr0_si976 raw_TIMIT_200ms/train/mwgr0_si976.ark:12
mjrp0_sx315 raw_TIMIT_200ms/train/mjrp0_sx315.ark:12
fsdc0_si1942 raw_TIMIT_200ms/train/fsdc0_si1942.ark:13
mtat1_sx419 raw_TIMIT_200ms/train/mtat1_sx419.ark:12
flmc0_si1372 raw_TIMIT_200ms/train/flmc0_si1372.ark:13
mjae0_sx354 raw_TIMIT_200ms/train/mjae0_sx354.ark:12
mbjv0_si617 raw_TIMIT_200ms/train/mbjv0_si617.ark:12
mjrk0_sx250 raw_TIMIT_200ms/train/mjrk0_sx250.ark:12
mkdd0_sx37 raw_TIMIT_200ms/train/mkdd0_sx37.ark:11
mkam0_si1465 raw_TIMIT_200ms/train/mkam0_si1465.ark:13
mgag0_sx61 raw_TIMIT_200ms/train/mgag0_sx61.ark:11
mwar0_si1045 raw_TIMIT_200ms/train/mwar0_si1045.ark:13
mgrp0_sx417 raw_TIMIT_200ms/train/mgrp0_sx417.ark:12
mdpb0_sx326 raw_TIMIT_200ms/train/mdpb0_sx326.ark:12
mjjb0_sx419 raw_TIMIT_200ms/train/mjjb0_sx419.ark:12
flmk0_sx135 raw_TIMIT_200ms/train/flmk0_sx135.ark:12
msfh0_si586 raw_TIMIT_200ms/train/msfh0_si586.ark:12
mdcd0_si1415 raw_TIMIT_200ms/train/mdcd0_si1415.ark:13
fljg0_si1611 raw_TIMIT_200ms/train/fljg0_si1611.ark:13
fapb0_sx73 raw_TIMIT_200ms/train/fapb0_sx73.ark:11
mgaf0_si652 raw_TIMIT_200ms/train/mgaf0_si652.ark:12
mkls0_sx357 raw_TIMIT_200ms/train/mkls0_sx357.ark:12
fjen0_sx57 raw_TIMIT_200ms/train/fjen0_sx57.ark:11
fcjs0_sx167 raw_TIMIT_200ms/train/fcjs0_sx167.ark:12
mjrk0_si880 raw_TIMIT_200ms/train/mjrk0_si880.ark:12
mmwb0_sx89 raw_TIMIT_200ms/train/mmwb0_sx89.ark:11
mlns0_sx327 raw_TIMIT_200ms/train/mlns0_sx327.ark:12
mfxs0_si1674 raw_TIMIT_200ms/train/mfxs0_si1674.ark:13
mrkm0_si637 raw_TIMIT_200ms/train/mrkm0_si637.ark:12
mmeb0_sx187 raw_TIMIT_200ms/train/mmeb0_sx187.ark:12
fpls0_sx150 raw_TIMIT_200ms/train/fpls0_sx150.ark:12
mrai0_si1954 raw_TIMIT_200ms/train/mrai0_si1954.ark:13
mjrh0_si1125 raw_TIMIT_200ms/train/mjrh0_si1125.ark:13
meal0_sx107 raw_TIMIT_200ms/train/meal0_sx107.ark:12
fsbk0_sx439 raw_TIMIT_200ms/train/fsbk0_sx439.ark:12
fleh0_si1051 raw_TIMIT_200ms/train/fleh0_si1051.ark:13
mjma0_si1495 raw_TIMIT_200ms/train/mjma0_si1495.ark:13
fnkl0_sx196 raw_TIMIT_200ms/train/fnkl0_sx196.ark:12
fskc0_sx336 raw_TIMIT_200ms/train/fskc0_sx336.ark:12
mrkm0_si1391 raw_TIMIT_200ms/train/mrkm0_si1391.ark:13
fbas0_si1387 raw_TIMIT_200ms/train/fbas0_si1387.ark:13
mtjg0_sx350 raw_TIMIT_200ms/train/mtjg0_sx350.ark:12
mdps0_sx449 raw_TIMIT_200ms/train/mdps0_sx449.ark:12
mjws0_si1143 raw_TIMIT_200ms/train/mjws0_si1143.ark:13
mjbg0_sx62 raw_TIMIT_200ms/train/mjbg0_sx62.ark:11
mdsj0_si1462 raw_TIMIT_200ms/train/mdsj0_si1462.ark:13
fvmh0_si1466 raw_TIMIT_200ms/train/fvmh0_si1466.ark:13
mstf0_sx316 raw_TIMIT_200ms/train/mstf0_sx316.ark:12
mdem0_sx428 raw_TIMIT_200ms/train/mdem0_sx428.ark:12
marw0_sx106 raw_TIMIT_200ms/train/marw0_sx106.ark:12
mgag0_si645 raw_TIMIT_200ms/train/mgag0_si645.ark:12
fgrw0_sx72 raw_TIMIT_200ms/train/fgrw0_sx72.ark:11
mjxl0_si1172 raw_TIMIT_200ms/train/mjxl0_si1172.ark:13
flod0_sx117 raw_TIMIT_200ms/train/flod0_sx117.ark:12
mbar0_sx419 raw_TIMIT_200ms/train/mbar0_sx419.ark:12
mpgh0_si924 raw_TIMIT_200ms/train/mpgh0_si924.ark:12
mcdd0_sx343 raw_TIMIT_200ms/train/mcdd0_sx343.ark:12
mrjm0_sx238 raw_TIMIT_200ms/train/mrjm0_sx238.ark:12
mhmg0_sx15 raw_TIMIT_200ms/train/mhmg0_sx15.ark:11
mjrp0_si1845 raw_TIMIT_200ms/train/mjrp0_si1845.ark:13
fsma0_sx181 raw_TIMIT_200ms/train/fsma0_sx181.ark:12
mkrg0_sx141 raw_TIMIT_200ms/train/mkrg0_sx141.ark:12
fsrh0_si671 raw_TIMIT_200ms/train/fsrh0_si671.ark:12
mstf0_sx46 raw_TIMIT_200ms/train/mstf0_sx46.ark:11
mdwh0_sx125 raw_TIMIT_200ms/train/mdwh0_sx125.ark:12
mpeb0_sx150 raw_TIMIT_200ms/train/mpeb0_sx150.ark:12
fdfb0_sx58 raw_TIMIT_200ms/train/fdfb0_sx58.ark:11
msrr0_sx30 raw_TIMIT_200ms/train/msrr0_sx30.ark:11
fmem0_sx333 raw_TIMIT_200ms/train/fmem0_sx333.ark:12
mcdc0_sx392 raw_TIMIT_200ms/train/mcdc0_sx392.ark:12
fklc1_si1048 raw_TIMIT_200ms/train/fklc1_si1048.ark:13
fmmh0_sx187 raw_TIMIT_200ms/train/fmmh0_sx187.ark:12
fjlr0_si601 raw_TIMIT_200ms/train/fjlr0_si601.ark:12
mlns0_si1407 raw_TIMIT_200ms/train/mlns0_si1407.ark:13
fltm0_sx260 raw_TIMIT_200ms/train/fltm0_sx260.ark:12
mwdk0_si806 raw_TIMIT_200ms/train/mwdk0_si806.ark:12
fskp0_si468 raw_TIMIT_200ms/train/fskp0_si468.ark:12
fsrh0_sx41 raw_TIMIT_200ms/train/fsrh0_sx41.ark:11
fear0_sx262 raw_TIMIT_200ms/train/fear0_sx262.ark:12
mmxs0_sx156 raw_TIMIT_200ms/train/mmxs0_sx156.ark:12
mjpg0_sx291 raw_TIMIT_200ms/train/mjpg0_sx291.ark:12
mrlj1_si2332 raw_TIMIT_200ms/train/mrlj1_si2332.ark:13
fkdw0_sx397 raw_TIMIT_200ms/train/fkdw0_sx397.ark:12
mwdk0_si1436 raw_TIMIT_200ms/train/mwdk0_si1436.ark:13
mcpm0_si564 raw_TIMIT_200ms/train/mcpm0_si564.ark:12
mkam0_sx236 raw_TIMIT_200ms/train/mkam0_sx236.ark:12
mmab1_sx324 raw_TIMIT_200ms/train/mmab1_sx324.ark:12
mkah0_sx358 raw_TIMIT_200ms/train/mkah0_sx358.ark:12
madd0_si1295 raw_TIMIT_200ms/train/madd0_si1295.ark:13
mbml0_sx179 raw_TIMIT_200ms/train/mbml0_sx179.ark:12
fpab1_sx391 raw_TIMIT_200ms/train/fpab1_sx391.ark:12
mesg0_si1332 raw_TIMIT_200ms/train/mesg0_si1332.ark:13
fdjh0_sx395 raw_TIMIT_200ms/train/fdjh0_sx395.ark:12
mntw0_sx168 raw_TIMIT_200ms/train/mntw0_sx168.ark:12
mprb0_sx305 raw_TIMIT_200ms/train/mprb0_sx305.ark:12
fcmg0_sx72 raw_TIMIT_200ms/train/fcmg0_sx72.ark:11
mrcg0_si798 raw_TIMIT_200ms/train/mrcg0_si798.ark:12
mram0_sx105 raw_TIMIT_200ms/train/mram0_sx105.ark:12
fcrz0_si2053 raw_TIMIT_200ms/train/fcrz0_si2053.ark:13
mmds0_sx263 raw_TIMIT_200ms/train/mmds0_sx263.ark:12
mdbp0_sx168 raw_TIMIT_200ms/train/mdbp0_sx168.ark:12
mdps0_sx179 raw_TIMIT_200ms/train/mdps0_sx179.ark:12
mtbc0_sx347 raw_TIMIT_200ms/train/mtbc0_sx347.ark:12
fsag0_sx333 raw_TIMIT_200ms/train/fsag0_sx333.ark:12
mfmc0_sx232 raw_TIMIT_200ms/train/mfmc0_sx232.ark:12
mdlr0_sx63 raw_TIMIT_200ms/train/mdlr0_sx63.ark:11
mtpp0_sx428 raw_TIMIT_200ms/train/mtpp0_sx428.ark:12
mtwh1_si2142 raw_TIMIT_200ms/train/mtwh1_si2142.ark:13
mdlh0_si1960 raw_TIMIT_200ms/train/mdlh0_si1960.ark:13
mmdg0_sx340 raw_TIMIT_200ms/train/mmdg0_sx340.ark:12
mdpb0_sx56 raw_TIMIT_200ms/train/mdpb0_sx56.ark:11
mtxs0_si1690 raw_TIMIT_200ms/train/mtxs0_si1690.ark:13
mrdd0_sx330 raw_TIMIT_200ms/train/mrdd0_sx330.ark:12
mjdc0_sx351 raw_TIMIT_200ms/train/mjdc0_sx351.ark:12
ftbr0_si2181 raw_TIMIT_200ms/train/ftbr0_si2181.ark:13
mhmg0_si1365 raw_TIMIT_200ms/train/mhmg0_si1365.ark:13
ftmg0_sx92 raw_TIMIT_200ms/train/ftmg0_sx92.ark:11
mmlm0_sx447 raw_TIMIT_200ms/train/mmlm0_sx447.ark:12
fcke0_sx301 raw_TIMIT_200ms/train/fcke0_sx301.ark:12
mrmb0_sx231 raw_TIMIT_200ms/train/mrmb0_sx231.ark:12
flkm0_si620 raw_TIMIT_200ms/train/flkm0_si620.ark:12
mmds0_sx173 raw_TIMIT_200ms/train/mmds0_sx173.ark:12
mvlo0_sx337 raw_TIMIT_200ms/train/mvlo0_sx337.ark:12
mrab0_sx324 raw_TIMIT_200ms/train/mrab0_sx324.ark:12
mmjb1_si778 raw_TIMIT_200ms/train/mmjb1_si778.ark:12
fjlg0_sx359 raw_TIMIT_200ms/train/fjlg0_sx359.ark:12
mmaa0_sx215 raw_TIMIT_200ms/train/mmaa0_sx215.ark:12
mhmr0_sx129 raw_TIMIT_200ms/train/mhmr0_sx129.ark:12
feeh0_si1112 raw_TIMIT_200ms/train/feeh0_si1112.ark:13
feac0_si1245 raw_TIMIT_200ms/train/feac0_si1245.ark:13
mzmb0_si1796 raw_TIMIT_200ms/train/mzmb0_si1796.ark:13
mjrh1_si514 raw_TIMIT_200ms/train/mjrh1_si514.ark:12
fjsp0_sx444 raw_TIMIT_200ms/train/fjsp0_sx444.ark:12
mbom0_si1644 raw_TIMIT_200ms/train/mbom0_si1644.ark:13
mtrr0_si918 raw_TIMIT_200ms/train/mtrr0_si918.ark:12
fjdm2_si1964 raw_TIMIT_200ms/train/fjdm2_si1964.ark:13
fjrp1_sx352 raw_TIMIT_200ms/train/fjrp1_sx352.ark:12
ftlg0_sx303 raw_TIMIT_200ms/train/ftlg0_sx303.ark:12
mdcm0_si1480 raw_TIMIT_200ms/train/mdcm0_si1480.ark:13
fceg0_sx348 raw_TIMIT_200ms/train/fceg0_sx348.ark:12
mmeb0_sx327 raw_TIMIT_200ms/train/mmeb0_sx327.ark:12
mjsr0_sx74 raw_TIMIT_200ms/train/mjsr0_sx74.ark:11
falr0_sx335 raw_TIMIT_200ms/train/falr0_sx335.ark:12
fljg0_sx81 raw_TIMIT_200ms/train/fljg0_sx81.ark:11
fpab1_sx211 raw_TIMIT_200ms/train/fpab1_sx211.ark:12
mdlc2_sx174 raw_TIMIT_200ms/train/mdlc2_sx174.ark:12
makb0_si1646 raw_TIMIT_200ms/train/makb0_si1646.ark:13
mklw0_sx131 raw_TIMIT_200ms/train/mklw0_sx131.ark:12
mclm0_si1456 raw_TIMIT_200ms/train/mclm0_si1456.ark:13
mdas0_sx186 raw_TIMIT_200ms/train/mdas0_sx186.ark:12
mkrg0_si861 raw_TIMIT_200ms/train/mkrg0_si861.ark:12
ftbr0_sx291 raw_TIMIT_200ms/train/ftbr0_sx291.ark:12
mtat0_sx210 raw_TIMIT_200ms/train/mtat0_sx210.ark:12
fjkl0_sx212 raw_TIMIT_200ms/train/fjkl0_sx212.ark:12
mrjm1_si1298 raw_TIMIT_200ms/train/mrjm1_si1298.ark:13
mprk0_sx107 raw_TIMIT_200ms/train/mprk0_sx107.ark:12
mrhl0_si1515 raw_TIMIT_200ms/train/mrhl0_si1515.ark:13
mclm0_sx16 raw_TIMIT_200ms/train/mclm0_sx16.ark:11
frjb0_sx167 raw_TIMIT_200ms/train/frjb0_sx167.ark:12
mdef0_sx303 raw_TIMIT_200ms/train/mdef0_sx303.ark:12
mjlb0_si1616 raw_TIMIT_200ms/train/mjlb0_si1616.ark:13
maeb0_sx180 raw_TIMIT_200ms/train/maeb0_sx180.ark:12
mdem0_sx338 raw_TIMIT_200ms/train/mdem0_sx338.ark:12
fexm0_sx366 raw_TIMIT_200ms/train/fexm0_sx366.ark:12
mrwa0_sx253 raw_TIMIT_200ms/train/mrwa0_sx253.ark:12
fexm0_si1101 raw_TIMIT_200ms/train/fexm0_si1101.ark:13
mkls0_sx177 raw_TIMIT_200ms/train/mkls0_sx177.ark:12
fjrp1_si2062 raw_TIMIT_200ms/train/fjrp1_si2062.ark:13
fjsk0_sx422 raw_TIMIT_200ms/train/fjsk0_sx422.ark:12
fdml0_sx159 raw_TIMIT_200ms/train/fdml0_sx159.ark:12
mabc0_sx331 raw_TIMIT_200ms/train/mabc0_sx331.ark:12
mrlr0_si1826 raw_TIMIT_200ms/train/mrlr0_si1826.ark:13
flag0_si1464 raw_TIMIT_200ms/train/flag0_si1464.ark:13
mejl0_sx62 raw_TIMIT_200ms/train/mejl0_sx62.ark:11
mjwg0_si813 raw_TIMIT_200ms/train/mjwg0_si813.ark:12
mtas0_sx125 raw_TIMIT_200ms/train/mtas0_sx125.ark:12
mdcd0_si785 raw_TIMIT_200ms/train/mdcd0_si785.ark:12
fmbg0_sx440 raw_TIMIT_200ms/train/fmbg0_sx440.ark:12
mkdd0_sx217 raw_TIMIT_200ms/train/mkdd0_sx217.ark:12
mwad0_si1749 raw_TIMIT_200ms/train/mwad0_si1749.ark:13
mrtc0_sx378 raw_TIMIT_200ms/train/mrtc0_sx378.ark:12
mrjm0_si1858 raw_TIMIT_200ms/train/mrjm0_si1858.ark:13
mrlr0_sx116 raw_TIMIT_200ms/train/mrlr0_sx116.ark:12
mrem0_si1591 raw_TIMIT_200ms/train/mrem0_si1591.ark:13
mjai0_sx164 raw_TIMIT_200ms/train/mjai0_sx164.ark:12
mmlm0_si897 raw_TIMIT_200ms/train/mmlm0_si897.ark:12
mkln0_sx68 raw_TIMIT_200ms/train/mkln0_sx68.ark:11
mlns0_sx237 raw_TIMIT_200ms/train/mlns0_sx237.ark:12
mddc0_si1419 raw_TIMIT_200ms/train/mddc0_si1419.ark:13
mdjm0_sx15 raw_TIMIT_200ms/train/mdjm0_sx15.ark:11
msdh0_sx440 raw_TIMIT_200ms/train/msdh0_sx440.ark:12
flag0_sx294 raw_TIMIT_200ms/train/flag0_sx294.ark:12
mdlc0_si2025 raw_TIMIT_200ms/train/mdlc0_si2025.ark:13
fmbg0_sx350 raw_TIMIT_200ms/train/fmbg0_sx350.ark:12
mmaa0_si845 raw_TIMIT_200ms/train/mmaa0_si845.ark:12
mvlo0_si517 raw_TIMIT_200ms/train/mvlo0_si517.ark:12
fbmj0_sx426 raw_TIMIT_200ms/train/fbmj0_sx426.ark:12
fskc0_si1416 raw_TIMIT_200ms/train/fskc0_si1416.ark:13
fbas0_sx37 raw_TIMIT_200ms/train/fbas0_sx37.ark:11
mgrl0_sx417 raw_TIMIT_200ms/train/mgrl0_sx417.ark:12
mmdm1_si1650 raw_TIMIT_200ms/train/mmdm1_si1650.ark:13
mtmt0_sx128 raw_TIMIT_200ms/train/mtmt0_sx128.ark:12
fsah0_si614 raw_TIMIT_200ms/train/fsah0_si614.ark:12
fcdr1_sx106 raw_TIMIT_200ms/train/fcdr1_sx106.ark:12
mcae0_si1447 raw_TIMIT_200ms/train/mcae0_si1447.ark:13
flja0_si1708 raw_TIMIT_200ms/train/flja0_si1708.ark:13
mmwb0_sx359 raw_TIMIT_200ms/train/mmwb0_sx359.ark:12
mjsr0_si2054 raw_TIMIT_200ms/train/mjsr0_si2054.ark:13
mjpm0_sx108 raw_TIMIT_200ms/train/mjpm0_sx108.ark:12
faem0_sx42 raw_TIMIT_200ms/train/faem0_sx42.ark:11
fjxp0_si1122 raw_TIMIT_200ms/train/fjxp0_si1122.ark:13
mrdm0_sx425 raw_TIMIT_200ms/train/mrdm0_sx425.ark:12
mcpm0_si1194 raw_TIMIT_200ms/train/mcpm0_si1194.ark:13
mmar0_sx346 raw_TIMIT_200ms/train/mmar0_sx346.ark:12
mmam0_sx337 raw_TIMIT_200ms/train/mmam0_sx337.ark:12
mabc0_sx151 raw_TIMIT_200ms/train/mabc0_sx151.ark:12
fhxs0_si2302 raw_TIMIT_200ms/train/fhxs0_si2302.ark:13
fcaj0_sx39 raw_TIMIT_200ms/train/fcaj0_sx39.ark:11
mwsh0_si1426 raw_TIMIT_200ms/train/mwsh0_si1426.ark:13
mdef0_sx213 raw_TIMIT_200ms/train/mdef0_sx213.ark:12
mpfu0_sx448 raw_TIMIT_200ms/train/mpfu0_sx448.ark:12
mjwt0_sx211 raw_TIMIT_200ms/train/mjwt0_sx211.ark:12
mwad0_si1062 raw_TIMIT_200ms/train/mwad0_si1062.ark:13
fgdp0_sx178 raw_TIMIT_200ms/train/fgdp0_sx178.ark:12
mrlj0_sx160 raw_TIMIT_200ms/train/mrlj0_sx160.ark:12
fdaw0_sx236 raw_TIMIT_200ms/train/fdaw0_sx236.ark:12
mtrt0_sx254 raw_TIMIT_200ms/train/mtrt0_sx254.ark:12
mrjh0_sx79 raw_TIMIT_200ms/train/mrjh0_sx79.ark:11
mwsh0_sx436 raw_TIMIT_200ms/train/mwsh0_sx436.ark:12
mdhl0_si1439 raw_TIMIT_200ms/train/mdhl0_si1439.ark:13
mwsb0_sx96 raw_TIMIT_200ms/train/mwsb0_sx96.ark:11
mbgt0_sx351 raw_TIMIT_200ms/train/mbgt0_sx351.ark:12
fnkl0_sx172 raw_TIMIT_200ms/train/fnkl0_sx172.ark:12
mrwa0_sx73 raw_TIMIT_200ms/train/mrwa0_sx73.ark:11
mpar0_sx316 raw_TIMIT_200ms/train/mpar0_sx316.ark:12
mhit0_si1613 raw_TIMIT_200ms/train/mhit0_si1613.ark:13
fsmm0_sx54 raw_TIMIT_200ms/train/fsmm0_sx54.ark:11
fjkl0_si1562 raw_TIMIT_200ms/train/fjkl0_si1562.ark:13
mrcg0_si1428 raw_TIMIT_200ms/train/mrcg0_si1428.ark:13
fcjf0_sx307 raw_TIMIT_200ms/train/fcjf0_sx307.ark:12
mefg0_sx195 raw_TIMIT_200ms/train/mefg0_sx195.ark:12
mddc0_sx159 raw_TIMIT_200ms/train/mddc0_sx159.ark:12
mpgr1_sx149 raw_TIMIT_200ms/train/mpgr1_sx149.ark:12
mppc0_si782 raw_TIMIT_200ms/train/mppc0_si782.ark:12
mtju0_sx40 raw_TIMIT_200ms/train/mtju0_sx40.ark:11
fvkb0_si529 raw_TIMIT_200ms/train/fvkb0_si529.ark:12
fbmh0_sx326 raw_TIMIT_200ms/train/fbmh0_sx326.ark:12
mwrp0_sx183 raw_TIMIT_200ms/train/mwrp0_sx183.ark:12
feac0_sx75 raw_TIMIT_200ms/train/feac0_sx75.ark:11
fkaa0_si1838 raw_TIMIT_200ms/train/fkaa0_si1838.ark:13
fvfb0_si1510 raw_TIMIT_200ms/train/fvfb0_si1510.ark:13
fssb0_sx92 raw_TIMIT_200ms/train/fssb0_sx92.ark:11
frll0_sx254 raw_TIMIT_200ms/train/frll0_sx254.ark:12
fvfb0_sx312 raw_TIMIT_200ms/train/fvfb0_sx312.ark:12
mmdb0_sx357 raw_TIMIT_200ms/train/mmdb0_sx357.ark:12
mjpg0_sx201 raw_TIMIT_200ms/train/mjpg0_sx201.ark:12
mjjb0_sx239 raw_TIMIT_200ms/train/mjjb0_sx239.ark:12
mkaj0_si1414 raw_TIMIT_200ms/train/mkaj0_si1414.ark:13
fskl0_sx179 raw_TIMIT_200ms/train/fskl0_sx179.ark:12
fdaw0_si1406 raw_TIMIT_200ms/train/fdaw0_si1406.ark:13
mrmb0_si951 raw_TIMIT_200ms/train/mrmb0_si951.ark:12
mrfk0_sx176 raw_TIMIT_200ms/train/mrfk0_sx176.ark:12
mmab1_sx144 raw_TIMIT_200ms/train/mmab1_sx144.ark:12
mkag0_si979 raw_TIMIT_200ms/train/mkag0_si979.ark:12
fetb0_sx338 raw_TIMIT_200ms/train/fetb0_sx338.ark:12
fmmh0_sx367 raw_TIMIT_200ms/train/fmmh0_sx367.ark:12
fljd0_sx166 raw_TIMIT_200ms/train/fljd0_sx166.ark:12
mwre0_sx427 raw_TIMIT_200ms/train/mwre0_sx427.ark:12
mdwh0_si1925 raw_TIMIT_200ms/train/mdwh0_si1925.ark:13
mdlr0_si603 raw_TIMIT_200ms/train/mdlr0_si603.ark:12
mrav0_si1008 raw_TIMIT_200ms/train/mrav0_si1008.ark:13
mrjh0_sx307 raw_TIMIT_200ms/train/mrjh0_sx307.ark:12
mmws0_sx168 raw_TIMIT_200ms/train/mmws0_sx168.ark:12
mtpr0_si1600 raw_TIMIT_200ms/train/mtpr0_si1600.ark:13
fdas1_sx291 raw_TIMIT_200ms/train/fdas1_sx291.ark:12
mbma0_sx232 raw_TIMIT_200ms/train/mbma0_sx232.ark:12
mmdm0_sx411 raw_TIMIT_200ms/train/mmdm0_sx411.ark:12
fdkn0_si1202 raw_TIMIT_200ms/train/fdkn0_si1202.ark:13
