msms0_si803 raw_TIMIT_200ms/train/msms0_si803.ark:12
mcal0_si508 raw_TIMIT_200ms/train/mcal0_si508.ark:12
mmag0_si1756 raw_TIMIT_200ms/train/mmag0_si1756.ark:13
mges0_sx401 raw_TIMIT_200ms/train/mges0_sx401.ark:12
mdps0_sx179 raw_TIMIT_200ms/train/mdps0_sx179.ark:12
mmag0_si496 raw_TIMIT_200ms/train/mmag0_si496.ark:12
mpfu0_sx88 raw_TIMIT_200ms/train/mpfu0_sx88.ark:11
mree0_sx204 raw_TIMIT_200ms/train/mree0_sx204.ark:12
fssb0_sx272 raw_TIMIT_200ms/train/fssb0_sx272.ark:12
mafm0_sx309 raw_TIMIT_200ms/train/mafm0_sx309.ark:12
mrdd0_si1050 raw_TIMIT_200ms/train/mrdd0_si1050.ark:13
mtxs0_sx70 raw_TIMIT_200ms/train/mtxs0_sx70.ark:11
mrab1_si2108 raw_TIMIT_200ms/train/mrab1_si2108.ark:13
mkrg0_sx31 raw_TIMIT_200ms/train/mkrg0_sx31.ark:11
mrdm0_sx65 raw_TIMIT_200ms/train/mrdm0_sx65.ark:11
mlbc0_sx69 raw_TIMIT_200ms/train/mlbc0_sx69.ark:11
mljc0_sx325 raw_TIMIT_200ms/train/mljc0_sx325.ark:12
mdlb0_si1936 raw_TIMIT_200ms/train/mdlb0_si1936.ark:13
mcae0_si817 raw_TIMIT_200ms/train/mcae0_si817.ark:12
mjmm0_sx175 raw_TIMIT_200ms/train/mjmm0_sx175.ark:12
fmkf0_si1018 raw_TIMIT_200ms/train/fmkf0_si1018.ark:13
mdwh0_sx215 raw_TIMIT_200ms/train/mdwh0_sx215.ark:12
mmws0_sx438 raw_TIMIT_200ms/train/mmws0_sx438.ark:12
mtat0_si811 raw_TIMIT_200ms/train/mtat0_si811.ark:12
msdb0_si1637 raw_TIMIT_200ms/train/msdb0_si1637.ark:13
mrso0_sx309 raw_TIMIT_200ms/train/mrso0_sx309.ark:12
fdfb0_si1318 raw_TIMIT_200ms/train/fdfb0_si1318.ark:13
makr0_sx92 raw_TIMIT_200ms/train/makr0_sx92.ark:11
mges0_si2111 raw_TIMIT_200ms/train/mges0_si2111.ark:13
fjxp0_sx132 raw_TIMIT_200ms/train/fjxp0_sx132.ark:12
fmjf0_sx174 raw_TIMIT_200ms/train/fmjf0_sx174.ark:12
mfmc0_sx52 raw_TIMIT_200ms/train/mfmc0_sx52.ark:11
fjhk0_sx302 raw_TIMIT_200ms/train/fjhk0_sx302.ark:12
mrgm0_sx442 raw_TIMIT_200ms/train/mrgm0_sx442.ark:12
fsmm0_si1944 raw_TIMIT_200ms/train/fsmm0_si1944.ark:13
mdlr0_sx243 raw_TIMIT_200ms/train/mdlr0_sx243.ark:12
mesj0_si2257 raw_TIMIT_200ms/train/mesj0_si2257.ark:13
fkfb0_sx438 raw_TIMIT_200ms/train/fkfb0_sx438.ark:12
mvjh0_sx386 raw_TIMIT_200ms/train/mvjh0_sx386.ark:12
mjai0_sx164 raw_TIMIT_200ms/train/mjai0_sx164.ark:12
mses0_sx59 raw_TIMIT_200ms/train/mses0_sx59.ark:11
fmjf0_si1254 raw_TIMIT_200ms/train/fmjf0_si1254.ark:13
mrab0_sx234 raw_TIMIT_200ms/train/mrab0_sx234.ark:12
mjlg1_sx292 raw_TIMIT_200ms/train/mjlg1_sx292.ark:12
mrbc0_sx239 raw_TIMIT_200ms/train/mrbc0_sx239.ark:12
mmbs0_sx431 raw_TIMIT_200ms/train/mmbs0_sx431.ark:12
mkes0_sx263 raw_TIMIT_200ms/train/mkes0_sx263.ark:12
mgaf0_sx22 raw_TIMIT_200ms/train/mgaf0_sx22.ark:11
msfv0_sx452 raw_TIMIT_200ms/train/msfv0_sx452.ark:12
mlel0_si1876 raw_TIMIT_200ms/train/mlel0_si1876.ark:13
mdpb0_sx416 raw_TIMIT_200ms/train/mdpb0_sx416.ark:12
mhmr0_si1692 raw_TIMIT_200ms/train/mhmr0_si1692.ark:13
fcmg0_sx252 raw_TIMIT_200ms/train/fcmg0_sx252.ark:12
mtcs0_si2265 raw_TIMIT_200ms/train/mtcs0_si2265.ark:13
fjxm0_si581 raw_TIMIT_200ms/train/fjxm0_si581.ark:12
mefg0_sx375 raw_TIMIT_200ms/train/mefg0_sx375.ark:12
mjra0_sx246 raw_TIMIT_200ms/train/mjra0_sx246.ark:12
fdaw0_sx56 raw_TIMIT_200ms/train/fdaw0_sx56.ark:11
mrtj0_sx232 raw_TIMIT_200ms/train/mrtj0_sx232.ark:12
fsak0_sx400 raw_TIMIT_200ms/train/fsak0_sx400.ark:12
fsdj0_si1745 raw_TIMIT_200ms/train/fsdj0_si1745.ark:13
ftbr0_si2181 raw_TIMIT_200ms/train/ftbr0_si2181.ark:13
mhjb0_sx207 raw_TIMIT_200ms/train/mhjb0_sx207.ark:12
fjen0_si2307 raw_TIMIT_200ms/train/fjen0_si2307.ark:13
mdlm0_sx334 raw_TIMIT_200ms/train/mdlm0_sx334.ark:12
mbml0_sx89 raw_TIMIT_200ms/train/mbml0_sx89.ark:11
mddc0_sx159 raw_TIMIT_200ms/train/mddc0_sx159.ark:12
flag0_si1464 raw_TIMIT_200ms/train/flag0_si1464.ark:13
mstf0_si766 raw_TIMIT_200ms/train/mstf0_si766.ark:12
msrr0_sx411 raw_TIMIT_200ms/train/msrr0_sx411.ark:12
mjde0_sx400 raw_TIMIT_200ms/train/mjde0_sx400.ark:12
mtjm0_sx146 raw_TIMIT_200ms/train/mtjm0_sx146.ark:12
mrab0_si1854 raw_TIMIT_200ms/train/mrab0_si1854.ark:13
fdaw0_sx326 raw_TIMIT_200ms/train/fdaw0_sx326.ark:12
frll0_sx344 raw_TIMIT_200ms/train/frll0_sx344.ark:12
ftaj0_sx159 raw_TIMIT_200ms/train/ftaj0_sx159.ark:12
mjjm0_sx17 raw_TIMIT_200ms/train/mjjm0_sx17.ark:11
mpeb0_sx150 raw_TIMIT_200ms/train/mpeb0_sx150.ark:12
mrgs0_si726 raw_TIMIT_200ms/train/mrgs0_si726.ark:12
mjda0_sx221 raw_TIMIT_200ms/train/mjda0_sx221.ark:12
mkdb0_sx152 raw_TIMIT_200ms/train/mkdb0_sx152.ark:12
ftbr0_sx201 raw_TIMIT_200ms/train/ftbr0_sx201.ark:12
marw0_sx16 raw_TIMIT_200ms/train/marw0_sx16.ark:11
mdjm0_si825 raw_TIMIT_200ms/train/mdjm0_si825.ark:12
fcyl0_sx37 raw_TIMIT_200ms/train/fcyl0_sx37.ark:11
mdks0_sx166 raw_TIMIT_200ms/train/mdks0_sx166.ark:12
fjlg0_sx449 raw_TIMIT_200ms/train/fjlg0_sx449.ark:12
mclm0_si2086 raw_TIMIT_200ms/train/mclm0_si2086.ark:13
mdlr1_sx219 raw_TIMIT_200ms/train/mdlr1_sx219.ark:12
mbom0_sx384 raw_TIMIT_200ms/train/mbom0_sx384.ark:12
mmjb1_sx148 raw_TIMIT_200ms/train/mmjb1_sx148.ark:12
mjrg0_si1366 raw_TIMIT_200ms/train/mjrg0_si1366.ark:13
mfer0_sx232 raw_TIMIT_200ms/train/mfer0_sx232.ark:12
mdwh0_sx35 raw_TIMIT_200ms/train/mdwh0_sx35.ark:11
fjrp1_sx442 raw_TIMIT_200ms/train/fjrp1_sx442.ark:12
mtrc0_sx170 raw_TIMIT_200ms/train/mtrc0_sx170.ark:12
mdlr1_sx399 raw_TIMIT_200ms/train/mdlr1_sx399.ark:12
fdfb0_sx58 raw_TIMIT_200ms/train/fdfb0_sx58.ark:11
fkde0_si1141 raw_TIMIT_200ms/train/fkde0_si1141.ark:13
fexm0_si482 raw_TIMIT_200ms/train/fexm0_si482.ark:12
fcmm0_si1957 raw_TIMIT_200ms/train/fcmm0_si1957.ark:13
mljc0_sx145 raw_TIMIT_200ms/train/mljc0_sx145.ark:12
mwsb0_sx6 raw_TIMIT_200ms/train/mwsb0_sx6.ark:10
mrjt0_sx148 raw_TIMIT_200ms/train/mrjt0_sx148.ark:12
fskl0_sx449 raw_TIMIT_200ms/train/fskl0_sx449.ark:12
fjlr0_sx421 raw_TIMIT_200ms/train/fjlr0_sx421.ark:12
mprt0_sx40 raw_TIMIT_200ms/train/mprt0_sx40.ark:11
mpmb0_sx331 raw_TIMIT_200ms/train/mpmb0_sx331.ark:12
mmws1_si1071 raw_TIMIT_200ms/train/mmws1_si1071.ark:13
mgaf0_sx292 raw_TIMIT_200ms/train/mgaf0_sx292.ark:12
mtmn0_sx254 raw_TIMIT_200ms/train/mtmn0_sx254.ark:12
fvfb0_sx42 raw_TIMIT_200ms/train/fvfb0_sx42.ark:11
mrjm0_sx418 raw_TIMIT_200ms/train/mrjm0_sx418.ark:12
madc0_si1997 raw_TIMIT_200ms/train/madc0_si1997.ark:13
mdbb1_si1636 raw_TIMIT_200ms/train/mdbb1_si1636.ark:13
mjeb0_sx296 raw_TIMIT_200ms/train/mjeb0_sx296.ark:12
mjda0_si2291 raw_TIMIT_200ms/train/mjda0_si2291.ark:13
mesj0_sx367 raw_TIMIT_200ms/train/mesj0_sx367.ark:12
fksr0_sx217 raw_TIMIT_200ms/train/fksr0_sx217.ark:12
msas0_sx296 raw_TIMIT_200ms/train/msas0_sx296.ark:12
mklr0_sx159 raw_TIMIT_200ms/train/mklr0_sx159.ark:12
fcyl0_sx217 raw_TIMIT_200ms/train/fcyl0_sx217.ark:12
mhxl0_si612 raw_TIMIT_200ms/train/mhxl0_si612.ark:12
mdas0_si636 raw_TIMIT_200ms/train/mdas0_si636.ark:12
mfrm0_sx165 raw_TIMIT_200ms/train/mfrm0_sx165.ark:12
mppc0_sx62 raw_TIMIT_200ms/train/mppc0_sx62.ark:11
mmbs0_sx161 raw_TIMIT_200ms/train/mmbs0_sx161.ark:12
frll0_sx254 raw_TIMIT_200ms/train/frll0_sx254.ark:12
mbcg0_sx417 raw_TIMIT_200ms/train/mbcg0_sx417.ark:12
mges0_sx131 raw_TIMIT_200ms/train/mges0_sx131.ark:12
fcjs0_sx167 raw_TIMIT_200ms/train/fcjs0_sx167.ark:12
mwad0_sx342 raw_TIMIT_200ms/train/mwad0_sx342.ark:12
fcrz0_si2053 raw_TIMIT_200ms/train/fcrz0_si2053.ark:13
mbma0_sx322 raw_TIMIT_200ms/train/mbma0_sx322.ark:12
mtrr0_sx288 raw_TIMIT_200ms/train/mtrr0_sx288.ark:12
mbma0_sx232 raw_TIMIT_200ms/train/mbma0_sx232.ark:12
mefg0_sx15 raw_TIMIT_200ms/train/mefg0_sx15.ark:11
mrkm0_sx7 raw_TIMIT_200ms/train/mrkm0_sx7.ark:10
mram0_sx285 raw_TIMIT_200ms/train/mram0_sx285.ark:12
mrbc0_sx149 raw_TIMIT_200ms/train/mrbc0_sx149.ark:12
msat1_sx263 raw_TIMIT_200ms/train/msat1_sx263.ark:12
fmkf0_sx366 raw_TIMIT_200ms/train/fmkf0_sx366.ark:12
mrkm0_sx367 raw_TIMIT_200ms/train/mrkm0_sx367.ark:12
mppc0_sx422 raw_TIMIT_200ms/train/mppc0_sx422.ark:12
mchl0_sx357 raw_TIMIT_200ms/train/mchl0_sx357.ark:12
mpfu0_si1888 raw_TIMIT_200ms/train/mpfu0_si1888.ark:13
mlsh0_sx157 raw_TIMIT_200ms/train/mlsh0_sx157.ark:12
fjsk0_sx242 raw_TIMIT_200ms/train/fjsk0_sx242.ark:12
mrjb1_si2021 raw_TIMIT_200ms/train/mrjb1_si2021.ark:13
mrjm0_si1228 raw_TIMIT_200ms/train/mrjm0_si1228.ark:13
mmjb1_si1408 raw_TIMIT_200ms/train/mmjb1_si1408.ark:13
mmdg0_sx160 raw_TIMIT_200ms/train/mmdg0_sx160.ark:12
mbar0_si1949 raw_TIMIT_200ms/train/mbar0_si1949.ark:13
mabc0_sx421 raw_TIMIT_200ms/train/mabc0_sx421.ark:12
mtqc0_si1441 raw_TIMIT_200ms/train/mtqc0_si1441.ark:13
fsgf0_sx387 raw_TIMIT_200ms/train/fsgf0_sx387.ark:12
fsgf0_si2187 raw_TIMIT_200ms/train/fsgf0_si2187.ark:13
mpar0_sx406 raw_TIMIT_200ms/train/mpar0_sx406.ark:12
fsbk0_sx79 raw_TIMIT_200ms/train/fsbk0_sx79.ark:11
mrlj1_si1671 raw_TIMIT_200ms/train/mrlj1_si1671.ark:13
mmdm1_sx333 raw_TIMIT_200ms/train/mmdm1_sx333.ark:12
mwad0_si2322 raw_TIMIT_200ms/train/mwad0_si2322.ark:13
flja0_si2338 raw_TIMIT_200ms/train/flja0_si2338.ark:13
mjsr0_sx74 raw_TIMIT_200ms/train/mjsr0_sx74.ark:11
mdas0_sx276 raw_TIMIT_200ms/train/mdas0_sx276.ark:12
mfmc0_sx142 raw_TIMIT_200ms/train/mfmc0_sx142.ark:12
mkag0_sx79 raw_TIMIT_200ms/train/mkag0_sx79.ark:11
fpab1_si2101 raw_TIMIT_200ms/train/fpab1_si2101.ark:13
mgxp0_si1087 raw_TIMIT_200ms/train/mgxp0_si1087.ark:13
mejl0_sx62 raw_TIMIT_200ms/train/mejl0_sx62.ark:11
mjsr0_si794 raw_TIMIT_200ms/train/mjsr0_si794.ark:12
fjxp0_sx42 raw_TIMIT_200ms/train/fjxp0_sx42.ark:11
mfrm0_si1155 raw_TIMIT_200ms/train/mfrm0_si1155.ark:13
mjma0_sx235 raw_TIMIT_200ms/train/mjma0_sx235.ark:12
mrab0_sx144 raw_TIMIT_200ms/train/mrab0_sx144.ark:12
msrg0_sx51 raw_TIMIT_200ms/train/msrg0_sx51.ark:11
fjkl0_si932 raw_TIMIT_200ms/train/fjkl0_si932.ark:12
mdcm0_si1480 raw_TIMIT_200ms/train/mdcm0_si1480.ark:13
fsak0_sx310 raw_TIMIT_200ms/train/fsak0_sx310.ark:12
mbar0_si1319 raw_TIMIT_200ms/train/mbar0_si1319.ark:13
mmab1_sx54 raw_TIMIT_200ms/train/mmab1_sx54.ark:11
fgmb0_sx335 raw_TIMIT_200ms/train/fgmb0_sx335.ark:12
mwgr0_sx166 raw_TIMIT_200ms/train/mwgr0_sx166.ark:12
mdem0_sx158 raw_TIMIT_200ms/train/mdem0_sx158.ark:12
mbar0_sx239 raw_TIMIT_200ms/train/mbar0_sx239.ark:12
mdsj0_sx292 raw_TIMIT_200ms/train/mdsj0_sx292.ark:12
fsgf0_sx207 raw_TIMIT_200ms/train/fsgf0_sx207.ark:12
flag0_sx294 raw_TIMIT_200ms/train/flag0_sx294.ark:12
mzmb0_sx356 raw_TIMIT_200ms/train/mzmb0_sx356.ark:12
mkdd0_sx307 raw_TIMIT_200ms/train/mkdd0_sx307.ark:12
mmrp0_si2034 raw_TIMIT_200ms/train/mmrp0_si2034.ark:13
fcyl0_sx127 raw_TIMIT_200ms/train/fcyl0_sx127.ark:12
mmws1_sx351 raw_TIMIT_200ms/train/mmws1_sx351.ark:12
fjxp0_si492 raw_TIMIT_200ms/train/fjxp0_si492.ark:12
mbcg0_si957 raw_TIMIT_200ms/train/mbcg0_si957.ark:12
fdaw0_sx236 raw_TIMIT_200ms/train/fdaw0_sx236.ark:12
feeh0_sx122 raw_TIMIT_200ms/train/feeh0_sx122.ark:12
mbgt0_sx261 raw_TIMIT_200ms/train/mbgt0_sx261.ark:12
fsbk0_si1699 raw_TIMIT_200ms/train/fsbk0_si1699.ark:13
mmwb0_si989 raw_TIMIT_200ms/train/mmwb0_si989.ark:12
mchl0_sx447 raw_TIMIT_200ms/train/mchl0_sx447.ark:12
mrwa0_si973 raw_TIMIT_200ms/train/mrwa0_si973.ark:12
fsmm0_si1314 raw_TIMIT_200ms/train/fsmm0_si1314.ark:13
mdps0_sx269 raw_TIMIT_200ms/train/mdps0_sx269.ark:12
mmrp0_sx414 raw_TIMIT_200ms/train/mmrp0_sx414.ark:12
fecd0_sx338 raw_TIMIT_200ms/train/fecd0_sx338.ark:12
mpgr1_si2129 raw_TIMIT_200ms/train/mpgr1_si2129.ark:13
fmju0_si2019 raw_TIMIT_200ms/train/fmju0_si2019.ark:13
mtkp0_sx393 raw_TIMIT_200ms/train/mtkp0_sx393.ark:12
mjjb0_sx329 raw_TIMIT_200ms/train/mjjb0_sx329.ark:12
mjde0_si1120 raw_TIMIT_200ms/train/mjde0_si1120.ark:13
mfmc0_sx322 raw_TIMIT_200ms/train/mfmc0_sx322.ark:12
mtat0_si1110 raw_TIMIT_200ms/train/mtat0_si1110.ark:13
mkxl0_si1815 raw_TIMIT_200ms/train/mkxl0_si1815.ark:13
mtxs0_si2320 raw_TIMIT_200ms/train/mtxs0_si2320.ark:13
msas0_si1376 raw_TIMIT_200ms/train/msas0_si1376.ark:13
mcdd0_sx73 raw_TIMIT_200ms/train/mcdd0_sx73.ark:11
mgar0_sx42 raw_TIMIT_200ms/train/mgar0_sx42.ark:11
mtlc0_si1313 raw_TIMIT_200ms/train/mtlc0_si1313.ark:13
mrpc1_sx402 raw_TIMIT_200ms/train/mrpc1_sx402.ark:12
mpgr1_sx149 raw_TIMIT_200ms/train/mpgr1_sx149.ark:12
mses0_si2219 raw_TIMIT_200ms/train/mses0_si2219.ark:13
mmea0_sx128 raw_TIMIT_200ms/train/mmea0_sx128.ark:12
msms0_sx443 raw_TIMIT_200ms/train/msms0_sx443.ark:12
mmsm0_si1106 raw_TIMIT_200ms/train/mmsm0_si1106.ark:13
fpab1_sx211 raw_TIMIT_200ms/train/fpab1_sx211.ark:12
fntb0_si573 raw_TIMIT_200ms/train/fntb0_si573.ark:12
mdpb0_si1760 raw_TIMIT_200ms/train/mdpb0_si1760.ark:13
msrg0_sx141 raw_TIMIT_200ms/train/msrg0_sx141.ark:12
msdb0_sx17 raw_TIMIT_200ms/train/msdb0_sx17.ark:11
mtrt0_si1857 raw_TIMIT_200ms/train/mtrt0_si1857.ark:13
fceg0_sx348 raw_TIMIT_200ms/train/fceg0_sx348.ark:12
msmc0_si1907 raw_TIMIT_200ms/train/msmc0_si1907.ark:13
mrjh0_si914 raw_TIMIT_200ms/train/mrjh0_si914.ark:12
mljc0_sx235 raw_TIMIT_200ms/train/mljc0_sx235.ark:12
feme0_sx335 raw_TIMIT_200ms/train/feme0_sx335.ark:12
mrlk0_sx393 raw_TIMIT_200ms/train/mrlk0_sx393.ark:12
mmdb0_sx87 raw_TIMIT_200ms/train/mmdb0_sx87.ark:11
mbcg0_si2217 raw_TIMIT_200ms/train/mbcg0_si2217.ark:13
fmpg0_sx162 raw_TIMIT_200ms/train/fmpg0_sx162.ark:12
fsmm0_sx414 raw_TIMIT_200ms/train/fsmm0_sx414.ark:12
mjee0_si1867 raw_TIMIT_200ms/train/mjee0_si1867.ark:13
mrvg0_si1770 raw_TIMIT_200ms/train/mrvg0_si1770.ark:13
fjsk0_sx62 raw_TIMIT_200ms/train/fjsk0_sx62.ark:11
mbth0_sx302 raw_TIMIT_200ms/train/mbth0_sx302.ark:12
mjsr0_si1424 raw_TIMIT_200ms/train/mjsr0_si1424.ark:13
feme0_sx245 raw_TIMIT_200ms/train/feme0_sx245.ark:12
makr0_sx452 raw_TIMIT_200ms/train/makr0_sx452.ark:12
mdcd0_sx425 raw_TIMIT_200ms/train/mdcd0_sx425.ark:12
mtjs0_si1822 raw_TIMIT_200ms/train/mtjs0_si1822.ark:13
mdlc0_sx405 raw_TIMIT_200ms/train/mdlc0_sx405.ark:12
mjfr0_sx165 raw_TIMIT_200ms/train/mjfr0_sx165.ark:12
mgxp0_si525 raw_TIMIT_200ms/train/mgxp0_si525.ark:12
fsbk0_sx169 raw_TIMIT_200ms/train/fsbk0_sx169.ark:12
fetb0_sx338 raw_TIMIT_200ms/train/fetb0_sx338.ark:12
mgjc0_si1335 raw_TIMIT_200ms/train/mgjc0_si1335.ark:13
megj0_sx77 raw_TIMIT_200ms/train/megj0_sx77.ark:11
mrjb1_sx120 raw_TIMIT_200ms/train/mrjb1_sx120.ark:12
mejl0_si1654 raw_TIMIT_200ms/train/mejl0_si1654.ark:13
mtrr0_sx198 raw_TIMIT_200ms/train/mtrr0_sx198.ark:12
fspm0_si1241 raw_TIMIT_200ms/train/fspm0_si1241.ark:13
feme0_si1505 raw_TIMIT_200ms/train/feme0_si1505.ark:13
mdhs0_si2160 raw_TIMIT_200ms/train/mdhs0_si2160.ark:13
mgak0_sx226 raw_TIMIT_200ms/train/mgak0_sx226.ark:12
mtrt0_sx147 raw_TIMIT_200ms/train/mtrt0_sx147.ark:12
mdss1_si1327 raw_TIMIT_200ms/train/mdss1_si1327.ark:13
fdnc0_sx108 raw_TIMIT_200ms/train/fdnc0_sx108.ark:12
mrcg0_si1428 raw_TIMIT_200ms/train/mrcg0_si1428.ark:13
mbgt0_sx441 raw_TIMIT_200ms/train/mbgt0_sx441.ark:12
fapb0_si2323 raw_TIMIT_200ms/train/fapb0_si2323.ark:13
mdss1_sx157 raw_TIMIT_200ms/train/mdss1_sx157.ark:12
fkde0_sx61 raw_TIMIT_200ms/train/fkde0_sx61.ark:11
mmaa0_sx35 raw_TIMIT_200ms/train/mmaa0_sx35.ark:11
mafm0_sx39 raw_TIMIT_200ms/train/mafm0_sx39.ark:11
msat1_si2333 raw_TIMIT_200ms/train/msat1_si2333.ark:13
mdsj0_si832 raw_TIMIT_200ms/train/mdsj0_si832.ark:12
mgak0_si1036 raw_TIMIT_200ms/train/mgak0_si1036.ark:13
fpjf0_sx146 raw_TIMIT_200ms/train/fpjf0_sx146.ark:12
fscn0_si1886 raw_TIMIT_200ms/train/fscn0_si1886.ark:13
mdmt0_sx392 raw_TIMIT_200ms/train/mdmt0_sx392.ark:12
fsrh0_sx311 raw_TIMIT_200ms/train/fsrh0_sx311.ark:12
mgsh0_sx127 raw_TIMIT_200ms/train/mgsh0_sx127.ark:12
mjdm0_sx170 raw_TIMIT_200ms/train/mjdm0_sx170.ark:12
fbjl0_sx382 raw_TIMIT_200ms/train/fbjl0_sx382.ark:12
fsjk1_si1025 raw_TIMIT_200ms/train/fsjk1_si1025.ark:13
fklc1_sx418 raw_TIMIT_200ms/train/fklc1_sx418.ark:12
mmsm0_sx26 raw_TIMIT_200ms/train/mmsm0_sx26.ark:11
fpmy0_sx343 raw_TIMIT_200ms/train/fpmy0_sx343.ark:12
fpac0_sx31 raw_TIMIT_200ms/train/fpac0_sx31.ark:11
mntw0_sx168 raw_TIMIT_200ms/train/mntw0_sx168.ark:12
mtxs0_sx160 raw_TIMIT_200ms/train/mtxs0_sx160.ark:12
mljc0_sx55 raw_TIMIT_200ms/train/mljc0_sx55.ark:11
fcke0_si1741 raw_TIMIT_200ms/train/fcke0_si1741.ark:13
mmaa0_sx125 raw_TIMIT_200ms/train/mmaa0_sx125.ark:12
mdwh0_si1168 raw_TIMIT_200ms/train/mdwh0_si1168.ark:13
mjee0_sx67 raw_TIMIT_200ms/train/mjee0_sx67.ark:11
mpar0_si2206 raw_TIMIT_200ms/train/mpar0_si2206.ark:13
mkdb0_sx332 raw_TIMIT_200ms/train/mkdb0_sx332.ark:12
fdkn0_sx361 raw_TIMIT_200ms/train/fdkn0_sx361.ark:12
mkes0_sx353 raw_TIMIT_200ms/train/mkes0_sx353.ark:12
mbbr0_sx245 raw_TIMIT_200ms/train/mbbr0_sx245.ark:12
mvlo0_sx247 raw_TIMIT_200ms/train/mvlo0_sx247.ark:12
mmdb0_sx447 raw_TIMIT_200ms/train/mmdb0_sx447.ark:12
mkdt0_sx263 raw_TIMIT_200ms/train/mkdt0_sx263.ark:12
flet0_sx417 raw_TIMIT_200ms/train/flet0_sx417.ark:12
mmpm0_si2321 raw_TIMIT_200ms/train/mmpm0_si2321.ark:13
mmeb0_sx367 raw_TIMIT_200ms/train/mmeb0_sx367.ark:12
mtat1_si1627 raw_TIMIT_200ms/train/mtat1_si1627.ark:13
fmah1_sx339 raw_TIMIT_200ms/train/fmah1_sx339.ark:12
mrmg0_sx180 raw_TIMIT_200ms/train/mrmg0_sx180.ark:12
mvrw0_sx45 raw_TIMIT_200ms/train/mvrw0_sx45.ark:11
mdac0_si1837 raw_TIMIT_200ms/train/mdac0_si1837.ark:13
mtrc0_sx363 raw_TIMIT_200ms/train/mtrc0_sx363.ark:12
mhbs0_si945 raw_TIMIT_200ms/train/mhbs0_si945.ark:12
fbmh0_sx146 raw_TIMIT_200ms/train/fbmh0_sx146.ark:12
fdas1_sx381 raw_TIMIT_200ms/train/fdas1_sx381.ark:12
fsjs0_si541 raw_TIMIT_200ms/train/fsjs0_si541.ark:12
msmr0_sx415 raw_TIMIT_200ms/train/msmr0_sx415.ark:12
ftbr0_sx111 raw_TIMIT_200ms/train/ftbr0_sx111.ark:12
fdml0_sx429 raw_TIMIT_200ms/train/fdml0_sx429.ark:12
fdjh0_si935 raw_TIMIT_200ms/train/fdjh0_si935.ark:12
mtkp0_sx303 raw_TIMIT_200ms/train/mtkp0_sx303.ark:12
fvmh0_sx206 raw_TIMIT_200ms/train/fvmh0_sx206.ark:12
mcef0_si1135 raw_TIMIT_200ms/train/mcef0_si1135.ark:13
meal0_si1547 raw_TIMIT_200ms/train/meal0_si1547.ark:13
fcjf0_si1657 raw_TIMIT_200ms/train/fcjf0_si1657.ark:13
mapv0_si1923 raw_TIMIT_200ms/train/mapv0_si1923.ark:13
mbsb0_si1353 raw_TIMIT_200ms/train/mbsb0_si1353.ark:13
mfxv0_sx285 raw_TIMIT_200ms/train/mfxv0_sx285.ark:12
mapv0_si663 raw_TIMIT_200ms/train/mapv0_si663.ark:12
fleh0_si1051 raw_TIMIT_200ms/train/fleh0_si1051.ark:13
mhrm0_sx148 raw_TIMIT_200ms/train/mhrm0_sx148.ark:12
mgag0_sx421 raw_TIMIT_200ms/train/mgag0_sx421.ark:12
fscn0_sx356 raw_TIMIT_200ms/train/fscn0_sx356.ark:12
mprb0_sx35 raw_TIMIT_200ms/train/mprb0_sx35.ark:11
milb0_sx3 raw_TIMIT_200ms/train/milb0_sx3.ark:10
mesj0_si2039 raw_TIMIT_200ms/train/mesj0_si2039.ark:13
fhlm0_sx120 raw_TIMIT_200ms/train/fhlm0_sx120.ark:12
fdtd0_si931 raw_TIMIT_200ms/train/fdtd0_si931.ark:12
mges0_sx41 raw_TIMIT_200ms/train/mges0_sx41.ark:11
mdbp0_sx258 raw_TIMIT_200ms/train/mdbp0_sx258.ark:12
ftbr0_sx381 raw_TIMIT_200ms/train/ftbr0_sx381.ark:12
mvlo0_sx337 raw_TIMIT_200ms/train/mvlo0_sx337.ark:12
mvrw0_si855 raw_TIMIT_200ms/train/mvrw0_si855.ark:12
fklh0_sx177 raw_TIMIT_200ms/train/fklh0_sx177.ark:12
mjac0_sx431 raw_TIMIT_200ms/train/mjac0_sx431.ark:12
fjdm2_si1582 raw_TIMIT_200ms/train/fjdm2_si1582.ark:13
mrai0_si792 raw_TIMIT_200ms/train/mrai0_si792.ark:12
mklr0_si1689 raw_TIMIT_200ms/train/mklr0_si1689.ark:13
fgcs0_sx136 raw_TIMIT_200ms/train/fgcs0_sx136.ark:12
mjjj0_si1793 raw_TIMIT_200ms/train/mjjj0_si1793.ark:13
mtkp0_sx213 raw_TIMIT_200ms/train/mtkp0_sx213.ark:12
msmc0_si509 raw_TIMIT_200ms/train/msmc0_si509.ark:12
mrds0_si1797 raw_TIMIT_200ms/train/mrds0_si1797.ark:13
fkdw0_si1207 raw_TIMIT_200ms/train/fkdw0_si1207.ark:13
mjee0_si1237 raw_TIMIT_200ms/train/mjee0_si1237.ark:13
mddc0_sx249 raw_TIMIT_200ms/train/mddc0_sx249.ark:12
mcdc0_si1922 raw_TIMIT_200ms/train/mcdc0_si1922.ark:13
fpmy0_si1783 raw_TIMIT_200ms/train/fpmy0_si1783.ark:13
mmws1_sx261 raw_TIMIT_200ms/train/mmws1_sx261.ark:12
fpls0_sx60 raw_TIMIT_200ms/train/fpls0_sx60.ark:11
mwch0_sx182 raw_TIMIT_200ms/train/mwch0_sx182.ark:12
mges0_si851 raw_TIMIT_200ms/train/mges0_si851.ark:12
ftmg0_sx272 raw_TIMIT_200ms/train/ftmg0_sx272.ark:12
mjai0_sx434 raw_TIMIT_200ms/train/mjai0_sx434.ark:12
mwre0_sx247 raw_TIMIT_200ms/train/mwre0_sx247.ark:12
mjjm0_sx287 raw_TIMIT_200ms/train/mjjm0_sx287.ark:12
mjfh0_si1107 raw_TIMIT_200ms/train/mjfh0_si1107.ark:13
mtbc0_sx183 raw_TIMIT_200ms/train/mtbc0_sx183.ark:12
mtjg0_sx260 raw_TIMIT_200ms/train/mtjg0_sx260.ark:12
