fsag0_sx333 raw_TIMIT_200ms/train/fsag0_sx333.ark:12
mmea0_si2018 raw_TIMIT_200ms/train/mmea0_si2018.ark:13
mtmt0_si1118 raw_TIMIT_200ms/train/mtmt0_si1118.ark:13
mejl0_sx422 raw_TIMIT_200ms/train/mejl0_sx422.ark:12
flac0_si901 raw_TIMIT_200ms/train/flac0_si901.ark:12
mrav0_si1638 raw_TIMIT_200ms/train/mrav0_si1638.ark:13
mrjm1_sx218 raw_TIMIT_200ms/train/mrjm1_sx218.ark:12
mjrh0_si1840 raw_TIMIT_200ms/train/mjrh0_si1840.ark:13
msrg0_si591 raw_TIMIT_200ms/train/msrg0_si591.ark:12
fcdr1_si556 raw_TIMIT_200ms/train/fcdr1_si556.ark:12
mmam0_sx157 raw_TIMIT_200ms/train/mmam0_sx157.ark:12
mgak0_sx406 raw_TIMIT_200ms/train/mgak0_sx406.ark:12
mrcw0_sx381 raw_TIMIT_200ms/train/mrcw0_sx381.ark:12
mtbc0_sx363 raw_TIMIT_200ms/train/mtbc0_sx363.ark:12
fmbg0_sx3 raw_TIMIT_200ms/train/fmbg0_sx3.ark:10
mdsj0_sx112 raw_TIMIT_200ms/train/mdsj0_sx112.ark:12
mrpc1_sx312 raw_TIMIT_200ms/train/mrpc1_sx312.ark:12
mcre0_sx221 raw_TIMIT_200ms/train/mcre0_sx221.ark:12
mwrp0_sx273 raw_TIMIT_200ms/train/mwrp0_sx273.ark:12
fmmh0_sx367 raw_TIMIT_200ms/train/fmmh0_sx367.ark:12
mjrh1_sx244 raw_TIMIT_200ms/train/mjrh1_sx244.ark:12
fpaz0_sx423 raw_TIMIT_200ms/train/fpaz0_sx423.ark:12
fmah1_si2139 raw_TIMIT_200ms/train/fmah1_si2139.ark:13
mjma0_sx325 raw_TIMIT_200ms/train/mjma0_sx325.ark:12
mtkd0_sx197 raw_TIMIT_200ms/train/mtkd0_sx197.ark:12
fgmb0_si1775 raw_TIMIT_200ms/train/fgmb0_si1775.ark:13
mmab1_sx144 raw_TIMIT_200ms/train/mmab1_sx144.ark:12
mrjm0_si1858 raw_TIMIT_200ms/train/mrjm0_si1858.ark:13
mmlm0_sx177 raw_TIMIT_200ms/train/mmlm0_sx177.ark:12
maeb0_si1411 raw_TIMIT_200ms/train/maeb0_si1411.ark:13
fsms1_si2134 raw_TIMIT_200ms/train/fsms1_si2134.ark:13
mgxp0_sx7 raw_TIMIT_200ms/train/mgxp0_sx7.ark:10
fsgf0_sx297 raw_TIMIT_200ms/train/fsgf0_sx297.ark:12
mewm0_sx448 raw_TIMIT_200ms/train/mewm0_sx448.ark:12
fvkb0_si1789 raw_TIMIT_200ms/train/fvkb0_si1789.ark:13
mkaj0_sx244 raw_TIMIT_200ms/train/mkaj0_sx244.ark:12
mmpm0_sx161 raw_TIMIT_200ms/train/mmpm0_sx161.ark:12
fjen0_sx57 raw_TIMIT_200ms/train/fjen0_sx57.ark:11
mrxb0_si955 raw_TIMIT_200ms/train/mrxb0_si955.ark:12
fcmg0_sx162 raw_TIMIT_200ms/train/fcmg0_sx162.ark:12
mdhl0_sx179 raw_TIMIT_200ms/train/mdhl0_sx179.ark:12
faem0_si762 raw_TIMIT_200ms/train/faem0_si762.ark:12
fsdj0_sx125 raw_TIMIT_200ms/train/fsdj0_sx125.ark:12
flmc0_sx336 raw_TIMIT_200ms/train/flmc0_sx336.ark:12
mprk0_sx107 raw_TIMIT_200ms/train/mprk0_sx107.ark:12
fjdm2_sx52 raw_TIMIT_200ms/train/fjdm2_sx52.ark:11
madd0_sx268 raw_TIMIT_200ms/train/madd0_sx268.ark:12
fdtd0_sx391 raw_TIMIT_200ms/train/fdtd0_sx391.ark:12
feeh0_si1112 raw_TIMIT_200ms/train/feeh0_si1112.ark:13
megj0_si707 raw_TIMIT_200ms/train/megj0_si707.ark:12
fvfb0_sx132 raw_TIMIT_200ms/train/fvfb0_sx132.ark:12
fexm0_sx111 raw_TIMIT_200ms/train/fexm0_sx111.ark:12
mkxl0_sx195 raw_TIMIT_200ms/train/mkxl0_sx195.ark:12
mjfh0_sx387 raw_TIMIT_200ms/train/mjfh0_sx387.ark:12
flod0_sx171 raw_TIMIT_200ms/train/flod0_sx171.ark:12
fskc0_sx66 raw_TIMIT_200ms/train/fskc0_sx66.ark:11
mjde0_sx310 raw_TIMIT_200ms/train/mjde0_sx310.ark:12
majp0_sx84 raw_TIMIT_200ms/train/majp0_sx84.ark:11
mrgm0_sx172 raw_TIMIT_200ms/train/mrgm0_sx172.ark:12
fsjw0_sx433 raw_TIMIT_200ms/train/fsjw0_sx433.ark:12
feeh0_sx212 raw_TIMIT_200ms/train/feeh0_sx212.ark:12
msdb0_si1007 raw_TIMIT_200ms/train/msdb0_si1007.ark:13
mded0_sx90 raw_TIMIT_200ms/train/mded0_sx90.ark:11
fdml0_sx249 raw_TIMIT_200ms/train/fdml0_sx249.ark:12
fklc0_si1615 raw_TIMIT_200ms/train/fklc0_si1615.ark:13
mdpb0_si2126 raw_TIMIT_200ms/train/mdpb0_si2126.ark:13
mgxp0_sx97 raw_TIMIT_200ms/train/mgxp0_sx97.ark:11
milb0_si2163 raw_TIMIT_200ms/train/milb0_si2163.ark:13
mbgt0_si1341 raw_TIMIT_200ms/train/mbgt0_si1341.ark:13
mrlk0_si1468 raw_TIMIT_200ms/train/mrlk0_si1468.ark:13
mtat0_sx210 raw_TIMIT_200ms/train/mtat0_sx210.ark:12
mtrt0_sx237 raw_TIMIT_200ms/train/mtrt0_sx237.ark:12
mrxb0_sx145 raw_TIMIT_200ms/train/mrxb0_sx145.ark:12
fpaf0_sx154 raw_TIMIT_200ms/train/fpaf0_sx154.ark:12
mkxl0_sx285 raw_TIMIT_200ms/train/mkxl0_sx285.ark:12
mkls1_si1545 raw_TIMIT_200ms/train/mkls1_si1545.ark:13
mbef0_sx201 raw_TIMIT_200ms/train/mbef0_sx201.ark:12
mddc0_si2049 raw_TIMIT_200ms/train/mddc0_si2049.ark:13
madd0_sx178 raw_TIMIT_200ms/train/madd0_sx178.ark:12
mdwm0_sx286 raw_TIMIT_200ms/train/mdwm0_sx286.ark:12
fsag0_sx153 raw_TIMIT_200ms/train/fsag0_sx153.ark:12
mdcd0_sx245 raw_TIMIT_200ms/train/mdcd0_sx245.ark:12
mdlc1_sx445 raw_TIMIT_200ms/train/mdlc1_sx445.ark:12
mjdc0_sx81 raw_TIMIT_200ms/train/mjdc0_sx81.ark:11
mrcw0_si1371 raw_TIMIT_200ms/train/mrcw0_si1371.ark:13
fbas0_sx397 raw_TIMIT_200ms/train/fbas0_sx397.ark:12
mtml0_si2325 raw_TIMIT_200ms/train/mtml0_si2325.ark:13
fsjw0_sx253 raw_TIMIT_200ms/train/fsjw0_sx253.ark:12
megj0_sx437 raw_TIMIT_200ms/train/megj0_sx437.ark:12
mtqc0_sx91 raw_TIMIT_200ms/train/mtqc0_sx91.ark:11
mjeb1_si1467 raw_TIMIT_200ms/train/mjeb1_si1467.ark:13
mkah0_si898 raw_TIMIT_200ms/train/mkah0_si898.ark:12
fhlm0_si2190 raw_TIMIT_200ms/train/fhlm0_si2190.ark:13
frjb0_si1794 raw_TIMIT_200ms/train/frjb0_si1794.ark:13
mhxl0_sx242 raw_TIMIT_200ms/train/mhxl0_sx242.ark:12
mcal0_sx148 raw_TIMIT_200ms/train/mcal0_sx148.ark:12
fdjh0_sx395 raw_TIMIT_200ms/train/fdjh0_sx395.ark:12
mded0_si1170 raw_TIMIT_200ms/train/mded0_si1170.ark:13
mfer0_sx322 raw_TIMIT_200ms/train/mfer0_sx322.ark:12
milb0_si903 raw_TIMIT_200ms/train/milb0_si903.ark:12
mmws0_sx168 raw_TIMIT_200ms/train/mmws0_sx168.ark:12
mpeb0_sx330 raw_TIMIT_200ms/train/mpeb0_sx330.ark:12
mrai0_sx162 raw_TIMIT_200ms/train/mrai0_sx162.ark:12
mjdc0_sx441 raw_TIMIT_200ms/train/mjdc0_sx441.ark:12
fear0_sx442 raw_TIMIT_200ms/train/fear0_sx442.ark:12
mdns0_si873 raw_TIMIT_200ms/train/mdns0_si873.ark:12
flja0_sx448 raw_TIMIT_200ms/train/flja0_sx448.ark:12
fjsp0_sx444 raw_TIMIT_200ms/train/fjsp0_sx444.ark:12
mdmt0_sx122 raw_TIMIT_200ms/train/mdmt0_sx122.ark:12
mtab0_si942 raw_TIMIT_200ms/train/mtab0_si942.ark:12
mtxs0_si1690 raw_TIMIT_200ms/train/mtxs0_si1690.ark:13
msms0_sx263 raw_TIMIT_200ms/train/msms0_sx263.ark:12
mfxs0_sx234 raw_TIMIT_200ms/train/mfxs0_sx234.ark:12
fpmy0_sx196 raw_TIMIT_200ms/train/fpmy0_sx196.ark:12
mcdr0_sx164 raw_TIMIT_200ms/train/mcdr0_sx164.ark:12
majp0_sx174 raw_TIMIT_200ms/train/majp0_sx174.ark:12
mreh1_si2229 raw_TIMIT_200ms/train/mreh1_si2229.ark:13
mjrh0_sx45 raw_TIMIT_200ms/train/mjrh0_sx45.ark:11
msat1_sx83 raw_TIMIT_200ms/train/msat1_sx83.ark:11
mdlh0_sx430 raw_TIMIT_200ms/train/mdlh0_sx430.ark:12
fcmg0_sx72 raw_TIMIT_200ms/train/fcmg0_sx72.ark:11
mkag0_sx439 raw_TIMIT_200ms/train/mkag0_sx439.ark:12
mdlc0_sx135 raw_TIMIT_200ms/train/mdlc0_sx135.ark:12
msjk0_sx426 raw_TIMIT_200ms/train/msjk0_sx426.ark:12
msdh0_si2240 raw_TIMIT_200ms/train/msdh0_si2240.ark:13
mhmr0_sx129 raw_TIMIT_200ms/train/mhmr0_sx129.ark:12
mree0_si1959 raw_TIMIT_200ms/train/mree0_si1959.ark:13
msds0_sx267 raw_TIMIT_200ms/train/msds0_sx267.ark:12
mrjm0_sx328 raw_TIMIT_200ms/train/mrjm0_sx328.ark:12
mmea0_sx218 raw_TIMIT_200ms/train/mmea0_sx218.ark:12
mewm0_si718 raw_TIMIT_200ms/train/mewm0_si718.ark:12
meal0_sx287 raw_TIMIT_200ms/train/meal0_sx287.ark:12
mkag0_si1609 raw_TIMIT_200ms/train/mkag0_si1609.ark:13
fpaf0_si1054 raw_TIMIT_200ms/train/fpaf0_si1054.ark:13
fkaa0_sx128 raw_TIMIT_200ms/train/fkaa0_sx128.ark:12
fjrb0_si1932 raw_TIMIT_200ms/train/fjrb0_si1932.ark:13
mrtj0_sx142 raw_TIMIT_200ms/train/mrtj0_sx142.ark:12
mdlc2_sx84 raw_TIMIT_200ms/train/mdlc2_sx84.ark:11
fjsp0_si1434 raw_TIMIT_200ms/train/fjsp0_si1434.ark:13
mkxl0_sx375 raw_TIMIT_200ms/train/mkxl0_sx375.ark:12
mrtj0_si772 raw_TIMIT_200ms/train/mrtj0_si772.ark:12
fkde0_sx331 raw_TIMIT_200ms/train/fkde0_sx331.ark:12
fsdc0_si1942 raw_TIMIT_200ms/train/fsdc0_si1942.ark:13
mdps0_sx449 raw_TIMIT_200ms/train/mdps0_sx449.ark:12
mzmb0_si536 raw_TIMIT_200ms/train/mzmb0_si536.ark:12
mtdp0_sx441 raw_TIMIT_200ms/train/mtdp0_sx441.ark:12
fsjw0_si1963 raw_TIMIT_200ms/train/fsjw0_si1963.ark:13
fbjl0_sx22 raw_TIMIT_200ms/train/fbjl0_sx22.ark:11
fsrh0_si671 raw_TIMIT_200ms/train/fsrh0_si671.ark:12
mcae0_si1447 raw_TIMIT_200ms/train/mcae0_si1447.ark:13
msah1_sx329 raw_TIMIT_200ms/train/msah1_sx329.ark:12
mmlm0_sx447 raw_TIMIT_200ms/train/mmlm0_sx447.ark:12
mjlb0_sx266 raw_TIMIT_200ms/train/mjlb0_sx266.ark:12
mrjm1_si1298 raw_TIMIT_200ms/train/mrjm1_si1298.ark:13
mpmb0_si1501 raw_TIMIT_200ms/train/mpmb0_si1501.ark:13
mdlc2_sx444 raw_TIMIT_200ms/train/mdlc2_sx444.ark:12
mchl0_sx267 raw_TIMIT_200ms/train/mchl0_sx267.ark:12
mrre0_sx434 raw_TIMIT_200ms/train/mrre0_sx434.ark:12
msdh0_sx350 raw_TIMIT_200ms/train/msdh0_sx350.ark:12
mcdd0_si1513 raw_TIMIT_200ms/train/mcdd0_si1513.ark:13
mmgc0_si2184 raw_TIMIT_200ms/train/mmgc0_si2184.ark:13
fmjb0_sx7 raw_TIMIT_200ms/train/fmjb0_sx7.ark:10
mdlr0_sx423 raw_TIMIT_200ms/train/mdlr0_sx423.ark:12
mjxa0_si2137 raw_TIMIT_200ms/train/mjxa0_si2137.ark:13
mrml0_sx431 raw_TIMIT_200ms/train/mrml0_sx431.ark:12
fcmm0_sx183 raw_TIMIT_200ms/train/fcmm0_sx183.ark:12
mjeb1_sx387 raw_TIMIT_200ms/train/mjeb1_sx387.ark:12
mmdg0_si1780 raw_TIMIT_200ms/train/mmdg0_si1780.ark:13
ftmg0_si902 raw_TIMIT_200ms/train/ftmg0_si902.ark:12
marw0_sx349 raw_TIMIT_200ms/train/marw0_sx349.ark:12
mdlr0_si1863 raw_TIMIT_200ms/train/mdlr0_si1863.ark:13
mwad0_sx432 raw_TIMIT_200ms/train/mwad0_sx432.ark:12
mhmr0_sx219 raw_TIMIT_200ms/train/mhmr0_sx219.ark:12
mjws0_si1773 raw_TIMIT_200ms/train/mjws0_si1773.ark:13
mmgc0_sx315 raw_TIMIT_200ms/train/mmgc0_sx315.ark:12
mchl0_si1977 raw_TIMIT_200ms/train/mchl0_si1977.ark:13
mcew0_sx92 raw_TIMIT_200ms/train/mcew0_sx92.ark:11
mbar0_sx329 raw_TIMIT_200ms/train/mbar0_sx329.ark:12
mgjc0_si1965 raw_TIMIT_200ms/train/mgjc0_si1965.ark:13
mgrp0_si1947 raw_TIMIT_200ms/train/mgrp0_si1947.ark:13
mdtb0_sx210 raw_TIMIT_200ms/train/mdtb0_sx210.ark:12
mklw0_sx401 raw_TIMIT_200ms/train/mklw0_sx401.ark:12
msdh0_si2113 raw_TIMIT_200ms/train/msdh0_si2113.ark:13
mstf0_sx136 raw_TIMIT_200ms/train/mstf0_sx136.ark:12
fdml0_si1779 raw_TIMIT_200ms/train/fdml0_si1779.ark:13
mrjh0_sx307 raw_TIMIT_200ms/train/mrjh0_sx307.ark:12
mjbg0_sx62 raw_TIMIT_200ms/train/mjbg0_sx62.ark:11
fcdr1_si1816 raw_TIMIT_200ms/train/fcdr1_si1816.ark:13
msfh0_si1216 raw_TIMIT_200ms/train/msfh0_si1216.ark:13
mjdc0_sx351 raw_TIMIT_200ms/train/mjdc0_sx351.ark:12
mfmc0_si1762 raw_TIMIT_200ms/train/mfmc0_si1762.ark:13
mjwt0_sx31 raw_TIMIT_200ms/train/mjwt0_sx31.ark:11
mdas0_sx96 raw_TIMIT_200ms/train/mdas0_sx96.ark:11
mmsm0_sx386 raw_TIMIT_200ms/train/mmsm0_sx386.ark:12
fsdc0_sx412 raw_TIMIT_200ms/train/fsdc0_sx412.ark:12
mjsr0_sx344 raw_TIMIT_200ms/train/mjsr0_sx344.ark:12
mewm0_si1348 raw_TIMIT_200ms/train/mewm0_si1348.ark:13
mdma0_sx260 raw_TIMIT_200ms/train/mdma0_sx260.ark:12
mjdg0_sx232 raw_TIMIT_200ms/train/mjdg0_sx232.ark:12
fljd0_sx256 raw_TIMIT_200ms/train/fljd0_sx256.ark:12
mrsp0_si2059 raw_TIMIT_200ms/train/mrsp0_si2059.ark:13
mrds0_si1167 raw_TIMIT_200ms/train/mrds0_si1167.ark:13
mmvp0_si654 raw_TIMIT_200ms/train/mmvp0_si654.ark:12
mtat1_si779 raw_TIMIT_200ms/train/mtat1_si779.ark:12
mbsb0_sx93 raw_TIMIT_200ms/train/mbsb0_sx93.ark:11
fmjb0_sx187 raw_TIMIT_200ms/train/fmjb0_sx187.ark:12
mjjb0_sx239 raw_TIMIT_200ms/train/mjjb0_sx239.ark:12
fdaw0_sx416 raw_TIMIT_200ms/train/fdaw0_sx416.ark:12
mrjb1_si1020 raw_TIMIT_200ms/train/mrjb1_si1020.ark:13
msem1_si1440 raw_TIMIT_200ms/train/msem1_si1440.ark:13
mbbr0_si1685 raw_TIMIT_200ms/train/mbbr0_si1685.ark:13
mejl0_si962 raw_TIMIT_200ms/train/mejl0_si962.ark:12
mljc0_si595 raw_TIMIT_200ms/train/mljc0_si595.ark:12
mbma0_si592 raw_TIMIT_200ms/train/mbma0_si592.ark:12
mjrg0_sx352 raw_TIMIT_200ms/train/mjrg0_sx352.ark:12
mjra0_si1866 raw_TIMIT_200ms/train/mjra0_si1866.ark:13
fspm0_sx251 raw_TIMIT_200ms/train/fspm0_sx251.ark:12
mwsh0_si1426 raw_TIMIT_200ms/train/mwsh0_si1426.ark:13
fsak0_si1300 raw_TIMIT_200ms/train/fsak0_si1300.ark:13
mtpf0_si1235 raw_TIMIT_200ms/train/mtpf0_si1235.ark:13
mpar0_sx316 raw_TIMIT_200ms/train/mpar0_sx316.ark:12
msvs0_sx308 raw_TIMIT_200ms/train/msvs0_sx308.ark:12
fvkb0_si1159 raw_TIMIT_200ms/train/fvkb0_si1159.ark:13
mmjb1_si2038 raw_TIMIT_200ms/train/mmjb1_si2038.ark:13
fpab1_sx121 raw_TIMIT_200ms/train/fpab1_sx121.ark:12
fklh0_sx267 raw_TIMIT_200ms/train/fklh0_sx267.ark:12
mmgc0_sx45 raw_TIMIT_200ms/train/mmgc0_sx45.ark:11
fkkh0_si660 raw_TIMIT_200ms/train/fkkh0_si660.ark:12
msdb0_sx197 raw_TIMIT_200ms/train/msdb0_sx197.ark:12
mdwh0_sx305 raw_TIMIT_200ms/train/mdwh0_sx305.ark:12
mkxl0_sx15 raw_TIMIT_200ms/train/mkxl0_sx15.ark:11
mjxl0_si1172 raw_TIMIT_200ms/train/mjxl0_si1172.ark:13
mjdg0_sx142 raw_TIMIT_200ms/train/mjdg0_sx142.ark:12
mjlb0_sx86 raw_TIMIT_200ms/train/mjlb0_sx86.ark:11
mfxs0_sx54 raw_TIMIT_200ms/train/mfxs0_sx54.ark:11
mtjg0_sx440 raw_TIMIT_200ms/train/mtjg0_sx440.ark:12
fjlr0_si601 raw_TIMIT_200ms/train/fjlr0_si601.ark:12
fcaj0_si849 raw_TIMIT_200ms/train/fcaj0_si849.ark:12
mjfr0_si1605 raw_TIMIT_200ms/train/mjfr0_si1605.ark:13
flkm0_sx116 raw_TIMIT_200ms/train/flkm0_sx116.ark:12
fsah0_sx164 raw_TIMIT_200ms/train/fsah0_sx164.ark:12
mrtj0_sx412 raw_TIMIT_200ms/train/mrtj0_sx412.ark:12
mfmc0_si1132 raw_TIMIT_200ms/train/mfmc0_si1132.ark:13
mjrp0_sx45 raw_TIMIT_200ms/train/mjrp0_sx45.ark:11
fsak0_sx130 raw_TIMIT_200ms/train/fsak0_sx130.ark:12
fscn0_si626 raw_TIMIT_200ms/train/fscn0_si626.ark:12
mwar0_sx235 raw_TIMIT_200ms/train/mwar0_sx235.ark:12
mjrh1_sx424 raw_TIMIT_200ms/train/mjrh1_sx424.ark:12
mgsl0_sx444 raw_TIMIT_200ms/train/mgsl0_sx444.ark:12
mfxs0_sx144 raw_TIMIT_200ms/train/mfxs0_sx144.ark:12
mjmd0_sx128 raw_TIMIT_200ms/train/mjmd0_sx128.ark:12
mtpg0_sx303 raw_TIMIT_200ms/train/mtpg0_sx303.ark:12
mrlj1_sx231 raw_TIMIT_200ms/train/mrlj1_sx231.ark:12
mgjc0_si1256 raw_TIMIT_200ms/train/mgjc0_si1256.ark:13
madd0_si538 raw_TIMIT_200ms/train/madd0_si538.ark:12
mjac0_sx251 raw_TIMIT_200ms/train/mjac0_sx251.ark:12
fjhk0_sx32 raw_TIMIT_200ms/train/fjhk0_sx32.ark:11
fsjs0_sx451 raw_TIMIT_200ms/train/fsjs0_sx451.ark:12
mstf0_sx316 raw_TIMIT_200ms/train/mstf0_sx316.ark:12
msrg0_si1221 raw_TIMIT_200ms/train/msrg0_si1221.ark:13
fkkh0_sx390 raw_TIMIT_200ms/train/fkkh0_sx390.ark:12
mdem0_sx428 raw_TIMIT_200ms/train/mdem0_sx428.ark:12
mesg0_sx432 raw_TIMIT_200ms/train/mesg0_sx432.ark:12
fsrh0_sx131 raw_TIMIT_200ms/train/fsrh0_sx131.ark:12
medr0_sx294 raw_TIMIT_200ms/train/medr0_sx294.ark:12
msah1_si2309 raw_TIMIT_200ms/train/msah1_si2309.ark:13
mjrg0_sx16 raw_TIMIT_200ms/train/mjrg0_sx16.ark:11
mwgr0_sx436 raw_TIMIT_200ms/train/mwgr0_sx436.ark:12
mram0_sx375 raw_TIMIT_200ms/train/mram0_sx375.ark:12
fbch0_sx326 raw_TIMIT_200ms/train/fbch0_sx326.ark:12
mjpm1_sx311 raw_TIMIT_200ms/train/mjpm1_sx311.ark:12
fskc0_si1416 raw_TIMIT_200ms/train/fskc0_si1416.ark:13
flhd0_sx84 raw_TIMIT_200ms/train/flhd0_sx84.ark:11
mkls1_sx105 raw_TIMIT_200ms/train/mkls1_sx105.ark:12
mreh1_sx249 raw_TIMIT_200ms/train/mreh1_sx249.ark:12
mdmt0_sx302 raw_TIMIT_200ms/train/mdmt0_sx302.ark:12
fleh0_si2311 raw_TIMIT_200ms/train/fleh0_si2311.ark:13
makr0_si1352 raw_TIMIT_200ms/train/makr0_si1352.ark:13
mjls0_sx106 raw_TIMIT_200ms/train/mjls0_sx106.ark:12
msjk0_si1596 raw_TIMIT_200ms/train/msjk0_si1596.ark:13
mkam0_sx56 raw_TIMIT_200ms/train/mkam0_sx56.ark:11
mjfr0_sx435 raw_TIMIT_200ms/train/mjfr0_sx435.ark:12
mdmt0_sx32 raw_TIMIT_200ms/train/mdmt0_sx32.ark:11
fbmj0_sx336 raw_TIMIT_200ms/train/fbmj0_sx336.ark:12
mcae0_si2077 raw_TIMIT_200ms/train/mcae0_si2077.ark:13
fskp0_si1098 raw_TIMIT_200ms/train/fskp0_si1098.ark:13
mgak0_sx46 raw_TIMIT_200ms/train/mgak0_sx46.ark:11
mdas0_sx6 raw_TIMIT_200ms/train/mdas0_sx6.ark:10
mrlr0_sx296 raw_TIMIT_200ms/train/mrlr0_sx296.ark:12
mpar0_sx136 raw_TIMIT_200ms/train/mpar0_sx136.ark:12
mgaf0_sx112 raw_TIMIT_200ms/train/mgaf0_sx112.ark:12
fecd0_sx158 raw_TIMIT_200ms/train/fecd0_sx158.ark:12
mjmm0_si1885 raw_TIMIT_200ms/train/mjmm0_si1885.ark:13
fhxs0_sx85 raw_TIMIT_200ms/train/fhxs0_sx85.ark:11
fjsp0_sx174 raw_TIMIT_200ms/train/fjsp0_sx174.ark:12
fjhk0_sx212 raw_TIMIT_200ms/train/fjhk0_sx212.ark:12
mjjm0_si1457 raw_TIMIT_200ms/train/mjjm0_si1457.ark:13
fexm0_sx366 raw_TIMIT_200ms/train/fexm0_sx366.ark:12
fntb0_si1203 raw_TIMIT_200ms/train/fntb0_si1203.ark:13
mtrc0_sx273 raw_TIMIT_200ms/train/mtrc0_sx273.ark:12
mses0_si1589 raw_TIMIT_200ms/train/mses0_si1589.ark:13
madc0_sx107 raw_TIMIT_200ms/train/madc0_sx107.ark:12
mapv0_sx393 raw_TIMIT_200ms/train/mapv0_sx393.ark:12
feac0_si615 raw_TIMIT_200ms/train/feac0_si615.ark:12
mhrm0_sx238 raw_TIMIT_200ms/train/mhrm0_sx238.ark:12
mgaw0_sx265 raw_TIMIT_200ms/train/mgaw0_sx265.ark:12
mpsw0_si1067 raw_TIMIT_200ms/train/mpsw0_si1067.ark:13
fgrw0_sx162 raw_TIMIT_200ms/train/fgrw0_sx162.ark:12
mrre0_sx344 raw_TIMIT_200ms/train/mrre0_sx344.ark:12
fdtd0_si2191 raw_TIMIT_200ms/train/fdtd0_si2191.ark:13
mbml0_si1799 raw_TIMIT_200ms/train/mbml0_si1799.ark:13
mrab1_sx128 raw_TIMIT_200ms/train/mrab1_sx128.ark:12
fjrp1_sx172 raw_TIMIT_200ms/train/fjrp1_sx172.ark:12
mdbp0_si1158 raw_TIMIT_200ms/train/mdbp0_si1158.ark:13
mgag0_sx331 raw_TIMIT_200ms/train/mgag0_sx331.ark:12
mrpc1_si2112 raw_TIMIT_200ms/train/mrpc1_si2112.ark:13
flhd0_si1827 raw_TIMIT_200ms/train/flhd0_si1827.ark:13
mdas0_sx186 raw_TIMIT_200ms/train/mdas0_sx186.ark:12
mjrh1_si1558 raw_TIMIT_200ms/train/mjrh1_si1558.ark:13
mfer0_si1492 raw_TIMIT_200ms/train/mfer0_si1492.ark:13
msvs0_sx218 raw_TIMIT_200ms/train/msvs0_sx218.ark:12
fbjl0_si922 raw_TIMIT_200ms/train/fbjl0_si922.ark:12
fjen0_sx237 raw_TIMIT_200ms/train/fjen0_sx237.ark:12
fjlg0_si1506 raw_TIMIT_200ms/train/fjlg0_si1506.ark:13
flac0_sx181 raw_TIMIT_200ms/train/flac0_sx181.ark:12
fssb0_si1082 raw_TIMIT_200ms/train/fssb0_si1082.ark:13
fcjf0_sx397 raw_TIMIT_200ms/train/fcjf0_sx397.ark:12
fjdm2_sx322 raw_TIMIT_200ms/train/fjdm2_sx322.ark:12
mkdb0_sx422 raw_TIMIT_200ms/train/mkdb0_sx422.ark:12
fclt0_sx88 raw_TIMIT_200ms/train/fclt0_sx88.ark:11
mcdr0_sx344 raw_TIMIT_200ms/train/mcdr0_sx344.ark:12
mjmm0_sx85 raw_TIMIT_200ms/train/mjmm0_sx85.ark:11
mrjt0_si1805 raw_TIMIT_200ms/train/mrjt0_si1805.ark:13
fpaz0_sx243 raw_TIMIT_200ms/train/fpaz0_sx243.ark:12
mmeb0_sx327 raw_TIMIT_200ms/train/mmeb0_sx327.ark:12
mdrd0_si1382 raw_TIMIT_200ms/train/mdrd0_si1382.ark:13
fdkn0_si1081 raw_TIMIT_200ms/train/fdkn0_si1081.ark:13
fsjg0_si1570 raw_TIMIT_200ms/train/fsjg0_si1570.ark:13
flkm0_sx260 raw_TIMIT_200ms/train/flkm0_sx260.ark:12
mprk0_si467 raw_TIMIT_200ms/train/mprk0_si467.ark:12
fdxw0_si2141 raw_TIMIT_200ms/train/fdxw0_si2141.ark:13
mdmt0_sx212 raw_TIMIT_200ms/train/mdmt0_sx212.ark:12
fecd0_si2048 raw_TIMIT_200ms/train/fecd0_si2048.ark:13
mjae0_sx444 raw_TIMIT_200ms/train/mjae0_sx444.ark:12
mpgr0_si780 raw_TIMIT_200ms/train/mpgr0_si780.ark:12
mwre0_si1687 raw_TIMIT_200ms/train/mwre0_si1687.ark:13
fdfb0_sx148 raw_TIMIT_200ms/train/fdfb0_sx148.ark:12
fmju0_sx309 raw_TIMIT_200ms/train/fmju0_sx309.ark:12
mrmb0_si951 raw_TIMIT_200ms/train/mrmb0_si951.ark:12
mbgt0_si1841 raw_TIMIT_200ms/train/mbgt0_si1841.ark:13
mdlc0_sx225 raw_TIMIT_200ms/train/mdlc0_sx225.ark:12
fcdr1_sx196 raw_TIMIT_200ms/train/fcdr1_sx196.ark:12
mdlc1_sx175 raw_TIMIT_200ms/train/mdlc1_sx175.ark:12
fsag0_si693 raw_TIMIT_200ms/train/fsag0_si693.ark:12
fdkn0_si1711 raw_TIMIT_200ms/train/fdkn0_si1711.ark:13
mrdd0_sx330 raw_TIMIT_200ms/train/mrdd0_sx330.ark:12
mrfl0_sx76 raw_TIMIT_200ms/train/mrfl0_sx76.ark:11
mdps0_si719 raw_TIMIT_200ms/train/mdps0_si719.ark:12
fdnc0_sx378 raw_TIMIT_200ms/train/fdnc0_sx378.ark:12
mtwh1_sx72 raw_TIMIT_200ms/train/mtwh1_sx72.ark:11
mwac0_sx71 raw_TIMIT_200ms/train/mwac0_sx71.ark:11
mrkm0_sx97 raw_TIMIT_200ms/train/mrkm0_sx97.ark:11
mtjs0_si1192 raw_TIMIT_200ms/train/mtjs0_si1192.ark:13
flma0_sx73 raw_TIMIT_200ms/train/flma0_sx73.ark:11
fsls0_si1686 raw_TIMIT_200ms/train/fsls0_si1686.ark:13
mrtj0_si2032 raw_TIMIT_200ms/train/mrtj0_si2032.ark:13
mcef0_si842 raw_TIMIT_200ms/train/mcef0_si842.ark:12
fpls0_sx3 raw_TIMIT_200ms/train/fpls0_sx3.ark:10
feeh0_sx302 raw_TIMIT_200ms/train/feeh0_sx302.ark:12
