mmgc0_sx315 raw_TIMIT_200ms/train/mmgc0_sx315.ark:12
frll0_sx434 raw_TIMIT_200ms/train/frll0_sx434.ark:12
msat1_sx353 raw_TIMIT_200ms/train/msat1_sx353.ark:12
mgaw0_sx175 raw_TIMIT_200ms/train/mgaw0_sx175.ark:12
fcyl0_si1927 raw_TIMIT_200ms/train/fcyl0_si1927.ark:13
mjpm1_si1897 raw_TIMIT_200ms/train/mjpm1_si1897.ark:13
mjlb0_si1616 raw_TIMIT_200ms/train/mjlb0_si1616.ark:13
fpjf0_sx236 raw_TIMIT_200ms/train/fpjf0_sx236.ark:12
mrlk0_sx213 raw_TIMIT_200ms/train/mrlk0_sx213.ark:12
megj0_sx77 raw_TIMIT_200ms/train/megj0_sx77.ark:11
mrgm0_sx262 raw_TIMIT_200ms/train/mrgm0_sx262.ark:12
mdpk0_si1053 raw_TIMIT_200ms/train/mdpk0_si1053.ark:13
flac0_si901 raw_TIMIT_200ms/train/flac0_si901.ark:12
fmju0_si759 raw_TIMIT_200ms/train/fmju0_si759.ark:12
mdbp0_sx168 raw_TIMIT_200ms/train/mdbp0_sx168.ark:12
fjlr0_si1861 raw_TIMIT_200ms/train/fjlr0_si1861.ark:13
mjwg0_sx175 raw_TIMIT_200ms/train/mjwg0_sx175.ark:12
mrfl0_sx346 raw_TIMIT_200ms/train/mrfl0_sx346.ark:12
fsjs0_sx271 raw_TIMIT_200ms/train/fsjs0_sx271.ark:12
mhmg0_si1365 raw_TIMIT_200ms/train/mhmg0_si1365.ark:13
mtmt0_si1118 raw_TIMIT_200ms/train/mtmt0_si1118.ark:13
fjen0_si1677 raw_TIMIT_200ms/train/fjen0_si1677.ark:13
medr0_sx204 raw_TIMIT_200ms/train/medr0_sx204.ark:12
fcrz0_sx253 raw_TIMIT_200ms/train/fcrz0_sx253.ark:12
fsah0_sx344 raw_TIMIT_200ms/train/fsah0_sx344.ark:12
mmws0_sx168 raw_TIMIT_200ms/train/mmws0_sx168.ark:12
mdcm0_si2110 raw_TIMIT_200ms/train/mdcm0_si2110.ark:13
mjai0_sx254 raw_TIMIT_200ms/train/mjai0_sx254.ark:12
fdfb0_si2010 raw_TIMIT_200ms/train/fdfb0_si2010.ark:13
mdma0_sx170 raw_TIMIT_200ms/train/mdma0_sx170.ark:12
fmjb0_sx187 raw_TIMIT_200ms/train/fmjb0_sx187.ark:12
mwar0_si1045 raw_TIMIT_200ms/train/mwar0_si1045.ark:13
mdtb0_sx210 raw_TIMIT_200ms/train/mdtb0_sx210.ark:12
mmws1_sx351 raw_TIMIT_200ms/train/mmws1_sx351.ark:12
flmc0_si742 raw_TIMIT_200ms/train/flmc0_si742.ark:12
mdps0_sx269 raw_TIMIT_200ms/train/mdps0_sx269.ark:12
flod0_sx297 raw_TIMIT_200ms/train/flod0_sx297.ark:12
fjlr0_sx421 raw_TIMIT_200ms/train/fjlr0_sx421.ark:12
mrwa0_sx253 raw_TIMIT_200ms/train/mrwa0_sx253.ark:12
mtjs0_si1192 raw_TIMIT_200ms/train/mtjs0_si1192.ark:13
mrew1_sx330 raw_TIMIT_200ms/train/mrew1_sx330.ark:12
mbsb0_si1353 raw_TIMIT_200ms/train/mbsb0_si1353.ark:13
fkkh0_si1920 raw_TIMIT_200ms/train/fkkh0_si1920.ark:13
mkdt0_si2153 raw_TIMIT_200ms/train/mkdt0_si2153.ark:13
falr0_sx155 raw_TIMIT_200ms/train/falr0_sx155.ark:12
mkjo0_si887 raw_TIMIT_200ms/train/mkjo0_si887.ark:12
mhbs0_si2205 raw_TIMIT_200ms/train/mhbs0_si2205.ark:13
mrjm0_sx328 raw_TIMIT_200ms/train/mrjm0_sx328.ark:12
fkdw0_si577 raw_TIMIT_200ms/train/fkdw0_si577.ark:12
fgcs0_sx136 raw_TIMIT_200ms/train/fgcs0_sx136.ark:12
mjfr0_sx345 raw_TIMIT_200ms/train/mjfr0_sx345.ark:12
frjb0_si1427 raw_TIMIT_200ms/train/frjb0_si1427.ark:13
mrcg0_sx348 raw_TIMIT_200ms/train/mrcg0_sx348.ark:12
mwad0_sx252 raw_TIMIT_200ms/train/mwad0_sx252.ark:12
mmgc0_si1935 raw_TIMIT_200ms/train/mmgc0_si1935.ark:13
mcae0_sx97 raw_TIMIT_200ms/train/mcae0_sx97.ark:11
mjde0_sx220 raw_TIMIT_200ms/train/mjde0_sx220.ark:12
fjwb1_si795 raw_TIMIT_200ms/train/fjwb1_si795.ark:12
maeb0_sx450 raw_TIMIT_200ms/train/maeb0_sx450.ark:12
fgmb0_si1145 raw_TIMIT_200ms/train/fgmb0_si1145.ark:13
fsmm0_sx144 raw_TIMIT_200ms/train/fsmm0_sx144.ark:12
mhmg0_sx15 raw_TIMIT_200ms/train/mhmg0_sx15.ark:11
fjkl0_si932 raw_TIMIT_200ms/train/fjkl0_si932.ark:12
mdwh0_sx395 raw_TIMIT_200ms/train/mdwh0_sx395.ark:12
fsjg0_sx220 raw_TIMIT_200ms/train/fsjg0_sx220.ark:12
mwsh0_sx346 raw_TIMIT_200ms/train/mwsh0_sx346.ark:12
mrav0_sx288 raw_TIMIT_200ms/train/mrav0_sx288.ark:12
flhd0_si1974 raw_TIMIT_200ms/train/flhd0_si1974.ark:13
mdrd0_si1382 raw_TIMIT_200ms/train/mdrd0_si1382.ark:13
mkls1_sx375 raw_TIMIT_200ms/train/mkls1_sx375.ark:12
fsjk1_si696 raw_TIMIT_200ms/train/fsjk1_si696.ark:12
mtjs0_sx22 raw_TIMIT_200ms/train/mtjs0_sx22.ark:11
mlbc0_sx159 raw_TIMIT_200ms/train/mlbc0_sx159.ark:12
mrcg0_sx438 raw_TIMIT_200ms/train/mrcg0_sx438.ark:12
mcal0_si508 raw_TIMIT_200ms/train/mcal0_si508.ark:12
mdlr1_si669 raw_TIMIT_200ms/train/mdlr1_si669.ark:12
mcal0_sx148 raw_TIMIT_200ms/train/mcal0_sx148.ark:12
mfwk0_si1879 raw_TIMIT_200ms/train/mfwk0_si1879.ark:13
flma0_sx73 raw_TIMIT_200ms/train/flma0_sx73.ark:11
fpaf0_si1684 raw_TIMIT_200ms/train/fpaf0_si1684.ark:13
mclm0_sx286 raw_TIMIT_200ms/train/mclm0_sx286.ark:12
mdss1_si1327 raw_TIMIT_200ms/train/mdss1_si1327.ark:13
mrml0_sx251 raw_TIMIT_200ms/train/mrml0_sx251.ark:12
feme0_sx155 raw_TIMIT_200ms/train/feme0_sx155.ark:12
mrsp0_si1429 raw_TIMIT_200ms/train/mrsp0_si1429.ark:13
mlns0_sx57 raw_TIMIT_200ms/train/mlns0_sx57.ark:11
mgar0_sx42 raw_TIMIT_200ms/train/mgar0_sx42.ark:11
fspm0_sx341 raw_TIMIT_200ms/train/fspm0_sx341.ark:12
fblv0_si1058 raw_TIMIT_200ms/train/fblv0_si1058.ark:13
fjlr0_si1231 raw_TIMIT_200ms/train/fjlr0_si1231.ark:13
mmdm1_sx243 raw_TIMIT_200ms/train/mmdm1_sx243.ark:12
fskp0_si468 raw_TIMIT_200ms/train/fskp0_si468.ark:12
fcag0_sx63 raw_TIMIT_200ms/train/fcag0_sx63.ark:11
mreh1_si969 raw_TIMIT_200ms/train/mreh1_si969.ark:12
fexm0_si1731 raw_TIMIT_200ms/train/fexm0_si1731.ark:13
mwac0_sx431 raw_TIMIT_200ms/train/mwac0_sx431.ark:12
mrjm0_si1095 raw_TIMIT_200ms/train/mrjm0_si1095.ark:13
mrlj1_si2332 raw_TIMIT_200ms/train/mrlj1_si2332.ark:13
msfv0_sx362 raw_TIMIT_200ms/train/msfv0_sx362.ark:12
mcal0_si1138 raw_TIMIT_200ms/train/mcal0_si1138.ark:13
fskc0_sx246 raw_TIMIT_200ms/train/fskc0_sx246.ark:12
fclt0_sx358 raw_TIMIT_200ms/train/fclt0_sx358.ark:12
mwgr0_si1606 raw_TIMIT_200ms/train/mwgr0_si1606.ark:13
mkls1_si915 raw_TIMIT_200ms/train/mkls1_si915.ark:12
fmah1_sx429 raw_TIMIT_200ms/train/fmah1_sx429.ark:12
fsjs0_sx451 raw_TIMIT_200ms/train/fsjs0_sx451.ark:12
fcrz0_sx163 raw_TIMIT_200ms/train/fcrz0_sx163.ark:12
mkdb0_sx332 raw_TIMIT_200ms/train/mkdb0_sx332.ark:12
flma0_sx163 raw_TIMIT_200ms/train/flma0_sx163.ark:12
fbjl0_sx112 raw_TIMIT_200ms/train/fbjl0_sx112.ark:12
mrem0_sx421 raw_TIMIT_200ms/train/mrem0_sx421.ark:12
mpgr1_si2129 raw_TIMIT_200ms/train/mpgr1_si2129.ark:13
fvfb0_sx132 raw_TIMIT_200ms/train/fvfb0_sx132.ark:12
mcew0_sx92 raw_TIMIT_200ms/train/mcew0_sx92.ark:11
mdtb0_si570 raw_TIMIT_200ms/train/mdtb0_si570.ark:12
fntb0_si1203 raw_TIMIT_200ms/train/fntb0_si1203.ark:13
mgaf0_si1912 raw_TIMIT_200ms/train/mgaf0_si1912.ark:13
makb0_si1016 raw_TIMIT_200ms/train/makb0_si1016.ark:13
fhxs0_si2302 raw_TIMIT_200ms/train/fhxs0_si2302.ark:13
mfxv0_sx375 raw_TIMIT_200ms/train/mfxv0_sx375.ark:12
mtwh1_sx342 raw_TIMIT_200ms/train/mtwh1_sx342.ark:12
mtlc0_sx217 raw_TIMIT_200ms/train/mtlc0_sx217.ark:12
fdfb0_si1318 raw_TIMIT_200ms/train/fdfb0_si1318.ark:13
mjrk0_sx340 raw_TIMIT_200ms/train/mjrk0_sx340.ark:12
mtrc0_si1623 raw_TIMIT_200ms/train/mtrc0_si1623.ark:13
mcth0_sx129 raw_TIMIT_200ms/train/mcth0_sx129.ark:12
fjsk0_sx422 raw_TIMIT_200ms/train/fjsk0_sx422.ark:12
mfxs0_sx54 raw_TIMIT_200ms/train/mfxs0_sx54.ark:11
mhmr0_sx219 raw_TIMIT_200ms/train/mhmr0_sx219.ark:12
mmxs0_sx66 raw_TIMIT_200ms/train/mmxs0_sx66.ark:11
mrai0_si792 raw_TIMIT_200ms/train/mrai0_si792.ark:12
fklh0_sx267 raw_TIMIT_200ms/train/fklh0_sx267.ark:12
mjfr0_sx255 raw_TIMIT_200ms/train/mjfr0_sx255.ark:12
fgrw0_sx72 raw_TIMIT_200ms/train/fgrw0_sx72.ark:11
mrxb0_sx235 raw_TIMIT_200ms/train/mrxb0_sx235.ark:12
fpjf0_si1046 raw_TIMIT_200ms/train/fpjf0_si1046.ark:13
mtpf0_sx335 raw_TIMIT_200ms/train/mtpf0_sx335.ark:12
mkag0_sx79 raw_TIMIT_200ms/train/mkag0_sx79.ark:11
mchl0_sx87 raw_TIMIT_200ms/train/mchl0_sx87.ark:11
mjai0_sx164 raw_TIMIT_200ms/train/mjai0_sx164.ark:12
fsak0_sx220 raw_TIMIT_200ms/train/fsak0_sx220.ark:12
mhmg0_si735 raw_TIMIT_200ms/train/mhmg0_si735.ark:12
maeo0_sx426 raw_TIMIT_200ms/train/maeo0_sx426.ark:12
mchl0_sx447 raw_TIMIT_200ms/train/mchl0_sx447.ark:12
fgdp0_si988 raw_TIMIT_200ms/train/fgdp0_si988.ark:12
fsls0_sx426 raw_TIMIT_200ms/train/fsls0_sx426.ark:12
mmeb0_si727 raw_TIMIT_200ms/train/mmeb0_si727.ark:12
mrms0_si2057 raw_TIMIT_200ms/train/mrms0_si2057.ark:13
mtcs0_si1972 raw_TIMIT_200ms/train/mtcs0_si1972.ark:13
msas0_sx206 raw_TIMIT_200ms/train/msas0_sx206.ark:12
fkaa0_sx218 raw_TIMIT_200ms/train/fkaa0_sx218.ark:12
mdmt0_sx122 raw_TIMIT_200ms/train/mdmt0_sx122.ark:12
mtqc0_sx451 raw_TIMIT_200ms/train/mtqc0_sx451.ark:12
mjda0_sx41 raw_TIMIT_200ms/train/mjda0_sx41.ark:11
mrso0_sx399 raw_TIMIT_200ms/train/mrso0_sx399.ark:12
mrkm0_si637 raw_TIMIT_200ms/train/mrkm0_si637.ark:12
mdhs0_sx360 raw_TIMIT_200ms/train/mdhs0_sx360.ark:12
mtkp0_si1023 raw_TIMIT_200ms/train/mtkp0_si1023.ark:13
mbma1_si954 raw_TIMIT_200ms/train/mbma1_si954.ark:12
mprb0_sx215 raw_TIMIT_200ms/train/mprb0_sx215.ark:12
mmsm0_si1106 raw_TIMIT_200ms/train/mmsm0_si1106.ark:13
fear0_sx352 raw_TIMIT_200ms/train/fear0_sx352.ark:12
mcew0_sx452 raw_TIMIT_200ms/train/mcew0_sx452.ark:12
mmws1_si2331 raw_TIMIT_200ms/train/mmws1_si2331.ark:13
mjdg0_sx142 raw_TIMIT_200ms/train/mjdg0_sx142.ark:12
fdjh0_sx125 raw_TIMIT_200ms/train/fdjh0_sx125.ark:12
fjhk0_sx392 raw_TIMIT_200ms/train/fjhk0_sx392.ark:12
mwrp0_sx93 raw_TIMIT_200ms/train/mwrp0_sx93.ark:11
fjxm0_sx131 raw_TIMIT_200ms/train/fjxm0_sx131.ark:12
fetb0_sx158 raw_TIMIT_200ms/train/fetb0_sx158.ark:12
mjeb0_sx26 raw_TIMIT_200ms/train/mjeb0_sx26.ark:11
mges0_sx401 raw_TIMIT_200ms/train/mges0_sx401.ark:12
mmdm1_si1650 raw_TIMIT_200ms/train/mmdm1_si1650.ark:13
mklw0_si2201 raw_TIMIT_200ms/train/mklw0_si2201.ark:13
fmpg0_si1602 raw_TIMIT_200ms/train/fmpg0_si1602.ark:13
fsgf0_si2187 raw_TIMIT_200ms/train/fsgf0_si2187.ark:13
mtat1_si779 raw_TIMIT_200ms/train/mtat1_si779.ark:12
madd0_si1798 raw_TIMIT_200ms/train/madd0_si1798.ark:13
fsah0_sx74 raw_TIMIT_200ms/train/fsah0_sx74.ark:11
mmdm0_sx51 raw_TIMIT_200ms/train/mmdm0_sx51.ark:11
mjws0_sx333 raw_TIMIT_200ms/train/mjws0_sx333.ark:12
mjmm0_si625 raw_TIMIT_200ms/train/mjmm0_si625.ark:12
fssb0_sx92 raw_TIMIT_200ms/train/fssb0_sx92.ark:11
fvkb0_si1789 raw_TIMIT_200ms/train/fvkb0_si1789.ark:13
mmeb0_sx367 raw_TIMIT_200ms/train/mmeb0_sx367.ark:12
mhmg0_si1995 raw_TIMIT_200ms/train/mhmg0_si1995.ark:13
mkdd0_si2197 raw_TIMIT_200ms/train/mkdd0_si2197.ark:13
mcae0_si2077 raw_TIMIT_200ms/train/mcae0_si2077.ark:13
feme0_si875 raw_TIMIT_200ms/train/feme0_si875.ark:12
mmxs0_si629 raw_TIMIT_200ms/train/mmxs0_si629.ark:12
mjjj0_sx263 raw_TIMIT_200ms/train/mjjj0_sx263.ark:12
mhmr0_sx129 raw_TIMIT_200ms/train/mhmr0_sx129.ark:12
mjrp0_sx135 raw_TIMIT_200ms/train/mjrp0_sx135.ark:12
fkdw0_si1891 raw_TIMIT_200ms/train/fkdw0_si1891.ark:13
mtlc0_sx127 raw_TIMIT_200ms/train/mtlc0_sx127.ark:12
flod0_sx387 raw_TIMIT_200ms/train/flod0_sx387.ark:12
mdlr0_sx423 raw_TIMIT_200ms/train/mdlr0_sx423.ark:12
fpaz0_sx27 raw_TIMIT_200ms/train/fpaz0_sx27.ark:11
mmlm0_sx357 raw_TIMIT_200ms/train/mmlm0_sx357.ark:12
mdas0_sx21 raw_TIMIT_200ms/train/mdas0_sx21.ark:11
mbml0_si1169 raw_TIMIT_200ms/train/mbml0_si1169.ark:13
fvmh0_sx26 raw_TIMIT_200ms/train/fvmh0_sx26.ark:11
mrlk0_si843 raw_TIMIT_200ms/train/mrlk0_si843.ark:12
mjwg0_sx85 raw_TIMIT_200ms/train/mjwg0_sx85.ark:11
mfmc0_sx52 raw_TIMIT_200ms/train/mfmc0_sx52.ark:11
fdxw0_sx341 raw_TIMIT_200ms/train/fdxw0_sx341.ark:12
fnkl0_si2152 raw_TIMIT_200ms/train/fnkl0_si2152.ark:13
mrjh0_sx259 raw_TIMIT_200ms/train/mrjh0_sx259.ark:12
mjhi0_si698 raw_TIMIT_200ms/train/mjhi0_si698.ark:12
mrew1_si870 raw_TIMIT_200ms/train/mrew1_si870.ark:12
mded0_sx360 raw_TIMIT_200ms/train/mded0_sx360.ark:12
fmah1_si1509 raw_TIMIT_200ms/train/fmah1_si1509.ark:13
mjjb0_sx149 raw_TIMIT_200ms/train/mjjb0_sx149.ark:12
msas0_sx296 raw_TIMIT_200ms/train/msas0_sx296.ark:12
msem1_sx90 raw_TIMIT_200ms/train/msem1_sx90.ark:11
mcre0_sx401 raw_TIMIT_200ms/train/mcre0_sx401.ark:12
flkm0_si1880 raw_TIMIT_200ms/train/flkm0_si1880.ark:13
fjrp1_sx172 raw_TIMIT_200ms/train/fjrp1_sx172.ark:12
mdsj0_si832 raw_TIMIT_200ms/train/mdsj0_si832.ark:12
fltm0_sx80 raw_TIMIT_200ms/train/fltm0_sx80.ark:11
mdcd0_si2045 raw_TIMIT_200ms/train/mdcd0_si2045.ark:13
mdhl0_si1439 raw_TIMIT_200ms/train/mdhl0_si1439.ark:13
mkah0_si2158 raw_TIMIT_200ms/train/mkah0_si2158.ark:13
mtrt0_sx254 raw_TIMIT_200ms/train/mtrt0_sx254.ark:12
fcmg0_sx432 raw_TIMIT_200ms/train/fcmg0_sx432.ark:12
mkls0_sx177 raw_TIMIT_200ms/train/mkls0_sx177.ark:12
frjb0_sx167 raw_TIMIT_200ms/train/frjb0_sx167.ark:12
mpmb0_sx331 raw_TIMIT_200ms/train/mpmb0_sx331.ark:12
fapb0_si1063 raw_TIMIT_200ms/train/fapb0_si1063.ark:13
mtwh1_sx162 raw_TIMIT_200ms/train/mtwh1_sx162.ark:12
mjrh0_sx315 raw_TIMIT_200ms/train/mjrh0_sx315.ark:12
fbcg1_sx82 raw_TIMIT_200ms/train/fbcg1_sx82.ark:11
mrjh0_sx307 raw_TIMIT_200ms/train/mrjh0_sx307.ark:12
fgrw0_sx342 raw_TIMIT_200ms/train/fgrw0_sx342.ark:12
fjlg0_sx269 raw_TIMIT_200ms/train/fjlg0_sx269.ark:12
mtjm0_si1856 raw_TIMIT_200ms/train/mtjm0_si1856.ark:13
mcdr0_si1154 raw_TIMIT_200ms/train/mcdr0_si1154.ark:13
mter0_si1787 raw_TIMIT_200ms/train/mter0_si1787.ark:13
mmcc0_sx438 raw_TIMIT_200ms/train/mmcc0_sx438.ark:12
fmjb0_si1807 raw_TIMIT_200ms/train/fmjb0_si1807.ark:13
mdas0_sx276 raw_TIMIT_200ms/train/mdas0_sx276.ark:12
fklc1_sx148 raw_TIMIT_200ms/train/fklc1_sx148.ark:12
fkde0_sx241 raw_TIMIT_200ms/train/fkde0_sx241.ark:12
mdjm0_sx105 raw_TIMIT_200ms/train/mdjm0_sx105.ark:12
mjrh0_sx225 raw_TIMIT_200ms/train/mjrh0_sx225.ark:12
fklc0_sx355 raw_TIMIT_200ms/train/fklc0_sx355.ark:12
mkes0_sx353 raw_TIMIT_200ms/train/mkes0_sx353.ark:12
mrpc1_si2026 raw_TIMIT_200ms/train/mrpc1_si2026.ark:13
mgaw0_si1165 raw_TIMIT_200ms/train/mgaw0_si1165.ark:13
mpsw0_sx24 raw_TIMIT_200ms/train/mpsw0_sx24.ark:11
mtjg0_sx80 raw_TIMIT_200ms/train/mtjg0_sx80.ark:11
mree0_sx384 raw_TIMIT_200ms/train/mree0_sx384.ark:12
fkde0_sx421 raw_TIMIT_200ms/train/fkde0_sx421.ark:12
fmkf0_si906 raw_TIMIT_200ms/train/fmkf0_si906.ark:12
mntw0_si1698 raw_TIMIT_200ms/train/mntw0_si1698.ark:13
mrab0_sx144 raw_TIMIT_200ms/train/mrab0_sx144.ark:12
mrmg0_sx90 raw_TIMIT_200ms/train/mrmg0_sx90.ark:11
mdks0_si2326 raw_TIMIT_200ms/train/mdks0_si2326.ark:13
mmxs0_sx336 raw_TIMIT_200ms/train/mmxs0_sx336.ark:12
mjmm0_sx355 raw_TIMIT_200ms/train/mjmm0_sx355.ark:12
mmaa0_sx395 raw_TIMIT_200ms/train/mmaa0_sx395.ark:12
mtpr0_sx430 raw_TIMIT_200ms/train/mtpr0_sx430.ark:12
mcal0_sx418 raw_TIMIT_200ms/train/mcal0_sx418.ark:12
fksr0_sx217 raw_TIMIT_200ms/train/fksr0_sx217.ark:12
msat1_sx173 raw_TIMIT_200ms/train/msat1_sx173.ark:12
mjeb1_si1467 raw_TIMIT_200ms/train/mjeb1_si1467.ark:13
mkag0_si979 raw_TIMIT_200ms/train/mkag0_si979.ark:12
mmlm0_si2150 raw_TIMIT_200ms/train/mmlm0_si2150.ark:13
fmkc0_sx442 raw_TIMIT_200ms/train/fmkc0_sx442.ark:12
fcag0_sx243 raw_TIMIT_200ms/train/fcag0_sx243.ark:12
mdwh0_sx215 raw_TIMIT_200ms/train/mdwh0_sx215.ark:12
majp0_si2334 raw_TIMIT_200ms/train/majp0_si2334.ark:13
mwch0_sx92 raw_TIMIT_200ms/train/mwch0_sx92.ark:11
mtrc0_sx93 raw_TIMIT_200ms/train/mtrc0_sx93.ark:11
fetb0_sx428 raw_TIMIT_200ms/train/fetb0_sx428.ark:12
mhmg0_sx375 raw_TIMIT_200ms/train/mhmg0_sx375.ark:12
fjhk0_sx302 raw_TIMIT_200ms/train/fjhk0_sx302.ark:12
msfv0_sx452 raw_TIMIT_200ms/train/msfv0_sx452.ark:12
msfh0_sx316 raw_TIMIT_200ms/train/msfh0_sx316.ark:12
mrms0_sx30 raw_TIMIT_200ms/train/mrms0_sx30.ark:11
msrr0_si501 raw_TIMIT_200ms/train/msrr0_si501.ark:12
fecd0_si788 raw_TIMIT_200ms/train/fecd0_si788.ark:12
mjmd0_sx128 raw_TIMIT_200ms/train/mjmd0_sx128.ark:12
mgak0_sx136 raw_TIMIT_200ms/train/mgak0_sx136.ark:12
mtdp0_sx261 raw_TIMIT_200ms/train/mtdp0_sx261.ark:12
fkaa0_sx38 raw_TIMIT_200ms/train/fkaa0_sx38.ark:11
mrjm0_sx418 raw_TIMIT_200ms/train/mrjm0_sx418.ark:12
mcxm0_si721 raw_TIMIT_200ms/train/mcxm0_si721.ark:12
mntw0_sx258 raw_TIMIT_200ms/train/mntw0_sx258.ark:12
msds0_sx357 raw_TIMIT_200ms/train/msds0_sx357.ark:12
mrab0_sx54 raw_TIMIT_200ms/train/mrab0_sx54.ark:11
fsag0_sx153 raw_TIMIT_200ms/train/fsag0_sx153.ark:12
mdbb1_sx286 raw_TIMIT_200ms/train/mdbb1_sx286.ark:12
mjfr0_si2235 raw_TIMIT_200ms/train/mjfr0_si2235.ark:13
falk0_sx276 raw_TIMIT_200ms/train/falk0_sx276.ark:12
fear0_si622 raw_TIMIT_200ms/train/fear0_si622.ark:12
ftbw0_sx175 raw_TIMIT_200ms/train/ftbw0_sx175.ark:12
mwgr0_sx436 raw_TIMIT_200ms/train/mwgr0_sx436.ark:12
ftbw0_si1345 raw_TIMIT_200ms/train/ftbw0_si1345.ark:13
fmbg0_sx440 raw_TIMIT_200ms/train/fmbg0_sx440.ark:12
mmdg0_sx430 raw_TIMIT_200ms/train/mmdg0_sx430.ark:12
mtml0_si1695 raw_TIMIT_200ms/train/mtml0_si1695.ark:13
mfmc0_si1132 raw_TIMIT_200ms/train/mfmc0_si1132.ark:13
fcaj0_si1479 raw_TIMIT_200ms/train/fcaj0_si1479.ark:13
fkkh0_sx210 raw_TIMIT_200ms/train/fkkh0_sx210.ark:12
mkls0_si1533 raw_TIMIT_200ms/train/mkls0_si1533.ark:13
mrmb0_si2211 raw_TIMIT_200ms/train/mrmb0_si2211.ark:13
flag0_sx384 raw_TIMIT_200ms/train/flag0_sx384.ark:12
mmjb1_sx148 raw_TIMIT_200ms/train/mmjb1_sx148.ark:12
meal0_sx197 raw_TIMIT_200ms/train/meal0_sx197.ark:12
mrtj0_sx322 raw_TIMIT_200ms/train/mrtj0_sx322.ark:12
mdas0_si636 raw_TIMIT_200ms/train/mdas0_si636.ark:12
fdnc0_si2287 raw_TIMIT_200ms/train/fdnc0_si2287.ark:13
fbas0_si1472 raw_TIMIT_200ms/train/fbas0_si1472.ark:13
msfv0_si1892 raw_TIMIT_200ms/train/msfv0_si1892.ark:13
mtml0_sx345 raw_TIMIT_200ms/train/mtml0_sx345.ark:12
fsdc0_si2234 raw_TIMIT_200ms/train/fsdc0_si2234.ark:13
mcdd0_sx343 raw_TIMIT_200ms/train/mcdd0_sx343.ark:12
mjjm0_sx17 raw_TIMIT_200ms/train/mjjm0_sx17.ark:11
mmlm0_sx267 raw_TIMIT_200ms/train/mmlm0_sx267.ark:12
mjbg0_sx62 raw_TIMIT_200ms/train/mjbg0_sx62.ark:11
mjkr0_si1201 raw_TIMIT_200ms/train/mjkr0_si1201.ark:13
mtdb0_sx231 raw_TIMIT_200ms/train/mtdb0_sx231.ark:12
fbmh0_sx236 raw_TIMIT_200ms/train/fbmh0_sx236.ark:12
mkln0_sx68 raw_TIMIT_200ms/train/mkln0_sx68.ark:11
mjfh0_si477 raw_TIMIT_200ms/train/mjfh0_si477.ark:12
fgmb0_sx155 raw_TIMIT_200ms/train/fgmb0_sx155.ark:12
mbma1_si2207 raw_TIMIT_200ms/train/mbma1_si2207.ark:13
fmmh0_sx420 raw_TIMIT_200ms/train/fmmh0_sx420.ark:12
mbma1_si2214 raw_TIMIT_200ms/train/mbma1_si2214.ark:13
mjls0_si1726 raw_TIMIT_200ms/train/mjls0_si1726.ark:13
fgmb0_sx245 raw_TIMIT_200ms/train/fgmb0_sx245.ark:12
mjdc0_sx441 raw_TIMIT_200ms/train/mjdc0_sx441.ark:12
mljc0_sx235 raw_TIMIT_200ms/train/mljc0_sx235.ark:12
fmju0_si2019 raw_TIMIT_200ms/train/fmju0_si2019.ark:13
flag0_sx204 raw_TIMIT_200ms/train/flag0_sx204.ark:12
fdnc0_si1278 raw_TIMIT_200ms/train/fdnc0_si1278.ark:13
fklh0_si1887 raw_TIMIT_200ms/train/fklh0_si1887.ark:13
medr0_sx24 raw_TIMIT_200ms/train/medr0_sx24.ark:11
mrwa0_sx73 raw_TIMIT_200ms/train/mrwa0_sx73.ark:11
fmbg0_sx3 raw_TIMIT_200ms/train/fmbg0_sx3.ark:10
mtkp0_sx303 raw_TIMIT_200ms/train/mtkp0_sx303.ark:12
msdh0_sx440 raw_TIMIT_200ms/train/msdh0_sx440.ark:12
mesj0_sx97 raw_TIMIT_200ms/train/mesj0_sx97.ark:11
mdwd0_si1260 raw_TIMIT_200ms/train/mdwd0_si1260.ark:13
fssb0_sx272 raw_TIMIT_200ms/train/fssb0_sx272.ark:12
mded0_sx450 raw_TIMIT_200ms/train/mded0_sx450.ark:12
mtat1_sx149 raw_TIMIT_200ms/train/mtat1_sx149.ark:12
mtbc0_si1803 raw_TIMIT_200ms/train/mtbc0_si1803.ark:13
mwac0_sx71 raw_TIMIT_200ms/train/mwac0_sx71.ark:11
mrds0_si537 raw_TIMIT_200ms/train/mrds0_si537.ark:12
mbsb0_sx183 raw_TIMIT_200ms/train/mbsb0_sx183.ark:12
mges0_sx311 raw_TIMIT_200ms/train/mges0_sx311.ark:12
fscn0_sx176 raw_TIMIT_200ms/train/fscn0_sx176.ark:12
fsak0_sx40 raw_TIMIT_200ms/train/fsak0_sx40.ark:11
mwre0_si1687 raw_TIMIT_200ms/train/mwre0_si1687.ark:13
mrfk0_sx356 raw_TIMIT_200ms/train/mrfk0_sx356.ark:12
fmkc0_sx172 raw_TIMIT_200ms/train/fmkc0_sx172.ark:12
flod0_sx171 raw_TIMIT_200ms/train/flod0_sx171.ark:12
fcjs0_si1607 raw_TIMIT_200ms/train/fcjs0_si1607.ark:13
mjlg1_si1642 raw_TIMIT_200ms/train/mjlg1_si1642.ark:13
fgcs0_sx316 raw_TIMIT_200ms/train/fgcs0_sx316.ark:12
fdxw0_si1511 raw_TIMIT_200ms/train/fdxw0_si1511.ark:13
flmk0_sx405 raw_TIMIT_200ms/train/flmk0_sx405.ark:12
mvrw0_sx405 raw_TIMIT_200ms/train/mvrw0_sx405.ark:12
mhbs0_sx315 raw_TIMIT_200ms/train/mhbs0_sx315.ark:12
fcjs0_si977 raw_TIMIT_200ms/train/fcjs0_si977.ark:12
mrcg0_sx78 raw_TIMIT_200ms/train/mrcg0_sx78.ark:11
mesj0_si2257 raw_TIMIT_200ms/train/mesj0_si2257.ark:13
mklr0_sx339 raw_TIMIT_200ms/train/mklr0_sx339.ark:12
