fgcs0_sx226 raw_TIMIT_200ms/train/fgcs0_sx226.ark:12
mmdb0_si1617 raw_TIMIT_200ms/train/mmdb0_si1617.ark:13
fcmg0_si1142 raw_TIMIT_200ms/train/fcmg0_si1142.ark:13
maeo0_sx156 raw_TIMIT_200ms/train/maeo0_sx156.ark:12
msmr0_sx325 raw_TIMIT_200ms/train/msmr0_sx325.ark:12
mdwm0_sx16 raw_TIMIT_200ms/train/mdwm0_sx16.ark:11
mdwh0_sx305 raw_TIMIT_200ms/train/mdwh0_sx305.ark:12
mdhl0_sx179 raw_TIMIT_200ms/train/mdhl0_sx179.ark:12
mrai0_sx342 raw_TIMIT_200ms/train/mrai0_sx342.ark:12
mmam0_si1597 raw_TIMIT_200ms/train/mmam0_si1597.ark:13
mjde0_si1120 raw_TIMIT_200ms/train/mjde0_si1120.ark:13
mfrm0_si1717 raw_TIMIT_200ms/train/mfrm0_si1717.ark:13
mbwp0_si1531 raw_TIMIT_200ms/train/mbwp0_si1531.ark:13
mtqc0_sx181 raw_TIMIT_200ms/train/mtqc0_sx181.ark:12
mjeb0_sx386 raw_TIMIT_200ms/train/mjeb0_sx386.ark:12
fjsk0_sx242 raw_TIMIT_200ms/train/fjsk0_sx242.ark:12
mjpm0_sx18 raw_TIMIT_200ms/train/mjpm0_sx18.ark:11
mjdc0_sx351 raw_TIMIT_200ms/train/mjdc0_sx351.ark:12
mwad0_sx342 raw_TIMIT_200ms/train/mwad0_sx342.ark:12
mnet0_sx366 raw_TIMIT_200ms/train/mnet0_sx366.ark:12
mtpf0_sx65 raw_TIMIT_200ms/train/mtpf0_sx65.ark:11
mrso0_sx219 raw_TIMIT_200ms/train/mrso0_sx219.ark:12
mdlb0_si1306 raw_TIMIT_200ms/train/mdlb0_si1306.ark:13
fjwb1_sx435 raw_TIMIT_200ms/train/fjwb1_sx435.ark:12
mmag0_si1756 raw_TIMIT_200ms/train/mmag0_si1756.ark:13
mbar0_sx59 raw_TIMIT_200ms/train/mbar0_sx59.ark:11
mmxs0_si2136 raw_TIMIT_200ms/train/mmxs0_si2136.ark:13
mmws1_sx441 raw_TIMIT_200ms/train/mmws1_sx441.ark:12
mstf0_sx226 raw_TIMIT_200ms/train/mstf0_sx226.ark:12
mtrr0_sx108 raw_TIMIT_200ms/train/mtrr0_sx108.ark:12
flag0_sx24 raw_TIMIT_200ms/train/flag0_sx24.ark:11
mbwp0_sx349 raw_TIMIT_200ms/train/mbwp0_sx349.ark:12
mjwt0_sx391 raw_TIMIT_200ms/train/mjwt0_sx391.ark:12
mjrg0_si1366 raw_TIMIT_200ms/train/mjrg0_si1366.ark:13
fjdm2_sx142 raw_TIMIT_200ms/train/fjdm2_sx142.ark:12
mkdt0_si2153 raw_TIMIT_200ms/train/mkdt0_si2153.ark:13
fcjs0_si1607 raw_TIMIT_200ms/train/fcjs0_si1607.ark:13
mwsb0_si1626 raw_TIMIT_200ms/train/mwsb0_si1626.ark:13
mklw0_si2201 raw_TIMIT_200ms/train/mklw0_si2201.ark:13
fjkl0_sx122 raw_TIMIT_200ms/train/fjkl0_sx122.ark:12
fkkh0_sx300 raw_TIMIT_200ms/train/fkkh0_sx300.ark:12
mdlc0_sx315 raw_TIMIT_200ms/train/mdlc0_sx315.ark:12
flmc0_sx22 raw_TIMIT_200ms/train/flmc0_sx22.ark:11
mses0_sx329 raw_TIMIT_200ms/train/mses0_sx329.ark:12
fjrb0_sx42 raw_TIMIT_200ms/train/fjrb0_sx42.ark:11
fcaj0_sx399 raw_TIMIT_200ms/train/fcaj0_sx399.ark:12
fclt0_sx358 raw_TIMIT_200ms/train/fclt0_sx358.ark:12
mrfk0_sx266 raw_TIMIT_200ms/train/mrfk0_sx266.ark:12
fsdj0_si1745 raw_TIMIT_200ms/train/fsdj0_si1745.ark:13
mvjh0_sx26 raw_TIMIT_200ms/train/mvjh0_sx26.ark:11
mrsp0_si799 raw_TIMIT_200ms/train/mrsp0_si799.ark:12
fljg0_sx261 raw_TIMIT_200ms/train/fljg0_sx261.ark:12
mpmb0_sx331 raw_TIMIT_200ms/train/mpmb0_sx331.ark:12
mmpm0_si2321 raw_TIMIT_200ms/train/mmpm0_si2321.ark:13
mmdm0_si1311 raw_TIMIT_200ms/train/mmdm0_si1311.ark:13
mfrm0_si1785 raw_TIMIT_200ms/train/mfrm0_si1785.ark:13
mses0_sx59 raw_TIMIT_200ms/train/mses0_sx59.ark:11
mmam0_si1668 raw_TIMIT_200ms/train/mmam0_si1668.ark:13
mclm0_si826 raw_TIMIT_200ms/train/mclm0_si826.ark:12
msds0_si2337 raw_TIMIT_200ms/train/msds0_si2337.ark:13
mtxs0_sx70 raw_TIMIT_200ms/train/mtxs0_sx70.ark:11
mkdt0_sx443 raw_TIMIT_200ms/train/mkdt0_sx443.ark:12
mjrg0_sx376 raw_TIMIT_200ms/train/mjrg0_sx376.ark:12
fsjw0_si1333 raw_TIMIT_200ms/train/fsjw0_si1333.ark:13
mkjo0_sx167 raw_TIMIT_200ms/train/mkjo0_sx167.ark:12
mabc0_si2041 raw_TIMIT_200ms/train/mabc0_si2041.ark:13
fpjf0_si1046 raw_TIMIT_200ms/train/fpjf0_si1046.ark:13
mklw0_sx41 raw_TIMIT_200ms/train/mklw0_sx41.ark:11
mmws0_si559 raw_TIMIT_200ms/train/mmws0_si559.ark:12
flet0_sx147 raw_TIMIT_200ms/train/flet0_sx147.ark:12
mtdb0_sx141 raw_TIMIT_200ms/train/mtdb0_sx141.ark:12
mzmb0_sx266 raw_TIMIT_200ms/train/mzmb0_sx266.ark:12
fdml0_si1779 raw_TIMIT_200ms/train/fdml0_si1779.ark:13
mjlb0_sx86 raw_TIMIT_200ms/train/mjlb0_sx86.ark:11
mbar0_sx419 raw_TIMIT_200ms/train/mbar0_sx419.ark:12
fexm0_si1731 raw_TIMIT_200ms/train/fexm0_si1731.ark:13
frjb0_si1470 raw_TIMIT_200ms/train/frjb0_si1470.ark:13
mhrm0_si2218 raw_TIMIT_200ms/train/mhrm0_si2218.ark:13
mrkm0_si1267 raw_TIMIT_200ms/train/mrkm0_si1267.ark:13
fmah1_sx429 raw_TIMIT_200ms/train/fmah1_sx429.ark:12
fsdj0_sx125 raw_TIMIT_200ms/train/fsdj0_sx125.ark:12
mcpm0_sx24 raw_TIMIT_200ms/train/mcpm0_sx24.ark:11
mtpf0_sx155 raw_TIMIT_200ms/train/mtpf0_sx155.ark:12
mcxm0_si1981 raw_TIMIT_200ms/train/mcxm0_si1981.ark:13
fljg0_sx171 raw_TIMIT_200ms/train/fljg0_sx171.ark:12
fjen0_sx417 raw_TIMIT_200ms/train/fjen0_sx417.ark:12
mkes0_si623 raw_TIMIT_200ms/train/mkes0_si623.ark:12
mfxs0_sx324 raw_TIMIT_200ms/train/mfxs0_sx324.ark:12
mtmn0_sx164 raw_TIMIT_200ms/train/mtmn0_sx164.ark:12
fsls0_sx426 raw_TIMIT_200ms/train/fsls0_sx426.ark:12
ftbr0_sx201 raw_TIMIT_200ms/train/ftbr0_sx201.ark:12
mgxp0_sx187 raw_TIMIT_200ms/train/mgxp0_sx187.ark:12
mgar0_si1694 raw_TIMIT_200ms/train/mgar0_si1694.ark:13
fsjk1_sx35 raw_TIMIT_200ms/train/fsjk1_sx35.ark:11
mjpm0_si1368 raw_TIMIT_200ms/train/mjpm0_si1368.ark:13
mefg0_si598 raw_TIMIT_200ms/train/mefg0_si598.ark:12
mdpk0_sx243 raw_TIMIT_200ms/train/mdpk0_sx243.ark:12
fkdw0_sx217 raw_TIMIT_200ms/train/fkdw0_sx217.ark:12
fjlr0_si1231 raw_TIMIT_200ms/train/fjlr0_si1231.ark:13
majp0_sx444 raw_TIMIT_200ms/train/majp0_sx444.ark:12
mrld0_si2224 raw_TIMIT_200ms/train/mrld0_si2224.ark:13
fjrp1_si1432 raw_TIMIT_200ms/train/fjrp1_si1432.ark:13
fmmh0_sx367 raw_TIMIT_200ms/train/fmmh0_sx367.ark:12
fcaj0_si849 raw_TIMIT_200ms/train/fcaj0_si849.ark:12
mtpg0_sx33 raw_TIMIT_200ms/train/mtpg0_sx33.ark:11
mjjm0_sx377 raw_TIMIT_200ms/train/mjjm0_sx377.ark:12
mkag0_sx439 raw_TIMIT_200ms/train/mkag0_sx439.ark:12
mjrg0_si1996 raw_TIMIT_200ms/train/mjrg0_si1996.ark:13
mdss0_si621 raw_TIMIT_200ms/train/mdss0_si621.ark:12
fjxp0_si1752 raw_TIMIT_200ms/train/fjxp0_si1752.ark:13
mjai0_sx434 raw_TIMIT_200ms/train/mjai0_sx434.ark:12
mwgr0_si2236 raw_TIMIT_200ms/train/mwgr0_si2236.ark:13
mrhl0_si2145 raw_TIMIT_200ms/train/mrhl0_si2145.ark:13
mpar0_si1576 raw_TIMIT_200ms/train/mpar0_si1576.ark:13
feme0_sx155 raw_TIMIT_200ms/train/feme0_sx155.ark:12
maeo0_sx336 raw_TIMIT_200ms/train/maeo0_sx336.ark:12
flac0_sx451 raw_TIMIT_200ms/train/flac0_sx451.ark:12
mges0_sx401 raw_TIMIT_200ms/train/mges0_sx401.ark:12
fgdp0_sx88 raw_TIMIT_200ms/train/fgdp0_sx88.ark:11
mtrt0_si597 raw_TIMIT_200ms/train/mtrt0_si597.ark:12
mram0_sx15 raw_TIMIT_200ms/train/mram0_sx15.ark:11
fgcs0_sx46 raw_TIMIT_200ms/train/fgcs0_sx46.ark:11
fcke0_sx31 raw_TIMIT_200ms/train/fcke0_sx31.ark:11
mwgr0_si1606 raw_TIMIT_200ms/train/mwgr0_si1606.ark:13
mrvg0_sx150 raw_TIMIT_200ms/train/mrvg0_sx150.ark:12
msfv0_sx362 raw_TIMIT_200ms/train/msfv0_sx362.ark:12
mrws0_sx292 raw_TIMIT_200ms/train/mrws0_sx292.ark:12
fdas1_sx201 raw_TIMIT_200ms/train/fdas1_sx201.ark:12
fgcs0_si2116 raw_TIMIT_200ms/train/fgcs0_si2116.ark:13
mfer0_sx412 raw_TIMIT_200ms/train/mfer0_sx412.ark:12
mewm0_si1978 raw_TIMIT_200ms/train/mewm0_si1978.ark:13
fcyl0_si667 raw_TIMIT_200ms/train/fcyl0_si667.ark:12
mdtb0_sx210 raw_TIMIT_200ms/train/mdtb0_sx210.ark:12
mjpm0_sx108 raw_TIMIT_200ms/train/mjpm0_sx108.ark:12
mtrt0_si1227 raw_TIMIT_200ms/train/mtrt0_si1227.ark:13
mbom0_si1014 raw_TIMIT_200ms/train/mbom0_si1014.ark:13
fsdc0_sx232 raw_TIMIT_200ms/train/fsdc0_sx232.ark:12
fskc0_sx156 raw_TIMIT_200ms/train/fskc0_sx156.ark:12
mrds0_sx357 raw_TIMIT_200ms/train/mrds0_sx357.ark:12
fkaa0_sx398 raw_TIMIT_200ms/train/fkaa0_sx398.ark:12
mgrl0_si1497 raw_TIMIT_200ms/train/mgrl0_si1497.ark:13
mwem0_sx420 raw_TIMIT_200ms/train/mwem0_sx420.ark:12
mram0_sx375 raw_TIMIT_200ms/train/mram0_sx375.ark:12
fcyl0_sx37 raw_TIMIT_200ms/train/fcyl0_sx37.ark:11
mjma0_sx325 raw_TIMIT_200ms/train/mjma0_sx325.ark:12
fljd0_sx436 raw_TIMIT_200ms/train/fljd0_sx436.ark:12
fsmm0_sx144 raw_TIMIT_200ms/train/fsmm0_sx144.ark:12
fbmh0_sx416 raw_TIMIT_200ms/train/fbmh0_sx416.ark:12
fssb0_si1712 raw_TIMIT_200ms/train/fssb0_si1712.ark:13
flja0_si1708 raw_TIMIT_200ms/train/flja0_si1708.ark:13
mbbr0_si1685 raw_TIMIT_200ms/train/mbbr0_si1685.ark:13
fnkl0_sx262 raw_TIMIT_200ms/train/fnkl0_sx262.ark:12
fleh0_si2311 raw_TIMIT_200ms/train/fleh0_si2311.ark:13
fdtd0_sx211 raw_TIMIT_200ms/train/fdtd0_sx211.ark:12
fklc1_si2308 raw_TIMIT_200ms/train/fklc1_si2308.ark:13
fsah0_sx434 raw_TIMIT_200ms/train/fsah0_sx434.ark:12
fmjb0_si1177 raw_TIMIT_200ms/train/fmjb0_si1177.ark:13
mrsp0_sx196 raw_TIMIT_200ms/train/mrsp0_sx196.ark:12
mtlc0_sx307 raw_TIMIT_200ms/train/mtlc0_sx307.ark:12
fdxw0_si1511 raw_TIMIT_200ms/train/fdxw0_si1511.ark:13
marc0_si558 raw_TIMIT_200ms/train/marc0_si558.ark:12
fleh0_sx151 raw_TIMIT_200ms/train/fleh0_sx151.ark:12
mpgh0_sx24 raw_TIMIT_200ms/train/mpgh0_sx24.ark:11
mjee0_sx247 raw_TIMIT_200ms/train/mjee0_sx247.ark:12
mhxl0_si1772 raw_TIMIT_200ms/train/mhxl0_si1772.ark:13
fcaj0_sx39 raw_TIMIT_200ms/train/fcaj0_sx39.ark:11
mklw0_sx401 raw_TIMIT_200ms/train/mklw0_sx401.ark:12
mtat1_si1627 raw_TIMIT_200ms/train/mtat1_si1627.ark:13
mcew0_si812 raw_TIMIT_200ms/train/mcew0_si812.ark:12
mmvp0_sx347 raw_TIMIT_200ms/train/mmvp0_sx347.ark:12
fntb0_sx33 raw_TIMIT_200ms/train/fntb0_sx33.ark:11
freh0_sx415 raw_TIMIT_200ms/train/freh0_sx415.ark:12
mbar0_si1949 raw_TIMIT_200ms/train/mbar0_si1949.ark:13
mdsj0_sx112 raw_TIMIT_200ms/train/mdsj0_sx112.ark:12
mtab0_sx132 raw_TIMIT_200ms/train/mtab0_sx132.ark:12
fpjf0_sx56 raw_TIMIT_200ms/train/fpjf0_sx56.ark:11
mtcs0_si1972 raw_TIMIT_200ms/train/mtcs0_si1972.ark:13
mtbc0_sx347 raw_TIMIT_200ms/train/mtbc0_sx347.ark:12
mejs0_sx70 raw_TIMIT_200ms/train/mejs0_sx70.ark:11
msah1_sx239 raw_TIMIT_200ms/train/msah1_sx239.ark:12
megj0_si1337 raw_TIMIT_200ms/train/megj0_si1337.ark:13
fsls0_sx246 raw_TIMIT_200ms/train/fsls0_sx246.ark:12
makb0_si2276 raw_TIMIT_200ms/train/makb0_si2276.ark:13
mjjm0_sx287 raw_TIMIT_200ms/train/mjjm0_sx287.ark:12
mtat0_sx390 raw_TIMIT_200ms/train/mtat0_sx390.ark:12
fklc1_sx238 raw_TIMIT_200ms/train/fklc1_sx238.ark:12
mddc0_sx159 raw_TIMIT_200ms/train/mddc0_sx159.ark:12
mkes0_si1253 raw_TIMIT_200ms/train/mkes0_si1253.ark:13
mfwk0_sx169 raw_TIMIT_200ms/train/mfwk0_sx169.ark:12
fgmb0_sx65 raw_TIMIT_200ms/train/fgmb0_sx65.ark:11
mdas0_si636 raw_TIMIT_200ms/train/mdas0_si636.ark:12
mvrw0_sx405 raw_TIMIT_200ms/train/mvrw0_sx405.ark:12
mrcg0_sx168 raw_TIMIT_200ms/train/mrcg0_sx168.ark:12
mrpc1_sx402 raw_TIMIT_200ms/train/mrpc1_sx402.ark:12
mjeb0_sx26 raw_TIMIT_200ms/train/mjeb0_sx26.ark:11
mpsw0_sx24 raw_TIMIT_200ms/train/mpsw0_sx24.ark:11
mntw0_sx78 raw_TIMIT_200ms/train/mntw0_sx78.ark:11
mdpb0_sx416 raw_TIMIT_200ms/train/mdpb0_sx416.ark:12
mcxm0_sx451 raw_TIMIT_200ms/train/mcxm0_sx451.ark:12
fpaf0_sx244 raw_TIMIT_200ms/train/fpaf0_sx244.ark:12
fbmh0_sx326 raw_TIMIT_200ms/train/fbmh0_sx326.ark:12
mhmg0_sx15 raw_TIMIT_200ms/train/mhmg0_sx15.ark:11
mdps0_sx359 raw_TIMIT_200ms/train/mdps0_sx359.ark:12
fmkc0_si1041 raw_TIMIT_200ms/train/fmkc0_si1041.ark:13
fbch0_sx416 raw_TIMIT_200ms/train/fbch0_sx416.ark:12
mdps0_sx89 raw_TIMIT_200ms/train/mdps0_sx89.ark:11
mtab0_si1572 raw_TIMIT_200ms/train/mtab0_si1572.ark:13
mbth0_sx212 raw_TIMIT_200ms/train/mbth0_sx212.ark:12
mpgr1_sx419 raw_TIMIT_200ms/train/mpgr1_sx419.ark:12
mtju0_sx220 raw_TIMIT_200ms/train/mtju0_sx220.ark:12
flhd0_sx264 raw_TIMIT_200ms/train/flhd0_sx264.ark:12
flmk0_sx45 raw_TIMIT_200ms/train/flmk0_sx45.ark:11
fkde0_sx241 raw_TIMIT_200ms/train/fkde0_sx241.ark:12
fcyl0_sx349 raw_TIMIT_200ms/train/fcyl0_sx349.ark:12
mjda0_si1661 raw_TIMIT_200ms/train/mjda0_si1661.ark:13
mdwm0_si2176 raw_TIMIT_200ms/train/mdwm0_si2176.ark:13
mmdb0_si987 raw_TIMIT_200ms/train/mmdb0_si987.ark:12
mdks0_sx436 raw_TIMIT_200ms/train/mdks0_sx436.ark:12
marc0_sx108 raw_TIMIT_200ms/train/marc0_sx108.ark:12
mdlm0_sx334 raw_TIMIT_200ms/train/mdlm0_sx334.ark:12
mcpm0_sx294 raw_TIMIT_200ms/train/mcpm0_sx294.ark:12
mmgc0_si2184 raw_TIMIT_200ms/train/mmgc0_si2184.ark:13
mrab0_sx234 raw_TIMIT_200ms/train/mrab0_sx234.ark:12
ftlg0_si483 raw_TIMIT_200ms/train/ftlg0_si483.ark:12
mpfu0_sx88 raw_TIMIT_200ms/train/mpfu0_sx88.ark:11
mwad0_sx432 raw_TIMIT_200ms/train/mwad0_sx432.ark:12
fmah1_sx159 raw_TIMIT_200ms/train/fmah1_sx159.ark:12
milb0_si903 raw_TIMIT_200ms/train/milb0_si903.ark:12
mdss0_sx171 raw_TIMIT_200ms/train/mdss0_sx171.ark:12
mtxs0_si1690 raw_TIMIT_200ms/train/mtxs0_si1690.ark:13
milb0_sx363 raw_TIMIT_200ms/train/milb0_sx363.ark:12
mjmm0_sx445 raw_TIMIT_200ms/train/mjmm0_sx445.ark:12
mpfu0_sx178 raw_TIMIT_200ms/train/mpfu0_sx178.ark:12
flmk0_si1229 raw_TIMIT_200ms/train/flmk0_si1229.ark:13
mtkd0_sx377 raw_TIMIT_200ms/train/mtkd0_sx377.ark:12
mrsp0_sx439 raw_TIMIT_200ms/train/mrsp0_sx439.ark:12
fskl0_si1529 raw_TIMIT_200ms/train/fskl0_si1529.ark:13
fsma0_sx181 raw_TIMIT_200ms/train/fsma0_sx181.ark:12
fjkl0_sx302 raw_TIMIT_200ms/train/fjkl0_sx302.ark:12
frll0_sx434 raw_TIMIT_200ms/train/frll0_sx434.ark:12
majp0_sx264 raw_TIMIT_200ms/train/majp0_sx264.ark:12
mjjb0_sx239 raw_TIMIT_200ms/train/mjjb0_sx239.ark:12
mtml0_sx435 raw_TIMIT_200ms/train/mtml0_sx435.ark:12
frll0_si1514 raw_TIMIT_200ms/train/frll0_si1514.ark:13
mjlb0_sx446 raw_TIMIT_200ms/train/mjlb0_sx446.ark:12
mjmm0_si1885 raw_TIMIT_200ms/train/mjmm0_si1885.ark:13
fltm0_sx170 raw_TIMIT_200ms/train/fltm0_sx170.ark:12
mdlb0_si1936 raw_TIMIT_200ms/train/mdlb0_si1936.ark:13
mcxm0_si1351 raw_TIMIT_200ms/train/mcxm0_si1351.ark:13
mppc0_sx152 raw_TIMIT_200ms/train/mppc0_sx152.ark:12
mcss0_sx390 raw_TIMIT_200ms/train/mcss0_sx390.ark:12
mrkm0_si637 raw_TIMIT_200ms/train/mrkm0_si637.ark:12
mmaa0_sx395 raw_TIMIT_200ms/train/mmaa0_sx395.ark:12
mdlh0_sx430 raw_TIMIT_200ms/train/mdlh0_sx430.ark:12
mjrg0_sx16 raw_TIMIT_200ms/train/mjrg0_sx16.ark:11
fsrh0_si1719 raw_TIMIT_200ms/train/fsrh0_si1719.ark:13
mmds0_si1343 raw_TIMIT_200ms/train/mmds0_si1343.ark:13
mejl0_sx152 raw_TIMIT_200ms/train/mejl0_sx152.ark:12
fscn0_sx356 raw_TIMIT_200ms/train/fscn0_sx356.ark:12
mejs0_sx160 raw_TIMIT_200ms/train/mejs0_sx160.ark:12
mbgt0_sx261 raw_TIMIT_200ms/train/mbgt0_sx261.ark:12
mafm0_si939 raw_TIMIT_200ms/train/mafm0_si939.ark:12
mjda0_si2291 raw_TIMIT_200ms/train/mjda0_si2291.ark:13
fcmm0_sx183 raw_TIMIT_200ms/train/fcmm0_sx183.ark:12
fmjf0_sx84 raw_TIMIT_200ms/train/fmjf0_sx84.ark:11
mrew1_sx60 raw_TIMIT_200ms/train/mrew1_sx60.ark:11
mcpm0_si1824 raw_TIMIT_200ms/train/mcpm0_si1824.ark:13
mdlc0_si1395 raw_TIMIT_200ms/train/mdlc0_si1395.ark:13
mtkp0_si2283 raw_TIMIT_200ms/train/mtkp0_si2283.ark:13
mjee0_si607 raw_TIMIT_200ms/train/mjee0_si607.ark:12
fsbk0_sx349 raw_TIMIT_200ms/train/fsbk0_sx349.ark:12
fjsk0_si2312 raw_TIMIT_200ms/train/fjsk0_si2312.ark:13
fmjf0_sx264 raw_TIMIT_200ms/train/fmjf0_sx264.ark:12
mklw0_si1571 raw_TIMIT_200ms/train/mklw0_si1571.ark:13
mjls0_sx376 raw_TIMIT_200ms/train/mjls0_sx376.ark:12
fdxw0_sx341 raw_TIMIT_200ms/train/fdxw0_sx341.ark:12
fskp0_sx378 raw_TIMIT_200ms/train/fskp0_sx378.ark:12
mjee0_si1867 raw_TIMIT_200ms/train/mjee0_si1867.ark:13
freh0_si685 raw_TIMIT_200ms/train/freh0_si685.ark:12
mdma0_sx80 raw_TIMIT_200ms/train/mdma0_sx80.ark:11
mkah0_sx268 raw_TIMIT_200ms/train/mkah0_sx268.ark:12
mwem0_sx240 raw_TIMIT_200ms/train/mwem0_sx240.ark:12
mrmb0_sx51 raw_TIMIT_200ms/train/mrmb0_sx51.ark:11
mesj0_sx367 raw_TIMIT_200ms/train/mesj0_sx367.ark:12
fsls0_si1686 raw_TIMIT_200ms/train/fsls0_si1686.ark:13
mpsw0_sx437 raw_TIMIT_200ms/train/mpsw0_sx437.ark:12
fvfb0_sx42 raw_TIMIT_200ms/train/fvfb0_sx42.ark:11
mlns0_sx147 raw_TIMIT_200ms/train/mlns0_sx147.ark:12
mwar0_si2305 raw_TIMIT_200ms/train/mwar0_si2305.ark:13
fsdc0_si1942 raw_TIMIT_200ms/train/fsdc0_si1942.ark:13
fsjw0_sx163 raw_TIMIT_200ms/train/fsjw0_sx163.ark:12
mrjh0_sx259 raw_TIMIT_200ms/train/mrjh0_sx259.ark:12
mrem0_sx421 raw_TIMIT_200ms/train/mrem0_sx421.ark:12
mjxl0_sx362 raw_TIMIT_200ms/train/mjxl0_sx362.ark:12
mdns0_sx291 raw_TIMIT_200ms/train/mdns0_sx291.ark:12
mdtb0_sx120 raw_TIMIT_200ms/train/mdtb0_sx120.ark:12
fdml0_sx159 raw_TIMIT_200ms/train/fdml0_sx159.ark:12
msdh0_sx170 raw_TIMIT_200ms/train/msdh0_sx170.ark:12
mtpp0_sx428 raw_TIMIT_200ms/train/mtpp0_sx428.ark:12
fpaf0_sx424 raw_TIMIT_200ms/train/fpaf0_sx424.ark:12
mklw0_sx221 raw_TIMIT_200ms/train/mklw0_sx221.ark:12
msat1_sx443 raw_TIMIT_200ms/train/msat1_sx443.ark:12
fpls0_sx60 raw_TIMIT_200ms/train/fpls0_sx60.ark:11
fmpg0_sx432 raw_TIMIT_200ms/train/fmpg0_sx432.ark:12
mfer0_sx232 raw_TIMIT_200ms/train/mfer0_sx232.ark:12
fbjl0_sx292 raw_TIMIT_200ms/train/fbjl0_sx292.ark:12
madc0_sx287 raw_TIMIT_200ms/train/madc0_sx287.ark:12
mdks0_si1066 raw_TIMIT_200ms/train/mdks0_si1066.ark:13
fkfb0_si1608 raw_TIMIT_200ms/train/fkfb0_si1608.ark:13
mrtc0_si828 raw_TIMIT_200ms/train/mrtc0_si828.ark:12
mkdb0_si2132 raw_TIMIT_200ms/train/mkdb0_si2132.ark:13
mdmt0_sx392 raw_TIMIT_200ms/train/mdmt0_sx392.ark:12
medr0_sx24 raw_TIMIT_200ms/train/medr0_sx24.ark:11
mpgr0_sx240 raw_TIMIT_200ms/train/mpgr0_sx240.ark:12
fdtd0_sx301 raw_TIMIT_200ms/train/fdtd0_sx301.ark:12
mdks0_sx346 raw_TIMIT_200ms/train/mdks0_sx346.ark:12
mrjh0_si1519 raw_TIMIT_200ms/train/mrjh0_si1519.ark:13
mtdp0_sx171 raw_TIMIT_200ms/train/mtdp0_sx171.ark:12
mram0_sx285 raw_TIMIT_200ms/train/mram0_sx285.ark:12
fsjg0_sx310 raw_TIMIT_200ms/train/fsjg0_sx310.ark:12
mreh1_sx249 raw_TIMIT_200ms/train/mreh1_sx249.ark:12
mrxb0_si2215 raw_TIMIT_200ms/train/mrxb0_si2215.ark:13
fcrz0_sx253 raw_TIMIT_200ms/train/fcrz0_sx253.ark:12
mcdc0_si662 raw_TIMIT_200ms/train/mcdc0_si662.ark:12
mjkr0_si571 raw_TIMIT_200ms/train/mjkr0_si571.ark:12
fmjb0_sx277 raw_TIMIT_200ms/train/fmjb0_sx277.ark:12
ftmg0_si2162 raw_TIMIT_200ms/train/ftmg0_si2162.ark:13
fsmm0_sx234 raw_TIMIT_200ms/train/fsmm0_sx234.ark:12
mlns0_si1407 raw_TIMIT_200ms/train/mlns0_si1407.ark:13
milb0_si807 raw_TIMIT_200ms/train/milb0_si807.ark:12
mrlj0_si1420 raw_TIMIT_200ms/train/mrlj0_si1420.ark:13
mlsh0_sx427 raw_TIMIT_200ms/train/mlsh0_sx427.ark:12
mtjg0_sx80 raw_TIMIT_200ms/train/mtjg0_sx80.ark:11
fjrb0_si1932 raw_TIMIT_200ms/train/fjrb0_si1932.ark:13
msah1_sx419 raw_TIMIT_200ms/train/msah1_sx419.ark:12
mgaw0_sx355 raw_TIMIT_200ms/train/mgaw0_sx355.ark:12
mchl0_sx267 raw_TIMIT_200ms/train/mchl0_sx267.ark:12
mjdg0_sx142 raw_TIMIT_200ms/train/mjdg0_sx142.ark:12
flmk0_si1035 raw_TIMIT_200ms/train/flmk0_si1035.ark:13
mkxl0_sx105 raw_TIMIT_200ms/train/mkxl0_sx105.ark:12
makr0_sx362 raw_TIMIT_200ms/train/makr0_sx362.ark:12
frll0_sx254 raw_TIMIT_200ms/train/frll0_sx254.ark:12
fsmm0_si684 raw_TIMIT_200ms/train/fsmm0_si684.ark:12
fsdj0_si485 raw_TIMIT_200ms/train/fsdj0_si485.ark:12
fcmm0_sx273 raw_TIMIT_200ms/train/fcmm0_sx273.ark:12
mrvg0_sx420 raw_TIMIT_200ms/train/mrvg0_sx420.ark:12
fjwb1_si795 raw_TIMIT_200ms/train/fjwb1_si795.ark:12
mbom0_sx114 raw_TIMIT_200ms/train/mbom0_sx114.ark:12
mjbg0_si1724 raw_TIMIT_200ms/train/mjbg0_si1724.ark:13
mmjb1_si2038 raw_TIMIT_200ms/train/mmjb1_si2038.ark:13
fnkl0_sx82 raw_TIMIT_200ms/train/fnkl0_sx82.ark:11
fsgf0_sx27 raw_TIMIT_200ms/train/fsgf0_sx27.ark:11
mbef0_sx291 raw_TIMIT_200ms/train/mbef0_sx291.ark:12
mafm0_sx309 raw_TIMIT_200ms/train/mafm0_sx309.ark:12
mges0_sx221 raw_TIMIT_200ms/train/mges0_sx221.ark:12
mmlm0_sx267 raw_TIMIT_200ms/train/mmlm0_sx267.ark:12
feeh0_si1112 raw_TIMIT_200ms/train/feeh0_si1112.ark:13
mdlc1_sx175 raw_TIMIT_200ms/train/mdlc1_sx175.ark:12
mmab1_sx414 raw_TIMIT_200ms/train/mmab1_sx414.ark:12
mdsj0_sx292 raw_TIMIT_200ms/train/mdsj0_sx292.ark:12
mrsp0_sx259 raw_TIMIT_200ms/train/mrsp0_sx259.ark:12
mtdp0_sx81 raw_TIMIT_200ms/train/mtdp0_sx81.ark:11
mjac0_si701 raw_TIMIT_200ms/train/mjac0_si701.ark:12
mkls0_sx447 raw_TIMIT_200ms/train/mkls0_sx447.ark:12
mdss1_sx427 raw_TIMIT_200ms/train/mdss1_sx427.ark:12
fhxs0_si2302 raw_TIMIT_200ms/train/fhxs0_si2302.ark:13
mrld0_sx424 raw_TIMIT_200ms/train/mrld0_sx424.ark:12
mdpk0_si552 raw_TIMIT_200ms/train/mdpk0_si552.ark:12
fkdw0_sx37 raw_TIMIT_200ms/train/fkdw0_sx37.ark:11
fspm0_si611 raw_TIMIT_200ms/train/fspm0_si611.ark:12
