fspm0_si611 raw_TIMIT_200ms/train/fspm0_si611.ark:12
mmxs0_sx156 raw_TIMIT_200ms/train/mmxs0_sx156.ark:12
flmk0_si2295 raw_TIMIT_200ms/train/flmk0_si2295.ark:13
mtjm0_si655 raw_TIMIT_200ms/train/mtjm0_si655.ark:12
mrjt0_sx148 raw_TIMIT_200ms/train/mrjt0_sx148.ark:12
mmdb0_sx357 raw_TIMIT_200ms/train/mmdb0_sx357.ark:12
mrgm0_sx172 raw_TIMIT_200ms/train/mrgm0_sx172.ark:12
faem0_sx132 raw_TIMIT_200ms/train/faem0_sx132.ark:12
mrem0_sx151 raw_TIMIT_200ms/train/mrem0_sx151.ark:12
mjlg1_si1642 raw_TIMIT_200ms/train/mjlg1_si1642.ark:13
fmah1_sx69 raw_TIMIT_200ms/train/fmah1_sx69.ark:11
mwar0_sx145 raw_TIMIT_200ms/train/mwar0_sx145.ark:12
mmbs0_sx341 raw_TIMIT_200ms/train/mmbs0_sx341.ark:12
mjeb1_si837 raw_TIMIT_200ms/train/mjeb1_si837.ark:12
fbmh0_sx146 raw_TIMIT_200ms/train/fbmh0_sx146.ark:12
mesj0_sx367 raw_TIMIT_200ms/train/mesj0_sx367.ark:12
mlbc0_sx159 raw_TIMIT_200ms/train/mlbc0_sx159.ark:12
mdwm0_sx106 raw_TIMIT_200ms/train/mdwm0_sx106.ark:12
fkfb0_sx258 raw_TIMIT_200ms/train/fkfb0_sx258.ark:12
fmpg0_sx252 raw_TIMIT_200ms/train/fmpg0_sx252.ark:12
mgrl0_si2127 raw_TIMIT_200ms/train/mgrl0_si2127.ark:13
fklh0_sx357 raw_TIMIT_200ms/train/fklh0_sx357.ark:12
mtdp0_sx261 raw_TIMIT_200ms/train/mtdp0_sx261.ark:12
mmab1_si1494 raw_TIMIT_200ms/train/mmab1_si1494.ark:13
mbar0_sx59 raw_TIMIT_200ms/train/mbar0_sx59.ark:11
freh0_si1945 raw_TIMIT_200ms/train/freh0_si1945.ark:13
fdml0_sx249 raw_TIMIT_200ms/train/fdml0_sx249.ark:12
mrjm1_sx128 raw_TIMIT_200ms/train/mrjm1_sx128.ark:12
mcss0_sx300 raw_TIMIT_200ms/train/mcss0_sx300.ark:12
fdjh0_sx395 raw_TIMIT_200ms/train/fdjh0_sx395.ark:12
majp0_sx264 raw_TIMIT_200ms/train/majp0_sx264.ark:12
mtrc0_sx183 raw_TIMIT_200ms/train/mtrc0_sx183.ark:12
mjdg0_sx412 raw_TIMIT_200ms/train/mjdg0_sx412.ark:12
mrab0_si1224 raw_TIMIT_200ms/train/mrab0_si1224.ark:13
mjae0_sx84 raw_TIMIT_200ms/train/mjae0_sx84.ark:11
mwsb0_si1626 raw_TIMIT_200ms/train/mwsb0_si1626.ark:13
mrjm0_sx328 raw_TIMIT_200ms/train/mrjm0_sx328.ark:12
mjpm1_sx131 raw_TIMIT_200ms/train/mjpm1_sx131.ark:12
mdps0_si1979 raw_TIMIT_200ms/train/mdps0_si1979.ark:13
fpad0_sx266 raw_TIMIT_200ms/train/fpad0_sx266.ark:12
fpad0_sx356 raw_TIMIT_200ms/train/fpad0_sx356.ark:12
mtqc0_si1441 raw_TIMIT_200ms/train/mtqc0_si1441.ark:13
fpjf0_sx146 raw_TIMIT_200ms/train/fpjf0_sx146.ark:12
mmvp0_sx384 raw_TIMIT_200ms/train/mmvp0_sx384.ark:12
mrjh0_si914 raw_TIMIT_200ms/train/mrjh0_si914.ark:12
fear0_si1882 raw_TIMIT_200ms/train/fear0_si1882.ark:13
fbmh0_sx416 raw_TIMIT_200ms/train/fbmh0_sx416.ark:12
mmsm0_si1106 raw_TIMIT_200ms/train/mmsm0_si1106.ark:13
mdss1_sx157 raw_TIMIT_200ms/train/mdss1_sx157.ark:12
msrr0_sx411 raw_TIMIT_200ms/train/msrr0_sx411.ark:12
fcke0_si1111 raw_TIMIT_200ms/train/fcke0_si1111.ark:13
mmam0_si1668 raw_TIMIT_200ms/train/mmam0_si1668.ark:13
mjde0_sx400 raw_TIMIT_200ms/train/mjde0_sx400.ark:12
mgar0_si1694 raw_TIMIT_200ms/train/mgar0_si1694.ark:13
ftlg0_si483 raw_TIMIT_200ms/train/ftlg0_si483.ark:12
mwar0_si1675 raw_TIMIT_200ms/train/mwar0_si1675.ark:13
mjmd0_sx308 raw_TIMIT_200ms/train/mjmd0_sx308.ark:12
mtkd0_si630 raw_TIMIT_200ms/train/mtkd0_si630.ark:12
msrr0_sx231 raw_TIMIT_200ms/train/msrr0_sx231.ark:12
mcss0_si1380 raw_TIMIT_200ms/train/mcss0_si1380.ark:13
fvmh0_sx386 raw_TIMIT_200ms/train/fvmh0_sx386.ark:12
mtjm0_si1856 raw_TIMIT_200ms/train/mtjm0_si1856.ark:13
fajw0_sx363 raw_TIMIT_200ms/train/fajw0_sx363.ark:12
maeo0_sx156 raw_TIMIT_200ms/train/maeo0_sx156.ark:12
mstf0_si1396 raw_TIMIT_200ms/train/mstf0_si1396.ark:13
fscn0_si705 raw_TIMIT_200ms/train/fscn0_si705.ark:12
mmdg0_sx160 raw_TIMIT_200ms/train/mmdg0_sx160.ark:12
mrjh0_si889 raw_TIMIT_200ms/train/mrjh0_si889.ark:12
mdlc0_sx45 raw_TIMIT_200ms/train/mdlc0_sx45.ark:11
mkls1_sx195 raw_TIMIT_200ms/train/mkls1_sx195.ark:12
flet0_sx147 raw_TIMIT_200ms/train/flet0_sx147.ark:12
mgaw0_sx355 raw_TIMIT_200ms/train/mgaw0_sx355.ark:12
fbmj0_sx246 raw_TIMIT_200ms/train/fbmj0_sx246.ark:12
mmab1_si2124 raw_TIMIT_200ms/train/mmab1_si2124.ark:13
mrre0_sx74 raw_TIMIT_200ms/train/mrre0_sx74.ark:11
mdpk0_sx153 raw_TIMIT_200ms/train/mdpk0_sx153.ark:12
mdrd0_sx302 raw_TIMIT_200ms/train/mdrd0_sx302.ark:12
mmgc0_sx45 raw_TIMIT_200ms/train/mmgc0_sx45.ark:11
msat1_sx83 raw_TIMIT_200ms/train/msat1_sx83.ark:11
fpaz0_sx27 raw_TIMIT_200ms/train/fpaz0_sx27.ark:11
msvs0_sx218 raw_TIMIT_200ms/train/msvs0_sx218.ark:12
mtlc0_sx397 raw_TIMIT_200ms/train/mtlc0_sx397.ark:12
fetb0_si1778 raw_TIMIT_200ms/train/fetb0_si1778.ark:13
mrws0_sx202 raw_TIMIT_200ms/train/mrws0_sx202.ark:12
mrfk0_si1706 raw_TIMIT_200ms/train/mrfk0_si1706.ark:13
mapv0_si1923 raw_TIMIT_200ms/train/mapv0_si1923.ark:13
makb0_si2276 raw_TIMIT_200ms/train/makb0_si2276.ark:13
mjrp0_si1835 raw_TIMIT_200ms/train/mjrp0_si1835.ark:13
mmdg0_sx250 raw_TIMIT_200ms/train/mmdg0_sx250.ark:12
fklc1_si1678 raw_TIMIT_200ms/train/fklc1_si1678.ark:13
fmjf0_sx84 raw_TIMIT_200ms/train/fmjf0_sx84.ark:11
fmem0_sx333 raw_TIMIT_200ms/train/fmem0_sx333.ark:12
mmab1_sx414 raw_TIMIT_200ms/train/mmab1_sx414.ark:12
mgxp0_si1087 raw_TIMIT_200ms/train/mgxp0_si1087.ark:13
mjpm0_sx18 raw_TIMIT_200ms/train/mjpm0_sx18.ark:11
mjai0_si682 raw_TIMIT_200ms/train/mjai0_si682.ark:12
fjkl0_sx302 raw_TIMIT_200ms/train/fjkl0_sx302.ark:12
fjen0_sx237 raw_TIMIT_200ms/train/fjen0_sx237.ark:12
mrcw0_sx111 raw_TIMIT_200ms/train/mrcw0_sx111.ark:12
fpls0_si1590 raw_TIMIT_200ms/train/fpls0_si1590.ark:13
mter0_si527 raw_TIMIT_200ms/train/mter0_si527.ark:12
mtrt0_sx237 raw_TIMIT_200ms/train/mtrt0_sx237.ark:12
fdfb0_sx148 raw_TIMIT_200ms/train/fdfb0_sx148.ark:12
fexm0_sx291 raw_TIMIT_200ms/train/fexm0_sx291.ark:12
mbgt0_sx351 raw_TIMIT_200ms/train/mbgt0_sx351.ark:12
fdas1_sx381 raw_TIMIT_200ms/train/fdas1_sx381.ark:12
fklc0_sx85 raw_TIMIT_200ms/train/fklc0_sx85.ark:11
fmmh0_sx420 raw_TIMIT_200ms/train/fmmh0_sx420.ark:12
mcre0_sx24 raw_TIMIT_200ms/train/mcre0_sx24.ark:11
fpaz0_sx63 raw_TIMIT_200ms/train/fpaz0_sx63.ark:11
mwem0_sx240 raw_TIMIT_200ms/train/mwem0_sx240.ark:12
fgdp0_si2248 raw_TIMIT_200ms/train/fgdp0_si2248.ark:13
mdhl0_sx179 raw_TIMIT_200ms/train/mdhl0_sx179.ark:12
falk0_sx276 raw_TIMIT_200ms/train/falk0_sx276.ark:12
fcjf0_si1027 raw_TIMIT_200ms/train/fcjf0_si1027.ark:13
mejs0_sx70 raw_TIMIT_200ms/train/mejs0_sx70.ark:11
mfrm0_sx255 raw_TIMIT_200ms/train/mfrm0_sx255.ark:12
fhxs0_sx175 raw_TIMIT_200ms/train/fhxs0_sx175.ark:12
mrhl0_si1515 raw_TIMIT_200ms/train/mrhl0_si1515.ark:13
flma0_sx433 raw_TIMIT_200ms/train/flma0_sx433.ark:12
mmwb0_sx89 raw_TIMIT_200ms/train/mmwb0_sx89.ark:11
mljh0_sx424 raw_TIMIT_200ms/train/mljh0_sx424.ark:12
mjfh0_sx297 raw_TIMIT_200ms/train/mjfh0_sx297.ark:12
mrmh0_si2281 raw_TIMIT_200ms/train/mrmh0_si2281.ark:13
mmsm0_si476 raw_TIMIT_200ms/train/mmsm0_si476.ark:12
fmpg0_si972 raw_TIMIT_200ms/train/fmpg0_si972.ark:12
fsma0_sx91 raw_TIMIT_200ms/train/fsma0_sx91.ark:11
flet0_si1767 raw_TIMIT_200ms/train/flet0_si1767.ark:13
mlbc0_si609 raw_TIMIT_200ms/train/mlbc0_si609.ark:12
mdmt0_si2341 raw_TIMIT_200ms/train/mdmt0_si2341.ark:13
fdmy0_si1197 raw_TIMIT_200ms/train/fdmy0_si1197.ark:13
fmju0_sx39 raw_TIMIT_200ms/train/fmju0_sx39.ark:11
fskl0_si899 raw_TIMIT_200ms/train/fskl0_si899.ark:12
msmc0_sx107 raw_TIMIT_200ms/train/msmc0_sx107.ark:12
mtxs0_sx340 raw_TIMIT_200ms/train/mtxs0_sx340.ark:12
mtju0_sx220 raw_TIMIT_200ms/train/mtju0_sx220.ark:12
falk0_si1086 raw_TIMIT_200ms/train/falk0_si1086.ark:13
fljg0_sx261 raw_TIMIT_200ms/train/fljg0_sx261.ark:12
mkdt0_sx83 raw_TIMIT_200ms/train/mkdt0_sx83.ark:11
mtmn0_sx254 raw_TIMIT_200ms/train/mtmn0_sx254.ark:12
fjkl0_si1562 raw_TIMIT_200ms/train/fjkl0_si1562.ark:13
fclt0_sx358 raw_TIMIT_200ms/train/fclt0_sx358.ark:12
mtrt0_si1227 raw_TIMIT_200ms/train/mtrt0_si1227.ark:13
mrms0_sx120 raw_TIMIT_200ms/train/mrms0_sx120.ark:12
mhmr0_sx219 raw_TIMIT_200ms/train/mhmr0_sx219.ark:12
fjwb1_sx75 raw_TIMIT_200ms/train/fjwb1_sx75.ark:11
fexm0_si1731 raw_TIMIT_200ms/train/fexm0_si1731.ark:13
mlsh0_si2047 raw_TIMIT_200ms/train/mlsh0_si2047.ark:13
fpls0_sx60 raw_TIMIT_200ms/train/fpls0_sx60.ark:11
fjlg0_si2306 raw_TIMIT_200ms/train/fjlg0_si2306.ark:13
fjxm0_si1971 raw_TIMIT_200ms/train/fjxm0_si1971.ark:13
mzmb0_sx356 raw_TIMIT_200ms/train/mzmb0_sx356.ark:12
mtwh1_sx162 raw_TIMIT_200ms/train/mtwh1_sx162.ark:12
madd0_si1295 raw_TIMIT_200ms/train/madd0_si1295.ark:13
mtmn0_si1064 raw_TIMIT_200ms/train/mtmn0_si1064.ark:13
fpac0_sx301 raw_TIMIT_200ms/train/fpac0_sx301.ark:12
mkah0_sx358 raw_TIMIT_200ms/train/mkah0_sx358.ark:12
mkam0_sx416 raw_TIMIT_200ms/train/mkam0_sx416.ark:12
mmeb0_sx367 raw_TIMIT_200ms/train/mmeb0_sx367.ark:12
mbsb0_sx273 raw_TIMIT_200ms/train/mbsb0_sx273.ark:12
fklh0_si627 raw_TIMIT_200ms/train/fklh0_si627.ark:12
fskp0_si468 raw_TIMIT_200ms/train/fskp0_si468.ark:12
mmds0_si1343 raw_TIMIT_200ms/train/mmds0_si1343.ark:13
mkdb0_sx152 raw_TIMIT_200ms/train/mkdb0_sx152.ark:12
mtlb0_sx144 raw_TIMIT_200ms/train/mtlb0_sx144.ark:12
ftbr0_sx201 raw_TIMIT_200ms/train/ftbr0_sx201.ark:12
mjdg0_si1672 raw_TIMIT_200ms/train/mjdg0_si1672.ark:13
fjlr0_sx421 raw_TIMIT_200ms/train/fjlr0_sx421.ark:12
fmkc0_sx352 raw_TIMIT_200ms/train/fmkc0_sx352.ark:12
maeo0_si1326 raw_TIMIT_200ms/train/maeo0_si1326.ark:13
fdfb0_si1318 raw_TIMIT_200ms/train/fdfb0_si1318.ark:13
mwsb0_si996 raw_TIMIT_200ms/train/mwsb0_si996.ark:12
msas0_sx116 raw_TIMIT_200ms/train/msas0_sx116.ark:12
mrgm0_si532 raw_TIMIT_200ms/train/mrgm0_si532.ark:12
mgrl0_sx237 raw_TIMIT_200ms/train/mgrl0_sx237.ark:12
mcre0_si1725 raw_TIMIT_200ms/train/mcre0_si1725.ark:13
mjwt0_si751 raw_TIMIT_200ms/train/mjwt0_si751.ark:12
msfh0_sx136 raw_TIMIT_200ms/train/msfh0_sx136.ark:12
mdps0_sx89 raw_TIMIT_200ms/train/mdps0_sx89.ark:11
mtcs0_si1972 raw_TIMIT_200ms/train/mtcs0_si1972.ark:13
mmdb0_si987 raw_TIMIT_200ms/train/mmdb0_si987.ark:12
fbmj0_si815 raw_TIMIT_200ms/train/fbmj0_si815.ark:12
mwad0_si2322 raw_TIMIT_200ms/train/mwad0_si2322.ark:13
fsjk1_sx305 raw_TIMIT_200ms/train/fsjk1_sx305.ark:12
flkm0_sx260 raw_TIMIT_200ms/train/flkm0_sx260.ark:12
marw0_sx106 raw_TIMIT_200ms/train/marw0_sx106.ark:12
mmcc0_sx348 raw_TIMIT_200ms/train/mmcc0_sx348.ark:12
mpgr0_sx420 raw_TIMIT_200ms/train/mpgr0_sx420.ark:12
mtjg0_si2157 raw_TIMIT_200ms/train/mtjg0_si2157.ark:13
mrso0_si1206 raw_TIMIT_200ms/train/mrso0_si1206.ark:13
mwac0_si971 raw_TIMIT_200ms/train/mwac0_si971.ark:12
mmlm0_sx87 raw_TIMIT_200ms/train/mmlm0_sx87.ark:11
mdps0_sx449 raw_TIMIT_200ms/train/mdps0_sx449.ark:12
mjpm0_sx288 raw_TIMIT_200ms/train/mjpm0_sx288.ark:12
mjjb0_sx149 raw_TIMIT_200ms/train/mjjb0_sx149.ark:12
mjrh0_si1125 raw_TIMIT_200ms/train/mjrh0_si1125.ark:13
fgdp0_si1618 raw_TIMIT_200ms/train/fgdp0_si1618.ark:13
mrso0_sx399 raw_TIMIT_200ms/train/mrso0_sx399.ark:12
mcss0_si750 raw_TIMIT_200ms/train/mcss0_si750.ark:12
mkdb0_si872 raw_TIMIT_200ms/train/mkdb0_si872.ark:12
mejl0_sx422 raw_TIMIT_200ms/train/mejl0_sx422.ark:12
frjb0_si1470 raw_TIMIT_200ms/train/frjb0_si1470.ark:13
mcdc0_sx392 raw_TIMIT_200ms/train/mcdc0_sx392.ark:12
mkdd0_sx127 raw_TIMIT_200ms/train/mkdd0_sx127.ark:12
mbth0_sx122 raw_TIMIT_200ms/train/mbth0_sx122.ark:12
mjwt0_sx211 raw_TIMIT_200ms/train/mjwt0_sx211.ark:12
fklh0_sx177 raw_TIMIT_200ms/train/fklh0_sx177.ark:12
mrgs0_sx6 raw_TIMIT_200ms/train/mrgs0_sx6.ark:10
flmc0_si2002 raw_TIMIT_200ms/train/flmc0_si2002.ark:13
fsdc0_sx52 raw_TIMIT_200ms/train/fsdc0_sx52.ark:11
fjlg0_sx269 raw_TIMIT_200ms/train/fjlg0_sx269.ark:12
ftmg0_sx272 raw_TIMIT_200ms/train/ftmg0_sx272.ark:12
fclt0_si2068 raw_TIMIT_200ms/train/fclt0_si2068.ark:13
mprk0_sx377 raw_TIMIT_200ms/train/mprk0_sx377.ark:12
msem1_si2070 raw_TIMIT_200ms/train/msem1_si2070.ark:13
mcef0_sx55 raw_TIMIT_200ms/train/mcef0_sx55.ark:11
mtlb0_sx54 raw_TIMIT_200ms/train/mtlb0_sx54.ark:11
fjxp0_sx312 raw_TIMIT_200ms/train/fjxp0_sx312.ark:12
mbwp0_sx169 raw_TIMIT_200ms/train/mbwp0_sx169.ark:12
mtat1_sx59 raw_TIMIT_200ms/train/mtat1_sx59.ark:11
fmju0_sx219 raw_TIMIT_200ms/train/fmju0_sx219.ark:12
mprt0_sx40 raw_TIMIT_200ms/train/mprt0_sx40.ark:11
mcre0_si1121 raw_TIMIT_200ms/train/mcre0_si1121.ark:13
mjjj0_sx443 raw_TIMIT_200ms/train/mjjj0_sx443.ark:12
mjee0_sx427 raw_TIMIT_200ms/train/mjee0_sx427.ark:12
mpmb0_sx331 raw_TIMIT_200ms/train/mpmb0_sx331.ark:12
mrms0_sx210 raw_TIMIT_200ms/train/mrms0_sx210.ark:12
mmws1_sx81 raw_TIMIT_200ms/train/mmws1_sx81.ark:11
mmbs0_sx71 raw_TIMIT_200ms/train/mmbs0_sx71.ark:11
mrfl0_sx166 raw_TIMIT_200ms/train/mrfl0_sx166.ark:12
ftbw0_sx265 raw_TIMIT_200ms/train/ftbw0_sx265.ark:12
mjws0_sx153 raw_TIMIT_200ms/train/mjws0_sx153.ark:12
mejs0_sx250 raw_TIMIT_200ms/train/mejs0_sx250.ark:12
makb0_sx296 raw_TIMIT_200ms/train/makb0_sx296.ark:12
mwsh0_sx76 raw_TIMIT_200ms/train/mwsh0_sx76.ark:11
fcjs0_si977 raw_TIMIT_200ms/train/fcjs0_si977.ark:12
msfv0_sx182 raw_TIMIT_200ms/train/msfv0_sx182.ark:12
flma0_si1873 raw_TIMIT_200ms/train/flma0_si1873.ark:13
mrcw0_sx201 raw_TIMIT_200ms/train/mrcw0_sx201.ark:12
fjxm0_sx41 raw_TIMIT_200ms/train/fjxm0_sx41.ark:11
mrhl0_sx75 raw_TIMIT_200ms/train/mrhl0_sx75.ark:11
mrlk0_sx213 raw_TIMIT_200ms/train/mrlk0_sx213.ark:12
falk0_si456 raw_TIMIT_200ms/train/falk0_si456.ark:12
mstf0_sx136 raw_TIMIT_200ms/train/mstf0_sx136.ark:12
mtrt0_si597 raw_TIMIT_200ms/train/mtrt0_si597.ark:12
mlsh0_si787 raw_TIMIT_200ms/train/mlsh0_si787.ark:12
mdsj0_si832 raw_TIMIT_200ms/train/mdsj0_si832.ark:12
fjwb1_si748 raw_TIMIT_200ms/train/fjwb1_si748.ark:12
msas0_sx386 raw_TIMIT_200ms/train/msas0_sx386.ark:12
fcjf0_sx397 raw_TIMIT_200ms/train/fcjf0_sx397.ark:12
mwch0_si1895 raw_TIMIT_200ms/train/mwch0_si1895.ark:13
fjkl0_sx392 raw_TIMIT_200ms/train/fjkl0_sx392.ark:12
mhxl0_si612 raw_TIMIT_200ms/train/mhxl0_si612.ark:12
mmag0_sx46 raw_TIMIT_200ms/train/mmag0_sx46.ark:11
mcew0_si1442 raw_TIMIT_200ms/train/mcew0_si1442.ark:13
fjwb1_sx255 raw_TIMIT_200ms/train/fjwb1_sx255.ark:12
fkfb0_sx78 raw_TIMIT_200ms/train/fkfb0_sx78.ark:11
mdcm0_sx130 raw_TIMIT_200ms/train/mdcm0_sx130.ark:12
mjbg0_si1724 raw_TIMIT_200ms/train/mjbg0_si1724.ark:13
mrbc0_si1665 raw_TIMIT_200ms/train/mrbc0_si1665.ark:13
mjrg0_sx16 raw_TIMIT_200ms/train/mjrg0_sx16.ark:11
mbwp0_sx439 raw_TIMIT_200ms/train/mbwp0_sx439.ark:12
mfxv0_sx15 raw_TIMIT_200ms/train/mfxv0_sx15.ark:11
mtml0_sx165 raw_TIMIT_200ms/train/mtml0_sx165.ark:12
mhit0_sx263 raw_TIMIT_200ms/train/mhit0_sx263.ark:12
fljg0_sx81 raw_TIMIT_200ms/train/fljg0_sx81.ark:11
msrr0_si1131 raw_TIMIT_200ms/train/msrr0_si1131.ark:13
mjdm0_sx350 raw_TIMIT_200ms/train/mjdm0_sx350.ark:12
mpgh0_sx294 raw_TIMIT_200ms/train/mpgh0_sx294.ark:12
mkdt0_si893 raw_TIMIT_200ms/train/mkdt0_si893.ark:12
mmea0_si1388 raw_TIMIT_200ms/train/mmea0_si1388.ark:13
ftaj0_sx339 raw_TIMIT_200ms/train/ftaj0_sx339.ark:12
mbar0_si1949 raw_TIMIT_200ms/train/mbar0_si1949.ark:13
mdbb1_sx16 raw_TIMIT_200ms/train/mdbb1_sx16.ark:11
msas0_si746 raw_TIMIT_200ms/train/msas0_si746.ark:12
ftbw0_sx85 raw_TIMIT_200ms/train/ftbw0_sx85.ark:11
mgxp0_si457 raw_TIMIT_200ms/train/mgxp0_si457.ark:12
mrfk0_sx356 raw_TIMIT_200ms/train/mrfk0_sx356.ark:12
mdlm0_si604 raw_TIMIT_200ms/train/mdlm0_si604.ark:12
fsjw0_si1333 raw_TIMIT_200ms/train/fsjw0_si1333.ark:13
fsms1_sx64 raw_TIMIT_200ms/train/fsms1_sx64.ark:11
mgrl0_sx327 raw_TIMIT_200ms/train/mgrl0_sx327.ark:12
milb0_si903 raw_TIMIT_200ms/train/milb0_si903.ark:12
mmwb0_sx359 raw_TIMIT_200ms/train/mmwb0_sx359.ark:12
fklc0_si2245 raw_TIMIT_200ms/train/fklc0_si2245.ark:13
mtpf0_sx335 raw_TIMIT_200ms/train/mtpf0_sx335.ark:12
mrlj1_sx141 raw_TIMIT_200ms/train/mrlj1_sx141.ark:12
mdas0_si636 raw_TIMIT_200ms/train/mdas0_si636.ark:12
fdaw0_sx236 raw_TIMIT_200ms/train/fdaw0_sx236.ark:12
mrld0_sx244 raw_TIMIT_200ms/train/mrld0_sx244.ark:12
mtjg0_si1520 raw_TIMIT_200ms/train/mtjg0_si1520.ark:13
mejl0_si962 raw_TIMIT_200ms/train/mejl0_si962.ark:12
mtwh1_sx432 raw_TIMIT_200ms/train/mtwh1_sx432.ark:12
fnkl0_sx172 raw_TIMIT_200ms/train/fnkl0_sx172.ark:12
mpgr0_sx150 raw_TIMIT_200ms/train/mpgr0_sx150.ark:12
mtas0_sx125 raw_TIMIT_200ms/train/mtas0_sx125.ark:12
mtdp0_si1521 raw_TIMIT_200ms/train/mtdp0_si1521.ark:13
mfrm0_sx165 raw_TIMIT_200ms/train/mfrm0_sx165.ark:12
mtkd0_sx377 raw_TIMIT_200ms/train/mtkd0_sx377.ark:12
mwrp0_si2073 raw_TIMIT_200ms/train/mwrp0_si2073.ark:13
mjlg1_sx22 raw_TIMIT_200ms/train/mjlg1_sx22.ark:11
mzmb0_si1796 raw_TIMIT_200ms/train/mzmb0_si1796.ark:13
fpjf0_si1676 raw_TIMIT_200ms/train/fpjf0_si1676.ark:13
mgak0_si1036 raw_TIMIT_200ms/train/mgak0_si1036.ark:13
mges0_sx221 raw_TIMIT_200ms/train/mges0_sx221.ark:12
flod0_sx297 raw_TIMIT_200ms/train/flod0_sx297.ark:12
fsmm0_si1944 raw_TIMIT_200ms/train/fsmm0_si1944.ark:13
mkdd0_sx397 raw_TIMIT_200ms/train/mkdd0_sx397.ark:12
mgrp0_si1947 raw_TIMIT_200ms/train/mgrp0_si1947.ark:13
freh0_sx415 raw_TIMIT_200ms/train/freh0_sx415.ark:12
mrtj0_sx322 raw_TIMIT_200ms/train/mrtj0_sx322.ark:12
flmc0_sx112 raw_TIMIT_200ms/train/flmc0_sx112.ark:12
mjee0_sx67 raw_TIMIT_200ms/train/mjee0_sx67.ark:11
freh0_sx235 raw_TIMIT_200ms/train/freh0_sx235.ark:12
mmdb0_sx267 raw_TIMIT_200ms/train/mmdb0_sx267.ark:12
mwem0_sx150 raw_TIMIT_200ms/train/mwem0_sx150.ark:12
mjmm0_sx265 raw_TIMIT_200ms/train/mjmm0_sx265.ark:12
mbma1_si2207 raw_TIMIT_200ms/train/mbma1_si2207.ark:13
mmdm1_sx243 raw_TIMIT_200ms/train/mmdm1_sx243.ark:12
maeb0_sx270 raw_TIMIT_200ms/train/maeb0_sx270.ark:12
fsjs0_sx181 raw_TIMIT_200ms/train/fsjs0_sx181.ark:12
fkdw0_sx397 raw_TIMIT_200ms/train/fkdw0_sx397.ark:12
mmlm0_si2150 raw_TIMIT_200ms/train/mmlm0_si2150.ark:13
fjxp0_sx132 raw_TIMIT_200ms/train/fjxp0_sx132.ark:12
fcmg0_sx72 raw_TIMIT_200ms/train/fcmg0_sx72.ark:11
mpmb0_si1501 raw_TIMIT_200ms/train/mpmb0_si1501.ark:13
mwem0_si1320 raw_TIMIT_200ms/train/mwem0_si1320.ark:13
milb0_sx363 raw_TIMIT_200ms/train/milb0_sx363.ark:12
mabc0_sx151 raw_TIMIT_200ms/train/mabc0_sx151.ark:12
fcrz0_sx433 raw_TIMIT_200ms/train/fcrz0_sx433.ark:12
fscn0_sx446 raw_TIMIT_200ms/train/fscn0_sx446.ark:12
mmar0_sx76 raw_TIMIT_200ms/train/mmar0_sx76.ark:11
mtpp0_sx428 raw_TIMIT_200ms/train/mtpp0_sx428.ark:12
mfer0_si2122 raw_TIMIT_200ms/train/mfer0_si2122.ark:13
mmwb0_sx449 raw_TIMIT_200ms/train/mmwb0_sx449.ark:12
mdac0_sx271 raw_TIMIT_200ms/train/mdac0_sx271.ark:12
fmju0_sx399 raw_TIMIT_200ms/train/fmju0_sx399.ark:12
mhit0_sx83 raw_TIMIT_200ms/train/mhit0_sx83.ark:11
fjxm0_sx131 raw_TIMIT_200ms/train/fjxm0_sx131.ark:12
mchl0_si1977 raw_TIMIT_200ms/train/mchl0_si1977.ark:13
fltm0_si1070 raw_TIMIT_200ms/train/fltm0_si1070.ark:13
fgcs0_si1486 raw_TIMIT_200ms/train/fgcs0_si1486.ark:13
fcyl0_sx37 raw_TIMIT_200ms/train/fcyl0_sx37.ark:11
fcyl0_sx217 raw_TIMIT_200ms/train/fcyl0_sx217.ark:12
fecd0_sx68 raw_TIMIT_200ms/train/fecd0_sx68.ark:11
mwsb0_si2256 raw_TIMIT_200ms/train/mwsb0_si2256.ark:13
mdbp0_sx78 raw_TIMIT_200ms/train/mdbp0_sx78.ark:11
mdem0_sx68 raw_TIMIT_200ms/train/mdem0_sx68.ark:11
fvfb0_sx312 raw_TIMIT_200ms/train/fvfb0_sx312.ark:12
mafm0_si1569 raw_TIMIT_200ms/train/mafm0_si1569.ark:13
fltm0_sx170 raw_TIMIT_200ms/train/fltm0_sx170.ark:12
meal0_si1547 raw_TIMIT_200ms/train/meal0_si1547.ark:13
fsrh0_si1931 raw_TIMIT_200ms/train/fsrh0_si1931.ark:13
mkln0_sx338 raw_TIMIT_200ms/train/mkln0_sx338.ark:12
mtlb0_si1764 raw_TIMIT_200ms/train/mtlb0_si1764.ark:13
mrmh0_si1349 raw_TIMIT_200ms/train/mrmh0_si1349.ark:13
mmaa0_sx125 raw_TIMIT_200ms/train/mmaa0_sx125.ark:12
mrgs0_si1356 raw_TIMIT_200ms/train/mrgs0_si1356.ark:13
mhxl0_sx62 raw_TIMIT_200ms/train/mhxl0_sx62.ark:11
mdlc1_sx175 raw_TIMIT_200ms/train/mdlc1_sx175.ark:12
mdlc0_si2025 raw_TIMIT_200ms/train/mdlc0_si2025.ark:13
mjmm0_sx175 raw_TIMIT_200ms/train/mjmm0_sx175.ark:12
fbmh0_sx326 raw_TIMIT_200ms/train/fbmh0_sx326.ark:12
msds0_si2337 raw_TIMIT_200ms/train/msds0_si2337.ark:13
mhmg0_sx105 raw_TIMIT_200ms/train/mhmg0_sx105.ark:12
mbef0_sx111 raw_TIMIT_200ms/train/mbef0_sx111.ark:12
mhmr0_sx39 raw_TIMIT_200ms/train/mhmr0_sx39.ark:11
frll0_sx344 raw_TIMIT_200ms/train/frll0_sx344.ark:12
mpar0_si2206 raw_TIMIT_200ms/train/mpar0_si2206.ark:13
