mjdg0_sx52 quick_test/fbank/raw_fbank_train.3.ark:2461719
mrcw0_sx201 quick_test/fbank/raw_fbank_train.4.ark:1327378
mjjm0_sx377 quick_test/fbank/raw_fbank_train.3.ark:3472729
fkdw0_si1891 quick_test/fbank/raw_fbank_train.1.ark:6413569
mkam0_sx146 quick_test/fbank/raw_fbank_train.3.ark:6000610
flhd0_sx84 quick_test/fbank/raw_fbank_train.1.ark:7595724
mhmg0_sx105 quick_test/fbank/raw_fbank_train.3.ark:1225850
fgmb0_sx425 quick_test/fbank/raw_fbank_train.1.ark:4477811
mgrp0_si1317 quick_test/fbank/raw_fbank_train.3.ark:482900
maeb0_sx450 quick_test/fbank/raw_fbank_train.2.ark:2381439
mdks0_si1066 quick_test/fbank/raw_fbank_train.2.ark:7282953
mdas0_si1266 quick_test/fbank/raw_fbank_train.2.ark:6106815
mkdt0_si893 quick_test/fbank/raw_fbank_train.3.ark:6282650
fscn0_si705 quick_test/fbank/raw_fbank_train.1.ark:11333241
mctm0_sx270 quick_test/fbank/raw_fbank_train.2.ark:5863793
mejs0_sx160 quick_test/fbank/raw_fbank_train.2.ark:10067273
mmbs0_si521 quick_test/fbank/raw_fbank_train.3.ark:8416499
mree0_si1104 quick_test/fbank/raw_fbank_train.4.ark:1644066
mdbb1_sx106 quick_test/fbank/raw_fbank_train.2.ark:6236418
mewm0_si1348 quick_test/fbank/raw_fbank_train.2.ark:10310406
mpmb0_sx241 quick_test/fbank/raw_fbank_train.3.ark:11379833
fnkl0_si2152 quick_test/fbank/raw_fbank_train.1.ark:9582305
fpjf0_si1259 quick_test/fbank/raw_fbank_train.1.ark:10309879
mrcw0_si2001 quick_test/fbank/raw_fbank_train.4.ark:1288079
msas0_sx26 quick_test/fbank/raw_fbank_train.4.ark:5384975
mpfu0_si1258 quick_test/fbank/raw_fbank_train.3.ark:10909360
mhrm0_sx238 quick_test/fbank/raw_fbank_train.3.ark:1420813
msdb0_si1637 quick_test/fbank/raw_fbank_train.4.ark:5606680
mmrp0_sx54 quick_test/fbank/raw_fbank_train.3.ark:9903718
mwrp0_sx3 quick_test/fbank/raw_fbank_train.4.ark:11322337
mrsp0_sx259 quick_test/fbank/raw_fbank_train.4.ark:4582255
fsah0_si614 quick_test/fbank/raw_fbank_train.1.ark:11021206
mrmh0_si1021 quick_test/fbank/raw_fbank_train.4.ark:3886016
mesg0_si1962 quick_test/fbank/raw_fbank_train.2.ark:10137152
fsjk1_sx395 quick_test/fbank/raw_fbank_train.2.ark:32110
mmeb0_sx187 quick_test/fbank/raw_fbank_train.3.ark:9201092
fsms1_sx64 quick_test/fbank/raw_fbank_train.2.ark:939296
fsrh0_sx401 quick_test/fbank/raw_fbank_train.2.ark:1128634
mrwa0_sx343 quick_test/fbank/raw_fbank_train.4.ark:4997035
mrdd0_si1050 quick_test/fbank/raw_fbank_train.4.ark:1364790
mdhs0_sx180 quick_test/fbank/raw_fbank_train.2.ark:7135763
mtrr0_si2178 quick_test/fbank/raw_fbank_train.4.ark:9820585
flja0_si1078 quick_test/fbank/raw_fbank_train.1.ark:7609278
fdjh0_si935 quick_test/fbank/raw_fbank_train.1.ark:2715635
mdma0_si1430 quick_test/fbank/raw_fbank_train.2.ark:8202533
mhxl0_si1772 quick_test/fbank/raw_fbank_train.3.ark:1472465
mvlo0_si517 quick_test/fbank/raw_fbank_train.4.ark:10320984
fcaj0_sx129 quick_test/fbank/raw_fbank_train.1.ark:1374195
mrsp0_si799 quick_test/fbank/raw_fbank_train.4.ark:4548796
mtml0_sx165 quick_test/fbank/raw_fbank_train.4.ark:8935987
mhmg0_si1365 quick_test/fbank/raw_fbank_train.3.ark:1184870
mmds0_sx263 quick_test/fbank/raw_fbank_train.3.ark:9044275
fcyl0_si667 quick_test/fbank/raw_fbank_train.1.ark:2320253
mjlb0_sx446 quick_test/fbank/raw_fbank_train.3.ark:3658907
fjrb0_sx402 quick_test/fbank/raw_fbank_train.1.ark:5521828
mjmd0_si2288 quick_test/fbank/raw_fbank_train.3.ark:3979317
mrws0_sx292 quick_test/fbank/raw_fbank_train.4.ark:5098052
mjrh1_sx334 quick_test/fbank/raw_fbank_train.3.ark:4795337
mtlc0_si1477 quick_test/fbank/raw_fbank_train.4.ark:8821975
mrdd0_sx240 quick_test/fbank/raw_fbank_train.4.ark:1411364
mjae0_sx174 quick_test/fbank/raw_fbank_train.3.ark:1797037
fapb0_sx433 quick_test/fbank/raw_fbank_train.1.ark:495268
marw0_si1906 quick_test/fbank/raw_fbank_train.2.ark:3083917
mhxl0_si512 quick_test/fbank/raw_fbank_train.3.ark:1484138
mrvg0_sx60 quick_test/fbank/raw_fbank_train.4.ark:4928715
mjls0_sx286 quick_test/fbank/raw_fbank_train.3.ark:3844277
mddc0_sx249 quick_test/fbank/raw_fbank_train.2.ark:6640591
mjeb0_sx26 quick_test/fbank/raw_fbank_train.3.ark:2649863
fcyl0_sx397 quick_test/fbank/raw_fbank_train.1.ark:2385857
mjrg0_sx352 quick_test/fbank/raw_fbank_train.3.ark:4600078
maeb0_si990 quick_test/fbank/raw_fbank_train.2.ark:2334347
fgmb0_si1775 quick_test/fbank/raw_fbank_train.1.ark:4403806
fcmg0_sx342 quick_test/fbank/raw_fbank_train.1.ark:2066397
mmlm0_sx87 quick_test/fbank/raw_fbank_train.3.ark:9702868
mjfh0_si477 quick_test/fbank/raw_fbank_train.3.ark:2905800
fbjl0_si2182 quick_test/fbank/raw_fbank_train.1.ark:853843
fmem0_si1377 quick_test/fbank/raw_fbank_train.1.ark:8717275
fapb0_si1063 quick_test/fbank/raw_fbank_train.1.ark:403268
fsrh0_sx221 quick_test/fbank/raw_fbank_train.2.ark:1096648
fvmh0_sx296 quick_test/fbank/raw_fbank_train.2.ark:2002378
fgcs0_sx226 quick_test/fbank/raw_fbank_train.1.ark:4224575
mjeb1_si2097 quick_test/fbank/raw_fbank_train.3.ark:2698197
mrdd0_sx330 quick_test/fbank/raw_fbank_train.4.ark:1432070
mtkp0_sx213 quick_test/fbank/raw_fbank_train.4.ark:8663144
mdps0_si1651 quick_test/fbank/raw_fbank_train.2.ark:8693945
milb0_si2163 quick_test/fbank/raw_fbank_train.3.ark:1574529
mdma0_si1238 quick_test/fbank/raw_fbank_train.2.ark:8193699
mjsr0_sx254 quick_test/fbank/raw_fbank_train.3.ark:5077779
fjrp1_sx172 quick_test/fbank/raw_fbank_train.1.ark:5595234
mrjb1_si1413 quick_test/fbank/raw_fbank_train.4.ark:2587324
mclm0_sx286 quick_test/fbank/raw_fbank_train.2.ark:5397814
mhmg0_si1995 quick_test/fbank/raw_fbank_train.3.ark:1196064
mgsh0_sx276 quick_test/fbank/raw_fbank_train.3.ark:662491
mdlr0_sx333 quick_test/fbank/raw_fbank_train.2.ark:8045855
mafm0_si1569 quick_test/fbank/raw_fbank_train.2.ark:2499331
mefg0_sx375 quick_test/fbank/raw_fbank_train.2.ark:9815531
fsms1_sx347 quick_test/fbank/raw_fbank_train.2.ark:923104
mwdk0_si2017 quick_test/fbank/raw_fbank_train.4.ark:10873544
fksr0_sx161 quick_test/fbank/raw_fbank_train.1.ark:7052266
fexm0_sx291 quick_test/fbank/raw_fbank_train.1.ark:4132582
mrml0_si1421 quick_test/fbank/raw_fbank_train.4.ark:3977682
mjsr0_si2054 quick_test/fbank/raw_fbank_train.3.ark:5022080
mmgk0_sx332 quick_test/fbank/raw_fbank_train.3.ark:9493513
mkrg0_si861 quick_test/fbank/raw_fbank_train.3.ark:7074933
mbml0_sx179 quick_test/fbank/raw_fbank_train.2.ark:3968008
mtxs0_sx160 quick_test/fbank/raw_fbank_train.4.ark:10133927
fkde0_si1141 quick_test/fbank/raw_fbank_train.1.ark:6283389
mjrk0_sx70 quick_test/fbank/raw_fbank_train.3.ark:4912907
mbgt0_sx171 quick_test/fbank/raw_fbank_train.2.ark:3578628
fjkl0_si932 quick_test/fbank/raw_fbank_train.1.ark:5171300
mdps0_sx449 quick_test/fbank/raw_fbank_train.2.ark:8760984
mmdm0_sx411 quick_test/fbank/raw_fbank_train.3.ark:8875371
mvlo0_sx247 quick_test/fbank/raw_fbank_train.4.ark:10348410
mejl0_si962 quick_test/fbank/raw_fbank_train.2.ark:9959415
mfxs0_sx234 quick_test/fbank/raw_fbank_train.2.ark:10813826
mdbp0_sx348 quick_test/fbank/raw_fbank_train.2.ark:6353469
fpjf0_si1676 quick_test/fbank/raw_fbank_train.1.ark:10326473
mjwg0_sx175 quick_test/fbank/raw_fbank_train.3.ark:5184850
mcal0_si508 quick_test/fbank/raw_fbank_train.2.ark:4546682
mejl0_sx332 quick_test/fbank/raw_fbank_train.2.ark:9992834
mwac0_sx251 quick_test/fbank/raw_fbank_train.4.ark:10542300
mjmd0_si1658 quick_test/fbank/raw_fbank_train.3.ark:3975083
mfer0_sx412 quick_test/fbank/raw_fbank_train.2.ark:10459630
mwdk0_si1436 quick_test/fbank/raw_fbank_train.4.ark:10856870
mtkd0_si630 quick_test/fbank/raw_fbank_train.4.ark:8518253
mdtb0_si1830 quick_test/fbank/raw_fbank_train.2.ark:9174784
mtrr0_sx288 quick_test/fbank/raw_fbank_train.4.ark:9881909
mtjm0_sx146 quick_test/fbank/raw_fbank_train.4.ark:8228531
mctm0_sx180 quick_test/fbank/raw_fbank_train.2.ark:5852160
mpar0_sx136 quick_test/fbank/raw_fbank_train.3.ark:10765690
mrjm0_si1095 quick_test/fbank/raw_fbank_train.4.ark:2807340
msjk0_sx336 quick_test/fbank/raw_fbank_train.4.ark:6397470
msfv0_sx272 quick_test/fbank/raw_fbank_train.4.ark:6277012
msmc0_si509 quick_test/fbank/raw_fbank_train.4.ark:6449402
mvrw0_sx135 quick_test/fbank/raw_fbank_train.4.ark:10434242
mpgr1_sx239 quick_test/fbank/raw_fbank_train.3.ark:11240568
mkdb0_sx242 quick_test/fbank/raw_fbank_train.3.ark:6103267
mdpb0_sx416 quick_test/fbank/raw_fbank_train.2.ark:8582974
mrgs0_sx6 quick_test/fbank/raw_fbank_train.4.ark:2452199
fecd0_sx248 quick_test/fbank/raw_fbank_train.1.ark:3698529
mwad0_sx252 quick_test/fbank/raw_fbank_train.4.ark:10639166
fsjw0_sx163 quick_test/fbank/raw_fbank_train.2.ark:194309
mcpm0_si1824 quick_test/fbank/raw_fbank_train.2.ark:5432795
mjra0_sx336 quick_test/fbank/raw_fbank_train.3.ark:4488981
fvkb0_sx439 quick_test/fbank/raw_fbank_train.2.ark:1902394
fljd0_sx76 quick_test/fbank/raw_fbank_train.1.ark:7803055
mjde0_sx220 quick_test/fbank/raw_fbank_train.3.ark:2313875
mreh1_sx429 quick_test/fbank/raw_fbank_train.4.ark:1831531
mcdr0_sx254 quick_test/fbank/raw_fbank_train.2.ark:4872703
mdns0_sx291 quick_test/fbank/raw_fbank_train.2.ark:8480508
mrfl0_sx346 quick_test/fbank/raw_fbank_train.4.ark:2211958
mkam0_sx56 quick_test/fbank/raw_fbank_train.3.ark:6044461
mdwm0_sx286 quick_test/fbank/raw_fbank_train.2.ark:9519991
msfh0_sx316 quick_test/fbank/raw_fbank_train.4.ark:6180380
madc0_sx197 quick_test/fbank/raw_fbank_train.2.ark:2174275
mppc0_sx422 quick_test/fbank/raw_fbank_train.4.ark:24198
mrlr0_sx206 quick_test/fbank/raw_fbank_train.4.ark:3651353
fcyl0_sx217 quick_test/fbank/raw_fbank_train.1.ark:2348999
mrtc0_si1458 quick_test/fbank/raw_fbank_train.4.ark:4619954
mrkm0_si1267 quick_test/fbank/raw_fbank_train.4.ark:3113696
mtmn0_sx74 quick_test/fbank/raw_fbank_train.4.ark:9096343
mdps0_si719 quick_test/fbank/raw_fbank_train.2.ark:8714852
mrfk0_si1706 quick_test/fbank/raw_fbank_train.4.ark:2068640
flkm0_si620 quick_test/fbank/raw_fbank_train.1.ark:7946267
fjwb1_si795 quick_test/fbank/raw_fbank_train.1.ark:5903916
mkxl0_si1815 quick_test/fbank/raw_fbank_train.3.ark:7147724
mwsb0_si2256 quick_test/fbank/raw_fbank_train.4.ark:11364590
mstf0_sx316 quick_test/fbank/raw_fbank_train.4.ark:6996217
mtlc0_sx127 quick_test/fbank/raw_fbank_train.4.ark:8851801
mdem0_si800 quick_test/fbank/raw_fbank_train.2.ark:6907000
fspm0_sx161 quick_test/fbank/raw_fbank_train.2.ark:992630
fbch0_sx236 quick_test/fbank/raw_fbank_train.1.ark:789957
mcre0_sx221 quick_test/fbank/raw_fbank_train.2.ark:5560080
mdbb1_si1636 quick_test/fbank/raw_fbank_train.2.ark:6213191
mtdb0_sx141 quick_test/fbank/raw_fbank_train.4.ark:7805471
mrkm0_sx7 quick_test/fbank/raw_fbank_train.4.ark:3214373
fpab1_sx301 quick_test/fbank/raw_fbank_train.1.ark:9843926
mmgg0_sx179 quick_test/fbank/raw_fbank_train.3.ark:9386422
mtpr0_si1600 quick_test/fbank/raw_fbank_train.4.ark:9481037
mddc0_sx429 quick_test/fbank/raw_fbank_train.2.ark:6659777
mtas0_sx35 quick_test/fbank/raw_fbank_train.4.ark:7334604
mrjt0_sx328 quick_test/fbank/raw_fbank_train.4.ark:3069037
fjrp1_sx262 quick_test/fbank/raw_fbank_train.1.ark:5610187
mbjv0_sx347 quick_test/fbank/raw_fbank_train.2.ark:3699879
mrcg0_sx438 quick_test/fbank/raw_fbank_train.4.ark:1242659
mjls0_si1726 quick_test/fbank/raw_fbank_train.3.ark:3783393
msfv0_si1262 quick_test/fbank/raw_fbank_train.4.ark:6221279
mrml0_si2051 quick_test/fbank/raw_fbank_train.4.ark:4001396
mcae0_sx187 quick_test/fbank/raw_fbank_train.2.ark:4457132
flma0_si613 quick_test/fbank/raw_fbank_train.1.ark:8067645
mmgg0_sx449 quick_test/fbank/raw_fbank_train.3.ark:9421361
fklh0_sx447 quick_test/fbank/raw_fbank_train.1.ark:6995180
fhlm0_sx300 quick_test/fbank/raw_fbank_train.1.ark:4674189
mjdg0_si1705 quick_test/fbank/raw_fbank_train.3.ark:2405395
mdef0_sx123 quick_test/fbank/raw_fbank_train.2.ark:6828569
mtat0_si1740 quick_test/fbank/raw_fbank_train.4.ark:7372305
mcss0_si1380 quick_test/fbank/raw_fbank_train.2.ark:5609571
mrsp0_sx439 quick_test/fbank/raw_fbank_train.4.ark:4594248
fdaw0_sx56 quick_test/fbank/raw_fbank_train.1.ark:2595188
mrab1_sx128 quick_test/fbank/raw_fbank_train.4.ark:704233
feme0_sx245 quick_test/fbank/raw_fbank_train.1.ark:3909579
fjsp0_sx84 quick_test/fbank/raw_fbank_train.1.ark:5862656
fksr0_sx37 quick_test/fbank/raw_fbank_train.1.ark:7093684
mapv0_si663 quick_test/fbank/raw_fbank_train.2.ark:2915700
fkde0_si1771 quick_test/fbank/raw_fbank_train.1.ark:6302543
flkm0_sx116 quick_test/fbank/raw_fbank_train.1.ark:7975013
ftaj0_sx429 quick_test/fbank/raw_fbank_train.2.ark:1321244
mmdm0_si1941 quick_test/fbank/raw_fbank_train.3.ark:8823126
mmdg0_sx250 quick_test/fbank/raw_fbank_train.3.ark:8752360
mdrd0_sx392 quick_test/fbank/raw_fbank_train.2.ark:8883001
mkaj0_sx244 quick_test/fbank/raw_fbank_train.3.ark:5910577
mtpf0_sx335 quick_test/fbank/raw_fbank_train.4.ark:9267608
meal0_sx197 quick_test/fbank/raw_fbank_train.2.ark:9595784
fsjg0_si2200 quick_test/fbank/raw_fbank_train.1.ark:11719189
fsjk1_sx35 quick_test/fbank/raw_fbank_train.2.ark:22477
feme0_si1505 quick_test/fbank/raw_fbank_train.1.ark:3853486
mdrd0_si2012 quick_test/fbank/raw_fbank_train.2.ark:8794964
mljh0_si694 quick_test/fbank/raw_fbank_train.3.ark:7581698
madd0_sx268 quick_test/fbank/raw_fbank_train.2.ark:2258908
fjlg0_si2306 quick_test/fbank/raw_fbank_train.1.ark:5279526
mjwt0_sx31 quick_test/fbank/raw_fbank_train.3.ark:5443958
mrjt0_sx148 quick_test/fbank/raw_fbank_train.4.ark:3047651
mtrt0_sx57 quick_test/fbank/raw_fbank_train.4.ark:9993007
mdss1_si1713 quick_test/fbank/raw_fbank_train.2.ark:9091199
msat1_sx353 quick_test/fbank/raw_fbank_train.4.ark:5556787
mjmd0_si1028 quick_test/fbank/raw_fbank_train.3.ark:3965689
mmcc0_sx438 quick_test/fbank/raw_fbank_train.3.ark:8582536
fbmh0_si1136 quick_test/fbank/raw_fbank_train.1.ark:1048380
mdlh0_si1960 quick_test/fbank/raw_fbank_train.2.ark:7791800
mrab1_sx398 quick_test/fbank/raw_fbank_train.4.ark:752604
mdps0_sx89 quick_test/fbank/raw_fbank_train.2.ark:8774296
falr0_si1955 quick_test/fbank/raw_fbank_train.1.ark:324237
msat1_si2333 quick_test/fbank/raw_fbank_train.4.ark:5520288
msem1_sx180 quick_test/fbank/raw_fbank_train.4.ark:5946063
mcxm0_sx91 quick_test/fbank/raw_fbank_train.2.ark:5993276
mtju0_sx40 quick_test/fbank/raw_fbank_train.4.ark:8468399
mcth0_sx219 quick_test/fbank/raw_fbank_train.2.ark:5761408
frll0_si805 quick_test/fbank/raw_fbank_train.1.ark:10791283
msmr0_sx415 quick_test/fbank/raw_fbank_train.4.ark:6616032
mmxs0_sx336 quick_test/fbank/raw_fbank_train.3.ark:10500842
fcdr1_sx286 quick_test/fbank/raw_fbank_train.1.ark:1529638
mtwh1_sx252 quick_test/fbank/raw_fbank_train.4.ark:10045654
mdlm0_si1234 quick_test/fbank/raw_fbank_train.2.ark:7895504
mrew1_sx330 quick_test/fbank/raw_fbank_train.4.ark:2009067
mrkm0_si637 quick_test/fbank/raw_fbank_train.4.ark:3152843
mjlg1_sx202 quick_test/fbank/raw_fbank_train.3.ark:3728907
mjws0_si513 quick_test/fbank/raw_fbank_train.3.ark:5268402
mjpm0_si1368 quick_test/fbank/raw_fbank_train.3.ark:4228245
mtdb0_sx51 quick_test/fbank/raw_fbank_train.4.ark:7851322
mbar0_si1319 quick_test/fbank/raw_fbank_train.2.ark:3176028
mdcm0_sx220 quick_test/fbank/raw_fbank_train.2.ark:6544366
mjjj0_sx83 quick_test/fbank/raw_fbank_train.3.ark:3374184
mjdg0_sx142 quick_test/fbank/raw_fbank_train.3.ark:2414628
fpaz0_sx153 quick_test/fbank/raw_fbank_train.1.ark:10238561
mprb0_si1205 quick_test/fbank/raw_fbank_train.4.ark:49464
mjpg0_si1191 quick_test/fbank/raw_fbank_train.3.ark:4143660
mmds0_si1343 quick_test/fbank/raw_fbank_train.3.ark:9002662
mjmd0_sx218 quick_test/fbank/raw_fbank_train.3.ark:4006943
mesg0_sx72 quick_test/fbank/raw_fbank_train.2.ark:10216749
fljd0_sx166 quick_test/fbank/raw_fbank_train.1.ark:7754924
mtpp0_si2138 quick_test/fbank/raw_fbank_train.4.ark:9405806
mrvg0_si1140 quick_test/fbank/raw_fbank_train.4.ark:4854044
mjjj0_sx263 quick_test/fbank/raw_fbank_train.3.ark:3334526
mtwh1_sx432 quick_test/fbank/raw_fbank_train.4.ark:10067600
mprt0_sx130 quick_test/fbank/raw_fbank_train.4.ark:431518
mfer0_sx142 quick_test/fbank/raw_fbank_train.2.ark:10425291
mgjc0_sx345 quick_test/fbank/raw_fbank_train.3.ark:342976
fcyl0_sx37 quick_test/fbank/raw_fbank_train.1.ark:2375024
fmjf0_si624 quick_test/fbank/raw_fbank_train.1.ark:8947831
mwgr0_si2236 quick_test/fbank/raw_fbank_train.4.ark:11069995
fsms1_si1504 quick_test/fbank/raw_fbank_train.2.ark:851665
mrvg0_si1770 quick_test/fbank/raw_fbank_train.4.ark:4864638
fsma0_sx361 quick_test/fbank/raw_fbank_train.2.ark:703381
fjrb0_sx42 quick_test/fbank/raw_fbank_train.1.ark:5540180
fmpg0_si1602 quick_test/fbank/raw_fbank_train.1.ark:9445206
fsmm0_sx414 quick_test/fbank/raw_fbank_train.2.ark:823439
mjpm1_si761 quick_test/fbank/raw_fbank_train.3.ark:4346177
ftmg0_sx272 quick_test/fbank/raw_fbank_train.2.ark:1688637
mwdk0_sx446 quick_test/fbank/raw_fbank_train.4.ark:10933829
mrxb0_sx415 quick_test/fbank/raw_fbank_train.4.ark:5200438
mdjm0_sx375 quick_test/fbank/raw_fbank_train.2.ark:7271199
fetb0_sx338 quick_test/fbank/raw_fbank_train.1.ark:4021517
msat1_si1073 quick_test/fbank/raw_fbank_train.4.ark:5496060
fbjl0_si1552 quick_test/fbank/raw_fbank_train.1.ark:841289
marc0_sx108 quick_test/fbank/raw_fbank_train.2.ark:3021398
fsag0_sx423 quick_test/fbank/raw_fbank_train.1.ark:10963873
mjjm0_si827 quick_test/fbank/raw_fbank_train.3.ark:3419405
mwch0_si1622 quick_test/fbank/raw_fbank_train.4.ark:10772924
fcmg0_si1872 quick_test/fbank/raw_fbank_train.1.ark:2031618
mrws0_si472 quick_test/fbank/raw_fbank_train.4.ark:5060801
fltm0_sx350 quick_test/fbank/raw_fbank_train.1.ark:8479047
mmeb0_sx97 quick_test/fbank/raw_fbank_train.3.ark:9246861
mbma0_sx52 quick_test/fbank/raw_fbank_train.2.ark:3819009
fpjf0_sx352 quick_test/fbank/raw_fbank_train.1.ark:10367085
fpls0_si1590 quick_test/fbank/raw_fbank_train.1.ark:10394991
mtxs0_si1060 quick_test/fbank/raw_fbank_train.4.ark:10089186
fdjh0_si2195 quick_test/fbank/raw_fbank_train.1.ark:2702882
mrjm1_si1298 quick_test/fbank/raw_fbank_train.4.ark:2909966
feeh0_sx212 quick_test/fbank/raw_fbank_train.1.ark:3803434
mtrr0_si1548 quick_test/fbank/raw_fbank_train.4.ark:9810871
mtpp0_sx428 quick_test/fbank/raw_fbank_train.4.ark:9457771
msat1_sx443 quick_test/fbank/raw_fbank_train.4.ark:5568340
mbef0_sx21 quick_test/fbank/raw_fbank_train.2.ark:3515748
medr0_si2004 quick_test/fbank/raw_fbank_train.2.ark:9647431
fsak0_sx130 quick_test/fbank/raw_fbank_train.1.ark:11140744
mtkp0_sx123 quick_test/fbank/raw_fbank_train.4.ark:8651111
mwem0_sx240 quick_test/fbank/raw_fbank_train.4.ark:10998749
feac0_sx255 quick_test/fbank/raw_fbank_train.1.ark:3485039
makb0_sx26 quick_test/fbank/raw_fbank_train.2.ark:2778908
mprb0_si1215 quick_test/fbank/raw_fbank_train.4.ark:59058
mwsh0_si2266 quick_test/fbank/raw_fbank_train.4.ark:11460253
fdxw0_si1511 quick_test/fbank/raw_fbank_train.1.ark:3343801
mtpf0_si1865 quick_test/fbank/raw_fbank_train.4.ark:9219836
mdef0_sx33 quick_test/fbank/raw_fbank_train.2.ark:6858107
mkaj0_sx424 quick_test/fbank/raw_fbank_train.3.ark:5931403
ftaj0_sx69 quick_test/fbank/raw_fbank_train.2.ark:1330876
msmr0_sx235 quick_test/fbank/raw_fbank_train.4.ark:6594366
fpaf0_sx424 quick_test/fbank/raw_fbank_train.1.ark:10171995
msdh0_si980 quick_test/fbank/raw_fbank_train.4.ark:5674379
mbjv0_si1247 quick_test/fbank/raw_fbank_train.2.ark:3645553
mrmg0_sx180 quick_test/fbank/raw_fbank_train.4.ark:3825691
mjai0_sx74 quick_test/fbank/raw_fbank_train.3.ark:1957352
msms0_sx353 quick_test/fbank/raw_fbank_train.4.ark:6702744
mmsm0_sx26 quick_test/fbank/raw_fbank_train.3.ark:9988037
mrpc1_sx222 quick_test/fbank/raw_fbank_train.4.ark:4232267
mjee0_sx247 quick_test/fbank/raw_fbank_train.3.ark:2829761
mtlc0_sx397 quick_test/fbank/raw_fbank_train.4.ark:8883612
mmjb1_sx148 quick_test/fbank/raw_fbank_train.3.ark:9561912
mfwk0_sx439 quick_test/fbank/raw_fbank_train.2.ark:10750346
mbma1_sx324 quick_test/fbank/raw_fbank_train.2.ark:3891569
fbcg1_si982 quick_test/fbank/raw_fbank_train.1.ark:648827
mprk0_si1727 quick_test/fbank/raw_fbank_train.4.ark:301348
mjpm0_si1998 quick_test/fbank/raw_fbank_train.3.ark:4246199
mtrt0_sx237 quick_test/fbank/raw_fbank_train.4.ark:9965469
mwsb0_si1626 quick_test/fbank/raw_fbank_train.4.ark:11353676
mmwb0_si989 quick_test/fbank/raw_fbank_train.3.ark:10178150
mjma0_sx235 quick_test/fbank/raw_fbank_train.3.ark:3926477
mmbs0_sx71 quick_test/fbank/raw_fbank_train.3.ark:8497263
mejs0_si1240 quick_test/fbank/raw_fbank_train.2.ark:10028493
mdjm0_sx195 quick_test/fbank/raw_fbank_train.2.ark:7252453
mcre0_sx401 quick_test/fbank/raw_fbank_train.2.ark:5582985
mdlr1_sx399 quick_test/fbank/raw_fbank_train.2.ark:8182505
mdlb0_si1936 quick_test/fbank/raw_fbank_train.2.ark:7408213
mcew0_sx272 quick_test/fbank/raw_fbank_train.2.ark:5069713
mwad0_sx342 quick_test/fbank/raw_fbank_train.4.ark:10647799
mtab0_si2202 quick_test/fbank/raw_fbank_train.4.ark:7180135
mjjj0_si1793 quick_test/fbank/raw_fbank_train.3.ark:3296307
mdlr0_sx243 quick_test/fbank/raw_fbank_train.2.ark:8032982
fhxs0_si1075 quick_test/fbank/raw_fbank_train.1.ark:4717169
mdmt0_si572 quick_test/fbank/raw_fbank_train.2.ark:8323032
mrml0_sx251 quick_test/fbank/raw_fbank_train.4.ark:4043055
feme0_sx65 quick_test/fbank/raw_fbank_train.1.ark:3952037
mtjg0_sx80 quick_test/fbank/raw_fbank_train.4.ark:8174757
mdwh0_sx395 quick_test/fbank/raw_fbank_train.2.ark:9444512
fetb0_si1778 quick_test/fbank/raw_fbank_train.1.ark:3972865
mdpk0_si1053 quick_test/fbank/raw_fbank_train.2.ark:8604360
fmkc0_si1072 quick_test/fbank/raw_fbank_train.1.ark:9157328
fmkf0_sx276 quick_test/fbank/raw_fbank_train.1.ark:9295893
mrre0_sx434 quick_test/fbank/raw_fbank_train.4.ark:4369797
mrgm0_sx442 quick_test/fbank/raw_fbank_train.4.ark:2338056
mwgr0_sx76 quick_test/fbank/raw_fbank_train.4.ark:11143952
mdlc2_sx264 quick_test/fbank/raw_fbank_train.2.ark:7748588
fsbk0_sx349 quick_test/fbank/raw_fbank_train.1.ark:11257876
flod0_si1287 quick_test/fbank/raw_fbank_train.1.ark:8329334
fmem0_sx387 quick_test/fbank/raw_fbank_train.1.ark:8813507
fbas0_sx217 quick_test/fbank/raw_fbank_train.1.ark:593028
mmea0_sx218 quick_test/fbank/raw_fbank_train.3.ark:9125700
mmbs0_si1781 quick_test/fbank/raw_fbank_train.3.ark:8408106
fjsk0_sx332 quick_test/fbank/raw_fbank_train.1.ark:5739206
ftbr0_sx381 quick_test/fbank/raw_fbank_train.2.ark:1427661
mdrd0_si752 quick_test/fbank/raw_fbank_train.2.ark:8805877
fsjk1_si2285 quick_test/fbank/raw_fbank_train.1.ark:11852134
mjdm0_sx350 quick_test/fbank/raw_fbank_train.3.ark:2539959
mmgg0_si2339 quick_test/fbank/raw_fbank_train.3.ark:9376869
mbom0_si1014 quick_test/fbank/raw_fbank_train.2.ark:4027053
mjde0_sx40 quick_test/fbank/raw_fbank_train.3.ark:2347900
mdtb0_sx321 quick_test/fbank/raw_fbank_train.2.ark:9227229
mklr0_sx429 quick_test/fbank/raw_fbank_train.3.ark:6715723
fmkf0_sx366 quick_test/fbank/raw_fbank_train.1.ark:9306246
mmab1_sx414 quick_test/fbank/raw_fbank_train.3.ark:8049290
mdac0_sx361 quick_test/fbank/raw_fbank_train.2.ark:6071156
fcmg0_si1142 quick_test/fbank/raw_fbank_train.1.ark:2000270
fdaw0_sx146 quick_test/fbank/raw_fbank_train.1.ark:2551617
mrem0_si961 quick_test/fbank/raw_fbank_train.4.ark:1888743
flod0_sx117 quick_test/fbank/raw_fbank_train.1.ark:8366954
mmcc0_sx348 quick_test/fbank/raw_fbank_train.3.ark:8568703
fear0_si622 quick_test/fbank/raw_fbank_train.1.ark:3551958
ftbw0_si715 quick_test/fbank/raw_fbank_train.2.ark:1458042
mdcm0_sx40 quick_test/fbank/raw_fbank_train.2.ark:6568991
fdfb0_sx58 quick_test/fbank/raw_fbank_train.1.ark:2680014
mejs0_sx430 quick_test/fbank/raw_fbank_train.2.ark:10105412
mdlr1_si1299 quick_test/fbank/raw_fbank_train.2.ark:8088394
medr0_sx24 quick_test/fbank/raw_fbank_train.2.ark:9699282
mter0_sx77 quick_test/fbank/raw_fbank_train.4.ark:8073252
ftbw0_sx445 quick_test/fbank/raw_fbank_train.2.ark:1515854
mklw0_si1571 quick_test/fbank/raw_fbank_train.3.ark:6940600
mcdd0_si2143 quick_test/fbank/raw_fbank_train.2.ark:4722179
mtpg0_si753 quick_test/fbank/raw_fbank_train.4.ark:9321854
msds0_si1707 quick_test/fbank/raw_fbank_train.4.ark:5786291
mdcm0_si1480 quick_test/fbank/raw_fbank_train.2.ark:6492473
flmk0_sx135 quick_test/fbank/raw_fbank_train.1.ark:8271249
flag0_sx384 quick_test/fbank/raw_fbank_train.1.ark:7308767
fmbg0_sx260 quick_test/fbank/raw_fbank_train.1.ark:8657992
fklh0_sx267 quick_test/fbank/raw_fbank_train.1.ark:6966274
mrtc0_si828 quick_test/fbank/raw_fbank_train.4.ark:4654141
mwre0_sx157 quick_test/fbank/raw_fbank_train.4.ark:11191127
fpad0_sx446 quick_test/fbank/raw_fbank_train.1.ark:10070969
fbcg1_sx262 quick_test/fbank/raw_fbank_train.1.ark:678173
mrai0_sx72 quick_test/fbank/raw_fbank_train.4.ark:864389
mrmh0_sx211 quick_test/fbank/raw_fbank_train.4.ark:3940470
marc0_si558 quick_test/fbank/raw_fbank_train.2.ark:3007445
mdlr0_si603 quick_test/fbank/raw_fbank_train.2.ark:8009036
mntw0_sx202 quick_test/fbank/raw_fbank_train.3.ark:10686298
mbsb0_sx363 quick_test/fbank/raw_fbank_train.2.ark:4169317
mtpr0_sx340 quick_test/fbank/raw_fbank_train.4.ark:9554283
fjkl0_sx392 quick_test/fbank/raw_fbank_train.1.ark:5241144
mmws1_si1071 quick_test/fbank/raw_fbank_train.3.ark:10365212
mtkp0_sx303 quick_test/fbank/raw_fbank_train.4.ark:8673937
fjwb1_sx435 quick_test/fbank/raw_fbank_train.1.ark:5946968
mrhl0_si2145 quick_test/fbank/raw_fbank_train.4.ark:2486779
mhbs0_sx135 quick_test/fbank/raw_fbank_train.3.ark:956614
mtbc0_sx347 quick_test/fbank/raw_fbank_train.4.ark:7623687
mkln0_si968 quick_test/fbank/raw_fbank_train.3.ark:6578405
mfwk0_si1249 quick_test/fbank/raw_fbank_train.2.ark:10679387
mdlc0_sx315 quick_test/fbank/raw_fbank_train.2.ark:7573010
fsdc0_sx142 quick_test/fbank/raw_fbank_train.1.ark:11461660
fpaz0_sx63 quick_test/fbank/raw_fbank_train.1.ark:10286811
mmwb0_si2249 quick_test/fbank/raw_fbank_train.3.ark:10154317
fdmy0_sx387 quick_test/fbank/raw_fbank_train.1.ark:3105315
mcpm0_sx204 quick_test/fbank/raw_fbank_train.2.ark:5476454
mtat1_sx329 quick_test/fbank/raw_fbank_train.4.ark:7523022
mgaw0_sx265 quick_test/fbank/raw_fbank_train.3.ark:155652
mkxl0_sx375 quick_test/fbank/raw_fbank_train.3.ark:7221042
fhlm0_sx349 quick_test/fbank/raw_fbank_train.1.ark:4685622
mtdb0_sx411 quick_test/fbank/raw_fbank_train.4.ark:7838290
mrgs0_sx186 quick_test/fbank/raw_fbank_train.4.ark:2414342
fklc1_sx238 quick_test/fbank/raw_fbank_train.1.ark:6864609
mrhl0_sx345 quick_test/fbank/raw_fbank_train.4.ark:2538671
mvrw0_si855 quick_test/fbank/raw_fbank_train.4.ark:10421329
mwsb0_sx366 quick_test/fbank/raw_fbank_train.4.ark:11408442
mpar0_sx406 quick_test/fbank/raw_fbank_train.3.ark:10799109
fcdr1_sx16 quick_test/fbank/raw_fbank_train.1.ark:1509092
fbas0_sx397 quick_test/fbank/raw_fbank_train.1.ark:620366
fcdr1_si556 quick_test/fbank/raw_fbank_train.1.ark:1475627
mkah0_sx268 quick_test/fbank/raw_fbank_train.3.ark:5816112
mfer0_sx232 quick_test/fbank/raw_fbank_train.2.ark:10437004
flhd0_si1827 quick_test/fbank/raw_fbank_train.1.ark:7527406
mrkm0_sx97 quick_test/fbank/raw_fbank_train.4.ark:3228165
mtlb0_sx324 quick_test/fbank/raw_fbank_train.4.ark:8762002
mkaj0_si2044 quick_test/fbank/raw_fbank_train.3.ark:5874518
mrem0_sx421 quick_test/fbank/raw_fbank_train.4.ark:1933675
mmsm0_sx206 quick_test/fbank/raw_fbank_train.3.ark:9974885
mdma0_sx350 quick_test/fbank/raw_fbank_train.2.ark:8263666
mcre0_sx24 quick_test/fbank/raw_fbank_train.2.ark:5573592
mpmb0_sx61 quick_test/fbank/raw_fbank_train.3.ark:11435171
mges0_sx221 quick_test/fbank/raw_fbank_train.3.ark:226997
msdb0_sx287 quick_test/fbank/raw_fbank_train.4.ark:5645005
fpad0_si1976 quick_test/fbank/raw_fbank_train.1.ark:9998244
maeo0_sx426 quick_test/fbank/raw_fbank_train.2.ark:2475505
fcke0_sx301 quick_test/fbank/raw_fbank_train.1.ark:1878146
msfh0_sx46 quick_test/fbank/raw_fbank_train.4.ark:6209605
mjae0_si1999 quick_test/fbank/raw_fbank_train.3.ark:1778010
fklh0_sx177 quick_test/fbank/raw_fbank_train.1.ark:6958081
mrso0_sx39 quick_test/fbank/raw_fbank_train.4.ark:4490022
mfxs0_sx324 quick_test/fbank/raw_fbank_train.2.ark:10826939
mmws0_sx348 quick_test/fbank/raw_fbank_train.3.ark:10327433
mchl0_sx357 quick_test/fbank/raw_fbank_train.2.ark:5198492
falk0_sx96 quick_test/fbank/raw_fbank_train.1.ark:298009
mdlm0_sx424 quick_test/fbank/raw_fbank_train.2.ark:7962503
msmc0_sx287 quick_test/fbank/raw_fbank_train.4.ark:6514966
mrav0_si2268 quick_test/fbank/raw_fbank_train.4.ark:991197
mtbc0_sx93 quick_test/fbank/raw_fbank_train.4.ark:7654032
mrpc1_sx312 quick_test/fbank/raw_fbank_train.4.ark:4243660
mpsw0_sx437 quick_test/fbank/raw_fbank_train.4.ark:542042
mdsj0_sx292 quick_test/fbank/raw_fbank_train.2.ark:8955040
mtju0_si760 quick_test/fbank/raw_fbank_train.4.ark:8420548
fnkl0_sx442 quick_test/fbank/raw_fbank_train.1.ark:9643430
mcth0_sx399 quick_test/fbank/raw_fbank_train.2.ark:5799346
mmws0_sx78 quick_test/fbank/raw_fbank_train.3.ark:10356138
mjfh0_sx297 quick_test/fbank/raw_fbank_train.3.ark:2944891
mmvp0_si1914 quick_test/fbank/raw_fbank_train.3.ark:10034331
flet0_sx57 quick_test/fbank/raw_fbank_train.1.ark:7505658
mdas0_sx96 quick_test/fbank/raw_fbank_train.2.ark:6186683
mmaa0_sx35 quick_test/fbank/raw_fbank_train.3.ark:7948704
msdb0_si1007 quick_test/fbank/raw_fbank_train.4.ark:5591246
mrfk0_si1076 quick_test/fbank/raw_fbank_train.4.ark:2050766
mbwp0_si1969 quick_test/fbank/raw_fbank_train.2.ark:4299001
mtmn0_sx344 quick_test/fbank/raw_fbank_train.4.ark:9076518
mdmt0_sx122 quick_test/fbank/raw_fbank_train.2.ark:8339145
mrbc0_si599 quick_test/fbank/raw_fbank_train.4.ark:1079902
fmpg0_si2232 quick_test/fbank/raw_fbank_train.1.ark:9458280
fpaf0_sx244 quick_test/fbank/raw_fbank_train.1.ark:10145929
mtwh1_sx72 quick_test/fbank/raw_fbank_train.4.ark:10081832
fntb0_sx303 quick_test/fbank/raw_fbank_train.1.ark:9732861
mbma1_sx234 quick_test/fbank/raw_fbank_train.2.ark:3880176
fksr0_si487 quick_test/fbank/raw_fbank_train.1.ark:7041473
mljh0_sx64 quick_test/fbank/raw_fbank_train.3.ark:7657902
fsdc0_sx412 quick_test/fbank/raw_fbank_train.1.ark:11497159
mrms0_sx300 quick_test/fbank/raw_fbank_train.4.ark:4174346
fmju0_sx309 quick_test/fbank/raw_fbank_train.1.ark:9102195
mjai0_si682 quick_test/fbank/raw_fbank_train.3.ark:1880715
mjjb0_sx149 quick_test/fbank/raw_fbank_train.3.ark:3207348
falr0_sx155 quick_test/fbank/raw_fbank_train.1.ark:346423
mljh0_si1422 quick_test/fbank/raw_fbank_train.3.ark:7554825
mkjo0_sx167 quick_test/fbank/raw_fbank_train.3.ark:6498213
mmds0_sx353 quick_test/fbank/raw_fbank_train.3.ark:9052388
mppc0_sx242 quick_test/fbank/raw_fbank_train.4.ark:12
mrso0_sx309 quick_test/fbank/raw_fbank_train.4.ark:4474070
mdac0_si631 quick_test/fbank/raw_fbank_train.2.ark:6024217
mmab1_sx324 quick_test/fbank/raw_fbank_train.3.ark:8031497
mddc0_si2049 quick_test/fbank/raw_fbank_train.2.ark:6608372
mmab1_si864 quick_test/fbank/raw_fbank_train.3.ark:7987398
mbml0_sx269 quick_test/fbank/raw_fbank_train.2.ark:3979561
marw0_sx349 quick_test/fbank/raw_fbank_train.2.ark:3143201
mbcg0_sx237 quick_test/fbank/raw_fbank_train.2.ark:3412211
mtmn0_si2324 quick_test/fbank/raw_fbank_train.4.ark:9015026
fecd0_si2048 quick_test/fbank/raw_fbank_train.1.ark:3656390
mrds0_sx87 quick_test/fbank/raw_fbank_train.4.ark:1635112
ftbw0_sx355 quick_test/fbank/raw_fbank_train.2.ark:1505501
mrjt0_si1805 quick_test/fbank/raw_fbank_train.4.ark:3022945
fcaj0_si849 quick_test/fbank/raw_fbank_train.1.ark:1359962
mrds0_si1167 quick_test/fbank/raw_fbank_train.4.ark:1555881
mkag0_si1609 quick_test/fbank/raw_fbank_train.3.ark:5659915
fpaz0_si1593 quick_test/fbank/raw_fbank_train.1.ark:10195221
mbom0_sx384 quick_test/fbank/raw_fbank_train.2.ark:4104566
flmk0_sx45 quick_test/fbank/raw_fbank_train.1.ark:8318060
fceg0_sx78 quick_test/fbank/raw_fbank_train.1.ark:1635896
mdma0_si2060 quick_test/fbank/raw_fbank_train.2.ark:8216367
mded0_sx90 quick_test/fbank/raw_fbank_train.2.ark:6776634
mmgc0_si2184 quick_test/fbank/raw_fbank_train.3.ark:9288883
mejs0_sx250 quick_test/fbank/raw_fbank_train.2.ark:10083066
mjpm1_sx311 quick_test/fbank/raw_fbank_train.3.ark:4383876
mmea0_si758 quick_test/fbank/raw_fbank_train.3.ark:9101074
mjhi0_sx158 quick_test/fbank/raw_fbank_train.3.ark:3115642
fbmj0_sx426 quick_test/fbank/raw_fbank_train.1.ark:1232523
fapb0_sx163 quick_test/fbank/raw_fbank_train.1.ark:454089
mwch0_sx272 quick_test/fbank/raw_fbank_train.4.ark:10810778
fsls0_si1056 quick_test/fbank/raw_fbank_train.2.ark:538829
mjma0_sx145 quick_test/fbank/raw_fbank_train.3.ark:3916764
mljc0_sx415 quick_test/fbank/raw_fbank_train.3.ark:7518605
flja0_sx358 quick_test/fbank/raw_fbank_train.1.ark:7678725
mdcd0_sx155 quick_test/fbank/raw_fbank_train.2.ark:6435308
mbom0_sx311 quick_test/fbank/raw_fbank_train.2.ark:4089973
mrcw0_si741 quick_test/fbank/raw_fbank_train.4.ark:1300672
fpmy0_si1153 quick_test/fbank/raw_fbank_train.1.ark:10487974
mdwh0_si1168 quick_test/fbank/raw_fbank_train.2.ark:9342801
fbmj0_sx336 quick_test/fbank/raw_fbank_train.1.ark:1213170
mjlb0_si1616 quick_test/fbank/raw_fbank_train.3.ark:3587108
fskl0_si899 quick_test/fbank/raw_fbank_train.2.ark:375406
mjjj0_sx173 quick_test/fbank/raw_fbank_train.3.ark:3320733
mmdg0_si520 quick_test/fbank/raw_fbank_train.3.ark:8722894
fskp0_sx198 quick_test/fbank/raw_fbank_train.2.ark:505929
mrjm0_si1858 quick_test/fbank/raw_fbank_train.4.ark:2827928
mrew1_sx240 quick_test/fbank/raw_fbank_train.4.ark:1997234
mhbs0_si945 quick_test/fbank/raw_fbank_train.3.ark:939381
mjda0_si2291 quick_test/fbank/raw_fbank_train.3.ark:2082960
mvlo0_sx67 quick_test/fbank/raw_fbank_train.4.ark:10384708
fmkf0_si1536 quick_test/fbank/raw_fbank_train.1.ark:9259154
mvrw0_si1485 quick_test/fbank/raw_fbank_train.4.ark:10400422
flet0_si507 quick_test/fbank/raw_fbank_train.1.ark:7447814
mmxs0_sx246 quick_test/fbank/raw_fbank_train.3.ark:10491129
mjda0_sx311 quick_test/fbank/raw_fbank_train.3.ark:2114419
msjk0_si966 quick_test/fbank/raw_fbank_train.4.ark:6361251
mbsb0_sx183 quick_test/fbank/raw_fbank_train.2.ark:4149060
fksr0_sx217 quick_test/fbank/raw_fbank_train.1.ark:7068619
mrtj0_sx232 quick_test/fbank/raw_fbank_train.4.ark:4793712
mdtb0_sx390 quick_test/fbank/raw_fbank_train.2.ark:9241062
mjxa0_sx67 quick_test/fbank/raw_fbank_train.3.ark:5544176
mjpg0_si561 quick_test/fbank/raw_fbank_train.3.ark:4170127
mdas0_si1896 quick_test/fbank/raw_fbank_train.2.ark:6116729
mhit0_sx173 quick_test/fbank/raw_fbank_train.3.ark:1046079
madd0_sx358 quick_test/fbank/raw_fbank_train.2.ark:2272341
fjxm0_si1971 quick_test/fbank/raw_fbank_train.1.ark:5982988
mkls1_sx285 quick_test/fbank/raw_fbank_train.3.ark:6917253
mmds0_sx83 quick_test/fbank/raw_fbank_train.3.ark:9072653
mdlc1_si2065 quick_test/fbank/raw_fbank_train.2.ark:7627623
fjhk0_si1652 quick_test/fbank/raw_fbank_train.1.ark:5071801
fexm0_si1101 quick_test/fbank/raw_fbank_train.1.ark:4059536
mtdb0_sx231 quick_test/fbank/raw_fbank_train.4.ark:7819104
mbth0_si757 quick_test/fbank/raw_fbank_train.2.ark:4218809
mmlm0_sx447 quick_test/fbank/raw_fbank_train.3.ark:9693956
fjxm0_sx401 quick_test/fbank/raw_fbank_train.1.ark:6047993
mnet0_sx96 quick_test/fbank/raw_fbank_train.3.ark:10616170
msjk0_sx426 quick_test/fbank/raw_fbank_train.4.ark:6414463
fgdp0_sx88 quick_test/fbank/raw_fbank_train.1.ark:4365218
mtlc0_sx37 quick_test/fbank/raw_fbank_train.4.ark:8873219
fmkf0_si1018 quick_test/fbank/raw_fbank_train.1.ark:9241000
flod0_sx387 quick_test/fbank/raw_fbank_train.1.ark:8408806
mmgc0_si1305 quick_test/fbank/raw_fbank_train.3.ark:9258055
mdpb0_si2126 quick_test/fbank/raw_fbank_train.2.ark:8518209
mmdm0_sx321 quick_test/fbank/raw_fbank_train.3.ark:8860778
mrdm0_sx245 quick_test/fbank/raw_fbank_train.4.ark:1510909
fvmh0_sx386 quick_test/fbank/raw_fbank_train.2.ark:2011731
mmeb0_si1987 quick_test/fbank/raw_fbank_train.3.ark:9183506
mdsj0_sx112 quick_test/fbank/raw_fbank_train.2.ark:8934055
fdfb0_sx418 quick_test/fbank/raw_fbank_train.1.ark:2668262
msat0_sx176 quick_test/fbank/raw_fbank_train.4.ark:5446495
fmju0_si2019 quick_test/fbank/raw_fbank_train.1.ark:9055103
flmk0_si1229 quick_test/fbank/raw_fbank_train.1.ark:8243662
fhxs0_si2335 quick_test/fbank/raw_fbank_train.1.ark:4764717
mgxp0_si525 quick_test/fbank/raw_fbank_train.3.ark:839438
fntb0_sx393 quick_test/fbank/raw_fbank_train.1.ark:9752766
mlsh0_sx427 quick_test/fbank/raw_fbank_train.3.ark:7840840
mdwd0_sx360 quick_test/fbank/raw_fbank_train.2.ark:9309902
mdsj0_sx438 quick_test/fbank/raw_fbank_train.2.ark:8980186
mrjm1_sx218 quick_test/fbank/raw_fbank_train.4.ark:2959139
mcxm0_sx451 quick_test/fbank/raw_fbank_train.2.ark:5978364
mdlr0_sx153 quick_test/fbank/raw_fbank_train.2.ark:8018749
mklw0_sx311 quick_test/fbank/raw_fbank_train.3.ark:6998967
fklc0_sx355 quick_test/fbank/raw_fbank_train.1.ark:6785416
mrab1_sx38 quick_test/fbank/raw_fbank_train.4.ark:740131
mwsh0_sx166 quick_test/fbank/raw_fbank_train.4.ark:11488239
mjkr0_si1831 quick_test/fbank/raw_fbank_train.3.ark:3501277
faem0_sx132 quick_test/fbank/raw_fbank_train.1.ark:39913
mtat0_sx120 quick_test/fbank/raw_fbank_train.4.ark:7401811
fdjh0_sx305 quick_test/fbank/raw_fbank_train.1.ark:2754054
fcrz0_sx253 quick_test/fbank/raw_fbank_train.1.ark:2250894
fsls0_sx66 quick_test/fbank/raw_fbank_train.2.ark:628141
mjrh0_sx45 quick_test/fbank/raw_fbank_train.3.ark:4716737
fjlg0_sx449 quick_test/fbank/raw_fbank_train.1.ark:5324898
maeo0_si1655 quick_test/fbank/raw_fbank_train.2.ark:2419099
mmvp0_sx204 quick_test/fbank/raw_fbank_train.3.ark:10085950
ftbw0_sx85 quick_test/fbank/raw_fbank_train.2.ark:1525886
mtjs0_si562 quick_test/fbank/raw_fbank_train.4.ark:8314123
mmdg0_si1780 quick_test/fbank/raw_fbank_train.3.ark:8694547
mtpg0_sx33 quick_test/fbank/raw_fbank_train.4.ark:9368745
mgsl0_sx354 quick_test/fbank/raw_fbank_train.3.ark:767593
mkls0_si1437 quick_test/fbank/raw_fbank_train.3.ark:6736749
fsrh0_sx131 quick_test/fbank/raw_fbank_train.2.ark:1086455
ftmg0_si2162 quick_test/fbank/raw_fbank_train.2.ark:1648458
fgrw0_sx162 quick_test/fbank/raw_fbank_train.1.ark:4544538
mstf0_sx406 quick_test/fbank/raw_fbank_train.4.ark:7008130
fsjs0_sx181 quick_test/fbank/raw_fbank_train.2.ark:82924
mdpk0_si1683 quick_test/fbank/raw_fbank_train.2.ark:8619114
mclm0_sx376 quick_test/fbank/raw_fbank_train.2.ark:5411207
flja0_sx268 quick_test/fbank/raw_fbank_train.1.ark:7663372
fbmh0_sx416 quick_test/fbank/raw_fbank_train.1.ark:1123899
mdmt0_si1832 quick_test/fbank/raw_fbank_train.2.ark:8311285
mvjh0_si1556 quick_test/fbank/raw_fbank_train.4.ark:10205492
fnkl0_sx262 quick_test/fbank/raw_fbank_train.1.ark:9632677
mdcm0_sx400 quick_test/fbank/raw_fbank_train.2.ark:6580384
mmgk0_sx62 quick_test/fbank/raw_fbank_train.3.ark:9515578
mrlj1_si2332 quick_test/fbank/raw_fbank_train.4.ark:3442757
mjeb0_sx296 quick_test/fbank/raw_fbank_train.3.ark:2658816
mkxl0_sx285 quick_test/fbank/raw_fbank_train.3.ark:7211129
fcjf0_si648 quick_test/fbank/raw_fbank_train.1.ark:1668317
mrdd0_sx150 quick_test/fbank/raw_fbank_train.4.ark:1403011
fsgf0_sx297 quick_test/fbank/raw_fbank_train.1.ark:11683568
mjda0_sx41 quick_test/fbank/raw_fbank_train.3.ark:2141404
fpab1_si1471 quick_test/fbank/raw_fbank_train.1.ark:9762720
mjwt0_sx391 quick_test/fbank/raw_fbank_train.3.ark:5453591
mcth0_sx39 quick_test/fbank/raw_fbank_train.2.ark:5787033
makb0_sx296 quick_test/fbank/raw_fbank_train.2.ark:2789221
fjxm0_sx131 quick_test/fbank/raw_fbank_train.1.ark:6005574
fear0_si1882 quick_test/fbank/raw_fbank_train.1.ark:3543525
fmpg0_sx342 quick_test/fbank/raw_fbank_train.1.ark:9523332
mpgr1_sx329 quick_test/fbank/raw_fbank_train.3.ark:11251521
mdcd0_sx335 quick_test/fbank/raw_fbank_train.2.ark:6457734
makr0_sx182 quick_test/fbank/raw_fbank_train.2.ark:2839708
mesj0_sx97 quick_test/fbank/raw_fbank_train.2.ark:10301932
mjxl0_sx272 quick_test/fbank/raw_fbank_train.3.ark:5605023
mrav0_si1638 quick_test/fbank/raw_fbank_train.4.ark:977803
mrld0_sx424 quick_test/fbank/raw_fbank_train.4.ark:3304918
mljc0_si1855 quick_test/fbank/raw_fbank_train.3.ark:7463800
fgrw0_si1990 quick_test/fbank/raw_fbank_train.1.ark:4535065
fhlm0_sx120 quick_test/fbank/raw_fbank_train.1.ark:4645003
mdwd0_sx450 quick_test/fbank/raw_fbank_train.2.ark:9320895
mklw0_si1844 quick_test/fbank/raw_fbank_train.3.ark:6961474
mdwd0_sx90 quick_test/fbank/raw_fbank_train.2.ark:9334087
mjrh0_si1755 quick_test/fbank/raw_fbank_train.3.ark:4639739
mgjc0_sx255 quick_test/fbank/raw_fbank_train.3.ark:330383
mtml0_si2325 quick_test/fbank/raw_fbank_train.4.ark:8921634
mdbp0_sx168 quick_test/fbank/raw_fbank_train.2.ark:6331883
mjai0_sx164 quick_test/fbank/raw_fbank_train.3.ark:1917181
fsls0_sx246 quick_test/fbank/raw_fbank_train.2.ark:603996
flhd0_sx354 quick_test/fbank/raw_fbank_train.1.ark:7574339
mgrl0_sx237 quick_test/fbank/raw_fbank_train.3.ark:434928
mrld0_si964 quick_test/fbank/raw_fbank_train.4.ark:3261826
mjfr0_sx255 quick_test/fbank/raw_fbank_train.3.ark:3015371
mvrw0_si2115 quick_test/fbank/raw_fbank_train.4.ark:10416176
fbas0_si1472 quick_test/fbank/raw_fbank_train.1.ark:541808
mlbc0_sx249 quick_test/fbank/raw_fbank_train.3.ark:7285449
fetb0_sx68 quick_test/fbank/raw_fbank_train.1.ark:4048542
mpgr1_si2129 quick_test/fbank/raw_fbank_train.3.ark:11214742
mdtb0_sx120 quick_test/fbank/raw_fbank_train.2.ark:9197370
mrfk0_sx176 quick_test/fbank/raw_fbank_train.4.ark:2083707
msat0_sx86 quick_test/fbank/raw_fbank_train.4.ark:5488266
mgag0_si1321 quick_test/fbank/raw_fbank_train.2.ark:11052729
mwar0_sx55 quick_test/fbank/raw_fbank_train.4.ark:10759410
fkde0_sx61 quick_test/fbank/raw_fbank_train.1.ark:6379341
mtrc0_si993 quick_test/fbank/raw_fbank_train.4.ark:9751193
mfwk0_sx259 quick_test/fbank/raw_fbank_train.2.ark:10721920
feeh0_si471 quick_test/fbank/raw_fbank_train.1.ark:3779728
mtcs0_si2265 quick_test/fbank/raw_fbank_train.4.ark:7670060
mbsb0_si1353 quick_test/fbank/raw_fbank_train.2.ark:4112320
madc0_sx377 quick_test/fbank/raw_fbank_train.2.ark:2197221
mdlc2_si984 quick_test/fbank/raw_fbank_train.2.ark:7718442
mbth0_sx212 quick_test/fbank/raw_fbank_train.2.ark:4242235
frjb0_sx77 quick_test/fbank/raw_fbank_train.1.ark:10769256
mchl0_si1347 quick_test/fbank/raw_fbank_train.2.ark:5131685
mrjm0_sx58 quick_test/fbank/raw_fbank_train.4.ark:2894092
mjpm1_sx401 quick_test/fbank/raw_fbank_train.3.ark:4403389
mrbc0_sx59 quick_test/fbank/raw_fbank_train.4.ark:1146306
mgsl0_si534 quick_test/fbank/raw_fbank_train.3.ark:713021
mdlr0_si1233 quick_test/fbank/raw_fbank_train.2.ark:7983209
fsls0_sx156 quick_test/fbank/raw_fbank_train.2.ark:581650
fsrh0_si671 quick_test/fbank/raw_fbank_train.2.ark:1075742
mwem0_si1320 quick_test/fbank/raw_fbank_train.4.ark:10955175
fdxw0_si881 quick_test/fbank/raw_fbank_train.1.ark:3357988
mrmg0_sx450 quick_test/fbank/raw_fbank_train.4.ark:3861070
mklw0_sx221 quick_test/fbank/raw_fbank_train.3.ark:6986334
mram0_si1905 quick_test/fbank/raw_fbank_train.4.ark:886537
fjxp0_si492 quick_test/fbank/raw_fbank_train.1.ark:6111006
fbmj0_si1776 quick_test/fbank/raw_fbank_train.1.ark:1145565
mchl0_sx447 quick_test/fbank/raw_fbank_train.2.ark:5212045
fvkb0_sx349 quick_test/fbank/raw_fbank_train.2.ark:1882681
mesg0_sx252 quick_test/fbank/raw_fbank_train.2.ark:10176211
ftbw0_si1975 quick_test/fbank/raw_fbank_train.2.ark:1447209
mrav0_sx18 quick_test/fbank/raw_fbank_train.4.ark:1017302
mter0_si1157 quick_test/fbank/raw_fbank_train.4.ark:7981702
fpac0_sx391 quick_test/fbank/raw_fbank_train.1.ark:9974256
mdlc2_sx84 quick_test/fbank/raw_fbank_train.2.ark:7779526
mjws0_sx423 quick_test/fbank/raw_fbank_train.3.ark:5326254
mclk0_sx130 quick_test/fbank/raw_fbank_train.2.ark:5278651
mfrm0_si1717 quick_test/fbank/raw_fbank_train.2.ark:10600395
fblv0_sx428 quick_test/fbank/raw_fbank_train.1.ark:1023394
mtat1_sx149 quick_test/fbank/raw_fbank_train.4.ark:7490276
mses0_sx329 quick_test/fbank/raw_fbank_train.4.ark:6069395
mrsp0_sx169 quick_test/fbank/raw_fbank_train.4.ark:4561189
mapv0_sx303 quick_test/fbank/raw_fbank_train.2.ark:2961759
mded0_si540 quick_test/fbank/raw_fbank_train.2.ark:6707190
mrdm0_sx335 quick_test/fbank/raw_fbank_train.4.ark:1521262
mmdm0_si681 quick_test/fbank/raw_fbank_train.3.ark:8830839
mmgg0_si1709 quick_test/fbank/raw_fbank_train.3.ark:9368315
mjai0_sx254 quick_test/fbank/raw_fbank_train.3.ark:1930614
mjwt0_si751 quick_test/fbank/raw_fbank_train.3.ark:5391067
mrms0_sx210 quick_test/fbank/raw_fbank_train.4.ark:4159121
mmaa0_si1588 quick_test/fbank/raw_fbank_train.3.ark:7864866
mges0_sx41 quick_test/fbank/raw_fbank_train.3.ark:264175
