mhxl0_sx62 quick_test/fbank/raw_fbank_train.3.ark:1562575
mwad0_si1062 quick_test/fbank/raw_fbank_train.4.ark:10601792
mkls0_sx447 quick_test/fbank/raw_fbank_train.3.ark:6823589
mrre0_sx164 quick_test/fbank/raw_fbank_train.4.ark:4332898
mkln0_si2228 quick_test/fbank/raw_fbank_train.3.ark:6568972
fskc0_sx246 quick_test/fbank/raw_fbank_train.2.ark:298727
mprk0_sx197 quick_test/fbank/raw_fbank_train.4.ark:355279
mmab1_sx54 quick_test/fbank/raw_fbank_train.3.ark:8061682
fblv0_sx338 quick_test/fbank/raw_fbank_train.1.ark:1009361
mrlj0_si2050 quick_test/fbank/raw_fbank_train.4.ark:3337498
fpjf0_sx146 quick_test/fbank/raw_fbank_train.1.ark:10338106
msds0_si1077 quick_test/fbank/raw_fbank_train.4.ark:5763057
mwac0_sx161 quick_test/fbank/raw_fbank_train.4.ark:10524227
mges0_si1481 quick_test/fbank/raw_fbank_train.3.ark:193384
mmxs0_si629 quick_test/fbank/raw_fbank_train.3.ark:10455830
mrws0_sx22 quick_test/fbank/raw_fbank_train.4.ark:5089259
mdns0_si2271 quick_test/fbank/raw_fbank_train.2.ark:8422344
mdlc0_sx225 quick_test/fbank/raw_fbank_train.2.ark:7563297
mjmd0_sx128 quick_test/fbank/raw_fbank_train.3.ark:3997390
fmkc0_sx262 quick_test/fbank/raw_fbank_train.1.ark:9188908
maeo0_si1956 quick_test/fbank/raw_fbank_train.2.ark:2430413
mkln0_sx248 quick_test/fbank/raw_fbank_train.3.ark:6602631
mmeb0_sx327 quick_test/fbank/raw_fbank_train.3.ark:9208565
mmag0_sx46 quick_test/fbank/raw_fbank_train.3.ark:8178427
mdpk0_sx423 quick_test/fbank/raw_fbank_train.2.ark:8671359
mvlo0_sx157 quick_test/fbank/raw_fbank_train.4.ark:10338897
mmdb0_sx357 quick_test/fbank/raw_fbank_train.3.ark:8665368
fjlg0_sx269 quick_test/fbank/raw_fbank_train.1.ark:5299992
msrg0_sx411 quick_test/fbank/raw_fbank_train.4.ark:6807002
mtwh1_si882 quick_test/fbank/raw_fbank_train.4.ark:10024428
fear0_sx262 quick_test/fbank/raw_fbank_train.1.ark:3577664
fclt0_si2068 quick_test/fbank/raw_fbank_train.1.ark:1915359
feeh0_sx302 quick_test/fbank/raw_fbank_train.1.ark:3817107
mmag0_sx406 quick_test/fbank/raw_fbank_train.3.ark:8162555
fkfb0_sx348 quick_test/fbank/raw_fbank_train.1.ark:6557806
mhit0_sx83 quick_test/fbank/raw_fbank_train.3.ark:1094530
fsms1_sx244 quick_test/fbank/raw_fbank_train.2.ark:899758
fmjb0_si1807 quick_test/fbank/raw_fbank_train.1.ark:8847335
mgaw0_sx85 quick_test/fbank/raw_fbank_train.3.ark:184350
mcdc0_sx392 quick_test/fbank/raw_fbank_train.2.ark:4701071
mwar0_sx145 quick_test/fbank/raw_fbank_train.4.ark:10717679
fskc0_si1416 quick_test/fbank/raw_fbank_train.2.ark:256514
mhjb0_sx297 quick_test/fbank/raw_fbank_train.3.ark:1167003
mtlc0_si1313 quick_test/fbank/raw_fbank_train.4.ark:8804781
fpaf0_si2314 quick_test/fbank/raw_fbank_train.1.ark:10126943
megj0_sx3 quick_test/fbank/raw_fbank_train.2.ark:9904609
mmdb0_si987 quick_test/fbank/raw_fbank_train.3.ark:8628829
fvkb0_si1789 quick_test/fbank/raw_fbank_train.2.ark:1835469
fsdj0_si485 quick_test/fbank/raw_fbank_train.1.ark:11547612
fmah1_sx249 quick_test/fbank/raw_fbank_train.1.ark:8575239
mprb0_sx395 quick_test/fbank/raw_fbank_train.4.ark:152335
mcxm0_sx181 quick_test/fbank/raw_fbank_train.2.ark:5942865
mdbb1_si2056 quick_test/fbank/raw_fbank_train.2.ark:6220745
fmjb0_sx277 quick_test/fbank/raw_fbank_train.1.ark:8884394
mcae0_sx7 quick_test/fbank/raw_fbank_train.2.ark:4495749
mdlr0_si1863 quick_test/fbank/raw_fbank_train.2.ark:7999443
msem1_si1440 quick_test/fbank/raw_fbank_train.4.ark:5882843
makr0_sx362 quick_test/fbank/raw_fbank_train.2.ark:2853854
mntw0_sx78 quick_test/fbank/raw_fbank_train.3.ark:10723676
mjxa0_si2137 quick_test/fbank/raw_fbank_train.3.ark:5479179
mrlj1_sx411 quick_test/fbank/raw_fbank_train.4.ark:3480329
fklc0_si985 quick_test/fbank/raw_fbank_train.1.ark:6731277
mdlc0_sx45 quick_test/fbank/raw_fbank_train.2.ark:7596475
mjjb0_si1769 quick_test/fbank/raw_fbank_train.3.ark:3196875
fjkl0_si2192 quick_test/fbank/raw_fbank_train.1.ark:5164747
mree0_sx204 quick_test/fbank/raw_fbank_train.4.ark:1703960
fsdc0_si2234 quick_test/fbank/raw_fbank_train.1.ark:11455587
mmsm0_sx386 quick_test/fbank/raw_fbank_train.3.ark:10010583
mtqc0_sx271 quick_test/fbank/raw_fbank_train.4.ark:9662555
mkes0_sx173 quick_test/fbank/raw_fbank_train.3.ark:6403548
mfxv0_sx285 quick_test/fbank/raw_fbank_train.2.ark:10940837
mjrp0_si1845 quick_test/fbank/raw_fbank_train.3.ark:4923295
mmar0_sx166 quick_test/fbank/raw_fbank_train.3.ark:8318587
fjxm0_si1211 quick_test/fbank/raw_fbank_train.1.ark:5969794
msah1_si2309 quick_test/fbank/raw_fbank_train.4.ark:5240052
fetb0_si1148 quick_test/fbank/raw_fbank_train.1.ark:3962311
flag0_si2094 quick_test/fbank/raw_fbank_train.1.ark:7228770
madc0_si1367 quick_test/fbank/raw_fbank_train.2.ark:2103670
mhmr0_si489 quick_test/fbank/raw_fbank_train.3.ark:1304362
msrr0_sx141 quick_test/fbank/raw_fbank_train.4.ark:6874608
flmk0_sx405 quick_test/fbank/raw_fbank_train.1.ark:8306948
fsdc0_sx322 quick_test/fbank/raw_fbank_train.1.ark:11486966
mdef0_si1563 quick_test/fbank/raw_fbank_train.2.ark:6807502
frjb0_sx257 quick_test/fbank/raw_fbank_train.1.ark:10729838
mtcs0_sx352 quick_test/fbank/raw_fbank_train.4.ark:7719832
mtqc0_sx91 quick_test/fbank/raw_fbank_train.4.ark:9711293
mgsl0_sx264 quick_test/fbank/raw_fbank_train.3.ark:755880
mrpc1_si2026 quick_test/fbank/raw_fbank_train.4.ark:4207207
mtdp0_si1274 quick_test/fbank/raw_fbank_train.4.ark:7861996
fbcg1_sx352 quick_test/fbank/raw_fbank_train.1.ark:688846
fntb0_sx123 quick_test/fbank/raw_fbank_train.1.ark:9710155
mwgr0_sx346 quick_test/fbank/raw_fbank_train.4.ark:11121327
fgdp0_si1618 quick_test/fbank/raw_fbank_train.1.ark:4267507
mdmt0_sx392 quick_test/fbank/raw_fbank_train.2.ark:8389236
msem1_si810 quick_test/fbank/raw_fbank_train.4.ark:5918310
mrfl0_si526 quick_test/fbank/raw_fbank_train.4.ark:2166259
mkdb0_si2132 quick_test/fbank/raw_fbank_train.3.ark:6056135
fcke0_sx31 quick_test/fbank/raw_fbank_train.1.ark:1889138
mzmb0_sx356 quick_test/fbank/raw_fbank_train.4.ark:11622890
mreh1_si2229 quick_test/fbank/raw_fbank_train.4.ark:1764526
mcef0_sx415 quick_test/fbank/raw_fbank_train.2.ark:4983914
mlsh0_si1417 quick_test/fbank/raw_fbank_train.3.ark:7760321
mdem0_sx428 quick_test/fbank/raw_fbank_train.2.ark:6968132
fsag0_sx153 quick_test/fbank/raw_fbank_train.1.ark:10911254
mejl0_sx62 quick_test/fbank/raw_fbank_train.2.ark:10017379
fdmy0_sx297 quick_test/fbank/raw_fbank_train.1.ark:3093002
mmeb0_sx7 quick_test/fbank/raw_fbank_train.3.ark:9237309
flac0_si1339 quick_test/fbank/raw_fbank_train.1.ark:7115751
mmdm1_sx153 quick_test/fbank/raw_fbank_train.3.ark:8928537
mewm0_si718 quick_test/fbank/raw_fbank_train.2.ark:10325753
fpaz0_sx243 quick_test/fbank/raw_fbank_train.1.ark:10253034
fcdr1_sx196 quick_test/fbank/raw_fbank_train.1.ark:1519805
mmab1_si1494 quick_test/fbank/raw_fbank_train.3.ark:7970971
mcal0_si1768 quick_test/fbank/raw_fbank_train.2.ark:4540009
mwdk0_sx266 quick_test/fbank/raw_fbank_train.4.ark:10911323
fvkb0_sx259 quick_test/fbank/raw_fbank_train.2.ark:1868888
ftaj0_sx339 quick_test/fbank/raw_fbank_train.2.ark:1312971
mtdp0_sx171 quick_test/fbank/raw_fbank_train.4.ark:7904657
mcdr0_si1154 quick_test/fbank/raw_fbank_train.2.ark:4801810
mjeb1_si1467 quick_test/fbank/raw_fbank_train.3.ark:2678883
mjdc0_sx81 quick_test/fbank/raw_fbank_train.3.ark:2237549
mrmh0_sx31 quick_test/fbank/raw_fbank_train.4.ark:3962455
msvs0_sx308 quick_test/fbank/raw_fbank_train.4.ark:7113162
mrjh0_sx259 quick_test/fbank/raw_fbank_train.4.ark:2754928
mrav0_si1008 quick_test/fbank/raw_fbank_train.4.ark:970329
fjen0_sx327 quick_test/fbank/raw_fbank_train.1.ark:5009788
mjrh1_sx244 quick_test/fbank/raw_fbank_train.3.ark:4782024
mtat1_sx419 quick_test/fbank/raw_fbank_train.4.ark:7540975
msds0_sx177 quick_test/fbank/raw_fbank_train.4.ark:5815478
fdjh0_si1565 quick_test/fbank/raw_fbank_train.1.ark:2692888
mjfh0_si1737 quick_test/fbank/raw_fbank_train.3.ark:2894887
mdss1_sx67 quick_test/fbank/raw_fbank_train.2.ark:9154316
fapb0_sx253 quick_test/fbank/raw_fbank_train.1.ark:467002
fssb0_sx362 quick_test/fbank/raw_fbank_train.2.ark:1215667
mdwm0_sx16 quick_test/fbank/raw_fbank_train.2.ark:9510958
mpmb0_sx421 quick_test/fbank/raw_fbank_train.3.ark:11411099
fspm0_sx431 quick_test/fbank/raw_fbank_train.2.ark:1038689
mram0_sx105 quick_test/fbank/raw_fbank_train.4.ark:914204
fkkh0_si1290 quick_test/fbank/raw_fbank_train.1.ark:6608865
fpaf0_sx334 quick_test/fbank/raw_fbank_train.1.ark:10160162
mkdd0_sx217 quick_test/fbank/raw_fbank_train.3.ark:6215572
fmkc0_sx172 quick_test/fbank/raw_fbank_train.1.ark:9174915
mrld0_si1594 quick_test/fbank/raw_fbank_train.4.ark:3239599
mkls0_si2067 quick_test/fbank/raw_fbank_train.3.ark:6767537
mcdd0_sx343 quick_test/fbank/raw_fbank_train.2.ark:4765871
mdss0_si1881 quick_test/fbank/raw_fbank_train.2.ark:8997500
fmju0_sx399 quick_test/fbank/raw_fbank_train.1.ark:9128500
fjlr0_si601 quick_test/fbank/raw_fbank_train.1.ark:5376511
mcxm0_si1351 quick_test/fbank/raw_fbank_train.2.ark:5906405
fsjw0_si1333 quick_test/fbank/raw_fbank_train.2.ark:150289
mljh0_sx424 quick_test/fbank/raw_fbank_train.3.ark:7643150
fspm0_sx341 quick_test/fbank/raw_fbank_train.2.ark:1026096
mcef0_si1135 quick_test/fbank/raw_fbank_train.2.ark:4912995
mdps0_sx179 quick_test/fbank/raw_fbank_train.2.ark:8726125
mgak0_sx226 quick_test/fbank/raw_fbank_train.2.ark:11202487
mjrp0_sx45 quick_test/fbank/raw_fbank_train.3.ark:4996452
fskl0_si2159 quick_test/fbank/raw_fbank_train.2.ark:359093
mmbs0_sx161 quick_test/fbank/raw_fbank_train.3.ark:8435852
mkln0_sx158 quick_test/fbank/raw_fbank_train.3.ark:6593878
fmmh0_si907 quick_test/fbank/raw_fbank_train.1.ark:9374930
fetb0_si518 quick_test/fbank/raw_fbank_train.1.ark:3987258
fgcs0_si856 quick_test/fbank/raw_fbank_train.1.ark:4198309
mtrr0_sx378 quick_test/fbank/raw_fbank_train.4.ark:9895502
frjb0_sx347 quick_test/fbank/raw_fbank_train.1.ark:10738031
mtpr0_si2230 quick_test/fbank/raw_fbank_train.4.ark:9494351
fksr0_si1117 quick_test/fbank/raw_fbank_train.1.ark:7017286
fjxm0_si581 quick_test/fbank/raw_fbank_train.1.ark:5990461
mgaw0_sx445 quick_test/fbank/raw_fbank_train.3.ark:175598
mtab0_si942 quick_test/fbank/raw_fbank_train.4.ark:7190128
fajw0_sx3 quick_test/fbank/raw_fbank_train.1.ark:175282
mgjc0_sx435 quick_test/fbank/raw_fbank_train.3.ark:357209
mcre0_si1751 quick_test/fbank/raw_fbank_train.2.ark:5533934
mjpg0_sx381 quick_test/fbank/raw_fbank_train.3.ark:4219731
milb0_sx273 quick_test/fbank/raw_fbank_train.3.ark:1628421
fskp0_si1728 quick_test/fbank/raw_fbank_train.2.ark:464118
mmvp0_si654 quick_test/fbank/raw_fbank_train.3.ark:10046084
mklr0_sx69 quick_test/fbank/raw_fbank_train.3.ark:6726115
mmag0_sx316 quick_test/fbank/raw_fbank_train.3.ark:8149962
fdkn0_sx181 quick_test/fbank/raw_fbank_train.1.ark:2828094
fcjs0_sx347 quick_test/fbank/raw_fbank_train.1.ark:1770681
fdkn0_sx361 quick_test/fbank/raw_fbank_train.1.ark:2857400
fgdp0_sx448 quick_test/fbank/raw_fbank_train.1.ark:4351786
mjls0_si1096 quick_test/fbank/raw_fbank_train.3.ark:3769199
mkaj0_sx64 quick_test/fbank/raw_fbank_train.3.ark:5941555
mpsw0_sx257 quick_test/fbank/raw_fbank_train.4.ark:533609
mfrm0_sx165 quick_test/fbank/raw_fbank_train.2.ark:10622382
fbas0_si2066 quick_test/fbank/raw_fbank_train.1.ark:559842
mhmg0_si735 quick_test/fbank/raw_fbank_train.3.ark:1207017
ftmg0_si902 quick_test/fbank/raw_fbank_train.2.ark:1658211
fsmm0_sx324 quick_test/fbank/raw_fbank_train.2.ark:805646
mcdr0_sx164 quick_test/fbank/raw_fbank_train.2.ark:4857110
mdns0_sx381 quick_test/fbank/raw_fbank_train.2.ark:8490701
fgrw0_si1782 quick_test/fbank/raw_fbank_train.1.ark:4520151
mjmm0_sx355 quick_test/fbank/raw_fbank_train.3.ark:4115841
fkkh0_sx210 quick_test/fbank/raw_fbank_train.1.ark:6672958
mpgr0_si1410 quick_test/fbank/raw_fbank_train.3.ark:11098649
fcag0_si1641 quick_test/fbank/raw_fbank_train.1.ark:1266543
mafm0_si2199 quick_test/fbank/raw_fbank_train.2.ark:2505605
mses0_si2216 quick_test/fbank/raw_fbank_train.4.ark:6027462
mefg0_si465 quick_test/fbank/raw_fbank_train.2.ark:9725021
mded0_si1800 quick_test/fbank/raw_fbank_train.2.ark:6694077
mkag0_si2239 quick_test/fbank/raw_fbank_train.3.ark:5676229
feac0_sx345 quick_test/fbank/raw_fbank_train.1.ark:3495512
mwsb0_si996 quick_test/fbank/raw_fbank_train.4.ark:11373863
fspm0_si1241 quick_test/fbank/raw_fbank_train.2.ark:950410
mklw0_sx41 quick_test/fbank/raw_fbank_train.3.ark:7029952
fpab1_sx31 quick_test/fbank/raw_fbank_train.1.ark:9858438
mkdb0_si872 quick_test/fbank/raw_fbank_train.3.ark:6078961
mmgg0_sx359 quick_test/fbank/raw_fbank_train.3.ark:9407528
fjrb0_si672 quick_test/fbank/raw_fbank_train.1.ark:5476736
mrlr0_sx296 quick_test/fbank/raw_fbank_train.4.ark:3674658
msms0_si1433 quick_test/fbank/raw_fbank_train.4.ark:6637578
mtwh1_sx342 quick_test/fbank/raw_fbank_train.4.ark:10056967
mdas0_sx21 quick_test/fbank/raw_fbank_train.2.ark:6159267
mjeb0_si1916 quick_test/fbank/raw_fbank_train.3.ark:2596212
mklw0_sx131 quick_test/fbank/raw_fbank_train.3.ark:6975781
mwgr0_sx256 quick_test/fbank/raw_fbank_train.4.ark:11111054
fcjs0_sx257 quick_test/fbank/raw_fbank_train.1.ark:1763288
fbjl0_sx382 quick_test/fbank/raw_fbank_train.1.ark:928160
mbjv0_si1877 quick_test/fbank/raw_fbank_train.2.ark:3657267
msrg0_si1221 quick_test/fbank/raw_fbank_train.4.ark:6736443
mtwh1_sx162 quick_test/fbank/raw_fbank_train.4.ark:10035181
fcaj0_si1479 quick_test/fbank/raw_fbank_train.1.ark:1346735
mzmb0_si1796 quick_test/fbank/raw_fbank_train.4.ark:11574518
fdxw0_sx161 quick_test/fbank/raw_fbank_train.1.ark:3373381
mmpm0_si1691 quick_test/fbank/raw_fbank_train.3.ark:9723176
msmr0_sx325 quick_test/fbank/raw_fbank_train.4.ark:6606479
fnkl0_sx172 quick_test/fbank/raw_fbank_train.1.ark:9611891
mmdm1_si1650 quick_test/fbank/raw_fbank_train.3.ark:8901157
mkls1_sx15 quick_test/fbank/raw_fbank_train.3.ark:6897147
fdnc0_sx198 quick_test/fbank/raw_fbank_train.1.ark:3195355
fsmm0_sx234 quick_test/fbank/raw_fbank_train.2.ark:790133
mdlc2_sx174 quick_test/fbank/raw_fbank_train.2.ark:7734275
mpgr1_si1269 quick_test/fbank/raw_fbank_train.3.ark:11190114
marc0_sx378 quick_test/fbank/raw_fbank_train.2.ark:3061329
mmdm1_sx63 quick_test/fbank/raw_fbank_train.3.ark:8991348
mprb0_sx305 quick_test/fbank/raw_fbank_train.4.ark:127430
mjwg0_sx85 quick_test/fbank/raw_fbank_train.3.ark:5235941
mkdd0_si2197 quick_test/fbank/raw_fbank_train.3.ark:6172873
medr0_sx114 quick_test/fbank/raw_fbank_train.2.ark:9679577
mrds0_sx447 quick_test/fbank/raw_fbank_train.4.ark:1625840
mdss1_si1327 quick_test/fbank/raw_fbank_train.2.ark:9076685
mvrw0_sx45 quick_test/fbank/raw_fbank_train.4.ark:10471173
mlel0_sx166 quick_test/fbank/raw_fbank_train.3.ark:7370801
mmlm0_si1527 quick_test/fbank/raw_fbank_train.3.ark:9629077
megj0_si1967 quick_test/fbank/raw_fbank_train.2.ark:9854319
mmar0_si706 quick_test/fbank/raw_fbank_train.3.ark:8309234
mkln0_sx68 quick_test/fbank/raw_fbank_train.3.ark:6639569
mabc0_sx61 quick_test/fbank/raw_fbank_train.2.ark:2093396
mdpb0_sx146 quick_test/fbank/raw_fbank_train.2.ark:8549875
mgag0_sx151 quick_test/fbank/raw_fbank_train.2.ark:11092268
mrmh0_si1349 quick_test/fbank/raw_fbank_train.4.ark:3901410
mapv0_sx213 quick_test/fbank/raw_fbank_train.2.ark:2949166
mlel0_si1246 quick_test/fbank/raw_fbank_train.3.ark:7328621
mrfl0_sx76 quick_test/fbank/raw_fbank_train.4.ark:2236703
ftbw0_si1345 quick_test/fbank/raw_fbank_train.2.ark:1437855
mjsr0_sx344 quick_test/fbank/raw_fbank_train.3.ark:5090252
mgrp0_sx57 quick_test/fbank/raw_fbank_train.3.ark:580011
mjwg0_sx445 quick_test/fbank/raw_fbank_train.3.ark:5225829
mdpb0_sx326 quick_test/fbank/raw_fbank_train.2.ark:8572301
mkdb0_si588 quick_test/fbank/raw_fbank_train.3.ark:6069488
mtpp0_sx338 quick_test/fbank/raw_fbank_train.4.ark:9445498
mmrp0_sx144 quick_test/fbank/raw_fbank_train.3.ark:9843867
mgrl0_si867 quick_test/fbank/raw_fbank_train.3.ark:408942
frjb0_sx437 quick_test/fbank/raw_fbank_train.1.ark:10753824
fgcs0_sx136 quick_test/fbank/raw_fbank_train.1.ark:4208462
mjlg1_si2272 quick_test/fbank/raw_fbank_train.3.ark:3700961
mbgt0_si711 quick_test/fbank/raw_fbank_train.2.ark:3565715
mjbg0_sx422 quick_test/fbank/raw_fbank_train.3.ark:2040626
mprd0_sx171 quick_test/fbank/raw_fbank_train.4.ark:211109
fdxw0_sx431 quick_test/fbank/raw_fbank_train.1.ark:3409960
fjdm2_sx412 quick_test/fbank/raw_fbank_train.1.ark:4920795
mrlj0_si1420 quick_test/fbank/raw_fbank_train.4.ark:3324584
mrlk0_sx33 quick_test/fbank/raw_fbank_train.4.ark:3580393
fdjh0_sx125 quick_test/fbank/raw_fbank_train.1.ark:2732588
mrem0_si1591 quick_test/fbank/raw_fbank_train.4.ark:1859037
mwsb0_sx6 quick_test/fbank/raw_fbank_train.4.ark:11422033
fdml0_sx339 quick_test/fbank/raw_fbank_train.1.ark:2952626
mjac0_sx71 quick_test/fbank/raw_fbank_train.3.ark:1753782
mrjb1_sx30 quick_test/fbank/raw_fbank_train.4.ark:2654816
mjwt0_sx121 quick_test/fbank/raw_fbank_train.3.ark:5403660
falk0_si456 quick_test/fbank/raw_fbank_train.1.ark:220934
mpmb0_sx151 quick_test/fbank/raw_fbank_train.3.ark:11362360
mtrc0_sx273 quick_test/fbank/raw_fbank_train.4.ark:9785012
mrcg0_si798 quick_test/fbank/raw_fbank_train.4.ark:1185287
mejs0_si1870 quick_test/fbank/raw_fbank_train.2.ark:10045887
msrr0_si1761 quick_test/fbank/raw_fbank_train.4.ark:6839582
fpab1_sx391 quick_test/fbank/raw_fbank_train.1.ark:9867511
mejs0_si610 quick_test/fbank/raw_fbank_train.2.ark:10055400
makb0_sx206 quick_test/fbank/raw_fbank_train.2.ark:2767276
mdhs0_si1530 quick_test/fbank/raw_fbank_train.2.ark:7097743
mefg0_sx105 quick_test/fbank/raw_fbank_train.2.ark:9773520
msvs0_sx398 quick_test/fbank/raw_fbank_train.4.ark:7141107
mhbs0_si1575 quick_test/fbank/raw_fbank_train.3.ark:916394
mjrh1_si1558 quick_test/fbank/raw_fbank_train.3.ark:4728331
mrbc0_sx419 quick_test/fbank/raw_fbank_train.4.ark:1133474
mdwd0_sx270 quick_test/fbank/raw_fbank_train.2.ark:9300709
mrgs0_sx366 quick_test/fbank/raw_fbank_train.4.ark:2437248
mkdd0_si937 quick_test/fbank/raw_fbank_train.3.ark:6191026
mdbp0_si528 quick_test/fbank/raw_fbank_train.2.ark:6310450
fjxp0_sx132 quick_test/fbank/raw_fbank_train.1.ark:6118439
mjma0_sx55 quick_test/fbank/raw_fbank_train.3.ark:3954015
msfv0_si632 quick_test/fbank/raw_fbank_train.4.ark:6246746
mrmh0_sx301 quick_test/fbank/raw_fbank_train.4.ark:3950783
mdlr1_si669 quick_test/fbank/raw_fbank_train.2.ark:8112581
fdkn0_si1711 quick_test/fbank/raw_fbank_train.1.ark:2819381
mesg0_sx432 quick_test/fbank/raw_fbank_train.2.ark:10200517
mdlc2_sx444 quick_test/fbank/raw_fbank_train.2.ark:7768734
mmag0_si1756 quick_test/fbank/raw_fbank_train.3.ark:8090110
mdlm0_sx64 quick_test/fbank/raw_fbank_train.2.ark:7974455
mfer0_sx322 quick_test/fbank/raw_fbank_train.2.ark:10450837
msds0_sx267 quick_test/fbank/raw_fbank_train.4.ark:5824111
mmeb0_si727 quick_test/fbank/raw_fbank_train.3.ark:9192219
mfwk0_sx349 quick_test/fbank/raw_fbank_train.2.ark:10733113
mppc0_sx152 quick_test/fbank/raw_fbank_train.3.ark:11494145
mmlm0_sx357 quick_test/fbank/raw_fbank_train.3.ark:9681723
mmgk0_si692 quick_test/fbank/raw_fbank_train.3.ark:9467534
mkes0_si1253 quick_test/fbank/raw_fbank_train.3.ark:6357848
msas0_si746 quick_test/fbank/raw_fbank_train.4.ark:5341437
mhmr0_si1119 quick_test/fbank/raw_fbank_train.3.ark:1275495
flod0_sx207 quick_test/fbank/raw_fbank_train.1.ark:8392020
fbmh0_sx146 quick_test/fbank/raw_fbank_train.1.ark:1094240
mabc0_si1620 quick_test/fbank/raw_fbank_train.2.ark:2020165
mrld0_sx244 quick_test/fbank/raw_fbank_train.4.ark:3285972
mpmb0_si1501 quick_test/fbank/raw_fbank_train.3.ark:11286660
fmjf0_sx354 quick_test/fbank/raw_fbank_train.1.ark:8994410
mafm0_sx129 quick_test/fbank/raw_fbank_train.2.ark:2526391
falr0_sx65 quick_test/fbank/raw_fbank_train.1.ark:393554
mrlj0_sx250 quick_test/fbank/raw_fbank_train.4.ark:3375517
mrtc0_sx198 quick_test/fbank/raw_fbank_train.4.ark:4690319
mtjm0_si1856 quick_test/fbank/raw_fbank_train.4.ark:8198545
mwad0_sx72 quick_test/fbank/raw_fbank_train.4.ark:10671544
mkag0_sx439 quick_test/fbank/raw_fbank_train.3.ark:5738393
mrjh0_si889 quick_test/fbank/raw_fbank_train.4.ark:2707989
mkls1_si915 quick_test/fbank/raw_fbank_train.3.ark:6868242
fltm0_si2330 quick_test/fbank/raw_fbank_train.1.ark:8439228
mgak0_si1666 quick_test/fbank/raw_fbank_train.2.ark:11161427
mmam0_sx247 quick_test/fbank/raw_fbank_train.3.ark:8229195
mgrp0_sx237 quick_test/fbank/raw_fbank_train.3.ark:538873
fmkc0_si1041 quick_test/fbank/raw_fbank_train.1.ark:9139014
mjbg0_si1232 quick_test/fbank/raw_fbank_train.3.ark:1966906
mdtb0_sx300 quick_test/fbank/raw_fbank_train.2.ark:9218756
mntw0_sx348 quick_test/fbank/raw_fbank_train.3.ark:10709004
milb0_sx93 quick_test/fbank/raw_fbank_train.3.ark:1656117
makr0_sx92 quick_test/fbank/raw_fbank_train.2.ark:2875919
mtmt0_si488 quick_test/fbank/raw_fbank_train.4.ark:9129564
mrso0_si1206 quick_test/fbank/raw_fbank_train.4.ark:4395303
mrcg0_sx168 quick_test/fbank/raw_fbank_train.4.ark:1200600
fajw0_si1893 quick_test/fbank/raw_fbank_train.1.ark:120592
fsls0_si2316 quick_test/fbank/raw_fbank_train.2.ark:565497
fcjs0_si2237 quick_test/fbank/raw_fbank_train.1.ark:1729509
mbef0_sx201 quick_test/fbank/raw_fbank_train.2.ark:3506116
mtas0_si755 quick_test/fbank/raw_fbank_train.4.ark:7296833
fpjf0_sx236 quick_test/fbank/raw_fbank_train.1.ark:10347659
fmju0_si759 quick_test/fbank/raw_fbank_train.1.ark:9063296
mrvg0_sx330 quick_test/fbank/raw_fbank_train.4.ark:4904090
mhjb0_sx27 quick_test/fbank/raw_fbank_train.3.ark:1158810
mrjh0_sx79 quick_test/fbank/raw_fbank_train.4.ark:2792386
flod0_si1917 quick_test/fbank/raw_fbank_train.1.ark:8344568
mpar0_si946 quick_test/fbank/raw_fbank_train.3.ark:10756017
mjlb0_sx176 quick_test/fbank/raw_fbank_train.3.ark:3623368
falk0_sx6 quick_test/fbank/raw_fbank_train.1.ark:287977
mfxs0_sx144 quick_test/fbank/raw_fbank_train.2.ark:10802873
mtjg0_si2157 quick_test/fbank/raw_fbank_train.4.ark:8093040
mdac0_sx91 quick_test/fbank/raw_fbank_train.2.ark:6097301
fgmb0_sx245 quick_test/fbank/raw_fbank_train.1.ark:4444585
mfwk0_sx79 quick_test/fbank/raw_fbank_train.2.ark:10764178
mrvg0_si510 quick_test/fbank/raw_fbank_train.4.ark:4874151
mwdk0_sx86 quick_test/fbank/raw_fbank_train.4.ark:10945381
fclt0_sx358 quick_test/fbank/raw_fbank_train.1.ark:1965411
mrcw0_sx381 quick_test/fbank/raw_fbank_train.4.ark:1355676
msds0_si2337 quick_test/fbank/raw_fbank_train.4.ark:5800285
fmkf0_si906 quick_test/fbank/raw_fbank_train.1.ark:9272507
fclt0_sx178 quick_test/fbank/raw_fbank_train.1.ark:1938905
mcpm0_sx294 quick_test/fbank/raw_fbank_train.2.ark:5495359
mwre0_si1057 quick_test/fbank/raw_fbank_train.4.ark:11155506
fspm0_sx71 quick_test/fbank/raw_fbank_train.2.ark:1049961
mtmt0_si1118 quick_test/fbank/raw_fbank_train.4.ark:9107617
makb0_si2276 quick_test/fbank/raw_fbank_train.2.ark:2729810
fjen0_sx57 quick_test/fbank/raw_fbank_train.1.ark:5047653
mrtc0_sx378 quick_test/fbank/raw_fbank_train.4.ark:4715385
fsjg0_sx220 quick_test/fbank/raw_fbank_train.1.ark:11767848
mhmg0_sx375 quick_test/fbank/raw_fbank_train.3.ark:1263821
mjlg1_si1012 quick_test/fbank/raw_fbank_train.3.ark:3678213
mcdd0_sx253 quick_test/fbank/raw_fbank_train.2.ark:4757238
mdlb0_sx316 quick_test/fbank/raw_fbank_train.2.ark:7461025
fjlg0_sx89 quick_test/fbank/raw_fbank_train.1.ark:5340290
fdnc0_si1278 quick_test/fbank/raw_fbank_train.1.ark:3122589
mpeb0_si1860 quick_test/fbank/raw_fbank_train.3.ark:10825569
mkah0_si898 quick_test/fbank/raw_fbank_train.3.ark:5788206
mrew1_sx150 quick_test/fbank/raw_fbank_train.4.ark:1987841
mbef0_sx381 quick_test/fbank/raw_fbank_train.2.ark:3531414
mkln0_sx428 quick_test/fbank/raw_fbank_train.3.ark:6625697
mtat1_sx239 quick_test/fbank/raw_fbank_train.4.ark:7507629
fsjk1_sx125 quick_test/fbank/raw_fbank_train.1.ark:11874760
mjmm0_si1885 quick_test/fbank/raw_fbank_train.3.ark:4069029
fcjs0_si1607 quick_test/fbank/raw_fbank_train.1.ark:1722195
fljd0_si1516 quick_test/fbank/raw_fbank_train.1.ark:7716864
flod0_sx297 quick_test/fbank/raw_fbank_train.1.ark:8400653
mrjm1_sx398 quick_test/fbank/raw_fbank_train.4.ark:2997477
fkdw0_sx37 quick_test/fbank/raw_fbank_train.1.ark:6468853
mbar0_sx59 quick_test/fbank/raw_fbank_train.2.ark:3265099
fsls0_si1686 quick_test/fbank/raw_fbank_train.2.ark:551303
msmc0_si1907 quick_test/fbank/raw_fbank_train.4.ark:6438969
flmc0_si742 quick_test/fbank/raw_fbank_train.1.ark:8157030
mrfk0_sx86 quick_test/fbank/raw_fbank_train.4.ark:2129278
fssb0_sx272 quick_test/fbank/raw_fbank_train.2.ark:1205394
mapv0_sx33 quick_test/fbank/raw_fbank_train.2.ark:2971591
mbsb0_si1983 quick_test/fbank/raw_fbank_train.2.ark:4127834
majp0_sx84 quick_test/fbank/raw_fbank_train.2.ark:2677708
fceg0_si1878 quick_test/fbank/raw_fbank_train.1.ark:1575099
fltm0_sx260 quick_test/fbank/raw_fbank_train.1.ark:8465374
majp0_sx444 quick_test/fbank/raw_fbank_train.2.ark:2664556
mlns0_sx237 quick_test/fbank/raw_fbank_train.3.ark:7715269
mmgc0_sx135 quick_test/fbank/raw_fbank_train.3.ark:9296596
mhbs0_sx315 quick_test/fbank/raw_fbank_train.3.ark:976200
mrfk0_sx266 quick_test/fbank/raw_fbank_train.4.ark:2098300
fdfb0_sx238 quick_test/fbank/raw_fbank_train.1.ark:2648116
mree0_sx114 quick_test/fbank/raw_fbank_train.4.ark:1693047
mntw0_sx168 quick_test/fbank/raw_fbank_train.3.ark:10676625
fcjs0_sx437 quick_test/fbank/raw_fbank_train.1.ark:1786874
fmbg0_sx440 quick_test/fbank/raw_fbank_train.1.ark:8693169
ftlg0_sx393 quick_test/fbank/raw_fbank_train.2.ark:1630390
mmdg0_sx70 quick_test/fbank/raw_fbank_train.3.ark:8796738
mbbr0_si2315 quick_test/fbank/raw_fbank_train.2.ark:3301561
mrmb0_si2211 quick_test/fbank/raw_fbank_train.4.ark:3704679
mdef0_sx303 quick_test/fbank/raw_fbank_train.2.ark:6850275
fgdp0_sx268 quick_test/fbank/raw_fbank_train.1.ark:4323080
mmar0_sx76 quick_test/fbank/raw_fbank_train.3.ark:8383838
mfxv0_si1635 quick_test/fbank/raw_fbank_train.2.ark:10905066
mdks0_sx256 quick_test/fbank/raw_fbank_train.2.ark:7330367
mlsh0_sx247 quick_test/fbank/raw_fbank_train.3.ark:7811214
mljc0_si595 quick_test/fbank/raw_fbank_train.3.ark:7471993
mprt0_sx310 quick_test/fbank/raw_fbank_train.4.ark:454184
flkm0_si1880 quick_test/fbank/raw_fbank_train.1.ark:7933234
mhrm0_sx418 quick_test/fbank/raw_fbank_train.3.ark:1443159
mdlh0_sx250 quick_test/fbank/raw_fbank_train.2.ark:7847972
fmjf0_si1884 quick_test/fbank/raw_fbank_train.1.ark:8939478
fexm0_sx366 quick_test/fbank/raw_fbank_train.1.ark:4146815
fsdc0_si1942 quick_test/fbank/raw_fbank_train.1.ark:11444833
msat1_sx83 quick_test/fbank/raw_fbank_train.4.ark:5580092
mwsb0_sx276 quick_test/fbank/raw_fbank_train.4.ark:11400089
mdjm0_si2085 quick_test/fbank/raw_fbank_train.2.ark:7206242
mbma1_sx144 quick_test/fbank/raw_fbank_train.2.ark:3867823
fdtd0_si1561 quick_test/fbank/raw_fbank_train.1.ark:3235615
mtcs0_si1972 quick_test/fbank/raw_fbank_train.4.ark:7663346
mgjc0_si1965 quick_test/fbank/raw_fbank_train.3.ark:301757
mdlc0_sx135 quick_test/fbank/raw_fbank_train.2.ark:7550104
fjwb1_si2055 quick_test/fbank/raw_fbank_train.1.ark:5876770
mgjc0_si1256 quick_test/fbank/raw_fbank_train.3.ark:277169
mjrh0_si1840 quick_test/fbank/raw_fbank_train.3.ark:4652213
msmr0_sx145 quick_test/fbank/raw_fbank_train.4.ark:6582493
mcae0_si2077 quick_test/fbank/raw_fbank_train.2.ark:4418266
fklh0_sx87 quick_test/fbank/raw_fbank_train.1.ark:7006332
fjdm2_sx142 quick_test/fbank/raw_fbank_train.1.ark:4876136
fcag0_si2133 quick_test/fbank/raw_fbank_train.1.ark:1272777
msat1_si1703 quick_test/fbank/raw_fbank_train.4.ark:5509374
msvs0_sx218 quick_test/fbank/raw_fbank_train.4.ark:7098849
falr0_sx335 quick_test/fbank/raw_fbank_train.1.ark:369049
fsbk0_si1069 quick_test/fbank/raw_fbank_train.1.ark:11199629
mdlb0_sx46 quick_test/fbank/raw_fbank_train.2.ark:7492010
mrgs0_si726 quick_test/fbank/raw_fbank_train.4.ark:2396469
mrmh0_sx391 quick_test/fbank/raw_fbank_train.4.ark:3969288
mcdd0_si1513 quick_test/fbank/raw_fbank_train.2.ark:4713665
mklr0_si2319 quick_test/fbank/raw_fbank_train.3.ark:6675071
mjls0_si466 quick_test/fbank/raw_fbank_train.3.ark:3806186
mwem0_sx60 quick_test/fbank/raw_fbank_train.4.ark:11045687
mdwh0_sx305 quick_test/fbank/raw_fbank_train.2.ark:9419007
fmkf0_sx6 quick_test/fbank/raw_fbank_train.1.ark:9321757
mtqc0_sx181 quick_test/fbank/raw_fbank_train.4.ark:9643202
mbjv0_sx167 quick_test/fbank/raw_fbank_train.2.ark:3679733
mrew1_sx420 quick_test/fbank/raw_fbank_train.4.ark:2023180
mbjv0_sx77 quick_test/fbank/raw_fbank_train.2.ark:3726544
mnet0_sx366 quick_test/fbank/raw_fbank_train.3.ark:10593587
mbma0_sx232 quick_test/fbank/raw_fbank_train.2.ark:3782591
fsjw0_sx433 quick_test/fbank/raw_fbank_train.2.ark:229208
megj0_sx167 quick_test/fbank/raw_fbank_train.2.ark:9876945
fbas0_sx127 quick_test/fbank/raw_fbank_train.1.ark:584755
fsma0_sx451 quick_test/fbank/raw_fbank_train.2.ark:714214
mjrh1_si1774 quick_test/fbank/raw_fbank_train.3.ark:4747685
mrgs0_si1356 quick_test/fbank/raw_fbank_train.4.ark:2371122
mewm0_si1978 quick_test/fbank/raw_fbank_train.2.ark:10319960
mbcg0_si957 quick_test/fbank/raw_fbank_train.2.ark:3384145
mtrc0_sx170 quick_test/fbank/raw_fbank_train.4.ark:9759386
mmam0_si1597 quick_test/fbank/raw_fbank_train.3.ark:8188781
fsrh0_sx311 quick_test/fbank/raw_fbank_train.2.ark:1112121
mjws0_sx153 quick_test/fbank/raw_fbank_train.3.ark:5279875
mdrd0_sx302 quick_test/fbank/raw_fbank_train.2.ark:8858136
fdjh0_sx35 quick_test/fbank/raw_fbank_train.1.ark:2764726
mrsp0_sx196 quick_test/fbank/raw_fbank_train.4.ark:4574782
msem1_sx90 quick_test/fbank/raw_fbank_train.4.ark:6000154
mejs0_sx70 quick_test/fbank/raw_fbank_train.2.ark:10120924
flmc0_si2002 quick_test/fbank/raw_fbank_train.1.ark:8149397
mcef0_sx145 quick_test/fbank/raw_fbank_train.2.ark:4952655
mmgk0_si1952 quick_test/fbank/raw_fbank_train.3.ark:9462261
mcae0_sx277 quick_test/fbank/raw_fbank_train.2.ark:4466525
mlsh0_sx157 quick_test/fbank/raw_fbank_train.3.ark:7800741
madc0_si1997 quick_test/fbank/raw_fbank_train.2.ark:2121984
mjdc0_sx441 quick_test/fbank/raw_fbank_train.3.ark:2228077
fcag0_sx243 quick_test/fbank/raw_fbank_train.1.ark:1294643
mrfl0_sx436 quick_test/fbank/raw_fbank_train.4.ark:2227351
fklc0_si2245 quick_test/fbank/raw_fbank_train.1.ark:6723044
mrjb1_si1020 quick_test/fbank/raw_fbank_train.4.ark:2572610
msas0_sx296 quick_test/fbank/raw_fbank_train.4.ark:5396288
mwar0_si1675 quick_test/fbank/raw_fbank_train.4.ark:10696892
mrjm1_sx38 quick_test/fbank/raw_fbank_train.4.ark:2985084
mdlc0_si2025 quick_test/fbank/raw_fbank_train.2.ark:7523638
fjsk0_si2312 quick_test/fbank/raw_fbank_train.1.ark:5706907
mjai0_sx434 quick_test/fbank/raw_fbank_train.3.ark:1948080
mgrl0_sx417 quick_test/fbank/raw_fbank_train.3.ark:462434
ftmg0_sx182 quick_test/fbank/raw_fbank_train.2.ark:1678604
mdem0_sx338 quick_test/fbank/raw_fbank_train.2.ark:6953539
mgrp0_sx327 quick_test/fbank/raw_fbank_train.3.ark:547346
mljh0_sx244 quick_test/fbank/raw_fbank_train.3.ark:7613724
msvs0_si938 quick_test/fbank/raw_fbank_train.4.ark:7066783
mlel0_si616 quick_test/fbank/raw_fbank_train.3.ark:7351608
faem0_sx222 quick_test/fbank/raw_fbank_train.1.ark:51746
mtju0_sx400 quick_test/fbank/raw_fbank_train.4.ark:8479312
mctm0_si1350 quick_test/fbank/raw_fbank_train.2.ark:5809260
mjrk0_si2103 quick_test/fbank/raw_fbank_train.3.ark:4833230
mhjb0_si2277 quick_test/fbank/raw_fbank_train.3.ark:1126912
mrjb1_sx300 quick_test/fbank/raw_fbank_train.4.ark:2663449
fsjg0_si1570 quick_test/fbank/raw_fbank_train.1.ark:11704595
fear0_sx82 quick_test/fbank/raw_fbank_train.1.ark:3621842
mpgr0_si780 quick_test/fbank/raw_fbank_train.3.ark:11122436
mfxv0_sx15 quick_test/fbank/raw_fbank_train.2.ark:10922931
mpgr0_si2040 quick_test/fbank/raw_fbank_train.3.ark:11115323
mtas0_sx125 quick_test/fbank/raw_fbank_train.4.ark:7306146
mtrc0_sx183 quick_test/fbank/raw_fbank_train.4.ark:9775379
mtqc0_sx361 quick_test/fbank/raw_fbank_train.4.ark:9675308
mrcw0_sx291 quick_test/fbank/raw_fbank_train.4.ark:1345803
flac0_sx271 quick_test/fbank/raw_fbank_train.1.ark:7162684
fsbk0_sx169 quick_test/fbank/raw_fbank_train.1.ark:11231170
fbmh0_si970 quick_test/fbank/raw_fbank_train.1.ark:1076127
mntw0_si2328 quick_test/fbank/raw_fbank_train.3.ark:10669352
mjrp0_sx225 quick_test/fbank/raw_fbank_train.3.ark:4966354
mmds0_si1973 quick_test/fbank/raw_fbank_train.3.ark:9018056
mkls1_sx195 quick_test/fbank/raw_fbank_train.3.ark:6909060
fjen0_sx237 quick_test/fbank/raw_fbank_train.1.ark:5000475
mvlo0_sx337 quick_test/fbank/raw_fbank_train.4.ark:10363003
mgrl0_sx57 quick_test/fbank/raw_fbank_train.3.ark:474546
mdpk0_sx153 quick_test/fbank/raw_fbank_train.2.ark:8634060
fpaz0_sx423 quick_test/fbank/raw_fbank_train.1.ark:10272859
fskc0_sx156 quick_test/fbank/raw_fbank_train.2.ark:288174
freh0_sx325 quick_test/fbank/raw_fbank_train.1.ark:10662285
mjdm0_si974 quick_test/fbank/raw_fbank_train.3.ark:2500860
mmcc0_sx168 quick_test/fbank/raw_fbank_train.3.ark:8550157
megj0_sx437 quick_test/fbank/raw_fbank_train.2.ark:9911882
feme0_si2135 quick_test/fbank/raw_fbank_train.1.ark:3866360
mjwt0_sx301 quick_test/fbank/raw_fbank_train.3.ark:5429366
flmk0_sx225 quick_test/fbank/raw_fbank_train.1.ark:8286282
mdlm0_sx334 quick_test/fbank/raw_fbank_train.2.ark:7955230
fsah0_si1244 quick_test/fbank/raw_fbank_train.1.ark:10996139
fcke0_sx211 quick_test/fbank/raw_fbank_train.1.ark:1867433
fdmy0_si714 quick_test/fbank/raw_fbank_train.1.ark:3026871
mwem0_sx150 quick_test/fbank/raw_fbank_train.4.ark:10987276
fdas1_si2091 quick_test/fbank/raw_fbank_train.1.ark:2418765
mmar0_sx256 quick_test/fbank/raw_fbank_train.3.ark:8340380
fgmb0_sx155 quick_test/fbank/raw_fbank_train.1.ark:4428512
mrso0_sx399 quick_test/fbank/raw_fbank_train.4.ark:4502695
mmgg0_sx89 quick_test/fbank/raw_fbank_train.3.ark:9438753
flag0_si1464 quick_test/fbank/raw_fbank_train.1.ark:7208176
mcth0_sx309 quick_test/fbank/raw_fbank_train.2.ark:5774081
mmcc0_si1338 quick_test/fbank/raw_fbank_train.3.ark:8509457
falk0_si658 quick_test/fbank/raw_fbank_train.1.ark:232687
fsak0_si1930 quick_test/fbank/raw_fbank_train.1.ark:11121518
mjxl0_si1795 quick_test/fbank/raw_fbank_train.3.ark:5576324
fjwb1_sx165 quick_test/fbank/raw_fbank_train.1.ark:5914949
mtbc0_si543 quick_test/fbank/raw_fbank_train.4.ark:7584028
fcmg0_sx72 quick_test/fbank/raw_fbank_train.1.ark:2097942
fjkl0_sx302 quick_test/fbank/raw_fbank_train.1.ark:5220079
fsak0_sx40 quick_test/fbank/raw_fbank_train.1.ark:11176562
ftmg0_sx92 quick_test/fbank/raw_fbank_train.2.ark:1726095
mrtj0_si772 quick_test/fbank/raw_fbank_train.4.ark:4753366
fklh0_sx357 quick_test/fbank/raw_fbank_train.1.ark:6980147
mdcd0_si1415 quick_test/fbank/raw_fbank_train.2.ark:6395768
ftbw0_sx265 quick_test/fbank/raw_fbank_train.2.ark:1494108
fsag0_si1953 quick_test/fbank/raw_fbank_train.1.ark:10894868
meal0_sx287 quick_test/fbank/raw_fbank_train.2.ark:9603457
mcss0_si688 quick_test/fbank/raw_fbank_train.2.ark:5627004
mbml0_sx449 quick_test/fbank/raw_fbank_train.2.ark:4003587
mkah0_sx448 quick_test/fbank/raw_fbank_train.3.ark:5840258
fsma0_si991 quick_test/fbank/raw_fbank_train.2.ark:659122
mjrg0_sx286 quick_test/fbank/raw_fbank_train.3.ark:4584765
mefg0_si491 quick_test/fbank/raw_fbank_train.2.ark:9736414
fbas0_sx37 quick_test/fbank/raw_fbank_train.1.ark:609213
mjeb0_sx170 quick_test/fbank/raw_fbank_train.3.ark:2617558
mdmt0_sx212 quick_test/fbank/raw_fbank_train.2.ark:8353098
fclt0_si808 quick_test/fbank/raw_fbank_train.1.ark:1920912
mtkd0_sx107 quick_test/fbank/raw_fbank_train.4.ark:8538126
mpgh0_sx204 quick_test/fbank/raw_fbank_train.3.ark:11064797
mdwd0_si1890 quick_test/fbank/raw_fbank_train.2.ark:9268970
mkes0_sx83 quick_test/fbank/raw_fbank_train.3.ark:6455119
fjwb1_sx255 quick_test/fbank/raw_fbank_train.1.ark:5926702
mrfl0_si1156 quick_test/fbank/raw_fbank_train.4.ark:2138512
mdwh0_sx125 quick_test/fbank/raw_fbank_train.2.ark:9392061
mmab1_sx144 quick_test/fbank/raw_fbank_train.3.ark:8007751
fbcg1_sx172 quick_test/fbank/raw_fbank_train.1.ark:665060
mrmg0_sx360 quick_test/fbank/raw_fbank_train.4.ark:3848557
fsag0_sx63 quick_test/fbank/raw_fbank_train.1.ark:10981625
fpad0_sx176 quick_test/fbank/raw_fbank_train.1.ark:10027750
mwac0_si2231 quick_test/fbank/raw_fbank_train.4.ark:10499561
fskl0_sx359 quick_test/fbank/raw_fbank_train.2.ark:408025
fcjf0_sx307 quick_test/fbank/raw_fbank_train.1.ark:1696696
msah1_sx149 quick_test/fbank/raw_fbank_train.4.ark:5250245
mpeb0_sx330 quick_test/fbank/raw_fbank_train.3.ark:10869741
fcrz0_sx163 quick_test/fbank/raw_fbank_train.1.ark:2239581
mbma0_sx142 quick_test/fbank/raw_fbank_train.2.ark:3769078
mprd0_si801 quick_test/fbank/raw_fbank_train.4.ark:188756
mrmg0_sx90 quick_test/fbank/raw_fbank_train.4.ark:3876542
mdjm0_sx285 quick_test/fbank/raw_fbank_train.2.ark:7260646
mgaf0_sx112 quick_test/fbank/raw_fbank_train.2.ark:11005924
mtkd0_si1187 quick_test/fbank/raw_fbank_train.4.ark:8491346
mjpm1_si1897 quick_test/fbank/raw_fbank_train.3.ark:4332310
fgcs0_si2116 quick_test/fbank/raw_fbank_train.1.ark:4186596
mtbc0_sx273 quick_test/fbank/raw_fbank_train.4.ark:7613854
fbmj0_sx156 quick_test/fbank/raw_fbank_train.1.ark:1189104
mabc0_sx421 quick_test/fbank/raw_fbank_train.2.ark:2083644
mtat0_si811 quick_test/fbank/raw_fbank_train.4.ark:7385138
fpmy0_sx343 quick_test/fbank/raw_fbank_train.1.ark:10574733
mjee0_sx67 quick_test/fbank/raw_fbank_train.3.ark:2868299
mfwk0_si619 quick_test/fbank/raw_fbank_train.2.ark:10699534
mtml0_sx345 quick_test/fbank/raw_fbank_train.4.ark:8959253
mfxv0_sx105 quick_test/fbank/raw_fbank_train.2.ark:10913619
fvmh0_sx26 quick_test/fbank/raw_fbank_train.2.ark:1993825
mcdr0_sx74 quick_test/fbank/raw_fbank_train.2.ark:4902161
fjen0_si1677 quick_test/fbank/raw_fbank_train.1.ark:4958175
msrr0_sx30 quick_test/fbank/raw_fbank_train.4.ark:6895913
fdml0_si1149 quick_test/fbank/raw_fbank_train.1.ark:2900779
mrtj0_sx412 quick_test/fbank/raw_fbank_train.4.ark:4824418
mdlc0_si765 quick_test/fbank/raw_fbank_train.2.ark:7540791
mjkr0_sx211 quick_test/fbank/raw_fbank_train.3.ark:3542776
mclm0_si1456 quick_test/fbank/raw_fbank_train.2.ark:5334976
mtkd0_sx17 quick_test/fbank/raw_fbank_train.4.ark:8550798
fjxp0_sx222 quick_test/fbank/raw_fbank_train.1.ark:6128432
mpgh0_sx384 quick_test/fbank/raw_fbank_train.3.ark:11090095
mmdg0_sx430 quick_test/fbank/raw_fbank_train.3.ark:8780586
mcss0_sx390 quick_test/fbank/raw_fbank_train.2.ark:5700361
mjhi0_si698 quick_test/fbank/raw_fbank_train.3.ark:3100969
mrlk0_sx393 quick_test/fbank/raw_fbank_train.4.ark:3589026
mwrp0_sx363 quick_test/fbank/raw_fbank_train.4.ark:11330370
mgag0_sx331 quick_test/fbank/raw_fbank_train.2.ark:11112534
fcmm0_sx273 quick_test/fbank/raw_fbank_train.1.ark:2153789
mafm0_sx219 quick_test/fbank/raw_fbank_train.2.ark:2537784
mhxl0_sx152 quick_test/fbank/raw_fbank_train.3.ark:1506084
flkm0_si686 quick_test/fbank/raw_fbank_train.1.ark:7967940
mzmb0_sx446 quick_test/fbank/raw_fbank_train.4.ark:11636003
msjk0_sx156 quick_test/fbank/raw_fbank_train.4.ark:6372644
mtat0_si1110 quick_test/fbank/raw_fbank_train.4.ark:7353751
mreh1_si969 quick_test/fbank/raw_fbank_train.4.ark:1772359
flet0_sx277 quick_test/fbank/raw_fbank_train.1.ark:7484313
msrg0_sx141 quick_test/fbank/raw_fbank_train.4.ark:6774983
mcxm0_si721 quick_test/fbank/raw_fbank_train.2.ark:5933832
fjsk0_sx242 quick_test/fbank/raw_fbank_train.1.ark:5727333
mtrr0_sx198 quick_test/fbank/raw_fbank_train.4.ark:9871356
mram0_sx285 quick_test/fbank/raw_fbank_train.4.ark:945622
mhit0_si2243 quick_test/fbank/raw_fbank_train.3.ark:1018333
mrjb1_sx210 quick_test/fbank/raw_fbank_train.4.ark:2644064
mcss0_sx300 quick_test/fbank/raw_fbank_train.2.ark:5690608
milb0_sx183 quick_test/fbank/raw_fbank_train.3.ark:1617028
fmju0_si1389 quick_test/fbank/raw_fbank_train.1.ark:9035709
mclk0_sx400 quick_test/fbank/raw_fbank_train.2.ark:5324102
fgcs0_si1486 quick_test/fbank/raw_fbank_train.1.ark:4175922
mrmg0_si1080 quick_test/fbank/raw_fbank_train.4.ark:3787790
fcjs0_si977 quick_test/fbank/raw_fbank_train.1.ark:1736222
fskc0_si786 quick_test/fbank/raw_fbank_train.2.ark:280901
mkjo0_sx257 quick_test/fbank/raw_fbank_train.3.ark:6511046
mdcm0_sx130 quick_test/fbank/raw_fbank_train.2.ark:6533693
fsrh0_sx41 quick_test/fbank/raw_fbank_train.2.ark:1140146
mjpm0_sx378 quick_test/fbank/raw_fbank_train.3.ark:4319756
mhrm0_sx58 quick_test/fbank/raw_fbank_train.3.ark:1458751
fjhk0_sx122 quick_test/fbank/raw_fbank_train.1.ark:5098188
mjee0_sx427 quick_test/fbank/raw_fbank_train.3.ark:2857587
mmam0_si1668 quick_test/fbank/raw_fbank_train.3.ark:8203935
mrjh0_sx169 quick_test/fbank/raw_fbank_train.4.ark:2736135
mprb0_sx215 quick_test/fbank/raw_fbank_train.4.ark:111357
mjeb0_sx206 quick_test/fbank/raw_fbank_train.3.ark:2636151
mjrh1_sx64 quick_test/fbank/raw_fbank_train.3.ark:4816042
mbef0_si651 quick_test/fbank/raw_fbank_train.2.ark:3481650
fmpg0_sx432 quick_test/fbank/raw_fbank_train.1.ark:9541085
fsag0_sx243 quick_test/fbank/raw_fbank_train.1.ark:10930207
mjra0_sx66 quick_test/fbank/raw_fbank_train.3.ark:4519406
mrms0_sx120 quick_test/fbank/raw_fbank_train.4.ark:4146568
mdma0_sx170 quick_test/fbank/raw_fbank_train.2.ark:8229120
fsag0_si1323 quick_test/fbank/raw_fbank_train.1.ark:10878274
maeo0_si1326 quick_test/fbank/raw_fbank_train.2.ark:2402185
mkls0_sx177 quick_test/fbank/raw_fbank_train.3.ark:6784850
fjxm0_sx311 quick_test/fbank/raw_fbank_train.1.ark:6028560
mfrm0_sx435 quick_test/fbank/raw_fbank_train.2.ark:10654961
fpad0_si716 quick_test/fbank/raw_fbank_train.1.ark:10008637
mjrk0_sx160 quick_test/fbank/raw_fbank_train.3.ark:4857776
mhmr0_sx129 quick_test/fbank/raw_fbank_train.3.ark:1317835
mrjm1_sx308 quick_test/fbank/raw_fbank_train.4.ark:2971452
mrxb0_sx325 quick_test/fbank/raw_fbank_train.4.ark:5189765
mlbc0_sx429 quick_test/fbank/raw_fbank_train.3.ark:7305435
mmeb0_sx367 quick_test/fbank/raw_fbank_train.3.ark:9226598
msdb0_sx17 quick_test/fbank/raw_fbank_train.4.ark:5631579
mrmh0_sx121 quick_test/fbank/raw_fbank_train.4.ark:3929077
mjae0_si1524 quick_test/fbank/raw_fbank_train.3.ark:1764776
mram0_si1951 quick_test/fbank/raw_fbank_train.4.ark:896611
fjsp0_sx174 quick_test/fbank/raw_fbank_train.1.ark:5812205
fkkh0_sx390 quick_test/fbank/raw_fbank_train.1.ark:6702376
megj0_sx257 quick_test/fbank/raw_fbank_train.2.ark:9896538
mjae0_si2154 quick_test/fbank/raw_fbank_train.3.ark:1787524
msmr0_sx55 quick_test/fbank/raw_fbank_train.4.ark:6626024
fmpg0_sx252 quick_test/fbank/raw_fbank_train.1.ark:9511659
ftlg0_sx213 quick_test/fbank/raw_fbank_train.2.ark:1598852
fsma0_sx271 quick_test/fbank/raw_fbank_train.2.ark:691908
fcaj0_sx309 quick_test/fbank/raw_fbank_train.1.ark:1399221
fjkl0_si1562 quick_test/fbank/raw_fbank_train.1.ark:5159513
fspm0_si611 quick_test/fbank/raw_fbank_train.2.ark:982877
mwar0_sx415 quick_test/fbank/raw_fbank_train.4.ark:10749418
mkdt0_sx83 quick_test/fbank/raw_fbank_train.3.ark:6347054
mapv0_si1923 quick_test/fbank/raw_fbank_train.2.ark:2904467
mdtb0_si1200 quick_test/fbank/raw_fbank_train.2.ark:9166710
medr0_sx294 quick_test/fbank/raw_fbank_train.2.ark:9708675
mmds0_sx173 quick_test/fbank/raw_fbank_train.3.ark:9031962
faem0_sx42 quick_test/fbank/raw_fbank_train.1.ark:91084
fdfb0_sx148 quick_test/fbank/raw_fbank_train.1.ark:2638483
mtju0_sx220 quick_test/fbank/raw_fbank_train.4.ark:8443654
mkam0_sx236 quick_test/fbank/raw_fbank_train.3.ark:6010883
mhmg0_sx285 quick_test/fbank/raw_fbank_train.3.ark:1253188
ftaj0_sx159 quick_test/fbank/raw_fbank_train.2.ark:1293665
mtrr0_sx108 quick_test/fbank/raw_fbank_train.4.ark:9848491
fcaj0_sx219 quick_test/fbank/raw_fbank_train.1.ark:1386028
mhrm0_si1475 quick_test/fbank/raw_fbank_train.3.ark:1378280
fblv0_sx158 quick_test/fbank/raw_fbank_train.1.ark:990255
mkln0_sx338 quick_test/fbank/raw_fbank_train.3.ark:6611984
mtmn0_si1064 quick_test/fbank/raw_fbank_train.4.ark:9001032
mlel0_sx76 quick_test/fbank/raw_fbank_train.3.ark:7428092
mgaf0_si652 quick_test/fbank/raw_fbank_train.2.ark:10997211
mses0_sx419 quick_test/fbank/raw_fbank_train.4.ark:6082188
mjlg1_si1642 quick_test/fbank/raw_fbank_train.3.ark:3689407
msfv0_sx182 quick_test/fbank/raw_fbank_train.4.ark:6265899
mpsw0_sx24 quick_test/fbank/raw_fbank_train.4.ark:525896
mtjm0_sx56 quick_test/fbank/raw_fbank_train.4.ark:8269582
mprb0_si575 quick_test/fbank/raw_fbank_train.4.ark:80051
msrr0_si1131 quick_test/fbank/raw_fbank_train.4.ark:6828548
fsjw0_si703 quick_test/fbank/raw_fbank_train.2.ark:183676
