mkdd0_sx307 quick_test/data-fmllr-tri3/train/data/feats_fmllr_train.7.ark:6202923
fsbk0_si1069 quick_test/data-fmllr-tri3/train/data/feats_fmllr_train.3.ark:6333883
mrcw0_si1371 quick_test/data-fmllr-tri3/train/data/feats_fmllr_train.8.ark:13699929
fskp0_sx378 quick_test/data-fmllr-tri3/train/data/feats_fmllr_train.3.ark:11051180
mhrm0_sx418 quick_test/data-fmllr-tri3/train/data/feats_fmllr_train.6.ark:5609131
fdjh0_sx125 quick_test/data-fmllr-tri3/train/data/feats_fmllr_train.1.ark:10626914
mmdm1_sx243 quick_test/data-fmllr-tri3/train/data/feats_fmllr_train.7.ark:16800758
mbwp0_si1531 quick_test/data-fmllr-tri3/train/data/feats_fmllr_train.4.ark:7708092
fjkl0_sx392 quick_test/data-fmllr-tri3/train/data/feats_fmllr_train.2.ark:1564696
mdwm0_sx16 quick_test/data-fmllr-tri3/train/data/feats_fmllr_train.5.ark:10589183
meal0_sx377 quick_test/data-fmllr-tri3/train/data/feats_fmllr_train.5.ark:11042922
mjra0_sx66 quick_test/data-fmllr-tri3/train/data/feats_fmllr_train.6.ark:17569164
mjbg0_sx152 quick_test/data-fmllr-tri3/train/data/feats_fmllr_train.6.ark:7768429
mlns0_sx327 quick_test/data-fmllr-tri3/train/data/feats_fmllr_train.7.ark:12031300
mhrm0_si958 quick_test/data-fmllr-tri3/train/data/feats_fmllr_train.6.ark:5429823
frjb0_si1470 quick_test/data-fmllr-tri3/train/data/feats_fmllr_train.3.ark:4395066
fpaz0_sx153 quick_test/data-fmllr-tri3/train/data/feats_fmllr_train.3.ark:2596277
mjwt0_sx301 quick_test/data-fmllr-tri3/train/data/feats_fmllr_train.7.ark:3115908
mjsr0_sx164 quick_test/data-fmllr-tri3/train/data/feats_fmllr_train.7.ark:1688804
mwad0_si2322 quick_test/data-fmllr-tri3/train/data/feats_fmllr_train.10.ark:13948305
mvlo0_sx67 quick_test/data-fmllr-tri3/train/data/feats_fmllr_train.10.ark:13034027
fdmy0_sx297 quick_test/data-fmllr-tri3/train/data/feats_fmllr_train.1.ark:12031166
mrjm0_si1228 quick_test/data-fmllr-tri3/train/data/feats_fmllr_train.9.ark:1734827
mdlc1_sx175 quick_test/data-fmllr-tri3/train/data/feats_fmllr_train.5.ark:3358153
mmag0_sx316 quick_test/data-fmllr-tri3/train/data/feats_fmllr_train.7.ark:13699048
fksr0_sx37 quick_test/data-fmllr-tri3/train/data/feats_fmllr_train.2.ark:8776738
mvjh0_sx206 quick_test/data-fmllr-tri3/train/data/feats_fmllr_train.10.ark:12546210
msdb0_sx377 quick_test/data-fmllr-tri3/train/data/feats_fmllr_train.9.ark:12765711
mjrp0_sx225 quick_test/data-fmllr-tri3/train/data/feats_fmllr_train.7.ark:1309574
fpaz0_sx243 quick_test/data-fmllr-tri3/train/data/feats_fmllr_train.3.ark:2652784
mtpp0_sx248 quick_test/data-fmllr-tri3/train/data/feats_fmllr_train.10.ark:9338874
mtkp0_sx303 quick_test/data-fmllr-tri3/train/data/feats_fmllr_train.10.ark:6382124
mmdm1_sx153 quick_test/data-fmllr-tri3/train/data/feats_fmllr_train.7.ark:16727451
mrdm0_si1595 quick_test/data-fmllr-tri3/train/data/feats_fmllr_train.8.ark:14477032
mgjc0_si1256 quick_test/data-fmllr-tri3/train/data/feats_fmllr_train.6.ark:1075385
mdlr1_sx129 quick_test/data-fmllr-tri3/train/data/feats_fmllr_train.5.ark:5225157
mdwd0_sx450 quick_test/data-fmllr-tri3/train/data/feats_fmllr_train.5.ark:9848324
fjlg0_si1506 quick_test/data-fmllr-tri3/train/data/feats_fmllr_train.2.ark:1614004
mjpg0_sx111 quick_test/data-fmllr-tri3/train/data/feats_fmllr_train.6.ark:16271606
mejl0_sx62 quick_test/data-fmllr-tri3/train/data/feats_fmllr_train.5.ark:12555306
mtpr0_sx160 quick_test/data-fmllr-tri3/train/data/feats_fmllr_train.10.ark:9679544
mdks0_sx436 quick_test/data-fmllr-tri3/train/data/feats_fmllr_train.5.ark:2222542
fhxs0_sx265 quick_test/data-fmllr-tri3/train/data/feats_fmllr_train.1.ark:18663231
mhit0_sx173 quick_test/data-fmllr-tri3/train/data/feats_fmllr_train.6.ark:4069301
mrld0_si2224 quick_test/data-fmllr-tri3/train/data/feats_fmllr_train.9.ark:3436014
mpar0_si2206 quick_test/data-fmllr-tri3/train/data/feats_fmllr_train.8.ark:5763936
mkls0_si1437 quick_test/data-fmllr-tri3/train/data/feats_fmllr_train.7.ark:8197209
mcxm0_si1351 quick_test/data-fmllr-tri3/train/data/feats_fmllr_train.4.ark:13986762
mkdb0_sx242 quick_test/data-fmllr-tri3/train/data/feats_fmllr_train.7.ark:5735319
marw0_si1906 quick_test/data-fmllr-tri3/train/data/feats_fmllr_train.4.ark:3016820
mram0_sx375 quick_test/data-fmllr-tri3/train/data/feats_fmllr_train.8.ark:12461969
flmc0_si1372 quick_test/data-fmllr-tri3/train/data/feats_fmllr_train.2.ark:12819605
fsmm0_si1944 quick_test/data-fmllr-tri3/train/data/feats_fmllr_train.3.ark:11939351
mdlm0_si1234 quick_test/data-fmllr-tri3/train/data/feats_fmllr_train.5.ark:4310241
fpls0_si960 quick_test/data-fmllr-tri3/train/data/feats_fmllr_train.3.ark:3288524
mrmh0_sx211 quick_test/data-fmllr-tri3/train/data/feats_fmllr_train.9.ark:6105617
ftmg0_sx92 quick_test/data-fmllr-tri3/train/data/feats_fmllr_train.3.ark:15711544
fkfb0_sx348 quick_test/data-fmllr-tri3/train/data/feats_fmllr_train.2.ark:6690026
fhlm0_si2190 quick_test/data-fmllr-tri3/train/data/feats_fmllr_train.1.ark:17983571
mdns0_sx291 quick_test/data-fmllr-tri3/train/data/feats_fmllr_train.5.ark:6586529
mgag0_sx331 quick_test/data-fmllr-tri3/train/data/feats_fmllr_train.5.ark:16805697
mtjs0_sx112 quick_test/data-fmllr-tri3/train/data/feats_fmllr_train.10.ark:5058059
fsrh0_sx401 quick_test/data-fmllr-tri3/train/data/feats_fmllr_train.3.ark:13389577
mdjm0_sx105 quick_test/data-fmllr-tri3/train/data/feats_fmllr_train.5.ark:1728323
mafm0_si2199 quick_test/data-fmllr-tri3/train/data/feats_fmllr_train.4.ark:770076
mpeb0_si600 quick_test/data-fmllr-tri3/train/data/feats_fmllr_train.8.ark:6117620
msah1_sx419 quick_test/data-fmllr-tri3/train/data/feats_fmllr_train.9.ark:11346735
mprb0_sx395 quick_test/data-fmllr-tri3/train/data/feats_fmllr_train.8.ark:9330633
faem0_sx312 quick_test/data-fmllr-tri3/train/data/feats_fmllr_train.1.ark:244309
mjrh1_si1774 quick_test/data-fmllr-tri3/train/data/feats_fmllr_train.7.ark:461219
msmr0_si775 quick_test/data-fmllr-tri3/train/data/feats_fmllr_train.9.ark:16346251
maeo0_si1655 quick_test/data-fmllr-tri3/train/data/feats_fmllr_train.4.ark:435138
mrso0_sx309 quick_test/data-fmllr-tri3/train/data/feats_fmllr_train.9.ark:8183211
mrmb0_sx51 quick_test/data-fmllr-tri3/train/data/feats_fmllr_train.9.ark:5470381
mjxl0_si542 quick_test/data-fmllr-tri3/train/data/feats_fmllr_train.7.ark:3714501
mkah0_si898 quick_test/data-fmllr-tri3/train/data/feats_fmllr_train.7.ark:4511094
mdhl0_sx269 quick_test/data-fmllr-tri3/train/data/feats_fmllr_train.5.ark:1017356
mjeb0_si656 quick_test/data-fmllr-tri3/train/data/feats_fmllr_train.6.ark:10139625
fceg0_si1248 quick_test/data-fmllr-tri3/train/data/feats_fmllr_train.1.ark:6075585
marc0_si558 quick_test/data-fmllr-tri3/train/data/feats_fmllr_train.4.ark:2720630
mbgt0_sx81 quick_test/data-fmllr-tri3/train/data/feats_fmllr_train.4.ark:5154226
mhxl0_si1772 quick_test/data-fmllr-tri3/train/data/feats_fmllr_train.6.ark:5723585
mhit0_sx263 quick_test/data-fmllr-tri3/train/data/feats_fmllr_train.6.ark:4126608
mmjb1_sx328 quick_test/data-fmllr-tri3/train/data/feats_fmllr_train.8.ark:1270242
mjae0_sx444 quick_test/data-fmllr-tri3/train/data/feats_fmllr_train.6.ark:7141836
fltm0_si1700 quick_test/data-fmllr-tri3/train/data/feats_fmllr_train.2.ark:13967006
mdjm0_si1455 quick_test/data-fmllr-tri3/train/data/feats_fmllr_train.5.ark:1555441
mtlb0_si1764 quick_test/data-fmllr-tri3/train/data/feats_fmllr_train.10.ark:6569273
mtlc0_si1477 quick_test/data-fmllr-tri3/train/data/feats_fmllr_train.10.ark:6957650
fpjf0_sx56 quick_test/data-fmllr-tri3/train/data/feats_fmllr_train.3.ark:3162681
mjwg0_sx265 quick_test/data-fmllr-tri3/train/data/feats_fmllr_train.7.ark:2230967
mges0_si1481 quick_test/data-fmllr-tri3/train/data/feats_fmllr_train.6.ark:751328
mjdg0_sx142 quick_test/data-fmllr-tri3/train/data/feats_fmllr_train.6.ark:9388338
mdbp0_si1158 quick_test/data-fmllr-tri3/train/data/feats_fmllr_train.4.ark:15474348
mjma0_sx145 quick_test/data-fmllr-tri3/train/data/feats_fmllr_train.6.ark:15230634
mcxm0_sx451 quick_test/data-fmllr-tri3/train/data/feats_fmllr_train.4.ark:14266285
mdpb0_si866 quick_test/data-fmllr-tri3/train/data/feats_fmllr_train.5.ark:6785039
fapb0_si1693 quick_test/data-fmllr-tri3/train/data/feats_fmllr_train.1.ark:1637384
mefg0_sx105 quick_test/data-fmllr-tri3/train/data/feats_fmllr_train.5.ark:11607567
mtpp0_si1508 quick_test/data-fmllr-tri3/train/data/feats_fmllr_train.10.ark:9160205
fmem0_si2007 quick_test/data-fmllr-tri3/train/data/feats_fmllr_train.2.ark:15152617
fkfb0_si978 quick_test/data-fmllr-tri3/train/data/feats_fmllr_train.2.ark:6541465
mkam0_si1250 quick_test/data-fmllr-tri3/train/data/feats_fmllr_train.7.ark:5139953
mdks0_sx76 quick_test/data-fmllr-tri3/train/data/feats_fmllr_train.5.ark:2257768
mdcm0_sx310 quick_test/data-fmllr-tri3/train/data/feats_fmllr_train.4.ark:16522598
mfwk0_sx349 quick_test/data-fmllr-tri3/train/data/feats_fmllr_train.5.ark:15332348
mjrg0_si736 quick_test/data-fmllr-tri3/train/data/feats_fmllr_train.6.ark:17680767
mkls0_si2067 quick_test/data-fmllr-tri3/train/data/feats_fmllr_train.7.ark:8317585
freh0_sx235 quick_test/data-fmllr-tri3/train/data/feats_fmllr_train.3.ark:4206450
ftaj0_sx429 quick_test/data-fmllr-tri3/train/data/feats_fmllr_train.3.ark:14137851
mmam0_sx337 quick_test/data-fmllr-tri3/train/data/feats_fmllr_train.7.ark:14060866
mrfk0_si1076 quick_test/data-fmllr-tri3/train/data/feats_fmllr_train.8.ark:16712386
msas0_sx116 quick_test/data-fmllr-tri3/train/data/feats_fmllr_train.9.ark:11628311
fecd0_si2048 quick_test/data-fmllr-tri3/train/data/feats_fmllr_train.1.ark:14225136
mrre0_sx434 quick_test/data-fmllr-tri3/train/data/feats_fmllr_train.9.ark:7775820
mclk0_sx400 quick_test/data-fmllr-tri3/train/data/feats_fmllr_train.4.ark:11725433
mtqc0_sx451 quick_test/data-fmllr-tri3/train/data/feats_fmllr_train.10.ark:10336002
fmjb0_sx277 quick_test/data-fmllr-tri3/train/data/feats_fmllr_train.2.ark:15742836
fklc0_si985 quick_test/data-fmllr-tri3/train/data/feats_fmllr_train.2.ark:7365899
fmmh0_si2167 quick_test/data-fmllr-tri3/train/data/feats_fmllr_train.2.ark:17598397
mjkr0_si1201 quick_test/data-fmllr-tri3/train/data/feats_fmllr_train.6.ark:13552563
mfxs0_si2225 quick_test/data-fmllr-tri3/train/data/feats_fmllr_train.5.ark:15536937
mcpm0_si564 quick_test/data-fmllr-tri3/train/data/feats_fmllr_train.4.ark:12213253
fcjf0_sx127 quick_test/data-fmllr-tri3/train/data/feats_fmllr_train.1.ark:6550764
fmmh0_sx367 quick_test/data-fmllr-tri3/train/data/feats_fmllr_train.2.ark:17737198
mdlc2_sx84 quick_test/data-fmllr-tri3/train/data/feats_fmllr_train.5.ark:3858797
mrmb0_sx231 quick_test/data-fmllr-tri3/train/data/feats_fmllr_train.9.ark:5342941
fpab1_sx211 quick_test/data-fmllr-tri3/train/data/feats_fmllr_train.3.ark:1006475
fkkh0_si1290 quick_test/data-fmllr-tri3/train/data/feats_fmllr_train.2.ark:6890107
mcdd0_sx163 quick_test/data-fmllr-tri3/train/data/feats_fmllr_train.4.ark:9474800
fcmm0_sx420 quick_test/data-fmllr-tri3/train/data/feats_fmllr_train.1.ark:8462811
mdmt0_sx302 quick_test/data-fmllr-tri3/train/data/feats_fmllr_train.5.ark:6144686
mstf0_si1396 quick_test/data-fmllr-tri3/train/data/feats_fmllr_train.9.ark:17729943
mchl0_sx447 quick_test/data-fmllr-tri3/train/data/feats_fmllr_train.4.ark:11289670
mrmh0_sx31 quick_test/data-fmllr-tri3/train/data/feats_fmllr_train.9.ark:6190790
mkam0_si1465 quick_test/data-fmllr-tri3/train/data/feats_fmllr_train.7.ark:5256169
ftbw0_sx175 quick_test/data-fmllr-tri3/train/data/feats_fmllr_train.3.ark:14741564
mmrp0_si774 quick_test/data-fmllr-tri3/train/data/feats_fmllr_train.8.ark:2216732
flkm0_si620 quick_test/data-fmllr-tri3/train/data/feats_fmllr_train.2.ark:12094239
maeo0_si1326 quick_test/data-fmllr-tri3/train/data/feats_fmllr_train.4.ark:368870
mjpm1_sx41 quick_test/data-fmllr-tri3/train/data/feats_fmllr_train.6.ark:17164307
mcew0_sx272 quick_test/data-fmllr-tri3/train/data/feats_fmllr_train.4.ark:10734198
fsak0_sx400 quick_test/data-fmllr-tri3/train/data/feats_fmllr_train.3.ark:6290175
mdem0_sx338 quick_test/data-fmllr-tri3/train/data/feats_fmllr_train.5.ark:646286
mtwh1_sx72 quick_test/data-fmllr-tri3/train/data/feats_fmllr_train.10.ark:11855775
fksr0_si1747 quick_test/data-fmllr-tri3/train/data/feats_fmllr_train.2.ark:8525724
fjhk0_si1652 quick_test/data-fmllr-tri3/train/data/feats_fmllr_train.2.ark:906717
mjsr0_sx344 quick_test/data-fmllr-tri3/train/data/feats_fmllr_train.7.ark:1792698
fleh0_si1681 quick_test/data-fmllr-tri3/train/data/feats_fmllr_train.2.ark:9732615
flet0_sx147 quick_test/data-fmllr-tri3/train/data/feats_fmllr_train.2.ark:10228407
mmws1_sx27 quick_test/data-fmllr-tri3/train/data/feats_fmllr_train.8.ark:4469231
msms0_sx443 quick_test/data-fmllr-tri3/train/data/feats_fmllr_train.9.ark:16900336
mrjm1_si1298 quick_test/data-fmllr-tri3/train/data/feats_fmllr_train.9.ark:2099977
mtpf0_sx425 quick_test/data-fmllr-tri3/train/data/feats_fmllr_train.10.ark:8751774
mwrp0_sx183 quick_test/data-fmllr-tri3/train/data/feats_fmllr_train.10.ark:16588576
mrml0_sx161 quick_test/data-fmllr-tri3/train/data/feats_fmllr_train.9.ark:6430287
mclm0_sx286 quick_test/data-fmllr-tri3/train/data/feats_fmllr_train.4.ark:12010583
mrfk0_sx356 quick_test/data-fmllr-tri3/train/data/feats_fmllr_train.8.ark:16930923
mdbp0_sx78 quick_test/data-fmllr-tri3/train/data/feats_fmllr_train.4.ark:15851977
fvkb0_sx169 quick_test/data-fmllr-tri3/train/data/feats_fmllr_train.3.ark:16219392
mdjm0_sx285 quick_test/data-fmllr-tri3/train/data/feats_fmllr_train.5.ark:1840083
mbef0_sx21 quick_test/data-fmllr-tri3/train/data/feats_fmllr_train.4.ark:4694275
msdh0_sx350 quick_test/data-fmllr-tri3/train/data/feats_fmllr_train.9.ark:13033875
mjrh0_si1840 quick_test/data-fmllr-tri3/train/data/feats_fmllr_train.7.ark:89029
fljd0_sx166 quick_test/data-fmllr-tri3/train/data/feats_fmllr_train.2.ark:11348260
mwac0_si2231 quick_test/data-fmllr-tri3/train/data/feats_fmllr_train.10.ark:13479580
mdpk0_sx243 quick_test/data-fmllr-tri3/train/data/feats_fmllr_train.5.ark:7229470
mtrc0_si1623 quick_test/data-fmllr-tri3/train/data/feats_fmllr_train.10.ark:10473976
mprt0_si495 quick_test/data-fmllr-tri3/train/data/feats_fmllr_train.8.ark:10347602
mrcg0_sx168 quick_test/data-fmllr-tri3/train/data/feats_fmllr_train.8.ark:13407314
flod0_sx117 quick_test/data-fmllr-tri3/train/data/feats_fmllr_train.2.ark:13729882
mrlj1_sx411 quick_test/data-fmllr-tri3/train/data/feats_fmllr_train.9.ark:4317704
mrlk0_sx393 quick_test/data-fmllr-tri3/train/data/feats_fmllr_train.9.ark:4740027
mdks0_si1066 quick_test/data-fmllr-tri3/train/data/feats_fmllr_train.5.ark:1926538
fskp0_sx198 quick_test/data-fmllr-tri3/train/data/feats_fmllr_train.3.ark:10966646
mdks0_sx346 quick_test/data-fmllr-tri3/train/data/feats_fmllr_train.5.ark:2156915
msem1_sx450 quick_test/data-fmllr-tri3/train/data/feats_fmllr_train.9.ark:14056257
mcal0_sx238 quick_test/data-fmllr-tri3/train/data/feats_fmllr_train.4.ark:8769593
mkdt0_sx353 quick_test/data-fmllr-tri3/train/data/feats_fmllr_train.7.ark:6578499
fpac0_si1921 quick_test/data-fmllr-tri3/train/data/feats_fmllr_train.3.ark:1188503
mmdb0_si1617 quick_test/data-fmllr-tri3/train/data/feats_fmllr_train.7.ark:15537946
mppc0_si782 quick_test/data-fmllr-tri3/train/data/feats_fmllr_train.8.ark:8648522
mgjc0_sx255 quick_test/data-fmllr-tri3/train/data/feats_fmllr_train.6.ark:1282695
fjhk0_sx392 quick_test/data-fmllr-tri3/train/data/feats_fmllr_train.2.ark:1201919
mdsj0_sx22 quick_test/data-fmllr-tri3/train/data/feats_fmllr_train.5.ark:8394280
mdss1_si697 quick_test/data-fmllr-tri3/train/data/feats_fmllr_train.5.ark:8982501
mjrp0_sx315 quick_test/data-fmllr-tri3/train/data/feats_fmllr_train.7.ark:1342401
mbth0_sx212 quick_test/data-fmllr-tri3/train/data/feats_fmllr_train.4.ark:7512944
mjxa0_sx247 quick_test/data-fmllr-tri3/train/data/feats_fmllr_train.7.ark:3426018
mtab0_si2202 quick_test/data-fmllr-tri3/train/data/feats_fmllr_train.10.ark:567618
msjk0_si2226 quick_test/data-fmllr-tri3/train/data/feats_fmllr_train.9.ark:15491391
fkdw0_si1891 quick_test/data-fmllr-tri3/train/data/feats_fmllr_train.2.ark:6129701
mbsb0_sx363 quick_test/data-fmllr-tri3/train/data/feats_fmllr_train.4.ark:7229582
fceg0_si1878 quick_test/data-fmllr-tri3/train/data/feats_fmllr_train.1.ark:6132733
fblv0_si1058 quick_test/data-fmllr-tri3/train/data/feats_fmllr_train.1.ark:3664362
fbas0_si1387 quick_test/data-fmllr-tri3/train/data/feats_fmllr_train.1.ark:2053414
fjdm2_si1582 quick_test/data-fmllr-tri3/train/data/feats_fmllr_train.2.ark:13
mjrh0_sx45 quick_test/data-fmllr-tri3/train/data/feats_fmllr_train.7.ark:340203
mree0_sx114 quick_test/data-fmllr-tri3/train/data/feats_fmllr_train.8.ark:15321681
frjb0_si1427 quick_test/data-fmllr-tri3/train/data/feats_fmllr_train.3.ark:4352158
mmjb1_si2038 quick_test/data-fmllr-tri3/train/data/feats_fmllr_train.8.ark:1082614
fkde0_sx151 quick_test/data-fmllr-tri3/train/data/feats_fmllr_train.2.ark:5801858
fgdp0_si2248 quick_test/data-fmllr-tri3/train/data/feats_fmllr_train.1.ark:16642439
mjpm1_sx131 quick_test/data-fmllr-tri3/train/data/feats_fmllr_train.6.ark:16957160
fetb0_sx428 quick_test/data-fmllr-tri3/train/data/feats_fmllr_train.1.ark:15697602
mwad0_sx162 quick_test/data-fmllr-tri3/train/data/feats_fmllr_train.10.ark:13985292
mgjc0_sx165 quick_test/data-fmllr-tri3/train/data/feats_fmllr_train.6.ark:1222828
mwem0_sx240 quick_test/data-fmllr-tri3/train/data/feats_fmllr_train.10.ark:15416750
fklc1_sx328 quick_test/data-fmllr-tri3/train/data/feats_fmllr_train.2.ark:7928598
fdkn0_si1081 quick_test/data-fmllr-tri3/train/data/feats_fmllr_train.1.ark:10838089
mjbg0_sx242 quick_test/data-fmllr-tri3/train/data/feats_fmllr_train.6.ark:7820616
mhjb0_si1647 quick_test/data-fmllr-tri3/train/data/feats_fmllr_train.6.ark:4336664
fdtd0_si931 quick_test/data-fmllr-tri3/train/data/feats_fmllr_train.1.ark:12689414
mmcc0_sx258 quick_test/data-fmllr-tri3/train/data/feats_fmllr_train.7.ark:15285330
mjmd0_sx398 quick_test/data-fmllr-tri3/train/data/feats_fmllr_train.6.ark:15705839
msdh0_sx440 quick_test/data-fmllr-tri3/train/data/feats_fmllr_train.9.ark:13097582
mcdr0_sx344 quick_test/data-fmllr-tri3/train/data/feats_fmllr_train.4.ark:10000991
fmbg0_sx80 quick_test/data-fmllr-tri3/train/data/feats_fmllr_train.2.ark:15057521
flhd0_si1974 quick_test/data-fmllr-tri3/train/data/feats_fmllr_train.2.ark:10491478
mljh0_si1324 quick_test/data-fmllr-tri3/train/data/feats_fmllr_train.7.ark:11325187
msah1_sx149 quick_test/data-fmllr-tri3/train/data/feats_fmllr_train.9.ark:11202014
mdtb0_sx300 quick_test/data-fmllr-tri3/train/data/feats_fmllr_train.5.ark:9452239
fjsp0_si1763 quick_test/data-fmllr-tri3/train/data/feats_fmllr_train.2.ark:3728719
mdpb0_sx56 quick_test/data-fmllr-tri3/train/data/feats_fmllr_train.5.ark:7025813
mbma0_si592 quick_test/data-fmllr-tri3/train/data/feats_fmllr_train.4.ark:5653726
mjdm0_sx80 quick_test/data-fmllr-tri3/train/data/feats_fmllr_train.6.ark:10004662
fpaz0_si963 quick_test/data-fmllr-tri3/train/data/feats_fmllr_train.3.ark:2530650
mwem0_sx420 quick_test/data-fmllr-tri3/train/data/feats_fmllr_train.10.ark:15520644
mmxs0_si629 quick_test/data-fmllr-tri3/train/data/feats_fmllr_train.8.ark:4656726
meal0_si2177 quick_test/data-fmllr-tri3/train/data/feats_fmllr_train.5.ark:10811080
mjpg0_si1191 quick_test/data-fmllr-tri3/train/data/feats_fmllr_train.6.ark:16109124
mses0_si1589 quick_test/data-fmllr-tri3/train/data/feats_fmllr_train.9.ark:14166391
mrms0_sx390 quick_test/data-fmllr-tri3/train/data/feats_fmllr_train.9.ark:7049492
mjwg0_sx445 quick_test/data-fmllr-tri3/train/data/feats_fmllr_train.7.ark:2322541
mlns0_si777 quick_test/data-fmllr-tri3/train/data/feats_fmllr_train.7.ark:11924979
mded0_sx450 quick_test/data-fmllr-tri3/train/data/feats_fmllr_train.4.ark:17313459
mjbg0_si1862 quick_test/data-fmllr-tri3/train/data/feats_fmllr_train.6.ark:7726962
mdbp0_sx348 quick_test/data-fmllr-tri3/train/data/feats_fmllr_train.4.ark:15723764
fntb0_si1203 quick_test/data-fmllr-tri3/train/data/feats_fmllr_train.3.ark:378950
maeb0_sx360 quick_test/data-fmllr-tri3/train/data/feats_fmllr_train.4.ark:242549
fmem0_sx207 quick_test/data-fmllr-tri3/train/data/feats_fmllr_train.2.ark:15308698
fjlg0_sx179 quick_test/data-fmllr-tri3/train/data/feats_fmllr_train.2.ark:1742727
msdb0_si2267 quick_test/data-fmllr-tri3/train/data/feats_fmllr_train.9.ark:12616777
mbma1_sx324 quick_test/data-fmllr-tri3/train/data/feats_fmllr_train.4.ark:6153224
mrcw0_si741 quick_test/data-fmllr-tri3/train/data/feats_fmllr_train.8.ark:13797904
mdss1_sx67 quick_test/data-fmllr-tri3/train/data/feats_fmllr_train.5.ark:9202795
mvlo0_sx247 quick_test/data-fmllr-tri3/train/data/feats_fmllr_train.10.ark:12892987
mntw0_si2328 quick_test/data-fmllr-tri3/train/data/feats_fmllr_train.8.ark:5487266
mtbc0_sx273 quick_test/data-fmllr-tri3/train/data/feats_fmllr_train.10.ark:2254007
fdkn0_sx451 quick_test/data-fmllr-tri3/train/data/feats_fmllr_train.1.ark:11158253
mreh1_si2229 quick_test/data-fmllr-tri3/train/data/feats_fmllr_train.8.ark:15599284
mfmc0_si1132 quick_test/data-fmllr-tri3/train/data/feats_fmllr_train.5.ark:14347137
mjws0_sx153 quick_test/data-fmllr-tri3/train/data/feats_fmllr_train.7.ark:2531797
mjrk0_si880 quick_test/data-fmllr-tri3/train/data/feats_fmllr_train.7.ark:818903
mfer0_sx322 quick_test/data-fmllr-tri3/train/data/feats_fmllr_train.5.ark:14236496
mfxv0_sx285 quick_test/data-fmllr-tri3/train/data/feats_fmllr_train.5.ark:16139690
mtdp0_sx81 quick_test/data-fmllr-tri3/train/data/feats_fmllr_train.10.ark:3638259
fbcg1_sx352 quick_test/data-fmllr-tri3/train/data/feats_fmllr_train.1.ark:2681928
mmab1_sx414 quick_test/data-fmllr-tri3/train/data/feats_fmllr_train.7.ark:13306058
mfwk0_si1879 quick_test/data-fmllr-tri3/train/data/feats_fmllr_train.5.ark:15163120
mpfu0_si628 quick_test/data-fmllr-tri3/train/data/feats_fmllr_train.8.ark:6519437
maeb0_sx180 quick_test/data-fmllr-tri3/train/data/feats_fmllr_train.4.ark:158015
mtlb0_sx234 quick_test/data-fmllr-tri3/train/data/feats_fmllr_train.10.ark:6680074
mkam0_sx416 quick_test/data-fmllr-tri3/train/data/feats_fmllr_train.7.ark:5466197
mter0_si1787 quick_test/data-fmllr-tri3/train/data/feats_fmllr_train.10.ark:3756395
fsdj0_sx35 quick_test/data-fmllr-tri3/train/data/feats_fmllr_train.3.ark:7837737
fvkb0_sx439 quick_test/data-fmllr-tri3/train/data/feats_fmllr_train.3.ark:16395953
mrab0_sx144 quick_test/data-fmllr-tri3/train/data/feats_fmllr_train.8.ark:11074490
fear0_si1882 quick_test/data-fmllr-tri3/train/data/feats_fmllr_train.1.ark:13784759
faem0_sx222 quick_test/data-fmllr-tri3/train/data/feats_fmllr_train.1.ark:201402
mrms0_sx300 quick_test/data-fmllr-tri3/train/data/feats_fmllr_train.9.ark:7016185
mrxb0_sx55 quick_test/data-fmllr-tri3/train/data/feats_fmllr_train.9.ark:11052143
fmmh0_si907 quick_test/data-fmllr-tri3/train/data/feats_fmllr_train.2.ark:17652344
mtwh1_sx342 quick_test/data-fmllr-tri3/train/data/feats_fmllr_train.10.ark:11759082
fdjh0_si1565 quick_test/data-fmllr-tri3/train/data/feats_fmllr_train.1.ark:10472272
mcdd0_si883 quick_test/data-fmllr-tri3/train/data/feats_fmllr_train.4.ark:9425173
mbwp0_sx349 quick_test/data-fmllr-tri3/train/data/feats_fmllr_train.4.ark:7933028
fcaj0_sx309 quick_test/data-fmllr-tri3/train/data/feats_fmllr_train.1.ark:5445847
mrav0_si1008 quick_test/data-fmllr-tri3/train/data/feats_fmllr_train.8.ark:12512557
fcke0_si1111 quick_test/data-fmllr-tri3/train/data/feats_fmllr_train.1.ark:7059756
fsgf0_si2187 quick_test/data-fmllr-tri3/train/data/feats_fmllr_train.3.ark:7959420
fsjg0_sx220 quick_test/data-fmllr-tri3/train/data/feats_fmllr_train.3.ark:8545798
fcrz0_si2053 quick_test/data-fmllr-tri3/train/data/feats_fmllr_train.1.ark:8625613
frll0_si1514 quick_test/data-fmllr-tri3/train/data/feats_fmllr_train.3.ark:4704856
msrg0_sx411 quick_test/data-fmllr-tri3/train/data/feats_fmllr_train.9.ark:17258633
mjmd0_sx308 quick_test/data-fmllr-tri3/train/data/feats_fmllr_train.6.ark:15619386
fcyl0_si1927 quick_test/data-fmllr-tri3/train/data/feats_fmllr_train.1.ark:8975110
mfer0_si1492 quick_test/data-fmllr-tri3/train/data/feats_fmllr_train.5.ark:14027720
mpmb0_sx61 quick_test/data-fmllr-tri3/train/data/feats_fmllr_train.8.ark:8466039
madd0_si1798 quick_test/data-fmllr-tri3/train/data/feats_fmllr_train.3.ark:17620686
mmds0_sx443 quick_test/data-fmllr-tri3/train/data/feats_fmllr_train.7.ark:17249669
msmc0_si509 quick_test/data-fmllr-tri3/train/data/feats_fmllr_train.9.ark:15868407
mprb0_si1215 quick_test/data-fmllr-tri3/train/data/feats_fmllr_train.8.ark:8965832
fpab1_si2101 quick_test/data-fmllr-tri3/train/data/feats_fmllr_train.3.ark:795034
mcew0_sx362 quick_test/data-fmllr-tri3/train/data/feats_fmllr_train.4.ark:10784625
mprt0_si580 quick_test/data-fmllr-tri3/train/data/feats_fmllr_train.8.ark:10375149
mwrp0_sx93 quick_test/data-fmllr-tri3/train/data/feats_fmllr_train.10.ark:16759721
mmam0_sx247 quick_test/data-fmllr-tri3/train/data/feats_fmllr_train.7.ark:14006279
marw0_si646 quick_test/data-fmllr-tri3/train/data/feats_fmllr_train.4.ark:3050287
fsjg0_sx400 quick_test/data-fmllr-tri3/train/data/feats_fmllr_train.3.ark:8756918
mrms0_sx30 quick_test/data-fmllr-tri3/train/data/feats_fmllr_train.9.ark:6989598
mmar0_sx166 quick_test/data-fmllr-tri3/train/data/feats_fmllr_train.7.ark:14354149
mgar0_si1842 quick_test/data-fmllr-tri3/train/data/feats_fmllr_train.6.ark:93829
makr0_si722 quick_test/data-fmllr-tri3/train/data/feats_fmllr_train.4.ark:2037956
fpaf0_sx154 quick_test/data-fmllr-tri3/train/data/feats_fmllr_train.3.ark:2192060
mtbc0_sx363 quick_test/data-fmllr-tri3/train/data/feats_fmllr_train.10.ark:2353101
mmxs0_si876 quick_test/data-fmllr-tri3/train/data/feats_fmllr_train.8.ark:4715153
fcag0_si1641 quick_test/data-fmllr-tri3/train/data/feats_fmllr_train.1.ark:4931761
mdlb0_sx406 quick_test/data-fmllr-tri3/train/data/feats_fmllr_train.5.ark:2672199
mrcw0_si2001 quick_test/data-fmllr-tri3/train/data/feats_fmllr_train.8.ark:13748917
fmah1_sx429 quick_test/data-fmllr-tri3/train/data/feats_fmllr_train.2.ark:14618559
fmbg0_si1790 quick_test/data-fmllr-tri3/train/data/feats_fmllr_train.2.ark:14791121
fdnc0_sx18 quick_test/data-fmllr-tri3/train/data/feats_fmllr_train.1.ark:12379810
mdbp0_si528 quick_test/data-fmllr-tri3/train/data/feats_fmllr_train.4.ark:15555843
fsdj0_sx125 quick_test/data-fmllr-tri3/train/data/feats_fmllr_train.3.ark:7722297
mjfh0_si477 quick_test/data-fmllr-tri3/train/data/feats_fmllr_train.6.ark:11298996
mdhl0_si1439 quick_test/data-fmllr-tri3/train/data/feats_fmllr_train.5.ark:826207
msas0_sx206 quick_test/data-fmllr-tri3/train/data/feats_fmllr_train.9.ark:11667698
mtdb0_si2031 quick_test/data-fmllr-tri3/train/data/feats_fmllr_train.10.ark:2898200
fskc0_si786 quick_test/data-fmllr-tri3/train/data/feats_fmllr_train.3.ark:10092852
mjeb0_sx296 quick_test/data-fmllr-tri3/train/data/feats_fmllr_train.6.ark:10338772
mmbs0_sx71 quick_test/data-fmllr-tri3/train/data/feats_fmllr_train.7.ark:15052233
fljg0_sx171 quick_test/data-fmllr-tri3/train/data/feats_fmllr_train.2.ark:11750717
fdaw0_si2036 quick_test/data-fmllr-tri3/train/data/feats_fmllr_train.1.ark:9848852
maeb0_sx90 quick_test/data-fmllr-tri3/train/data/feats_fmllr_train.4.ark:337962
mrws0_sx382 quick_test/data-fmllr-tri3/train/data/feats_fmllr_train.9.ark:10662166
mmrp0_si2034 quick_test/data-fmllr-tri3/train/data/feats_fmllr_train.8.ark:2152358
mtab0_sx42 quick_test/data-fmllr-tri3/train/data/feats_fmllr_train.10.ark:901379
mjra0_sx156 quick_test/data-fmllr-tri3/train/data/feats_fmllr_train.6.ark:17365537
mmgc0_sx405 quick_test/data-fmllr-tri3/train/data/feats_fmllr_train.8.ark:275537
mjkr0_sx211 quick_test/data-fmllr-tri3/train/data/feats_fmllr_train.6.ark:13777632
mmsm0_sx206 quick_test/data-fmllr-tri3/train/data/feats_fmllr_train.8.ark:2784203
mclk0_si2290 quick_test/data-fmllr-tri3/train/data/feats_fmllr_train.4.ark:11392312
mbgt0_si711 quick_test/data-fmllr-tri3/train/data/feats_fmllr_train.4.ark:4887212
mbjv0_si1877 quick_test/data-fmllr-tri3/train/data/feats_fmllr_train.4.ark:5243722
feac0_sx345 quick_test/data-fmllr-tri3/train/data/feats_fmllr_train.1.ark:13598250
fcjf0_si1657 quick_test/data-fmllr-tri3/train/data/feats_fmllr_train.1.ark:6447990
mjlb0_si986 quick_test/data-fmllr-tri3/train/data/feats_fmllr_train.6.ark:14051555
msfv0_sx92 quick_test/data-fmllr-tri3/train/data/feats_fmllr_train.9.ark:15360775
mrfk0_sx176 quick_test/data-fmllr-tri3/train/data/feats_fmllr_train.8.ark:16839989
mbml0_si1799 quick_test/data-fmllr-tri3/train/data/feats_fmllr_train.4.ark:6365493
mmgc0_sx45 quick_test/data-fmllr-tri3/train/data/feats_fmllr_train.8.ark:313163
mdlm0_si1864 quick_test/data-fmllr-tri3/train/data/feats_fmllr_train.5.ark:4364189
fcyl0_sx127 quick_test/data-fmllr-tri3/train/data/feats_fmllr_train.1.ark:9102844
mjai0_sx434 quick_test/data-fmllr-tri3/train/data/feats_fmllr_train.6.ark:7573412
mhbs0_si945 quick_test/data-fmllr-tri3/train/data/feats_fmllr_train.6.ark:3654977
mjrh0_sx405 quick_test/data-fmllr-tri3/train/data/feats_fmllr_train.7.ark:297137
fjrp1_sx442 quick_test/data-fmllr-tri3/train/data/feats_fmllr_train.2.ark:3152899
msdh0_si980 quick_test/data-fmllr-tri3/train/data/feats_fmllr_train.9.ark:12844514
mdlc2_si1614 quick_test/data-fmllr-tri3/train/data/feats_fmllr_train.5.ark:3572848
mgsl0_si534 quick_test/data-fmllr-tri3/train/data/feats_fmllr_train.6.ark:2773079
mkaj0_si2044 quick_test/data-fmllr-tri3/train/data/feats_fmllr_train.7.ark:4846644
fscn0_si705 quick_test/data-fmllr-tri3/train/data/feats_fmllr_train.3.ark:6854475
mrre0_si1334 quick_test/data-fmllr-tri3/train/data/feats_fmllr_train.9.ark:7416938
mbom0_si2274 quick_test/data-fmllr-tri3/train/data/feats_fmllr_train.4.ark:6768778
fjdm2_sx232 quick_test/data-fmllr-tri3/train/data/feats_fmllr_train.2.ark:208443
fgrw0_sx342 quick_test/data-fmllr-tri3/train/data/feats_fmllr_train.1.ark:17799302
mfxs0_si1674 quick_test/data-fmllr-tri3/train/data/feats_fmllr_train.5.ark:15497229
mkrg0_sx231 quick_test/data-fmllr-tri3/train/data/feats_fmllr_train.7.ark:9633011
mdlr1_sx219 quick_test/data-fmllr-tri3/train/data/feats_fmllr_train.5.ark:5270464
mkaj0_sx64 quick_test/data-fmllr-tri3/train/data/feats_fmllr_train.7.ark:5106485
mdns0_sx21 quick_test/data-fmllr-tri3/train/data/feats_fmllr_train.5.ark:6554182
msfh0_sx136 quick_test/data-fmllr-tri3/train/data/feats_fmllr_train.9.ark:14698531
fapb0_sx73 quick_test/data-fmllr-tri3/train/data/feats_fmllr_train.1.ark:1997226
flmk0_sx45 quick_test/data-fmllr-tri3/train/data/feats_fmllr_train.2.ark:13539852
fmjf0_si1254 quick_test/data-fmllr-tri3/train/data/feats_fmllr_train.2.ark:15918782
fcmm0_sx93 quick_test/data-fmllr-tri3/train/data/feats_fmllr_train.1.ark:8528917
falk0_sx186 quick_test/data-fmllr-tri3/train/data/feats_fmllr_train.1.ark:984206
fjrb0_sx312 quick_test/data-fmllr-tri3/train/data/feats_fmllr_train.2.ark:2591535
frjb0_si1794 quick_test/data-fmllr-tri3/train/data/feats_fmllr_train.3.ark:4418454
mrds0_si1797 quick_test/data-fmllr-tri3/train/data/feats_fmllr_train.8.ark:14817409
mtpg0_sx123 quick_test/data-fmllr-tri3/train/data/feats_fmllr_train.10.ark:8962950
fjsk0_sx422 quick_test/data-fmllr-tri3/train/data/feats_fmllr_train.2.ark:3558237
mbma0_sx232 quick_test/data-fmllr-tri3/train/data/feats_fmllr_train.4.ark:5729780
mrds0_sx357 quick_test/data-fmllr-tri3/train/data/feats_fmllr_train.8.ark:15008237
fbas0_si1472 quick_test/data-fmllr-tri3/train/data/feats_fmllr_train.1.ark:2110402
fdfb0_si1948 quick_test/data-fmllr-tri3/train/data/feats_fmllr_train.1.ark:10205682
mfmc0_sx412 quick_test/data-fmllr-tri3/train/data/feats_fmllr_train.5.ark:14658340
makb0_sx386 quick_test/data-fmllr-tri3/train/data/feats_fmllr_train.4.ark:1917073
fkaa0_sx398 quick_test/data-fmllr-tri3/train/data/feats_fmllr_train.2.ark:5559347
fbch0_sx236 quick_test/data-fmllr-tri3/train/data/feats_fmllr_train.1.ark:3076677
mjda0_sx221 quick_test/data-fmllr-tri3/train/data/feats_fmllr_train.6.ark:8176674
mkjo0_sx257 quick_test/data-fmllr-tri3/train/data/feats_fmllr_train.7.ark:7322106
fcag0_sx63 quick_test/data-fmllr-tri3/train/data/feats_fmllr_train.1.ark:5201683
mjai0_sx344 quick_test/data-fmllr-tri3/train/data/feats_fmllr_train.6.ark:7536425
fcke0_si481 quick_test/data-fmllr-tri3/train/data/feats_fmllr_train.1.ark:7149091
mrhl0_si1515 quick_test/data-fmllr-tri3/train/data/feats_fmllr_train.9.ark:433028
msrg0_si1221 quick_test/data-fmllr-tri3/train/data/feats_fmllr_train.9.ark:16984710
fsls0_sx246 quick_test/data-fmllr-tri3/train/data/feats_fmllr_train.3.ark:11347825
fmkf0_sx276 quick_test/data-fmllr-tri3/train/data/feats_fmllr_train.2.ark:17344503
fdjh0_si935 quick_test/data-fmllr-tri3/train/data/feats_fmllr_train.1.ark:10560487
fdkn0_sx91 quick_test/data-fmllr-tri3/train/data/feats_fmllr_train.1.ark:11232359
mgag0_si645 quick_test/data-fmllr-tri3/train/data/feats_fmllr_train.5.ark:16632949
mlel0_sx346 quick_test/data-fmllr-tri3/train/data/feats_fmllr_train.7.ark:10786329
fmmh0_sx420 quick_test/data-fmllr-tri3/train/data/feats_fmllr_train.2.ark:17782985
mhit0_si2243 quick_test/data-fmllr-tri3/train/data/feats_fmllr_train.6.ark:3961087
mmsm0_sx296 quick_test/data-fmllr-tri3/train/data/feats_fmllr_train.8.ark:2882336
mhbs0_sx135 quick_test/data-fmllr-tri3/train/data/feats_fmllr_train.6.ark:3722524
fdxw0_sx71 quick_test/data-fmllr-tri3/train/data/feats_fmllr_train.1.ark:13310566
mddc0_si2049 quick_test/data-fmllr-tri3/train/data/feats_fmllr_train.4.ark:16715667
mfrm0_si1717 quick_test/data-fmllr-tri3/train/data/feats_fmllr_train.5.ark:14818102
fapb0_sx163 quick_test/data-fmllr-tri3/train/data/feats_fmllr_train.1.ark:1767839
mklw0_si2201 quick_test/data-fmllr-tri3/train/data/feats_fmllr_train.7.ark:9096900
mwsb0_si1626 quick_test/data-fmllr-tri3/train/data/feats_fmllr_train.10.ark:16797669
fksr0_sx161 quick_test/data-fmllr-tri3/train/data/feats_fmllr_train.2.ark:8615218
mdpk0_si1053 quick_test/data-fmllr-tri3/train/data/feats_fmllr_train.5.ark:7068081
fcjs0_sx257 quick_test/data-fmllr-tri3/train/data/feats_fmllr_train.1.ark:6859168
mlbc0_sx429 quick_test/data-fmllr-tri3/train/data/feats_fmllr_train.7.ark:10408219
mded0_sx180 quick_test/data-fmllr-tri3/train/data/feats_fmllr_train.4.ark:17174498
medr0_sx24 quick_test/data-fmllr-tri3/train/data/feats_fmllr_train.5.ark:11318925
mgrp0_si687 quick_test/data-fmllr-tri3/train/data/feats_fmllr_train.6.ark:1984515
mmdg0_si520 quick_test/data-fmllr-tri3/train/data/feats_fmllr_train.7.ark:15928430
mgsl0_sx444 quick_test/data-fmllr-tri3/train/data/feats_fmllr_train.6.ark:3032734
mprd0_si2061 quick_test/data-fmllr-tri3/train/data/feats_fmllr_train.8.ark:9443649
mdrd0_si752 quick_test/data-fmllr-tri3/train/data/feats_fmllr_train.5.ark:7849210
msdb0_si1007 quick_test/data-fmllr-tri3/train/data/feats_fmllr_train.9.ark:12525841
fdxw0_si2141 quick_test/data-fmllr-tri3/train/data/feats_fmllr_train.1.ark:13041765
mded0_sx270 quick_test/data-fmllr-tri3/train/data/feats_fmllr_train.4.ark:17222365
mmws1_sx441 quick_test/data-fmllr-tri3/train/data/feats_fmllr_train.8.ark:4545125
mdcd0_sx245 quick_test/data-fmllr-tri3/train/data/feats_fmllr_train.4.ark:16090514
fcjs0_si1607 quick_test/data-fmllr-tri3/train/data/feats_fmllr_train.1.ark:6700339
megj0_sx3 quick_test/data-fmllr-tri3/train/data/feats_fmllr_train.5.ark:12118076
mjma0_sx55 quick_test/data-fmllr-tri3/train/data/feats_fmllr_train.6.ark:15374101
mdhl0_sx449 quick_test/data-fmllr-tri3/train/data/feats_fmllr_train.5.ark:1108290
mmea0_si1388 quick_test/data-fmllr-tri3/train/data/feats_fmllr_train.7.ark:17323963
mbjv0_sx347 quick_test/data-fmllr-tri3/train/data/feats_fmllr_train.4.ark:5408630
fbmh0_sx56 quick_test/data-fmllr-tri3/train/data/feats_fmllr_train.1.ark:4416289
makr0_sx92 quick_test/data-fmllr-tri3/train/data/feats_fmllr_train.4.ark:2209770
fcmg0_sx432 quick_test/data-fmllr-tri3/train/data/feats_fmllr_train.1.ark:8087074
mkls1_sx195 quick_test/data-fmllr-tri3/train/data/feats_fmllr_train.7.ark:8868442
mwsh0_sx436 quick_test/data-fmllr-tri3/train/data/feats_fmllr_train.10.ark:17497087
mesj0_sx97 quick_test/data-fmllr-tri3/train/data/feats_fmllr_train.5.ark:13660275
mfer0_sx412 quick_test/data-fmllr-tri3/train/data/feats_fmllr_train.5.ark:14270283
mgak0_si1666 quick_test/data-fmllr-tri3/train/data/feats_fmllr_train.5.ark:16995726
mbef0_si1281 quick_test/data-fmllr-tri3/train/data/feats_fmllr_train.4.ark:4472700
mpgr1_sx59 quick_test/data-fmllr-tri3/train/data/feats_fmllr_train.8.ark:7852222
msfh0_sx46 quick_test/data-fmllr-tri3/train/data/feats_fmllr_train.9.ark:14934158
fsrh0_si1719 quick_test/data-fmllr-tri3/train/data/feats_fmllr_train.3.ark:13120614
mdcd0_sx335 quick_test/data-fmllr-tri3/train/data/feats_fmllr_train.4.ark:16129741
mrml0_si2051 quick_test/data-fmllr-tri3/train/data/feats_fmllr_train.9.ark:6342393
mmpm0_sx161 quick_test/data-fmllr-tri3/train/data/feats_fmllr_train.8.ark:1889983
mjae0_si2154 quick_test/data-fmllr-tri3/train/data/feats_fmllr_train.6.ark:6947808
mtxs0_si1060 quick_test/data-fmllr-tri3/train/data/feats_fmllr_train.10.ark:11883803
mmgk0_si1322 quick_test/data-fmllr-tri3/train/data/feats_fmllr_train.8.ark:739489
mvrw0_sx405 quick_test/data-fmllr-tri3/train/data/feats_fmllr_train.10.ark:13333738
msfh0_sx316 quick_test/data-fmllr-tri3/train/data/feats_fmllr_train.9.ark:14820025
mgaw0_si1165 quick_test/data-fmllr-tri3/train/data/feats_fmllr_train.6.ark:385831
mdlc0_sx315 quick_test/data-fmllr-tri3/train/data/feats_fmllr_train.5.ark:3057669
msat1_sx173 quick_test/data-fmllr-tri3/train/data/feats_fmllr_train.9.ark:12292266
mrkm0_sx97 quick_test/data-fmllr-tri3/train/data/feats_fmllr_train.9.ark:3340918
mmcc0_si1338 quick_test/data-fmllr-tri3/train/data/feats_fmllr_train.7.ark:15099621
fmjb0_sx367 quick_test/data-fmllr-tri3/train/data/feats_fmllr_train.2.ark:15778703
mrlk0_sx213 quick_test/data-fmllr-tri3/train/data/feats_fmllr_train.9.ark:4638827
fjsp0_sx174 quick_test/data-fmllr-tri3/train/data/feats_fmllr_train.2.ark:3787973
msah1_sx59 quick_test/data-fmllr-tri3/train/data/feats_fmllr_train.9.ark:11389961
mtpf0_si605 quick_test/data-fmllr-tri3/train/data/feats_fmllr_train.10.ark:8541906
mtjs0_si1192 quick_test/data-fmllr-tri3/train/data/feats_fmllr_train.10.ark:4850137
fklh0_sx267 quick_test/data-fmllr-tri3/train/data/feats_fmllr_train.2.ark:8280948
mtkp0_sx393 quick_test/data-fmllr-tri3/train/data/feats_fmllr_train.10.ark:6460257
madd0_sx448 quick_test/data-fmllr-tri3/train/data/feats_fmllr_train.3.ark:17874421
mdmt0_sx212 quick_test/data-fmllr-tri3/train/data/feats_fmllr_train.5.ark:6090739
mcre0_sx24 quick_test/data-fmllr-tri3/train/data/feats_fmllr_train.4.ark:12692911
fjwb1_sx75 quick_test/data-fmllr-tri3/train/data/feats_fmllr_train.2.ark:4365896
mkls0_sx447 quick_test/data-fmllr-tri3/train/data/feats_fmllr_train.7.ark:8536253
mrsp0_sx259 quick_test/data-fmllr-tri3/train/data/feats_fmllr_train.9.ark:8604868
mrcw0_sx201 quick_test/data-fmllr-tri3/train/data/feats_fmllr_train.8.ark:13901958
mwch0_sx272 quick_test/data-fmllr-tri3/train/data/feats_fmllr_train.10.ark:14687035
mrre0_sx344 quick_test/data-fmllr-tri3/train/data/feats_fmllr_train.9.ark:7734193
ftaj0_sx249 quick_test/data-fmllr-tri3/train/data/feats_fmllr_train.3.ark:14072197
mhmr0_si1692 quick_test/data-fmllr-tri3/train/data/feats_fmllr_train.6.ark:4998219
fpad0_sx446 quick_test/data-fmllr-tri3/train/data/feats_fmllr_train.3.ark:1943923
mclk0_si1660 quick_test/data-fmllr-tri3/train/data/feats_fmllr_train.4.ark:11365724
mmdm1_sx423 quick_test/data-fmllr-tri3/train/data/feats_fmllr_train.7.ark:16913292
mwre0_sx67 quick_test/data-fmllr-tri3/train/data/feats_fmllr_train.10.ark:16347665
fsjs0_sx451 quick_test/data-fmllr-tri3/train/data/feats_fmllr_train.3.ark:9472846
mrre0_si704 quick_test/data-fmllr-tri3/train/data/feats_fmllr_train.9.ark:7499525
mcew0_sx452 quick_test/data-fmllr-tri3/train/data/feats_fmllr_train.4.ark:10857932
mfrm0_sx75 quick_test/data-fmllr-tri3/train/data/feats_fmllr_train.5.ark:15087064
fsah0_sx344 quick_test/data-fmllr-tri3/train/data/feats_fmllr_train.3.ark:5840465
mtcs0_sx82 quick_test/data-fmllr-tri3/train/data/feats_fmllr_train.10.ark:2785024
mjxa0_sx337 quick_test/data-fmllr-tri3/train/data/feats_fmllr_train.7.ark:3484605
flkm0_sx116 quick_test/data-fmllr-tri3/train/data/feats_fmllr_train.2.ark:12206453
flkm0_sx350 quick_test/data-fmllr-tri3/train/data/feats_fmllr_train.2.ark:12303627
ftmg0_sx452 quick_test/data-fmllr-tri3/train/data/feats_fmllr_train.3.ark:15658718
flet0_sx237 quick_test/data-fmllr-tri3/train/data/feats_fmllr_train.2.ark:10270674
fdmy0_si1197 quick_test/data-fmllr-tri3/train/data/feats_fmllr_train.1.ark:11607485
mbsb0_si1983 quick_test/data-fmllr-tri3/train/data/feats_fmllr_train.4.ark:7070569
mefg0_sx285 quick_test/data-fmllr-tri3/train/data/feats_fmllr_train.5.ark:11724767
mabc0_sx241 quick_test/data-fmllr-tri3/train/data/feats_fmllr_train.3.ark:17028013
mtlb0_sx54 quick_test/data-fmllr-tri3/train/data/feats_fmllr_train.10.ark:6836314
mreh1_sx159 quick_test/data-fmllr-tri3/train/data/feats_fmllr_train.8.ark:15713578
mrdm0_si965 quick_test/data-fmllr-tri3/train/data/feats_fmllr_train.8.ark:14517059
mdma0_sx440 quick_test/data-fmllr-tri3/train/data/feats_fmllr_train.5.ark:5815696
mmdm1_sx333 quick_test/data-fmllr-tri3/train/data/feats_fmllr_train.7.ark:16848465
mhjb0_sx297 quick_test/data-fmllr-tri3/train/data/feats_fmllr_train.6.ark:4537759
fapb0_sx343 quick_test/data-fmllr-tri3/train/data/feats_fmllr_train.1.ark:1865653
mtlb0_sx144 quick_test/data-fmllr-tri3/train/data/feats_fmllr_train.10.ark:6638447
mjfh0_si1107 quick_test/data-fmllr-tri3/train/data/feats_fmllr_train.6.ark:11215581
msvs0_sx128 quick_test/data-fmllr-tri3/train/data/feats_fmllr_train.10.ark:200255
mjfh0_sx207 quick_test/data-fmllr-tri3/train/data/feats_fmllr_train.6.ark:11393930
fntb0_sx213 quick_test/data-fmllr-tri3/train/data/feats_fmllr_train.3.ark:585618
msms0_sx353 quick_test/data-fmllr-tri3/train/data/feats_fmllr_train.9.ark:16854069
mtqc0_sx271 quick_test/data-fmllr-tri3/train/data/feats_fmllr_train.10.ark:10227148
mjjj0_si533 quick_test/data-fmllr-tri3/train/data/feats_fmllr_train.6.ark:12855704
mjlb0_si1616 quick_test/data-fmllr-tri3/train/data/feats_fmllr_train.6.ark:13949420
mtat0_si1740 quick_test/data-fmllr-tri3/train/data/feats_fmllr_train.10.ark:1314132
mwre0_sx427 quick_test/data-fmllr-tri3/train/data/feats_fmllr_train.10.ark:16316119
mjdc0_si531 quick_test/data-fmllr-tri3/train/data/feats_fmllr_train.6.ark:8437637
mkxl0_si1185 quick_test/data-fmllr-tri3/train/data/feats_fmllr_train.7.ark:9755998
fsls0_sx426 quick_test/data-fmllr-tri3/train/data/feats_fmllr_train.3.ark:11387052
mtjg0_sx260 quick_test/data-fmllr-tri3/train/data/feats_fmllr_train.10.ark:4270132
fjsk0_sx242 quick_test/data-fmllr-tri3/train/data/feats_fmllr_train.2.ark:3458183
ftmg0_sx182 quick_test/data-fmllr-tri3/train/data/feats_fmllr_train.3.ark:15527117
mbth0_sx302 quick_test/data-fmllr-tri3/train/data/feats_fmllr_train.4.ark:7567051
mcre0_sx401 quick_test/data-fmllr-tri3/train/data/feats_fmllr_train.4.ark:12729098
mjae0_sx354 quick_test/data-fmllr-tri3/train/data/feats_fmllr_train.6.ark:7090449
fmpg0_sx432 quick_test/data-fmllr-tri3/train/data/feats_fmllr_train.2.ark:18300347
fksr0_sx217 quick_test/data-fmllr-tri3/train/data/feats_fmllr_train.2.ark:8679245
mdss1_sx337 quick_test/data-fmllr-tri3/train/data/feats_fmllr_train.5.ark:9129302
mdpb0_si2126 quick_test/data-fmllr-tri3/train/data/feats_fmllr_train.5.ark:6733172
mtjg0_sx80 quick_test/data-fmllr-tri3/train/data/feats_fmllr_train.10.ark:4438052
mgxp0_si525 quick_test/data-fmllr-tri3/train/data/feats_fmllr_train.6.ark:3266282
fmah1_sx339 quick_test/data-fmllr-tri3/train/data/feats_fmllr_train.2.ark:14577252
mgak0_sx226 quick_test/data-fmllr-tri3/train/data/feats_fmllr_train.5.ark:17155808
fskl0_sx179 quick_test/data-fmllr-tri3/train/data/feats_fmllr_train.3.ark:10502216
flja0_sx268 quick_test/data-fmllr-tri3/train/data/feats_fmllr_train.2.ark:10991750
mpeb0_si1034 quick_test/data-fmllr-tri3/train/data/feats_fmllr_train.8.ark:6068285
mmag0_sx136 quick_test/data-fmllr-tri3/train/data/feats_fmllr_train.7.ark:13582674
flja0_si1708 quick_test/data-fmllr-tri3/train/data/feats_fmllr_train.2.ark:10876148
mmgk0_sx422 quick_test/data-fmllr-tri3/train/data/feats_fmllr_train.8.ark:950692
fjxm0_sx131 quick_test/data-fmllr-tri3/train/data/feats_fmllr_train.2.ark:4539286
mrjm1_sx398 quick_test/data-fmllr-tri3/train/data/feats_fmllr_train.9.ark:2440326
fvmh0_sx206 quick_test/data-fmllr-tri3/train/data/feats_fmllr_train.3.ark:16704276
mgaw0_sx85 quick_test/data-fmllr-tri3/train/data/feats_fmllr_train.6.ark:716580
mljh0_sx334 quick_test/data-fmllr-tri3/train/data/feats_fmllr_train.7.ark:11677003
fvmh0_si2096 quick_test/data-fmllr-tri3/train/data/feats_fmllr_train.3.ark:16560195
mdmt0_si572 quick_test/data-fmllr-tri3/train/data/feats_fmllr_train.5.ark:5973245
fdfb0_si1318 quick_test/data-fmllr-tri3/train/data/feats_fmllr_train.1.ark:10142134
mtwh1_sx432 quick_test/data-fmllr-tri3/train/data/feats_fmllr_train.10.ark:11800229
mrab1_sx128 quick_test/data-fmllr-tri3/train/data/feats_fmllr_train.8.ark:11477267
mdss1_sx157 quick_test/data-fmllr-tri3/train/data/feats_fmllr_train.5.ark:9039328
mjlb0_sx86 quick_test/data-fmllr-tri3/train/data/feats_fmllr_train.6.ark:14267369
mdns0_si873 quick_test/data-fmllr-tri3/train/data/feats_fmllr_train.5.ark:6392662
mses0_sx59 quick_test/data-fmllr-tri3/train/data/feats_fmllr_train.9.ark:14475541
fbas0_si2066 quick_test/data-fmllr-tri3/train/data/feats_fmllr_train.1.ark:2181150
ftbw0_sx85 quick_test/data-fmllr-tri3/train/data/feats_fmllr_train.3.ark:14932871
mrjm0_si1095 quick_test/data-fmllr-tri3/train/data/feats_fmllr_train.9.ark:1700559
mdbb1_si2056 quick_test/data-fmllr-tri3/train/data/feats_fmllr_train.4.ark:15208106
fear0_si1252 quick_test/data-fmllr-tri3/train/data/feats_fmllr_train.1.ark:13743451
mfer0_sx52 quick_test/data-fmllr-tri3/train/data/feats_fmllr_train.5.ark:14310149
mdrd0_sx302 quick_test/data-fmllr-tri3/train/data/feats_fmllr_train.5.ark:8054091
fjlr0_sx421 quick_test/data-fmllr-tri3/train/data/feats_fmllr_train.2.ark:2283185
mrxb0_sx235 quick_test/data-fmllr-tri3/train/data/feats_fmllr_train.9.ark:10924703
mram0_si1275 quick_test/data-fmllr-tri3/train/data/feats_fmllr_train.8.ark:12136659
mjdc0_si2165 quick_test/data-fmllr-tri3/train/data/feats_fmllr_train.6.ark:8408490
mjfr0_sx165 quick_test/data-fmllr-tri3/train/data/feats_fmllr_train.6.ark:11666920
mhxl0_sx422 quick_test/data-fmllr-tri3/train/data/feats_fmllr_train.6.ark:6013027
mclm0_sx106 quick_test/data-fmllr-tri3/train/data/feats_fmllr_train.4.ark:11917383
makr0_si1982 quick_test/data-fmllr-tri3/train/data/feats_fmllr_train.4.ark:1990569
msem1_si810 quick_test/data-fmllr-tri3/train/data/feats_fmllr_train.9.ark:13798069
mdlb0_sx226 quick_test/data-fmllr-tri3/train/data/feats_fmllr_train.5.ark:2562865
megj0_si1967 quick_test/data-fmllr-tri3/train/data/feats_fmllr_train.5.ark:11922450
fspm0_sx251 quick_test/data-fmllr-tri3/train/data/feats_fmllr_train.3.ark:12919386
mtwh1_si2142 quick_test/data-fmllr-tri3/train/data/feats_fmllr_train.10.ark:11607934
mkls0_sx87 quick_test/data-fmllr-tri3/train/data/feats_fmllr_train.7.ark:8579319
mwch0_sx362 quick_test/data-fmllr-tri3/train/data/feats_fmllr_train.10.ark:14722902
mkes0_si1883 quick_test/data-fmllr-tri3/train/data/feats_fmllr_train.7.ark:6777168
mtdb0_si1401 quick_test/data-fmllr-tri3/train/data/feats_fmllr_train.10.ark:2828092
mjjb0_sx149 quick_test/data-fmllr-tri3/train/data/feats_fmllr_train.6.ark:12470554
fsgf0_sx387 quick_test/data-fmllr-tri3/train/data/feats_fmllr_train.3.ark:8252861
mmgk0_sx242 quick_test/data-fmllr-tri3/train/data/feats_fmllr_train.8.ark:877358
mkag0_si979 quick_test/data-fmllr-tri3/train/data/feats_fmllr_train.7.ark:4114238
mrai0_si1954 quick_test/data-fmllr-tri3/train/data/feats_fmllr_train.8.ark:11715162
mgsh0_si546 quick_test/data-fmllr-tri3/train/data/feats_fmllr_train.6.ark:2430332
ftlg0_sx213 quick_test/data-fmllr-tri3/train/data/feats_fmllr_train.3.ark:15217807
fskl0_si2159 quick_test/data-fmllr-tri3/train/data/feats_fmllr_train.3.ark:10395922
mbgt0_si1841 quick_test/data-fmllr-tri3/train/data/feats_fmllr_train.4.ark:4811345
mdlr0_si603 quick_test/data-fmllr-tri3/train/data/feats_fmllr_train.5.ark:4750513
mgaf0_si1912 quick_test/data-fmllr-tri3/train/data/feats_fmllr_train.5.ark:16299453
mcpm0_si1824 quick_test/data-fmllr-tri3/train/data/feats_fmllr_train.4.ark:12146346
mcre0_sx221 quick_test/data-fmllr-tri3/train/data/feats_fmllr_train.4.ark:12640245
mdpk0_si552 quick_test/data-fmllr-tri3/train/data/feats_fmllr_train.5.ark:7156456
mdlh0_si574 quick_test/data-fmllr-tri3/train/data/feats_fmllr_train.5.ark:3964132
mmeb0_sx187 quick_test/data-fmllr-tri3/train/data/feats_fmllr_train.7.ark:17784422
mrxb0_si2215 quick_test/data-fmllr-tri3/train/data/feats_fmllr_train.9.ark:10743182
mbcg0_sx147 quick_test/data-fmllr-tri3/train/data/feats_fmllr_train.4.ark:4247285
fsjg0_sx130 quick_test/data-fmllr-tri3/train/data/feats_fmllr_train.3.ark:8493131
fsjs0_si1801 quick_test/data-fmllr-tri3/train/data/feats_fmllr_train.3.ark:9202311
mbbr0_sx65 quick_test/data-fmllr-tri3/train/data/feats_fmllr_train.4.ark:4078856
mrkm0_sx277 quick_test/data-fmllr-tri3/train/data/feats_fmllr_train.9.ark:3168200
mpgr0_sx420 quick_test/data-fmllr-tri3/train/data/feats_fmllr_train.8.ark:7398218
mrjh0_si889 quick_test/data-fmllr-tri3/train/data/feats_fmllr_train.9.ark:1312850
fsag0_si693 quick_test/data-fmllr-tri3/train/data/feats_fmllr_train.3.ark:5163367
fsag0_sx243 quick_test/data-fmllr-tri3/train/data/feats_fmllr_train.3.ark:5283901
mtpr0_si506 quick_test/data-fmllr-tri3/train/data/feats_fmllr_train.10.ark:9650717
msas0_si2006 quick_test/data-fmllr-tri3/train/data/feats_fmllr_train.9.ark:11499457
fexm0_sx201 quick_test/data-fmllr-tri3/train/data/feats_fmllr_train.1.ark:16017765
mfxs0_sx144 quick_test/data-fmllr-tri3/train/data/feats_fmllr_train.5.ark:15603072
mjrg0_si1366 quick_test/data-fmllr-tri3/train/data/feats_fmllr_train.6.ark:17606152
fetb0_sx338 quick_test/data-fmllr-tri3/train/data/feats_fmllr_train.1.ark:15646855
mrew1_sx420 quick_test/data-fmllr-tri3/train/data/feats_fmllr_train.8.ark:16604812
mgar0_sx312 quick_test/data-fmllr-tri3/train/data/feats_fmllr_train.6.ark:234870
mjlg1_si1642 quick_test/data-fmllr-tri3/train/data/feats_fmllr_train.6.ark:14346145
mcef0_si1135 quick_test/data-fmllr-tri3/train/data/feats_fmllr_train.4.ark:10123952
fmmh0_si1537 quick_test/data-fmllr-tri3/train/data/feats_fmllr_train.2.ark:17535969
fspm0_sx71 quick_test/data-fmllr-tri3/train/data/feats_fmllr_train.3.ark:13084586
mrew1_si2130 quick_test/data-fmllr-tri3/train/data/feats_fmllr_train.8.ark:16392517
mdtb0_sx120 quick_test/data-fmllr-tri3/train/data/feats_fmllr_train.5.ark:9369465
mdlc1_sx85 quick_test/data-fmllr-tri3/train/data/feats_fmllr_train.5.ark:3537940
msds0_sx87 quick_test/data-fmllr-tri3/train/data/feats_fmllr_train.9.ark:13612226
mppc0_sx332 quick_test/data-fmllr-tri3/train/data/feats_fmllr_train.8.ark:8783643
fsjw0_sx343 quick_test/data-fmllr-tri3/train/data/feats_fmllr_train.3.ark:9834796
mbar0_si1319 quick_test/data-fmllr-tri3/train/data/feats_fmllr_train.4.ark:3375569
frll0_sx434 quick_test/data-fmllr-tri3/train/data/feats_fmllr_train.3.ark:5002618
makb0_si2276 quick_test/data-fmllr-tri3/train/data/feats_fmllr_train.4.ark:1643339
mmbs0_si1151 quick_test/data-fmllr-tri3/train/data/feats_fmllr_train.7.ark:14666924
mrgs0_si726 quick_test/data-fmllr-tri3/train/data/feats_fmllr_train.9.ark:98628
mmdg0_sx250 quick_test/data-fmllr-tri3/train/data/feats_fmllr_train.7.ark:16043524
mcae0_sx187 quick_test/data-fmllr-tri3/train/data/feats_fmllr_train.4.ark:8351751
mapv0_sx393 quick_test/data-fmllr-tri3/train/data/feats_fmllr_train.4.ark:2621347
mljh0_sx64 quick_test/data-fmllr-tri3/train/data/feats_fmllr_train.7.ark:11783456
mtkp0_sx213 quick_test/data-fmllr-tri3/train/data/feats_fmllr_train.10.ark:6340337
mdbb1_sx196 quick_test/data-fmllr-tri3/train/data/feats_fmllr_train.4.ark:15338426
mjxa0_sx157 quick_test/data-fmllr-tri3/train/data/feats_fmllr_train.7.ark:3392071
feac0_sx75 quick_test/data-fmllr-tri3/train/data/feats_fmllr_train.1.ark:13703743
mtrt0_sx147 quick_test/data-fmllr-tri3/train/data/feats_fmllr_train.10.ark:11359291
mejl0_sx242 quick_test/data-fmllr-tri3/train/data/feats_fmllr_train.5.ark:12416506
mbma0_sx322 quick_test/data-fmllr-tri3/train/data/feats_fmllr_train.4.ark:5782927
mfrm0_sx435 quick_test/data-fmllr-tri3/train/data/feats_fmllr_train.5.ark:15029438
fgcs0_sx136 quick_test/data-fmllr-tri3/train/data/feats_fmllr_train.1.ark:16375236
mwgr0_sx166 quick_test/data-fmllr-tri3/train/data/feats_fmllr_train.10.ark:15795340
mmdb0_sx267 quick_test/data-fmllr-tri3/train/data/feats_fmllr_train.7.ark:15657067
mrab1_si2108 quick_test/data-fmllr-tri3/train/data/feats_fmllr_train.8.ark:11368893
mpgr0_sx60 quick_test/data-fmllr-tri3/train/data/feats_fmllr_train.8.ark:7457284
mdwh0_sx125 quick_test/data-fmllr-tri3/train/data/feats_fmllr_train.5.ark:10126060
mkag0_sx439 quick_test/data-fmllr-tri3/train/data/feats_fmllr_train.7.ark:4317385
mcre0_si1121 quick_test/data-fmllr-tri3/train/data/feats_fmllr_train.4.ark:12454695
fjrb0_si672 quick_test/data-fmllr-tri3/train/data/feats_fmllr_train.2.ark:2480734
mfxv0_si1635 quick_test/data-fmllr-tri3/train/data/feats_fmllr_train.5.ark:16002143
mkes0_sx353 quick_test/data-fmllr-tri3/train/data/feats_fmllr_train.7.ark:7002716
mdns0_sx111 quick_test/data-fmllr-tri3/train/data/feats_fmllr_train.5.ark:6466449
mrws0_si1102 quick_test/data-fmllr-tri3/train/data/feats_fmllr_train.9.ark:10372857
mtrr0_sx18 quick_test/data-fmllr-tri3/train/data/feats_fmllr_train.10.ark:10994620
mmrp0_sx54 quick_test/data-fmllr-tri3/train/data/feats_fmllr_train.8.ark:2506466
msmc0_sx17 quick_test/data-fmllr-tri3/train/data/feats_fmllr_train.9.ark:16045127
fpab1_sx301 quick_test/data-fmllr-tri3/train/data/feats_fmllr_train.3.ark:1059302
fgrw0_si1152 quick_test/data-fmllr-tri3/train/data/feats_fmllr_train.1.ark:17507965
fvfb0_sx42 quick_test/data-fmllr-tri3/train/data/feats_fmllr_train.3.ark:16067762
mrml0_sx71 quick_test/data-fmllr-tri3/train/data/feats_fmllr_train.9.ark:6692474
frjb0_sx437 quick_test/data-fmllr-tri3/train/data/feats_fmllr_train.3.ark:4597762
mjpm1_si2280 quick_test/data-fmllr-tri3/train/data/feats_fmllr_train.6.ark:16863986
mdrd0_sx212 quick_test/data-fmllr-tri3/train/data/feats_fmllr_train.5.ark:7995664
msat0_si2156 quick_test/data-fmllr-tri3/train/data/feats_fmllr_train.9.ark:11894394
mcxm0_si1981 quick_test/data-fmllr-tri3/train/data/feats_fmllr_train.4.ark:14031110
mmsm0_sx26 quick_test/data-fmllr-tri3/train/data/feats_fmllr_train.8.ark:2835429
mdhs0_sx270 quick_test/data-fmllr-tri3/train/data/feats_fmllr_train.5.ark:1398373
mcxm0_si721 quick_test/data-fmllr-tri3/train/data/feats_fmllr_train.4.ark:14093697
flma0_sx343 quick_test/data-fmllr-tri3/train/data/feats_fmllr_train.2.ark:12687844
mdwm0_si1546 quick_test/data-fmllr-tri3/train/data/feats_fmllr_train.5.ark:10394195
mcdr0_sx74 quick_test/data-fmllr-tri3/train/data/feats_fmllr_train.4.ark:10082004
mtmt0_sx128 quick_test/data-fmllr-tri3/train/data/feats_fmllr_train.10.ark:8227956
mdpk0_sx63 quick_test/data-fmllr-tri3/train/data/feats_fmllr_train.5.ark:7377710
fbmj0_sx156 quick_test/data-fmllr-tri3/train/data/feats_fmllr_train.1.ark:4630318
mjac0_si2148 quick_test/data-fmllr-tri3/train/data/feats_fmllr_train.6.ark:6518923
mjls0_sx106 quick_test/data-fmllr-tri3/train/data/feats_fmllr_train.6.ark:14838577
fvfb0_si1510 quick_test/data-fmllr-tri3/train/data/feats_fmllr_train.3.ark:15799280
fmjb0_sx187 quick_test/data-fmllr-tri3/train/data/feats_fmllr_train.2.ark:15715129
fpmy0_sx73 quick_test/data-fmllr-tri3/train/data/feats_fmllr_train.3.ark:3959913
mejs0_si1240 quick_test/data-fmllr-tri3/train/data/feats_fmllr_train.5.ark:12598374
mbjv0_sx167 quick_test/data-fmllr-tri3/train/data/feats_fmllr_train.4.ark:5330816
mjrk0_sx250 quick_test/data-fmllr-tri3/train/data/feats_fmllr_train.7.ark:947597
mapv0_si1293 quick_test/data-fmllr-tri3/train/data/feats_fmllr_train.4.ark:2243558
flag0_sx114 quick_test/data-fmllr-tri3/train/data/feats_fmllr_train.2.ark:9410372
mclm0_si826 quick_test/data-fmllr-tri3/train/data/feats_fmllr_train.4.ark:11860076
mrdd0_sx330 quick_test/data-fmllr-tri3/train/data/feats_fmllr_train.8.ark:14306870
mrem0_sx241 quick_test/data-fmllr-tri3/train/data/feats_fmllr_train.8.ark:16169661
mpgr1_sx239 quick_test/data-fmllr-tri3/train/data/feats_fmllr_train.8.ark:7702862
mtrc0_sx273 quick_test/data-fmllr-tri3/train/data/feats_fmllr_train.10.ark:10704511
fcmm0_si1083 quick_test/data-fmllr-tri3/train/data/feats_fmllr_train.1.ark:8195768
mgag0_sx421 quick_test/data-fmllr-tri3/train/data/feats_fmllr_train.5.ark:16843324
flmc0_sx112 quick_test/data-fmllr-tri3/train/data/feats_fmllr_train.2.ark:12959527
mwar0_sx415 quick_test/data-fmllr-tri3/train/data/feats_fmllr_train.10.ark:14449911
fcag0_si1503 quick_test/data-fmllr-tri3/train/data/feats_fmllr_train.1.ark:4895413
msrr0_sx411 quick_test/data-fmllr-tri3/train/data/feats_fmllr_train.9.ark:17633569
medr0_sx384 quick_test/data-fmllr-tri3/train/data/feats_fmllr_train.5.ark:11386819
mrfk0_sx446 quick_test/data-fmllr-tri3/train/data/feats_fmllr_train.8.ark:16976550
fdas1_sx201 quick_test/data-fmllr-tri3/train/data/feats_fmllr_train.1.ark:9563248
mrwa0_si1603 quick_test/data-fmllr-tri3/train/data/feats_fmllr_train.9.ark:10002560
mtat0_sx300 quick_test/data-fmllr-tri3/train/data/feats_fmllr_train.10.ark:1542586
mrvg0_sx330 quick_test/data-fmllr-tri3/train/data/feats_fmllr_train.9.ark:9858959
fjlg0_si2306 quick_test/data-fmllr-tri3/train/data/feats_fmllr_train.2.ark:1714060
mmeb0_si727 quick_test/data-fmllr-tri3/train/data/feats_fmllr_train.7.ark:17750315
mjrg0_sx16 quick_test/data-fmllr-tri3/train/data/feats_fmllr_train.6.ark:17791540
fsbk0_sx349 quick_test/data-fmllr-tri3/train/data/feats_fmllr_train.3.ark:6559940
mstf0_sx226 quick_test/data-fmllr-tri3/train/data/feats_fmllr_train.9.ark:17948931
marc0_sx18 quick_test/data-fmllr-tri3/train/data/feats_fmllr_train.4.ark:2811883
mtlc0_sx397 quick_test/data-fmllr-tri3/train/data/feats_fmllr_train.10.ark:7195891
mrav0_si2268 quick_test/data-fmllr-tri3/train/data/feats_fmllr_train.8.ark:12593253
fntb0_sx33 quick_test/data-fmllr-tri3/train/data/feats_fmllr_train.3.ark:660231
mtlc0_sx127 quick_test/data-fmllr-tri3/train/data/feats_fmllr_train.10.ark:7074184
mbma0_sx142 quick_test/data-fmllr-tri3/train/data/feats_fmllr_train.4.ark:5677113
mhmr0_sx309 quick_test/data-fmllr-tri3/train/data/feats_fmllr_train.6.ark:5229047
mjjm0_sx377 quick_test/data-fmllr-tri3/train/data/feats_fmllr_train.6.ark:13504375
mtkp0_sx123 quick_test/data-fmllr-tri3/train/data/feats_fmllr_train.10.ark:6293590
mdlr0_si1233 quick_test/data-fmllr-tri3/train/data/feats_fmllr_train.5.ark:4649978
mdhl0_sx89 quick_test/data-fmllr-tri3/train/data/feats_fmllr_train.5.ark:1165276
fpmy0_sx253 quick_test/data-fmllr-tri3/train/data/feats_fmllr_train.3.ark:3859700
fljg0_si2241 quick_test/data-fmllr-tri3/train/data/feats_fmllr_train.2.ark:11638023
fsjk1_si696 quick_test/data-fmllr-tri3/train/data/feats_fmllr_train.3.ark:8907561
mpgr0_si2040 quick_test/data-fmllr-tri3/train/data/feats_fmllr_train.8.ark:7217123
mefg0_sx195 quick_test/data-fmllr-tri3/train/data/feats_fmllr_train.5.ark:11691460
msjk0_sx426 quick_test/data-fmllr-tri3/train/data/feats_fmllr_train.9.ark:15732806
fcjf0_sx307 quick_test/data-fmllr-tri3/train/data/feats_fmllr_train.1.ark:6602498
fbmh0_si1136 quick_test/data-fmllr-tri3/train/data/feats_fmllr_train.1.ark:4082660
mtkd0_si1187 quick_test/data-fmllr-tri3/train/data/feats_fmllr_train.10.ark:5669771
mrgs0_si1356 quick_test/data-fmllr-tri3/train/data/feats_fmllr_train.9.ark:13
mreh1_si969 quick_test/data-fmllr-tri3/train/data/feats_fmllr_train.8.ark:15629231
mjhi0_si555 quick_test/data-fmllr-tri3/train/data/feats_fmllr_train.6.ark:12024362
fbas0_sx397 quick_test/data-fmllr-tri3/train/data/feats_fmllr_train.1.ark:2416324
mlbc0_si609 quick_test/data-fmllr-tri3/train/data/feats_fmllr_train.7.ark:10225071
mmab1_sx144 quick_test/data-fmllr-tri3/train/data/feats_fmllr_train.7.ark:13144057
faem0_si1392 quick_test/data-fmllr-tri3/train/data/feats_fmllr_train.1.ark:13
flkm0_si1880 quick_test/data-fmllr-tri3/train/data/feats_fmllr_train.2.ark:12043492
mrvg0_sx60 quick_test/data-fmllr-tri3/train/data/feats_fmllr_train.9.ark:9954692
flmc0_sx292 quick_test/data-fmllr-tri3/train/data/feats_fmllr_train.2.ark:13040860
majp0_sx84 quick_test/data-fmllr-tri3/train/data/feats_fmllr_train.4.ark:1439095
mklw0_sx401 quick_test/data-fmllr-tri3/train/data/feats_fmllr_train.7.ark:9290608
mjra0_si1866 quick_test/data-fmllr-tri3/train/data/feats_fmllr_train.6.ark:17268363
mrml0_sx431 quick_test/data-fmllr-tri3/train/data/feats_fmllr_train.9.ark:6634528
fklc0_si2245 quick_test/data-fmllr-tri3/train/data/feats_fmllr_train.2.ark:7334352
fetb0_si518 quick_test/data-fmllr-tri3/train/data/feats_fmllr_train.1.ark:15513974
mdas0_si1896 quick_test/data-fmllr-tri3/train/data/feats_fmllr_train.4.ark:14804504
mmpm0_sx71 quick_test/data-fmllr-tri3/train/data/feats_fmllr_train.8.ark:2112810
mrmg0_sx360 quick_test/data-fmllr-tri3/train/data/feats_fmllr_train.9.ark:5747666
mtml0_sx165 quick_test/data-fmllr-tri3/train/data/feats_fmllr_train.10.ark:7399842
mfwk0_sx439 quick_test/data-fmllr-tri3/train/data/feats_fmllr_train.5.ark:15399895
fdxw0_sx251 quick_test/data-fmllr-tri3/train/data/feats_fmllr_train.1.ark:13175766
mbwp0_sx439 quick_test/data-fmllr-tri3/train/data/feats_fmllr_train.4.ark:8001535
fkfb0_sx168 quick_test/data-fmllr-tri3/train/data/feats_fmllr_train.2.ark:6598132
