mrlj1_si2301 quick_test/data-fmllr-tri3/train/data/feats_fmllr_train.9.ark:4108768
fskc0_si1416 quick_test/data-fmllr-tri3/train/data/feats_fmllr_train.3.ark:9998077
mjmm0_sx445 quick_test/data-fmllr-tri3/train/data/feats_fmllr_train.6.ark:16039310
mhjb0_sx387 quick_test/data-fmllr-tri3/train/data/feats_fmllr_train.6.ark:4566106
mpmb0_si1501 quick_test/data-fmllr-tri3/train/data/feats_fmllr_train.8.ark:7881690
fljg0_sx81 quick_test/data-fmllr-tri3/train/data/feats_fmllr_train.2.ark:11997064
falk0_si658 quick_test/data-fmllr-tri3/train/data/feats_fmllr_train.1.ark:905779
falk0_sx6 quick_test/data-fmllr-tri3/train/data/feats_fmllr_train.1.ark:1121405
fcmm0_sx183 quick_test/data-fmllr-tri3/train/data/feats_fmllr_train.1.ark:8344010
fsma0_sx91 quick_test/data-fmllr-tri3/train/data/feats_fmllr_train.3.ark:11852895
mprd0_sx81 quick_test/data-fmllr-tri3/train/data/feats_fmllr_train.8.ark:9775970
fjsp0_sx84 quick_test/data-fmllr-tri3/train/data/feats_fmllr_train.2.ark:3984240
fjlr0_si1861 quick_test/data-fmllr-tri3/train/data/feats_fmllr_train.2.ark:2063850
mrjm0_sx328 quick_test/data-fmllr-tri3/train/data/feats_fmllr_train.9.ark:1930136
fskl0_sx89 quick_test/data-fmllr-tri3/train/data/feats_fmllr_train.3.ark:10691123
mdlm0_sx424 quick_test/data-fmllr-tri3/train/data/feats_fmllr_train.5.ark:4569924
mrem0_sx241 quick_test/data-fmllr-tri3/train/data/feats_fmllr_train.8.ark:16169661
mprd0_si801 quick_test/data-fmllr-tri3/train/data/feats_fmllr_train.8.ark:9472156
mfxv0_sx105 quick_test/data-fmllr-tri3/train/data/feats_fmllr_train.5.ark:16034970
mtmt0_sx308 quick_test/data-fmllr-tri3/train/data/feats_fmllr_train.10.ark:8311530
mjeb0_sx386 quick_test/data-fmllr-tri3/train/data/feats_fmllr_train.6.ark:10380239
freh0_sx55 quick_test/data-fmllr-tri3/train/data/feats_fmllr_train.3.ark:4307650
mprt0_sx40 quick_test/data-fmllr-tri3/train/data/feats_fmllr_train.8.ark:10545016
fsak0_si670 quick_test/data-fmllr-tri3/train/data/feats_fmllr_train.3.ark:6057721
msjk0_sx426 quick_test/data-fmllr-tri3/train/data/feats_fmllr_train.9.ark:15732806
mtmn0_sx434 quick_test/data-fmllr-tri3/train/data/feats_fmllr_train.10.ark:7982700
mhmr0_sx129 quick_test/data-fmllr-tri3/train/data/feats_fmllr_train.6.ark:5123073
fsms1_si874 quick_test/data-fmllr-tri3/train/data/feats_fmllr_train.3.ark:12404075
mdas0_sx96 quick_test/data-fmllr-tri3/train/data/feats_fmllr_train.4.ark:15076022
fsrh0_sx131 quick_test/data-fmllr-tri3/train/data/feats_fmllr_train.3.ark:13225016
mmgg0_sx179 quick_test/data-fmllr-tri3/train/data/feats_fmllr_train.8.ark:498234
fjrb0_si1932 quick_test/data-fmllr-tri3/train/data/feats_fmllr_train.2.ark:2443267
fjrp1_si1432 quick_test/data-fmllr-tri3/train/data/feats_fmllr_train.2.ark:2765376
flma0_sx433 quick_test/data-fmllr-tri3/train/data/feats_fmllr_train.2.ark:12730271
fhlm0_si1560 quick_test/data-fmllr-tri3/train/data/feats_fmllr_train.1.ark:17959863
mmaa0_sx35 quick_test/data-fmllr-tri3/train/data/feats_fmllr_train.7.ark:12914800
fskl0_si2159 quick_test/data-fmllr-tri3/train/data/feats_fmllr_train.3.ark:10395922
mdlc0_sx315 quick_test/data-fmllr-tri3/train/data/feats_fmllr_train.5.ark:3057669
mefg0_si598 quick_test/data-fmllr-tri3/train/data/feats_fmllr_train.5.ark:11534420
mjeb1_sx117 quick_test/data-fmllr-tri3/train/data/feats_fmllr_train.6.ark:10627549
mmag0_sx46 quick_test/data-fmllr-tri3/train/data/feats_fmllr_train.7.ark:13810141
msah1_sx419 quick_test/data-fmllr-tri3/train/data/feats_fmllr_train.9.ark:11346735
mrem0_sx151 quick_test/data-fmllr-tri3/train/data/feats_fmllr_train.8.ark:16122274
fjen0_sx147 quick_test/data-fmllr-tri3/train/data/feats_fmllr_train.2.ark:571034
fpac0_si1921 quick_test/data-fmllr-tri3/train/data/feats_fmllr_train.3.ark:1188503
ftbw0_sx85 quick_test/data-fmllr-tri3/train/data/feats_fmllr_train.3.ark:14932871
fcjs0_sx347 quick_test/data-fmllr-tri3/train/data/feats_fmllr_train.1.ark:6887355
fcaj0_sx129 quick_test/data-fmllr-tri3/train/data/feats_fmllr_train.1.ark:5348513
mhmg0_sx105 quick_test/data-fmllr-tri3/train/data/feats_fmllr_train.6.ark:4766216
mtkp0_sx123 quick_test/data-fmllr-tri3/train/data/feats_fmllr_train.10.ark:6293590
mcef0_sx145 quick_test/data-fmllr-tri3/train/data/feats_fmllr_train.4.ark:10278434
mpsw0_sx77 quick_test/data-fmllr-tri3/train/data/feats_fmllr_train.8.ark:10895340
mbml0_si1799 quick_test/data-fmllr-tri3/train/data/feats_fmllr_train.4.ark:6365493
mwac0_si2231 quick_test/data-fmllr-tri3/train/data/feats_fmllr_train.10.ark:13479580
fjsp0_sx444 quick_test/data-fmllr-tri3/train/data/feats_fmllr_train.2.ark:3938294
mrjm0_sx418 quick_test/data-fmllr-tri3/train/data/feats_fmllr_train.9.ark:1985523
mjac0_sx251 quick_test/data-fmllr-tri3/train/data/feats_fmllr_train.6.ark:6615937
fkaa0_sx218 quick_test/data-fmllr-tri3/train/data/feats_fmllr_train.2.ark:5389507
fpaf0_si1054 quick_test/data-fmllr-tri3/train/data/feats_fmllr_train.3.ark:2026057
fjxm0_sx221 quick_test/data-fmllr-tri3/train/data/feats_fmllr_train.2.ark:4581553
mbma0_sx52 quick_test/data-fmllr-tri3/train/data/feats_fmllr_train.4.ark:5871300
mjdc0_sx261 quick_test/data-fmllr-tri3/train/data/feats_fmllr_train.6.ark:8583931
mrds0_sx267 quick_test/data-fmllr-tri3/train/data/feats_fmllr_train.8.ark:14959250
mmds0_sx353 quick_test/data-fmllr-tri3/train/data/feats_fmllr_train.7.ark:17209002
mgaw0_sx175 quick_test/data-fmllr-tri3/train/data/feats_fmllr_train.6.ark:549753
meal0_sx107 quick_test/data-fmllr-tri3/train/data/feats_fmllr_train.5.ark:10884574
mrtc0_si2088 quick_test/data-fmllr-tri3/train/data/feats_fmllr_train.9.ark:8826097
mgaw0_si535 quick_test/data-fmllr-tri3/train/data/feats_fmllr_train.6.ark:516126
mapv0_sx123 quick_test/data-fmllr-tri3/train/data/feats_fmllr_train.4.ark:2436600
fpac0_si2011 quick_test/data-fmllr-tri3/train/data/feats_fmllr_train.3.ark:1269171
mrjt0_si1805 quick_test/data-fmllr-tri3/train/data/feats_fmllr_train.9.ark:2539422
fexm0_sx201 quick_test/data-fmllr-tri3/train/data/feats_fmllr_train.1.ark:16017765
faem0_si762 quick_test/data-fmllr-tri3/train/data/feats_fmllr_train.1.ark:111588
megj0_sx77 quick_test/data-fmllr-tri3/train/data/feats_fmllr_train.5.ark:12207569
fpad0_si1346 quick_test/data-fmllr-tri3/train/data/feats_fmllr_train.3.ark:1604880
mtdp0_sx81 quick_test/data-fmllr-tri3/train/data/feats_fmllr_train.10.ark:3638259
mwac0_sx251 quick_test/data-fmllr-tri3/train/data/feats_fmllr_train.10.ark:13646381
mwsb0_si2256 quick_test/data-fmllr-tri3/train/data/feats_fmllr_train.10.ark:16839937
fgdp0_sx178 quick_test/data-fmllr-tri3/train/data/feats_fmllr_train.1.ark:16759613
fcyl0_si1297 quick_test/data-fmllr-tri3/train/data/feats_fmllr_train.1.ark:8926122
meal0_sx287 quick_test/data-fmllr-tri3/train/data/feats_fmllr_train.5.ark:10946708
fmem0_si2007 quick_test/data-fmllr-tri3/train/data/feats_fmllr_train.2.ark:15152617
frjb0_sx257 quick_test/data-fmllr-tri3/train/data/feats_fmllr_train.3.ark:4504588
msah1_sx329 quick_test/data-fmllr-tri3/train/data/feats_fmllr_train.9.ark:11292788
mnet0_sx96 quick_test/data-fmllr-tri3/train/data/feats_fmllr_train.8.ark:5278702
msjk0_si1596 quick_test/data-fmllr-tri3/train/data/feats_fmllr_train.9.ark:15415363
fmah1_sx429 quick_test/data-fmllr-tri3/train/data/feats_fmllr_train.2.ark:14618559
fbmj0_sx246 quick_test/data-fmllr-tri3/train/data/feats_fmllr_train.1.ark:4683305
mjxl0_sx92 quick_test/data-fmllr-tri3/train/data/feats_fmllr_train.7.ark:3964715
mcal0_sx328 quick_test/data-fmllr-tri3/train/data/feats_fmllr_train.4.ark:8808980
marw0_si1906 quick_test/data-fmllr-tri3/train/data/feats_fmllr_train.4.ark:3016820
fmbg0_sx80 quick_test/data-fmllr-tri3/train/data/feats_fmllr_train.2.ark:15057521
mcss0_si1380 quick_test/data-fmllr-tri3/train/data/feats_fmllr_train.4.ark:12832672
mpmb0_sx61 quick_test/data-fmllr-tri3/train/data/feats_fmllr_train.8.ark:8466039
mter0_sx437 quick_test/data-fmllr-tri3/train/data/feats_fmllr_train.10.ark:3977809
marc0_si558 quick_test/data-fmllr-tri3/train/data/feats_fmllr_train.4.ark:2720630
mmrp0_sx54 quick_test/data-fmllr-tri3/train/data/feats_fmllr_train.8.ark:2506466
mkls1_sx195 quick_test/data-fmllr-tri3/train/data/feats_fmllr_train.7.ark:8868442
mklw0_si1571 quick_test/data-fmllr-tri3/train/data/feats_fmllr_train.7.ark:8990444
mbcg0_sx237 quick_test/data-fmllr-tri3/train/data/feats_fmllr_train.4.ark:4292592
mrjh0_si914 quick_test/data-fmllr-tri3/train/data/feats_fmllr_train.9.ark:1389197
fntb0_sx33 quick_test/data-fmllr-tri3/train/data/feats_fmllr_train.3.ark:660231
feme0_sx245 quick_test/data-fmllr-tri3/train/data/feats_fmllr_train.1.ark:15211571
flag0_sx114 quick_test/data-fmllr-tri3/train/data/feats_fmllr_train.2.ark:9410372
mdhs0_sx270 quick_test/data-fmllr-tri3/train/data/feats_fmllr_train.5.ark:1398373
mcss0_sx300 quick_test/data-fmllr-tri3/train/data/feats_fmllr_train.4.ark:13148513
fclt0_sx178 quick_test/data-fmllr-tri3/train/data/feats_fmllr_train.1.ark:7540855
mgaf0_sx202 quick_test/data-fmllr-tri3/train/data/feats_fmllr_train.5.ark:16431374
mgrp0_sx147 quick_test/data-fmllr-tri3/train/data/feats_fmllr_train.6.ark:2037022
mwar0_si1045 quick_test/data-fmllr-tri3/train/data/feats_fmllr_train.10.ark:14170707
mvlo0_sx247 quick_test/data-fmllr-tri3/train/data/feats_fmllr_train.10.ark:12892987
mmlm0_sx447 quick_test/data-fmllr-tri3/train/data/feats_fmllr_train.8.ark:1690966
makr0_si1982 quick_test/data-fmllr-tri3/train/data/feats_fmllr_train.4.ark:1990569
mjkr0_si1831 quick_test/data-fmllr-tri3/train/data/feats_fmllr_train.6.ark:13615791
fpaz0_si1593 quick_test/data-fmllr-tri3/train/data/feats_fmllr_train.3.ark:2427075
flmk0_si1035 quick_test/data-fmllr-tri3/train/data/feats_fmllr_train.2.ark:13204142
mkjo0_si1517 quick_test/data-fmllr-tri3/train/data/feats_fmllr_train.7.ark:7147117
mdbb1_si1636 quick_test/data-fmllr-tri3/train/data/feats_fmllr_train.4.ark:15179278
mjjb0_si1769 quick_test/data-fmllr-tri3/train/data/feats_fmllr_train.6.ark:12430047
msas0_sx206 quick_test/data-fmllr-tri3/train/data/feats_fmllr_train.9.ark:11667698
msat1_si2333 quick_test/data-fmllr-tri3/train/data/feats_fmllr_train.9.ark:12250319
fdml0_sx339 quick_test/data-fmllr-tri3/train/data/feats_fmllr_train.1.ark:11482124
fmkc0_si1041 quick_test/data-fmllr-tri3/train/data/feats_fmllr_train.2.ark:16733616
fjrp1_sx352 quick_test/data-fmllr-tri3/train/data/feats_fmllr_train.2.ark:3065192
mwar0_si2305 quick_test/data-fmllr-tri3/train/data/feats_fmllr_train.10.ark:14290443
mrdm0_si965 quick_test/data-fmllr-tri3/train/data/feats_fmllr_train.8.ark:14517059
mcdr0_sx254 quick_test/data-fmllr-tri3/train/data/feats_fmllr_train.4.ark:9968324
mjdm0_sx440 quick_test/data-fmllr-tri3/train/data/feats_fmllr_train.6.ark:9943036
fmpg0_sx432 quick_test/data-fmllr-tri3/train/data/feats_fmllr_train.2.ark:18300347
mtrc0_sx170 quick_test/data-fmllr-tri3/train/data/feats_fmllr_train.10.ark:10604777
mkxl0_sx375 quick_test/data-fmllr-tri3/train/data/feats_fmllr_train.7.ark:10080348
fjhk0_sx212 quick_test/data-fmllr-tri3/train/data/feats_fmllr_train.2.ark:1064559
mcef0_sx325 quick_test/data-fmllr-tri3/train/data/feats_fmllr_train.4.ark:10361368
fjxm0_sx401 quick_test/data-fmllr-tri3/train/data/feats_fmllr_train.2.ark:4704807
mrdm0_sx335 quick_test/data-fmllr-tri3/train/data/feats_fmllr_train.8.ark:14653940
mbma0_si592 quick_test/data-fmllr-tri3/train/data/feats_fmllr_train.4.ark:5653726
fnkl0_si1522 quick_test/data-fmllr-tri3/train/data/feats_fmllr_train.3.ark:13
fmem0_sx117 quick_test/data-fmllr-tri3/train/data/feats_fmllr_train.2.ark:15257311
mcdc0_sx32 quick_test/data-fmllr-tri3/train/data/feats_fmllr_train.4.ark:9256103
ftlg0_si840 quick_test/data-fmllr-tri3/train/data/feats_fmllr_train.3.ark:15123033
fvfb0_si1510 quick_test/data-fmllr-tri3/train/data/feats_fmllr_train.3.ark:15799280
mmdm0_si1311 quick_test/data-fmllr-tri3/train/data/feats_fmllr_train.7.ark:16233392
mmds0_si1343 quick_test/data-fmllr-tri3/train/data/feats_fmllr_train.7.ark:17017026
mabc0_si2041 quick_test/data-fmllr-tri3/train/data/feats_fmllr_train.3.ark:16875292
mpfu0_sx88 quick_test/data-fmllr-tri3/train/data/feats_fmllr_train.8.ark:6765171
mded0_sx270 quick_test/data-fmllr-tri3/train/data/feats_fmllr_train.4.ark:17222365
mdns0_si2271 quick_test/data-fmllr-tri3/train/data/feats_fmllr_train.5.ark:6360795
mtrc0_si993 quick_test/data-fmllr-tri3/train/data/feats_fmllr_train.10.ark:10573390
fdjh0_sx215 quick_test/data-fmllr-tri3/train/data/feats_fmllr_train.1.ark:10664861
mfer0_si862 quick_test/data-fmllr-tri3/train/data/feats_fmllr_train.5.ark:14074975
makr0_sx182 quick_test/data-fmllr-tri3/train/data/feats_fmllr_train.4.ark:2070463
fecd0_sx338 quick_test/data-fmllr-tri3/train/data/feats_fmllr_train.1.ark:14438044
fsjk1_sx395 quick_test/data-fmllr-tri3/train/data/feats_fmllr_train.3.ark:9124015
mrjb1_sx300 quick_test/data-fmllr-tri3/train/data/feats_fmllr_train.9.ark:1138848
mcre0_si1751 quick_test/data-fmllr-tri3/train/data/feats_fmllr_train.4.ark:12538431
mhxl0_sx422 quick_test/data-fmllr-tri3/train/data/feats_fmllr_train.6.ark:6013027
mprk0_si1097 quick_test/data-fmllr-tri3/train/data/feats_fmllr_train.8.ark:9816798
ftbr0_sx111 quick_test/data-fmllr-tri3/train/data/feats_fmllr_train.3.ark:14390147
fljg0_sx261 quick_test/data-fmllr-tri3/train/data/feats_fmllr_train.2.ark:11830584
fsjk1_si1025 quick_test/data-fmllr-tri3/train/data/feats_fmllr_train.3.ark:8826386
mdhl0_si2069 quick_test/data-fmllr-tri3/train/data/feats_fmllr_train.5.ark:877915
mrcg0_sx78 quick_test/data-fmllr-tri3/train/data/feats_fmllr_train.8.ark:13644701
ftbw0_sx445 quick_test/data-fmllr-tri3/train/data/feats_fmllr_train.3.ark:14894125
marw0_sx286 quick_test/data-fmllr-tri3/train/data/feats_fmllr_train.4.ark:3177727
mjrg0_sx376 quick_test/data-fmllr-tri3/train/data/feats_fmllr_train.6.ark:17951461
mfxs0_sx54 quick_test/data-fmllr-tri3/train/data/feats_fmllr_train.5.ark:15812619
mcdd0_si1513 quick_test/data-fmllr-tri3/train/data/feats_fmllr_train.4.ark:9348798
mpmb0_sx151 quick_test/data-fmllr-tri3/train/data/feats_fmllr_train.8.ark:8180332
fsma0_sx181 quick_test/data-fmllr-tri3/train/data/feats_fmllr_train.3.ark:11632948
mrxb0_sx325 quick_test/data-fmllr-tri3/train/data/feats_fmllr_train.9.ark:10968410
feme0_sx65 quick_test/data-fmllr-tri3/train/data/feats_fmllr_train.1.ark:15377251
fdas1_sx201 quick_test/data-fmllr-tri3/train/data/feats_fmllr_train.1.ark:9563248
fjhk0_sx302 quick_test/data-fmllr-tri3/train/data/feats_fmllr_train.2.ark:1122026
mpgr1_si1269 quick_test/data-fmllr-tri3/train/data/feats_fmllr_train.8.ark:7506592
msfh0_si1216 quick_test/data-fmllr-tri3/train/data/feats_fmllr_train.9.ark:14503249
fpmy0_si1783 quick_test/data-fmllr-tri3/train/data/feats_fmllr_train.3.ark:3639272
fsah0_sx164 quick_test/data-fmllr-tri3/train/data/feats_fmllr_train.3.ark:5714171
mcal0_si508 quick_test/data-fmllr-tri3/train/data/feats_fmllr_train.4.ark:8700259
mmwb0_sx269 quick_test/data-fmllr-tri3/train/data/feats_fmllr_train.8.ark:3694078
medr0_si744 quick_test/data-fmllr-tri3/train/data/feats_fmllr_train.5.ark:11182685
mljc0_si1225 quick_test/data-fmllr-tri3/train/data/feats_fmllr_train.7.ark:10940010
mlel0_si616 quick_test/data-fmllr-tri3/train/data/feats_fmllr_train.7.ark:10587368
mlel0_sx256 quick_test/data-fmllr-tri3/train/data/feats_fmllr_train.7.ark:10730782
mrpc1_si2112 quick_test/data-fmllr-tri3/train/data/feats_fmllr_train.9.ark:7170696
fgmb0_sx245 quick_test/data-fmllr-tri3/train/data/feats_fmllr_train.1.ark:17296177
fspm0_sx341 quick_test/data-fmllr-tri3/train/data/feats_fmllr_train.3.ark:12991893
mmjb1_si1408 quick_test/data-fmllr-tri3/train/data/feats_fmllr_train.8.ark:1034426
mwad0_sx252 quick_test/data-fmllr-tri3/train/data/feats_fmllr_train.10.ark:14022759
makb0_si2276 quick_test/data-fmllr-tri3/train/data/feats_fmllr_train.4.ark:1643339
mter0_sx257 quick_test/data-fmllr-tri3/train/data/feats_fmllr_train.10.ark:3939222
fnkl0_sx262 quick_test/data-fmllr-tri3/train/data/feats_fmllr_train.3.ark:236469
mjpm0_sx288 quick_test/data-fmllr-tri3/train/data/feats_fmllr_train.6.ark:16743423
mjxl0_sx182 quick_test/data-fmllr-tri3/train/data/feats_fmllr_train.7.ark:3759968
mtdp0_si2151 quick_test/data-fmllr-tri3/train/data/feats_fmllr_train.10.ark:3324845
mkls0_sx447 quick_test/data-fmllr-tri3/train/data/feats_fmllr_train.7.ark:8536253
mpgh0_sx24 quick_test/data-fmllr-tri3/train/data/feats_fmllr_train.8.ark:7056053
ftlg0_si1743 quick_test/data-fmllr-tri3/train/data/feats_fmllr_train.3.ark:14971459
mkdt0_sx173 quick_test/data-fmllr-tri3/train/data/feats_fmllr_train.7.ark:6480045
madc0_sx287 quick_test/data-fmllr-tri3/train/data/feats_fmllr_train.3.ark:17492123
mdbb1_sx376 quick_test/data-fmllr-tri3/train/data/feats_fmllr_train.4.ark:15428720
falr0_sx425 quick_test/data-fmllr-tri3/train/data/feats_fmllr_train.1.ark:1500342
flhd0_sx174 quick_test/data-fmllr-tri3/train/data/feats_fmllr_train.2.ark:10539345
msdb0_si1637 quick_test/data-fmllr-tri3/train/data/feats_fmllr_train.9.ark:12586189
msmr0_si1150 quick_test/data-fmllr-tri3/train/data/feats_fmllr_train.9.ark:16220276
fdtd0_sx391 quick_test/data-fmllr-tri3/train/data/feats_fmllr_train.1.ark:12968269
mjmm0_si1255 quick_test/data-fmllr-tri3/train/data/feats_fmllr_train.6.ark:15752747
mrai0_sx252 quick_test/data-fmllr-tri3/train/data/feats_fmllr_train.8.ark:11938151
ftaj0_sx159 quick_test/data-fmllr-tri3/train/data/feats_fmllr_train.3.ark:14031690
mdac0_sx451 quick_test/data-fmllr-tri3/train/data/feats_fmllr_train.4.ark:14668902
mmjb1_sx148 quick_test/data-fmllr-tri3/train/data/feats_fmllr_train.8.ark:1178028
mrlr0_si1196 quick_test/data-fmllr-tri3/train/data/feats_fmllr_train.9.ark:4783575
mrxb0_si955 quick_test/data-fmllr-tri3/train/data/feats_fmllr_train.9.ark:10816489
mtat0_sx210 quick_test/data-fmllr-tri3/train/data/feats_fmllr_train.10.ark:1480133
mbom0_sx311 quick_test/data-fmllr-tri3/train/data/feats_fmllr_train.4.ark:6923286
mrav0_si1638 quick_test/data-fmllr-tri3/train/data/feats_fmllr_train.8.ark:12541065
mtbc0_sx363 quick_test/data-fmllr-tri3/train/data/feats_fmllr_train.10.ark:2353101
mdcm0_si1480 quick_test/data-fmllr-tri3/train/data/feats_fmllr_train.4.ark:16264542
mlel0_si1246 quick_test/data-fmllr-tri3/train/data/feats_fmllr_train.7.ark:10498193
mdwh0_sx35 quick_test/data-fmllr-tri3/train/data/feats_fmllr_train.5.ark:10286460
mpar0_si2206 quick_test/data-fmllr-tri3/train/data/feats_fmllr_train.8.ark:5763936
mdpb0_si1760 quick_test/data-fmllr-tri3/train/data/feats_fmllr_train.5.ark:6661944
mmwb0_sx359 quick_test/data-fmllr-tri3/train/data/feats_fmllr_train.8.ark:3742905
mtpr0_si1600 quick_test/data-fmllr-tri3/train/data/feats_fmllr_train.10.ark:9517702
fjwb1_si748 quick_test/data-fmllr-tri3/train/data/feats_fmllr_train.2.ark:4078695
mfxv0_sx195 quick_test/data-fmllr-tri3/train/data/feats_fmllr_train.5.ark:16109743
mmds0_sx173 quick_test/data-fmllr-tri3/train/data/feats_fmllr_train.7.ark:17130068
fpaz0_sx63 quick_test/data-fmllr-tri3/train/data/feats_fmllr_train.3.ark:2783743
mjls0_si1096 quick_test/data-fmllr-tri3/train/data/feats_fmllr_train.6.ark:14655615
mdwm0_sx106 quick_test/data-fmllr-tri3/train/data/feats_fmllr_train.5.ark:10549157
mjdg0_si1672 quick_test/data-fmllr-tri3/train/data/feats_fmllr_train.6.ark:9291003
mrai0_sx342 quick_test/data-fmllr-tri3/train/data/feats_fmllr_train.8.ark:11978338
fvmh0_si2096 quick_test/data-fmllr-tri3/train/data/feats_fmllr_train.3.ark:16560195
mtwh1_si2142 quick_test/data-fmllr-tri3/train/data/feats_fmllr_train.10.ark:11607934
mses0_sx59 quick_test/data-fmllr-tri3/train/data/feats_fmllr_train.9.ark:14475541
mvlo0_sx67 quick_test/data-fmllr-tri3/train/data/feats_fmllr_train.10.ark:13034027
falk0_sx276 quick_test/data-fmllr-tri3/train/data/feats_fmllr_train.1.ark:1022473
mlns0_si2037 quick_test/data-fmllr-tri3/train/data/feats_fmllr_train.7.ark:11867992
msdb0_sx377 quick_test/data-fmllr-tri3/train/data/feats_fmllr_train.9.ark:12765711
mjrh0_sx315 quick_test/data-fmllr-tri3/train/data/feats_fmllr_train.7.ark:249910
mwgr0_si2236 quick_test/data-fmllr-tri3/train/data/feats_fmllr_train.10.ark:15694806
fajw0_sx273 quick_test/data-fmllr-tri3/train/data/feats_fmllr_train.1.ark:638099
fsag0_sx423 quick_test/data-fmllr-tri3/train/data/feats_fmllr_train.3.ark:5415795
fgdp0_sx88 quick_test/data-fmllr-tri3/train/data/feats_fmllr_train.1.ark:16985640
mafm0_sx309 quick_test/data-fmllr-tri3/train/data/feats_fmllr_train.4.ark:940104
fmem0_sx333 quick_test/data-fmllr-tri3/train/data/feats_fmllr_train.2.ark:15384272
mcal0_sx148 quick_test/data-fmllr-tri3/train/data/feats_fmllr_train.4.ark:8728286
fcjf0_si1027 quick_test/data-fmllr-tri3/train/data/feats_fmllr_train.1.ark:6398842
mdlc2_si1614 quick_test/data-fmllr-tri3/train/data/feats_fmllr_train.5.ark:3572848
mrjb1_si1020 quick_test/data-fmllr-tri3/train/data/feats_fmllr_train.9.ark:783805
fjrb0_sx42 quick_test/data-fmllr-tri3/train/data/feats_fmllr_train.2.ark:2727588
mtkp0_sx213 quick_test/data-fmllr-tri3/train/data/feats_fmllr_train.10.ark:6340337
mtmt0_sx398 quick_test/data-fmllr-tri3/train/data/feats_fmllr_train.10.ark:8399103
mtab0_si2202 quick_test/data-fmllr-tri3/train/data/feats_fmllr_train.10.ark:567618
fecd0_si2048 quick_test/data-fmllr-tri3/train/data/feats_fmllr_train.1.ark:14225136
mapv0_sx393 quick_test/data-fmllr-tri3/train/data/feats_fmllr_train.4.ark:2621347
mwsh0_si1426 quick_test/data-fmllr-tri3/train/data/feats_fmllr_train.10.ark:17135164
mgrp0_si687 quick_test/data-fmllr-tri3/train/data/feats_fmllr_train.6.ark:1984515
mjac0_sx341 quick_test/data-fmllr-tri3/train/data/feats_fmllr_train.6.ark:6715191
mjjb0_si1139 quick_test/data-fmllr-tri3/train/data/feats_fmllr_train.6.ark:12331111
fklc1_sx58 quick_test/data-fmllr-tri3/train/data/feats_fmllr_train.2.ark:8037291
mjbg0_sx62 quick_test/data-fmllr-tri3/train/data/feats_fmllr_train.6.ark:7992376
fdkn0_sx451 quick_test/data-fmllr-tri3/train/data/feats_fmllr_train.1.ark:11158253
mwch0_si1622 quick_test/data-fmllr-tri3/train/data/feats_fmllr_train.10.ark:14541165
mbsb0_sx3 quick_test/data-fmllr-tri3/train/data/feats_fmllr_train.4.ark:7209235
fjwb1_si795 quick_test/data-fmllr-tri3/train/data/feats_fmllr_train.2.ark:4145122
mvjh0_sx206 quick_test/data-fmllr-tri3/train/data/feats_fmllr_train.10.ark:12546210
fcdr1_si1186 quick_test/data-fmllr-tri3/train/data/feats_fmllr_train.1.ark:5577768
msat1_si1073 quick_test/data-fmllr-tri3/train/data/feats_fmllr_train.9.ark:12156183
mdac0_sx271 quick_test/data-fmllr-tri3/train/data/feats_fmllr_train.4.ark:14589328
mrav0_sx198 quick_test/data-fmllr-tri3/train/data/feats_fmllr_train.8.ark:12731093
fsmm0_sx324 quick_test/data-fmllr-tri3/train/data/feats_fmllr_train.3.ark:12132259
mgrl0_sx237 quick_test/data-fmllr-tri3/train/data/feats_fmllr_train.6.ark:1689792
mtju0_sx130 quick_test/data-fmllr-tri3/train/data/feats_fmllr_train.10.ark:5445156
marc0_si1818 quick_test/data-fmllr-tri3/train/data/feats_fmllr_train.4.ark:2685883
flag0_si1464 quick_test/data-fmllr-tri3/train/data/feats_fmllr_train.2.ark:9220850
mprt0_si580 quick_test/data-fmllr-tri3/train/data/feats_fmllr_train.8.ark:10375149
marc0_sx288 quick_test/data-fmllr-tri3/train/data/feats_fmllr_train.4.ark:2883617
mlbc0_sx69 quick_test/data-fmllr-tri3/train/data/feats_fmllr_train.7.ark:10455285
freh0_sx235 quick_test/data-fmllr-tri3/train/data/feats_fmllr_train.3.ark:4206450
fsak0_sx130 quick_test/data-fmllr-tri3/train/data/feats_fmllr_train.3.ark:6105268
mgxp0_sx367 quick_test/data-fmllr-tri3/train/data/feats_fmllr_train.6.ark:3421083
mdrd0_sx392 quick_test/data-fmllr-tri3/train/data/feats_fmllr_train.5.ark:8150784
mdks0_si1696 quick_test/data-fmllr-tri3/train/data/feats_fmllr_train.5.ark:1955686
mdns0_sx111 quick_test/data-fmllr-tri3/train/data/feats_fmllr_train.5.ark:6466449
mtjm0_sx56 quick_test/data-fmllr-tri3/train/data/feats_fmllr_train.10.ark:4806269
fksr0_sx366 quick_test/data-fmllr-tri3/train/data/feats_fmllr_train.2.ark:8712552
mnet0_sx276 quick_test/data-fmllr-tri3/train/data/feats_fmllr_train.8.ark:5155264
mmgc0_sx315 quick_test/data-fmllr-tri3/train/data/feats_fmllr_train.8.ark:229430
fjxp0_si492 quick_test/data-fmllr-tri3/train/data/feats_fmllr_train.2.ark:4951316
mdsj0_si1462 quick_test/data-fmllr-tri3/train/data/feats_fmllr_train.5.ark:8202972
fdnc0_si2287 quick_test/data-fmllr-tri3/train/data/feats_fmllr_train.1.ark:12303437
fmkf0_sx186 quick_test/data-fmllr-tri3/train/data/feats_fmllr_train.2.ark:17307836
mdlc1_sx85 quick_test/data-fmllr-tri3/train/data/feats_fmllr_train.5.ark:3537940
mgaw0_si1802 quick_test/data-fmllr-tri3/train/data/feats_fmllr_train.6.ark:456579
mrws0_sx382 quick_test/data-fmllr-tri3/train/data/feats_fmllr_train.9.ark:10662166
mfmc0_sx142 quick_test/data-fmllr-tri3/train/data/feats_fmllr_train.5.ark:14498099
mrjm0_si1228 quick_test/data-fmllr-tri3/train/data/feats_fmllr_train.9.ark:1734827
freh0_si685 quick_test/data-fmllr-tri3/train/data/feats_fmllr_train.3.ark:4130236
mpar0_sx406 quick_test/data-fmllr-tri3/train/data/feats_fmllr_train.8.ark:5989671
mjee0_si1867 quick_test/data-fmllr-tri3/train/data/feats_fmllr_train.6.ark:10886272
mmws0_sx348 quick_test/data-fmllr-tri3/train/data/feats_fmllr_train.8.ark:4159761
mppc0_si782 quick_test/data-fmllr-tri3/train/data/feats_fmllr_train.8.ark:8648522
msdb0_sx197 quick_test/data-fmllr-tri3/train/data/feats_fmllr_train.9.ark:12704377
mrhl0_si885 quick_test/data-fmllr-tri3/train/data/feats_fmllr_train.9.ark:513563
msah1_si1049 quick_test/data-fmllr-tri3/train/data/feats_fmllr_train.9.ark:11101451
fkde0_sx331 quick_test/data-fmllr-tri3/train/data/feats_fmllr_train.2.ark:5895192
mrtj0_sx52 quick_test/data-fmllr-tri3/train/data/feats_fmllr_train.9.ark:9601355
mljc0_si1855 quick_test/data-fmllr-tri3/train/data/feats_fmllr_train.7.ark:11026438
mjlg1_sx382 quick_test/data-fmllr-tri3/train/data/feats_fmllr_train.6.ark:14611267
mkls0_sx87 quick_test/data-fmllr-tri3/train/data/feats_fmllr_train.7.ark:8579319
mtmn0_sx74 quick_test/data-fmllr-tri3/train/data/feats_fmllr_train.10.ark:8024646
mkxl0_si1815 quick_test/data-fmllr-tri3/train/data/feats_fmllr_train.7.ark:9795386
mjac0_si2148 quick_test/data-fmllr-tri3/train/data/feats_fmllr_train.6.ark:6518923
mdas0_sx186 quick_test/data-fmllr-tri3/train/data/feats_fmllr_train.4.ark:14936558
flac0_sx181 quick_test/data-fmllr-tri3/train/data/feats_fmllr_train.2.ark:8994795
fcjs0_si1607 quick_test/data-fmllr-tri3/train/data/feats_fmllr_train.1.ark:6700339
feeh0_si471 quick_test/data-fmllr-tri3/train/data/feats_fmllr_train.1.ark:14706020
mdrd0_sx302 quick_test/data-fmllr-tri3/train/data/feats_fmllr_train.5.ark:8054091
mrai0_sx72 quick_test/data-fmllr-tri3/train/data/feats_fmllr_train.8.ark:12101271
mjxl0_sx452 quick_test/data-fmllr-tri3/train/data/feats_fmllr_train.7.ark:3903089
mtrr0_sx18 quick_test/data-fmllr-tri3/train/data/feats_fmllr_train.10.ark:10994620
mtwh1_sx162 quick_test/data-fmllr-tri3/train/data/feats_fmllr_train.10.ark:11674708
fjdm2_sx412 quick_test/data-fmllr-tri3/train/data/feats_fmllr_train.2.ark:317937
mwch0_si2252 quick_test/data-fmllr-tri3/train/data/feats_fmllr_train.10.ark:14609541
mrmb0_si951 quick_test/data-fmllr-tri3/train/data/feats_fmllr_train.9.ark:5232647
fpaz0_si963 quick_test/data-fmllr-tri3/train/data/feats_fmllr_train.3.ark:2530650
mdss1_sx157 quick_test/data-fmllr-tri3/train/data/feats_fmllr_train.5.ark:9039328
mgsh0_si546 quick_test/data-fmllr-tri3/train/data/feats_fmllr_train.6.ark:2430332
mwad0_si2322 quick_test/data-fmllr-tri3/train/data/feats_fmllr_train.10.ark:13948305
mgag0_si1321 quick_test/data-fmllr-tri3/train/data/feats_fmllr_train.5.ark:16573402
mklw0_si1844 quick_test/data-fmllr-tri3/train/data/feats_fmllr_train.7.ark:9072552
fmmh0_sx187 quick_test/data-fmllr-tri3/train/data/feats_fmllr_train.2.ark:17703731
mrmh0_sx301 quick_test/data-fmllr-tri3/train/data/feats_fmllr_train.9.ark:6145484
fhxs0_sx445 quick_test/data-fmllr-tri3/train/data/feats_fmllr_train.1.ark:18754165
maeb0_sx270 quick_test/data-fmllr-tri3/train/data/feats_fmllr_train.4.ark:201882
msfv0_sx182 quick_test/data-fmllr-tri3/train/data/feats_fmllr_train.9.ark:15153788
mpeb0_sx330 quick_test/data-fmllr-tri3/train/data/feats_fmllr_train.8.ark:6262501
mjde0_si1120 quick_test/data-fmllr-tri3/train/data/feats_fmllr_train.6.ark:8727719
mrws0_sx202 quick_test/data-fmllr-tri3/train/data/feats_fmllr_train.9.ark:10555206
mbjv0_si1877 quick_test/data-fmllr-tri3/train/data/feats_fmllr_train.4.ark:5243722
mtwh1_sx252 quick_test/data-fmllr-tri3/train/data/feats_fmllr_train.10.ark:11715215
medr0_sx384 quick_test/data-fmllr-tri3/train/data/feats_fmllr_train.5.ark:11386819
fpls0_sx240 quick_test/data-fmllr-tri3/train/data/feats_fmllr_train.3.ark:3394338
fpaz0_sx423 quick_test/data-fmllr-tri3/train/data/feats_fmllr_train.3.ark:2729317
mbth0_sx302 quick_test/data-fmllr-tri3/train/data/feats_fmllr_train.4.ark:7567051
mtcs0_si712 quick_test/data-fmllr-tri3/train/data/feats_fmllr_train.10.ark:2496730
mkls1_sx285 quick_test/data-fmllr-tri3/train/data/feats_fmllr_train.7.ark:8899829
mkdd0_sx217 quick_test/data-fmllr-tri3/train/data/feats_fmllr_train.7.ark:6173456
mcth0_sx399 quick_test/data-fmllr-tri3/train/data/feats_fmllr_train.4.ark:13570997
fsms1_si1504 quick_test/data-fmllr-tri3/train/data/feats_fmllr_train.3.ark:12312180
mtbc0_sx273 quick_test/data-fmllr-tri3/train/data/feats_fmllr_train.10.ark:2254007
mdem0_sx248 quick_test/data-fmllr-tri3/train/data/feats_fmllr_train.5.ark:590419
mmab1_sx54 quick_test/data-fmllr-tri3/train/data/feats_fmllr_train.7.ark:13354244
mpgr0_si2040 quick_test/data-fmllr-tri3/train/data/feats_fmllr_train.8.ark:7217123
mwdk0_sx446 quick_test/data-fmllr-tri3/train/data/feats_fmllr_train.10.ark:15165386
mtpg0_sx393 quick_test/data-fmllr-tri3/train/data/feats_fmllr_train.10.ark:9120657
mrjm1_sx308 quick_test/data-fmllr-tri3/train/data/feats_fmllr_train.9.ark:2338993
mrtc0_sx288 quick_test/data-fmllr-tri3/train/data/feats_fmllr_train.9.ark:9068471
mdef0_sx303 quick_test/data-fmllr-tri3/train/data/feats_fmllr_train.5.ark:244310
mwar0_sx55 quick_test/data-fmllr-tri3/train/data/feats_fmllr_train.10.ark:14488497
mpfu0_sx268 quick_test/data-fmllr-tri3/train/data/feats_fmllr_train.8.ark:6613731
mjfr0_sx75 quick_test/data-fmllr-tri3/train/data/feats_fmllr_train.6.ark:11902867
mtpf0_si1865 quick_test/data-fmllr-tri3/train/data/feats_fmllr_train.10.ark:8504759
mter0_si1157 quick_test/data-fmllr-tri3/train/data/feats_fmllr_train.10.ark:3686607
mtjs0_si1192 quick_test/data-fmllr-tri3/train/data/feats_fmllr_train.10.ark:4850137
mmds0_sx443 quick_test/data-fmllr-tri3/train/data/feats_fmllr_train.7.ark:17249669
mdlr0_sx333 quick_test/data-fmllr-tri3/train/data/feats_fmllr_train.5.ark:4893634
mtpp0_sx68 quick_test/data-fmllr-tri3/train/data/feats_fmllr_train.10.ark:9479274
mbma1_sx144 quick_test/data-fmllr-tri3/train/data/feats_fmllr_train.4.ark:6061010
mrem0_si961 quick_test/data-fmllr-tri3/train/data/feats_fmllr_train.8.ark:16083687
mlns0_si777 quick_test/data-fmllr-tri3/train/data/feats_fmllr_train.7.ark:11924979
mmdm1_sx243 quick_test/data-fmllr-tri3/train/data/feats_fmllr_train.7.ark:16800758
mjeb1_sx207 quick_test/data-fmllr-tri3/train/data/feats_fmllr_train.6.ark:10667256
fgdp0_sx448 quick_test/data-fmllr-tri3/train/data/feats_fmllr_train.1.ark:16933294
fsdj0_sx125 quick_test/data-fmllr-tri3/train/data/feats_fmllr_train.3.ark:7722297
mdlr1_sx39 quick_test/data-fmllr-tri3/train/data/feats_fmllr_train.5.ark:5378997
mrfk0_sx446 quick_test/data-fmllr-tri3/train/data/feats_fmllr_train.8.ark:16976550
mjdc0_si2165 quick_test/data-fmllr-tri3/train/data/feats_fmllr_train.6.ark:8408490
mjae0_sx264 quick_test/data-fmllr-tri3/train/data/feats_fmllr_train.6.ark:7044822
mjrk0_sx70 quick_test/data-fmllr-tri3/train/data/feats_fmllr_train.7.ark:1102717
fexm0_sx366 quick_test/data-fmllr-tri3/train/data/feats_fmllr_train.1.ark:16135579
flmk0_sx225 quick_test/data-fmllr-tri3/train/data/feats_fmllr_train.2.ark:13416892
mlbc0_sx249 quick_test/data-fmllr-tri3/train/data/feats_fmllr_train.7.ark:10331045
mrvg0_sx420 quick_test/data-fmllr-tri3/train/data/feats_fmllr_train.9.ark:9898986
fsdc0_si2234 quick_test/data-fmllr-tri3/train/data/feats_fmllr_train.3.ark:7332773
fmjb0_sx97 quick_test/data-fmllr-tri3/train/data/feats_fmllr_train.2.ark:15881314
mhbs0_sx315 quick_test/data-fmllr-tri3/train/data/feats_fmllr_train.6.ark:3798098
fsmm0_si1944 quick_test/data-fmllr-tri3/train/data/feats_fmllr_train.3.ark:11939351
mtqc0_sx361 quick_test/data-fmllr-tri3/train/data/feats_fmllr_train.10.ark:10276775
fdmy0_sx117 quick_test/data-fmllr-tri3/train/data/feats_fmllr_train.1.ark:11877326
mkrg0_sx51 quick_test/data-fmllr-tri3/train/data/feats_fmllr_train.7.ark:9718370
mrlr0_sx386 quick_test/data-fmllr-tri3/train/data/feats_fmllr_train.9.ark:5112564
mgsl0_si797 quick_test/data-fmllr-tri3/train/data/feats_fmllr_train.6.ark:2809906
mcxm0_si1351 quick_test/data-fmllr-tri3/train/data/feats_fmllr_train.4.ark:13986762
mbef0_sx291 quick_test/data-fmllr-tri3/train/data/feats_fmllr_train.4.ark:4720222
fdkn0_si1202 quick_test/data-fmllr-tri3/train/data/feats_fmllr_train.1.ark:10885957
mree0_si1959 quick_test/data-fmllr-tri3/train/data/feats_fmllr_train.8.ark:15254774
mtmn0_sx344 quick_test/data-fmllr-tri3/train/data/feats_fmllr_train.10.ark:7948113
mrms0_si2100 quick_test/data-fmllr-tri3/train/data/feats_fmllr_train.9.ark:6872078
mlns0_sx57 quick_test/data-fmllr-tri3/train/data/feats_fmllr_train.7.ark:12143833
mgxp0_sx187 quick_test/data-fmllr-tri3/train/data/feats_fmllr_train.6.ark:3339749
mhmr0_sx39 quick_test/data-fmllr-tri3/train/data/feats_fmllr_train.6.ark:5277873
mrml0_sx251 quick_test/data-fmllr-tri3/train/data/feats_fmllr_train.9.ark:6504874
fdml0_sx159 quick_test/data-fmllr-tri3/train/data/feats_fmllr_train.1.ark:11404790
fclt0_sx358 quick_test/data-fmllr-tri3/train/data/feats_fmllr_train.1.ark:7644109
mcpm0_si1194 quick_test/data-fmllr-tri3/train/data/feats_fmllr_train.4.ark:12101838
mjrk0_sx340 quick_test/data-fmllr-tri3/train/data/feats_fmllr_train.7.ark:996424
mwrp0_sx273 quick_test/data-fmllr-tri3/train/data/feats_fmllr_train.10.ark:16633883
mhbs0_si2205 quick_test/data-fmllr-tri3/train/data/feats_fmllr_train.6.ark:3607270
fkfb0_sx258 quick_test/data-fmllr-tri3/train/data/feats_fmllr_train.2.ark:6635439
mdps0_sx89 quick_test/data-fmllr-tri3/train/data/feats_fmllr_train.5.ark:7727047
mrmh0_si1349 quick_test/data-fmllr-tri3/train/data/feats_fmllr_train.9.ark:5953535
mwsb0_si1626 quick_test/data-fmllr-tri3/train/data/feats_fmllr_train.10.ark:16797669
mjwg0_sx355 quick_test/data-fmllr-tri3/train/data/feats_fmllr_train.7.ark:2280434
mrlj1_si1671 quick_test/data-fmllr-tri3/train/data/feats_fmllr_train.9.ark:4063460
mrxb0_sx235 quick_test/data-fmllr-tri3/train/data/feats_fmllr_train.9.ark:10924703
mmvp0_si1284 quick_test/data-fmllr-tri3/train/data/feats_fmllr_train.8.ark:2969111
mjeb0_sx26 quick_test/data-fmllr-tri3/train/data/feats_fmllr_train.6.ark:10304345
fljg0_sx171 quick_test/data-fmllr-tri3/train/data/feats_fmllr_train.2.ark:11750717
mtml0_sx75 quick_test/data-fmllr-tri3/train/data/feats_fmllr_train.10.ark:7603149
flja0_si2338 quick_test/data-fmllr-tri3/train/data/feats_fmllr_train.2.ark:10900336
mrav0_sx378 quick_test/data-fmllr-tri3/train/data/feats_fmllr_train.8.ark:12811947
mjjb0_sx239 quick_test/data-fmllr-tri3/train/data/feats_fmllr_train.6.ark:12529781
mntw0_sx258 quick_test/data-fmllr-tri3/train/data/feats_fmllr_train.8.ark:5584627
fceg0_sx168 quick_test/data-fmllr-tri3/train/data/feats_fmllr_train.1.ark:6191987
mfrm0_si1155 quick_test/data-fmllr-tri3/train/data/feats_fmllr_train.5.ark:14756634
mtdb0_sx411 quick_test/data-fmllr-tri3/train/data/feats_fmllr_train.10.ark:3126815
mtkp0_si2283 quick_test/data-fmllr-tri3/train/data/feats_fmllr_train.10.ark:6139936
mmlm0_sx87 quick_test/data-fmllr-tri3/train/data/feats_fmllr_train.8.ark:1725232
mbom0_si1644 quick_test/data-fmllr-tri3/train/data/feats_fmllr_train.4.ark:6738350
mjws0_si1143 quick_test/data-fmllr-tri3/train/data/feats_fmllr_train.7.ark:2403875
mgar0_si1212 quick_test/data-fmllr-tri3/train/data/feats_fmllr_train.6.ark:13
mjpm1_sx311 quick_test/data-fmllr-tri3/train/data/feats_fmllr_train.6.ark:17040894
mwem0_sx150 quick_test/data-fmllr-tri3/train/data/feats_fmllr_train.10.ark:15372243
mdwh0_sx215 quick_test/data-fmllr-tri3/train/data/feats_fmllr_train.5.ark:10169127
mdcd0_si1415 quick_test/data-fmllr-tri3/train/data/feats_fmllr_train.4.ark:15888805
fdnc0_sx18 quick_test/data-fmllr-tri3/train/data/feats_fmllr_train.1.ark:12379810
mkah0_si1528 quick_test/data-fmllr-tri3/train/data/feats_fmllr_train.7.ark:4423519
mcal0_sx418 quick_test/data-fmllr-tri3/train/data/feats_fmllr_train.4.ark:8864367
fdxw0_sx431 quick_test/data-fmllr-tri3/train/data/feats_fmllr_train.1.ark:13265740
mrjt0_sx58 quick_test/data-fmllr-tri3/train/data/feats_fmllr_train.9.ark:2828063
fjxp0_sx42 quick_test/data-fmllr-tri3/train/data/feats_fmllr_train.2.ark:5162330
mhxl0_sx242 quick_test/data-fmllr-tri3/train/data/feats_fmllr_train.6.ark:5907853
mjwg0_sx175 quick_test/data-fmllr-tri3/train/data/feats_fmllr_train.7.ark:2162780
mpsw0_sx167 quick_test/data-fmllr-tri3/train/data/feats_fmllr_train.8.ark:10738434
flma0_sx73 quick_test/data-fmllr-tri3/train/data/feats_fmllr_train.2.ark:12782777
mjrh0_sx225 quick_test/data-fmllr-tri3/train/data/feats_fmllr_train.7.ark:217563
mrab1_sx128 quick_test/data-fmllr-tri3/train/data/feats_fmllr_train.8.ark:11477267
mdwd0_sx360 quick_test/data-fmllr-tri3/train/data/feats_fmllr_train.5.ark:9805737
mmeb0_si727 quick_test/data-fmllr-tri3/train/data/feats_fmllr_train.7.ark:17750315
fdmy0_sx207 quick_test/data-fmllr-tri3/train/data/feats_fmllr_train.1.ark:11935273
mjrk0_sx250 quick_test/data-fmllr-tri3/train/data/feats_fmllr_train.7.ark:947597
fjrb0_si1302 quick_test/data-fmllr-tri3/train/data/feats_fmllr_train.2.ark:2383719
feme0_si2135 quick_test/data-fmllr-tri3/train/data/feats_fmllr_train.1.ark:15042850
mwch0_sx272 quick_test/data-fmllr-tri3/train/data/feats_fmllr_train.10.ark:14687035
fjlg0_si1889 quick_test/data-fmllr-tri3/train/data/feats_fmllr_train.2.ark:1638832
mjmd0_sx218 quick_test/data-fmllr-tri3/train/data/feats_fmllr_train.6.ark:15578879
mesj0_sx277 quick_test/data-fmllr-tri3/train/data/feats_fmllr_train.5.ark:13550757
fskp0_sx198 quick_test/data-fmllr-tri3/train/data/feats_fmllr_train.3.ark:10966646
mmam0_si2227 quick_test/data-fmllr-tri3/train/data/feats_fmllr_train.7.ark:13944465
mprk0_si1727 quick_test/data-fmllr-tri3/train/data/feats_fmllr_train.8.ark:9912826
mdsj0_sx438 quick_test/data-fmllr-tri3/train/data/feats_fmllr_train.5.ark:8528441
fpac0_sx121 quick_test/data-fmllr-tri3/train/data/feats_fmllr_train.3.ark:1377865
fjsp0_si804 quick_test/data-fmllr-tri3/train/data/feats_fmllr_train.2.ark:3748266
mbml0_sx269 quick_test/data-fmllr-tri3/train/data/feats_fmllr_train.4.ark:6495494
mdlb0_si676 quick_test/data-fmllr-tri3/train/data/feats_fmllr_train.5.ark:2461851
mmrp0_sx324 quick_test/data-fmllr-tri3/train/data/feats_fmllr_train.8.ark:2378413
mvjh0_sx26 quick_test/data-fmllr-tri3/train/data/feats_fmllr_train.10.ark:12595356
mkjo0_sx167 quick_test/data-fmllr-tri3/train/data/feats_fmllr_train.7.ark:7272159
fclt0_si1438 quick_test/data-fmllr-tri3/train/data/feats_fmllr_train.1.ark:7404133
mljc0_sx325 quick_test/data-fmllr-tri3/train/data/feats_fmllr_train.7.ark:11196786
mhbs0_sx135 quick_test/data-fmllr-tri3/train/data/feats_fmllr_train.6.ark:3722524
mcdc0_si1292 quick_test/data-fmllr-tri3/train/data/feats_fmllr_train.4.ark:8986501
mtkd0_sx197 quick_test/data-fmllr-tri3/train/data/feats_fmllr_train.10.ark:5938066
mram0_sx15 quick_test/data-fmllr-tri3/train/data/feats_fmllr_train.8.ark:12333568
meal0_si1547 quick_test/data-fmllr-tri3/train/data/feats_fmllr_train.5.ark:10773932
mpar0_sx316 quick_test/data-fmllr-tri3/train/data/feats_fmllr_train.8.ark:5954764
mdcd0_si2045 quick_test/data-fmllr-tri3/train/data/feats_fmllr_train.4.ark:15932673
mpgh0_si1554 quick_test/data-fmllr-tri3/train/data/feats_fmllr_train.8.ark:6819919
msds0_sx87 quick_test/data-fmllr-tri3/train/data/feats_fmllr_train.9.ark:13612226
mwar0_sx235 quick_test/data-fmllr-tri3/train/data/feats_fmllr_train.10.ark:14370817
ftmg0_sx182 quick_test/data-fmllr-tri3/train/data/feats_fmllr_train.3.ark:15527117
mfxv0_si1342 quick_test/data-fmllr-tri3/train/data/feats_fmllr_train.5.ark:15932835
mgak0_sx136 quick_test/data-fmllr-tri3/train/data/feats_fmllr_train.5.ark:17080421
mdss1_sx247 quick_test/data-fmllr-tri3/train/data/feats_fmllr_train.5.ark:9074235
mjjj0_si1793 quick_test/data-fmllr-tri3/train/data/feats_fmllr_train.6.ark:12818077
mrcg0_si2058 quick_test/data-fmllr-tri3/train/data/feats_fmllr_train.8.ark:13305180
mded0_sx450 quick_test/data-fmllr-tri3/train/data/feats_fmllr_train.4.ark:17313459
msem1_si1440 quick_test/data-fmllr-tri3/train/data/feats_fmllr_train.9.ark:13658974
mjde0_sx400 quick_test/data-fmllr-tri3/train/data/feats_fmllr_train.6.ark:9187907
mdas0_si1896 quick_test/data-fmllr-tri3/train/data/feats_fmllr_train.4.ark:14804504
mkag0_sx259 quick_test/data-fmllr-tri3/train/data/feats_fmllr_train.7.ark:4236372
mjhi0_sx158 quick_test/data-fmllr-tri3/train/data/feats_fmllr_train.6.ark:12114816
mbbr0_sx335 quick_test/data-fmllr-tri3/train/data/feats_fmllr_train.4.ark:3979923
mwrp0_sx3 quick_test/data-fmllr-tri3/train/data/feats_fmllr_train.10.ark:16676468
mctm0_sx90 quick_test/data-fmllr-tri3/train/data/feats_fmllr_train.4.ark:13956494
mrmb0_si2211 quick_test/data-fmllr-tri3/train/data/feats_fmllr_train.9.ark:5188780
fsma0_sx361 quick_test/data-fmllr-tri3/train/data/feats_fmllr_train.3.ark:11734282
mmcc0_sx78 quick_test/data-fmllr-tri3/train/data/feats_fmllr_train.7.ark:15445890
ftaj0_sx69 quick_test/data-fmllr-tri3/train/data/feats_fmllr_train.3.ark:14174997
fjxp0_si1752 quick_test/data-fmllr-tri3/train/data/feats_fmllr_train.2.ark:4884409
mewm0_sx88 quick_test/data-fmllr-tri3/train/data/feats_fmllr_train.5.ark:13974412
fdxw0_si881 quick_test/data-fmllr-tri3/train/data/feats_fmllr_train.1.ark:13063392
mkes0_si1253 quick_test/data-fmllr-tri3/train/data/feats_fmllr_train.7.ark:6725940
mmag0_si1756 quick_test/data-fmllr-tri3/train/data/feats_fmllr_train.7.ark:13465180
fmbg0_sx350 quick_test/data-fmllr-tri3/train/data/feats_fmllr_train.2.ark:14939388
fklc1_si1048 quick_test/data-fmllr-tri3/train/data/feats_fmllr_train.2.ark:7709261
fsjg0_si2200 quick_test/data-fmllr-tri3/train/data/feats_fmllr_train.3.ark:8355317
mjhi0_sx248 quick_test/data-fmllr-tri3/train/data/feats_fmllr_train.6.ark:12147483
fsrh0_si671 quick_test/data-fmllr-tri3/train/data/feats_fmllr_train.3.ark:13183549
mrds0_si537 quick_test/data-fmllr-tri3/train/data/feats_fmllr_train.8.ark:14869436
mkjo0_si2147 quick_test/data-fmllr-tri3/train/data/feats_fmllr_train.7.ark:7196425
fnkl0_sx442 quick_test/data-fmllr-tri3/train/data/feats_fmllr_train.3.ark:278096
mdlm0_sx64 quick_test/data-fmllr-tri3/train/data/feats_fmllr_train.5.ark:4616350
fjrp1_si2062 quick_test/data-fmllr-tri3/train/data/feats_fmllr_train.2.ark:2870684
mhmg0_si1365 quick_test/data-fmllr-tri3/train/data/feats_fmllr_train.6.ark:4606454
fdkn0_si1081 quick_test/data-fmllr-tri3/train/data/feats_fmllr_train.1.ark:10838089
mbgt0_sx81 quick_test/data-fmllr-tri3/train/data/feats_fmllr_train.4.ark:5154226
mejs0_si610 quick_test/data-fmllr-tri3/train/data/feats_fmllr_train.5.ark:12703229
mjdc0_si531 quick_test/data-fmllr-tri3/train/data/feats_fmllr_train.6.ark:8437637
fljd0_si1516 quick_test/data-fmllr-tri3/train/data/feats_fmllr_train.2.ark:11200178
fsah0_sx344 quick_test/data-fmllr-tri3/train/data/feats_fmllr_train.3.ark:5840465
fsjw0_si703 quick_test/data-fmllr-tri3/train/data/feats_fmllr_train.3.ark:9715035
madd0_si1295 quick_test/data-fmllr-tri3/train/data/feats_fmllr_train.3.ark:17591378
mntw0_si1068 quick_test/data-fmllr-tri3/train/data/feats_fmllr_train.8.ark:5322090
mgaf0_sx382 quick_test/data-fmllr-tri3/train/data/feats_fmllr_train.5.ark:16530814
fkaa0_sx308 quick_test/data-fmllr-tri3/train/data/feats_fmllr_train.2.ark:5443294
mclm0_sx376 quick_test/data-fmllr-tri3/train/data/feats_fmllr_train.4.ark:12062770
medr0_sx114 quick_test/data-fmllr-tri3/train/data/feats_fmllr_train.5.ark:11242872
mrtc0_sx18 quick_test/data-fmllr-tri3/train/data/feats_fmllr_train.9.ark:8978497
mbml0_si1169 quick_test/data-fmllr-tri3/train/data/feats_fmllr_train.4.ark:6332185
mjpm0_si1998 quick_test/data-fmllr-tri3/train/data/feats_fmllr_train.6.ark:16506809
fcke0_sx391 quick_test/data-fmllr-tri3/train/data/feats_fmllr_train.1.ark:7373865
mmds0_si713 quick_test/data-fmllr-tri3/train/data/feats_fmllr_train.7.ark:17098841
mctm0_sx450 quick_test/data-fmllr-tri3/train/data/feats_fmllr_train.4.ark:13904948
mcef0_si1765 quick_test/data-fmllr-tri3/train/data/feats_fmllr_train.4.ark:10169740
fjsp0_si1434 quick_test/data-fmllr-tri3/train/data/feats_fmllr_train.2.ark:3658931
fgrw0_sx252 quick_test/data-fmllr-tri3/train/data/feats_fmllr_train.1.ark:17756715
mlns0_si1407 quick_test/data-fmllr-tri3/train/data/feats_fmllr_train.7.ark:11832284
mdlr1_si1299 quick_test/data-fmllr-tri3/train/data/feats_fmllr_train.5.ark:5059635
maeo0_sx246 quick_test/data-fmllr-tri3/train/data/feats_fmllr_train.4.ark:561140
mprk0_sx377 quick_test/data-fmllr-tri3/train/data/feats_fmllr_train.8.ark:10230107
mgaf0_sx112 quick_test/data-fmllr-tri3/train/data/feats_fmllr_train.5.ark:16393107
mmsm0_sx296 quick_test/data-fmllr-tri3/train/data/feats_fmllr_train.8.ark:2882336
fklc0_si2245 quick_test/data-fmllr-tri3/train/data/feats_fmllr_train.2.ark:7334352
mbom0_sx384 quick_test/data-fmllr-tri3/train/data/feats_fmllr_train.4.ark:6980273
mdhs0_si2160 quick_test/data-fmllr-tri3/train/data/feats_fmllr_train.5.ark:1248692
msdh0_sx80 quick_test/data-fmllr-tri3/train/data/feats_fmllr_train.9.ark:13156648
mjeb0_si1286 quick_test/data-fmllr-tri3/train/data/feats_fmllr_train.6.ark:10042290
fapb0_si1063 quick_test/data-fmllr-tri3/train/data/feats_fmllr_train.1.ark:1568716
mesj0_sx97 quick_test/data-fmllr-tri3/train/data/feats_fmllr_train.5.ark:13660275
mwrp0_si2073 quick_test/data-fmllr-tri3/train/data/feats_fmllr_train.10.ark:16526789
fpjf0_si1046 quick_test/data-fmllr-tri3/train/data/feats_fmllr_train.3.ark:2831611
fvfb0_si2292 quick_test/data-fmllr-tri3/train/data/feats_fmllr_train.3.ark:15863628
mfxs0_si2225 quick_test/data-fmllr-tri3/train/data/feats_fmllr_train.5.ark:15536937
mfer0_sx412 quick_test/data-fmllr-tri3/train/data/feats_fmllr_train.5.ark:14270283
maeo0_sx66 quick_test/data-fmllr-tri3/train/data/feats_fmllr_train.4.ark:710980
mjra0_sx426 quick_test/data-fmllr-tri3/train/data/feats_fmllr_train.6.ark:17516338
fksr0_sx397 quick_test/data-fmllr-tri3/train/data/feats_fmllr_train.2.ark:8818525
mjda0_sx311 quick_test/data-fmllr-tri3/train/data/feats_fmllr_train.6.ark:8217981
mrhl0_sx75 quick_test/data-fmllr-tri3/train/data/feats_fmllr_train.9.ark:748417
mtlc0_si1313 quick_test/data-fmllr-tri3/train/data/feats_fmllr_train.10.ark:6890262
madd0_sx448 quick_test/data-fmllr-tri3/train/data/feats_fmllr_train.3.ark:17874421
mrvg0_sx240 quick_test/data-fmllr-tri3/train/data/feats_fmllr_train.9.ark:9817012
mclm0_sx286 quick_test/data-fmllr-tri3/train/data/feats_fmllr_train.4.ark:12010583
mfer0_sx322 quick_test/data-fmllr-tri3/train/data/feats_fmllr_train.5.ark:14236496
mbth0_sx122 quick_test/data-fmllr-tri3/train/data/feats_fmllr_train.4.ark:7455477
mrfk0_sx86 quick_test/data-fmllr-tri3/train/data/feats_fmllr_train.8.ark:17016736
fhxs0_sx265 quick_test/data-fmllr-tri3/train/data/feats_fmllr_train.1.ark:18663231
fjlr0_sx61 quick_test/data-fmllr-tri3/train/data/feats_fmllr_train.2.ark:2327691
mrmb0_sx321 quick_test/data-fmllr-tri3/train/data/feats_fmllr_train.9.ark:5369528
mprb0_sx215 quick_test/data-fmllr-tri3/train/data/feats_fmllr_train.8.ark:9170873
mwem0_sx420 quick_test/data-fmllr-tri3/train/data/feats_fmllr_train.10.ark:15520644
mtpr0_sx160 quick_test/data-fmllr-tri3/train/data/feats_fmllr_train.10.ark:9679544
mchl0_si1404 quick_test/data-fmllr-tri3/train/data/feats_fmllr_train.4.ark:11056734
fdas1_sx381 quick_test/data-fmllr-tri3/train/data/feats_fmllr_train.1.ark:9692768
fbas0_sx37 quick_test/data-fmllr-tri3/train/data/feats_fmllr_train.1.ark:2373097
fsak0_si1300 quick_test/data-fmllr-tri3/train/data/feats_fmllr_train.3.ark:5957186
mtxs0_sx70 quick_test/data-fmllr-tri3/train/data/feats_fmllr_train.10.ark:12309913
mjhi0_si1328 quick_test/data-fmllr-tri3/train/data/feats_fmllr_train.6.ark:11946575
mmws0_sx258 quick_test/data-fmllr-tri3/train/data/feats_fmllr_train.8.ark:4110934
mree0_si1734 quick_test/data-fmllr-tri3/train/data/feats_fmllr_train.8.ark:15202906
mklr0_sx429 quick_test/data-fmllr-tri3/train/data/feats_fmllr_train.7.ark:8115875
fbjl0_si2182 quick_test/data-fmllr-tri3/train/data/feats_fmllr_train.1.ark:3325293
mses0_sx329 quick_test/data-fmllr-tri3/train/data/feats_fmllr_train.9.ark:14387168
mbwp0_si709 quick_test/data-fmllr-tri3/train/data/feats_fmllr_train.4.ark:7776147
fmbg0_sx440 quick_test/data-fmllr-tri3/train/data/feats_fmllr_train.2.ark:14997335
mtrt0_si597 quick_test/data-fmllr-tri3/train/data/feats_fmllr_train.10.ark:11320064
ftaj0_si699 quick_test/data-fmllr-tri3/train/data/feats_fmllr_train.3.ark:13980303
mmam0_si1597 quick_test/data-fmllr-tri3/train/data/feats_fmllr_train.7.ark:13850169
fpab1_sx121 quick_test/data-fmllr-tri3/train/data/feats_fmllr_train.3.ark:950288
mdem0_sx68 quick_test/data-fmllr-tri3/train/data/feats_fmllr_train.5.ark:774819
mrvg0_si1770 quick_test/data-fmllr-tri3/train/data/feats_fmllr_train.9.ark:9706691
milb0_sx273 quick_test/data-fmllr-tri3/train/data/feats_fmllr_train.6.ark:6330789
mejl0_sx422 quick_test/data-fmllr-tri3/train/data/feats_fmllr_train.5.ark:12507120
msds0_si1077 quick_test/data-fmllr-tri3/train/data/feats_fmllr_train.9.ark:13190916
mdtb0_si1200 quick_test/data-fmllr-tri3/train/data/feats_fmllr_train.5.ark:9250983
mprb0_si1215 quick_test/data-fmllr-tri3/train/data/feats_fmllr_train.8.ark:8965832
mhxl0_sx62 quick_test/data-fmllr-tri3/train/data/feats_fmllr_train.6.ark:6074333
fcag0_sx243 quick_test/data-fmllr-tri3/train/data/feats_fmllr_train.1.ark:5040003
mkls1_sx105 quick_test/data-fmllr-tri3/train/data/feats_fmllr_train.7.ark:8780229
msrr0_si1761 quick_test/data-fmllr-tri3/train/data/feats_fmllr_train.9.ark:17384795
mmpm0_sx161 quick_test/data-fmllr-tri3/train/data/feats_fmllr_train.8.ark:1889983
fapb0_sx253 quick_test/data-fmllr-tri3/train/data/feats_fmllr_train.1.ark:1818106
mfrm0_si1717 quick_test/data-fmllr-tri3/train/data/feats_fmllr_train.5.ark:14818102
mbma1_si954 quick_test/data-fmllr-tri3/train/data/feats_fmllr_train.4.ark:5996823
mreh1_sx249 quick_test/data-fmllr-tri3/train/data/feats_fmllr_train.8.ark:15770085
mcef0_sx415 quick_test/data-fmllr-tri3/train/data/feats_fmllr_train.4.ark:10399315
mrcw0_sx111 quick_test/data-fmllr-tri3/train/data/feats_fmllr_train.8.ark:13866891
mmjb1_sx58 quick_test/data-fmllr-tri3/train/data/feats_fmllr_train.8.ark:1380855
mcth0_si1209 quick_test/data-fmllr-tri3/train/data/feats_fmllr_train.4.ark:13233848
mlsh0_si2047 quick_test/data-fmllr-tri3/train/data/feats_fmllr_train.7.ark:12248849
fsjs0_si1171 quick_test/data-fmllr-tri3/train/data/feats_fmllr_train.3.ark:9166923
frll0_si805 quick_test/data-fmllr-tri3/train/data/feats_fmllr_train.3.ark:4743443
mjmm0_si1885 quick_test/data-fmllr-tri3/train/data/feats_fmllr_train.6.ark:15820295
mjfh0_si1107 quick_test/data-fmllr-tri3/train/data/feats_fmllr_train.6.ark:11215581
mstf0_sx406 quick_test/data-fmllr-tri3/train/data/feats_fmllr_train.9.ark:18040985
mtml0_sx345 quick_test/data-fmllr-tri3/train/data/feats_fmllr_train.10.ark:7490136
mrmb0_sx141 quick_test/data-fmllr-tri3/train/data/feats_fmllr_train.9.ark:5289954
mfrm0_sx255 quick_test/data-fmllr-tri3/train/data/feats_fmllr_train.5.ark:14948104
fblv0_si2318 quick_test/data-fmllr-tri3/train/data/feats_fmllr_train.1.ark:3799778
mcxm0_si721 quick_test/data-fmllr-tri3/train/data/feats_fmllr_train.4.ark:14093697
marw0_sx16 quick_test/data-fmllr-tri3/train/data/feats_fmllr_train.4.ark:3135300
mlel0_si1876 quick_test/data-fmllr-tri3/train/data/feats_fmllr_train.7.ark:10550861
mtwh1_sx342 quick_test/data-fmllr-tri3/train/data/feats_fmllr_train.10.ark:11759082
mapv0_sx33 quick_test/data-fmllr-tri3/train/data/feats_fmllr_train.4.ark:2582760
mhrm0_sx58 quick_test/data-fmllr-tri3/train/data/feats_fmllr_train.6.ark:5670117
mhmg0_sx195 quick_test/data-fmllr-tri3/train/data/feats_fmllr_train.6.ark:4844029
mcss0_sx30 quick_test/data-fmllr-tri3/train/data/feats_fmllr_train.4.ark:13116486
mrlr0_sx116 quick_test/data-fmllr-tri3/train/data/feats_fmllr_train.9.ark:4947657
mcre0_sx24 quick_test/data-fmllr-tri3/train/data/feats_fmllr_train.4.ark:12692911
mjlb0_sx446 quick_test/data-fmllr-tri3/train/data/feats_fmllr_train.6.ark:14228303
mjrg0_sx106 quick_test/data-fmllr-tri3/train/data/feats_fmllr_train.6.ark:17754074
fear0_sx172 quick_test/data-fmllr-tri3/train/data/feats_fmllr_train.1.ark:13866413
feac0_sx75 quick_test/data-fmllr-tri3/train/data/feats_fmllr_train.1.ark:13703743
mppc0_sx332 quick_test/data-fmllr-tri3/train/data/feats_fmllr_train.8.ark:8783643
mkdd0_si2197 quick_test/data-fmllr-tri3/train/data/feats_fmllr_train.7.ark:6006815
mjlg1_sx112 quick_test/data-fmllr-tri3/train/data/feats_fmllr_train.6.ark:14454840
mges0_sx221 quick_test/data-fmllr-tri3/train/data/feats_fmllr_train.6.ark:880237
feme0_sx425 quick_test/data-fmllr-tri3/train/data/feats_fmllr_train.1.ark:15331625
fpjf0_sx326 quick_test/data-fmllr-tri3/train/data/feats_fmllr_train.3.ark:3058948
fsjs0_sx91 quick_test/data-fmllr-tri3/train/data/feats_fmllr_train.3.ark:9537672
mmws0_sx168 quick_test/data-fmllr-tri3/train/data/feats_fmllr_train.8.ark:4074747
mmcc0_si1338 quick_test/data-fmllr-tri3/train/data/feats_fmllr_train.7.ark:15099621
fmjf0_si1884 quick_test/data-fmllr-tri3/train/data/feats_fmllr_train.2.ark:15956250
mdns0_sx381 quick_test/data-fmllr-tri3/train/data/feats_fmllr_train.5.ark:6625916
fpjf0_sx352 quick_test/data-fmllr-tri3/train/data/feats_fmllr_train.3.ark:3095135
mbom0_si1014 quick_test/data-fmllr-tri3/train/data/feats_fmllr_train.4.ark:6679922
mwre0_sx157 quick_test/data-fmllr-tri3/train/data/feats_fmllr_train.10.ark:16165478
mjai0_sx254 quick_test/data-fmllr-tri3/train/data/feats_fmllr_train.6.ark:7506318
mjjb0_si1277 quick_test/data-fmllr-tri3/train/data/feats_fmllr_train.6.ark:12393539
mrpc1_sx42 quick_test/data-fmllr-tri3/train/data/feats_fmllr_train.9.ark:7385070
fcyl0_sx217 quick_test/data-fmllr-tri3/train/data/feats_fmllr_train.1.ark:9135511
fpmy0_sx73 quick_test/data-fmllr-tri3/train/data/feats_fmllr_train.3.ark:3959913
mdps0_sx269 quick_test/data-fmllr-tri3/train/data/feats_fmllr_train.5.ark:7586327
fpaf0_si2314 quick_test/data-fmllr-tri3/train/data/feats_fmllr_train.3.ark:2162273
mcdr0_sx164 quick_test/data-fmllr-tri3/train/data/feats_fmllr_train.4.ark:9907337
meal0_si917 quick_test/data-fmllr-tri3/train/data/feats_fmllr_train.5.ark:10850627
mrms0_si2057 quick_test/data-fmllr-tri3/train/data/feats_fmllr_train.9.ark:6802770
mdlr0_sx243 quick_test/data-fmllr-tri3/train/data/feats_fmllr_train.5.ark:4843527
mjpm1_sx41 quick_test/data-fmllr-tri3/train/data/feats_fmllr_train.6.ark:17164307
fljd0_si2146 quick_test/data-fmllr-tri3/train/data/feats_fmllr_train.2.ark:11279726
fjkl0_si932 quick_test/data-fmllr-tri3/train/data/feats_fmllr_train.2.ark:1292242
mdlc0_si1395 quick_test/data-fmllr-tri3/train/data/feats_fmllr_train.5.ark:2782173
mtlb0_sx54 quick_test/data-fmllr-tri3/train/data/feats_fmllr_train.10.ark:6836314
mbth0_si2102 quick_test/data-fmllr-tri3/train/data/feats_fmllr_train.4.ark:7293476
mkdb0_sx242 quick_test/data-fmllr-tri3/train/data/feats_fmllr_train.7.ark:5735319
mjkr0_si1201 quick_test/data-fmllr-tri3/train/data/feats_fmllr_train.6.ark:13552563
fklc1_si1678 quick_test/data-fmllr-tri3/train/data/feats_fmllr_train.2.ark:7782569
mwdk0_si806 quick_test/data-fmllr-tri3/train/data/feats_fmllr_train.10.ark:14967358
fjrp1_sx442 quick_test/data-fmllr-tri3/train/data/feats_fmllr_train.2.ark:3152899
fmmh0_si1537 quick_test/data-fmllr-tri3/train/data/feats_fmllr_train.2.ark:17535969
mbml0_sx89 quick_test/data-fmllr-tri3/train/data/feats_fmllr_train.4.ark:6638774
mdhl0_sx359 quick_test/data-fmllr-tri3/train/data/feats_fmllr_train.5.ark:1047623
mhbs0_sx405 quick_test/data-fmllr-tri3/train/data/feats_fmllr_train.6.ark:3837325
mtqc0_sx91 quick_test/data-fmllr-tri3/train/data/feats_fmllr_train.10.ark:10417948
mjmm0_sx265 quick_test/data-fmllr-tri3/train/data/feats_fmllr_train.6.ark:15956216
mprd0_sx441 quick_test/data-fmllr-tri3/train/data/feats_fmllr_train.8.ark:9730504
fjdm2_si1582 quick_test/data-fmllr-tri3/train/data/feats_fmllr_train.2.ark:13
fajw0_sx93 quick_test/data-fmllr-tri3/train/data/feats_fmllr_train.1.ark:764097
mjpm1_sx401 quick_test/data-fmllr-tri3/train/data/feats_fmllr_train.6.ark:17117561
mcre0_sx41 quick_test/data-fmllr-tri3/train/data/feats_fmllr_train.4.ark:12777284
mmws1_sx27 quick_test/data-fmllr-tri3/train/data/feats_fmllr_train.8.ark:4469231
mhit0_sx263 quick_test/data-fmllr-tri3/train/data/feats_fmllr_train.6.ark:4126608
mrds0_si1797 quick_test/data-fmllr-tri3/train/data/feats_fmllr_train.8.ark:14817409
mdem0_si1868 quick_test/data-fmllr-tri3/train/data/feats_fmllr_train.5.ark:352071
mcdr0_si524 quick_test/data-fmllr-tri3/train/data/feats_fmllr_train.4.ark:9831310
mjhi0_sx428 quick_test/data-fmllr-tri3/train/data/feats_fmllr_train.6.ark:12232657
mree0_sx204 quick_test/data-fmllr-tri3/train/data/feats_fmllr_train.8.ark:15363948
mmxs0_si876 quick_test/data-fmllr-tri3/train/data/feats_fmllr_train.8.ark:4715153
mmea0_si1388 quick_test/data-fmllr-tri3/train/data/feats_fmllr_train.7.ark:17323963
fjlg0_sx89 quick_test/data-fmllr-tri3/train/data/feats_fmllr_train.2.ark:1950194
fljd0_sx76 quick_test/data-fmllr-tri3/train/data/feats_fmllr_train.2.ark:11535247
mjjm0_si827 quick_test/data-fmllr-tri3/train/data/feats_fmllr_train.6.ark:13298001
mejl0_sx242 quick_test/data-fmllr-tri3/train/data/feats_fmllr_train.5.ark:12416506
mgrp0_sx417 quick_test/data-fmllr-tri3/train/data/feats_fmllr_train.6.ark:2202223
mkln0_si2228 quick_test/data-fmllr-tri3/train/data/feats_fmllr_train.7.ark:7546882
mmaa0_si2105 quick_test/data-fmllr-tri3/train/data/feats_fmllr_train.7.ark:12662826
fspm0_sx71 quick_test/data-fmllr-tri3/train/data/feats_fmllr_train.3.ark:13084586
mwsh0_sx76 quick_test/data-fmllr-tri3/train/data/feats_fmllr_train.10.ark:17537273
fpad0_sx356 quick_test/data-fmllr-tri3/train/data/feats_fmllr_train.3.ark:1886456
mrlr0_sx296 quick_test/data-fmllr-tri3/train/data/feats_fmllr_train.9.ark:5072857
fsls0_sx246 quick_test/data-fmllr-tri3/train/data/feats_fmllr_train.3.ark:11347825
fpab1_sx391 quick_test/data-fmllr-tri3/train/data/feats_fmllr_train.3.ark:1150875
mrew1_si1500 quick_test/data-fmllr-tri3/train/data/feats_fmllr_train.8.ark:16352169
fvfb0_sx312 quick_test/data-fmllr-tri3/train/data/feats_fmllr_train.3.ark:15971069
mdlm0_sx334 quick_test/data-fmllr-tri3/train/data/feats_fmllr_train.5.ark:4542217
mjlb0_sx176 quick_test/data-fmllr-tri3/train/data/feats_fmllr_train.6.ark:14090302
mkls1_sx15 quick_test/data-fmllr-tri3/train/data/feats_fmllr_train.7.ark:8822175
fmjf0_sx84 quick_test/data-fmllr-tri3/train/data/feats_fmllr_train.2.ark:16265691
mrcw0_sx291 quick_test/data-fmllr-tri3/train/data/feats_fmllr_train.8.ark:13972891
fsbk0_sx439 quick_test/data-fmllr-tri3/train/data/feats_fmllr_train.3.ark:6640127
mjfh0_si477 quick_test/data-fmllr-tri3/train/data/feats_fmllr_train.6.ark:11298996
fvfb0_sx42 quick_test/data-fmllr-tri3/train/data/feats_fmllr_train.3.ark:16067762
mjeb1_si837 quick_test/data-fmllr-tri3/train/data/feats_fmllr_train.6.ark:10548162
mrjm1_si1928 quick_test/data-fmllr-tri3/train/data/feats_fmllr_train.9.ark:2162245
mgar0_sx132 quick_test/data-fmllr-tri3/train/data/feats_fmllr_train.6.ark:133696
mtjg0_si890 quick_test/data-fmllr-tri3/train/data/feats_fmllr_train.10.ark:4141118
fsbk0_sx79 quick_test/data-fmllr-tri3/train/data/feats_fmllr_train.3.ark:6700153
mbth0_si757 quick_test/data-fmllr-tri3/train/data/feats_fmllr_train.4.ark:7422010
mtjm0_sx146 quick_test/data-fmllr-tri3/train/data/feats_fmllr_train.10.ark:4647602
fsag0_sx63 quick_test/data-fmllr-tri3/train/data/feats_fmllr_train.3.ark:5485421
mrgm0_sx82 quick_test/data-fmllr-tri3/train/data/feats_fmllr_train.8.ark:17914130
mejs0_sx340 quick_test/data-fmllr-tri3/train/data/feats_fmllr_train.5.ark:12855630
fmpg0_sx342 quick_test/data-fmllr-tri3/train/data/feats_fmllr_train.2.ark:18230720
fgdp0_si2248 quick_test/data-fmllr-tri3/train/data/feats_fmllr_train.1.ark:16642439
mhmr0_si489 quick_test/data-fmllr-tri3/train/data/feats_fmllr_train.6.ark:5070566
mrbc0_sx59 quick_test/data-fmllr-tri3/train/data/feats_fmllr_train.8.ark:13195684
mmar0_sx166 quick_test/data-fmllr-tri3/train/data/feats_fmllr_train.7.ark:14354149
mrlj0_sx430 quick_test/data-fmllr-tri3/train/data/feats_fmllr_train.9.ark:3989966
fnkl0_sx82 quick_test/data-fmllr-tri3/train/data/feats_fmllr_train.3.ark:328522
mrdd0_sx240 quick_test/data-fmllr-tri3/train/data/feats_fmllr_train.8.ark:14226816
fnkl0_si892 quick_test/data-fmllr-tri3/train/data/feats_fmllr_train.3.ark:81348
fsjg0_sx220 quick_test/data-fmllr-tri3/train/data/feats_fmllr_train.3.ark:8545798
mrhl0_si1515 quick_test/data-fmllr-tri3/train/data/feats_fmllr_train.9.ark:433028
mkaj0_sx64 quick_test/data-fmllr-tri3/train/data/feats_fmllr_train.7.ark:5106485
mkag0_sx79 quick_test/data-fmllr-tri3/train/data/feats_fmllr_train.7.ark:4375491
fmkf0_sx366 quick_test/data-fmllr-tri3/train/data/feats_fmllr_train.2.ark:17384530
flod0_si1917 quick_test/data-fmllr-tri3/train/data/feats_fmllr_train.2.ark:13643108
