mrem0_si1591 quick_test/fbank/raw_fbank_train.4.ark:1859037
fclt0_si808 quick_test/fbank/raw_fbank_train.1.ark:1920912
mrbc0_si599 quick_test/fbank/raw_fbank_train.4.ark:1079902
mrjh0_sx169 quick_test/fbank/raw_fbank_train.4.ark:2736135
mjai0_sx164 quick_test/fbank/raw_fbank_train.3.ark:1917181
mkah0_sx178 quick_test/fbank/raw_fbank_train.3.ark:5799319
mtjs0_sx112 quick_test/fbank/raw_fbank_train.4.ark:8333916
mrlj1_sx231 quick_test/fbank/raw_fbank_train.4.ark:3461663
msat1_sx263 quick_test/fbank/raw_fbank_train.4.ark:5546754
mgaw0_sx85 quick_test/fbank/raw_fbank_train.3.ark:184350
msem1_si1440 quick_test/fbank/raw_fbank_train.4.ark:5882843
mlel0_sx256 quick_test/fbank/raw_fbank_train.3.ark:7388154
mjlg1_si2272 quick_test/fbank/raw_fbank_train.3.ark:3700961
mdss1_sx427 quick_test/fbank/raw_fbank_train.2.ark:9145604
mnet0_sx366 quick_test/fbank/raw_fbank_train.3.ark:10593587
mmjb1_sx328 quick_test/fbank/raw_fbank_train.3.ark:9585658
mpgr1_si1269 quick_test/fbank/raw_fbank_train.3.ark:11190114
mjdm0_sx170 quick_test/fbank/raw_fbank_train.3.ark:2506973
msas0_si1376 quick_test/fbank/raw_fbank_train.4.ark:5304970
mcpm0_si1824 quick_test/fbank/raw_fbank_train.2.ark:5432795
mjlg1_sx292 quick_test/fbank/raw_fbank_train.3.ark:3744932
marw0_si1276 quick_test/fbank/raw_fbank_train.2.ark:3072083
megj0_sx3 quick_test/fbank/raw_fbank_train.2.ark:9904609
mreh1_sx249 quick_test/fbank/raw_fbank_train.4.ark:1808265
mrlj1_sx411 quick_test/fbank/raw_fbank_train.4.ark:3480329
mdma0_si1430 quick_test/fbank/raw_fbank_train.2.ark:8202533
fdaw0_si1271 quick_test/fbank/raw_fbank_train.1.ark:2502036
mjda0_sx131 quick_test/fbank/raw_fbank_train.3.ark:2096233
mtbc0_si1803 quick_test/fbank/raw_fbank_train.4.ark:7571675
mbef0_si1281 quick_test/fbank/raw_fbank_train.2.ark:3458623
mses0_sx239 quick_test/fbank/raw_fbank_train.4.ark:6058322
mfxs0_sx54 quick_test/fbank/raw_fbank_train.2.ark:10856644
mgar0_sx42 quick_test/fbank/raw_fbank_train.3.ark:89405
mrjh0_si1519 quick_test/fbank/raw_fbank_train.4.ark:2688756
fsjw0_si1333 quick_test/fbank/raw_fbank_train.2.ark:150289
mbma1_sx54 quick_test/fbank/raw_fbank_train.2.ark:3921754
fssb0_sx452 quick_test/fbank/raw_fbank_train.2.ark:1233900
fjxp0_sx222 quick_test/fbank/raw_fbank_train.1.ark:6128432
msdh0_sx260 quick_test/fbank/raw_fbank_train.4.ark:5710525
fcdr1_si556 quick_test/fbank/raw_fbank_train.1.ark:1475627
mmdb0_sx357 quick_test/fbank/raw_fbank_train.3.ark:8665368
fmbg0_si2264 quick_test/fbank/raw_fbank_train.1.ark:8649479
feme0_sx245 quick_test/fbank/raw_fbank_train.1.ark:3909579
mrdm0_sx245 quick_test/fbank/raw_fbank_train.4.ark:1510909
mejl0_si1592 quick_test/fbank/raw_fbank_train.2.ark:9941108
fcjf0_si648 quick_test/fbank/raw_fbank_train.1.ark:1668317
mgjc0_sx75 quick_test/fbank/raw_fbank_train.3.ark:375521
fjlr0_si601 quick_test/fbank/raw_fbank_train.1.ark:5376511
fsls0_sx202 quick_test/fbank/raw_fbank_train.2.ark:595883
mfer0_sx142 quick_test/fbank/raw_fbank_train.2.ark:10425291
mrav0_sx378 quick_test/fbank/raw_fbank_train.4.ark:1047601
mdlh0_sx340 quick_test/fbank/raw_fbank_train.2.ark:7861125
mmdm0_sx51 quick_test/fbank/raw_fbank_train.3.ark:8889683
mjrh1_sx424 quick_test/fbank/raw_fbank_train.3.ark:4804610
mrew1_si1500 quick_test/fbank/raw_fbank_train.4.ark:1957941
fspm0_si1871 quick_test/fbank/raw_fbank_train.2.ark:972684
fsmm0_si1314 quick_test/fbank/raw_fbank_train.2.ark:744920
mcef0_si1135 quick_test/fbank/raw_fbank_train.2.ark:4912995
mewm0_sx88 quick_test/fbank/raw_fbank_train.2.ark:10383237
mfrm0_sx75 quick_test/fbank/raw_fbank_train.2.ark:10669713
mbwp0_sx79 quick_test/fbank/raw_fbank_train.2.ark:4381878
mjlg1_sx202 quick_test/fbank/raw_fbank_train.3.ark:3728907
flhd0_sx444 quick_test/fbank/raw_fbank_train.1.ark:7584132
mrmg0_si2340 quick_test/fbank/raw_fbank_train.4.ark:3811218
maeb0_si990 quick_test/fbank/raw_fbank_train.2.ark:2334347
mesg0_sx342 quick_test/fbank/raw_fbank_train.2.ark:10186684
feac0_si1245 quick_test/fbank/raw_fbank_train.1.ark:3429986
fgmb0_sx65 quick_test/fbank/raw_fbank_train.1.ark:4487523
mbbr0_si1055 quick_test/fbank/raw_fbank_train.2.ark:3272973
mmrp0_sx144 quick_test/fbank/raw_fbank_train.3.ark:9843867
mpar0_si946 quick_test/fbank/raw_fbank_train.3.ark:10756017
mrsp0_si1429 quick_test/fbank/raw_fbank_train.4.ark:4515449
fsdj0_si1115 quick_test/fbank/raw_fbank_train.1.ark:11519145
flac0_sx181 quick_test/fbank/raw_fbank_train.1.ark:7149931
fsls0_sx66 quick_test/fbank/raw_fbank_train.2.ark:628141
mjxa0_sx427 quick_test/fbank/raw_fbank_train.3.ark:5535104
fbcg1_si982 quick_test/fbank/raw_fbank_train.1.ark:648827
mbwp0_si1969 quick_test/fbank/raw_fbank_train.2.ark:4299001
mmvp0_sx294 quick_test/fbank/raw_fbank_train.3.ark:10097863
mdjm0_si825 quick_test/fbank/raw_fbank_train.2.ark:7219115
mjjm0_sx17 quick_test/fbank/raw_fbank_train.3.ark:3441350
flmk0_sx315 quick_test/fbank/raw_fbank_train.1.ark:8295275
falk0_si1086 quick_test/fbank/raw_fbank_train.1.ark:209261
mwre0_sx337 quick_test/fbank/raw_fbank_train.4.ark:11216473
fcag0_si1641 quick_test/fbank/raw_fbank_train.1.ark:1266543
mhxl0_sx422 quick_test/fbank/raw_fbank_train.3.ark:1546903
mpmb0_si871 quick_test/fbank/raw_fbank_train.3.ark:11337607
mkls1_sx375 quick_test/fbank/raw_fbank_train.3.ark:6927486
mjpm0_sx378 quick_test/fbank/raw_fbank_train.3.ark:4319756
mdlc1_sx445 quick_test/fbank/raw_fbank_train.2.ark:7687909
fljg0_si981 quick_test/fbank/raw_fbank_train.1.ark:7838516
mafm0_si2199 quick_test/fbank/raw_fbank_train.2.ark:2505605
mtmt0_sx398 quick_test/fbank/raw_fbank_train.4.ark:9192728
fjdm2_sx142 quick_test/fbank/raw_fbank_train.1.ark:4876136
fjen0_si1677 quick_test/fbank/raw_fbank_train.1.ark:4958175
mrfk0_si2336 quick_test/fbank/raw_fbank_train.4.ark:2074954
mtjm0_si655 quick_test/fbank/raw_fbank_train.4.ark:8212778
mpeb0_sx330 quick_test/fbank/raw_fbank_train.3.ark:10869741
fcag0_sx423 quick_test/fbank/raw_fbank_train.1.ark:1321949
mjdc0_sx351 quick_test/fbank/raw_fbank_train.3.ark:2215524
mdwm0_sx286 quick_test/fbank/raw_fbank_train.2.ark:9519991
mrlr0_si1826 quick_test/fbank/raw_fbank_train.4.ark:3618054
fdkn0_sx361 quick_test/fbank/raw_fbank_train.1.ark:2857400
mmcc0_sx438 quick_test/fbank/raw_fbank_train.3.ark:8582536
mtpf0_sx245 quick_test/fbank/raw_fbank_train.4.ark:9253775
fkfb0_sx348 quick_test/fbank/raw_fbank_train.1.ark:6557806
mprt0_si580 quick_test/fbank/raw_fbank_train.4.ark:420045
mjxl0_sx452 quick_test/fbank/raw_fbank_train.3.ark:5632049
mjee0_sx427 quick_test/fbank/raw_fbank_train.3.ark:2857587
mcdd0_si1513 quick_test/fbank/raw_fbank_train.2.ark:4713665
mbma0_sx142 quick_test/fbank/raw_fbank_train.2.ark:3769078
makb0_sx26 quick_test/fbank/raw_fbank_train.2.ark:2778908
mjdg0_si1672 quick_test/fbank/raw_fbank_train.3.ark:2389601
mntw0_sx168 quick_test/fbank/raw_fbank_train.3.ark:10676625
fgcs0_sx136 quick_test/fbank/raw_fbank_train.1.ark:4208462
mkls0_sx177 quick_test/fbank/raw_fbank_train.3.ark:6784850
fjdm2_si1582 quick_test/fbank/raw_fbank_train.1.ark:4839235
mjjb0_sx59 quick_test/fbank/raw_fbank_train.3.ark:3263639
mcdr0_sx74 quick_test/fbank/raw_fbank_train.2.ark:4902161
mmam0_sx337 quick_test/fbank/raw_fbank_train.3.ark:8243188
mjda0_sx221 quick_test/fbank/raw_fbank_train.3.ark:2103746
fsma0_si1621 quick_test/fbank/raw_fbank_train.2.ark:639335
mdcm0_sx40 quick_test/fbank/raw_fbank_train.2.ark:6568991
mwem0_si1950 quick_test/fbank/raw_fbank_train.4.ark:10978243
fgmb0_sx155 quick_test/fbank/raw_fbank_train.1.ark:4428512
mstf0_sx226 quick_test/fbank/raw_fbank_train.4.ark:6984424
mjxa0_sx247 quick_test/fbank/raw_fbank_train.3.ark:5509318
mbef0_sx291 quick_test/fbank/raw_fbank_train.2.ark:3522581
fexm0_sx111 quick_test/fbank/raw_fbank_train.1.ark:4104076
mejs0_sx250 quick_test/fbank/raw_fbank_train.2.ark:10083066
fskl0_si2159 quick_test/fbank/raw_fbank_train.2.ark:359093
mjrk0_si1662 quick_test/fbank/raw_fbank_train.3.ark:4826276
mkah0_sx88 quick_test/fbank/raw_fbank_train.3.ark:5851650
fdmy0_sx207 quick_test/fbank/raw_fbank_train.1.ark:3068337
mcef0_sx325 quick_test/fbank/raw_fbank_train.2.ark:4974081
mrpc1_sx42 quick_test/fbank/raw_fbank_train.4.ark:4269685
fcrz0_si2053 quick_test/fbank/raw_fbank_train.1.ark:2217715
fksr0_si487 quick_test/fbank/raw_fbank_train.1.ark:7041473
mjfr0_si975 quick_test/fbank/raw_fbank_train.3.ark:2988025
fdkn0_sx181 quick_test/fbank/raw_fbank_train.1.ark:2828094
mrjm0_si1858 quick_test/fbank/raw_fbank_train.4.ark:2827928
mcre0_sx131 quick_test/fbank/raw_fbank_train.2.ark:5549687
msjk0_sx336 quick_test/fbank/raw_fbank_train.4.ark:6397470
mjwg0_sx175 quick_test/fbank/raw_fbank_train.3.ark:5184850
mesg0_si702 quick_test/fbank/raw_fbank_train.2.ark:10145225
fjen0_sx237 quick_test/fbank/raw_fbank_train.1.ark:5000475
mesj0_sx277 quick_test/fbank/raw_fbank_train.2.ark:10273516
fklc0_si1615 quick_test/fbank/raw_fbank_train.1.ark:6715130
mtcs0_si712 quick_test/fbank/raw_fbank_train.4.ark:7676613
fdxw0_sx71 quick_test/fbank/raw_fbank_train.1.ark:3421512
fklc0_si985 quick_test/fbank/raw_fbank_train.1.ark:6731277
fcdr1_sx106 quick_test/fbank/raw_fbank_train.1.ark:1496220
feac0_si615 quick_test/fbank/raw_fbank_train.1.ark:3453053
majp0_sx444 quick_test/fbank/raw_fbank_train.2.ark:2664556
freh0_si685 quick_test/fbank/raw_fbank_train.1.ark:10632786
mrem0_si511 quick_test/fbank/raw_fbank_train.4.ark:1870950
fjkl0_si932 quick_test/fbank/raw_fbank_train.1.ark:5171300
mcdr0_si1784 quick_test/fbank/raw_fbank_train.2.ark:4817964
mmwb0_sx179 quick_test/fbank/raw_fbank_train.3.ark:10192103
mewm0_sx448 quick_test/fbank/raw_fbank_train.2.ark:10374765
mdma0_si2060 quick_test/fbank/raw_fbank_train.2.ark:8216367
mkls1_si915 quick_test/fbank/raw_fbank_train.3.ark:6868242
fjsp0_sx354 quick_test/fbank/raw_fbank_train.1.ark:5839591
mtrr0_sx198 quick_test/fbank/raw_fbank_train.4.ark:9871356
meal0_sx197 quick_test/fbank/raw_fbank_train.2.ark:9595784
mgjc0_sx255 quick_test/fbank/raw_fbank_train.3.ark:330383
fear0_sx442 quick_test/fbank/raw_fbank_train.1.ark:3608410
fsms1_sx244 quick_test/fbank/raw_fbank_train.2.ark:899758
mkrg0_sx51 quick_test/fbank/raw_fbank_train.3.ark:7127776
mtqc0_si1441 quick_test/fbank/raw_fbank_train.4.ark:9590262
fltm0_sx440 quick_test/fbank/raw_fbank_train.1.ark:8498200
mkes0_si623 quick_test/fbank/raw_fbank_train.3.ark:6386595
mrdd0_sx277 quick_test/fbank/raw_fbank_train.4.ark:1422717
flmc0_si1372 quick_test/fbank/raw_fbank_train.1.ark:8132803
fcyl0_sx349 quick_test/fbank/raw_fbank_train.1.ark:2357632
freh0_sx55 quick_test/fbank/raw_fbank_train.1.ark:10678870
mrlj1_sx321 quick_test/fbank/raw_fbank_train.4.ark:3466536
mfer0_si862 quick_test/fbank/raw_fbank_train.2.ark:10409418
mapv0_si663 quick_test/fbank/raw_fbank_train.2.ark:2915700
mrmh0_sx211 quick_test/fbank/raw_fbank_train.4.ark:3940470
fsah0_si1874 quick_test/fbank/raw_fbank_train.1.ark:11010573
ftbw0_si1975 quick_test/fbank/raw_fbank_train.2.ark:1447209
mbml0_sx449 quick_test/fbank/raw_fbank_train.2.ark:4003587
mkxl0_sx285 quick_test/fbank/raw_fbank_train.3.ark:7211129
mhjb0_si1017 quick_test/fbank/raw_fbank_train.3.ark:1105444
msat0_sx176 quick_test/fbank/raw_fbank_train.4.ark:5446495
mjde0_si490 quick_test/fbank/raw_fbank_train.3.ark:2279569
mpgr0_si2040 quick_test/fbank/raw_fbank_train.3.ark:11115323
maeb0_sx90 quick_test/fbank/raw_fbank_train.2.ark:2394111
mrtj0_si772 quick_test/fbank/raw_fbank_train.4.ark:4753366
meal0_sx107 quick_test/fbank/raw_fbank_train.2.ark:9587231
mrjm0_sx58 quick_test/fbank/raw_fbank_train.4.ark:2894092
freh0_sx145 quick_test/fbank/raw_fbank_train.1.ark:10643339
mrlk0_sx213 quick_test/fbank/raw_fbank_train.4.ark:3562688
mjee0_si1237 quick_test/fbank/raw_fbank_train.3.ark:2786308
fljg0_sx351 quick_test/fbank/raw_fbank_train.1.ark:7887895
mrcw0_sx201 quick_test/fbank/raw_fbank_train.4.ark:1327378
fcmm0_sx273 quick_test/fbank/raw_fbank_train.1.ark:2153789
mlsh0_si2047 quick_test/fbank/raw_fbank_train.3.ark:7777715
mwrp0_si1443 quick_test/fbank/raw_fbank_train.4.ark:11256372
mrgs0_si726 quick_test/fbank/raw_fbank_train.4.ark:2396469
mctm0_si1980 quick_test/fbank/raw_fbank_train.2.ark:5826294
mjai0_si710 quick_test/fbank/raw_fbank_train.3.ark:1898868
mprk0_sx377 quick_test/fbank/raw_fbank_train.4.ark:382745
maeo0_si1956 quick_test/fbank/raw_fbank_train.2.ark:2430413
mmdm1_sx333 quick_test/fbank/raw_fbank_train.3.ark:8959483
fscn0_sx176 quick_test/fbank/raw_fbank_train.1.ark:11355154
mmam0_sx157 quick_test/fbank/raw_fbank_train.3.ark:8221002
mjxl0_si1172 quick_test/fbank/raw_fbank_train.3.ark:5556730
fbmh0_sx146 quick_test/fbank/raw_fbank_train.1.ark:1094240
fhlm0_si930 quick_test/fbank/raw_fbank_train.1.ark:4632890
fdmy0_sx27 quick_test/fbank/raw_fbank_train.1.ark:3080089
mgsl0_sx354 quick_test/fbank/raw_fbank_train.3.ark:767593
mmea0_sx128 quick_test/fbank/raw_fbank_train.3.ark:9116667
mrjm0_sx238 quick_test/fbank/raw_fbank_train.4.ark:2855794
fgmb0_sx245 quick_test/fbank/raw_fbank_train.1.ark:4444585
fmem0_sx333 quick_test/fbank/raw_fbank_train.1.ark:8792674
fmkc0_si1072 quick_test/fbank/raw_fbank_train.1.ark:9157328
msmc0_sx197 quick_test/fbank/raw_fbank_train.4.ark:6503253
mrpc1_sx312 quick_test/fbank/raw_fbank_train.4.ark:4243660
mjdc0_sx441 quick_test/fbank/raw_fbank_train.3.ark:2228077
mdwd0_sx90 quick_test/fbank/raw_fbank_train.2.ark:9334087
mpmb0_sx241 quick_test/fbank/raw_fbank_train.3.ark:11379833
fcjf0_si1657 quick_test/fbank/raw_fbank_train.1.ark:1656684
mctm0_sx90 quick_test/fbank/raw_fbank_train.2.ark:5898491
mabc0_sx331 quick_test/fbank/raw_fbank_train.2.ark:2073531
msrg0_si591 quick_test/fbank/raw_fbank_train.4.ark:6758750
maeo0_sx246 quick_test/fbank/raw_fbank_train.2.ark:2451639
mmar0_sx346 quick_test/fbank/raw_fbank_train.3.ark:8354733
fjrp1_si802 quick_test/fbank/raw_fbank_train.1.ark:5584721
fear0_sx262 quick_test/fbank/raw_fbank_train.1.ark:3577664
mmaa0_sx215 quick_test/fbank/raw_fbank_train.3.ark:7924039
fsdc0_si1942 quick_test/fbank/raw_fbank_train.1.ark:11444833
mgsl0_sx174 quick_test/fbank/raw_fbank_train.3.ark:740407
mtpf0_sx335 quick_test/fbank/raw_fbank_train.4.ark:9267608
mkes0_sx443 quick_test/fbank/raw_fbank_train.3.ark:6443727
feeh0_si471 quick_test/fbank/raw_fbank_train.1.ark:3779728
mkam0_sx416 quick_test/fbank/raw_fbank_train.3.ark:6033909
mdss0_sx441 quick_test/fbank/raw_fbank_train.2.ark:9056979
mmlm0_sx357 quick_test/fbank/raw_fbank_train.3.ark:9681723
mmdm1_sx423 quick_test/fbank/raw_fbank_train.3.ark:8976036
mfxv0_sx375 quick_test/fbank/raw_fbank_train.2.ark:10952110
fjxm0_si581 quick_test/fbank/raw_fbank_train.1.ark:5990461
maeb0_sx360 quick_test/fbank/raw_fbank_train.2.ark:2369566
mrbc0_sx239 quick_test/fbank/raw_fbank_train.4.ark:1106008
fdas1_sx381 quick_test/fbank/raw_fbank_train.1.ark:2492122
mrmh0_sx31 quick_test/fbank/raw_fbank_train.4.ark:3962455
mtkp0_sx33 quick_test/fbank/raw_fbank_train.4.ark:8683729
mwre0_sx427 quick_test/fbank/raw_fbank_train.4.ark:11229826
mdjm0_sx105 quick_test/fbank/raw_fbank_train.2.ark:7231668
mrcg0_sx348 quick_test/fbank/raw_fbank_train.4.ark:1226066
mrfk0_sx176 quick_test/fbank/raw_fbank_train.4.ark:2083707
mdas0_sx186 quick_test/fbank/raw_fbank_train.2.ark:6150435
fsgf0_sx117 quick_test/fbank/raw_fbank_train.1.ark:11655310
mkxl0_si1815 quick_test/fbank/raw_fbank_train.3.ark:7147724
mcal0_sx58 quick_test/fbank/raw_fbank_train.2.ark:4604566
fmah1_sx159 quick_test/fbank/raw_fbank_train.1.ark:8561686
mrlr0_si1196 quick_test/fbank/raw_fbank_train.4.ark:3600260
mhrm0_sx328 quick_test/fbank/raw_fbank_train.3.ark:1430646
mdlc0_si2025 quick_test/fbank/raw_fbank_train.2.ark:7523638
fpaf0_sx334 quick_test/fbank/raw_fbank_train.1.ark:10160162
fjdm2_sx412 quick_test/fbank/raw_fbank_train.1.ark:4920795
mmdm1_sx243 quick_test/fbank/raw_fbank_train.3.ark:8947210
fpaf0_si1684 quick_test/fbank/raw_fbank_train.1.ark:10115189
mdns0_si1011 quick_test/fbank/raw_fbank_train.2.ark:8401630
mjrk0_sx250 quick_test/fbank/raw_fbank_train.3.ark:4873089
mjdc0_si531 quick_test/fbank/raw_fbank_train.3.ark:2171065
fleh0_si1051 quick_test/fbank/raw_fbank_train.1.ark:7321801
mrlk0_sx123 quick_test/fbank/raw_fbank_train.4.ark:3549415
fklh0_si1257 quick_test/fbank/raw_fbank_train.1.ark:6919781
mdns0_si2271 quick_test/fbank/raw_fbank_train.2.ark:8422344
mmlm0_si2150 quick_test/fbank/raw_fbank_train.3.ark:9634231
mpsw0_si2327 quick_test/fbank/raw_fbank_train.4.ark:505351
mtrr0_si2178 quick_test/fbank/raw_fbank_train.4.ark:9820585
mgsh0_si1176 quick_test/fbank/raw_fbank_train.3.ark:593125
mrws0_sx202 quick_test/fbank/raw_fbank_train.4.ark:5083347
mfer0_sx232 quick_test/fbank/raw_fbank_train.2.ark:10437004
mmab1_sx54 quick_test/fbank/raw_fbank_train.3.ark:8061682
meal0_sx347 quick_test/fbank/raw_fbank_train.2.ark:9614210
msrg0_sx141 quick_test/fbank/raw_fbank_train.4.ark:6774983
mjdm0_sx350 quick_test/fbank/raw_fbank_train.3.ark:2539959
fexm0_si482 quick_test/fbank/raw_fbank_train.1.ark:4086763
mcre0_sx41 quick_test/fbank/raw_fbank_train.2.ark:5595377
fcmm0_si453 quick_test/fbank/raw_fbank_train.1.ark:2135483
fear0_si1252 quick_test/fbank/raw_fbank_train.1.ark:3532851
mjae0_sx174 quick_test/fbank/raw_fbank_train.3.ark:1797037
mhxl0_si612 quick_test/fbank/raw_fbank_train.3.ark:1495371
fjrp1_si2062 quick_test/fbank/raw_fbank_train.1.ark:5576648
ftmg0_sx362 quick_test/fbank/raw_fbank_train.2.ark:1699310
mmxs0_si2136 quick_test/fbank/raw_fbank_train.3.ark:10444517
mtjg0_sx260 quick_test/fbank/raw_fbank_train.4.ark:8131739
mbcg0_si957 quick_test/fbank/raw_fbank_train.2.ark:3384145
mjae0_sx354 quick_test/fbank/raw_fbank_train.3.ark:1824223
fkkh0_si1920 quick_test/fbank/raw_fbank_train.1.ark:6627299
mrds0_sx267 quick_test/fbank/raw_fbank_train.4.ark:1600014
mrwa0_si1603 quick_test/fbank/raw_fbank_train.4.ark:4941029
feac0_si1875 quick_test/fbank/raw_fbank_train.1.ark:3439740
mtjm0_sx56 quick_test/fbank/raw_fbank_train.4.ark:8269582
mchl0_sx267 quick_test/fbank/raw_fbank_train.2.ark:5184579
mwrp0_sx93 quick_test/fbank/raw_fbank_train.4.ark:11343842
mwem0_sx420 quick_test/fbank/raw_fbank_train.4.ark:11025415
mcew0_sx362 quick_test/fbank/raw_fbank_train.2.ark:5082666
mreh1_sx159 quick_test/fbank/raw_fbank_train.4.ark:1793792
msah1_si2309 quick_test/fbank/raw_fbank_train.4.ark:5240052
fjdm2_si2212 quick_test/fbank/raw_fbank_train.1.ark:4864063
mfrm0_sx435 quick_test/fbank/raw_fbank_train.2.ark:10654961
fsgf0_sx387 quick_test/fbank/raw_fbank_train.1.ark:11692881
mwac0_si971 quick_test/fbank/raw_fbank_train.4.ark:10513034
mgar0_sx222 quick_test/fbank/raw_fbank_train.3.ark:46667
mkls1_si1545 quick_test/fbank/raw_fbank_train.3.ark:6845655
mljh0_si694 quick_test/fbank/raw_fbank_train.3.ark:7581698
mmeb0_sx367 quick_test/fbank/raw_fbank_train.3.ark:9226598
frjb0_si1427 quick_test/fbank/raw_fbank_train.1.ark:10690344
mjrp0_sx45 quick_test/fbank/raw_fbank_train.3.ark:4996452
mhrm0_si958 quick_test/fbank/raw_fbank_train.3.ark:1396947
ftbw0_si715 quick_test/fbank/raw_fbank_train.2.ark:1458042
mtrr0_si1548 quick_test/fbank/raw_fbank_train.4.ark:9810871
mkdb0_sx422 quick_test/fbank/raw_fbank_train.3.ark:6129293
mdbp0_si1788 quick_test/fbank/raw_fbank_train.2.ark:6296857
fjsp0_si804 quick_test/fbank/raw_fbank_train.1.ark:5801932
mlbc0_sx429 quick_test/fbank/raw_fbank_train.3.ark:7305435
fjrp1_sx262 quick_test/fbank/raw_fbank_train.1.ark:5610187
msem1_sx90 quick_test/fbank/raw_fbank_train.4.ark:6000154
fljd0_sx166 quick_test/fbank/raw_fbank_train.1.ark:7754924
mtrt0_si1227 quick_test/fbank/raw_fbank_train.4.ark:9909656
mtwh1_si2142 quick_test/fbank/raw_fbank_train.4.ark:10017795
mjfr0_si1605 quick_test/fbank/raw_fbank_train.3.ark:2963798
mjwg0_sx85 quick_test/fbank/raw_fbank_train.3.ark:5235941
ftaj0_si474 quick_test/fbank/raw_fbank_train.2.ark:1271559
fsjw0_sx73 quick_test/fbank/raw_fbank_train.2.ark:242760
mrkm0_sx277 quick_test/fbank/raw_fbank_train.4.ark:3183949
msds0_si1707 quick_test/fbank/raw_fbank_train.4.ark:5786291
mtas0_sx35 quick_test/fbank/raw_fbank_train.4.ark:7334604
fpad0_sx446 quick_test/fbank/raw_fbank_train.1.ark:10070969
mcef0_sx235 quick_test/fbank/raw_fbank_train.2.ark:4963168
mfrm0_sx165 quick_test/fbank/raw_fbank_train.2.ark:10622382
mdwm0_sx106 quick_test/fbank/raw_fbank_train.2.ark:9500606
msds0_si2337 quick_test/fbank/raw_fbank_train.4.ark:5800285
mdem0_si800 quick_test/fbank/raw_fbank_train.2.ark:6907000
flja0_sx448 quick_test/fbank/raw_fbank_train.1.ark:7690838
fpjf0_sx146 quick_test/fbank/raw_fbank_train.1.ark:10338106
fapb0_sx433 quick_test/fbank/raw_fbank_train.1.ark:495268
mmds0_sx443 quick_test/fbank/raw_fbank_train.3.ark:9062901
mpmb0_si1501 quick_test/fbank/raw_fbank_train.3.ark:11286660
mrkm0_sx7 quick_test/fbank/raw_fbank_train.4.ark:3214373
mtlb0_sx234 quick_test/fbank/raw_fbank_train.4.ark:8750849
mrew1_sx420 quick_test/fbank/raw_fbank_train.4.ark:2023180
mpar0_si2206 quick_test/fbank/raw_fbank_train.3.ark:10740944
fbcg1_si1612 quick_test/fbank/raw_fbank_train.1.ark:633960
mjlb0_si2246 quick_test/fbank/raw_fbank_train.3.ark:3604382
mvjh0_sx206 quick_test/fbank/raw_fbank_train.4.ark:10258945
flmk0_sx135 quick_test/fbank/raw_fbank_train.1.ark:8271249
fdml0_sx339 quick_test/fbank/raw_fbank_train.1.ark:2952626
mrjb1_sx300 quick_test/fbank/raw_fbank_train.4.ark:2663449
fsag0_sx153 quick_test/fbank/raw_fbank_train.1.ark:10911254
mjeb1_sx387 quick_test/fbank/raw_fbank_train.3.ark:2771554
mmeb0_sx7 quick_test/fbank/raw_fbank_train.3.ark:9237309
fdaw0_sx326 quick_test/fbank/raw_fbank_train.1.ark:2572723
fexm0_sx366 quick_test/fbank/raw_fbank_train.1.ark:4146815
mjrh1_sx154 quick_test/fbank/raw_fbank_train.3.ark:4770031
mjls0_sx16 quick_test/fbank/raw_fbank_train.3.ark:3826891
mjde0_sx220 quick_test/fbank/raw_fbank_train.3.ark:2313875
mrsp0_sx79 quick_test/fbank/raw_fbank_train.4.ark:4609560
mses0_si1589 quick_test/fbank/raw_fbank_train.4.ark:6012468
faem0_sx312 quick_test/fbank/raw_fbank_train.1.ark:62819
mtkd0_sx287 quick_test/fbank/raw_fbank_train.4.ark:8571024
mrbc0_sx59 quick_test/fbank/raw_fbank_train.4.ark:1146306
mbma0_sx322 quick_test/fbank/raw_fbank_train.2.ark:3796224
mdem0_sx428 quick_test/fbank/raw_fbank_train.2.ark:6968132
fear0_sx82 quick_test/fbank/raw_fbank_train.1.ark:3621842
mcew0_si812 quick_test/fbank/raw_fbank_train.2.ark:5036687
mkag0_si2239 quick_test/fbank/raw_fbank_train.3.ark:5676229
fksr0_sx397 quick_test/fbank/raw_fbank_train.1.ark:7104477
fcrz0_si1913 quick_test/fbank/raw_fbank_train.1.ark:2201841
mejs0_sx160 quick_test/fbank/raw_fbank_train.2.ark:10067273
mmam0_si1597 quick_test/fbank/raw_fbank_train.3.ark:8188781
mbef0_sx201 quick_test/fbank/raw_fbank_train.2.ark:3506116
fpab1_sx211 quick_test/fbank/raw_fbank_train.1.ark:9830373
mdas0_sx276 quick_test/fbank/raw_fbank_train.2.ark:6166740
mmsm0_sx386 quick_test/fbank/raw_fbank_train.3.ark:10010583
fsjw0_sx163 quick_test/fbank/raw_fbank_train.2.ark:194309
mkag0_si1609 quick_test/fbank/raw_fbank_train.3.ark:5659915
mrcg0_sx258 quick_test/fbank/raw_fbank_train.4.ark:1211433
faem0_sx132 quick_test/fbank/raw_fbank_train.1.ark:39913
fbmj0_sx426 quick_test/fbank/raw_fbank_train.1.ark:1232523
mtbc0_sx183 quick_test/fbank/raw_fbank_train.4.ark:7603181
fleh0_sx241 quick_test/fbank/raw_fbank_train.1.ark:7372095
ftlg0_si840 quick_test/fbank/raw_fbank_train.2.ark:1574466
mdwh0_si665 quick_test/fbank/raw_fbank_train.2.ark:9372468
fdtd0_si931 quick_test/fbank/raw_fbank_train.1.ark:3261722
mpgr0_sx240 quick_test/fbank/raw_fbank_train.3.ark:11139022
mfer0_sx52 quick_test/fbank/raw_fbank_train.2.ark:10469942
fjrb0_si672 quick_test/fbank/raw_fbank_train.1.ark:5476736
flod0_sx171 quick_test/fbank/raw_fbank_train.1.ark:8376507
mmam0_sx67 quick_test/fbank/raw_fbank_train.3.ark:8261853
mrld0_si2224 quick_test/fbank/raw_fbank_train.4.ark:3252633
mdsj0_sx112 quick_test/fbank/raw_fbank_train.2.ark:8934055
fsjs0_sx181 quick_test/fbank/raw_fbank_train.2.ark:82924
fjlg0_sx359 quick_test/fbank/raw_fbank_train.1.ark:5310185
mdhl0_sx449 quick_test/fbank/raw_fbank_train.2.ark:7072157
fsjs0_sx91 quick_test/fbank/raw_fbank_train.2.ark:138295
mmds0_sx173 quick_test/fbank/raw_fbank_train.3.ark:9031962
mjeb0_si1916 quick_test/fbank/raw_fbank_train.3.ark:2596212
mgag0_sx61 quick_test/fbank/raw_fbank_train.2.ark:11131719
mjpm1_si761 quick_test/fbank/raw_fbank_train.3.ark:4346177
mrab0_sx144 quick_test/fbank/raw_fbank_train.4.ark:600768
fmjf0_si624 quick_test/fbank/raw_fbank_train.1.ark:8947831
mrdd0_sx60 quick_test/fbank/raw_fbank_train.4.ark:1444982
msms0_sx443 quick_test/fbank/raw_fbank_train.4.ark:6714657
mklr0_sx249 quick_test/fbank/raw_fbank_train.3.ark:6694257
mcal0_si1768 quick_test/fbank/raw_fbank_train.2.ark:4540009
frjb0_si1470 quick_test/fbank/raw_fbank_train.1.ark:10701418
mdhs0_sx180 quick_test/fbank/raw_fbank_train.2.ark:7135763
mrdm0_sx65 quick_test/fbank/raw_fbank_train.4.ark:1547287
mtjs0_sx382 quick_test/fbank/raw_fbank_train.4.ark:8380727
mbgt0_sx441 quick_test/fbank/raw_fbank_train.2.ark:3623087
mmdm0_sx321 quick_test/fbank/raw_fbank_train.3.ark:8860778
fapb0_sx253 quick_test/fbank/raw_fbank_train.1.ark:467002
mrws0_sx292 quick_test/fbank/raw_fbank_train.4.ark:5098052
mpfu0_sx358 quick_test/fbank/raw_fbank_train.3.ark:10973286
mjkr0_sx121 quick_test/fbank/raw_fbank_train.3.ark:3529183
mdbp0_si528 quick_test/fbank/raw_fbank_train.2.ark:6310450
mjpg0_si1191 quick_test/fbank/raw_fbank_train.3.ark:4143660
mpgh0_sx294 quick_test/fbank/raw_fbank_train.3.ark:11081622
fskp0_si1098 quick_test/fbank/raw_fbank_train.2.ark:446364
fssb0_sx362 quick_test/fbank/raw_fbank_train.2.ark:1215667
mrtc0_sx198 quick_test/fbank/raw_fbank_train.4.ark:4690319
mdss0_si621 quick_test/fbank/raw_fbank_train.2.ark:9014327
mdlm0_sx334 quick_test/fbank/raw_fbank_train.2.ark:7955230
mhmg0_si1995 quick_test/fbank/raw_fbank_train.3.ark:1196064
fmkf0_sx6 quick_test/fbank/raw_fbank_train.1.ark:9321757
mbgt0_si711 quick_test/fbank/raw_fbank_train.2.ark:3565715
msmr0_sx55 quick_test/fbank/raw_fbank_train.4.ark:6626024
mtat0_si811 quick_test/fbank/raw_fbank_train.4.ark:7385138
mrds0_sx87 quick_test/fbank/raw_fbank_train.4.ark:1635112
mdlr1_si669 quick_test/fbank/raw_fbank_train.2.ark:8112581
mdlr0_sx423 quick_test/fbank/raw_fbank_train.2.ark:8062848
mreh1_sx69 quick_test/fbank/raw_fbank_train.4.ark:1844803
mzmb0_sx266 quick_test/fbank/raw_fbank_train.4.ark:11611937
mkag0_sx259 quick_test/fbank/raw_fbank_train.3.ark:5717448
fklh0_sx447 quick_test/fbank/raw_fbank_train.1.ark:6995180
mpfu0_si628 quick_test/fbank/raw_fbank_train.3.ark:10935707
msds0_si1077 quick_test/fbank/raw_fbank_train.4.ark:5763057
mdlc1_si2144 quick_test/fbank/raw_fbank_train.2.ark:7643857
fecd0_si788 quick_test/fbank/raw_fbank_train.1.ark:3667063
fceg0_sx168 quick_test/fbank/raw_fbank_train.1.ark:1590605
msrg0_si1851 quick_test/fbank/raw_fbank_train.4.ark:6752317
mrem0_si961 quick_test/fbank/raw_fbank_train.4.ark:1888743
mtju0_si2020 quick_test/fbank/raw_fbank_train.4.ark:8397241
mrvg0_sx240 quick_test/fbank/raw_fbank_train.4.ark:4893257
madd0_si538 quick_test/fbank/raw_fbank_train.2.ark:2232322
mhmr0_sx399 quick_test/fbank/raw_fbank_train.3.ark:1368406
fbjl0_sx382 quick_test/fbank/raw_fbank_train.1.ark:928160
fsak0_sx310 quick_test/fbank/raw_fbank_train.1.ark:11163130
fdmy0_sx117 quick_test/fbank/raw_fbank_train.1.ark:3053504
mgsh0_sx127 quick_test/fbank/raw_fbank_train.3.ark:641945
mrai0_sx252 quick_test/fbank/raw_fbank_train.4.ark:822571
mbwp0_si709 quick_test/fbank/raw_fbank_train.2.ark:4310114
mbsb0_sx93 quick_test/fbank/raw_fbank_train.2.ark:4178829
mljc0_sx415 quick_test/fbank/raw_fbank_train.3.ark:7518605
mmxs0_sx426 quick_test/fbank/raw_fbank_train.3.ark:10517075
mjjj0_sx173 quick_test/fbank/raw_fbank_train.3.ark:3320733
mrwa0_sx253 quick_test/fbank/raw_fbank_train.4.ark:4988282
mjlg1_sx112 quick_test/fbank/raw_fbank_train.3.ark:3717274
mjxa0_sx67 quick_test/fbank/raw_fbank_train.3.ark:5544176
madd0_sx178 quick_test/fbank/raw_fbank_train.2.ark:2243915
mcew0_sx452 quick_test/fbank/raw_fbank_train.2.ark:5101339
mclm0_sx16 quick_test/fbank/raw_fbank_train.2.ark:5382588
mwrp0_sx363 quick_test/fbank/raw_fbank_train.4.ark:11330370
mrso0_si1659 quick_test/fbank/raw_fbank_train.4.ark:4417737
mddc0_si1419 quick_test/fbank/raw_fbank_train.2.ark:6591578
ftmg0_sx272 quick_test/fbank/raw_fbank_train.2.ark:1688637
mgar0_sx312 quick_test/fbank/raw_fbank_train.3.ark:60460
fdtd0_sx391 quick_test/fbank/raw_fbank_train.1.ark:3333167
mrmh0_si1349 quick_test/fbank/raw_fbank_train.4.ark:3901410
mbth0_si2102 quick_test/fbank/raw_fbank_train.2.ark:4185983
mcef0_si1765 quick_test/fbank/raw_fbank_train.2.ark:4924789
fkfb0_si1608 quick_test/fbank/raw_fbank_train.1.ark:6491200
fjxp0_sx132 quick_test/fbank/raw_fbank_train.1.ark:6118439
fcyl0_si1297 quick_test/fbank/raw_fbank_train.1.ark:2295266
milb0_sx363 quick_test/fbank/raw_fbank_train.3.ark:1645365
mafm0_sx399 quick_test/fbank/raw_fbank_train.2.ark:2571682
msfv0_sx92 quick_test/fbank/raw_fbank_train.4.ark:6319030
mbcg0_sx57 quick_test/fbank/raw_fbank_train.2.ark:3448149
mvjh0_sx26 quick_test/fbank/raw_fbank_train.4.ark:10271577
mrdd0_sx330 quick_test/fbank/raw_fbank_train.4.ark:1432070
fklc1_sx58 quick_test/fbank/raw_fbank_train.1.ark:6903627
mrjt0_sx148 quick_test/fbank/raw_fbank_train.4.ark:3047651
mrab1_sx218 quick_test/fbank/raw_fbank_train.4.ark:714706
mrjm0_sx328 quick_test/fbank/raw_fbank_train.4.ark:2866467
mmvp0_sx114 quick_test/fbank/raw_fbank_train.3.ark:10073197
mgar0_si1212 quick_test/fbank/raw_fbank_train.3.ark:13
msrr0_sx51 quick_test/fbank/raw_fbank_train.4.ark:6916418
mclm0_sx286 quick_test/fbank/raw_fbank_train.2.ark:5397814
mddc0_sx339 quick_test/fbank/raw_fbank_train.2.ark:6650664
fssb0_si2342 quick_test/fbank/raw_fbank_train.2.ark:1187448
mtkp0_sx393 quick_test/fbank/raw_fbank_train.4.ark:8694162
mdlr0_sx333 quick_test/fbank/raw_fbank_train.2.ark:8045855
fntb0_sx213 quick_test/fbank/raw_fbank_train.1.ark:9722388
mrso0_sx219 quick_test/fbank/raw_fbank_train.4.ark:4458197
mdpb0_sx236 quick_test/fbank/raw_fbank_train.2.ark:8560908
mdbb1_sx286 quick_test/fbank/raw_fbank_train.2.ark:6262356
fdnc0_sx108 quick_test/fbank/raw_fbank_train.1.ark:3170210
fsak0_sx400 quick_test/fbank/raw_fbank_train.1.ark:11188355
maeb0_sx180 quick_test/fbank/raw_fbank_train.2.ark:2347740
fskp0_si468 quick_test/fbank/raw_fbank_train.2.ark:474431
mfer0_si2122 quick_test/fbank/raw_fbank_train.2.ark:10403785
mbjv0_si1877 quick_test/fbank/raw_fbank_train.2.ark:3657267
mmws1_sx81 quick_test/fbank/raw_fbank_train.3.ark:10436083
mtkp0_si1023 quick_test/fbank/raw_fbank_train.4.ark:8599811
mjwg0_si895 quick_test/fbank/raw_fbank_train.3.ark:5161137
fkde0_sx241 quick_test/fbank/raw_fbank_train.1.ark:6342243
mrab1_si848 quick_test/fbank/raw_fbank_train.4.ark:687480
mjda0_sx401 quick_test/fbank/raw_fbank_train.3.ark:2128652
fkdw0_si1207 quick_test/fbank/raw_fbank_train.1.ark:6394295
mmea0_sx38 quick_test/fbank/raw_fbank_train.3.ark:9145485
mtpp0_sx248 quick_test/fbank/raw_fbank_train.4.ark:9434945
mlel0_sx76 quick_test/fbank/raw_fbank_train.3.ark:7428092
mmgc0_sx45 quick_test/fbank/raw_fbank_train.3.ark:9338767
mrbc0_sx149 quick_test/fbank/raw_fbank_train.4.ark:1092055
msjk0_sx426 quick_test/fbank/raw_fbank_train.4.ark:6414463
mljh0_sx244 quick_test/fbank/raw_fbank_train.3.ark:7613724
mhjb0_sx387 quick_test/fbank/raw_fbank_train.3.ark:1174436
fklc0_sx265 quick_test/fbank/raw_fbank_train.1.ark:6772263
mrav0_sx198 quick_test/fbank/raw_fbank_train.4.ark:1026695
madc0_si737 quick_test/fbank/raw_fbank_train.2.ark:2134937
mrld0_sx244 quick_test/fbank/raw_fbank_train.4.ark:3285972
mhxl0_sx332 quick_test/fbank/raw_fbank_train.3.ark:1532390
fajw0_si633 quick_test/fbank/raw_fbank_train.1.ark:131585
mbml0_sx179 quick_test/fbank/raw_fbank_train.2.ark:3968008
frll0_sx434 quick_test/fbank/raw_fbank_train.1.ark:10857808
mjeb0_sx386 quick_test/fbank/raw_fbank_train.3.ark:2669529
msmc0_sx17 quick_test/fbank/raw_fbank_train.4.ark:6494620
mjlb0_sx266 quick_test/fbank/raw_fbank_train.3.ark:3637881
fdfb0_si2010 quick_test/fbank/raw_fbank_train.1.ark:2630490
mprk0_si1727 quick_test/fbank/raw_fbank_train.4.ark:301348
mbsb0_sx183 quick_test/fbank/raw_fbank_train.2.ark:4149060
fscn0_sx266 quick_test/fbank/raw_fbank_train.1.ark:11374867
mdmt0_sx392 quick_test/fbank/raw_fbank_train.2.ark:8389236
mjdg0_sx322 quick_test/fbank/raw_fbank_train.3.ark:2441334
mjeb1_sx207 quick_test/fbank/raw_fbank_train.3.ark:2743016
mmlm0_sx87 quick_test/fbank/raw_fbank_train.3.ark:9702868
mzmb0_sx446 quick_test/fbank/raw_fbank_train.4.ark:11636003
maeo0_si1655 quick_test/fbank/raw_fbank_train.2.ark:2419099
mmws0_sx348 quick_test/fbank/raw_fbank_train.3.ark:10327433
mmws1_sx261 quick_test/fbank/raw_fbank_train.3.ark:10399313
mtjs0_sx292 quick_test/fbank/raw_fbank_train.4.ark:8365414
mkaj0_sx334 quick_test/fbank/raw_fbank_train.3.ark:5923130
makr0_si1982 quick_test/fbank/raw_fbank_train.2.ark:2819042
mrxb0_si1585 quick_test/fbank/raw_fbank_train.4.ark:5122799
mjrh0_sx315 quick_test/fbank/raw_fbank_train.3.ark:4693472
ftlg0_sx33 quick_test/fbank/raw_fbank_train.2.ark:1619997
mtml0_sx255 quick_test/fbank/raw_fbank_train.4.ark:8949900
mgrl0_sx57 quick_test/fbank/raw_fbank_train.3.ark:474546
mbbr0_sx335 quick_test/fbank/raw_fbank_train.2.ark:3331620
flod0_si1287 quick_test/fbank/raw_fbank_train.1.ark:8329334
mgaw0_si1802 quick_test/fbank/raw_fbank_train.3.ark:117273
mdps0_sx449 quick_test/fbank/raw_fbank_train.2.ark:8760984
ftlg0_sx393 quick_test/fbank/raw_fbank_train.2.ark:1630390
mrmb0_sx411 quick_test/fbank/raw_fbank_train.4.ark:3765324
mjeb1_sx27 quick_test/fbank/raw_fbank_train.3.ark:2752568
fjxm0_sx221 quick_test/fbank/raw_fbank_train.1.ark:6016487
mmag0_sx316 quick_test/fbank/raw_fbank_train.3.ark:8149962
mrtj0_sx52 quick_test/fbank/raw_fbank_train.4.ark:4837610
flkm0_sx260 quick_test/fbank/raw_fbank_train.1.ark:7985406
mjsr0_sx254 quick_test/fbank/raw_fbank_train.3.ark:5077779
msem1_sx450 quick_test/fbank/raw_fbank_train.4.ark:5984242
flet0_sx417 quick_test/fbank/raw_fbank_train.1.ark:7493386
mrcg0_si1428 quick_test/fbank/raw_fbank_train.4.ark:1154820
mbma1_sx234 quick_test/fbank/raw_fbank_train.2.ark:3880176
fkkh0_sx300 quick_test/fbank/raw_fbank_train.1.ark:6692303
mwar0_sx55 quick_test/fbank/raw_fbank_train.4.ark:10759410
fmem0_si747 quick_test/fbank/raw_fbank_train.1.ark:8747502
megj0_sx437 quick_test/fbank/raw_fbank_train.2.ark:9911882
mhit0_si2243 quick_test/fbank/raw_fbank_train.3.ark:1018333
makb0_sx206 quick_test/fbank/raw_fbank_train.2.ark:2767276
megj0_sx77 quick_test/fbank/raw_fbank_train.2.ark:9927674
mafm0_sx129 quick_test/fbank/raw_fbank_train.2.ark:2526391
fhlm0_sx120 quick_test/fbank/raw_fbank_train.1.ark:4645003
fcmg0_sx342 quick_test/fbank/raw_fbank_train.1.ark:2066397
msds0_sx447 quick_test/fbank/raw_fbank_train.4.ark:5860057
mpsw0_sx437 quick_test/fbank/raw_fbank_train.4.ark:542042
mjee0_sx67 quick_test/fbank/raw_fbank_train.3.ark:2868299
mrdm0_sx335 quick_test/fbank/raw_fbank_train.4.ark:1521262
mjra0_sx66 quick_test/fbank/raw_fbank_train.3.ark:4519406
feac0_sx75 quick_test/fbank/raw_fbank_train.1.ark:3522577
mdas0_si1266 quick_test/fbank/raw_fbank_train.2.ark:6106815
mgjc0_si1256 quick_test/fbank/raw_fbank_train.3.ark:277169
fpls0_si2220 quick_test/fbank/raw_fbank_train.1.ark:10404865
mrml0_sx431 quick_test/fbank/raw_fbank_train.4.ark:4076161
flag0_si1464 quick_test/fbank/raw_fbank_train.1.ark:7208176
mcth0_sx399 quick_test/fbank/raw_fbank_train.2.ark:5799346
mrfl0_si526 quick_test/fbank/raw_fbank_train.4.ark:2166259
fbch0_sx236 quick_test/fbank/raw_fbank_train.1.ark:789957
mjxa0_si2137 quick_test/fbank/raw_fbank_train.3.ark:5479179
mrhl0_sx75 quick_test/fbank/raw_fbank_train.4.ark:2563416
flja0_sx88 quick_test/fbank/raw_fbank_train.1.ark:7702470
marc0_si1188 quick_test/fbank/raw_fbank_train.2.ark:2992418
mcal0_si1138 quick_test/fbank/raw_fbank_train.2.ark:4523335
mrjb1_si1413 quick_test/fbank/raw_fbank_train.4.ark:2587324
fpmy0_si1153 quick_test/fbank/raw_fbank_train.1.ark:10487974
mter0_sx167 quick_test/fbank/raw_fbank_train.4.ark:8022882
mmgc0_sx405 quick_test/fbank/raw_fbank_train.3.ark:9329015
mgag0_si645 quick_test/fbank/raw_fbank_train.2.ark:11067962
fcke0_si1741 quick_test/fbank/raw_fbank_train.1.ark:1819694
fleh0_sx331 quick_test/fbank/raw_fbank_train.1.ark:7383368
mter0_sx77 quick_test/fbank/raw_fbank_train.4.ark:8073252
flmk0_sx405 quick_test/fbank/raw_fbank_train.1.ark:8306948
mrem0_sx421 quick_test/fbank/raw_fbank_train.4.ark:1933675
fcke0_sx301 quick_test/fbank/raw_fbank_train.1.ark:1878146
flma0_sx163 quick_test/fbank/raw_fbank_train.1.ark:8081398
fkkh0_sx210 quick_test/fbank/raw_fbank_train.1.ark:6672958
mded0_sx180 quick_test/fbank/raw_fbank_train.2.ark:6726543
mmea0_sx398 quick_test/fbank/raw_fbank_train.3.ark:9156238
fdjh0_sx305 quick_test/fbank/raw_fbank_train.1.ark:2754054
mcss0_si750 quick_test/fbank/raw_fbank_train.2.ark:5646477
mbma0_si1222 quick_test/fbank/raw_fbank_train.2.ark:3736458
msat0_si1526 quick_test/fbank/raw_fbank_train.4.ark:5419035
mjac0_si701 quick_test/fbank/raw_fbank_train.3.ark:1684098
mpgh0_sx384 quick_test/fbank/raw_fbank_train.3.ark:11090095
mdss0_sx171 quick_test/fbank/raw_fbank_train.2.ark:9024840
fjen0_si2307 quick_test/fbank/raw_fbank_train.1.ark:4971449
mrcg0_si2058 quick_test/fbank/raw_fbank_train.4.ark:1174374
mrab1_sx128 quick_test/fbank/raw_fbank_train.4.ark:704233
mjhi0_si698 quick_test/fbank/raw_fbank_train.3.ark:3100969
mtjg0_si1520 quick_test/fbank/raw_fbank_train.4.ark:8085086
feeh0_sx122 quick_test/fbank/raw_fbank_train.1.ark:3790001
mkaj0_sx64 quick_test/fbank/raw_fbank_train.3.ark:5941555
mhrm0_si1475 quick_test/fbank/raw_fbank_train.3.ark:1378280
mjrp0_sx225 quick_test/fbank/raw_fbank_train.3.ark:4966354
fkfb0_si978 quick_test/fbank/raw_fbank_train.1.ark:6519627
mcdd0_sx343 quick_test/fbank/raw_fbank_train.2.ark:4765871
flmc0_sx336 quick_test/fbank/raw_fbank_train.1.ark:8203721
mrab0_si594 quick_test/fbank/raw_fbank_train.4.ark:592295
mrhl0_sx255 quick_test/fbank/raw_fbank_train.4.ark:2529078
mgaf0_sx22 quick_test/fbank/raw_fbank_train.2.ark:11021669
msat0_sx86 quick_test/fbank/raw_fbank_train.4.ark:5488266
mjwt0_sx211 quick_test/fbank/raw_fbank_train.3.ark:5416453
mmbs0_si521 quick_test/fbank/raw_fbank_train.3.ark:8416499
mdhs0_si1530 quick_test/fbank/raw_fbank_train.2.ark:7097743
fjsp0_si1763 quick_test/fbank/raw_fbank_train.1.ark:5796699
fmju0_sx129 quick_test/fbank/raw_fbank_train.1.ark:9076689
mtpr0_sx250 quick_test/fbank/raw_fbank_train.4.ark:9539690
mgrp0_si687 quick_test/fbank/raw_fbank_train.3.ark:510687
mgaw0_sx445 quick_test/fbank/raw_fbank_train.3.ark:175598
mcew0_sx182 quick_test/fbank/raw_fbank_train.2.ark:5058000
fspm0_sx251 quick_test/fbank/raw_fbank_train.2.ark:1007623
fltm0_si2330 quick_test/fbank/raw_fbank_train.1.ark:8439228
mdlm0_si1234 quick_test/fbank/raw_fbank_train.2.ark:7895504
fpmy0_sx196 quick_test/fbank/raw_fbank_train.1.ark:10554307
msas0_sx26 quick_test/fbank/raw_fbank_train.4.ark:5384975
fcdr1_si1816 quick_test/fbank/raw_fbank_train.1.ark:1456074
msfv0_si632 quick_test/fbank/raw_fbank_train.4.ark:6246746
mhit0_si1613 quick_test/fbank/raw_fbank_train.3.ark:1006379
fsms1_sx347 quick_test/fbank/raw_fbank_train.2.ark:923104
mjdg0_sx142 quick_test/fbank/raw_fbank_train.3.ark:2414628
mrds0_sx177 quick_test/fbank/raw_fbank_train.4.ark:1591741
fjrb0_sx132 quick_test/fbank/raw_fbank_train.1.ark:5482809
fjlr0_sx61 quick_test/fbank/raw_fbank_train.1.ark:5437435
feme0_si1505 quick_test/fbank/raw_fbank_train.1.ark:3853486
mjsr0_sx344 quick_test/fbank/raw_fbank_train.3.ark:5090252
fsjg0_sx130 quick_test/fbank/raw_fbank_train.1.ark:11754335
mrtj0_sx232 quick_test/fbank/raw_fbank_train.4.ark:4793712
fltm0_sx260 quick_test/fbank/raw_fbank_train.1.ark:8465374
fdas1_si831 quick_test/fbank/raw_fbank_train.1.ark:2428798
ftlg0_sx123 quick_test/fbank/raw_fbank_train.2.ark:1585299
mrjh0_sx439 quick_test/fbank/raw_fbank_train.4.ark:2776234
mtat1_sx329 quick_test/fbank/raw_fbank_train.4.ark:7523022
mvlo0_sx67 quick_test/fbank/raw_fbank_train.4.ark:10384708
mjfr0_sx345 quick_test/fbank/raw_fbank_train.3.ark:3028084
fkfb0_sx258 quick_test/fbank/raw_fbank_train.1.ark:6543813
mtat0_si1740 quick_test/fbank/raw_fbank_train.4.ark:7372305
mmpm0_si1691 quick_test/fbank/raw_fbank_train.3.ark:9723176
mdlr1_sx399 quick_test/fbank/raw_fbank_train.2.ark:8182505
mmgc0_sx135 quick_test/fbank/raw_fbank_train.3.ark:9296596
majp0_sx84 quick_test/fbank/raw_fbank_train.2.ark:2677708
mabc0_si781 quick_test/fbank/raw_fbank_train.2.ark:2037672
mrgs0_si1356 quick_test/fbank/raw_fbank_train.4.ark:2371122
mrld0_sx64 quick_test/fbank/raw_fbank_train.4.ark:3315750
mded0_sx450 quick_test/fbank/raw_fbank_train.2.ark:6762322
mtpf0_si1235 quick_test/fbank/raw_fbank_train.4.ark:9206402
mjrk0_sx70 quick_test/fbank/raw_fbank_train.3.ark:4912907
fmju0_si759 quick_test/fbank/raw_fbank_train.1.ark:9063296
fpmy0_sx163 quick_test/fbank/raw_fbank_train.1.ark:10541914
mkah0_si898 quick_test/fbank/raw_fbank_train.3.ark:5788206
mrre0_si1334 quick_test/fbank/raw_fbank_train.4.ark:4277999
fjkl0_sx32 quick_test/fbank/raw_fbank_train.1.ark:5230471
mbar0_si1319 quick_test/fbank/raw_fbank_train.2.ark:3176028
mdac0_si631 quick_test/fbank/raw_fbank_train.2.ark:6024217
mcpm0_si564 quick_test/fbank/raw_fbank_train.2.ark:5449868
fjwb1_sx435 quick_test/fbank/raw_fbank_train.1.ark:5946968
mrlk0_sx303 quick_test/fbank/raw_fbank_train.4.ark:3571441
mjpm0_sx18 quick_test/fbank/raw_fbank_train.3.ark:4283057
fpaz0_si1593 quick_test/fbank/raw_fbank_train.1.ark:10195221
fbcg1_sx352 quick_test/fbank/raw_fbank_train.1.ark:688846
mjpm1_sx131 quick_test/fbank/raw_fbank_train.3.ark:4362250
flet0_si1767 quick_test/fbank/raw_fbank_train.1.ark:7434261
mjfr0_si2235 quick_test/fbank/raw_fbank_train.3.ark:2977472
fvfb0_sx42 quick_test/fbank/raw_fbank_train.2.ark:1817921
marc0_si558 quick_test/fbank/raw_fbank_train.2.ark:3007445
mtqc0_sx451 quick_test/fbank/raw_fbank_train.4.ark:9690461
fbas0_si1387 quick_test/fbank/raw_fbank_train.1.ark:527214
mmag0_sx226 quick_test/fbank/raw_fbank_train.3.ark:8137129
mrew1_si870 quick_test/fbank/raw_fbank_train.4.ark:1973968
mrfk0_sx446 quick_test/fbank/raw_fbank_train.4.ark:2118886
fcrz0_sx73 quick_test/fbank/raw_fbank_train.1.ark:2284352
mjfr0_sx165 quick_test/fbank/raw_fbank_train.3.ark:3000898
mkes0_si1253 quick_test/fbank/raw_fbank_train.3.ark:6357848
mdwh0_sx125 quick_test/fbank/raw_fbank_train.2.ark:9392061
mhjb0_sx27 quick_test/fbank/raw_fbank_train.3.ark:1158810
fklc0_sx175 quick_test/fbank/raw_fbank_train.1.ark:6751910
msfv0_sx362 quick_test/fbank/raw_fbank_train.4.ark:6288205
mdlh0_sx250 quick_test/fbank/raw_fbank_train.2.ark:7847972
fsjs0_sx271 quick_test/fbank/raw_fbank_train.2.ark:99277
mclm0_si826 quick_test/fbank/raw_fbank_train.2.ark:5358803
msah1_sx419 quick_test/fbank/raw_fbank_train.4.ark:5287464
mjbg0_sx242 quick_test/fbank/raw_fbank_train.3.ark:2011960
fvkb0_si529 quick_test/fbank/raw_fbank_train.2.ark:1843302
mmar0_sx76 quick_test/fbank/raw_fbank_train.3.ark:8383838
mrpc1_si1482 quick_test/fbank/raw_fbank_train.4.ark:4193853
fcag0_sx333 quick_test/fbank/raw_fbank_train.1.ark:1306116
mtpg0_sx303 quick_test/fbank/raw_fbank_train.4.ark:9358673
fmem0_sx387 quick_test/fbank/raw_fbank_train.1.ark:8813507
mjxl0_sx272 quick_test/fbank/raw_fbank_train.3.ark:5605023
mdlc2_sx354 quick_test/fbank/raw_fbank_train.2.ark:7759621
fkfb0_si2238 quick_test/fbank/raw_fbank_train.1.ark:6510554
fsjg0_sx40 quick_test/fbank/raw_fbank_train.1.ark:11804833
mclk0_sx220 quick_test/fbank/raw_fbank_train.2.ark:5288924
mdlr0_sx153 quick_test/fbank/raw_fbank_train.2.ark:8018749
mapv0_sx33 quick_test/fbank/raw_fbank_train.2.ark:2971591
fceg0_si1878 quick_test/fbank/raw_fbank_train.1.ark:1575099
mjrh0_sx405 quick_test/fbank/raw_fbank_train.3.ark:4705625
mrew1_sx330 quick_test/fbank/raw_fbank_train.4.ark:2009067
mdpb0_sx326 quick_test/fbank/raw_fbank_train.2.ark:8572301
mkls1_sx195 quick_test/fbank/raw_fbank_train.3.ark:6909060
fljg0_sx171 quick_test/fbank/raw_fbank_train.1.ark:7858309
mkls0_sx267 quick_test/fbank/raw_fbank_train.3.ark:6793323
fjsp0_sx264 quick_test/fbank/raw_fbank_train.1.ark:5827758
falk0_sx276 quick_test/fbank/raw_fbank_train.1.ark:262553
