mdks0_sx256 quick_test/mfcc/raw_mfcc_train.2.ark:2395793
mjma0_si1495 quick_test/mfcc/raw_mfcc_train.3.ark:1265559
mwdk0_sx356 quick_test/mfcc/raw_mfcc_train.4.ark:3568849
megj0_sx3 quick_test/mfcc/raw_mfcc_train.2.ark:3237094
mdcd0_sx335 quick_test/mfcc/raw_mfcc_train.2.ark:2110599
fssb0_si2342 quick_test/mfcc/raw_mfcc_train.2.ark:388032
mdhs0_sx270 quick_test/mfcc/raw_mfcc_train.2.ark:2335761
fmkf0_sx186 quick_test/mfcc/raw_mfcc_train.1.ark:3034260
mtju0_si2269 quick_test/mfcc/raw_mfcc_train.4.ark:2749406
mrem0_sx331 quick_test/mfcc/raw_mfcc_train.4.ark:627678
mjmd0_sx218 quick_test/mfcc/raw_mfcc_train.3.ark:1309508
fjsp0_si1763 quick_test/mfcc/raw_mfcc_train.1.ark:1893984
mwch0_si1895 quick_test/mfcc/raw_mfcc_train.4.ark:3524316
fear0_sx262 quick_test/mfcc/raw_mfcc_train.1.ark:1169102
mmar0_sx76 quick_test/mfcc/raw_mfcc_train.3.ark:2739758
mhjb0_sx297 quick_test/mfcc/raw_mfcc_train.3.ark:381384
mdps0_sx89 quick_test/mfcc/raw_mfcc_train.2.ark:2867641
fksr0_si1117 quick_test/mfcc/raw_mfcc_train.1.ark:2292799
mtkd0_sx287 quick_test/mfcc/raw_mfcc_train.4.ark:2800665
mbsb0_sx363 quick_test/mfcc/raw_mfcc_train.2.ark:1362775
mhbs0_si2205 quick_test/mfcc/raw_mfcc_train.3.ark:302949
mrmh0_sx391 quick_test/mfcc/raw_mfcc_train.4.ark:1297071
fhxs0_sx445 quick_test/mfcc/raw_mfcc_train.1.ark:1574255
marc0_si1818 quick_test/mfcc/raw_mfcc_train.2.ark:979973
fmkc0_sx172 quick_test/mfcc/raw_mfcc_train.1.ark:2997855
mdwh0_si665 quick_test/mfcc/raw_mfcc_train.2.ark:3063189
mrsp0_si799 quick_test/mfcc/raw_mfcc_train.4.ark:1486375
mlns0_sx237 quick_test/mfcc/raw_mfcc_train.3.ark:2521333
mtcs0_si1972 quick_test/mfcc/raw_mfcc_train.4.ark:2504105
mvjh0_si1556 quick_test/mfcc/raw_mfcc_train.4.ark:3334775
mram0_si1951 quick_test/mfcc/raw_mfcc_train.4.ark:292972
fcaj0_sx129 quick_test/mfcc/raw_mfcc_train.1.ark:449013
mdma0_sx80 quick_test/mfcc/raw_mfcc_train.2.ark:2712981
mjdm0_sx350 quick_test/mfcc/raw_mfcc_train.3.ark:830076
mdac0_sx91 quick_test/mfcc/raw_mfcc_train.2.ark:1992788
marc0_sx18 quick_test/mfcc/raw_mfcc_train.2.ark:990614
mhit0_sx83 quick_test/mfcc/raw_mfcc_train.3.ark:357673
mdhl0_si809 quick_test/mfcc/raw_mfcc_train.2.ark:2295520
mdwh0_sx125 quick_test/mfcc/raw_mfcc_train.2.ark:3069579
fsms1_si874 quick_test/mfcc/raw_mfcc_train.2.ark:286057
mjlb0_sx446 quick_test/mfcc/raw_mfcc_train.3.ark:1195724
fcke0_si481 quick_test/mfcc/raw_mfcc_train.1.ark:600572
fntb0_si679 quick_test/mfcc/raw_mfcc_train.1.ark:3166114
mtjs0_sx292 quick_test/mfcc/raw_mfcc_train.4.ark:2733484
mdbb1_si1006 quick_test/mfcc/raw_mfcc_train.2.ark:2025584
fsdj0_sx305 quick_test/mfcc/raw_mfcc_train.1.ark:3782451
mkes0_si1883 quick_test/mfcc/raw_mfcc_train.3.ark:2082052
mkah0_sx178 quick_test/mfcc/raw_mfcc_train.3.ark:1895227
mdbb1_si2056 quick_test/mfcc/raw_mfcc_train.2.ark:2033153
mjfh0_sx297 quick_test/mfcc/raw_mfcc_train.3.ark:962416
mclk0_si1660 quick_test/mfcc/raw_mfcc_train.2.ark:1709898
mtkp0_si1023 quick_test/mfcc/raw_mfcc_train.4.ark:2810066
mjws0_sx63 quick_test/mfcc/raw_mfcc_train.3.ark:1745808
mjpm1_si2280 quick_test/mfcc/raw_mfcc_train.3.ark:1417836
mdbp0_si528 quick_test/mfcc/raw_mfcc_train.2.ark:2062486
fsag0_sx63 quick_test/mfcc/raw_mfcc_train.1.ark:3588161
mtlb0_sx234 quick_test/mfcc/raw_mfcc_train.4.ark:2859422
mesj0_sx7 quick_test/mfcc/raw_mfcc_train.2.ark:3364259
mjpg0_si561 quick_test/mfcc/raw_mfcc_train.3.ark:1362856
mtjm0_sx56 quick_test/mfcc/raw_mfcc_train.4.ark:2702182
mcss0_si750 quick_test/mfcc/raw_mfcc_train.2.ark:1845444
msdb0_si2267 quick_test/mfcc/raw_mfcc_train.4.ark:1834755
mtlc0_sx37 quick_test/mfcc/raw_mfcc_train.4.ark:2899415
mrab1_sx218 quick_test/mfcc/raw_mfcc_train.4.ark:233539
mbml0_sx269 quick_test/mfcc/raw_mfcc_train.2.ark:1300702
frjb0_si1470 quick_test/mfcc/raw_mfcc_train.1.ark:3496603
fetb0_sx248 quick_test/mfcc/raw_mfcc_train.1.ark:1310549
fleh0_sx61 quick_test/mfcc/raw_mfcc_train.1.ark:2420550
mpgr1_sx419 quick_test/mfcc/raw_mfcc_train.3.ark:3681932
fblv0_sx248 quick_test/mfcc/raw_mfcc_train.1.ark:326566
mjma0_sx415 quick_test/mfcc/raw_mfcc_train.3.ark:1289210
madc0_sx377 quick_test/mfcc/raw_mfcc_train.2.ark:718107
ftbw0_si715 quick_test/mfcc/raw_mfcc_train.2.ark:476511
feme0_sx65 quick_test/mfcc/raw_mfcc_train.1.ark:1291376
mtkp0_sx33 quick_test/mfcc/raw_mfcc_train.4.ark:2837473
mlel0_si616 quick_test/mfcc/raw_mfcc_train.3.ark:2402562
mrlj0_sx70 quick_test/mfcc/raw_mfcc_train.4.ark:1114115
mddc0_sx69 quick_test/mfcc/raw_mfcc_train.2.ark:2180211
fvfb0_sx222 quick_test/mfcc/raw_mfcc_train.2.ark:582594
madc0_sx17 quick_test/mfcc/raw_mfcc_train.2.ark:707946
mjda0_sx311 quick_test/mfcc/raw_mfcc_train.3.ark:691060
mjbg0_si1724 quick_test/mfcc/raw_mfcc_train.3.ark:647384
mefg0_si598 quick_test/mfcc/raw_mfcc_train.2.ark:3188190
mjpg0_si1191 quick_test/mfcc/raw_mfcc_train.3.ark:1354209
fbas0_sx307 quick_test/mfcc/raw_mfcc_train.1.ark:196878
msem1_sx450 quick_test/mfcc/raw_mfcc_train.4.ark:1955491
mrfk0_sx356 quick_test/mfcc/raw_mfcc_train.4.ark:688607
mjda0_si1031 quick_test/mfcc/raw_mfcc_train.3.ark:675878
fbcg1_si982 quick_test/mfcc/raw_mfcc_train.1.ark:211994
mpsw0_sx257 quick_test/mfcc/raw_mfcc_train.4.ark:174347
msrg0_sx231 quick_test/mfcc/raw_mfcc_train.4.ark:2217740
mcss0_si1380 quick_test/mfcc/raw_mfcc_train.2.ark:1833405
fbmj0_sx156 quick_test/mfcc/raw_mfcc_train.1.ark:388500
maeo0_si1655 quick_test/mfcc/raw_mfcc_train.2.ark:790621
fmkc0_sx262 quick_test/mfcc/raw_mfcc_train.1.ark:3002425
mrgs0_sx6 quick_test/mfcc/raw_mfcc_train.4.ark:801311
fcke0_sx121 quick_test/mfcc/raw_mfcc_train.1.ark:606832
fljd0_sx76 quick_test/mfcc/raw_mfcc_train.1.ark:2549584
mrld0_si1594 quick_test/mfcc/raw_mfcc_train.4.ark:1058512
mwsb0_si1626 quick_test/mfcc/raw_mfcc_train.4.ark:3710084
mmam0_si1597 quick_test/mfcc/raw_mfcc_train.3.ark:2676029
fgmb0_si515 quick_test/mfcc/raw_mfcc_train.1.ark:1443065
mtrr0_si918 quick_test/mfcc/raw_mfcc_train.4.ark:3212621
mrso0_si2289 quick_test/mfcc/raw_mfcc_train.4.ark:1448553
mbsb0_si723 quick_test/mfcc/raw_mfcc_train.2.ark:1351192
mbwp0_sx349 quick_test/mfcc/raw_mfcc_train.2.ark:1421953
mdmt0_si2341 quick_test/mfcc/raw_mfcc_train.2.ark:2718067
mcae0_sx367 quick_test/mfcc/raw_mfcc_train.2.ark:1464442
mjai0_si1604 quick_test/mfcc/raw_mfcc_train.3.ark:611050
msfv0_sx362 quick_test/mfcc/raw_mfcc_train.4.ark:2054794
mtdb0_si2031 quick_test/mfcc/raw_mfcc_train.4.ark:2542026
megj0_sx167 quick_test/mfcc/raw_mfcc_train.2.ark:3228060
mkjo0_sx437 quick_test/mfcc/raw_mfcc_train.3.ark:2134417
mtpp0_sx68 quick_test/mfcc/raw_mfcc_train.4.ark:3094817
mdcm0_sx220 quick_test/mfcc/raw_mfcc_train.2.ark:2138911
fskl0_sx179 quick_test/mfcc/raw_mfcc_train.2.ark:126268
fcmm0_si1083 quick_test/mfcc/raw_mfcc_train.1.ark:688583
mdhs0_sx90 quick_test/mfcc/raw_mfcc_train.2.ark:2346376
mwch0_sx452 quick_test/mfcc/raw_mfcc_train.4.ark:3539640
mjai0_si710 quick_test/mfcc/raw_mfcc_train.3.ark:620580
fdxw0_si881 quick_test/mfcc/raw_mfcc_train.1.ark:1097305
mrre0_si952 quick_test/mfcc/raw_mfcc_train.4.ark:1409300
mjra0_sx66 quick_test/mfcc/raw_mfcc_train.3.ark:1477019
mwac0_si2231 quick_test/mfcc/raw_mfcc_train.4.ark:3430907
fdml0_sx339 quick_test/mfcc/raw_mfcc_train.1.ark:964913
mcpm0_sx114 quick_test/mfcc/raw_mfcc_train.2.ark:1786279
msds0_sx177 quick_test/mfcc/raw_mfcc_train.4.ark:1900397
mbma1_si2214 quick_test/mfcc/raw_mfcc_train.2.ark:1254734
fgdp0_sx448 quick_test/mfcc/raw_mfcc_train.1.ark:1421989
mges0_si1481 quick_test/mfcc/raw_mfcc_train.3.ark:63217
msas0_si2006 quick_test/mfcc/raw_mfcc_train.4.ark:1740598
mprt0_sx130 quick_test/mfcc/raw_mfcc_train.4.ark:140944
fklh0_si1257 quick_test/mfcc/raw_mfcc_train.1.ark:2260931
medr0_si744 quick_test/mfcc/raw_mfcc_train.2.ark:3158534
fdnc0_si1278 quick_test/mfcc/raw_mfcc_train.1.ark:1020396
mgaw0_si535 quick_test/mfcc/raw_mfcc_train.3.ark:43298
fbmh0_sx236 quick_test/mfcc/raw_mfcc_train.1.ark:360956
mtmn0_sx74 quick_test/mfcc/raw_mfcc_train.4.ark:2972311
fgdp0_sx178 quick_test/mfcc/raw_mfcc_train.1.ark:1407473
mtpp0_sx248 quick_test/mfcc/raw_mfcc_train.4.ark:3083006
mpsw0_si2327 quick_test/mfcc/raw_mfcc_train.4.ark:165097
fear0_sx172 quick_test/mfcc/raw_mfcc_train.1.ark:1164844
fmem0_sx333 quick_test/mfcc/raw_mfcc_train.1.ark:2872978
fsmm0_si684 quick_test/mfcc/raw_mfcc_train.2.ark:250627
mtlc0_si847 quick_test/mfcc/raw_mfcc_train.4.ark:2888845
mcre0_si1751 quick_test/mfcc/raw_mfcc_train.2.ark:1808690
mkdt0_sx83 quick_test/mfcc/raw_mfcc_train.3.ark:2074223
medr0_sx24 quick_test/mfcc/raw_mfcc_train.2.ark:3170007
mlns0_sx327 quick_test/mfcc/raw_mfcc_train.3.ark:2523524
mtpp0_si1508 quick_test/mfcc/raw_mfcc_train.4.ark:3067949
mppc0_sx332 quick_test/mfcc/raw_mfcc_train.4.ark:3971
mkjo0_si2147 quick_test/mfcc/raw_mfcc_train.3.ark:2117196
mrgm0_sx416 quick_test/mfcc/raw_mfcc_train.4.ark:760234
mvjh0_si2186 quick_test/mfcc/raw_mfcc_train.4.ark:3340737
fmpg0_si972 quick_test/mfcc/raw_mfcc_train.1.ark:3094956
fbjl0_sx292 quick_test/mfcc/raw_mfcc_train.1.ark:298402
mree0_sx114 quick_test/mfcc/raw_mfcc_train.4.ark:553269
fljg0_sx261 quick_test/mfcc/raw_mfcc_train.1.ark:2574256
mtju0_si760 quick_test/mfcc/raw_mfcc_train.4.ark:2751493
mmag0_sx406 quick_test/mfcc/raw_mfcc_train.3.ark:2667461
fsjw0_sx163 quick_test/mfcc/raw_mfcc_train.2.ark:63494
mchl0_si1404 quick_test/mfcc/raw_mfcc_train.2.ark:1683848
mcpm0_si1194 quick_test/mfcc/raw_mfcc_train.2.ark:1771866
msat0_si896 quick_test/mfcc/raw_mfcc_train.4.ark:1776893
mcef0_sx415 quick_test/mfcc/raw_mfcc_train.2.ark:1628948
makr0_sx272 quick_test/mfcc/raw_mfcc_train.2.ark:930480
mrew1_sx150 quick_test/mfcc/raw_mfcc_train.4.ark:649613
meal0_sx377 quick_test/mfcc/raw_mfcc_train.2.ark:3146772
mmrp0_sx54 quick_test/mfcc/raw_mfcc_train.3.ark:3236581
faem0_si2022 quick_test/mfcc/raw_mfcc_train.1.ark:6313
fsmm0_sx144 quick_test/mfcc/raw_mfcc_train.2.ark:254729
msmc0_si647 quick_test/mfcc/raw_mfcc_train.4.ark:2112853
mdpk0_sx63 quick_test/mfcc/raw_mfcc_train.2.ark:2838178
fjrb0_sx42 quick_test/mfcc/raw_mfcc_train.1.ark:1810211
flma0_sx343 quick_test/mfcc/raw_mfcc_train.1.ark:2646201
fsma0_sx361 quick_test/mfcc/raw_mfcc_train.2.ark:229882
mtjm0_sx416 quick_test/mfcc/raw_mfcc_train.4.ark:2698705
mrvg0_sx330 quick_test/mfcc/raw_mfcc_train.4.ark:1602449
mwem0_sx240 quick_test/mfcc/raw_mfcc_train.4.ark:3594107
fjhk0_si1022 quick_test/mfcc/raw_mfcc_train.1.ark:1653568
mses0_sx329 quick_test/mfcc/raw_mfcc_train.4.ark:1983323
frjb0_sx437 quick_test/mfcc/raw_mfcc_train.1.ark:3513747
fgrw0_sx432 quick_test/mfcc/raw_mfcc_train.1.ark:1498674
fmkf0_sx96 quick_test/mfcc/raw_mfcc_train.1.ark:3049092
mmsm0_si1736 quick_test/mfcc/raw_mfcc_train.3.ark:3247361
mntw0_si1698 quick_test/mfcc/raw_mfcc_train.3.ark:3480080
mbwp0_sx259 quick_test/mfcc/raw_mfcc_train.2.ark:1417019
mbth0_sx122 quick_test/mfcc/raw_mfcc_train.2.ark:1381803
fvmh0_sx386 quick_test/mfcc/raw_mfcc_train.2.ark:657465
mbbr0_sx65 quick_test/mfcc/raw_mfcc_train.2.ark:1097199
maeo0_sx156 quick_test/mfcc/raw_mfcc_train.2.ark:797617
msah1_sx59 quick_test/mfcc/raw_mfcc_train.4.ark:1731430
fjsp0_sx264 quick_test/mfcc/raw_mfcc_train.1.ark:1904145
mgar0_sx132 quick_test/mfcc/raw_mfcc_train.3.ark:11281
marc0_si558 quick_test/mfcc/raw_mfcc_train.2.ark:982931
mtlb0_sx144 quick_test/mfcc/raw_mfcc_train.4.ark:2855905
mbar0_sx419 quick_test/mfcc/raw_mfcc_train.2.ark:1063218
mdrd0_si752 quick_test/mfcc/raw_mfcc_train.2.ark:2877973
mgrp0_sx147 quick_test/mfcc/raw_mfcc_train.3.ark:171324
mbml0_sx449 quick_test/mfcc/raw_mfcc_train.2.ark:1308555
mhbs0_si1575 quick_test/mfcc/raw_mfcc_train.3.ark:299444
mbma1_si2207 quick_test/mfcc/raw_mfcc_train.2.ark:1252204
mmgc0_si1305 quick_test/mfcc/raw_mfcc_train.3.ark:3025510
mjrh0_sx225 quick_test/mfcc/raw_mfcc_train.3.ark:1531142
fhlm0_si930 quick_test/mfcc/raw_mfcc_train.1.ark:1513796
mmxs0_si2136 quick_test/mfcc/raw_mfcc_train.3.ark:3413258
ftaj0_si1329 quick_test/mfcc/raw_mfcc_train.2.ark:412774
falk0_sx276 quick_test/mfcc/raw_mfcc_train.1.ark:85784
mprk0_sx287 quick_test/mfcc/raw_mfcc_train.4.ark:119549
fjlr0_sx151 quick_test/mfcc/raw_mfcc_train.1.ark:1760467
mtrr0_si2178 quick_test/mfcc/raw_mfcc_train.4.ark:3208987
mcre0_si1725 quick_test/mfcc/raw_mfcc_train.2.ark:1806511
mjdm0_si1937 quick_test/mfcc/raw_mfcc_train.3.ark:815462
mbml0_sx179 quick_test/mfcc/raw_mfcc_train.2.ark:1296925
mkaj0_sx154 quick_test/mfcc/raw_mfcc_train.3.ark:1928694
mkag0_sx169 quick_test/mfcc/raw_mfcc_train.3.ark:1864504
feme0_si2135 quick_test/mfcc/raw_mfcc_train.1.ark:1263398
mbma1_sx54 quick_test/mfcc/raw_mfcc_train.2.ark:1281802
fpaz0_si1593 quick_test/mfcc/raw_mfcc_train.1.ark:3331173
mjws0_sx243 quick_test/mfcc/raw_mfcc_train.3.ark:1730617
mewm0_sx178 quick_test/mfcc/raw_mfcc_train.2.ark:3378777
fsjk1_sx35 quick_test/mfcc/raw_mfcc_train.2.ark:7357
fkde0_sx241 quick_test/mfcc/raw_mfcc_train.1.ark:2072247
mtkd0_si1187 quick_test/mfcc/raw_mfcc_train.4.ark:2774636
fdnc0_sx288 quick_test/mfcc/raw_mfcc_train.1.ark:1047609
mpfu0_sx358 quick_test/mfcc/raw_mfcc_train.3.ark:3586113
mtjg0_si2157 quick_test/mfcc/raw_mfcc_train.4.ark:2644494
mjpm0_si1368 quick_test/mfcc/raw_mfcc_train.3.ark:1381878
fjwb1_sx255 quick_test/mfcc/raw_mfcc_train.1.ark:1936480
fcrz0_si793 quick_test/mfcc/raw_mfcc_train.1.ark:728123
mrfl0_si1156 quick_test/mfcc/raw_mfcc_train.4.ark:698872
mjfh0_si477 quick_test/mfcc/raw_mfcc_train.3.ark:949623
fjxm0_sx401 quick_test/mfcc/raw_mfcc_train.1.ark:1976123
fkaa0_si1838 quick_test/mfcc/raw_mfcc_train.1.ark:2021559
ftlg0_si1743 quick_test/mfcc/raw_mfcc_train.2.ark:501942
mkam0_si1465 quick_test/mfcc/raw_mfcc_train.3.ark:1954290
mrem0_sx61 quick_test/mfcc/raw_mfcc_train.4.ark:635751
fsma0_sx451 quick_test/mfcc/raw_mfcc_train.2.ark:233425
fkfb0_sx258 quick_test/mfcc/raw_mfcc_train.1.ark:2138115
fskc0_sx336 quick_test/mfcc/raw_mfcc_train.2.ark:100810
fjwb1_sx75 quick_test/mfcc/raw_mfcc_train.1.ark:1947641
mnet0_sx6 quick_test/mfcc/raw_mfcc_train.3.ark:3466551
mrdm0_sx335 quick_test/mfcc/raw_mfcc_train.4.ark:497125
mdtb0_si1830 quick_test/mfcc/raw_mfcc_train.2.ark:2998561
mrab1_sx398 quick_test/mfcc/raw_mfcc_train.4.ark:245922
mwdk0_si1436 quick_test/mfcc/raw_mfcc_train.4.ark:3547727
majp0_sx444 quick_test/mfcc/raw_mfcc_train.2.ark:870865
mwar0_sx325 quick_test/mfcc/raw_mfcc_train.4.ark:3509545
fscn0_sx86 quick_test/mfcc/raw_mfcc_train.1.ark:3730336
mrjt0_si868 quick_test/mfcc/raw_mfcc_train.4.ark:990009
mjwt0_sx121 quick_test/mfcc/raw_mfcc_train.3.ark:1765923
mrdd0_sx277 quick_test/mfcc/raw_mfcc_train.4.ark:464919
msat0_sx176 quick_test/mfcc/raw_mfcc_train.4.ark:1779760
fceg0_si618 quick_test/mfcc/raw_mfcc_train.1.ark:516395
fbas0_sx217 quick_test/mfcc/raw_mfcc_train.1.ark:193725
fleh0_sx241 quick_test/mfcc/raw_mfcc_train.1.ark:2408739
mpgh0_si675 quick_test/mfcc/raw_mfcc_train.3.ark:3604211
mrdd0_si1680 quick_test/mfcc/raw_mfcc_train.4.ark:451227
fjrb0_sx132 quick_test/mfcc/raw_mfcc_train.1.ark:1791477
mtjs0_si562 quick_test/mfcc/raw_mfcc_train.4.ark:2716726
fsjs0_sx361 quick_test/mfcc/raw_mfcc_train.2.ark:36281
mjpm1_sx401 quick_test/mfcc/raw_mfcc_train.3.ark:1439113
mjrg0_sx286 quick_test/mfcc/raw_mfcc_train.3.ark:1498395
msrr0_si1761 quick_test/mfcc/raw_mfcc_train.4.ark:2234975
mdpk0_sx333 quick_test/mfcc/raw_mfcc_train.2.ark:2829351
feeh0_sx32 quick_test/mfcc/raw_mfcc_train.1.ark:1251129
mctm0_si1350 quick_test/mfcc/raw_mfcc_train.2.ark:1898661
mklw0_sx41 quick_test/mfcc/raw_mfcc_train.3.ark:2297419
mjma0_si865 quick_test/mfcc/raw_mfcc_train.3.ark:1275415
mcpm0_si564 quick_test/mfcc/raw_mfcc_train.2.ark:1781189
mjdc0_sx171 quick_test/mfcc/raw_mfcc_train.3.ark:717311
mbth0_si757 quick_test/mfcc/raw_mfcc_train.2.ark:1378949
fjen0_sx417 quick_test/mfcc/raw_mfcc_train.1.ark:1643765
mmds0_si713 quick_test/mfcc/raw_mfcc_train.3.ark:2948890
flja0_sx88 quick_test/mfcc/raw_mfcc_train.1.ark:2516715
falk0_si658 quick_test/mfcc/raw_mfcc_train.1.ark:76033
mkes0_sx83 quick_test/mfcc/raw_mfcc_train.3.ark:2109523
mdlb0_si676 quick_test/mfcc/raw_mfcc_train.2.ark:2425138
mtxs0_sx430 quick_test/mfcc/raw_mfcc_train.4.ark:3325479
mcxm0_sx271 quick_test/mfcc/raw_mfcc_train.2.ark:1947458
mkln0_sx338 quick_test/mfcc/raw_mfcc_train.3.ark:2160818
mjae0_sx174 quick_test/mfcc/raw_mfcc_train.3.ark:587329
mdlc0_si765 quick_test/mfcc/raw_mfcc_train.2.ark:2464494
mcre0_si1121 quick_test/mfcc/raw_mfcc_train.2.ark:1801615
mrmb0_sx321 quick_test/mfcc/raw_mfcc_train.4.ark:1225806
flmc0_si742 quick_test/mfcc/raw_mfcc_train.1.ark:2665230
mabc0_si2041 quick_test/mfcc/raw_mfcc_train.2.ark:662161
mgar0_sx222 quick_test/mfcc/raw_mfcc_train.3.ark:15266
flmc0_sx382 quick_test/mfcc/raw_mfcc_train.1.ark:2685804
mhxl0_sx152 quick_test/mfcc/raw_mfcc_train.3.ark:492234
mmwb0_sx449 quick_test/mfcc/raw_mfcc_train.3.ark:3346116
fcrz0_sx73 quick_test/mfcc/raw_mfcc_train.1.ark:746513
fcyl0_si1927 quick_test/mfcc/raw_mfcc_train.1.ark:754199
fmkc0_sx82 quick_test/mfcc/raw_mfcc_train.1.ark:3015627
fjlr0_sx331 quick_test/mfcc/raw_mfcc_train.1.ark:1768632
mrds0_si537 quick_test/mfcc/raw_mfcc_train.4.ark:515309
fsls0_sx202 quick_test/mfcc/raw_mfcc_train.2.ark:194744
majp0_sx264 quick_test/mfcc/raw_mfcc_train.2.ark:862453
fsag0_si1953 quick_test/mfcc/raw_mfcc_train.1.ark:3559832
mdma0_sx350 quick_test/mfcc/raw_mfcc_train.2.ark:2700748
mlsh0_si787 quick_test/mfcc/raw_mfcc_train.3.ark:2545478
fkkh0_sx210 quick_test/mfcc/raw_mfcc_train.1.ark:2180266
mkls1_si2175 quick_test/mfcc/raw_mfcc_train.3.ark:2241498
mdwd0_si1260 quick_test/mfcc/raw_mfcc_train.2.ark:3023519
mctm0_sx450 quick_test/mfcc/raw_mfcc_train.2.ark:1923495
mrms0_sx210 quick_test/mfcc/raw_mfcc_train.4.ark:1359059
mpgr0_sx150 quick_test/mfcc/raw_mfcc_train.3.ark:3637978
msmr0_sx145 quick_test/mfcc/raw_mfcc_train.4.ark:2150929
fsls0_sx426 quick_test/mfcc/raw_mfcc_train.2.ark:200725
flmk0_sx315 quick_test/mfcc/raw_mfcc_train.1.ark:2710406
mwad0_sx72 quick_test/mfcc/raw_mfcc_train.4.ark:3487114
mdlc2_si2244 quick_test/mfcc/raw_mfcc_train.2.ark:2520528
fetb0_si518 quick_test/mfcc/raw_mfcc_train.1.ark:1302891
mjae0_si2154 quick_test/mfcc/raw_mfcc_train.3.ark:584215
mmjb1_sx238 quick_test/mfcc/raw_mfcc_train.3.ark:3128412
mhxl0_sx332 quick_test/mfcc/raw_mfcc_train.3.ark:500828
fear0_sx82 quick_test/mfcc/raw_mfcc_train.1.ark:1183526
fcyl0_si1297 quick_test/mfcc/raw_mfcc_train.1.ark:750083
fklc1_si1048 quick_test/mfcc/raw_mfcc_train.1.ark:2228061
mram0_si1905 quick_test/mfcc/raw_mfcc_train.4.ark:289675
mmlm0_si2150 quick_test/mfcc/raw_mfcc_train.3.ark:3148507
mgrl0_si2127 quick_test/mfcc/raw_mfcc_train.3.ark:129978
mrpc1_si1482 quick_test/mfcc/raw_mfcc_train.4.ark:1370436
mtpp0_sx338 quick_test/mfcc/raw_mfcc_train.4.ark:3086458
mrtc0_si828 quick_test/mfcc/raw_mfcc_train.4.ark:1520791
flhd0_sx264 quick_test/mfcc/raw_mfcc_train.1.ark:2471072
mlns0_si2037 quick_test/mfcc/raw_mfcc_train.3.ark:2509716
mbml0_si539 quick_test/mfcc/raw_mfcc_train.2.ark:1293473
mprb0_sx305 quick_test/mfcc/raw_mfcc_train.4.ark:41624
mcdd0_sx433 quick_test/mfcc/raw_mfcc_train.2.ark:1561741
fsjs0_sx181 quick_test/mfcc/raw_mfcc_train.2.ark:27115
mses0_sx239 quick_test/mfcc/raw_mfcc_train.4.ark:1979702
fcjs0_si1607 quick_test/mfcc/raw_mfcc_train.1.ark:562761
fcaj0_si1479 quick_test/mfcc/raw_mfcc_train.1.ark:440021
mdns0_si2271 quick_test/mfcc/raw_mfcc_train.2.ark:2752587
fjlg0_sx359 quick_test/mfcc/raw_mfcc_train.1.ark:1735061
mdem0_si608 quick_test/mfcc/raw_mfcc_train.2.ark:2251581
fmju0_sx129 quick_test/mfcc/raw_mfcc_train.1.ark:2965752
mjai0_sx74 quick_test/mfcc/raw_mfcc_train.3.ark:639698
mjlb0_sx356 quick_test/mfcc/raw_mfcc_train.3.ark:1191973
mmds0_sx83 quick_test/mfcc/raw_mfcc_train.3.ark:2964875
mgjc0_sx255 quick_test/mfcc/raw_mfcc_train.3.ark:108011
mjma0_sx145 quick_test/mfcc/raw_mfcc_train.3.ark:1279998
mrmg0_si1710 quick_test/mfcc/raw_mfcc_train.4.ark:1241721
mjeb0_si1916 quick_test/mfcc/raw_mfcc_train.3.ark:848448
msds0_sx447 quick_test/mfcc/raw_mfcc_train.4.ark:1914952
mbma0_si1222 quick_test/mfcc/raw_mfcc_train.2.ark:1221246
mmwb0_sx89 quick_test/mfcc/raw_mfcc_train.3.ark:3352245
mfwk0_sx349 quick_test/mfcc/raw_mfcc_train.2.ark:3507967
mppc0_si782 quick_test/mfcc/raw_mfcc_train.3.ark:3752218
mbsb0_sx3 quick_test/mfcc/raw_mfcc_train.2.ark:1360987
mvlo0_sx67 quick_test/mfcc/raw_mfcc_train.4.ark:3393355
fgrw0_si1990 quick_test/mfcc/raw_mfcc_train.1.ark:1481824
fltm0_si1700 quick_test/mfcc/raw_mfcc_train.1.ark:2753913
fkkh0_si1290 quick_test/mfcc/raw_mfcc_train.1.ark:2159346
fpad0_sx266 quick_test/mfcc/raw_mfcc_train.1.ark:3281804
fsmm0_sx54 quick_test/mfcc/raw_mfcc_train.2.ark:273671
mdns0_sx111 quick_test/mfcc/raw_mfcc_train.2.ark:2761441
mcew0_sx362 quick_test/mfcc/raw_mfcc_train.2.ark:1661199
mdrd0_sx302 quick_test/mfcc/raw_mfcc_train.2.ark:2895024
fjrp1_si2062 quick_test/mfcc/raw_mfcc_train.1.ark:1822109
mctm0_si1980 quick_test/mfcc/raw_mfcc_train.2.ark:1904220
msat1_sx353 quick_test/mfcc/raw_mfcc_train.4.ark:1815829
fapb0_sx163 quick_test/mfcc/raw_mfcc_train.1.ark:148368
mgag0_sx151 quick_test/mfcc/raw_mfcc_train.2.ark:3625364
mrmb0_si1581 quick_test/mfcc/raw_mfcc_train.4.ark:1207011
mljh0_sx244 quick_test/mfcc/raw_mfcc_train.3.ark:2488152
mwsh0_sx166 quick_test/mfcc/raw_mfcc_train.4.ark:3754062
mtab0_sx222 quick_test/mfcc/raw_mfcc_train.4.ark:2359354
mjwt0_si1291 quick_test/mfcc/raw_mfcc_train.3.ark:1749404
fsag0_sx333 quick_test/mfcc/raw_mfcc_train.1.ark:3575759
mmea0_si2018 quick_test/mfcc/raw_mfcc_train.3.ark:2972756
mtmt0_si1118 quick_test/mfcc/raw_mfcc_train.4.ark:2975998
mejl0_sx422 quick_test/mfcc/raw_mfcc_train.2.ark:3269918
flac0_si901 quick_test/mfcc/raw_mfcc_train.1.ark:2333743
mrav0_si1638 quick_test/mfcc/raw_mfcc_train.4.ark:319516
mrjm1_sx218 quick_test/mfcc/raw_mfcc_train.4.ark:966917
mjrh0_si1840 quick_test/mfcc/raw_mfcc_train.3.ark:1520429
msrg0_si591 quick_test/mfcc/raw_mfcc_train.4.ark:2208548
fcdr1_si556 quick_test/mfcc/raw_mfcc_train.1.ark:482135
mmam0_sx157 quick_test/mfcc/raw_mfcc_train.3.ark:2686569
mgak0_sx406 quick_test/mfcc/raw_mfcc_train.2.ark:3669682
mrcw0_sx381 quick_test/mfcc/raw_mfcc_train.4.ark:442995
mtbc0_sx363 quick_test/mfcc/raw_mfcc_train.4.ark:2496252
fmbg0_sx3 quick_test/mfcc/raw_mfcc_train.1.ark:2833075
mdsj0_sx112 quick_test/mfcc/raw_mfcc_train.2.ark:2919832
mrpc1_sx312 quick_test/mfcc/raw_mfcc_train.4.ark:1386736
mcre0_sx221 quick_test/mfcc/raw_mfcc_train.2.ark:1817232
mwrp0_sx273 quick_test/mfcc/raw_mfcc_train.4.ark:3696239
fmmh0_sx367 quick_test/mfcc/raw_mfcc_train.1.ark:3070358
mjrh1_sx244 quick_test/mfcc/raw_mfcc_train.3.ark:1562841
fpaz0_sx423 quick_test/mfcc/raw_mfcc_train.1.ark:3356539
fmah1_si2139 quick_test/mfcc/raw_mfcc_train.1.ark:2788824
mjma0_sx325 quick_test/mfcc/raw_mfcc_train.3.ark:1286382
mtkd0_sx197 quick_test/mfcc/raw_mfcc_train.4.ark:2797109
fgmb0_si1775 quick_test/mfcc/raw_mfcc_train.1.ark:1438963
mmab1_sx144 quick_test/mfcc/raw_mfcc_train.3.ark:2616904
mrjm0_si1858 quick_test/mfcc/raw_mfcc_train.4.ark:924050
mmlm0_sx177 quick_test/mfcc/raw_mfcc_train.3.ark:3157231
maeb0_si1411 quick_test/mfcc/raw_mfcc_train.2.ark:754052
fsms1_si2134 quick_test/mfcc/raw_mfcc_train.2.ark:282176
mgxp0_sx7 quick_test/mfcc/raw_mfcc_train.3.ark:291864
fsgf0_sx297 quick_test/mfcc/raw_mfcc_train.1.ark:3817523
mewm0_sx448 quick_test/mfcc/raw_mfcc_train.2.ark:3390810
fvkb0_si1789 quick_test/mfcc/raw_mfcc_train.2.ark:599868
mkaj0_sx244 quick_test/mfcc/raw_mfcc_train.3.ark:1931587
mmpm0_sx161 quick_test/mfcc/raw_mfcc_train.3.ark:3184875
fjen0_sx57 quick_test/mfcc/raw_mfcc_train.1.ark:1649244
mrxb0_si955 quick_test/mfcc/raw_mfcc_train.4.ark:1683082
fcmg0_sx162 quick_test/mfcc/raw_mfcc_train.1.ark:667488
mdhl0_sx179 quick_test/mfcc/raw_mfcc_train.2.ark:2299661
faem0_si762 quick_test/mfcc/raw_mfcc_train.1.ark:9349
fsdj0_sx125 quick_test/mfcc/raw_mfcc_train.1.ark:3775846
flmc0_sx336 quick_test/mfcc/raw_mfcc_train.1.ark:2680493
mprk0_sx107 quick_test/mfcc/raw_mfcc_train.4.ark:107608
fjdm2_sx52 quick_test/mfcc/raw_mfcc_train.1.ark:1611863
madd0_sx268 quick_test/mfcc/raw_mfcc_train.2.ark:738268
fdtd0_sx391 quick_test/mfcc/raw_mfcc_train.1.ark:1089170
feeh0_si1112 quick_test/mfcc/raw_mfcc_train.1.ark:1225893
megj0_si707 quick_test/mfcc/raw_mfcc_train.2.ark:3222528
fvfb0_sx132 quick_test/mfcc/raw_mfcc_train.2.ark:579246
fexm0_sx111 quick_test/mfcc/raw_mfcc_train.1.ark:1341058
mkxl0_sx195 quick_test/mfcc/raw_mfcc_train.3.ark:2353926
mjfh0_sx387 quick_test/mfcc/raw_mfcc_train.3.ark:965114
flod0_sx171 quick_test/mfcc/raw_mfcc_train.1.ark:2736963
fskc0_sx66 quick_test/mfcc/raw_mfcc_train.2.ark:110040
mjde0_sx310 quick_test/mfcc/raw_mfcc_train.3.ark:762257
majp0_sx84 quick_test/mfcc/raw_mfcc_train.2.ark:875161
mrgm0_sx172 quick_test/mfcc/raw_mfcc_train.4.ark:750847
fsjw0_sx433 quick_test/mfcc/raw_mfcc_train.2.ark:74903
feeh0_sx212 quick_test/mfcc/raw_mfcc_train.1.ark:1242835
msdb0_si1007 quick_test/mfcc/raw_mfcc_train.4.ark:1827095
mded0_sx90 quick_test/mfcc/raw_mfcc_train.2.ark:2214822
fdml0_sx249 quick_test/mfcc/raw_mfcc_train.1.ark:962202
fklc0_si1615 quick_test/mfcc/raw_mfcc_train.1.ark:2194061
mdpb0_si2126 quick_test/mfcc/raw_mfcc_train.2.ark:2783922
mgxp0_sx97 quick_test/mfcc/raw_mfcc_train.3.ark:295731
milb0_si2163 quick_test/mfcc/raw_mfcc_train.3.ark:514590
mbgt0_si1341 quick_test/mfcc/raw_mfcc_train.2.ark:1156821
mrlk0_si1468 quick_test/mfcc/raw_mfcc_train.4.ark:1144146
mtat0_sx210 quick_test/mfcc/raw_mfcc_train.4.ark:2422895
mtrt0_sx237 quick_test/mfcc/raw_mfcc_train.4.ark:3256320
mrxb0_sx145 quick_test/mfcc/raw_mfcc_train.4.ark:1688575
fpaf0_sx154 quick_test/mfcc/raw_mfcc_train.1.ark:3311404
mkxl0_sx285 quick_test/mfcc/raw_mfcc_train.3.ark:2356637
mkls1_si1545 quick_test/mfcc/raw_mfcc_train.3.ark:2237187
mbef0_sx201 quick_test/mfcc/raw_mfcc_train.2.ark:1145938
mddc0_si2049 quick_test/mfcc/raw_mfcc_train.2.ark:2159825
madd0_sx178 quick_test/mfcc/raw_mfcc_train.2.ark:733373
mdwm0_sx286 quick_test/mfcc/raw_mfcc_train.2.ark:3111379
fsag0_sx153 quick_test/mfcc/raw_mfcc_train.1.ark:3565202
mdcd0_sx245 quick_test/mfcc/raw_mfcc_train.2.ark:2107277
mdlc1_sx445 quick_test/mfcc/raw_mfcc_train.2.ark:2512576
mjdc0_sx81 quick_test/mfcc/raw_mfcc_train.3.ark:731300
mrcw0_si1371 quick_test/mfcc/raw_mfcc_train.4.ark:416777
fbas0_sx397 quick_test/mfcc/raw_mfcc_train.1.ark:202676
mtml0_si2325 quick_test/mfcc/raw_mfcc_train.4.ark:2915241
fsjw0_sx253 quick_test/mfcc/raw_mfcc_train.2.ark:67154
megj0_sx437 quick_test/mfcc/raw_mfcc_train.2.ark:3239480
mtqc0_sx91 quick_test/mfcc/raw_mfcc_train.4.ark:3173243
mjeb1_si1467 quick_test/mfcc/raw_mfcc_train.3.ark:875472
mkah0_si898 quick_test/mfcc/raw_mfcc_train.3.ark:1891593
fhlm0_si2190 quick_test/mfcc/raw_mfcc_train.1.ark:1509889
frjb0_si1794 quick_test/mfcc/raw_mfcc_train.1.ark:3498639
mhxl0_sx242 quick_test/mfcc/raw_mfcc_train.3.ark:496752
mcal0_sx148 quick_test/mfcc/raw_mfcc_train.2.ark:1488455
fdjh0_sx395 quick_test/mfcc/raw_mfcc_train.1.ark:906895
mded0_si1170 quick_test/mfcc/raw_mfcc_train.2.ark:2183638
mfer0_sx322 quick_test/mfcc/raw_mfcc_train.2.ark:3415690
milb0_si903 quick_test/mfcc/raw_mfcc_train.3.ark:522586
mmws0_sx168 quick_test/mfcc/raw_mfcc_train.3.ark:3367783
mpeb0_sx330 quick_test/mfcc/raw_mfcc_train.3.ark:3552282
mrai0_sx162 quick_test/mfcc/raw_mfcc_train.4.ark:264581
mjdc0_sx441 quick_test/mfcc/raw_mfcc_train.3.ark:728200
fear0_sx442 quick_test/mfcc/raw_mfcc_train.1.ark:1179139
mdns0_si873 quick_test/mfcc/raw_mfcc_train.2.ark:2755311
flja0_sx448 quick_test/mfcc/raw_mfcc_train.1.ark:2512913
fjsp0_sx444 quick_test/mfcc/raw_mfcc_train.1.ark:1911686
mdmt0_sx122 quick_test/mfcc/raw_mfcc_train.2.ark:2725413
mtab0_si942 quick_test/mfcc/raw_mfcc_train.4.ark:2349460
mtxs0_si1690 quick_test/mfcc/raw_mfcc_train.4.ark:3303044
msms0_sx263 quick_test/mfcc/raw_mfcc_train.4.ark:2187081
mfxs0_sx234 quick_test/mfcc/raw_mfcc_train.2.ark:3534356
fpmy0_sx196 quick_test/mfcc/raw_mfcc_train.1.ark:3448501
mcdr0_sx164 quick_test/mfcc/raw_mfcc_train.2.ark:1587491
majp0_sx174 quick_test/mfcc/raw_mfcc_train.2.ark:856778
mreh1_si2229 quick_test/mfcc/raw_mfcc_train.4.ark:576634
mjrh0_sx45 quick_test/mfcc/raw_mfcc_train.3.ark:1541510
msat1_sx83 quick_test/mfcc/raw_mfcc_train.4.ark:1823447
mdlh0_sx430 quick_test/mfcc/raw_mfcc_train.2.ark:2573542
fcmg0_sx72 quick_test/mfcc/raw_mfcc_train.1.ark:685572
mkag0_sx439 quick_test/mfcc/raw_mfcc_train.3.ark:1875314
mdlc0_sx135 quick_test/mfcc/raw_mfcc_train.2.ark:2467543
msjk0_sx426 quick_test/mfcc/raw_mfcc_train.4.ark:2096029
msdh0_si2240 quick_test/mfcc/raw_mfcc_train.4.ark:1852368
mhmr0_sx129 quick_test/mfcc/raw_mfcc_train.3.ark:430696
mree0_si1959 quick_test/mfcc/raw_mfcc_train.4.ark:547698
msds0_sx267 quick_test/mfcc/raw_mfcc_train.4.ark:1903225
mrjm0_sx328 quick_test/mfcc/raw_mfcc_train.4.ark:936642
mmea0_sx218 quick_test/mfcc/raw_mfcc_train.3.ark:2982228
mewm0_si718 quick_test/mfcc/raw_mfcc_train.2.ark:3374792
meal0_sx287 quick_test/mfcc/raw_mfcc_train.2.ark:3138685
mkag0_si1609 quick_test/mfcc/raw_mfcc_train.3.ark:1849675
fpaf0_si1054 quick_test/mfcc/raw_mfcc_train.1.ark:3297510
fkaa0_sx128 quick_test/mfcc/raw_mfcc_train.1.ark:2030257
fjrb0_si1932 quick_test/mfcc/raw_mfcc_train.1.ark:1786302
mrtj0_sx142 quick_test/mfcc/raw_mfcc_train.4.ark:1560531
mdlc2_sx84 quick_test/mfcc/raw_mfcc_train.2.ark:2542552
fjsp0_si1434 quick_test/mfcc/raw_mfcc_train.1.ark:1888178
mkxl0_sx375 quick_test/mfcc/raw_mfcc_train.3.ark:2359881
mrtj0_si772 quick_test/mfcc/raw_mfcc_train.4.ark:1553218
fkde0_sx331 quick_test/mfcc/raw_mfcc_train.1.ark:2075946
fsdc0_si1942 quick_test/mfcc/raw_mfcc_train.1.ark:3739465
mdps0_sx449 quick_test/mfcc/raw_mfcc_train.2.ark:2863293
mzmb0_si536 quick_test/mfcc/raw_mfcc_train.4.ark:3784831
mtdp0_sx441 quick_test/mfcc/raw_mfcc_train.4.ark:2598903
fsjw0_si1963 quick_test/mfcc/raw_mfcc_train.2.ark:55992
fbjl0_sx22 quick_test/mfcc/raw_mfcc_train.1.ark:294469
fsrh0_si671 quick_test/mfcc/raw_mfcc_train.2.ark:351548
mcae0_si1447 quick_test/mfcc/raw_mfcc_train.2.ark:1436625
msah1_sx329 quick_test/mfcc/raw_mfcc_train.4.ark:1723266
mmlm0_sx447 quick_test/mfcc/raw_mfcc_train.3.ark:3168029
mjlb0_sx266 quick_test/mfcc/raw_mfcc_train.3.ark:1188846
mrjm1_si1298 quick_test/mfcc/raw_mfcc_train.4.ark:950846
mpmb0_si1501 quick_test/mfcc/raw_mfcc_train.3.ark:3688563
mdlc2_sx444 quick_test/mfcc/raw_mfcc_train.2.ark:2539023
mchl0_sx267 quick_test/mfcc/raw_mfcc_train.2.ark:1694478
mrre0_sx434 quick_test/mfcc/raw_mfcc_train.4.ark:1427931
msdh0_sx350 quick_test/mfcc/raw_mfcc_train.4.ark:1870128
mcdd0_si1513 quick_test/mfcc/raw_mfcc_train.2.ark:1540625
mmgc0_si2184 quick_test/mfcc/raw_mfcc_train.3.ark:3035575
fmjb0_sx7 quick_test/mfcc/raw_mfcc_train.1.ark:2910552
mdlr0_sx423 quick_test/mfcc/raw_mfcc_train.2.ark:2635146
mjxa0_si2137 quick_test/mfcc/raw_mfcc_train.3.ark:1790601
mrml0_sx431 quick_test/mfcc/raw_mfcc_train.4.ark:1331962
fcmm0_sx183 quick_test/mfcc/raw_mfcc_train.1.ark:701033
mjeb1_sx387 quick_test/mfcc/raw_mfcc_train.3.ark:905746
mmdg0_si1780 quick_test/mfcc/raw_mfcc_train.3.ark:2841298
ftmg0_si902 quick_test/mfcc/raw_mfcc_train.2.ark:541923
marw0_sx349 quick_test/mfcc/raw_mfcc_train.2.ark:1027319
mdlr0_si1863 quick_test/mfcc/raw_mfcc_train.2.ark:2614428
mwad0_sx432 quick_test/mfcc/raw_mfcc_train.4.ark:3482610
mhmr0_sx219 quick_test/mfcc/raw_mfcc_train.3.ark:434668
mjws0_si1773 quick_test/mfcc/raw_mfcc_train.3.ark:1718116
mmgc0_sx315 quick_test/mfcc/raw_mfcc_train.3.ark:3044826
mchl0_si1977 quick_test/mfcc/raw_mfcc_train.2.ark:1689264
mcew0_sx92 quick_test/mfcc/raw_mfcc_train.2.ark:1672678
mbar0_sx329 quick_test/mfcc/raw_mfcc_train.2.ark:1058570
mgjc0_si1965 quick_test/mfcc/raw_mfcc_train.3.ark:98663
mgrp0_si1947 quick_test/mfcc/raw_mfcc_train.3.ark:163562
mdtb0_sx210 quick_test/mfcc/raw_mfcc_train.2.ark:3009996
mklw0_sx401 quick_test/mfcc/raw_mfcc_train.3.ark:2293422
msdh0_si2113 quick_test/mfcc/raw_mfcc_train.4.ark:1850605
mstf0_sx136 quick_test/mfcc/raw_mfcc_train.4.ark:2277502
fdml0_si1779 quick_test/mfcc/raw_mfcc_train.1.ark:952768
mrjh0_sx307 quick_test/mfcc/raw_mfcc_train.4.ark:904721
mjbg0_sx62 quick_test/mfcc/raw_mfcc_train.3.ark:671918
fcdr1_si1816 quick_test/mfcc/raw_mfcc_train.1.ark:475758
msfh0_si1216 quick_test/mfcc/raw_mfcc_train.4.ark:1993159
mjdc0_sx351 quick_test/mfcc/raw_mfcc_train.3.ark:724098
mfmc0_si1762 quick_test/mfcc/raw_mfcc_train.2.ark:3429876
mjwt0_sx31 quick_test/mfcc/raw_mfcc_train.3.ark:1779086
mdas0_sx96 quick_test/mfcc/raw_mfcc_train.2.ark:2022014
mmsm0_sx386 quick_test/mfcc/raw_mfcc_train.3.ark:3271491
fsdc0_sx412 quick_test/mfcc/raw_mfcc_train.1.ark:3756583
mjsr0_sx344 quick_test/mfcc/raw_mfcc_train.3.ark:1663574
mewm0_si1348 quick_test/mfcc/raw_mfcc_train.2.ark:3369759
mdma0_sx260 quick_test/mfcc/raw_mfcc_train.2.ark:2695983
mjdg0_sx232 quick_test/mfcc/raw_mfcc_train.3.ark:793313
fljd0_sx256 quick_test/mfcc/raw_mfcc_train.1.ark:2539190
mrsp0_si2059 quick_test/mfcc/raw_mfcc_train.4.ark:1482065
mrds0_si1167 quick_test/mfcc/raw_mfcc_train.4.ark:508443
mmvp0_si654 quick_test/mfcc/raw_mfcc_train.3.ark:3283097
mtat1_si779 quick_test/mfcc/raw_mfcc_train.4.ark:2441671
mbsb0_sx93 quick_test/mfcc/raw_mfcc_train.2.ark:1365888
fmjb0_sx187 quick_test/mfcc/raw_mfcc_train.1.ark:2900536
mjjb0_sx239 quick_test/mfcc/raw_mfcc_train.3.ark:1053132
fdaw0_sx416 quick_test/mfcc/raw_mfcc_train.1.ark:844569
mrjb1_si1020 quick_test/mfcc/raw_mfcc_train.4.ark:840668
msem1_si1440 quick_test/mfcc/raw_mfcc_train.4.ark:1922402
mbbr0_si1685 quick_test/mfcc/raw_mfcc_train.2.ark:1075655
mejl0_si962 quick_test/mfcc/raw_mfcc_train.2.ark:3255018
mljc0_si595 quick_test/mfcc/raw_mfcc_train.3.ark:2441866
mbma0_si592 quick_test/mfcc/raw_mfcc_train.2.ark:1229880
mjrg0_sx352 quick_test/mfcc/raw_mfcc_train.3.ark:1503394
mjra0_si1866 quick_test/mfcc/raw_mfcc_train.3.ark:1451771
fspm0_sx251 quick_test/mfcc/raw_mfcc_train.2.ark:329275
mwsh0_si1426 quick_test/mfcc/raw_mfcc_train.4.ark:3738583
fsak0_si1300 quick_test/mfcc/raw_mfcc_train.1.ark:3627707
mtpf0_si1235 quick_test/mfcc/raw_mfcc_train.4.ark:3008282
mpar0_sx316 quick_test/mfcc/raw_mfcc_train.3.ark:3526199
msvs0_sx308 quick_test/mfcc/raw_mfcc_train.4.ark:2324334
fvkb0_si1159 quick_test/mfcc/raw_mfcc_train.2.ark:596714
mmjb1_si2038 quick_test/mfcc/raw_mfcc_train.3.ark:3116847
fpab1_sx121 quick_test/mfcc/raw_mfcc_train.1.ark:3207271
fklh0_sx267 quick_test/mfcc/raw_mfcc_train.1.ark:2276131
mmgc0_sx45 quick_test/mfcc/raw_mfcc_train.3.ark:3051898
fkkh0_si660 quick_test/mfcc/raw_mfcc_train.1.ark:2172088
msdb0_sx197 quick_test/mfcc/raw_mfcc_train.4.ark:1842276
mdwh0_sx305 quick_test/mfcc/raw_mfcc_train.2.ark:3078381
mkxl0_sx15 quick_test/mfcc/raw_mfcc_train.3.ark:2350383
mjxl0_si1172 quick_test/mfcc/raw_mfcc_train.3.ark:1815961
mjdg0_sx142 quick_test/mfcc/raw_mfcc_train.3.ark:789120
mjlb0_sx86 quick_test/mfcc/raw_mfcc_train.3.ark:1199032
mfxs0_sx54 quick_test/mfcc/raw_mfcc_train.2.ark:3548338
mtjg0_sx440 quick_test/mfcc/raw_mfcc_train.4.ark:2666109
fjlr0_si601 quick_test/mfcc/raw_mfcc_train.1.ark:1756729
fcaj0_si849 quick_test/mfcc/raw_mfcc_train.1.ark:444365
mjfr0_si1605 quick_test/mfcc/raw_mfcc_train.3.ark:968606
flkm0_sx116 quick_test/mfcc/raw_mfcc_train.1.ark:2605739
fsah0_sx164 quick_test/mfcc/raw_mfcc_train.1.ark:3607288
mrtj0_sx412 quick_test/mfcc/raw_mfcc_train.4.ark:1576399
mfmc0_si1132 quick_test/mfcc/raw_mfcc_train.2.ark:3425084
mjrp0_sx45 quick_test/mfcc/raw_mfcc_train.3.ark:1632954
fsak0_sx130 quick_test/mfcc/raw_mfcc_train.1.ark:3640144
fscn0_si626 quick_test/mfcc/raw_mfcc_train.1.ark:3698965
mwar0_sx235 quick_test/mfcc/raw_mfcc_train.4.ark:3505885
mjrh1_sx424 quick_test/mfcc/raw_mfcc_train.3.ark:1570226
mgsl0_sx444 quick_test/mfcc/raw_mfcc_train.3.ark:254786
mfxs0_sx144 quick_test/mfcc/raw_mfcc_train.2.ark:3530774
mjmd0_sx128 quick_test/mfcc/raw_mfcc_train.3.ark:1306381
mtpg0_sx303 quick_test/mfcc/raw_mfcc_train.4.ark:3058061
mrlj1_sx231 quick_test/mfcc/raw_mfcc_train.4.ark:1131131
mgjc0_si1256 quick_test/mfcc/raw_mfcc_train.3.ark:90626
madd0_si538 quick_test/mfcc/raw_mfcc_train.2.ark:729583
mjac0_sx251 quick_test/mfcc/raw_mfcc_train.3.ark:556305
fjhk0_sx32 quick_test/mfcc/raw_mfcc_train.1.ark:1678480
fsjs0_sx451 quick_test/mfcc/raw_mfcc_train.2.ark:39798
mstf0_sx316 quick_test/mfcc/raw_mfcc_train.4.ark:2286148
msrg0_si1221 quick_test/mfcc/raw_mfcc_train.4.ark:2201253
fkkh0_sx390 quick_test/mfcc/raw_mfcc_train.1.ark:2189893
mdem0_sx428 quick_test/mfcc/raw_mfcc_train.2.ark:2277395
mesg0_sx432 quick_test/mfcc/raw_mfcc_train.2.ark:3333823
fsrh0_sx131 quick_test/mfcc/raw_mfcc_train.2.ark:355052
medr0_sx294 quick_test/mfcc/raw_mfcc_train.2.ark:3173082
msah1_si2309 quick_test/mfcc/raw_mfcc_train.4.ark:1712286
mjrg0_sx16 quick_test/mfcc/raw_mfcc_train.3.ark:1495762
mwgr0_sx436 quick_test/mfcc/raw_mfcc_train.4.ark:3638729
mram0_sx375 quick_test/mfcc/raw_mfcc_train.4.ark:312818
fbch0_sx326 quick_test/mfcc/raw_mfcc_train.1.ark:261393
mjpm1_sx311 quick_test/mfcc/raw_mfcc_train.3.ark:1432749
fskc0_si1416 quick_test/mfcc/raw_mfcc_train.2.ark:83822
flhd0_sx84 quick_test/mfcc/raw_mfcc_train.1.ark:2481843
mkls1_sx105 quick_test/mfcc/raw_mfcc_train.3.ark:2250469
mreh1_sx249 quick_test/mfcc/raw_mfcc_train.4.ark:590916
mdmt0_sx302 quick_test/mfcc/raw_mfcc_train.2.ark:2734488
fleh0_si2311 quick_test/mfcc/raw_mfcc_train.1.ark:2401237
makr0_si1352 quick_test/mfcc/raw_mfcc_train.2.ark:918400
mjls0_sx106 quick_test/mfcc/raw_mfcc_train.3.ark:1247064
msjk0_si1596 quick_test/mfcc/raw_mfcc_train.4.ark:2069427
mkam0_sx56 quick_test/mfcc/raw_mfcc_train.3.ark:1975345
mjfr0_sx435 quick_test/mfcc/raw_mfcc_train.3.ark:994545
mdmt0_sx32 quick_test/mfcc/raw_mfcc_train.2.ark:2738303
fbmj0_sx336 quick_test/mfcc/raw_mfcc_train.1.ark:396366
mcae0_si2077 quick_test/mfcc/raw_mfcc_train.2.ark:1444108
fskp0_si1098 quick_test/mfcc/raw_mfcc_train.2.ark:145881
mgak0_sx46 quick_test/mfcc/raw_mfcc_train.2.ark:3674992
mdas0_sx6 quick_test/mfcc/raw_mfcc_train.2.ark:2018485
mrlr0_sx296 quick_test/mfcc/raw_mfcc_train.4.ark:1200756
mpar0_sx136 quick_test/mfcc/raw_mfcc_train.3.ark:3518242
mgaf0_sx112 quick_test/mfcc/raw_mfcc_train.2.ark:3597124
fecd0_sx158 quick_test/mfcc/raw_mfcc_train.1.ark:1205110
mjmm0_si1885 quick_test/mfcc/raw_mfcc_train.3.ark:1329798
fhxs0_sx85 quick_test/mfcc/raw_mfcc_train.1.ark:1577329
fjsp0_sx174 quick_test/mfcc/raw_mfcc_train.1.ark:1899068
fjhk0_sx212 quick_test/mfcc/raw_mfcc_train.1.ark:1670368
mjjm0_si1457 quick_test/mfcc/raw_mfcc_train.3.ark:1112583
fexm0_sx366 quick_test/mfcc/raw_mfcc_train.1.ark:1355015
fntb0_si1203 quick_test/mfcc/raw_mfcc_train.1.ark:3159366
mtrc0_sx273 quick_test/mfcc/raw_mfcc_train.4.ark:3197336
mses0_si1589 quick_test/mfcc/raw_mfcc_train.4.ark:1964709
madc0_sx107 quick_test/mfcc/raw_mfcc_train.2.ark:704105
mapv0_sx393 quick_test/mfcc/raw_mfcc_train.2.ark:974458
feac0_si615 quick_test/mfcc/raw_mfcc_train.1.ark:1128380
mhrm0_sx238 quick_test/mfcc/raw_mfcc_train.3.ark:464365
mgaw0_sx265 quick_test/mfcc/raw_mfcc_train.3.ark:50865
mpsw0_si1067 quick_test/mfcc/raw_mfcc_train.4.ark:158646
fgrw0_sx162 quick_test/mfcc/raw_mfcc_train.1.ark:1484925
mrre0_sx344 quick_test/mfcc/raw_mfcc_train.4.ark:1424414
fdtd0_si2191 quick_test/mfcc/raw_mfcc_train.1.ark:1061555
mbml0_si1799 quick_test/mfcc/raw_mfcc_train.2.ark:1289735
mrab1_sx128 quick_test/mfcc/raw_mfcc_train.4.ark:230113
fjrp1_sx172 quick_test/mfcc/raw_mfcc_train.1.ark:1828194
mdbp0_si1158 quick_test/mfcc/raw_mfcc_train.2.ark:2055594
mgag0_sx331 quick_test/mfcc/raw_mfcc_train.2.ark:3631995
mrpc1_si2112 quick_test/mfcc/raw_mfcc_train.4.ark:1377147
flhd0_si1827 quick_test/mfcc/raw_mfcc_train.1.ark:2459506
mdas0_sx186 quick_test/mfcc/raw_mfcc_train.2.ark:2010147
mjrh1_si1558 quick_test/mfcc/raw_mfcc_train.3.ark:1545301
mfer0_si1492 quick_test/mfcc/raw_mfcc_train.2.ark:3398052
msvs0_sx218 quick_test/mfcc/raw_mfcc_train.4.ark:2319660
fbjl0_si922 quick_test/mfcc/raw_mfcc_train.1.ark:282294
fjen0_sx237 quick_test/mfcc/raw_mfcc_train.1.ark:1633845
fjlg0_si1506 quick_test/mfcc/raw_mfcc_train.1.ark:1716629
flac0_sx181 quick_test/mfcc/raw_mfcc_train.1.ark:2336155
fssb0_si1082 quick_test/mfcc/raw_mfcc_train.2.ark:377434
fcjf0_sx397 quick_test/mfcc/raw_mfcc_train.1.ark:559464
fjdm2_sx322 quick_test/mfcc/raw_mfcc_train.1.ark:1603920
mkdb0_sx422 quick_test/mfcc/raw_mfcc_train.3.ark:2003072
fclt0_sx88 quick_test/mfcc/raw_mfcc_train.1.ark:649114
mcdr0_sx344 quick_test/mfcc/raw_mfcc_train.2.ark:1595370
mjmm0_sx85 quick_test/mfcc/raw_mfcc_train.3.ark:1351120
mrjt0_si1805 quick_test/mfcc/raw_mfcc_train.4.ark:987766
fpaz0_sx243 quick_test/mfcc/raw_mfcc_train.1.ark:3350052
mmeb0_sx327 quick_test/mfcc/raw_mfcc_train.3.ark:3009338
mdrd0_si1382 quick_test/mfcc/raw_mfcc_train.2.ark:2870951
fdkn0_si1081 quick_test/mfcc/raw_mfcc_train.1.ark:910829
fsjg0_si1570 quick_test/mfcc/raw_mfcc_train.1.ark:3824402
flkm0_sx260 quick_test/mfcc/raw_mfcc_train.1.ark:2609139
mprk0_si467 quick_test/mfcc/raw_mfcc_train.4.ark:102011
fdxw0_si2141 quick_test/mfcc/raw_mfcc_train.1.ark:1095413
mdmt0_sx212 quick_test/mfcc/raw_mfcc_train.2.ark:2729970
fecd0_si2048 quick_test/mfcc/raw_mfcc_train.1.ark:1194800
mjae0_sx444 quick_test/mfcc/raw_mfcc_train.3.ark:600519
mpgr0_si780 quick_test/mfcc/raw_mfcc_train.3.ark:3634877
mwre0_si1687 quick_test/mfcc/raw_mfcc_train.4.ark:3650737
fdfb0_sx148 quick_test/mfcc/raw_mfcc_train.1.ark:862234
fmju0_sx309 quick_test/mfcc/raw_mfcc_train.1.ark:2974086
mrmb0_si951 quick_test/mfcc/raw_mfcc_train.4.ark:1214280
mbgt0_si1841 quick_test/mfcc/raw_mfcc_train.2.ark:1159143
mdlc0_sx225 quick_test/mfcc/raw_mfcc_train.2.ark:2471853
fcdr1_sx196 quick_test/mfcc/raw_mfcc_train.1.ark:496559
mdlc1_sx175 quick_test/mfcc/raw_mfcc_train.2.ark:2500257
fsag0_si693 quick_test/mfcc/raw_mfcc_train.1.ark:3561321
fdkn0_si1711 quick_test/mfcc/raw_mfcc_train.1.ark:921362
mrdd0_sx330 quick_test/mfcc/raw_mfcc_train.4.ark:467981
mrfl0_sx76 quick_test/mfcc/raw_mfcc_train.4.ark:730940
mdps0_si719 quick_test/mfcc/raw_mfcc_train.2.ark:2848211
fdnc0_sx378 quick_test/mfcc/raw_mfcc_train.1.ark:1052699
mtwh1_sx72 quick_test/mfcc/raw_mfcc_train.4.ark:3294383
mwac0_sx71 quick_test/mfcc/raw_mfcc_train.4.ark:3460588
mrkm0_sx97 quick_test/mfcc/raw_mfcc_train.4.ark:1054773
mtjs0_si1192 quick_test/mfcc/raw_mfcc_train.4.ark:2705882
flma0_sx73 quick_test/mfcc/raw_mfcc_train.1.ark:2654183
fsls0_si1686 quick_test/mfcc/raw_mfcc_train.2.ark:180188
mrtj0_si2032 quick_test/mfcc/raw_mfcc_train.4.ark:1549870
mcef0_si842 quick_test/mfcc/raw_mfcc_train.2.ark:1613177
fpls0_sx3 quick_test/mfcc/raw_mfcc_train.1.ark:3416393
feeh0_sx302 quick_test/mfcc/raw_mfcc_train.1.ark:1247301
