mtab0_sx222 quick_test/fbank/raw_fbank_train.4.ark:7220434
fsjs0_sx181 quick_test/fbank/raw_fbank_train.2.ark:82924
fsls0_si2316 quick_test/fbank/raw_fbank_train.2.ark:565497
mmds0_sx353 quick_test/fbank/raw_fbank_train.3.ark:9052388
mgjc0_si1335 quick_test/fbank/raw_fbank_train.3.ark:288803
fsjk1_si696 quick_test/fbank/raw_fbank_train.1.ark:11860367
mljh0_sx334 quick_test/fbank/raw_fbank_train.3.ark:7630597
mdrd0_sx32 quick_test/fbank/raw_fbank_train.2.ark:8870608
mjmd0_si1028 quick_test/fbank/raw_fbank_train.3.ark:3965689
mjjj0_sx173 quick_test/fbank/raw_fbank_train.3.ark:3320733
mmgg0_si1709 quick_test/fbank/raw_fbank_train.3.ark:9368315
mrjh0_sx439 quick_test/fbank/raw_fbank_train.4.ark:2776234
mddc0_sx339 quick_test/fbank/raw_fbank_train.2.ark:6650664
mtkd0_sx17 quick_test/fbank/raw_fbank_train.4.ark:8550798
mdlc2_sx264 quick_test/fbank/raw_fbank_train.2.ark:7748588
fbjl0_si1552 quick_test/fbank/raw_fbank_train.1.ark:841289
fsbk0_si1699 quick_test/fbank/raw_fbank_train.1.ark:11215303
mmar0_si1336 quick_test/fbank/raw_fbank_train.3.ark:8274407
msms0_si803 quick_test/fbank/raw_fbank_train.4.ark:6665125
mtbc0_si1803 quick_test/fbank/raw_fbank_train.4.ark:7571675
mrld0_sx424 quick_test/fbank/raw_fbank_train.4.ark:3304918
mvlo0_sx247 quick_test/fbank/raw_fbank_train.4.ark:10348410
flmc0_sx292 quick_test/fbank/raw_fbank_train.1.ark:8189848
mmjb1_sx418 quick_test/fbank/raw_fbank_train.3.ark:9600251
fmem0_sx117 quick_test/fbank/raw_fbank_train.1.ark:8759895
mjwg0_sx175 quick_test/fbank/raw_fbank_train.3.ark:5184850
mjeb0_sx170 quick_test/fbank/raw_fbank_train.3.ark:2617558
mfwk0_sx439 quick_test/fbank/raw_fbank_train.2.ark:10750346
fvmh0_sx386 quick_test/fbank/raw_fbank_train.2.ark:2011731
mdbp0_si528 quick_test/fbank/raw_fbank_train.2.ark:6310450
fjxp0_sx312 quick_test/fbank/raw_fbank_train.1.ark:6138785
fsrh0_sx41 quick_test/fbank/raw_fbank_train.2.ark:1140146
mrre0_sx74 quick_test/fbank/raw_fbank_train.4.ark:4382389
mcre0_si1725 quick_test/fbank/raw_fbank_train.2.ark:5527300
falr0_sx335 quick_test/fbank/raw_fbank_train.1.ark:369049
mljh0_sx244 quick_test/fbank/raw_fbank_train.3.ark:7613724
mdbb1_si2056 quick_test/fbank/raw_fbank_train.2.ark:6220745
mjrg0_si1996 quick_test/fbank/raw_fbank_train.3.ark:4542394
fear0_si1252 quick_test/fbank/raw_fbank_train.1.ark:3532851
msah1_sx59 quick_test/fbank/raw_fbank_train.4.ark:5298616
mdma0_sx350 quick_test/fbank/raw_fbank_train.2.ark:8263666
mrmb0_si2211 quick_test/fbank/raw_fbank_train.4.ark:3704679
fksr0_si1747 quick_test/fbank/raw_fbank_train.1.ark:7029200
mlsh0_sx427 quick_test/fbank/raw_fbank_train.3.ark:7840840
mkag0_si979 quick_test/fbank/raw_fbank_train.3.ark:5686222
mdlc0_si2025 quick_test/fbank/raw_fbank_train.2.ark:7523638
mtpr0_sx250 quick_test/fbank/raw_fbank_train.4.ark:9539690
fsdc0_sx412 quick_test/fbank/raw_fbank_train.1.ark:11497159
mhit0_si2243 quick_test/fbank/raw_fbank_train.3.ark:1018333
mclm0_si1456 quick_test/fbank/raw_fbank_train.2.ark:5334976
mbom0_sx311 quick_test/fbank/raw_fbank_train.2.ark:4089973
fsdc0_si1312 quick_test/fbank/raw_fbank_train.1.ark:11428079
fsmm0_sx144 quick_test/fbank/raw_fbank_train.2.ark:779420
mtlc0_si1477 quick_test/fbank/raw_fbank_train.4.ark:8821975
mhxl0_sx332 quick_test/fbank/raw_fbank_train.3.ark:1532390
mjrh0_sx315 quick_test/fbank/raw_fbank_train.3.ark:4693472
mtas0_si2015 quick_test/fbank/raw_fbank_train.4.ark:7289480
mkam0_sx326 quick_test/fbank/raw_fbank_train.3.ark:6021156
maeb0_sx90 quick_test/fbank/raw_fbank_train.2.ark:2394111
msdb0_si2267 quick_test/fbank/raw_fbank_train.4.ark:5614674
mpgr0_sx330 quick_test/fbank/raw_fbank_train.3.ark:11149855
mdss1_si1713 quick_test/fbank/raw_fbank_train.2.ark:9091199
fgdp0_sx178 quick_test/fbank/raw_fbank_train.1.ark:4307327
mmcc0_sx258 quick_test/fbank/raw_fbank_train.3.ark:8557270
flmk0_sx315 quick_test/fbank/raw_fbank_train.1.ark:8295275
mtlb0_sx144 quick_test/fbank/raw_fbank_train.4.ark:8740096
mkaj0_sx154 quick_test/fbank/raw_fbank_train.3.ark:5901744
fmkf0_si906 quick_test/fbank/raw_fbank_train.1.ark:9272507
maeo0_si1956 quick_test/fbank/raw_fbank_train.2.ark:2430413
madd0_sx178 quick_test/fbank/raw_fbank_train.2.ark:2243915
msat1_sx263 quick_test/fbank/raw_fbank_train.4.ark:5546754
mcew0_si812 quick_test/fbank/raw_fbank_train.2.ark:5036687
mcae0_si2077 quick_test/fbank/raw_fbank_train.2.ark:4418266
mljc0_sx415 quick_test/fbank/raw_fbank_train.3.ark:7518605
mbcg0_sx57 quick_test/fbank/raw_fbank_train.2.ark:3448149
fkfb0_sx348 quick_test/fbank/raw_fbank_train.1.ark:6557806
mcth0_si1839 quick_test/fbank/raw_fbank_train.2.ark:5726949
mjdm0_sx170 quick_test/fbank/raw_fbank_train.3.ark:2506973
mpeb0_sx60 quick_test/fbank/raw_fbank_train.3.ark:10896086
mjws0_sx243 quick_test/fbank/raw_fbank_train.3.ark:5295508
fcjs0_sx437 quick_test/fbank/raw_fbank_train.1.ark:1786874
mtmt0_si1748 quick_test/fbank/raw_fbank_train.4.ark:9119451
fmjb0_sx187 quick_test/fbank/raw_fbank_train.1.ark:8877121
fdkn0_sx91 quick_test/fbank/raw_fbank_train.1.ark:2888105
msfv0_si1892 quick_test/fbank/raw_fbank_train.4.ark:6230713
mljh0_si1324 quick_test/fbank/raw_fbank_train.3.ark:7540911
mmdg0_sx70 quick_test/fbank/raw_fbank_train.3.ark:8796738
mtmn0_sx344 quick_test/fbank/raw_fbank_train.4.ark:9076518
mbma1_si2214 quick_test/fbank/raw_fbank_train.2.ark:3838877
mter0_sx257 quick_test/fbank/raw_fbank_train.4.ark:8046587
makr0_sx272 quick_test/fbank/raw_fbank_train.2.ark:2847021
mrwa0_si1603 quick_test/fbank/raw_fbank_train.4.ark:4941029
mgrp0_sx147 quick_test/fbank/raw_fbank_train.3.ark:524160
feac0_si1875 quick_test/fbank/raw_fbank_train.1.ark:3439740
fbmj0_si516 quick_test/fbank/raw_fbank_train.1.ark:1162598
fpaz0_sx243 quick_test/fbank/raw_fbank_train.1.ark:10253034
mmds0_sx173 quick_test/fbank/raw_fbank_train.3.ark:9031962
mrlr0_sx296 quick_test/fbank/raw_fbank_train.4.ark:3674658
mlbc0_si1239 quick_test/fbank/raw_fbank_train.3.ark:7232996
mbth0_sx392 quick_test/fbank/raw_fbank_train.2.ark:4279213
mmvp0_si654 quick_test/fbank/raw_fbank_train.3.ark:10046084
mljc0_si1855 quick_test/fbank/raw_fbank_train.3.ark:7463800
makb0_sx296 quick_test/fbank/raw_fbank_train.2.ark:2789221
mjra0_sx246 quick_test/fbank/raw_fbank_train.3.ark:4479268
fcyl0_si1297 quick_test/fbank/raw_fbank_train.1.ark:2295266
flma0_sx73 quick_test/fbank/raw_fbank_train.1.ark:8123249
mjai0_sx434 quick_test/fbank/raw_fbank_train.3.ark:1948080
mdtb0_sx120 quick_test/fbank/raw_fbank_train.2.ark:9197370
fmmh0_si2167 quick_test/fbank/raw_fbank_train.1.ark:9361097
mrav0_sx108 quick_test/fbank/raw_fbank_train.4.ark:1006750
frjb0_sx167 quick_test/fbank/raw_fbank_train.1.ark:10715085
mtpf0_sx65 quick_test/fbank/raw_fbank_train.4.ark:9290313
mjee0_si1237 quick_test/fbank/raw_fbank_train.3.ark:2786308
mrhl0_sx75 quick_test/fbank/raw_fbank_train.4.ark:2563416
mmds0_si1343 quick_test/fbank/raw_fbank_train.3.ark:9002662
mrjb1_sx30 quick_test/fbank/raw_fbank_train.4.ark:2654816
mmaa0_sx215 quick_test/fbank/raw_fbank_train.3.ark:7924039
mjmm0_sx355 quick_test/fbank/raw_fbank_train.3.ark:4115841
mcdd0_sx73 quick_test/fbank/raw_fbank_train.2.ark:4790696
mdns0_sx381 quick_test/fbank/raw_fbank_train.2.ark:8490701
mdhs0_si900 quick_test/fbank/raw_fbank_train.2.ark:7118210
fdkn0_si1081 quick_test/fbank/raw_fbank_train.1.ark:2787113
mppc0_si1412 quick_test/fbank/raw_fbank_train.3.ark:11454885
mtcs0_sx442 quick_test/fbank/raw_fbank_train.4.ark:7735945
fear0_sx262 quick_test/fbank/raw_fbank_train.1.ark:3577664
mgxp0_si1087 quick_test/fbank/raw_fbank_train.3.ark:808732
mpeb0_sx240 quick_test/fbank/raw_fbank_train.3.ark:10858908
fdml0_sx159 quick_test/fbank/raw_fbank_train.1.ark:2932600
mcdc0_si1292 quick_test/fbank/raw_fbank_train.2.ark:4620320
flet0_si1767 quick_test/fbank/raw_fbank_train.1.ark:7434261
feac0_si615 quick_test/fbank/raw_fbank_train.1.ark:3453053
fmkc0_sx172 quick_test/fbank/raw_fbank_train.1.ark:9174915
mrjt0_si868 quick_test/fbank/raw_fbank_train.4.ark:3029778
mree0_sx384 quick_test/fbank/raw_fbank_train.4.ark:1735058
mtdp0_sx81 quick_test/fbank/raw_fbank_train.4.ark:7969268
mrms0_sx390 quick_test/fbank/raw_fbank_train.4.ark:4183019
mdcd0_sx155 quick_test/fbank/raw_fbank_train.2.ark:6435308
mdns0_si2271 quick_test/fbank/raw_fbank_train.2.ark:8422344
flod0_sx117 quick_test/fbank/raw_fbank_train.1.ark:8366954
fjkl0_sx212 quick_test/fbank/raw_fbank_train.1.ark:5205766
mkdd0_si1567 quick_test/fbank/raw_fbank_train.3.ark:6155839
mgsh0_si1806 quick_test/fbank/raw_fbank_train.3.ark:611999
mcal0_si508 quick_test/fbank/raw_fbank_train.2.ark:4546682
mjkr0_sx391 quick_test/fbank/raw_fbank_train.3.ark:3577274
flmk0_si1035 quick_test/fbank/raw_fbank_train.1.ark:8231708
mcal0_si1768 quick_test/fbank/raw_fbank_train.2.ark:4540009
mdhs0_si1530 quick_test/fbank/raw_fbank_train.2.ark:7097743
mwre0_sx427 quick_test/fbank/raw_fbank_train.4.ark:11229826
mded0_sx270 quick_test/fbank/raw_fbank_train.2.ark:6738856
mtbc0_si543 quick_test/fbank/raw_fbank_train.4.ark:7584028
mmaa0_sx395 quick_test/fbank/raw_fbank_train.3.ark:7958737
mtdb0_si1401 quick_test/fbank/raw_fbank_train.4.ark:7761531
mrlj0_si1420 quick_test/fbank/raw_fbank_train.4.ark:3324584
mmws0_sx258 quick_test/fbank/raw_fbank_train.3.ark:10314880
fsdj0_sx395 quick_test/fbank/raw_fbank_train.1.ark:11595016
mctm0_sx270 quick_test/fbank/raw_fbank_train.2.ark:5863793
fgrw0_si1152 quick_test/fbank/raw_fbank_train.1.ark:4498917
mjws0_sx423 quick_test/fbank/raw_fbank_train.3.ark:5326254
mkam0_si1250 quick_test/fbank/raw_fbank_train.3.ark:5950269
fmjb0_sx97 quick_test/fbank/raw_fbank_train.1.ark:8920050
fjxm0_sx131 quick_test/fbank/raw_fbank_train.1.ark:6005574
mtpg0_si753 quick_test/fbank/raw_fbank_train.4.ark:9321854
fgmb0_si515 quick_test/fbank/raw_fbank_train.1.ark:4416359
mkah0_sx358 quick_test/fbank/raw_fbank_train.3.ark:5829345
mprb0_sx125 quick_test/fbank/raw_fbank_train.4.ark:100044
fmjb0_sx7 quick_test/fbank/raw_fbank_train.1.ark:8907738
mefg0_si598 quick_test/fbank/raw_fbank_train.2.ark:9754887
mdmt0_si2341 quick_test/fbank/raw_fbank_train.2.ark:8316679
frjb0_sx437 quick_test/fbank/raw_fbank_train.1.ark:10753824
mmdm1_si2043 quick_test/fbank/raw_fbank_train.3.ark:8908751
mdtb0_sx210 quick_test/fbank/raw_fbank_train.2.ark:9209763
fbmh0_sx56 quick_test/fbank/raw_fbank_train.1.ark:1134211
mppc0_sx422 quick_test/fbank/raw_fbank_train.4.ark:24198
fpmy0_si1783 quick_test/fbank/raw_fbank_train.1.ark:10506928
mbma1_sx144 quick_test/fbank/raw_fbank_train.2.ark:3867823
fskc0_sx336 quick_test/fbank/raw_fbank_train.2.ark:308440
fklc1_sx418 quick_test/fbank/raw_fbank_train.1.ark:6889235
mdsj0_sx382 quick_test/fbank/raw_fbank_train.2.ark:8969273
mcre0_sx401 quick_test/fbank/raw_fbank_train.2.ark:5582985
mgrl0_sx417 quick_test/fbank/raw_fbank_train.3.ark:462434
fkfb0_si2238 quick_test/fbank/raw_fbank_train.1.ark:6510554
mesg0_sx252 quick_test/fbank/raw_fbank_train.2.ark:10176211
fjrb0_sx42 quick_test/fbank/raw_fbank_train.1.ark:5540180
fbmh0_sx416 quick_test/fbank/raw_fbank_train.1.ark:1123899
fajw0_sx93 quick_test/fbank/raw_fbank_train.1.ark:196227
fdfb0_sx238 quick_test/fbank/raw_fbank_train.1.ark:2648116
mtat1_sx419 quick_test/fbank/raw_fbank_train.4.ark:7540975
mkxl0_si1958 quick_test/fbank/raw_fbank_train.3.ark:7165758
mrav0_si2268 quick_test/fbank/raw_fbank_train.4.ark:991197
mfrm0_sx345 quick_test/fbank/raw_fbank_train.2.ark:10644408
mdss0_sx351 quick_test/fbank/raw_fbank_train.2.ark:9044786
mtwh1_sx162 quick_test/fbank/raw_fbank_train.4.ark:10035181
mmxs0_si629 quick_test/fbank/raw_fbank_train.3.ark:10455830
mgsl0_si534 quick_test/fbank/raw_fbank_train.3.ark:713021
mfmc0_si502 quick_test/fbank/raw_fbank_train.2.ark:10506443
mlns0_si1407 quick_test/fbank/raw_fbank_train.3.ark:7670456
feeh0_sx302 quick_test/fbank/raw_fbank_train.1.ark:3817107
marw0_si1906 quick_test/fbank/raw_fbank_train.2.ark:3083917
mdac0_si631 quick_test/fbank/raw_fbank_train.2.ark:6024217
fklh0_sx447 quick_test/fbank/raw_fbank_train.1.ark:6995180
fjhk0_sx32 quick_test/fbank/raw_fbank_train.1.ark:5137126
fdmy0_si567 quick_test/fbank/raw_fbank_train.1.ark:3001238
mrtj0_sx322 quick_test/fbank/raw_fbank_train.4.ark:4812665
fjrb0_sx132 quick_test/fbank/raw_fbank_train.1.ark:5482809
mrjt0_sx58 quick_test/fbank/raw_fbank_train.4.ark:3097182
mfer0_sx232 quick_test/fbank/raw_fbank_train.2.ark:10437004
mtkp0_si1023 quick_test/fbank/raw_fbank_train.4.ark:8599811
mmgk0_si1952 quick_test/fbank/raw_fbank_train.3.ark:9462261
mrld0_si2224 quick_test/fbank/raw_fbank_train.4.ark:3252633
frll0_sx344 quick_test/fbank/raw_fbank_train.1.ark:10847975
fsjw0_sx343 quick_test/fbank/raw_fbank_train.2.ark:214655
maeb0_sx270 quick_test/fbank/raw_fbank_train.2.ark:2359053
mmbs0_si521 quick_test/fbank/raw_fbank_train.3.ark:8416499
mfxv0_sx105 quick_test/fbank/raw_fbank_train.2.ark:10913619
fskl0_sx449 quick_test/fbank/raw_fbank_train.2.ark:421698
fkkh0_sx390 quick_test/fbank/raw_fbank_train.1.ark:6702376
fpad0_sx266 quick_test/fbank/raw_fbank_train.1.ark:10044143
msjk0_sx66 quick_test/fbank/raw_fbank_train.4.ark:6428375
mges0_sx41 quick_test/fbank/raw_fbank_train.3.ark:264175
mtab0_si1572 quick_test/fbank/raw_fbank_train.4.ark:7158301
mrfl0_si526 quick_test/fbank/raw_fbank_train.4.ark:2166259
mkes0_sx353 quick_test/fbank/raw_fbank_train.3.ark:6428774
majp0_sx264 quick_test/fbank/raw_fbank_train.2.ark:2638810
mdss1_sx337 quick_test/fbank/raw_fbank_train.2.ark:9135251
fcjs0_sx77 quick_test/fbank/raw_fbank_train.1.ark:1802706
mdlm0_si1864 quick_test/fbank/raw_fbank_train.2.ark:7909338
mpgh0_si675 quick_test/fbank/raw_fbank_train.3.ark:11028698
mcpm0_sx384 quick_test/fbank/raw_fbank_train.2.ark:5504192
mgaf0_sx202 quick_test/fbank/raw_fbank_train.2.ark:11015837
fskp0_si1728 quick_test/fbank/raw_fbank_train.2.ark:464118
fcdr1_si1186 quick_test/fbank/raw_fbank_train.1.ark:1433240
fcjf0_si1657 quick_test/fbank/raw_fbank_train.1.ark:1656684
mjra0_sx426 quick_test/fbank/raw_fbank_train.3.ark:4505854
mrjb1_sx210 quick_test/fbank/raw_fbank_train.4.ark:2644064
mmeb0_sx187 quick_test/fbank/raw_fbank_train.3.ark:9201092
mmpm0_sx161 quick_test/fbank/raw_fbank_train.3.ark:9745443
fkde0_sx241 quick_test/fbank/raw_fbank_train.1.ark:6342243
mmwb0_sx449 quick_test/fbank/raw_fbank_train.3.ark:10239162
mtlb0_sx324 quick_test/fbank/raw_fbank_train.4.ark:8762002
fleh0_si1051 quick_test/fbank/raw_fbank_train.1.ark:7321801
mmcc0_si1968 quick_test/fbank/raw_fbank_train.3.ark:8527731
mdma0_si1430 quick_test/fbank/raw_fbank_train.2.ark:8202533
fdaw0_sx326 quick_test/fbank/raw_fbank_train.1.ark:2572723
mtrr0_sx378 quick_test/fbank/raw_fbank_train.4.ark:9895502
msrg0_sx51 quick_test/fbank/raw_fbank_train.4.ark:6818954
fvmh0_sx26 quick_test/fbank/raw_fbank_train.2.ark:1993825
mtat0_si1110 quick_test/fbank/raw_fbank_train.4.ark:7353751
fcaj0_sx219 quick_test/fbank/raw_fbank_train.1.ark:1386028
mafm0_sx219 quick_test/fbank/raw_fbank_train.2.ark:2537784
flma0_sx433 quick_test/fbank/raw_fbank_train.1.ark:8109777
mprk0_sx17 quick_test/fbank/raw_fbank_train.4.ark:341886
fear0_sx352 quick_test/fbank/raw_fbank_train.1.ark:3588537
fdas1_sx291 quick_test/fbank/raw_fbank_train.1.ark:2480849
mrsp0_sx169 quick_test/fbank/raw_fbank_train.4.ark:4561189
flja0_sx358 quick_test/fbank/raw_fbank_train.1.ark:7678725
fjsp0_si804 quick_test/fbank/raw_fbank_train.1.ark:5801932
mrem0_si1591 quick_test/fbank/raw_fbank_train.4.ark:1859037
mrxb0_si1585 quick_test/fbank/raw_fbank_train.4.ark:5122799
msmr0_sx145 quick_test/fbank/raw_fbank_train.4.ark:6582493
mbom0_si1014 quick_test/fbank/raw_fbank_train.2.ark:4027053
mwgr0_si1606 quick_test/fbank/raw_fbank_train.4.ark:11059921
mkdb0_sx332 quick_test/fbank/raw_fbank_train.3.ark:6116180
fjkl0_sx302 quick_test/fbank/raw_fbank_train.1.ark:5220079
fbmh0_sx146 quick_test/fbank/raw_fbank_train.1.ark:1094240
ftbw0_si1345 quick_test/fbank/raw_fbank_train.2.ark:1437855
mrbc0_si1859 quick_test/fbank/raw_fbank_train.4.ark:1068949
mmwb0_si989 quick_test/fbank/raw_fbank_train.3.ark:10178150
fmmh0_sx187 quick_test/fbank/raw_fbank_train.1.ark:9388123
fssb0_si2342 quick_test/fbank/raw_fbank_train.2.ark:1187448
mjlg1_sx22 quick_test/fbank/raw_fbank_train.3.ark:3736059
fkfb0_sx438 quick_test/fbank/raw_fbank_train.1.ark:6572919
mdma0_si1238 quick_test/fbank/raw_fbank_train.2.ark:8193699
mtxs0_sx340 quick_test/fbank/raw_fbank_train.4.ark:10164473
mgsh0_si546 quick_test/fbank/raw_fbank_train.3.ark:624912
mdjm0_sx375 quick_test/fbank/raw_fbank_train.2.ark:7271199
mtmn0_sx254 quick_test/fbank/raw_fbank_train.4.ark:9067365
msat1_sx353 quick_test/fbank/raw_fbank_train.4.ark:5556787
fjdm2_sx232 quick_test/fbank/raw_fbank_train.1.ark:4892729
fkde0_si2221 quick_test/fbank/raw_fbank_train.1.ark:6320897
fjen0_sx327 quick_test/fbank/raw_fbank_train.1.ark:5009788
msfv0_sx182 quick_test/fbank/raw_fbank_train.4.ark:6265899
mree0_si1104 quick_test/fbank/raw_fbank_train.4.ark:1644066
mppc0_si2042 quick_test/fbank/raw_fbank_train.3.ark:11474919
mdlc2_sx354 quick_test/fbank/raw_fbank_train.2.ark:7759621
mtrt0_si1227 quick_test/fbank/raw_fbank_train.4.ark:9909656
mges0_sx221 quick_test/fbank/raw_fbank_train.3.ark:226997
fceg0_sx78 quick_test/fbank/raw_fbank_train.1.ark:1635896
mtat0_sx30 quick_test/fbank/raw_fbank_train.4.ark:7423796
mcdd0_sx163 quick_test/fbank/raw_fbank_train.2.ark:4746205
fdnc0_sx288 quick_test/fbank/raw_fbank_train.1.ark:3205908
mtlb0_si1134 quick_test/fbank/raw_fbank_train.4.ark:8704156
mclk0_sx400 quick_test/fbank/raw_fbank_train.2.ark:5324102
mhit0_sx263 quick_test/fbank/raw_fbank_train.3.ark:1060752
mrvg0_sx240 quick_test/fbank/raw_fbank_train.4.ark:4893257
fjsp0_sx354 quick_test/fbank/raw_fbank_train.1.ark:5839591
mrds0_sx447 quick_test/fbank/raw_fbank_train.4.ark:1625840
mtas0_sx35 quick_test/fbank/raw_fbank_train.4.ark:7334604
mbma0_sx52 quick_test/fbank/raw_fbank_train.2.ark:3819009
fhxs0_sx85 quick_test/fbank/raw_fbank_train.1.ark:4827481
mreh1_sx159 quick_test/fbank/raw_fbank_train.4.ark:1793792
fdtd0_si1561 quick_test/fbank/raw_fbank_train.1.ark:3235615
mklr0_si2319 quick_test/fbank/raw_fbank_train.3.ark:6675071
fsdj0_si485 quick_test/fbank/raw_fbank_train.1.ark:11547612
mclk0_sx40 quick_test/fbank/raw_fbank_train.2.ark:5312549
mgar0_sx222 quick_test/fbank/raw_fbank_train.3.ark:46667
mmgc0_sx405 quick_test/fbank/raw_fbank_train.3.ark:9329015
mvrw0_si1485 quick_test/fbank/raw_fbank_train.4.ark:10400422
ftbr0_sx291 quick_test/fbank/raw_fbank_train.2.ark:1417548
mhbs0_sx45 quick_test/fbank/raw_fbank_train.3.ark:996385
mdlc2_si1614 quick_test/fbank/raw_fbank_train.2.ark:7705615
mrjb1_sx120 quick_test/fbank/raw_fbank_train.4.ark:2627471
mrws0_si1102 quick_test/fbank/raw_fbank_train.4.ark:5036374
mbef0_si1281 quick_test/fbank/raw_fbank_train.2.ark:3458623
fkaa0_si578 quick_test/fbank/raw_fbank_train.1.ark:6199071
mkdb0_sx62 quick_test/fbank/raw_fbank_train.3.ark:6144565
fmkf0_sx366 quick_test/fbank/raw_fbank_train.1.ark:9306246
mlel0_si1876 quick_test/fbank/raw_fbank_train.3.ark:7342135
mkxl0_si1815 quick_test/fbank/raw_fbank_train.3.ark:7147724
mpgh0_sx114 quick_test/fbank/raw_fbank_train.3.ark:11055324
mfmc0_sx52 quick_test/fbank/raw_fbank_train.2.ark:10571367
fgmb0_si1145 quick_test/fbank/raw_fbank_train.1.ark:4384012
fpab1_si841 quick_test/fbank/raw_fbank_train.1.ark:9796187
fsdj0_sx35 quick_test/fbank/raw_fbank_train.1.ark:11585983
mgrp0_si1947 quick_test/fbank/raw_fbank_train.3.ark:500414
mjpg0_sx21 quick_test/fbank/raw_fbank_train.3.ark:4203145
mdac0_sx91 quick_test/fbank/raw_fbank_train.2.ark:6097301
fscn0_sx356 quick_test/fbank/raw_fbank_train.1.ark:11388620
mdlr1_si669 quick_test/fbank/raw_fbank_train.2.ark:8112581
mabc0_sx61 quick_test/fbank/raw_fbank_train.2.ark:2093396
mcss0_sx210 quick_test/fbank/raw_fbank_train.2.ark:5672623
mtat1_sx149 quick_test/fbank/raw_fbank_train.4.ark:7490276
mrgs0_si726 quick_test/fbank/raw_fbank_train.4.ark:2396469
mfxs0_si1674 quick_test/fbank/raw_fbank_train.2.ark:10775372
mdbp0_si1788 quick_test/fbank/raw_fbank_train.2.ark:6296857
mzmb0_sx266 quick_test/fbank/raw_fbank_train.4.ark:11611937
mmgc0_sx225 quick_test/fbank/raw_fbank_train.3.ark:9308229
mter0_sx17 quick_test/fbank/raw_fbank_train.4.ark:8038474
mgsh0_sx127 quick_test/fbank/raw_fbank_train.3.ark:641945
mdns0_si873 quick_test/fbank/raw_fbank_train.2.ark:8430657
mjpm0_sx198 quick_test/fbank/raw_fbank_train.3.ark:4293010
mbth0_sx122 quick_test/fbank/raw_fbank_train.2.ark:4227522
mkls1_sx195 quick_test/fbank/raw_fbank_train.3.ark:6909060
mrml0_si791 quick_test/fbank/raw_fbank_train.4.ark:4009189
fkdw0_sx307 quick_test/fbank/raw_fbank_train.1.ark:6461021
mpfu0_sx448 quick_test/fbank/raw_fbank_train.3.ark:10983599
mtpp0_sx248 quick_test/fbank/raw_fbank_train.4.ark:9434945
mnet0_si816 quick_test/fbank/raw_fbank_train.3.ark:10563328
fkaa0_sx38 quick_test/fbank/raw_fbank_train.1.ark:6252282
mejl0_sx62 quick_test/fbank/raw_fbank_train.2.ark:10017379
mtjm0_sx56 quick_test/fbank/raw_fbank_train.4.ark:8269582
mcef0_sx325 quick_test/fbank/raw_fbank_train.2.ark:4974081
mbom0_sx204 quick_test/fbank/raw_fbank_train.2.ark:4070147
mkrg0_si2121 quick_test/fbank/raw_fbank_train.3.ark:7059900
mtlc0_sx397 quick_test/fbank/raw_fbank_train.4.ark:8883612
marw0_sx286 quick_test/fbank/raw_fbank_train.2.ark:3125528
fsrh0_si1931 quick_test/fbank/raw_fbank_train.2.ark:1065389
fkkh0_si1920 quick_test/fbank/raw_fbank_train.1.ark:6627299
mpsw0_sx437 quick_test/fbank/raw_fbank_train.4.ark:542042
fdjh0_si935 quick_test/fbank/raw_fbank_train.1.ark:2715635
mdbp0_si1158 quick_test/fbank/raw_fbank_train.2.ark:6289383
fksr0_si1117 quick_test/fbank/raw_fbank_train.1.ark:7017286
mjhi0_sx248 quick_test/fbank/raw_fbank_train.3.ark:3124155
mpmb0_sx421 quick_test/fbank/raw_fbank_train.3.ark:11411099
fmpg0_si2232 quick_test/fbank/raw_fbank_train.1.ark:9458280
mtml0_si1695 quick_test/fbank/raw_fbank_train.4.ark:8906600
msah1_sx329 quick_test/fbank/raw_fbank_train.4.ark:5273631
mwar0_sx235 quick_test/fbank/raw_fbank_train.4.ark:10728952
mjmd0_sx38 quick_test/fbank/raw_fbank_train.3.ark:4027808
msrg0_sx141 quick_test/fbank/raw_fbank_train.4.ark:6774983
fnkl0_si2152 quick_test/fbank/raw_fbank_train.1.ark:9582305
mtml0_si1065 quick_test/fbank/raw_fbank_train.4.ark:8893926
fbas0_sx307 quick_test/fbank/raw_fbank_train.1.ark:602661
mgak0_si2296 quick_test/fbank/raw_fbank_train.2.ark:11173381
mpar0_sx46 quick_test/fbank/raw_fbank_train.3.ark:10811581
mjmd0_si1658 quick_test/fbank/raw_fbank_train.3.ark:3975083
mprk0_sx107 quick_test/fbank/raw_fbank_train.4.ark:329494
mdhl0_sx449 quick_test/fbank/raw_fbank_train.2.ark:7072157
mmam0_sx157 quick_test/fbank/raw_fbank_train.3.ark:8221002
mhrm0_si2218 quick_test/fbank/raw_fbank_train.3.ark:1385434
mdmt0_sx122 quick_test/fbank/raw_fbank_train.2.ark:8339145
mrab1_sx128 quick_test/fbank/raw_fbank_train.4.ark:704233
fetb0_si1148 quick_test/fbank/raw_fbank_train.1.ark:3962311
megj0_sx257 quick_test/fbank/raw_fbank_train.2.ark:9896538
fceg0_sx168 quick_test/fbank/raw_fbank_train.1.ark:1590605
msat1_sx83 quick_test/fbank/raw_fbank_train.4.ark:5580092
mmxs0_sx246 quick_test/fbank/raw_fbank_train.3.ark:10491129
mrmb0_sx231 quick_test/fbank/raw_fbank_train.4.ark:3744258
flag0_si2094 quick_test/fbank/raw_fbank_train.1.ark:7228770
fpls0_si1590 quick_test/fbank/raw_fbank_train.1.ark:10394991
mcth0_sx309 quick_test/fbank/raw_fbank_train.2.ark:5774081
mjdc0_sx351 quick_test/fbank/raw_fbank_train.3.ark:2215524
fcag0_si2133 quick_test/fbank/raw_fbank_train.1.ark:1272777
mkrg0_sx141 quick_test/fbank/raw_fbank_train.3.ark:7092326
mkrg0_si1491 quick_test/fbank/raw_fbank_train.3.ark:7044106
mmgg0_sx89 quick_test/fbank/raw_fbank_train.3.ark:9438753
mjac0_si701 quick_test/fbank/raw_fbank_train.3.ark:1684098
fjsp0_sx444 quick_test/fbank/raw_fbank_train.1.ark:5850824
mdss0_sx81 quick_test/fbank/raw_fbank_train.2.ark:9068131
mdmt0_sx392 quick_test/fbank/raw_fbank_train.2.ark:8389236
mjra0_sx336 quick_test/fbank/raw_fbank_train.3.ark:4488981
mbml0_sx89 quick_test/fbank/raw_fbank_train.2.ark:4016419
mklw0_sx221 quick_test/fbank/raw_fbank_train.3.ark:6986334
flja0_sx448 quick_test/fbank/raw_fbank_train.1.ark:7690838
mrso0_sx309 quick_test/fbank/raw_fbank_train.4.ark:4474070
fbmh0_sx326 quick_test/fbank/raw_fbank_train.1.ark:1113906
mrso0_sx129 quick_test/fbank/raw_fbank_train.4.ark:4444884
mgxp0_sx187 quick_test/fbank/raw_fbank_train.3.ark:858151
mjac0_sx307 quick_test/fbank/raw_fbank_train.3.ark:1719284
mtwh1_si1512 quick_test/fbank/raw_fbank_train.4.ark:10004481
mmdb0_si1617 quick_test/fbank/raw_fbank_train.3.ark:8622156
fsjg0_si2200 quick_test/fbank/raw_fbank_train.1.ark:11719189
mjdg0_si1672 quick_test/fbank/raw_fbank_train.3.ark:2389601
mrdm0_sx335 quick_test/fbank/raw_fbank_train.4.ark:1521262
mbma0_sx232 quick_test/fbank/raw_fbank_train.2.ark:3782591
mtab0_sx132 quick_test/fbank/raw_fbank_train.4.ark:7205521
mrjm1_sx218 quick_test/fbank/raw_fbank_train.4.ark:2959139
mrmb0_si1581 quick_test/fbank/raw_fbank_train.4.ark:3693765
mjrk0_si2103 quick_test/fbank/raw_fbank_train.3.ark:4833230
mbth0_sx302 quick_test/fbank/raw_fbank_train.2.ark:4256108
mdef0_sx393 quick_test/fbank/raw_fbank_train.2.ark:6869820
mchl0_sx357 quick_test/fbank/raw_fbank_train.2.ark:5198492
mppc0_sx242 quick_test/fbank/raw_fbank_train.4.ark:12
flag0_sx114 quick_test/fbank/raw_fbank_train.1.ark:7256596
msdb0_sx287 quick_test/fbank/raw_fbank_train.4.ark:5645005
mdhl0_si1439 quick_test/fbank/raw_fbank_train.2.ark:6999558
msah1_sx149 quick_test/fbank/raw_fbank_train.4.ark:5250245
ftbr0_sx111 quick_test/fbank/raw_fbank_train.2.ark:1386050
mkls0_sx357 quick_test/fbank/raw_fbank_train.3.ark:6808636
mtrc0_sx170 quick_test/fbank/raw_fbank_train.4.ark:9759386
mrkm0_si1391 quick_test/fbank/raw_fbank_train.4.ark:3132210
fjxm0_sx221 quick_test/fbank/raw_fbank_train.1.ark:6016487
mvrw0_sx405 quick_test/fbank/raw_fbank_train.4.ark:10462061
mhbs0_si945 quick_test/fbank/raw_fbank_train.3.ark:939381
mrjm1_sx398 quick_test/fbank/raw_fbank_train.4.ark:2997477
fntb0_si679 quick_test/fbank/raw_fbank_train.1.ark:9689962
fjlg0_sx269 quick_test/fbank/raw_fbank_train.1.ark:5299992
mjlg1_si1012 quick_test/fbank/raw_fbank_train.3.ark:3678213
fklc0_si1615 quick_test/fbank/raw_fbank_train.1.ark:6715130
fjlg0_sx89 quick_test/fbank/raw_fbank_train.1.ark:5340290
mdsj0_si1462 quick_test/fbank/raw_fbank_train.2.ark:8896395
fear0_sx82 quick_test/fbank/raw_fbank_train.1.ark:3621842
mgxp0_sx97 quick_test/fbank/raw_fbank_train.3.ark:905040
mdss0_si2087 quick_test/fbank/raw_fbank_train.2.ark:9005614
mtkd0_si1817 quick_test/fbank/raw_fbank_train.4.ark:8502300
mjjm0_sx107 quick_test/fbank/raw_fbank_train.3.ark:3432518
mrmg0_si1710 quick_test/fbank/raw_fbank_train.4.ark:3799944
mpeb0_sx420 quick_test/fbank/raw_fbank_train.3.ark:10881974
mrfk0_sx266 quick_test/fbank/raw_fbank_train.4.ark:2098300
mdwd0_si557 quick_test/fbank/raw_fbank_train.2.ark:9283963
flet0_si1137 quick_test/fbank/raw_fbank_train.1.ark:7421587
fjwb1_si2055 quick_test/fbank/raw_fbank_train.1.ark:5876770
fdaw0_sx56 quick_test/fbank/raw_fbank_train.1.ark:2595188
fvmh0_si2096 quick_test/fbank/raw_fbank_train.2.ark:1944494
mrbc0_sx59 quick_test/fbank/raw_fbank_train.4.ark:1146306
mrem0_sx421 quick_test/fbank/raw_fbank_train.4.ark:1933675
fpaf0_si1684 quick_test/fbank/raw_fbank_train.1.ark:10115189
mjlg1_sx382 quick_test/fbank/raw_fbank_train.3.ark:3757765
mjpg0_sx381 quick_test/fbank/raw_fbank_train.3.ark:4219731
falk0_sx276 quick_test/fbank/raw_fbank_train.1.ark:262553
fjkl0_si1562 quick_test/fbank/raw_fbank_train.1.ark:5159513
mjjb0_sx239 quick_test/fbank/raw_fbank_train.3.ark:3222501
mcss0_si1380 quick_test/fbank/raw_fbank_train.2.ark:5609571
mgag0_si1321 quick_test/fbank/raw_fbank_train.2.ark:11052729
fsjk1_sx395 quick_test/fbank/raw_fbank_train.2.ark:32110
mrab0_sx54 quick_test/fbank/raw_fbank_train.4.ark:651379
mjpm1_sx401 quick_test/fbank/raw_fbank_train.3.ark:4403389
fetb0_sx248 quick_test/fbank/raw_fbank_train.1.ark:4010684
fskc0_si786 quick_test/fbank/raw_fbank_train.2.ark:280901
fsag0_sx333 quick_test/fbank/raw_fbank_train.1.ark:10943600
msrr0_sx141 quick_test/fbank/raw_fbank_train.4.ark:6874608
mdem0_si1868 quick_test/fbank/raw_fbank_train.2.ark:6878254
flac0_si1339 quick_test/fbank/raw_fbank_train.1.ark:7115751
mtjs0_sx22 quick_test/fbank/raw_fbank_train.4.ark:8356581
mabc0_sx331 quick_test/fbank/raw_fbank_train.2.ark:2073531
mpgr1_si2129 quick_test/fbank/raw_fbank_train.3.ark:11214742
mtat0_sx390 quick_test/fbank/raw_fbank_train.4.ark:7440542
mtcs0_si2265 quick_test/fbank/raw_fbank_train.4.ark:7670060
mrab0_sx144 quick_test/fbank/raw_fbank_train.4.ark:600768
mcre0_sx41 quick_test/fbank/raw_fbank_train.2.ark:5595377
fbas0_si1472 quick_test/fbank/raw_fbank_train.1.ark:541808
flod0_sx171 quick_test/fbank/raw_fbank_train.1.ark:8376507
fksr0_sx366 quick_test/fbank/raw_fbank_train.1.ark:7077292
mrlj0_sx250 quick_test/fbank/raw_fbank_train.4.ark:3375517
mrjm0_sx418 quick_test/fbank/raw_fbank_train.4.ark:2880660
mdtb0_si570 quick_test/fbank/raw_fbank_train.2.ark:9183417
mtjm0_sx416 quick_test/fbank/raw_fbank_train.4.ark:8258950
mprd0_sx261 quick_test/fbank/raw_fbank_train.4.ark:229422
mdlc1_sx85 quick_test/fbank/raw_fbank_train.2.ark:7696541
mkln0_sx248 quick_test/fbank/raw_fbank_train.3.ark:6602631
mcdc0_sx212 quick_test/fbank/raw_fbank_train.2.ark:4665333
mdwm0_sx106 quick_test/fbank/raw_fbank_train.2.ark:9500606
mhxl0_sx242 quick_test/fbank/raw_fbank_train.3.ark:1519917
fcag0_sx243 quick_test/fbank/raw_fbank_train.1.ark:1294643
mmcc0_sx438 quick_test/fbank/raw_fbank_train.3.ark:8582536
mprt0_sx130 quick_test/fbank/raw_fbank_train.4.ark:431518
fblv0_sx248 quick_test/fbank/raw_fbank_train.1.ark:999568
mtxs0_sx430 quick_test/fbank/raw_fbank_train.4.ark:10177026
mfwk0_sx259 quick_test/fbank/raw_fbank_train.2.ark:10721920
mclm0_sx286 quick_test/fbank/raw_fbank_train.2.ark:5397814
msas0_si746 quick_test/fbank/raw_fbank_train.4.ark:5341437
fscn0_si705 quick_test/fbank/raw_fbank_train.1.ark:11333241
mmag0_si496 quick_test/fbank/raw_fbank_train.3.ark:8108063
mljc0_sx55 quick_test/fbank/raw_fbank_train.3.ark:7529757
fmkc0_si1702 quick_test/fbank/raw_fbank_train.1.ark:9166682
mapv0_si1293 quick_test/fbank/raw_fbank_train.2.ark:2884713
mrgm0_si1162 quick_test/fbank/raw_fbank_train.4.ark:2249817
mkjo0_si1517 quick_test/fbank/raw_fbank_train.3.ark:6465913
mjra0_si606 quick_test/fbank/raw_fbank_train.3.ark:4456042
flod0_sx207 quick_test/fbank/raw_fbank_train.1.ark:8392020
fmjf0_sx264 quick_test/fbank/raw_fbank_train.1.ark:8983017
mjde0_si463 quick_test/fbank/raw_fbank_train.3.ark:2270936
mwem0_si1950 quick_test/fbank/raw_fbank_train.4.ark:10978243
fbcg1_sx172 quick_test/fbank/raw_fbank_train.1.ark:665060
fpab1_sx121 quick_test/fbank/raw_fbank_train.1.ark:9815980
mmab1_sx54 quick_test/fbank/raw_fbank_train.3.ark:8061682
mjma0_sx325 quick_test/fbank/raw_fbank_train.3.ark:3936270
mdhs0_sx180 quick_test/fbank/raw_fbank_train.2.ark:7135763
faem0_sx132 quick_test/fbank/raw_fbank_train.1.ark:39913
mrew1_si2130 quick_test/fbank/raw_fbank_train.4.ark:1968375
mjkr0_si571 quick_test/fbank/raw_fbank_train.3.ark:3513870
mjls0_sx16 quick_test/fbank/raw_fbank_train.3.ark:3826891
fkaa0_sx218 quick_test/fbank/raw_fbank_train.1.ark:6224017
mrdd0_sx60 quick_test/fbank/raw_fbank_train.4.ark:1444982
fsmm0_sx324 quick_test/fbank/raw_fbank_train.2.ark:805646
mdlc0_sx405 quick_test/fbank/raw_fbank_train.2.ark:7584803
mdps0_si1651 quick_test/fbank/raw_fbank_train.2.ark:8693945
msfh0_si586 quick_test/fbank/raw_fbank_train.4.ark:6136481
fcjf0_sx307 quick_test/fbank/raw_fbank_train.1.ark:1696696
fdjh0_sx305 quick_test/fbank/raw_fbank_train.1.ark:2754054
msds0_sx177 quick_test/fbank/raw_fbank_train.4.ark:5815478
mjdg0_si1042 quick_test/fbank/raw_fbank_train.3.ark:2378207
mpsw0_sx77 quick_test/fbank/raw_fbank_train.4.ark:554594
msms0_sx173 quick_test/fbank/raw_fbank_train.4.ark:6678998
mtdp0_sx441 quick_test/fbank/raw_fbank_train.4.ark:7953516
mrjm1_sx308 quick_test/fbank/raw_fbank_train.4.ark:2971452
mpmb0_si2131 quick_test/fbank/raw_fbank_train.3.ark:11314654
mvlo0_sx337 quick_test/fbank/raw_fbank_train.4.ark:10363003
mzmb0_sx446 quick_test/fbank/raw_fbank_train.4.ark:11636003
fjkl0_si2192 quick_test/fbank/raw_fbank_train.1.ark:5164747
mtmn0_si582 quick_test/fbank/raw_fbank_train.4.ark:9031379
fmkf0_sx6 quick_test/fbank/raw_fbank_train.1.ark:9321757
mhxl0_sx422 quick_test/fbank/raw_fbank_train.3.ark:1546903
fsjs0_sx451 quick_test/fbank/raw_fbank_train.2.ark:121743
mtas0_si755 quick_test/fbank/raw_fbank_train.4.ark:7296833
flet0_sx147 quick_test/fbank/raw_fbank_train.1.ark:7466647
mtpr0_sx70 quick_test/fbank/raw_fbank_train.4.ark:9585748
mtmt0_sx38 quick_test/fbank/raw_fbank_train.4.ark:9180975
maeo0_sx246 quick_test/fbank/raw_fbank_train.2.ark:2451639
mdmt0_sx302 quick_test/fbank/raw_fbank_train.2.ark:8366931
mmgg0_sx449 quick_test/fbank/raw_fbank_train.3.ark:9421361
fdfb0_sx148 quick_test/fbank/raw_fbank_train.1.ark:2638483
mtpg0_sx33 quick_test/fbank/raw_fbank_train.4.ark:9368745
mmcc0_si708 quick_test/fbank/raw_fbank_train.3.ark:8537044
falk0_sx186 quick_test/fbank/raw_fbank_train.1.ark:252640
mrre0_sx434 quick_test/fbank/raw_fbank_train.4.ark:4369797
mtkd0_sx287 quick_test/fbank/raw_fbank_train.4.ark:8571024
mjrh0_sx405 quick_test/fbank/raw_fbank_train.3.ark:4705625
fkkh0_sx120 quick_test/fbank/raw_fbank_train.1.ark:6659245
mbml0_si1169 quick_test/fbank/raw_fbank_train.2.ark:3937348
mkah0_sx178 quick_test/fbank/raw_fbank_train.3.ark:5799319
msfv0_sx362 quick_test/fbank/raw_fbank_train.4.ark:6288205
mwgr0_sx346 quick_test/fbank/raw_fbank_train.4.ark:11121327
mprk0_si1097 quick_test/fbank/raw_fbank_train.4.ark:276994
fkaa0_si1208 quick_test/fbank/raw_fbank_train.1.ark:6174444
mhbs0_sx315 quick_test/fbank/raw_fbank_train.3.ark:976200
mjrg0_si1366 quick_test/fbank/raw_fbank_train.3.ark:4529000
mgjc0_sx75 quick_test/fbank/raw_fbank_train.3.ark:375521
mtju0_sx40 quick_test/fbank/raw_fbank_train.4.ark:8468399
mrkm0_si637 quick_test/fbank/raw_fbank_train.4.ark:3152843
mabc0_si781 quick_test/fbank/raw_fbank_train.2.ark:2037672
fhxs0_sx175 quick_test/fbank/raw_fbank_train.1.ark:4775550
mmvp0_si1914 quick_test/fbank/raw_fbank_train.3.ark:10034331
mgrp0_si1317 quick_test/fbank/raw_fbank_train.3.ark:482900
mkaj0_sx334 quick_test/fbank/raw_fbank_train.3.ark:5923130
fkaa0_sx128 quick_test/fbank/raw_fbank_train.1.ark:6213664
fcjf0_sx217 quick_test/fbank/raw_fbank_train.1.ark:1689503
mjpm0_si1998 quick_test/fbank/raw_fbank_train.3.ark:4246199
msrg0_sx411 quick_test/fbank/raw_fbank_train.4.ark:6807002
mmaa0_sx35 quick_test/fbank/raw_fbank_train.3.ark:7948704
fdxw0_sx161 quick_test/fbank/raw_fbank_train.1.ark:3373381
mwsh0_si796 quick_test/fbank/raw_fbank_train.4.ark:11469006
mrjm0_si1228 quick_test/fbank/raw_fbank_train.4.ark:2816254
mpgr1_sx239 quick_test/fbank/raw_fbank_train.3.ark:11240568
mgag0_sx151 quick_test/fbank/raw_fbank_train.2.ark:11092268
mvlo0_sx67 quick_test/fbank/raw_fbank_train.4.ark:10384708
mcth0_sx399 quick_test/fbank/raw_fbank_train.2.ark:5799346
msrg0_si591 quick_test/fbank/raw_fbank_train.4.ark:6758750
mkdd0_sx217 quick_test/fbank/raw_fbank_train.3.ark:6215572
mrlj0_sx70 quick_test/fbank/raw_fbank_train.4.ark:3409655
fsms1_si2134 quick_test/fbank/raw_fbank_train.2.ark:863459
mvjh0_si926 quick_test/fbank/raw_fbank_train.4.ark:10238199
mejs0_sx430 quick_test/fbank/raw_fbank_train.2.ark:10105412
mjee0_si1867 quick_test/fbank/raw_fbank_train.3.ark:2799502
fnkl0_sx172 quick_test/fbank/raw_fbank_train.1.ark:9611891
mprk0_si467 quick_test/fbank/raw_fbank_train.4.ark:312341
mbgt0_si711 quick_test/fbank/raw_fbank_train.2.ark:3565715
mges0_sx401 quick_test/fbank/raw_fbank_train.3.ark:254383
fcaj0_sx309 quick_test/fbank/raw_fbank_train.1.ark:1399221
maeo0_sx66 quick_test/fbank/raw_fbank_train.2.ark:2490137
mhmr0_sx129 quick_test/fbank/raw_fbank_train.3.ark:1317835
feme0_sx245 quick_test/fbank/raw_fbank_train.1.ark:3909579
mdpk0_sx63 quick_test/fbank/raw_fbank_train.2.ark:8684191
mgaw0_si1165 quick_test/fbank/raw_fbank_train.3.ark:99239
fsah0_sx327 quick_test/fbank/raw_fbank_train.1.ark:11052192
faem0_sx42 quick_test/fbank/raw_fbank_train.1.ark:91084
mjfh0_si477 quick_test/fbank/raw_fbank_train.3.ark:2905800
mtrc0_si589 quick_test/fbank/raw_fbank_train.4.ark:9734520
fklh0_si627 quick_test/fbank/raw_fbank_train.1.ark:6946728
fjlg0_si2306 quick_test/fbank/raw_fbank_train.1.ark:5279526
mmab1_si864 quick_test/fbank/raw_fbank_train.3.ark:7987398
fvmh0_sx206 quick_test/fbank/raw_fbank_train.2.ark:1981553
fsmm0_si1314 quick_test/fbank/raw_fbank_train.2.ark:744920
mcdc0_sx122 quick_test/fbank/raw_fbank_train.2.ark:4651980
mwem0_si1320 quick_test/fbank/raw_fbank_train.4.ark:10955175
mdrd0_si752 quick_test/fbank/raw_fbank_train.2.ark:8805877
mmab1_sx234 quick_test/fbank/raw_fbank_train.3.ark:8019144
mjeb0_sx386 quick_test/fbank/raw_fbank_train.3.ark:2669529
mrmh0_sx211 quick_test/fbank/raw_fbank_train.4.ark:3940470
fgcs0_sx316 quick_test/fbank/raw_fbank_train.1.ark:4236488
fcaj0_si1804 quick_test/fbank/raw_fbank_train.1.ark:1352489
ftaj0_sx429 quick_test/fbank/raw_fbank_train.2.ark:1321244
fkdw0_sx37 quick_test/fbank/raw_fbank_train.1.ark:6468853
frll0_sx164 quick_test/fbank/raw_fbank_train.1.ark:10824829
ftlg0_sx213 quick_test/fbank/raw_fbank_train.2.ark:1598852
msah1_si1679 quick_test/fbank/raw_fbank_train.4.ark:5233898
fbcg1_si2242 quick_test/fbank/raw_fbank_train.1.ark:640234
mdps0_sx89 quick_test/fbank/raw_fbank_train.2.ark:8774296
fsbk0_sx169 quick_test/fbank/raw_fbank_train.1.ark:11231170
msmr0_si775 quick_test/fbank/raw_fbank_train.4.ark:6571980
mpgh0_si924 quick_test/fbank/raw_fbank_train.3.ark:11045411
mdlh0_sx340 quick_test/fbank/raw_fbank_train.2.ark:7861125
mjrk0_sx160 quick_test/fbank/raw_fbank_train.3.ark:4857776
fclt0_sx88 quick_test/fbank/raw_fbank_train.1.ark:1986316
mrxb0_sx325 quick_test/fbank/raw_fbank_train.4.ark:5189765
makr0_sx362 quick_test/fbank/raw_fbank_train.2.ark:2853854
mjde0_si1120 quick_test/fbank/raw_fbank_train.3.ark:2245663
msmc0_sx377 quick_test/fbank/raw_fbank_train.4.ark:6526999
fclt0_sx358 quick_test/fbank/raw_fbank_train.1.ark:1965411
flhd0_si1974 quick_test/fbank/raw_fbank_train.1.ark:7534840
mgaw0_sx85 quick_test/fbank/raw_fbank_train.3.ark:184350
mjls0_sx286 quick_test/fbank/raw_fbank_train.3.ark:3844277
mkdd0_si2197 quick_test/fbank/raw_fbank_train.3.ark:6172873
mlsh0_si787 quick_test/fbank/raw_fbank_train.3.ark:7789148
msah1_sx239 quick_test/fbank/raw_fbank_train.4.ark:5263158
fceg0_si618 quick_test/fbank/raw_fbank_train.1.ark:1580492
mmsm0_sx386 quick_test/fbank/raw_fbank_train.3.ark:10010583
mhit0_si1613 quick_test/fbank/raw_fbank_train.3.ark:1006379
mmsm0_si1106 quick_test/fbank/raw_fbank_train.3.ark:9919472
fmkf0_sx96 quick_test/fbank/raw_fbank_train.1.ark:9331749
fexm0_si482 quick_test/fbank/raw_fbank_train.1.ark:4086763
mrlk0_sx213 quick_test/fbank/raw_fbank_train.4.ark:3562688
mprk0_sx377 quick_test/fbank/raw_fbank_train.4.ark:382745
mdas0_sx6 quick_test/fbank/raw_fbank_train.2.ark:6175891
mhit0_sx173 quick_test/fbank/raw_fbank_train.3.ark:1046079
mjwt0_si751 quick_test/fbank/raw_fbank_train.3.ark:5391067
msdb0_si1637 quick_test/fbank/raw_fbank_train.4.ark:5606680
mtqc0_si1441 quick_test/fbank/raw_fbank_train.4.ark:9590262
mrdm0_si1595 quick_test/fbank/raw_fbank_train.4.ark:1475650
fgrw0_sx342 quick_test/fbank/raw_fbank_train.1.ark:4573484
fkdw0_sx217 quick_test/fbank/raw_fbank_train.1.ark:6453348
flja0_si2338 quick_test/fbank/raw_fbank_train.1.ark:7639826
medr0_sx114 quick_test/fbank/raw_fbank_train.2.ark:9679577
mrdd0_sx330 quick_test/fbank/raw_fbank_train.4.ark:1432070
mklr0_sx249 quick_test/fbank/raw_fbank_train.3.ark:6694257
feme0_sx425 quick_test/fbank/raw_fbank_train.1.ark:3940285
mtpg0_sx123 quick_test/fbank/raw_fbank_train.4.ark:9337847
mrsp0_sx259 quick_test/fbank/raw_fbank_train.4.ark:4582255
mrtj0_sx52 quick_test/fbank/raw_fbank_train.4.ark:4837610
fcjs0_si1607 quick_test/fbank/raw_fbank_train.1.ark:1722195
mtdp0_si1521 quick_test/fbank/raw_fbank_train.4.ark:7869270
mkdt0_sx83 quick_test/fbank/raw_fbank_train.3.ark:6347054
fdkn0_sx181 quick_test/fbank/raw_fbank_train.1.ark:2828094
mpmb0_sx61 quick_test/fbank/raw_fbank_train.3.ark:11435171
mkls0_sx267 quick_test/fbank/raw_fbank_train.3.ark:6793323
fsls0_si1686 quick_test/fbank/raw_fbank_train.2.ark:551303
fjlg0_sx179 quick_test/fbank/raw_fbank_train.1.ark:5287039
mddc0_sx429 quick_test/fbank/raw_fbank_train.2.ark:6659777
mpsw0_sx257 quick_test/fbank/raw_fbank_train.4.ark:533609
mlns0_sx57 quick_test/fbank/raw_fbank_train.3.ark:7750767
mbth0_sx32 quick_test/fbank/raw_fbank_train.2.ark:4267740
mrpc1_sx402 quick_test/fbank/raw_fbank_train.4.ark:4259493
fjlr0_sx151 quick_test/fbank/raw_fbank_train.1.ark:5387944
milb0_si2163 quick_test/fbank/raw_fbank_train.3.ark:1574529
fpls0_sx3 quick_test/fbank/raw_fbank_train.1.ark:10455995
mmgg0_sx179 quick_test/fbank/raw_fbank_train.3.ark:9386422
fvfb0_sx402 quick_test/fbank/raw_fbank_train.2.ark:1808529
mmws1_si1701 quick_test/fbank/raw_fbank_train.3.ark:10380086
mtkp0_sx393 quick_test/fbank/raw_fbank_train.4.ark:8694162
mrjm1_si1298 quick_test/fbank/raw_fbank_train.4.ark:2909966
mjee0_sx427 quick_test/fbank/raw_fbank_train.3.ark:2857587
fjkl0_sx392 quick_test/fbank/raw_fbank_train.1.ark:5241144
fhxs0_si2335 quick_test/fbank/raw_fbank_train.1.ark:4764717
mdlb0_sx406 quick_test/fbank/raw_fbank_train.2.ark:7474218
msmc0_si509 quick_test/fbank/raw_fbank_train.4.ark:6449402
mdpb0_sx326 quick_test/fbank/raw_fbank_train.2.ark:8572301
mntw0_si1068 quick_test/fbank/raw_fbank_train.3.ark:10627364
fcke0_si1741 quick_test/fbank/raw_fbank_train.1.ark:1819694
mhbs0_sx225 quick_test/fbank/raw_fbank_train.3.ark:968407
mrjt0_sx328 quick_test/fbank/raw_fbank_train.4.ark:3069037
mmds0_si1973 quick_test/fbank/raw_fbank_train.3.ark:9018056
mapv0_sx303 quick_test/fbank/raw_fbank_train.2.ark:2961759
mkln0_sx338 quick_test/fbank/raw_fbank_train.3.ark:6611984
fsah0_sx74 quick_test/fbank/raw_fbank_train.1.ark:11091770
fdxw0_si1511 quick_test/fbank/raw_fbank_train.1.ark:3343801
mjxl0_si1172 quick_test/fbank/raw_fbank_train.3.ark:5556730
mdps0_sx269 quick_test/fbank/raw_fbank_train.2.ark:8738078
mdas0_si1266 quick_test/fbank/raw_fbank_train.2.ark:6106815
mjls0_sx196 quick_test/fbank/raw_fbank_train.3.ark:3836644
mrld0_sx64 quick_test/fbank/raw_fbank_train.4.ark:3315750
mses0_sx149 quick_test/fbank/raw_fbank_train.4.ark:6046929
fcyl0_sx127 quick_test/fbank/raw_fbank_train.1.ark:2340486
fcjf0_sx37 quick_test/fbank/raw_fbank_train.1.ark:1702768
mtml0_sx75 quick_test/fbank/raw_fbank_train.4.ark:8988198
fmah1_sx159 quick_test/fbank/raw_fbank_train.1.ark:8561686
mkln0_si2228 quick_test/fbank/raw_fbank_train.3.ark:6568972
mjrh1_si514 quick_test/fbank/raw_fbank_train.3.ark:4758558
mjjb0_si1139 quick_test/fbank/raw_fbank_train.3.ark:3171447
mkaj0_sx424 quick_test/fbank/raw_fbank_train.3.ark:5931403
fcrz0_sx253 quick_test/fbank/raw_fbank_train.1.ark:2250894
mclk0_sx310 quick_test/fbank/raw_fbank_train.2.ark:5303037
mpgh0_sx384 quick_test/fbank/raw_fbank_train.3.ark:11090095
fksr0_si487 quick_test/fbank/raw_fbank_train.1.ark:7041473
fbjl0_sx22 quick_test/fbank/raw_fbank_train.1.ark:901294
mbar0_sx419 quick_test/fbank/raw_fbank_train.2.ark:3253107
msjk0_si1596 quick_test/fbank/raw_fbank_train.4.ark:6333024
mreh1_sx249 quick_test/fbank/raw_fbank_train.4.ark:1808265
frjb0_si1427 quick_test/fbank/raw_fbank_train.1.ark:10690344
ftbw0_si1975 quick_test/fbank/raw_fbank_train.2.ark:1447209
mwrp0_si1525 quick_test/fbank/raw_fbank_train.4.ark:11273686
msdh0_si980 quick_test/fbank/raw_fbank_train.4.ark:5674379
mtrc0_si993 quick_test/fbank/raw_fbank_train.4.ark:9751193
fdjh0_si1565 quick_test/fbank/raw_fbank_train.1.ark:2692888
mejs0_sx340 quick_test/fbank/raw_fbank_train.2.ark:10094539
msat1_si2333 quick_test/fbank/raw_fbank_train.4.ark:5520288
fmju0_sx219 quick_test/fbank/raw_fbank_train.1.ark:9089842
mrjm1_sx128 quick_test/fbank/raw_fbank_train.4.ark:2949586
msfv0_si1262 quick_test/fbank/raw_fbank_train.4.ark:6221279
fcdr1_sx106 quick_test/fbank/raw_fbank_train.1.ark:1496220
mgak0_si1036 quick_test/fbank/raw_fbank_train.2.ark:11142913
ftaj0_sx249 quick_test/fbank/raw_fbank_train.2.ark:1304138
