mljc0_sx235 quick_test/fbank/raw_fbank_train.3.ark:7495619
fskp0_si1098 quick_test/fbank/raw_fbank_train.2.ark:446364
fjkl0_sx122 quick_test/fbank/raw_fbank_train.1.ark:5191453
mjrk0_si880 quick_test/fbank/raw_fbank_train.3.ark:4840223
fdml0_sx249 quick_test/fbank/raw_fbank_train.1.ark:2944353
fmmh0_si1537 quick_test/fbank/raw_fbank_train.1.ark:9345143
mges0_si1481 quick_test/fbank/raw_fbank_train.3.ark:193384
mmws0_sx258 quick_test/fbank/raw_fbank_train.3.ark:10314880
mgrp0_si1947 quick_test/fbank/raw_fbank_train.3.ark:500414
fleh0_sx241 quick_test/fbank/raw_fbank_train.1.ark:7372095
mjae0_sx444 quick_test/fbank/raw_fbank_train.3.ark:1837416
mrhl0_sx435 quick_test/fbank/raw_fbank_train.4.ark:2549184
ftlg0_si840 quick_test/fbank/raw_fbank_train.2.ark:1574466
mmcc0_si1968 quick_test/fbank/raw_fbank_train.3.ark:8527731
mmrp0_si2034 quick_test/fbank/raw_fbank_train.3.ark:9812768
fcke0_si1111 quick_test/fbank/raw_fbank_train.1.ark:1814820
fmah1_sx339 quick_test/fbank/raw_fbank_train.1.ark:8585032
mcdr0_si524 quick_test/fbank/raw_fbank_train.2.ark:4837757
mded0_si1800 quick_test/fbank/raw_fbank_train.2.ark:6694077
mkaj0_sx154 quick_test/fbank/raw_fbank_train.3.ark:5901744
mtju0_sx130 quick_test/fbank/raw_fbank_train.4.ark:8433461
msms0_sx263 quick_test/fbank/raw_fbank_train.4.ark:6693111
mmgk0_si692 quick_test/fbank/raw_fbank_train.3.ark:9467534
mjrp0_si1845 quick_test/fbank/raw_fbank_train.3.ark:4923295
mded0_sx360 quick_test/fbank/raw_fbank_train.2.ark:6749529
mrcw0_si1371 quick_test/fbank/raw_fbank_train.4.ark:1275485
fssb0_sx362 quick_test/fbank/raw_fbank_train.2.ark:1215667
freh0_sx415 quick_test/fbank/raw_fbank_train.1.ark:10670278
mtpg0_sx33 quick_test/fbank/raw_fbank_train.4.ark:9368745
mdwh0_sx305 quick_test/fbank/raw_fbank_train.2.ark:9419007
mgrp0_sx57 quick_test/fbank/raw_fbank_train.3.ark:580011
makr0_sx182 quick_test/fbank/raw_fbank_train.2.ark:2839708
maeb0_sx450 quick_test/fbank/raw_fbank_train.2.ark:2381439
mmbs0_si521 quick_test/fbank/raw_fbank_train.3.ark:8416499
mkdb0_sx152 quick_test/fbank/raw_fbank_train.3.ark:6091234
msat1_si2333 quick_test/fbank/raw_fbank_train.4.ark:5520288
fbas0_si1387 quick_test/fbank/raw_fbank_train.1.ark:527214
mppc0_sx242 quick_test/fbank/raw_fbank_train.4.ark:12
mwar0_sx325 quick_test/fbank/raw_fbank_train.4.ark:10740145
mrab0_si594 quick_test/fbank/raw_fbank_train.4.ark:592295
mkrg0_sx31 quick_test/fbank/raw_fbank_train.3.ark:7110031
mmdg0_si1780 quick_test/fbank/raw_fbank_train.3.ark:8694547
mrgs0_sx6 quick_test/fbank/raw_fbank_train.4.ark:2452199
mjkr0_sx301 quick_test/fbank/raw_fbank_train.3.ark:3553689
mtkp0_sx33 quick_test/fbank/raw_fbank_train.4.ark:8683729
mtrt0_si1857 quick_test/fbank/raw_fbank_train.4.ark:9929890
fjrb0_sx312 quick_test/fbank/raw_fbank_train.1.ark:5505475
msms0_sx83 quick_test/fbank/raw_fbank_train.4.ark:6725929
mkls0_si1533 quick_test/fbank/raw_fbank_train.3.ark:6759543
fjrb0_sx132 quick_test/fbank/raw_fbank_train.1.ark:5482809
msah1_sx329 quick_test/fbank/raw_fbank_train.4.ark:5273631
msdb0_sx287 quick_test/fbank/raw_fbank_train.4.ark:5645005
mlsh0_sx247 quick_test/fbank/raw_fbank_train.3.ark:7811214
mrmb0_sx141 quick_test/fbank/raw_fbank_train.4.ark:3730665
mhbs0_sx315 quick_test/fbank/raw_fbank_train.3.ark:976200
mjai0_si682 quick_test/fbank/raw_fbank_train.3.ark:1880715
mjrh1_sx424 quick_test/fbank/raw_fbank_train.3.ark:4804610
mjeb1_sx117 quick_test/fbank/raw_fbank_train.3.ark:2732743
milb0_sx183 quick_test/fbank/raw_fbank_train.3.ark:1617028
mdlr0_sx63 quick_test/fbank/raw_fbank_train.2.ark:8077400
fssb0_si1712 quick_test/fbank/raw_fbank_train.2.ark:1170054
msrr0_sx30 quick_test/fbank/raw_fbank_train.4.ark:6895913
mrhl0_sx75 quick_test/fbank/raw_fbank_train.4.ark:2563416
mpmb0_si871 quick_test/fbank/raw_fbank_train.3.ark:11337607
mjee0_sx247 quick_test/fbank/raw_fbank_train.3.ark:2829761
mpgh0_sx384 quick_test/fbank/raw_fbank_train.3.ark:11090095
mmws0_si559 quick_test/fbank/raw_fbank_train.3.ark:10283741
mjbg0_si1232 quick_test/fbank/raw_fbank_train.3.ark:1966906
mbwp0_si709 quick_test/fbank/raw_fbank_train.2.ark:4310114
fpaf0_si1054 quick_test/fbank/raw_fbank_train.1.ark:10092195
mjfr0_si975 quick_test/fbank/raw_fbank_train.3.ark:2988025
mmam0_si1668 quick_test/fbank/raw_fbank_train.3.ark:8203935
fhlm0_si930 quick_test/fbank/raw_fbank_train.1.ark:4632890
fhxs0_sx445 quick_test/fbank/raw_fbank_train.1.ark:4818089
fljg0_sx351 quick_test/fbank/raw_fbank_train.1.ark:7887895
mmgk0_si1322 quick_test/fbank/raw_fbank_train.3.ark:9448467
mwch0_si2252 quick_test/fbank/raw_fbank_train.4.ark:10790712
mkdd0_si937 quick_test/fbank/raw_fbank_train.3.ark:6191026
mtpf0_si605 quick_test/fbank/raw_fbank_train.4.ark:9229469
mefg0_si598 quick_test/fbank/raw_fbank_train.2.ark:9754887
fapb0_sx433 quick_test/fbank/raw_fbank_train.1.ark:495268
mdlm0_si1234 quick_test/fbank/raw_fbank_train.2.ark:7895504
fmkf0_si1536 quick_test/fbank/raw_fbank_train.1.ark:9259154
frll0_si1514 quick_test/fbank/raw_fbank_train.1.ark:10781290
mjpg0_sx201 quick_test/fbank/raw_fbank_train.3.ark:4193873
mwad0_sx162 quick_test/fbank/raw_fbank_train.4.ark:10629453
mmlm0_sx357 quick_test/fbank/raw_fbank_train.3.ark:9681723
mdlr1_sx129 quick_test/fbank/raw_fbank_train.2.ark:8130814
msfv0_sx272 quick_test/fbank/raw_fbank_train.4.ark:6277012
mjeb0_si656 quick_test/fbank/raw_fbank_train.3.ark:2607645
mntw0_si1698 quick_test/fbank/raw_fbank_train.3.ark:10648958
fear0_si1252 quick_test/fbank/raw_fbank_train.1.ark:3532851
msdh0_sx440 quick_test/fbank/raw_fbank_train.4.ark:5739031
mesj0_si2039 quick_test/fbank/raw_fbank_train.2.ark:10223743
mree0_sx294 quick_test/fbank/raw_fbank_train.4.ark:1724145
mmar0_sx346 quick_test/fbank/raw_fbank_train.3.ark:8354733
mdlr0_sx243 quick_test/fbank/raw_fbank_train.2.ark:8032982
mgar0_si1212 quick_test/fbank/raw_fbank_train.3.ark:13
fdnc0_si1908 quick_test/fbank/raw_fbank_train.1.ark:3143783
mwgr0_sx76 quick_test/fbank/raw_fbank_train.4.ark:11143952
mkls1_sx375 quick_test/fbank/raw_fbank_train.3.ark:6927486
mrws0_sx112 quick_test/fbank/raw_fbank_train.4.ark:5072434
megj0_si1967 quick_test/fbank/raw_fbank_train.2.ark:9854319
flet0_si1137 quick_test/fbank/raw_fbank_train.1.ark:7421587
mtqc0_si1441 quick_test/fbank/raw_fbank_train.4.ark:9590262
mejs0_si1240 quick_test/fbank/raw_fbank_train.2.ark:10028493
mrcw0_si741 quick_test/fbank/raw_fbank_train.4.ark:1300672
fsls0_sx426 quick_test/fbank/raw_fbank_train.2.ark:614149
mdlc1_si2144 quick_test/fbank/raw_fbank_train.2.ark:7643857
fdtd0_si1561 quick_test/fbank/raw_fbank_train.1.ark:3235615
msds0_si1077 quick_test/fbank/raw_fbank_train.4.ark:5763057
mjrk0_sx340 quick_test/fbank/raw_fbank_train.3.ark:4885642
mgag0_sx421 quick_test/fbank/raw_fbank_train.2.ark:11122287
mgaw0_sx265 quick_test/fbank/raw_fbank_train.3.ark:155652
mfrm0_sx255 quick_test/fbank/raw_fbank_train.2.ark:10633935
fbmj0_si516 quick_test/fbank/raw_fbank_train.1.ark:1162598
mdhs0_si900 quick_test/fbank/raw_fbank_train.2.ark:7118210
mdlm0_si604 quick_test/fbank/raw_fbank_train.2.ark:7915971
mmxs0_si2136 quick_test/fbank/raw_fbank_train.3.ark:10444517
mrre0_sx254 quick_test/fbank/raw_fbank_train.4.ark:4348771
mdcm0_si1480 quick_test/fbank/raw_fbank_train.2.ark:6492473
fcke0_si1741 quick_test/fbank/raw_fbank_train.1.ark:1819694
mrkm0_sx187 quick_test/fbank/raw_fbank_train.4.ark:3173556
fpmy0_sx343 quick_test/fbank/raw_fbank_train.1.ark:10574733
mmea0_sx398 quick_test/fbank/raw_fbank_train.3.ark:9156238
meal0_sx347 quick_test/fbank/raw_fbank_train.2.ark:9614210
fsbk0_si1069 quick_test/fbank/raw_fbank_train.1.ark:11199629
fcmg0_sx342 quick_test/fbank/raw_fbank_train.1.ark:2066397
mhmr0_si1692 quick_test/fbank/raw_fbank_train.3.ark:1285929
fdtd0_sx391 quick_test/fbank/raw_fbank_train.1.ark:3333167
madd0_sx268 quick_test/fbank/raw_fbank_train.2.ark:2258908
frll0_sx254 quick_test/fbank/raw_fbank_train.1.ark:10837622
mjdg0_si1705 quick_test/fbank/raw_fbank_train.3.ark:2405395
mjai0_sx74 quick_test/fbank/raw_fbank_train.3.ark:1957352
mdwm0_sx286 quick_test/fbank/raw_fbank_train.2.ark:9519991
msdh0_si2113 quick_test/fbank/raw_fbank_train.4.ark:5663032
fcjs0_si1607 quick_test/fbank/raw_fbank_train.1.ark:1722195
mrab1_sx218 quick_test/fbank/raw_fbank_train.4.ark:714706
mkls1_sx15 quick_test/fbank/raw_fbank_train.3.ark:6897147
feeh0_sx392 quick_test/fbank/raw_fbank_train.1.ark:3840572
mjlg1_sx112 quick_test/fbank/raw_fbank_train.3.ark:3717274
mmgk0_sx332 quick_test/fbank/raw_fbank_train.3.ark:9493513
fbch0_si959 quick_test/fbank/raw_fbank_train.1.ark:759051
feme0_sx65 quick_test/fbank/raw_fbank_train.1.ark:3952037
mrds0_sx267 quick_test/fbank/raw_fbank_train.4.ark:1600014
fklc0_sx445 quick_test/fbank/raw_fbank_train.1.ark:6796409
mkdt0_sx263 quick_test/fbank/raw_fbank_train.3.ark:6310236
msfh0_sx226 quick_test/fbank/raw_fbank_train.4.ark:6165867
fskp0_sx288 quick_test/fbank/raw_fbank_train.2.ark:515562
mmds0_si713 quick_test/fbank/raw_fbank_train.3.ark:9023809
fcaj0_sx309 quick_test/fbank/raw_fbank_train.1.ark:1399221
mwem0_sx330 quick_test/fbank/raw_fbank_train.4.ark:11012182
mwar0_si1045 quick_test/fbank/raw_fbank_train.4.ark:10677538
fcjf0_si1657 quick_test/fbank/raw_fbank_train.1.ark:1656684
mafm0_si2199 quick_test/fbank/raw_fbank_train.2.ark:2505605
mmvp0_si1284 quick_test/fbank/raw_fbank_train.3.ark:10022497
mhmg0_si1995 quick_test/fbank/raw_fbank_train.3.ark:1196064
fljg0_si2241 quick_test/fbank/raw_fbank_train.1.ark:7829443
mjdc0_sx441 quick_test/fbank/raw_fbank_train.3.ark:2228077
fjxp0_si1122 quick_test/fbank/raw_fbank_train.1.ark:6082739
fcyl0_sx349 quick_test/fbank/raw_fbank_train.1.ark:2357632
mfxv0_sx375 quick_test/fbank/raw_fbank_train.2.ark:10952110
mrav0_sx288 quick_test/fbank/raw_fbank_train.4.ark:1036048
mclm0_si2086 quick_test/fbank/raw_fbank_train.2.ark:5347530
mmws0_sx168 quick_test/fbank/raw_fbank_train.3.ark:10305487
fsdj0_sx125 quick_test/fbank/raw_fbank_train.1.ark:11556085
fetb0_si518 quick_test/fbank/raw_fbank_train.1.ark:3987258
mmgc0_sx225 quick_test/fbank/raw_fbank_train.3.ark:9308229
mdhs0_sx270 quick_test/fbank/raw_fbank_train.2.ark:7146756
fkfb0_si2238 quick_test/fbank/raw_fbank_train.1.ark:6510554
mkdb0_sx242 quick_test/fbank/raw_fbank_train.3.ark:6103267
mfrm0_sx435 quick_test/fbank/raw_fbank_train.2.ark:10654961
fsdc0_sx232 quick_test/fbank/raw_fbank_train.1.ark:11474293
mtwh1_sx342 quick_test/fbank/raw_fbank_train.4.ark:10056967
fpaf0_sx244 quick_test/fbank/raw_fbank_train.1.ark:10145929
mwgr0_si976 quick_test/fbank/raw_fbank_train.4.ark:11080668
fltm0_si1700 quick_test/fbank/raw_fbank_train.1.ark:8428314
mhjb0_si1647 quick_test/fbank/raw_fbank_train.3.ark:1114998
mewm0_sx268 quick_test/fbank/raw_fbank_train.2.ark:10353099
mgaf0_sx292 quick_test/fbank/raw_fbank_train.2.ark:11029262
mrdm0_sx335 quick_test/fbank/raw_fbank_train.4.ark:1521262
mljh0_sx154 quick_test/fbank/raw_fbank_train.3.ark:7600131
mjxl0_sx362 quick_test/fbank/raw_fbank_train.3.ark:5616576
fjrp1_sx82 quick_test/fbank/raw_fbank_train.1.ark:5663005
mrwa0_sx73 quick_test/fbank/raw_fbank_train.4.ark:5026220
fklc1_si1678 quick_test/fbank/raw_fbank_train.1.ark:6837869
mjjj0_sx83 quick_test/fbank/raw_fbank_train.3.ark:3374184
mwdk0_sx356 quick_test/fbank/raw_fbank_train.4.ark:10921516
flag0_si2094 quick_test/fbank/raw_fbank_train.1.ark:7228770
mrpc1_sx42 quick_test/fbank/raw_fbank_train.4.ark:4269685
fajw0_si633 quick_test/fbank/raw_fbank_train.1.ark:131585
mlel0_sx256 quick_test/fbank/raw_fbank_train.3.ark:7388154
mdhs0_sx360 quick_test/fbank/raw_fbank_train.2.ark:7155989
mfrm0_sx75 quick_test/fbank/raw_fbank_train.2.ark:10669713
mafm0_sx129 quick_test/fbank/raw_fbank_train.2.ark:2526391
mppc0_sx62 quick_test/fbank/raw_fbank_train.4.ark:37510
mtmn0_si582 quick_test/fbank/raw_fbank_train.4.ark:9031379
fpad0_sx86 quick_test/fbank/raw_fbank_train.1.ark:10082521
fjen0_sx327 quick_test/fbank/raw_fbank_train.1.ark:5009788
fsah0_sx164 quick_test/fbank/raw_fbank_train.1.ark:11040199
mgaw0_si1165 quick_test/fbank/raw_fbank_train.3.ark:99239
fmpg0_si2232 quick_test/fbank/raw_fbank_train.1.ark:9458280
mrjh0_sx307 quick_test/fbank/raw_fbank_train.4.ark:2768801
mrlk0_si1468 quick_test/fbank/raw_fbank_train.4.ark:3501435
fgrw0_sx72 quick_test/fbank/raw_fbank_train.1.ark:4604709
fcjs0_si977 quick_test/fbank/raw_fbank_train.1.ark:1736222
mcss0_si688 quick_test/fbank/raw_fbank_train.2.ark:5627004
fcag0_sx153 quick_test/fbank/raw_fbank_train.1.ark:1281410
fcdr1_si1186 quick_test/fbank/raw_fbank_train.1.ark:1433240
mrso0_si1206 quick_test/fbank/raw_fbank_train.4.ark:4395303
maeb0_sx270 quick_test/fbank/raw_fbank_train.2.ark:2359053
fgrw0_sx432 quick_test/fbank/raw_fbank_train.1.ark:4586637
milb0_sx3 quick_test/fbank/raw_fbank_train.3.ark:1637292
mzmb0_sx446 quick_test/fbank/raw_fbank_train.4.ark:11636003
fntb0_si1203 quick_test/fbank/raw_fbank_train.1.ark:9669336
fkkh0_sx30 quick_test/fbank/raw_fbank_train.1.ark:6683510
mmrp0_si717 quick_test/fbank/raw_fbank_train.3.ark:9819321
mjlb0_si2246 quick_test/fbank/raw_fbank_train.3.ark:3604382
mjee0_sx337 quick_test/fbank/raw_fbank_train.3.ark:2844674
fjxm0_sx401 quick_test/fbank/raw_fbank_train.1.ark:6047993
mjde0_sx40 quick_test/fbank/raw_fbank_train.3.ark:2347900
msat0_si2156 quick_test/fbank/raw_fbank_train.4.ark:5428189
mtcs0_si2265 quick_test/fbank/raw_fbank_train.4.ark:7670060
mdss1_si697 quick_test/fbank/raw_fbank_train.2.ark:9097512
mrjm1_sx398 quick_test/fbank/raw_fbank_train.4.ark:2997477
mmds0_sx83 quick_test/fbank/raw_fbank_train.3.ark:9072653
mjrh1_si514 quick_test/fbank/raw_fbank_train.3.ark:4758558
mrpc1_sx132 quick_test/fbank/raw_fbank_train.4.ark:4223194
mwdk0_sx86 quick_test/fbank/raw_fbank_train.4.ark:10945381
fleh0_sx61 quick_test/fbank/raw_fbank_train.1.ark:7408233
fjwb1_si2055 quick_test/fbank/raw_fbank_train.1.ark:5876770
medr0_sx204 quick_test/fbank/raw_fbank_train.2.ark:9689970
fscn0_si705 quick_test/fbank/raw_fbank_train.1.ark:11333241
mbbr0_sx65 quick_test/fbank/raw_fbank_train.2.ark:3357045
mrfl0_si526 quick_test/fbank/raw_fbank_train.4.ark:2166259
fvfb0_si1510 quick_test/fbank/raw_fbank_train.2.ark:1748723
flma0_si1873 quick_test/fbank/raw_fbank_train.1.ark:8053772
marc0_si1188 quick_test/fbank/raw_fbank_train.2.ark:2992418
mpfu0_si1888 quick_test/fbank/raw_fbank_train.3.ark:10929274
fklc0_si2245 quick_test/fbank/raw_fbank_train.1.ark:6723044
fpjf0_sx352 quick_test/fbank/raw_fbank_train.1.ark:10367085
mrfl0_sx436 quick_test/fbank/raw_fbank_train.4.ark:2227351
mgrl0_sx147 quick_test/fbank/raw_fbank_train.3.ark:424615
mfwk0_sx259 quick_test/fbank/raw_fbank_train.2.ark:10721920
medr0_sx24 quick_test/fbank/raw_fbank_train.2.ark:9699282
mpfu0_si628 quick_test/fbank/raw_fbank_train.3.ark:10935707
fpad0_si716 quick_test/fbank/raw_fbank_train.1.ark:10008637
mrpc1_si2112 quick_test/fbank/raw_fbank_train.4.ark:4214361
mmgg0_sx89 quick_test/fbank/raw_fbank_train.3.ark:9438753
fbmh0_sx326 quick_test/fbank/raw_fbank_train.1.ark:1113906
mrjh0_sx259 quick_test/fbank/raw_fbank_train.4.ark:2754928
mrmh0_si1349 quick_test/fbank/raw_fbank_train.4.ark:3901410
mrab1_si1478 quick_test/fbank/raw_fbank_train.4.ark:664133
msmc0_sx17 quick_test/fbank/raw_fbank_train.4.ark:6494620
mrjt0_sx148 quick_test/fbank/raw_fbank_train.4.ark:3047651
mmab1_sx234 quick_test/fbank/raw_fbank_train.3.ark:8019144
mwrp0_si2073 quick_test/fbank/raw_fbank_train.4.ark:11283880
mram0_si1275 quick_test/fbank/raw_fbank_train.4.ark:873583
mapv0_sx303 quick_test/fbank/raw_fbank_train.2.ark:2961759
mtxs0_sx250 quick_test/fbank/raw_fbank_train.4.ark:10151000
mdlc1_sx445 quick_test/fbank/raw_fbank_train.2.ark:7687909
mdsj0_si1462 quick_test/fbank/raw_fbank_train.2.ark:8896395
fmmh0_si907 quick_test/fbank/raw_fbank_train.1.ark:9374930
fvfb0_sx312 quick_test/fbank/raw_fbank_train.2.ark:1793056
mdks0_si1066 quick_test/fbank/raw_fbank_train.2.ark:7282953
mtlc0_si1477 quick_test/fbank/raw_fbank_train.4.ark:8821975
feeh0_sx32 quick_test/fbank/raw_fbank_train.1.ark:3828819
mcdc0_sx392 quick_test/fbank/raw_fbank_train.2.ark:4701071
fcjf0_si648 quick_test/fbank/raw_fbank_train.1.ark:1668317
mfwk0_si619 quick_test/fbank/raw_fbank_train.2.ark:10699534
mtab0_si942 quick_test/fbank/raw_fbank_train.4.ark:7190128
mmgk0_sx422 quick_test/fbank/raw_fbank_train.3.ark:9503346
mtju0_sx40 quick_test/fbank/raw_fbank_train.4.ark:8468399
fbjl0_sx202 quick_test/fbank/raw_fbank_train.1.ark:894582
mrai0_sx432 quick_test/fbank/raw_fbank_train.4.ark:846557
fbmj0_si815 quick_test/fbank/raw_fbank_train.1.ark:1180311
msrg0_sx411 quick_test/fbank/raw_fbank_train.4.ark:6807002
mdma0_si2060 quick_test/fbank/raw_fbank_train.2.ark:8216367
fdas1_sx201 quick_test/fbank/raw_fbank_train.1.ark:2458704
mjkr0_sx121 quick_test/fbank/raw_fbank_train.3.ark:3529183
msdb0_si1637 quick_test/fbank/raw_fbank_train.4.ark:5606680
mpeb0_sx240 quick_test/fbank/raw_fbank_train.3.ark:10858908
mklw0_si1844 quick_test/fbank/raw_fbank_train.3.ark:6961474
fsjg0_sx220 quick_test/fbank/raw_fbank_train.1.ark:11767848
mkls1_si915 quick_test/fbank/raw_fbank_train.3.ark:6868242
fskp0_si468 quick_test/fbank/raw_fbank_train.2.ark:474431
mrdm0_si1044 quick_test/fbank/raw_fbank_train.4.ark:1458576
fdmy0_si1197 quick_test/fbank/raw_fbank_train.1.ark:2985005
mkah0_sx178 quick_test/fbank/raw_fbank_train.3.ark:5799319
msfh0_sx136 quick_test/fbank/raw_fbank_train.4.ark:6149314
fsdc0_sx52 quick_test/fbank/raw_fbank_train.1.ark:11507031
mdns0_si2271 quick_test/fbank/raw_fbank_train.2.ark:8422344
maeb0_sx180 quick_test/fbank/raw_fbank_train.2.ark:2347740
fpls0_sx60 quick_test/fbank/raw_fbank_train.1.ark:10474420
mhbs0_si945 quick_test/fbank/raw_fbank_train.3.ark:939381
msas0_sx26 quick_test/fbank/raw_fbank_train.4.ark:5384975
mhjb0_sx387 quick_test/fbank/raw_fbank_train.3.ark:1174436
mppc0_sx422 quick_test/fbank/raw_fbank_train.4.ark:24198
mprb0_sx35 quick_test/fbank/raw_fbank_train.4.ark:141062
fljg0_sx261 quick_test/fbank/raw_fbank_train.1.ark:7878622
msdb0_si1007 quick_test/fbank/raw_fbank_train.4.ark:5591246
mrab1_si2108 quick_test/fbank/raw_fbank_train.4.ark:676447
mhjb0_sx207 quick_test/fbank/raw_fbank_train.3.ark:1152098
fsah0_si1244 quick_test/fbank/raw_fbank_train.1.ark:10996139
fcrz0_sx343 quick_test/fbank/raw_fbank_train.1.ark:2259407
mrld0_sx424 quick_test/fbank/raw_fbank_train.4.ark:3304918
mdem0_sx68 quick_test/fbank/raw_fbank_train.2.ark:6986364
mfwk0_si1249 quick_test/fbank/raw_fbank_train.2.ark:10679387
mtjm0_sx56 quick_test/fbank/raw_fbank_train.4.ark:8269582
mtpf0_sx245 quick_test/fbank/raw_fbank_train.4.ark:9253775
mram0_sx375 quick_test/fbank/raw_fbank_train.4.ark:957335
mclk0_sx310 quick_test/fbank/raw_fbank_train.2.ark:5303037
fjrb0_sx222 quick_test/fbank/raw_fbank_train.1.ark:5493002
mjpm1_si761 quick_test/fbank/raw_fbank_train.3.ark:4346177
flac0_sx91 quick_test/fbank/raw_fbank_train.1.ark:7197662
mdwh0_sx125 quick_test/fbank/raw_fbank_train.2.ark:9392061
mzmb0_sx86 quick_test/fbank/raw_fbank_train.4.ark:11647275
mdlh0_sx160 quick_test/fbank/raw_fbank_train.2.ark:7830179
mmar0_sx166 quick_test/fbank/raw_fbank_train.3.ark:8318587
mmaa0_sx125 quick_test/fbank/raw_fbank_train.3.ark:7912486
mdns0_sx21 quick_test/fbank/raw_fbank_train.2.ark:8472075
fpaf0_sx154 quick_test/fbank/raw_fbank_train.1.ark:10134736
mdwd0_sx90 quick_test/fbank/raw_fbank_train.2.ark:9334087
mdpb0_sx146 quick_test/fbank/raw_fbank_train.2.ark:8549875
mrcg0_sx258 quick_test/fbank/raw_fbank_train.4.ark:1211433
mvrw0_si2115 quick_test/fbank/raw_fbank_train.4.ark:10416176
mtxs0_si2320 quick_test/fbank/raw_fbank_train.4.ark:10115494
msat0_sx266 quick_test/fbank/raw_fbank_train.4.ark:5458728
mbth0_si505 quick_test/fbank/raw_fbank_train.2.ark:4206936
mtjm0_sx146 quick_test/fbank/raw_fbank_train.4.ark:8228531
fgrw0_si1782 quick_test/fbank/raw_fbank_train.1.ark:4520151
msat1_sx83 quick_test/fbank/raw_fbank_train.4.ark:5580092
mhjb0_si2277 quick_test/fbank/raw_fbank_train.3.ark:1126912
mmdg0_sx430 quick_test/fbank/raw_fbank_train.3.ark:8780586
mprk0_sx377 quick_test/fbank/raw_fbank_train.4.ark:382745
fsls0_sx246 quick_test/fbank/raw_fbank_train.2.ark:603996
mejs0_si610 quick_test/fbank/raw_fbank_train.2.ark:10055400
mkah0_sx358 quick_test/fbank/raw_fbank_train.3.ark:5829345
fsjs0_sx91 quick_test/fbank/raw_fbank_train.2.ark:138295
fmju0_si2019 quick_test/fbank/raw_fbank_train.1.ark:9055103
msjk0_sx246 quick_test/fbank/raw_fbank_train.4.ark:6386397
fecd0_sx338 quick_test/fbank/raw_fbank_train.1.ark:3711002
fdkn0_sx91 quick_test/fbank/raw_fbank_train.1.ark:2888105
mkln0_sx68 quick_test/fbank/raw_fbank_train.3.ark:6639569
mbom0_si2274 quick_test/fbank/raw_fbank_train.2.ark:4049961
fsjg0_sx40 quick_test/fbank/raw_fbank_train.1.ark:11804833
faem0_si762 quick_test/fbank/raw_fbank_train.1.ark:28600
flmk0_si1035 quick_test/fbank/raw_fbank_train.1.ark:8231708
fklh0_sx447 quick_test/fbank/raw_fbank_train.1.ark:6995180
fssb0_sx272 quick_test/fbank/raw_fbank_train.2.ark:1205394
fjsk0_si2312 quick_test/fbank/raw_fbank_train.1.ark:5706907
mbbr0_si1685 quick_test/fbank/raw_fbank_train.2.ark:3291167
fpjf0_si1676 quick_test/fbank/raw_fbank_train.1.ark:10326473
mmvp0_sx114 quick_test/fbank/raw_fbank_train.3.ark:10073197
mtdb0_sx411 quick_test/fbank/raw_fbank_train.4.ark:7838290
mgaw0_sx85 quick_test/fbank/raw_fbank_train.3.ark:184350
mpgr1_sx149 quick_test/fbank/raw_fbank_train.3.ark:11226175
mtdp0_si2151 quick_test/fbank/raw_fbank_train.4.ark:7889184
mjrk0_sx430 quick_test/fbank/raw_fbank_train.3.ark:4897235
ftaj0_si1329 quick_test/fbank/raw_fbank_train.2.ark:1263166
fjdm2_si1582 quick_test/fbank/raw_fbank_train.1.ark:4839235
mtkp0_si1023 quick_test/fbank/raw_fbank_train.4.ark:8599811
mrdd0_sx60 quick_test/fbank/raw_fbank_train.4.ark:1444982
mbth0_sx302 quick_test/fbank/raw_fbank_train.2.ark:4256108
mbgt0_si1841 quick_test/fbank/raw_fbank_train.2.ark:3546402
mkls1_sx105 quick_test/fbank/raw_fbank_train.3.ark:6886315
mjjm0_sx107 quick_test/fbank/raw_fbank_train.3.ark:3432518
frll0_sx434 quick_test/fbank/raw_fbank_train.1.ark:10857808
mpar0_sx46 quick_test/fbank/raw_fbank_train.3.ark:10811581
fmpg0_sx342 quick_test/fbank/raw_fbank_train.1.ark:9523332
mrms0_sx300 quick_test/fbank/raw_fbank_train.4.ark:4174346
mkln0_sx248 quick_test/fbank/raw_fbank_train.3.ark:6602631
medr0_si744 quick_test/fbank/raw_fbank_train.2.ark:9664184
maeo0_sx426 quick_test/fbank/raw_fbank_train.2.ark:2475505
mcae0_sx7 quick_test/fbank/raw_fbank_train.2.ark:4495749
mtju0_sx400 quick_test/fbank/raw_fbank_train.4.ark:8479312
mjws0_si1143 quick_test/fbank/raw_fbank_train.3.ark:5246855
mrfk0_sx266 quick_test/fbank/raw_fbank_train.4.ark:2098300
fmah1_si2139 quick_test/fbank/raw_fbank_train.1.ark:8535180
ftbw0_si715 quick_test/fbank/raw_fbank_train.2.ark:1458042
fjxm0_sx311 quick_test/fbank/raw_fbank_train.1.ark:6028560
fskl0_si1529 quick_test/fbank/raw_fbank_train.2.ark:347179
mrjh0_sx439 quick_test/fbank/raw_fbank_train.4.ark:2776234
mclk0_sx400 quick_test/fbank/raw_fbank_train.2.ark:5324102
mrjm1_sx128 quick_test/fbank/raw_fbank_train.4.ark:2949586
mjwt0_sx211 quick_test/fbank/raw_fbank_train.3.ark:5416453
fjlg0_sx359 quick_test/fbank/raw_fbank_train.1.ark:5310185
mtat1_si1409 quick_test/fbank/raw_fbank_train.4.ark:7451816
mbwp0_sx349 quick_test/fbank/raw_fbank_train.2.ark:4350373
flag0_sx384 quick_test/fbank/raw_fbank_train.1.ark:7308767
mhmr0_si489 quick_test/fbank/raw_fbank_train.3.ark:1304362
mfxv0_sx15 quick_test/fbank/raw_fbank_train.2.ark:10922931
mntw0_si2328 quick_test/fbank/raw_fbank_train.3.ark:10669352
mwem0_sx60 quick_test/fbank/raw_fbank_train.4.ark:11045687
mdas0_si1896 quick_test/fbank/raw_fbank_train.2.ark:6116729
mlbc0_sx159 quick_test/fbank/raw_fbank_train.3.ark:7274056
mjma0_sx325 quick_test/fbank/raw_fbank_train.3.ark:3936270
fsgf0_sx27 quick_test/fbank/raw_fbank_train.1.ark:11675055
mtkd0_si1187 quick_test/fbank/raw_fbank_train.4.ark:8491346
fapb0_si2323 quick_test/fbank/raw_fbank_train.1.ark:431736
mmdm1_si783 quick_test/fbank/raw_fbank_train.3.ark:8917784
mjmm0_sx355 quick_test/fbank/raw_fbank_train.3.ark:4115841
mdtb0_sx210 quick_test/fbank/raw_fbank_train.2.ark:9209763
mwsb0_si996 quick_test/fbank/raw_fbank_train.4.ark:11373863
mses0_sx239 quick_test/fbank/raw_fbank_train.4.ark:6058322
mrfk0_sx86 quick_test/fbank/raw_fbank_train.4.ark:2129278
mrkm0_sx7 quick_test/fbank/raw_fbank_train.4.ark:3214373
mdpb0_si1760 quick_test/fbank/raw_fbank_train.2.ark:8500055
mcae0_si817 quick_test/fbank/raw_fbank_train.2.ark:4440259
mdjm0_sx195 quick_test/fbank/raw_fbank_train.2.ark:7252453
fsak0_si1300 quick_test/fbank/raw_fbank_train.1.ark:11102684
mkxl0_sx375 quick_test/fbank/raw_fbank_train.3.ark:7221042
mmdb0_sx447 quick_test/fbank/raw_fbank_train.3.ark:8678281
mrms0_sx210 quick_test/fbank/raw_fbank_train.4.ark:4159121
meal0_si917 quick_test/fbank/raw_fbank_train.2.ark:9578398
fhlm0_sx349 quick_test/fbank/raw_fbank_train.1.ark:4685622
mdrd0_sx122 quick_test/fbank/raw_fbank_train.2.ark:8828470
mbom0_sx114 quick_test/fbank/raw_fbank_train.2.ark:4060314
mrso0_sx129 quick_test/fbank/raw_fbank_train.4.ark:4444884
fkaa0_sx128 quick_test/fbank/raw_fbank_train.1.ark:6213664
mreh1_si1599 quick_test/fbank/raw_fbank_train.4.ark:1743972
mdmt0_si572 quick_test/fbank/raw_fbank_train.2.ark:8323032
mrlr0_si1196 quick_test/fbank/raw_fbank_train.4.ark:3600260
mbsb0_si723 quick_test/fbank/raw_fbank_train.2.ark:4133947
mrab1_sx38 quick_test/fbank/raw_fbank_train.4.ark:740131
msas0_sx386 quick_test/fbank/raw_fbank_train.4.ark:5407601
falr0_sx245 quick_test/fbank/raw_fbank_train.1.ark:358776
mrvg0_sx60 quick_test/fbank/raw_fbank_train.4.ark:4928715
mcth0_sx39 quick_test/fbank/raw_fbank_train.2.ark:5787033
mprk0_si467 quick_test/fbank/raw_fbank_train.4.ark:312341
mges0_sx401 quick_test/fbank/raw_fbank_train.3.ark:254383
fdas1_sx291 quick_test/fbank/raw_fbank_train.1.ark:2480849
msvs0_sx128 quick_test/fbank/raw_fbank_train.4.ark:7086216
maeb0_si2250 quick_test/fbank/raw_fbank_train.2.ark:2323874
fmpg0_sx162 quick_test/fbank/raw_fbank_train.1.ark:9493746
mjdm0_sx260 quick_test/fbank/raw_fbank_train.3.ark:2527606
fpab1_sx211 quick_test/fbank/raw_fbank_train.1.ark:9830373
fskp0_si1728 quick_test/fbank/raw_fbank_train.2.ark:464118
mjfh0_sx117 quick_test/fbank/raw_fbank_train.3.ark:2920953
mbma0_sx232 quick_test/fbank/raw_fbank_train.2.ark:3782591
mtcs0_sx82 quick_test/fbank/raw_fbank_train.4.ark:7750417
mdjm0_sx285 quick_test/fbank/raw_fbank_train.2.ark:7260646
mdjm0_sx375 quick_test/fbank/raw_fbank_train.2.ark:7271199
fjen0_sx417 quick_test/fbank/raw_fbank_train.1.ark:5030861
fdmy0_sx27 quick_test/fbank/raw_fbank_train.1.ark:3080089
msmr0_sx55 quick_test/fbank/raw_fbank_train.4.ark:6626024
feeh0_sx122 quick_test/fbank/raw_fbank_train.1.ark:3790001
mjra0_sx156 quick_test/fbank/raw_fbank_train.3.ark:4467115
mrds0_si537 quick_test/fbank/raw_fbank_train.4.ark:1576868
mjlg1_si1012 quick_test/fbank/raw_fbank_train.3.ark:3678213
mjrk0_sx160 quick_test/fbank/raw_fbank_train.3.ark:4857776
mjpm0_sx18 quick_test/fbank/raw_fbank_train.3.ark:4283057
freh0_si1315 quick_test/fbank/raw_fbank_train.1.ark:10601759
mgxp0_sx277 quick_test/fbank/raw_fbank_train.3.ark:867864
fkfb0_sx438 quick_test/fbank/raw_fbank_train.1.ark:6572919
mrlj1_sx411 quick_test/fbank/raw_fbank_train.4.ark:3480329
mrjm0_sx238 quick_test/fbank/raw_fbank_train.4.ark:2855794
mnet0_sx6 quick_test/fbank/raw_fbank_train.3.ark:10607538
mfmc0_sx52 quick_test/fbank/raw_fbank_train.2.ark:10571367
mdwm0_si1546 quick_test/fbank/raw_fbank_train.2.ark:9460826
mdma0_sx350 quick_test/fbank/raw_fbank_train.2.ark:8263666
mjmd0_sx218 quick_test/fbank/raw_fbank_train.3.ark:4006943
mdks0_si1696 quick_test/fbank/raw_fbank_train.2.ark:7290587
mrso0_si2289 quick_test/fbank/raw_fbank_train.4.ark:4432971
mgjc0_sx345 quick_test/fbank/raw_fbank_train.3.ark:342976
mstf0_sx46 quick_test/fbank/raw_fbank_train.4.ark:7024442
flhd0_si1344 quick_test/fbank/raw_fbank_train.1.ark:7516492
mjac0_sx71 quick_test/fbank/raw_fbank_train.3.ark:1753782
ftbr0_sx201 quick_test/fbank/raw_fbank_train.2.ark:1396323
mclm0_sx106 quick_test/fbank/raw_fbank_train.2.ark:5373476
mdwh0_si1168 quick_test/fbank/raw_fbank_train.2.ark:9342801
mpgh0_sx294 quick_test/fbank/raw_fbank_train.3.ark:11081622
mkdb0_si872 quick_test/fbank/raw_fbank_train.3.ark:6078961
mbbr0_si2315 quick_test/fbank/raw_fbank_train.2.ark:3301561
mcew0_sx182 quick_test/fbank/raw_fbank_train.2.ark:5058000
mhmg0_si1365 quick_test/fbank/raw_fbank_train.3.ark:1184870
fklc1_sx58 quick_test/fbank/raw_fbank_train.1.ark:6903627
mrab0_si1854 quick_test/fbank/raw_fbank_train.4.ark:574822
mgag0_si1321 quick_test/fbank/raw_fbank_train.2.ark:11052729
mkag0_si2239 quick_test/fbank/raw_fbank_train.3.ark:5676229
mwrp0_sx273 quick_test/fbank/raw_fbank_train.4.ark:11311346
mdsj0_sx22 quick_test/fbank/raw_fbank_train.2.ark:8945607
mmdb0_sx267 quick_test/fbank/raw_fbank_train.3.ark:8652975
milb0_si2163 quick_test/fbank/raw_fbank_train.3.ark:1574529
fdmy0_si567 quick_test/fbank/raw_fbank_train.1.ark:3001238
mejl0_si962 quick_test/fbank/raw_fbank_train.2.ark:9959415
mgsh0_si1176 quick_test/fbank/raw_fbank_train.3.ark:593125
mcal0_sx418 quick_test/fbank/raw_fbank_train.2.ark:4589094
mjdg0_sx232 quick_test/fbank/raw_fbank_train.3.ark:2427461
mpgr1_si1269 quick_test/fbank/raw_fbank_train.3.ark:11190114
fspm0_si1871 quick_test/fbank/raw_fbank_train.2.ark:972684
mbgt0_sx351 quick_test/fbank/raw_fbank_train.2.ark:3606734
fleh0_si1681 quick_test/fbank/raw_fbank_train.1.ark:7339235
fsrh0_sx311 quick_test/fbank/raw_fbank_train.2.ark:1112121
fklh0_sx357 quick_test/fbank/raw_fbank_train.1.ark:6980147
mmeb0_si727 quick_test/fbank/raw_fbank_train.3.ark:9192219
mdtb0_sx300 quick_test/fbank/raw_fbank_train.2.ark:9218756
makb0_si2276 quick_test/fbank/raw_fbank_train.2.ark:2729810
mjeb1_si837 quick_test/fbank/raw_fbank_train.3.ark:2712550
mdps0_sx449 quick_test/fbank/raw_fbank_train.2.ark:8760984
frll0_si805 quick_test/fbank/raw_fbank_train.1.ark:10791283
mkag0_sx169 quick_test/fbank/raw_fbank_train.3.ark:5705335
mpar0_si1576 quick_test/fbank/raw_fbank_train.3.ark:10734870
mwdk0_sx176 quick_test/fbank/raw_fbank_train.4.ark:10896090
mmbs0_si1781 quick_test/fbank/raw_fbank_train.3.ark:8408106
mdbb1_sx376 quick_test/fbank/raw_fbank_train.2.ark:6277629
fcke0_sx31 quick_test/fbank/raw_fbank_train.1.ark:1889138
fklc0_sx355 quick_test/fbank/raw_fbank_train.1.ark:6785416
mrjm0_si1095 quick_test/fbank/raw_fbank_train.4.ark:2807340
mdma0_sx170 quick_test/fbank/raw_fbank_train.2.ark:8229120
mjfr0_sx75 quick_test/fbank/raw_fbank_train.3.ark:3061269
fear0_si1882 quick_test/fbank/raw_fbank_train.1.ark:3543525
mcal0_si1768 quick_test/fbank/raw_fbank_train.2.ark:4540009
fbcg1_si2242 quick_test/fbank/raw_fbank_train.1.ark:640234
mkah0_sx88 quick_test/fbank/raw_fbank_train.3.ark:5851650
mvlo0_sx247 quick_test/fbank/raw_fbank_train.4.ark:10348410
mcdd0_si2143 quick_test/fbank/raw_fbank_train.2.ark:4722179
fpab1_si841 quick_test/fbank/raw_fbank_train.1.ark:9796187
fclt0_si808 quick_test/fbank/raw_fbank_train.1.ark:1920912
mmsm0_sx206 quick_test/fbank/raw_fbank_train.3.ark:9974885
mmxs0_si629 quick_test/fbank/raw_fbank_train.3.ark:10455830
mntw0_sx202 quick_test/fbank/raw_fbank_train.3.ark:10686298
mvjh0_sx296 quick_test/fbank/raw_fbank_train.4.ark:10280210
flhd0_si1827 quick_test/fbank/raw_fbank_train.1.ark:7527406
mrmh0_sx121 quick_test/fbank/raw_fbank_train.4.ark:3929077
mmxs0_sx66 quick_test/fbank/raw_fbank_train.3.ark:10530827
mtju0_sx220 quick_test/fbank/raw_fbank_train.4.ark:8443654
mbjv0_si1877 quick_test/fbank/raw_fbank_train.2.ark:3657267
fmem0_si747 quick_test/fbank/raw_fbank_train.1.ark:8747502
mrew1_sx150 quick_test/fbank/raw_fbank_train.4.ark:1987841
mbwp0_sx169 quick_test/fbank/raw_fbank_train.2.ark:4323427
mbgt0_si1341 quick_test/fbank/raw_fbank_train.2.ark:3539328
mcdc0_sx122 quick_test/fbank/raw_fbank_train.2.ark:4651980
mejs0_sx250 quick_test/fbank/raw_fbank_train.2.ark:10083066
mjmm0_sx445 quick_test/fbank/raw_fbank_train.3.ark:4125514
fcrz0_sx73 quick_test/fbank/raw_fbank_train.1.ark:2284352
mbef0_sx111 quick_test/fbank/raw_fbank_train.2.ark:3497403
fsrh0_sx131 quick_test/fbank/raw_fbank_train.2.ark:1086455
milb0_sx93 quick_test/fbank/raw_fbank_train.3.ark:1656117
mrhl0_si2145 quick_test/fbank/raw_fbank_train.4.ark:2486779
mgjc0_sx75 quick_test/fbank/raw_fbank_train.3.ark:375521
mdsj0_si2092 quick_test/fbank/raw_fbank_train.2.ark:8914149
mrmg0_sx180 quick_test/fbank/raw_fbank_train.4.ark:3825691
ftlg0_sx303 quick_test/fbank/raw_fbank_train.2.ark:1610605
mkdt0_sx83 quick_test/fbank/raw_fbank_train.3.ark:6347054
mtjs0_sx382 quick_test/fbank/raw_fbank_train.4.ark:8380727
mkam0_sx56 quick_test/fbank/raw_fbank_train.3.ark:6044461
mdpb0_sx416 quick_test/fbank/raw_fbank_train.2.ark:8582974
mnet0_si816 quick_test/fbank/raw_fbank_train.3.ark:10563328
ftlg0_si483 quick_test/fbank/raw_fbank_train.2.ark:1554953
mdwh0_si1925 quick_test/fbank/raw_fbank_train.2.ark:9363155
mreh1_sx159 quick_test/fbank/raw_fbank_train.4.ark:1793792
mesj0_sx277 quick_test/fbank/raw_fbank_train.2.ark:10273516
fvkb0_si1789 quick_test/fbank/raw_fbank_train.2.ark:1835469
mpfu0_sx88 quick_test/fbank/raw_fbank_train.3.ark:10998871
mrlr0_si1826 quick_test/fbank/raw_fbank_train.4.ark:3618054
mrsp0_sx439 quick_test/fbank/raw_fbank_train.4.ark:4594248
mrwa0_sx433 quick_test/fbank/raw_fbank_train.4.ark:5011788
msmc0_sx287 quick_test/fbank/raw_fbank_train.4.ark:6514966
fhlm0_sx120 quick_test/fbank/raw_fbank_train.1.ark:4645003
mjra0_si1236 quick_test/fbank/raw_fbank_train.3.ark:4430535
mrld0_si2224 quick_test/fbank/raw_fbank_train.4.ark:3252633
mgak0_sx316 quick_test/fbank/raw_fbank_train.2.ark:11216160
mmbs0_sx161 quick_test/fbank/raw_fbank_train.3.ark:8435852
msrr0_sx51 quick_test/fbank/raw_fbank_train.4.ark:6916418
mmbs0_sx431 quick_test/fbank/raw_fbank_train.3.ark:8482791
mwdk0_sx446 quick_test/fbank/raw_fbank_train.4.ark:10933829
flhd0_sx84 quick_test/fbank/raw_fbank_train.1.ark:7595724
mtrr0_sx198 quick_test/fbank/raw_fbank_train.4.ark:9871356
msat1_sx353 quick_test/fbank/raw_fbank_train.4.ark:5556787
fjrb0_sx42 quick_test/fbank/raw_fbank_train.1.ark:5540180
fmah1_si879 quick_test/fbank/raw_fbank_train.1.ark:8542453
mrab0_si1224 quick_test/fbank/raw_fbank_train.4.ark:564788
mtpg0_sx393 quick_test/fbank/raw_fbank_train.4.ark:9378658
mdwd0_si1890 quick_test/fbank/raw_fbank_train.2.ark:9268970
fssb0_sx182 quick_test/fbank/raw_fbank_train.2.ark:1193801
mges0_sx311 quick_test/fbank/raw_fbank_train.3.ark:236510
mkjo0_sx424 quick_test/fbank/raw_fbank_train.3.ark:6518279
mmab1_si1494 quick_test/fbank/raw_fbank_train.3.ark:7970971
fsbk0_sx259 quick_test/fbank/raw_fbank_train.1.ark:11243963
ftmg0_sx452 quick_test/fbank/raw_fbank_train.2.ark:1712543
fmjb0_si547 quick_test/fbank/raw_fbank_train.1.ark:8862808
fpaz0_sx63 quick_test/fbank/raw_fbank_train.1.ark:10286811
fsdj0_sx215 quick_test/fbank/raw_fbank_train.1.ark:11564718
mdss1_sx247 quick_test/fbank/raw_fbank_train.2.ark:9121138
mwrp0_si1525 quick_test/fbank/raw_fbank_train.4.ark:11273686
fsak0_sx220 quick_test/fbank/raw_fbank_train.1.ark:11149057
fkfb0_sx348 quick_test/fbank/raw_fbank_train.1.ark:6557806
msfv0_sx182 quick_test/fbank/raw_fbank_train.4.ark:6265899
mdss0_sx81 quick_test/fbank/raw_fbank_train.2.ark:9068131
mvrw0_sx405 quick_test/fbank/raw_fbank_train.4.ark:10462061
fklc0_sx175 quick_test/fbank/raw_fbank_train.1.ark:6751910
mewm0_si1348 quick_test/fbank/raw_fbank_train.2.ark:10310406
mdsj0_sx112 quick_test/fbank/raw_fbank_train.2.ark:8934055
mbml0_si539 quick_test/fbank/raw_fbank_train.2.ark:3957455
mmdm1_sx333 quick_test/fbank/raw_fbank_train.3.ark:8959483
mjma0_si865 quick_test/fbank/raw_fbank_train.3.ark:3902731
msmr0_si1150 quick_test/fbank/raw_fbank_train.4.ark:6539793
mpsw0_si1067 quick_test/fbank/raw_fbank_train.4.ark:485643
fklc0_sx265 quick_test/fbank/raw_fbank_train.1.ark:6772263
mjxa0_si2137 quick_test/fbank/raw_fbank_train.3.ark:5479179
mrjh0_si914 quick_test/fbank/raw_fbank_train.4.ark:2727422
mrxb0_si2215 quick_test/fbank/raw_fbank_train.4.ark:5132073
flet0_sx57 quick_test/fbank/raw_fbank_train.1.ark:7505658
mlns0_sx147 quick_test/fbank/raw_fbank_train.3.ark:7704996
mdpb0_sx56 quick_test/fbank/raw_fbank_train.2.ark:8593446
mjee0_sx157 quick_test/fbank/raw_fbank_train.3.ark:2819728
fljg0_sx81 quick_test/fbank/raw_fbank_train.1.ark:7921280
mwre0_sx157 quick_test/fbank/raw_fbank_train.4.ark:11191127
mbma1_si954 quick_test/fbank/raw_fbank_train.2.ark:3851430
flhd0_sx174 quick_test/fbank/raw_fbank_train.1.ark:7547153
mdbb1_sx196 quick_test/fbank/raw_fbank_train.2.ark:6254363
mctm0_sx270 quick_test/fbank/raw_fbank_train.2.ark:5863793
mvlo0_si1777 quick_test/fbank/raw_fbank_train.4.ark:10311591
fpac0_si2011 quick_test/fbank/raw_fbank_train.1.ark:9897779
mkln0_sx428 quick_test/fbank/raw_fbank_train.3.ark:6625697
msdh0_sx170 quick_test/fbank/raw_fbank_train.4.ark:5692652
mprd0_sx171 quick_test/fbank/raw_fbank_train.4.ark:211109
mdas0_si636 quick_test/fbank/raw_fbank_train.2.ark:6133802
mgsh0_sx96 quick_test/fbank/raw_fbank_train.3.ark:685074
fbmh0_si970 quick_test/fbank/raw_fbank_train.1.ark:1076127
fcyl0_sx127 quick_test/fbank/raw_fbank_train.1.ark:2340486
mrgs0_sx276 quick_test/fbank/raw_fbank_train.4.ark:2426135
maeo0_si1956 quick_test/fbank/raw_fbank_train.2.ark:2430413
msfv0_si632 quick_test/fbank/raw_fbank_train.4.ark:6246746
mdlr0_sx153 quick_test/fbank/raw_fbank_train.2.ark:8018749
msmr0_sx415 quick_test/fbank/raw_fbank_train.4.ark:6616032
fgrw0_si1990 quick_test/fbank/raw_fbank_train.1.ark:4535065
fhxs0_si1075 quick_test/fbank/raw_fbank_train.1.ark:4717169
mjdg0_si1672 quick_test/fbank/raw_fbank_train.3.ark:2389601
mgrp0_si1317 quick_test/fbank/raw_fbank_train.3.ark:482900
mdwm0_sx433 quick_test/fbank/raw_fbank_train.2.ark:9546137
mses0_sx149 quick_test/fbank/raw_fbank_train.4.ark:6046929
mgar0_si1694 quick_test/fbank/raw_fbank_train.3.ark:15167
mkls1_si1545 quick_test/fbank/raw_fbank_train.3.ark:6845655
fnkl0_sx196 quick_test/fbank/raw_fbank_train.1.ark:9625124
mtmn0_sx164 quick_test/fbank/raw_fbank_train.4.ark:9052892
mcpm0_si1824 quick_test/fbank/raw_fbank_train.2.ark:5432795
flac0_sx361 quick_test/fbank/raw_fbank_train.1.ark:7172637
fpmy0_sx253 quick_test/fbank/raw_fbank_train.1.ark:10563420
mdks0_sx76 quick_test/fbank/raw_fbank_train.2.ark:7368185
mtxs0_si1060 quick_test/fbank/raw_fbank_train.4.ark:10089186
mmdm0_si1311 quick_test/fbank/raw_fbank_train.3.ark:8801212
msmr0_si775 quick_test/fbank/raw_fbank_train.4.ark:6571980
mdjm0_si1455 quick_test/fbank/raw_fbank_train.2.ark:7187408
fleh0_si2311 quick_test/fbank/raw_fbank_train.1.ark:7349149
fgrw0_sx162 quick_test/fbank/raw_fbank_train.1.ark:4544538
mdlb0_sx46 quick_test/fbank/raw_fbank_train.2.ark:7492010
mkag0_sx259 quick_test/fbank/raw_fbank_train.3.ark:5717448
mcth0_si1209 quick_test/fbank/raw_fbank_train.2.ark:5712635
fcke0_sx211 quick_test/fbank/raw_fbank_train.1.ark:1867433
fgcs0_sx226 quick_test/fbank/raw_fbank_train.1.ark:4224575
fjwb1_sx345 quick_test/fbank/raw_fbank_train.1.ark:5935695
mmpm0_sx341 quick_test/fbank/raw_fbank_train.3.ark:9776789
msrr0_sx141 quick_test/fbank/raw_fbank_train.4.ark:6874608
fcag0_sx243 quick_test/fbank/raw_fbank_train.1.ark:1294643
mmeb0_sx187 quick_test/fbank/raw_fbank_train.3.ark:9201092
fsbk0_sx439 quick_test/fbank/raw_fbank_train.1.ark:11278269
mrbc0_si599 quick_test/fbank/raw_fbank_train.4.ark:1079902
mhit0_sx443 quick_test/fbank/raw_fbank_train.3.ark:1083098
fbch0_sx56 quick_test/fbank/raw_fbank_train.1.ark:828855
madc0_si1997 quick_test/fbank/raw_fbank_train.2.ark:2121984
fljd0_sx346 quick_test/fbank/raw_fbank_train.1.ark:7781870
fklc1_sx418 quick_test/fbank/raw_fbank_train.1.ark:6889235
makb0_sx296 quick_test/fbank/raw_fbank_train.2.ark:2789221
mrbc0_sx59 quick_test/fbank/raw_fbank_train.4.ark:1146306
msat0_sx176 quick_test/fbank/raw_fbank_train.4.ark:5446495
falk0_sx96 quick_test/fbank/raw_fbank_train.1.ark:298009
mgag0_sx151 quick_test/fbank/raw_fbank_train.2.ark:11092268
mtwh1_si2142 quick_test/fbank/raw_fbank_train.4.ark:10017795
mrds0_sx357 quick_test/fbank/raw_fbank_train.4.ark:1612607
fpac0_si1921 quick_test/fbank/raw_fbank_train.1.ark:9877265
mjls0_si1096 quick_test/fbank/raw_fbank_train.3.ark:3769199
fdml0_si2075 quick_test/fbank/raw_fbank_train.1.ark:2925927
mdlm0_sx244 quick_test/fbank/raw_fbank_train.2.ark:7945037
fjlr0_si601 quick_test/fbank/raw_fbank_train.1.ark:5376511
mrdd0_si2310 quick_test/fbank/raw_fbank_train.4.ark:1392738
fecd0_si2048 quick_test/fbank/raw_fbank_train.1.ark:3656390
fpac0_sx31 quick_test/fbank/raw_fbank_train.1.ark:9965503
mmam0_si2227 quick_test/fbank/raw_fbank_train.3.ark:8213049
mjxl0_sx92 quick_test/fbank/raw_fbank_train.3.ark:5647801
mctm0_si720 quick_test/fbank/raw_fbank_train.2.ark:5843327
mdac0_si1837 quick_test/fbank/raw_fbank_train.2.ark:6015024
mmea0_si758 quick_test/fbank/raw_fbank_train.3.ark:9101074
mrtj0_sx322 quick_test/fbank/raw_fbank_train.4.ark:4812665
mjjj0_si533 quick_test/fbank/raw_fbank_train.3.ark:3306060
fvmh0_sx116 quick_test/fbank/raw_fbank_train.2.ark:1973240
mdlm0_sx424 quick_test/fbank/raw_fbank_train.2.ark:7962503
mfwk0_sx439 quick_test/fbank/raw_fbank_train.2.ark:10750346
fcjs0_sx257 quick_test/fbank/raw_fbank_train.1.ark:1763288
mbef0_sx201 quick_test/fbank/raw_fbank_train.2.ark:3506116
fjlr0_sx61 quick_test/fbank/raw_fbank_train.1.ark:5437435
mmdm1_si1650 quick_test/fbank/raw_fbank_train.3.ark:8901157
mewm0_sx178 quick_test/fbank/raw_fbank_train.2.ark:10337946
fjxp0_sx312 quick_test/fbank/raw_fbank_train.1.ark:6138785
fdxw0_si881 quick_test/fbank/raw_fbank_train.1.ark:3357988
mmws0_sx78 quick_test/fbank/raw_fbank_train.3.ark:10356138
mses0_si2216 quick_test/fbank/raw_fbank_train.4.ark:6027462
mtjm0_sx416 quick_test/fbank/raw_fbank_train.4.ark:8258950
mtml0_sx75 quick_test/fbank/raw_fbank_train.4.ark:8988198
fdxw0_sx161 quick_test/fbank/raw_fbank_train.1.ark:3373381
mdpk0_sx423 quick_test/fbank/raw_fbank_train.2.ark:8671359
flac0_sx451 quick_test/fbank/raw_fbank_train.1.ark:7183190
mfmc0_sx412 quick_test/fbank/raw_fbank_train.2.ark:10559415
fksr0_si1117 quick_test/fbank/raw_fbank_train.1.ark:7017286
mdss1_sx157 quick_test/fbank/raw_fbank_train.2.ark:9112065
mdcd0_si785 quick_test/fbank/raw_fbank_train.2.ark:6416635
mcxm0_sx181 quick_test/fbank/raw_fbank_train.2.ark:5942865
flmk0_sx315 quick_test/fbank/raw_fbank_train.1.ark:8295275
msfh0_si1216 quick_test/fbank/raw_fbank_train.4.ark:6099454
mbgt0_sx171 quick_test/fbank/raw_fbank_train.2.ark:3578628
maeb0_si1411 quick_test/fbank/raw_fbank_train.2.ark:2307200
fnkl0_sx172 quick_test/fbank/raw_fbank_train.1.ark:9611891
mrgm0_sx172 quick_test/fbank/raw_fbank_train.4.ark:2297677
mhrm0_si1475 quick_test/fbank/raw_fbank_train.3.ark:1378280
mrml0_si2051 quick_test/fbank/raw_fbank_train.4.ark:4001396
meal0_si2177 quick_test/fbank/raw_fbank_train.2.ark:9568165
fjkl0_si1562 quick_test/fbank/raw_fbank_train.1.ark:5159513
mdpk0_sx63 quick_test/fbank/raw_fbank_train.2.ark:8684191
mrfl0_sx76 quick_test/fbank/raw_fbank_train.4.ark:2236703
mrlr0_si566 quick_test/fbank/raw_fbank_train.4.ark:3628967
mrew1_si1500 quick_test/fbank/raw_fbank_train.4.ark:1957941
fljg0_sx171 quick_test/fbank/raw_fbank_train.1.ark:7858309
mpeb0_sx330 quick_test/fbank/raw_fbank_train.3.ark:10869741
fgdp0_si1618 quick_test/fbank/raw_fbank_train.1.ark:4267507
frjb0_sx257 quick_test/fbank/raw_fbank_train.1.ark:10729838
mcdc0_si1292 quick_test/fbank/raw_fbank_train.2.ark:4620320
fsls0_sx66 quick_test/fbank/raw_fbank_train.2.ark:628141
mdwd0_si557 quick_test/fbank/raw_fbank_train.2.ark:9283963
mrmh0_sx391 quick_test/fbank/raw_fbank_train.4.ark:3969288
fskc0_sx246 quick_test/fbank/raw_fbank_train.2.ark:298727
flod0_si657 quick_test/fbank/raw_fbank_train.1.ark:8354841
mgsl0_sx264 quick_test/fbank/raw_fbank_train.3.ark:755880
fdxw0_si2141 quick_test/fbank/raw_fbank_train.1.ark:3352235
fsah0_sx434 quick_test/fbank/raw_fbank_train.1.ark:11080938
mbwp0_si1531 quick_test/fbank/raw_fbank_train.2.ark:4292407
mdsj0_si832 quick_test/fbank/raw_fbank_train.2.ark:8922902
mrxb0_sx145 quick_test/fbank/raw_fbank_train.4.ark:5167579
mjac0_sx307 quick_test/fbank/raw_fbank_train.3.ark:1719284
