mmgg0_si2339 quick_test/data-fmllr-tri3/train/data/feats_fmllr_train.8.ark:461407
mbma1_si2207 quick_test/data-fmllr-tri3/train/data/feats_fmllr_train.4.ark:5918528
fpaz0_si1593 quick_test/data-fmllr-tri3/train/data/feats_fmllr_train.3.ark:2427075
fblv0_si1688 quick_test/data-fmllr-tri3/train/data/feats_fmllr_train.1.ark:3716870
msmr0_si775 quick_test/data-fmllr-tri3/train/data/feats_fmllr_train.9.ark:16346251
mbma1_si2214 quick_test/data-fmllr-tri3/train/data/feats_fmllr_train.4.ark:5947996
fsdc0_sx232 quick_test/data-fmllr-tri3/train/data/feats_fmllr_train.3.ark:7404827
mtkp0_si1023 quick_test/data-fmllr-tri3/train/data/feats_fmllr_train.10.ark:6092548
mjlb0_sx176 quick_test/data-fmllr-tri3/train/data/feats_fmllr_train.6.ark:14090302
mkjo0_si2147 quick_test/data-fmllr-tri3/train/data/feats_fmllr_train.7.ark:7196425
mdss0_si2087 quick_test/data-fmllr-tri3/train/data/feats_fmllr_train.5.ark:8627377
fksr0_si1117 quick_test/data-fmllr-tri3/train/data/feats_fmllr_train.2.ark:8479456
mcre0_si1121 quick_test/data-fmllr-tri3/train/data/feats_fmllr_train.4.ark:12454695
mtmt0_sx398 quick_test/data-fmllr-tri3/train/data/feats_fmllr_train.10.ark:8399103
mjma0_sx55 quick_test/data-fmllr-tri3/train/data/feats_fmllr_train.6.ark:15374101
mpsw0_si1697 quick_test/data-fmllr-tri3/train/data/feats_fmllr_train.8.ark:10666539
mmws1_si1701 quick_test/data-fmllr-tri3/train/data/feats_fmllr_train.8.ark:4364830
fjrb0_sx222 quick_test/data-fmllr-tri3/train/data/feats_fmllr_train.2.ark:2543028
mtat1_si1627 quick_test/data-fmllr-tri3/train/data/feats_fmllr_train.10.ark:1668749
mtdb0_si771 quick_test/data-fmllr-tri3/train/data/feats_fmllr_train.10.ark:2927027
mtat0_sx210 quick_test/data-fmllr-tri3/train/data/feats_fmllr_train.10.ark:1480133
mmlm0_si1527 quick_test/data-fmllr-tri3/train/data/feats_fmllr_train.8.ark:1439763
fgmb0_sx335 quick_test/data-fmllr-tri3/train/data/feats_fmllr_train.1.ark:17345804
mdlc1_sx175 quick_test/data-fmllr-tri3/train/data/feats_fmllr_train.5.ark:3358153
fksr0_si1747 quick_test/data-fmllr-tri3/train/data/feats_fmllr_train.2.ark:8525724
mjlg1_sx22 quick_test/data-fmllr-tri3/train/data/feats_fmllr_train.6.ark:14527213
mfmc0_si1762 quick_test/data-fmllr-tri3/train/data/feats_fmllr_train.5.ark:14404445
mmar0_sx76 quick_test/data-fmllr-tri3/train/data/feats_fmllr_train.7.ark:14609616
makb0_sx386 quick_test/data-fmllr-tri3/train/data/feats_fmllr_train.4.ark:1917073
msms0_sx443 quick_test/data-fmllr-tri3/train/data/feats_fmllr_train.9.ark:16900336
mjfh0_sx27 quick_test/data-fmllr-tri3/train/data/feats_fmllr_train.6.ark:11421956
mtjg0_si1520 quick_test/data-fmllr-tri3/train/data/feats_fmllr_train.10.ark:4089063
fbch0_sx326 quick_test/data-fmllr-tri3/train/data/feats_fmllr_train.1.ark:3115744
mdlc0_si765 quick_test/data-fmllr-tri3/train/data/feats_fmllr_train.5.ark:2932948
mkls1_sx15 quick_test/data-fmllr-tri3/train/data/feats_fmllr_train.7.ark:8822175
fmbg0_si1160 quick_test/data-fmllr-tri3/train/data/feats_fmllr_train.2.ark:14706933
fdaw0_sx326 quick_test/data-fmllr-tri3/train/data/feats_fmllr_train.1.ark:10006853
fsgf0_sx297 quick_test/data-fmllr-tri3/train/data/feats_fmllr_train.3.ark:8216994
fdfb0_sx58 quick_test/data-fmllr-tri3/train/data/feats_fmllr_train.1.ark:10422164
fcjf0_sx127 quick_test/data-fmllr-tri3/train/data/feats_fmllr_train.1.ark:6550764
mtxs0_si2320 quick_test/data-fmllr-tri3/train/data/feats_fmllr_train.10.ark:11986259
msfv0_sx272 quick_test/data-fmllr-tri3/train/data/feats_fmllr_train.9.ark:15196855
fjrp1_si802 quick_test/data-fmllr-tri3/train/data/feats_fmllr_train.2.ark:2901591
fmbg0_si2264 quick_test/data-fmllr-tri3/train/data/feats_fmllr_train.2.ark:14828109
mmws1_sx441 quick_test/data-fmllr-tri3/train/data/feats_fmllr_train.8.ark:4545125
mdcd0_sx245 quick_test/data-fmllr-tri3/train/data/feats_fmllr_train.4.ark:16090514
mrfk0_sx356 quick_test/data-fmllr-tri3/train/data/feats_fmllr_train.8.ark:16930923
fdtd0_si931 quick_test/data-fmllr-tri3/train/data/feats_fmllr_train.1.ark:12689414
mpgr1_si2129 quick_test/data-fmllr-tri3/train/data/feats_fmllr_train.8.ark:7602328
mmar0_sx166 quick_test/data-fmllr-tri3/train/data/feats_fmllr_train.7.ark:14354149
fkdw0_si1891 quick_test/data-fmllr-tri3/train/data/feats_fmllr_train.2.ark:6129701
mfrm0_si1785 quick_test/data-fmllr-tri3/train/data/feats_fmllr_train.5.ark:14858930
fvfb0_sx222 quick_test/data-fmllr-tri3/train/data/feats_fmllr_train.3.ark:15930882
mges0_sx311 quick_test/data-fmllr-tri3/train/data/feats_fmllr_train.6.ark:916904
mrem0_sx151 quick_test/data-fmllr-tri3/train/data/feats_fmllr_train.8.ark:16122274
mcdr0_sx74 quick_test/data-fmllr-tri3/train/data/feats_fmllr_train.4.ark:10082004
mjde0_sx40 quick_test/data-fmllr-tri3/train/data/feats_fmllr_train.6.ark:9128360
mmgc0_si2184 quick_test/data-fmllr-tri3/train/data/feats_fmllr_train.8.ark:120549
mrhl0_sx435 quick_test/data-fmllr-tri3/train/data/feats_fmllr_train.9.ark:692871
mjhi0_sx428 quick_test/data-fmllr-tri3/train/data/feats_fmllr_train.6.ark:12232657
mrxb0_si2215 quick_test/data-fmllr-tri3/train/data/feats_fmllr_train.9.ark:10743182
mdwm0_si916 quick_test/data-fmllr-tri3/train/data/feats_fmllr_train.5.ark:10479370
mmdg0_sx160 quick_test/data-fmllr-tri3/train/data/feats_fmllr_train.7.ark:15979657
mvjh0_si1556 quick_test/data-fmllr-tri3/train/data/feats_fmllr_train.10.ark:12337941
fkaa0_si1208 quick_test/data-fmllr-tri3/train/data/feats_fmllr_train.2.ark:5196758
mkaj0_sx424 quick_test/data-fmllr-tri3/train/data/feats_fmllr_train.7.ark:5067259
mgjc0_sx165 quick_test/data-fmllr-tri3/train/data/feats_fmllr_train.6.ark:1222828
mrpc1_sx132 quick_test/data-fmllr-tri3/train/data/feats_fmllr_train.9.ark:7204643
fjdm2_sx142 quick_test/data-fmllr-tri3/train/data/feats_fmllr_train.2.ark:143456
mtwh1_si1512 quick_test/data-fmllr-tri3/train/data/feats_fmllr_train.10.ark:11556066
fmkc0_sx172 quick_test/data-fmllr-tri3/train/data/feats_fmllr_train.2.ark:16873059
mmeb0_si727 quick_test/data-fmllr-tri3/train/data/feats_fmllr_train.7.ark:17750315
fexm0_sx366 quick_test/data-fmllr-tri3/train/data/feats_fmllr_train.1.ark:16135579
msat0_si2156 quick_test/data-fmllr-tri3/train/data/feats_fmllr_train.9.ark:11894394
mrmg0_sx450 quick_test/data-fmllr-tri3/train/data/feats_fmllr_train.9.ark:5796333
mjee0_sx67 quick_test/data-fmllr-tri3/train/data/feats_fmllr_train.6.ark:11153153
fpaz0_si2223 quick_test/data-fmllr-tri3/train/data/feats_fmllr_train.3.ark:2455103
fkdw0_sx307 quick_test/data-fmllr-tri3/train/data/feats_fmllr_train.2.ark:6313969
mdlc1_si2144 quick_test/data-fmllr-tri3/train/data/feats_fmllr_train.5.ark:3334126
fcaj0_si1479 quick_test/data-fmllr-tri3/train/data/feats_fmllr_train.1.ark:5242831
fbmh0_si1136 quick_test/data-fmllr-tri3/train/data/feats_fmllr_train.1.ark:4082660
flac0_sx271 quick_test/data-fmllr-tri3/train/data/feats_fmllr_train.2.ark:9044422
mprd0_si801 quick_test/data-fmllr-tri3/train/data/feats_fmllr_train.8.ark:9472156
mlel0_sx76 quick_test/data-fmllr-tri3/train/data/feats_fmllr_train.7.ark:10886382
fcmg0_sx432 quick_test/data-fmllr-tri3/train/data/feats_fmllr_train.1.ark:8087074
fdmy0_sx117 quick_test/data-fmllr-tri3/train/data/feats_fmllr_train.1.ark:11877326
mtkp0_si2283 quick_test/data-fmllr-tri3/train/data/feats_fmllr_train.10.ark:6139936
mdwh0_sx125 quick_test/data-fmllr-tri3/train/data/feats_fmllr_train.5.ark:10126060
fjsp0_si1434 quick_test/data-fmllr-tri3/train/data/feats_fmllr_train.2.ark:3658931
fdmy0_sx207 quick_test/data-fmllr-tri3/train/data/feats_fmllr_train.1.ark:11935273
mhxl0_sx332 quick_test/data-fmllr-tri3/train/data/feats_fmllr_train.6.ark:5956360
mdpk0_sx153 quick_test/data-fmllr-tri3/train/data/feats_fmllr_train.5.ark:7182723
mjrh1_sx154 quick_test/data-fmllr-tri3/train/data/feats_fmllr_train.7.ark:547833
mjrh1_sx244 quick_test/data-fmllr-tri3/train/data/feats_fmllr_train.7.ark:594420
mjxa0_si2137 quick_test/data-fmllr-tri3/train/data/feats_fmllr_train.7.ark:3309617
mdtb0_sx321 quick_test/data-fmllr-tri3/train/data/feats_fmllr_train.5.ark:9484746
fmmh0_sx420 quick_test/data-fmllr-tri3/train/data/feats_fmllr_train.2.ark:17782985
mtdb0_sx141 quick_test/data-fmllr-tri3/train/data/feats_fmllr_train.10.ark:2999694
mrab1_si1478 quick_test/data-fmllr-tri3/train/data/feats_fmllr_train.8.ark:11321025
fsjw0_sx73 quick_test/data-fmllr-tri3/train/data/feats_fmllr_train.3.ark:9944449
mprt0_sx400 quick_test/data-fmllr-tri3/train/data/feats_fmllr_train.8.ark:10590963
mkdd0_sx127 quick_test/data-fmllr-tri3/train/data/feats_fmllr_train.7.ark:6143989
mwre0_si1687 quick_test/data-fmllr-tri3/train/data/feats_fmllr_train.10.ark:16092143
marc0_sx378 quick_test/data-fmllr-tri3/train/data/feats_fmllr_train.4.ark:2929244
fleh0_sx61 quick_test/data-fmllr-tri3/train/data/feats_fmllr_train.2.ark:10000297
mmaa0_sx395 quick_test/data-fmllr-tri3/train/data/feats_fmllr_train.7.ark:12953547
mmlm0_sx357 quick_test/data-fmllr-tri3/train/data/feats_fmllr_train.8.ark:1643419
fsjs0_sx181 quick_test/data-fmllr-tri3/train/data/feats_fmllr_train.3.ark:9321725
mgar0_sx132 quick_test/data-fmllr-tri3/train/data/feats_fmllr_train.6.ark:133696
mjpm0_sx288 quick_test/data-fmllr-tri3/train/data/feats_fmllr_train.6.ark:16743423
fsmm0_si684 quick_test/data-fmllr-tri3/train/data/feats_fmllr_train.3.ark:11981298
mmbs0_si1151 quick_test/data-fmllr-tri3/train/data/feats_fmllr_train.7.ark:14666924
msmr0_sx145 quick_test/data-fmllr-tri3/train/data/feats_fmllr_train.9.ark:16386918
flkm0_si686 quick_test/data-fmllr-tri3/train/data/feats_fmllr_train.2.ark:12179546
fpls0_sx150 quick_test/data-fmllr-tri3/train/data/feats_fmllr_train.3.ark:3361511
mkdd0_si1567 quick_test/data-fmllr-tri3/train/data/feats_fmllr_train.7.ark:5940067
fcag0_si2133 quick_test/data-fmllr-tri3/train/data/feats_fmllr_train.1.ark:4955309
fmju0_si759 quick_test/data-fmllr-tri3/train/data/feats_fmllr_train.2.ark:16439054
mmcc0_sx168 quick_test/data-fmllr-tri3/train/data/feats_fmllr_train.7.ark:15258263
mjae0_sx84 quick_test/data-fmllr-tri3/train/data/feats_fmllr_train.6.ark:7197382
mjxa0_si1507 quick_test/data-fmllr-tri3/train/data/feats_fmllr_train.7.ark:3246709
fhxs0_sx445 quick_test/data-fmllr-tri3/train/data/feats_fmllr_train.1.ark:18754165
fhxs0_sx85 quick_test/data-fmllr-tri3/train/data/feats_fmllr_train.1.ark:18790351
msfh0_sx46 quick_test/data-fmllr-tri3/train/data/feats_fmllr_train.9.ark:14934158
mrab0_si594 quick_test/data-fmllr-tri3/train/data/feats_fmllr_train.8.ark:11041983
mpsw0_sx77 quick_test/data-fmllr-tri3/train/data/feats_fmllr_train.8.ark:10895340
mbom0_si1014 quick_test/data-fmllr-tri3/train/data/feats_fmllr_train.4.ark:6679922
fdfb0_sx238 quick_test/data-fmllr-tri3/train/data/feats_fmllr_train.1.ark:10298724
mtwh1_sx162 quick_test/data-fmllr-tri3/train/data/feats_fmllr_train.10.ark:11674708
fcaj0_si849 quick_test/data-fmllr-tri3/train/data/feats_fmllr_train.1.ark:5292966
fcmg0_sx342 quick_test/data-fmllr-tri3/train/data/feats_fmllr_train.1.ark:8036967
mdwd0_si557 quick_test/data-fmllr-tri3/train/data/feats_fmllr_train.5.ark:9706136
fjlg0_sx359 quick_test/data-fmllr-tri3/train/data/feats_fmllr_train.2.ark:1832541
fspm0_si611 quick_test/data-fmllr-tri3/train/data/feats_fmllr_train.3.ark:12823172
msmr0_sx325 quick_test/data-fmllr-tri3/train/data/feats_fmllr_train.9.ark:16480092
mgjc0_si1335 quick_test/data-fmllr-tri3/train/data/feats_fmllr_train.6.ark:1120533
mtrr0_sx198 quick_test/data-fmllr-tri3/train/data/feats_fmllr_train.10.ark:11038807
mpsw0_si2327 quick_test/data-fmllr-tri3/train/data/feats_fmllr_train.8.ark:10705287
mprb0_sx215 quick_test/data-fmllr-tri3/train/data/feats_fmllr_train.8.ark:9170873
fsls0_si1056 quick_test/data-fmllr-tri3/train/data/feats_fmllr_train.3.ark:11094088
mjbg0_sx332 quick_test/data-fmllr-tri3/train/data/feats_fmllr_train.6.ark:7872323
fklc1_sx148 quick_test/data-fmllr-tri3/train/data/feats_fmllr_train.2.ark:7841024
mdef0_si2193 quick_test/data-fmllr-tri3/train/data/feats_fmllr_train.5.ark:122149
fbcg1_sx262 quick_test/data-fmllr-tri3/train/data/feats_fmllr_train.1.ark:2640621
fsak0_sx310 quick_test/data-fmllr-tri3/train/data/feats_fmllr_train.3.ark:6192042
fgmb0_sx245 quick_test/data-fmllr-tri3/train/data/feats_fmllr_train.1.ark:17296177
mbml0_sx359 quick_test/data-fmllr-tri3/train/data/feats_fmllr_train.4.ark:6532961
mbsb0_si1353 quick_test/data-fmllr-tri3/train/data/feats_fmllr_train.4.ark:7009901
mdcm0_si2110 quick_test/data-fmllr-tri3/train/data/feats_fmllr_train.4.ark:16334330
mmgg0_sx89 quick_test/data-fmllr-tri3/train/data/feats_fmllr_train.8.ark:702021
mvrw0_sx45 quick_test/data-fmllr-tri3/train/data/feats_fmllr_train.10.ark:13368804
mwdk0_sx176 quick_test/data-fmllr-tri3/train/data/feats_fmllr_train.10.ark:15018585
mjfr0_sx75 quick_test/data-fmllr-tri3/train/data/feats_fmllr_train.6.ark:11902867
mkdd0_si2197 quick_test/data-fmllr-tri3/train/data/feats_fmllr_train.7.ark:6006815
mcxm0_sx271 quick_test/data-fmllr-tri3/train/data/feats_fmllr_train.4.ark:14189911
fjwb1_sx255 quick_test/data-fmllr-tri3/train/data/feats_fmllr_train.2.ark:4233496
mjrp0_sx315 quick_test/data-fmllr-tri3/train/data/feats_fmllr_train.7.ark:1342401
mrbc0_sx239 quick_test/data-fmllr-tri3/train/data/feats_fmllr_train.8.ark:13038644
fsdj0_si1115 quick_test/data-fmllr-tri3/train/data/feats_fmllr_train.3.ark:7578695
msah1_sx59 quick_test/data-fmllr-tri3/train/data/feats_fmllr_train.9.ark:11389961
mkxl0_sx195 quick_test/data-fmllr-tri3/train/data/feats_fmllr_train.7.ark:10010374
makb0_sx116 quick_test/data-fmllr-tri3/train/data/feats_fmllr_train.4.ark:1725126
mpsw0_sx437 quick_test/data-fmllr-tri3/train/data/feats_fmllr_train.8.ark:10846514
fskc0_si786 quick_test/data-fmllr-tri3/train/data/feats_fmllr_train.3.ark:10092852
mtrt0_sx237 quick_test/data-fmllr-tri3/train/data/feats_fmllr_train.10.ark:11405558
fbas0_si1472 quick_test/data-fmllr-tri3/train/data/feats_fmllr_train.1.ark:2110402
mbjv0_sx167 quick_test/data-fmllr-tri3/train/data/feats_fmllr_train.4.ark:5330816
mmpm0_si2321 quick_test/data-fmllr-tri3/train/data/feats_fmllr_train.8.ark:1849636
mpeb0_si1034 quick_test/data-fmllr-tri3/train/data/feats_fmllr_train.8.ark:6068285
fsms1_sx347 quick_test/data-fmllr-tri3/train/data/feats_fmllr_train.3.ark:12589623
fjxm0_sx311 quick_test/data-fmllr-tri3/train/data/feats_fmllr_train.2.ark:4628460
mgsl0_sx444 quick_test/data-fmllr-tri3/train/data/feats_fmllr_train.6.ark:3032734
mctm0_si1980 quick_test/data-fmllr-tri3/train/data/feats_fmllr_train.4.ark:13676013
mrml0_sx431 quick_test/data-fmllr-tri3/train/data/feats_fmllr_train.9.ark:6634528
mtxs0_sx340 quick_test/data-fmllr-tri3/train/data/feats_fmllr_train.10.ark:12178020
mljc0_sx55 quick_test/data-fmllr-tri3/train/data/feats_fmllr_train.7.ark:11281959
mrws0_sx292 quick_test/data-fmllr-tri3/train/data/feats_fmllr_train.9.ark:10611259
msdh0_sx440 quick_test/data-fmllr-tri3/train/data/feats_fmllr_train.9.ark:13097582
mges0_sx131 quick_test/data-fmllr-tri3/train/data/feats_fmllr_train.6.ark:850610
mjdc0_si531 quick_test/data-fmllr-tri3/train/data/feats_fmllr_train.6.ark:8437637
mjrp0_si1845 quick_test/data-fmllr-tri3/train/data/feats_fmllr_train.7.ark:1141493
mtqc0_si480 quick_test/data-fmllr-tri3/train/data/feats_fmllr_train.10.ark:10112694
fmkc0_si1702 quick_test/data-fmllr-tri3/train/data/feats_fmllr_train.2.ark:16841512
fcyl0_sx397 quick_test/data-fmllr-tri3/train/data/feats_fmllr_train.1.ark:9278791
mtrr0_sx18 quick_test/data-fmllr-tri3/train/data/feats_fmllr_train.10.ark:10994620
mfmc0_sx52 quick_test/data-fmllr-tri3/train/data/feats_fmllr_train.5.ark:14704766
meal0_sx107 quick_test/data-fmllr-tri3/train/data/feats_fmllr_train.5.ark:10884574
mzmb0_sx356 quick_test/data-fmllr-tri3/train/data/feats_fmllr_train.10.ark:17845437
mdwd0_sx360 quick_test/data-fmllr-tri3/train/data/feats_fmllr_train.5.ark:9805737
mabc0_sx61 quick_test/data-fmllr-tri3/train/data/feats_fmllr_train.3.ark:17136413
makr0_si1352 quick_test/data-fmllr-tri3/train/data/feats_fmllr_train.4.ark:1956301
mtat0_sx120 quick_test/data-fmllr-tri3/train/data/feats_fmllr_train.10.ark:1429386
mrlj0_sx70 quick_test/data-fmllr-tri3/train/data/feats_fmllr_train.9.ark:4044712
fmpg0_sx342 quick_test/data-fmllr-tri3/train/data/feats_fmllr_train.2.ark:18230720
mclm0_sx376 quick_test/data-fmllr-tri3/train/data/feats_fmllr_train.4.ark:12062770
msas0_si1376 quick_test/data-fmllr-tri3/train/data/feats_fmllr_train.9.ark:11413989
flac0_sx451 quick_test/data-fmllr-tri3/train/data/feats_fmllr_train.2.ark:9123676
mgsl0_sx264 quick_test/data-fmllr-tri3/train/data/feats_fmllr_train.6.ark:2940360
mmvp0_si1914 quick_test/data-fmllr-tri3/train/data/feats_fmllr_train.8.ark:3015059
mmam0_sx67 quick_test/data-fmllr-tri3/train/data/feats_fmllr_train.7.ark:14132759
mtjm0_sx56 quick_test/data-fmllr-tri3/train/data/feats_fmllr_train.10.ark:4806269
mgsl0_si1164 quick_test/data-fmllr-tri3/train/data/feats_fmllr_train.6.ark:2726812
mdss0_si621 quick_test/data-fmllr-tri3/train/data/feats_fmllr_train.5.ark:8660844
mdwd0_sx90 quick_test/data-fmllr-tri3/train/data/feats_fmllr_train.5.ark:9899710
mrew1_sx330 quick_test/data-fmllr-tri3/train/data/feats_fmllr_train.8.ark:16549745
flhd0_sx174 quick_test/data-fmllr-tri3/train/data/feats_fmllr_train.2.ark:10539345
fhxs0_si2335 quick_test/data-fmllr-tri3/train/data/feats_fmllr_train.1.ark:18546217
mmws0_si559 quick_test/data-fmllr-tri3/train/data/feats_fmllr_train.8.ark:3990533
mrem0_si1591 quick_test/data-fmllr-tri3/train/data/feats_fmllr_train.8.ark:15967633
maeb0_sx270 quick_test/data-fmllr-tri3/train/data/feats_fmllr_train.4.ark:201882
flac0_sx361 quick_test/data-fmllr-tri3/train/data/feats_fmllr_train.2.ark:9082849
mtat0_sx390 quick_test/data-fmllr-tri3/train/data/feats_fmllr_train.10.ark:1578773
mjmd0_sx308 quick_test/data-fmllr-tri3/train/data/feats_fmllr_train.6.ark:15619386
mrvg0_sx60 quick_test/data-fmllr-tri3/train/data/feats_fmllr_train.9.ark:9954692
fpac0_si1921 quick_test/data-fmllr-tri3/train/data/feats_fmllr_train.3.ark:1188503
mdrd0_si2012 quick_test/data-fmllr-tri3/train/data/feats_fmllr_train.5.ark:7806943
fbmj0_sx336 quick_test/data-fmllr-tri3/train/data/feats_fmllr_train.1.ark:4723812
mrdd0_si2310 quick_test/data-fmllr-tri3/train/data/feats_fmllr_train.8.ark:14155082
mrds0_sx357 quick_test/data-fmllr-tri3/train/data/feats_fmllr_train.8.ark:15008237
mter0_sx17 quick_test/data-fmllr-tri3/train/data/feats_fmllr_train.10.ark:3908155
mprk0_sx377 quick_test/data-fmllr-tri3/train/data/feats_fmllr_train.8.ark:10230107
mwsh0_si2266 quick_test/data-fmllr-tri3/train/data/feats_fmllr_train.10.ark:17211512
mcae0_sx97 quick_test/data-fmllr-tri3/train/data/feats_fmllr_train.4.ark:8563216
fdnc0_sx108 quick_test/data-fmllr-tri3/train/data/feats_fmllr_train.1.ark:12333064
mjkr0_sx121 quick_test/data-fmllr-tri3/train/data/feats_fmllr_train.6.ark:13724645
mdma0_sx440 quick_test/data-fmllr-tri3/train/data/feats_fmllr_train.5.ark:5815696
mbml0_sx449 quick_test/data-fmllr-tri3/train/data/feats_fmllr_train.4.ark:6588828
fnkl0_sx442 quick_test/data-fmllr-tri3/train/data/feats_fmllr_train.3.ark:278096
maeo0_si1326 quick_test/data-fmllr-tri3/train/data/feats_fmllr_train.4.ark:368870
mkaj0_si2044 quick_test/data-fmllr-tri3/train/data/feats_fmllr_train.7.ark:4846644
fmju0_sx129 quick_test/data-fmllr-tri3/train/data/feats_fmllr_train.2.ark:16491241
mhrm0_si1475 quick_test/data-fmllr-tri3/train/data/feats_fmllr_train.6.ark:5357928
mjdg0_si1705 quick_test/data-fmllr-tri3/train/data/feats_fmllr_train.6.ark:9352791
mmar0_sx346 quick_test/data-fmllr-tri3/train/data/feats_fmllr_train.7.ark:14495963
fdas1_sx21 quick_test/data-fmllr-tri3/train/data/feats_fmllr_train.1.ark:9616554
mrav0_si1638 quick_test/data-fmllr-tri3/train/data/feats_fmllr_train.8.ark:12541065
mlbc0_sx69 quick_test/data-fmllr-tri3/train/data/feats_fmllr_train.7.ark:10455285
fljd0_sx256 quick_test/data-fmllr-tri3/train/data/feats_fmllr_train.2.ark:11412287
mcxm0_si721 quick_test/data-fmllr-tri3/train/data/feats_fmllr_train.4.ark:14093697
mesg0_sx342 quick_test/data-fmllr-tri3/train/data/feats_fmllr_train.5.ark:13213127
mdhl0_sx359 quick_test/data-fmllr-tri3/train/data/feats_fmllr_train.5.ark:1047623
mtcs0_sx82 quick_test/data-fmllr-tri3/train/data/feats_fmllr_train.10.ark:2785024
fpad0_sx86 quick_test/data-fmllr-tri3/train/data/feats_fmllr_train.3.ark:1988749
madd0_si538 quick_test/data-fmllr-tri3/train/data/feats_fmllr_train.3.ark:17676873
mddc0_si789 quick_test/data-fmllr-tri3/train/data/feats_fmllr_train.4.ark:16737934
mcef0_sx325 quick_test/data-fmllr-tri3/train/data/feats_fmllr_train.4.ark:10361368
mrsp0_sx169 quick_test/data-fmllr-tri3/train/data/feats_fmllr_train.9.ark:8523374
fkkh0_si660 quick_test/data-fmllr-tri3/train/data/feats_fmllr_train.2.ark:7043602
mtwh1_sx72 quick_test/data-fmllr-tri3/train/data/feats_fmllr_train.10.ark:11855775
mtbc0_sx363 quick_test/data-fmllr-tri3/train/data/feats_fmllr_train.10.ark:2353101
mtrc0_sx93 quick_test/data-fmllr-tri3/train/data/feats_fmllr_train.10.ark:10774964
mppc0_sx152 quick_test/data-fmllr-tri3/train/data/feats_fmllr_train.8.ark:8696389
mtdb0_si1401 quick_test/data-fmllr-tri3/train/data/feats_fmllr_train.10.ark:2828092
mmsm0_sx386 quick_test/data-fmllr-tri3/train/data/feats_fmllr_train.8.ark:2922843
mjdm0_sx80 quick_test/data-fmllr-tri3/train/data/feats_fmllr_train.6.ark:10004662
mrdm0_si965 quick_test/data-fmllr-tri3/train/data/feats_fmllr_train.8.ark:14517059
flkm0_sx440 quick_test/data-fmllr-tri3/train/data/feats_fmllr_train.2.ark:12375654
megj0_sx167 quick_test/data-fmllr-tri3/train/data/feats_fmllr_train.5.ark:12010184
mrdd0_sx277 quick_test/data-fmllr-tri3/train/data/feats_fmllr_train.8.ark:14270843
mtpf0_sx425 quick_test/data-fmllr-tri3/train/data/feats_fmllr_train.10.ark:8751774
mmdb0_sx87 quick_test/data-fmllr-tri3/train/data/feats_fmllr_train.7.ark:15786107
fvkb0_si1159 quick_test/data-fmllr-tri3/train/data/feats_fmllr_train.3.ark:16098030
mvjh0_sx116 quick_test/data-fmllr-tri3/train/data/feats_fmllr_train.10.ark:12511303
mjlg1_si2272 quick_test/data-fmllr-tri3/train/data/feats_fmllr_train.6.ark:14390973
mcre0_sx131 quick_test/data-fmllr-tri3/train/data/feats_fmllr_train.4.ark:12600058
msvs0_si2198 quick_test/data-fmllr-tri3/train/data/feats_fmllr_train.10.ark:41321
mbcg0_sx147 quick_test/data-fmllr-tri3/train/data/feats_fmllr_train.4.ark:4247285
mrwa0_sx343 quick_test/data-fmllr-tri3/train/data/feats_fmllr_train.9.ark:10219656
fmkc0_sx442 quick_test/data-fmllr-tri3/train/data/feats_fmllr_train.2.ark:17034900
ftbr0_sx21 quick_test/data-fmllr-tri3/train/data/feats_fmllr_train.3.ark:14477400
megj0_sx77 quick_test/data-fmllr-tri3/train/data/feats_fmllr_train.5.ark:12207569
mjee0_sx247 quick_test/data-fmllr-tri3/train/data/feats_fmllr_train.6.ark:11003153
mlsh0_sx247 quick_test/data-fmllr-tri3/train/data/feats_fmllr_train.7.ark:12378690
fbjl0_si2182 quick_test/data-fmllr-tri3/train/data/feats_fmllr_train.1.ark:3325293
mmea0_si2018 quick_test/data-fmllr-tri3/train/data/feats_fmllr_train.7.ark:17380951
mclm0_sx16 quick_test/data-fmllr-tri3/train/data/feats_fmllr_train.4.ark:11952449
fjrb0_si672 quick_test/data-fmllr-tri3/train/data/feats_fmllr_train.2.ark:2480734
mrds0_sx267 quick_test/data-fmllr-tri3/train/data/feats_fmllr_train.8.ark:14959250
mpsw0_si1067 quick_test/data-fmllr-tri3/train/data/feats_fmllr_train.8.ark:10629231
fpaf0_si1054 quick_test/data-fmllr-tri3/train/data/feats_fmllr_train.3.ark:2026057
mcef0_si1765 quick_test/data-fmllr-tri3/train/data/feats_fmllr_train.4.ark:10169740
fkaa0_si1838 quick_test/data-fmllr-tri3/train/data/feats_fmllr_train.2.ark:5245746
mjrh0_si1755 quick_test/data-fmllr-tri3/train/data/feats_fmllr_train.7.ark:40521
mvlo0_si1777 quick_test/data-fmllr-tri3/train/data/feats_fmllr_train.10.ark:12749866
mntw0_si1698 quick_test/data-fmllr-tri3/train/data/feats_fmllr_train.8.ark:5407078
mjeb1_sx207 quick_test/data-fmllr-tri3/train/data/feats_fmllr_train.6.ark:10667256
fsrh0_sx131 quick_test/data-fmllr-tri3/train/data/feats_fmllr_train.3.ark:13225016
mjpg0_sx111 quick_test/data-fmllr-tri3/train/data/feats_fmllr_train.6.ark:16271606
mjai0_sx164 quick_test/data-fmllr-tri3/train/data/feats_fmllr_train.6.ark:7453971
mmws0_sx78 quick_test/data-fmllr-tri3/train/data/feats_fmllr_train.8.ark:4271814
fntb0_sx303 quick_test/data-fmllr-tri3/train/data/feats_fmllr_train.3.ark:626125
mpar0_sx46 quick_test/data-fmllr-tri3/train/data/feats_fmllr_train.8.ark:6038177
fblv0_sx338 quick_test/data-fmllr-tri3/train/data/feats_fmllr_train.1.ark:3930739
mkdd0_si937 quick_test/data-fmllr-tri3/train/data/feats_fmllr_train.7.ark:6078042
majp0_sx354 quick_test/data-fmllr-tri3/train/data/feats_fmllr_train.4.ark:1339682
mkln0_si968 quick_test/data-fmllr-tri3/train/data/feats_fmllr_train.7.ark:7583229
fvkb0_sx259 quick_test/data-fmllr-tri3/train/data/feats_fmllr_train.3.ark:16264699
fgrw0_si1782 quick_test/data-fmllr-tri3/train/data/feats_fmllr_train.1.ark:17591513
marw0_si1906 quick_test/data-fmllr-tri3/train/data/feats_fmllr_train.4.ark:3016820
mrpc1_sx402 quick_test/data-fmllr-tri3/train/data/feats_fmllr_train.9.ark:7345684
flmk0_sx135 quick_test/data-fmllr-tri3/train/data/feats_fmllr_train.2.ark:13358145
fjwb1_sx435 quick_test/data-fmllr-tri3/train/data/feats_fmllr_train.2.ark:4311790
fkdw0_sx37 quick_test/data-fmllr-tri3/train/data/feats_fmllr_train.2.ark:6343915
flma0_sx73 quick_test/data-fmllr-tri3/train/data/feats_fmllr_train.2.ark:12782777
mbsb0_sx273 quick_test/data-fmllr-tri3/train/data/feats_fmllr_train.4.ark:7181050
fvfb0_sx402 quick_test/data-fmllr-tri3/train/data/feats_fmllr_train.3.ark:16031576
fmem0_sx297 quick_test/data-fmllr-tri3/train/data/feats_fmllr_train.2.ark:15341525
mjpm1_si2280 quick_test/data-fmllr-tri3/train/data/feats_fmllr_train.6.ark:16863986
mhit0_sx173 quick_test/data-fmllr-tri3/train/data/feats_fmllr_train.6.ark:4069301
ftlg0_sx213 quick_test/data-fmllr-tri3/train/data/feats_fmllr_train.3.ark:15217807
mrcw0_sx201 quick_test/data-fmllr-tri3/train/data/feats_fmllr_train.8.ark:13901958
mdpk0_si1053 quick_test/data-fmllr-tri3/train/data/feats_fmllr_train.5.ark:7068081
mjfr0_sx165 quick_test/data-fmllr-tri3/train/data/feats_fmllr_train.6.ark:11666920
fgmb0_si1775 quick_test/data-fmllr-tri3/train/data/feats_fmllr_train.1.ark:17137216
mjdg0_si1672 quick_test/data-fmllr-tri3/train/data/feats_fmllr_train.6.ark:9291003
mmag0_sx226 quick_test/data-fmllr-tri3/train/data/feats_fmllr_train.7.ark:13649101
mdbb1_sx106 quick_test/data-fmllr-tri3/train/data/feats_fmllr_train.4.ark:15269413
flod0_sx117 quick_test/data-fmllr-tri3/train/data/feats_fmllr_train.2.ark:13729882
msmr0_si1405 quick_test/data-fmllr-tri3/train/data/feats_fmllr_train.9.ark:16303664
fgdp0_sx88 quick_test/data-fmllr-tri3/train/data/feats_fmllr_train.1.ark:16985640
mrjt0_sx328 quick_test/data-fmllr-tri3/train/data/feats_fmllr_train.9.ark:2718250
mdjm0_sx195 quick_test/data-fmllr-tri3/train/data/feats_fmllr_train.5.ark:1808696
mdpb0_si866 quick_test/data-fmllr-tri3/train/data/feats_fmllr_train.5.ark:6785039
mjpm0_si1998 quick_test/data-fmllr-tri3/train/data/feats_fmllr_train.6.ark:16506809
mjxa0_sx67 quick_test/data-fmllr-tri3/train/data/feats_fmllr_train.7.ark:3561298
flag0_sx24 quick_test/data-fmllr-tri3/train/data/feats_fmllr_train.2.ark:9512825
mcae0_sx367 quick_test/data-fmllr-tri3/train/data/feats_fmllr_train.4.ark:8442685
fsms1_si2134 quick_test/data-fmllr-tri3/train/data/feats_fmllr_train.3.ark:12357968
mafm0_sx129 quick_test/data-fmllr-tri3/train/data/feats_fmllr_train.4.ark:850450
msdb0_sx197 quick_test/data-fmllr-tri3/train/data/feats_fmllr_train.9.ark:12704377
fjen0_si1047 quick_test/data-fmllr-tri3/train/data/feats_fmllr_train.2.ark:417031
fmjb0_sx277 quick_test/data-fmllr-tri3/train/data/feats_fmllr_train.2.ark:15742836
mrds0_sx87 quick_test/data-fmllr-tri3/train/data/feats_fmllr_train.8.ark:15095490
marc0_sx108 quick_test/data-fmllr-tri3/train/data/feats_fmllr_train.4.ark:2775057
flhd0_si1344 quick_test/data-fmllr-tri3/train/data/feats_fmllr_train.2.ark:10420862
mdlr0_si1863 quick_test/data-fmllr-tri3/train/data/feats_fmllr_train.5.ark:4713526
mjac0_sx307 quick_test/data-fmllr-tri3/train/data/feats_fmllr_train.6.ark:6683164
mclk0_si1660 quick_test/data-fmllr-tri3/train/data/feats_fmllr_train.4.ark:11365724
msdb0_sx377 quick_test/data-fmllr-tri3/train/data/feats_fmllr_train.9.ark:12765711
fsdj0_sx305 quick_test/data-fmllr-tri3/train/data/feats_fmllr_train.3.ark:7800271
fsbk0_si1069 quick_test/data-fmllr-tri3/train/data/feats_fmllr_train.3.ark:6333883
mljc0_si1855 quick_test/data-fmllr-tri3/train/data/feats_fmllr_train.7.ark:11026438
fsdc0_si2234 quick_test/data-fmllr-tri3/train/data/feats_fmllr_train.3.ark:7332773
fcrz0_sx433 quick_test/data-fmllr-tri3/train/data/feats_fmllr_train.1.ark:8833428
mewm0_sx88 quick_test/data-fmllr-tri3/train/data/feats_fmllr_train.5.ark:13974412
ftmg0_sx452 quick_test/data-fmllr-tri3/train/data/feats_fmllr_train.3.ark:15658718
mhmr0_sx39 quick_test/data-fmllr-tri3/train/data/feats_fmllr_train.6.ark:5277873
fjkl0_si2192 quick_test/data-fmllr-tri3/train/data/feats_fmllr_train.2.ark:1267415
mkxl0_sx105 quick_test/data-fmllr-tri3/train/data/feats_fmllr_train.7.ark:9931441
mgxp0_si1087 quick_test/data-fmllr-tri3/train/data/feats_fmllr_train.6.ark:3146228
mprd0_si2061 quick_test/data-fmllr-tri3/train/data/feats_fmllr_train.8.ark:9443649
fklc1_si1678 quick_test/data-fmllr-tri3/train/data/feats_fmllr_train.2.ark:7782569
mrfl0_si1786 quick_test/data-fmllr-tri3/train/data/feats_fmllr_train.8.ark:17126712
mrre0_si704 quick_test/data-fmllr-tri3/train/data/feats_fmllr_train.9.ark:7499525
mdlc0_sx45 quick_test/data-fmllr-tri3/train/data/feats_fmllr_train.5.ark:3148762
mcdc0_si1922 quick_test/data-fmllr-tri3/train/data/feats_fmllr_train.4.ark:9029409
marw0_sx16 quick_test/data-fmllr-tri3/train/data/feats_fmllr_train.4.ark:3135300
mrgm0_sx416 quick_test/data-fmllr-tri3/train/data/feats_fmllr_train.8.ark:17785917
flkm0_si620 quick_test/data-fmllr-tri3/train/data/feats_fmllr_train.2.ark:12094239
mlns0_sx327 quick_test/data-fmllr-tri3/train/data/feats_fmllr_train.7.ark:12031300
fjsp0_sx264 quick_test/data-fmllr-tri3/train/data/feats_fmllr_train.2.ark:3848800
mnet0_sx366 quick_test/data-fmllr-tri3/train/data/feats_fmllr_train.8.ark:5191131
mpgh0_si924 quick_test/data-fmllr-tri3/train/data/feats_fmllr_train.8.ark:6947173
mejs0_sx160 quick_test/data-fmllr-tri3/train/data/feats_fmllr_train.5.ark:12749336
mprt0_sx310 quick_test/data-fmllr-tri3/train/data/feats_fmllr_train.8.ark:10507550
mdbp0_sx258 quick_test/data-fmllr-tri3/train/data/feats_fmllr_train.4.ark:15674777
mdwd0_sx450 quick_test/data-fmllr-tri3/train/data/feats_fmllr_train.5.ark:9848324
mjrh1_si1558 quick_test/data-fmllr-tri3/train/data/feats_fmllr_train.7.ark:385191
fgrw0_sx162 quick_test/data-fmllr-tri3/train/data/feats_fmllr_train.1.ark:17686288
mtqc0_sx181 quick_test/data-fmllr-tri3/train/data/feats_fmllr_train.10.ark:10151121
mmag0_si1126 quick_test/data-fmllr-tri3/train/data/feats_fmllr_train.7.ark:13412672
fhlm0_sx210 quick_test/data-fmllr-tri3/train/data/feats_fmllr_train.1.ark:18143172
freh0_sx415 quick_test/data-fmllr-tri3/train/data/feats_fmllr_train.3.ark:4274664
mmlm0_sx177 quick_test/data-fmllr-tri3/train/data/feats_fmllr_train.8.ark:1563045
mcdd0_sx253 quick_test/data-fmllr-tri3/train/data/feats_fmllr_train.4.ark:9517547
mejl0_sx422 quick_test/data-fmllr-tri3/train/data/feats_fmllr_train.5.ark:12507120
msrr0_sx30 quick_test/data-fmllr-tri3/train/data/feats_fmllr_train.9.ark:17604582
mdef0_si1123 quick_test/data-fmllr-tri3/train/data/feats_fmllr_train.5.ark:13
mwsh0_sx436 quick_test/data-fmllr-tri3/train/data/feats_fmllr_train.10.ark:17497087
mmdm1_sx63 quick_test/data-fmllr-tri3/train/data/feats_fmllr_train.7.ark:16973158
maeo0_sx156 quick_test/data-fmllr-tri3/train/data/feats_fmllr_train.4.ark:517913
mcss0_si1380 quick_test/data-fmllr-tri3/train/data/feats_fmllr_train.4.ark:12832672
mdpk0_sx63 quick_test/data-fmllr-tri3/train/data/feats_fmllr_train.5.ark:7377710
mbar0_sx419 quick_test/data-fmllr-tri3/train/data/feats_fmllr_train.4.ark:3675572
fjwb1_si2055 quick_test/data-fmllr-tri3/train/data/feats_fmllr_train.2.ark:4039308
mdps0_si1979 quick_test/data-fmllr-tri3/train/data/feats_fmllr_train.5.ark:7443846
fmjb0_sx7 quick_test/data-fmllr-tri3/train/data/feats_fmllr_train.2.ark:15833448
mrsp0_si799 quick_test/data-fmllr-tri3/train/data/feats_fmllr_train.9.ark:8475187
mclm0_si1456 quick_test/data-fmllr-tri3/train/data/feats_fmllr_train.4.ark:11767541
fmjf0_si1884 quick_test/data-fmllr-tri3/train/data/feats_fmllr_train.2.ark:15956250
mkjo0_sx424 quick_test/data-fmllr-tri3/train/data/feats_fmllr_train.7.ark:7349653
mdlr1_sx129 quick_test/data-fmllr-tri3/train/data/feats_fmllr_train.5.ark:5225157
msds0_si1707 quick_test/data-fmllr-tri3/train/data/feats_fmllr_train.9.ark:13282464
mjwt0_sx301 quick_test/data-fmllr-tri3/train/data/feats_fmllr_train.7.ark:3115908
mter0_si1787 quick_test/data-fmllr-tri3/train/data/feats_fmllr_train.10.ark:3756395
mmjb1_sx238 quick_test/data-fmllr-tri3/train/data/feats_fmllr_train.8.ark:1219975
mrjm0_sx418 quick_test/data-fmllr-tri3/train/data/feats_fmllr_train.9.ark:1985523
mjeb1_sx297 quick_test/data-fmllr-tri3/train/data/feats_fmllr_train.6.ark:10738669
mhjb0_si1647 quick_test/data-fmllr-tri3/train/data/feats_fmllr_train.6.ark:4336664
ftbw0_si715 quick_test/data-fmllr-tri3/train/data/feats_fmllr_train.3.ark:14668417
fsbk0_sx439 quick_test/data-fmllr-tri3/train/data/feats_fmllr_train.3.ark:6640127
mbgt0_si1341 quick_test/data-fmllr-tri3/train/data/feats_fmllr_train.4.ark:4784437
mtrt0_sx147 quick_test/data-fmllr-tri3/train/data/feats_fmllr_train.10.ark:11359291
flag0_sx384 quick_test/data-fmllr-tri3/train/data/feats_fmllr_train.2.ark:9613519
msdb0_sx287 quick_test/data-fmllr-tri3/train/data/feats_fmllr_train.9.ark:12732564
mdcd0_sx155 quick_test/data-fmllr-tri3/train/data/feats_fmllr_train.4.ark:16042807
mjxa0_sx337 quick_test/data-fmllr-tri3/train/data/feats_fmllr_train.7.ark:3484605
mkdt0_sx83 quick_test/data-fmllr-tri3/train/data/feats_fmllr_train.7.ark:6684152
mprt0_sx40 quick_test/data-fmllr-tri3/train/data/feats_fmllr_train.8.ark:10545016
mtdp0_sx81 quick_test/data-fmllr-tri3/train/data/feats_fmllr_train.10.ark:3638259
mhmg0_si735 quick_test/data-fmllr-tri3/train/data/feats_fmllr_train.6.ark:4692269
mkam0_sx326 quick_test/data-fmllr-tri3/train/data/feats_fmllr_train.7.ark:5416570
mmcc0_sx258 quick_test/data-fmllr-tri3/train/data/feats_fmllr_train.7.ark:15285330
mrew1_si1500 quick_test/data-fmllr-tri3/train/data/feats_fmllr_train.8.ark:16352169
fbmj0_sx156 quick_test/data-fmllr-tri3/train/data/feats_fmllr_train.1.ark:4630318
mprt0_si580 quick_test/data-fmllr-tri3/train/data/feats_fmllr_train.8.ark:10375149
mrws0_sx22 quick_test/data-fmllr-tri3/train/data/feats_fmllr_train.9.ark:10577472
mrdm0_sx425 quick_test/data-fmllr-tri3/train/data/feats_fmllr_train.8.ark:14725967
fksr0_sx217 quick_test/data-fmllr-tri3/train/data/feats_fmllr_train.2.ark:8679245
mded0_si1800 quick_test/data-fmllr-tri3/train/data/feats_fmllr_train.4.ark:17047404
mkln0_si1598 quick_test/data-fmllr-tri3/train/data/feats_fmllr_train.7.ark:7492614
mapv0_sx213 quick_test/data-fmllr-tri3/train/data/feats_fmllr_train.4.ark:2495827
fssb0_sx452 quick_test/data-fmllr-tri3/train/data/feats_fmllr_train.3.ark:13799555
mcal0_sx58 quick_test/data-fmllr-tri3/train/data/feats_fmllr_train.4.ark:8924873
mjxl0_sx182 quick_test/data-fmllr-tri3/train/data/feats_fmllr_train.7.ark:3759968
fkdw0_sx217 quick_test/data-fmllr-tri3/train/data/feats_fmllr_train.2.ark:6284662
mgxp0_sx187 quick_test/data-fmllr-tri3/train/data/feats_fmllr_train.6.ark:3339749
mtrr0_sx288 quick_test/data-fmllr-tri3/train/data/feats_fmllr_train.10.ark:11079634
mdwm0_sx433 quick_test/data-fmllr-tri3/train/data/feats_fmllr_train.5.ark:10725744
fklc1_si1048 quick_test/data-fmllr-tri3/train/data/feats_fmllr_train.2.ark:7709261
mges0_sx401 quick_test/data-fmllr-tri3/train/data/feats_fmllr_train.6.ark:987011
flet0_si1767 quick_test/data-fmllr-tri3/train/data/feats_fmllr_train.2.ark:10101633
mzmb0_si1166 quick_test/data-fmllr-tri3/train/data/feats_fmllr_train.10.ark:17595701
mpgh0_sx384 quick_test/data-fmllr-tri3/train/data/feats_fmllr_train.8.ark:7118987
fjdm2_si1582 quick_test/data-fmllr-tri3/train/data/feats_fmllr_train.2.ark:13
meal0_sx287 quick_test/data-fmllr-tri3/train/data/feats_fmllr_train.5.ark:10946708
msfh0_sx406 quick_test/data-fmllr-tri3/train/data/feats_fmllr_train.9.ark:14863412
mrfk0_sx176 quick_test/data-fmllr-tri3/train/data/feats_fmllr_train.8.ark:16839989
mcal0_si1768 quick_test/data-fmllr-tri3/train/data/feats_fmllr_train.4.ark:8674952
mter0_sx257 quick_test/data-fmllr-tri3/train/data/feats_fmllr_train.10.ark:3939222
mtml0_si1695 quick_test/data-fmllr-tri3/train/data/feats_fmllr_train.10.ark:7285067
mtdb0_sx321 quick_test/data-fmllr-tri3/train/data/feats_fmllr_train.10.ark:3072388
ftbr0_si1402 quick_test/data-fmllr-tri3/train/data/feats_fmllr_train.3.ark:14212945
fmpg0_si2232 quick_test/data-fmllr-tri3/train/data/feats_fmllr_train.2.ark:17976052
mjrk0_sx250 quick_test/data-fmllr-tri3/train/data/feats_fmllr_train.7.ark:947597
mhrm0_sx238 quick_test/data-fmllr-tri3/train/data/feats_fmllr_train.6.ark:5522517
fleh0_sx331 quick_test/data-fmllr-tri3/train/data/feats_fmllr_train.2.ark:9903604
feac0_si1245 quick_test/data-fmllr-tri3/train/data/feats_fmllr_train.1.ark:13343074
mtxs0_sx250 quick_test/data-fmllr-tri3/train/data/feats_fmllr_train.10.ark:12125513
mtjs0_sx22 quick_test/data-fmllr-tri3/train/data/feats_fmllr_train.10.ark:5145952
mmwb0_sx269 quick_test/data-fmllr-tri3/train/data/feats_fmllr_train.8.ark:3694078
fsag0_si1323 quick_test/data-fmllr-tri3/train/data/feats_fmllr_train.3.ark:5081712
mmdm0_sx141 quick_test/data-fmllr-tri3/train/data/feats_fmllr_train.7.ark:16388834
mpfu0_si1258 quick_test/data-fmllr-tri3/train/data/feats_fmllr_train.8.ark:6416822
mgaw0_sx355 quick_test/data-fmllr-tri3/train/data/feats_fmllr_train.6.ark:650127
fdml0_sx159 quick_test/data-fmllr-tri3/train/data/feats_fmllr_train.1.ark:11404790
mbgt0_sx441 quick_test/data-fmllr-tri3/train/data/feats_fmllr_train.4.ark:5111160
mbef0_si651 quick_test/data-fmllr-tri3/train/data/feats_fmllr_train.4.ark:4562035
mwch0_si1622 quick_test/data-fmllr-tri3/train/data/feats_fmllr_train.10.ark:14541165
mpfu0_sx268 quick_test/data-fmllr-tri3/train/data/feats_fmllr_train.8.ark:6613731
mded0_sx180 quick_test/data-fmllr-tri3/train/data/feats_fmllr_train.4.ark:17174498
mhrm0_si958 quick_test/data-fmllr-tri3/train/data/feats_fmllr_train.6.ark:5429823
mdcm0_sx130 quick_test/data-fmllr-tri3/train/data/feats_fmllr_train.4.ark:16425264
fntb0_si1203 quick_test/data-fmllr-tri3/train/data/feats_fmllr_train.3.ark:378950
mfrm0_si1717 quick_test/data-fmllr-tri3/train/data/feats_fmllr_train.5.ark:14818102
mrgm0_si532 quick_test/data-fmllr-tri3/train/data/feats_fmllr_train.8.ark:17597196
mpmb0_sx421 quick_test/data-fmllr-tri3/train/data/feats_fmllr_train.8.ark:8371133
mjws0_si1773 quick_test/data-fmllr-tri3/train/data/feats_fmllr_train.7.ark:2444063
mdwh0_sx35 quick_test/data-fmllr-tri3/train/data/feats_fmllr_train.5.ark:10286460
mdbb1_si2056 quick_test/data-fmllr-tri3/train/data/feats_fmllr_train.4.ark:15208106
fskp0_si1098 quick_test/data-fmllr-tri3/train/data/feats_fmllr_train.3.ark:10735311
mdlc1_si1435 quick_test/data-fmllr-tri3/train/data/feats_fmllr_train.5.ark:3195510
fvfb0_sx42 quick_test/data-fmllr-tri3/train/data/feats_fmllr_train.3.ark:16067762
mbth0_sx212 quick_test/data-fmllr-tri3/train/data/feats_fmllr_train.4.ark:7512944
mrbc0_si1859 quick_test/data-fmllr-tri3/train/data/feats_fmllr_train.8.ark:12894563
mdwd0_si1890 quick_test/data-fmllr-tri3/train/data/feats_fmllr_train.5.ark:9647549
mtxs0_sx70 quick_test/data-fmllr-tri3/train/data/feats_fmllr_train.10.ark:12309913
freh0_sx145 quick_test/data-fmllr-tri3/train/data/feats_fmllr_train.3.ark:4171063
mtlb0_sx144 quick_test/data-fmllr-tri3/train/data/feats_fmllr_train.10.ark:6638447
meal0_sx347 quick_test/data-fmllr-tri3/train/data/feats_fmllr_train.5.ark:10988335
mrem0_sx241 quick_test/data-fmllr-tri3/train/data/feats_fmllr_train.8.ark:16169661
mgag0_si645 quick_test/data-fmllr-tri3/train/data/feats_fmllr_train.5.ark:16632949
fkkh0_sx30 quick_test/data-fmllr-tri3/train/data/feats_fmllr_train.2.ark:7181762
mcew0_sx362 quick_test/data-fmllr-tri3/train/data/feats_fmllr_train.4.ark:10784625
mfwk0_si1879 quick_test/data-fmllr-tri3/train/data/feats_fmllr_train.5.ark:15163120
fbas0_sx37 quick_test/data-fmllr-tri3/train/data/feats_fmllr_train.1.ark:2373097
mtjm0_sx416 quick_test/data-fmllr-tri3/train/data/feats_fmllr_train.10.ark:4765123
mrhl0_si2145 quick_test/data-fmllr-tri3/train/data/feats_fmllr_train.9.ark:450176
fajw0_si1263 quick_test/data-fmllr-tri3/train/data/feats_fmllr_train.1.ark:390310
mafm0_sx219 quick_test/data-fmllr-tri3/train/data/feats_fmllr_train.4.ark:894637
ftmg0_sx182 quick_test/data-fmllr-tri3/train/data/feats_fmllr_train.3.ark:15527117
mmpm0_si1061 quick_test/data-fmllr-tri3/train/data/feats_fmllr_train.8.ark:1762380
mhjb0_sx297 quick_test/data-fmllr-tri3/train/data/feats_fmllr_train.6.ark:4537759
marc0_sx288 quick_test/data-fmllr-tri3/train/data/feats_fmllr_train.4.ark:2883617
mjfh0_sx117 quick_test/data-fmllr-tri3/train/data/feats_fmllr_train.6.ark:11358223
fscn0_sx86 quick_test/data-fmllr-tri3/train/data/feats_fmllr_train.3.ark:7182129
fvmh0_sx26 quick_test/data-fmllr-tri3/train/data/feats_fmllr_train.3.ark:16751982
mklr0_sx159 quick_test/data-fmllr-tri3/train/data/feats_fmllr_train.7.ark:7986034
mdps0_si719 quick_test/data-fmllr-tri3/train/data/feats_fmllr_train.5.ark:7496193
fleh0_si1051 quick_test/data-fmllr-tri3/train/data/feats_fmllr_train.2.ark:9664267
mdem0_sx338 quick_test/data-fmllr-tri3/train/data/feats_fmllr_train.5.ark:646286
mtjm0_si655 quick_test/data-fmllr-tri3/train/data/feats_fmllr_train.10.ark:4585975
mdpb0_sx236 quick_test/data-fmllr-tri3/train/data/feats_fmllr_train.5.ark:6899813
mdpb0_si1760 quick_test/data-fmllr-tri3/train/data/feats_fmllr_train.5.ark:6661944
mwre0_sx427 quick_test/data-fmllr-tri3/train/data/feats_fmllr_train.10.ark:16316119
mclk0_sx130 quick_test/data-fmllr-tri3/train/data/feats_fmllr_train.4.ark:11549166
mdlm0_sx244 quick_test/data-fmllr-tri3/train/data/feats_fmllr_train.5.ark:4502830
frjb0_sx437 quick_test/data-fmllr-tri3/train/data/feats_fmllr_train.3.ark:4597762
mbar0_sx239 quick_test/data-fmllr-tri3/train/data/feats_fmllr_train.4.ark:3571998
flac0_si901 quick_test/data-fmllr-tri3/train/data/feats_fmllr_train.2.ark:8966768
mmgk0_sx152 quick_test/data-fmllr-tri3/train/data/feats_fmllr_train.8.ark:843891
fjkl0_sx392 quick_test/data-fmllr-tri3/train/data/feats_fmllr_train.2.ark:1564696
mjxl0_si1795 quick_test/data-fmllr-tri3/train/data/feats_fmllr_train.7.ark:3687114
mapv0_sx33 quick_test/data-fmllr-tri3/train/data/feats_fmllr_train.4.ark:2582760
mrav0_sx108 quick_test/data-fmllr-tri3/train/data/feats_fmllr_train.8.ark:12654080
fjxp0_si1122 quick_test/data-fmllr-tri3/train/data/feats_fmllr_train.2.ark:4841021
mtjs0_si1822 quick_test/data-fmllr-tri3/train/data/feats_fmllr_train.10.ark:4887605
mbth0_si2102 quick_test/data-fmllr-tri3/train/data/feats_fmllr_train.4.ark:7293476
mrjm0_sx148 quick_test/data-fmllr-tri3/train/data/feats_fmllr_train.9.ark:1843522
mdwd0_si1260 quick_test/data-fmllr-tri3/train/data/feats_fmllr_train.5.ark:9577441
mljh0_sx334 quick_test/data-fmllr-tri3/train/data/feats_fmllr_train.7.ark:11677003
fsbk0_sx259 quick_test/data-fmllr-tri3/train/data/feats_fmllr_train.3.ark:6505673
mstf0_si852 quick_test/data-fmllr-tri3/train/data/feats_fmllr_train.9.ark:17814317
mjlg1_sx202 quick_test/data-fmllr-tri3/train/data/feats_fmllr_train.6.ark:14499987
fcmm0_si1083 quick_test/data-fmllr-tri3/train/data/feats_fmllr_train.1.ark:8195768
fpjf0_sx326 quick_test/data-fmllr-tri3/train/data/feats_fmllr_train.3.ark:3058948
fklc0_sx445 quick_test/data-fmllr-tri3/train/data/feats_fmllr_train.2.ark:7620887
mbcg0_sx57 quick_test/data-fmllr-tri3/train/data/feats_fmllr_train.4.ark:4432192
fkde0_si1141 quick_test/data-fmllr-tri3/train/data/feats_fmllr_train.2.ark:5621455
mmdb0_sx177 quick_test/data-fmllr-tri3/train/data/feats_fmllr_train.7.ark:15631440
mcth0_si1209 quick_test/data-fmllr-tri3/train/data/feats_fmllr_train.4.ark:13233848
flja0_sx268 quick_test/data-fmllr-tri3/train/data/feats_fmllr_train.2.ark:10991750
mfxs0_sx144 quick_test/data-fmllr-tri3/train/data/feats_fmllr_train.5.ark:15603072
fsjw0_sx253 quick_test/data-fmllr-tri3/train/data/feats_fmllr_train.3.ark:9799569
mbar0_sx59 quick_test/data-fmllr-tri3/train/data/feats_fmllr_train.4.ark:3722158
fjhk0_si1652 quick_test/data-fmllr-tri3/train/data/feats_fmllr_train.2.ark:906717
mprk0_sx287 quick_test/data-fmllr-tri3/train/data/feats_fmllr_train.8.ark:10164640
mesj0_sx7 quick_test/data-fmllr-tri3/train/data/feats_fmllr_train.5.ark:13628409
fljg0_sx81 quick_test/data-fmllr-tri3/train/data/feats_fmllr_train.2.ark:11997064
mrlr0_sx296 quick_test/data-fmllr-tri3/train/data/feats_fmllr_train.9.ark:5072857
mkxl0_si1958 quick_test/data-fmllr-tri3/train/data/feats_fmllr_train.7.ark:9866134
fmju0_sx309 quick_test/data-fmllr-tri3/train/data/feats_fmllr_train.2.ark:16590495
mgak0_sx226 quick_test/data-fmllr-tri3/train/data/feats_fmllr_train.5.ark:17155808
fmju0_si2019 quick_test/data-fmllr-tri3/train/data/feats_fmllr_train.2.ark:16407667
mbbr0_sx245 quick_test/data-fmllr-tri3/train/data/feats_fmllr_train.4.ark:3943896
mrlj1_si2301 quick_test/data-fmllr-tri3/train/data/feats_fmllr_train.9.ark:4108768
fgcs0_sx136 quick_test/data-fmllr-tri3/train/data/feats_fmllr_train.1.ark:16375236
mcdd0_si883 quick_test/data-fmllr-tri3/train/data/feats_fmllr_train.4.ark:9425173
flhd0_si1827 quick_test/data-fmllr-tri3/train/data/feats_fmllr_train.2.ark:10463130
mppc0_sx242 quick_test/data-fmllr-tri3/train/data/feats_fmllr_train.8.ark:8736576
mded0_si540 quick_test/data-fmllr-tri3/train/data/feats_fmllr_train.4.ark:17098471
fljg0_sx261 quick_test/data-fmllr-tri3/train/data/feats_fmllr_train.2.ark:11830584
mrab0_sx144 quick_test/data-fmllr-tri3/train/data/feats_fmllr_train.8.ark:11074490
mgsh0_sx186 quick_test/data-fmllr-tri3/train/data/feats_fmllr_train.6.ark:2530706
mvlo0_sx157 quick_test/data-fmllr-tri3/train/data/feats_fmllr_train.10.ark:12856320
fmjf0_si624 quick_test/data-fmllr-tri3/train/data/feats_fmllr_train.2.ark:15988277
fmah1_si1509 quick_test/data-fmllr-tri3/train/data/feats_fmllr_train.2.ark:14337436
mtjm0_sx236 quick_test/data-fmllr-tri3/train/data/feats_fmllr_train.10.ark:4685549
mmgg0_sx359 quick_test/data-fmllr-tri3/train/data/feats_fmllr_train.8.ark:579888
msds0_si2337 quick_test/data-fmllr-tri3/train/data/feats_fmllr_train.9.ark:13337052
fcke0_sx391 quick_test/data-fmllr-tri3/train/data/feats_fmllr_train.1.ark:7373865
mrjm1_sx128 quick_test/data-fmllr-tri3/train/data/feats_fmllr_train.9.ark:2254299
fetb0_si1778 quick_test/data-fmllr-tri3/train/data/feats_fmllr_train.1.ark:15457787
mtab0_sx132 quick_test/data-fmllr-tri3/train/data/feats_fmllr_train.10.ark:666392
mkaj0_si784 quick_test/data-fmllr-tri3/train/data/feats_fmllr_train.7.ark:4909391
msvs0_si1568 quick_test/data-fmllr-tri3/train/data/feats_fmllr_train.10.ark:13
mklw0_sx221 quick_test/data-fmllr-tri3/train/data/feats_fmllr_train.7.ark:9167834
feeh0_sx32 quick_test/data-fmllr-tri3/train/data/feats_fmllr_train.1.ark:14896847
mpfu0_sx178 quick_test/data-fmllr-tri3/train/data/feats_fmllr_train.8.ark:6558024
mmxs0_si876 quick_test/data-fmllr-tri3/train/data/feats_fmllr_train.8.ark:4715153
mmdg0_si2035 quick_test/data-fmllr-tri3/train/data/feats_fmllr_train.7.ark:15895283
falk0_sx6 quick_test/data-fmllr-tri3/train/data/feats_fmllr_train.1.ark:1121405
mrdm0_si1044 quick_test/data-fmllr-tri3/train/data/feats_fmllr_train.8.ark:14410124
fltm0_si1070 quick_test/data-fmllr-tri3/train/data/feats_fmllr_train.2.ark:13933538
mdcd0_sx335 quick_test/data-fmllr-tri3/train/data/feats_fmllr_train.4.ark:16129741
mrvg0_sx330 quick_test/data-fmllr-tri3/train/data/feats_fmllr_train.9.ark:9858959
mkls1_si915 quick_test/data-fmllr-tri3/train/data/feats_fmllr_train.7.ark:8709322
fhlm0_sx300 quick_test/data-fmllr-tri3/train/data/feats_fmllr_train.1.ark:18191039
mkdt0_si2153 quick_test/data-fmllr-tri3/train/data/feats_fmllr_train.7.ark:6322364
fgmb0_si515 quick_test/data-fmllr-tri3/train/data/feats_fmllr_train.1.ark:17186043
fecd0_sx248 quick_test/data-fmllr-tri3/train/data/feats_fmllr_train.1.ark:14389537
mabc0_sx241 quick_test/data-fmllr-tri3/train/data/feats_fmllr_train.3.ark:17028013
mrlr0_si1826 quick_test/data-fmllr-tri3/train/data/feats_fmllr_train.9.ark:4853363
mrvg0_sx150 quick_test/data-fmllr-tri3/train/data/feats_fmllr_train.9.ark:9782105
flma0_si613 quick_test/data-fmllr-tri3/train/data/feats_fmllr_train.2.ark:12567283
mkah0_sx448 quick_test/data-fmllr-tri3/train/data/feats_fmllr_train.7.ark:4713762
fmkf0_si1018 quick_test/data-fmllr-tri3/train/data/feats_fmllr_train.2.ark:17130474
mjpm1_si1897 quick_test/data-fmllr-tri3/train/data/feats_fmllr_train.6.ark:16841558
fjlg0_si2306 quick_test/data-fmllr-tri3/train/data/feats_fmllr_train.2.ark:1714060
mjrg0_sx106 quick_test/data-fmllr-tri3/train/data/feats_fmllr_train.6.ark:17754074
mkaj0_sx334 quick_test/data-fmllr-tri3/train/data/feats_fmllr_train.7.ark:5035552
falk0_sx186 quick_test/data-fmllr-tri3/train/data/feats_fmllr_train.1.ark:984206
maeb0_si2250 quick_test/data-fmllr-tri3/train/data/feats_fmllr_train.4.ark:65321
fljd0_sx346 quick_test/data-fmllr-tri3/train/data/feats_fmllr_train.2.ark:11453274
fblv0_si2318 quick_test/data-fmllr-tri3/train/data/feats_fmllr_train.1.ark:3799778
mdps0_sx89 quick_test/data-fmllr-tri3/train/data/feats_fmllr_train.5.ark:7727047
mclk0_sx400 quick_test/data-fmllr-tri3/train/data/feats_fmllr_train.4.ark:11725433
mrbc0_sx59 quick_test/data-fmllr-tri3/train/data/feats_fmllr_train.8.ark:13195684
mrms0_si1113 quick_test/data-fmllr-tri3/train/data/feats_fmllr_train.9.ark:6741622
mmab1_si2124 quick_test/data-fmllr-tri3/train/data/feats_fmllr_train.7.ark:13025443
mrlj0_sx250 quick_test/data-fmllr-tri3/train/data/feats_fmllr_train.9.ark:3912312
mgjc0_si1965 quick_test/data-fmllr-tri3/train/data/feats_fmllr_train.6.ark:1170961
mmsm0_sx26 quick_test/data-fmllr-tri3/train/data/feats_fmllr_train.8.ark:2835429
mtjs0_sx202 quick_test/data-fmllr-tri3/train/data/feats_fmllr_train.10.ark:5111366
mrjb1_sx390 quick_test/data-fmllr-tri3/train/data/feats_fmllr_train.9.ark:1179515
mdpb0_sx146 quick_test/data-fmllr-tri3/train/data/feats_fmllr_train.5.ark:6857066
mfmc0_sx232 quick_test/data-fmllr-tri3/train/data/feats_fmllr_train.5.ark:14557166
fmbg0_sx350 quick_test/data-fmllr-tri3/train/data/feats_fmllr_train.2.ark:14939388
mkah0_sx178 quick_test/data-fmllr-tri3/train/data/feats_fmllr_train.7.ark:4554161
fcrz0_sx253 quick_test/data-fmllr-tri3/train/data/feats_fmllr_train.1.ark:8754174
mrds0_sx447 quick_test/data-fmllr-tri3/train/data/feats_fmllr_train.8.ark:15059784
mcef0_si1135 quick_test/data-fmllr-tri3/train/data/feats_fmllr_train.4.ark:10123952
mtqc0_sx271 quick_test/data-fmllr-tri3/train/data/feats_fmllr_train.10.ark:10227148
mmsm0_sx206 quick_test/data-fmllr-tri3/train/data/feats_fmllr_train.8.ark:2784203
ftmg0_sx92 quick_test/data-fmllr-tri3/train/data/feats_fmllr_train.3.ark:15711544
mdwh0_sx395 quick_test/data-fmllr-tri3/train/data/feats_fmllr_train.5.ark:10330327
msah1_sx419 quick_test/data-fmllr-tri3/train/data/feats_fmllr_train.9.ark:11346735
makr0_sx452 quick_test/data-fmllr-tri3/train/data/feats_fmllr_train.4.ark:2167824
mljh0_sx154 quick_test/data-fmllr-tri3/train/data/feats_fmllr_train.7.ark:11557909
fsjk1_sx215 quick_test/data-fmllr-tri3/train/data/feats_fmllr_train.3.ark:8999775
ftbr0_sx201 quick_test/data-fmllr-tri3/train/data/feats_fmllr_train.3.ark:14429854
mjjm0_si1457 quick_test/data-fmllr-tri3/train/data/feats_fmllr_train.6.ark:13239894
mmsm0_si1106 quick_test/data-fmllr-tri3/train/data/feats_fmllr_train.8.ark:2568094
mdpb0_sx416 quick_test/data-fmllr-tri3/train/data/feats_fmllr_train.5.ark:6985307
mkag0_sx169 quick_test/data-fmllr-tri3/train/data/feats_fmllr_train.7.ark:4189305
fjlg0_sx449 quick_test/data-fmllr-tri3/train/data/feats_fmllr_train.2.ark:1890008
mjmm0_sx355 quick_test/data-fmllr-tri3/train/data/feats_fmllr_train.6.ark:16002003
mhjb0_si1017 quick_test/data-fmllr-tri3/train/data/feats_fmllr_train.6.ark:4299836
mbjv0_sx347 quick_test/data-fmllr-tri3/train/data/feats_fmllr_train.4.ark:5408630
mcth0_sx309 quick_test/data-fmllr-tri3/train/data/feats_fmllr_train.4.ark:13472704
mbgt0_si711 quick_test/data-fmllr-tri3/train/data/feats_fmllr_train.4.ark:4887212
mjwt0_si1291 quick_test/data-fmllr-tri3/train/data/feats_fmllr_train.7.ark:2817532
medr0_sx24 quick_test/data-fmllr-tri3/train/data/feats_fmllr_train.5.ark:11318925
mcew0_si812 quick_test/data-fmllr-tri3/train/data/feats_fmllr_train.4.ark:10604864
fklh0_sx357 quick_test/data-fmllr-tri3/train/data/feats_fmllr_train.2.ark:8335055
fexm0_sx381 quick_test/data-fmllr-tri3/train/data/feats_fmllr_train.1.ark:16206646
mklw0_sx41 quick_test/data-fmllr-tri3/train/data/feats_fmllr_train.7.ark:9338154
mdns0_si2271 quick_test/data-fmllr-tri3/train/data/feats_fmllr_train.5.ark:6360795
mrds0_sx177 quick_test/data-fmllr-tri3/train/data/feats_fmllr_train.8.ark:14927543
mdns0_sx291 quick_test/data-fmllr-tri3/train/data/feats_fmllr_train.5.ark:6586529
mdbb1_si1006 quick_test/data-fmllr-tri3/train/data/feats_fmllr_train.4.ark:15118290
fskp0_sx108 quick_test/data-fmllr-tri3/train/data/feats_fmllr_train.3.ark:10887713
fcmm0_sx183 quick_test/data-fmllr-tri3/train/data/feats_fmllr_train.1.ark:8344010
msdh0_si2240 quick_test/data-fmllr-tri3/train/data/feats_fmllr_train.9.ark:12821927
mjlg1_si1012 quick_test/data-fmllr-tri3/train/data/feats_fmllr_train.6.ark:14302757
mdtb0_sx120 quick_test/data-fmllr-tri3/train/data/feats_fmllr_train.5.ark:9369465
fnkl0_si892 quick_test/data-fmllr-tri3/train/data/feats_fmllr_train.3.ark:81348
mwad0_si1749 quick_test/data-fmllr-tri3/train/data/feats_fmllr_train.10.ark:13929717
mmxs0_sx66 quick_test/data-fmllr-tri3/train/data/feats_fmllr_train.8.ark:4948407
mfxs0_sx324 quick_test/data-fmllr-tri3/train/data/feats_fmllr_train.5.ark:15696566
fskp0_sx18 quick_test/data-fmllr-tri3/train/data/feats_fmllr_train.3.ark:10928219
flmk0_sx405 quick_test/data-fmllr-tri3/train/data/feats_fmllr_train.2.ark:13496786
mhrm0_sx58 quick_test/data-fmllr-tri3/train/data/feats_fmllr_train.6.ark:5670117
fcdr1_sx196 quick_test/data-fmllr-tri3/train/data/feats_fmllr_train.1.ark:5917103
mbom0_sx204 quick_test/data-fmllr-tri3/train/data/feats_fmllr_train.4.ark:6846752
msrr0_sx141 quick_test/data-fmllr-tri3/train/data/feats_fmllr_train.9.ark:17522129
mjdg0_si1042 quick_test/data-fmllr-tri3/train/data/feats_fmllr_train.6.ark:9246815
fpjf0_si1046 quick_test/data-fmllr-tri3/train/data/feats_fmllr_train.3.ark:2831611
fpaz0_si963 quick_test/data-fmllr-tri3/train/data/feats_fmllr_train.3.ark:2530650
mmar0_sx256 quick_test/data-fmllr-tri3/train/data/feats_fmllr_train.7.ark:14439936
mtdp0_sx171 quick_test/data-fmllr-tri3/train/data/feats_fmllr_train.10.ark:3385352
mdlr0_sx243 quick_test/data-fmllr-tri3/train/data/feats_fmllr_train.5.ark:4843527
flag0_si2094 quick_test/data-fmllr-tri3/train/data/feats_fmllr_train.2.ark:9301838
mdpk0_sx243 quick_test/data-fmllr-tri3/train/data/feats_fmllr_train.5.ark:7229470
mjrg0_si1366 quick_test/data-fmllr-tri3/train/data/feats_fmllr_train.6.ark:17606152
fsls0_si1686 quick_test/data-fmllr-tri3/train/data/feats_fmllr_train.3.ark:11142596
fjsk0_si2312 quick_test/data-fmllr-tri3/train/data/feats_fmllr_train.2.ark:3379249
fvkb0_sx439 quick_test/data-fmllr-tri3/train/data/feats_fmllr_train.3.ark:16395953
mjrp0_sx225 quick_test/data-fmllr-tri3/train/data/feats_fmllr_train.7.ark:1309574
mntw0_si1068 quick_test/data-fmllr-tri3/train/data/feats_fmllr_train.8.ark:5322090
mpfu0_si628 quick_test/data-fmllr-tri3/train/data/feats_fmllr_train.8.ark:6519437
mejs0_sx340 quick_test/data-fmllr-tri3/train/data/feats_fmllr_train.5.ark:12855630
mjai0_sx344 quick_test/data-fmllr-tri3/train/data/feats_fmllr_train.6.ark:7536425
mcae0_si817 quick_test/data-fmllr-tri3/train/data/feats_fmllr_train.4.ark:8285644
mwch0_sx452 quick_test/data-fmllr-tri3/train/data/feats_fmllr_train.10.ark:14769649
mrjb1_sx30 quick_test/data-fmllr-tri3/train/data/feats_fmllr_train.9.ark:1105701
mter0_sx437 quick_test/data-fmllr-tri3/train/data/feats_fmllr_train.10.ark:3977809
fjlr0_sx421 quick_test/data-fmllr-tri3/train/data/feats_fmllr_train.2.ark:2283185
fear0_sx262 quick_test/data-fmllr-tri3/train/data/feats_fmllr_train.1.ark:13917160
fsgf0_si2187 quick_test/data-fmllr-tri3/train/data/feats_fmllr_train.3.ark:7959420
mgjc0_si1256 quick_test/data-fmllr-tri3/train/data/feats_fmllr_train.6.ark:1075385
fsjs0_si1171 quick_test/data-fmllr-tri3/train/data/feats_fmllr_train.3.ark:9166923
msat0_sx446 quick_test/data-fmllr-tri3/train/data/feats_fmllr_train.9.ark:12079969
mtpp0_si1508 quick_test/data-fmllr-tri3/train/data/feats_fmllr_train.10.ark:9160205
fjkl0_si932 quick_test/data-fmllr-tri3/train/data/feats_fmllr_train.2.ark:1292242
mpmb0_si871 quick_test/data-fmllr-tri3/train/data/feats_fmllr_train.8.ark:8082705
maeb0_si990 quick_test/data-fmllr-tri3/train/data/feats_fmllr_train.4.ark:105828
mjpm0_sx198 quick_test/data-fmllr-tri3/train/data/feats_fmllr_train.6.ark:16688516
mtrc0_sx363 quick_test/data-fmllr-tri3/train/data/feats_fmllr_train.10.ark:10734298
fjwb1_si748 quick_test/data-fmllr-tri3/train/data/feats_fmllr_train.2.ark:4078695
mkam0_sx416 quick_test/data-fmllr-tri3/train/data/feats_fmllr_train.7.ark:5466197
faem0_sx42 quick_test/data-fmllr-tri3/train/data/feats_fmllr_train.1.ark:354602
mppc0_si1412 quick_test/data-fmllr-tri3/train/data/feats_fmllr_train.8.ark:8543507
mbcg0_sx327 quick_test/data-fmllr-tri3/train/data/feats_fmllr_train.4.ark:4319179
mrlk0_si1468 quick_test/data-fmllr-tri3/train/data/feats_fmllr_train.9.ark:4399358
fgdp0_si2248 quick_test/data-fmllr-tri3/train/data/feats_fmllr_train.1.ark:16642439
mcss0_sx120 quick_test/data-fmllr-tri3/train/data/feats_fmllr_train.4.ark:13021393
mdss1_sx157 quick_test/data-fmllr-tri3/train/data/feats_fmllr_train.5.ark:9039328
mdac0_sx451 quick_test/data-fmllr-tri3/train/data/feats_fmllr_train.4.ark:14668902
mrcg0_si1428 quick_test/data-fmllr-tri3/train/data/feats_fmllr_train.8.ark:13228352
mrcw0_si741 quick_test/data-fmllr-tri3/train/data/feats_fmllr_train.8.ark:13797904
mram0_sx195 quick_test/data-fmllr-tri3/train/data/feats_fmllr_train.8.ark:12384795
fetb0_sx158 quick_test/data-fmllr-tri3/train/data/feats_fmllr_train.1.ark:15569361
mdpb0_sx326 quick_test/data-fmllr-tri3/train/data/feats_fmllr_train.5.ark:6944000
mtrc0_si1623 quick_test/data-fmllr-tri3/train/data/feats_fmllr_train.10.ark:10473976
mtkd0_si1187 quick_test/data-fmllr-tri3/train/data/feats_fmllr_train.10.ark:5669771
msem1_sx450 quick_test/data-fmllr-tri3/train/data/feats_fmllr_train.9.ark:14056257
flmc0_si742 quick_test/data-fmllr-tri3/train/data/feats_fmllr_train.2.ark:12913740
fcmm0_si1957 quick_test/data-fmllr-tri3/train/data/feats_fmllr_train.1.ark:8235956
mjsr0_sx164 quick_test/data-fmllr-tri3/train/data/feats_fmllr_train.7.ark:1688804
mlbc0_sx339 quick_test/data-fmllr-tri3/train/data/feats_fmllr_train.7.ark:10368992
mprb0_sx35 quick_test/data-fmllr-tri3/train/data/feats_fmllr_train.8.ark:9286926
flod0_sx207 quick_test/data-fmllr-tri3/train/data/feats_fmllr_train.2.ark:13827376
fmkf0_sx366 quick_test/data-fmllr-tri3/train/data/feats_fmllr_train.2.ark:17384530
mgrp0_si687 quick_test/data-fmllr-tri3/train/data/feats_fmllr_train.6.ark:1984515
mstf0_sx46 quick_test/data-fmllr-tri3/train/data/feats_fmllr_train.9.ark:18104851
fljg0_si2241 quick_test/data-fmllr-tri3/train/data/feats_fmllr_train.2.ark:11638023
mmds0_sx443 quick_test/data-fmllr-tri3/train/data/feats_fmllr_train.7.ark:17249669
fgdp0_si1618 quick_test/data-fmllr-tri3/train/data/feats_fmllr_train.1.ark:16604491
fpab1_si841 quick_test/data-fmllr-tri3/train/data/feats_fmllr_train.3.ark:872501
mrab1_sx218 quick_test/data-fmllr-tri3/train/data/feats_fmllr_train.8.ark:11517774
ftbr0_si2181 quick_test/data-fmllr-tri3/train/data/feats_fmllr_train.3.ark:14284653
mchl0_sx177 quick_test/data-fmllr-tri3/train/data/feats_fmllr_train.4.ark:11151989
mwar0_si2305 quick_test/data-fmllr-tri3/train/data/feats_fmllr_train.10.ark:14290443
mcef0_sx55 quick_test/data-fmllr-tri3/train/data/feats_fmllr_train.4.ark:10439821
mkln0_sx158 quick_test/data-fmllr-tri3/train/data/feats_fmllr_train.7.ark:7643736
mdlb0_sx46 quick_test/data-fmllr-tri3/train/data/feats_fmllr_train.5.ark:2741985
mmlm0_sx87 quick_test/data-fmllr-tri3/train/data/feats_fmllr_train.8.ark:1725232
mtmt0_sx218 quick_test/data-fmllr-tri3/train/data/feats_fmllr_train.10.ark:8265103
mtpf0_si605 quick_test/data-fmllr-tri3/train/data/feats_fmllr_train.10.ark:8541906
mjac0_sx251 quick_test/data-fmllr-tri3/train/data/feats_fmllr_train.6.ark:6615937
mfmc0_sx322 quick_test/data-fmllr-tri3/train/data/feats_fmllr_train.5.ark:14617033
fklc0_si985 quick_test/data-fmllr-tri3/train/data/feats_fmllr_train.2.ark:7365899
fdaw0_si2036 quick_test/data-fmllr-tri3/train/data/feats_fmllr_train.1.ark:9848852
mapv0_si1293 quick_test/data-fmllr-tri3/train/data/feats_fmllr_train.4.ark:2243558
mgsl0_sx354 quick_test/data-fmllr-tri3/train/data/feats_fmllr_train.6.ark:2985827
mdlc2_si2244 quick_test/data-fmllr-tri3/train/data/feats_fmllr_train.5.ark:3597676
msat1_sx443 quick_test/data-fmllr-tri3/train/data/feats_fmllr_train.9.ark:12436987
mtpg0_si2013 quick_test/data-fmllr-tri3/train/data/feats_fmllr_train.10.ark:8868816
