fbcg1_sx172 quick_test/fbank/raw_fbank_train.1.ark:665060
msdh0_sx350 quick_test/fbank/raw_fbank_train.4.ark:5722758
makb0_sx116 quick_test/fbank/raw_fbank_train.2.ark:2750603
msat0_si896 quick_test/fbank/raw_fbank_train.4.ark:5437742
mrcw0_sx201 quick_test/fbank/raw_fbank_train.4.ark:1327378
mrai0_sx72 quick_test/fbank/raw_fbank_train.4.ark:864389
mdbb1_sx106 quick_test/fbank/raw_fbank_train.2.ark:6236418
mmpm0_si1691 quick_test/fbank/raw_fbank_train.3.ark:9723176
fsls0_sx202 quick_test/fbank/raw_fbank_train.2.ark:595883
fbas0_si2066 quick_test/fbank/raw_fbank_train.1.ark:559842
mjmm0_sx445 quick_test/fbank/raw_fbank_train.3.ark:4125514
mmrp0_sx54 quick_test/fbank/raw_fbank_train.3.ark:9903718
mtat0_si1110 quick_test/fbank/raw_fbank_train.4.ark:7353751
madc0_sx197 quick_test/fbank/raw_fbank_train.2.ark:2174275
mzmb0_si1796 quick_test/fbank/raw_fbank_train.4.ark:11574518
mprb0_sx305 quick_test/fbank/raw_fbank_train.4.ark:127430
mpfu0_sx178 quick_test/fbank/raw_fbank_train.3.ark:10945700
mdlc1_si2144 quick_test/fbank/raw_fbank_train.2.ark:7643857
mlel0_si616 quick_test/fbank/raw_fbank_train.3.ark:7351608
mmeb0_sx97 quick_test/fbank/raw_fbank_train.3.ark:9246861
mjdc0_sx81 quick_test/fbank/raw_fbank_train.3.ark:2237549
mjpm0_si738 quick_test/fbank/raw_fbank_train.3.ark:4261352
mdpb0_sx146 quick_test/fbank/raw_fbank_train.2.ark:8549875
fpab1_si1471 quick_test/fbank/raw_fbank_train.1.ark:9762720
fcyl0_sx127 quick_test/fbank/raw_fbank_train.1.ark:2340486
fbmj0_sx66 quick_test/fbank/raw_fbank_train.1.ark:1245595
madd0_sx178 quick_test/fbank/raw_fbank_train.2.ark:2243915
fssb0_sx182 quick_test/fbank/raw_fbank_train.2.ark:1193801
fblv0_sx68 quick_test/fbank/raw_fbank_train.1.ark:1037266
mrfk0_sx356 quick_test/fbank/raw_fbank_train.4.ark:2107133
mcae0_si817 quick_test/fbank/raw_fbank_train.2.ark:4440259
mdss0_si621 quick_test/fbank/raw_fbank_train.2.ark:9014327
mdsj0_si1462 quick_test/fbank/raw_fbank_train.2.ark:8896395
fmjb0_sx367 quick_test/fbank/raw_fbank_train.1.ark:8893707
feme0_si2135 quick_test/fbank/raw_fbank_train.1.ark:3866360
fgmb0_sx425 quick_test/fbank/raw_fbank_train.1.ark:4477811
mljh0_sx424 quick_test/fbank/raw_fbank_train.3.ark:7643150
fbmh0_si1766 quick_test/fbank/raw_fbank_train.1.ark:1066534
fdxw0_si1511 quick_test/fbank/raw_fbank_train.1.ark:3343801
mvrw0_sx225 quick_test/fbank/raw_fbank_train.4.ark:10445795
mctm0_si1350 quick_test/fbank/raw_fbank_train.2.ark:5809260
mjmd0_si1658 quick_test/fbank/raw_fbank_train.3.ark:3975083
mgrp0_sx327 quick_test/fbank/raw_fbank_train.3.ark:547346
mdlm0_si604 quick_test/fbank/raw_fbank_train.2.ark:7915971
mmeb0_sx367 quick_test/fbank/raw_fbank_train.3.ark:9226598
megj0_si1337 quick_test/fbank/raw_fbank_train.2.ark:9829485
mrws0_sx292 quick_test/fbank/raw_fbank_train.4.ark:5098052
mzmb0_sx356 quick_test/fbank/raw_fbank_train.4.ark:11622890
mdwd0_si1890 quick_test/fbank/raw_fbank_train.2.ark:9268970
mtlb0_si1764 quick_test/fbank/raw_fbank_train.4.ark:8722110
fcdr1_si1816 quick_test/fbank/raw_fbank_train.1.ark:1456074
fclt0_sx448 quick_test/fbank/raw_fbank_train.1.ark:1975924
marw0_sx349 quick_test/fbank/raw_fbank_train.2.ark:3143201
mjfr0_si975 quick_test/fbank/raw_fbank_train.3.ark:2988025
fgdp0_si1618 quick_test/fbank/raw_fbank_train.1.ark:4267507
mmrp0_sx144 quick_test/fbank/raw_fbank_train.3.ark:9843867
fsak0_sx400 quick_test/fbank/raw_fbank_train.1.ark:11188355
mbbr0_si1055 quick_test/fbank/raw_fbank_train.2.ark:3272973
mkls0_si1533 quick_test/fbank/raw_fbank_train.3.ark:6759543
fjdm2_sx322 quick_test/fbank/raw_fbank_train.1.ark:4908882
mjwg0_sx355 quick_test/fbank/raw_fbank_train.3.ark:5214956
fljd0_sx256 quick_test/fbank/raw_fbank_train.1.ark:7771277
mrmg0_si1710 quick_test/fbank/raw_fbank_train.4.ark:3799944
mjhi0_si698 quick_test/fbank/raw_fbank_train.3.ark:3100969
fbmj0_sx426 quick_test/fbank/raw_fbank_train.1.ark:1232523
mrms0_sx210 quick_test/fbank/raw_fbank_train.4.ark:4159121
mbgt0_sx261 quick_test/fbank/raw_fbank_train.2.ark:3597101
fsjs0_sx451 quick_test/fbank/raw_fbank_train.2.ark:121743
mcxm0_sx451 quick_test/fbank/raw_fbank_train.2.ark:5978364
mjkr0_si1201 quick_test/fbank/raw_fbank_train.3.ark:3485123
mdbb1_si1636 quick_test/fbank/raw_fbank_train.2.ark:6213191
mjeb0_si1916 quick_test/fbank/raw_fbank_train.3.ark:2596212
mrwa0_si1603 quick_test/fbank/raw_fbank_train.4.ark:4941029
fmjb0_sx277 quick_test/fbank/raw_fbank_train.1.ark:8884394
mcth0_si579 quick_test/fbank/raw_fbank_train.2.ark:5735662
fskl0_sx179 quick_test/fbank/raw_fbank_train.2.ark:386359
flag0_sx384 quick_test/fbank/raw_fbank_train.1.ark:7308767
mhit0_sx263 quick_test/fbank/raw_fbank_train.3.ark:1060752
mmws0_si1518 quick_test/fbank/raw_fbank_train.3.ark:10270828
fsdj0_sx35 quick_test/fbank/raw_fbank_train.1.ark:11585983
fdmy0_sx117 quick_test/fbank/raw_fbank_train.1.ark:3053504
mdss1_si697 quick_test/fbank/raw_fbank_train.2.ark:9097512
fhlm0_sx120 quick_test/fbank/raw_fbank_train.1.ark:4645003
mkdd0_si2197 quick_test/fbank/raw_fbank_train.3.ark:6172873
mrlk0_si1468 quick_test/fbank/raw_fbank_train.4.ark:3501435
mcew0_sx452 quick_test/fbank/raw_fbank_train.2.ark:5101339
mjma0_sx145 quick_test/fbank/raw_fbank_train.3.ark:3916764
mdtb0_sx321 quick_test/fbank/raw_fbank_train.2.ark:9227229
fcke0_sx391 quick_test/fbank/raw_fbank_train.1.ark:1895771
mrcw0_sx21 quick_test/fbank/raw_fbank_train.4.ark:1338690
mtrr0_sx18 quick_test/fbank/raw_fbank_train.4.ark:9859963
fdtd0_si1561 quick_test/fbank/raw_fbank_train.1.ark:3235615
fmjf0_sx84 quick_test/fbank/raw_fbank_train.1.ark:9018915
fsms1_sx244 quick_test/fbank/raw_fbank_train.2.ark:899758
mkxl0_sx105 quick_test/fbank/raw_fbank_train.3.ark:7182431
mrso0_sx309 quick_test/fbank/raw_fbank_train.4.ark:4474070
mgaw0_sx265 quick_test/fbank/raw_fbank_train.3.ark:155652
mkxl0_si1958 quick_test/fbank/raw_fbank_train.3.ark:7165758
fsmm0_sx54 quick_test/fbank/raw_fbank_train.2.ark:837431
mgaf0_si1282 quick_test/fbank/raw_fbank_train.2.ark:10965064
mmjb1_sx328 quick_test/fbank/raw_fbank_train.3.ark:9585658
fsdc0_si2234 quick_test/fbank/raw_fbank_train.1.ark:11455587
fcdr1_si556 quick_test/fbank/raw_fbank_train.1.ark:1475627
madd0_sx358 quick_test/fbank/raw_fbank_train.2.ark:2272341
mrfl0_sx346 quick_test/fbank/raw_fbank_train.4.ark:2211958
fsrh0_sx221 quick_test/fbank/raw_fbank_train.2.ark:1096648
fear0_si1882 quick_test/fbank/raw_fbank_train.1.ark:3543525
mgaf0_sx22 quick_test/fbank/raw_fbank_train.2.ark:11021669
msds0_sx357 quick_test/fbank/raw_fbank_train.4.ark:5841344
mbth0_sx302 quick_test/fbank/raw_fbank_train.2.ark:4256108
marc0_si1188 quick_test/fbank/raw_fbank_train.2.ark:2992418
mgsh0_si1176 quick_test/fbank/raw_fbank_train.3.ark:593125
mbar0_si689 quick_test/fbank/raw_fbank_train.2.ark:3196775
mdwh0_sx305 quick_test/fbank/raw_fbank_train.2.ark:9419007
fbjl0_sx112 quick_test/fbank/raw_fbank_train.1.ark:882109
mrdm0_sx335 quick_test/fbank/raw_fbank_train.4.ark:1521262
mmea0_sx398 quick_test/fbank/raw_fbank_train.3.ark:9156238
mram0_sx15 quick_test/fbank/raw_fbank_train.4.ark:924196
mwgr0_sx346 quick_test/fbank/raw_fbank_train.4.ark:11121327
mjrh0_sx315 quick_test/fbank/raw_fbank_train.3.ark:4693472
mclk0_sx400 quick_test/fbank/raw_fbank_train.2.ark:5324102
fpad0_sx266 quick_test/fbank/raw_fbank_train.1.ark:10044143
mkaj0_sx64 quick_test/fbank/raw_fbank_train.3.ark:5941555
mjda0_sx131 quick_test/fbank/raw_fbank_train.3.ark:2096233
flma0_sx343 quick_test/fbank/raw_fbank_train.1.ark:8098824
mewm0_sx448 quick_test/fbank/raw_fbank_train.2.ark:10374765
mprt0_sx400 quick_test/fbank/raw_fbank_train.4.ark:475729
fdxw0_sx431 quick_test/fbank/raw_fbank_train.1.ark:3409960
fhlm0_si930 quick_test/fbank/raw_fbank_train.1.ark:4632890
mtlb0_si1134 quick_test/fbank/raw_fbank_train.4.ark:8704156
mjwt0_sx391 quick_test/fbank/raw_fbank_train.3.ark:5453591
mjee0_sx247 quick_test/fbank/raw_fbank_train.3.ark:2829761
fkdw0_si577 quick_test/fbank/raw_fbank_train.1.ark:6433882
mrre0_sx74 quick_test/fbank/raw_fbank_train.4.ark:4382389
mwac0_sx341 quick_test/fbank/raw_fbank_train.4.ark:10560133
mrpc1_sx402 quick_test/fbank/raw_fbank_train.4.ark:4259493
flet0_sx237 quick_test/fbank/raw_fbank_train.1.ark:7477560
mjfh0_si1737 quick_test/fbank/raw_fbank_train.3.ark:2894887
msrr0_sx51 quick_test/fbank/raw_fbank_train.4.ark:6916418
mppc0_sx422 quick_test/fbank/raw_fbank_train.4.ark:24198
flmk0_sx405 quick_test/fbank/raw_fbank_train.1.ark:8306948
mcdc0_sx392 quick_test/fbank/raw_fbank_train.2.ark:4701071
mjkr0_sx31 quick_test/fbank/raw_fbank_train.3.ark:3568201
mkls1_si2175 quick_test/fbank/raw_fbank_train.3.ark:6858849
mjae0_si1999 quick_test/fbank/raw_fbank_train.3.ark:1778010
fsjk1_si696 quick_test/fbank/raw_fbank_train.1.ark:11860367
fklh0_si1887 quick_test/fbank/raw_fbank_train.1.ark:6940775
fklc0_sx85 quick_test/fbank/raw_fbank_train.1.ark:6808081
fcmm0_sx363 quick_test/fbank/raw_fbank_train.1.ark:2164022
mtdp0_si2151 quick_test/fbank/raw_fbank_train.4.ark:7889184
fhlm0_sx390 quick_test/fbank/raw_fbank_train.1.ark:4704135
mdlc1_sx175 quick_test/fbank/raw_fbank_train.2.ark:7650210
mkes0_sx83 quick_test/fbank/raw_fbank_train.3.ark:6455119
mgrp0_sx237 quick_test/fbank/raw_fbank_train.3.ark:538873
mjma0_si865 quick_test/fbank/raw_fbank_train.3.ark:3902731
mmws1_sx441 quick_test/fbank/raw_fbank_train.3.ark:10426891
mmdm1_si783 quick_test/fbank/raw_fbank_train.3.ark:8917784
mrgm0_sx262 quick_test/fbank/raw_fbank_train.4.ark:2314270
fpjf0_sx146 quick_test/fbank/raw_fbank_train.1.ark:10338106
fjxp0_sx312 quick_test/fbank/raw_fbank_train.1.ark:6138785
mdcd0_sx155 quick_test/fbank/raw_fbank_train.2.ark:6435308
mfxs0_si1674 quick_test/fbank/raw_fbank_train.2.ark:10775372
fntb0_si1203 quick_test/fbank/raw_fbank_train.1.ark:9669336
mmpm0_sx251 quick_test/fbank/raw_fbank_train.3.ark:9762236
mtml0_sx75 quick_test/fbank/raw_fbank_train.4.ark:8988198
mrpc1_sx312 quick_test/fbank/raw_fbank_train.4.ark:4243660
mmbs0_si1151 quick_test/fbank/raw_fbank_train.3.ark:8398512
mmrp0_si774 quick_test/fbank/raw_fbank_train.3.ark:9829554
fsak0_sx310 quick_test/fbank/raw_fbank_train.1.ark:11163130
fceg0_sx258 quick_test/fbank/raw_fbank_train.1.ark:1598238
msem1_si810 quick_test/fbank/raw_fbank_train.4.ark:5918310
mrjb1_si1020 quick_test/fbank/raw_fbank_train.4.ark:2572610
mtjm0_sx326 quick_test/fbank/raw_fbank_train.4.ark:8247477
flod0_si1917 quick_test/fbank/raw_fbank_train.1.ark:8344568
mcdd0_sx163 quick_test/fbank/raw_fbank_train.2.ark:4746205
mjrk0_sx340 quick_test/fbank/raw_fbank_train.3.ark:4885642
mdmt0_sx302 quick_test/fbank/raw_fbank_train.2.ark:8366931
fhxs0_sx175 quick_test/fbank/raw_fbank_train.1.ark:4775550
fvmh0_si836 quick_test/fbank/raw_fbank_train.2.ark:1955767
mfwk0_si1249 quick_test/fbank/raw_fbank_train.2.ark:10679387
fpac0_sx31 quick_test/fbank/raw_fbank_train.1.ark:9965503
mcae0_sx7 quick_test/fbank/raw_fbank_train.2.ark:4495749
mcal0_si508 quick_test/fbank/raw_fbank_train.2.ark:4546682
majp0_sx174 quick_test/fbank/raw_fbank_train.2.ark:2621417
fsjk1_si1025 quick_test/fbank/raw_fbank_train.1.ark:11839380
mhrm0_si1475 quick_test/fbank/raw_fbank_train.3.ark:1378280
fskc0_si1416 quick_test/fbank/raw_fbank_train.2.ark:256514
feme0_si875 quick_test/fbank/raw_fbank_train.1.ark:3876113
mkes0_sx173 quick_test/fbank/raw_fbank_train.3.ark:6403548
mmcc0_sx168 quick_test/fbank/raw_fbank_train.3.ark:8550157
mgrl0_si867 quick_test/fbank/raw_fbank_train.3.ark:408942
mpgr1_sx329 quick_test/fbank/raw_fbank_train.3.ark:11251521
fmbg0_si2264 quick_test/fbank/raw_fbank_train.1.ark:8649479
mtab0_sx402 quick_test/fbank/raw_fbank_train.4.ark:7252540
fdaw0_si1406 quick_test/fbank/raw_fbank_train.1.ark:2521750
mrjm0_si1228 quick_test/fbank/raw_fbank_train.4.ark:2816254
fscn0_sx86 quick_test/fbank/raw_fbank_train.1.ark:11416885
fjsk0_sx242 quick_test/fbank/raw_fbank_train.1.ark:5727333
mreh1_sx339 quick_test/fbank/raw_fbank_train.4.ark:1819218
fdml0_sx339 quick_test/fbank/raw_fbank_train.1.ark:2952626
mkdd0_sx127 quick_test/fbank/raw_fbank_train.3.ark:6207859
fcke0_si1111 quick_test/fbank/raw_fbank_train.1.ark:1814820
mrtc0_sx18 quick_test/fbank/raw_fbank_train.4.ark:4678086
mmdm1_si1650 quick_test/fbank/raw_fbank_train.3.ark:8901157
fjxm0_sx131 quick_test/fbank/raw_fbank_train.1.ark:6005574
msem1_sx180 quick_test/fbank/raw_fbank_train.4.ark:5946063
mdem0_si800 quick_test/fbank/raw_fbank_train.2.ark:6907000
fmkc0_si1072 quick_test/fbank/raw_fbank_train.1.ark:9157328
fjlg0_sx179 quick_test/fbank/raw_fbank_train.1.ark:5287039
mrdd0_sx60 quick_test/fbank/raw_fbank_train.4.ark:1444982
mtmt0_sx398 quick_test/fbank/raw_fbank_train.4.ark:9192728
maeo0_si1655 quick_test/fbank/raw_fbank_train.2.ark:2419099
mkaj0_si784 quick_test/fbank/raw_fbank_train.3.ark:5890551
mtat1_sx149 quick_test/fbank/raw_fbank_train.4.ark:7490276
ftlg0_sx33 quick_test/fbank/raw_fbank_train.2.ark:1619997
mpgh0_si1554 quick_test/fbank/raw_fbank_train.3.ark:11012905
mbgt0_si1841 quick_test/fbank/raw_fbank_train.2.ark:3546402
mjrk0_sx250 quick_test/fbank/raw_fbank_train.3.ark:4873089
madc0_sx287 quick_test/fbank/raw_fbank_train.2.ark:2184748
mjlb0_sx446 quick_test/fbank/raw_fbank_train.3.ark:3658907
mtml0_sx165 quick_test/fbank/raw_fbank_train.4.ark:8935987
mfer0_si2122 quick_test/fbank/raw_fbank_train.2.ark:10403785
fscn0_sx356 quick_test/fbank/raw_fbank_train.1.ark:11388620
mgsh0_si546 quick_test/fbank/raw_fbank_train.3.ark:624912
mrsp0_si799 quick_test/fbank/raw_fbank_train.4.ark:4548796
fcjs0_si1607 quick_test/fbank/raw_fbank_train.1.ark:1722195
fdnc0_sx198 quick_test/fbank/raw_fbank_train.1.ark:3195355
mjbg0_si1862 quick_test/fbank/raw_fbank_train.3.ark:1987854
mapv0_sx213 quick_test/fbank/raw_fbank_train.2.ark:2949166
ftaj0_sx429 quick_test/fbank/raw_fbank_train.2.ark:1321244
mgsh0_sx276 quick_test/fbank/raw_fbank_train.3.ark:662491
mcdr0_si1784 quick_test/fbank/raw_fbank_train.2.ark:4817964
mtpf0_sx245 quick_test/fbank/raw_fbank_train.4.ark:9253775
fspm0_sx431 quick_test/fbank/raw_fbank_train.2.ark:1038689
mkdb0_si2132 quick_test/fbank/raw_fbank_train.3.ark:6056135
msfv0_sx452 quick_test/fbank/raw_fbank_train.4.ark:6302878
fklc1_sx58 quick_test/fbank/raw_fbank_train.1.ark:6903627
mdas0_sx276 quick_test/fbank/raw_fbank_train.2.ark:6166740
mdtb0_si1200 quick_test/fbank/raw_fbank_train.2.ark:9166710
fkde0_sx421 quick_test/fbank/raw_fbank_train.1.ark:6367669
mdma0_sx440 quick_test/fbank/raw_fbank_train.2.ark:8282259
mcpm0_si1824 quick_test/fbank/raw_fbank_train.2.ark:5432795
mcal0_sx418 quick_test/fbank/raw_fbank_train.2.ark:4589094
fdfb0_si2010 quick_test/fbank/raw_fbank_train.1.ark:2630490
mctm0_sx270 quick_test/fbank/raw_fbank_train.2.ark:5863793
mwsh0_si2266 quick_test/fbank/raw_fbank_train.4.ark:11460253
fcmm0_si1957 quick_test/fbank/raw_fbank_train.1.ark:2117530
fetb0_sx338 quick_test/fbank/raw_fbank_train.1.ark:4021517
fetb0_si1148 quick_test/fbank/raw_fbank_train.1.ark:3962311
mjxa0_si877 quick_test/fbank/raw_fbank_train.3.ark:5489852
mbwp0_sx439 quick_test/fbank/raw_fbank_train.2.ark:4367846
mjdm0_sx440 quick_test/fbank/raw_fbank_train.3.ark:2557112
mmdm0_sx321 quick_test/fbank/raw_fbank_train.3.ark:8860778
mdcm0_si850 quick_test/fbank/raw_fbank_train.2.ark:6522580
mrms0_sx30 quick_test/fbank/raw_fbank_train.4.ark:4167353
mtxs0_si2320 quick_test/fbank/raw_fbank_train.4.ark:10115494
mmlm0_sx87 quick_test/fbank/raw_fbank_train.3.ark:9702868
mrjt0_si1498 quick_test/fbank/raw_fbank_train.4.ark:3011511
mrhl0_si1515 quick_test/fbank/raw_fbank_train.4.ark:2482145
fmmh0_sx187 quick_test/fbank/raw_fbank_train.1.ark:9388123
fsag0_sx423 quick_test/fbank/raw_fbank_train.1.ark:10963873
mcpm0_si1194 quick_test/fbank/raw_fbank_train.2.ark:5421321
mdas0_sx96 quick_test/fbank/raw_fbank_train.2.ark:6186683
ftmg0_sx452 quick_test/fbank/raw_fbank_train.2.ark:1712543
feeh0_sx302 quick_test/fbank/raw_fbank_train.1.ark:3817107
mtxs0_sx430 quick_test/fbank/raw_fbank_train.4.ark:10177026
marw0_sx106 quick_test/fbank/raw_fbank_train.2.ark:3102543
fbas0_si1472 quick_test/fbank/raw_fbank_train.1.ark:541808
fbch0_sx56 quick_test/fbank/raw_fbank_train.1.ark:828855
mtqc0_sx361 quick_test/fbank/raw_fbank_train.4.ark:9675308
mrab1_sx38 quick_test/fbank/raw_fbank_train.4.ark:740131
mdjm0_sx105 quick_test/fbank/raw_fbank_train.2.ark:7231668
mwgr0_sx256 quick_test/fbank/raw_fbank_train.4.ark:11111054
mesj0_sx277 quick_test/fbank/raw_fbank_train.2.ark:10273516
mdlh0_si700 quick_test/fbank/raw_fbank_train.2.ark:7814866
mrai0_sx162 quick_test/fbank/raw_fbank_train.4.ark:809738
mtjs0_si1192 quick_test/fbank/raw_fbank_train.4.ark:8280896
fsgf0_sx207 quick_test/fbank/raw_fbank_train.1.ark:11666143
mjbg0_sx242 quick_test/fbank/raw_fbank_train.3.ark:2011960
mjbg0_si1232 quick_test/fbank/raw_fbank_train.3.ark:1966906
mlel0_sx346 quick_test/fbank/raw_fbank_train.3.ark:7402387
mntw0_si1698 quick_test/fbank/raw_fbank_train.3.ark:10648958
mvjh0_si2186 quick_test/fbank/raw_fbank_train.4.ark:10223766
mtcs0_si712 quick_test/fbank/raw_fbank_train.4.ark:7676613
mrab0_sx144 quick_test/fbank/raw_fbank_train.4.ark:600768
mgsh0_sx186 quick_test/fbank/raw_fbank_train.3.ark:650698
fgmb0_sx245 quick_test/fbank/raw_fbank_train.1.ark:4444585
mmgg0_sx449 quick_test/fbank/raw_fbank_train.3.ark:9421361
mbwp0_sx259 quick_test/fbank/raw_fbank_train.2.ark:4335260
msas0_si2006 quick_test/fbank/raw_fbank_train.4.ark:5326684
fecd0_si2048 quick_test/fbank/raw_fbank_train.1.ark:3656390
mrhl0_sx255 quick_test/fbank/raw_fbank_train.4.ark:2529078
mses0_sx419 quick_test/fbank/raw_fbank_train.4.ark:6082188
mjjb0_sx419 quick_test/fbank/raw_fbank_train.3.ark:3251047
mtrr0_sx288 quick_test/fbank/raw_fbank_train.4.ark:9881909
mjee0_sx157 quick_test/fbank/raw_fbank_train.3.ark:2819728
mfmc0_si1132 quick_test/fbank/raw_fbank_train.2.ark:10479536
mrav0_si1638 quick_test/fbank/raw_fbank_train.4.ark:977803
mdsj0_sx292 quick_test/fbank/raw_fbank_train.2.ark:8955040
fpls0_sx330 quick_test/fbank/raw_fbank_train.1.ark:10462588
msat1_sx443 quick_test/fbank/raw_fbank_train.4.ark:5568340
fjsk0_sx422 quick_test/fbank/raw_fbank_train.1.ark:5753039
fapb0_sx343 quick_test/fbank/raw_fbank_train.1.ark:479235
mcpm0_sx294 quick_test/fbank/raw_fbank_train.2.ark:5495359
mmgc0_si1305 quick_test/fbank/raw_fbank_train.3.ark:9258055
mrds0_sx447 quick_test/fbank/raw_fbank_train.4.ark:1625840
fmju0_si2019 quick_test/fbank/raw_fbank_train.1.ark:9055103
mgsh0_sx127 quick_test/fbank/raw_fbank_train.3.ark:641945
mtxs0_si1060 quick_test/fbank/raw_fbank_train.4.ark:10089186
fskl0_sx269 quick_test/fbank/raw_fbank_train.2.ark:399472
ftlg0_sx213 quick_test/fbank/raw_fbank_train.2.ark:1598852
fdtd0_si931 quick_test/fbank/raw_fbank_train.1.ark:3261722
msdb0_sx287 quick_test/fbank/raw_fbank_train.4.ark:5645005
makb0_sx26 quick_test/fbank/raw_fbank_train.2.ark:2778908
mgaf0_sx112 quick_test/fbank/raw_fbank_train.2.ark:11005924
mrem0_sx331 quick_test/fbank/raw_fbank_train.4.ark:1920762
mrsp0_sx196 quick_test/fbank/raw_fbank_train.4.ark:4574782
fblv0_si2318 quick_test/fbank/raw_fbank_train.1.ark:975582
ftaj0_sx339 quick_test/fbank/raw_fbank_train.2.ark:1312971
mhjb0_si1017 quick_test/fbank/raw_fbank_train.3.ark:1105444
fmkc0_si1702 quick_test/fbank/raw_fbank_train.1.ark:9166682
mjdm0_sx260 quick_test/fbank/raw_fbank_train.3.ark:2527606
fdas1_sx201 quick_test/fbank/raw_fbank_train.1.ark:2458704
mwre0_sx157 quick_test/fbank/raw_fbank_train.4.ark:11191127
mkag0_sx79 quick_test/fbank/raw_fbank_train.3.ark:5753265
mtkd0_sx107 quick_test/fbank/raw_fbank_train.4.ark:8538126
flag0_si2094 quick_test/fbank/raw_fbank_train.1.ark:7228770
mjpm0_sx18 quick_test/fbank/raw_fbank_train.3.ark:4283057
mmsm0_si1106 quick_test/fbank/raw_fbank_train.3.ark:9919472
mjlb0_si986 quick_test/fbank/raw_fbank_train.3.ark:3613335
mrlk0_sx123 quick_test/fbank/raw_fbank_train.4.ark:3549415
mcef0_sx415 quick_test/fbank/raw_fbank_train.2.ark:4983914
mewm0_sx178 quick_test/fbank/raw_fbank_train.2.ark:10337946
fklc1_sx238 quick_test/fbank/raw_fbank_train.1.ark:6864609
msah1_si2309 quick_test/fbank/raw_fbank_train.4.ark:5240052
mtlc0_si847 quick_test/fbank/raw_fbank_train.4.ark:8840968
fsak0_sx130 quick_test/fbank/raw_fbank_train.1.ark:11140744
fpaf0_si1054 quick_test/fbank/raw_fbank_train.1.ark:10092195
fecd0_si1418 quick_test/fbank/raw_fbank_train.1.ark:3633836
mpfu0_sx268 quick_test/fbank/raw_fbank_train.3.ark:10959973
mjpg0_si561 quick_test/fbank/raw_fbank_train.3.ark:4170127
msfv0_sx92 quick_test/fbank/raw_fbank_train.4.ark:6319030
mafm0_sx399 quick_test/fbank/raw_fbank_train.2.ark:2571682
mrai0_sx432 quick_test/fbank/raw_fbank_train.4.ark:846557
mfwk0_sx169 quick_test/fbank/raw_fbank_train.2.ark:10710287
fsbk0_sx259 quick_test/fbank/raw_fbank_train.1.ark:11243963
mtkd0_si1817 quick_test/fbank/raw_fbank_train.4.ark:8502300
fjen0_si1677 quick_test/fbank/raw_fbank_train.1.ark:4958175
mmpm0_sx341 quick_test/fbank/raw_fbank_train.3.ark:9776789
mtpr0_si506 quick_test/fbank/raw_fbank_train.4.ark:9514984
msfv0_si632 quick_test/fbank/raw_fbank_train.4.ark:6246746
mcdr0_sx434 quick_test/fbank/raw_fbank_train.2.ark:4891609
mcss0_sx210 quick_test/fbank/raw_fbank_train.2.ark:5672623
mdmt0_si572 quick_test/fbank/raw_fbank_train.2.ark:8323032
mmag0_sx406 quick_test/fbank/raw_fbank_train.3.ark:8162555
mrai0_si1954 quick_test/fbank/raw_fbank_train.4.ark:765438
fljg0_sx171 quick_test/fbank/raw_fbank_train.1.ark:7858309
mjac0_sx431 quick_test/fbank/raw_fbank_train.3.ark:1740470
msmr0_sx415 quick_test/fbank/raw_fbank_train.4.ark:6616032
mtpp0_sx68 quick_test/fbank/raw_fbank_train.4.ark:9471083
mjwt0_sx121 quick_test/fbank/raw_fbank_train.3.ark:5403660
mbom0_si1014 quick_test/fbank/raw_fbank_train.2.ark:4027053
fjrb0_si672 quick_test/fbank/raw_fbank_train.1.ark:5476736
mtab0_si942 quick_test/fbank/raw_fbank_train.4.ark:7190128
fjsp0_sx354 quick_test/fbank/raw_fbank_train.1.ark:5839591
fltm0_sx350 quick_test/fbank/raw_fbank_train.1.ark:8479047
mdhl0_sx179 quick_test/fbank/raw_fbank_train.2.ark:7036298
mrlk0_sx33 quick_test/fbank/raw_fbank_train.4.ark:3580393
fcaj0_sx399 quick_test/fbank/raw_fbank_train.1.ark:1422766
mdlm0_sx424 quick_test/fbank/raw_fbank_train.2.ark:7962503
mclm0_sx106 quick_test/fbank/raw_fbank_train.2.ark:5373476
mmjb1_sx238 quick_test/fbank/raw_fbank_train.3.ark:9572745
msmc0_sx377 quick_test/fbank/raw_fbank_train.4.ark:6526999
mkls1_si1545 quick_test/fbank/raw_fbank_train.3.ark:6845655
fjkl0_sx392 quick_test/fbank/raw_fbank_train.1.ark:5241144
fdnc0_sx108 quick_test/fbank/raw_fbank_train.1.ark:3170210
flmc0_si1372 quick_test/fbank/raw_fbank_train.1.ark:8132803
mstf0_si1396 quick_test/fbank/raw_fbank_train.4.ark:6928292
mhjb0_sx207 quick_test/fbank/raw_fbank_train.3.ark:1152098
fsma0_sx451 quick_test/fbank/raw_fbank_train.2.ark:714214
mejs0_sx70 quick_test/fbank/raw_fbank_train.2.ark:10120924
fear0_sx82 quick_test/fbank/raw_fbank_train.1.ark:3621842
mjra0_si1236 quick_test/fbank/raw_fbank_train.3.ark:4430535
fjkl0_si2192 quick_test/fbank/raw_fbank_train.1.ark:5164747
mbcg0_sx237 quick_test/fbank/raw_fbank_train.2.ark:3412211
mbgt0_sx441 quick_test/fbank/raw_fbank_train.2.ark:3623087
fskl0_si2159 quick_test/fbank/raw_fbank_train.2.ark:359093
mmar0_si706 quick_test/fbank/raw_fbank_train.3.ark:8309234
fcag0_sx333 quick_test/fbank/raw_fbank_train.1.ark:1306116
mjac0_si2148 quick_test/fbank/raw_fbank_train.3.ark:1677185
fetb0_si518 quick_test/fbank/raw_fbank_train.1.ark:3987258
fpad0_sx446 quick_test/fbank/raw_fbank_train.1.ark:10070969
mmab1_sx414 quick_test/fbank/raw_fbank_train.3.ark:8049290
mntw0_si1068 quick_test/fbank/raw_fbank_train.3.ark:10627364
mrem0_si961 quick_test/fbank/raw_fbank_train.4.ark:1888743
msdb0_sx107 quick_test/fbank/raw_fbank_train.4.ark:5622867
mrjb1_sx30 quick_test/fbank/raw_fbank_train.4.ark:2654816
mrhl0_sx165 quick_test/fbank/raw_fbank_train.4.ark:2515885
mjpm1_sx41 quick_test/fbank/raw_fbank_train.3.ark:4415421
fspm0_si1871 quick_test/fbank/raw_fbank_train.2.ark:972684
fjsk0_sx332 quick_test/fbank/raw_fbank_train.1.ark:5739206
mrgm0_si532 quick_test/fbank/raw_fbank_train.4.ark:2278204
mdma0_sx350 quick_test/fbank/raw_fbank_train.2.ark:8263666
mjjb0_si1769 quick_test/fbank/raw_fbank_train.3.ark:3196875
mjjj0_si1793 quick_test/fbank/raw_fbank_train.3.ark:3296307
mbth0_si2102 quick_test/fbank/raw_fbank_train.2.ark:4185983
mljc0_sx235 quick_test/fbank/raw_fbank_train.3.ark:7495619
mdcm0_sx400 quick_test/fbank/raw_fbank_train.2.ark:6580384
msem1_sx450 quick_test/fbank/raw_fbank_train.4.ark:5984242
fsms1_si1504 quick_test/fbank/raw_fbank_train.2.ark:851665
fsjg0_si940 quick_test/fbank/raw_fbank_train.1.ark:11732782
fsah0_si1244 quick_test/fbank/raw_fbank_train.1.ark:10996139
fsak0_si1930 quick_test/fbank/raw_fbank_train.1.ark:11121518
faem0_sx312 quick_test/fbank/raw_fbank_train.1.ark:62819
mkln0_sx68 quick_test/fbank/raw_fbank_train.3.ark:6639569
flma0_sx433 quick_test/fbank/raw_fbank_train.1.ark:8109777
msds0_sx87 quick_test/fbank/raw_fbank_train.4.ark:5870809
fgdp0_sx88 quick_test/fbank/raw_fbank_train.1.ark:4365218
mtkd0_sx287 quick_test/fbank/raw_fbank_train.4.ark:8571024
mjda0_si1661 quick_test/fbank/raw_fbank_train.3.ark:2073286
fbch0_sx416 quick_test/fbank/raw_fbank_train.1.ark:813303
mprk0_si1727 quick_test/fbank/raw_fbank_train.4.ark:301348
mjrg0_sx106 quick_test/fbank/raw_fbank_train.3.ark:4567020
mkdb0_sx62 quick_test/fbank/raw_fbank_train.3.ark:6144565
mjxa0_si1507 quick_test/fbank/raw_fbank_train.3.ark:5463105
fskl0_si899 quick_test/fbank/raw_fbank_train.2.ark:375406
fmpg0_si2232 quick_test/fbank/raw_fbank_train.1.ark:9458280
mmar0_sx256 quick_test/fbank/raw_fbank_train.3.ark:8340380
mrld0_sx154 quick_test/fbank/raw_fbank_train.4.ark:3276579
mhmr0_sx39 quick_test/fbank/raw_fbank_train.3.ark:1357573
mjpm0_si1368 quick_test/fbank/raw_fbank_train.3.ark:4228245
fgrw0_si1152 quick_test/fbank/raw_fbank_train.1.ark:4498917
mesj0_sx187 quick_test/fbank/raw_fbank_train.2.ark:10266763
msat0_sx86 quick_test/fbank/raw_fbank_train.4.ark:5488266
fcjs0_sx167 quick_test/fbank/raw_fbank_train.1.ark:1748055
milb0_sx363 quick_test/fbank/raw_fbank_train.3.ark:1645365
fskc0_sx246 quick_test/fbank/raw_fbank_train.2.ark:298727
mesg0_sx72 quick_test/fbank/raw_fbank_train.2.ark:10216749
mkag0_si979 quick_test/fbank/raw_fbank_train.3.ark:5686222
mhxl0_sx422 quick_test/fbank/raw_fbank_train.3.ark:1546903
mdlb0_sx316 quick_test/fbank/raw_fbank_train.2.ark:7461025
mdlr0_si1233 quick_test/fbank/raw_fbank_train.2.ark:7983209
mwrp0_si2073 quick_test/fbank/raw_fbank_train.4.ark:11283880
makr0_sx272 quick_test/fbank/raw_fbank_train.2.ark:2847021
mlsh0_si2047 quick_test/fbank/raw_fbank_train.3.ark:7777715
mmds0_sx353 quick_test/fbank/raw_fbank_train.3.ark:9052388
mbma1_sx414 quick_test/fbank/raw_fbank_train.2.ark:3909722
mvjh0_sx296 quick_test/fbank/raw_fbank_train.4.ark:10280210
mbcg0_sx417 quick_test/fbank/raw_fbank_train.2.ark:3436957
marc0_sx108 quick_test/fbank/raw_fbank_train.2.ark:3021398
mwac0_si971 quick_test/fbank/raw_fbank_train.4.ark:10513034
fsbk0_sx79 quick_test/fbank/raw_fbank_train.1.ark:11293621
mmsm0_sx26 quick_test/fbank/raw_fbank_train.3.ark:9988037
mwsb0_sx96 quick_test/fbank/raw_fbank_train.4.ark:11430545
milb0_si807 quick_test/fbank/raw_fbank_train.3.ark:1584722
mjjj0_sx353 quick_test/fbank/raw_fbank_train.3.ark:3349959
msat1_sx353 quick_test/fbank/raw_fbank_train.4.ark:5556787
mtpf0_sx335 quick_test/fbank/raw_fbank_train.4.ark:9267608
mjrp0_sx135 quick_test/fbank/raw_fbank_train.3.ark:4952481
mdlc2_sx354 quick_test/fbank/raw_fbank_train.2.ark:7759621
fssb0_sx452 quick_test/fbank/raw_fbank_train.2.ark:1233900
mrws0_sx112 quick_test/fbank/raw_fbank_train.4.ark:5072434
mdns0_sx21 quick_test/fbank/raw_fbank_train.2.ark:8472075
fssb0_sx362 quick_test/fbank/raw_fbank_train.2.ark:1215667
fdfb0_sx328 quick_test/fbank/raw_fbank_train.1.ark:2656949
mfxs0_sx144 quick_test/fbank/raw_fbank_train.2.ark:10802873
fdkn0_si1081 quick_test/fbank/raw_fbank_train.1.ark:2787113
mprb0_sx35 quick_test/fbank/raw_fbank_train.4.ark:141062
mkln0_si2228 quick_test/fbank/raw_fbank_train.3.ark:6568972
mtab0_sx42 quick_test/fbank/raw_fbank_train.4.ark:7265652
fcjs0_sx77 quick_test/fbank/raw_fbank_train.1.ark:1802706
mjhi0_sx158 quick_test/fbank/raw_fbank_train.3.ark:3115642
mdac0_si631 quick_test/fbank/raw_fbank_train.2.ark:6024217
mmwb0_sx179 quick_test/fbank/raw_fbank_train.3.ark:10192103
fjxp0_si1122 quick_test/fbank/raw_fbank_train.1.ark:6082739
fsma0_si2251 quick_test/fbank/raw_fbank_train.2.ark:645929
mwre0_si1687 quick_test/fbank/raw_fbank_train.4.ark:11172100
msjk0_sx246 quick_test/fbank/raw_fbank_train.4.ark:6386397
mlsh0_sx247 quick_test/fbank/raw_fbank_train.3.ark:7811214
mbgt0_si711 quick_test/fbank/raw_fbank_train.2.ark:3565715
mmdm1_sx423 quick_test/fbank/raw_fbank_train.3.ark:8976036
meal0_si917 quick_test/fbank/raw_fbank_train.2.ark:9578398
mtcs0_sx172 quick_test/fbank/raw_fbank_train.4.ark:7698486
mljh0_sx154 quick_test/fbank/raw_fbank_train.3.ark:7600131
flmk0_si2295 quick_test/fbank/raw_fbank_train.1.ark:8260856
mdlc0_si2025 quick_test/fbank/raw_fbank_train.2.ark:7523638
mtwh1_si2142 quick_test/fbank/raw_fbank_train.4.ark:10017795
mkjo0_si887 quick_test/fbank/raw_fbank_train.3.ark:6487340
mctm0_sx180 quick_test/fbank/raw_fbank_train.2.ark:5852160
mdef0_si1123 quick_test/fbank/raw_fbank_train.2.ark:6787468
mdwd0_si1260 quick_test/fbank/raw_fbank_train.2.ark:9251096
mjae0_si2154 quick_test/fbank/raw_fbank_train.3.ark:1787524
mbma1_sx54 quick_test/fbank/raw_fbank_train.2.ark:3921754
mjfh0_si1107 quick_test/fbank/raw_fbank_train.3.ark:2884253
mrav0_si2268 quick_test/fbank/raw_fbank_train.4.ark:991197
fdml0_sx159 quick_test/fbank/raw_fbank_train.1.ark:2932600
msrg0_sx141 quick_test/fbank/raw_fbank_train.4.ark:6774983
fsjs0_si541 quick_test/fbank/raw_fbank_train.2.ark:67611
mrmh0_sx391 quick_test/fbank/raw_fbank_train.4.ark:3969288
msvs0_sx218 quick_test/fbank/raw_fbank_train.4.ark:7098849
mjhi0_sx248 quick_test/fbank/raw_fbank_train.3.ark:3124155
msem1_si2070 quick_test/fbank/raw_fbank_train.4.ark:5896157
fpab1_sx301 quick_test/fbank/raw_fbank_train.1.ark:9843926
mjlg1_si2272 quick_test/fbank/raw_fbank_train.3.ark:3700961
ftaj0_si474 quick_test/fbank/raw_fbank_train.2.ark:1271559
fmem0_sx333 quick_test/fbank/raw_fbank_train.1.ark:8792674
fvmh0_si1466 quick_test/fbank/raw_fbank_train.2.ark:1927380
mcxm0_si721 quick_test/fbank/raw_fbank_train.2.ark:5933832
msfh0_si586 quick_test/fbank/raw_fbank_train.4.ark:6136481
fdnc0_sx288 quick_test/fbank/raw_fbank_train.1.ark:3205908
mjrp0_si585 quick_test/fbank/raw_fbank_train.3.ark:4940408
flhd0_si1974 quick_test/fbank/raw_fbank_train.1.ark:7534840
mafm0_sx219 quick_test/fbank/raw_fbank_train.2.ark:2537784
mdem0_si608 quick_test/fbank/raw_fbank_train.2.ark:6889047
fskp0_si1098 quick_test/fbank/raw_fbank_train.2.ark:446364
mtdb0_sx141 quick_test/fbank/raw_fbank_train.4.ark:7805471
fbmj0_sx156 quick_test/fbank/raw_fbank_train.1.ark:1189104
mdwh0_si1925 quick_test/fbank/raw_fbank_train.2.ark:9363155
madc0_sx17 quick_test/fbank/raw_fbank_train.2.ark:2166162
mmjb1_sx418 quick_test/fbank/raw_fbank_train.3.ark:9600251
mcdr0_si524 quick_test/fbank/raw_fbank_train.2.ark:4837757
mtjs0_sx22 quick_test/fbank/raw_fbank_train.4.ark:8356581
mkdb0_sx422 quick_test/fbank/raw_fbank_train.3.ark:6129293
mrlr0_si1826 quick_test/fbank/raw_fbank_train.4.ark:3618054
mmgg0_si2339 quick_test/fbank/raw_fbank_train.3.ark:9376869
mzmb0_si536 quick_test/fbank/raw_fbank_train.4.ark:11582431
mdcd0_sx335 quick_test/fbank/raw_fbank_train.2.ark:6457734
mdbp0_sx438 quick_test/fbank/raw_fbank_train.2.ark:6368262
mtrt0_sx254 quick_test/fbank/raw_fbank_train.4.ark:9971902
mrjb1_sx210 quick_test/fbank/raw_fbank_train.4.ark:2644064
mdps0_sx359 quick_test/fbank/raw_fbank_train.2.ark:8746711
fleh0_si2311 quick_test/fbank/raw_fbank_train.1.ark:7349149
mrcw0_sx111 quick_test/fbank/raw_fbank_train.4.ark:1318265
mdcm0_sx310 quick_test/fbank/raw_fbank_train.2.ark:6558719
fpls0_sx60 quick_test/fbank/raw_fbank_train.1.ark:10474420
mrlj0_sx430 quick_test/fbank/raw_fbank_train.4.ark:3395623
mvjh0_sx206 quick_test/fbank/raw_fbank_train.4.ark:10258945
fdjh0_sx35 quick_test/fbank/raw_fbank_train.1.ark:2764726
mkah0_si898 quick_test/fbank/raw_fbank_train.3.ark:5788206
mtjs0_si1822 quick_test/fbank/raw_fbank_train.4.ark:8290610
mcae0_sx277 quick_test/fbank/raw_fbank_train.2.ark:4466525
fexm0_sx381 quick_test/fbank/raw_fbank_train.1.ark:4164928
mfmc0_sx52 quick_test/fbank/raw_fbank_train.2.ark:10571367
mdwd0_sx180 quick_test/fbank/raw_fbank_train.2.ark:9290156
msjk0_sx426 quick_test/fbank/raw_fbank_train.4.ark:6414463
mjdm0_sx80 quick_test/fbank/raw_fbank_train.3.ark:2572864
faem0_si1392 quick_test/fbank/raw_fbank_train.1.ark:13
mdbp0_si1158 quick_test/fbank/raw_fbank_train.2.ark:6289383
mljh0_sx64 quick_test/fbank/raw_fbank_train.3.ark:7657902
mprt0_sx310 quick_test/fbank/raw_fbank_train.4.ark:454184
mbbr0_sx335 quick_test/fbank/raw_fbank_train.2.ark:3331620
mrlr0_si566 quick_test/fbank/raw_fbank_train.4.ark:3628967
mhmr0_si1692 quick_test/fbank/raw_fbank_train.3.ark:1285929
mwad0_si1749 quick_test/fbank/raw_fbank_train.4.ark:10614866
mjai0_si710 quick_test/fbank/raw_fbank_train.3.ark:1898868
mtqc0_sx451 quick_test/fbank/raw_fbank_train.4.ark:9690461
msvs0_si938 quick_test/fbank/raw_fbank_train.4.ark:7066783
mrso0_sx219 quick_test/fbank/raw_fbank_train.4.ark:4458197
mgaw0_si535 quick_test/fbank/raw_fbank_train.3.ark:132506
mrgm0_sx172 quick_test/fbank/raw_fbank_train.4.ark:2297677
mdwh0_sx215 quick_test/fbank/raw_fbank_train.2.ark:9403174
fsma0_sx271 quick_test/fbank/raw_fbank_train.2.ark:691908
fsls0_sx426 quick_test/fbank/raw_fbank_train.2.ark:614149
mgxp0_si525 quick_test/fbank/raw_fbank_train.3.ark:839438
mjfh0_sx117 quick_test/fbank/raw_fbank_train.3.ark:2920953
mdps0_sx89 quick_test/fbank/raw_fbank_train.2.ark:8774296
mbom0_sx311 quick_test/fbank/raw_fbank_train.2.ark:4089973
mzmb0_sx86 quick_test/fbank/raw_fbank_train.4.ark:11647275
mbcg0_sx147 quick_test/fbank/raw_fbank_train.2.ark:3400538
makr0_sx362 quick_test/fbank/raw_fbank_train.2.ark:2853854
mjdg0_sx322 quick_test/fbank/raw_fbank_train.3.ark:2441334
fdaw0_sx146 quick_test/fbank/raw_fbank_train.1.ark:2551617
mrhl0_sx345 quick_test/fbank/raw_fbank_train.4.ark:2538671
msat0_sx446 quick_test/fbank/raw_fbank_train.4.ark:5476314
mvlo0_sx247 quick_test/fbank/raw_fbank_train.4.ark:10348410
mjhi0_sx68 quick_test/fbank/raw_fbank_train.3.ark:3161333
fspm0_sx251 quick_test/fbank/raw_fbank_train.2.ark:1007623
fapb0_sx433 quick_test/fbank/raw_fbank_train.1.ark:495268
mjbg0_si1724 quick_test/fbank/raw_fbank_train.3.ark:1980860
fapb0_sx253 quick_test/fbank/raw_fbank_train.1.ark:467002
mreh1_sx429 quick_test/fbank/raw_fbank_train.4.ark:1831531
mpar0_sx226 quick_test/fbank/raw_fbank_train.3.ark:10779803
mrmh0_sx31 quick_test/fbank/raw_fbank_train.4.ark:3962455
mjws0_sx423 quick_test/fbank/raw_fbank_train.3.ark:5326254
mmar0_si1966 quick_test/fbank/raw_fbank_train.3.ark:8289281
mvlo0_sx67 quick_test/fbank/raw_fbank_train.4.ark:10384708
flkm0_sx350 quick_test/fbank/raw_fbank_train.1.ark:7999999
mdef0_sx393 quick_test/fbank/raw_fbank_train.2.ark:6869820
mmar0_si1336 quick_test/fbank/raw_fbank_train.3.ark:8274407
mbcg0_si486 quick_test/fbank/raw_fbank_train.2.ark:3376992
mefg0_sx375 quick_test/fbank/raw_fbank_train.2.ark:9815531
fjlg0_sx269 quick_test/fbank/raw_fbank_train.1.ark:5299992
mkah0_sx268 quick_test/fbank/raw_fbank_train.3.ark:5816112
fjwb1_si748 quick_test/fbank/raw_fbank_train.1.ark:5886963
mjrh1_si1558 quick_test/fbank/raw_fbank_train.3.ark:4728331
mhrm0_sx148 quick_test/fbank/raw_fbank_train.3.ark:1409660
mfxv0_si1005 quick_test/fbank/raw_fbank_train.2.ark:10870718
fntb0_si573 quick_test/fbank/raw_fbank_train.1.ark:9679329
msvs0_sx308 quick_test/fbank/raw_fbank_train.4.ark:7113162
fleh0_sx241 quick_test/fbank/raw_fbank_train.1.ark:7372095
mtml0_sx345 quick_test/fbank/raw_fbank_train.4.ark:8959253
fpab1_si2101 quick_test/fbank/raw_fbank_train.1.ark:9776474
mhxl0_sx62 quick_test/fbank/raw_fbank_train.3.ark:1562575
fcrz0_sx433 quick_test/fbank/raw_fbank_train.1.ark:2271400
msdh0_sx440 quick_test/fbank/raw_fbank_train.4.ark:5739031
mdsj0_si832 quick_test/fbank/raw_fbank_train.2.ark:8922902
fltm0_sx170 quick_test/fbank/raw_fbank_train.1.ark:8447421
fbmh0_sx146 quick_test/fbank/raw_fbank_train.1.ark:1094240
mrjt0_sx418 quick_test/fbank/raw_fbank_train.4.ark:3083630
mrtj0_si772 quick_test/fbank/raw_fbank_train.4.ark:4753366
fkkh0_si1920 quick_test/fbank/raw_fbank_train.1.ark:6627299
mdss0_sx351 quick_test/fbank/raw_fbank_train.2.ark:9044786
fvfb0_sx42 quick_test/fbank/raw_fbank_train.2.ark:1817921
ftbr0_sx21 quick_test/fbank/raw_fbank_train.2.ark:1408555
mtwh1_sx342 quick_test/fbank/raw_fbank_train.4.ark:10056967
makr0_sx452 quick_test/fbank/raw_fbank_train.2.ark:2865087
mhmg0_si1365 quick_test/fbank/raw_fbank_train.3.ark:1184870
mbma1_si954 quick_test/fbank/raw_fbank_train.2.ark:3851430
mmgk0_sx152 quick_test/fbank/raw_fbank_train.3.ark:9475607
mdhl0_si1439 quick_test/fbank/raw_fbank_train.2.ark:6999558
mmrp0_sx414 quick_test/fbank/raw_fbank_train.3.ark:9889766
mcdr0_sx344 quick_test/fbank/raw_fbank_train.2.ark:4881216
fnkl0_sx262 quick_test/fbank/raw_fbank_train.1.ark:9632677
msrr0_sx231 quick_test/fbank/raw_fbank_train.4.ark:6889841
mdss0_si1881 quick_test/fbank/raw_fbank_train.2.ark:8997500
mjmd0_sx398 quick_test/fbank/raw_fbank_train.3.ark:4039721
fceg0_si1248 quick_test/fbank/raw_fbank_train.1.ark:1560465
fgcs0_sx226 quick_test/fbank/raw_fbank_train.1.ark:4224575
mdcm0_sx40 quick_test/fbank/raw_fbank_train.2.ark:6568991
mkls0_si1437 quick_test/fbank/raw_fbank_train.3.ark:6736749
mbma0_sx412 quick_test/fbank/raw_fbank_train.2.ark:3806897
fpac0_si661 quick_test/fbank/raw_fbank_train.1.ark:9906572
mtwh1_sx432 quick_test/fbank/raw_fbank_train.4.ark:10067600
mstf0_sx226 quick_test/fbank/raw_fbank_train.4.ark:6984424
mbgt0_sx171 quick_test/fbank/raw_fbank_train.2.ark:3578628
mjdm0_si1937 quick_test/fbank/raw_fbank_train.3.ark:2495267
mrld0_sx424 quick_test/fbank/raw_fbank_train.4.ark:3304918
marc0_sx378 quick_test/fbank/raw_fbank_train.2.ark:3061329
mgjc0_si1256 quick_test/fbank/raw_fbank_train.3.ark:277169
fdaw0_sx326 quick_test/fbank/raw_fbank_train.1.ark:2572723
mtrc0_sx170 quick_test/fbank/raw_fbank_train.4.ark:9759386
mmdm0_sx231 quick_test/fbank/raw_fbank_train.3.ark:8854025
freh0_si685 quick_test/fbank/raw_fbank_train.1.ark:10632786
mjjm0_si1251 quick_test/fbank/raw_fbank_train.3.ark:3384618
mmcc0_si1338 quick_test/fbank/raw_fbank_train.3.ark:8509457
mges0_si851 quick_test/fbank/raw_fbank_train.3.ark:205091
fcke0_si1741 quick_test/fbank/raw_fbank_train.1.ark:1819694
fgmb0_sx65 quick_test/fbank/raw_fbank_train.1.ark:4487523
mrxb0_si955 quick_test/fbank/raw_fbank_train.4.ark:5150746
fsmm0_si684 quick_test/fbank/raw_fbank_train.2.ark:766867
mljh0_si1422 quick_test/fbank/raw_fbank_train.3.ark:7554825
msrg0_sx231 quick_test/fbank/raw_fbank_train.4.ark:6786896
mpeb0_si1034 quick_test/fbank/raw_fbank_train.3.ark:10819455
falk0_si1086 quick_test/fbank/raw_fbank_train.1.ark:209261
mkls0_sx177 quick_test/fbank/raw_fbank_train.3.ark:6784850
fcdr1_si1186 quick_test/fbank/raw_fbank_train.1.ark:1433240
fcmm0_sx420 quick_test/fbank/raw_fbank_train.1.ark:2175975
fjlr0_si601 quick_test/fbank/raw_fbank_train.1.ark:5376511
fcyl0_sx37 quick_test/fbank/raw_fbank_train.1.ark:2375024
msjk0_si2226 quick_test/fbank/raw_fbank_train.4.ark:6352378
meal0_sx107 quick_test/fbank/raw_fbank_train.2.ark:9587231
mprd0_si1431 quick_test/fbank/raw_fbank_train.4.ark:165489
mrlk0_sx393 quick_test/fbank/raw_fbank_train.4.ark:3589026
fcyl0_sx349 quick_test/fbank/raw_fbank_train.1.ark:2357632
mded0_sx360 quick_test/fbank/raw_fbank_train.2.ark:6749529
fjhk0_sx392 quick_test/fbank/raw_fbank_train.1.ark:5147679
falr0_si695 quick_test/fbank/raw_fbank_train.1.ark:334750
fcjf0_si1027 quick_test/fbank/raw_fbank_train.1.ark:1644050
mtbc0_sx273 quick_test/fbank/raw_fbank_train.4.ark:7613854
fgrw0_sx252 quick_test/fbank/raw_fbank_train.1.ark:4562491
mkes0_si1883 quick_test/fbank/raw_fbank_train.3.ark:6371002
mlns0_si2037 quick_test/fbank/raw_fbank_train.3.ark:7679730
msah1_sx59 quick_test/fbank/raw_fbank_train.4.ark:5298616
mdhl0_sx89 quick_test/fbank/raw_fbank_train.2.ark:7086749
mcef0_sx145 quick_test/fbank/raw_fbank_train.2.ark:4952655
mkrg0_sx51 quick_test/fbank/raw_fbank_train.3.ark:7127776
mmwb0_sx359 quick_test/fbank/raw_fbank_train.3.ark:10220449
mjmd0_sx308 quick_test/fbank/raw_fbank_train.3.ark:4017416
mrfk0_si1076 quick_test/fbank/raw_fbank_train.4.ark:2050766
mtjg0_si1520 quick_test/fbank/raw_fbank_train.4.ark:8085086
mtcs0_sx262 quick_test/fbank/raw_fbank_train.4.ark:7709999
mgaw0_si1165 quick_test/fbank/raw_fbank_train.3.ark:99239
mmgc0_sx405 quick_test/fbank/raw_fbank_train.3.ark:9329015
feac0_sx435 quick_test/fbank/raw_fbank_train.1.ark:3506825
mljc0_sx415 quick_test/fbank/raw_fbank_train.3.ark:7518605
mpgh0_sx384 quick_test/fbank/raw_fbank_train.3.ark:11090095
fmkf0_sx276 quick_test/fbank/raw_fbank_train.1.ark:9295893
mjlb0_si1616 quick_test/fbank/raw_fbank_train.3.ark:3587108
mtlb0_sx414 quick_test/fbank/raw_fbank_train.4.ark:8779195
fpab1_si841 quick_test/fbank/raw_fbank_train.1.ark:9796187
fajw0_sx183 quick_test/fbank/raw_fbank_train.1.ark:151578
fsag0_sx153 quick_test/fbank/raw_fbank_train.1.ark:10911254
flmc0_si2002 quick_test/fbank/raw_fbank_train.1.ark:8149397
mjrh0_sx45 quick_test/fbank/raw_fbank_train.3.ark:4716737
fjen0_sx57 quick_test/fbank/raw_fbank_train.1.ark:5047653
mbma0_sx232 quick_test/fbank/raw_fbank_train.2.ark:3782591
mter0_si527 quick_test/fbank/raw_fbank_train.4.ark:8010609
mwad0_sx432 quick_test/fbank/raw_fbank_train.4.ark:10657752
fdas1_si1461 quick_test/fbank/raw_fbank_train.1.ark:2398811
mhmg0_si735 quick_test/fbank/raw_fbank_train.3.ark:1207017
mkxl0_sx285 quick_test/fbank/raw_fbank_train.3.ark:7211129
mjws0_sx63 quick_test/fbank/raw_fbank_train.3.ark:5342046
fsgf0_si1557 quick_test/fbank/raw_fbank_train.1.ark:11605690
fcjf0_sx397 quick_test/fbank/raw_fbank_train.1.ark:1712121
mrre0_si704 quick_test/fbank/raw_fbank_train.4.ark:4298992
fsah0_sx327 quick_test/fbank/raw_fbank_train.1.ark:11052192
mhbs0_sx45 quick_test/fbank/raw_fbank_train.3.ark:996385
fhxs0_sx445 quick_test/fbank/raw_fbank_train.1.ark:4818089
fdjh0_sx125 quick_test/fbank/raw_fbank_train.1.ark:2732588
mdem0_sx338 quick_test/fbank/raw_fbank_train.2.ark:6953539
mter0_sx257 quick_test/fbank/raw_fbank_train.4.ark:8046587
mwdk0_sx176 quick_test/fbank/raw_fbank_train.4.ark:10896090
mwem0_sx420 quick_test/fbank/raw_fbank_train.4.ark:11025415
mlns0_sx417 quick_test/fbank/raw_fbank_train.3.ark:7737015
mtpr0_sx70 quick_test/fbank/raw_fbank_train.4.ark:9585748
makb0_sx296 quick_test/fbank/raw_fbank_train.2.ark:2789221
mddc0_sx249 quick_test/fbank/raw_fbank_train.2.ark:6640591
mclm0_sx16 quick_test/fbank/raw_fbank_train.2.ark:5382588
mbbr0_sx65 quick_test/fbank/raw_fbank_train.2.ark:3357045
mdpk0_sx63 quick_test/fbank/raw_fbank_train.2.ark:8684191
mhbs0_si1575 quick_test/fbank/raw_fbank_train.3.ark:916394
mdks0_si2326 quick_test/fbank/raw_fbank_train.2.ark:7299541
mjrg0_sx352 quick_test/fbank/raw_fbank_train.3.ark:4600078
mntw0_sx258 quick_test/fbank/raw_fbank_train.3.ark:10694731
mcxm0_sx91 quick_test/fbank/raw_fbank_train.2.ark:5993276
fjxp0_si1752 quick_test/fbank/raw_fbank_train.1.ark:6093933
msfv0_sx182 quick_test/fbank/raw_fbank_train.4.ark:6265899
mwem0_si1393 quick_test/fbank/raw_fbank_train.4.ark:10968209
mklw0_si1844 quick_test/fbank/raw_fbank_train.3.ark:6961474
mprt0_si495 quick_test/fbank/raw_fbank_train.4.ark:412812
mbjv0_sx347 quick_test/fbank/raw_fbank_train.2.ark:3699879
fmjb0_sx7 quick_test/fbank/raw_fbank_train.1.ark:8907738
mjrk0_si880 quick_test/fbank/raw_fbank_train.3.ark:4840223
fsjs0_sx181 quick_test/fbank/raw_fbank_train.2.ark:82924
mrjh0_sx79 quick_test/fbank/raw_fbank_train.4.ark:2792386
fpaf0_si1684 quick_test/fbank/raw_fbank_train.1.ark:10115189
fjwb1_sx255 quick_test/fbank/raw_fbank_train.1.ark:5926702
mdpb0_sx236 quick_test/fbank/raw_fbank_train.2.ark:8560908
mjmd0_sx38 quick_test/fbank/raw_fbank_train.3.ark:4027808
