fcjs0_si2237 quick_test/mfcc/raw_mfcc_train.1.ark:565161
mwad0_sx252 quick_test/mfcc/raw_mfcc_train.4.ark:3476525
mgag0_sx151 quick_test/mfcc/raw_mfcc_train.2.ark:3625364
mntw0_si2328 quick_test/mfcc/raw_mfcc_train.3.ark:3486731
fntb0_sx393 quick_test/mfcc/raw_mfcc_train.1.ark:3186636
falk0_sx186 quick_test/mfcc/raw_mfcc_train.1.ark:82540
fdjh0_sx215 quick_test/mfcc/raw_mfcc_train.1.ark:896215
fskc0_si2046 quick_test/mfcc/raw_mfcc_train.2.ark:87366
fsag0_sx423 quick_test/mfcc/raw_mfcc_train.1.ark:3582370
mtqc0_sx361 quick_test/mfcc/raw_mfcc_train.4.ark:3161504
mbef0_sx201 quick_test/mfcc/raw_mfcc_train.2.ark:1145938
msmc0_si1907 quick_test/mfcc/raw_mfcc_train.4.ark:2104038
ftbr0_si921 quick_test/mfcc/raw_mfcc_train.2.ark:447425
mrab1_si848 quick_test/mfcc/raw_mfcc_train.4.ark:224646
fsjs0_sx91 quick_test/mfcc/raw_mfcc_train.2.ark:45199
mcae0_sx277 quick_test/mfcc/raw_mfcc_train.2.ark:1459859
fnkl0_sx442 quick_test/mfcc/raw_mfcc_train.1.ark:3150902
fdjh0_si2195 quick_test/mfcc/raw_mfcc_train.1.ark:883298
fcmg0_sx432 quick_test/mfcc/raw_mfcc_train.1.ark:679482
mgag0_sx61 quick_test/mfcc/raw_mfcc_train.2.ark:3638274
fbch0_si959 quick_test/mfcc/raw_mfcc_train.1.ark:247995
fmjf0_sx174 quick_test/mfcc/raw_mfcc_train.1.ark:2929386
mtat1_sx419 quick_test/mfcc/raw_mfcc_train.4.ark:2464111
msrr0_si501 quick_test/mfcc/raw_mfcc_train.4.ark:2240520
fsma0_sx271 quick_test/mfcc/raw_mfcc_train.2.ark:226131
fcaj0_sx309 quick_test/mfcc/raw_mfcc_train.1.ark:457191
mrav0_sx378 quick_test/mfcc/raw_mfcc_train.4.ark:342334
mmeb0_sx367 quick_test/mfcc/raw_mfcc_train.3.ark:3015221
mdss1_si1327 quick_test/mfcc/raw_mfcc_train.2.ark:2966477
mjwt0_sx391 quick_test/mfcc/raw_mfcc_train.3.ark:1782239
mjlg1_si1642 quick_test/mfcc/raw_mfcc_train.3.ark:1205704
mjdc0_si2165 quick_test/mfcc/raw_mfcc_train.3.ark:707079
mjxa0_sx67 quick_test/mfcc/raw_mfcc_train.3.ark:1811858
mjkr0_sx391 quick_test/mfcc/raw_mfcc_train.3.ark:1169036
mdrd0_sx32 quick_test/mfcc/raw_mfcc_train.2.ark:2899099
megj0_si707 quick_test/mfcc/raw_mfcc_train.2.ark:3222528
mcre0_si1751 quick_test/mfcc/raw_mfcc_train.2.ark:1808690
fcjf0_sx37 quick_test/mfcc/raw_mfcc_train.1.ark:556402
fsgf0_sx387 quick_test/mfcc/raw_mfcc_train.1.ark:3820572
fmjf0_sx84 quick_test/mfcc/raw_mfcc_train.1.ark:2946885
mdem0_si608 quick_test/mfcc/raw_mfcc_train.2.ark:2251581
mdjm0_si1455 quick_test/mfcc/raw_mfcc_train.2.ark:2349062
mgsl0_si534 quick_test/mfcc/raw_mfcc_train.3.ark:233015
ftmg0_sx182 quick_test/mfcc/raw_mfcc_train.2.ark:548573
mkln0_sx68 quick_test/mfcc/raw_mfcc_train.3.ark:2169827
mrlk0_sx123 quick_test/mfcc/raw_mfcc_train.4.ark:1159807
mrjh0_sx439 quick_test/mfcc/raw_mfcc_train.4.ark:907159
mtdb0_sx411 quick_test/mfcc/raw_mfcc_train.4.ark:2561275
mddc0_sx69 quick_test/mfcc/raw_mfcc_train.2.ark:2180211
mprb0_si1215 quick_test/mfcc/raw_mfcc_train.4.ark:19314
mdcm0_sx130 quick_test/mfcc/raw_mfcc_train.2.ark:2135420
msat1_si2333 quick_test/mfcc/raw_mfcc_train.4.ark:1803900
mjeb1_si2097 quick_test/mfcc/raw_mfcc_train.3.ark:881772
fjkl0_sx392 quick_test/mfcc/raw_mfcc_train.1.ark:1712487
mdlr1_si1299 quick_test/mfcc/raw_mfcc_train.2.ark:2643493
flma0_si1243 quick_test/mfcc/raw_mfcc_train.1.ark:2628784
mwac0_sx431 quick_test/mfcc/raw_mfcc_train.4.ark:3455252
msas0_sx26 quick_test/mfcc/raw_mfcc_train.4.ark:1759631
mklw0_sx401 quick_test/mfcc/raw_mfcc_train.3.ark:2293422
fear0_si1882 quick_test/mfcc/raw_mfcc_train.1.ark:1157940
mrds0_sx87 quick_test/mfcc/raw_mfcc_train.4.ark:534349
msds0_si1077 quick_test/mfcc/raw_mfcc_train.4.ark:1883292
fspm0_sx71 quick_test/mfcc/raw_mfcc_train.2.ark:343101
mjdg0_sx52 quick_test/mfcc/raw_mfcc_train.3.ark:804513
maeb0_sx270 quick_test/mfcc/raw_mfcc_train.2.ark:770994
mdbp0_sx78 quick_test/mfcc/raw_mfcc_train.2.ark:2087220
fjrb0_sx132 quick_test/mfcc/raw_mfcc_train.1.ark:1791477
mjma0_sx145 quick_test/mfcc/raw_mfcc_train.3.ark:1279998
fapb0_sx343 quick_test/mfcc/raw_mfcc_train.1.ark:156585
fsls0_sx202 quick_test/mfcc/raw_mfcc_train.2.ark:194744
feac0_sx345 quick_test/mfcc/raw_mfcc_train.1.ark:1142246
mrms0_sx390 quick_test/mfcc/raw_mfcc_train.4.ark:1366892
mcdr0_sx74 quick_test/mfcc/raw_mfcc_train.2.ark:1602221
mrdm0_si1044 quick_test/mfcc/raw_mfcc_train.4.ark:476640
fsma0_si1621 quick_test/mfcc/raw_mfcc_train.2.ark:208955
mjda0_sx131 quick_test/mfcc/raw_mfcc_train.3.ark:685105
mlel0_sx256 quick_test/mfcc/raw_mfcc_train.3.ark:2414484
mdlr0_sx153 quick_test/mfcc/raw_mfcc_train.2.ark:2620747
mtbc0_sx93 quick_test/mfcc/raw_mfcc_train.4.ark:2501055
mtmn0_si1064 quick_test/mfcc/raw_mfcc_train.4.ark:2941179
fear0_si622 quick_test/mfcc/raw_mfcc_train.1.ark:1160703
mjee0_sx157 quick_test/mfcc/raw_mfcc_train.3.ark:921493
fskc0_sx246 quick_test/mfcc/raw_mfcc_train.2.ark:97631
mdlr1_sx129 quick_test/mfcc/raw_mfcc_train.2.ark:2657347
flod0_si1287 quick_test/mfcc/raw_mfcc_train.1.ark:2721542
fmbg0_si1790 quick_test/mfcc/raw_mfcc_train.1.ark:2823032
mbar0_si689 quick_test/mfcc/raw_mfcc_train.2.ark:1044821
fsag0_si1323 quick_test/mfcc/raw_mfcc_train.1.ark:3554416
mtcs0_si712 quick_test/mfcc/raw_mfcc_train.4.ark:2508462
mrld0_si1594 quick_test/mfcc/raw_mfcc_train.4.ark:1058512
mljc0_sx325 quick_test/mfcc/raw_mfcc_train.3.ark:2453561
mjlg1_sx112 quick_test/mfcc/raw_mfcc_train.3.ark:1214806
ftbr0_sx291 quick_test/mfcc/raw_mfcc_train.2.ark:463260
fmkf0_sx6 quick_test/mfcc/raw_mfcc_train.1.ark:3045823
fjlg0_sx89 quick_test/mfcc/raw_mfcc_train.1.ark:1744889
fljd0_si886 quick_test/mfcc/raw_mfcc_train.1.ark:2531272
mhit0_si2243 quick_test/mfcc/raw_mfcc_train.3.ark:332776
mpsw0_si1067 quick_test/mfcc/raw_mfcc_train.4.ark:158646
mjda0_si1661 quick_test/mfcc/raw_mfcc_train.3.ark:677602
fvfb0_sx222 quick_test/mfcc/raw_mfcc_train.2.ark:582594
mkam0_si1465 quick_test/mfcc/raw_mfcc_train.3.ark:1954290
fhxs0_si1075 quick_test/mfcc/raw_mfcc_train.1.ark:1541321
fsrh0_sx131 quick_test/mfcc/raw_mfcc_train.2.ark:355052
mgxp0_sx277 quick_test/mfcc/raw_mfcc_train.3.ark:283584
mdsj0_si832 quick_test/mfcc/raw_mfcc_train.2.ark:2916185
fpaz0_sx63 quick_test/mfcc/raw_mfcc_train.1.ark:3361095
fdfb0_sx328 quick_test/mfcc/raw_mfcc_train.1.ark:868280
mkaj0_sx154 quick_test/mfcc/raw_mfcc_train.3.ark:1928694
fjlr0_sx421 quick_test/mfcc/raw_mfcc_train.1.ark:1772890
mtpp0_sx248 quick_test/mfcc/raw_mfcc_train.4.ark:3083006
fexm0_sx381 quick_test/mfcc/raw_mfcc_train.1.ark:1360924
mtrt0_sx237 quick_test/mfcc/raw_mfcc_train.4.ark:3256320
mddc0_si1419 quick_test/mfcc/raw_mfcc_train.2.ark:2154344
mtcs0_si2265 quick_test/mfcc/raw_mfcc_train.4.ark:2506310
faem0_sx312 quick_test/mfcc/raw_mfcc_train.1.ark:20537
mjkr0_sx301 quick_test/mfcc/raw_mfcc_train.3.ark:1161327
mesj0_sx187 quick_test/mfcc/raw_mfcc_train.2.ark:3355465
fvkb0_sx259 quick_test/mfcc/raw_mfcc_train.2.ark:610796
mjdm0_si974 quick_test/mfcc/raw_mfcc_train.3.ark:817302
mjwg0_sx85 quick_test/mfcc/raw_mfcc_train.3.ark:1711145
mdma0_sx260 quick_test/mfcc/raw_mfcc_train.2.ark:2695983
mgak0_si1666 quick_test/mfcc/raw_mfcc_train.2.ark:3647975
fljd0_sx166 quick_test/mfcc/raw_mfcc_train.1.ark:2533853
mjrk0_sx250 quick_test/mfcc/raw_mfcc_train.3.ark:1592616
mcal0_sx58 quick_test/mfcc/raw_mfcc_train.2.ark:1504966
mrws0_si472 quick_test/mfcc/raw_mfcc_train.4.ark:1653671
mtjs0_si1822 quick_test/mfcc/raw_mfcc_train.4.ark:2709062
fjhk0_sx212 quick_test/mfcc/raw_mfcc_train.1.ark:1670368
mjlg1_sx292 quick_test/mfcc/raw_mfcc_train.3.ark:1223861
mcpm0_sx204 quick_test/mfcc/raw_mfcc_train.2.ark:1789874
fsbk0_sx79 quick_test/mfcc/raw_mfcc_train.1.ark:3690097
fkfb0_si2238 quick_test/mfcc/raw_mfcc_train.1.ark:2127239
fbas0_si1472 quick_test/mfcc/raw_mfcc_train.1.ark:177011
mtmt0_sx128 quick_test/mfcc/raw_mfcc_train.4.ark:2989371
fcke0_sx31 quick_test/mfcc/raw_mfcc_train.1.ark:617330
mgsh0_si1806 quick_test/mfcc/raw_mfcc_train.3.ark:200006
mmeb0_sx327 quick_test/mfcc/raw_mfcc_train.3.ark:3009338
mkdt0_sx83 quick_test/mfcc/raw_mfcc_train.3.ark:2074223
fkaa0_sx128 quick_test/mfcc/raw_mfcc_train.1.ark:2030257
fsbk0_si1699 quick_test/mfcc/raw_mfcc_train.1.ark:3664510
mtkp0_sx303 quick_test/mfcc/raw_mfcc_train.4.ark:2834269
fklc1_sx328 quick_test/mfcc/raw_mfcc_train.1.ark:2246558
mgar0_si1212 quick_test/mfcc/raw_mfcc_train.3.ark:13
fecd0_sx248 quick_test/mfcc/raw_mfcc_train.1.ark:1208562
mrfk0_sx356 quick_test/mfcc/raw_mfcc_train.4.ark:688607
mrgs0_si726 quick_test/mfcc/raw_mfcc_train.4.ark:783111
mpar0_sx46 quick_test/mfcc/raw_mfcc_train.3.ark:3533245
fsmm0_sx54 quick_test/mfcc/raw_mfcc_train.2.ark:273671
mjlb0_si1616 quick_test/mfcc/raw_mfcc_train.3.ark:1172255
mjeb0_sx386 quick_test/mfcc/raw_mfcc_train.3.ark:872409
msvs0_sx398 quick_test/mfcc/raw_mfcc_train.4.ark:2333460
mwch0_sx272 quick_test/mfcc/raw_mfcc_train.4.ark:3532658
mjrh0_si1125 quick_test/mfcc/raw_mfcc_train.3.ark:1512925
mrvg0_si1770 quick_test/mfcc/raw_mfcc_train.4.ark:1589538
mjpg0_si561 quick_test/mfcc/raw_mfcc_train.3.ark:1362856
fsjg0_sx310 quick_test/mfcc/raw_mfcc_train.1.ark:3852037
mreh1_sx249 quick_test/mfcc/raw_mfcc_train.4.ark:590916
frjb0_sx347 quick_test/mfcc/raw_mfcc_train.1.ark:3508592
flod0_sx207 quick_test/mfcc/raw_mfcc_train.1.ark:2742027
fdtd0_si931 quick_test/mfcc/raw_mfcc_train.1.ark:1065839
mbom0_sx311 quick_test/mfcc/raw_mfcc_train.2.ark:1336810
mjae0_sx84 quick_test/mfcc/raw_mfcc_train.3.ark:605166
mejs0_sx250 quick_test/mfcc/raw_mfcc_train.2.ark:3295428
mfer0_si862 quick_test/mfcc/raw_mfcc_train.2.ark:3402162
mhxl0_sx242 quick_test/mfcc/raw_mfcc_train.3.ark:496752
mljc0_sx145 quick_test/mfcc/raw_mfcc_train.3.ark:2445630
mlbc0_si1239 quick_test/mfcc/raw_mfcc_train.3.ark:2363789
mmab1_sx54 quick_test/mfcc/raw_mfcc_train.3.ark:2634520
mstf0_sx226 quick_test/mfcc/raw_mfcc_train.4.ark:2282293
mpfu0_si628 quick_test/mfcc/raw_mfcc_train.3.ark:3573833
mdbb1_sx196 quick_test/mfcc/raw_mfcc_train.2.ark:2044145
mrlr0_sx386 quick_test/mfcc/raw_mfcc_train.4.ark:1204117
fmmh0_si2167 quick_test/mfcc/raw_mfcc_train.1.ark:3058676
mdss0_sx261 quick_test/mfcc/raw_mfcc_train.2.ark:2953839
mdpb0_si2126 quick_test/mfcc/raw_mfcc_train.2.ark:2783922
mtpr0_si506 quick_test/mfcc/raw_mfcc_train.4.ark:3109153
mcre0_sx221 quick_test/mfcc/raw_mfcc_train.2.ark:1817232
mrjm1_sx308 quick_test/mfcc/raw_mfcc_train.4.ark:970941
madc0_sx377 quick_test/mfcc/raw_mfcc_train.2.ark:718107
marc0_si1818 quick_test/mfcc/raw_mfcc_train.2.ark:979973
mwsh0_sx76 quick_test/mfcc/raw_mfcc_train.4.ark:3772198
mjfh0_sx117 quick_test/mfcc/raw_mfcc_train.3.ark:954570
fajw0_sx183 quick_test/mfcc/raw_mfcc_train.1.ark:49518
flag0_sx384 quick_test/mfcc/raw_mfcc_train.1.ark:2388044
fjdm2_si1582 quick_test/mfcc/raw_mfcc_train.1.ark:1581172
feac0_si615 quick_test/mfcc/raw_mfcc_train.1.ark:1128380
mrld0_sx64 quick_test/mfcc/raw_mfcc_train.4.ark:1083417
mbgt0_sx351 quick_test/mfcc/raw_mfcc_train.2.ark:1178840
mdem0_sx338 quick_test/mfcc/raw_mfcc_train.2.ark:2272630
mrjm0_sx418 quick_test/mfcc/raw_mfcc_train.4.ark:941277
fdaw0_sx416 quick_test/mfcc/raw_mfcc_train.1.ark:844569
mmws1_si2331 quick_test/mfcc/raw_mfcc_train.3.ark:3395446
mstf0_sx136 quick_test/mfcc/raw_mfcc_train.4.ark:2277502
mrpc1_sx312 quick_test/mfcc/raw_mfcc_train.4.ark:1386736
mjde0_sx40 quick_test/mfcc/raw_mfcc_train.3.ark:767320
mwdk0_si2017 quick_test/mfcc/raw_mfcc_train.4.ark:3553169
mmag0_sx136 quick_test/mfcc/raw_mfcc_train.3.ark:2653621
mrcg0_sx168 quick_test/mfcc/raw_mfcc_train.4.ark:392328
msfv0_si632 quick_test/mfcc/raw_mfcc_train.4.ark:2041253
mdtb0_sx390 quick_test/mfcc/raw_mfcc_train.2.ark:3020235
mses0_si2216 quick_test/mfcc/raw_mfcc_train.4.ark:1969605
mjjm0_sx287 quick_test/mfcc/raw_mfcc_train.3.ark:1130934
mmsm0_sx116 quick_test/mfcc/raw_mfcc_train.3.ark:3256748
msem1_sx90 quick_test/mfcc/raw_mfcc_train.4.ark:1960684
fcke0_sx211 quick_test/mfcc/raw_mfcc_train.1.ark:610232
mdlc0_si1395 quick_test/mfcc/raw_mfcc_train.2.ark:2451973
medr0_sx114 quick_test/mfcc/raw_mfcc_train.2.ark:3163559
mlsh0_sx337 quick_test/mfcc/raw_mfcc_train.3.ark:2558473
mdtb0_sx321 quick_test/mfcc/raw_mfcc_train.2.ark:3015717
mmdm0_si1941 quick_test/mfcc/raw_mfcc_train.3.ark:2883288
mjpm0_sx378 quick_test/mfcc/raw_mfcc_train.3.ark:1411775
mkrg0_sx141 quick_test/mfcc/raw_mfcc_train.3.ark:2317781
msdb0_sx287 quick_test/mfcc/raw_mfcc_train.4.ark:1844701
msfh0_si586 quick_test/mfcc/raw_mfcc_train.4.ark:2005238
mrjt0_sx328 quick_test/mfcc/raw_mfcc_train.4.ark:1002835
flkm0_sx80 quick_test/mfcc/raw_mfcc_train.1.ark:2625604
mmws1_sx261 quick_test/mfcc/raw_mfcc_train.3.ark:3398456
fsgf0_sx27 quick_test/mfcc/raw_mfcc_train.1.ark:3814734
mgjc0_sx165 quick_test/mfcc/raw_mfcc_train.3.ark:103012
mjmm0_si1885 quick_test/mfcc/raw_mfcc_train.3.ark:1329798
mmea0_sx218 quick_test/mfcc/raw_mfcc_train.3.ark:2982228
mbwp0_sx79 quick_test/mfcc/raw_mfcc_train.2.ark:1432236
mmwb0_sx359 quick_test/mfcc/raw_mfcc_train.3.ark:3340012
mmwb0_sx179 quick_test/mfcc/raw_mfcc_train.3.ark:3330755
mfer0_si1492 quick_test/mfcc/raw_mfcc_train.2.ark:3398052
mdlc1_sx445 quick_test/mfcc/raw_mfcc_train.2.ark:2512576
mhbs0_si2205 quick_test/mfcc/raw_mfcc_train.3.ark:302949
fceg0_si1248 quick_test/mfcc/raw_mfcc_train.1.ark:509841
fhlm0_sx210 quick_test/mfcc/raw_mfcc_train.1.ark:1523261
mfmc0_sx232 quick_test/mfcc/raw_mfcc_train.2.ark:3442689
fdxw0_sx161 quick_test/mfcc/raw_mfcc_train.1.ark:1102330
megj0_sx257 quick_test/mfcc/raw_mfcc_train.2.ark:3234450
majp0_sx264 quick_test/mfcc/raw_mfcc_train.2.ark:862453
fmjf0_sx354 quick_test/mfcc/raw_mfcc_train.1.ark:2938877
msat1_sx83 quick_test/mfcc/raw_mfcc_train.4.ark:1823447
mjjb0_sx59 quick_test/mfcc/raw_mfcc_train.3.ark:1066568
mdef0_sx123 quick_test/mfcc/raw_mfcc_train.2.ark:2231792
mmgk0_si692 quick_test/mfcc/raw_mfcc_train.3.ark:3093995
mfmc0_sx52 quick_test/mfcc/raw_mfcc_train.2.ark:3455085
mhrm0_si2218 quick_test/mfcc/raw_mfcc_train.3.ark:452800
fcaj0_sx219 quick_test/mfcc/raw_mfcc_train.1.ark:452881
mbjv0_sx257 quick_test/mfcc/raw_mfcc_train.2.ark:1206970
mkdb0_si2132 quick_test/mfcc/raw_mfcc_train.3.ark:1979162
mhjb0_si1647 quick_test/mfcc/raw_mfcc_train.3.ark:364371
ftaj0_si1329 quick_test/mfcc/raw_mfcc_train.2.ark:412774
mrai0_sx72 quick_test/mfcc/raw_mfcc_train.4.ark:282431
mrlr0_si1196 quick_test/mfcc/raw_mfcc_train.4.ark:1176443
mjwt0_sx31 quick_test/mfcc/raw_mfcc_train.3.ark:1779086
mmvp0_si654 quick_test/mfcc/raw_mfcc_train.3.ark:3283097
mcre0_si1725 quick_test/mfcc/raw_mfcc_train.2.ark:1806511
flma0_sx73 quick_test/mfcc/raw_mfcc_train.1.ark:2654183
mrem0_si511 quick_test/mfcc/raw_mfcc_train.4.ark:611400
marc0_si558 quick_test/mfcc/raw_mfcc_train.2.ark:982931
mkam0_sx56 quick_test/mfcc/raw_mfcc_train.3.ark:1975345
falr0_si1325 quick_test/mfcc/raw_mfcc_train.1.ark:101592
fkkh0_sx300 quick_test/mfcc/raw_mfcc_train.1.ark:2186597
mtcs0_sx442 quick_test/mfcc/raw_mfcc_train.4.ark:2527834
mpsw0_si1697 quick_test/mfcc/raw_mfcc_train.4.ark:161813
mtjg0_sx440 quick_test/mfcc/raw_mfcc_train.4.ark:2666109
mjsr0_si1424 quick_test/mfcc/raw_mfcc_train.3.ark:1636394
mmam0_si1597 quick_test/mfcc/raw_mfcc_train.3.ark:2676029
fvmh0_sx206 quick_test/mfcc/raw_mfcc_train.2.ark:647591
fljd0_sx76 quick_test/mfcc/raw_mfcc_train.1.ark:2549584
fskp0_si468 quick_test/mfcc/raw_mfcc_train.2.ark:155048
fapb0_si1063 quick_test/mfcc/raw_mfcc_train.1.ark:131783
fdtd0_sx211 quick_test/mfcc/raw_mfcc_train.1.ark:1074043
fjdm2_si1964 quick_test/mfcc/raw_mfcc_train.1.ark:1584768
fcyl0_sx37 quick_test/mfcc/raw_mfcc_train.1.ark:776138
mjjj0_sx443 quick_test/mfcc/raw_mfcc_train.3.ark:1098976
mjrp0_sx135 quick_test/mfcc/raw_mfcc_train.3.ark:1618575
mbwp0_si709 quick_test/mfcc/raw_mfcc_train.2.ark:1408802
mkes0_si1253 quick_test/mfcc/raw_mfcc_train.3.ark:2077754
fhlm0_sx349 quick_test/mfcc/raw_mfcc_train.1.ark:1531023
fcke0_si481 quick_test/mfcc/raw_mfcc_train.1.ark:600572
mdlc0_si765 quick_test/mfcc/raw_mfcc_train.2.ark:2464494
mbsb0_sx363 quick_test/mfcc/raw_mfcc_train.2.ark:1362775
fbcg1_si1612 quick_test/mfcc/raw_mfcc_train.1.ark:207117
mtjg0_si2157 quick_test/mfcc/raw_mfcc_train.4.ark:2644494
mkag0_si2239 quick_test/mfcc/raw_mfcc_train.3.ark:1855000
fkde0_si1771 quick_test/mfcc/raw_mfcc_train.1.ark:2059277
fjlr0_si1231 quick_test/mfcc/raw_mfcc_train.1.ark:1748654
mcew0_sx272 quick_test/mfcc/raw_mfcc_train.2.ark:1656967
mddc0_si2049 quick_test/mfcc/raw_mfcc_train.2.ark:2159825
mrld0_sx154 quick_test/mfcc/raw_mfcc_train.4.ark:1070598
mejl0_sx152 quick_test/mfcc/raw_mfcc_train.2.ark:3258899
fpmy0_si1783 quick_test/mfcc/raw_mfcc_train.1.ark:3433036
mprt0_sx400 quick_test/mfcc/raw_mfcc_train.4.ark:155401
mdpb0_sx416 quick_test/mfcc/raw_mfcc_train.2.ark:2805082
mdrd0_si2012 quick_test/mfcc/raw_mfcc_train.2.ark:2874404
mrfl0_sx256 quick_test/mfcc/raw_mfcc_train.4.ark:719012
mded0_sx450 quick_test/mfcc/raw_mfcc_train.2.ark:2210149
mrcg0_sx438 quick_test/mfcc/raw_mfcc_train.4.ark:406064
mdlc1_sx175 quick_test/mfcc/raw_mfcc_train.2.ark:2500257
mcre0_sx131 quick_test/mfcc/raw_mfcc_train.2.ark:1813832
fbas0_sx37 quick_test/mfcc/raw_mfcc_train.1.ark:199029
mabc0_sx421 quick_test/mfcc/raw_mfcc_train.2.ark:680994
mrld0_sx334 quick_test/mfcc/raw_mfcc_train.4.ark:1077021
fjsk0_sx62 quick_test/mfcc/raw_mfcc_train.1.ark:1884517
mrlk0_sx303 quick_test/mfcc/raw_mfcc_train.4.ark:1167010
mjpg0_sx381 quick_test/mfcc/raw_mfcc_train.3.ark:1379088
mtdp0_sx81 quick_test/mfcc/raw_mfcc_train.4.ark:2604044
maeo0_sx66 quick_test/mfcc/raw_mfcc_train.2.ark:813842
mhmr0_sx129 quick_test/mfcc/raw_mfcc_train.3.ark:430696
mtju0_sx310 quick_test/mfcc/raw_mfcc_train.4.ark:2763565
fklh0_sx87 quick_test/mfcc/raw_mfcc_train.1.ark:2289216
fbmh0_sx416 quick_test/mfcc/raw_mfcc_train.1.ark:367197
msrg0_sx411 quick_test/mfcc/raw_mfcc_train.4.ark:2224319
msdh0_si980 quick_test/mfcc/raw_mfcc_train.4.ark:1854338
mrlj1_sx51 quick_test/mfcc/raw_mfcc_train.4.ark:1140927
mdwh0_sx395 quick_test/mfcc/raw_mfcc_train.2.ark:3086714
fkkh0_sx120 quick_test/mfcc/raw_mfcc_train.1.ark:2175787
fdfb0_sx418 quick_test/mfcc/raw_mfcc_train.1.ark:871979
mabc0_sx241 quick_test/mfcc/raw_mfcc_train.2.ark:674974
mdem0_si800 quick_test/mfcc/raw_mfcc_train.2.ark:2257438
mram0_sx195 quick_test/mfcc/raw_mfcc_train.4.ark:306278
milb0_sx183 quick_test/mfcc/raw_mfcc_train.3.ark:528469
mram0_sx15 quick_test/mfcc/raw_mfcc_train.4.ark:301981
mjda0_si2291 quick_test/mfcc/raw_mfcc_train.3.ark:680769
fpad0_si1346 quick_test/mfcc/raw_mfcc_train.1.ark:3262210
flmk0_si2295 quick_test/mfcc/raw_mfcc_train.1.ark:2699153
fkaa0_sx398 quick_test/mfcc/raw_mfcc_train.1.ark:2047847
msdb0_si1007 quick_test/mfcc/raw_mfcc_train.4.ark:1827095
mbjv0_si1877 quick_test/mfcc/raw_mfcc_train.2.ark:1195353
mjda0_sx41 quick_test/mfcc/raw_mfcc_train.3.ark:699874
mfmc0_sx412 quick_test/mfcc/raw_mfcc_train.2.ark:3451179
makr0_si1982 quick_test/mfcc/raw_mfcc_train.2.ark:921320
mdlr0_si603 quick_test/mfcc/raw_mfcc_train.2.ark:2617568
fsjs0_sx361 quick_test/mfcc/raw_mfcc_train.2.ark:36281
fkdw0_sx397 quick_test/mfcc/raw_mfcc_train.1.ark:2117109
fcag0_sx333 quick_test/mfcc/raw_mfcc_train.1.ark:426753
mppc0_sx62 quick_test/mfcc/raw_mfcc_train.4.ark:12265
mewm0_sx448 quick_test/mfcc/raw_mfcc_train.2.ark:3390810
fjwb1_sx255 quick_test/mfcc/raw_mfcc_train.1.ark:1936480
mkrg0_si861 quick_test/mfcc/raw_mfcc_train.3.ark:2312106
mgsh0_si546 quick_test/mfcc/raw_mfcc_train.3.ark:204225
mrdm0_si965 quick_test/mfcc/raw_mfcc_train.4.ark:485599
mjmd0_sx308 quick_test/mfcc/raw_mfcc_train.3.ark:1312934
mpmb0_sx151 quick_test/mfcc/raw_mfcc_train.3.ark:3713233
fsmm0_si1944 quick_test/mfcc/raw_mfcc_train.2.ark:247084
fgrw0_si1782 quick_test/mfcc/raw_mfcc_train.1.ark:1476954
mfxv0_si1005 quick_test/mfcc/raw_mfcc_train.2.ark:3552935
mstf0_si852 quick_test/mfcc/raw_mfcc_train.4.ark:2271086
fgdp0_sx178 quick_test/mfcc/raw_mfcc_train.1.ark:1407473
mfrm0_sx435 quick_test/mfcc/raw_mfcc_train.2.ark:3482411
fsgf0_si2187 quick_test/mfcc/raw_mfcc_train.1.ark:3795922
mcae0_sx367 quick_test/mfcc/raw_mfcc_train.2.ark:1464442
fdjh0_sx125 quick_test/mfcc/raw_mfcc_train.1.ark:892997
fssb0_sx362 quick_test/mfcc/raw_mfcc_train.2.ark:397270
mcdr0_sx164 quick_test/mfcc/raw_mfcc_train.2.ark:1587491
mddc0_sx339 quick_test/mfcc/raw_mfcc_train.2.ark:2173659
mgrp0_si687 quick_test/mfcc/raw_mfcc_train.3.ark:166923
fcmg0_si1872 quick_test/mfcc/raw_mfcc_train.1.ark:663906
mdef0_si1563 quick_test/mfcc/raw_mfcc_train.2.ark:2224900
mdlc0_sx405 quick_test/mfcc/raw_mfcc_train.2.ark:2478887
flmc0_sx336 quick_test/mfcc/raw_mfcc_train.1.ark:2680493
feme0_si1505 quick_test/mfcc/raw_mfcc_train.1.ark:1259191
msat1_si1073 quick_test/mfcc/raw_mfcc_train.4.ark:1795980
mkag0_sx259 quick_test/mfcc/raw_mfcc_train.3.ark:1868463
mppc0_si1412 quick_test/mfcc/raw_mfcc_train.3.ark:3743415
fcrz0_sx73 quick_test/mfcc/raw_mfcc_train.1.ark:746513
msvs0_si1568 quick_test/mfcc/raw_mfcc_train.4.ark:2298857
fvmh0_si2096 quick_test/mfcc/raw_mfcc_train.2.ark:635480
mhjb0_sx297 quick_test/mfcc/raw_mfcc_train.3.ark:381384
mwdk0_si806 quick_test/mfcc/raw_mfcc_train.4.ark:3556244
mjxa0_sx337 quick_test/mfcc/raw_mfcc_train.3.ark:1805358
mmeb0_si1357 quick_test/mfcc/raw_mfcc_train.3.ark:2995958
mlbc0_sx159 quick_test/mfcc/raw_mfcc_train.3.ark:2377201
mtjm0_si1226 quick_test/mfcc/raw_mfcc_train.4.ark:2673871
mdwm0_sx16 quick_test/mfcc/raw_mfcc_train.2.ark:3108421
mrjb1_si1020 quick_test/mfcc/raw_mfcc_train.4.ark:840668
mwad0_sx162 quick_test/mfcc/raw_mfcc_train.4.ark:3473346
mkdb0_sx152 quick_test/mfcc/raw_mfcc_train.3.ark:1990636
mcdd0_si2143 quick_test/mfcc/raw_mfcc_train.2.ark:1543415
fjrb0_si1302 quick_test/mfcc/raw_mfcc_train.1.ark:1781328
mkdb0_si588 quick_test/mfcc/raw_mfcc_train.3.ark:1983524
mdlh0_si700 quick_test/mfcc/raw_mfcc_train.2.ark:2554105
mdhl0_sx359 quick_test/mfcc/raw_mfcc_train.2.ark:2306318
mdlh0_sx250 quick_test/mfcc/raw_mfcc_train.2.ark:2564909
fcmm0_sx183 quick_test/mfcc/raw_mfcc_train.1.ark:701033
fdml0_sx429 quick_test/mfcc/raw_mfcc_train.1.ark:968352
mklr0_si2319 quick_test/mfcc/raw_mfcc_train.3.ark:2181434
mmdg0_si2035 quick_test/mfcc/raw_mfcc_train.3.ark:2847728
fmkf0_si906 quick_test/mfcc/raw_mfcc_train.1.ark:3029729
mjlb0_si2246 quick_test/mfcc/raw_mfcc_train.3.ark:1177892
mpgr0_si780 quick_test/mfcc/raw_mfcc_train.3.ark:3634877
fsmm0_sx414 quick_test/mfcc/raw_mfcc_train.2.ark:269102
mtpp0_sx68 quick_test/mfcc/raw_mfcc_train.4.ark:3094817
fsdc0_sx142 quick_test/mfcc/raw_mfcc_train.1.ark:3744979
mmxs0_sx336 quick_test/mfcc/raw_mfcc_train.3.ark:3431675
faem0_si1392 quick_test/mfcc/raw_mfcc_train.1.ark:13
mdpk0_sx243 quick_test/mfcc/raw_mfcc_train.2.ark:2825730
madd0_sx178 quick_test/mfcc/raw_mfcc_train.2.ark:733373
mjeb0_sx296 quick_test/mfcc/raw_mfcc_train.3.ark:868905
mrmg0_si1710 quick_test/mfcc/raw_mfcc_train.4.ark:1241721
mwgr0_sx346 quick_test/mfcc/raw_mfcc_train.4.ark:3634146
mfwk0_sx439 quick_test/mfcc/raw_mfcc_train.2.ark:3513590
mgak0_sx46 quick_test/mfcc/raw_mfcc_train.2.ark:3674992
mkrg0_sx231 quick_test/mfcc/raw_mfcc_train.3.ark:2322052
mwsb0_sx6 quick_test/mfcc/raw_mfcc_train.4.ark:3732433
mjjj0_sx173 quick_test/mfcc/raw_mfcc_train.3.ark:1085214
mesj0_si2039 quick_test/mfcc/raw_mfcc_train.2.ark:3341416
mtjs0_si1192 quick_test/mfcc/raw_mfcc_train.4.ark:2705882
fcyl0_sx397 quick_test/mfcc/raw_mfcc_train.1.ark:779681
mter0_si1157 quick_test/mfcc/raw_mfcc_train.4.ark:2608108
ftlg0_si840 quick_test/mfcc/raw_mfcc_train.2.ark:514527
fdtd0_si1561 quick_test/mfcc/raw_mfcc_train.1.ark:1057309
mjpg0_sx291 quick_test/mfcc/raw_mfcc_train.3.ark:1376351
mtrc0_si1623 quick_test/mfcc/raw_mfcc_train.4.ark:3177931
msrr0_si1131 quick_test/mfcc/raw_mfcc_train.4.ark:2231366
mhxl0_si512 quick_test/mfcc/raw_mfcc_train.3.ark:485057
mdcm0_sx310 quick_test/mfcc/raw_mfcc_train.2.ark:2143598
fmem0_sx333 quick_test/mfcc/raw_mfcc_train.1.ark:2872978
fexm0_si1101 quick_test/mfcc/raw_mfcc_train.1.ark:1326515
mjpg0_si1191 quick_test/mfcc/raw_mfcc_train.3.ark:1354209
fmmh0_si907 quick_test/mfcc/raw_mfcc_train.1.ark:3063194
mhrm0_si958 quick_test/mfcc/raw_mfcc_train.3.ark:456564
fbas0_sx127 quick_test/mfcc/raw_mfcc_train.1.ark:191014
mjrh0_sx135 quick_test/mfcc/raw_mfcc_train.3.ark:1526715
mhmg0_si1365 quick_test/mfcc/raw_mfcc_train.3.ark:387236
mbar0_sx59 quick_test/mfcc/raw_mfcc_train.2.ark:1067137
frll0_si1514 quick_test/mfcc/raw_mfcc_train.1.ark:3522718
mrgs0_sx96 quick_test/mfcc/raw_mfcc_train.4.ark:807245
mdbb1_sx286 quick_test/mfcc/raw_mfcc_train.2.ark:2046765
msms0_sx443 quick_test/mfcc/raw_mfcc_train.4.ark:2194128
mjeb0_sx206 quick_test/mfcc/raw_mfcc_train.3.ark:861495
mfxv0_sx105 quick_test/mfcc/raw_mfcc_train.2.ark:3566946
fexm0_sx111 quick_test/mfcc/raw_mfcc_train.1.ark:1341058
mtmt0_sx38 quick_test/mfcc/raw_mfcc_train.4.ark:2999973
mbth0_si2102 quick_test/mfcc/raw_mfcc_train.2.ark:1368236
mkah0_sx358 quick_test/mfcc/raw_mfcc_train.3.ark:1905030
mklw0_si1571 quick_test/mfcc/raw_mfcc_train.3.ark:2268223
mkls1_sx15 quick_test/mfcc/raw_mfcc_train.3.ark:2254011
mljh0_sx424 quick_test/mfcc/raw_mfcc_train.3.ark:2497760
mmaa0_sx35 quick_test/mfcc/raw_mfcc_train.3.ark:2597601
mtrr0_sx288 quick_test/mfcc/raw_mfcc_train.4.ark:3229028
mgjc0_sx255 quick_test/mfcc/raw_mfcc_train.3.ark:108011
fjdm2_sx52 quick_test/mfcc/raw_mfcc_train.1.ark:1611863
fajw0_sx273 quick_test/mfcc/raw_mfcc_train.1.ark:53477
mwac0_sx161 quick_test/mfcc/raw_mfcc_train.4.ark:3438968
fmmh0_sx187 quick_test/mfcc/raw_mfcc_train.1.ark:3067504
mdlr1_si669 quick_test/mfcc/raw_mfcc_train.2.ark:2651399
mjeb0_sx26 quick_test/mfcc/raw_mfcc_train.3.ark:865973
mree0_sx24 quick_test/mfcc/raw_mfcc_train.4.ark:560315
mdtb0_si1200 quick_test/mfcc/raw_mfcc_train.2.ark:2995914
mrso0_sx309 quick_test/mfcc/raw_mfcc_train.4.ark:1461977
mlsh0_si1417 quick_test/mfcc/raw_mfcc_train.3.ark:2536064
mtjs0_sx22 quick_test/mfcc/raw_mfcc_train.4.ark:2730591
mcdd0_sx343 quick_test/mfcc/raw_mfcc_train.2.ark:1557704
mtqc0_sx451 quick_test/mfcc/raw_mfcc_train.4.ark:3166451
mreh1_sx429 quick_test/mfcc/raw_mfcc_train.4.ark:598522
mdlc1_si2065 quick_test/mfcc/raw_mfcc_train.2.ark:2492871
fapb0_sx163 quick_test/mfcc/raw_mfcc_train.1.ark:148368
mrlk0_sx213 quick_test/mfcc/raw_mfcc_train.4.ark:1164143
feac0_sx435 quick_test/mfcc/raw_mfcc_train.1.ark:1145945
fssb0_sx92 quick_test/mfcc/raw_mfcc_train.2.ark:408190
mrtc0_si828 quick_test/mfcc/raw_mfcc_train.4.ark:1520791
fmah1_sx69 quick_test/mfcc/raw_mfcc_train.1.ark:2812161
mmar0_sx166 quick_test/mfcc/raw_mfcc_train.3.ark:2718463
fbjl0_sx202 quick_test/mfcc/raw_mfcc_train.1.ark:292266
mjai0_sx254 quick_test/mfcc/raw_mfcc_train.3.ark:630942
mbml0_sx179 quick_test/mfcc/raw_mfcc_train.2.ark:1296925
mbma1_sx324 quick_test/mfcc/raw_mfcc_train.2.ark:1271948
mvjh0_sx206 quick_test/mfcc/raw_mfcc_train.4.ark:3352237
mgrl0_si1497 quick_test/mfcc/raw_mfcc_train.3.ark:126759
feac0_sx165 quick_test/mfcc/raw_mfcc_train.1.ark:1134068
mrhl0_si2145 quick_test/mfcc/raw_mfcc_train.4.ark:812617
mdas0_si1266 quick_test/mfcc/raw_mfcc_train.2.ark:1995903
mjhi0_si698 quick_test/mfcc/raw_mfcc_train.3.ark:1013410
msfv0_sx362 quick_test/mfcc/raw_mfcc_train.4.ark:2054794
mjfh0_si1107 quick_test/mfcc/raw_mfcc_train.3.ark:942575
fdnc0_sx108 quick_test/mfcc/raw_mfcc_train.1.ark:1035941
fecd0_sx68 quick_test/mfcc/raw_mfcc_train.1.ark:1221946
mmam0_sx157 quick_test/mfcc/raw_mfcc_train.3.ark:2686569
mtqc0_si1441 quick_test/mfcc/raw_mfcc_train.4.ark:3133752
mklw0_sx131 quick_test/mfcc/raw_mfcc_train.3.ark:2279725
fskc0_si1416 quick_test/mfcc/raw_mfcc_train.2.ark:83822
mrdd0_si2310 quick_test/mfcc/raw_mfcc_train.4.ark:455109
medr0_sx204 quick_test/mfcc/raw_mfcc_train.2.ark:3166959
fjlg0_sx179 quick_test/mfcc/raw_mfcc_train.1.ark:1727494
mlsh0_sx247 quick_test/mfcc/raw_mfcc_train.3.ark:2552694
msfh0_si1216 quick_test/mfcc/raw_mfcc_train.4.ark:1993159
mdbp0_sx258 quick_test/mfcc/raw_mfcc_train.2.ark:2072419
mtmn0_si582 quick_test/mfcc/raw_mfcc_train.4.ark:2951087
mrtc0_si1458 quick_test/mfcc/raw_mfcc_train.4.ark:1509635
mafm0_si1569 quick_test/mfcc/raw_mfcc_train.2.ark:816853
mdlc0_si2025 quick_test/mfcc/raw_mfcc_train.2.ark:2458897
mrav0_si2268 quick_test/mfcc/raw_mfcc_train.4.ark:323892
msms0_sx353 quick_test/mfcc/raw_mfcc_train.4.ark:2190234
fljg0_sx261 quick_test/mfcc/raw_mfcc_train.1.ark:2574256
mrws0_si1102 quick_test/mfcc/raw_mfcc_train.4.ark:1645687
fdml0_si2075 quick_test/mfcc/raw_mfcc_train.1.ark:956169
mrms0_si1113 quick_test/mfcc/raw_mfcc_train.4.ark:1340933
mjrh1_si514 quick_test/mfcc/raw_mfcc_train.3.ark:1555170
mrso0_sx219 quick_test/mfcc/raw_mfcc_train.4.ark:1456796
mdwh0_si665 quick_test/mfcc/raw_mfcc_train.2.ark:3063189
fskc0_si786 quick_test/mfcc/raw_mfcc_train.2.ark:91793
mdlc2_sx354 quick_test/mfcc/raw_mfcc_train.2.ark:2536039
fgmb0_si1145 quick_test/mfcc/raw_mfcc_train.1.ark:1432507
mbwp0_si1969 quick_test/mfcc/raw_mfcc_train.2.ark:1405168
fbjl0_si922 quick_test/mfcc/raw_mfcc_train.1.ark:282294
mcew0_sx452 quick_test/mfcc/raw_mfcc_train.2.ark:1667290
fpls0_sx150 quick_test/mfcc/raw_mfcc_train.1.ark:3409660
flod0_sx387 quick_test/mfcc/raw_mfcc_train.1.ark:2747527
mter0_sx257 quick_test/mfcc/raw_mfcc_train.4.ark:2629307
mzmb0_sx176 quick_test/mfcc/raw_mfcc_train.4.ark:3789570
flja0_si1078 quick_test/mfcc/raw_mfcc_train.1.ark:2486271
mdlm0_sx154 quick_test/mfcc/raw_mfcc_train.2.ark:2593741
mcef0_si842 quick_test/mfcc/raw_mfcc_train.2.ark:1613177
mdac0_sx91 quick_test/mfcc/raw_mfcc_train.2.ark:1992788
mesg0_si1332 quick_test/mfcc/raw_mfcc_train.2.ark:3309106
fgdp0_sx88 quick_test/mfcc/raw_mfcc_train.1.ark:1426376
fcjs0_sx437 quick_test/mfcc/raw_mfcc_train.1.ark:583916
mtpp0_si1508 quick_test/mfcc/raw_mfcc_train.4.ark:3067949
mdns0_si873 quick_test/mfcc/raw_mfcc_train.2.ark:2755311
mjai0_sx74 quick_test/mfcc/raw_mfcc_train.3.ark:639698
fjdm2_sx322 quick_test/mfcc/raw_mfcc_train.1.ark:1603920
msah1_sx239 quick_test/mfcc/raw_mfcc_train.4.ark:1719840
fbmh0_si970 quick_test/mfcc/raw_mfcc_train.1.ark:351582
mdwm0_si1546 quick_test/mfcc/raw_mfcc_train.2.ark:3092039
mjsr0_sx344 quick_test/mfcc/raw_mfcc_train.3.ark:1663574
mddc0_si789 quick_test/mfcc/raw_mfcc_train.2.ark:2161769
fdkn0_sx181 quick_test/mfcc/raw_mfcc_train.1.ark:924216
mdks0_si1696 quick_test/mfcc/raw_mfcc_train.2.ark:2382797
mdrd0_sx392 quick_test/mfcc/raw_mfcc_train.2.ark:2903149
mbcg0_sx57 quick_test/mfcc/raw_mfcc_train.2.ark:1126986
mree0_sx294 quick_test/mfcc/raw_mfcc_train.4.ark:563442
mwsh0_si1426 quick_test/mfcc/raw_mfcc_train.4.ark:3738583
fcmm0_si1083 quick_test/mfcc/raw_mfcc_train.1.ark:688583
mkls0_si1533 quick_test/mfcc/raw_mfcc_train.3.ark:2209044
mklr0_sx249 quick_test/mfcc/raw_mfcc_train.3.ark:2187714
mdjm0_si2085 quick_test/mfcc/raw_mfcc_train.2.ark:2355206
mwem0_sx60 quick_test/mfcc/raw_mfcc_train.4.ark:3609428
fdkn0_si1202 quick_test/mfcc/raw_mfcc_train.1.ark:914854
mjma0_sx325 quick_test/mfcc/raw_mfcc_train.3.ark:1286382
mpmb0_sx241 quick_test/mfcc/raw_mfcc_train.3.ark:3718934
mwsb0_sx96 quick_test/mfcc/raw_mfcc_train.4.ark:3735221
mbjv0_si1247 quick_test/mfcc/raw_mfcc_train.2.ark:1191523
mgar0_sx402 quick_test/mfcc/raw_mfcc_train.3.ark:25121
mapv0_sx393 quick_test/mfcc/raw_mfcc_train.2.ark:974458
mrpc1_sx42 quick_test/mfcc/raw_mfcc_train.4.ark:1395238
mdlb0_sx316 quick_test/mfcc/raw_mfcc_train.2.ark:2438458
mjwg0_sx445 quick_test/mfcc/raw_mfcc_train.3.ark:1707837
fcrz0_si1913 quick_test/mfcc/raw_mfcc_train.1.ark:719541
mmrp0_si774 quick_test/mfcc/raw_mfcc_train.3.ark:3212367
mkam0_sx326 quick_test/mfcc/raw_mfcc_train.3.ark:1967727
fbch0_sx146 quick_test/mfcc/raw_mfcc_train.1.ark:254177
mkdt0_si814 quick_test/mfcc/raw_mfcc_train.3.ark:2047272
falk0_sx366 quick_test/mfcc/raw_mfcc_train.1.ark:89353
mfwk0_sx79 quick_test/mfcc/raw_mfcc_train.2.ark:3518107
mkls0_sx87 quick_test/mfcc/raw_mfcc_train.3.ark:2233604
fskp0_sx378 quick_test/mfcc/raw_mfcc_train.2.ark:172489
mtpg0_sx123 quick_test/mfcc/raw_mfcc_train.4.ark:3051248
fjlg0_sx269 quick_test/mfcc/raw_mfcc_train.1.ark:1731726
mzmb0_sx266 quick_test/mfcc/raw_mfcc_train.4.ark:3794465
mgjc0_si1965 quick_test/mfcc/raw_mfcc_train.3.ark:98663
fsdj0_si485 quick_test/mfcc/raw_mfcc_train.1.ark:3773070
mmpm0_sx161 quick_test/mfcc/raw_mfcc_train.3.ark:3184875
fskl0_si1529 quick_test/mfcc/raw_mfcc_train.2.ark:113467
fcag0_si2133 quick_test/mfcc/raw_mfcc_train.1.ark:415851
fkkh0_sx210 quick_test/mfcc/raw_mfcc_train.1.ark:2180266
fklc0_si1615 quick_test/mfcc/raw_mfcc_train.1.ark:2194061
mrab0_sx414 quick_test/mfcc/raw_mfcc_train.4.ark:208614
mljc0_si1225 quick_test/mfcc/raw_mfcc_train.3.ark:2432023
mfer0_sx412 quick_test/mfcc/raw_mfcc_train.2.ark:3418570
fpls0_si1590 quick_test/mfcc/raw_mfcc_train.1.ark:3396456
mclk0_si1660 quick_test/mfcc/raw_mfcc_train.2.ark:1709898
msds0_sx357 quick_test/mfcc/raw_mfcc_train.4.ark:1908848
mtml0_sx255 quick_test/mfcc/raw_mfcc_train.4.ark:2924472
mtrt0_si597 quick_test/mfcc/raw_mfcc_train.4.ark:3249104
mcae0_si817 quick_test/mfcc/raw_mfcc_train.2.ark:1451278
mvrw0_si2115 quick_test/mfcc/raw_mfcc_train.4.ark:3403628
mgar0_sx42 quick_test/mfcc/raw_mfcc_train.3.ark:29222
mkln0_si1598 quick_test/mfcc/raw_mfcc_train.3.ark:2142205
mrlj1_sx411 quick_test/mfcc/raw_mfcc_train.4.ark:1137242
mmlm0_si897 quick_test/mfcc/raw_mfcc_train.3.ark:3154143
mjrg0_si1366 quick_test/mfcc/raw_mfcc_train.3.ark:1480160
msrg0_si1221 quick_test/mfcc/raw_mfcc_train.4.ark:2201253
fskp0_sx108 quick_test/mfcc/raw_mfcc_train.2.ark:158669
mtml0_sx435 quick_test/mfcc/raw_mfcc_train.4.ark:2931311
mzmb0_si536 quick_test/mfcc/raw_mfcc_train.4.ark:3784831
mrsp0_sx259 quick_test/mfcc/raw_mfcc_train.4.ark:1497316
fceg0_sx348 quick_test/mfcc/raw_mfcc_train.1.ark:525672
fsjs0_sx271 quick_test/mfcc/raw_mfcc_train.2.ark:32452
mtdb0_sx141 quick_test/mfcc/raw_mfcc_train.4.ark:2550542
flac0_sx181 quick_test/mfcc/raw_mfcc_train.1.ark:2336155
mkls1_si1545 quick_test/mfcc/raw_mfcc_train.3.ark:2237187
mrjm1_sx38 quick_test/mfcc/raw_mfcc_train.4.ark:975393
mmrp0_sx414 quick_test/mfcc/raw_mfcc_train.3.ark:3232025
mtas0_sx215 quick_test/mfcc/raw_mfcc_train.4.ark:2390026
fjlr0_sx241 quick_test/mfcc/raw_mfcc_train.1.ark:1764881
fcmm0_sx93 quick_test/mfcc/raw_mfcc_train.1.ark:716595
mabc0_si1620 quick_test/mfcc/raw_mfcc_train.2.ark:660229
mjrp0_sx405 quick_test/mfcc/raw_mfcc_train.3.ark:1629503
mgag0_si645 quick_test/mfcc/raw_mfcc_train.2.ark:3617420
fmem0_sx387 quick_test/mfcc/raw_mfcc_train.1.ark:2879771
mstf0_si766 quick_test/mfcc/raw_mfcc_train.4.ark:2268427
mlns0_si1407 quick_test/mfcc/raw_mfcc_train.3.ark:2506679
mjls0_sx376 quick_test/mfcc/raw_mfcc_train.3.ark:1261508
mcdc0_si1292 quick_test/mfcc/raw_mfcc_train.2.ark:1510109
fmmh0_sx7 quick_test/mfcc/raw_mfcc_train.1.ark:3079327
mtkd0_sx17 quick_test/mfcc/raw_mfcc_train.4.ark:2794047
fmpg0_si972 quick_test/mfcc/raw_mfcc_train.1.ark:3094956
fgrw0_si1152 quick_test/mfcc/raw_mfcc_train.1.ark:1470030
mrmb0_sx141 quick_test/mfcc/raw_mfcc_train.4.ark:1219071
mkln0_sx338 quick_test/mfcc/raw_mfcc_train.3.ark:2160818
fapb0_sx433 quick_test/mfcc/raw_mfcc_train.1.ark:161818
mmpm0_si2321 quick_test/mfcc/raw_mfcc_train.3.ark:3181462
mprb0_si575 quick_test/mfcc/raw_mfcc_train.4.ark:26159
mmaa0_sx395 quick_test/mfcc/raw_mfcc_train.3.ark:2600884
fspm0_si1241 quick_test/mfcc/raw_mfcc_train.2.ark:310591
mgaf0_si652 quick_test/mfcc/raw_mfcc_train.2.ark:3594270
medr0_sx24 quick_test/mfcc/raw_mfcc_train.2.ark:3170007
fdml0_sx159 quick_test/mfcc/raw_mfcc_train.1.ark:958360
msrr0_sx51 quick_test/mfcc/raw_mfcc_train.4.ark:2260079
fjrp1_sx442 quick_test/mfcc/raw_mfcc_train.1.ark:1845713
mmea0_si758 quick_test/mfcc/raw_mfcc_train.3.ark:2974180
fdfb0_si1318 quick_test/mfcc/raw_mfcc_train.1.ark:852123
fhlm0_sx300 quick_test/mfcc/raw_mfcc_train.1.ark:1527285
fpls0_si2220 quick_test/mfcc/raw_mfcc_train.1.ark:3399688
mrkm0_sx187 quick_test/mfcc/raw_mfcc_train.4.ark:1036938
mwad0_si1062 quick_test/mfcc/raw_mfcc_train.4.ark:3464288
mgsl0_sx174 quick_test/mfcc/raw_mfcc_train.3.ark:241960
freh0_sx55 quick_test/mfcc/raw_mfcc_train.1.ark:3489229
maeb0_sx90 quick_test/mfcc/raw_mfcc_train.2.ark:782454
mjrh1_si1558 quick_test/mfcc/raw_mfcc_train.3.ark:1545301
mjae0_sx264 quick_test/mfcc/raw_mfcc_train.3.ark:592367
mdwd0_si1260 quick_test/mfcc/raw_mfcc_train.2.ark:3023519
mjrk0_sx430 quick_test/mfcc/raw_mfcc_train.3.ark:1600508
mfxs0_si2304 quick_test/mfcc/raw_mfcc_train.2.ark:3527348
makb0_si1646 quick_test/mfcc/raw_mfcc_train.2.ark:888086
mjrg0_sx376 quick_test/mfcc/raw_mfcc_train.3.ark:1509160
mwgr0_si1606 quick_test/mfcc/raw_mfcc_train.4.ark:3614077
mjws0_sx153 quick_test/mfcc/raw_mfcc_train.3.ark:1725514
mcdr0_sx344 quick_test/mfcc/raw_mfcc_train.2.ark:1595370
frll0_si884 quick_test/mfcc/raw_mfcc_train.1.ark:3532183
mrlj0_si2050 quick_test/mfcc/raw_mfcc_train.4.ark:1090531
fdaw0_si1406 quick_test/mfcc/raw_mfcc_train.1.ark:824071
mmgk0_sx422 quick_test/mfcc/raw_mfcc_train.3.ark:3105723
mlbc0_sx429 quick_test/mfcc/raw_mfcc_train.3.ark:2387466
fjxp0_si492 quick_test/mfcc/raw_mfcc_train.1.ark:1996692
fsgf0_sx117 quick_test/mfcc/raw_mfcc_train.1.ark:3808273
fsls0_sx66 quick_test/mfcc/raw_mfcc_train.2.ark:205294
mbth0_si505 quick_test/mfcc/raw_mfcc_train.2.ark:1375068
mprk0_si467 quick_test/mfcc/raw_mfcc_train.4.ark:102011
fmbg0_sx80 quick_test/mfcc/raw_mfcc_train.1.ark:2845484
mdbp0_si528 quick_test/mfcc/raw_mfcc_train.2.ark:2062486
mgsl0_sx84 quick_test/mfcc/raw_mfcc_train.3.ark:259589
fvkb0_sx79 quick_test/mfcc/raw_mfcc_train.2.ark:626169
mdbp0_sx348 quick_test/mfcc/raw_mfcc_train.2.ark:2076534
meal0_si2177 quick_test/mfcc/raw_mfcc_train.2.ark:3127126
mrvg0_sx420 quick_test/mfcc/raw_mfcc_train.4.ark:1605836
fcag0_sx153 quick_test/mfcc/raw_mfcc_train.1.ark:418679
fcjs0_si1607 quick_test/mfcc/raw_mfcc_train.1.ark:562761
mmsm0_sx206 quick_test/mfcc/raw_mfcc_train.3.ark:3259823
mkam0_si1316 quick_test/mfcc/raw_mfcc_train.3.ark:1950421
fsbk0_si2329 quick_test/mfcc/raw_mfcc_train.1.ark:3666767
mtmt0_sx218 quick_test/mfcc/raw_mfcc_train.4.ark:2992524
fpjf0_sx352 quick_test/mfcc/raw_mfcc_train.1.ark:3387342
fmpg0_sx342 quick_test/mfcc/raw_mfcc_train.1.ark:3111669
mbma0_sx52 quick_test/mfcc/raw_mfcc_train.2.ark:1248231
fjen0_sx327 quick_test/mfcc/raw_mfcc_train.1.ark:1636894
mrew1_si870 quick_test/mfcc/raw_mfcc_train.4.ark:645082
mram0_sx375 quick_test/mfcc/raw_mfcc_train.4.ark:312818
mrml0_sx431 quick_test/mfcc/raw_mfcc_train.4.ark:1331962
mmag0_si496 quick_test/mfcc/raw_mfcc_train.3.ark:2649662
fpaz0_si2223 quick_test/mfcc/raw_mfcc_train.1.ark:3333586
mjfh0_sx387 quick_test/mfcc/raw_mfcc_train.3.ark:965114
mkdt0_sx443 quick_test/mfcc/raw_mfcc_train.3.ark:2070031
mmaa0_si1588 quick_test/mfcc/raw_mfcc_train.3.ark:2570220
mgak0_si1036 quick_test/mfcc/raw_mfcc_train.2.ark:3641935
flja0_sx358 quick_test/mfcc/raw_mfcc_train.1.ark:2508954
mbjv0_sx347 quick_test/mfcc/raw_mfcc_train.2.ark:1209291
fcke0_si1741 quick_test/mfcc/raw_mfcc_train.1.ark:594650
fjrp1_si802 quick_test/mfcc/raw_mfcc_train.1.ark:1824755
fdaw0_sx56 quick_test/mfcc/raw_mfcc_train.1.ark:848072
mfer0_sx52 quick_test/mfcc/raw_mfcc_train.2.ark:3421943
feac0_si1245 quick_test/mfcc/raw_mfcc_train.1.ark:1120838
fnkl0_sx262 quick_test/mfcc/raw_mfcc_train.1.ark:3147385
fdaw0_sx146 quick_test/mfcc/raw_mfcc_train.1.ark:833823
fclt0_si1438 quick_test/mfcc/raw_mfcc_train.1.ark:622103
falr0_si1955 quick_test/mfcc/raw_mfcc_train.1.ark:105942
mtlb0_si504 quick_test/mfcc/raw_mfcc_train.4.ark:2852518
fjsk0_si1682 quick_test/mfcc/raw_mfcc_train.1.ark:1861049
fgrw0_sx72 quick_test/mfcc/raw_mfcc_train.1.ark:1504569
mdmt0_si1832 quick_test/mfcc/raw_mfcc_train.2.ark:2716291
fskl0_sx179 quick_test/mfcc/raw_mfcc_train.2.ark:126268
fjrb0_si1932 quick_test/mfcc/raw_mfcc_train.1.ark:1786302
mjpg0_sx201 quick_test/mfcc/raw_mfcc_train.3.ark:1370618
mjbg0_sx332 quick_test/mfcc/raw_mfcc_train.3.ark:661895
falk0_si658 quick_test/mfcc/raw_mfcc_train.1.ark:76033
mchl0_sx87 quick_test/mfcc/raw_mfcc_train.2.ark:1706692
fgcs0_si856 quick_test/mfcc/raw_mfcc_train.1.ark:1371841
mjpm0_sx288 quick_test/mfcc/raw_mfcc_train.3.ark:1407634
mjeb0_si656 quick_test/mfcc/raw_mfcc_train.3.ark:852186
mbml0_sx89 quick_test/mfcc/raw_mfcc_train.2.ark:1312747
feme0_sx155 quick_test/mfcc/raw_mfcc_train.1.ark:1272837
mses0_si2219 quick_test/mfcc/raw_mfcc_train.4.ark:1972018
ftaj0_si474 quick_test/mfcc/raw_mfcc_train.2.ark:415524
mtlb0_sx144 quick_test/mfcc/raw_mfcc_train.4.ark:2855905
mges0_si851 quick_test/mfcc/raw_mfcc_train.3.ark:67067
flhd0_sx354 quick_test/mfcc/raw_mfcc_train.1.ark:2474849
mcss0_sx300 quick_test/mfcc/raw_mfcc_train.2.ark:1859875
mbar0_sx239 quick_test/mfcc/raw_mfcc_train.2.ark:1054533
fdas1_sx201 quick_test/mfcc/raw_mfcc_train.1.ark:803469
fbch0_sx416 quick_test/mfcc/raw_mfcc_train.1.ark:265716
mree0_si1959 quick_test/mfcc/raw_mfcc_train.4.ark:547698
mwsh0_si2266 quick_test/mfcc/raw_mfcc_train.4.ark:3744922
fecd0_si2048 quick_test/mfcc/raw_mfcc_train.1.ark:1194800
fblv0_si1058 quick_test/mfcc/raw_mfcc_train.1.ark:307452
mrvg0_si1140 quick_test/mfcc/raw_mfcc_train.4.ark:1586072
fdmy0_sx27 quick_test/mfcc/raw_mfcc_train.1.ark:1006516
flkm0_sx260 quick_test/mfcc/raw_mfcc_train.1.ark:2609139
maeo0_sx426 quick_test/mfcc/raw_mfcc_train.2.ark:809065
fcjf0_si1027 quick_test/mfcc/raw_mfcc_train.1.ark:537185
mjmd0_si2288 quick_test/mfcc/raw_mfcc_train.3.ark:1300485
fsdc0_si2234 quick_test/mfcc/raw_mfcc_train.1.ark:3742983
mbsb0_si1353 quick_test/mfcc/raw_mfcc_train.2.ark:1344118
mgsh0_si1176 quick_test/mfcc/raw_mfcc_train.3.ark:193849
mkes0_si1883 quick_test/mfcc/raw_mfcc_train.3.ark:2082052
mmag0_sx226 quick_test/mfcc/raw_mfcc_train.3.ark:2659153
mhjb0_sx117 quick_test/mfcc/raw_mfcc_train.3.ark:373564
mtat0_sx210 quick_test/mfcc/raw_mfcc_train.4.ark:2422895
fsjg0_si2200 quick_test/mfcc/raw_mfcc_train.1.ark:3829168
mzmb0_sx86 quick_test/mfcc/raw_mfcc_train.4.ark:3806016
fsms1_si874 quick_test/mfcc/raw_mfcc_train.2.ark:286057
mmam0_si1668 quick_test/mfcc/raw_mfcc_train.3.ark:2680977
mdpk0_sx63 quick_test/mfcc/raw_mfcc_train.2.ark:2838178
mjsr0_si2054 quick_test/mfcc/raw_mfcc_train.3.ark:1641329
marc0_sx108 quick_test/mfcc/raw_mfcc_train.2.ark:987488
mtjg0_si890 quick_test/mfcc/raw_mfcc_train.4.ark:2646386
mtcs0_sx172 quick_test/mfcc/raw_mfcc_train.4.ark:2515593
majp0_si2334 quick_test/mfcc/raw_mfcc_train.2.ark:852455
msjk0_si1596 quick_test/mfcc/raw_mfcc_train.4.ark:2069427
fklh0_sx267 quick_test/mfcc/raw_mfcc_train.1.ark:2276131
mbgt0_si1341 quick_test/mfcc/raw_mfcc_train.2.ark:1156821
mrjm0_sx238 quick_test/mfcc/raw_mfcc_train.4.ark:933151
mrgm0_sx442 quick_test/mfcc/raw_mfcc_train.4.ark:764037
mjpm0_si738 quick_test/mfcc/raw_mfcc_train.3.ark:1392683
mmab1_si1494 quick_test/mfcc/raw_mfcc_train.3.ark:2604883
