msdh0_si2240 quick_test/data-fmllr-tri3/train/data/feats_fmllr_train.9.ark:12821927
mjpm1_sx131 quick_test/data-fmllr-tri3/train/data/feats_fmllr_train.6.ark:16957160
fkdw0_si577 quick_test/data-fmllr-tri3/train/data/feats_fmllr_train.2.ark:6209568
mdpk0_sx153 quick_test/data-fmllr-tri3/train/data/feats_fmllr_train.5.ark:7182723
faem0_si2022 quick_test/data-fmllr-tri3/train/data/feats_fmllr_train.1.ark:75881
msdh0_sx80 quick_test/data-fmllr-tri3/train/data/feats_fmllr_train.9.ark:13156648
mjmd0_sx38 quick_test/data-fmllr-tri3/train/data/feats_fmllr_train.6.ark:15659572
mcxm0_sx181 quick_test/data-fmllr-tri3/train/data/feats_fmllr_train.4.ark:14128444
mjma0_si1495 quick_test/data-fmllr-tri3/train/data/feats_fmllr_train.6.ark:15057912
mpsw0_sx257 quick_test/data-fmllr-tri3/train/data/feats_fmllr_train.8.ark:10814167
fskl0_si2159 quick_test/data-fmllr-tri3/train/data/feats_fmllr_train.3.ark:10395922
mdss1_sx157 quick_test/data-fmllr-tri3/train/data/feats_fmllr_train.5.ark:9039328
fdml0_sx249 quick_test/data-fmllr-tri3/train/data/feats_fmllr_train.1.ark:11450417
mmgc0_sx405 quick_test/data-fmllr-tri3/train/data/feats_fmllr_train.8.ark:275537
fsrh0_si1931 quick_test/data-fmllr-tri3/train/data/feats_fmllr_train.3.ark:13143522
mhxl0_si612 quick_test/data-fmllr-tri3/train/data/feats_fmllr_train.6.ark:5812439
fnkl0_si892 quick_test/data-fmllr-tri3/train/data/feats_fmllr_train.3.ark:81348
fbmj0_si1776 quick_test/data-fmllr-tri3/train/data/feats_fmllr_train.1.ark:4460317
fsah0_sx434 quick_test/data-fmllr-tri3/train/data/feats_fmllr_train.3.ark:5872972
mprd0_sx261 quick_test/data-fmllr-tri3/train/data/feats_fmllr_train.8.ark:9632050
mdks0_si1066 quick_test/data-fmllr-tri3/train/data/feats_fmllr_train.5.ark:1926538
mbef0_si651 quick_test/data-fmllr-tri3/train/data/feats_fmllr_train.4.ark:4562035
mrgm0_sx82 quick_test/data-fmllr-tri3/train/data/feats_fmllr_train.8.ark:17914130
flod0_si657 quick_test/data-fmllr-tri3/train/data/feats_fmllr_train.2.ark:13682815
mesj0_sx97 quick_test/data-fmllr-tri3/train/data/feats_fmllr_train.5.ark:13660275
fleh0_si1051 quick_test/data-fmllr-tri3/train/data/feats_fmllr_train.2.ark:9664267
fjsp0_sx444 quick_test/data-fmllr-tri3/train/data/feats_fmllr_train.2.ark:3938294
fbmj0_sx336 quick_test/data-fmllr-tri3/train/data/feats_fmllr_train.1.ark:4723812
msrg0_si1851 quick_test/data-fmllr-tri3/train/data/feats_fmllr_train.9.ark:17046818
fvmh0_sx386 quick_test/data-fmllr-tri3/train/data/feats_fmllr_train.3.ark:16820836
mjjj0_sx83 quick_test/data-fmllr-tri3/train/data/feats_fmllr_train.6.ark:13121278
mdbb1_sx376 quick_test/data-fmllr-tri3/train/data/feats_fmllr_train.4.ark:15428720
meal0_sx287 quick_test/data-fmllr-tri3/train/data/feats_fmllr_train.5.ark:10946708
mmab1_sx234 quick_test/data-fmllr-tri3/train/data/feats_fmllr_train.7.ark:13188244
megj0_si1967 quick_test/data-fmllr-tri3/train/data/feats_fmllr_train.5.ark:11922450
mrre0_si1334 quick_test/data-fmllr-tri3/train/data/feats_fmllr_train.9.ark:7416938
msmc0_si509 quick_test/data-fmllr-tri3/train/data/feats_fmllr_train.9.ark:15868407
mdjm0_sx375 quick_test/data-fmllr-tri3/train/data/feats_fmllr_train.5.ark:1880910
mesj0_sx367 quick_test/data-fmllr-tri3/train/data/feats_fmllr_train.5.ark:13586624
fpac0_sx391 quick_test/data-fmllr-tri3/train/data/feats_fmllr_train.3.ark:1566772
msem1_sx180 quick_test/data-fmllr-tri3/train/data/feats_fmllr_train.9.ark:13907696
mrjm0_sx148 quick_test/data-fmllr-tri3/train/data/feats_fmllr_train.9.ark:1843522
mbbr0_sx425 quick_test/data-fmllr-tri3/train/data/feats_fmllr_train.4.ark:4048590
fmju0_sx399 quick_test/data-fmllr-tri3/train/data/feats_fmllr_train.2.ark:16692948
fcyl0_si667 quick_test/data-fmllr-tri3/train/data/feats_fmllr_train.1.ark:9023297
makr0_si1352 quick_test/data-fmllr-tri3/train/data/feats_fmllr_train.4.ark:1956301
fjxm0_sx401 quick_test/data-fmllr-tri3/train/data/feats_fmllr_train.2.ark:4704807
mdmt0_sx392 quick_test/data-fmllr-tri3/train/data/feats_fmllr_train.5.ark:6231139
mclk0_si2290 quick_test/data-fmllr-tri3/train/data/feats_fmllr_train.4.ark:11392312
mmlm0_sx447 quick_test/data-fmllr-tri3/train/data/feats_fmllr_train.8.ark:1690966
mkes0_sx263 quick_test/data-fmllr-tri3/train/data/feats_fmllr_train.7.ark:6963649
msjk0_sx336 quick_test/data-fmllr-tri3/train/data/feats_fmllr_train.9.ark:15666219
fexm0_si1731 quick_test/data-fmllr-tri3/train/data/feats_fmllr_train.1.ark:15844404
mkxl0_si1958 quick_test/data-fmllr-tri3/train/data/feats_fmllr_train.7.ark:9866134
mpfu0_si1258 quick_test/data-fmllr-tri3/train/data/feats_fmllr_train.8.ark:6416822
fpaz0_si963 quick_test/data-fmllr-tri3/train/data/feats_fmllr_train.3.ark:2530650
mrgs0_sx186 quick_test/data-fmllr-tri3/train/data/feats_fmllr_train.9.ark:168735
fjwb1_si748 quick_test/data-fmllr-tri3/train/data/feats_fmllr_train.2.ark:4078695
mmbs0_si521 quick_test/data-fmllr-tri3/train/data/feats_fmllr_train.7.ark:14736099
fpmy0_sx163 quick_test/data-fmllr-tri3/train/data/feats_fmllr_train.3.ark:3776446
mkah0_si1528 quick_test/data-fmllr-tri3/train/data/feats_fmllr_train.7.ark:4423519
mtbc0_sx347 quick_test/data-fmllr-tri3/train/data/feats_fmllr_train.10.ark:2291954
flhd0_sx84 quick_test/data-fmllr-tri3/train/data/feats_fmllr_train.2.ark:10728092
mdpb0_sx56 quick_test/data-fmllr-tri3/train/data/feats_fmllr_train.5.ark:7025813
mrav0_si1638 quick_test/data-fmllr-tri3/train/data/feats_fmllr_train.8.ark:12541065
mmag0_sx316 quick_test/data-fmllr-tri3/train/data/feats_fmllr_train.7.ark:13699048
mrld0_si2224 quick_test/data-fmllr-tri3/train/data/feats_fmllr_train.9.ark:3436014
mjde0_sx400 quick_test/data-fmllr-tri3/train/data/feats_fmllr_train.6.ark:9187907
mtmt0_si1118 quick_test/data-fmllr-tri3/train/data/feats_fmllr_train.10.ark:8068354
mrfk0_si1706 quick_test/data-fmllr-tri3/train/data/feats_fmllr_train.8.ark:16782494
mtdp0_sx261 quick_test/data-fmllr-tri3/train/data/feats_fmllr_train.10.ark:3458339
mvrw0_sx45 quick_test/data-fmllr-tri3/train/data/feats_fmllr_train.10.ark:13368804
fljg0_si1611 quick_test/data-fmllr-tri3/train/data/feats_fmllr_train.2.ark:11583595
freh0_sx145 quick_test/data-fmllr-tri3/train/data/feats_fmllr_train.3.ark:4171063
msrg0_sx321 quick_test/data-fmllr-tri3/train/data/feats_fmllr_train.9.ark:17204366
mtrt0_sx57 quick_test/data-fmllr-tri3/train/data/feats_fmllr_train.10.ark:11511558
fhxs0_sx175 quick_test/data-fmllr-tri3/train/data/feats_fmllr_train.1.ark:18588164
fsdj0_sx35 quick_test/data-fmllr-tri3/train/data/feats_fmllr_train.3.ark:7837737
mdhs0_sx450 quick_test/data-fmllr-tri3/train/data/feats_fmllr_train.5.ark:1474747
mpgr0_sx420 quick_test/data-fmllr-tri3/train/data/feats_fmllr_train.8.ark:7398218
fsdc0_si1312 quick_test/data-fmllr-tri3/train/data/feats_fmllr_train.3.ark:7225517
fklc0_sx85 quick_test/data-fmllr-tri3/train/data/feats_fmllr_train.2.ark:7666193
mrjh0_si1519 quick_test/data-fmllr-tri3/train/data/feats_fmllr_train.9.ark:1237303
mkrg0_si2121 quick_test/data-fmllr-tri3/train/data/feats_fmllr_train.7.ark:9455170
mvrw0_sx225 quick_test/data-fmllr-tri3/train/data/feats_fmllr_train.10.ark:13271444
mtpp0_si878 quick_test/data-fmllr-tri3/train/data/feats_fmllr_train.10.ark:9258500
mwsh0_sx436 quick_test/data-fmllr-tri3/train/data/feats_fmllr_train.10.ark:17497087
mfer0_si2122 quick_test/data-fmllr-tri3/train/data/feats_fmllr_train.5.ark:14053828
mdlm0_si1234 quick_test/data-fmllr-tri3/train/data/feats_fmllr_train.5.ark:4310241
fvmh0_si836 quick_test/data-fmllr-tri3/train/data/feats_fmllr_train.3.ark:16603902
mhmg0_si1995 quick_test/data-fmllr-tri3/train/data/feats_fmllr_train.6.ark:4649842
mjlg1_sx202 quick_test/data-fmllr-tri3/train/data/feats_fmllr_train.6.ark:14499987
mmam0_sx67 quick_test/data-fmllr-tri3/train/data/feats_fmllr_train.7.ark:14132759
mkaj0_sx244 quick_test/data-fmllr-tri3/train/data/feats_fmllr_train.7.ark:4986725
mjfr0_sx345 quick_test/data-fmllr-tri3/train/data/feats_fmllr_train.6.ark:11772894
fkdw0_sx307 quick_test/data-fmllr-tri3/train/data/feats_fmllr_train.2.ark:6313969
mvrw0_si1485 quick_test/data-fmllr-tri3/train/data/feats_fmllr_train.10.ark:13095495
mjdc0_sx351 quick_test/data-fmllr-tri3/train/data/feats_fmllr_train.6.ark:8611318
mstf0_sx406 quick_test/data-fmllr-tri3/train/data/feats_fmllr_train.9.ark:18040985
mjrh0_si1840 quick_test/data-fmllr-tri3/train/data/feats_fmllr_train.7.ark:89029
mvlo0_si1777 quick_test/data-fmllr-tri3/train/data/feats_fmllr_train.10.ark:12749866
fcag0_si1503 quick_test/data-fmllr-tri3/train/data/feats_fmllr_train.1.ark:4895413
msah1_sx419 quick_test/data-fmllr-tri3/train/data/feats_fmllr_train.9.ark:11346735
fdmy0_si567 quick_test/data-fmllr-tri3/train/data/feats_fmllr_train.1.ark:11671032
msmc0_sx197 quick_test/data-fmllr-tri3/train/data/feats_fmllr_train.9.ark:16078274
mbwp0_sx349 quick_test/data-fmllr-tri3/train/data/feats_fmllr_train.4.ark:7933028
mgag0_sx331 quick_test/data-fmllr-tri3/train/data/feats_fmllr_train.5.ark:16805697
mbma0_si592 quick_test/data-fmllr-tri3/train/data/feats_fmllr_train.4.ark:5653726
fecd0_si788 quick_test/data-fmllr-tri3/train/data/feats_fmllr_train.1.ark:14266443
mrjb1_sx120 quick_test/data-fmllr-tri3/train/data/feats_fmllr_train.9.ark:999088
mjws0_si1143 quick_test/data-fmllr-tri3/train/data/feats_fmllr_train.7.ark:2403875
ftbw0_sx445 quick_test/data-fmllr-tri3/train/data/feats_fmllr_train.3.ark:14894125
mrsp0_si1429 quick_test/data-fmllr-tri3/train/data/feats_fmllr_train.9.ark:8344572
fcke0_sx301 quick_test/data-fmllr-tri3/train/data/feats_fmllr_train.1.ark:7306132
mdlc2_si2244 quick_test/data-fmllr-tri3/train/data/feats_fmllr_train.5.ark:3597676
fbjl0_sx382 quick_test/data-fmllr-tri3/train/data/feats_fmllr_train.1.ark:3614254
mwac0_sx71 quick_test/data-fmllr-tri3/train/data/feats_fmllr_train.10.ark:13834941
msem1_si1440 quick_test/data-fmllr-tri3/train/data/feats_fmllr_train.9.ark:13658974
mmar0_sx76 quick_test/data-fmllr-tri3/train/data/feats_fmllr_train.7.ark:14609616
fpjf0_si1259 quick_test/data-fmllr-tri3/train/data/feats_fmllr_train.3.ark:2873239
mtat1_si1627 quick_test/data-fmllr-tri3/train/data/feats_fmllr_train.10.ark:1668749
ftmg0_sx272 quick_test/data-fmllr-tri3/train/data/feats_fmllr_train.3.ark:15565864
mtpr0_sx250 quick_test/data-fmllr-tri3/train/data/feats_fmllr_train.10.ark:9746771
mmdm1_si783 quick_test/data-fmllr-tri3/train/data/feats_fmllr_train.7.ark:16685824
fkkh0_si660 quick_test/data-fmllr-tri3/train/data/feats_fmllr_train.2.ark:7043602
mmdg0_sx340 quick_test/data-fmllr-tri3/train/data/feats_fmllr_train.7.ark:16099231
fclt0_sx178 quick_test/data-fmllr-tri3/train/data/feats_fmllr_train.1.ark:7540855
fvmh0_sx116 quick_test/data-fmllr-tri3/train/data/feats_fmllr_train.3.ark:16672409
mree0_si1734 quick_test/data-fmllr-tri3/train/data/feats_fmllr_train.8.ark:15202906
madc0_sx107 quick_test/data-fmllr-tri3/train/data/feats_fmllr_train.3.ark:17374923
flac0_si901 quick_test/data-fmllr-tri3/train/data/feats_fmllr_train.2.ark:8966768
mjee0_si1237 quick_test/data-fmllr-tri3/train/data/feats_fmllr_train.6.ark:10834884
fkaa0_sx218 quick_test/data-fmllr-tri3/train/data/feats_fmllr_train.2.ark:5389507
flhd0_si1974 quick_test/data-fmllr-tri3/train/data/feats_fmllr_train.2.ark:10491478
msrr0_sx141 quick_test/data-fmllr-tri3/train/data/feats_fmllr_train.9.ark:17522129
mmaa0_sx305 quick_test/data-fmllr-tri3/train/data/feats_fmllr_train.7.ark:12869814
mbcg0_sx417 quick_test/data-fmllr-tri3/train/data/feats_fmllr_train.4.ark:4388806
mcal0_sx328 quick_test/data-fmllr-tri3/train/data/feats_fmllr_train.4.ark:8808980
mcdd0_sx253 quick_test/data-fmllr-tri3/train/data/feats_fmllr_train.4.ark:9517547
mmjb1_si778 quick_test/data-fmllr-tri3/train/data/feats_fmllr_train.8.ark:1137201
fnkl0_sx172 quick_test/data-fmllr-tri3/train/data/feats_fmllr_train.3.ark:156095
mkls0_sx177 quick_test/data-fmllr-tri3/train/data/feats_fmllr_train.7.ark:8385452
fksr0_sx397 quick_test/data-fmllr-tri3/train/data/feats_fmllr_train.2.ark:8818525
mpsw0_sx24 quick_test/data-fmllr-tri3/train/data/feats_fmllr_train.8.ark:10784700
mdlr0_si1233 quick_test/data-fmllr-tri3/train/data/feats_fmllr_train.5.ark:4649978
fscn0_sx86 quick_test/data-fmllr-tri3/train/data/feats_fmllr_train.3.ark:7182129
mjmm0_si1255 quick_test/data-fmllr-tri3/train/data/feats_fmllr_train.6.ark:15752747
mefg0_si598 quick_test/data-fmllr-tri3/train/data/feats_fmllr_train.5.ark:11534420
mbgt0_si711 quick_test/data-fmllr-tri3/train/data/feats_fmllr_train.4.ark:4887212
fjen0_sx57 quick_test/data-fmllr-tri3/train/data/feats_fmllr_train.2.ark:812901
feeh0_sx392 quick_test/data-fmllr-tri3/train/data/feats_fmllr_train.1.ark:14942474
fkdw0_sx127 quick_test/data-fmllr-tri3/train/data/feats_fmllr_train.2.ark:6253275
mrjm0_si1858 quick_test/data-fmllr-tri3/train/data/feats_fmllr_train.9.ark:1780135
mjrp0_sx315 quick_test/data-fmllr-tri3/train/data/feats_fmllr_train.7.ark:1342401
mjae0_si1999 quick_test/data-fmllr-tri3/train/data/feats_fmllr_train.6.ark:6911140
mjfr0_sx165 quick_test/data-fmllr-tri3/train/data/feats_fmllr_train.6.ark:11666920
fmpg0_si2232 quick_test/data-fmllr-tri3/train/data/feats_fmllr_train.2.ark:17976052
mtrt0_sx147 quick_test/data-fmllr-tri3/train/data/feats_fmllr_train.10.ark:11359291
mrjm0_si1095 quick_test/data-fmllr-tri3/train/data/feats_fmllr_train.9.ark:1700559
mtrr0_si918 quick_test/data-fmllr-tri3/train/data/feats_fmllr_train.10.ark:10884327
mjjj0_si533 quick_test/data-fmllr-tri3/train/data/feats_fmllr_train.6.ark:12855704
mjde0_si1120 quick_test/data-fmllr-tri3/train/data/feats_fmllr_train.6.ark:8727719
fspm0_sx431 quick_test/data-fmllr-tri3/train/data/feats_fmllr_train.3.ark:13040880
mrab0_si1854 quick_test/data-fmllr-tri3/train/data/feats_fmllr_train.8.ark:10973476
mfxv0_si1635 quick_test/data-fmllr-tri3/train/data/feats_fmllr_train.5.ark:16002143
fbjl0_sx22 quick_test/data-fmllr-tri3/train/data/feats_fmllr_train.1.ark:3509560
mpeb0_si1034 quick_test/data-fmllr-tri3/train/data/feats_fmllr_train.8.ark:6068285
mdlc0_sx225 quick_test/data-fmllr-tri3/train/data/feats_fmllr_train.5.ark:3020202
mdhl0_si809 quick_test/data-fmllr-tri3/train/data/feats_fmllr_train.5.ark:919702
medr0_si1374 quick_test/data-fmllr-tri3/train/data/feats_fmllr_train.5.ark:11081030
mmvp0_sx347 quick_test/data-fmllr-tri3/train/data/feats_fmllr_train.8.ark:3309594
fsma0_sx361 quick_test/data-fmllr-tri3/train/data/feats_fmllr_train.3.ark:11734282
mrlr0_sx296 quick_test/data-fmllr-tri3/train/data/feats_fmllr_train.9.ark:5072857
mjae0_sx444 quick_test/data-fmllr-tri3/train/data/feats_fmllr_train.6.ark:7141836
fltm0_si2330 quick_test/data-fmllr-tri3/train/data/feats_fmllr_train.2.ark:14009274
frjb0_sx257 quick_test/data-fmllr-tri3/train/data/feats_fmllr_train.3.ark:4504588
mlel0_sx436 quick_test/data-fmllr-tri3/train/data/feats_fmllr_train.7.ark:10840436
mrhl0_sx345 quick_test/data-fmllr-tri3/train/data/feats_fmllr_train.9.ark:652204
fsjw0_si703 quick_test/data-fmllr-tri3/train/data/feats_fmllr_train.3.ark:9715035
mcal0_si1768 quick_test/data-fmllr-tri3/train/data/feats_fmllr_train.4.ark:8674952
mmds0_sx263 quick_test/data-fmllr-tri3/train/data/feats_fmllr_train.7.ark:17177935
flma0_sx163 quick_test/data-fmllr-tri3/train/data/feats_fmllr_train.2.ark:12620910
msat0_si1526 quick_test/data-fmllr-tri3/train/data/feats_fmllr_train.9.ark:11859166
mbom0_sx294 quick_test/data-fmllr-tri3/train/data/feats_fmllr_train.4.ark:6880379
fjlr0_sx61 quick_test/data-fmllr-tri3/train/data/feats_fmllr_train.2.ark:2327691
mmvp0_si1914 quick_test/data-fmllr-tri3/train/data/feats_fmllr_train.8.ark:3015059
fltm0_si1070 quick_test/data-fmllr-tri3/train/data/feats_fmllr_train.2.ark:13933538
mrdd0_sx277 quick_test/data-fmllr-tri3/train/data/feats_fmllr_train.8.ark:14270843
mbef0_sx381 quick_test/data-fmllr-tri3/train/data/feats_fmllr_train.4.ark:4754169
msem1_sx270 quick_test/data-fmllr-tri3/train/data/feats_fmllr_train.9.ark:13968203
mdac0_si1837 quick_test/data-fmllr-tri3/train/data/feats_fmllr_train.4.ark:14408767
mjai0_si710 quick_test/data-fmllr-tri3/train/data/feats_fmllr_train.6.ark:7382104
mwsb0_sx276 quick_test/data-fmllr-tri3/train/data/feats_fmllr_train.10.ark:16977778
msmr0_si1150 quick_test/data-fmllr-tri3/train/data/feats_fmllr_train.9.ark:16220276
fjwb1_sx435 quick_test/data-fmllr-tri3/train/data/feats_fmllr_train.2.ark:4311790
fgdp0_si1618 quick_test/data-fmllr-tri3/train/data/feats_fmllr_train.1.ark:16604491
mppc0_sx332 quick_test/data-fmllr-tri3/train/data/feats_fmllr_train.8.ark:8783643
mtlc0_si1477 quick_test/data-fmllr-tri3/train/data/feats_fmllr_train.10.ark:6957650
mdac0_sx361 quick_test/data-fmllr-tri3/train/data/feats_fmllr_train.4.ark:14627755
freh0_si685 quick_test/data-fmllr-tri3/train/data/feats_fmllr_train.3.ark:4130236
mjac0_sx71 quick_test/data-fmllr-tri3/train/data/feats_fmllr_train.6.ark:6817004
fcmg0_sx72 quick_test/data-fmllr-tri3/train/data/feats_fmllr_train.1.ark:8160380
mdlh0_si1960 quick_test/data-fmllr-tri3/train/data/feats_fmllr_train.5.ark:3906505
mjdc0_sx261 quick_test/data-fmllr-tri3/train/data/feats_fmllr_train.6.ark:8583931
mprk0_sx17 quick_test/data-fmllr-tri3/train/data/feats_fmllr_train.8.ark:10070826
fssb0_si2342 quick_test/data-fmllr-tri3/train/data/feats_fmllr_train.3.ark:13619287
fleh0_sx241 quick_test/data-fmllr-tri3/train/data/feats_fmllr_train.2.ark:9859897
mdlh0_si574 quick_test/data-fmllr-tri3/train/data/feats_fmllr_train.5.ark:3964132
flet0_sx57 quick_test/data-fmllr-tri3/train/data/feats_fmllr_train.2.ark:10378914
mmws0_sx438 quick_test/data-fmllr-tri3/train/data/feats_fmllr_train.8.ark:4208748
mkdt0_si893 quick_test/data-fmllr-tri3/train/data/feats_fmllr_train.7.ark:6433458
mrml0_si2051 quick_test/data-fmllr-tri3/train/data/feats_fmllr_train.9.ark:6342393
mdlc0_sx315 quick_test/data-fmllr-tri3/train/data/feats_fmllr_train.5.ark:3057669
mtrt0_sx417 quick_test/data-fmllr-tri3/train/data/feats_fmllr_train.10.ark:11464172
mhmr0_sx309 quick_test/data-fmllr-tri3/train/data/feats_fmllr_train.6.ark:5229047
fdml0_si1779 quick_test/data-fmllr-tri3/train/data/feats_fmllr_train.1.ark:11339295
frjb0_sx167 quick_test/data-fmllr-tri3/train/data/feats_fmllr_train.3.ark:4446961
fmpg0_sx72 quick_test/data-fmllr-tri3/train/data/feats_fmllr_train.2.ark:18382293
mjmm0_sx175 quick_test/data-fmllr-tri3/train/data/feats_fmllr_train.6.ark:15890909
mbbr0_si1685 quick_test/data-fmllr-tri3/train/data/feats_fmllr_train.4.ark:3823654
mmgk0_sx332 quick_test/data-fmllr-tri3/train/data/feats_fmllr_train.8.ark:912745
mwrp0_si1443 quick_test/data-fmllr-tri3/train/data/feats_fmllr_train.10.ark:16419533
fmjf0_si1254 quick_test/data-fmllr-tri3/train/data/feats_fmllr_train.2.ark:15918782
fskl0_sx359 quick_test/data-fmllr-tri3/train/data/feats_fmllr_train.3.ark:10586110
msmr0_sx235 quick_test/data-fmllr-tri3/train/data/feats_fmllr_train.9.ark:16433025
mprd0_si2061 quick_test/data-fmllr-tri3/train/data/feats_fmllr_train.8.ark:9443649
fmjb0_sx187 quick_test/data-fmllr-tri3/train/data/feats_fmllr_train.2.ark:15715129
fklc1_sx238 quick_test/data-fmllr-tri3/train/data/feats_fmllr_train.2.ark:7885371
fjkl0_sx32 quick_test/data-fmllr-tri3/train/data/feats_fmllr_train.2.ark:1523389
fbmj0_si516 quick_test/data-fmllr-tri3/train/data/feats_fmllr_train.1.ark:4527064
mjls0_sx16 quick_test/data-fmllr-tri3/train/data/feats_fmllr_train.6.ark:14880843
fcdr1_sx106 quick_test/data-fmllr-tri3/train/data/feats_fmllr_train.1.ark:5825530
msdb0_sx197 quick_test/data-fmllr-tri3/train/data/feats_fmllr_train.9.ark:12704377
mmdm0_sx51 quick_test/data-fmllr-tri3/train/data/feats_fmllr_train.7.ark:16577581
fjxp0_si1752 quick_test/data-fmllr-tri3/train/data/feats_fmllr_train.2.ark:4884409
mree0_sx384 quick_test/data-fmllr-tri3/train/data/feats_fmllr_train.8.ark:15484188
mbom0_sx384 quick_test/data-fmllr-tri3/train/data/feats_fmllr_train.4.ark:6980273
mmar0_sx436 quick_test/data-fmllr-tri3/train/data/feats_fmllr_train.7.ark:14568310
mdas0_sx186 quick_test/data-fmllr-tri3/train/data/feats_fmllr_train.4.ark:14936558
ftlg0_sx33 quick_test/data-fmllr-tri3/train/data/feats_fmllr_train.3.ark:15299620
mtwh1_si882 quick_test/data-fmllr-tri3/train/data/feats_fmllr_train.10.ark:11633081
faem0_sx132 quick_test/data-fmllr-tri3/train/data/feats_fmllr_train.1.ark:155455
fsls0_si2316 quick_test/data-fmllr-tri3/train/data/feats_fmllr_train.3.ark:11197984
fgcs0_si1486 quick_test/data-fmllr-tri3/train/data/feats_fmllr_train.1.ark:16249234
fjen0_si1047 quick_test/data-fmllr-tri3/train/data/feats_fmllr_train.2.ark:417031
mmgc0_sx225 quick_test/data-fmllr-tri3/train/data/feats_fmllr_train.8.ark:195163
makr0_sx182 quick_test/data-fmllr-tri3/train/data/feats_fmllr_train.4.ark:2070463
mjrg0_si736 quick_test/data-fmllr-tri3/train/data/feats_fmllr_train.6.ark:17680767
mtkp0_sx123 quick_test/data-fmllr-tri3/train/data/feats_fmllr_train.10.ark:6293590
fbjl0_si1552 quick_test/data-fmllr-tri3/train/data/feats_fmllr_train.1.ark:3276465
mabc0_si2041 quick_test/data-fmllr-tri3/train/data/feats_fmllr_train.3.ark:16875292
mdpb0_sx236 quick_test/data-fmllr-tri3/train/data/feats_fmllr_train.5.ark:6899813
mdps0_sx359 quick_test/data-fmllr-tri3/train/data/feats_fmllr_train.5.ark:7619474
ftbr0_sx201 quick_test/data-fmllr-tri3/train/data/feats_fmllr_train.3.ark:14429854
mkxl0_sx195 quick_test/data-fmllr-tri3/train/data/feats_fmllr_train.7.ark:10010374
ftbr0_sx111 quick_test/data-fmllr-tri3/train/data/feats_fmllr_train.3.ark:14390147
fsdc0_sx412 quick_test/data-fmllr-tri3/train/data/feats_fmllr_train.3.ark:7493521
mcdc0_sx392 quick_test/data-fmllr-tri3/train/data/feats_fmllr_train.4.ark:9299810
mfer0_sx232 quick_test/data-fmllr-tri3/train/data/feats_fmllr_train.5.ark:14182549
mdcd0_si785 quick_test/data-fmllr-tri3/train/data/feats_fmllr_train.4.ark:15969500
mrvg0_sx150 quick_test/data-fmllr-tri3/train/data/feats_fmllr_train.9.ark:9782105
fhxs0_sx265 quick_test/data-fmllr-tri3/train/data/feats_fmllr_train.1.ark:18663231
mmdm0_sx411 quick_test/data-fmllr-tri3/train/data/feats_fmllr_train.7.ark:16521715
mrem0_sx421 quick_test/data-fmllr-tri3/train/data/feats_fmllr_train.8.ark:16257875
fmkf0_si1018 quick_test/data-fmllr-tri3/train/data/feats_fmllr_train.2.ark:17130474
fdas1_si831 quick_test/data-fmllr-tri3/train/data/feats_fmllr_train.1.ark:9446394
fbch0_sx236 quick_test/data-fmllr-tri3/train/data/feats_fmllr_train.1.ark:3076677
fbmh0_sx236 quick_test/data-fmllr-tri3/train/data/feats_fmllr_train.1.ark:4302929
fear0_sx172 quick_test/data-fmllr-tri3/train/data/feats_fmllr_train.1.ark:13866413
mbma0_si1222 quick_test/data-fmllr-tri3/train/data/feats_fmllr_train.4.ark:5550791
mtab0_sx132 quick_test/data-fmllr-tri3/train/data/feats_fmllr_train.10.ark:666392
fmbg0_sx350 quick_test/data-fmllr-tri3/train/data/feats_fmllr_train.2.ark:14939388
falk0_sx276 quick_test/data-fmllr-tri3/train/data/feats_fmllr_train.1.ark:1022473
mljh0_sx244 quick_test/data-fmllr-tri3/train/data/feats_fmllr_train.7.ark:11610896
flet0_sx277 quick_test/data-fmllr-tri3/train/data/feats_fmllr_train.2.ark:10296301
fsag0_sx153 quick_test/data-fmllr-tri3/train/data/feats_fmllr_train.3.ark:5209474
mjdm0_sx350 quick_test/data-fmllr-tri3/train/data/feats_fmllr_train.6.ark:9875809
fdtd0_sx301 quick_test/data-fmllr-tri3/train/data/feats_fmllr_train.1.ark:12833975
mmdg0_sx430 quick_test/data-fmllr-tri3/train/data/feats_fmllr_train.7.ark:16153658
mljc0_sx55 quick_test/data-fmllr-tri3/train/data/feats_fmllr_train.7.ark:11281959
mkjo0_si1517 quick_test/data-fmllr-tri3/train/data/feats_fmllr_train.7.ark:7147117
fmjb0_sx7 quick_test/data-fmllr-tri3/train/data/feats_fmllr_train.2.ark:15833448
mclk0_sx400 quick_test/data-fmllr-tri3/train/data/feats_fmllr_train.4.ark:11725433
fljg0_si2241 quick_test/data-fmllr-tri3/train/data/feats_fmllr_train.2.ark:11638023
frll0_sx164 quick_test/data-fmllr-tri3/train/data/feats_fmllr_train.3.ark:4874857
mstf0_sx316 quick_test/data-fmllr-tri3/train/data/feats_fmllr_train.9.ark:17994718
mmdg0_si1780 quick_test/data-fmllr-tri3/train/data/feats_fmllr_train.7.ark:15817815
mtlb0_sx414 quick_test/data-fmllr-tri3/train/data/feats_fmllr_train.10.ark:6790688
mrjm1_sx398 quick_test/data-fmllr-tri3/train/data/feats_fmllr_train.9.ark:2440326
mjxa0_si1507 quick_test/data-fmllr-tri3/train/data/feats_fmllr_train.7.ark:3246709
mmws0_si1518 quick_test/data-fmllr-tri3/train/data/feats_fmllr_train.8.ark:3940266
fmju0_si759 quick_test/data-fmllr-tri3/train/data/feats_fmllr_train.2.ark:16439054
fpaz0_si1593 quick_test/data-fmllr-tri3/train/data/feats_fmllr_train.3.ark:2427075
fmah1_sx429 quick_test/data-fmllr-tri3/train/data/feats_fmllr_train.2.ark:14618559
mpeb0_sx240 quick_test/data-fmllr-tri3/train/data/feats_fmllr_train.8.ark:6220554
mwch0_sx452 quick_test/data-fmllr-tri3/train/data/feats_fmllr_train.10.ark:14769649
fltm0_si1700 quick_test/data-fmllr-tri3/train/data/feats_fmllr_train.2.ark:13967006
fjlg0_si1889 quick_test/data-fmllr-tri3/train/data/feats_fmllr_train.2.ark:1638832
flmk0_sx405 quick_test/data-fmllr-tri3/train/data/feats_fmllr_train.2.ark:13496786
mtjg0_sx350 quick_test/data-fmllr-tri3/train/data/feats_fmllr_train.10.ark:4315919
mwch0_si1895 quick_test/data-fmllr-tri3/train/data/feats_fmllr_train.10.ark:14589353
mesj0_sx7 quick_test/data-fmllr-tri3/train/data/feats_fmllr_train.5.ark:13628409
mgaf0_si1282 quick_test/data-fmllr-tri3/train/data/feats_fmllr_train.5.ark:16233825
fdnc0_si2287 quick_test/data-fmllr-tri3/train/data/feats_fmllr_train.1.ark:12303437
mesg0_sx342 quick_test/data-fmllr-tri3/train/data/feats_fmllr_train.5.ark:13213127
mmsm0_si1736 quick_test/data-fmllr-tri3/train/data/feats_fmllr_train.8.ark:2635802
fpab1_sx391 quick_test/data-fmllr-tri3/train/data/feats_fmllr_train.3.ark:1150875
mdem0_sx248 quick_test/data-fmllr-tri3/train/data/feats_fmllr_train.5.ark:590419
mgaw0_si1802 quick_test/data-fmllr-tri3/train/data/feats_fmllr_train.6.ark:456579
mesg0_sx432 quick_test/data-fmllr-tri3/train/data/feats_fmllr_train.5.ark:13267074
mfxs0_sx414 quick_test/data-fmllr-tri3/train/data/feats_fmllr_train.5.ark:15763633
mkln0_si2228 quick_test/data-fmllr-tri3/train/data/feats_fmllr_train.7.ark:7546882
mjrg0_sx286 quick_test/data-fmllr-tri3/train/data/feats_fmllr_train.6.ark:17822287
flmc0_si2002 quick_test/data-fmllr-tri3/train/data/feats_fmllr_train.2.ark:12884593
mgaf0_sx202 quick_test/data-fmllr-tri3/train/data/feats_fmllr_train.5.ark:16431374
mtlb0_si1764 quick_test/data-fmllr-tri3/train/data/feats_fmllr_train.10.ark:6569273
mrjm1_si1928 quick_test/data-fmllr-tri3/train/data/feats_fmllr_train.9.ark:2162245
fklc0_sx445 quick_test/data-fmllr-tri3/train/data/feats_fmllr_train.2.ark:7620887
mcef0_sx55 quick_test/data-fmllr-tri3/train/data/feats_fmllr_train.4.ark:10439821
mpgr0_sx240 quick_test/data-fmllr-tri3/train/data/feats_fmllr_train.8.ark:7307764
mtxs0_si1690 quick_test/data-fmllr-tri3/train/data/feats_fmllr_train.10.ark:11959031
mrre0_sx254 quick_test/data-fmllr-tri3/train/data/feats_fmllr_train.9.ark:7694486
mcew0_si812 quick_test/data-fmllr-tri3/train/data/feats_fmllr_train.4.ark:10604864
marc0_sx18 quick_test/data-fmllr-tri3/train/data/feats_fmllr_train.4.ark:2811883
mbom0_sx204 quick_test/data-fmllr-tri3/train/data/feats_fmllr_train.4.ark:6846752
mcal0_sx148 quick_test/data-fmllr-tri3/train/data/feats_fmllr_train.4.ark:8728286
mdwh0_si1168 quick_test/data-fmllr-tri3/train/data/feats_fmllr_train.5.ark:9933178
mwrp0_si1525 quick_test/data-fmllr-tri3/train/data/feats_fmllr_train.10.ark:16487401
mcpm0_si564 quick_test/data-fmllr-tri3/train/data/feats_fmllr_train.4.ark:12213253
mter0_sx437 quick_test/data-fmllr-tri3/train/data/feats_fmllr_train.10.ark:3977809
mmpm0_sx71 quick_test/data-fmllr-tri3/train/data/feats_fmllr_train.8.ark:2112810
mdpk0_si1053 quick_test/data-fmllr-tri3/train/data/feats_fmllr_train.5.ark:7068081
maeo0_si1326 quick_test/data-fmllr-tri3/train/data/feats_fmllr_train.4.ark:368870
mgsh0_sx6 quick_test/data-fmllr-tri3/train/data/feats_fmllr_train.6.ark:2620678
fpad0_sx86 quick_test/data-fmllr-tri3/train/data/feats_fmllr_train.3.ark:1988749
fmbg0_sx260 quick_test/data-fmllr-tri3/train/data/feats_fmllr_train.2.ark:14860776
mjbg0_sx152 quick_test/data-fmllr-tri3/train/data/feats_fmllr_train.6.ark:7768429
mgxp0_si457 quick_test/data-fmllr-tri3/train/data/feats_fmllr_train.6.ark:3218895
fskp0_sx288 quick_test/data-fmllr-tri3/train/data/feats_fmllr_train.3.ark:11003793
mpeb0_si1860 quick_test/data-fmllr-tri3/train/data/feats_fmllr_train.8.ark:6091353
mdlr1_sx219 quick_test/data-fmllr-tri3/train/data/feats_fmllr_train.5.ark:5270464
mjjb0_si1139 quick_test/data-fmllr-tri3/train/data/feats_fmllr_train.6.ark:12331111
mefg0_sx15 quick_test/data-fmllr-tri3/train/data/feats_fmllr_train.5.ark:11646473
mgxp0_sx7 quick_test/data-fmllr-tri3/train/data/feats_fmllr_train.6.ark:3475828
madc0_sx17 quick_test/data-fmllr-tri3/train/data/feats_fmllr_train.3.ark:17420549
mwre0_si1057 quick_test/data-fmllr-tri3/train/data/feats_fmllr_train.10.ark:16027155
mtab0_sx222 quick_test/data-fmllr-tri3/train/data/feats_fmllr_train.10.ark:724659
mtlb0_sx234 quick_test/data-fmllr-tri3/train/data/feats_fmllr_train.10.ark:6680074
mrms0_sx210 quick_test/data-fmllr-tri3/train/data/feats_fmllr_train.9.ark:6958052
mtxs0_si1060 quick_test/data-fmllr-tri3/train/data/feats_fmllr_train.10.ark:11883803
mvjh0_si2186 quick_test/data-fmllr-tri3/train/data/feats_fmllr_train.10.ark:12409649
mrfk0_si2336 quick_test/data-fmllr-tri3/train/data/feats_fmllr_train.8.ark:16806362
fmkf0_sx186 quick_test/data-fmllr-tri3/train/data/feats_fmllr_train.2.ark:17307836
mmgk0_sx152 quick_test/data-fmllr-tri3/train/data/feats_fmllr_train.8.ark:843891
mvlo0_sx67 quick_test/data-fmllr-tri3/train/data/feats_fmllr_train.10.ark:13034027
mwad0_sx432 quick_test/data-fmllr-tri3/train/data/feats_fmllr_train.10.ark:14094333
mrso0_sx129 quick_test/data-fmllr-tri3/train/data/feats_fmllr_train.9.ark:8069237
mjwt0_sx211 quick_test/data-fmllr-tri3/train/data/feats_fmllr_train.7.ark:3065641
maeb0_sx180 quick_test/data-fmllr-tri3/train/data/feats_fmllr_train.4.ark:158015
msat1_sx173 quick_test/data-fmllr-tri3/train/data/feats_fmllr_train.9.ark:12292266
mwar0_sx235 quick_test/data-fmllr-tri3/train/data/feats_fmllr_train.10.ark:14370817
fbjl0_sx112 quick_test/data-fmllr-tri3/train/data/feats_fmllr_train.1.ark:3435587
mges0_sx401 quick_test/data-fmllr-tri3/train/data/feats_fmllr_train.6.ark:987011
mjwt0_si1381 quick_test/data-fmllr-tri3/train/data/feats_fmllr_train.7.ark:2892920
mdsj0_sx112 quick_test/data-fmllr-tri3/train/data/feats_fmllr_train.5.ark:8349454
fbmh0_sx56 quick_test/data-fmllr-tri3/train/data/feats_fmllr_train.1.ark:4416289
mmdb0_sx87 quick_test/data-fmllr-tri3/train/data/feats_fmllr_train.7.ark:15786107
mklr0_sx339 quick_test/data-fmllr-tri3/train/data/feats_fmllr_train.7.ark:8074728
mdlm0_si604 quick_test/data-fmllr-tri3/train/data/feats_fmllr_train.5.ark:4389336
mgrl0_sx57 quick_test/data-fmllr-tri3/train/data/feats_fmllr_train.6.ark:1844112
fvkb0_si529 quick_test/data-fmllr-tri3/train/data/feats_fmllr_train.3.ark:16165125
fceg0_sx78 quick_test/data-fmllr-tri3/train/data/feats_fmllr_train.1.ark:6367614
mtkp0_sx33 quick_test/data-fmllr-tri3/train/data/feats_fmllr_train.10.ark:6419910
mkdb0_sx62 quick_test/data-fmllr-tri3/train/data/feats_fmllr_train.7.ark:5896359
fcag0_sx423 quick_test/data-fmllr-tri3/train/data/feats_fmllr_train.1.ark:5146457
fntb0_sx33 quick_test/data-fmllr-tri3/train/data/feats_fmllr_train.3.ark:660231
fpaz0_sx423 quick_test/data-fmllr-tri3/train/data/feats_fmllr_train.3.ark:2729317
mtlb0_sx54 quick_test/data-fmllr-tri3/train/data/feats_fmllr_train.10.ark:6836314
fkdw0_sx217 quick_test/data-fmllr-tri3/train/data/feats_fmllr_train.2.ark:6284662
mcpm0_sx114 quick_test/data-fmllr-tri3/train/data/feats_fmllr_train.4.ark:12274240
flja0_si2338 quick_test/data-fmllr-tri3/train/data/feats_fmllr_train.2.ark:10900336
fcmm0_si453 quick_test/data-fmllr-tri3/train/data/feats_fmllr_train.1.ark:8306383
makb0_sx206 quick_test/data-fmllr-tri3/train/data/feats_fmllr_train.4.ark:1790433
fclt0_sx358 quick_test/data-fmllr-tri3/train/data/feats_fmllr_train.1.ark:7644109
fntb0_si573 quick_test/data-fmllr-tri3/train/data/feats_fmllr_train.3.ark:417537
mbth0_si757 quick_test/data-fmllr-tri3/train/data/feats_fmllr_train.4.ark:7422010
mmxs0_sx246 quick_test/data-fmllr-tri3/train/data/feats_fmllr_train.8.ark:4793767
mmgk0_sx62 quick_test/data-fmllr-tri3/train/data/feats_fmllr_train.8.ark:998238
mrsp0_si2059 quick_test/data-fmllr-tri3/train/data/feats_fmllr_train.9.ark:8423800
mrjt0_sx58 quick_test/data-fmllr-tri3/train/data/feats_fmllr_train.9.ark:2828063
ftmg0_si902 quick_test/data-fmllr-tri3/train/data/feats_fmllr_train.3.ark:15446930
mtkd0_si1187 quick_test/data-fmllr-tri3/train/data/feats_fmllr_train.10.ark:5669771
mjpm1_sx221 quick_test/data-fmllr-tri3/train/data/feats_fmllr_train.6.ark:16992227
mrdd0_si1050 quick_test/data-fmllr-tri3/train/data/feats_fmllr_train.8.ark:14046066
mdlm0_sx244 quick_test/data-fmllr-tri3/train/data/feats_fmllr_train.5.ark:4502830
mbbr0_si1055 quick_test/data-fmllr-tri3/train/data/feats_fmllr_train.4.ark:3752266
mklw0_sx41 quick_test/data-fmllr-tri3/train/data/feats_fmllr_train.7.ark:9338154
mjjm0_sx107 quick_test/data-fmllr-tri3/train/data/feats_fmllr_train.6.ark:13349068
mmwb0_sx89 quick_test/data-fmllr-tri3/train/data/feats_fmllr_train.8.ark:3890158
mdks0_si2326 quick_test/data-fmllr-tri3/train/data/feats_fmllr_train.5.ark:1990114
mrai0_sx342 quick_test/data-fmllr-tri3/train/data/feats_fmllr_train.8.ark:11978338
msrr0_sx30 quick_test/data-fmllr-tri3/train/data/feats_fmllr_train.9.ark:17604582
mrmg0_sx90 quick_test/data-fmllr-tri3/train/data/feats_fmllr_train.9.ark:5856839
fcrz0_sx343 quick_test/data-fmllr-tri3/train/data/feats_fmllr_train.1.ark:8786841
mrws0_sx292 quick_test/data-fmllr-tri3/train/data/feats_fmllr_train.9.ark:10611259
mrcw0_si1371 quick_test/data-fmllr-tri3/train/data/feats_fmllr_train.8.ark:13699929
flac0_sx91 quick_test/data-fmllr-tri3/train/data/feats_fmllr_train.2.ark:9180182
msah1_si1679 quick_test/data-fmllr-tri3/train/data/feats_fmllr_train.9.ark:11139399
mjjj0_si1793 quick_test/data-fmllr-tri3/train/data/feats_fmllr_train.6.ark:12818077
fdkn0_si1711 quick_test/data-fmllr-tri3/train/data/feats_fmllr_train.1.ark:10964385
mcdr0_sx254 quick_test/data-fmllr-tri3/train/data/feats_fmllr_train.4.ark:9968324
fjsk0_sx242 quick_test/data-fmllr-tri3/train/data/feats_fmllr_train.2.ark:3458183
msem1_si2070 quick_test/data-fmllr-tri3/train/data/feats_fmllr_train.9.ark:13710842
fskp0_si1098 quick_test/data-fmllr-tri3/train/data/feats_fmllr_train.3.ark:10735311
mkdt0_sx353 quick_test/data-fmllr-tri3/train/data/feats_fmllr_train.7.ark:6578499
fpls0_sx3 quick_test/data-fmllr-tri3/train/data/feats_fmllr_train.3.ark:3441083
mmws1_si1071 quick_test/data-fmllr-tri3/train/data/feats_fmllr_train.8.ark:4306722
mcss0_si688 quick_test/data-fmllr-tri3/train/data/feats_fmllr_train.4.ark:12901019
mkls1_sx105 quick_test/data-fmllr-tri3/train/data/feats_fmllr_train.7.ark:8780229
mmwb0_sx449 quick_test/data-fmllr-tri3/train/data/feats_fmllr_train.8.ark:3816372
mbsb0_sx273 quick_test/data-fmllr-tri3/train/data/feats_fmllr_train.4.ark:7181050
mwre0_sx427 quick_test/data-fmllr-tri3/train/data/feats_fmllr_train.10.ark:16316119
mmea0_si1388 quick_test/data-fmllr-tri3/train/data/feats_fmllr_train.7.ark:17323963
mpgr1_sx329 quick_test/data-fmllr-tri3/train/data/feats_fmllr_train.8.ark:7745289
mkls1_sx375 quick_test/data-fmllr-tri3/train/data/feats_fmllr_train.7.ark:8939376
mses0_sx59 quick_test/data-fmllr-tri3/train/data/feats_fmllr_train.9.ark:14475541
mmpm0_sx251 quick_test/data-fmllr-tri3/train/data/feats_fmllr_train.8.ark:1955770
mdlm0_sx64 quick_test/data-fmllr-tri3/train/data/feats_fmllr_train.5.ark:4616350
mtml0_sx75 quick_test/data-fmllr-tri3/train/data/feats_fmllr_train.10.ark:7603149
mpeb0_sx150 quick_test/data-fmllr-tri3/train/data/feats_fmllr_train.8.ark:6184527
frjb0_si1427 quick_test/data-fmllr-tri3/train/data/feats_fmllr_train.3.ark:4352158
mwsb0_si2256 quick_test/data-fmllr-tri3/train/data/feats_fmllr_train.10.ark:16839937
fmkf0_sx366 quick_test/data-fmllr-tri3/train/data/feats_fmllr_train.2.ark:17384530
mreh1_sx69 quick_test/data-fmllr-tri3/train/data/feats_fmllr_train.8.ark:15912085
fclt0_sx88 quick_test/data-fmllr-tri3/train/data/feats_fmllr_train.1.ark:7724962
mwsh0_sx256 quick_test/data-fmllr-tri3/train/data/feats_fmllr_train.10.ark:17387113
mcpm0_sx24 quick_test/data-fmllr-tri3/train/data/feats_fmllr_train.4.ark:12355413
fpad0_si716 quick_test/data-fmllr-tri3/train/data/feats_fmllr_train.3.ark:1700135
msrr0_sx411 quick_test/data-fmllr-tri3/train/data/feats_fmllr_train.9.ark:17633569
mgrp0_sx417 quick_test/data-fmllr-tri3/train/data/feats_fmllr_train.6.ark:2202223
mrab0_sx234 quick_test/data-fmllr-tri3/train/data/feats_fmllr_train.8.ark:11114837
fpjf0_si1676 quick_test/data-fmllr-tri3/train/data/feats_fmllr_train.3.ark:2938227
fklc0_si985 quick_test/data-fmllr-tri3/train/data/feats_fmllr_train.2.ark:7365899
mdrd0_sx302 quick_test/data-fmllr-tri3/train/data/feats_fmllr_train.5.ark:8054091
mmag0_sx46 quick_test/data-fmllr-tri3/train/data/feats_fmllr_train.7.ark:13810141
mpeb0_sx60 quick_test/data-fmllr-tri3/train/data/feats_fmllr_train.8.ark:6365114
mfwk0_si619 quick_test/data-fmllr-tri3/train/data/feats_fmllr_train.5.ark:15202187
fjxm0_si581 quick_test/data-fmllr-tri3/train/data/feats_fmllr_train.2.ark:4480219
mjde0_sx310 quick_test/data-fmllr-tri3/train/data/feats_fmllr_train.6.ark:9067694
fpls0_sx240 quick_test/data-fmllr-tri3/train/data/feats_fmllr_train.3.ark:3394338
mded0_sx180 quick_test/data-fmllr-tri3/train/data/feats_fmllr_train.4.ark:17174498
mhbs0_sx315 quick_test/data-fmllr-tri3/train/data/feats_fmllr_train.6.ark:3798098
fsah0_sx74 quick_test/data-fmllr-tri3/train/data/feats_fmllr_train.3.ark:5914918
mgrp0_si1947 quick_test/data-fmllr-tri3/train/data/feats_fmllr_train.6.ark:1944808
mdrd0_sx212 quick_test/data-fmllr-tri3/train/data/feats_fmllr_train.5.ark:7995664
mmws1_sx351 quick_test/data-fmllr-tri3/train/data/feats_fmllr_train.8.ark:4495658
mdhs0_sx180 quick_test/data-fmllr-tri3/train/data/feats_fmllr_train.5.ark:1355786
fpaz0_sx243 quick_test/data-fmllr-tri3/train/data/feats_fmllr_train.3.ark:2652784
fajw0_si1893 quick_test/data-fmllr-tri3/train/data/feats_fmllr_train.1.ark:469858
mtcs0_si1972 quick_test/data-fmllr-tri3/train/data/feats_fmllr_train.10.ark:2446435
msfv0_sx92 quick_test/data-fmllr-tri3/train/data/feats_fmllr_train.9.ark:15360775
msmc0_sx287 quick_test/data-fmllr-tri3/train/data/feats_fmllr_train.9.ark:16123741
frjb0_sx437 quick_test/data-fmllr-tri3/train/data/feats_fmllr_train.3.ark:4597762
mrmb0_si2211 quick_test/data-fmllr-tri3/train/data/feats_fmllr_train.9.ark:5188780
fjwb1_si2055 quick_test/data-fmllr-tri3/train/data/feats_fmllr_train.2.ark:4039308
fsma0_si991 quick_test/data-fmllr-tri3/train/data/feats_fmllr_train.3.ark:11561401
mdlc2_sx444 quick_test/data-fmllr-tri3/train/data/feats_fmllr_train.5.ark:3817011
mwem0_si1950 quick_test/data-fmllr-tri3/train/data/feats_fmllr_train.10.ark:15337496
mkxl0_sx105 quick_test/data-fmllr-tri3/train/data/feats_fmllr_train.7.ark:9931441
mstf0_si1396 quick_test/data-fmllr-tri3/train/data/feats_fmllr_train.9.ark:17729943
mpeb0_si600 quick_test/data-fmllr-tri3/train/data/feats_fmllr_train.8.ark:6117620
mkjo0_sx77 quick_test/data-fmllr-tri3/train/data/feats_fmllr_train.7.ark:7455146
mcdc0_sx32 quick_test/data-fmllr-tri3/train/data/feats_fmllr_train.4.ark:9256103
fksr0_sx37 quick_test/data-fmllr-tri3/train/data/feats_fmllr_train.2.ark:8776738
mrpc1_si1482 quick_test/data-fmllr-tri3/train/data/feats_fmllr_train.9.ark:7091440
mjfr0_si1605 quick_test/data-fmllr-tri3/train/data/feats_fmllr_train.6.ark:11522678
mfrm0_si1785 quick_test/data-fmllr-tri3/train/data/feats_fmllr_train.5.ark:14858930
msah1_si2309 quick_test/data-fmllr-tri3/train/data/feats_fmllr_train.9.ark:11162627
mcth0_sx219 quick_test/data-fmllr-tri3/train/data/feats_fmllr_train.4.ark:13423397
msmc0_si647 quick_test/data-fmllr-tri3/train/data/feats_fmllr_train.9.ark:15933234
mjpm0_sx108 quick_test/data-fmllr-tri3/train/data/feats_fmllr_train.6.ark:16610383
mrbc0_sx59 quick_test/data-fmllr-tri3/train/data/feats_fmllr_train.8.ark:13195684
mjxa0_sx247 quick_test/data-fmllr-tri3/train/data/feats_fmllr_train.7.ark:3426018
mwar0_si1045 quick_test/data-fmllr-tri3/train/data/feats_fmllr_train.10.ark:14170707
mrgm0_sx172 quick_test/data-fmllr-tri3/train/data/feats_fmllr_train.8.ark:17673703
mrcw0_sx201 quick_test/data-fmllr-tri3/train/data/feats_fmllr_train.8.ark:13901958
fbcg1_sx82 quick_test/data-fmllr-tri3/train/data/feats_fmllr_train.1.ark:2808221
mjkr0_si1831 quick_test/data-fmllr-tri3/train/data/feats_fmllr_train.6.ark:13615791
fklc1_si1048 quick_test/data-fmllr-tri3/train/data/feats_fmllr_train.2.ark:7709261
mejs0_sx430 quick_test/data-fmllr-tri3/train/data/feats_fmllr_train.5.ark:12897737
mbar0_sx149 quick_test/data-fmllr-tri3/train/data/feats_fmllr_train.4.ark:3512771
fgdp0_sx448 quick_test/data-fmllr-tri3/train/data/feats_fmllr_train.1.ark:16933294
fpaf0_sx244 quick_test/data-fmllr-tri3/train/data/feats_fmllr_train.3.ark:2235447
fnkl0_si2152 quick_test/data-fmllr-tri3/train/data/feats_fmllr_train.3.ark:40521
mjae0_si2154 quick_test/data-fmllr-tri3/train/data/feats_fmllr_train.6.ark:6947808
fdmy0_sx297 quick_test/data-fmllr-tri3/train/data/feats_fmllr_train.1.ark:12031166
mgaw0_sx85 quick_test/data-fmllr-tri3/train/data/feats_fmllr_train.6.ark:716580
mlns0_sx147 quick_test/data-fmllr-tri3/train/data/feats_fmllr_train.7.ark:11966286
mwch0_sx92 quick_test/data-fmllr-tri3/train/data/feats_fmllr_train.10.ark:14825035
mfwk0_si1249 quick_test/data-fmllr-tri3/train/data/feats_fmllr_train.5.ark:15124372
mchl0_sx267 quick_test/data-fmllr-tri3/train/data/feats_fmllr_train.4.ark:11182576
mdlh0_sx430 quick_test/data-fmllr-tri3/train/data/feats_fmllr_train.5.ark:4228587
fjxp0_sx312 quick_test/data-fmllr-tri3/train/data/feats_fmllr_train.2.ark:5058277
mcth0_si579 quick_test/data-fmllr-tri3/train/data/feats_fmllr_train.4.ark:13323183
mbma1_sx414 quick_test/data-fmllr-tri3/train/data/feats_fmllr_train.4.ark:6224451
mdcm0_si850 quick_test/data-fmllr-tri3/train/data/feats_fmllr_train.4.ark:16382197
mdbb1_si2056 quick_test/data-fmllr-tri3/train/data/feats_fmllr_train.4.ark:15208106
mmjb1_sx418 quick_test/data-fmllr-tri3/train/data/feats_fmllr_train.8.ark:1327229
mejs0_sx160 quick_test/data-fmllr-tri3/train/data/feats_fmllr_train.5.ark:12749336
mdwh0_sx35 quick_test/data-fmllr-tri3/train/data/feats_fmllr_train.5.ark:10286460
mjxa0_sx427 quick_test/data-fmllr-tri3/train/data/feats_fmllr_train.7.ark:3526392
fjlr0_sx151 quick_test/data-fmllr-tri3/train/data/feats_fmllr_train.2.ark:2135264
fkfb0_sx348 quick_test/data-fmllr-tri3/train/data/feats_fmllr_train.2.ark:6690026
mdns0_si1011 quick_test/data-fmllr-tri3/train/data/feats_fmllr_train.5.ark:6279327
mtjm0_sx56 quick_test/data-fmllr-tri3/train/data/feats_fmllr_train.10.ark:4806269
mpar0_sx136 quick_test/data-fmllr-tri3/train/data/feats_fmllr_train.8.ark:5860150
fjrb0_si672 quick_test/data-fmllr-tri3/train/data/feats_fmllr_train.2.ark:2480734
mlns0_sx327 quick_test/data-fmllr-tri3/train/data/feats_fmllr_train.7.ark:12031300
msds0_si2337 quick_test/data-fmllr-tri3/train/data/feats_fmllr_train.9.ark:13337052
mdma0_si2060 quick_test/data-fmllr-tri3/train/data/feats_fmllr_train.5.ark:5557668
mmds0_sx173 quick_test/data-fmllr-tri3/train/data/feats_fmllr_train.7.ark:17130068
mewm0_si1978 quick_test/data-fmllr-tri3/train/data/feats_fmllr_train.5.ark:13729611
fsjk1_sx35 quick_test/data-fmllr-tri3/train/data/feats_fmllr_train.3.ark:9086868
frll0_si805 quick_test/data-fmllr-tri3/train/data/feats_fmllr_train.3.ark:4743443
mram0_si1275 quick_test/data-fmllr-tri3/train/data/feats_fmllr_train.8.ark:12136659
msmr0_sx325 quick_test/data-fmllr-tri3/train/data/feats_fmllr_train.9.ark:16480092
fdas1_sx381 quick_test/data-fmllr-tri3/train/data/feats_fmllr_train.1.ark:9692768
msvs0_sx128 quick_test/data-fmllr-tri3/train/data/feats_fmllr_train.10.ark:200255
fjxm0_sx41 quick_test/data-fmllr-tri3/train/data/feats_fmllr_train.2.ark:4761313
mrwa0_sx73 quick_test/data-fmllr-tri3/train/data/feats_fmllr_train.9.ark:10333629
mrtc0_sx378 quick_test/data-fmllr-tri3/train/data/feats_fmllr_train.9.ark:9123538
mgjc0_si1256 quick_test/data-fmllr-tri3/train/data/feats_fmllr_train.6.ark:1075385
mrso0_si2289 quick_test/data-fmllr-tri3/train/data/feats_fmllr_train.9.ark:8022970
fvfb0_sx312 quick_test/data-fmllr-tri3/train/data/feats_fmllr_train.3.ark:15971069
mcew0_si1442 quick_test/data-fmllr-tri3/train/data/feats_fmllr_train.4.ark:10485769
mcdr0_si1784 quick_test/data-fmllr-tri3/train/data/feats_fmllr_train.4.ark:9753523
mbef0_si1911 quick_test/data-fmllr-tri3/train/data/feats_fmllr_train.4.ark:4524728
fbch0_si956 quick_test/data-fmllr-tri3/train/data/feats_fmllr_train.1.ark:2909236
mkls1_si2175 quick_test/data-fmllr-tri3/train/data/feats_fmllr_train.7.ark:8673135
mrre0_sx164 quick_test/data-fmllr-tri3/train/data/feats_fmllr_train.9.ark:7632379
flhd0_si1827 quick_test/data-fmllr-tri3/train/data/feats_fmllr_train.2.ark:10463130
mpgh0_si1554 quick_test/data-fmllr-tri3/train/data/feats_fmllr_train.8.ark:6819919
mrtc0_sx288 quick_test/data-fmllr-tri3/train/data/feats_fmllr_train.9.ark:9068471
mdbp0_si1158 quick_test/data-fmllr-tri3/train/data/feats_fmllr_train.4.ark:15474348
mrpc1_si2026 quick_test/data-fmllr-tri3/train/data/feats_fmllr_train.9.ark:7143468
mafm0_sx129 quick_test/data-fmllr-tri3/train/data/feats_fmllr_train.4.ark:850450
mlns0_sx237 quick_test/data-fmllr-tri3/train/data/feats_fmllr_train.7.ark:12005993
mrvg0_si510 quick_test/data-fmllr-tri3/train/data/feats_fmllr_train.9.ark:9743358
msrg0_sx231 quick_test/data-fmllr-tri3/train/data/feats_fmllr_train.9.ark:17180979
mntw0_sx78 quick_test/data-fmllr-tri3/train/data/feats_fmllr_train.8.ark:5697640
fmkf0_sx96 quick_test/data-fmllr-tri3/train/data/feats_fmllr_train.2.ark:17483781
fjdm2_sx412 quick_test/data-fmllr-tri3/train/data/feats_fmllr_train.2.ark:317937
mjls0_sx106 quick_test/data-fmllr-tri3/train/data/feats_fmllr_train.6.ark:14838577
fdnc0_sx18 quick_test/data-fmllr-tri3/train/data/feats_fmllr_train.1.ark:12379810
mjbg0_si1724 quick_test/data-fmllr-tri3/train/data/feats_fmllr_train.6.ark:7700374
mmam0_sx427 quick_test/data-fmllr-tri3/train/data/feats_fmllr_train.7.ark:14101533
mlsh0_sx157 quick_test/data-fmllr-tri3/train/data/feats_fmllr_train.7.ark:12338183
mmwb0_si2249 quick_test/data-fmllr-tri3/train/data/feats_fmllr_train.8.ark:3483917
mdcm0_sx400 quick_test/data-fmllr-tri3/train/data/feats_fmllr_train.4.ark:16606491
ftmg0_sx92 quick_test/data-fmllr-tri3/train/data/feats_fmllr_train.3.ark:15711544
fsms1_sx154 quick_test/data-fmllr-tri3/train/data/feats_fmllr_train.3.ark:12457062
mdlc1_si2144 quick_test/data-fmllr-tri3/train/data/feats_fmllr_train.5.ark:3334126
fcmm0_sx273 quick_test/data-fmllr-tri3/train/data/feats_fmllr_train.1.ark:8376837
fetb0_si1148 quick_test/data-fmllr-tri3/train/data/feats_fmllr_train.1.ark:15416959
mkln0_sx248 quick_test/data-fmllr-tri3/train/data/feats_fmllr_train.7.ark:7677363
mppc0_sx152 quick_test/data-fmllr-tri3/train/data/feats_fmllr_train.8.ark:8696389
mjjb0_sx419 quick_test/data-fmllr-tri3/train/data/feats_fmllr_train.6.ark:12641195
mjxl0_sx272 quick_test/data-fmllr-tri3/train/data/feats_fmllr_train.7.ark:3797755
mcth0_sx39 quick_test/data-fmllr-tri3/train/data/feats_fmllr_train.4.ark:13523130
fsdj0_si1745 quick_test/data-fmllr-tri3/train/data/feats_fmllr_train.3.ark:7648483
msms0_sx83 quick_test/data-fmllr-tri3/train/data/feats_fmllr_train.9.ark:16944042
mmdb0_sx447 quick_test/data-fmllr-tri3/train/data/feats_fmllr_train.7.ark:15755521
fkdw0_si1891 quick_test/data-fmllr-tri3/train/data/feats_fmllr_train.2.ark:6129701
fsjg0_sx220 quick_test/data-fmllr-tri3/train/data/feats_fmllr_train.3.ark:8545798
mges0_si1481 quick_test/data-fmllr-tri3/train/data/feats_fmllr_train.6.ark:751328
mwdk0_si1436 quick_test/data-fmllr-tri3/train/data/feats_fmllr_train.10.ark:14865863
mrdm0_sx335 quick_test/data-fmllr-tri3/train/data/feats_fmllr_train.8.ark:14653940
mrlj0_sx340 quick_test/data-fmllr-tri3/train/data/feats_fmllr_train.9.ark:3951379
fsag0_sx243 quick_test/data-fmllr-tri3/train/data/feats_fmllr_train.3.ark:5283901
mrdm0_si1595 quick_test/data-fmllr-tri3/train/data/feats_fmllr_train.8.ark:14477032
mjrh1_sx154 quick_test/data-fmllr-tri3/train/data/feats_fmllr_train.7.ark:547833
mejs0_sx340 quick_test/data-fmllr-tri3/train/data/feats_fmllr_train.5.ark:12855630
mhxl0_sx152 quick_test/data-fmllr-tri3/train/data/feats_fmllr_train.6.ark:5853906
mrtj0_sx412 quick_test/data-fmllr-tri3/train/data/feats_fmllr_train.9.ark:9549969
mejs0_sx70 quick_test/data-fmllr-tri3/train/data/feats_fmllr_train.5.ark:12958403
mrab1_sx218 quick_test/data-fmllr-tri3/train/data/feats_fmllr_train.8.ark:11517774
msas0_si746 quick_test/data-fmllr-tri3/train/data/feats_fmllr_train.9.ark:11557084
mrmb0_sx51 quick_test/data-fmllr-tri3/train/data/feats_fmllr_train.9.ark:5470381
flet0_si1767 quick_test/data-fmllr-tri3/train/data/feats_fmllr_train.2.ark:10101633
mwsb0_sx186 quick_test/data-fmllr-tri3/train/data/feats_fmllr_train.10.ark:16945271
mjlb0_sx86 quick_test/data-fmllr-tri3/train/data/feats_fmllr_train.6.ark:14267369
fbas0_si2066 quick_test/data-fmllr-tri3/train/data/feats_fmllr_train.1.ark:2181150
mrwa0_si1603 quick_test/data-fmllr-tri3/train/data/feats_fmllr_train.9.ark:10002560
fblv0_sx158 quick_test/data-fmllr-tri3/train/data/feats_fmllr_train.1.ark:3857085
mrms0_sx300 quick_test/data-fmllr-tri3/train/data/feats_fmllr_train.9.ark:7016185
mrso0_si1659 quick_test/data-fmllr-tri3/train/data/feats_fmllr_train.9.ark:7963422
flmc0_sx292 quick_test/data-fmllr-tri3/train/data/feats_fmllr_train.2.ark:13040860
mjee0_si607 quick_test/data-fmllr-tri3/train/data/feats_fmllr_train.6.ark:10931259
mtqc0_sx181 quick_test/data-fmllr-tri3/train/data/feats_fmllr_train.10.ark:10151121
mjda0_sx311 quick_test/data-fmllr-tri3/train/data/feats_fmllr_train.6.ark:8217981
mjxl0_sx362 quick_test/data-fmllr-tri3/train/data/feats_fmllr_train.7.ark:3842582
fdfb0_si1948 quick_test/data-fmllr-tri3/train/data/feats_fmllr_train.1.ark:10205682
mtpg0_sx393 quick_test/data-fmllr-tri3/train/data/feats_fmllr_train.10.ark:9120657
ftlg0_sx123 quick_test/data-fmllr-tri3/train/data/feats_fmllr_train.3.ark:15164980
mdlm0_si1864 quick_test/data-fmllr-tri3/train/data/feats_fmllr_train.5.ark:4364189
msat0_sx266 quick_test/data-fmllr-tri3/train/data/feats_fmllr_train.9.ark:12012395
mdma0_sx80 quick_test/data-fmllr-tri3/train/data/feats_fmllr_train.5.ark:5889962
mcae0_sx7 quick_test/data-fmllr-tri3/train/data/feats_fmllr_train.4.ark:8502070
fjrp1_sx172 quick_test/data-fmllr-tri3/train/data/feats_fmllr_train.2.ark:2942258
fecd0_si1418 quick_test/data-fmllr-tri3/train/data/feats_fmllr_train.1.ark:14136308
medr0_sx384 quick_test/data-fmllr-tri3/train/data/feats_fmllr_train.5.ark:11386819
mtas0_sx35 quick_test/data-fmllr-tri3/train/data/feats_fmllr_train.10.ark:1167489
milb0_sx363 quick_test/data-fmllr-tri3/train/data/feats_fmllr_train.6.ark:6395801
mcae0_si2077 quick_test/data-fmllr-tri3/train/data/feats_fmllr_train.4.ark:8199057
mrew1_sx150 quick_test/data-fmllr-tri3/train/data/feats_fmllr_train.8.ark:16467611
mtpf0_si605 quick_test/data-fmllr-tri3/train/data/feats_fmllr_train.10.ark:8541906
majp0_si1074 quick_test/data-fmllr-tri3/train/data/feats_fmllr_train.4.ark:1061785
mjls0_sx286 quick_test/data-fmllr-tri3/train/data/feats_fmllr_train.6.ark:14947617
mtdb0_sx51 quick_test/data-fmllr-tri3/train/data/feats_fmllr_train.10.ark:3177561
mtrr0_sx18 quick_test/data-fmllr-tri3/train/data/feats_fmllr_train.10.ark:10994620
mcae0_sx97 quick_test/data-fmllr-tri3/train/data/feats_fmllr_train.4.ark:8563216
mctm0_si720 quick_test/data-fmllr-tri3/train/data/feats_fmllr_train.4.ark:13742760
mbef0_si1281 quick_test/data-fmllr-tri3/train/data/feats_fmllr_train.4.ark:4472700
fjsk0_sx422 quick_test/data-fmllr-tri3/train/data/feats_fmllr_train.2.ark:3558237
mrfk0_si1076 quick_test/data-fmllr-tri3/train/data/feats_fmllr_train.8.ark:16712386
fklc1_sx148 quick_test/data-fmllr-tri3/train/data/feats_fmllr_train.2.ark:7841024
mmwb0_si989 quick_test/data-fmllr-tri3/train/data/feats_fmllr_train.8.ark:3577864
mhmg0_sx195 quick_test/data-fmllr-tri3/train/data/feats_fmllr_train.6.ark:4844029
faem0_sx42 quick_test/data-fmllr-tri3/train/data/feats_fmllr_train.1.ark:354602
mmcc0_sx258 quick_test/data-fmllr-tri3/train/data/feats_fmllr_train.7.ark:15285330
msat0_sx446 quick_test/data-fmllr-tri3/train/data/feats_fmllr_train.9.ark:12079969
fjlr0_sx331 quick_test/data-fmllr-tri3/train/data/feats_fmllr_train.2.ark:2232438
mkag0_sx79 quick_test/data-fmllr-tri3/train/data/feats_fmllr_train.7.ark:4375491
mrdd0_sx150 quick_test/data-fmllr-tri3/train/data/feats_fmllr_train.8.ark:14194789
mdlc1_sx265 quick_test/data-fmllr-tri3/train/data/feats_fmllr_train.5.ark:3421060
mgjc0_sx435 quick_test/data-fmllr-tri3/train/data/feats_fmllr_train.6.ark:1387229
fsmm0_si684 quick_test/data-fmllr-tri3/train/data/feats_fmllr_train.3.ark:11981298
mctm0_sx450 quick_test/data-fmllr-tri3/train/data/feats_fmllr_train.4.ark:13904948
mrds0_sx447 quick_test/data-fmllr-tri3/train/data/feats_fmllr_train.8.ark:15059784
mwem0_si1320 quick_test/data-fmllr-tri3/train/data/feats_fmllr_train.10.ark:15248000
fbas0_sx217 quick_test/data-fmllr-tri3/train/data/feats_fmllr_train.1.ark:2311124
mtpf0_sx425 quick_test/data-fmllr-tri3/train/data/feats_fmllr_train.10.ark:8751774
mrjb1_si1413 quick_test/data-fmllr-tri3/train/data/feats_fmllr_train.9.ark:841273
mdwm0_sx286 quick_test/data-fmllr-tri3/train/data/feats_fmllr_train.5.ark:10623930
mrml0_si791 quick_test/data-fmllr-tri3/train/data/feats_fmllr_train.9.ark:6372180
mgsh0_sx96 quick_test/data-fmllr-tri3/train/data/feats_fmllr_train.6.ark:2664064
mgrp0_sx237 quick_test/data-fmllr-tri3/train/data/feats_fmllr_train.6.ark:2094489
mwsh0_sx166 quick_test/data-fmllr-tri3/train/data/feats_fmllr_train.10.ark:17320686
mprt0_sx310 quick_test/data-fmllr-tri3/train/data/feats_fmllr_train.8.ark:10507550
mtxs0_sx340 quick_test/data-fmllr-tri3/train/data/feats_fmllr_train.10.ark:12178020
mgsh0_sx186 quick_test/data-fmllr-tri3/train/data/feats_fmllr_train.6.ark:2530706
mgsl0_si797 quick_test/data-fmllr-tri3/train/data/feats_fmllr_train.6.ark:2809906
mlel0_sx346 quick_test/data-fmllr-tri3/train/data/feats_fmllr_train.7.ark:10786329
fpac0_sx211 quick_test/data-fmllr-tri3/train/data/feats_fmllr_train.3.ark:1428292
mtat0_sx120 quick_test/data-fmllr-tri3/train/data/feats_fmllr_train.10.ark:1429386
mfwk0_sx259 quick_test/data-fmllr-tri3/train/data/feats_fmllr_train.5.ark:15288961
mtjg0_sx170 quick_test/data-fmllr-tri3/train/data/feats_fmllr_train.10.ark:4200345
mrbc0_sx239 quick_test/data-fmllr-tri3/train/data/feats_fmllr_train.8.ark:13038644
mrlj1_sx231 quick_test/data-fmllr-tri3/train/data/feats_fmllr_train.9.ark:4245810
fceg0_si618 quick_test/data-fmllr-tri3/train/data/feats_fmllr_train.1.ark:6152920
frjb0_si1794 quick_test/data-fmllr-tri3/train/data/feats_fmllr_train.3.ark:4418454
mrso0_si1206 quick_test/data-fmllr-tri3/train/data/feats_fmllr_train.9.ark:7875074
mjrk0_si1662 quick_test/data-fmllr-tri3/train/data/feats_fmllr_train.7.ark:765888
fsrh0_si1719 quick_test/data-fmllr-tri3/train/data/feats_fmllr_train.3.ark:13120614
mfrm0_sx75 quick_test/data-fmllr-tri3/train/data/feats_fmllr_train.5.ark:15087064
msds0_sx177 quick_test/data-fmllr-tri3/train/data/feats_fmllr_train.9.ark:13396439
mmds0_sx353 quick_test/data-fmllr-tri3/train/data/feats_fmllr_train.7.ark:17209002
fkkh0_si1290 quick_test/data-fmllr-tri3/train/data/feats_fmllr_train.2.ark:6890107
mjwt0_sx301 quick_test/data-fmllr-tri3/train/data/feats_fmllr_train.7.ark:3115908
fbmh0_si1766 quick_test/data-fmllr-tri3/train/data/feats_fmllr_train.1.ark:4153888
mjxl0_si1172 quick_test/data-fmllr-tri3/train/data/feats_fmllr_train.7.ark:3610126
mdwm0_si2176 quick_test/data-fmllr-tri3/train/data/feats_fmllr_train.5.ark:10437103
mjac0_sx307 quick_test/data-fmllr-tri3/train/data/feats_fmllr_train.6.ark:6683164
mjxa0_sx157 quick_test/data-fmllr-tri3/train/data/feats_fmllr_train.7.ark:3392071
mjbg0_sx242 quick_test/data-fmllr-tri3/train/data/feats_fmllr_train.6.ark:7820616
fjwb1_si795 quick_test/data-fmllr-tri3/train/data/feats_fmllr_train.2.ark:4145122
mwdk0_sx86 quick_test/data-fmllr-tri3/train/data/feats_fmllr_train.10.ark:15210212
mrfl0_si1156 quick_test/data-fmllr-tri3/train/data/feats_fmllr_train.8.ark:17052284
mdas0_sx276 quick_test/data-fmllr-tri3/train/data/feats_fmllr_train.4.ark:14999011
mjdm0_sx260 quick_test/data-fmllr-tri3/train/data/feats_fmllr_train.6.ark:9827782
fcdr1_si1816 quick_test/data-fmllr-tri3/train/data/feats_fmllr_train.1.ark:5667716
madd0_si538 quick_test/data-fmllr-tri3/train/data/feats_fmllr_train.3.ark:17676873
maeb0_si990 quick_test/data-fmllr-tri3/train/data/feats_fmllr_train.4.ark:105828
mwar0_sx325 quick_test/data-fmllr-tri3/train/data/feats_fmllr_train.10.ark:14414204
fetb0_si1778 quick_test/data-fmllr-tri3/train/data/feats_fmllr_train.1.ark:15457787
mrds0_si537 quick_test/data-fmllr-tri3/train/data/feats_fmllr_train.8.ark:14869436
fkdw0_si1207 quick_test/data-fmllr-tri3/train/data/feats_fmllr_train.2.ark:6053993
fmem0_si2007 quick_test/data-fmllr-tri3/train/data/feats_fmllr_train.2.ark:15152617
milb0_sx3 quick_test/data-fmllr-tri3/train/data/feats_fmllr_train.6.ark:6364894
fsms1_si2134 quick_test/data-fmllr-tri3/train/data/feats_fmllr_train.3.ark:12357968
fmpg0_sx432 quick_test/data-fmllr-tri3/train/data/feats_fmllr_train.2.ark:18300347
mrcw0_sx111 quick_test/data-fmllr-tri3/train/data/feats_fmllr_train.8.ark:13866891
mjrp0_si1845 quick_test/data-fmllr-tri3/train/data/feats_fmllr_train.7.ark:1141493
flag0_sx24 quick_test/data-fmllr-tri3/train/data/feats_fmllr_train.2.ark:9512825
fjrb0_sx222 quick_test/data-fmllr-tri3/train/data/feats_fmllr_train.2.ark:2543028
mpgr0_sx60 quick_test/data-fmllr-tri3/train/data/feats_fmllr_train.8.ark:7457284
mbgt0_si1841 quick_test/data-fmllr-tri3/train/data/feats_fmllr_train.4.ark:4811345
mrgs0_sx366 quick_test/data-fmllr-tri3/train/data/feats_fmllr_train.9.ark:257589
fmem0_si747 quick_test/data-fmllr-tri3/train/data/feats_fmllr_train.2.ark:15209124
mewm0_si718 quick_test/data-fmllr-tri3/train/data/feats_fmllr_train.5.ark:13751398
flod0_sx171 quick_test/data-fmllr-tri3/train/data/feats_fmllr_train.2.ark:13766709
mvlo0_si517 quick_test/data-fmllr-tri3/train/data/feats_fmllr_train.10.ark:12786053
mwsb0_sx366 quick_test/data-fmllr-tri3/train/data/feats_fmllr_train.10.ark:17009805
fbas0_si1387 quick_test/data-fmllr-tri3/train/data/feats_fmllr_train.1.ark:2053414
mdma0_sx440 quick_test/data-fmllr-tri3/train/data/feats_fmllr_train.5.ark:5815696
mapv0_si1293 quick_test/data-fmllr-tri3/train/data/feats_fmllr_train.4.ark:2243558
fmah1_sx249 quick_test/data-fmllr-tri3/train/data/feats_fmllr_train.2.ark:14539465
mmea0_sx398 quick_test/data-fmllr-tri3/train/data/feats_fmllr_train.7.ark:17610552
feac0_sx75 quick_test/data-fmllr-tri3/train/data/feats_fmllr_train.1.ark:13703743
mfwk0_si1879 quick_test/data-fmllr-tri3/train/data/feats_fmllr_train.5.ark:15163120
mmgg0_sx449 quick_test/data-fmllr-tri3/train/data/feats_fmllr_train.8.ark:633835
mrws0_sx112 quick_test/data-fmllr-tri3/train/data/feats_fmllr_train.9.ark:10512939
mdss0_si2087 quick_test/data-fmllr-tri3/train/data/feats_fmllr_train.5.ark:8627377
mpmb0_si2131 quick_test/data-fmllr-tri3/train/data/feats_fmllr_train.8.ark:7992278
fsah0_sx164 quick_test/data-fmllr-tri3/train/data/feats_fmllr_train.3.ark:5714171
fkfb0_sx438 quick_test/data-fmllr-tri3/train/data/feats_fmllr_train.2.ark:6749093
mpfu0_sx448 quick_test/data-fmllr-tri3/train/data/feats_fmllr_train.8.ark:6705465
madd0_si1295 quick_test/data-fmllr-tri3/train/data/feats_fmllr_train.3.ark:17591378
mmws0_sx258 quick_test/data-fmllr-tri3/train/data/feats_fmllr_train.8.ark:4110934
mrdm0_sx245 quick_test/data-fmllr-tri3/train/data/feats_fmllr_train.8.ark:14613913
fdjh0_sx35 quick_test/data-fmllr-tri3/train/data/feats_fmllr_train.1.ark:10751314
megj0_sx167 quick_test/data-fmllr-tri3/train/data/feats_fmllr_train.5.ark:12010184
feeh0_sx32 quick_test/data-fmllr-tri3/train/data/feats_fmllr_train.1.ark:14896847
fsls0_sx156 quick_test/data-fmllr-tri3/train/data/feats_fmllr_train.3.ark:11261211
mcae0_si1447 quick_test/data-fmllr-tri3/train/data/feats_fmllr_train.4.ark:8108629
mdss0_si1881 quick_test/data-fmllr-tri3/train/data/feats_fmllr_train.5.ark:8596309
mchl0_sx357 quick_test/data-fmllr-tri3/train/data/feats_fmllr_train.4.ark:11236843
fpab1_sx211 quick_test/data-fmllr-tri3/train/data/feats_fmllr_train.3.ark:1006475
fltm0_sx80 quick_test/data-fmllr-tri3/train/data/feats_fmllr_train.2.ark:14304608
msvs0_sx218 quick_test/data-fmllr-tri3/train/data/feats_fmllr_train.10.ark:249402
makr0_sx272 quick_test/data-fmllr-tri3/train/data/feats_fmllr_train.4.ark:2098330
fhlm0_si2190 quick_test/data-fmllr-tri3/train/data/feats_fmllr_train.1.ark:17983571
flag0_sx294 quick_test/data-fmllr-tri3/train/data/feats_fmllr_train.2.ark:9558772
mbar0_si1319 quick_test/data-fmllr-tri3/train/data/feats_fmllr_train.4.ark:3375569
mtat1_sx149 quick_test/data-fmllr-tri3/train/data/feats_fmllr_train.10.ark:1772163
fecd0_sx158 quick_test/data-fmllr-tri3/train/data/feats_fmllr_train.1.ark:14348710
fsjs0_sx451 quick_test/data-fmllr-tri3/train/data/feats_fmllr_train.3.ark:9472846
mclk0_si650 quick_test/data-fmllr-tri3/train/data/feats_fmllr_train.4.ark:11457939
mdlc1_sx85 quick_test/data-fmllr-tri3/train/data/feats_fmllr_train.5.ark:3537940
frjb0_sx77 quick_test/data-fmllr-tri3/train/data/feats_fmllr_train.3.ark:4658108
