mreh1_sx69 quick_test/fbank/raw_fbank_train.4.ark:1844803
fpaz0_sx153 quick_test/fbank/raw_fbank_train.1.ark:10238561
mmxs0_si629 quick_test/fbank/raw_fbank_train.3.ark:10455830
fclt0_si2068 quick_test/fbank/raw_fbank_train.1.ark:1915359
flmk0_si1035 quick_test/fbank/raw_fbank_train.1.ark:8231708
fdas1_si1461 quick_test/fbank/raw_fbank_train.1.ark:2398811
fdtd0_si1561 quick_test/fbank/raw_fbank_train.1.ark:3235615
fmah1_sx69 quick_test/fbank/raw_fbank_train.1.ark:8606577
mrml0_sx161 quick_test/fbank/raw_fbank_train.4.ark:4024062
mdef0_si1563 quick_test/fbank/raw_fbank_train.2.ark:6807502
mmdg0_sx430 quick_test/fbank/raw_fbank_train.3.ark:8780586
fkaa0_sx398 quick_test/fbank/raw_fbank_train.1.ark:6267515
mhmg0_sx375 quick_test/fbank/raw_fbank_train.3.ark:1263821
mcal0_sx58 quick_test/fbank/raw_fbank_train.2.ark:4604566
mrfk0_sx176 quick_test/fbank/raw_fbank_train.4.ark:2083707
mmrp0_si774 quick_test/fbank/raw_fbank_train.3.ark:9829554
mctm0_sx450 quick_test/fbank/raw_fbank_train.2.ark:5885259
fmjf0_si1254 quick_test/fbank/raw_fbank_train.1.ark:8929764
fsah0_sx344 quick_test/fbank/raw_fbank_train.1.ark:11072465
mdns0_sx381 quick_test/fbank/raw_fbank_train.2.ark:8490701
mpeb0_si1860 quick_test/fbank/raw_fbank_train.3.ark:10825569
mpgr0_sx60 quick_test/fbank/raw_fbank_train.3.ark:11177440
fsjg0_sx310 quick_test/fbank/raw_fbank_train.1.ark:11789281
mkah0_sx268 quick_test/fbank/raw_fbank_train.3.ark:5816112
fbmh0_si1136 quick_test/fbank/raw_fbank_train.1.ark:1048380
mrld0_si964 quick_test/fbank/raw_fbank_train.4.ark:3261826
mrdd0_sx60 quick_test/fbank/raw_fbank_train.4.ark:1444982
fjrb0_si672 quick_test/fbank/raw_fbank_train.1.ark:5476736
mcef0_sx415 quick_test/fbank/raw_fbank_train.2.ark:4983914
mdmt0_si572 quick_test/fbank/raw_fbank_train.2.ark:8323032
mdhs0_si2160 quick_test/fbank/raw_fbank_train.2.ark:7108297
mkdb0_si872 quick_test/fbank/raw_fbank_train.3.ark:6078961
mbgt0_sx351 quick_test/fbank/raw_fbank_train.2.ark:3606734
mmdm1_sx423 quick_test/fbank/raw_fbank_train.3.ark:8976036
mgxp0_si1087 quick_test/fbank/raw_fbank_train.3.ark:808732
fclt0_sx178 quick_test/fbank/raw_fbank_train.1.ark:1938905
ftbr0_si921 quick_test/fbank/raw_fbank_train.2.ark:1369097
mrai0_sx162 quick_test/fbank/raw_fbank_train.4.ark:809738
mfxs0_si1674 quick_test/fbank/raw_fbank_train.2.ark:10775372
fskl0_sx449 quick_test/fbank/raw_fbank_train.2.ark:421698
flmc0_si742 quick_test/fbank/raw_fbank_train.1.ark:8157030
fklc0_sx85 quick_test/fbank/raw_fbank_train.1.ark:6808081
mfmc0_sx142 quick_test/fbank/raw_fbank_train.2.ark:10518316
mdrd0_sx122 quick_test/fbank/raw_fbank_train.2.ark:8828470
mjdm0_si974 quick_test/fbank/raw_fbank_train.3.ark:2500860
fbas0_sx127 quick_test/fbank/raw_fbank_train.1.ark:584755
mrjm1_sx128 quick_test/fbank/raw_fbank_train.4.ark:2949586
mjrk0_sx430 quick_test/fbank/raw_fbank_train.3.ark:4897235
fbcg1_sx82 quick_test/fbank/raw_fbank_train.1.ark:721111
frll0_si805 quick_test/fbank/raw_fbank_train.1.ark:10791283
mdcm0_sx310 quick_test/fbank/raw_fbank_train.2.ark:6558719
mjfr0_si975 quick_test/fbank/raw_fbank_train.3.ark:2988025
fmjb0_sx277 quick_test/fbank/raw_fbank_train.1.ark:8884394
mmds0_si1973 quick_test/fbank/raw_fbank_train.3.ark:9018056
mrlk0_si2140 quick_test/fbank/raw_fbank_train.4.ark:3520149
mtas0_sx125 quick_test/fbank/raw_fbank_train.4.ark:7306146
mrld0_si1594 quick_test/fbank/raw_fbank_train.4.ark:3239599
fcmg0_sx342 quick_test/fbank/raw_fbank_train.1.ark:2066397
fjrb0_sx42 quick_test/fbank/raw_fbank_train.1.ark:5540180
mjjb0_sx419 quick_test/fbank/raw_fbank_train.3.ark:3251047
mhjb0_sx297 quick_test/fbank/raw_fbank_train.3.ark:1167003
mmgc0_sx405 quick_test/fbank/raw_fbank_train.3.ark:9329015
mvrw0_sx405 quick_test/fbank/raw_fbank_train.4.ark:10462061
mmam0_sx427 quick_test/fbank/raw_fbank_train.3.ark:8253701
fmjf0_si1884 quick_test/fbank/raw_fbank_train.1.ark:8939478
mrjm0_sx418 quick_test/fbank/raw_fbank_train.4.ark:2880660
msdb0_si1637 quick_test/fbank/raw_fbank_train.4.ark:5606680
feac0_si615 quick_test/fbank/raw_fbank_train.1.ark:3453053
fsjs0_si1801 quick_test/fbank/raw_fbank_train.2.ark:52378
mjma0_sx145 quick_test/fbank/raw_fbank_train.3.ark:3916764
mreh1_sx429 quick_test/fbank/raw_fbank_train.4.ark:1831531
mpfu0_si1258 quick_test/fbank/raw_fbank_train.3.ark:10909360
mhbs0_sx315 quick_test/fbank/raw_fbank_train.3.ark:976200
fcdr1_si1186 quick_test/fbank/raw_fbank_train.1.ark:1433240
madc0_sx197 quick_test/fbank/raw_fbank_train.2.ark:2174275
flma0_sx433 quick_test/fbank/raw_fbank_train.1.ark:8109777
mvrw0_sx135 quick_test/fbank/raw_fbank_train.4.ark:10434242
msah1_sx149 quick_test/fbank/raw_fbank_train.4.ark:5250245
msfv0_sx362 quick_test/fbank/raw_fbank_train.4.ark:6288205
mdlr1_si669 quick_test/fbank/raw_fbank_train.2.ark:8112581
fdaw0_sx146 quick_test/fbank/raw_fbank_train.1.ark:2551617
mrds0_sx177 quick_test/fbank/raw_fbank_train.4.ark:1591741
fhxs0_sx85 quick_test/fbank/raw_fbank_train.1.ark:4827481
mdwd0_si557 quick_test/fbank/raw_fbank_train.2.ark:9283963
mrmh0_si1021 quick_test/fbank/raw_fbank_train.4.ark:3886016
mcae0_sx367 quick_test/fbank/raw_fbank_train.2.ark:4480558
fjxp0_sx312 quick_test/fbank/raw_fbank_train.1.ark:6138785
mhbs0_sx135 quick_test/fbank/raw_fbank_train.3.ark:956614
mdbb1_si1006 quick_test/fbank/raw_fbank_train.2.ark:6197597
mrxb0_sx145 quick_test/fbank/raw_fbank_train.4.ark:5167579
mjws0_sx63 quick_test/fbank/raw_fbank_train.3.ark:5342046
mhmg0_si1995 quick_test/fbank/raw_fbank_train.3.ark:1196064
fsjs0_sx451 quick_test/fbank/raw_fbank_train.2.ark:121743
flma0_si613 quick_test/fbank/raw_fbank_train.1.ark:8067645
mtml0_sx165 quick_test/fbank/raw_fbank_train.4.ark:8935987
fsbk0_sx439 quick_test/fbank/raw_fbank_train.1.ark:11278269
mcre0_sx401 quick_test/fbank/raw_fbank_train.2.ark:5582985
fpmy0_sx253 quick_test/fbank/raw_fbank_train.1.ark:10563420
msfh0_sx406 quick_test/fbank/raw_fbank_train.4.ark:6191573
fhxs0_sx175 quick_test/fbank/raw_fbank_train.1.ark:4775550
fsmm0_si684 quick_test/fbank/raw_fbank_train.2.ark:766867
msas0_sx296 quick_test/fbank/raw_fbank_train.4.ark:5396288
mjhi0_sx158 quick_test/fbank/raw_fbank_train.3.ark:3115642
fljg0_sx171 quick_test/fbank/raw_fbank_train.1.ark:7858309
fear0_sx442 quick_test/fbank/raw_fbank_train.1.ark:3608410
mdas0_sx276 quick_test/fbank/raw_fbank_train.2.ark:6166740
mcal0_si1138 quick_test/fbank/raw_fbank_train.2.ark:4523335
mtkp0_si1023 quick_test/fbank/raw_fbank_train.4.ark:8599811
mcdr0_sx344 quick_test/fbank/raw_fbank_train.2.ark:4881216
mdef0_sx123 quick_test/fbank/raw_fbank_train.2.ark:6828569
mtpr0_si1600 quick_test/fbank/raw_fbank_train.4.ark:9481037
mrbc0_sx419 quick_test/fbank/raw_fbank_train.4.ark:1133474
mjws0_si1143 quick_test/fbank/raw_fbank_train.3.ark:5246855
mcre0_sx41 quick_test/fbank/raw_fbank_train.2.ark:5595377
mjdm0_sx80 quick_test/fbank/raw_fbank_train.3.ark:2572864
fceg0_sx168 quick_test/fbank/raw_fbank_train.1.ark:1590605
mmsm0_sx26 quick_test/fbank/raw_fbank_train.3.ark:9988037
mrjm0_si1228 quick_test/fbank/raw_fbank_train.4.ark:2816254
mmrp0_si717 quick_test/fbank/raw_fbank_train.3.ark:9819321
fjxp0_sx222 quick_test/fbank/raw_fbank_train.1.ark:6128432
mtrt0_sx254 quick_test/fbank/raw_fbank_train.4.ark:9971902
fgcs0_sx46 quick_test/fbank/raw_fbank_train.1.ark:4259073
mhxl0_si1772 quick_test/fbank/raw_fbank_train.3.ark:1472465
mmgc0_si1935 quick_test/fbank/raw_fbank_train.3.ark:9275289
fdxw0_sx431 quick_test/fbank/raw_fbank_train.1.ark:3409960
feac0_sx435 quick_test/fbank/raw_fbank_train.1.ark:3506825
fkde0_si1141 quick_test/fbank/raw_fbank_train.1.ark:6283389
mpfu0_si1888 quick_test/fbank/raw_fbank_train.3.ark:10929274
fkkh0_si1920 quick_test/fbank/raw_fbank_train.1.ark:6627299
mdlm0_si1234 quick_test/fbank/raw_fbank_train.2.ark:7895504
ftbw0_sx265 quick_test/fbank/raw_fbank_train.2.ark:1494108
feac0_si1875 quick_test/fbank/raw_fbank_train.1.ark:3439740
fpaz0_si2223 quick_test/fbank/raw_fbank_train.1.ark:10202575
mkjo0_sx424 quick_test/fbank/raw_fbank_train.3.ark:6518279
mrjm0_sx58 quick_test/fbank/raw_fbank_train.4.ark:2894092
fcdr1_sx376 quick_test/fbank/raw_fbank_train.1.ark:1547351
fmkf0_sx276 quick_test/fbank/raw_fbank_train.1.ark:9295893
mjbg0_sx422 quick_test/fbank/raw_fbank_train.3.ark:2040626
mmdm0_sx411 quick_test/fbank/raw_fbank_train.3.ark:8875371
fklh0_si1887 quick_test/fbank/raw_fbank_train.1.ark:6940775
mhit0_si2243 quick_test/fbank/raw_fbank_train.3.ark:1018333
mjrh1_sx244 quick_test/fbank/raw_fbank_train.3.ark:4782024
mjls0_sx106 quick_test/fbank/raw_fbank_train.3.ark:3815979
mdmt0_sx212 quick_test/fbank/raw_fbank_train.2.ark:8353098
fsms1_si2134 quick_test/fbank/raw_fbank_train.2.ark:863459
mdsj0_sx382 quick_test/fbank/raw_fbank_train.2.ark:8969273
mdcm0_sx130 quick_test/fbank/raw_fbank_train.2.ark:6533693
fntb0_sx303 quick_test/fbank/raw_fbank_train.1.ark:9732861
mmgk0_sx62 quick_test/fbank/raw_fbank_train.3.ark:9515578
fdas1_sx111 quick_test/fbank/raw_fbank_train.1.ark:2448311
mjeb0_sx206 quick_test/fbank/raw_fbank_train.3.ark:2636151
mwad0_sx342 quick_test/fbank/raw_fbank_train.4.ark:10647799
mtas0_sx305 quick_test/fbank/raw_fbank_train.4.ark:7325492
fcag0_si1503 quick_test/fbank/raw_fbank_train.1.ark:1257109
fdxw0_si881 quick_test/fbank/raw_fbank_train.1.ark:3357988
mdsj0_sx438 quick_test/fbank/raw_fbank_train.2.ark:8980186
msdh0_si2240 quick_test/fbank/raw_fbank_train.4.ark:5668386
fsms1_sx347 quick_test/fbank/raw_fbank_train.2.ark:923104
mbsb0_si1983 quick_test/fbank/raw_fbank_train.2.ark:4127834
mrgm0_sx262 quick_test/fbank/raw_fbank_train.4.ark:2314270
mhjb0_si2277 quick_test/fbank/raw_fbank_train.3.ark:1126912
mjwt0_sx391 quick_test/fbank/raw_fbank_train.3.ark:5453591
mrkm0_sx97 quick_test/fbank/raw_fbank_train.4.ark:3228165
fmah1_si1509 quick_test/fbank/raw_fbank_train.1.ark:8523346
mfwk0_si1879 quick_test/fbank/raw_fbank_train.2.ark:10689421
mgaf0_si1912 quick_test/fbank/raw_fbank_train.2.ark:10981818
mcpm0_si1824 quick_test/fbank/raw_fbank_train.2.ark:5432795
mdhs0_sx450 quick_test/fbank/raw_fbank_train.2.ark:7166542
fbmh0_sx236 quick_test/fbank/raw_fbank_train.1.ark:1104833
mrmb0_si1581 quick_test/fbank/raw_fbank_train.4.ark:3693765
mgrl0_sx327 quick_test/fbank/raw_fbank_train.3.ark:440241
madd0_sx88 quick_test/fbank/raw_fbank_train.2.ark:2293726
mjpg0_si1191 quick_test/fbank/raw_fbank_train.3.ark:4143660
medr0_sx384 quick_test/fbank/raw_fbank_train.2.ark:9716948
fsjg0_si2200 quick_test/fbank/raw_fbank_train.1.ark:11719189
mwad0_si1062 quick_test/fbank/raw_fbank_train.4.ark:10601792
mafm0_sx309 quick_test/fbank/raw_fbank_train.2.ark:2549497
mrxb0_sx325 quick_test/fbank/raw_fbank_train.4.ark:5189765
fsmm0_sx234 quick_test/fbank/raw_fbank_train.2.ark:790133
feme0_si2135 quick_test/fbank/raw_fbank_train.1.ark:3866360
mntw0_sx202 quick_test/fbank/raw_fbank_train.3.ark:10686298
mmvp0_sx347 quick_test/fbank/raw_fbank_train.3.ark:10109696
fjlg0_si1506 quick_test/fbank/raw_fbank_train.1.ark:5253818
mwsb0_sx276 quick_test/fbank/raw_fbank_train.4.ark:11400089
mbml0_sx359 quick_test/fbank/raw_fbank_train.2.ark:3989274
medr0_sx294 quick_test/fbank/raw_fbank_train.2.ark:9708675
mkaj0_sx154 quick_test/fbank/raw_fbank_train.3.ark:5901744
mmgk0_sx152 quick_test/fbank/raw_fbank_train.3.ark:9475607
mrjt0_si868 quick_test/fbank/raw_fbank_train.4.ark:3029778
fmem0_sx297 quick_test/fbank/raw_fbank_train.1.ark:8781641
mdrd0_si1382 quick_test/fbank/raw_fbank_train.2.ark:8784410
mwgr0_sx346 quick_test/fbank/raw_fbank_train.4.ark:11121327
fmkc0_sx262 quick_test/fbank/raw_fbank_train.1.ark:9188908
fkaa0_sx128 quick_test/fbank/raw_fbank_train.1.ark:6213664
mmvp0_sx204 quick_test/fbank/raw_fbank_train.3.ark:10085950
fmbg0_sx350 quick_test/fbank/raw_fbank_train.1.ark:8678336
flmc0_sx292 quick_test/fbank/raw_fbank_train.1.ark:8189848
fskc0_sx66 quick_test/fbank/raw_fbank_train.2.ark:336705
mmar0_sx76 quick_test/fbank/raw_fbank_train.3.ark:8383838
marw0_sx286 quick_test/fbank/raw_fbank_train.2.ark:3125528
fbmj0_sx336 quick_test/fbank/raw_fbank_train.1.ark:1213170
mrjb1_si2021 quick_test/fbank/raw_fbank_train.4.ark:2608238
mpeb0_si1034 quick_test/fbank/raw_fbank_train.3.ark:10819455
fsdj0_sx35 quick_test/fbank/raw_fbank_train.1.ark:11585983
fjxm0_sx41 quick_test/fbank/raw_fbank_train.1.ark:6062465
mjmd0_sx218 quick_test/fbank/raw_fbank_train.3.ark:4006943
mcth0_si1209 quick_test/fbank/raw_fbank_train.2.ark:5712635
fbas0_si1387 quick_test/fbank/raw_fbank_train.1.ark:527214
mtmn0_sx344 quick_test/fbank/raw_fbank_train.4.ark:9076518
msjk0_si966 quick_test/fbank/raw_fbank_train.4.ark:6361251
fljd0_sx346 quick_test/fbank/raw_fbank_train.1.ark:7781870
fsjw0_si1333 quick_test/fbank/raw_fbank_train.2.ark:150289
mtlc0_sx217 quick_test/fbank/raw_fbank_train.4.ark:8858514
mrws0_si472 quick_test/fbank/raw_fbank_train.4.ark:5060801
mrsp0_sx196 quick_test/fbank/raw_fbank_train.4.ark:4574782
mpfu0_sx448 quick_test/fbank/raw_fbank_train.3.ark:10983599
mrlj1_sx321 quick_test/fbank/raw_fbank_train.4.ark:3466536
mdlc1_sx85 quick_test/fbank/raw_fbank_train.2.ark:7696541
fdas1_si831 quick_test/fbank/raw_fbank_train.1.ark:2428798
mbom0_si1014 quick_test/fbank/raw_fbank_train.2.ark:4027053
ftaj0_sx339 quick_test/fbank/raw_fbank_train.2.ark:1312971
mdlr1_sx219 quick_test/fbank/raw_fbank_train.2.ark:8142487
msas0_si2006 quick_test/fbank/raw_fbank_train.4.ark:5326684
mrmh0_sx211 quick_test/fbank/raw_fbank_train.4.ark:3940470
mjai0_sx344 quick_test/fbank/raw_fbank_train.3.ark:1938487
mwac0_sx71 quick_test/fbank/raw_fbank_train.4.ark:10590478
mrmb0_si951 quick_test/fbank/raw_fbank_train.4.ark:3715992
mgjc0_sx435 quick_test/fbank/raw_fbank_train.3.ark:357209
fdjh0_si1565 quick_test/fbank/raw_fbank_train.1.ark:2692888
fmkc0_si1041 quick_test/fbank/raw_fbank_train.1.ark:9139014
mstf0_sx316 quick_test/fbank/raw_fbank_train.4.ark:6996217
mjrh1_sx334 quick_test/fbank/raw_fbank_train.3.ark:4795337
mjeb1_sx27 quick_test/fbank/raw_fbank_train.3.ark:2752568
mdmt0_sx122 quick_test/fbank/raw_fbank_train.2.ark:8339145
mtjg0_sx170 quick_test/fbank/raw_fbank_train.4.ark:8113946
fskp0_si468 quick_test/fbank/raw_fbank_train.2.ark:474431
fpmy0_sx343 quick_test/fbank/raw_fbank_train.1.ark:10574733
mram0_sx15 quick_test/fbank/raw_fbank_train.4.ark:924196
flkm0_sx260 quick_test/fbank/raw_fbank_train.1.ark:7985406
mrjm1_sx398 quick_test/fbank/raw_fbank_train.4.ark:2997477
fbmj0_sx246 quick_test/fbank/raw_fbank_train.1.ark:1202697
msmc0_si1907 quick_test/fbank/raw_fbank_train.4.ark:6438969
mrws0_sx22 quick_test/fbank/raw_fbank_train.4.ark:5089259
fmjb0_si1177 quick_test/fbank/raw_fbank_train.1.ark:8828981
mhrm0_si2218 quick_test/fbank/raw_fbank_train.3.ark:1385434
mdlm0_sx64 quick_test/fbank/raw_fbank_train.2.ark:7974455
mpeb0_sx60 quick_test/fbank/raw_fbank_train.3.ark:10896086
mrtc0_sx378 quick_test/fbank/raw_fbank_train.4.ark:4715385
mgrl0_sx237 quick_test/fbank/raw_fbank_train.3.ark:434928
fscn0_si705 quick_test/fbank/raw_fbank_train.1.ark:11333241
mbma1_sx234 quick_test/fbank/raw_fbank_train.2.ark:3880176
mrml0_sx251 quick_test/fbank/raw_fbank_train.4.ark:4043055
mpeb0_sx240 quick_test/fbank/raw_fbank_train.3.ark:10858908
mdpk0_si1683 quick_test/fbank/raw_fbank_train.2.ark:8619114
fjkl0_sx212 quick_test/fbank/raw_fbank_train.1.ark:5205766
fklh0_si627 quick_test/fbank/raw_fbank_train.1.ark:6946728
mmwb0_sx269 quick_test/fbank/raw_fbank_train.3.ark:10207896
mewm0_si1978 quick_test/fbank/raw_fbank_train.2.ark:10319960
mtat0_sx300 quick_test/fbank/raw_fbank_train.4.ark:7431149
mlsh0_si787 quick_test/fbank/raw_fbank_train.3.ark:7789148
fapb0_sx253 quick_test/fbank/raw_fbank_train.1.ark:467002
mbwp0_si1531 quick_test/fbank/raw_fbank_train.2.ark:4292407
mdtb0_si1200 quick_test/fbank/raw_fbank_train.2.ark:9166710
marw0_sx106 quick_test/fbank/raw_fbank_train.2.ark:3102543
mchl0_si1977 quick_test/fbank/raw_fbank_train.2.ark:5168673
mrbc0_si1859 quick_test/fbank/raw_fbank_train.4.ark:1068949
mjlb0_sx176 quick_test/fbank/raw_fbank_train.3.ark:3623368
fsjg0_si940 quick_test/fbank/raw_fbank_train.1.ark:11732782
mmdg0_si1780 quick_test/fbank/raw_fbank_train.3.ark:8694547
fsjs0_si541 quick_test/fbank/raw_fbank_train.2.ark:67611
mtrc0_sx273 quick_test/fbank/raw_fbank_train.4.ark:9785012
flac0_si1339 quick_test/fbank/raw_fbank_train.1.ark:7115751
fsjs0_sx361 quick_test/fbank/raw_fbank_train.2.ark:110990
mjls0_sx376 quick_test/fbank/raw_fbank_train.3.ark:3860150
mhxl0_sx422 quick_test/fbank/raw_fbank_train.3.ark:1546903
msem1_si2070 quick_test/fbank/raw_fbank_train.4.ark:5896157
fjkl0_si2192 quick_test/fbank/raw_fbank_train.1.ark:5164747
mdpk0_sx243 quick_test/fbank/raw_fbank_train.2.ark:8646093
mbma0_si592 quick_test/fbank/raw_fbank_train.2.ark:3762885
mtcs0_sx82 quick_test/fbank/raw_fbank_train.4.ark:7750417
msfh0_sx46 quick_test/fbank/raw_fbank_train.4.ark:6209605
mmds0_sx173 quick_test/fbank/raw_fbank_train.3.ark:9031962
mhit0_sx443 quick_test/fbank/raw_fbank_train.3.ark:1083098
fmjb0_sx7 quick_test/fbank/raw_fbank_train.1.ark:8907738
fsdc0_sx322 quick_test/fbank/raw_fbank_train.1.ark:11486966
mzmb0_sx176 quick_test/fbank/raw_fbank_train.4.ark:11596944
flod0_si657 quick_test/fbank/raw_fbank_train.1.ark:8354841
mdps0_sx269 quick_test/fbank/raw_fbank_train.2.ark:8738078
mmar0_si1966 quick_test/fbank/raw_fbank_train.3.ark:8289281
mmar0_sx166 quick_test/fbank/raw_fbank_train.3.ark:8318587
mdjm0_sx15 quick_test/fbank/raw_fbank_train.2.ark:7240900
falk0_sx6 quick_test/fbank/raw_fbank_train.1.ark:287977
mdem0_si608 quick_test/fbank/raw_fbank_train.2.ark:6889047
makr0_si1352 quick_test/fbank/raw_fbank_train.2.ark:2810128
mdbb1_sx376 quick_test/fbank/raw_fbank_train.2.ark:6277629
mtjs0_sx382 quick_test/fbank/raw_fbank_train.4.ark:8380727
mcdc0_sx212 quick_test/fbank/raw_fbank_train.2.ark:4665333
mjeb1_si837 quick_test/fbank/raw_fbank_train.3.ark:2712550
fkkh0_sx120 quick_test/fbank/raw_fbank_train.1.ark:6659245
mkdd0_sx307 quick_test/fbank/raw_fbank_train.3.ark:6223285
mhbs0_si945 quick_test/fbank/raw_fbank_train.3.ark:939381
marc0_sx288 quick_test/fbank/raw_fbank_train.2.ark:3049576
fjrb0_sx312 quick_test/fbank/raw_fbank_train.1.ark:5505475
mpfu0_sx178 quick_test/fbank/raw_fbank_train.3.ark:10945700
mbwp0_sx349 quick_test/fbank/raw_fbank_train.2.ark:4350373
fskc0_si1416 quick_test/fbank/raw_fbank_train.2.ark:256514
fcaj0_sx39 quick_test/fbank/raw_fbank_train.1.ark:1412253
mpgh0_si675 quick_test/fbank/raw_fbank_train.3.ark:11028698
fvfb0_si1032 quick_test/fbank/raw_fbank_train.2.ark:1737169
fcjf0_sx307 quick_test/fbank/raw_fbank_train.1.ark:1696696
mmea0_sx398 quick_test/fbank/raw_fbank_train.3.ark:9156238
mrbc0_si599 quick_test/fbank/raw_fbank_train.4.ark:1079902
mtlb0_sx324 quick_test/fbank/raw_fbank_train.4.ark:8762002
mcew0_si2072 quick_test/fbank/raw_fbank_train.2.ark:5019614
mges0_sx311 quick_test/fbank/raw_fbank_train.3.ark:236510
mclk0_sx130 quick_test/fbank/raw_fbank_train.2.ark:5278651
msem1_sx180 quick_test/fbank/raw_fbank_train.4.ark:5946063
mkdb0_sx242 quick_test/fbank/raw_fbank_train.3.ark:6103267
fcrz0_sx253 quick_test/fbank/raw_fbank_train.1.ark:2250894
mpgr0_sx330 quick_test/fbank/raw_fbank_train.3.ark:11149855
mrlk0_sx123 quick_test/fbank/raw_fbank_train.4.ark:3549415
fsak0_sx310 quick_test/fbank/raw_fbank_train.1.ark:11163130
mmgg0_si1079 quick_test/fbank/raw_fbank_train.3.ark:9349521
mdpb0_si1760 quick_test/fbank/raw_fbank_train.2.ark:8500055
fecd0_sx428 quick_test/fbank/raw_fbank_train.1.ark:3724555
mmgg0_sx449 quick_test/fbank/raw_fbank_train.3.ark:9421361
mjmd0_sx398 quick_test/fbank/raw_fbank_train.3.ark:4039721
mtpg0_sx213 quick_test/fbank/raw_fbank_train.4.ark:9348480
mvlo0_si1777 quick_test/fbank/raw_fbank_train.4.ark:10311591
mmag0_si1126 quick_test/fbank/raw_fbank_train.3.ark:8076636
mjls0_si1096 quick_test/fbank/raw_fbank_train.3.ark:3769199
fjen0_sx147 quick_test/fbank/raw_fbank_train.1.ark:4985802
fmjf0_sx84 quick_test/fbank/raw_fbank_train.1.ark:9018915
fjkl0_sx302 quick_test/fbank/raw_fbank_train.1.ark:5220079
mbth0_sx122 quick_test/fbank/raw_fbank_train.2.ark:4227522
fjlr0_sx61 quick_test/fbank/raw_fbank_train.1.ark:5437435
mcxm0_sx91 quick_test/fbank/raw_fbank_train.2.ark:5993276
fdkn0_si1202 quick_test/fbank/raw_fbank_train.1.ark:2799427
mrpc1_sx312 quick_test/fbank/raw_fbank_train.4.ark:4243660
mrmh0_sx301 quick_test/fbank/raw_fbank_train.4.ark:3950783
fmbg0_sx80 quick_test/fbank/raw_fbank_train.1.ark:8708561
mtpp0_sx428 quick_test/fbank/raw_fbank_train.4.ark:9457771
mkdt0_sx173 quick_test/fbank/raw_fbank_train.3.ark:6294643
mjlb0_sx356 quick_test/fbank/raw_fbank_train.3.ark:3647434
flkm0_sx116 quick_test/fbank/raw_fbank_train.1.ark:7975013
mabc0_sx61 quick_test/fbank/raw_fbank_train.2.ark:2093396
mkdb0_sx332 quick_test/fbank/raw_fbank_train.3.ark:6116180
fdnc0_si1908 quick_test/fbank/raw_fbank_train.1.ark:3143783
mpmb0_sx331 quick_test/fbank/raw_fbank_train.3.ark:11393706
msat0_si896 quick_test/fbank/raw_fbank_train.4.ark:5437742
mmlm0_sx87 quick_test/fbank/raw_fbank_train.3.ark:9702868
mtjm0_sx146 quick_test/fbank/raw_fbank_train.4.ark:8228531
mgsl0_sx354 quick_test/fbank/raw_fbank_train.3.ark:767593
mhmr0_si1119 quick_test/fbank/raw_fbank_train.3.ark:1275495
fkdw0_sx37 quick_test/fbank/raw_fbank_train.1.ark:6468853
mbef0_si1911 quick_test/fbank/raw_fbank_train.2.ark:3471977
mclk0_sx310 quick_test/fbank/raw_fbank_train.2.ark:5303037
fbcg1_sx442 quick_test/fbank/raw_fbank_train.1.ark:706439
mewm0_sx268 quick_test/fbank/raw_fbank_train.2.ark:10353099
fpmy0_si1153 quick_test/fbank/raw_fbank_train.1.ark:10487974
mdef0_sx303 quick_test/fbank/raw_fbank_train.2.ark:6850275
mmpm0_sx71 quick_test/fbank/raw_fbank_train.3.ark:9802534
mbgt0_si1341 quick_test/fbank/raw_fbank_train.2.ark:3539328
mprk0_sx377 quick_test/fbank/raw_fbank_train.4.ark:382745
msmr0_sx235 quick_test/fbank/raw_fbank_train.4.ark:6594366
mgjc0_sx255 quick_test/fbank/raw_fbank_train.3.ark:330383
mses0_sx239 quick_test/fbank/raw_fbank_train.4.ark:6058322
flod0_si1287 quick_test/fbank/raw_fbank_train.1.ark:8329334
fjlg0_si2306 quick_test/fbank/raw_fbank_train.1.ark:5279526
fhlm0_si2190 quick_test/fbank/raw_fbank_train.1.ark:4620937
mjrp0_sx45 quick_test/fbank/raw_fbank_train.3.ark:4996452
fpaf0_sx64 quick_test/fbank/raw_fbank_train.1.ark:10182907
fdaw0_sx326 quick_test/fbank/raw_fbank_train.1.ark:2572723
mdwh0_sx35 quick_test/fbank/raw_fbank_train.2.ark:9433199
flhd0_sx264 quick_test/fbank/raw_fbank_train.1.ark:7562786
mdcd0_si1415 quick_test/fbank/raw_fbank_train.2.ark:6395768
msvs0_sx218 quick_test/fbank/raw_fbank_train.4.ark:7098849
fear0_sx262 quick_test/fbank/raw_fbank_train.1.ark:3577664
fspm0_si1241 quick_test/fbank/raw_fbank_train.2.ark:950410
mmwb0_si989 quick_test/fbank/raw_fbank_train.3.ark:10178150
mrld0_si2224 quick_test/fbank/raw_fbank_train.4.ark:3252633
mrdm0_sx245 quick_test/fbank/raw_fbank_train.4.ark:1510909
fdfb0_sx148 quick_test/fbank/raw_fbank_train.1.ark:2638483
mmcc0_si1968 quick_test/fbank/raw_fbank_train.3.ark:8527731
mjeb0_si1916 quick_test/fbank/raw_fbank_train.3.ark:2596212
mmlm0_si897 quick_test/fbank/raw_fbank_train.3.ark:9651504
mwsh0_sx346 quick_test/fbank/raw_fbank_train.4.ark:11518025
fbcg1_si2242 quick_test/fbank/raw_fbank_train.1.ark:640234
fsbk0_sx169 quick_test/fbank/raw_fbank_train.1.ark:11231170
meal0_sx107 quick_test/fbank/raw_fbank_train.2.ark:9587231
mmxs0_sx156 quick_test/fbank/raw_fbank_train.3.ark:10479576
mesj0_sx187 quick_test/fbank/raw_fbank_train.2.ark:10266763
mjwg0_sx355 quick_test/fbank/raw_fbank_train.3.ark:5214956
mjeb1_sx207 quick_test/fbank/raw_fbank_train.3.ark:2743016
fcdr1_si1816 quick_test/fbank/raw_fbank_train.1.ark:1456074
fcmg0_sx162 quick_test/fbank/raw_fbank_train.1.ark:2042571
mhxl0_si512 quick_test/fbank/raw_fbank_train.3.ark:1484138
msat1_sx173 quick_test/fbank/raw_fbank_train.4.ark:5531121
fsdc0_sx232 quick_test/fbank/raw_fbank_train.1.ark:11474293
flja0_si1708 quick_test/fbank/raw_fbank_train.1.ark:7633432
mtat1_sx329 quick_test/fbank/raw_fbank_train.4.ark:7523022
fmmh0_sx420 quick_test/fbank/raw_fbank_train.1.ark:9408629
fdaw0_si1406 quick_test/fbank/raw_fbank_train.1.ark:2521750
fdmy0_si567 quick_test/fbank/raw_fbank_train.1.ark:3001238
fgdp0_sx358 quick_test/fbank/raw_fbank_train.1.ark:4338593
mgaw0_sx355 quick_test/fbank/raw_fbank_train.3.ark:167045
mesg0_si702 quick_test/fbank/raw_fbank_train.2.ark:10145225
mrfk0_si1706 quick_test/fbank/raw_fbank_train.4.ark:2068640
mtat0_si811 quick_test/fbank/raw_fbank_train.4.ark:7385138
mjdc0_si2165 quick_test/fbank/raw_fbank_train.3.ark:2163432
fltm0_si1700 quick_test/fbank/raw_fbank_train.1.ark:8428314
fdjh0_sx395 quick_test/fbank/raw_fbank_train.1.ark:2775079
mhbs0_sx405 quick_test/fbank/raw_fbank_train.3.ark:986353
mapv0_sx213 quick_test/fbank/raw_fbank_train.2.ark:2949166
mkrg0_si861 quick_test/fbank/raw_fbank_train.3.ark:7074933
mrlj1_sx141 quick_test/fbank/raw_fbank_train.4.ark:3449270
fvfb0_si2292 quick_test/fbank/raw_fbank_train.2.ark:1765157
mdma0_si1238 quick_test/fbank/raw_fbank_train.2.ark:8193699
mtjm0_si1856 quick_test/fbank/raw_fbank_train.4.ark:8198545
mtwh1_si2142 quick_test/fbank/raw_fbank_train.4.ark:10017795
fsgf0_si1557 quick_test/fbank/raw_fbank_train.1.ark:11605690
fmpg0_sx342 quick_test/fbank/raw_fbank_train.1.ark:9523332
mmjb1_si1408 quick_test/fbank/raw_fbank_train.3.ark:9524972
mjjj0_si1793 quick_test/fbank/raw_fbank_train.3.ark:3296307
msfv0_sx92 quick_test/fbank/raw_fbank_train.4.ark:6319030
fvfb0_sx312 quick_test/fbank/raw_fbank_train.2.ark:1793056
mwad0_sx72 quick_test/fbank/raw_fbank_train.4.ark:10671544
mgrl0_si2127 quick_test/fbank/raw_fbank_train.3.ark:397629
mlbc0_si1239 quick_test/fbank/raw_fbank_train.3.ark:7232996
fvmh0_sx26 quick_test/fbank/raw_fbank_train.2.ark:1993825
mpar0_sx406 quick_test/fbank/raw_fbank_train.3.ark:10799109
mrdd0_sx240 quick_test/fbank/raw_fbank_train.4.ark:1411364
fltm0_sx80 quick_test/fbank/raw_fbank_train.1.ark:8514792
fcke0_sx391 quick_test/fbank/raw_fbank_train.1.ark:1895771
mcpm0_si1194 quick_test/fbank/raw_fbank_train.2.ark:5421321
mcdr0_si524 quick_test/fbank/raw_fbank_train.2.ark:4837757
mbar0_si1319 quick_test/fbank/raw_fbank_train.2.ark:3176028
fjlr0_si1861 quick_test/fbank/raw_fbank_train.1.ark:5369398
freh0_sx145 quick_test/fbank/raw_fbank_train.1.ark:10643339
fgrw0_sx342 quick_test/fbank/raw_fbank_train.1.ark:4573484
mfwk0_si1249 quick_test/fbank/raw_fbank_train.2.ark:10679387
mpsw0_si2327 quick_test/fbank/raw_fbank_train.4.ark:505351
mhmr0_sx309 quick_test/fbank/raw_fbank_train.3.ark:1345021
maeo0_si1655 quick_test/fbank/raw_fbank_train.2.ark:2419099
mjpg0_sx381 quick_test/fbank/raw_fbank_train.3.ark:4219731
mfrm0_si1785 quick_test/fbank/raw_fbank_train.2.ark:10610949
fpjf0_sx352 quick_test/fbank/raw_fbank_train.1.ark:10367085
fjwb1_sx345 quick_test/fbank/raw_fbank_train.1.ark:5935695
fcjs0_si1607 quick_test/fbank/raw_fbank_train.1.ark:1722195
mkag0_si979 quick_test/fbank/raw_fbank_train.3.ark:5686222
mjmd0_sx128 quick_test/fbank/raw_fbank_train.3.ark:3997390
fmjb0_si1807 quick_test/fbank/raw_fbank_train.1.ark:8847335
mdef0_sx213 quick_test/fbank/raw_fbank_train.2.ark:6839562
makb0_sx206 quick_test/fbank/raw_fbank_train.2.ark:2767276
mejs0_si1870 quick_test/fbank/raw_fbank_train.2.ark:10045887
mrgm0_sx416 quick_test/fbank/raw_fbank_train.4.ark:2326423
fjdm2_si1964 quick_test/fbank/raw_fbank_train.1.ark:4850229
fscn0_sx356 quick_test/fbank/raw_fbank_train.1.ark:11388620
mtdb0_sx321 quick_test/fbank/raw_fbank_train.4.ark:7824337
mdlc2_sx174 quick_test/fbank/raw_fbank_train.2.ark:7734275
mmcc0_sx258 quick_test/fbank/raw_fbank_train.3.ark:8557270
mwar0_sx145 quick_test/fbank/raw_fbank_train.4.ark:10717679
feac0_sx345 quick_test/fbank/raw_fbank_train.1.ark:3495512
fspm0_si1871 quick_test/fbank/raw_fbank_train.2.ark:972684
fpad0_si1976 quick_test/fbank/raw_fbank_train.1.ark:9998244
fexm0_si1101 quick_test/fbank/raw_fbank_train.1.ark:4059536
mrso0_sx219 quick_test/fbank/raw_fbank_train.4.ark:4458197
mtml0_sx345 quick_test/fbank/raw_fbank_train.4.ark:8959253
freh0_sx415 quick_test/fbank/raw_fbank_train.1.ark:10670278
mrlj0_sx70 quick_test/fbank/raw_fbank_train.4.ark:3409655
mcth0_sx39 quick_test/fbank/raw_fbank_train.2.ark:5787033
mjeb0_sx386 quick_test/fbank/raw_fbank_train.3.ark:2669529
mjac0_si2148 quick_test/fbank/raw_fbank_train.3.ark:1677185
fbas0_si2066 quick_test/fbank/raw_fbank_train.1.ark:559842
mpsw0_sx24 quick_test/fbank/raw_fbank_train.4.ark:525896
fjhk0_sx392 quick_test/fbank/raw_fbank_train.1.ark:5147679
fjdm2_sx232 quick_test/fbank/raw_fbank_train.1.ark:4892729
mjeb0_sx170 quick_test/fbank/raw_fbank_train.3.ark:2617558
mmdb0_sx177 quick_test/fbank/raw_fbank_train.3.ark:8646222
mtdp0_sx261 quick_test/fbank/raw_fbank_train.4.ark:7923250
mrso0_si1659 quick_test/fbank/raw_fbank_train.4.ark:4417737
mfer0_sx412 quick_test/fbank/raw_fbank_train.2.ark:10459630
mgsh0_sx6 quick_test/fbank/raw_fbank_train.3.ark:673882
fsgf0_sx297 quick_test/fbank/raw_fbank_train.1.ark:11683568
fcjs0_si977 quick_test/fbank/raw_fbank_train.1.ark:1736222
fklc1_si1048 quick_test/fbank/raw_fbank_train.1.ark:6819195
mwem0_si1393 quick_test/fbank/raw_fbank_train.4.ark:10968209
mvrw0_si855 quick_test/fbank/raw_fbank_train.4.ark:10421329
msms0_si2063 quick_test/fbank/raw_fbank_train.4.ark:6655012
falk0_sx186 quick_test/fbank/raw_fbank_train.1.ark:252640
fmkc0_sx82 quick_test/fbank/raw_fbank_train.1.ark:9229326
mmbs0_si521 quick_test/fbank/raw_fbank_train.3.ark:8416499
fmpg0_si972 quick_test/fbank/raw_fbank_train.1.ark:9472113
mkdd0_sx217 quick_test/fbank/raw_fbank_train.3.ark:6215572
mhrm0_si1475 quick_test/fbank/raw_fbank_train.3.ark:1378280
fcaj0_si1804 quick_test/fbank/raw_fbank_train.1.ark:1352489
mjdg0_si1705 quick_test/fbank/raw_fbank_train.3.ark:2405395
mkrg0_sx411 quick_test/fbank/raw_fbank_train.3.ark:7117264
mbom0_sx114 quick_test/fbank/raw_fbank_train.2.ark:4060314
mkln0_si2228 quick_test/fbank/raw_fbank_train.3.ark:6568972
mwem0_sx60 quick_test/fbank/raw_fbank_train.4.ark:11045687
mkls0_sx177 quick_test/fbank/raw_fbank_train.3.ark:6784850
fleh0_sx421 quick_test/fbank/raw_fbank_train.1.ark:7395121
mkag0_sx169 quick_test/fbank/raw_fbank_train.3.ark:5705335
mfer0_si862 quick_test/fbank/raw_fbank_train.2.ark:10409418
mcxm0_si1981 quick_test/fbank/raw_fbank_train.2.ark:5917839
fvmh0_si2096 quick_test/fbank/raw_fbank_train.2.ark:1944494
mrtj0_sx142 quick_test/fbank/raw_fbank_train.4.ark:4775799
fsjk1_sx395 quick_test/fbank/raw_fbank_train.2.ark:32110
mwch0_sx182 quick_test/fbank/raw_fbank_train.4.ark:10802985
msrg0_sx141 quick_test/fbank/raw_fbank_train.4.ark:6774983
falk0_si658 quick_test/fbank/raw_fbank_train.1.ark:232687
mlsh0_sx427 quick_test/fbank/raw_fbank_train.3.ark:7840840
mtrr0_si2178 quick_test/fbank/raw_fbank_train.4.ark:9820585
flhd0_si1827 quick_test/fbank/raw_fbank_train.1.ark:7527406
mnet0_si816 quick_test/fbank/raw_fbank_train.3.ark:10563328
fexm0_sx381 quick_test/fbank/raw_fbank_train.1.ark:4164928
mwch0_si2252 quick_test/fbank/raw_fbank_train.4.ark:10790712
mdac0_si631 quick_test/fbank/raw_fbank_train.2.ark:6024217
msfh0_si1216 quick_test/fbank/raw_fbank_train.4.ark:6099454
fgmb0_sx425 quick_test/fbank/raw_fbank_train.1.ark:4477811
fjhk0_sx32 quick_test/fbank/raw_fbank_train.1.ark:5137126
mjeb1_sx297 quick_test/fbank/raw_fbank_train.3.ark:2761561
fklc0_si1615 quick_test/fbank/raw_fbank_train.1.ark:6715130
mram0_sx285 quick_test/fbank/raw_fbank_train.4.ark:945622
mjmm0_si625 quick_test/fbank/raw_fbank_train.3.ark:4077662
mtkp0_sx33 quick_test/fbank/raw_fbank_train.4.ark:8683729
mtas0_sx395 quick_test/fbank/raw_fbank_train.4.ark:7342677
ftbr0_sx381 quick_test/fbank/raw_fbank_train.2.ark:1427661
marw0_si1276 quick_test/fbank/raw_fbank_train.2.ark:3072083
mdwd0_sx450 quick_test/fbank/raw_fbank_train.2.ark:9320895
fpmy0_si523 quick_test/fbank/raw_fbank_train.1.ark:10517281
fdaw0_sx416 quick_test/fbank/raw_fbank_train.1.ark:2584476
mmgc0_sx315 quick_test/fbank/raw_fbank_train.3.ark:9317142
mdsj0_sx22 quick_test/fbank/raw_fbank_train.2.ark:8945607
mrcw0_sx291 quick_test/fbank/raw_fbank_train.4.ark:1345803
fjxm0_sx131 quick_test/fbank/raw_fbank_train.1.ark:6005574
mram0_si1951 quick_test/fbank/raw_fbank_train.4.ark:896611
fsbk0_sx259 quick_test/fbank/raw_fbank_train.1.ark:11243963
mbef0_si1281 quick_test/fbank/raw_fbank_train.2.ark:3458623
mrlr0_sx26 quick_test/fbank/raw_fbank_train.4.ark:3664665
fapb0_sx343 quick_test/fbank/raw_fbank_train.1.ark:479235
maeb0_si2250 quick_test/fbank/raw_fbank_train.2.ark:2323874
msvs0_sx128 quick_test/fbank/raw_fbank_train.4.ark:7086216
mnet0_sx366 quick_test/fbank/raw_fbank_train.3.ark:10593587
fbas0_sx397 quick_test/fbank/raw_fbank_train.1.ark:620366
mdpb0_si866 quick_test/fbank/raw_fbank_train.2.ark:8531522
fceg0_sx258 quick_test/fbank/raw_fbank_train.1.ark:1598238
mtcs0_si2265 quick_test/fbank/raw_fbank_train.4.ark:7670060
mjbg0_si1232 quick_test/fbank/raw_fbank_train.3.ark:1966906
mmpm0_si1691 quick_test/fbank/raw_fbank_train.3.ark:9723176
mtrc0_si1623 quick_test/fbank/raw_fbank_train.4.ark:9725647
mrlj0_sx340 quick_test/fbank/raw_fbank_train.4.ark:3385630
mgak0_sx316 quick_test/fbank/raw_fbank_train.2.ark:11216160
mdac0_sx91 quick_test/fbank/raw_fbank_train.2.ark:6097301
mjda0_sx131 quick_test/fbank/raw_fbank_train.3.ark:2096233
mbma0_sx412 quick_test/fbank/raw_fbank_train.2.ark:3806897
mjdg0_si1042 quick_test/fbank/raw_fbank_train.3.ark:2378207
mhbs0_si2205 quick_test/fbank/raw_fbank_train.3.ark:927108
mtju0_sx400 quick_test/fbank/raw_fbank_train.4.ark:8479312
fpjf0_si1046 quick_test/fbank/raw_fbank_train.1.ark:10299125
fpaf0_sx334 quick_test/fbank/raw_fbank_train.1.ark:10160162
mjrp0_si1845 quick_test/fbank/raw_fbank_train.3.ark:4923295
mkaj0_si784 quick_test/fbank/raw_fbank_train.3.ark:5890551
majp0_si1074 quick_test/fbank/raw_fbank_train.2.ark:2580956
milb0_sx183 quick_test/fbank/raw_fbank_train.3.ark:1617028
mrds0_si537 quick_test/fbank/raw_fbank_train.4.ark:1576868
mrab1_si1478 quick_test/fbank/raw_fbank_train.4.ark:664133
mhmg0_sx285 quick_test/fbank/raw_fbank_train.3.ark:1253188
fsdc0_si2234 quick_test/fbank/raw_fbank_train.1.ark:11455587
fbjl0_sx112 quick_test/fbank/raw_fbank_train.1.ark:882109
megj0_si1337 quick_test/fbank/raw_fbank_train.2.ark:9829485
mdjm0_sx375 quick_test/fbank/raw_fbank_train.2.ark:7271199
mjai0_sx254 quick_test/fbank/raw_fbank_train.3.ark:1930614
mdhl0_sx449 quick_test/fbank/raw_fbank_train.2.ark:7072157
maeb0_sx90 quick_test/fbank/raw_fbank_train.2.ark:2394111
mlns0_si777 quick_test/fbank/raw_fbank_train.3.ark:7694323
mjkr0_sx121 quick_test/fbank/raw_fbank_train.3.ark:3529183
marc0_si1188 quick_test/fbank/raw_fbank_train.2.ark:2992418
falk0_si1086 quick_test/fbank/raw_fbank_train.1.ark:209261
mdlc1_si1435 quick_test/fbank/raw_fbank_train.2.ark:7608509
mter0_si1787 quick_test/fbank/raw_fbank_train.4.ark:7999496
fsag0_sx423 quick_test/fbank/raw_fbank_train.1.ark:10963873
mdem0_sx248 quick_test/fbank/raw_fbank_train.2.ark:6939226
fcjf0_sx127 quick_test/fbank/raw_fbank_train.1.ark:1683070
mrcw0_si2001 quick_test/fbank/raw_fbank_train.4.ark:1288079
fdnc0_sx288 quick_test/fbank/raw_fbank_train.1.ark:3205908
mjlb0_sx266 quick_test/fbank/raw_fbank_train.3.ark:3637881
fleh0_si2311 quick_test/fbank/raw_fbank_train.1.ark:7349149
mjlg1_sx112 quick_test/fbank/raw_fbank_train.3.ark:3717274
fgrw0_sx252 quick_test/fbank/raw_fbank_train.1.ark:4562491
fkde0_si2221 quick_test/fbank/raw_fbank_train.1.ark:6320897
mvjh0_sx116 quick_test/fbank/raw_fbank_train.4.ark:10249872
mtjm0_sx236 quick_test/fbank/raw_fbank_train.4.ark:8238364
mgrl0_si1497 quick_test/fbank/raw_fbank_train.3.ark:387795
msmc0_sx377 quick_test/fbank/raw_fbank_train.4.ark:6526999
mmab1_si1494 quick_test/fbank/raw_fbank_train.3.ark:7970971
mtmt0_sx308 quick_test/fbank/raw_fbank_train.4.ark:9170143
msas0_sx386 quick_test/fbank/raw_fbank_train.4.ark:5407601
mjrk0_si1662 quick_test/fbank/raw_fbank_train.3.ark:4826276
fscn0_si1886 quick_test/fbank/raw_fbank_train.1.ark:11309495
mdsj0_sx292 quick_test/fbank/raw_fbank_train.2.ark:8955040
mtkd0_sx17 quick_test/fbank/raw_fbank_train.4.ark:8550798
fljd0_sx76 quick_test/fbank/raw_fbank_train.1.ark:7803055
fear0_sx352 quick_test/fbank/raw_fbank_train.1.ark:3588537
fgrw0_si1152 quick_test/fbank/raw_fbank_train.1.ark:4498917
mjdm0_sx170 quick_test/fbank/raw_fbank_train.3.ark:2506973
fskp0_sx18 quick_test/fbank/raw_fbank_train.2.ark:495976
fmkc0_si1702 quick_test/fbank/raw_fbank_train.1.ark:9166682
fscn0_sx176 quick_test/fbank/raw_fbank_train.1.ark:11355154
mgxp0_si457 quick_test/fbank/raw_fbank_train.3.ark:827245
mmam0_si1597 quick_test/fbank/raw_fbank_train.3.ark:8188781
mtjs0_si562 quick_test/fbank/raw_fbank_train.4.ark:8314123
fskp0_sx378 quick_test/fbank/raw_fbank_train.2.ark:527755
fpls0_si2220 quick_test/fbank/raw_fbank_train.1.ark:10404865
mmeb0_sx187 quick_test/fbank/raw_fbank_train.3.ark:9201092
mchl0_si1404 quick_test/fbank/raw_fbank_train.2.ark:5152079
mdpb0_si2126 quick_test/fbank/raw_fbank_train.2.ark:8518209
mbml0_sx449 quick_test/fbank/raw_fbank_train.2.ark:4003587
mtjg0_sx80 quick_test/fbank/raw_fbank_train.4.ark:8174757
mgar0_sx42 quick_test/fbank/raw_fbank_train.3.ark:89405
mcre0_sx221 quick_test/fbank/raw_fbank_train.2.ark:5560080
fjlr0_sx331 quick_test/fbank/raw_fbank_train.1.ark:5412930
mjwt0_sx31 quick_test/fbank/raw_fbank_train.3.ark:5443958
mpgh0_sx114 quick_test/fbank/raw_fbank_train.3.ark:11055324
fgdp0_si988 quick_test/fbank/raw_fbank_train.1.ark:4290734
fntb0_sx33 quick_test/fbank/raw_fbank_train.1.ark:9741733
mkdt0_si814 quick_test/fbank/raw_fbank_train.3.ark:6264537
mded0_si1170 quick_test/fbank/raw_fbank_train.2.ark:6681163
fcaj0_sx309 quick_test/fbank/raw_fbank_train.1.ark:1399221
mefg0_sx195 quick_test/fbank/raw_fbank_train.2.ark:9795185
fkkh0_si1290 quick_test/fbank/raw_fbank_train.1.ark:6608865
mwrp0_sx363 quick_test/fbank/raw_fbank_train.4.ark:11330370
msms0_si1433 quick_test/fbank/raw_fbank_train.4.ark:6637578
mgjc0_sx165 quick_test/fbank/raw_fbank_train.3.ark:315070
fapb0_si2323 quick_test/fbank/raw_fbank_train.1.ark:431736
fpjf0_sx236 quick_test/fbank/raw_fbank_train.1.ark:10347659
mrml0_si1421 quick_test/fbank/raw_fbank_train.4.ark:3977682
fklc1_sx418 quick_test/fbank/raw_fbank_train.1.ark:6889235
mjde0_si1120 quick_test/fbank/raw_fbank_train.3.ark:2245663
mrxb0_sx235 quick_test/fbank/raw_fbank_train.4.ark:5178492
mmgk0_sx422 quick_test/fbank/raw_fbank_train.3.ark:9503346
mppc0_si2042 quick_test/fbank/raw_fbank_train.3.ark:11474919
mjlg1_sx292 quick_test/fbank/raw_fbank_train.3.ark:3744932
msfh0_si1738 quick_test/fbank/raw_fbank_train.4.ark:6113048
mrds0_sx267 quick_test/fbank/raw_fbank_train.4.ark:1600014
fcjs0_sx437 quick_test/fbank/raw_fbank_train.1.ark:1786874
fbch0_si959 quick_test/fbank/raw_fbank_train.1.ark:759051
mdhs0_sx270 quick_test/fbank/raw_fbank_train.2.ark:7146756
fdmy0_si1197 quick_test/fbank/raw_fbank_train.1.ark:2985005
mdbp0_sx168 quick_test/fbank/raw_fbank_train.2.ark:6331883
mrab1_sx128 quick_test/fbank/raw_fbank_train.4.ark:704233
fsak0_sx400 quick_test/fbank/raw_fbank_train.1.ark:11188355
mrjm0_si1858 quick_test/fbank/raw_fbank_train.4.ark:2827928
mrab0_sx54 quick_test/fbank/raw_fbank_train.4.ark:651379
mmam0_si2227 quick_test/fbank/raw_fbank_train.3.ark:8213049
fdnc0_sx378 quick_test/fbank/raw_fbank_train.1.ark:3221501
fntb0_si679 quick_test/fbank/raw_fbank_train.1.ark:9689962
mdhs0_si900 quick_test/fbank/raw_fbank_train.2.ark:7118210
mjae0_sx264 quick_test/fbank/raw_fbank_train.3.ark:1812470
fvkb0_sx79 quick_test/fbank/raw_fbank_train.2.ark:1915986
frjb0_si1794 quick_test/fbank/raw_fbank_train.1.ark:10707612
fmah1_sx159 quick_test/fbank/raw_fbank_train.1.ark:8561686
mrlj0_si2050 quick_test/fbank/raw_fbank_train.4.ark:3337498
mmdm1_sx153 quick_test/fbank/raw_fbank_train.3.ark:8928537
fblv0_si1058 quick_test/fbank/raw_fbank_train.1.ark:941034
mmdb0_si1617 quick_test/fbank/raw_fbank_train.3.ark:8622156
mmcc0_sx438 quick_test/fbank/raw_fbank_train.3.ark:8582536
mpar0_si946 quick_test/fbank/raw_fbank_train.3.ark:10756017
fsgf0_sx207 quick_test/fbank/raw_fbank_train.1.ark:11666143
mfxs0_sx54 quick_test/fbank/raw_fbank_train.2.ark:10856644
mcre0_si1751 quick_test/fbank/raw_fbank_train.2.ark:5533934
fsah0_sx164 quick_test/fbank/raw_fbank_train.1.ark:11040199
mlsh0_si2047 quick_test/fbank/raw_fbank_train.3.ark:7777715
mjrg0_si1996 quick_test/fbank/raw_fbank_train.3.ark:4542394
fdml0_sx159 quick_test/fbank/raw_fbank_train.1.ark:2932600
mdlb0_si1306 quick_test/fbank/raw_fbank_train.2.ark:7383979
fpab1_sx391 quick_test/fbank/raw_fbank_train.1.ark:9867511
msdh0_sx350 quick_test/fbank/raw_fbank_train.4.ark:5722758
mded0_sx360 quick_test/fbank/raw_fbank_train.2.ark:6749529
fdml0_sx429 quick_test/fbank/raw_fbank_train.1.ark:2963139
mwrp0_si1525 quick_test/fbank/raw_fbank_train.4.ark:11273686
fgcs0_si1486 quick_test/fbank/raw_fbank_train.1.ark:4175922
mrhl0_sx165 quick_test/fbank/raw_fbank_train.4.ark:2515885
flja0_sx448 quick_test/fbank/raw_fbank_train.1.ark:7690838
mrre0_sx164 quick_test/fbank/raw_fbank_train.4.ark:4332898
mmcc0_sx78 quick_test/fbank/raw_fbank_train.3.ark:8598448
flja0_sx88 quick_test/fbank/raw_fbank_train.1.ark:7702470
mjdc0_sx351 quick_test/fbank/raw_fbank_train.3.ark:2215524
mcdc0_sx392 quick_test/fbank/raw_fbank_train.2.ark:4701071
fskl0_sx359 quick_test/fbank/raw_fbank_train.2.ark:408025
mmcc0_sx348 quick_test/fbank/raw_fbank_train.3.ark:8568703
flag0_sx204 quick_test/fbank/raw_fbank_train.1.ark:7269189
mtrr0_si1548 quick_test/fbank/raw_fbank_train.4.ark:9810871
mree0_sx114 quick_test/fbank/raw_fbank_train.4.ark:1693047
mwdk0_si806 quick_test/fbank/raw_fbank_train.4.ark:10882937
fssb0_sx452 quick_test/fbank/raw_fbank_train.2.ark:1233900
mdpb0_sx56 quick_test/fbank/raw_fbank_train.2.ark:8593446
fpab1_si841 quick_test/fbank/raw_fbank_train.1.ark:9796187
mdlc0_sx315 quick_test/fbank/raw_fbank_train.2.ark:7573010
mmwb0_sx179 quick_test/fbank/raw_fbank_train.3.ark:10192103
mrjb1_si1413 quick_test/fbank/raw_fbank_train.4.ark:2587324
mdhl0_si2069 quick_test/fbank/raw_fbank_train.2.ark:7012832
flag0_si1464 quick_test/fbank/raw_fbank_train.1.ark:7208176
flkm0_sx80 quick_test/fbank/raw_fbank_train.1.ark:8035864
mhbs0_si1575 quick_test/fbank/raw_fbank_train.3.ark:916394
fgdp0_si1618 quick_test/fbank/raw_fbank_train.1.ark:4267507
mdcd0_sx245 quick_test/fbank/raw_fbank_train.2.ark:6447581
fsjk1_si2285 quick_test/fbank/raw_fbank_train.1.ark:11852134
mtml0_si1695 quick_test/fbank/raw_fbank_train.4.ark:8906600
fsgf0_sx27 quick_test/fbank/raw_fbank_train.1.ark:11675055
fnkl0_si1522 quick_test/fbank/raw_fbank_train.1.ark:9571831
mjpg0_si1821 quick_test/fbank/raw_fbank_train.3.ark:4153574
fsls0_si2316 quick_test/fbank/raw_fbank_train.2.ark:565497
mrcw0_sx381 quick_test/fbank/raw_fbank_train.4.ark:1355676
mchl0_sx267 quick_test/fbank/raw_fbank_train.2.ark:5184579
mgag0_sx421 quick_test/fbank/raw_fbank_train.2.ark:11122287
mcae0_sx277 quick_test/fbank/raw_fbank_train.2.ark:4466525
mmdm0_si1941 quick_test/fbank/raw_fbank_train.3.ark:8823126
mkdd0_sx397 quick_test/fbank/raw_fbank_train.3.ark:6241630
mgsl0_sx84 quick_test/fbank/raw_fbank_train.3.ark:794378
flmc0_sx112 quick_test/fbank/raw_fbank_train.1.ark:8168823
mbgt0_sx261 quick_test/fbank/raw_fbank_train.2.ark:3597101
mtmn0_sx74 quick_test/fbank/raw_fbank_train.4.ark:9096343
mtpr0_si2230 quick_test/fbank/raw_fbank_train.4.ark:9494351
fdml0_sx69 quick_test/fbank/raw_fbank_train.1.ark:2974451
mklw0_sx221 quick_test/fbank/raw_fbank_train.3.ark:6986334
msat1_si2333 quick_test/fbank/raw_fbank_train.4.ark:5520288
mjmd0_sx308 quick_test/fbank/raw_fbank_train.3.ark:4017416
fmah1_sx429 quick_test/fbank/raw_fbank_train.1.ark:8595705
mkjo0_si1517 quick_test/fbank/raw_fbank_train.3.ark:6465913
mjfr0_si1605 quick_test/fbank/raw_fbank_train.3.ark:2963798
mwsb0_sx96 quick_test/fbank/raw_fbank_train.4.ark:11430545
flet0_si1137 quick_test/fbank/raw_fbank_train.1.ark:7421587
fmkf0_si906 quick_test/fbank/raw_fbank_train.1.ark:9272507
mjws0_sx333 quick_test/fbank/raw_fbank_train.3.ark:5308741
mjxa0_sx337 quick_test/fbank/raw_fbank_train.3.ark:5524311
mtmn0_sx254 quick_test/fbank/raw_fbank_train.4.ark:9067365
mdlb0_sx316 quick_test/fbank/raw_fbank_train.2.ark:7461025
