mkls0_si1437 quick_test/data-fmllr-tri3/train/data/feats_fmllr_train.7.ark:8197209
mmgk0_sx332 quick_test/data-fmllr-tri3/train/data/feats_fmllr_train.8.ark:912745
mgaw0_sx355 quick_test/data-fmllr-tri3/train/data/feats_fmllr_train.6.ark:650127
mkxl0_sx375 quick_test/data-fmllr-tri3/train/data/feats_fmllr_train.7.ark:10080348
mrjm1_si1298 quick_test/data-fmllr-tri3/train/data/feats_fmllr_train.9.ark:2099977
mklr0_sx339 quick_test/data-fmllr-tri3/train/data/feats_fmllr_train.7.ark:8074728
mjkr0_si571 quick_test/data-fmllr-tri3/train/data/feats_fmllr_train.6.ark:13664778
ftlg0_si840 quick_test/data-fmllr-tri3/train/data/feats_fmllr_train.3.ark:15123033
fapb0_si1693 quick_test/data-fmllr-tri3/train/data/feats_fmllr_train.1.ark:1637384
mram0_sx105 quick_test/data-fmllr-tri3/train/data/feats_fmllr_train.8.ark:12294982
fjsp0_sx264 quick_test/data-fmllr-tri3/train/data/feats_fmllr_train.2.ark:3848800
mljc0_sx415 quick_test/data-fmllr-tri3/train/data/feats_fmllr_train.7.ark:11238733
mdlr1_si1929 quick_test/data-fmllr-tri3/train/data/feats_fmllr_train.5.ark:5107663
mctm0_sx90 quick_test/data-fmllr-tri3/train/data/feats_fmllr_train.4.ark:13956494
mtlc0_sx127 quick_test/data-fmllr-tri3/train/data/feats_fmllr_train.10.ark:7074184
mmvp0_sx204 quick_test/data-fmllr-tri3/train/data/feats_fmllr_train.8.ark:3217380
mljh0_si1324 quick_test/data-fmllr-tri3/train/data/feats_fmllr_train.7.ark:11325187
fskc0_si786 quick_test/data-fmllr-tri3/train/data/feats_fmllr_train.3.ark:10092852
mcae0_si817 quick_test/data-fmllr-tri3/train/data/feats_fmllr_train.4.ark:8285644
mhmg0_sx285 quick_test/data-fmllr-tri3/train/data/feats_fmllr_train.6.ark:4871416
flkm0_sx116 quick_test/data-fmllr-tri3/train/data/feats_fmllr_train.2.ark:12206453
mtkd0_sx287 quick_test/data-fmllr-tri3/train/data/feats_fmllr_train.10.ark:5980173
mtjm0_si1856 quick_test/data-fmllr-tri3/train/data/feats_fmllr_train.10.ark:4530428
msds0_sx177 quick_test/data-fmllr-tri3/train/data/feats_fmllr_train.9.ark:13396439
mree0_sx384 quick_test/data-fmllr-tri3/train/data/feats_fmllr_train.8.ark:15484188
mtkp0_sx393 quick_test/data-fmllr-tri3/train/data/feats_fmllr_train.10.ark:6460257
mdpb0_si866 quick_test/data-fmllr-tri3/train/data/feats_fmllr_train.5.ark:6785039
flod0_sx117 quick_test/data-fmllr-tri3/train/data/feats_fmllr_train.2.ark:13729882
mdrd0_si752 quick_test/data-fmllr-tri3/train/data/feats_fmllr_train.5.ark:7849210
mree0_si1104 quick_test/data-fmllr-tri3/train/data/feats_fmllr_train.8.ark:15129918
mkdb0_sx152 quick_test/data-fmllr-tri3/train/data/feats_fmllr_train.7.ark:5688572
mpmb0_sx151 quick_test/data-fmllr-tri3/train/data/feats_fmllr_train.8.ark:8180332
mjjm0_si1457 quick_test/data-fmllr-tri3/train/data/feats_fmllr_train.6.ark:13239894
mmsm0_sx386 quick_test/data-fmllr-tri3/train/data/feats_fmllr_train.8.ark:2922843
mrtj0_sx232 quick_test/data-fmllr-tri3/train/data/feats_fmllr_train.9.ark:9429915
mmjb1_sx58 quick_test/data-fmllr-tri3/train/data/feats_fmllr_train.8.ark:1380855
flhd0_sx84 quick_test/data-fmllr-tri3/train/data/feats_fmllr_train.2.ark:10728092
mjrh0_sx135 quick_test/data-fmllr-tri3/train/data/feats_fmllr_train.7.ark:164736
fjkl0_si2192 quick_test/data-fmllr-tri3/train/data/feats_fmllr_train.2.ark:1267415
mjrh1_sx244 quick_test/data-fmllr-tri3/train/data/feats_fmllr_train.7.ark:594420
fklc0_si1615 quick_test/data-fmllr-tri3/train/data/feats_fmllr_train.2.ark:7304084
fjhk0_si1022 quick_test/data-fmllr-tri3/train/data/feats_fmllr_train.2.ark:864449
fkkh0_si1290 quick_test/data-fmllr-tri3/train/data/feats_fmllr_train.2.ark:6890107
mjmd0_sx398 quick_test/data-fmllr-tri3/train/data/feats_fmllr_train.6.ark:15705839
mesj0_sx7 quick_test/data-fmllr-tri3/train/data/feats_fmllr_train.5.ark:13628409
madc0_si1997 quick_test/data-fmllr-tri3/train/data/feats_fmllr_train.3.ark:17247989
mjjj0_sx443 quick_test/data-fmllr-tri3/train/data/feats_fmllr_train.6.ark:13077412
mrml0_sx161 quick_test/data-fmllr-tri3/train/data/feats_fmllr_train.9.ark:6430287
mppc0_sx152 quick_test/data-fmllr-tri3/train/data/feats_fmllr_train.8.ark:8696389
mpmb0_sx241 quick_test/data-fmllr-tri3/train/data/feats_fmllr_train.8.ark:8248839
mpgh0_sx114 quick_test/data-fmllr-tri3/train/data/feats_fmllr_train.8.ark:6985440
mrbc0_si599 quick_test/data-fmllr-tri3/train/data/feats_fmllr_train.8.ark:12936990
mtmt0_si1118 quick_test/data-fmllr-tri3/train/data/feats_fmllr_train.10.ark:8068354
mwad0_sx342 quick_test/data-fmllr-tri3/train/data/feats_fmllr_train.10.ark:14055906
fscn0_sx356 quick_test/data-fmllr-tri3/train/data/feats_fmllr_train.3.ark:7071836
mfxv0_sx15 quick_test/data-fmllr-tri3/train/data/feats_fmllr_train.5.ark:16070836
mbma0_si1222 quick_test/data-fmllr-tri3/train/data/feats_fmllr_train.4.ark:5550791
mrwa0_sx343 quick_test/data-fmllr-tri3/train/data/feats_fmllr_train.9.ark:10219656
ftbr0_si921 quick_test/data-fmllr-tri3/train/data/feats_fmllr_train.3.ark:14323720
mkaj0_si784 quick_test/data-fmllr-tri3/train/data/feats_fmllr_train.7.ark:4909391
msrg0_sx231 quick_test/data-fmllr-tri3/train/data/feats_fmllr_train.9.ark:17180979
mbsb0_sx363 quick_test/data-fmllr-tri3/train/data/feats_fmllr_train.4.ark:7229582
maeo0_sx336 quick_test/data-fmllr-tri3/train/data/feats_fmllr_train.4.ark:593327
mbbr0_si1685 quick_test/data-fmllr-tri3/train/data/feats_fmllr_train.4.ark:3823654
fksr0_sx161 quick_test/data-fmllr-tri3/train/data/feats_fmllr_train.2.ark:8615218
mmab1_sx414 quick_test/data-fmllr-tri3/train/data/feats_fmllr_train.7.ark:13306058
fcmg0_sx432 quick_test/data-fmllr-tri3/train/data/feats_fmllr_train.1.ark:8087074
mdhl0_sx179 quick_test/data-fmllr-tri3/train/data/feats_fmllr_train.5.ark:969009
mrpc1_sx312 quick_test/data-fmllr-tri3/train/data/feats_fmllr_train.9.ark:7283737
fsls0_sx426 quick_test/data-fmllr-tri3/train/data/feats_fmllr_train.3.ark:11387052
fsrh0_si671 quick_test/data-fmllr-tri3/train/data/feats_fmllr_train.3.ark:13183549
fbmj0_sx156 quick_test/data-fmllr-tri3/train/data/feats_fmllr_train.1.ark:4630318
mpgr1_si1269 quick_test/data-fmllr-tri3/train/data/feats_fmllr_train.8.ark:7506592
fhlm0_sx300 quick_test/data-fmllr-tri3/train/data/feats_fmllr_train.1.ark:18191039
mrlk0_si1468 quick_test/data-fmllr-tri3/train/data/feats_fmllr_train.9.ark:4399358
mrre0_sx164 quick_test/data-fmllr-tri3/train/data/feats_fmllr_train.9.ark:7632379
mjrp0_sx45 quick_test/data-fmllr-tri3/train/data/feats_fmllr_train.7.ark:1425814
fspm0_si1241 quick_test/data-fmllr-tri3/train/data/feats_fmllr_train.3.ark:12696077
mrem0_si511 quick_test/data-fmllr-tri3/train/data/feats_fmllr_train.8.ark:16013900
mvrw0_si2115 quick_test/data-fmllr-tri3/train/data/feats_fmllr_train.10.ark:13157123
fjxp0_si1752 quick_test/data-fmllr-tri3/train/data/feats_fmllr_train.2.ark:4884409
mlsh0_si1417 quick_test/data-fmllr-tri3/train/data/feats_fmllr_train.7.ark:12180661
msmc0_si1907 quick_test/data-fmllr-tri3/train/data/feats_fmllr_train.9.ark:15828060
flma0_sx163 quick_test/data-fmllr-tri3/train/data/feats_fmllr_train.2.ark:12620910
mtlb0_sx234 quick_test/data-fmllr-tri3/train/data/feats_fmllr_train.10.ark:6680074
mtas0_si1385 quick_test/data-fmllr-tri3/train/data/feats_fmllr_train.10.ark:937407
mrvg0_sx420 quick_test/data-fmllr-tri3/train/data/feats_fmllr_train.9.ark:9898986
milb0_si2163 quick_test/data-fmllr-tri3/train/data/feats_fmllr_train.6.ark:6120761
mjma0_sx55 quick_test/data-fmllr-tri3/train/data/feats_fmllr_train.6.ark:15374101
fcaj0_sx39 quick_test/data-fmllr-tri3/train/data/feats_fmllr_train.1.ark:5496593
fsag0_si1953 quick_test/data-fmllr-tri3/train/data/feats_fmllr_train.3.ark:5146700
mpgr0_si2040 quick_test/data-fmllr-tri3/train/data/feats_fmllr_train.8.ark:7217123
mbgt0_si1341 quick_test/data-fmllr-tri3/train/data/feats_fmllr_train.4.ark:4784437
mjdg0_sx322 quick_test/data-fmllr-tri3/train/data/feats_fmllr_train.6.ark:9492392
megj0_sx77 quick_test/data-fmllr-tri3/train/data/feats_fmllr_train.5.ark:12207569
mdtb0_si1200 quick_test/data-fmllr-tri3/train/data/feats_fmllr_train.5.ark:9250983
mvlo0_sx337 quick_test/data-fmllr-tri3/train/data/feats_fmllr_train.10.ark:12949974
fjhk0_sx212 quick_test/data-fmllr-tri3/train/data/feats_fmllr_train.2.ark:1064559
feme0_si1505 quick_test/data-fmllr-tri3/train/data/feats_fmllr_train.1.ark:14992742
mmsm0_sx206 quick_test/data-fmllr-tri3/train/data/feats_fmllr_train.8.ark:2784203
mdss1_sx157 quick_test/data-fmllr-tri3/train/data/feats_fmllr_train.5.ark:9039328
fcaj0_sx309 quick_test/data-fmllr-tri3/train/data/feats_fmllr_train.1.ark:5445847
fkkh0_sx120 quick_test/data-fmllr-tri3/train/data/feats_fmllr_train.2.ark:7087469
faem0_sx402 quick_test/data-fmllr-tri3/train/data/feats_fmllr_train.1.ark:304336
mdlc2_sx264 quick_test/data-fmllr-tri3/train/data/feats_fmllr_train.5.ark:3739197
mjwg0_sx445 quick_test/data-fmllr-tri3/train/data/feats_fmllr_train.7.ark:2322541
mljc0_sx55 quick_test/data-fmllr-tri3/train/data/feats_fmllr_train.7.ark:11281959
mdmt0_sx32 quick_test/data-fmllr-tri3/train/data/feats_fmllr_train.5.ark:6189992
fcrz0_si2053 quick_test/data-fmllr-tri3/train/data/feats_fmllr_train.1.ark:8625613
feme0_sx155 quick_test/data-fmllr-tri3/train/data/feats_fmllr_train.1.ark:15155704
mjwg0_si2155 quick_test/data-fmllr-tri3/train/data/feats_fmllr_train.7.ark:1951819
mbcg0_si2217 quick_test/data-fmllr-tri3/train/data/feats_fmllr_train.4.ark:4113444
mtpf0_sx65 quick_test/data-fmllr-tri3/train/data/feats_fmllr_train.10.ark:8778360
mjwt0_sx211 quick_test/data-fmllr-tri3/train/data/feats_fmllr_train.7.ark:3065641
mctm0_sx270 quick_test/data-fmllr-tri3/train/data/feats_fmllr_train.4.ark:13821854
ftmg0_si902 quick_test/data-fmllr-tri3/train/data/feats_fmllr_train.3.ark:15446930
mrab0_si1224 quick_test/data-fmllr-tri3/train/data/feats_fmllr_train.8.ark:10934728
mjjm0_sx107 quick_test/data-fmllr-tri3/train/data/feats_fmllr_train.6.ark:13349068
mcth0_si1839 quick_test/data-fmllr-tri3/train/data/feats_fmllr_train.4.ark:13289716
mdhs0_si1530 quick_test/data-fmllr-tri3/train/data/feats_fmllr_train.5.ark:1207864
mpfu0_sx358 quick_test/data-fmllr-tri3/train/data/feats_fmllr_train.8.ark:6665598
mcdd0_sx433 quick_test/data-fmllr-tri3/train/data/feats_fmllr_train.4.ark:9598721
fjdm2_sx322 quick_test/data-fmllr-tri3/train/data/feats_fmllr_train.2.ark:271670
fpjf0_si1046 quick_test/data-fmllr-tri3/train/data/feats_fmllr_train.3.ark:2831611
fkfb0_sx348 quick_test/data-fmllr-tri3/train/data/feats_fmllr_train.2.ark:6690026
mmgk0_sx242 quick_test/data-fmllr-tri3/train/data/feats_fmllr_train.8.ark:877358
mchl0_si1404 quick_test/data-fmllr-tri3/train/data/feats_fmllr_train.4.ark:11056734
mtjm0_si1226 quick_test/data-fmllr-tri3/train/data/feats_fmllr_train.10.ark:4469440
mpfu0_sx268 quick_test/data-fmllr-tri3/train/data/feats_fmllr_train.8.ark:6613731
mhrm0_si1475 quick_test/data-fmllr-tri3/train/data/feats_fmllr_train.6.ark:5357928
mkrg0_sx411 quick_test/data-fmllr-tri3/train/data/feats_fmllr_train.7.ark:9677704
faem0_si762 quick_test/data-fmllr-tri3/train/data/feats_fmllr_train.1.ark:111588
fsmm0_sx144 quick_test/data-fmllr-tri3/train/data/feats_fmllr_train.3.ark:12030125
megj0_si1967 quick_test/data-fmllr-tri3/train/data/feats_fmllr_train.5.ark:11922450
mhit0_sx173 quick_test/data-fmllr-tri3/train/data/feats_fmllr_train.6.ark:4069301
mbar0_sx59 quick_test/data-fmllr-tri3/train/data/feats_fmllr_train.4.ark:3722158
mgaw0_sx85 quick_test/data-fmllr-tri3/train/data/feats_fmllr_train.6.ark:716580
mgaw0_si1802 quick_test/data-fmllr-tri3/train/data/feats_fmllr_train.6.ark:456579
mtbc0_si1803 quick_test/data-fmllr-tri3/train/data/feats_fmllr_train.10.ark:2089446
mdwh0_si1925 quick_test/data-fmllr-tri3/train/data/feats_fmllr_train.5.ark:10013206
mlel0_sx166 quick_test/data-fmllr-tri3/train/data/feats_fmllr_train.7.ark:10662755
mrso0_sx219 quick_test/data-fmllr-tri3/train/data/feats_fmllr_train.9.ark:8121104
mdmt0_sx212 quick_test/data-fmllr-tri3/train/data/feats_fmllr_train.5.ark:6090739
mtlb0_sx144 quick_test/data-fmllr-tri3/train/data/feats_fmllr_train.10.ark:6638447
mtat0_si1110 quick_test/data-fmllr-tri3/train/data/feats_fmllr_train.10.ark:1241304
mkxl0_sx15 quick_test/data-fmllr-tri3/train/data/feats_fmllr_train.7.ark:9968427
mtpf0_si1235 quick_test/data-fmllr-tri3/train/data/feats_fmllr_train.10.ark:8452411
mmgk0_si1322 quick_test/data-fmllr-tri3/train/data/feats_fmllr_train.8.ark:739489
fjrb0_sx312 quick_test/data-fmllr-tri3/train/data/feats_fmllr_train.2.ark:2591535
mbcg0_si486 quick_test/data-fmllr-tri3/train/data/feats_fmllr_train.4.ark:4155871
fsdc0_si1312 quick_test/data-fmllr-tri3/train/data/feats_fmllr_train.3.ark:7225517
mrlj1_si1671 quick_test/data-fmllr-tri3/train/data/feats_fmllr_train.9.ark:4063460
mmdm0_sx411 quick_test/data-fmllr-tri3/train/data/feats_fmllr_train.7.ark:16521715
msmr0_si1405 quick_test/data-fmllr-tri3/train/data/feats_fmllr_train.9.ark:16303664
mfwk0_si1249 quick_test/data-fmllr-tri3/train/data/feats_fmllr_train.5.ark:15124372
fleh0_sx241 quick_test/data-fmllr-tri3/train/data/feats_fmllr_train.2.ark:9859897
mrwa0_sx73 quick_test/data-fmllr-tri3/train/data/feats_fmllr_train.9.ark:10333629
feeh0_sx392 quick_test/data-fmllr-tri3/train/data/feats_fmllr_train.1.ark:14942474
fblv0_sx158 quick_test/data-fmllr-tri3/train/data/feats_fmllr_train.1.ark:3857085
mlel0_sx346 quick_test/data-fmllr-tri3/train/data/feats_fmllr_train.7.ark:10786329
fblv0_sx338 quick_test/data-fmllr-tri3/train/data/feats_fmllr_train.1.ark:3930739
mrgs0_sx96 quick_test/data-fmllr-tri3/train/data/feats_fmllr_train.9.ark:387400
mkls0_sx177 quick_test/data-fmllr-tri3/train/data/feats_fmllr_train.7.ark:8385452
fspm0_sx431 quick_test/data-fmllr-tri3/train/data/feats_fmllr_train.3.ark:13040880
mgrp0_si1947 quick_test/data-fmllr-tri3/train/data/feats_fmllr_train.6.ark:1944808
mrjh0_sx169 quick_test/data-fmllr-tri3/train/data/feats_fmllr_train.9.ark:1422664
mrjt0_sx418 quick_test/data-fmllr-tri3/train/data/feats_fmllr_train.9.ark:2775237
mtlc0_si847 quick_test/data-fmllr-tri3/train/data/feats_fmllr_train.10.ark:7032237
mhmr0_sx39 quick_test/data-fmllr-tri3/train/data/feats_fmllr_train.6.ark:5277873
mfer0_sx322 quick_test/data-fmllr-tri3/train/data/feats_fmllr_train.5.ark:14236496
medr0_si744 quick_test/data-fmllr-tri3/train/data/feats_fmllr_train.5.ark:11182685
fpmy0_si1153 quick_test/data-fmllr-tri3/train/data/feats_fmllr_train.3.ark:3564844
mjjj0_sx353 quick_test/data-fmllr-tri3/train/data/feats_fmllr_train.6.ark:13027145
mjxa0_sx157 quick_test/data-fmllr-tri3/train/data/feats_fmllr_train.7.ark:3392071
mlsh0_sx427 quick_test/data-fmllr-tri3/train/data/feats_fmllr_train.7.ark:12494424
mwar0_sx55 quick_test/data-fmllr-tri3/train/data/feats_fmllr_train.10.ark:14488497
mtat1_sx239 quick_test/data-fmllr-tri3/train/data/feats_fmllr_train.10.ark:1840190
fpls0_si2220 quick_test/data-fmllr-tri3/train/data/feats_fmllr_train.3.ark:3242097
fbjl0_si1552 quick_test/data-fmllr-tri3/train/data/feats_fmllr_train.1.ark:3276465
mejl0_sx332 quick_test/data-fmllr-tri3/train/data/feats_fmllr_train.5.ark:12459893
mjee0_si607 quick_test/data-fmllr-tri3/train/data/feats_fmllr_train.6.ark:10931259
mcxm0_si1981 quick_test/data-fmllr-tri3/train/data/feats_fmllr_train.4.ark:14031110
madc0_si1367 quick_test/data-fmllr-tri3/train/data/feats_fmllr_train.3.ark:17176121
mdac0_sx451 quick_test/data-fmllr-tri3/train/data/feats_fmllr_train.4.ark:14668902
mdlc1_sx175 quick_test/data-fmllr-tri3/train/data/feats_fmllr_train.5.ark:3358153
mgar0_sx222 quick_test/data-fmllr-tri3/train/data/feats_fmllr_train.6.ark:181083
mhmr0_si1692 quick_test/data-fmllr-tri3/train/data/feats_fmllr_train.6.ark:4998219
mtjg0_sx80 quick_test/data-fmllr-tri3/train/data/feats_fmllr_train.10.ark:4438052
msmr0_si775 quick_test/data-fmllr-tri3/train/data/feats_fmllr_train.9.ark:16346251
fsms1_si1504 quick_test/data-fmllr-tri3/train/data/feats_fmllr_train.3.ark:12312180
mdps0_sx449 quick_test/data-fmllr-tri3/train/data/feats_fmllr_train.5.ark:7675181
mjeb1_si1467 quick_test/data-fmllr-tri3/train/data/feats_fmllr_train.6.ark:10416267
mfwk0_si1879 quick_test/data-fmllr-tri3/train/data/feats_fmllr_train.5.ark:15163120
fljd0_sx346 quick_test/data-fmllr-tri3/train/data/feats_fmllr_train.2.ark:11453274
mhrm0_sx58 quick_test/data-fmllr-tri3/train/data/feats_fmllr_train.6.ark:5670117
mmgg0_sx89 quick_test/data-fmllr-tri3/train/data/feats_fmllr_train.8.ark:702021
mwgr0_si2236 quick_test/data-fmllr-tri3/train/data/feats_fmllr_train.10.ark:15694806
mrmb0_si1581 quick_test/data-fmllr-tri3/train/data/feats_fmllr_train.9.ark:5146512
mjae0_sx444 quick_test/data-fmllr-tri3/train/data/feats_fmllr_train.6.ark:7141836
mgjc0_si1256 quick_test/data-fmllr-tri3/train/data/feats_fmllr_train.6.ark:1075385
mjmm0_si1885 quick_test/data-fmllr-tri3/train/data/feats_fmllr_train.6.ark:15820295
mdps0_sx179 quick_test/data-fmllr-tri3/train/data/feats_fmllr_train.5.ark:7539900
mjdc0_sx261 quick_test/data-fmllr-tri3/train/data/feats_fmllr_train.6.ark:8583931
frjb0_si1794 quick_test/data-fmllr-tri3/train/data/feats_fmllr_train.3.ark:4418454
fhxs0_sx355 quick_test/data-fmllr-tri3/train/data/feats_fmllr_train.1.ark:18707418
mtrc0_sx93 quick_test/data-fmllr-tri3/train/data/feats_fmllr_train.10.ark:10774964
mcdr0_si1784 quick_test/data-fmllr-tri3/train/data/feats_fmllr_train.4.ark:9753523
flac0_sx271 quick_test/data-fmllr-tri3/train/data/feats_fmllr_train.2.ark:9044422
mtlb0_si1134 quick_test/data-fmllr-tri3/train/data/feats_fmllr_train.10.ark:6498845
mtjs0_sx292 quick_test/data-fmllr-tri3/train/data/feats_fmllr_train.10.ark:5179899
fclt0_sx178 quick_test/data-fmllr-tri3/train/data/feats_fmllr_train.1.ark:7540855
mdwd0_sx450 quick_test/data-fmllr-tri3/train/data/feats_fmllr_train.5.ark:9848324
mtjs0_si1822 quick_test/data-fmllr-tri3/train/data/feats_fmllr_train.10.ark:4887605
milb0_sx3 quick_test/data-fmllr-tri3/train/data/feats_fmllr_train.6.ark:6364894
mrcg0_sx258 quick_test/data-fmllr-tri3/train/data/feats_fmllr_train.8.ark:13449261
mjpm0_sx288 quick_test/data-fmllr-tri3/train/data/feats_fmllr_train.6.ark:16743423
fsak0_sx220 quick_test/data-fmllr-tri3/train/data/feats_fmllr_train.3.ark:6137135
mrcg0_sx78 quick_test/data-fmllr-tri3/train/data/feats_fmllr_train.8.ark:13644701
mbom0_sx311 quick_test/data-fmllr-tri3/train/data/feats_fmllr_train.4.ark:6923286
mdlh0_si700 quick_test/data-fmllr-tri3/train/data/feats_fmllr_train.5.ark:3995999
mdlr1_sx129 quick_test/data-fmllr-tri3/train/data/feats_fmllr_train.5.ark:5225157
mmgc0_sx135 quick_test/data-fmllr-tri3/train/data/feats_fmllr_train.8.ark:150016
mkaj0_sx244 quick_test/data-fmllr-tri3/train/data/feats_fmllr_train.7.ark:4986725
fjwb1_si748 quick_test/data-fmllr-tri3/train/data/feats_fmllr_train.2.ark:4078695
mbml0_sx359 quick_test/data-fmllr-tri3/train/data/feats_fmllr_train.4.ark:6532961
mmws1_si1701 quick_test/data-fmllr-tri3/train/data/feats_fmllr_train.8.ark:4364830
mdcd0_sx245 quick_test/data-fmllr-tri3/train/data/feats_fmllr_train.4.ark:16090514
mjfr0_sx435 quick_test/data-fmllr-tri3/train/data/feats_fmllr_train.6.ark:11831961
fajw0_si1893 quick_test/data-fmllr-tri3/train/data/feats_fmllr_train.1.ark:469858
mkxl0_si1958 quick_test/data-fmllr-tri3/train/data/feats_fmllr_train.7.ark:9866134
mmeb0_sx97 quick_test/data-fmllr-tri3/train/data/feats_fmllr_train.7.ark:17961967
fspm0_sx251 quick_test/data-fmllr-tri3/train/data/feats_fmllr_train.3.ark:12919386
falk0_si1086 quick_test/data-fmllr-tri3/train/data/feats_fmllr_train.1.ark:814845
mmwb0_sx179 quick_test/data-fmllr-tri3/train/data/feats_fmllr_train.8.ark:3632291
mtjg0_si890 quick_test/data-fmllr-tri3/train/data/feats_fmllr_train.10.ark:4141118
mtmt0_sx218 quick_test/data-fmllr-tri3/train/data/feats_fmllr_train.10.ark:8265103
mwad0_sx252 quick_test/data-fmllr-tri3/train/data/feats_fmllr_train.10.ark:14022759
fbas0_sx217 quick_test/data-fmllr-tri3/train/data/feats_fmllr_train.1.ark:2311124
mdrd0_sx392 quick_test/data-fmllr-tri3/train/data/feats_fmllr_train.5.ark:8150784
mabc0_sx421 quick_test/data-fmllr-tri3/train/data/feats_fmllr_train.3.ark:17098787
mkdt0_si814 quick_test/data-fmllr-tri3/train/data/feats_fmllr_train.7.ark:6362391
fdaw0_si1271 quick_test/data-fmllr-tri3/train/data/feats_fmllr_train.1.ark:9731036
mwrp0_sx93 quick_test/data-fmllr-tri3/train/data/feats_fmllr_train.10.ark:16759721
fkde0_sx421 quick_test/data-fmllr-tri3/train/data/feats_fmllr_train.2.ark:5950259
mfer0_si2122 quick_test/data-fmllr-tri3/train/data/feats_fmllr_train.5.ark:14053828
mjws0_sx243 quick_test/data-fmllr-tri3/train/data/feats_fmllr_train.7.ark:2592944
mrew1_si1500 quick_test/data-fmllr-tri3/train/data/feats_fmllr_train.8.ark:16352169
mrbc0_sx149 quick_test/data-fmllr-tri3/train/data/feats_fmllr_train.8.ark:12984217
fspm0_sx161 quick_test/data-fmllr-tri3/train/data/feats_fmllr_train.3.ark:12860799
mrjh0_si914 quick_test/data-fmllr-tri3/train/data/feats_fmllr_train.9.ark:1389197
mabc0_sx61 quick_test/data-fmllr-tri3/train/data/feats_fmllr_train.3.ark:17136413
fgmb0_sx245 quick_test/data-fmllr-tri3/train/data/feats_fmllr_train.1.ark:17296177
mkls0_si1533 quick_test/data-fmllr-tri3/train/data/feats_fmllr_train.7.ark:8286997
mjfr0_sx255 quick_test/data-fmllr-tri3/train/data/feats_fmllr_train.6.ark:11723427
mmag0_sx46 quick_test/data-fmllr-tri3/train/data/feats_fmllr_train.7.ark:13810141
mjdm0_sx260 quick_test/data-fmllr-tri3/train/data/feats_fmllr_train.6.ark:9827782
mdns0_sx111 quick_test/data-fmllr-tri3/train/data/feats_fmllr_train.5.ark:6466449
fsjw0_si1333 quick_test/data-fmllr-tri3/train/data/feats_fmllr_train.3.ark:9584260
mpfu0_si1258 quick_test/data-fmllr-tri3/train/data/feats_fmllr_train.8.ark:6416822
flmk0_si1229 quick_test/data-fmllr-tri3/train/data/feats_fmllr_train.2.ark:13250570
madd0_sx178 quick_test/data-fmllr-tri3/train/data/feats_fmllr_train.3.ark:17721860
fmmh0_si2167 quick_test/data-fmllr-tri3/train/data/feats_fmllr_train.2.ark:17598397
mvjh0_sx386 quick_test/data-fmllr-tri3/train/data/feats_fmllr_train.10.ark:12665970
fsak0_sx130 quick_test/data-fmllr-tri3/train/data/feats_fmllr_train.3.ark:6105268
mjeb0_si1286 quick_test/data-fmllr-tri3/train/data/feats_fmllr_train.6.ark:10042290
fhlm0_si930 quick_test/data-fmllr-tri3/train/data/feats_fmllr_train.1.ark:18029998
msdb0_sx287 quick_test/data-fmllr-tri3/train/data/feats_fmllr_train.9.ark:12732564
mklw0_si1571 quick_test/data-fmllr-tri3/train/data/feats_fmllr_train.7.ark:8990444
mrxb0_sx145 quick_test/data-fmllr-tri3/train/data/feats_fmllr_train.9.ark:10882436
fmjf0_sx444 quick_test/data-fmllr-tri3/train/data/feats_fmllr_train.2.ark:16216065
mtkd0_sx107 quick_test/data-fmllr-tri3/train/data/feats_fmllr_train.10.ark:5852733
mdtb0_sx390 quick_test/data-fmllr-tri3/train/data/feats_fmllr_train.5.ark:9538693
msat0_sx266 quick_test/data-fmllr-tri3/train/data/feats_fmllr_train.9.ark:12012395
meal0_si2177 quick_test/data-fmllr-tri3/train/data/feats_fmllr_train.5.ark:10811080
mmgk0_si1952 quick_test/data-fmllr-tri3/train/data/feats_fmllr_train.8.ark:793277
mdks0_sx346 quick_test/data-fmllr-tri3/train/data/feats_fmllr_train.5.ark:2156915
fjlg0_si1889 quick_test/data-fmllr-tri3/train/data/feats_fmllr_train.2.ark:1638832
msvs0_sx128 quick_test/data-fmllr-tri3/train/data/feats_fmllr_train.10.ark:200255
mjpg0_si1191 quick_test/data-fmllr-tri3/train/data/feats_fmllr_train.6.ark:16109124
mkls1_si1545 quick_test/data-fmllr-tri3/train/data/feats_fmllr_train.7.ark:8621747
mwdk0_si2017 quick_test/data-fmllr-tri3/train/data/feats_fmllr_train.10.ark:14931171
mewm0_si1978 quick_test/data-fmllr-tri3/train/data/feats_fmllr_train.5.ark:13729611
mgrp0_sx417 quick_test/data-fmllr-tri3/train/data/feats_fmllr_train.6.ark:2202223
mhit0_sx443 quick_test/data-fmllr-tri3/train/data/feats_fmllr_train.6.ark:4213222
mrmb0_sx231 quick_test/data-fmllr-tri3/train/data/feats_fmllr_train.9.ark:5342941
mdlb0_sx226 quick_test/data-fmllr-tri3/train/data/feats_fmllr_train.5.ark:2562865
mrcg0_si798 quick_test/data-fmllr-tri3/train/data/feats_fmllr_train.8.ark:13347447
mgag0_sx241 quick_test/data-fmllr-tri3/train/data/feats_fmllr_train.5.ark:16771430
fsgf0_si927 quick_test/data-fmllr-tri3/train/data/feats_fmllr_train.3.ark:8023607
mrab0_si594 quick_test/data-fmllr-tri3/train/data/feats_fmllr_train.8.ark:11041983
mrhl0_sx435 quick_test/data-fmllr-tri3/train/data/feats_fmllr_train.9.ark:692871
fetb0_si1148 quick_test/data-fmllr-tri3/train/data/feats_fmllr_train.1.ark:15416959
mtmn0_sx164 quick_test/data-fmllr-tri3/train/data/feats_fmllr_train.10.ark:7856379
fmkf0_si906 quick_test/data-fmllr-tri3/train/data/feats_fmllr_train.2.ark:17253729
mbth0_sx392 quick_test/data-fmllr-tri3/train/data/feats_fmllr_train.4.ark:7656704
mrjm0_sx238 quick_test/data-fmllr-tri3/train/data/feats_fmllr_train.9.ark:1888829
msfv0_si632 quick_test/data-fmllr-tri3/train/data/feats_fmllr_train.9.ark:15078561
mcdd0_sx253 quick_test/data-fmllr-tri3/train/data/feats_fmllr_train.4.ark:9517547
fsjk1_sx125 quick_test/data-fmllr-tri3/train/data/feats_fmllr_train.3.ark:8963748
mtwh1_sx252 quick_test/data-fmllr-tri3/train/data/feats_fmllr_train.10.ark:11715215
marc0_sx198 quick_test/data-fmllr-tri3/train/data/feats_fmllr_train.4.ark:2849030
mrhl0_sx345 quick_test/data-fmllr-tri3/train/data/feats_fmllr_train.9.ark:652204
mmam0_sx337 quick_test/data-fmllr-tri3/train/data/feats_fmllr_train.7.ark:14060866
mdtb0_si1830 quick_test/data-fmllr-tri3/train/data/feats_fmllr_train.5.ark:9281891
fmem0_si747 quick_test/data-fmllr-tri3/train/data/feats_fmllr_train.2.ark:15209124
fcaj0_si1804 quick_test/data-fmllr-tri3/train/data/feats_fmllr_train.1.ark:5264459
mdlc1_si2065 quick_test/data-fmllr-tri3/train/data/feats_fmllr_train.5.ark:3270578
fsls0_sx202 quick_test/data-fmllr-tri3/train/data/feats_fmllr_train.3.ark:11316758
mrlj0_sx160 quick_test/data-fmllr-tri3/train/data/feats_fmllr_train.9.ark:3860445
flkm0_sx80 quick_test/data-fmllr-tri3/train/data/feats_fmllr_train.2.ark:12444320
fgrw0_sx432 quick_test/data-fmllr-tri3/train/data/feats_fmllr_train.1.ark:17850529
mjpm1_sx401 quick_test/data-fmllr-tri3/train/data/feats_fmllr_train.6.ark:17117561
mtqc0_sx451 quick_test/data-fmllr-tri3/train/data/feats_fmllr_train.10.ark:10336002
fskl0_si2159 quick_test/data-fmllr-tri3/train/data/feats_fmllr_train.3.ark:10395922
mfmc0_si1762 quick_test/data-fmllr-tri3/train/data/feats_fmllr_train.5.ark:14404445
mfxv0_sx285 quick_test/data-fmllr-tri3/train/data/feats_fmllr_train.5.ark:16139690
mjxa0_si877 quick_test/data-fmllr-tri3/train/data/feats_fmllr_train.7.ark:3350924
mgrl0_sx57 quick_test/data-fmllr-tri3/train/data/feats_fmllr_train.6.ark:1844112
mjmd0_sx128 quick_test/data-fmllr-tri3/train/data/feats_fmllr_train.6.ark:15542052
mreh1_sx429 quick_test/data-fmllr-tri3/train/data/feats_fmllr_train.8.ark:15860379
mrab0_sx324 quick_test/data-fmllr-tri3/train/data/feats_fmllr_train.8.ark:11158864
mkaj0_sx334 quick_test/data-fmllr-tri3/train/data/feats_fmllr_train.7.ark:5035552
mtxs0_sx70 quick_test/data-fmllr-tri3/train/data/feats_fmllr_train.10.ark:12309913
fbcg1_sx442 quick_test/data-fmllr-tri3/train/data/feats_fmllr_train.1.ark:2750915
mwch0_sx452 quick_test/data-fmllr-tri3/train/data/feats_fmllr_train.10.ark:14769649
msfh0_sx136 quick_test/data-fmllr-tri3/train/data/feats_fmllr_train.9.ark:14698531
fjxp0_sx402 quick_test/data-fmllr-tri3/train/data/feats_fmllr_train.2.ark:5114944
mgag0_si645 quick_test/data-fmllr-tri3/train/data/feats_fmllr_train.5.ark:16632949
mrdm0_sx335 quick_test/data-fmllr-tri3/train/data/feats_fmllr_train.8.ark:14653940
mdhs0_sx180 quick_test/data-fmllr-tri3/train/data/feats_fmllr_train.5.ark:1355786
fear0_si622 quick_test/data-fmllr-tri3/train/data/feats_fmllr_train.1.ark:13817106
madc0_sx287 quick_test/data-fmllr-tri3/train/data/feats_fmllr_train.3.ark:17492123
mmvp0_si1284 quick_test/data-fmllr-tri3/train/data/feats_fmllr_train.8.ark:2969111
mjeb1_sx27 quick_test/data-fmllr-tri3/train/data/feats_fmllr_train.6.ark:10704082
mjxa0_sx427 quick_test/data-fmllr-tri3/train/data/feats_fmllr_train.7.ark:3526392
mtas0_si755 quick_test/data-fmllr-tri3/train/data/feats_fmllr_train.10.ark:1021942
mcdd0_sx343 quick_test/data-fmllr-tri3/train/data/feats_fmllr_train.4.ark:9550694
msjk0_sx66 quick_test/data-fmllr-tri3/train/data/feats_fmllr_train.9.ark:15787072
mrav0_sx198 quick_test/data-fmllr-tri3/train/data/feats_fmllr_train.8.ark:12731093
mdtb0_sx210 quick_test/data-fmllr-tri3/train/data/feats_fmllr_train.5.ark:9417652
mrfl0_sx76 quick_test/data-fmllr-tri3/train/data/feats_fmllr_train.8.ark:17435353
mmjb1_si2038 quick_test/data-fmllr-tri3/train/data/feats_fmllr_train.8.ark:1082614
fsdj0_si485 quick_test/data-fmllr-tri3/train/data/feats_fmllr_train.3.ark:7689790
mjmm0_sx355 quick_test/data-fmllr-tri3/train/data/feats_fmllr_train.6.ark:16002003
mwsh0_sx346 quick_test/data-fmllr-tri3/train/data/feats_fmllr_train.10.ark:17437060
fjhk0_sx32 quick_test/data-fmllr-tri3/train/data/feats_fmllr_train.2.ark:1161092
mstf0_sx46 quick_test/data-fmllr-tri3/train/data/feats_fmllr_train.9.ark:18104851
mjra0_sx66 quick_test/data-fmllr-tri3/train/data/feats_fmllr_train.6.ark:17569164
mmdm1_si1650 quick_test/data-fmllr-tri3/train/data/feats_fmllr_train.7.ark:16622089
ftmg0_sx452 quick_test/data-fmllr-tri3/train/data/feats_fmllr_train.3.ark:15658718
fdmy0_sx27 quick_test/data-fmllr-tri3/train/data/feats_fmllr_train.1.ark:11980899
mjai0_sx254 quick_test/data-fmllr-tri3/train/data/feats_fmllr_train.6.ark:7506318
mlsh0_sx337 quick_test/data-fmllr-tri3/train/data/feats_fmllr_train.7.ark:12448157
fkaa0_sx218 quick_test/data-fmllr-tri3/train/data/feats_fmllr_train.2.ark:5389507
mjlg1_sx202 quick_test/data-fmllr-tri3/train/data/feats_fmllr_train.6.ark:14499987
fklh0_sx447 quick_test/data-fmllr-tri3/train/data/feats_fmllr_train.2.ark:8393802
msrr0_sx51 quick_test/data-fmllr-tri3/train/data/feats_fmllr_train.9.ark:17683835
mmcc0_sx168 quick_test/data-fmllr-tri3/train/data/feats_fmllr_train.7.ark:15258263
mprd0_sx441 quick_test/data-fmllr-tri3/train/data/feats_fmllr_train.8.ark:9730504
mkln0_sx248 quick_test/data-fmllr-tri3/train/data/feats_fmllr_train.7.ark:7677363
fdkn0_sx451 quick_test/data-fmllr-tri3/train/data/feats_fmllr_train.1.ark:11158253
fsah0_sx74 quick_test/data-fmllr-tri3/train/data/feats_fmllr_train.3.ark:5914918
mlns0_sx147 quick_test/data-fmllr-tri3/train/data/feats_fmllr_train.7.ark:11966286
fkkh0_sx210 quick_test/data-fmllr-tri3/train/data/feats_fmllr_train.2.ark:7140936
mrjb1_si1413 quick_test/data-fmllr-tri3/train/data/feats_fmllr_train.9.ark:841273
mrfk0_sx176 quick_test/data-fmllr-tri3/train/data/feats_fmllr_train.8.ark:16839989
fbcg1_si2242 quick_test/data-fmllr-tri3/train/data/feats_fmllr_train.1.ark:2493020
fvmh0_si836 quick_test/data-fmllr-tri3/train/data/feats_fmllr_train.3.ark:16603902
mrjm0_sx58 quick_test/data-fmllr-tri3/train/data/feats_fmllr_train.9.ark:2037869
mrvg0_si510 quick_test/data-fmllr-tri3/train/data/feats_fmllr_train.9.ark:9743358
mjpm0_si1368 quick_test/data-fmllr-tri3/train/data/feats_fmllr_train.6.ark:16436381
mjsr0_sx254 quick_test/data-fmllr-tri3/train/data/feats_fmllr_train.7.ark:1744191
mdlc0_sx405 quick_test/data-fmllr-tri3/train/data/feats_fmllr_train.5.ark:3103456
mjpm1_si761 quick_test/data-fmllr-tri3/train/data/feats_fmllr_train.6.ark:16894253
mrpc1_sx402 quick_test/data-fmllr-tri3/train/data/feats_fmllr_train.9.ark:7345684
mkdb0_si588 quick_test/data-fmllr-tri3/train/data/feats_fmllr_train.7.ark:5604358
mrdm0_sx65 quick_test/data-fmllr-tri3/train/data/feats_fmllr_train.8.ark:14755273
mtpg0_sx123 quick_test/data-fmllr-tri3/train/data/feats_fmllr_train.10.ark:8962950
fbch0_sx146 quick_test/data-fmllr-tri3/train/data/feats_fmllr_train.1.ark:3030250
mdpb0_sx56 quick_test/data-fmllr-tri3/train/data/feats_fmllr_train.5.ark:7025813
fclt0_si2068 quick_test/data-fmllr-tri3/train/data/feats_fmllr_train.1.ark:7449441
mjxl0_sx362 quick_test/data-fmllr-tri3/train/data/feats_fmllr_train.7.ark:3842582
msem1_sx180 quick_test/data-fmllr-tri3/train/data/feats_fmllr_train.9.ark:13907696
marc0_sx18 quick_test/data-fmllr-tri3/train/data/feats_fmllr_train.4.ark:2811883
madd0_sx358 quick_test/data-fmllr-tri3/train/data/feats_fmllr_train.3.ark:17832794
mctm0_si720 quick_test/data-fmllr-tri3/train/data/feats_fmllr_train.4.ark:13742760
fvkb0_si1159 quick_test/data-fmllr-tri3/train/data/feats_fmllr_train.3.ark:16098030
mkaj0_sx154 quick_test/data-fmllr-tri3/train/data/feats_fmllr_train.7.ark:4952778
mwch0_si1622 quick_test/data-fmllr-tri3/train/data/feats_fmllr_train.10.ark:14541165
mjra0_sx156 quick_test/data-fmllr-tri3/train/data/feats_fmllr_train.6.ark:17365537
fceg0_sx348 quick_test/data-fmllr-tri3/train/data/feats_fmllr_train.1.ark:6262121
fcag0_si1503 quick_test/data-fmllr-tri3/train/data/feats_fmllr_train.1.ark:4895413
fhxs0_sx85 quick_test/data-fmllr-tri3/train/data/feats_fmllr_train.1.ark:18790351
mjwg0_sx265 quick_test/data-fmllr-tri3/train/data/feats_fmllr_train.7.ark:2230967
fpjf0_sx236 quick_test/data-fmllr-tri3/train/data/feats_fmllr_train.3.ark:3020201
flmk0_sx45 quick_test/data-fmllr-tri3/train/data/feats_fmllr_train.2.ark:13539852
mbma1_sx234 quick_test/data-fmllr-tri3/train/data/feats_fmllr_train.4.ark:6109037
msat0_sx446 quick_test/data-fmllr-tri3/train/data/feats_fmllr_train.9.ark:12079969
flhd0_si1827 quick_test/data-fmllr-tri3/train/data/feats_fmllr_train.2.ark:10463130
mdlc0_si2025 quick_test/data-fmllr-tri3/train/data/feats_fmllr_train.5.ark:2865721
fsjk1_sx35 quick_test/data-fmllr-tri3/train/data/feats_fmllr_train.3.ark:9086868
flhd0_si1974 quick_test/data-fmllr-tri3/train/data/feats_fmllr_train.2.ark:10491478
fsjw0_sx343 quick_test/data-fmllr-tri3/train/data/feats_fmllr_train.3.ark:9834796
fskl0_sx449 quick_test/data-fmllr-tri3/train/data/feats_fmllr_train.3.ark:10639417
fjhk0_sx122 quick_test/data-fmllr-tri3/train/data/feats_fmllr_train.2.ark:1009492
fvfb0_si1032 quick_test/data-fmllr-tri3/train/data/feats_fmllr_train.3.ark:15754452
msem1_sx360 quick_test/data-fmllr-tri3/train/data/feats_fmllr_train.9.ark:14007270
milb0_si903 quick_test/data-fmllr-tri3/train/data/feats_fmllr_train.6.ark:6215855
mmdb0_sx357 quick_test/data-fmllr-tri3/train/data/feats_fmllr_train.7.ark:15705254
mclk0_sx400 quick_test/data-fmllr-tri3/train/data/feats_fmllr_train.4.ark:11725433
mrjm0_si1228 quick_test/data-fmllr-tri3/train/data/feats_fmllr_train.9.ark:1734827
fsah0_si1874 quick_test/data-fmllr-tri3/train/data/feats_fmllr_train.3.ark:5598437
mcpm0_sx384 quick_test/data-fmllr-tri3/train/data/feats_fmllr_train.4.ark:12423627
mdef0_si2193 quick_test/data-fmllr-tri3/train/data/feats_fmllr_train.5.ark:122149
msat0_si896 quick_test/data-fmllr-tri3/train/data/feats_fmllr_train.9.ark:11931221
mram0_sx15 quick_test/data-fmllr-tri3/train/data/feats_fmllr_train.8.ark:12333568
mfmc0_sx232 quick_test/data-fmllr-tri3/train/data/feats_fmllr_train.5.ark:14557166
mwem0_sx240 quick_test/data-fmllr-tri3/train/data/feats_fmllr_train.10.ark:15416750
fmem0_sx297 quick_test/data-fmllr-tri3/train/data/feats_fmllr_train.2.ark:15341525
fbmj0_si516 quick_test/data-fmllr-tri3/train/data/feats_fmllr_train.1.ark:4527064
mfer0_si862 quick_test/data-fmllr-tri3/train/data/feats_fmllr_train.5.ark:14074975
mdas0_si1896 quick_test/data-fmllr-tri3/train/data/feats_fmllr_train.4.ark:14804504
marw0_sx376 quick_test/data-fmllr-tri3/train/data/feats_fmllr_train.4.ark:3328821
fmjb0_sx367 quick_test/data-fmllr-tri3/train/data/feats_fmllr_train.2.ark:15778703
fmkf0_sx186 quick_test/data-fmllr-tri3/train/data/feats_fmllr_train.2.ark:17307836
mtdb0_sx231 quick_test/data-fmllr-tri3/train/data/feats_fmllr_train.10.ark:3052841
madd0_sx448 quick_test/data-fmllr-tri3/train/data/feats_fmllr_train.3.ark:17874421
mjde0_si490 quick_test/data-fmllr-tri3/train/data/feats_fmllr_train.6.ark:8860573
mbma1_si954 quick_test/data-fmllr-tri3/train/data/feats_fmllr_train.4.ark:5996823
mjrp0_si585 quick_test/data-fmllr-tri3/train/data/feats_fmllr_train.7.ark:1208560
fkaa0_si1208 quick_test/data-fmllr-tri3/train/data/feats_fmllr_train.2.ark:5196758
fsls0_si2316 quick_test/data-fmllr-tri3/train/data/feats_fmllr_train.3.ark:11197984
ftbr0_sx291 quick_test/data-fmllr-tri3/train/data/feats_fmllr_train.3.ark:14511987
fgrw0_si1152 quick_test/data-fmllr-tri3/train/data/feats_fmllr_train.1.ark:17507965
mjwt0_sx391 quick_test/data-fmllr-tri3/train/data/feats_fmllr_train.7.ark:3210041
fsak0_sx400 quick_test/data-fmllr-tri3/train/data/feats_fmllr_train.3.ark:6290175
mrkm0_sx187 quick_test/data-fmllr-tri3/train/data/feats_fmllr_train.9.ark:3128013
fleh0_si1681 quick_test/data-fmllr-tri3/train/data/feats_fmllr_train.2.ark:9732615
mjac0_si1331 quick_test/data-fmllr-tri3/train/data/feats_fmllr_train.6.ark:6468495
mdwd0_sx180 quick_test/data-fmllr-tri3/train/data/feats_fmllr_train.5.ark:9729523
mjmm0_si625 quick_test/data-fmllr-tri3/train/data/feats_fmllr_train.6.ark:15853442
fjsk0_sx62 quick_test/data-fmllr-tri3/train/data/feats_fmllr_train.2.ark:3615543
mkls1_si915 quick_test/data-fmllr-tri3/train/data/feats_fmllr_train.7.ark:8709322
fscn0_sx176 quick_test/data-fmllr-tri3/train/data/feats_fmllr_train.3.ark:6940742
mrav0_si1008 quick_test/data-fmllr-tri3/train/data/feats_fmllr_train.8.ark:12512557
msah1_sx149 quick_test/data-fmllr-tri3/train/data/feats_fmllr_train.9.ark:11202014
mrjm0_si1858 quick_test/data-fmllr-tri3/train/data/feats_fmllr_train.9.ark:1780135
mcpm0_si1824 quick_test/data-fmllr-tri3/train/data/feats_fmllr_train.4.ark:12146346
fdfb0_sx238 quick_test/data-fmllr-tri3/train/data/feats_fmllr_train.1.ark:10298724
fnkl0_sx172 quick_test/data-fmllr-tri3/train/data/feats_fmllr_train.3.ark:156095
mwrp0_si1525 quick_test/data-fmllr-tri3/train/data/feats_fmllr_train.10.ark:16487401
mkdt0_sx263 quick_test/data-fmllr-tri3/train/data/feats_fmllr_train.7.ark:6541032
mbma0_sx142 quick_test/data-fmllr-tri3/train/data/feats_fmllr_train.4.ark:5677113
mgar0_sx42 quick_test/data-fmllr-tri3/train/data/feats_fmllr_train.6.ark:347883
mmws0_sx348 quick_test/data-fmllr-tri3/train/data/feats_fmllr_train.8.ark:4159761
mjee0_sx337 quick_test/data-fmllr-tri3/train/data/feats_fmllr_train.6.ark:11061420
fjdm2_si1964 quick_test/data-fmllr-tri3/train/data/feats_fmllr_train.2.ark:42601
mmcc0_sx348 quick_test/data-fmllr-tri3/train/data/feats_fmllr_train.7.ark:15329677
mdlr0_si603 quick_test/data-fmllr-tri3/train/data/feats_fmllr_train.5.ark:4750513
mkdb0_si2132 quick_test/data-fmllr-tri3/train/data/feats_fmllr_train.7.ark:5552331
mjrg0_si1366 quick_test/data-fmllr-tri3/train/data/feats_fmllr_train.6.ark:17606152
mtjs0_sx382 quick_test/data-fmllr-tri3/train/data/feats_fmllr_train.10.ark:5239766
mmws1_sx81 quick_test/data-fmllr-tri3/train/data/feats_fmllr_train.8.ark:4580511
mjeb1_sx297 quick_test/data-fmllr-tri3/train/data/feats_fmllr_train.6.ark:10738669
mree0_sx204 quick_test/data-fmllr-tri3/train/data/feats_fmllr_train.8.ark:15363948
mjrh1_si1558 quick_test/data-fmllr-tri3/train/data/feats_fmllr_train.7.ark:385191
flmc0_sx292 quick_test/data-fmllr-tri3/train/data/feats_fmllr_train.2.ark:13040860
mhjb0_sx297 quick_test/data-fmllr-tri3/train/data/feats_fmllr_train.6.ark:4537759
mjws0_sx63 quick_test/data-fmllr-tri3/train/data/feats_fmllr_train.7.ark:2774944
mdwm0_si2176 quick_test/data-fmllr-tri3/train/data/feats_fmllr_train.5.ark:10437103
mwar0_si1045 quick_test/data-fmllr-tri3/train/data/feats_fmllr_train.10.ark:14170707
mrld0_sx244 quick_test/data-fmllr-tri3/train/data/feats_fmllr_train.9.ark:3565215
mjma0_sx235 quick_test/data-fmllr-tri3/train/data/feats_fmllr_train.6.ark:15268101
mtjm0_sx416 quick_test/data-fmllr-tri3/train/data/feats_fmllr_train.10.ark:4765123
mbcg0_sx57 quick_test/data-fmllr-tri3/train/data/feats_fmllr_train.4.ark:4432192
mjls0_sx196 quick_test/data-fmllr-tri3/train/data/feats_fmllr_train.6.ark:14918470
mtkd0_sx377 quick_test/data-fmllr-tri3/train/data/feats_fmllr_train.10.ark:6043240
mmar0_sx166 quick_test/data-fmllr-tri3/train/data/feats_fmllr_train.7.ark:14354149
mdss0_si2087 quick_test/data-fmllr-tri3/train/data/feats_fmllr_train.5.ark:8627377
mcth0_sx39 quick_test/data-fmllr-tri3/train/data/feats_fmllr_train.4.ark:13523130
mwsb0_sx366 quick_test/data-fmllr-tri3/train/data/feats_fmllr_train.10.ark:17009805
fapb0_sx433 quick_test/data-fmllr-tri3/train/data/feats_fmllr_train.1.ark:1928400
mdcm0_sx130 quick_test/data-fmllr-tri3/train/data/feats_fmllr_train.4.ark:16425264
fgcs0_sx46 quick_test/data-fmllr-tri3/train/data/feats_fmllr_train.1.ark:16572143
fsdj0_si1745 quick_test/data-fmllr-tri3/train/data/feats_fmllr_train.3.ark:7648483
fjlr0_sx151 quick_test/data-fmllr-tri3/train/data/feats_fmllr_train.2.ark:2135264
mrso0_sx399 quick_test/data-fmllr-tri3/train/data/feats_fmllr_train.9.ark:8294944
mjrh1_sx424 quick_test/data-fmllr-tri3/train/data/feats_fmllr_train.7.ark:681994
msmc0_sx287 quick_test/data-fmllr-tri3/train/data/feats_fmllr_train.9.ark:16123741
marc0_sx108 quick_test/data-fmllr-tri3/train/data/feats_fmllr_train.4.ark:2775057
mrmb0_sx51 quick_test/data-fmllr-tri3/train/data/feats_fmllr_train.9.ark:5470381
mcae0_sx367 quick_test/data-fmllr-tri3/train/data/feats_fmllr_train.4.ark:8442685
mmgk0_sx62 quick_test/data-fmllr-tri3/train/data/feats_fmllr_train.8.ark:998238
fvmh0_sx26 quick_test/data-fmllr-tri3/train/data/feats_fmllr_train.3.ark:16751982
fjsp0_sx354 quick_test/data-fmllr-tri3/train/data/feats_fmllr_train.2.ark:3894747
feac0_sx435 quick_test/data-fmllr-tri3/train/data/feats_fmllr_train.1.ark:13642117
mbth0_sx122 quick_test/data-fmllr-tri3/train/data/feats_fmllr_train.4.ark:7455477
fklc0_si985 quick_test/data-fmllr-tri3/train/data/feats_fmllr_train.2.ark:7365899
mtjm0_sx236 quick_test/data-fmllr-tri3/train/data/feats_fmllr_train.10.ark:4685549
fjlg0_sx449 quick_test/data-fmllr-tri3/train/data/feats_fmllr_train.2.ark:1890008
fpac0_sx211 quick_test/data-fmllr-tri3/train/data/feats_fmllr_train.3.ark:1428292
mcdc0_sx392 quick_test/data-fmllr-tri3/train/data/feats_fmllr_train.4.ark:9299810
mrjb1_sx30 quick_test/data-fmllr-tri3/train/data/feats_fmllr_train.9.ark:1105701
mdlc2_si984 quick_test/data-fmllr-tri3/train/data/feats_fmllr_train.5.ark:3621383
mtpp0_si2138 quick_test/data-fmllr-tri3/train/data/feats_fmllr_train.10.ark:9226473
fcjs0_sx77 quick_test/data-fmllr-tri3/train/data/feats_fmllr_train.1.ark:7012688
mmam0_si1597 quick_test/data-fmllr-tri3/train/data/feats_fmllr_train.7.ark:13850169
fgrw0_sx342 quick_test/data-fmllr-tri3/train/data/feats_fmllr_train.1.ark:17799302
mrmb0_si951 quick_test/data-fmllr-tri3/train/data/feats_fmllr_train.9.ark:5232647
mbwp0_sx439 quick_test/data-fmllr-tri3/train/data/feats_fmllr_train.4.ark:8001535
mgrl0_sx417 quick_test/data-fmllr-tri3/train/data/feats_fmllr_train.6.ark:1797046
mdns0_si1011 quick_test/data-fmllr-tri3/train/data/feats_fmllr_train.5.ark:6279327
mrld0_si964 quick_test/data-fmllr-tri3/train/data/feats_fmllr_train.9.ark:3471401
mjbg0_sx152 quick_test/data-fmllr-tri3/train/data/feats_fmllr_train.6.ark:7768429
mmxs0_sx426 quick_test/data-fmllr-tri3/train/data/feats_fmllr_train.8.ark:4894781
flja0_sx88 quick_test/data-fmllr-tri3/train/data/feats_fmllr_train.2.ark:11143990
fetb0_sx428 quick_test/data-fmllr-tri3/train/data/feats_fmllr_train.1.ark:15697602
mjae0_si2154 quick_test/data-fmllr-tri3/train/data/feats_fmllr_train.6.ark:6947808
mjpg0_sx291 quick_test/data-fmllr-tri3/train/data/feats_fmllr_train.6.ark:16371686
mrwa0_sx433 quick_test/data-fmllr-tri3/train/data/feats_fmllr_train.9.ark:10277283
mejl0_sx422 quick_test/data-fmllr-tri3/train/data/feats_fmllr_train.5.ark:12507120
fsrh0_sx401 quick_test/data-fmllr-tri3/train/data/feats_fmllr_train.3.ark:13389577
mmvp0_sx347 quick_test/data-fmllr-tri3/train/data/feats_fmllr_train.8.ark:3309594
fceg0_sx168 quick_test/data-fmllr-tri3/train/data/feats_fmllr_train.1.ark:6191987
fhxs0_si2302 quick_test/data-fmllr-tri3/train/data/feats_fmllr_train.1.ark:18430189
mjbg0_sx62 quick_test/data-fmllr-tri3/train/data/feats_fmllr_train.6.ark:7992376
mrmh0_sx31 quick_test/data-fmllr-tri3/train/data/feats_fmllr_train.9.ark:6190790
mrgs0_sx6 quick_test/data-fmllr-tri3/train/data/feats_fmllr_train.9.ark:316014
mpmb0_sx61 quick_test/data-fmllr-tri3/train/data/feats_fmllr_train.8.ark:8466039
mbbr0_sx335 quick_test/data-fmllr-tri3/train/data/feats_fmllr_train.4.ark:3979923
mmar0_sx256 quick_test/data-fmllr-tri3/train/data/feats_fmllr_train.7.ark:14439936
mdlc2_sx174 quick_test/data-fmllr-tri3/train/data/feats_fmllr_train.5.ark:3683330
fsjs0_sx361 quick_test/data-fmllr-tri3/train/data/feats_fmllr_train.3.ark:9431219
fsag0_sx423 quick_test/data-fmllr-tri3/train/data/feats_fmllr_train.3.ark:5415795
fvkb0_sx259 quick_test/data-fmllr-tri3/train/data/feats_fmllr_train.3.ark:16264699
mrmb0_sx411 quick_test/data-fmllr-tri3/train/data/feats_fmllr_train.9.ark:5424435
mrtc0_si2088 quick_test/data-fmllr-tri3/train/data/feats_fmllr_train.9.ark:8826097
mwdk0_sx176 quick_test/data-fmllr-tri3/train/data/feats_fmllr_train.10.ark:15018585
mtat1_sx419 quick_test/data-fmllr-tri3/train/data/feats_fmllr_train.10.ark:1970804
fdjh0_sx395 quick_test/data-fmllr-tri3/train/data/feats_fmllr_train.1.ark:10791341
mram0_si1951 quick_test/data-fmllr-tri3/train/data/feats_fmllr_train.8.ark:12225995
fmmh0_sx367 quick_test/data-fmllr-tri3/train/data/feats_fmllr_train.2.ark:17737198
flac0_si901 quick_test/data-fmllr-tri3/train/data/feats_fmllr_train.2.ark:8966768
madd0_si1295 quick_test/data-fmllr-tri3/train/data/feats_fmllr_train.3.ark:17591378
mdlc2_si1614 quick_test/data-fmllr-tri3/train/data/feats_fmllr_train.5.ark:3572848
mkln0_sx68 quick_test/data-fmllr-tri3/train/data/feats_fmllr_train.7.ark:7820963
mrdm0_si1044 quick_test/data-fmllr-tri3/train/data/feats_fmllr_train.8.ark:14410124
mmea0_sx398 quick_test/data-fmllr-tri3/train/data/feats_fmllr_train.7.ark:17610552
mmgg0_sx269 quick_test/data-fmllr-tri3/train/data/feats_fmllr_train.8.ark:546261
mjfh0_sx117 quick_test/data-fmllr-tri3/train/data/feats_fmllr_train.6.ark:11358223
msat0_sx356 quick_test/data-fmllr-tri3/train/data/feats_fmllr_train.9.ark:12043302
mtmt0_si1748 quick_test/data-fmllr-tri3/train/data/feats_fmllr_train.10.ark:8114302
fkfb0_sx78 quick_test/data-fmllr-tri3/train/data/feats_fmllr_train.2.ark:6850879
frjb0_sx167 quick_test/data-fmllr-tri3/train/data/feats_fmllr_train.3.ark:4446961
mdrd0_sx212 quick_test/data-fmllr-tri3/train/data/feats_fmllr_train.5.ark:7995664
flja0_sx178 quick_test/data-fmllr-tri3/train/data/feats_fmllr_train.2.ark:10927403
fhxs0_sx175 quick_test/data-fmllr-tri3/train/data/feats_fmllr_train.1.ark:18588164
mrlk0_sx393 quick_test/data-fmllr-tri3/train/data/feats_fmllr_train.9.ark:4740027
mjxa0_sx247 quick_test/data-fmllr-tri3/train/data/feats_fmllr_train.7.ark:3426018
mbml0_sx179 quick_test/data-fmllr-tri3/train/data/feats_fmllr_train.4.ark:6450667
mgak0_sx226 quick_test/data-fmllr-tri3/train/data/feats_fmllr_train.5.ark:17155808
mjfh0_si1107 quick_test/data-fmllr-tri3/train/data/feats_fmllr_train.6.ark:11215581
mpsw0_sx437 quick_test/data-fmllr-tri3/train/data/feats_fmllr_train.8.ark:10846514
mbml0_sx449 quick_test/data-fmllr-tri3/train/data/feats_fmllr_train.4.ark:6588828
ftlg0_sx303 quick_test/data-fmllr-tri3/train/data/feats_fmllr_train.3.ark:15263434
fdtd0_si2191 quick_test/data-fmllr-tri3/train/data/feats_fmllr_train.1.ark:12638347
mvlo0_si1147 quick_test/data-fmllr-tri3/train/data/feats_fmllr_train.10.ark:12702958
mree0_sx24 quick_test/data-fmllr-tri3/train/data/feats_fmllr_train.8.ark:15405094
mdef0_sx33 quick_test/data-fmllr-tri3/train/data/feats_fmllr_train.5.ark:274256
fsms1_sx334 quick_test/data-fmllr-tri3/train/data/feats_fmllr_train.3.ark:12548636
mmbs0_sx341 quick_test/data-fmllr-tri3/train/data/feats_fmllr_train.7.ark:14942740
msfh0_sx46 quick_test/data-fmllr-tri3/train/data/feats_fmllr_train.9.ark:14934158
mmam0_sx427 quick_test/data-fmllr-tri3/train/data/feats_fmllr_train.7.ark:14101533
mjjb0_sx239 quick_test/data-fmllr-tri3/train/data/feats_fmllr_train.6.ark:12529781
fblv0_sx428 quick_test/data-fmllr-tri3/train/data/feats_fmllr_train.1.ark:3985486
mmws0_si888 quick_test/data-fmllr-tri3/train/data/feats_fmllr_train.8.ark:4022400
mdas0_sx96 quick_test/data-fmllr-tri3/train/data/feats_fmllr_train.4.ark:15076022
mdpb0_si2126 quick_test/data-fmllr-tri3/train/data/feats_fmllr_train.5.ark:6733172
fbcg1_si1612 quick_test/data-fmllr-tri3/train/data/feats_fmllr_train.1.ark:2469312
fgcs0_si856 quick_test/data-fmllr-tri3/train/data/feats_fmllr_train.1.ark:16336009
flja0_sx268 quick_test/data-fmllr-tri3/train/data/feats_fmllr_train.2.ark:10991750
mjeb1_sx117 quick_test/data-fmllr-tri3/train/data/feats_fmllr_train.6.ark:10627549
mmeb0_sx7 quick_test/data-fmllr-tri3/train/data/feats_fmllr_train.7.ark:17925141
mafm0_sx39 quick_test/data-fmllr-tri3/train/data/feats_fmllr_train.4.ark:988130
mmab1_si864 quick_test/data-fmllr-tri3/train/data/feats_fmllr_train.7.ark:13064030
mrws0_si1732 quick_test/data-fmllr-tri3/train/data/feats_fmllr_train.9.ark:10440565
falr0_si695 quick_test/data-fmllr-tri3/train/data/feats_fmllr_train.1.ark:1302954
fklc1_si2308 quick_test/data-fmllr-tri3/train/data/feats_fmllr_train.2.ark:7812197
mdwh0_sx35 quick_test/data-fmllr-tri3/train/data/feats_fmllr_train.5.ark:10286460
mter0_si527 quick_test/data-fmllr-tri3/train/data/feats_fmllr_train.10.ark:3799462
mmdm0_sx141 quick_test/data-fmllr-tri3/train/data/feats_fmllr_train.7.ark:16388834
mtjs0_sx112 quick_test/data-fmllr-tri3/train/data/feats_fmllr_train.10.ark:5058059
mkln0_sx428 quick_test/data-fmllr-tri3/train/data/feats_fmllr_train.7.ark:7766857
fmkc0_sx442 quick_test/data-fmllr-tri3/train/data/feats_fmllr_train.2.ark:17034900
mjwg0_si895 quick_test/data-fmllr-tri3/train/data/feats_fmllr_train.7.ark:2069313
fgcs0_sx136 quick_test/data-fmllr-tri3/train/data/feats_fmllr_train.1.ark:16375236
mjpm0_si1998 quick_test/data-fmllr-tri3/train/data/feats_fmllr_train.6.ark:16506809
fpab1_sx121 quick_test/data-fmllr-tri3/train/data/feats_fmllr_train.3.ark:950288
mkls1_sx105 quick_test/data-fmllr-tri3/train/data/feats_fmllr_train.7.ark:8780229
mrav0_sx108 quick_test/data-fmllr-tri3/train/data/feats_fmllr_train.8.ark:12654080
mefg0_si491 quick_test/data-fmllr-tri3/train/data/feats_fmllr_train.5.ark:11461913
fsma0_sx91 quick_test/data-fmllr-tri3/train/data/feats_fmllr_train.3.ark:11852895
mrpc1_si1482 quick_test/data-fmllr-tri3/train/data/feats_fmllr_train.9.ark:7091440
fsjg0_si1570 quick_test/data-fmllr-tri3/train/data/feats_fmllr_train.3.ark:8298329
mtmn0_sx434 quick_test/data-fmllr-tri3/train/data/feats_fmllr_train.10.ark:7982700
mjrh0_si1125 quick_test/data-fmllr-tri3/train/data/feats_fmllr_train.7.ark:13
mwgr0_sx76 quick_test/data-fmllr-tri3/train/data/feats_fmllr_train.10.ark:15982327
mwsh0_sx166 quick_test/data-fmllr-tri3/train/data/feats_fmllr_train.10.ark:17320686
fcdr1_sx196 quick_test/data-fmllr-tri3/train/data/feats_fmllr_train.1.ark:5917103
mdns0_si873 quick_test/data-fmllr-tri3/train/data/feats_fmllr_train.5.ark:6392662
mapv0_sx213 quick_test/data-fmllr-tri3/train/data/feats_fmllr_train.4.ark:2495827
fdml0_sx159 quick_test/data-fmllr-tri3/train/data/feats_fmllr_train.1.ark:11404790
mrvg0_si1770 quick_test/data-fmllr-tri3/train/data/feats_fmllr_train.9.ark:9706691
fsjs0_sx181 quick_test/data-fmllr-tri3/train/data/feats_fmllr_train.3.ark:9321725
msvs0_si2198 quick_test/data-fmllr-tri3/train/data/feats_fmllr_train.10.ark:41321
fdml0_sx429 quick_test/data-fmllr-tri3/train/data/feats_fmllr_train.1.ark:11522791
mrgm0_si1792 quick_test/data-fmllr-tri3/train/data/feats_fmllr_train.8.ark:17538129
mfrm0_si1155 quick_test/data-fmllr-tri3/train/data/feats_fmllr_train.5.ark:14756634
mkah0_si2158 quick_test/data-fmllr-tri3/train/data/feats_fmllr_train.7.ark:4469787
mrpc1_si2026 quick_test/data-fmllr-tri3/train/data/feats_fmllr_train.9.ark:7143468
mhmr0_sx309 quick_test/data-fmllr-tri3/train/data/feats_fmllr_train.6.ark:5229047
mbma0_sx52 quick_test/data-fmllr-tri3/train/data/feats_fmllr_train.4.ark:5871300
mjeb0_si656 quick_test/data-fmllr-tri3/train/data/feats_fmllr_train.6.ark:10139625
mjee0_sx67 quick_test/data-fmllr-tri3/train/data/feats_fmllr_train.6.ark:11153153
mjmd0_sx308 quick_test/data-fmllr-tri3/train/data/feats_fmllr_train.6.ark:15619386
mjda0_sx131 quick_test/data-fmllr-tri3/train/data/feats_fmllr_train.6.ark:8148007
mjmd0_sx38 quick_test/data-fmllr-tri3/train/data/feats_fmllr_train.6.ark:15659572
fmpg0_sx432 quick_test/data-fmllr-tri3/train/data/feats_fmllr_train.2.ark:18300347
msms0_si2063 quick_test/data-fmllr-tri3/train/data/feats_fmllr_train.9.ark:16668681
mrjt0_sx238 quick_test/data-fmllr-tri3/train/data/feats_fmllr_train.9.ark:2674063
mdem0_si1868 quick_test/data-fmllr-tri3/train/data/feats_fmllr_train.5.ark:352071
mjae0_sx174 quick_test/data-fmllr-tri3/train/data/feats_fmllr_train.6.ark:6984475
mtlc0_sx307 quick_test/data-fmllr-tri3/train/data/feats_fmllr_train.10.ark:7131038
mdlr0_sx243 quick_test/data-fmllr-tri3/train/data/feats_fmllr_train.5.ark:4843527
mdsj0_si1462 quick_test/data-fmllr-tri3/train/data/feats_fmllr_train.5.ark:8202972
fskl0_sx89 quick_test/data-fmllr-tri3/train/data/feats_fmllr_train.3.ark:10691123
fbch0_sx416 quick_test/data-fmllr-tri3/train/data/feats_fmllr_train.1.ark:3167291
mdlm0_sx154 quick_test/data-fmllr-tri3/train/data/feats_fmllr_train.5.ark:4468883
fcdr1_si1816 quick_test/data-fmllr-tri3/train/data/feats_fmllr_train.1.ark:5667716
mjlg1_sx22 quick_test/data-fmllr-tri3/train/data/feats_fmllr_train.6.ark:14527213
fhlm0_sx349 quick_test/data-fmllr-tri3/train/data/feats_fmllr_train.1.ark:18235386
mmws0_sx438 quick_test/data-fmllr-tri3/train/data/feats_fmllr_train.8.ark:4208748
mdpb0_sx326 quick_test/data-fmllr-tri3/train/data/feats_fmllr_train.5.ark:6944000
mwsh0_si2266 quick_test/data-fmllr-tri3/train/data/feats_fmllr_train.10.ark:17211512
msfv0_sx362 quick_test/data-fmllr-tri3/train/data/feats_fmllr_train.9.ark:15240242
meal0_si1547 quick_test/data-fmllr-tri3/train/data/feats_fmllr_train.5.ark:10773932
mprk0_sx377 quick_test/data-fmllr-tri3/train/data/feats_fmllr_train.8.ark:10230107
falr0_sx155 quick_test/data-fmllr-tri3/train/data/feats_fmllr_train.1.ark:1348261
mtdp0_sx441 quick_test/data-fmllr-tri3/train/data/feats_fmllr_train.10.ark:3576633
mmds0_sx443 quick_test/data-fmllr-tri3/train/data/feats_fmllr_train.7.ark:17249669
fsbk0_si1699 quick_test/data-fmllr-tri3/train/data/feats_fmllr_train.3.ark:6395191
mtpr0_sx340 quick_test/data-fmllr-tri3/train/data/feats_fmllr_train.10.ark:9803758
mkah0_si1528 quick_test/data-fmllr-tri3/train/data/feats_fmllr_train.7.ark:4423519
mrbc0_sx239 quick_test/data-fmllr-tri3/train/data/feats_fmllr_train.8.ark:13038644
mmaa0_sx215 quick_test/data-fmllr-tri3/train/data/feats_fmllr_train.7.ark:12818907
mkxl0_sx195 quick_test/data-fmllr-tri3/train/data/feats_fmllr_train.7.ark:10010374
mvlo0_si517 quick_test/data-fmllr-tri3/train/data/feats_fmllr_train.10.ark:12786053
fhxs0_sx445 quick_test/data-fmllr-tri3/train/data/feats_fmllr_train.1.ark:18754165
mjlb0_sx266 quick_test/data-fmllr-tri3/train/data/feats_fmllr_train.6.ark:14146969
mejs0_si1240 quick_test/data-fmllr-tri3/train/data/feats_fmllr_train.5.ark:12598374
fsma0_si991 quick_test/data-fmllr-tri3/train/data/feats_fmllr_train.3.ark:11561401
mrjt0_sx328 quick_test/data-fmllr-tri3/train/data/feats_fmllr_train.9.ark:2718250
mjai0_si682 quick_test/data-fmllr-tri3/train/data/feats_fmllr_train.6.ark:7310877
mrew1_sx420 quick_test/data-fmllr-tri3/train/data/feats_fmllr_train.8.ark:16604812
mmrp0_sx54 quick_test/data-fmllr-tri3/train/data/feats_fmllr_train.8.ark:2506466
fkaa0_si578 quick_test/data-fmllr-tri3/train/data/feats_fmllr_train.2.ark:5292493
mlbc0_si1239 quick_test/data-fmllr-tri3/train/data/feats_fmllr_train.7.ark:10126776
mrcw0_si1371 quick_test/data-fmllr-tri3/train/data/feats_fmllr_train.8.ark:13699929
mrlk0_si2140 quick_test/data-fmllr-tri3/train/data/feats_fmllr_train.9.ark:4472826
mmgc0_si2184 quick_test/data-fmllr-tri3/train/data/feats_fmllr_train.8.ark:120549
ftbw0_sx265 quick_test/data-fmllr-tri3/train/data/feats_fmllr_train.3.ark:14809911
fgdp0_si1618 quick_test/data-fmllr-tri3/train/data/feats_fmllr_train.1.ark:16604491
fkdw0_si1207 quick_test/data-fmllr-tri3/train/data/feats_fmllr_train.2.ark:6053993
mpgr0_sx420 quick_test/data-fmllr-tri3/train/data/feats_fmllr_train.8.ark:7398218
mbar0_si689 quick_test/data-fmllr-tri3/train/data/feats_fmllr_train.4.ark:3455784
fklc0_si2245 quick_test/data-fmllr-tri3/train/data/feats_fmllr_train.2.ark:7334352
msah1_si2309 quick_test/data-fmllr-tri3/train/data/feats_fmllr_train.9.ark:11162627
mhjb0_sx207 quick_test/data-fmllr-tri3/train/data/feats_fmllr_train.6.ark:4480906
mrjh0_sx307 quick_test/data-fmllr-tri3/train/data/feats_fmllr_train.9.ark:1550558
mmws0_si1518 quick_test/data-fmllr-tri3/train/data/feats_fmllr_train.8.ark:3940266
mjbg0_si1724 quick_test/data-fmllr-tri3/train/data/feats_fmllr_train.6.ark:7700374
mclk0_si1660 quick_test/data-fmllr-tri3/train/data/feats_fmllr_train.4.ark:11365724
fkaa0_sx38 quick_test/data-fmllr-tri3/train/data/feats_fmllr_train.2.ark:5499800
mjde0_sx400 quick_test/data-fmllr-tri3/train/data/feats_fmllr_train.6.ark:9187907
mmdm0_si1941 quick_test/data-fmllr-tri3/train/data/feats_fmllr_train.7.ark:16319660
fkdw0_sx127 quick_test/data-fmllr-tri3/train/data/feats_fmllr_train.2.ark:6253275
mdbp0_sx438 quick_test/data-fmllr-tri3/train/data/feats_fmllr_train.4.ark:15781551
fmpg0_sx162 quick_test/data-fmllr-tri3/train/data/feats_fmllr_train.2.ark:18115146
ftaj0_sx159 quick_test/data-fmllr-tri3/train/data/feats_fmllr_train.3.ark:14031690
fvfb0_sx312 quick_test/data-fmllr-tri3/train/data/feats_fmllr_train.3.ark:15971069
mtdp0_sx171 quick_test/data-fmllr-tri3/train/data/feats_fmllr_train.10.ark:3385352
mrms0_sx300 quick_test/data-fmllr-tri3/train/data/feats_fmllr_train.9.ark:7016185
flmc0_si1372 quick_test/data-fmllr-tri3/train/data/feats_fmllr_train.2.ark:12819605
mdem0_si608 quick_test/data-fmllr-tri3/train/data/feats_fmllr_train.5.ark:393858
mmjb1_sx238 quick_test/data-fmllr-tri3/train/data/feats_fmllr_train.8.ark:1219975
fetb0_sx158 quick_test/data-fmllr-tri3/train/data/feats_fmllr_train.1.ark:15569361
mmwb0_sx269 quick_test/data-fmllr-tri3/train/data/feats_fmllr_train.8.ark:3694078
mjsr0_si1424 quick_test/data-fmllr-tri3/train/data/feats_fmllr_train.7.ark:1466482
mmdg0_si1780 quick_test/data-fmllr-tri3/train/data/feats_fmllr_train.7.ark:15817815
mjrp0_si1835 quick_test/data-fmllr-tri3/train/data/feats_fmllr_train.7.ark:1120985
maeb0_si1411 quick_test/data-fmllr-tri3/train/data/feats_fmllr_train.4.ark:13
msdb0_sx17 quick_test/data-fmllr-tri3/train/data/feats_fmllr_train.9.ark:12681630
fcke0_sx301 quick_test/data-fmllr-tri3/train/data/feats_fmllr_train.1.ark:7306132
mfrm0_sx345 quick_test/data-fmllr-tri3/train/data/feats_fmllr_train.5.ark:14988611
mljh0_sx154 quick_test/data-fmllr-tri3/train/data/feats_fmllr_train.7.ark:11557909
mtpg0_sx303 quick_test/data-fmllr-tri3/train/data/feats_fmllr_train.10.ark:9043484
mljh0_sx424 quick_test/data-fmllr-tri3/train/data/feats_fmllr_train.7.ark:11725830
msas0_sx26 quick_test/data-fmllr-tri3/train/data/feats_fmllr_train.9.ark:11727084
mdlc1_sx85 quick_test/data-fmllr-tri3/train/data/feats_fmllr_train.5.ark:3537940
mejs0_sx160 quick_test/data-fmllr-tri3/train/data/feats_fmllr_train.5.ark:12749336
mjrk0_sx250 quick_test/data-fmllr-tri3/train/data/feats_fmllr_train.7.ark:947597
fsls0_si1686 quick_test/data-fmllr-tri3/train/data/feats_fmllr_train.3.ark:11142596
mwad0_si1749 quick_test/data-fmllr-tri3/train/data/feats_fmllr_train.10.ark:13929717
mmrp0_si717 quick_test/data-fmllr-tri3/train/data/feats_fmllr_train.8.ark:2177185
fdjh0_sx35 quick_test/data-fmllr-tri3/train/data/feats_fmllr_train.1.ark:10751314
mmds0_sx353 quick_test/data-fmllr-tri3/train/data/feats_fmllr_train.7.ark:17209002
mvjh0_sx116 quick_test/data-fmllr-tri3/train/data/feats_fmllr_train.10.ark:12511303
mter0_sx437 quick_test/data-fmllr-tri3/train/data/feats_fmllr_train.10.ark:3977809
mrab0_si1854 quick_test/data-fmllr-tri3/train/data/feats_fmllr_train.8.ark:10973476
milb0_sx93 quick_test/data-fmllr-tri3/train/data/feats_fmllr_train.6.ark:6437427
mbom0_sx114 quick_test/data-fmllr-tri3/train/data/feats_fmllr_train.4.ark:6808805
fljd0_si2146 quick_test/data-fmllr-tri3/train/data/feats_fmllr_train.2.ark:11279726
fklc1_sx58 quick_test/data-fmllr-tri3/train/data/feats_fmllr_train.2.ark:8037291
fjen0_sx327 quick_test/data-fmllr-tri3/train/data/feats_fmllr_train.2.ark:664208
mejs0_sx70 quick_test/data-fmllr-tri3/train/data/feats_fmllr_train.5.ark:12958403
mfer0_sx142 quick_test/data-fmllr-tri3/train/data/feats_fmllr_train.5.ark:14137082
mdbb1_sx106 quick_test/data-fmllr-tri3/train/data/feats_fmllr_train.4.ark:15269413
mkdd0_sx37 quick_test/data-fmllr-tri3/train/data/feats_fmllr_train.7.ark:6230309
fsma0_sx451 quick_test/data-fmllr-tri3/train/data/feats_fmllr_train.3.ark:11776229
mgaf0_sx112 quick_test/data-fmllr-tri3/train/data/feats_fmllr_train.5.ark:16393107
fjsk0_sx422 quick_test/data-fmllr-tri3/train/data/feats_fmllr_train.2.ark:3558237
maeb0_sx270 quick_test/data-fmllr-tri3/train/data/feats_fmllr_train.4.ark:201882
mcss0_sx120 quick_test/data-fmllr-tri3/train/data/feats_fmllr_train.4.ark:13021393
fjen0_si1047 quick_test/data-fmllr-tri3/train/data/feats_fmllr_train.2.ark:417031
msmr0_si1150 quick_test/data-fmllr-tri3/train/data/feats_fmllr_train.9.ark:16220276
mmpm0_sx341 quick_test/data-fmllr-tri3/train/data/feats_fmllr_train.8.ark:2012597
mwem0_si1320 quick_test/data-fmllr-tri3/train/data/feats_fmllr_train.10.ark:15248000
mcxm0_sx181 quick_test/data-fmllr-tri3/train/data/feats_fmllr_train.4.ark:14128444
msat0_si2156 quick_test/data-fmllr-tri3/train/data/feats_fmllr_train.9.ark:11894394
