mfxv0_si1635 quick_test/fbank/raw_fbank_train.2.ark:10905066
mjwt0_si1291 quick_test/fbank/raw_fbank_train.3.ark:5353040
fsak0_si1930 quick_test/fbank/raw_fbank_train.1.ark:11121518
mpar0_si1576 quick_test/fbank/raw_fbank_train.3.ark:10734870
fpab1_si841 quick_test/fbank/raw_fbank_train.1.ark:9796187
fkaa0_sx218 quick_test/fbank/raw_fbank_train.1.ark:6224017
frjb0_sx347 quick_test/fbank/raw_fbank_train.1.ark:10738031
msdb0_sx197 quick_test/fbank/raw_fbank_train.4.ark:5637612
fjxp0_si492 quick_test/fbank/raw_fbank_train.1.ark:6111006
fsjg0_sx400 quick_test/fbank/raw_fbank_train.1.ark:11821666
mclk0_sx310 quick_test/fbank/raw_fbank_train.2.ark:5303037
mljh0_sx334 quick_test/fbank/raw_fbank_train.3.ark:7630597
fpjf0_si1259 quick_test/fbank/raw_fbank_train.1.ark:10309879
fsjk1_sx35 quick_test/fbank/raw_fbank_train.2.ark:22477
makb0_sx206 quick_test/fbank/raw_fbank_train.2.ark:2767276
fsjs0_sx271 quick_test/fbank/raw_fbank_train.2.ark:99277
feeh0_sx302 quick_test/fbank/raw_fbank_train.1.ark:3817107
fdaw0_sx56 quick_test/fbank/raw_fbank_train.1.ark:2595188
mtbc0_si543 quick_test/fbank/raw_fbank_train.4.ark:7584028
mrjt0_si1805 quick_test/fbank/raw_fbank_train.4.ark:3022945
fceg0_sx348 quick_test/fbank/raw_fbank_train.1.ark:1608831
mkag0_si2239 quick_test/fbank/raw_fbank_train.3.ark:5676229
mdbp0_si1788 quick_test/fbank/raw_fbank_train.2.ark:6296857
fklc0_sx85 quick_test/fbank/raw_fbank_train.1.ark:6808081
fsrh0_sx311 quick_test/fbank/raw_fbank_train.2.ark:1112121
mkah0_sx178 quick_test/fbank/raw_fbank_train.3.ark:5799319
mbcg0_si2217 quick_test/fbank/raw_fbank_train.2.ark:3366039
mdlh0_sx70 quick_test/fbank/raw_fbank_train.2.ark:7890870
mwsb0_si1626 quick_test/fbank/raw_fbank_train.4.ark:11353676
mtrc0_si589 quick_test/fbank/raw_fbank_train.4.ark:9734520
fbmh0_sx416 quick_test/fbank/raw_fbank_train.1.ark:1123899
fkfb0_si2238 quick_test/fbank/raw_fbank_train.1.ark:6510554
fklc1_si1048 quick_test/fbank/raw_fbank_train.1.ark:6819195
mjac0_sx251 quick_test/fbank/raw_fbank_train.3.ark:1702131
fetb0_sx68 quick_test/fbank/raw_fbank_train.1.ark:4048542
mprd0_sx81 quick_test/fbank/raw_fbank_train.4.ark:266440
mgjc0_si1335 quick_test/fbank/raw_fbank_train.3.ark:288803
mtqc0_si480 quick_test/fbank/raw_fbank_train.4.ark:9633249
mmaa0_sx35 quick_test/fbank/raw_fbank_train.3.ark:7948704
mdsj0_sx112 quick_test/fbank/raw_fbank_train.2.ark:8934055
fnkl0_sx262 quick_test/fbank/raw_fbank_train.1.ark:9632677
mprt0_si1210 quick_test/fbank/raw_fbank_train.4.ark:396779
mwar0_sx325 quick_test/fbank/raw_fbank_train.4.ark:10740145
mvrw0_sx315 quick_test/fbank/raw_fbank_train.4.ark:10453068
flmk0_sx225 quick_test/fbank/raw_fbank_train.1.ark:8286282
fcmm0_si1957 quick_test/fbank/raw_fbank_train.1.ark:2117530
mmws1_si2331 quick_test/fbank/raw_fbank_train.3.ark:10390120
mtcs0_sx82 quick_test/fbank/raw_fbank_train.4.ark:7750417
mdps0_si1979 quick_test/fbank/raw_fbank_train.2.ark:8701419
mpgh0_sx384 quick_test/fbank/raw_fbank_train.3.ark:11090095
flja0_si1078 quick_test/fbank/raw_fbank_train.1.ark:7609278
mtdp0_si2151 quick_test/fbank/raw_fbank_train.4.ark:7889184
mjhi0_sx248 quick_test/fbank/raw_fbank_train.3.ark:3124155
fjlr0_si1231 quick_test/fbank/raw_fbank_train.1.ark:5351804
mwad0_sx342 quick_test/fbank/raw_fbank_train.4.ark:10647799
mhmg0_sx195 quick_test/fbank/raw_fbank_train.3.ark:1245995
mgsh0_sx276 quick_test/fbank/raw_fbank_train.3.ark:662491
mjmm0_sx355 quick_test/fbank/raw_fbank_train.3.ark:4115841
mtwh1_si1512 quick_test/fbank/raw_fbank_train.4.ark:10004481
fnkl0_si2152 quick_test/fbank/raw_fbank_train.1.ark:9582305
mfwk0_sx439 quick_test/fbank/raw_fbank_train.2.ark:10750346
flkm0_sx116 quick_test/fbank/raw_fbank_train.1.ark:7975013
mrem0_sx61 quick_test/fbank/raw_fbank_train.4.ark:1945467
mmlm0_si2150 quick_test/fbank/raw_fbank_train.3.ark:9634231
mmgc0_sx45 quick_test/fbank/raw_fbank_train.3.ark:9338767
mrab1_sx38 quick_test/fbank/raw_fbank_train.4.ark:740131
fjsk0_sx422 quick_test/fbank/raw_fbank_train.1.ark:5753039
fdmy0_sx117 quick_test/fbank/raw_fbank_train.1.ark:3053504
mclm0_si1456 quick_test/fbank/raw_fbank_train.2.ark:5334976
mfxv0_sx285 quick_test/fbank/raw_fbank_train.2.ark:10940837
mbcg0_sx237 quick_test/fbank/raw_fbank_train.2.ark:3412211
fmkf0_sx96 quick_test/fbank/raw_fbank_train.1.ark:9331749
fjxp0_sx132 quick_test/fbank/raw_fbank_train.1.ark:6118439
mtxs0_si1690 quick_test/fbank/raw_fbank_train.4.ark:10108340
msem1_si1440 quick_test/fbank/raw_fbank_train.4.ark:5882843
ftaj0_si474 quick_test/fbank/raw_fbank_train.2.ark:1271559
mdps0_si719 quick_test/fbank/raw_fbank_train.2.ark:8714852
fbmj0_si1776 quick_test/fbank/raw_fbank_train.1.ark:1145565
mclk0_sx40 quick_test/fbank/raw_fbank_train.2.ark:5312549
mprt0_sx310 quick_test/fbank/raw_fbank_train.4.ark:454184
mmaa0_sx125 quick_test/fbank/raw_fbank_train.3.ark:7912486
megj0_sx437 quick_test/fbank/raw_fbank_train.2.ark:9911882
mkln0_sx428 quick_test/fbank/raw_fbank_train.3.ark:6625697
fbch0_sx416 quick_test/fbank/raw_fbank_train.1.ark:813303
mjpg0_si561 quick_test/fbank/raw_fbank_train.3.ark:4170127
fjkl0_sx32 quick_test/fbank/raw_fbank_train.1.ark:5230471
fsrh0_sx131 quick_test/fbank/raw_fbank_train.2.ark:1086455
mmcc0_si708 quick_test/fbank/raw_fbank_train.3.ark:8537044
mmaa0_si1588 quick_test/fbank/raw_fbank_train.3.ark:7864866
mdwd0_si1260 quick_test/fbank/raw_fbank_train.2.ark:9251096
mtlb0_sx234 quick_test/fbank/raw_fbank_train.4.ark:8750849
mdhs0_sx270 quick_test/fbank/raw_fbank_train.2.ark:7146756
mjeb0_sx170 quick_test/fbank/raw_fbank_train.3.ark:2617558
mrcg0_sx348 quick_test/fbank/raw_fbank_train.4.ark:1226066
fcjs0_sx437 quick_test/fbank/raw_fbank_train.1.ark:1786874
mrlj1_sx51 quick_test/fbank/raw_fbank_train.4.ark:3491601
fvmh0_sx206 quick_test/fbank/raw_fbank_train.2.ark:1981553
fjxm0_si1211 quick_test/fbank/raw_fbank_train.1.ark:5969794
mgag0_sx241 quick_test/fbank/raw_fbank_train.2.ark:11103621
mwsh0_sx76 quick_test/fbank/raw_fbank_train.4.ark:11543770
mrlr0_si566 quick_test/fbank/raw_fbank_train.4.ark:3628967
mtkd0_si630 quick_test/fbank/raw_fbank_train.4.ark:8518253
fcjs0_sx77 quick_test/fbank/raw_fbank_train.1.ark:1802706
fcmg0_si1242 quick_test/fbank/raw_fbank_train.1.ark:2020344
mrab1_si848 quick_test/fbank/raw_fbank_train.4.ark:687480
mrlj1_sx141 quick_test/fbank/raw_fbank_train.4.ark:3449270
mgsl0_si797 quick_test/fbank/raw_fbank_train.3.ark:722574
mgsh0_si546 quick_test/fbank/raw_fbank_train.3.ark:624912
mprk0_sx377 quick_test/fbank/raw_fbank_train.4.ark:382745
mjma0_sx325 quick_test/fbank/raw_fbank_train.3.ark:3936270
msrr0_sx51 quick_test/fbank/raw_fbank_train.4.ark:6916418
mbma1_sx144 quick_test/fbank/raw_fbank_train.2.ark:3867823
msds0_si1077 quick_test/fbank/raw_fbank_train.4.ark:5763057
fdkn0_si1711 quick_test/fbank/raw_fbank_train.1.ark:2819381
fcaj0_si1804 quick_test/fbank/raw_fbank_train.1.ark:1352489
fmmh0_si2167 quick_test/fbank/raw_fbank_train.1.ark:9361097
fkfb0_sx438 quick_test/fbank/raw_fbank_train.1.ark:6572919
fltm0_sx260 quick_test/fbank/raw_fbank_train.1.ark:8465374
mrwa0_sx433 quick_test/fbank/raw_fbank_train.4.ark:5011788
mlbc0_sx249 quick_test/fbank/raw_fbank_train.3.ark:7285449
mjhi0_sx428 quick_test/fbank/raw_fbank_train.3.ark:3146141
flod0_si657 quick_test/fbank/raw_fbank_train.1.ark:8354841
fvfb0_si1032 quick_test/fbank/raw_fbank_train.2.ark:1737169
mkam0_sx326 quick_test/fbank/raw_fbank_train.3.ark:6021156
mjda0_sx311 quick_test/fbank/raw_fbank_train.3.ark:2114419
mkdb0_si872 quick_test/fbank/raw_fbank_train.3.ark:6078961
mbom0_si1014 quick_test/fbank/raw_fbank_train.2.ark:4027053
mcss0_sx120 quick_test/fbank/raw_fbank_train.2.ark:5657790
feac0_si615 quick_test/fbank/raw_fbank_train.1.ark:3453053
mbwp0_si1531 quick_test/fbank/raw_fbank_train.2.ark:4292407
mjmm0_si1255 quick_test/fbank/raw_fbank_train.3.ark:4051795
mhmr0_sx399 quick_test/fbank/raw_fbank_train.3.ark:1368406
fdjh0_sx395 quick_test/fbank/raw_fbank_train.1.ark:2775079
fcag0_si2133 quick_test/fbank/raw_fbank_train.1.ark:1272777
mgaw0_si1802 quick_test/fbank/raw_fbank_train.3.ark:117273
fjwb1_sx435 quick_test/fbank/raw_fbank_train.1.ark:5946968
madd0_sx448 quick_test/fbank/raw_fbank_train.2.ark:2283094
makr0_sx182 quick_test/fbank/raw_fbank_train.2.ark:2839708
mjpg0_sx21 quick_test/fbank/raw_fbank_train.3.ark:4203145
mmdg0_si2035 quick_test/fbank/raw_fbank_train.3.ark:8714261
mhbs0_si1575 quick_test/fbank/raw_fbank_train.3.ark:916394
mdks0_sx436 quick_test/fbank/raw_fbank_train.2.ark:7359033
fgcs0_sx226 quick_test/fbank/raw_fbank_train.1.ark:4224575
madd0_si538 quick_test/fbank/raw_fbank_train.2.ark:2232322
mrpc1_sx402 quick_test/fbank/raw_fbank_train.4.ark:4259493
flet0_sx237 quick_test/fbank/raw_fbank_train.1.ark:7477560
mmgg0_sx89 quick_test/fbank/raw_fbank_train.3.ark:9438753
msvs0_sx38 quick_test/fbank/raw_fbank_train.4.ark:7126754
mrml0_sx251 quick_test/fbank/raw_fbank_train.4.ark:4043055
mrjm0_sx148 quick_test/fbank/raw_fbank_train.4.ark:2844121
fpmy0_si1153 quick_test/fbank/raw_fbank_train.1.ark:10487974
fjlg0_si2306 quick_test/fbank/raw_fbank_train.1.ark:5279526
mmwb0_sx449 quick_test/fbank/raw_fbank_train.3.ark:10239162
mjra0_sx336 quick_test/fbank/raw_fbank_train.3.ark:4488981
mklr0_sx69 quick_test/fbank/raw_fbank_train.3.ark:6726115
majp0_sx84 quick_test/fbank/raw_fbank_train.2.ark:2677708
mrwa0_si2233 quick_test/fbank/raw_fbank_train.4.ark:4950903
fsgf0_si2187 quick_test/fbank/raw_fbank_train.1.ark:11617444
mmxs0_sx246 quick_test/fbank/raw_fbank_train.3.ark:10491129
mjde0_sx310 quick_test/fbank/raw_fbank_train.3.ark:2332388
mrjb1_sx300 quick_test/fbank/raw_fbank_train.4.ark:2663449
fksr0_sx217 quick_test/fbank/raw_fbank_train.1.ark:7068619
mjda0_si1661 quick_test/fbank/raw_fbank_train.3.ark:2073286
mjrh1_sx334 quick_test/fbank/raw_fbank_train.3.ark:4795337
fsma0_si2251 quick_test/fbank/raw_fbank_train.2.ark:645929
mhmg0_sx375 quick_test/fbank/raw_fbank_train.3.ark:1263821
mtkd0_sx197 quick_test/fbank/raw_fbank_train.4.ark:8560151
falr0_sx335 quick_test/fbank/raw_fbank_train.1.ark:369049
mrdm0_sx245 quick_test/fbank/raw_fbank_train.4.ark:1510909
mdem0_si1868 quick_test/fbank/raw_fbank_train.2.ark:6878254
mrvg0_sx150 quick_test/fbank/raw_fbank_train.4.ark:4884184
mrmh0_sx211 quick_test/fbank/raw_fbank_train.4.ark:3940470
flac0_si1339 quick_test/fbank/raw_fbank_train.1.ark:7115751
fbch0_sx146 quick_test/fbank/raw_fbank_train.1.ark:778004
marw0_si1276 quick_test/fbank/raw_fbank_train.2.ark:3072083
fpad0_sx86 quick_test/fbank/raw_fbank_train.1.ark:10082521
mkxl0_sx105 quick_test/fbank/raw_fbank_train.3.ark:7182431
mkxl0_sx285 quick_test/fbank/raw_fbank_train.3.ark:7211129
fdas1_sx111 quick_test/fbank/raw_fbank_train.1.ark:2448311
mtml0_si2325 quick_test/fbank/raw_fbank_train.4.ark:8921634
fgmb0_sx335 quick_test/fbank/raw_fbank_train.1.ark:4457338
mtmt0_si488 quick_test/fbank/raw_fbank_train.4.ark:9129564
mtkp0_si1023 quick_test/fbank/raw_fbank_train.4.ark:8599811
mmws1_sx441 quick_test/fbank/raw_fbank_train.3.ark:10426891
mjjj0_sx443 quick_test/fbank/raw_fbank_train.3.ark:3362872
fpaf0_si2314 quick_test/fbank/raw_fbank_train.1.ark:10126943
fpad0_sx356 quick_test/fbank/raw_fbank_train.1.ark:10056256
fpac0_si661 quick_test/fbank/raw_fbank_train.1.ark:9906572
msvs0_sx398 quick_test/fbank/raw_fbank_train.4.ark:7141107
makb0_sx386 quick_test/fbank/raw_fbank_train.2.ark:2799974
mjpg0_sx201 quick_test/fbank/raw_fbank_train.3.ark:4193873
mded0_sx450 quick_test/fbank/raw_fbank_train.2.ark:6762322
mbgt0_si1841 quick_test/fbank/raw_fbank_train.2.ark:3546402
mgrp0_sx327 quick_test/fbank/raw_fbank_train.3.ark:547346
fsjg0_sx40 quick_test/fbank/raw_fbank_train.1.ark:11804833
fdfb0_sx238 quick_test/fbank/raw_fbank_train.1.ark:2648116
fpjf0_sx146 quick_test/fbank/raw_fbank_train.1.ark:10338106
fgcs0_sx406 quick_test/fbank/raw_fbank_train.1.ark:4246241
mvrw0_si855 quick_test/fbank/raw_fbank_train.4.ark:10421329
fecd0_si1418 quick_test/fbank/raw_fbank_train.1.ark:3633836
mjee0_sx67 quick_test/fbank/raw_fbank_train.3.ark:2868299
mjdg0_sx52 quick_test/fbank/raw_fbank_train.3.ark:2461719
mpgr0_si780 quick_test/fbank/raw_fbank_train.3.ark:11122436
mkrg0_si1491 quick_test/fbank/raw_fbank_train.3.ark:7044106
mcss0_sx30 quick_test/fbank/raw_fbank_train.2.ark:5682255
mgrl0_sx327 quick_test/fbank/raw_fbank_train.3.ark:440241
mkdb0_sx152 quick_test/fbank/raw_fbank_train.3.ark:6091234
mwad0_sx432 quick_test/fbank/raw_fbank_train.4.ark:10657752
fmbg0_si1790 quick_test/fbank/raw_fbank_train.1.ark:8639885
fsak0_sx220 quick_test/fbank/raw_fbank_train.1.ark:11149057
fbch0_sx56 quick_test/fbank/raw_fbank_train.1.ark:828855
mhit0_si2243 quick_test/fbank/raw_fbank_train.3.ark:1018333
fblv0_sx338 quick_test/fbank/raw_fbank_train.1.ark:1009361
mfwk0_sx349 quick_test/fbank/raw_fbank_train.2.ark:10733113
mwrp0_sx273 quick_test/fbank/raw_fbank_train.4.ark:11311346
fear0_sx82 quick_test/fbank/raw_fbank_train.1.ark:3621842
mdef0_sx123 quick_test/fbank/raw_fbank_train.2.ark:6828569
fkde0_sx421 quick_test/fbank/raw_fbank_train.1.ark:6367669
fpaz0_si1593 quick_test/fbank/raw_fbank_train.1.ark:10195221
mrfk0_sx356 quick_test/fbank/raw_fbank_train.4.ark:2107133
flac0_sx91 quick_test/fbank/raw_fbank_train.1.ark:7197662
mkls1_sx105 quick_test/fbank/raw_fbank_train.3.ark:6886315
mefg0_sx375 quick_test/fbank/raw_fbank_train.2.ark:9815531
mklw0_sx401 quick_test/fbank/raw_fbank_train.3.ark:7017720
fjlr0_sx421 quick_test/fbank/raw_fbank_train.1.ark:5425963
flac0_sx181 quick_test/fbank/raw_fbank_train.1.ark:7149931
mfxs0_si2225 quick_test/fbank/raw_fbank_train.2.ark:10785646
mpgh0_sx204 quick_test/fbank/raw_fbank_train.3.ark:11064797
msat0_si2156 quick_test/fbank/raw_fbank_train.4.ark:5428189
msas0_sx206 quick_test/fbank/raw_fbank_train.4.ark:5369783
mppc0_sx422 quick_test/fbank/raw_fbank_train.4.ark:24198
mtcs0_sx172 quick_test/fbank/raw_fbank_train.4.ark:7698486
mrgm0_si532 quick_test/fbank/raw_fbank_train.4.ark:2278204
mwar0_si1045 quick_test/fbank/raw_fbank_train.4.ark:10677538
mcxm0_sx91 quick_test/fbank/raw_fbank_train.2.ark:5993276
mdks0_sx76 quick_test/fbank/raw_fbank_train.2.ark:7368185
flma0_si1873 quick_test/fbank/raw_fbank_train.1.ark:8053772
mrtc0_sx378 quick_test/fbank/raw_fbank_train.4.ark:4715385
mcew0_sx452 quick_test/fbank/raw_fbank_train.2.ark:5101339
mtpf0_si605 quick_test/fbank/raw_fbank_train.4.ark:9229469
mjlg1_sx382 quick_test/fbank/raw_fbank_train.3.ark:3757765
fgmb0_sx245 quick_test/fbank/raw_fbank_train.1.ark:4444585
fkkh0_sx210 quick_test/fbank/raw_fbank_train.1.ark:6672958
mcae0_sx97 quick_test/fbank/raw_fbank_train.2.ark:4511381
mrfl0_si526 quick_test/fbank/raw_fbank_train.4.ark:2166259
fpls0_si1590 quick_test/fbank/raw_fbank_train.1.ark:10394991
mgaf0_si1282 quick_test/fbank/raw_fbank_train.2.ark:10965064
mkag0_sx30 quick_test/fbank/raw_fbank_train.3.ark:5730640
mkjo0_si2147 quick_test/fbank/raw_fbank_train.3.ark:6478587
maeo0_si1326 quick_test/fbank/raw_fbank_train.2.ark:2402185
fjsk0_si2312 quick_test/fbank/raw_fbank_train.1.ark:5706907
mkdt0_sx83 quick_test/fbank/raw_fbank_train.3.ark:6347054
flac0_si901 quick_test/fbank/raw_fbank_train.1.ark:7142578
mmdb0_si987 quick_test/fbank/raw_fbank_train.3.ark:8628829
maeo0_sx426 quick_test/fbank/raw_fbank_train.2.ark:2475505
mbth0_si505 quick_test/fbank/raw_fbank_train.2.ark:4206936
mdlh0_sx250 quick_test/fbank/raw_fbank_train.2.ark:7847972
fbcg1_sx442 quick_test/fbank/raw_fbank_train.1.ark:706439
mddc0_sx69 quick_test/fbank/raw_fbank_train.2.ark:6670689
fclt0_sx268 quick_test/fbank/raw_fbank_train.1.ark:1952298
mdas0_sx21 quick_test/fbank/raw_fbank_train.2.ark:6159267
mmbs0_sx341 quick_test/fbank/raw_fbank_train.3.ark:8469198
mjwg0_si2155 quick_test/fbank/raw_fbank_train.3.ark:5131071
mjpg0_si1821 quick_test/fbank/raw_fbank_train.3.ark:4153574
fapb0_si1693 quick_test/fbank/raw_fbank_train.1.ark:420782
mses0_sx239 quick_test/fbank/raw_fbank_train.4.ark:6058322
mmrp0_sx324 quick_test/fbank/raw_fbank_train.3.ark:9871013
mkrg0_si861 quick_test/fbank/raw_fbank_train.3.ark:7074933
flmc0_si2002 quick_test/fbank/raw_fbank_train.1.ark:8149397
mpeb0_sx420 quick_test/fbank/raw_fbank_train.3.ark:10881974
mfer0_sx142 quick_test/fbank/raw_fbank_train.2.ark:10425291
mkes0_si623 quick_test/fbank/raw_fbank_train.3.ark:6386595
mbma0_sx412 quick_test/fbank/raw_fbank_train.2.ark:3806897
fclt0_si2068 quick_test/fbank/raw_fbank_train.1.ark:1915359
mkls1_sx375 quick_test/fbank/raw_fbank_train.3.ark:6927486
mjlg1_sx22 quick_test/fbank/raw_fbank_train.3.ark:3736059
fjlr0_sx61 quick_test/fbank/raw_fbank_train.1.ark:5437435
fkdw0_sx397 quick_test/fbank/raw_fbank_train.1.ark:6479526
fskl0_si899 quick_test/fbank/raw_fbank_train.2.ark:375406
mtrr0_si2178 quick_test/fbank/raw_fbank_train.4.ark:9820585
fdml0_sx69 quick_test/fbank/raw_fbank_train.1.ark:2974451
mlel0_si1246 quick_test/fbank/raw_fbank_train.3.ark:7328621
mbwp0_sx169 quick_test/fbank/raw_fbank_train.2.ark:4323427
fkkh0_si1920 quick_test/fbank/raw_fbank_train.1.ark:6627299
mprd0_sx351 quick_test/fbank/raw_fbank_train.4.ark:239695
fhxs0_sx445 quick_test/fbank/raw_fbank_train.1.ark:4818089
fdas1_si2091 quick_test/fbank/raw_fbank_train.1.ark:2418765
mgaf0_sx202 quick_test/fbank/raw_fbank_train.2.ark:11015837
mbbr0_sx245 quick_test/fbank/raw_fbank_train.2.ark:3322267
mbwp0_si1969 quick_test/fbank/raw_fbank_train.2.ark:4299001
fvfb0_si1510 quick_test/fbank/raw_fbank_train.2.ark:1748723
mtju0_sx310 quick_test/fbank/raw_fbank_train.4.ark:8457487
ftlg0_sx393 quick_test/fbank/raw_fbank_train.2.ark:1630390
msat1_si1073 quick_test/fbank/raw_fbank_train.4.ark:5496060
mtlc0_sx307 quick_test/fbank/raw_fbank_train.4.ark:8866707
fntb0_si1203 quick_test/fbank/raw_fbank_train.1.ark:9669336
mdlc2_sx174 quick_test/fbank/raw_fbank_train.2.ark:7734275
mtab0_si1572 quick_test/fbank/raw_fbank_train.4.ark:7158301
fmkc0_sx352 quick_test/fbank/raw_fbank_train.1.ark:9200381
mpsw0_sx257 quick_test/fbank/raw_fbank_train.4.ark:533609
mjae0_sx354 quick_test/fbank/raw_fbank_train.3.ark:1824223
mmdm1_sx153 quick_test/fbank/raw_fbank_train.3.ark:8928537
mapv0_si1923 quick_test/fbank/raw_fbank_train.2.ark:2904467
mbth0_sx302 quick_test/fbank/raw_fbank_train.2.ark:4256108
mejl0_sx332 quick_test/fbank/raw_fbank_train.2.ark:9992834
mmcc0_sx348 quick_test/fbank/raw_fbank_train.3.ark:8568703
mrgm0_si1792 quick_test/fbank/raw_fbank_train.4.ark:2263091
mrlr0_si1826 quick_test/fbank/raw_fbank_train.4.ark:3618054
fpab1_sx121 quick_test/fbank/raw_fbank_train.1.ark:9815980
mprb0_sx305 quick_test/fbank/raw_fbank_train.4.ark:127430
fdnc0_sx18 quick_test/fbank/raw_fbank_train.1.ark:3182242
mjlg1_si1642 quick_test/fbank/raw_fbank_train.3.ark:3689407
mmsm0_sx296 quick_test/fbank/raw_fbank_train.3.ark:10000110
mmgk0_si1952 quick_test/fbank/raw_fbank_train.3.ark:9462261
mdwm0_sx433 quick_test/fbank/raw_fbank_train.2.ark:9546137
mstf0_sx406 quick_test/fbank/raw_fbank_train.4.ark:7008130
mpgh0_sx24 quick_test/fbank/raw_fbank_train.3.ark:11073669
mrjh0_sx169 quick_test/fbank/raw_fbank_train.4.ark:2736135
mwem0_sx150 quick_test/fbank/raw_fbank_train.4.ark:10987276
fjwb1_si2055 quick_test/fbank/raw_fbank_train.1.ark:5876770
mdwm0_si1546 quick_test/fbank/raw_fbank_train.2.ark:9460826
mtrt0_si597 quick_test/fbank/raw_fbank_train.4.ark:9943403
fcjf0_si1657 quick_test/fbank/raw_fbank_train.1.ark:1656684
mvrw0_sx45 quick_test/fbank/raw_fbank_train.4.ark:10471173
mclm0_si826 quick_test/fbank/raw_fbank_train.2.ark:5358803
mtrr0_sx378 quick_test/fbank/raw_fbank_train.4.ark:9895502
fdxw0_sx431 quick_test/fbank/raw_fbank_train.1.ark:3409960
mrav0_sx18 quick_test/fbank/raw_fbank_train.4.ark:1017302
mrxb0_sx55 quick_test/fbank/raw_fbank_train.4.ark:5211390
msfh0_sx316 quick_test/fbank/raw_fbank_train.4.ark:6180380
msds0_si2337 quick_test/fbank/raw_fbank_train.4.ark:5800285
fpaz0_sx153 quick_test/fbank/raw_fbank_train.1.ark:10238561
msvs0_si2198 quick_test/fbank/raw_fbank_train.4.ark:7045790
mfxs0_sx324 quick_test/fbank/raw_fbank_train.2.ark:10826939
mhrm0_sx418 quick_test/fbank/raw_fbank_train.3.ark:1443159
mrjm0_si1095 quick_test/fbank/raw_fbank_train.4.ark:2807340
mmxs0_sx156 quick_test/fbank/raw_fbank_train.3.ark:10479576
mrew1_si870 quick_test/fbank/raw_fbank_train.4.ark:1973968
fsgf0_sx117 quick_test/fbank/raw_fbank_train.1.ark:11655310
mrsp0_si1429 quick_test/fbank/raw_fbank_train.4.ark:4515449
mrvg0_si510 quick_test/fbank/raw_fbank_train.4.ark:4874151
milb0_sx183 quick_test/fbank/raw_fbank_train.3.ark:1617028
mgrp0_si1947 quick_test/fbank/raw_fbank_train.3.ark:500414
fbmj0_sx246 quick_test/fbank/raw_fbank_train.1.ark:1202697
mtjm0_sx416 quick_test/fbank/raw_fbank_train.4.ark:8258950
mbcg0_sx327 quick_test/fbank/raw_fbank_train.2.ark:3419204
fvkb0_sx169 quick_test/fbank/raw_fbank_train.2.ark:1857215
mdss1_si1713 quick_test/fbank/raw_fbank_train.2.ark:9091199
mppc0_sx152 quick_test/fbank/raw_fbank_train.3.ark:11494145
mdac0_sx181 quick_test/fbank/raw_fbank_train.2.ark:6045050
ftbw0_sx445 quick_test/fbank/raw_fbank_train.2.ark:1515854
mejs0_sx70 quick_test/fbank/raw_fbank_train.2.ark:10120924
mrbc0_sx419 quick_test/fbank/raw_fbank_train.4.ark:1133474
mrew1_si2130 quick_test/fbank/raw_fbank_train.4.ark:1968375
mgrl0_si2127 quick_test/fbank/raw_fbank_train.3.ark:397629
mjeb0_sx386 quick_test/fbank/raw_fbank_train.3.ark:2669529
fsmm0_sx414 quick_test/fbank/raw_fbank_train.2.ark:823439
fsls0_sx246 quick_test/fbank/raw_fbank_train.2.ark:603996
mgaw0_si535 quick_test/fbank/raw_fbank_train.3.ark:132506
mprt0_sx130 quick_test/fbank/raw_fbank_train.4.ark:431518
fpaz0_si963 quick_test/fbank/raw_fbank_train.1.ark:10221808
mclk0_sx220 quick_test/fbank/raw_fbank_train.2.ark:5288924
mcpm0_sx114 quick_test/fbank/raw_fbank_train.2.ark:5465461
mtab0_sx42 quick_test/fbank/raw_fbank_train.4.ark:7265652
mmdg0_si520 quick_test/fbank/raw_fbank_train.3.ark:8722894
makr0_sx92 quick_test/fbank/raw_fbank_train.2.ark:2875919
mrhl0_sx255 quick_test/fbank/raw_fbank_train.4.ark:2529078
mgjc0_sx75 quick_test/fbank/raw_fbank_train.3.ark:375521
mmws1_sx351 quick_test/fbank/raw_fbank_train.3.ark:10414178
fjrp1_si1432 quick_test/fbank/raw_fbank_train.1.ark:5549974
mmdb0_sx357 quick_test/fbank/raw_fbank_train.3.ark:8665368
mrlj0_si2050 quick_test/fbank/raw_fbank_train.4.ark:3337498
mlsh0_sx67 quick_test/fbank/raw_fbank_train.3.ark:7850872
mctm0_sx90 quick_test/fbank/raw_fbank_train.2.ark:5898491
fcdr1_si1186 quick_test/fbank/raw_fbank_train.1.ark:1433240
mesg0_sx252 quick_test/fbank/raw_fbank_train.2.ark:10176211
fceg0_si1878 quick_test/fbank/raw_fbank_train.1.ark:1575099
mtmn0_sx434 quick_test/fbank/raw_fbank_train.4.ark:9085511
mrjt0_sx418 quick_test/fbank/raw_fbank_train.4.ark:3083630
mcae0_sx187 quick_test/fbank/raw_fbank_train.2.ark:4457132
mtjs0_si562 quick_test/fbank/raw_fbank_train.4.ark:8314123
mkls0_sx447 quick_test/fbank/raw_fbank_train.3.ark:6823589
mrtj0_sx322 quick_test/fbank/raw_fbank_train.4.ark:4812665
mcdc0_sx302 quick_test/fbank/raw_fbank_train.2.ark:4678806
mpmb0_sx421 quick_test/fbank/raw_fbank_train.3.ark:11411099
fceg0_si618 quick_test/fbank/raw_fbank_train.1.ark:1580492
msem1_sx180 quick_test/fbank/raw_fbank_train.4.ark:5946063
fpmy0_sx253 quick_test/fbank/raw_fbank_train.1.ark:10563420
mrab1_si1478 quick_test/fbank/raw_fbank_train.4.ark:664133
fgdp0_sx268 quick_test/fbank/raw_fbank_train.1.ark:4323080
flkm0_sx440 quick_test/fbank/raw_fbank_train.1.ark:8018352
fsjs0_si1801 quick_test/fbank/raw_fbank_train.2.ark:52378
fjwb1_si748 quick_test/fbank/raw_fbank_train.1.ark:5886963
mmdb0_sx447 quick_test/fbank/raw_fbank_train.3.ark:8678281
fpad0_sx446 quick_test/fbank/raw_fbank_train.1.ark:10070969
fsak0_sx310 quick_test/fbank/raw_fbank_train.1.ark:11163130
mrtc0_si1458 quick_test/fbank/raw_fbank_train.4.ark:4619954
mgag0_si1321 quick_test/fbank/raw_fbank_train.2.ark:11052729
mrmh0_si1021 quick_test/fbank/raw_fbank_train.4.ark:3886016
mjpm0_si738 quick_test/fbank/raw_fbank_train.3.ark:4261352
mbef0_si1911 quick_test/fbank/raw_fbank_train.2.ark:3471977
mjmd0_si1658 quick_test/fbank/raw_fbank_train.3.ark:3975083
fpac0_sx31 quick_test/fbank/raw_fbank_train.1.ark:9965503
mmbs0_si1151 quick_test/fbank/raw_fbank_train.3.ark:8398512
msrr0_si1131 quick_test/fbank/raw_fbank_train.4.ark:6828548
mbjv0_si1247 quick_test/fbank/raw_fbank_train.2.ark:3645553
mwsb0_sx276 quick_test/fbank/raw_fbank_train.4.ark:11400089
flet0_sx57 quick_test/fbank/raw_fbank_train.1.ark:7505658
mdas0_sx276 quick_test/fbank/raw_fbank_train.2.ark:6166740
fgdp0_si2248 quick_test/fbank/raw_fbank_train.1.ark:4277341
fjrb0_sx42 quick_test/fbank/raw_fbank_train.1.ark:5540180
mdcm0_sx220 quick_test/fbank/raw_fbank_train.2.ark:6544366
fbjl0_sx112 quick_test/fbank/raw_fbank_train.1.ark:882109
fsrh0_si1931 quick_test/fbank/raw_fbank_train.2.ark:1065389
fsak0_si1300 quick_test/fbank/raw_fbank_train.1.ark:11102684
mjde0_sx40 quick_test/fbank/raw_fbank_train.3.ark:2347900
fblv0_sx158 quick_test/fbank/raw_fbank_train.1.ark:990255
mjeb1_sx27 quick_test/fbank/raw_fbank_train.3.ark:2752568
mtbc0_sx273 quick_test/fbank/raw_fbank_train.4.ark:7613854
mkrg0_sx141 quick_test/fbank/raw_fbank_train.3.ark:7092326
mlns0_sx237 quick_test/fbank/raw_fbank_train.3.ark:7715269
mhmr0_si1692 quick_test/fbank/raw_fbank_train.3.ark:1285929
mwdk0_sx86 quick_test/fbank/raw_fbank_train.4.ark:10945381
fmpg0_sx342 quick_test/fbank/raw_fbank_train.1.ark:9523332
mgsh0_sx96 quick_test/fbank/raw_fbank_train.3.ark:685074
fmjb0_sx367 quick_test/fbank/raw_fbank_train.1.ark:8893707
msrg0_si591 quick_test/fbank/raw_fbank_train.4.ark:6758750
mjsr0_sx254 quick_test/fbank/raw_fbank_train.3.ark:5077779
mesg0_si1962 quick_test/fbank/raw_fbank_train.2.ark:10137152
mdbp0_sx348 quick_test/fbank/raw_fbank_train.2.ark:6353469
mkls0_si1437 quick_test/fbank/raw_fbank_train.3.ark:6736749
fscn0_si1886 quick_test/fbank/raw_fbank_train.1.ark:11309495
fmbg0_si1160 quick_test/fbank/raw_fbank_train.1.ark:8618491
mtmn0_sx344 quick_test/fbank/raw_fbank_train.4.ark:9076518
mrav0_sx108 quick_test/fbank/raw_fbank_train.4.ark:1006750
mdac0_si631 quick_test/fbank/raw_fbank_train.2.ark:6024217
mkjo0_si887 quick_test/fbank/raw_fbank_train.3.ark:6487340
mpeb0_sx240 quick_test/fbank/raw_fbank_train.3.ark:10858908
mhmg0_si1365 quick_test/fbank/raw_fbank_train.3.ark:1184870
mkls1_si915 quick_test/fbank/raw_fbank_train.3.ark:6868242
feme0_sx335 quick_test/fbank/raw_fbank_train.1.ark:3920852
mtqc0_si1441 quick_test/fbank/raw_fbank_train.4.ark:9590262
mmar0_sx436 quick_test/fbank/raw_fbank_train.3.ark:8373166
mbgt0_sx261 quick_test/fbank/raw_fbank_train.2.ark:3597101
mbth0_sx32 quick_test/fbank/raw_fbank_train.2.ark:4267740
mgrl0_si867 quick_test/fbank/raw_fbank_train.3.ark:408942
mkls1_sx285 quick_test/fbank/raw_fbank_train.3.ark:6917253
mkaj0_si784 quick_test/fbank/raw_fbank_train.3.ark:5890551
mmbs0_sx431 quick_test/fbank/raw_fbank_train.3.ark:8482791
marc0_sx198 quick_test/fbank/raw_fbank_train.2.ark:3040583
fgdp0_sx178 quick_test/fbank/raw_fbank_train.1.ark:4307327
mrjb1_sx390 quick_test/fbank/raw_fbank_train.4.ark:2673962
fpad0_sx266 quick_test/fbank/raw_fbank_train.1.ark:10044143
mjws0_si1773 quick_test/fbank/raw_fbank_train.3.ark:5257249
mbcg0_sx417 quick_test/fbank/raw_fbank_train.2.ark:3436957
mmds0_sx263 quick_test/fbank/raw_fbank_train.3.ark:9044275
mrhl0_sx165 quick_test/fbank/raw_fbank_train.4.ark:2515885
fmju0_si2019 quick_test/fbank/raw_fbank_train.1.ark:9055103
mmws1_si1701 quick_test/fbank/raw_fbank_train.3.ark:10380086
mwdk0_si806 quick_test/fbank/raw_fbank_train.4.ark:10882937
fdmy0_sx27 quick_test/fbank/raw_fbank_train.1.ark:3080089
flac0_sx361 quick_test/fbank/raw_fbank_train.1.ark:7172637
fear0_si622 quick_test/fbank/raw_fbank_train.1.ark:3551958
mdcd0_sx155 quick_test/fbank/raw_fbank_train.2.ark:6435308
fljd0_si1516 quick_test/fbank/raw_fbank_train.1.ark:7716864
mded0_sx90 quick_test/fbank/raw_fbank_train.2.ark:6776634
mgsh0_sx127 quick_test/fbank/raw_fbank_train.3.ark:641945
mdwh0_sx35 quick_test/fbank/raw_fbank_train.2.ark:9433199
fklc1_sx328 quick_test/fbank/raw_fbank_train.1.ark:6875762
mjxa0_si1507 quick_test/fbank/raw_fbank_train.3.ark:5463105
mhrm0_si2218 quick_test/fbank/raw_fbank_train.3.ark:1385434
mpar0_si2206 quick_test/fbank/raw_fbank_train.3.ark:10740944
mtjg0_si2157 quick_test/fbank/raw_fbank_train.4.ark:8093040
fmah1_sx429 quick_test/fbank/raw_fbank_train.1.ark:8595705
milb0_sx93 quick_test/fbank/raw_fbank_train.3.ark:1656117
mmcc0_si1338 quick_test/fbank/raw_fbank_train.3.ark:8509457
flac0_si2161 quick_test/fbank/raw_fbank_train.1.ark:7136145
makb0_si2276 quick_test/fbank/raw_fbank_train.2.ark:2729810
mkam0_si1250 quick_test/fbank/raw_fbank_train.3.ark:5950269
mjrk0_si880 quick_test/fbank/raw_fbank_train.3.ark:4840223
mdwm0_si2176 quick_test/fbank/raw_fbank_train.2.ark:9471900
fsah0_si1244 quick_test/fbank/raw_fbank_train.1.ark:10996139
fkde0_si1771 quick_test/fbank/raw_fbank_train.1.ark:6302543
mtxs0_si1060 quick_test/fbank/raw_fbank_train.4.ark:10089186
fjrb0_si672 quick_test/fbank/raw_fbank_train.1.ark:5476736
falk0_sx276 quick_test/fbank/raw_fbank_train.1.ark:262553
mppc0_si782 quick_test/fbank/raw_fbank_train.3.ark:11481832
mvlo0_sx337 quick_test/fbank/raw_fbank_train.4.ark:10363003
marc0_si1818 quick_test/fbank/raw_fbank_train.2.ark:2998412
mesg0_si702 quick_test/fbank/raw_fbank_train.2.ark:10145225
mafm0_sx219 quick_test/fbank/raw_fbank_train.2.ark:2537784
mstf0_sx136 quick_test/fbank/raw_fbank_train.4.ark:6969751
fdtd0_sx121 quick_test/fbank/raw_fbank_train.1.ark:3273435
mjpg0_sx381 quick_test/fbank/raw_fbank_train.3.ark:4219731
mwrp0_sx93 quick_test/fbank/raw_fbank_train.4.ark:11343842
mrjm1_sx218 quick_test/fbank/raw_fbank_train.4.ark:2959139
mkls1_sx195 quick_test/fbank/raw_fbank_train.3.ark:6909060
makb0_si1016 quick_test/fbank/raw_fbank_train.2.ark:2692862
mdma0_sx80 quick_test/fbank/raw_fbank_train.2.ark:8301171
mesg0_sx342 quick_test/fbank/raw_fbank_train.2.ark:10186684
madc0_si1367 quick_test/fbank/raw_fbank_train.2.ark:2103670
flma0_sx73 quick_test/fbank/raw_fbank_train.1.ark:8123249
mmab1_sx324 quick_test/fbank/raw_fbank_train.3.ark:8031497
fjhk0_si1652 quick_test/fbank/raw_fbank_train.1.ark:5071801
fdtd0_si931 quick_test/fbank/raw_fbank_train.1.ark:3261722
mcal0_si508 quick_test/fbank/raw_fbank_train.2.ark:4546682
fbcg1_sx82 quick_test/fbank/raw_fbank_train.1.ark:721111
fjdm2_sx412 quick_test/fbank/raw_fbank_train.1.ark:4920795
mtbc0_sx93 quick_test/fbank/raw_fbank_train.4.ark:7654032
mpeb0_sx330 quick_test/fbank/raw_fbank_train.3.ark:10869741
mrmg0_si1710 quick_test/fbank/raw_fbank_train.4.ark:3799944
fjhk0_sx302 quick_test/fbank/raw_fbank_train.1.ark:5127014
mjhi0_si698 quick_test/fbank/raw_fbank_train.3.ark:3100969
fkfb0_sx168 quick_test/fbank/raw_fbank_train.1.ark:6534140
mmjb1_sx238 quick_test/fbank/raw_fbank_train.3.ark:9572745
mjeb0_sx206 quick_test/fbank/raw_fbank_train.3.ark:2636151
mbef0_sx291 quick_test/fbank/raw_fbank_train.2.ark:3522581
mclm0_sx196 quick_test/fbank/raw_fbank_train.2.ark:5390581
mrdm0_si1044 quick_test/fbank/raw_fbank_train.4.ark:1458576
mklw0_sx311 quick_test/fbank/raw_fbank_train.3.ark:6998967
mrem0_sx331 quick_test/fbank/raw_fbank_train.4.ark:1920762
flja0_si1708 quick_test/fbank/raw_fbank_train.1.ark:7633432
mprb0_sx215 quick_test/fbank/raw_fbank_train.4.ark:111357
mdlc2_si2244 quick_test/fbank/raw_fbank_train.2.ark:7712169
msdb0_sx377 quick_test/fbank/raw_fbank_train.4.ark:5653638
mgrl0_si1497 quick_test/fbank/raw_fbank_train.3.ark:387795
mgar0_sx132 quick_test/fbank/raw_fbank_train.3.ark:34474
mtas0_sx305 quick_test/fbank/raw_fbank_train.4.ark:7325492
mdlm0_si1864 quick_test/fbank/raw_fbank_train.2.ark:7909338
mtdp0_sx351 quick_test/fbank/raw_fbank_train.4.ark:7932203
mlns0_si1407 quick_test/fbank/raw_fbank_train.3.ark:7670456
fcjf0_si1027 quick_test/fbank/raw_fbank_train.1.ark:1644050
mnet0_sx276 quick_test/fbank/raw_fbank_train.3.ark:10584274
fbmj0_sx156 quick_test/fbank/raw_fbank_train.1.ark:1189104
mgxp0_si525 quick_test/fbank/raw_fbank_train.3.ark:839438
fcyl0_sx37 quick_test/fbank/raw_fbank_train.1.ark:2375024
fjxm0_sx41 quick_test/fbank/raw_fbank_train.1.ark:6062465
fcke0_sx301 quick_test/fbank/raw_fbank_train.1.ark:1878146
marw0_si646 quick_test/fbank/raw_fbank_train.2.ark:3092630
mjls0_sx196 quick_test/fbank/raw_fbank_train.3.ark:3836644
fsag0_si693 quick_test/fbank/raw_fbank_train.1.ark:10899381
mrdm0_si1595 quick_test/fbank/raw_fbank_train.4.ark:1475650
mmwb0_si989 quick_test/fbank/raw_fbank_train.3.ark:10178150
mmgk0_sx62 quick_test/fbank/raw_fbank_train.3.ark:9515578
fjxm0_sx221 quick_test/fbank/raw_fbank_train.1.ark:6016487
fmjf0_sx444 quick_test/fbank/raw_fbank_train.1.ark:9006163
mwad0_sx252 quick_test/fbank/raw_fbank_train.4.ark:10639166
mrms0_si2100 quick_test/fbank/raw_fbank_train.4.ark:4136935
mjwg0_si813 quick_test/fbank/raw_fbank_train.3.ark:5141104
mkes0_sx353 quick_test/fbank/raw_fbank_train.3.ark:6428774
mrfk0_si2336 quick_test/fbank/raw_fbank_train.4.ark:2074954
mklr0_si1689 quick_test/fbank/raw_fbank_train.3.ark:6666317
mcpm0_sx384 quick_test/fbank/raw_fbank_train.2.ark:5504192
fhxs0_sx175 quick_test/fbank/raw_fbank_train.1.ark:4775550
fkde0_si1141 quick_test/fbank/raw_fbank_train.1.ark:6283389
flag0_sx384 quick_test/fbank/raw_fbank_train.1.ark:7308767
fskp0_si1728 quick_test/fbank/raw_fbank_train.2.ark:464118
fpaf0_sx334 quick_test/fbank/raw_fbank_train.1.ark:10160162
mfer0_sx322 quick_test/fbank/raw_fbank_train.2.ark:10450837
mtat0_si811 quick_test/fbank/raw_fbank_train.4.ark:7385138
flhd0_sx84 quick_test/fbank/raw_fbank_train.1.ark:7595724
mmea0_si2018 quick_test/fbank/raw_fbank_train.3.ark:9096761
feac0_si1245 quick_test/fbank/raw_fbank_train.1.ark:3429986
mmws1_sx261 quick_test/fbank/raw_fbank_train.3.ark:10399313
mrwa0_sx343 quick_test/fbank/raw_fbank_train.4.ark:4997035
mrld0_sx244 quick_test/fbank/raw_fbank_train.4.ark:3285972
fltm0_si2330 quick_test/fbank/raw_fbank_train.1.ark:8439228
mtwh1_sx72 quick_test/fbank/raw_fbank_train.4.ark:10081832
ftbw0_sx355 quick_test/fbank/raw_fbank_train.2.ark:1505501
mhbs0_sx135 quick_test/fbank/raw_fbank_train.3.ark:956614
fskp0_si1098 quick_test/fbank/raw_fbank_train.2.ark:446364
mwsb0_si996 quick_test/fbank/raw_fbank_train.4.ark:11373863
milb0_si903 quick_test/fbank/raw_fbank_train.3.ark:1598995
fsgf0_sx387 quick_test/fbank/raw_fbank_train.1.ark:11692881
mjrk0_si2103 quick_test/fbank/raw_fbank_train.3.ark:4833230
fbmh0_si1136 quick_test/fbank/raw_fbank_train.1.ark:1048380
mjpg0_sx291 quick_test/fbank/raw_fbank_train.3.ark:4211378
mjac0_sx431 quick_test/fbank/raw_fbank_train.3.ark:1740470
mdcd0_si2045 quick_test/fbank/raw_fbank_train.2.ark:6407082
mjde0_sx220 quick_test/fbank/raw_fbank_train.3.ark:2313875
mhbs0_sx405 quick_test/fbank/raw_fbank_train.3.ark:986353
fkdw0_sx127 quick_test/fbank/raw_fbank_train.1.ark:6445155
mbjv0_si1877 quick_test/fbank/raw_fbank_train.2.ark:3657267
fbmj0_sx336 quick_test/fbank/raw_fbank_train.1.ark:1213170
fapb0_si2323 quick_test/fbank/raw_fbank_train.1.ark:431736
mmws0_sx168 quick_test/fbank/raw_fbank_train.3.ark:10305487
mtat0_si1110 quick_test/fbank/raw_fbank_train.4.ark:7353751
mjwg0_sx355 quick_test/fbank/raw_fbank_train.3.ark:5214956
fjen0_si1047 quick_test/fbank/raw_fbank_train.1.ark:4946261
madc0_sx197 quick_test/fbank/raw_fbank_train.2.ark:2174275
mjlb0_sx446 quick_test/fbank/raw_fbank_train.3.ark:3658907
mree0_sx384 quick_test/fbank/raw_fbank_train.4.ark:1735058
mdlr0_si1863 quick_test/fbank/raw_fbank_train.2.ark:7999443
msat0_sx86 quick_test/fbank/raw_fbank_train.4.ark:5488266
megj0_sx3 quick_test/fbank/raw_fbank_train.2.ark:9904609
fmjf0_si1884 quick_test/fbank/raw_fbank_train.1.ark:8939478
fgcs0_sx46 quick_test/fbank/raw_fbank_train.1.ark:4259073
mjrh0_sx225 quick_test/fbank/raw_fbank_train.3.ark:4685039
mmds0_si1973 quick_test/fbank/raw_fbank_train.3.ark:9018056
mcth0_si1839 quick_test/fbank/raw_fbank_train.2.ark:5726949
fjxp0_sx402 quick_test/fbank/raw_fbank_train.1.ark:6153298
mmvp0_sx294 quick_test/fbank/raw_fbank_train.3.ark:10097863
mkjo0_sx437 quick_test/fbank/raw_fbank_train.3.ark:6531232
mrtc0_sx108 quick_test/fbank/raw_fbank_train.4.ark:4666014
mgaf0_sx22 quick_test/fbank/raw_fbank_train.2.ark:11021669
mkjo0_sx424 quick_test/fbank/raw_fbank_train.3.ark:6518279
mrkm0_sx187 quick_test/fbank/raw_fbank_train.4.ark:3173556
mtrc0_sx93 quick_test/fbank/raw_fbank_train.4.ark:9803317
msah1_sx149 quick_test/fbank/raw_fbank_train.4.ark:5250245
fdmy0_si1197 quick_test/fbank/raw_fbank_train.1.ark:2985005
mgxp0_sx367 quick_test/fbank/raw_fbank_train.3.ark:879177
mfrm0_sx255 quick_test/fbank/raw_fbank_train.2.ark:10633935
mejs0_sx430 quick_test/fbank/raw_fbank_train.2.ark:10105412
fsgf0_sx27 quick_test/fbank/raw_fbank_train.1.ark:11675055
medr0_sx204 quick_test/fbank/raw_fbank_train.2.ark:9689970
mhrm0_sx328 quick_test/fbank/raw_fbank_train.3.ark:1430646
mtml0_sx255 quick_test/fbank/raw_fbank_train.4.ark:8949900
mtas0_si2015 quick_test/fbank/raw_fbank_train.4.ark:7289480
mejs0_sx340 quick_test/fbank/raw_fbank_train.2.ark:10094539
mjai0_si710 quick_test/fbank/raw_fbank_train.3.ark:1898868
mrsp0_si2059 quick_test/fbank/raw_fbank_train.4.ark:4535603
fpmy0_sx73 quick_test/fbank/raw_fbank_train.1.ark:10589165
fblv0_sx248 quick_test/fbank/raw_fbank_train.1.ark:999568
fsrh0_sx221 quick_test/fbank/raw_fbank_train.2.ark:1096648
msds0_sx177 quick_test/fbank/raw_fbank_train.4.ark:5815478
fajw0_si1893 quick_test/fbank/raw_fbank_train.1.ark:120592
fexm0_si1731 quick_test/fbank/raw_fbank_train.1.ark:4072290
fdkn0_sx91 quick_test/fbank/raw_fbank_train.1.ark:2888105
mtbc0_sx363 quick_test/fbank/raw_fbank_train.4.ark:7639320
mdcm0_sx310 quick_test/fbank/raw_fbank_train.2.ark:6558719
mjwg0_sx175 quick_test/fbank/raw_fbank_train.3.ark:5184850
mjfr0_sx165 quick_test/fbank/raw_fbank_train.3.ark:3000898
fjwb1_sx165 quick_test/fbank/raw_fbank_train.1.ark:5914949
mrmb0_sx231 quick_test/fbank/raw_fbank_train.4.ark:3744258
mkdb0_sx332 quick_test/fbank/raw_fbank_train.3.ark:6116180
mrfk0_si1076 quick_test/fbank/raw_fbank_train.4.ark:2050766
mrjm1_si1298 quick_test/fbank/raw_fbank_train.4.ark:2909966
mbcg0_sx147 quick_test/fbank/raw_fbank_train.2.ark:3400538
mrso0_si1206 quick_test/fbank/raw_fbank_train.4.ark:4395303
flag0_sx204 quick_test/fbank/raw_fbank_train.1.ark:7269189
fetb0_sx248 quick_test/fbank/raw_fbank_train.1.ark:4010684
mtpr0_si506 quick_test/fbank/raw_fbank_train.4.ark:9514984
mrvg0_sx60 quick_test/fbank/raw_fbank_train.4.ark:4928715
mjrp0_sx315 quick_test/fbank/raw_fbank_train.3.ark:4974907
mdjm0_si825 quick_test/fbank/raw_fbank_train.2.ark:7219115
fsmm0_sx144 quick_test/fbank/raw_fbank_train.2.ark:779420
mfxs0_si1674 quick_test/fbank/raw_fbank_train.2.ark:10775372
fdjh0_sx215 quick_test/fbank/raw_fbank_train.1.ark:2742421
mrso0_sx219 quick_test/fbank/raw_fbank_train.4.ark:4458197
mdlr1_si1299 quick_test/fbank/raw_fbank_train.2.ark:8088394
fexm0_sx201 quick_test/fbank/raw_fbank_train.1.ark:4116669
mchl0_si1404 quick_test/fbank/raw_fbank_train.2.ark:5152079
mjlb0_sx356 quick_test/fbank/raw_fbank_train.3.ark:3647434
mjls0_sx16 quick_test/fbank/raw_fbank_train.3.ark:3826891
mprt0_sx220 quick_test/fbank/raw_fbank_train.4.ark:440511
mjmm0_sx175 quick_test/fbank/raw_fbank_train.3.ark:4087375
fcag0_sx243 quick_test/fbank/raw_fbank_train.1.ark:1294643
mrjm0_sx58 quick_test/fbank/raw_fbank_train.4.ark:2894092
mvjh0_si2186 quick_test/fbank/raw_fbank_train.4.ark:10223766
mdbb1_sx106 quick_test/fbank/raw_fbank_train.2.ark:6236418
mvlo0_si1147 quick_test/fbank/raw_fbank_train.4.ark:10299517
mrmg0_sx180 quick_test/fbank/raw_fbank_train.4.ark:3825691
fljd0_sx76 quick_test/fbank/raw_fbank_train.1.ark:7803055
mgrp0_sx237 quick_test/fbank/raw_fbank_train.3.ark:538873
mcae0_si817 quick_test/fbank/raw_fbank_train.2.ark:4440259
mjwt0_sx211 quick_test/fbank/raw_fbank_train.3.ark:5416453
mkah0_sx268 quick_test/fbank/raw_fbank_train.3.ark:5816112
mbbr0_sx155 quick_test/fbank/raw_fbank_train.2.ark:3309554
mbar0_sx419 quick_test/fbank/raw_fbank_train.2.ark:3253107
freh0_sx415 quick_test/fbank/raw_fbank_train.1.ark:10670278
flet0_sx277 quick_test/fbank/raw_fbank_train.1.ark:7484313
mrtc0_si828 quick_test/fbank/raw_fbank_train.4.ark:4654141
mjee0_si1237 quick_test/fbank/raw_fbank_train.3.ark:2786308
fleh0_sx61 quick_test/fbank/raw_fbank_train.1.ark:7408233
fmem0_sx117 quick_test/fbank/raw_fbank_train.1.ark:8759895
mrlk0_sx213 quick_test/fbank/raw_fbank_train.4.ark:3562688
mrlr0_sx116 quick_test/fbank/raw_fbank_train.4.ark:3642320
mjrk0_sx160 quick_test/fbank/raw_fbank_train.3.ark:4857776
mjxa0_si877 quick_test/fbank/raw_fbank_train.3.ark:5489852
mdhs0_sx450 quick_test/fbank/raw_fbank_train.2.ark:7166542
fmmh0_sx97 quick_test/fbank/raw_fbank_train.1.ark:9435932
fcrz0_si2053 quick_test/fbank/raw_fbank_train.1.ark:2217715
mprb0_sx35 quick_test/fbank/raw_fbank_train.4.ark:141062
ftbw0_sx265 quick_test/fbank/raw_fbank_train.2.ark:1494108
mcdr0_si524 quick_test/fbank/raw_fbank_train.2.ark:4837757
mbar0_si1949 quick_test/fbank/raw_fbank_train.2.ark:3191702
fksr0_sx397 quick_test/fbank/raw_fbank_train.1.ark:7104477
mdma0_si2060 quick_test/fbank/raw_fbank_train.2.ark:8216367
mjwg0_sx445 quick_test/fbank/raw_fbank_train.3.ark:5225829
fsah0_si614 quick_test/fbank/raw_fbank_train.1.ark:11021206
mdks0_sx346 quick_test/fbank/raw_fbank_train.2.ark:7342280
mvrw0_si1485 quick_test/fbank/raw_fbank_train.4.ark:10400422
mefg0_si465 quick_test/fbank/raw_fbank_train.2.ark:9725021
msjk0_sx426 quick_test/fbank/raw_fbank_train.4.ark:6414463
fmpg0_sx162 quick_test/fbank/raw_fbank_train.1.ark:9493746
fgdp0_si1618 quick_test/fbank/raw_fbank_train.1.ark:4267507
mdac0_sx451 quick_test/fbank/raw_fbank_train.2.ark:6081789
mcef0_sx235 quick_test/fbank/raw_fbank_train.2.ark:4963168
mstf0_sx226 quick_test/fbank/raw_fbank_train.4.ark:6984424
msat0_sx266 quick_test/fbank/raw_fbank_train.4.ark:5458728
mhrm0_si958 quick_test/fbank/raw_fbank_train.3.ark:1396947
mmcc0_sx258 quick_test/fbank/raw_fbank_train.3.ark:8557270
fnkl0_si892 quick_test/fbank/raw_fbank_train.1.ark:9592858
mdwh0_sx125 quick_test/fbank/raw_fbank_train.2.ark:9392061
mklr0_si1059 quick_test/fbank/raw_fbank_train.3.ark:6650243
mjws0_sx243 quick_test/fbank/raw_fbank_train.3.ark:5295508
fpjf0_sx352 quick_test/fbank/raw_fbank_train.1.ark:10367085
mdks0_si2326 quick_test/fbank/raw_fbank_train.2.ark:7299541
fsak0_si670 quick_test/fbank/raw_fbank_train.1.ark:11128511
fceg0_sx78 quick_test/fbank/raw_fbank_train.1.ark:1635896
mdbb1_sx376 quick_test/fbank/raw_fbank_train.2.ark:6277629
ftaj0_si1329 quick_test/fbank/raw_fbank_train.2.ark:1263166
mmlm0_si897 quick_test/fbank/raw_fbank_train.3.ark:9651504
mjfr0_sx345 quick_test/fbank/raw_fbank_train.3.ark:3028084
mdsj0_sx382 quick_test/fbank/raw_fbank_train.2.ark:8969273
mcdc0_si1292 quick_test/fbank/raw_fbank_train.2.ark:4620320
msat0_si1526 quick_test/fbank/raw_fbank_train.4.ark:5419035
falk0_sx96 quick_test/fbank/raw_fbank_train.1.ark:298009
fkde0_sx331 quick_test/fbank/raw_fbank_train.1.ark:6353556
fntb0_sx213 quick_test/fbank/raw_fbank_train.1.ark:9722388
fksr0_si1747 quick_test/fbank/raw_fbank_train.1.ark:7029200
fsjk1_si1025 quick_test/fbank/raw_fbank_train.1.ark:11839380
mrab1_sx308 quick_test/fbank/raw_fbank_train.4.ark:727059
mljh0_sx64 quick_test/fbank/raw_fbank_train.3.ark:7657902
mdjm0_sx375 quick_test/fbank/raw_fbank_train.2.ark:7271199
fear0_sx442 quick_test/fbank/raw_fbank_train.1.ark:3608410
fjsp0_sx264 quick_test/fbank/raw_fbank_train.1.ark:5827758
mjra0_si606 quick_test/fbank/raw_fbank_train.3.ark:4456042
fmjb0_sx7 quick_test/fbank/raw_fbank_train.1.ark:8907738
mwre0_si1687 quick_test/fbank/raw_fbank_train.4.ark:11172100
fsag0_si1323 quick_test/fbank/raw_fbank_train.1.ark:10878274
flhd0_sx354 quick_test/fbank/raw_fbank_train.1.ark:7574339
mcre0_si1751 quick_test/fbank/raw_fbank_train.2.ark:5533934
mgrp0_sx57 quick_test/fbank/raw_fbank_train.3.ark:580011
mbma1_sx234 quick_test/fbank/raw_fbank_train.2.ark:3880176
mrtj0_sx412 quick_test/fbank/raw_fbank_train.4.ark:4824418
fjsp0_sx444 quick_test/fbank/raw_fbank_train.1.ark:5850824
ftaj0_sx69 quick_test/fbank/raw_fbank_train.2.ark:1330876
fgrw0_si1990 quick_test/fbank/raw_fbank_train.1.ark:4535065
