mbcg0_sx237 quick_test/data-fmllr-tri3/train/data/feats_fmllr_train.4.ark:4292592
fsdj0_sx305 quick_test/data-fmllr-tri3/train/data/feats_fmllr_train.3.ark:7800271
fkaa0_si578 quick_test/data-fmllr-tri3/train/data/feats_fmllr_train.2.ark:5292493
fmem0_si2007 quick_test/data-fmllr-tri3/train/data/feats_fmllr_train.2.ark:15152617
mbml0_sx449 quick_test/data-fmllr-tri3/train/data/feats_fmllr_train.4.ark:6588828
fdml0_si2075 quick_test/data-fmllr-tri3/train/data/feats_fmllr_train.1.ark:11379483
fjhk0_sx392 quick_test/data-fmllr-tri3/train/data/feats_fmllr_train.2.ark:1201919
fdtd0_sx121 quick_test/data-fmllr-tri3/train/data/feats_fmllr_train.1.ark:12734881
mdbp0_si1788 quick_test/data-fmllr-tri3/train/data/feats_fmllr_train.4.ark:15502856
mwrp0_sx3 quick_test/data-fmllr-tri3/train/data/feats_fmllr_train.10.ark:16676468
fntb0_si1203 quick_test/data-fmllr-tri3/train/data/feats_fmllr_train.3.ark:378950
fskl0_si2159 quick_test/data-fmllr-tri3/train/data/feats_fmllr_train.3.ark:10395922
mdks0_sx436 quick_test/data-fmllr-tri3/train/data/feats_fmllr_train.5.ark:2222542
fsgf0_sx117 quick_test/data-fmllr-tri3/train/data/feats_fmllr_train.3.ark:8108114
mdlc1_sx355 quick_test/data-fmllr-tri3/train/data/feats_fmllr_train.5.ark:3467007
mtjg0_sx350 quick_test/data-fmllr-tri3/train/data/feats_fmllr_train.10.ark:4315919
mjhi0_sx158 quick_test/data-fmllr-tri3/train/data/feats_fmllr_train.6.ark:12114816
mdlc0_sx315 quick_test/data-fmllr-tri3/train/data/feats_fmllr_train.5.ark:3057669
msmr0_si1150 quick_test/data-fmllr-tri3/train/data/feats_fmllr_train.9.ark:16220276
mpar0_sx316 quick_test/data-fmllr-tri3/train/data/feats_fmllr_train.8.ark:5954764
fjhk0_si1652 quick_test/data-fmllr-tri3/train/data/feats_fmllr_train.2.ark:906717
fpad0_si716 quick_test/data-fmllr-tri3/train/data/feats_fmllr_train.3.ark:1700135
mjpm0_si738 quick_test/data-fmllr-tri3/train/data/feats_fmllr_train.6.ark:16566036
fetb0_sx158 quick_test/data-fmllr-tri3/train/data/feats_fmllr_train.1.ark:15569361
mcss0_sx390 quick_test/data-fmllr-tri3/train/data/feats_fmllr_train.4.ark:13186140
mjra0_si1866 quick_test/data-fmllr-tri3/train/data/feats_fmllr_train.6.ark:17268363
mntw0_sx78 quick_test/data-fmllr-tri3/train/data/feats_fmllr_train.8.ark:5697640
mwre0_sx337 quick_test/data-fmllr-tri3/train/data/feats_fmllr_train.10.ark:16264092
mdss0_sx261 quick_test/data-fmllr-tri3/train/data/feats_fmllr_train.5.ark:8753058
mtrt0_si1227 quick_test/data-fmllr-tri3/train/data/feats_fmllr_train.10.ark:11187849
fskc0_si1416 quick_test/data-fmllr-tri3/train/data/feats_fmllr_train.3.ark:9998077
mjwg0_sx85 quick_test/data-fmllr-tri3/train/data/feats_fmllr_train.7.ark:2361607
fksr0_sx217 quick_test/data-fmllr-tri3/train/data/feats_fmllr_train.2.ark:8679245
mdmt0_sx302 quick_test/data-fmllr-tri3/train/data/feats_fmllr_train.5.ark:6144686
mdpb0_sx326 quick_test/data-fmllr-tri3/train/data/feats_fmllr_train.5.ark:6944000
fkkh0_si1920 quick_test/data-fmllr-tri3/train/data/feats_fmllr_train.2.ark:6962455
mkjo0_si887 quick_test/data-fmllr-tri3/train/data/feats_fmllr_train.7.ark:7230052
mges0_sx401 quick_test/data-fmllr-tri3/train/data/feats_fmllr_train.6.ark:987011
mrab0_sx54 quick_test/data-fmllr-tri3/train/data/feats_fmllr_train.8.ark:11271397
mrbc0_si599 quick_test/data-fmllr-tri3/train/data/feats_fmllr_train.8.ark:12936990
mcdr0_sx74 quick_test/data-fmllr-tri3/train/data/feats_fmllr_train.4.ark:10082004
mrfl0_sx436 quick_test/data-fmllr-tri3/train/data/feats_fmllr_train.8.ark:17399327
mmwb0_si1619 quick_test/data-fmllr-tri3/train/data/feats_fmllr_train.8.ark:3435089
fljd0_si2146 quick_test/data-fmllr-tri3/train/data/feats_fmllr_train.2.ark:11279726
fjxp0_si1752 quick_test/data-fmllr-tri3/train/data/feats_fmllr_train.2.ark:4884409
mwad0_sx162 quick_test/data-fmllr-tri3/train/data/feats_fmllr_train.10.ark:13985292
mdps0_si1979 quick_test/data-fmllr-tri3/train/data/feats_fmllr_train.5.ark:7443846
mjde0_sx310 quick_test/data-fmllr-tri3/train/data/feats_fmllr_train.6.ark:9067694
mhbs0_si1575 quick_test/data-fmllr-tri3/train/data/feats_fmllr_train.6.ark:3565802
mewm0_si1978 quick_test/data-fmllr-tri3/train/data/feats_fmllr_train.5.ark:13729611
mejl0_si962 quick_test/data-fmllr-tri3/train/data/feats_fmllr_train.5.ark:12330372
fkaa0_si1208 quick_test/data-fmllr-tri3/train/data/feats_fmllr_train.2.ark:5196758
fgrw0_si1782 quick_test/data-fmllr-tri3/train/data/feats_fmllr_train.1.ark:17591513
mjrp0_si1845 quick_test/data-fmllr-tri3/train/data/feats_fmllr_train.7.ark:1141493
mjws0_sx63 quick_test/data-fmllr-tri3/train/data/feats_fmllr_train.7.ark:2774944
mtmn0_sx254 quick_test/data-fmllr-tri3/train/data/feats_fmllr_train.10.ark:7912886
fjrp1_sx262 quick_test/data-fmllr-tri3/train/data/feats_fmllr_train.2.ark:3000685
mmws1_si2331 quick_test/data-fmllr-tri3/train/data/feats_fmllr_train.8.ark:4403578
marw0_si646 quick_test/data-fmllr-tri3/train/data/feats_fmllr_train.4.ark:3050287
mjpm0_sx108 quick_test/data-fmllr-tri3/train/data/feats_fmllr_train.6.ark:16610383
fexm0_sx201 quick_test/data-fmllr-tri3/train/data/feats_fmllr_train.1.ark:16017765
mdps0_sx449 quick_test/data-fmllr-tri3/train/data/feats_fmllr_train.5.ark:7675181
msdb0_sx377 quick_test/data-fmllr-tri3/train/data/feats_fmllr_train.9.ark:12765711
mrlj1_sx321 quick_test/data-fmllr-tri3/train/data/feats_fmllr_train.9.ark:4263917
mapv0_sx303 quick_test/data-fmllr-tri3/train/data/feats_fmllr_train.4.ark:2544814
feme0_sx65 quick_test/data-fmllr-tri3/train/data/feats_fmllr_train.1.ark:15377251
flod0_si1917 quick_test/data-fmllr-tri3/train/data/feats_fmllr_train.2.ark:13643108
mjjj0_si1163 quick_test/data-fmllr-tri3/train/data/feats_fmllr_train.6.ark:12724129
makb0_sx206 quick_test/data-fmllr-tri3/train/data/feats_fmllr_train.4.ark:1790433
mjrk0_si1662 quick_test/data-fmllr-tri3/train/data/feats_fmllr_train.7.ark:765888
fajw0_sx3 quick_test/data-fmllr-tri3/train/data/feats_fmllr_train.1.ark:683084
mjfr0_sx345 quick_test/data-fmllr-tri3/train/data/feats_fmllr_train.6.ark:11772894
fklh0_sx447 quick_test/data-fmllr-tri3/train/data/feats_fmllr_train.2.ark:8393802
mkjo0_si1517 quick_test/data-fmllr-tri3/train/data/feats_fmllr_train.7.ark:7147117
mdns0_sx291 quick_test/data-fmllr-tri3/train/data/feats_fmllr_train.5.ark:6586529
fjrb0_si1302 quick_test/data-fmllr-tri3/train/data/feats_fmllr_train.2.ark:2383719
mrjh0_sx307 quick_test/data-fmllr-tri3/train/data/feats_fmllr_train.9.ark:1550558
mjma0_sx415 quick_test/data-fmllr-tri3/train/data/feats_fmllr_train.6.ark:15339035
mpsw0_sx77 quick_test/data-fmllr-tri3/train/data/feats_fmllr_train.8.ark:10895340
mrso0_sx219 quick_test/data-fmllr-tri3/train/data/feats_fmllr_train.9.ark:8121104
mpmb0_sx61 quick_test/data-fmllr-tri3/train/data/feats_fmllr_train.8.ark:8466039
mrlj0_si2050 quick_test/data-fmllr-tri3/train/data/feats_fmllr_train.9.ark:3764391
mdlc2_sx444 quick_test/data-fmllr-tri3/train/data/feats_fmllr_train.5.ark:3817011
mrbc0_sx59 quick_test/data-fmllr-tri3/train/data/feats_fmllr_train.8.ark:13195684
mrcg0_sx258 quick_test/data-fmllr-tri3/train/data/feats_fmllr_train.8.ark:13449261
medr0_sx204 quick_test/data-fmllr-tri3/train/data/feats_fmllr_train.5.ark:11283059
ftlg0_sx393 quick_test/data-fmllr-tri3/train/data/feats_fmllr_train.3.ark:15339807
mtxs0_sx430 quick_test/data-fmllr-tri3/train/data/feats_fmllr_train.10.ark:12226847
flma0_sx73 quick_test/data-fmllr-tri3/train/data/feats_fmllr_train.2.ark:12782777
mkam0_sx416 quick_test/data-fmllr-tri3/train/data/feats_fmllr_train.7.ark:5466197
faem0_sx312 quick_test/data-fmllr-tri3/train/data/feats_fmllr_train.1.ark:244309
mjdc0_sx261 quick_test/data-fmllr-tri3/train/data/feats_fmllr_train.6.ark:8583931
fcdr1_si556 quick_test/data-fmllr-tri3/train/data/feats_fmllr_train.1.ark:5744543
mram0_sx105 quick_test/data-fmllr-tri3/train/data/feats_fmllr_train.8.ark:12294982
mjrh1_si1558 quick_test/data-fmllr-tri3/train/data/feats_fmllr_train.7.ark:385191
fgcs0_sx46 quick_test/data-fmllr-tri3/train/data/feats_fmllr_train.1.ark:16572143
msmc0_sx287 quick_test/data-fmllr-tri3/train/data/feats_fmllr_train.9.ark:16123741
mrsp0_sx79 quick_test/data-fmllr-tri3/train/data/feats_fmllr_train.9.ark:8711321
mjws0_sx243 quick_test/data-fmllr-tri3/train/data/feats_fmllr_train.7.ark:2592944
mclk0_sx130 quick_test/data-fmllr-tri3/train/data/feats_fmllr_train.4.ark:11549166
mjeb0_sx206 quick_test/data-fmllr-tri3/train/data/feats_fmllr_train.6.ark:10250879
mgag0_sx421 quick_test/data-fmllr-tri3/train/data/feats_fmllr_train.5.ark:16843324
mdlc2_sx354 quick_test/data-fmllr-tri3/train/data/feats_fmllr_train.5.ark:3781944
mkam0_si1316 quick_test/data-fmllr-tri3/train/data/feats_fmllr_train.7.ark:5210221
mtxs0_sx70 quick_test/data-fmllr-tri3/train/data/feats_fmllr_train.10.ark:12309913
ftlg0_sx123 quick_test/data-fmllr-tri3/train/data/feats_fmllr_train.3.ark:15164980
mrjm1_si1298 quick_test/data-fmllr-tri3/train/data/feats_fmllr_train.9.ark:2099977
fbmh0_si970 quick_test/data-fmllr-tri3/train/data/feats_fmllr_train.1.ark:4190875
fjrp1_si802 quick_test/data-fmllr-tri3/train/data/feats_fmllr_train.2.ark:2901591
mzmb0_si1166 quick_test/data-fmllr-tri3/train/data/feats_fmllr_train.10.ark:17595701
fmjb0_si1807 quick_test/data-fmllr-tri3/train/data/feats_fmllr_train.2.ark:15598755
mbwp0_sx439 quick_test/data-fmllr-tri3/train/data/feats_fmllr_train.4.ark:8001535
mkrg0_sx231 quick_test/data-fmllr-tri3/train/data/feats_fmllr_train.7.ark:9633011
mjai0_si710 quick_test/data-fmllr-tri3/train/data/feats_fmllr_train.6.ark:7382104
mprk0_sx287 quick_test/data-fmllr-tri3/train/data/feats_fmllr_train.8.ark:10164640
fnkl0_si1522 quick_test/data-fmllr-tri3/train/data/feats_fmllr_train.3.ark:13
mdlc2_sx84 quick_test/data-fmllr-tri3/train/data/feats_fmllr_train.5.ark:3858797
fdxw0_si1511 quick_test/data-fmllr-tri3/train/data/feats_fmllr_train.1.ark:13009417
fpjf0_sx56 quick_test/data-fmllr-tri3/train/data/feats_fmllr_train.3.ark:3162681
flmk0_sx225 quick_test/data-fmllr-tri3/train/data/feats_fmllr_train.2.ark:13416892
mdwm0_sx433 quick_test/data-fmllr-tri3/train/data/feats_fmllr_train.5.ark:10725744
mdsj0_sx112 quick_test/data-fmllr-tri3/train/data/feats_fmllr_train.5.ark:8349454
mree0_si1959 quick_test/data-fmllr-tri3/train/data/feats_fmllr_train.8.ark:15254774
fpls0_si960 quick_test/data-fmllr-tri3/train/data/feats_fmllr_train.3.ark:3288524
ftmg0_si902 quick_test/data-fmllr-tri3/train/data/feats_fmllr_train.3.ark:15446930
mljh0_si1324 quick_test/data-fmllr-tri3/train/data/feats_fmllr_train.7.ark:11325187
mppc0_si2042 quick_test/data-fmllr-tri3/train/data/feats_fmllr_train.8.ark:8622255
mlel0_si1876 quick_test/data-fmllr-tri3/train/data/feats_fmllr_train.7.ark:10550861
mwrp0_si1443 quick_test/data-fmllr-tri3/train/data/feats_fmllr_train.10.ark:16419533
fbch0_sx236 quick_test/data-fmllr-tri3/train/data/feats_fmllr_train.1.ark:3076677
fjxm0_sx221 quick_test/data-fmllr-tri3/train/data/feats_fmllr_train.2.ark:4581553
mkjo0_sx167 quick_test/data-fmllr-tri3/train/data/feats_fmllr_train.7.ark:7272159
msrr0_si1761 quick_test/data-fmllr-tri3/train/data/feats_fmllr_train.9.ark:17384795
mprb0_sx305 quick_test/data-fmllr-tri3/train/data/feats_fmllr_train.8.ark:9233780
mmdm1_sx153 quick_test/data-fmllr-tri3/train/data/feats_fmllr_train.7.ark:16727451
mtpg0_sx303 quick_test/data-fmllr-tri3/train/data/feats_fmllr_train.10.ark:9043484
fmjf0_si624 quick_test/data-fmllr-tri3/train/data/feats_fmllr_train.2.ark:15988277
mtas0_sx35 quick_test/data-fmllr-tri3/train/data/feats_fmllr_train.10.ark:1167489
fkdw0_sx37 quick_test/data-fmllr-tri3/train/data/feats_fmllr_train.2.ark:6343915
mree0_si1104 quick_test/data-fmllr-tri3/train/data/feats_fmllr_train.8.ark:15129918
mlsh0_sx427 quick_test/data-fmllr-tri3/train/data/feats_fmllr_train.7.ark:12494424
mkdd0_si1567 quick_test/data-fmllr-tri3/train/data/feats_fmllr_train.7.ark:5940067
mrjm0_sx238 quick_test/data-fmllr-tri3/train/data/feats_fmllr_train.9.ark:1888829
fhlm0_si1560 quick_test/data-fmllr-tri3/train/data/feats_fmllr_train.1.ark:17959863
mrld0_sx64 quick_test/data-fmllr-tri3/train/data/feats_fmllr_train.9.ark:3680175
mdlb0_sx46 quick_test/data-fmllr-tri3/train/data/feats_fmllr_train.5.ark:2741985
mhmg0_sx105 quick_test/data-fmllr-tri3/train/data/feats_fmllr_train.6.ark:4766216
fcjf0_si1657 quick_test/data-fmllr-tri3/train/data/feats_fmllr_train.1.ark:6447990
fmju0_sx39 quick_test/data-fmllr-tri3/train/data/feats_fmllr_train.2.ark:16644121
mrdd0_si2310 quick_test/data-fmllr-tri3/train/data/feats_fmllr_train.8.ark:14155082
mcre0_sx131 quick_test/data-fmllr-tri3/train/data/feats_fmllr_train.4.ark:12600058
mrlj1_sx51 quick_test/data-fmllr-tri3/train/data/feats_fmllr_train.9.ark:4361410
falk0_sx366 quick_test/data-fmllr-tri3/train/data/feats_fmllr_train.1.ark:1064740
mcdd0_si1513 quick_test/data-fmllr-tri3/train/data/feats_fmllr_train.4.ark:9348798
mdcm0_sx400 quick_test/data-fmllr-tri3/train/data/feats_fmllr_train.4.ark:16606491
mhmr0_sx129 quick_test/data-fmllr-tri3/train/data/feats_fmllr_train.6.ark:5123073
mrem0_si1591 quick_test/data-fmllr-tri3/train/data/feats_fmllr_train.8.ark:15967633
mrws0_sx382 quick_test/data-fmllr-tri3/train/data/feats_fmllr_train.9.ark:10662166
fmju0_sx309 quick_test/data-fmllr-tri3/train/data/feats_fmllr_train.2.ark:16590495
fjxm0_si1971 quick_test/data-fmllr-tri3/train/data/feats_fmllr_train.2.ark:4451712
mlbc0_si1239 quick_test/data-fmllr-tri3/train/data/feats_fmllr_train.7.ark:10126776
mmeb0_si727 quick_test/data-fmllr-tri3/train/data/feats_fmllr_train.7.ark:17750315
fjhk0_sx302 quick_test/data-fmllr-tri3/train/data/feats_fmllr_train.2.ark:1122026
mtlb0_si1764 quick_test/data-fmllr-tri3/train/data/feats_fmllr_train.10.ark:6569273
mmam0_sx427 quick_test/data-fmllr-tri3/train/data/feats_fmllr_train.7.ark:14101533
mrwa0_si2233 quick_test/data-fmllr-tri3/train/data/feats_fmllr_train.9.ark:10040668
mlbc0_sx249 quick_test/data-fmllr-tri3/train/data/feats_fmllr_train.7.ark:10331045
mfrm0_sx435 quick_test/data-fmllr-tri3/train/data/feats_fmllr_train.5.ark:15029438
mvlo0_si1147 quick_test/data-fmllr-tri3/train/data/feats_fmllr_train.10.ark:12702958
mdss1_si1713 quick_test/data-fmllr-tri3/train/data/feats_fmllr_train.5.ark:8958634
mtjm0_sx56 quick_test/data-fmllr-tri3/train/data/feats_fmllr_train.10.ark:4806269
fdjh0_sx305 quick_test/data-fmllr-tri3/train/data/feats_fmllr_train.1.ark:10710008
mrew1_sx420 quick_test/data-fmllr-tri3/train/data/feats_fmllr_train.8.ark:16604812
mjpg0_sx21 quick_test/data-fmllr-tri3/train/data/feats_fmllr_train.6.ark:16340139
mrre0_sx254 quick_test/data-fmllr-tri3/train/data/feats_fmllr_train.9.ark:7694486
fsms1_sx347 quick_test/data-fmllr-tri3/train/data/feats_fmllr_train.3.ark:12589623
fcdr1_sx106 quick_test/data-fmllr-tri3/train/data/feats_fmllr_train.1.ark:5825530
mkam0_si1465 quick_test/data-fmllr-tri3/train/data/feats_fmllr_train.7.ark:5256169
faem0_sx402 quick_test/data-fmllr-tri3/train/data/feats_fmllr_train.1.ark:304336
mjeb1_sx117 quick_test/data-fmllr-tri3/train/data/feats_fmllr_train.6.ark:10627549
mcxm0_sx181 quick_test/data-fmllr-tri3/train/data/feats_fmllr_train.4.ark:14128444
mdhl0_si2069 quick_test/data-fmllr-tri3/train/data/feats_fmllr_train.5.ark:877915
mjrp0_si585 quick_test/data-fmllr-tri3/train/data/feats_fmllr_train.7.ark:1208560
mtqc0_sx451 quick_test/data-fmllr-tri3/train/data/feats_fmllr_train.10.ark:10336002
mwem0_sx420 quick_test/data-fmllr-tri3/train/data/feats_fmllr_train.10.ark:15520644
mrai0_si792 quick_test/data-fmllr-tri3/train/data/feats_fmllr_train.8.ark:11810097
mdhl0_sx449 quick_test/data-fmllr-tri3/train/data/feats_fmllr_train.5.ark:1108290
mjpm1_si761 quick_test/data-fmllr-tri3/train/data/feats_fmllr_train.6.ark:16894253
msah1_sx239 quick_test/data-fmllr-tri3/train/data/feats_fmllr_train.9.ark:11252281
mgxp0_si525 quick_test/data-fmllr-tri3/train/data/feats_fmllr_train.6.ark:3266282
mdlh0_si700 quick_test/data-fmllr-tri3/train/data/feats_fmllr_train.5.ark:3995999
mtas0_si2015 quick_test/data-fmllr-tri3/train/data/feats_fmllr_train.10.ark:993915
mrfl0_sx166 quick_test/data-fmllr-tri3/train/data/feats_fmllr_train.8.ark:17226126
fpaz0_sx27 quick_test/data-fmllr-tri3/train/data/feats_fmllr_train.3.ark:2699850
mgxp0_sx187 quick_test/data-fmllr-tri3/train/data/feats_fmllr_train.6.ark:3339749
mtpp0_si2138 quick_test/data-fmllr-tri3/train/data/feats_fmllr_train.10.ark:9226473
mjrk0_sx340 quick_test/data-fmllr-tri3/train/data/feats_fmllr_train.7.ark:996424
fjxp0_sx402 quick_test/data-fmllr-tri3/train/data/feats_fmllr_train.2.ark:5114944
majp0_sx264 quick_test/data-fmllr-tri3/train/data/feats_fmllr_train.4.ark:1287655
mjda0_sx221 quick_test/data-fmllr-tri3/train/data/feats_fmllr_train.6.ark:8176674
fdfb0_si1948 quick_test/data-fmllr-tri3/train/data/feats_fmllr_train.1.ark:10205682
mprd0_si801 quick_test/data-fmllr-tri3/train/data/feats_fmllr_train.8.ark:9472156
mdac0_sx361 quick_test/data-fmllr-tri3/train/data/feats_fmllr_train.4.ark:14627755
mklw0_si1844 quick_test/data-fmllr-tri3/train/data/feats_fmllr_train.7.ark:9072552
mjdm0_si1340 quick_test/data-fmllr-tri3/train/data/feats_fmllr_train.6.ark:9616153
mdem0_sx68 quick_test/data-fmllr-tri3/train/data/feats_fmllr_train.5.ark:774819
mchl0_si1977 quick_test/data-fmllr-tri3/train/data/feats_fmllr_train.4.ark:11121722
fdkn0_si1081 quick_test/data-fmllr-tri3/train/data/feats_fmllr_train.1.ark:10838089
mcae0_sx367 quick_test/data-fmllr-tri3/train/data/feats_fmllr_train.4.ark:8442685
flma0_si613 quick_test/data-fmllr-tri3/train/data/feats_fmllr_train.2.ark:12567283
mntw0_sx348 quick_test/data-fmllr-tri3/train/data/feats_fmllr_train.8.ark:5640334
fdkn0_sx91 quick_test/data-fmllr-tri3/train/data/feats_fmllr_train.1.ark:11232359
fajw0_sx273 quick_test/data-fmllr-tri3/train/data/feats_fmllr_train.1.ark:638099
mrab1_sx128 quick_test/data-fmllr-tri3/train/data/feats_fmllr_train.8.ark:11477267
fsrh0_sx131 quick_test/data-fmllr-tri3/train/data/feats_fmllr_train.3.ark:13225016
msah1_si1049 quick_test/data-fmllr-tri3/train/data/feats_fmllr_train.9.ark:11101451
mdlc1_si2065 quick_test/data-fmllr-tri3/train/data/feats_fmllr_train.5.ark:3270578
mjdg0_si1705 quick_test/data-fmllr-tri3/train/data/feats_fmllr_train.6.ark:9352791
mcew0_sx362 quick_test/data-fmllr-tri3/train/data/feats_fmllr_train.4.ark:10784625
mwgr0_si976 quick_test/data-fmllr-tri3/train/data/feats_fmllr_train.10.ark:15736113
mlns0_si777 quick_test/data-fmllr-tri3/train/data/feats_fmllr_train.7.ark:11924979
mrpc1_si2026 quick_test/data-fmllr-tri3/train/data/feats_fmllr_train.9.ark:7143468
flmc0_sx336 quick_test/data-fmllr-tri3/train/data/feats_fmllr_train.2.ark:13094967
mcxm0_sx361 quick_test/data-fmllr-tri3/train/data/feats_fmllr_train.4.ark:14229618
mvjh0_sx26 quick_test/data-fmllr-tri3/train/data/feats_fmllr_train.10.ark:12595356
mppc0_sx332 quick_test/data-fmllr-tri3/train/data/feats_fmllr_train.8.ark:8783643
mrjh0_sx439 quick_test/data-fmllr-tri3/train/data/feats_fmllr_train.9.ark:1578905
mwrp0_sx363 quick_test/data-fmllr-tri3/train/data/feats_fmllr_train.10.ark:16707215
mkln0_sx338 quick_test/data-fmllr-tri3/train/data/feats_fmllr_train.7.ark:7713390
mdwd0_sx360 quick_test/data-fmllr-tri3/train/data/feats_fmllr_train.5.ark:9805737
fsah0_si1244 quick_test/data-fmllr-tri3/train/data/feats_fmllr_train.3.ark:5542089
ftmg0_si2162 quick_test/data-fmllr-tri3/train/data/feats_fmllr_train.3.ark:15409303
fdjh0_sx125 quick_test/data-fmllr-tri3/train/data/feats_fmllr_train.1.ark:10626914
mjbg0_sx332 quick_test/data-fmllr-tri3/train/data/feats_fmllr_train.6.ark:7872323
mrfk0_sx356 quick_test/data-fmllr-tri3/train/data/feats_fmllr_train.8.ark:16930923
fmbg0_sx350 quick_test/data-fmllr-tri3/train/data/feats_fmllr_train.2.ark:14939388
mdsj0_si832 quick_test/data-fmllr-tri3/train/data/feats_fmllr_train.5.ark:8306227
mmar0_si1966 quick_test/data-fmllr-tri3/train/data/feats_fmllr_train.7.ark:14239695
mfmc0_sx52 quick_test/data-fmllr-tri3/train/data/feats_fmllr_train.5.ark:14704766
mjpg0_sx381 quick_test/data-fmllr-tri3/train/data/feats_fmllr_train.6.ark:16403713
mlsh0_sx157 quick_test/data-fmllr-tri3/train/data/feats_fmllr_train.7.ark:12338183
mmlm0_sx87 quick_test/data-fmllr-tri3/train/data/feats_fmllr_train.8.ark:1725232
mwgr0_si1606 quick_test/data-fmllr-tri3/train/data/feats_fmllr_train.10.ark:15655898
mmsm0_sx296 quick_test/data-fmllr-tri3/train/data/feats_fmllr_train.8.ark:2882336
fkaa0_sx128 quick_test/data-fmllr-tri3/train/data/feats_fmllr_train.2.ark:5349480
mpar0_si2206 quick_test/data-fmllr-tri3/train/data/feats_fmllr_train.8.ark:5763936
fcjs0_sx77 quick_test/data-fmllr-tri3/train/data/feats_fmllr_train.1.ark:7012688
mmdm1_si783 quick_test/data-fmllr-tri3/train/data/feats_fmllr_train.7.ark:16685824
mdac0_si1837 quick_test/data-fmllr-tri3/train/data/feats_fmllr_train.4.ark:14408767
mgrp0_sx237 quick_test/data-fmllr-tri3/train/data/feats_fmllr_train.6.ark:2094489
frll0_sx434 quick_test/data-fmllr-tri3/train/data/feats_fmllr_train.3.ark:5002618
mkjo0_sx424 quick_test/data-fmllr-tri3/train/data/feats_fmllr_train.7.ark:7349653
mtas0_sx305 quick_test/data-fmllr-tri3/train/data/feats_fmllr_train.10.ark:1132423
mbom0_si2274 quick_test/data-fmllr-tri3/train/data/feats_fmllr_train.4.ark:6768778
mtkp0_si454 quick_test/data-fmllr-tri3/train/data/feats_fmllr_train.10.ark:6223643
mmam0_si1668 quick_test/data-fmllr-tri3/train/data/feats_fmllr_train.7.ark:13909397
msmc0_si509 quick_test/data-fmllr-tri3/train/data/feats_fmllr_train.9.ark:15868407
mbsb0_sx93 quick_test/data-fmllr-tri3/train/data/feats_fmllr_train.4.ark:7266248
fkkh0_sx300 quick_test/data-fmllr-tri3/train/data/feats_fmllr_train.2.ark:7215549
feme0_sx335 quick_test/data-fmllr-tri3/train/data/feats_fmllr_train.1.ark:15255278
milb0_sx3 quick_test/data-fmllr-tri3/train/data/feats_fmllr_train.6.ark:6364894
mrpc1_sx402 quick_test/data-fmllr-tri3/train/data/feats_fmllr_train.9.ark:7345684
fkdw0_sx397 quick_test/data-fmllr-tri3/train/data/feats_fmllr_train.2.ark:6385222
mdlr1_sx309 quick_test/data-fmllr-tri3/train/data/feats_fmllr_train.5.ark:5324891
mrhl0_si1515 quick_test/data-fmllr-tri3/train/data/feats_fmllr_train.9.ark:433028
mhmg0_sx15 quick_test/data-fmllr-tri3/train/data/feats_fmllr_train.6.ark:4802082
fdmy0_si714 quick_test/data-fmllr-tri3/train/data/feats_fmllr_train.1.ark:11772179
fkkh0_sx30 quick_test/data-fmllr-tri3/train/data/feats_fmllr_train.2.ark:7181762
fbcg1_sx442 quick_test/data-fmllr-tri3/train/data/feats_fmllr_train.1.ark:2750915
mrcw0_si2001 quick_test/data-fmllr-tri3/train/data/feats_fmllr_train.8.ark:13748917
mwgr0_si2236 quick_test/data-fmllr-tri3/train/data/feats_fmllr_train.10.ark:15694806
mmab1_sx234 quick_test/data-fmllr-tri3/train/data/feats_fmllr_train.7.ark:13188244
mtwh1_si882 quick_test/data-fmllr-tri3/train/data/feats_fmllr_train.10.ark:11633081
fskl0_sx179 quick_test/data-fmllr-tri3/train/data/feats_fmllr_train.3.ark:10502216
mdcd0_sx245 quick_test/data-fmllr-tri3/train/data/feats_fmllr_train.4.ark:16090514
mdlc2_si2244 quick_test/data-fmllr-tri3/train/data/feats_fmllr_train.5.ark:3597676
mrlr0_sx386 quick_test/data-fmllr-tri3/train/data/feats_fmllr_train.9.ark:5112564
marw0_sx349 quick_test/data-fmllr-tri3/train/data/feats_fmllr_train.4.ark:3247034
mmaa0_si1588 quick_test/data-fmllr-tri3/train/data/feats_fmllr_train.7.ark:12587758
mjma0_sx145 quick_test/data-fmllr-tri3/train/data/feats_fmllr_train.6.ark:15230634
flet0_sx417 quick_test/data-fmllr-tri3/train/data/feats_fmllr_train.2.ark:10331208
mrwa0_sx73 quick_test/data-fmllr-tri3/train/data/feats_fmllr_train.9.ark:10333629
fpaz0_sx153 quick_test/data-fmllr-tri3/train/data/feats_fmllr_train.3.ark:2596277
mmsm0_si476 quick_test/data-fmllr-tri3/train/data/feats_fmllr_train.8.ark:2678229
mklw0_sx221 quick_test/data-fmllr-tri3/train/data/feats_fmllr_train.7.ark:9167834
mtat1_si1627 quick_test/data-fmllr-tri3/train/data/feats_fmllr_train.10.ark:1668749
mkls1_si1545 quick_test/data-fmllr-tri3/train/data/feats_fmllr_train.7.ark:8621747
fsdc0_si2234 quick_test/data-fmllr-tri3/train/data/feats_fmllr_train.3.ark:7332773
mfwk0_si619 quick_test/data-fmllr-tri3/train/data/feats_fmllr_train.5.ark:15202187
fpmy0_si523 quick_test/data-fmllr-tri3/train/data/feats_fmllr_train.3.ark:3679299
mtdp0_si1274 quick_test/data-fmllr-tri3/train/data/feats_fmllr_train.10.ark:3218869
fgmb0_si515 quick_test/data-fmllr-tri3/train/data/feats_fmllr_train.1.ark:17186043
mwem0_sx150 quick_test/data-fmllr-tri3/train/data/feats_fmllr_train.10.ark:15372243
mjhi0_sx338 quick_test/data-fmllr-tri3/train/data/feats_fmllr_train.6.ark:12182550
mmbs0_sx161 quick_test/data-fmllr-tri3/train/data/feats_fmllr_train.7.ark:14812126
fmjb0_sx7 quick_test/data-fmllr-tri3/train/data/feats_fmllr_train.2.ark:15833448
mdmt0_sx32 quick_test/data-fmllr-tri3/train/data/feats_fmllr_train.5.ark:6189992
mbma1_sx144 quick_test/data-fmllr-tri3/train/data/feats_fmllr_train.4.ark:6061010
mbml0_sx89 quick_test/data-fmllr-tri3/train/data/feats_fmllr_train.4.ark:6638774
fntb0_sx303 quick_test/data-fmllr-tri3/train/data/feats_fmllr_train.3.ark:626125
fdxw0_sx161 quick_test/data-fmllr-tri3/train/data/feats_fmllr_train.1.ark:13123579
fleh0_sx61 quick_test/data-fmllr-tri3/train/data/feats_fmllr_train.2.ark:10000297
fajw0_si1893 quick_test/data-fmllr-tri3/train/data/feats_fmllr_train.1.ark:469858
mwar0_si1675 quick_test/data-fmllr-tri3/train/data/feats_fmllr_train.10.ark:14246735
fmem0_sx207 quick_test/data-fmllr-tri3/train/data/feats_fmllr_train.2.ark:15308698
mcpm0_sx114 quick_test/data-fmllr-tri3/train/data/feats_fmllr_train.4.ark:12274240
fdnc0_sx378 quick_test/data-fmllr-tri3/train/data/feats_fmllr_train.1.ark:12532691
mrso0_si2289 quick_test/data-fmllr-tri3/train/data/feats_fmllr_train.9.ark:8022970
mkln0_sx68 quick_test/data-fmllr-tri3/train/data/feats_fmllr_train.7.ark:7820963
mrtc0_sx288 quick_test/data-fmllr-tri3/train/data/feats_fmllr_train.9.ark:9068471
meal0_si2177 quick_test/data-fmllr-tri3/train/data/feats_fmllr_train.5.ark:10811080
fcmg0_si1242 quick_test/data-fmllr-tri3/train/data/feats_fmllr_train.1.ark:7858298
mjpm0_si1368 quick_test/data-fmllr-tri3/train/data/feats_fmllr_train.6.ark:16436381
fajw0_si1263 quick_test/data-fmllr-tri3/train/data/feats_fmllr_train.1.ark:390310
mrjm1_si1928 quick_test/data-fmllr-tri3/train/data/feats_fmllr_train.9.ark:2162245
mmab1_sx324 quick_test/data-fmllr-tri3/train/data/feats_fmllr_train.7.ark:13236271
mtdb0_si1401 quick_test/data-fmllr-tri3/train/data/feats_fmllr_train.10.ark:2828092
fljd0_sx166 quick_test/data-fmllr-tri3/train/data/feats_fmllr_train.2.ark:11348260
mvrw0_sx45 quick_test/data-fmllr-tri3/train/data/feats_fmllr_train.10.ark:13368804
mrfk0_si1706 quick_test/data-fmllr-tri3/train/data/feats_fmllr_train.8.ark:16782494
msrg0_si1221 quick_test/data-fmllr-tri3/train/data/feats_fmllr_train.9.ark:16984710
fcag0_sx63 quick_test/data-fmllr-tri3/train/data/feats_fmllr_train.1.ark:5201683
mmlm0_sx177 quick_test/data-fmllr-tri3/train/data/feats_fmllr_train.8.ark:1563045
mhrm0_si2218 quick_test/data-fmllr-tri3/train/data/feats_fmllr_train.6.ark:5385156
mtjm0_si1226 quick_test/data-fmllr-tri3/train/data/feats_fmllr_train.10.ark:4469440
msds0_sx177 quick_test/data-fmllr-tri3/train/data/feats_fmllr_train.9.ark:13396439
mtbc0_sx183 quick_test/data-fmllr-tri3/train/data/feats_fmllr_train.10.ark:2212700
mcal0_sx148 quick_test/data-fmllr-tri3/train/data/feats_fmllr_train.4.ark:8728286
fcrz0_sx253 quick_test/data-fmllr-tri3/train/data/feats_fmllr_train.1.ark:8754174
fpab1_si841 quick_test/data-fmllr-tri3/train/data/feats_fmllr_train.3.ark:872501
fgdp0_si2248 quick_test/data-fmllr-tri3/train/data/feats_fmllr_train.1.ark:16642439
fcmm0_sx363 quick_test/data-fmllr-tri3/train/data/feats_fmllr_train.1.ark:8416384
mprt0_sx310 quick_test/data-fmllr-tri3/train/data/feats_fmllr_train.8.ark:10507550
mhit0_sx263 quick_test/data-fmllr-tri3/train/data/feats_fmllr_train.6.ark:4126608
mtlc0_sx217 quick_test/data-fmllr-tri3/train/data/feats_fmllr_train.10.ark:7099651
mjee0_sx337 quick_test/data-fmllr-tri3/train/data/feats_fmllr_train.6.ark:11061420
mcdr0_si1154 quick_test/data-fmllr-tri3/train/data/feats_fmllr_train.4.ark:9690295
megj0_sx77 quick_test/data-fmllr-tri3/train/data/feats_fmllr_train.5.ark:12207569
mjmm0_sx265 quick_test/data-fmllr-tri3/train/data/feats_fmllr_train.6.ark:15956216
mclk0_sx400 quick_test/data-fmllr-tri3/train/data/feats_fmllr_train.4.ark:11725433
mfer0_sx412 quick_test/data-fmllr-tri3/train/data/feats_fmllr_train.5.ark:14270283
fkfb0_si1608 quick_test/data-fmllr-tri3/train/data/feats_fmllr_train.2.ark:6430530
fbmh0_sx56 quick_test/data-fmllr-tri3/train/data/feats_fmllr_train.1.ark:4416289
mtbc0_si543 quick_test/data-fmllr-tri3/train/data/feats_fmllr_train.10.ark:2137473
mkxl0_sx105 quick_test/data-fmllr-tri3/train/data/feats_fmllr_train.7.ark:9931441
mtpp0_si1508 quick_test/data-fmllr-tri3/train/data/feats_fmllr_train.10.ark:9160205
mrhl0_si885 quick_test/data-fmllr-tri3/train/data/feats_fmllr_train.9.ark:513563
mmpm0_si2321 quick_test/data-fmllr-tri3/train/data/feats_fmllr_train.8.ark:1849636
fskl0_sx269 quick_test/data-fmllr-tri3/train/data/feats_fmllr_train.3.ark:10553283
mbml0_sx359 quick_test/data-fmllr-tri3/train/data/feats_fmllr_train.4.ark:6532961
fkdw0_si1207 quick_test/data-fmllr-tri3/train/data/feats_fmllr_train.2.ark:6053993
fdnc0_sx198 quick_test/data-fmllr-tri3/train/data/feats_fmllr_train.1.ark:12430877
fjsk0_sx242 quick_test/data-fmllr-tri3/train/data/feats_fmllr_train.2.ark:3458183
mjwt0_sx211 quick_test/data-fmllr-tri3/train/data/feats_fmllr_train.7.ark:3065641
madc0_sx377 quick_test/data-fmllr-tri3/train/data/feats_fmllr_train.3.ark:17540630
fexm0_sx366 quick_test/data-fmllr-tri3/train/data/feats_fmllr_train.1.ark:16135579
mjma0_sx55 quick_test/data-fmllr-tri3/train/data/feats_fmllr_train.6.ark:15374101
mkls0_sx447 quick_test/data-fmllr-tri3/train/data/feats_fmllr_train.7.ark:8536253
mkdt0_sx263 quick_test/data-fmllr-tri3/train/data/feats_fmllr_train.7.ark:6541032
mbwp0_sx79 quick_test/data-fmllr-tri3/train/data/feats_fmllr_train.4.ark:8056281
mbsb0_si1983 quick_test/data-fmllr-tri3/train/data/feats_fmllr_train.4.ark:7070569
mmbs0_si1781 quick_test/data-fmllr-tri3/train/data/feats_fmllr_train.7.ark:14703912
fskl0_sx359 quick_test/data-fmllr-tri3/train/data/feats_fmllr_train.3.ark:10586110
mdlr0_sx63 quick_test/data-fmllr-tri3/train/data/feats_fmllr_train.5.ark:5017047
mhrm0_sx238 quick_test/data-fmllr-tri3/train/data/feats_fmllr_train.6.ark:5522517
mmjb1_sx418 quick_test/data-fmllr-tri3/train/data/feats_fmllr_train.8.ark:1327229
mkaj0_si784 quick_test/data-fmllr-tri3/train/data/feats_fmllr_train.7.ark:4909391
mclm0_sx376 quick_test/data-fmllr-tri3/train/data/feats_fmllr_train.4.ark:12062770
mjxl0_sx182 quick_test/data-fmllr-tri3/train/data/feats_fmllr_train.7.ark:3759968
mmpm0_sx251 quick_test/data-fmllr-tri3/train/data/feats_fmllr_train.8.ark:1955770
mtjs0_si1192 quick_test/data-fmllr-tri3/train/data/feats_fmllr_train.10.ark:4850137
fpab1_sx391 quick_test/data-fmllr-tri3/train/data/feats_fmllr_train.3.ark:1150875
mprd0_sx261 quick_test/data-fmllr-tri3/train/data/feats_fmllr_train.8.ark:9632050
mrcg0_sx438 quick_test/data-fmllr-tri3/train/data/feats_fmllr_train.8.ark:13571395
mjhi0_sx68 quick_test/data-fmllr-tri3/train/data/feats_fmllr_train.6.ark:12292043
fsjw0_sx253 quick_test/data-fmllr-tri3/train/data/feats_fmllr_train.3.ark:9799569
mdlc1_sx85 quick_test/data-fmllr-tri3/train/data/feats_fmllr_train.5.ark:3537940
msjk0_si966 quick_test/data-fmllr-tri3/train/data/feats_fmllr_train.9.ark:15525498
fgcs0_si2116 quick_test/data-fmllr-tri3/train/data/feats_fmllr_train.1.ark:16290542
flod0_sx297 quick_test/data-fmllr-tri3/train/data/feats_fmllr_train.2.ark:13860523
msfh0_sx46 quick_test/data-fmllr-tri3/train/data/feats_fmllr_train.9.ark:14934158
fdxw0_sx251 quick_test/data-fmllr-tri3/train/data/feats_fmllr_train.1.ark:13175766
mtju0_sx40 quick_test/data-fmllr-tri3/train/data/feats_fmllr_train.10.ark:5580756
meal0_sx287 quick_test/data-fmllr-tri3/train/data/feats_fmllr_train.5.ark:10946708
medr0_si1374 quick_test/data-fmllr-tri3/train/data/feats_fmllr_train.5.ark:11081030
makr0_sx362 quick_test/data-fmllr-tri3/train/data/feats_fmllr_train.4.ark:2124277
mrds0_sx177 quick_test/data-fmllr-tri3/train/data/feats_fmllr_train.8.ark:14927543
mtkp0_si1023 quick_test/data-fmllr-tri3/train/data/feats_fmllr_train.10.ark:6092548
mges0_si851 quick_test/data-fmllr-tri3/train/data/feats_fmllr_train.6.ark:795383
fgmb0_si1775 quick_test/data-fmllr-tri3/train/data/feats_fmllr_train.1.ark:17137216
mdlm0_si1864 quick_test/data-fmllr-tri3/train/data/feats_fmllr_train.5.ark:4364189
mrlr0_sx206 quick_test/data-fmllr-tri3/train/data/feats_fmllr_train.9.ark:4982404
mfer0_si2122 quick_test/data-fmllr-tri3/train/data/feats_fmllr_train.5.ark:14053828
mdma0_sx350 quick_test/data-fmllr-tri3/train/data/feats_fmllr_train.5.ark:5742709
mejl0_si1592 quick_test/data-fmllr-tri3/train/data/feats_fmllr_train.5.ark:12259917
mtas0_sx125 quick_test/data-fmllr-tri3/train/data/feats_fmllr_train.10.ark:1057809
fkdw0_si577 quick_test/data-fmllr-tri3/train/data/feats_fmllr_train.2.ark:6209568
mmlm0_si1527 quick_test/data-fmllr-tri3/train/data/feats_fmllr_train.8.ark:1439763
mwac0_sx251 quick_test/data-fmllr-tri3/train/data/feats_fmllr_train.10.ark:13646381
mjac0_sx341 quick_test/data-fmllr-tri3/train/data/feats_fmllr_train.6.ark:6715191
mjai0_si1604 quick_test/data-fmllr-tri3/train/data/feats_fmllr_train.6.ark:7268130
mdsj0_sx292 quick_test/data-fmllr-tri3/train/data/feats_fmllr_train.5.ark:8430627
fdas1_si831 quick_test/data-fmllr-tri3/train/data/feats_fmllr_train.1.ark:9446394
mkjo0_sx257 quick_test/data-fmllr-tri3/train/data/feats_fmllr_train.7.ark:7322106
fhlm0_sx210 quick_test/data-fmllr-tri3/train/data/feats_fmllr_train.1.ark:18143172
mdpk0_sx333 quick_test/data-fmllr-tri3/train/data/feats_fmllr_train.5.ark:7272377
ftbr0_si2181 quick_test/data-fmllr-tri3/train/data/feats_fmllr_train.3.ark:14284653
mgar0_sx132 quick_test/data-fmllr-tri3/train/data/feats_fmllr_train.6.ark:133696
mrxb0_si2215 quick_test/data-fmllr-tri3/train/data/feats_fmllr_train.9.ark:10743182
mcew0_si1442 quick_test/data-fmllr-tri3/train/data/feats_fmllr_train.4.ark:10485769
fsjg0_si2200 quick_test/data-fmllr-tri3/train/data/feats_fmllr_train.3.ark:8355317
fpac0_sx121 quick_test/data-fmllr-tri3/train/data/feats_fmllr_train.3.ark:1377865
mhit0_sx353 quick_test/data-fmllr-tri3/train/data/feats_fmllr_train.6.ark:4163915
mclm0_si2086 quick_test/data-fmllr-tri3/train/data/feats_fmllr_train.4.ark:11816369
mrdd0_si1050 quick_test/data-fmllr-tri3/train/data/feats_fmllr_train.8.ark:14046066
mmxs0_sx66 quick_test/data-fmllr-tri3/train/data/feats_fmllr_train.8.ark:4948407
mhxl0_sx62 quick_test/data-fmllr-tri3/train/data/feats_fmllr_train.6.ark:6074333
mhrm0_sx328 quick_test/data-fmllr-tri3/train/data/feats_fmllr_train.6.ark:5560464
mpgh0_sx204 quick_test/data-fmllr-tri3/train/data/feats_fmllr_train.8.ark:7021947
ftbw0_sx355 quick_test/data-fmllr-tri3/train/data/feats_fmllr_train.3.ark:14854098
mdlm0_sx154 quick_test/data-fmllr-tri3/train/data/feats_fmllr_train.5.ark:4468883
fsak0_si670 quick_test/data-fmllr-tri3/train/data/feats_fmllr_train.3.ark:6057721
mreh1_sx69 quick_test/data-fmllr-tri3/train/data/feats_fmllr_train.8.ark:15912085
fbjl0_sx22 quick_test/data-fmllr-tri3/train/data/feats_fmllr_train.1.ark:3509560
mjrp0_sx225 quick_test/data-fmllr-tri3/train/data/feats_fmllr_train.7.ark:1309574
mmds0_si713 quick_test/data-fmllr-tri3/train/data/feats_fmllr_train.7.ark:17098841
msdb0_sx17 quick_test/data-fmllr-tri3/train/data/feats_fmllr_train.9.ark:12681630
mejl0_sx62 quick_test/data-fmllr-tri3/train/data/feats_fmllr_train.5.ark:12555306
fklc0_sx175 quick_test/data-fmllr-tri3/train/data/feats_fmllr_train.2.ark:7447046
mtab0_sx132 quick_test/data-fmllr-tri3/train/data/feats_fmllr_train.10.ark:666392
mhmg0_sx195 quick_test/data-fmllr-tri3/train/data/feats_fmllr_train.6.ark:4844029
maeb0_si1411 quick_test/data-fmllr-tri3/train/data/feats_fmllr_train.4.ark:13
mrds0_sx267 quick_test/data-fmllr-tri3/train/data/feats_fmllr_train.8.ark:14959250
msds0_sx447 quick_test/data-fmllr-tri3/train/data/feats_fmllr_train.9.ark:13570600
fmah1_si1509 quick_test/data-fmllr-tri3/train/data/feats_fmllr_train.2.ark:14337436
mprd0_sx441 quick_test/data-fmllr-tri3/train/data/feats_fmllr_train.8.ark:9730504
msds0_si2337 quick_test/data-fmllr-tri3/train/data/feats_fmllr_train.9.ark:13337052
mkrg0_sx141 quick_test/data-fmllr-tri3/train/data/feats_fmllr_train.7.ark:9582104
flag0_si834 quick_test/data-fmllr-tri3/train/data/feats_fmllr_train.2.ark:9335145
mjde0_sx400 quick_test/data-fmllr-tri3/train/data/feats_fmllr_train.6.ark:9187907
msdb0_sx197 quick_test/data-fmllr-tri3/train/data/feats_fmllr_train.9.ark:12704377
mrgm0_sx442 quick_test/data-fmllr-tri3/train/data/feats_fmllr_train.8.ark:17831064
mbml0_si539 quick_test/data-fmllr-tri3/train/data/feats_fmllr_train.4.ark:6409840
fjxp0_sx132 quick_test/data-fmllr-tri3/train/data/feats_fmllr_train.2.ark:4979663
freh0_sx325 quick_test/data-fmllr-tri3/train/data/feats_fmllr_train.3.ark:4244077
mrwa0_sx163 quick_test/data-fmllr-tri3/train/data/feats_fmllr_train.9.ark:10142002
fdjh0_sx35 quick_test/data-fmllr-tri3/train/data/feats_fmllr_train.1.ark:10751314
fpaf0_si2314 quick_test/data-fmllr-tri3/train/data/feats_fmllr_train.3.ark:2162273
mrgm0_si1162 quick_test/data-fmllr-tri3/train/data/feats_fmllr_train.8.ark:17486421
msem1_sx450 quick_test/data-fmllr-tri3/train/data/feats_fmllr_train.9.ark:14056257
mrjb1_sx300 quick_test/data-fmllr-tri3/train/data/feats_fmllr_train.9.ark:1138848
fdml0_sx429 quick_test/data-fmllr-tri3/train/data/feats_fmllr_train.1.ark:11522791
mklr0_si1689 quick_test/data-fmllr-tri3/train/data/feats_fmllr_train.7.ark:7925179
maeo0_sx66 quick_test/data-fmllr-tri3/train/data/feats_fmllr_train.4.ark:710980
mtat0_sx390 quick_test/data-fmllr-tri3/train/data/feats_fmllr_train.10.ark:1578773
feeh0_si1742 quick_test/data-fmllr-tri3/train/data/feats_fmllr_train.1.ark:14652553
mntw0_sx258 quick_test/data-fmllr-tri3/train/data/feats_fmllr_train.8.ark:5584627
mmdb0_sx267 quick_test/data-fmllr-tri3/train/data/feats_fmllr_train.7.ark:15657067
mtrt0_sx57 quick_test/data-fmllr-tri3/train/data/feats_fmllr_train.10.ark:11511558
mdpk0_sx423 quick_test/data-fmllr-tri3/train/data/feats_fmllr_train.5.ark:7327764
mrsp0_sx196 quick_test/data-fmllr-tri3/train/data/feats_fmllr_train.9.ark:8576361
mmaa0_sx395 quick_test/data-fmllr-tri3/train/data/feats_fmllr_train.7.ark:12953547
mkam0_sx326 quick_test/data-fmllr-tri3/train/data/feats_fmllr_train.7.ark:5416570
fhxs0_si2335 quick_test/data-fmllr-tri3/train/data/feats_fmllr_train.1.ark:18546217
mrlj0_sx70 quick_test/data-fmllr-tri3/train/data/feats_fmllr_train.9.ark:4044712
mrld0_sx334 quick_test/data-fmllr-tri3/train/data/feats_fmllr_train.9.ark:3604762
mvjh0_sx206 quick_test/data-fmllr-tri3/train/data/feats_fmllr_train.10.ark:12546210
fpab1_sx301 quick_test/data-fmllr-tri3/train/data/feats_fmllr_train.3.ark:1059302
mrfk0_sx266 quick_test/data-fmllr-tri3/train/data/feats_fmllr_train.8.ark:16896976
mgrl0_sx327 quick_test/data-fmllr-tri3/train/data/feats_fmllr_train.6.ark:1709659
mejs0_sx160 quick_test/data-fmllr-tri3/train/data/feats_fmllr_train.5.ark:12749336
mmdm0_sx51 quick_test/data-fmllr-tri3/train/data/feats_fmllr_train.7.ark:16577581
fvfb0_sx222 quick_test/data-fmllr-tri3/train/data/feats_fmllr_train.3.ark:15930882
mcxm0_sx271 quick_test/data-fmllr-tri3/train/data/feats_fmllr_train.4.ark:14189911
mdss1_si697 quick_test/data-fmllr-tri3/train/data/feats_fmllr_train.5.ark:8982501
mmxs0_si2136 quick_test/data-fmllr-tri3/train/data/feats_fmllr_train.8.ark:4612859
mfwk0_sx79 quick_test/data-fmllr-tri3/train/data/feats_fmllr_train.5.ark:15453841
mntw0_si1068 quick_test/data-fmllr-tri3/train/data/feats_fmllr_train.8.ark:5322090
fcjf0_sx217 quick_test/data-fmllr-tri3/train/data/feats_fmllr_train.1.ark:6575111
flac0_si1339 quick_test/data-fmllr-tri3/train/data/feats_fmllr_train.2.ark:8862233
mcre0_si1751 quick_test/data-fmllr-tri3/train/data/feats_fmllr_train.4.ark:12538431
mmeb0_si1357 quick_test/data-fmllr-tri3/train/data/feats_fmllr_train.7.ark:17654900
fcdr1_sx286 quick_test/data-fmllr-tri3/train/data/feats_fmllr_train.1.ark:5955050
mdbp0_si528 quick_test/data-fmllr-tri3/train/data/feats_fmllr_train.4.ark:15555843
mter0_si1157 quick_test/data-fmllr-tri3/train/data/feats_fmllr_train.10.ark:3686607
mjls0_si1096 quick_test/data-fmllr-tri3/train/data/feats_fmllr_train.6.ark:14655615
mjeb0_sx170 quick_test/data-fmllr-tri3/train/data/feats_fmllr_train.6.ark:10177892
mgsl0_si797 quick_test/data-fmllr-tri3/train/data/feats_fmllr_train.6.ark:2809906
mtat0_si1740 quick_test/data-fmllr-tri3/train/data/feats_fmllr_train.10.ark:1314132
mbjv0_sx257 quick_test/data-fmllr-tri3/train/data/feats_fmllr_train.4.ark:5381723
mkah0_sx178 quick_test/data-fmllr-tri3/train/data/feats_fmllr_train.7.ark:4554161
flmk0_sx315 quick_test/data-fmllr-tri3/train/data/feats_fmllr_train.2.ark:13451479
megj0_sx437 quick_test/data-fmllr-tri3/train/data/feats_fmllr_train.5.ark:12145783
fdjh0_si935 quick_test/data-fmllr-tri3/train/data/feats_fmllr_train.1.ark:10560487
mtjm0_sx416 quick_test/data-fmllr-tri3/train/data/feats_fmllr_train.10.ark:4765123
mcal0_sx418 quick_test/data-fmllr-tri3/train/data/feats_fmllr_train.4.ark:8864367
mkag0_sx259 quick_test/data-fmllr-tri3/train/data/feats_fmllr_train.7.ark:4236372
fntb0_sx123 quick_test/data-fmllr-tri3/train/data/feats_fmllr_train.3.ark:538071
msfh0_si1216 quick_test/data-fmllr-tri3/train/data/feats_fmllr_train.9.ark:14503249
mchl0_sx87 quick_test/data-fmllr-tri3/train/data/feats_fmllr_train.4.ark:11327936
meal0_sx347 quick_test/data-fmllr-tri3/train/data/feats_fmllr_train.5.ark:10988335
mdbp0_sx258 quick_test/data-fmllr-tri3/train/data/feats_fmllr_train.4.ark:15674777
mmgg0_sx269 quick_test/data-fmllr-tri3/train/data/feats_fmllr_train.8.ark:546261
mses0_sx149 quick_test/data-fmllr-tri3/train/data/feats_fmllr_train.9.ark:14300074
madd0_sx178 quick_test/data-fmllr-tri3/train/data/feats_fmllr_train.3.ark:17721860
fjen0_sx237 quick_test/data-fmllr-tri3/train/data/feats_fmllr_train.2.ark:628341
mlsh0_si1417 quick_test/data-fmllr-tri3/train/data/feats_fmllr_train.7.ark:12180661
frll0_si884 quick_test/data-fmllr-tri3/train/data/feats_fmllr_train.3.ark:4818030
mbma0_si592 quick_test/data-fmllr-tri3/train/data/feats_fmllr_train.4.ark:5653726
fljd0_sx76 quick_test/data-fmllr-tri3/train/data/feats_fmllr_train.2.ark:11535247
mrcw0_sx201 quick_test/data-fmllr-tri3/train/data/feats_fmllr_train.8.ark:13901958
mrdm0_sx335 quick_test/data-fmllr-tri3/train/data/feats_fmllr_train.8.ark:14653940
flag0_sx204 quick_test/data-fmllr-tri3/train/data/feats_fmllr_train.2.ark:9459359
mprd0_sx81 quick_test/data-fmllr-tri3/train/data/feats_fmllr_train.8.ark:9775970
flmk0_si1035 quick_test/data-fmllr-tri3/train/data/feats_fmllr_train.2.ark:13204142
mkaj0_si2044 quick_test/data-fmllr-tri3/train/data/feats_fmllr_train.7.ark:4846644
mjlb0_sx446 quick_test/data-fmllr-tri3/train/data/feats_fmllr_train.6.ark:14228303
fdnc0_sx288 quick_test/data-fmllr-tri3/train/data/feats_fmllr_train.1.ark:12471704
mmjb1_sx328 quick_test/data-fmllr-tri3/train/data/feats_fmllr_train.8.ark:1270242
mrcw0_si741 quick_test/data-fmllr-tri3/train/data/feats_fmllr_train.8.ark:13797904
msms0_si803 quick_test/data-fmllr-tri3/train/data/feats_fmllr_train.9.ark:16707748
mjbg0_si1862 quick_test/data-fmllr-tri3/train/data/feats_fmllr_train.6.ark:7726962
mses0_si2216 quick_test/data-fmllr-tri3/train/data/feats_fmllr_train.9.ark:14224979
mtkd0_sx197 quick_test/data-fmllr-tri3/train/data/feats_fmllr_train.10.ark:5938066
fjsk0_sx152 quick_test/data-fmllr-tri3/train/data/feats_fmllr_train.2.ark:3409036
mtjm0_sx146 quick_test/data-fmllr-tri3/train/data/feats_fmllr_train.10.ark:4647602
mnet0_si1446 quick_test/data-fmllr-tri3/train/data/feats_fmllr_train.8.ark:4986355
mejs0_si1870 quick_test/data-fmllr-tri3/train/data/feats_fmllr_train.5.ark:12666562
mrmb0_sx231 quick_test/data-fmllr-tri3/train/data/feats_fmllr_train.9.ark:5342941
mmws0_sx438 quick_test/data-fmllr-tri3/train/data/feats_fmllr_train.8.ark:4208748
mrlj0_sx340 quick_test/data-fmllr-tri3/train/data/feats_fmllr_train.9.ark:3951379
mtab0_si1572 quick_test/data-fmllr-tri3/train/data/feats_fmllr_train.10.ark:481670
mafm0_si2199 quick_test/data-fmllr-tri3/train/data/feats_fmllr_train.4.ark:770076
mrjm0_sx328 quick_test/data-fmllr-tri3/train/data/feats_fmllr_train.9.ark:1930136
mmws0_sx348 quick_test/data-fmllr-tri3/train/data/feats_fmllr_train.8.ark:4159761
mlns0_sx147 quick_test/data-fmllr-tri3/train/data/feats_fmllr_train.7.ark:11966286
fdjh0_sx215 quick_test/data-fmllr-tri3/train/data/feats_fmllr_train.1.ark:10664861
mdlc0_si1395 quick_test/data-fmllr-tri3/train/data/feats_fmllr_train.5.ark:2782173
mfxs0_sx54 quick_test/data-fmllr-tri3/train/data/feats_fmllr_train.5.ark:15812619
mter0_sx437 quick_test/data-fmllr-tri3/train/data/feats_fmllr_train.10.ark:3977809
mcdr0_si524 quick_test/data-fmllr-tri3/train/data/feats_fmllr_train.4.ark:9831310
mrkm0_si637 quick_test/data-fmllr-tri3/train/data/feats_fmllr_train.9.ark:3046546
faem0_sx222 quick_test/data-fmllr-tri3/train/data/feats_fmllr_train.1.ark:201402
fmkc0_sx262 quick_test/data-fmllr-tri3/train/data/feats_fmllr_train.2.ark:16927646
mmdm1_sx423 quick_test/data-fmllr-tri3/train/data/feats_fmllr_train.7.ark:16913292
fmbg0_si2264 quick_test/data-fmllr-tri3/train/data/feats_fmllr_train.2.ark:14828109
mrso0_sx39 quick_test/data-fmllr-tri3/train/data/feats_fmllr_train.9.ark:8245637
fjdm2_si2212 quick_test/data-fmllr-tri3/train/data/feats_fmllr_train.2.ark:96549
fklc0_sx85 quick_test/data-fmllr-tri3/train/data/feats_fmllr_train.2.ark:7666193
fmju0_si2019 quick_test/data-fmllr-tri3/train/data/feats_fmllr_train.2.ark:16407667
fdkn0_si1202 quick_test/data-fmllr-tri3/train/data/feats_fmllr_train.1.ark:10885957
mrew1_sx150 quick_test/data-fmllr-tri3/train/data/feats_fmllr_train.8.ark:16467611
mtjm0_si655 quick_test/data-fmllr-tri3/train/data/feats_fmllr_train.10.ark:4585975
fmpg0_sx162 quick_test/data-fmllr-tri3/train/data/feats_fmllr_train.2.ark:18115146
mdbb1_si1006 quick_test/data-fmllr-tri3/train/data/feats_fmllr_train.4.ark:15118290
mpeb0_sx240 quick_test/data-fmllr-tri3/train/data/feats_fmllr_train.8.ark:6220554
fltm0_sx80 quick_test/data-fmllr-tri3/train/data/feats_fmllr_train.2.ark:14304608
mpgr1_sx329 quick_test/data-fmllr-tri3/train/data/feats_fmllr_train.8.ark:7745289
mfer0_sx232 quick_test/data-fmllr-tri3/train/data/feats_fmllr_train.5.ark:14182549
mbma1_sx234 quick_test/data-fmllr-tri3/train/data/feats_fmllr_train.4.ark:6109037
fexm0_sx291 quick_test/data-fmllr-tri3/train/data/feats_fmllr_train.1.ark:16080032
mdjm0_sx105 quick_test/data-fmllr-tri3/train/data/feats_fmllr_train.5.ark:1728323
msdh0_sx80 quick_test/data-fmllr-tri3/train/data/feats_fmllr_train.9.ark:13156648
mdns0_sx21 quick_test/data-fmllr-tri3/train/data/feats_fmllr_train.5.ark:6554182
fbch0_si1586 quick_test/data-fmllr-tri3/train/data/feats_fmllr_train.1.ark:2849049
mtjs0_sx22 quick_test/data-fmllr-tri3/train/data/feats_fmllr_train.10.ark:5145952
meal0_si917 quick_test/data-fmllr-tri3/train/data/feats_fmllr_train.5.ark:10850627
mtmn0_sx164 quick_test/data-fmllr-tri3/train/data/feats_fmllr_train.10.ark:7856379
msmc0_sx197 quick_test/data-fmllr-tri3/train/data/feats_fmllr_train.9.ark:16078274
fmjb0_sx187 quick_test/data-fmllr-tri3/train/data/feats_fmllr_train.2.ark:15715129
mkdd0_si2197 quick_test/data-fmllr-tri3/train/data/feats_fmllr_train.7.ark:6006815
msah1_si2309 quick_test/data-fmllr-tri3/train/data/feats_fmllr_train.9.ark:11162627
mdem0_sx248 quick_test/data-fmllr-tri3/train/data/feats_fmllr_train.5.ark:590419
mdhl0_si1439 quick_test/data-fmllr-tri3/train/data/feats_fmllr_train.5.ark:826207
mklr0_sx159 quick_test/data-fmllr-tri3/train/data/feats_fmllr_train.7.ark:7986034
mprd0_si2061 quick_test/data-fmllr-tri3/train/data/feats_fmllr_train.8.ark:9443649
fscn0_si1886 quick_test/data-fmllr-tri3/train/data/feats_fmllr_train.3.ark:6762261
mgaf0_sx22 quick_test/data-fmllr-tri3/train/data/feats_fmllr_train.5.ark:16453320
milb0_sx93 quick_test/data-fmllr-tri3/train/data/feats_fmllr_train.6.ark:6437427
mjwg0_sx265 quick_test/data-fmllr-tri3/train/data/feats_fmllr_train.7.ark:2230967
mmam0_si2227 quick_test/data-fmllr-tri3/train/data/feats_fmllr_train.7.ark:13944465
fear0_si1252 quick_test/data-fmllr-tri3/train/data/feats_fmllr_train.1.ark:13743451
mrtc0_si828 quick_test/data-fmllr-tri3/train/data/feats_fmllr_train.9.ark:8885484
mtrt0_si1857 quick_test/data-fmllr-tri3/train/data/feats_fmllr_train.10.ark:11267397
fbmj0_sx426 quick_test/data-fmllr-tri3/train/data/feats_fmllr_train.1.ark:4799839
fdkn0_sx451 quick_test/data-fmllr-tri3/train/data/feats_fmllr_train.1.ark:11158253
mgrl0_si1497 quick_test/data-fmllr-tri3/train/data/feats_fmllr_train.6.ark:1506803
mter0_si1787 quick_test/data-fmllr-tri3/train/data/feats_fmllr_train.10.ark:3756395
mrai0_sx252 quick_test/data-fmllr-tri3/train/data/feats_fmllr_train.8.ark:11938151
mtkp0_sx33 quick_test/data-fmllr-tri3/train/data/feats_fmllr_train.10.ark:6419910
mhmg0_sx375 quick_test/data-fmllr-tri3/train/data/feats_fmllr_train.6.ark:4912563
mbef0_sx381 quick_test/data-fmllr-tri3/train/data/feats_fmllr_train.4.ark:4754169
frjb0_sx257 quick_test/data-fmllr-tri3/train/data/feats_fmllr_train.3.ark:4504588
mmws1_sx27 quick_test/data-fmllr-tri3/train/data/feats_fmllr_train.8.ark:4469231
mjfh0_sx27 quick_test/data-fmllr-tri3/train/data/feats_fmllr_train.6.ark:11421956
mjrh0_sx405 quick_test/data-fmllr-tri3/train/data/feats_fmllr_train.7.ark:297137
fsjs0_sx271 quick_test/data-fmllr-tri3/train/data/feats_fmllr_train.3.ark:9385752
mprk0_sx17 quick_test/data-fmllr-tri3/train/data/feats_fmllr_train.8.ark:10070826
msat0_si2156 quick_test/data-fmllr-tri3/train/data/feats_fmllr_train.9.ark:11894394
mkln0_sx158 quick_test/data-fmllr-tri3/train/data/feats_fmllr_train.7.ark:7643736
mdma0_si2060 quick_test/data-fmllr-tri3/train/data/feats_fmllr_train.5.ark:5557668
msjk0_sx156 quick_test/data-fmllr-tri3/train/data/feats_fmllr_train.9.ark:15569685
msdb0_si1637 quick_test/data-fmllr-tri3/train/data/feats_fmllr_train.9.ark:12586189
fmkc0_si1041 quick_test/data-fmllr-tri3/train/data/feats_fmllr_train.2.ark:16733616
makb0_sx26 quick_test/data-fmllr-tri3/train/data/feats_fmllr_train.4.ark:1835579
mjwg0_si813 quick_test/data-fmllr-tri3/train/data/feats_fmllr_train.7.ark:1990566
mdcd0_sx155 quick_test/data-fmllr-tri3/train/data/feats_fmllr_train.4.ark:16042807
mrmb0_si1581 quick_test/data-fmllr-tri3/train/data/feats_fmllr_train.9.ark:5146512
fpab1_sx121 quick_test/data-fmllr-tri3/train/data/feats_fmllr_train.3.ark:950288
mtjg0_si1520 quick_test/data-fmllr-tri3/train/data/feats_fmllr_train.10.ark:4089063
feeh0_sx392 quick_test/data-fmllr-tri3/train/data/feats_fmllr_train.1.ark:14942474
fpmy0_sx73 quick_test/data-fmllr-tri3/train/data/feats_fmllr_train.3.ark:3959913
fpmy0_si1153 quick_test/data-fmllr-tri3/train/data/feats_fmllr_train.3.ark:3564844
mabc0_si781 quick_test/data-fmllr-tri3/train/data/feats_fmllr_train.3.ark:16920439
msmc0_si647 quick_test/data-fmllr-tri3/train/data/feats_fmllr_train.9.ark:15933234
mrre0_sx74 quick_test/data-fmllr-tri3/train/data/feats_fmllr_train.9.ark:7824806
mbwp0_si709 quick_test/data-fmllr-tri3/train/data/feats_fmllr_train.4.ark:7776147
madd0_sx88 quick_test/data-fmllr-tri3/train/data/feats_fmllr_train.3.ark:17915567
mcre0_sx41 quick_test/data-fmllr-tri3/train/data/feats_fmllr_train.4.ark:12777284
fbmj0_sx66 quick_test/data-fmllr-tri3/train/data/feats_fmllr_train.1.ark:4850745
mdlr1_sx219 quick_test/data-fmllr-tri3/train/data/feats_fmllr_train.5.ark:5270464
fkkh0_si660 quick_test/data-fmllr-tri3/train/data/feats_fmllr_train.2.ark:7043602
fjrp1_si1432 quick_test/data-fmllr-tri3/train/data/feats_fmllr_train.2.ark:2765376
mmdm0_sx321 quick_test/data-fmllr-tri3/train/data/feats_fmllr_train.7.ark:16464728
mjai0_sx74 quick_test/data-fmllr-tri3/train/data/feats_fmllr_train.6.ark:7609118
mrjm0_si1095 quick_test/data-fmllr-tri3/train/data/feats_fmllr_train.9.ark:1700559
marc0_sx198 quick_test/data-fmllr-tri3/train/data/feats_fmllr_train.4.ark:2849030
mbml0_sx179 quick_test/data-fmllr-tri3/train/data/feats_fmllr_train.4.ark:6450667
mefg0_si465 quick_test/data-fmllr-tri3/train/data/feats_fmllr_train.5.ark:11417726
mlel0_sx166 quick_test/data-fmllr-tri3/train/data/feats_fmllr_train.7.ark:10662755
flja0_si2338 quick_test/data-fmllr-tri3/train/data/feats_fmllr_train.2.ark:10900336
msds0_sx357 quick_test/data-fmllr-tri3/train/data/feats_fmllr_train.9.ark:13497133
mfxs0_si1674 quick_test/data-fmllr-tri3/train/data/feats_fmllr_train.5.ark:15497229
mmrp0_sx144 quick_test/data-fmllr-tri3/train/data/feats_fmllr_train.8.ark:2272599
mwac0_si971 quick_test/data-fmllr-tri3/train/data/feats_fmllr_train.10.ark:13532087
msds0_si1077 quick_test/data-fmllr-tri3/train/data/feats_fmllr_train.9.ark:13190916
fkfb0_sx78 quick_test/data-fmllr-tri3/train/data/feats_fmllr_train.2.ark:6850879
mhxl0_si1772 quick_test/data-fmllr-tri3/train/data/feats_fmllr_train.6.ark:5723585
mjda0_si2291 quick_test/data-fmllr-tri3/train/data/feats_fmllr_train.6.ark:8096300
mtcs0_sx352 quick_test/data-fmllr-tri3/train/data/feats_fmllr_train.10.ark:2665451
mvjh0_sx386 quick_test/data-fmllr-tri3/train/data/feats_fmllr_train.10.ark:12665970
fspm0_sx251 quick_test/data-fmllr-tri3/train/data/feats_fmllr_train.3.ark:12919386
mkrg0_sx31 quick_test/data-fmllr-tri3/train/data/feats_fmllr_train.7.ark:9650157
fecd0_si1418 quick_test/data-fmllr-tri3/train/data/feats_fmllr_train.1.ark:14136308
mwem0_si1950 quick_test/data-fmllr-tri3/train/data/feats_fmllr_train.10.ark:15337496
fcjs0_si977 quick_test/data-fmllr-tri3/train/data/feats_fmllr_train.1.ark:6753674
mwar0_si2305 quick_test/data-fmllr-tri3/train/data/feats_fmllr_train.10.ark:14290443
mjmm0_si1885 quick_test/data-fmllr-tri3/train/data/feats_fmllr_train.6.ark:15820295
mmaa0_si845 quick_test/data-fmllr-tri3/train/data/feats_fmllr_train.7.ark:12701733
mtrr0_si918 quick_test/data-fmllr-tri3/train/data/feats_fmllr_train.10.ark:10884327
fjkl0_sx212 quick_test/data-fmllr-tri3/train/data/feats_fmllr_train.2.ark:1427336
mmgk0_si1952 quick_test/data-fmllr-tri3/train/data/feats_fmllr_train.8.ark:793277
mtml0_sx75 quick_test/data-fmllr-tri3/train/data/feats_fmllr_train.10.ark:7603149
fpaf0_sx154 quick_test/data-fmllr-tri3/train/data/feats_fmllr_train.3.ark:2192060
mwdk0_sx356 quick_test/data-fmllr-tri3/train/data/feats_fmllr_train.10.ark:15117519
freh0_sx415 quick_test/data-fmllr-tri3/train/data/feats_fmllr_train.3.ark:4274664
mrjh0_si889 quick_test/data-fmllr-tri3/train/data/feats_fmllr_train.9.ark:1312850
mrws0_si1732 quick_test/data-fmllr-tri3/train/data/feats_fmllr_train.9.ark:10440565
msas0_sx386 quick_test/data-fmllr-tri3/train/data/feats_fmllr_train.9.ark:11814818
fjwb1_si748 quick_test/data-fmllr-tri3/train/data/feats_fmllr_train.2.ark:4078695
fvmh0_sx296 quick_test/data-fmllr-tri3/train/data/feats_fmllr_train.3.ark:16784809
mjda0_sx311 quick_test/data-fmllr-tri3/train/data/feats_fmllr_train.6.ark:8217981
mtpp0_si878 quick_test/data-fmllr-tri3/train/data/feats_fmllr_train.10.ark:9258500
mbar0_sx59 quick_test/data-fmllr-tri3/train/data/feats_fmllr_train.4.ark:3722158
mdlb0_si1936 quick_test/data-fmllr-tri3/train/data/feats_fmllr_train.5.ark:2415104
mtlc0_sx397 quick_test/data-fmllr-tri3/train/data/feats_fmllr_train.10.ark:7195891
mzmb0_sx176 quick_test/data-fmllr-tri3/train/data/feats_fmllr_train.10.ark:17744423
mkjo0_si2147 quick_test/data-fmllr-tri3/train/data/feats_fmllr_train.7.ark:7196425
fdnc0_si1278 quick_test/data-fmllr-tri3/train/data/feats_fmllr_train.1.ark:12146741
mgaw0_sx355 quick_test/data-fmllr-tri3/train/data/feats_fmllr_train.6.ark:650127
mwsb0_sx186 quick_test/data-fmllr-tri3/train/data/feats_fmllr_train.10.ark:16945271
msfh0_sx406 quick_test/data-fmllr-tri3/train/data/feats_fmllr_train.9.ark:14863412
mgrl0_si867 quick_test/data-fmllr-tri3/train/data/feats_fmllr_train.6.ark:1588618
mnet0_si2076 quick_test/data-fmllr-tri3/train/data/feats_fmllr_train.8.ark:5047983
mrgm0_sx262 quick_test/data-fmllr-tri3/train/data/feats_fmllr_train.8.ark:17738690
mlbc0_si609 quick_test/data-fmllr-tri3/train/data/feats_fmllr_train.7.ark:10225071
mjlb0_sx266 quick_test/data-fmllr-tri3/train/data/feats_fmllr_train.6.ark:14146969
mtkd0_si630 quick_test/data-fmllr-tri3/train/data/feats_fmllr_train.10.ark:5774626
mlel0_sx76 quick_test/data-fmllr-tri3/train/data/feats_fmllr_train.7.ark:10886382
mjjj0_sx353 quick_test/data-fmllr-tri3/train/data/feats_fmllr_train.6.ark:13027145
milb0_sx273 quick_test/data-fmllr-tri3/train/data/feats_fmllr_train.6.ark:6330789
fsms1_sx244 quick_test/data-fmllr-tri3/train/data/feats_fmllr_train.3.ark:12499009
mdlb0_sx406 quick_test/data-fmllr-tri3/train/data/feats_fmllr_train.5.ark:2672199
mcpm0_sx204 quick_test/data-fmllr-tri3/train/data/feats_fmllr_train.4.ark:12316827
fhlm0_sx390 quick_test/data-fmllr-tri3/train/data/feats_fmllr_train.1.ark:18308053
fklc1_sx418 quick_test/data-fmllr-tri3/train/data/feats_fmllr_train.2.ark:7981105
fjlg0_si2306 quick_test/data-fmllr-tri3/train/data/feats_fmllr_train.2.ark:1714060
mmwb0_sx359 quick_test/data-fmllr-tri3/train/data/feats_fmllr_train.8.ark:3742905
ftbr0_si1402 quick_test/data-fmllr-tri3/train/data/feats_fmllr_train.3.ark:14212945
mjsr0_si794 quick_test/data-fmllr-tri3/train/data/feats_fmllr_train.7.ark:1606217
fgrw0_sx162 quick_test/data-fmllr-tri3/train/data/feats_fmllr_train.1.ark:17686288
mtcs0_si1972 quick_test/data-fmllr-tri3/train/data/feats_fmllr_train.10.ark:2446435
mdrd0_sx32 quick_test/data-fmllr-tri3/train/data/feats_fmllr_train.5.ark:8102597
fclt0_si1438 quick_test/data-fmllr-tri3/train/data/feats_fmllr_train.1.ark:7404133
fsls0_sx246 quick_test/data-fmllr-tri3/train/data/feats_fmllr_train.3.ark:11347825
fssb0_sx362 quick_test/data-fmllr-tri3/train/data/feats_fmllr_train.3.ark:13728008
mtrc0_sx170 quick_test/data-fmllr-tri3/train/data/feats_fmllr_train.10.ark:10604777
fsbk0_sx79 quick_test/data-fmllr-tri3/train/data/feats_fmllr_train.3.ark:6700153
mtrt0_sx237 quick_test/data-fmllr-tri3/train/data/feats_fmllr_train.10.ark:11405558
mdwh0_sx215 quick_test/data-fmllr-tri3/train/data/feats_fmllr_train.5.ark:10169127
mljc0_sx145 quick_test/data-fmllr-tri3/train/data/feats_fmllr_train.7.ark:11102492
mrlj0_si790 quick_test/data-fmllr-tri3/train/data/feats_fmllr_train.9.ark:3794658
mtmn0_sx434 quick_test/data-fmllr-tri3/train/data/feats_fmllr_train.10.ark:7982700
mmrp0_si717 quick_test/data-fmllr-tri3/train/data/feats_fmllr_train.8.ark:2177185
mmwb0_sx269 quick_test/data-fmllr-tri3/train/data/feats_fmllr_train.8.ark:3694078
fklh0_si627 quick_test/data-fmllr-tri3/train/data/feats_fmllr_train.2.ark:8205534
flac0_si2161 quick_test/data-fmllr-tri3/train/data/feats_fmllr_train.2.ark:8942421
flet0_sx237 quick_test/data-fmllr-tri3/train/data/feats_fmllr_train.2.ark:10270674
fsgf0_si2187 quick_test/data-fmllr-tri3/train/data/feats_fmllr_train.3.ark:7959420
mtpg0_sx213 quick_test/data-fmllr-tri3/train/data/feats_fmllr_train.10.ark:9004097
mrab1_sx38 quick_test/data-fmllr-tri3/train/data/feats_fmllr_train.8.ark:11616707
mjxl0_sx452 quick_test/data-fmllr-tri3/train/data/feats_fmllr_train.7.ark:3903089
mgrp0_si687 quick_test/data-fmllr-tri3/train/data/feats_fmllr_train.6.ark:1984515
mjlg1_si1642 quick_test/data-fmllr-tri3/train/data/feats_fmllr_train.6.ark:14346145
mdpk0_si1683 quick_test/data-fmllr-tri3/train/data/feats_fmllr_train.5.ark:7125709
mvjh0_si1556 quick_test/data-fmllr-tri3/train/data/feats_fmllr_train.10.ark:12337941
mstf0_si1396 quick_test/data-fmllr-tri3/train/data/feats_fmllr_train.9.ark:17729943
mkah0_sx88 quick_test/data-fmllr-tri3/train/data/feats_fmllr_train.7.ark:4757948
mppc0_si782 quick_test/data-fmllr-tri3/train/data/feats_fmllr_train.8.ark:8648522
mjls0_sx16 quick_test/data-fmllr-tri3/train/data/feats_fmllr_train.6.ark:14880843
fkde0_sx331 quick_test/data-fmllr-tri3/train/data/feats_fmllr_train.2.ark:5895192
mpar0_si946 quick_test/data-fmllr-tri3/train/data/feats_fmllr_train.8.ark:5822843
fmkc0_sx82 quick_test/data-fmllr-tri3/train/data/feats_fmllr_train.2.ark:17085166
fbcg1_sx352 quick_test/data-fmllr-tri3/train/data/feats_fmllr_train.1.ark:2681928
mvlo0_sx247 quick_test/data-fmllr-tri3/train/data/feats_fmllr_train.10.ark:12892987
mjxa0_sx67 quick_test/data-fmllr-tri3/train/data/feats_fmllr_train.7.ark:3561298
fvfb0_sx42 quick_test/data-fmllr-tri3/train/data/feats_fmllr_train.3.ark:16067762
meal0_sx107 quick_test/data-fmllr-tri3/train/data/feats_fmllr_train.5.ark:10884574
mded0_sx180 quick_test/data-fmllr-tri3/train/data/feats_fmllr_train.4.ark:17174498
mjda0_sx131 quick_test/data-fmllr-tri3/train/data/feats_fmllr_train.6.ark:8148007
fpjf0_sx146 quick_test/data-fmllr-tri3/train/data/feats_fmllr_train.3.ark:2983374
mfmc0_sx412 quick_test/data-fmllr-tri3/train/data/feats_fmllr_train.5.ark:14658340
mram0_si1905 quick_test/data-fmllr-tri3/train/data/feats_fmllr_train.8.ark:12187087
mrmg0_si2340 quick_test/data-fmllr-tri3/train/data/feats_fmllr_train.9.ark:5602465
fblv0_sx68 quick_test/data-fmllr-tri3/train/data/feats_fmllr_train.1.ark:4039592
mmxs0_sx426 quick_test/data-fmllr-tri3/train/data/feats_fmllr_train.8.ark:4894781
mgak0_sx316 quick_test/data-fmllr-tri3/train/data/feats_fmllr_train.5.ark:17209115
fcjf0_sx127 quick_test/data-fmllr-tri3/train/data/feats_fmllr_train.1.ark:6550764
mdas0_sx21 quick_test/data-fmllr-tri3/train/data/feats_fmllr_train.4.ark:14970504
