feme0_si1505 quick_test/data-fmllr-tri3/train/data/feats_fmllr_train.1.ark:14992742
fltm0_si2330 quick_test/data-fmllr-tri3/train/data/feats_fmllr_train.2.ark:14009274
msdb0_sx17 quick_test/data-fmllr-tri3/train/data/feats_fmllr_train.9.ark:12681630
mlns0_sx147 quick_test/data-fmllr-tri3/train/data/feats_fmllr_train.7.ark:11966286
mklr0_si1059 quick_test/data-fmllr-tri3/train/data/feats_fmllr_train.7.ark:7862271
mrmb0_sx321 quick_test/data-fmllr-tri3/train/data/feats_fmllr_train.9.ark:5369528
mmws0_si1518 quick_test/data-fmllr-tri3/train/data/feats_fmllr_train.8.ark:3940266
mrmb0_sx231 quick_test/data-fmllr-tri3/train/data/feats_fmllr_train.9.ark:5342941
fbch0_si1586 quick_test/data-fmllr-tri3/train/data/feats_fmllr_train.1.ark:2849049
mram0_sx195 quick_test/data-fmllr-tri3/train/data/feats_fmllr_train.8.ark:12384795
mkaj0_sx244 quick_test/data-fmllr-tri3/train/data/feats_fmllr_train.7.ark:4986725
mkah0_sx358 quick_test/data-fmllr-tri3/train/data/feats_fmllr_train.7.ark:4671495
majp0_sx354 quick_test/data-fmllr-tri3/train/data/feats_fmllr_train.4.ark:1339682
mmeb0_si1357 quick_test/data-fmllr-tri3/train/data/feats_fmllr_train.7.ark:17654900
mmws0_sx348 quick_test/data-fmllr-tri3/train/data/feats_fmllr_train.8.ark:4159761
mtml0_sx75 quick_test/data-fmllr-tri3/train/data/feats_fmllr_train.10.ark:7603149
fdfb0_sx58 quick_test/data-fmllr-tri3/train/data/feats_fmllr_train.1.ark:10422164
mcdr0_sx74 quick_test/data-fmllr-tri3/train/data/feats_fmllr_train.4.ark:10082004
mtpr0_sx250 quick_test/data-fmllr-tri3/train/data/feats_fmllr_train.10.ark:9746771
makb0_si2276 quick_test/data-fmllr-tri3/train/data/feats_fmllr_train.4.ark:1643339
fgdp0_sx88 quick_test/data-fmllr-tri3/train/data/feats_fmllr_train.1.ark:16985640
freh0_sx325 quick_test/data-fmllr-tri3/train/data/feats_fmllr_train.3.ark:4244077
msem1_sx450 quick_test/data-fmllr-tri3/train/data/feats_fmllr_train.9.ark:14056257
fjrp1_si802 quick_test/data-fmllr-tri3/train/data/feats_fmllr_train.2.ark:2901591
mapv0_sx123 quick_test/data-fmllr-tri3/train/data/feats_fmllr_train.4.ark:2436600
mjwg0_sx175 quick_test/data-fmllr-tri3/train/data/feats_fmllr_train.7.ark:2162780
feeh0_sx212 quick_test/data-fmllr-tri3/train/data/feats_fmllr_train.1.ark:14798074
fjxm0_sx311 quick_test/data-fmllr-tri3/train/data/feats_fmllr_train.2.ark:4628460
mmcc0_si1338 quick_test/data-fmllr-tri3/train/data/feats_fmllr_train.7.ark:15099621
mmdm0_si681 quick_test/data-fmllr-tri3/train/data/feats_fmllr_train.7.ark:16349127
fjhk0_si2282 quick_test/data-fmllr-tri3/train/data/feats_fmllr_train.2.ark:931865
fmjf0_sx264 quick_test/data-fmllr-tri3/train/data/feats_fmllr_train.2.ark:16126251
mlbc0_sx69 quick_test/data-fmllr-tri3/train/data/feats_fmllr_train.7.ark:10455285
mmdg0_sx340 quick_test/data-fmllr-tri3/train/data/feats_fmllr_train.7.ark:16099231
mrdd0_si2310 quick_test/data-fmllr-tri3/train/data/feats_fmllr_train.8.ark:14155082
mrxb0_sx55 quick_test/data-fmllr-tri3/train/data/feats_fmllr_train.9.ark:11052143
mjmm0_sx355 quick_test/data-fmllr-tri3/train/data/feats_fmllr_train.6.ark:16002003
flac0_sx91 quick_test/data-fmllr-tri3/train/data/feats_fmllr_train.2.ark:9180182
fdas1_sx291 quick_test/data-fmllr-tri3/train/data/feats_fmllr_train.1.ark:9649061
mdlc1_sx175 quick_test/data-fmllr-tri3/train/data/feats_fmllr_train.5.ark:3358153
fjdm2_sx142 quick_test/data-fmllr-tri3/train/data/feats_fmllr_train.2.ark:143456
mbcg0_sx237 quick_test/data-fmllr-tri3/train/data/feats_fmllr_train.4.ark:4292592
falr0_sx65 quick_test/data-fmllr-tri3/train/data/feats_fmllr_train.1.ark:1531248
mwem0_sx420 quick_test/data-fmllr-tri3/train/data/feats_fmllr_train.10.ark:15520644
flod0_sx207 quick_test/data-fmllr-tri3/train/data/feats_fmllr_train.2.ark:13827376
fvmh0_si1466 quick_test/data-fmllr-tri3/train/data/feats_fmllr_train.3.ark:16493127
mdlm0_sx424 quick_test/data-fmllr-tri3/train/data/feats_fmllr_train.5.ark:4569924
fdtd0_si2191 quick_test/data-fmllr-tri3/train/data/feats_fmllr_train.1.ark:12638347
fkfb0_sx168 quick_test/data-fmllr-tri3/train/data/feats_fmllr_train.2.ark:6598132
mdlh0_si574 quick_test/data-fmllr-tri3/train/data/feats_fmllr_train.5.ark:3964132
mgsl0_si534 quick_test/data-fmllr-tri3/train/data/feats_fmllr_train.6.ark:2773079
mfxv0_sx195 quick_test/data-fmllr-tri3/train/data/feats_fmllr_train.5.ark:16109743
mpfu0_sx358 quick_test/data-fmllr-tri3/train/data/feats_fmllr_train.8.ark:6665598
fljd0_si886 quick_test/data-fmllr-tri3/train/data/feats_fmllr_train.2.ark:11318153
mrvg0_sx330 quick_test/data-fmllr-tri3/train/data/feats_fmllr_train.9.ark:9858959
fdxw0_sx161 quick_test/data-fmllr-tri3/train/data/feats_fmllr_train.1.ark:13123579
maeb0_si990 quick_test/data-fmllr-tri3/train/data/feats_fmllr_train.4.ark:105828
msas0_si1376 quick_test/data-fmllr-tri3/train/data/feats_fmllr_train.9.ark:11413989
mtdp0_sx171 quick_test/data-fmllr-tri3/train/data/feats_fmllr_train.10.ark:3385352
mejs0_sx160 quick_test/data-fmllr-tri3/train/data/feats_fmllr_train.5.ark:12749336
mgak0_si1036 quick_test/data-fmllr-tri3/train/data/feats_fmllr_train.5.ark:16923058
fcrz0_sx433 quick_test/data-fmllr-tri3/train/data/feats_fmllr_train.1.ark:8833428
msah1_si1049 quick_test/data-fmllr-tri3/train/data/feats_fmllr_train.9.ark:11101451
feeh0_sx32 quick_test/data-fmllr-tri3/train/data/feats_fmllr_train.1.ark:14896847
fbcg1_sx352 quick_test/data-fmllr-tri3/train/data/feats_fmllr_train.1.ark:2681928
mkjo0_si2147 quick_test/data-fmllr-tri3/train/data/feats_fmllr_train.7.ark:7196425
frll0_si884 quick_test/data-fmllr-tri3/train/data/feats_fmllr_train.3.ark:4818030
mdlc2_si984 quick_test/data-fmllr-tri3/train/data/feats_fmllr_train.5.ark:3621383
mhxl0_sx242 quick_test/data-fmllr-tri3/train/data/feats_fmllr_train.6.ark:5907853
mtlb0_si1764 quick_test/data-fmllr-tri3/train/data/feats_fmllr_train.10.ark:6569273
mgrp0_sx327 quick_test/data-fmllr-tri3/train/data/feats_fmllr_train.6.ark:2126996
fpac0_si2011 quick_test/data-fmllr-tri3/train/data/feats_fmllr_train.3.ark:1269171
fmah1_si2139 quick_test/data-fmllr-tri3/train/data/feats_fmllr_train.2.ark:14383384
mkaj0_si1414 quick_test/data-fmllr-tri3/train/data/feats_fmllr_train.7.ark:4815576
mmsm0_si476 quick_test/data-fmllr-tri3/train/data/feats_fmllr_train.8.ark:2678229
mcth0_sx129 quick_test/data-fmllr-tri3/train/data/feats_fmllr_train.4.ark:13379530
ftbw0_sx445 quick_test/data-fmllr-tri3/train/data/feats_fmllr_train.3.ark:14894125
mkdb0_sx152 quick_test/data-fmllr-tri3/train/data/feats_fmllr_train.7.ark:5688572
mwac0_si2231 quick_test/data-fmllr-tri3/train/data/feats_fmllr_train.10.ark:13479580
fkdw0_si577 quick_test/data-fmllr-tri3/train/data/feats_fmllr_train.2.ark:6209568
mgaf0_si1282 quick_test/data-fmllr-tri3/train/data/feats_fmllr_train.5.ark:16233825
feac0_sx255 quick_test/data-fmllr-tri3/train/data/feats_fmllr_train.1.ark:13557743
fjlr0_sx241 quick_test/data-fmllr-tri3/train/data/feats_fmllr_train.2.ark:2187931
mvjh0_si926 quick_test/data-fmllr-tri3/train/data/feats_fmllr_train.10.ark:12465996
mprk0_sx17 quick_test/data-fmllr-tri3/train/data/feats_fmllr_train.8.ark:10070826
mpeb0_sx150 quick_test/data-fmllr-tri3/train/data/feats_fmllr_train.8.ark:6184527
mkjo0_si887 quick_test/data-fmllr-tri3/train/data/feats_fmllr_train.7.ark:7230052
mgxp0_si525 quick_test/data-fmllr-tri3/train/data/feats_fmllr_train.6.ark:3266282
mpgh0_sx294 quick_test/data-fmllr-tri3/train/data/feats_fmllr_train.8.ark:7086480
msvs0_sx38 quick_test/data-fmllr-tri3/train/data/feats_fmllr_train.10.ark:358255
fjdm2_sx412 quick_test/data-fmllr-tri3/train/data/feats_fmllr_train.2.ark:317937
fcmm0_si1083 quick_test/data-fmllr-tri3/train/data/feats_fmllr_train.1.ark:8195768
mjda0_sx401 quick_test/data-fmllr-tri3/train/data/feats_fmllr_train.6.ark:8273528
mjlg1_sx202 quick_test/data-fmllr-tri3/train/data/feats_fmllr_train.6.ark:14499987
mrxb0_si1585 quick_test/data-fmllr-tri3/train/data/feats_fmllr_train.9.ark:10707474
msmc0_sx287 quick_test/data-fmllr-tri3/train/data/feats_fmllr_train.9.ark:16123741
mbwp0_sx79 quick_test/data-fmllr-tri3/train/data/feats_fmllr_train.4.ark:8056281
mejl0_sx242 quick_test/data-fmllr-tri3/train/data/feats_fmllr_train.5.ark:12416506
mrml0_si2051 quick_test/data-fmllr-tri3/train/data/feats_fmllr_train.9.ark:6342393
mljc0_sx325 quick_test/data-fmllr-tri3/train/data/feats_fmllr_train.7.ark:11196786
mwar0_si1045 quick_test/data-fmllr-tri3/train/data/feats_fmllr_train.10.ark:14170707
mdbp0_si528 quick_test/data-fmllr-tri3/train/data/feats_fmllr_train.4.ark:15555843
flja0_sx178 quick_test/data-fmllr-tri3/train/data/feats_fmllr_train.2.ark:10927403
fmjb0_sx97 quick_test/data-fmllr-tri3/train/data/feats_fmllr_train.2.ark:15881314
mkam0_sx146 quick_test/data-fmllr-tri3/train/data/feats_fmllr_train.7.ark:5337156
mapv0_sx393 quick_test/data-fmllr-tri3/train/data/feats_fmllr_train.4.ark:2621347
mses0_sx149 quick_test/data-fmllr-tri3/train/data/feats_fmllr_train.9.ark:14300074
fmkc0_si1072 quick_test/data-fmllr-tri3/train/data/feats_fmllr_train.2.ark:16805484
mjpm0_si738 quick_test/data-fmllr-tri3/train/data/feats_fmllr_train.6.ark:16566036
mlns0_sx237 quick_test/data-fmllr-tri3/train/data/feats_fmllr_train.7.ark:12005993
mjma0_sx415 quick_test/data-fmllr-tri3/train/data/feats_fmllr_train.6.ark:15339035
fnkl0_sx262 quick_test/data-fmllr-tri3/train/data/feats_fmllr_train.3.ark:236469
fssb0_si2342 quick_test/data-fmllr-tri3/train/data/feats_fmllr_train.3.ark:13619287
mrem0_si961 quick_test/data-fmllr-tri3/train/data/feats_fmllr_train.8.ark:16083687
mpmb0_si871 quick_test/data-fmllr-tri3/train/data/feats_fmllr_train.8.ark:8082705
mwem0_sx330 quick_test/data-fmllr-tri3/train/data/feats_fmllr_train.10.ark:15469097
msfv0_sx182 quick_test/data-fmllr-tri3/train/data/feats_fmllr_train.9.ark:15153788
mcdc0_sx302 quick_test/data-fmllr-tri3/train/data/feats_fmllr_train.4.ark:9213517
mjbg0_sx152 quick_test/data-fmllr-tri3/train/data/feats_fmllr_train.6.ark:7768429
mjjb0_si1769 quick_test/data-fmllr-tri3/train/data/feats_fmllr_train.6.ark:12430047
mdma0_si2060 quick_test/data-fmllr-tri3/train/data/feats_fmllr_train.5.ark:5557668
flja0_si2338 quick_test/data-fmllr-tri3/train/data/feats_fmllr_train.2.ark:10900336
mdsj0_si2092 quick_test/data-fmllr-tri3/train/data/feats_fmllr_train.5.ark:8272600
mtmt0_sx128 quick_test/data-fmllr-tri3/train/data/feats_fmllr_train.10.ark:8227956
fleh0_sx331 quick_test/data-fmllr-tri3/train/data/feats_fmllr_train.2.ark:9903604
fpjf0_si1676 quick_test/data-fmllr-tri3/train/data/feats_fmllr_train.3.ark:2938227
fear0_sx82 quick_test/data-fmllr-tri3/train/data/feats_fmllr_train.1.ark:14089720
mrdm0_sx155 quick_test/data-fmllr-tri3/train/data/feats_fmllr_train.8.ark:14560766
fsdj0_si1745 quick_test/data-fmllr-tri3/train/data/feats_fmllr_train.3.ark:7648483
msvs0_si2198 quick_test/data-fmllr-tri3/train/data/feats_fmllr_train.10.ark:41321
mmaa0_sx395 quick_test/data-fmllr-tri3/train/data/feats_fmllr_train.7.ark:12953547
fgrw0_sx162 quick_test/data-fmllr-tri3/train/data/feats_fmllr_train.1.ark:17686288
mjls0_si466 quick_test/data-fmllr-tri3/train/data/feats_fmllr_train.6.ark:14800790
mljc0_sx55 quick_test/data-fmllr-tri3/train/data/feats_fmllr_train.7.ark:11281959
mtml0_si2325 quick_test/data-fmllr-tri3/train/data/feats_fmllr_train.10.ark:7343815
mfxs0_si2225 quick_test/data-fmllr-tri3/train/data/feats_fmllr_train.5.ark:15536937
fsms1_sx334 quick_test/data-fmllr-tri3/train/data/feats_fmllr_train.3.ark:12548636
mmrp0_sx54 quick_test/data-fmllr-tri3/train/data/feats_fmllr_train.8.ark:2506466
fpls0_sx240 quick_test/data-fmllr-tri3/train/data/feats_fmllr_train.3.ark:3394338
fsrh0_sx401 quick_test/data-fmllr-tri3/train/data/feats_fmllr_train.3.ark:13389577
mmgg0_sx359 quick_test/data-fmllr-tri3/train/data/feats_fmllr_train.8.ark:579888
fcyl0_sx37 quick_test/data-fmllr-tri3/train/data/feats_fmllr_train.1.ark:9236844
mgsh0_si546 quick_test/data-fmllr-tri3/train/data/feats_fmllr_train.6.ark:2430332
mkag0_si2239 quick_test/data-fmllr-tri3/train/data/feats_fmllr_train.7.ark:4075651
maeb0_si1411 quick_test/data-fmllr-tri3/train/data/feats_fmllr_train.4.ark:13
mjpm1_sx41 quick_test/data-fmllr-tri3/train/data/feats_fmllr_train.6.ark:17164307
mrtj0_sx52 quick_test/data-fmllr-tri3/train/data/feats_fmllr_train.9.ark:9601355
mrmg0_sx270 quick_test/data-fmllr-tri3/train/data/feats_fmllr_train.9.ark:5704919
fsjg0_sx130 quick_test/data-fmllr-tri3/train/data/feats_fmllr_train.3.ark:8493131
mter0_si527 quick_test/data-fmllr-tri3/train/data/feats_fmllr_train.10.ark:3799462
mzmb0_si536 quick_test/data-fmllr-tri3/train/data/feats_fmllr_train.10.ark:17687756
msat1_sx353 quick_test/data-fmllr-tri3/train/data/feats_fmllr_train.9.ark:12392160
marw0_si646 quick_test/data-fmllr-tri3/train/data/feats_fmllr_train.4.ark:3050287
mrpc1_sx222 quick_test/data-fmllr-tri3/train/data/feats_fmllr_train.9.ark:7239550
mrwa0_sx253 quick_test/data-fmllr-tri3/train/data/feats_fmllr_train.9.ark:10186029
mkxl0_sx375 quick_test/data-fmllr-tri3/train/data/feats_fmllr_train.7.ark:10080348
mrso0_sx399 quick_test/data-fmllr-tri3/train/data/feats_fmllr_train.9.ark:8294944
mmdg0_sx70 quick_test/data-fmllr-tri3/train/data/feats_fmllr_train.7.ark:16216884
mjjj0_sx173 quick_test/data-fmllr-tri3/train/data/feats_fmllr_train.6.ark:12913011
fljg0_sx351 quick_test/data-fmllr-tri3/train/data/feats_fmllr_train.2.ark:11866291
mrjt0_sx238 quick_test/data-fmllr-tri3/train/data/feats_fmllr_train.9.ark:2674063
mwsb0_si1626 quick_test/data-fmllr-tri3/train/data/feats_fmllr_train.10.ark:16797669
mrso0_sx309 quick_test/data-fmllr-tri3/train/data/feats_fmllr_train.9.ark:8183211
mdhl0_sx269 quick_test/data-fmllr-tri3/train/data/feats_fmllr_train.5.ark:1017356
fklc1_sx328 quick_test/data-fmllr-tri3/train/data/feats_fmllr_train.2.ark:7928598
msem1_si810 quick_test/data-fmllr-tri3/train/data/feats_fmllr_train.9.ark:13798069
mtxs0_sx250 quick_test/data-fmllr-tri3/train/data/feats_fmllr_train.10.ark:12125513
mesg0_sx72 quick_test/data-fmllr-tri3/train/data/feats_fmllr_train.5.ark:13330620
mjkr0_si571 quick_test/data-fmllr-tri3/train/data/feats_fmllr_train.6.ark:13664778
mtju0_sx310 quick_test/data-fmllr-tri3/train/data/feats_fmllr_train.10.ark:5538490
mdpb0_sx326 quick_test/data-fmllr-tri3/train/data/feats_fmllr_train.5.ark:6944000
fceg0_sx438 quick_test/data-fmllr-tri3/train/data/feats_fmllr_train.1.ark:6311908
mkag0_si1609 quick_test/data-fmllr-tri3/train/data/feats_fmllr_train.7.ark:4011783
mddc0_sx339 quick_test/data-fmllr-tri3/train/data/feats_fmllr_train.4.ark:16879295
mgag0_sx151 quick_test/data-fmllr-tri3/train/data/feats_fmllr_train.5.ark:16727403
mcef0_si1765 quick_test/data-fmllr-tri3/train/data/feats_fmllr_train.4.ark:10169740
fksr0_sx397 quick_test/data-fmllr-tri3/train/data/feats_fmllr_train.2.ark:8818525
mwem0_si1320 quick_test/data-fmllr-tri3/train/data/feats_fmllr_train.10.ark:15248000
mwre0_sx337 quick_test/data-fmllr-tri3/train/data/feats_fmllr_train.10.ark:16264092
mwsb0_sx186 quick_test/data-fmllr-tri3/train/data/feats_fmllr_train.10.ark:16945271
mjpg0_sx111 quick_test/data-fmllr-tri3/train/data/feats_fmllr_train.6.ark:16271606
mtpf0_sx245 quick_test/data-fmllr-tri3/train/data/feats_fmllr_train.10.ark:8636360
mwsb0_si996 quick_test/data-fmllr-tri3/train/data/feats_fmllr_train.10.ark:16875644
mewm0_sx448 quick_test/data-fmllr-tri3/train/data/feats_fmllr_train.5.ark:13941906
mbcg0_si957 quick_test/data-fmllr-tri3/train/data/feats_fmllr_train.4.ark:4183098
mtbc0_si1803 quick_test/data-fmllr-tri3/train/data/feats_fmllr_train.10.ark:2089446
msas0_sx206 quick_test/data-fmllr-tri3/train/data/feats_fmllr_train.9.ark:11667698
fsgf0_si2187 quick_test/data-fmllr-tri3/train/data/feats_fmllr_train.3.ark:7959420
mmxs0_sx246 quick_test/data-fmllr-tri3/train/data/feats_fmllr_train.8.ark:4793767
mjde0_si463 quick_test/data-fmllr-tri3/train/data/feats_fmllr_train.6.ark:8827426
mhrm0_sx58 quick_test/data-fmllr-tri3/train/data/feats_fmllr_train.6.ark:5670117
mwad0_sx162 quick_test/data-fmllr-tri3/train/data/feats_fmllr_train.10.ark:13985292
msds0_sx357 quick_test/data-fmllr-tri3/train/data/feats_fmllr_train.9.ark:13497133
mwar0_si2305 quick_test/data-fmllr-tri3/train/data/feats_fmllr_train.10.ark:14290443
mlel0_sx436 quick_test/data-fmllr-tri3/train/data/feats_fmllr_train.7.ark:10840436
mtpf0_sx335 quick_test/data-fmllr-tri3/train/data/feats_fmllr_train.10.ark:8690307
mgjc0_sx75 quick_test/data-fmllr-tri3/train/data/feats_fmllr_train.6.ark:1459095
mjpm0_sx18 quick_test/data-fmllr-tri3/train/data/feats_fmllr_train.6.ark:16650089
mljc0_sx145 quick_test/data-fmllr-tri3/train/data/feats_fmllr_train.7.ark:11102492
fjxp0_sx402 quick_test/data-fmllr-tri3/train/data/feats_fmllr_train.2.ark:5114944
ftmg0_sx272 quick_test/data-fmllr-tri3/train/data/feats_fmllr_train.3.ark:15565864
mrws0_si1732 quick_test/data-fmllr-tri3/train/data/feats_fmllr_train.9.ark:10440565
mcew0_sx182 quick_test/data-fmllr-tri3/train/data/feats_fmllr_train.4.ark:10688731
mpgr1_si2129 quick_test/data-fmllr-tri3/train/data/feats_fmllr_train.8.ark:7602328
flet0_sx277 quick_test/data-fmllr-tri3/train/data/feats_fmllr_train.2.ark:10296301
mesj0_si2257 quick_test/data-fmllr-tri3/train/data/feats_fmllr_train.5.ark:13431316
fmem0_sx117 quick_test/data-fmllr-tri3/train/data/feats_fmllr_train.2.ark:15257311
mbth0_sx392 quick_test/data-fmllr-tri3/train/data/feats_fmllr_train.4.ark:7656704
mcae0_si817 quick_test/data-fmllr-tri3/train/data/feats_fmllr_train.4.ark:8285644
mesj0_sx277 quick_test/data-fmllr-tri3/train/data/feats_fmllr_train.5.ark:13550757
mcdc0_si1292 quick_test/data-fmllr-tri3/train/data/feats_fmllr_train.4.ark:8986501
fgcs0_sx406 quick_test/data-fmllr-tri3/train/data/feats_fmllr_train.1.ark:16522197
mlbc0_sx429 quick_test/data-fmllr-tri3/train/data/feats_fmllr_train.7.ark:10408219
mjmm0_sx85 quick_test/data-fmllr-tri3/train/data/feats_fmllr_train.6.ark:16072776
mewm0_sx88 quick_test/data-fmllr-tri3/train/data/feats_fmllr_train.5.ark:13974412
mrcw0_si741 quick_test/data-fmllr-tri3/train/data/feats_fmllr_train.8.ark:13797904
mdmt0_sx32 quick_test/data-fmllr-tri3/train/data/feats_fmllr_train.5.ark:6189992
flmk0_sx225 quick_test/data-fmllr-tri3/train/data/feats_fmllr_train.2.ark:13416892
mpmb0_sx241 quick_test/data-fmllr-tri3/train/data/feats_fmllr_train.8.ark:8248839
mfwk0_sx79 quick_test/data-fmllr-tri3/train/data/feats_fmllr_train.5.ark:15453841
flet0_si507 quick_test/data-fmllr-tri3/train/data/feats_fmllr_train.2.ark:10154460
mdlc2_sx354 quick_test/data-fmllr-tri3/train/data/feats_fmllr_train.5.ark:3781944
mbjv0_si1247 quick_test/data-fmllr-tri3/train/data/feats_fmllr_train.4.ark:5198254
mkls1_sx195 quick_test/data-fmllr-tri3/train/data/feats_fmllr_train.7.ark:8868442
mdhl0_sx89 quick_test/data-fmllr-tri3/train/data/feats_fmllr_train.5.ark:1165276
mcef0_sx325 quick_test/data-fmllr-tri3/train/data/feats_fmllr_train.4.ark:10361368
mrcw0_sx111 quick_test/data-fmllr-tri3/train/data/feats_fmllr_train.8.ark:13866891
mrav0_sx198 quick_test/data-fmllr-tri3/train/data/feats_fmllr_train.8.ark:12731093
mmcc0_sx168 quick_test/data-fmllr-tri3/train/data/feats_fmllr_train.7.ark:15258263
falr0_sx245 quick_test/data-fmllr-tri3/train/data/feats_fmllr_train.1.ark:1396288
mesg0_sx342 quick_test/data-fmllr-tri3/train/data/feats_fmllr_train.5.ark:13213127
mefg0_si598 quick_test/data-fmllr-tri3/train/data/feats_fmllr_train.5.ark:11534420
mpgh0_sx204 quick_test/data-fmllr-tri3/train/data/feats_fmllr_train.8.ark:7021947
fjwb1_sx75 quick_test/data-fmllr-tri3/train/data/feats_fmllr_train.2.ark:4365896
mgaw0_sx85 quick_test/data-fmllr-tri3/train/data/feats_fmllr_train.6.ark:716580
fskc0_sx246 quick_test/data-fmllr-tri3/train/data/feats_fmllr_train.3.ark:10161386
mjwt0_si751 quick_test/data-fmllr-tri3/train/data/feats_fmllr_train.7.ark:2966867
fapb0_sx163 quick_test/data-fmllr-tri3/train/data/feats_fmllr_train.1.ark:1767839
mprb0_sx125 quick_test/data-fmllr-tri3/train/data/feats_fmllr_train.8.ark:9127006
mtrr0_sx378 quick_test/data-fmllr-tri3/train/data/feats_fmllr_train.10.ark:11132621
mwad0_sx432 quick_test/data-fmllr-tri3/train/data/feats_fmllr_train.10.ark:14094333
mdwh0_si665 quick_test/data-fmllr-tri3/train/data/feats_fmllr_train.5.ark:10049073
fcaj0_sx219 quick_test/data-fmllr-tri3/train/data/feats_fmllr_train.1.ark:5394460
mrgs0_sx276 quick_test/data-fmllr-tri3/train/data/feats_fmllr_train.9.ark:214522
mmxs0_sx336 quick_test/data-fmllr-tri3/train/data/feats_fmllr_train.8.ark:4831234
fgmb0_sx335 quick_test/data-fmllr-tri3/train/data/feats_fmllr_train.1.ark:17345804
mhit0_sx263 quick_test/data-fmllr-tri3/train/data/feats_fmllr_train.6.ark:4126608
mcdd0_sx163 quick_test/data-fmllr-tri3/train/data/feats_fmllr_train.4.ark:9474800
mprb0_si1215 quick_test/data-fmllr-tri3/train/data/feats_fmllr_train.8.ark:8965832
mdlc0_sx225 quick_test/data-fmllr-tri3/train/data/feats_fmllr_train.5.ark:3020202
fkde0_sx331 quick_test/data-fmllr-tri3/train/data/feats_fmllr_train.2.ark:5895192
mklw0_si1844 quick_test/data-fmllr-tri3/train/data/feats_fmllr_train.7.ark:9072552
mdjm0_si2085 quick_test/data-fmllr-tri3/train/data/feats_fmllr_train.5.ark:1629389
mjxl0_si1795 quick_test/data-fmllr-tri3/train/data/feats_fmllr_train.7.ark:3687114
mjdg0_sx322 quick_test/data-fmllr-tri3/train/data/feats_fmllr_train.6.ark:9492392
fnkl0_sx196 quick_test/data-fmllr-tri3/train/data/feats_fmllr_train.3.ark:207642
flhd0_si1344 quick_test/data-fmllr-tri3/train/data/feats_fmllr_train.2.ark:10420862
mrgm0_sx172 quick_test/data-fmllr-tri3/train/data/feats_fmllr_train.8.ark:17673703
mgar0_sx312 quick_test/data-fmllr-tri3/train/data/feats_fmllr_train.6.ark:234870
msrg0_si591 quick_test/data-fmllr-tri3/train/data/feats_fmllr_train.9.ark:17071165
mctm0_sx180 quick_test/data-fmllr-tri3/train/data/feats_fmllr_train.4.ark:13776707
mljc0_sx235 quick_test/data-fmllr-tri3/train/data/feats_fmllr_train.7.ark:11149559
mtlc0_si1313 quick_test/data-fmllr-tri3/train/data/feats_fmllr_train.10.ark:6890262
mbar0_sx149 quick_test/data-fmllr-tri3/train/data/feats_fmllr_train.4.ark:3512771
mrpc1_si2112 quick_test/data-fmllr-tri3/train/data/feats_fmllr_train.9.ark:7170696
fhxs0_sx265 quick_test/data-fmllr-tri3/train/data/feats_fmllr_train.1.ark:18663231
fdfb0_si1318 quick_test/data-fmllr-tri3/train/data/feats_fmllr_train.1.ark:10142134
mtjs0_si1192 quick_test/data-fmllr-tri3/train/data/feats_fmllr_train.10.ark:4850137
megj0_sx3 quick_test/data-fmllr-tri3/train/data/feats_fmllr_train.5.ark:12118076
mdlc1_si2144 quick_test/data-fmllr-tri3/train/data/feats_fmllr_train.5.ark:3334126
mprb0_sx305 quick_test/data-fmllr-tri3/train/data/feats_fmllr_train.8.ark:9233780
fjdm2_si1582 quick_test/data-fmllr-tri3/train/data/feats_fmllr_train.2.ark:13
mcre0_si1121 quick_test/data-fmllr-tri3/train/data/feats_fmllr_train.4.ark:12454695
mtat0_sx120 quick_test/data-fmllr-tri3/train/data/feats_fmllr_train.10.ark:1429386
ftlg0_si483 quick_test/data-fmllr-tri3/train/data/feats_fmllr_train.3.ark:15046366
mdjm0_sx285 quick_test/data-fmllr-tri3/train/data/feats_fmllr_train.5.ark:1840083
mwrp0_sx3 quick_test/data-fmllr-tri3/train/data/feats_fmllr_train.10.ark:16676468
mtjg0_sx260 quick_test/data-fmllr-tri3/train/data/feats_fmllr_train.10.ark:4270132
makb0_sx116 quick_test/data-fmllr-tri3/train/data/feats_fmllr_train.4.ark:1725126
mmea0_sx218 quick_test/data-fmllr-tri3/train/data/feats_fmllr_train.7.ark:17492552
mkah0_sx88 quick_test/data-fmllr-tri3/train/data/feats_fmllr_train.7.ark:4757948
flac0_sx271 quick_test/data-fmllr-tri3/train/data/feats_fmllr_train.2.ark:9044422
fsdc0_si1312 quick_test/data-fmllr-tri3/train/data/feats_fmllr_train.3.ark:7225517
fmmh0_sx187 quick_test/data-fmllr-tri3/train/data/feats_fmllr_train.2.ark:17703731
mmar0_sx256 quick_test/data-fmllr-tri3/train/data/feats_fmllr_train.7.ark:14439936
mmgk0_si1952 quick_test/data-fmllr-tri3/train/data/feats_fmllr_train.8.ark:793277
fbjl0_sx202 quick_test/data-fmllr-tri3/train/data/feats_fmllr_train.1.ark:3484094
mdas0_sx6 quick_test/data-fmllr-tri3/train/data/feats_fmllr_train.4.ark:15034236
mrfk0_si1076 quick_test/data-fmllr-tri3/train/data/feats_fmllr_train.8.ark:16712386
mrmb0_si2211 quick_test/data-fmllr-tri3/train/data/feats_fmllr_train.9.ark:5188780
fjxm0_si1211 quick_test/data-fmllr-tri3/train/data/feats_fmllr_train.2.ark:4400324
mmgc0_si2184 quick_test/data-fmllr-tri3/train/data/feats_fmllr_train.8.ark:120549
madc0_sx287 quick_test/data-fmllr-tri3/train/data/feats_fmllr_train.3.ark:17492123
marc0_sx198 quick_test/data-fmllr-tri3/train/data/feats_fmllr_train.4.ark:2849030
fdaw0_si2036 quick_test/data-fmllr-tri3/train/data/feats_fmllr_train.1.ark:9848852
mbsb0_si1353 quick_test/data-fmllr-tri3/train/data/feats_fmllr_train.4.ark:7009901
flod0_sx297 quick_test/data-fmllr-tri3/train/data/feats_fmllr_train.2.ark:13860523
mbcg0_si486 quick_test/data-fmllr-tri3/train/data/feats_fmllr_train.4.ark:4155871
fssb0_sx182 quick_test/data-fmllr-tri3/train/data/feats_fmllr_train.3.ark:13643314
mhmg0_sx195 quick_test/data-fmllr-tri3/train/data/feats_fmllr_train.6.ark:4844029
fsma0_sx271 quick_test/data-fmllr-tri3/train/data/feats_fmllr_train.3.ark:11689775
mkdt0_si893 quick_test/data-fmllr-tri3/train/data/feats_fmllr_train.7.ark:6433458
mgag0_sx331 quick_test/data-fmllr-tri3/train/data/feats_fmllr_train.5.ark:16805697
mrtc0_sx198 quick_test/data-fmllr-tri3/train/data/feats_fmllr_train.9.ark:9026044
msrr0_sx30 quick_test/data-fmllr-tri3/train/data/feats_fmllr_train.9.ark:17604582
fetb0_sx68 quick_test/data-fmllr-tri3/train/data/feats_fmllr_train.1.ark:15752188
mdhs0_sx90 quick_test/data-fmllr-tri3/train/data/feats_fmllr_train.5.ark:1524053
mclk0_si650 quick_test/data-fmllr-tri3/train/data/feats_fmllr_train.4.ark:11457939
mvjh0_sx26 quick_test/data-fmllr-tri3/train/data/feats_fmllr_train.10.ark:12595356
mpgr0_si780 quick_test/data-fmllr-tri3/train/data/feats_fmllr_train.8.ark:7244190
mrlk0_sx213 quick_test/data-fmllr-tri3/train/data/feats_fmllr_train.9.ark:4638827
fsls0_si1686 quick_test/data-fmllr-tri3/train/data/feats_fmllr_train.3.ark:11142596
fklh0_si1257 quick_test/data-fmllr-tri3/train/data/feats_fmllr_train.2.ark:8100519
mjbg0_si1862 quick_test/data-fmllr-tri3/train/data/feats_fmllr_train.6.ark:7726962
mmeb0_sx367 quick_test/data-fmllr-tri3/train/data/feats_fmllr_train.7.ark:17883676
mbcg0_si2217 quick_test/data-fmllr-tri3/train/data/feats_fmllr_train.4.ark:4113444
mjfr0_sx345 quick_test/data-fmllr-tri3/train/data/feats_fmllr_train.6.ark:11772894
mrlj1_sx231 quick_test/data-fmllr-tri3/train/data/feats_fmllr_train.9.ark:4245810
fgmb0_sx155 quick_test/data-fmllr-tri3/train/data/feats_fmllr_train.1.ark:17233270
mkls1_sx285 quick_test/data-fmllr-tri3/train/data/feats_fmllr_train.7.ark:8899829
mjra0_sx336 quick_test/data-fmllr-tri3/train/data/feats_fmllr_train.6.ark:17450231
fsjg0_sx40 quick_test/data-fmllr-tri3/train/data/feats_fmllr_train.3.ark:8690971
mdks0_si1066 quick_test/data-fmllr-tri3/train/data/feats_fmllr_train.5.ark:1926538
mrlk0_sx393 quick_test/data-fmllr-tri3/train/data/feats_fmllr_train.9.ark:4740027
fbcg1_sx262 quick_test/data-fmllr-tri3/train/data/feats_fmllr_train.1.ark:2640621
feeh0_sx302 quick_test/data-fmllr-tri3/train/data/feats_fmllr_train.1.ark:14851381
mafm0_si939 quick_test/data-fmllr-tri3/train/data/feats_fmllr_train.4.ark:787543
flag0_sx24 quick_test/data-fmllr-tri3/train/data/feats_fmllr_train.2.ark:9512825
mjac0_si1331 quick_test/data-fmllr-tri3/train/data/feats_fmllr_train.6.ark:6468495
mwac0_sx251 quick_test/data-fmllr-tri3/train/data/feats_fmllr_train.10.ark:13646381
mrlk0_si1468 quick_test/data-fmllr-tri3/train/data/feats_fmllr_train.9.ark:4399358
mrpc1_sx132 quick_test/data-fmllr-tri3/train/data/feats_fmllr_train.9.ark:7204643
mbth0_si757 quick_test/data-fmllr-tri3/train/data/feats_fmllr_train.4.ark:7422010
mwch0_sx362 quick_test/data-fmllr-tri3/train/data/feats_fmllr_train.10.ark:14722902
mmam0_sx157 quick_test/data-fmllr-tri3/train/data/feats_fmllr_train.7.ark:13974892
fkfb0_sx258 quick_test/data-fmllr-tri3/train/data/feats_fmllr_train.2.ark:6635439
mtcs0_sx442 quick_test/data-fmllr-tri3/train/data/feats_fmllr_train.10.ark:2728518
fgdp0_sx268 quick_test/data-fmllr-tri3/train/data/feats_fmllr_train.1.ark:16821240
fcjf0_sx397 quick_test/data-fmllr-tri3/train/data/feats_fmllr_train.1.ark:6661431
fdas1_sx201 quick_test/data-fmllr-tri3/train/data/feats_fmllr_train.1.ark:9563248
mlel0_si1246 quick_test/data-fmllr-tri3/train/data/feats_fmllr_train.7.ark:10498193
mdjm0_si1455 quick_test/data-fmllr-tri3/train/data/feats_fmllr_train.5.ark:1555441
mdtb0_sx300 quick_test/data-fmllr-tri3/train/data/feats_fmllr_train.5.ark:9452239
mrpc1_si2026 quick_test/data-fmllr-tri3/train/data/feats_fmllr_train.9.ark:7143468
mgar0_sx222 quick_test/data-fmllr-tri3/train/data/feats_fmllr_train.6.ark:181083
mklw0_sx401 quick_test/data-fmllr-tri3/train/data/feats_fmllr_train.7.ark:9290608
mfxv0_sx105 quick_test/data-fmllr-tri3/train/data/feats_fmllr_train.5.ark:16034970
mmar0_sx436 quick_test/data-fmllr-tri3/train/data/feats_fmllr_train.7.ark:14568310
makb0_sx296 quick_test/data-fmllr-tri3/train/data/feats_fmllr_train.4.ark:1875446
mcdd0_sx343 quick_test/data-fmllr-tri3/train/data/feats_fmllr_train.4.ark:9550694
fecd0_si2048 quick_test/data-fmllr-tri3/train/data/feats_fmllr_train.1.ark:14225136
mkdd0_sx37 quick_test/data-fmllr-tri3/train/data/feats_fmllr_train.7.ark:6230309
mwac0_sx161 quick_test/data-fmllr-tri3/train/data/feats_fmllr_train.10.ark:13575474
mrlr0_si1196 quick_test/data-fmllr-tri3/train/data/feats_fmllr_train.9.ark:4783575
mbbr0_sx425 quick_test/data-fmllr-tri3/train/data/feats_fmllr_train.4.ark:4048590
mpeb0_sx330 quick_test/data-fmllr-tri3/train/data/feats_fmllr_train.8.ark:6262501
mdwm0_sx433 quick_test/data-fmllr-tri3/train/data/feats_fmllr_train.5.ark:10725744
fntb0_si1203 quick_test/data-fmllr-tri3/train/data/feats_fmllr_train.3.ark:378950
mwsh0_sx166 quick_test/data-fmllr-tri3/train/data/feats_fmllr_train.10.ark:17320686
mrjh0_si889 quick_test/data-fmllr-tri3/train/data/feats_fmllr_train.9.ark:1312850
mjwg0_sx265 quick_test/data-fmllr-tri3/train/data/feats_fmllr_train.7.ark:2230967
mkah0_sx448 quick_test/data-fmllr-tri3/train/data/feats_fmllr_train.7.ark:4713762
ftaj0_sx429 quick_test/data-fmllr-tri3/train/data/feats_fmllr_train.3.ark:14137851
mtcs0_sx352 quick_test/data-fmllr-tri3/train/data/feats_fmllr_train.10.ark:2665451
mjrh0_sx135 quick_test/data-fmllr-tri3/train/data/feats_fmllr_train.7.ark:164736
fklc0_sx445 quick_test/data-fmllr-tri3/train/data/feats_fmllr_train.2.ark:7620887
mrjh0_sx259 quick_test/data-fmllr-tri3/train/data/feats_fmllr_train.9.ark:1496451
mrjh0_si1519 quick_test/data-fmllr-tri3/train/data/feats_fmllr_train.9.ark:1237303
mcdd0_sx253 quick_test/data-fmllr-tri3/train/data/feats_fmllr_train.4.ark:9517547
fcaj0_si849 quick_test/data-fmllr-tri3/train/data/feats_fmllr_train.1.ark:5292966
mmab1_si2124 quick_test/data-fmllr-tri3/train/data/feats_fmllr_train.7.ark:13025443
mrbc0_sx239 quick_test/data-fmllr-tri3/train/data/feats_fmllr_train.8.ark:13038644
fgcs0_sx136 quick_test/data-fmllr-tri3/train/data/feats_fmllr_train.1.ark:16375236
mwsh0_si2266 quick_test/data-fmllr-tri3/train/data/feats_fmllr_train.10.ark:17211512
fnkl0_si892 quick_test/data-fmllr-tri3/train/data/feats_fmllr_train.3.ark:81348
fblv0_sx338 quick_test/data-fmllr-tri3/train/data/feats_fmllr_train.1.ark:3930739
mfxs0_sx414 quick_test/data-fmllr-tri3/train/data/feats_fmllr_train.5.ark:15763633
mkxl0_si1185 quick_test/data-fmllr-tri3/train/data/feats_fmllr_train.7.ark:9755998
mwrp0_sx273 quick_test/data-fmllr-tri3/train/data/feats_fmllr_train.10.ark:16633883
mrmg0_sx450 quick_test/data-fmllr-tri3/train/data/feats_fmllr_train.9.ark:5796333
fhlm0_sx210 quick_test/data-fmllr-tri3/train/data/feats_fmllr_train.1.ark:18143172
mtdb0_si771 quick_test/data-fmllr-tri3/train/data/feats_fmllr_train.10.ark:2927027
mvrw0_sx315 quick_test/data-fmllr-tri3/train/data/feats_fmllr_train.10.ark:13299151
mpsw0_sx257 quick_test/data-fmllr-tri3/train/data/feats_fmllr_train.8.ark:10814167
mdhs0_si1530 quick_test/data-fmllr-tri3/train/data/feats_fmllr_train.5.ark:1207864
mjeb1_si2097 quick_test/data-fmllr-tri3/train/data/feats_fmllr_train.6.ark:10492135
mjjb0_si1277 quick_test/data-fmllr-tri3/train/data/feats_fmllr_train.6.ark:12393539
mdhl0_si1439 quick_test/data-fmllr-tri3/train/data/feats_fmllr_train.5.ark:826207
fjlr0_si601 quick_test/data-fmllr-tri3/train/data/feats_fmllr_train.2.ark:2090917
fjxm0_si581 quick_test/data-fmllr-tri3/train/data/feats_fmllr_train.2.ark:4480219
mcef0_si842 quick_test/data-fmllr-tri3/train/data/feats_fmllr_train.4.ark:10211847
mdns0_si1011 quick_test/data-fmllr-tri3/train/data/feats_fmllr_train.5.ark:6279327
msds0_sx267 quick_test/data-fmllr-tri3/train/data/feats_fmllr_train.9.ark:13429586
mmeb0_si1987 quick_test/data-fmllr-tri3/train/data/feats_fmllr_train.7.ark:17716848
mcth0_sx399 quick_test/data-fmllr-tri3/train/data/feats_fmllr_train.4.ark:13570997
mlbc0_sx249 quick_test/data-fmllr-tri3/train/data/feats_fmllr_train.7.ark:10331045
mbjv0_sx257 quick_test/data-fmllr-tri3/train/data/feats_fmllr_train.4.ark:5381723
mjra0_sx246 quick_test/data-fmllr-tri3/train/data/feats_fmllr_train.6.ark:17412764
mhjb0_si1017 quick_test/data-fmllr-tri3/train/data/feats_fmllr_train.6.ark:4299836
fjsk0_si1682 quick_test/data-fmllr-tri3/train/data/feats_fmllr_train.2.ark:3336661
mtwh1_sx342 quick_test/data-fmllr-tri3/train/data/feats_fmllr_train.10.ark:11759082
fjwb1_si2055 quick_test/data-fmllr-tri3/train/data/feats_fmllr_train.2.ark:4039308
mtjs0_sx112 quick_test/data-fmllr-tri3/train/data/feats_fmllr_train.10.ark:5058059
mtpp0_sx68 quick_test/data-fmllr-tri3/train/data/feats_fmllr_train.10.ark:9479274
mtpg0_si1383 quick_test/data-fmllr-tri3/train/data/feats_fmllr_train.10.ark:8808948
mkxl0_sx105 quick_test/data-fmllr-tri3/train/data/feats_fmllr_train.7.ark:9931441
msat1_sx263 quick_test/data-fmllr-tri3/train/data/feats_fmllr_train.9.ark:12353413
flkm0_sx350 quick_test/data-fmllr-tri3/train/data/feats_fmllr_train.2.ark:12303627
mklr0_si2319 quick_test/data-fmllr-tri3/train/data/feats_fmllr_train.7.ark:7958807
mctm0_si720 quick_test/data-fmllr-tri3/train/data/feats_fmllr_train.4.ark:13742760
mrgm0_si532 quick_test/data-fmllr-tri3/train/data/feats_fmllr_train.8.ark:17597196
fmjb0_sx187 quick_test/data-fmllr-tri3/train/data/feats_fmllr_train.2.ark:15715129
mges0_si2111 quick_test/data-fmllr-tri3/train/data/feats_fmllr_train.6.ark:772156
msfh0_sx136 quick_test/data-fmllr-tri3/train/data/feats_fmllr_train.9.ark:14698531
mdjm0_si825 quick_test/data-fmllr-tri3/train/data/feats_fmllr_train.5.ark:1679496
mdac0_si1261 quick_test/data-fmllr-tri3/train/data/feats_fmllr_train.4.ark:14365379
mrpc1_sx402 quick_test/data-fmllr-tri3/train/data/feats_fmllr_train.9.ark:7345684
mbom0_si1644 quick_test/data-fmllr-tri3/train/data/feats_fmllr_train.4.ark:6738350
mrab1_sx308 quick_test/data-fmllr-tri3/train/data/feats_fmllr_train.8.ark:11565801
mtqc0_sx451 quick_test/data-fmllr-tri3/train/data/feats_fmllr_train.10.ark:10336002
fexm0_si1731 quick_test/data-fmllr-tri3/train/data/feats_fmllr_train.1.ark:15844404
mrfl0_sx436 quick_test/data-fmllr-tri3/train/data/feats_fmllr_train.8.ark:17399327
mree0_si1104 quick_test/data-fmllr-tri3/train/data/feats_fmllr_train.8.ark:15129918
mbar0_sx239 quick_test/data-fmllr-tri3/train/data/feats_fmllr_train.4.ark:3571998
mefg0_sx105 quick_test/data-fmllr-tri3/train/data/feats_fmllr_train.5.ark:11607567
fgcs0_sx316 quick_test/data-fmllr-tri3/train/data/feats_fmllr_train.1.ark:16484570
mpgr0_si1410 quick_test/data-fmllr-tri3/train/data/feats_fmllr_train.8.ark:7151815
mlns0_si2037 quick_test/data-fmllr-tri3/train/data/feats_fmllr_train.7.ark:11867992
mbth0_sx212 quick_test/data-fmllr-tri3/train/data/feats_fmllr_train.4.ark:7512944
fmbg0_si1790 quick_test/data-fmllr-tri3/train/data/feats_fmllr_train.2.ark:14791121
flma0_sx343 quick_test/data-fmllr-tri3/train/data/feats_fmllr_train.2.ark:12687844
mdwm0_sx106 quick_test/data-fmllr-tri3/train/data/feats_fmllr_train.5.ark:10549157
fjxp0_sx42 quick_test/data-fmllr-tri3/train/data/feats_fmllr_train.2.ark:5162330
mwgr0_si1606 quick_test/data-fmllr-tri3/train/data/feats_fmllr_train.10.ark:15655898
mrdm0_si965 quick_test/data-fmllr-tri3/train/data/feats_fmllr_train.8.ark:14517059
fsls0_sx66 quick_test/data-fmllr-tri3/train/data/feats_fmllr_train.3.ark:11441638
mrkm0_sx7 quick_test/data-fmllr-tri3/train/data/feats_fmllr_train.9.ark:3287132
mtrt0_sx147 quick_test/data-fmllr-tri3/train/data/feats_fmllr_train.10.ark:11359291
fleh0_sx241 quick_test/data-fmllr-tri3/train/data/feats_fmllr_train.2.ark:9859897
mrtj0_sx232 quick_test/data-fmllr-tri3/train/data/feats_fmllr_train.9.ark:9429915
fdjh0_sx305 quick_test/data-fmllr-tri3/train/data/feats_fmllr_train.1.ark:10710008
fcrz0_si1913 quick_test/data-fmllr-tri3/train/data/feats_fmllr_train.1.ark:8563505
mmdg0_sx160 quick_test/data-fmllr-tri3/train/data/feats_fmllr_train.7.ark:15979657
mwre0_si1687 quick_test/data-fmllr-tri3/train/data/feats_fmllr_train.10.ark:16092143
mrkm0_sx367 quick_test/data-fmllr-tri3/train/data/feats_fmllr_train.9.ark:3223427
mgar0_si1694 quick_test/data-fmllr-tri3/train/data/feats_fmllr_train.6.ark:59241
mgag0_sx61 quick_test/data-fmllr-tri3/train/data/feats_fmllr_train.5.ark:16879670
fcmm0_sx93 quick_test/data-fmllr-tri3/train/data/feats_fmllr_train.1.ark:8528917
fsdc0_sx52 quick_test/data-fmllr-tri3/train/data/feats_fmllr_train.3.ark:7531627
ftlg0_si840 quick_test/data-fmllr-tri3/train/data/feats_fmllr_train.3.ark:15123033
mrds0_si1167 quick_test/data-fmllr-tri3/train/data/feats_fmllr_train.8.ark:14788261
mrms0_si2100 quick_test/data-fmllr-tri3/train/data/feats_fmllr_train.9.ark:6872078
fvkb0_sx259 quick_test/data-fmllr-tri3/train/data/feats_fmllr_train.3.ark:16264699
mjee0_sx337 quick_test/data-fmllr-tri3/train/data/feats_fmllr_train.6.ark:11061420
mdss1_sx67 quick_test/data-fmllr-tri3/train/data/feats_fmllr_train.5.ark:9202795
fjsp0_sx354 quick_test/data-fmllr-tri3/train/data/feats_fmllr_train.2.ark:3894747
fskp0_sx108 quick_test/data-fmllr-tri3/train/data/feats_fmllr_train.3.ark:10887713
fmmh0_sx97 quick_test/data-fmllr-tri3/train/data/feats_fmllr_train.2.ark:17889436
mdac0_sx361 quick_test/data-fmllr-tri3/train/data/feats_fmllr_train.4.ark:14627755
mcth0_si1839 quick_test/data-fmllr-tri3/train/data/feats_fmllr_train.4.ark:13289716
mdtb0_si570 quick_test/data-fmllr-tri3/train/data/feats_fmllr_train.5.ark:9315038
mses0_si1589 quick_test/data-fmllr-tri3/train/data/feats_fmllr_train.9.ark:14166391
flet0_sx417 quick_test/data-fmllr-tri3/train/data/feats_fmllr_train.2.ark:10331208
mtqc0_sx271 quick_test/data-fmllr-tri3/train/data/feats_fmllr_train.10.ark:10227148
mdwd0_sx90 quick_test/data-fmllr-tri3/train/data/feats_fmllr_train.5.ark:9899710
mbma0_si1222 quick_test/data-fmllr-tri3/train/data/feats_fmllr_train.4.ark:5550791
mcae0_si2077 quick_test/data-fmllr-tri3/train/data/feats_fmllr_train.4.ark:8199057
fcdr1_sx16 quick_test/data-fmllr-tri3/train/data/feats_fmllr_train.1.ark:5875636
falr0_si695 quick_test/data-fmllr-tri3/train/data/feats_fmllr_train.1.ark:1302954
mpgr1_si1269 quick_test/data-fmllr-tri3/train/data/feats_fmllr_train.8.ark:7506592
mtkp0_si454 quick_test/data-fmllr-tri3/train/data/feats_fmllr_train.10.ark:6223643
marw0_sx349 quick_test/data-fmllr-tri3/train/data/feats_fmllr_train.4.ark:3247034
mtxs0_sx340 quick_test/data-fmllr-tri3/train/data/feats_fmllr_train.10.ark:12178020
fcaj0_sx399 quick_test/data-fmllr-tri3/train/data/feats_fmllr_train.1.ark:5537260
mhjb0_sx387 quick_test/data-fmllr-tri3/train/data/feats_fmllr_train.6.ark:4566106
mprd0_si2061 quick_test/data-fmllr-tri3/train/data/feats_fmllr_train.8.ark:9443649
mgrl0_si867 quick_test/data-fmllr-tri3/train/data/feats_fmllr_train.6.ark:1588618
mtrc0_si993 quick_test/data-fmllr-tri3/train/data/feats_fmllr_train.10.ark:10573390
fcke0_si481 quick_test/data-fmllr-tri3/train/data/feats_fmllr_train.1.ark:7149091
ftlg0_sx393 quick_test/data-fmllr-tri3/train/data/feats_fmllr_train.3.ark:15339807
mrav0_sx108 quick_test/data-fmllr-tri3/train/data/feats_fmllr_train.8.ark:12654080
mtjs0_si1822 quick_test/data-fmllr-tri3/train/data/feats_fmllr_train.10.ark:4887605
fjsk0_sx242 quick_test/data-fmllr-tri3/train/data/feats_fmllr_train.2.ark:3458183
mdbp0_sx438 quick_test/data-fmllr-tri3/train/data/feats_fmllr_train.4.ark:15781551
mkrg0_sx141 quick_test/data-fmllr-tri3/train/data/feats_fmllr_train.7.ark:9582104
mrjb1_sx120 quick_test/data-fmllr-tri3/train/data/feats_fmllr_train.9.ark:999088
mmrp0_sx234 quick_test/data-fmllr-tri3/train/data/feats_fmllr_train.8.ark:2323026
fsjk1_sx215 quick_test/data-fmllr-tri3/train/data/feats_fmllr_train.3.ark:8999775
feac0_si1245 quick_test/data-fmllr-tri3/train/data/feats_fmllr_train.1.ark:13343074
mded0_sx180 quick_test/data-fmllr-tri3/train/data/feats_fmllr_train.4.ark:17174498
mjxa0_sx67 quick_test/data-fmllr-tri3/train/data/feats_fmllr_train.7.ark:3561298
fgmb0_si1145 quick_test/data-fmllr-tri3/train/data/feats_fmllr_train.1.ark:17059428
fcag0_sx243 quick_test/data-fmllr-tri3/train/data/feats_fmllr_train.1.ark:5040003
mkjo0_sx437 quick_test/data-fmllr-tri3/train/data/feats_fmllr_train.7.ark:7400080
mbml0_sx89 quick_test/data-fmllr-tri3/train/data/feats_fmllr_train.4.ark:6638774
fcmm0_sx273 quick_test/data-fmllr-tri3/train/data/feats_fmllr_train.1.ark:8376837
mjxl0_sx182 quick_test/data-fmllr-tri3/train/data/feats_fmllr_train.7.ark:3759968
fleh0_sx151 quick_test/data-fmllr-tri3/train/data/feats_fmllr_train.2.ark:9805150
mhmr0_sx219 quick_test/data-fmllr-tri3/train/data/feats_fmllr_train.6.ark:5170300
mkam0_si1316 quick_test/data-fmllr-tri3/train/data/feats_fmllr_train.7.ark:5210221
mkln0_sx248 quick_test/data-fmllr-tri3/train/data/feats_fmllr_train.7.ark:7677363
mjsr0_sx74 quick_test/data-fmllr-tri3/train/data/feats_fmllr_train.7.ark:1893391
mtjs0_sx22 quick_test/data-fmllr-tri3/train/data/feats_fmllr_train.10.ark:5145952
flet0_sx57 quick_test/data-fmllr-tri3/train/data/feats_fmllr_train.2.ark:10378914
mdsj0_sx112 quick_test/data-fmllr-tri3/train/data/feats_fmllr_train.5.ark:8349454
mljc0_sx415 quick_test/data-fmllr-tri3/train/data/feats_fmllr_train.7.ark:11238733
megj0_sx167 quick_test/data-fmllr-tri3/train/data/feats_fmllr_train.5.ark:12010184
mrav0_sx288 quick_test/data-fmllr-tri3/train/data/feats_fmllr_train.8.ark:12767120
msrg0_sx321 quick_test/data-fmllr-tri3/train/data/feats_fmllr_train.9.ark:17204366
mmab1_sx414 quick_test/data-fmllr-tri3/train/data/feats_fmllr_train.7.ark:13306058
mwre0_sx427 quick_test/data-fmllr-tri3/train/data/feats_fmllr_train.10.ark:16316119
fdkn0_si1711 quick_test/data-fmllr-tri3/train/data/feats_fmllr_train.1.ark:10964385
mchl0_sx87 quick_test/data-fmllr-tri3/train/data/feats_fmllr_train.4.ark:11327936
mafm0_si2199 quick_test/data-fmllr-tri3/train/data/feats_fmllr_train.4.ark:770076
mbjv0_sx167 quick_test/data-fmllr-tri3/train/data/feats_fmllr_train.4.ark:5330816
mjpm0_sx378 quick_test/data-fmllr-tri3/train/data/feats_fmllr_train.6.ark:16792730
mbef0_sx201 quick_test/data-fmllr-tri3/train/data/feats_fmllr_train.4.ark:4657129
fdml0_sx249 quick_test/data-fmllr-tri3/train/data/feats_fmllr_train.1.ark:11450417
mree0_si1734 quick_test/data-fmllr-tri3/train/data/feats_fmllr_train.8.ark:15202906
mrmb0_sx141 quick_test/data-fmllr-tri3/train/data/feats_fmllr_train.9.ark:5289954
mjhi0_sx68 quick_test/data-fmllr-tri3/train/data/feats_fmllr_train.6.ark:12292043
mabc0_sx421 quick_test/data-fmllr-tri3/train/data/feats_fmllr_train.3.ark:17098787
mrem0_si1591 quick_test/data-fmllr-tri3/train/data/feats_fmllr_train.8.ark:15967633
mjsr0_sx344 quick_test/data-fmllr-tri3/train/data/feats_fmllr_train.7.ark:1792698
mrab0_sx414 quick_test/data-fmllr-tri3/train/data/feats_fmllr_train.8.ark:11220971
fecd0_sx338 quick_test/data-fmllr-tri3/train/data/feats_fmllr_train.1.ark:14438044
fhxs0_si2302 quick_test/data-fmllr-tri3/train/data/feats_fmllr_train.1.ark:18430189
mkdb0_sx422 quick_test/data-fmllr-tri3/train/data/feats_fmllr_train.7.ark:5836653
fjxm0_sx401 quick_test/data-fmllr-tri3/train/data/feats_fmllr_train.2.ark:4704807
mdrd0_sx302 quick_test/data-fmllr-tri3/train/data/feats_fmllr_train.5.ark:8054091
mrml0_sx71 quick_test/data-fmllr-tri3/train/data/feats_fmllr_train.9.ark:6692474
fgcs0_sx226 quick_test/data-fmllr-tri3/train/data/feats_fmllr_train.1.ark:16438303
fgmb0_si1775 quick_test/data-fmllr-tri3/train/data/feats_fmllr_train.1.ark:17137216
fscn0_sx266 quick_test/data-fmllr-tri3/train/data/feats_fmllr_train.3.ark:7018209
mvrw0_si1485 quick_test/data-fmllr-tri3/train/data/feats_fmllr_train.10.ark:13095495
mtpf0_sx65 quick_test/data-fmllr-tri3/train/data/feats_fmllr_train.10.ark:8778360
msmr0_sx325 quick_test/data-fmllr-tri3/train/data/feats_fmllr_train.9.ark:16480092
mctm0_sx90 quick_test/data-fmllr-tri3/train/data/feats_fmllr_train.4.ark:13956494
fpls0_sx60 quick_test/data-fmllr-tri3/train/data/feats_fmllr_train.3.ark:3512016
mtat0_si1110 quick_test/data-fmllr-tri3/train/data/feats_fmllr_train.10.ark:1241304
fdkn0_sx91 quick_test/data-fmllr-tri3/train/data/feats_fmllr_train.1.ark:11232359
majp0_si1704 quick_test/data-fmllr-tri3/train/data/feats_fmllr_train.4.ark:1098613
mcth0_sx309 quick_test/data-fmllr-tri3/train/data/feats_fmllr_train.4.ark:13472704
feeh0_sx122 quick_test/data-fmllr-tri3/train/data/feats_fmllr_train.1.ark:14745727
fjwb1_sx255 quick_test/data-fmllr-tri3/train/data/feats_fmllr_train.2.ark:4233496
mjsr0_sx434 quick_test/data-fmllr-tri3/train/data/feats_fmllr_train.7.ark:1841205
feeh0_si1742 quick_test/data-fmllr-tri3/train/data/feats_fmllr_train.1.ark:14652553
mlbc0_si1869 quick_test/data-fmllr-tri3/train/data/feats_fmllr_train.7.ark:10191764
mdbp0_sx258 quick_test/data-fmllr-tri3/train/data/feats_fmllr_train.4.ark:15674777
mprk0_si1097 quick_test/data-fmllr-tri3/train/data/feats_fmllr_train.8.ark:9816798
fcjf0_si1657 quick_test/data-fmllr-tri3/train/data/feats_fmllr_train.1.ark:6447990
faem0_sx132 quick_test/data-fmllr-tri3/train/data/feats_fmllr_train.1.ark:155455
fmju0_sx399 quick_test/data-fmllr-tri3/train/data/feats_fmllr_train.2.ark:16692948
fvmh0_sx116 quick_test/data-fmllr-tri3/train/data/feats_fmllr_train.3.ark:16672409
fgdp0_si2248 quick_test/data-fmllr-tri3/train/data/feats_fmllr_train.1.ark:16642439
mrso0_si2289 quick_test/data-fmllr-tri3/train/data/feats_fmllr_train.9.ark:8022970
mrms0_sx210 quick_test/data-fmllr-tri3/train/data/feats_fmllr_train.9.ark:6958052
mchl0_sx177 quick_test/data-fmllr-tri3/train/data/feats_fmllr_train.4.ark:11151989
mcss0_si750 quick_test/data-fmllr-tri3/train/data/feats_fmllr_train.4.ark:12977526
fsjw0_sx73 quick_test/data-fmllr-tri3/train/data/feats_fmllr_train.3.ark:9944449
ftbw0_sx85 quick_test/data-fmllr-tri3/train/data/feats_fmllr_train.3.ark:14932871
fpad0_si1346 quick_test/data-fmllr-tri3/train/data/feats_fmllr_train.3.ark:1604880
fmpg0_si1602 quick_test/data-fmllr-tri3/train/data/feats_fmllr_train.2.ark:17925144
mbma0_si1852 quick_test/data-fmllr-tri3/train/data/feats_fmllr_train.4.ark:5627139
fsak0_sx40 quick_test/data-fmllr-tri3/train/data/feats_fmllr_train.3.ark:6244388
faem0_si2022 quick_test/data-fmllr-tri3/train/data/feats_fmllr_train.1.ark:75881
mpgr1_si1499 quick_test/data-fmllr-tri3/train/data/feats_fmllr_train.8.ark:7533980
msdh0_sx440 quick_test/data-fmllr-tri3/train/data/feats_fmllr_train.9.ark:13097582
fdjh0_sx125 quick_test/data-fmllr-tri3/train/data/feats_fmllr_train.1.ark:10626914
mejs0_sx340 quick_test/data-fmllr-tri3/train/data/feats_fmllr_train.5.ark:12855630
fajw0_sx93 quick_test/data-fmllr-tri3/train/data/feats_fmllr_train.1.ark:764097
mbml0_si1799 quick_test/data-fmllr-tri3/train/data/feats_fmllr_train.4.ark:6365493
fcdr1_sx286 quick_test/data-fmllr-tri3/train/data/feats_fmllr_train.1.ark:5955050
mjac0_sx431 quick_test/data-fmllr-tri3/train/data/feats_fmllr_train.6.ark:6765138
fkfb0_sx78 quick_test/data-fmllr-tri3/train/data/feats_fmllr_train.2.ark:6850879
mkes0_sx443 quick_test/data-fmllr-tri3/train/data/feats_fmllr_train.7.ark:7061143
mmrp0_sx324 quick_test/data-fmllr-tri3/train/data/feats_fmllr_train.8.ark:2378413
fgmb0_sx65 quick_test/data-fmllr-tri3/train/data/feats_fmllr_train.1.ark:17463777
fdmy0_sx207 quick_test/data-fmllr-tri3/train/data/feats_fmllr_train.1.ark:11935273
fgmb0_si515 quick_test/data-fmllr-tri3/train/data/feats_fmllr_train.1.ark:17186043
mkxl0_sx285 quick_test/data-fmllr-tri3/train/data/feats_fmllr_train.7.ark:10042081
fkaa0_sx218 quick_test/data-fmllr-tri3/train/data/feats_fmllr_train.2.ark:5389507
mkxl0_sx15 quick_test/data-fmllr-tri3/train/data/feats_fmllr_train.7.ark:9968427
mjbg0_sx62 quick_test/data-fmllr-tri3/train/data/feats_fmllr_train.6.ark:7992376
mdlr0_sx423 quick_test/data-fmllr-tri3/train/data/feats_fmllr_train.5.ark:4960221
mdbp0_sx78 quick_test/data-fmllr-tri3/train/data/feats_fmllr_train.4.ark:15851977
fjxm0_sx221 quick_test/data-fmllr-tri3/train/data/feats_fmllr_train.2.ark:4581553
mrfk0_sx446 quick_test/data-fmllr-tri3/train/data/feats_fmllr_train.8.ark:16976550
mtpf0_si605 quick_test/data-fmllr-tri3/train/data/feats_fmllr_train.10.ark:8541906
mmws0_sx438 quick_test/data-fmllr-tri3/train/data/feats_fmllr_train.8.ark:4208748
mdtb0_si1830 quick_test/data-fmllr-tri3/train/data/feats_fmllr_train.5.ark:9281891
mtrt0_si1227 quick_test/data-fmllr-tri3/train/data/feats_fmllr_train.10.ark:11187849
mtkd0_sx107 quick_test/data-fmllr-tri3/train/data/feats_fmllr_train.10.ark:5852733
mrcg0_sx438 quick_test/data-fmllr-tri3/train/data/feats_fmllr_train.8.ark:13571395
mrgs0_si1356 quick_test/data-fmllr-tri3/train/data/feats_fmllr_train.9.ark:13
mfrm0_sx255 quick_test/data-fmllr-tri3/train/data/feats_fmllr_train.5.ark:14948104
mgsh0_si1176 quick_test/data-fmllr-tri3/train/data/feats_fmllr_train.6.ark:2305957
mdlr1_sx309 quick_test/data-fmllr-tri3/train/data/feats_fmllr_train.5.ark:5324891
fpad0_si716 quick_test/data-fmllr-tri3/train/data/feats_fmllr_train.3.ark:1700135
mbth0_si2102 quick_test/data-fmllr-tri3/train/data/feats_fmllr_train.4.ark:7293476
mges0_sx41 quick_test/data-fmllr-tri3/train/data/feats_fmllr_train.6.ark:1024797
mdbp0_si1158 quick_test/data-fmllr-tri3/train/data/feats_fmllr_train.4.ark:15474348
mdlm0_sx334 quick_test/data-fmllr-tri3/train/data/feats_fmllr_train.5.ark:4542217
mrms0_sx30 quick_test/data-fmllr-tri3/train/data/feats_fmllr_train.9.ark:6989598
mcss0_sx390 quick_test/data-fmllr-tri3/train/data/feats_fmllr_train.4.ark:13186140
mwac0_sx341 quick_test/data-fmllr-tri3/train/data/feats_fmllr_train.10.ark:13716328
mtcs0_si1972 quick_test/data-fmllr-tri3/train/data/feats_fmllr_train.10.ark:2446435
fcrz0_si793 quick_test/data-fmllr-tri3/train/data/feats_fmllr_train.1.ark:8665800
mjpg0_sx291 quick_test/data-fmllr-tri3/train/data/feats_fmllr_train.6.ark:16371686
fjdm2_si2212 quick_test/data-fmllr-tri3/train/data/feats_fmllr_train.2.ark:96549
mdlh0_si1960 quick_test/data-fmllr-tri3/train/data/feats_fmllr_train.5.ark:3906505
fskc0_si2046 quick_test/data-fmllr-tri3/train/data/feats_fmllr_train.3.ark:10040025
mfwk0_si619 quick_test/data-fmllr-tri3/train/data/feats_fmllr_train.5.ark:15202187
mkag0_sx259 quick_test/data-fmllr-tri3/train/data/feats_fmllr_train.7.ark:4236372
fjrp1_si2062 quick_test/data-fmllr-tri3/train/data/feats_fmllr_train.2.ark:2870684
mwad0_si1749 quick_test/data-fmllr-tri3/train/data/feats_fmllr_train.10.ark:13929717
ftbw0_sx175 quick_test/data-fmllr-tri3/train/data/feats_fmllr_train.3.ark:14741564
mdwd0_sx180 quick_test/data-fmllr-tri3/train/data/feats_fmllr_train.5.ark:9729523
mtkp0_sx213 quick_test/data-fmllr-tri3/train/data/feats_fmllr_train.10.ark:6340337
mmab1_si864 quick_test/data-fmllr-tri3/train/data/feats_fmllr_train.7.ark:13064030
mdlb0_sx136 quick_test/data-fmllr-tri3/train/data/feats_fmllr_train.5.ark:2493238
mljh0_sx154 quick_test/data-fmllr-tri3/train/data/feats_fmllr_train.7.ark:11557909
ftmg0_si2162 quick_test/data-fmllr-tri3/train/data/feats_fmllr_train.3.ark:15409303
fksr0_sx37 quick_test/data-fmllr-tri3/train/data/feats_fmllr_train.2.ark:8776738
megj0_sx437 quick_test/data-fmllr-tri3/train/data/feats_fmllr_train.5.ark:12145783
mrcg0_si798 quick_test/data-fmllr-tri3/train/data/feats_fmllr_train.8.ark:13347447
fsrh0_si1719 quick_test/data-fmllr-tri3/train/data/feats_fmllr_train.3.ark:13120614
mges0_si1481 quick_test/data-fmllr-tri3/train/data/feats_fmllr_train.6.ark:751328
mmds0_si1343 quick_test/data-fmllr-tri3/train/data/feats_fmllr_train.7.ark:17017026
fjsk0_si1052 quick_test/data-fmllr-tri3/train/data/feats_fmllr_train.2.ark:3263193
mjbg0_sx332 quick_test/data-fmllr-tri3/train/data/feats_fmllr_train.6.ark:7872323
mjpm0_sx198 quick_test/data-fmllr-tri3/train/data/feats_fmllr_train.6.ark:16688516
ftmg0_sx362 quick_test/data-fmllr-tri3/train/data/feats_fmllr_train.3.ark:15607171
mjlb0_si2246 quick_test/data-fmllr-tri3/train/data/feats_fmllr_train.6.ark:14017128
mwre0_si2317 quick_test/data-fmllr-tri3/train/data/feats_fmllr_train.10.ark:16128011
mclk0_sx220 quick_test/data-fmllr-tri3/train/data/feats_fmllr_train.4.ark:11588873
msms0_sx263 quick_test/data-fmllr-tri3/train/data/feats_fmllr_train.9.ark:16816922
fsjk1_sx35 quick_test/data-fmllr-tri3/train/data/feats_fmllr_train.3.ark:9086868
mdss0_sx81 quick_test/data-fmllr-tri3/train/data/feats_fmllr_train.5.ark:8869138
mrlr0_sx386 quick_test/data-fmllr-tri3/train/data/feats_fmllr_train.9.ark:5112564
mjee0_si1867 quick_test/data-fmllr-tri3/train/data/feats_fmllr_train.6.ark:10886272
fsah0_sx434 quick_test/data-fmllr-tri3/train/data/feats_fmllr_train.3.ark:5872972
mrlk0_sx33 quick_test/data-fmllr-tri3/train/data/feats_fmllr_train.9.ark:4706880
mkdb0_sx62 quick_test/data-fmllr-tri3/train/data/feats_fmllr_train.7.ark:5896359
mses0_sx329 quick_test/data-fmllr-tri3/train/data/feats_fmllr_train.9.ark:14387168
mdrd0_sx392 quick_test/data-fmllr-tri3/train/data/feats_fmllr_train.5.ark:8150784
fsma0_sx91 quick_test/data-fmllr-tri3/train/data/feats_fmllr_train.3.ark:11852895
mejl0_si962 quick_test/data-fmllr-tri3/train/data/feats_fmllr_train.5.ark:12330372
mjde0_sx310 quick_test/data-fmllr-tri3/train/data/feats_fmllr_train.6.ark:9067694
fdtd0_sx301 quick_test/data-fmllr-tri3/train/data/feats_fmllr_train.1.ark:12833975
mdcd0_si2045 quick_test/data-fmllr-tri3/train/data/feats_fmllr_train.4.ark:15932673
fsma0_si991 quick_test/data-fmllr-tri3/train/data/feats_fmllr_train.3.ark:11561401
fjsk0_sx422 quick_test/data-fmllr-tri3/train/data/feats_fmllr_train.2.ark:3558237
mwar0_sx325 quick_test/data-fmllr-tri3/train/data/feats_fmllr_train.10.ark:14414204
mewm0_sx178 quick_test/data-fmllr-tri3/train/data/feats_fmllr_train.5.ark:13798785
mfxs0_si2304 quick_test/data-fmllr-tri3/train/data/feats_fmllr_train.5.ark:15562565
fgdp0_sx178 quick_test/data-fmllr-tri3/train/data/feats_fmllr_train.1.ark:16759613
fklc1_sx148 quick_test/data-fmllr-tri3/train/data/feats_fmllr_train.2.ark:7841024
fpls0_sx330 quick_test/data-fmllr-tri3/train/data/feats_fmllr_train.3.ark:3466070
fmkc0_sx442 quick_test/data-fmllr-tri3/train/data/feats_fmllr_train.2.ark:17034900
fjlr0_sx421 quick_test/data-fmllr-tri3/train/data/feats_fmllr_train.2.ark:2283185
mfer0_sx322 quick_test/data-fmllr-tri3/train/data/feats_fmllr_train.5.ark:14236496
fcmg0_si1872 quick_test/data-fmllr-tri3/train/data/feats_fmllr_train.1.ark:7902006
mtcs0_si712 quick_test/data-fmllr-tri3/train/data/feats_fmllr_train.10.ark:2496730
mkls0_si1437 quick_test/data-fmllr-tri3/train/data/feats_fmllr_train.7.ark:8197209
mdss0_sx171 quick_test/data-fmllr-tri3/train/data/feats_fmllr_train.5.ark:8701511
fpab1_sx301 quick_test/data-fmllr-tri3/train/data/feats_fmllr_train.3.ark:1059302
mclk0_sx400 quick_test/data-fmllr-tri3/train/data/feats_fmllr_train.4.ark:11725433
fcyl0_si1297 quick_test/data-fmllr-tri3/train/data/feats_fmllr_train.1.ark:8926122
mdlc2_si1614 quick_test/data-fmllr-tri3/train/data/feats_fmllr_train.5.ark:3572848
fsma0_si1621 quick_test/data-fmllr-tri3/train/data/feats_fmllr_train.3.ark:11485026
fcjs0_sx77 quick_test/data-fmllr-tri3/train/data/feats_fmllr_train.1.ark:7012688
mcdd0_sx73 quick_test/data-fmllr-tri3/train/data/feats_fmllr_train.4.ark:9647227
flmk0_sx45 quick_test/data-fmllr-tri3/train/data/feats_fmllr_train.2.ark:13539852
mjjm0_sx17 quick_test/data-fmllr-tri3/train/data/feats_fmllr_train.6.ark:13383014
fexm0_sx201 quick_test/data-fmllr-tri3/train/data/feats_fmllr_train.1.ark:16017765
feme0_si875 quick_test/data-fmllr-tri3/train/data/feats_fmllr_train.1.ark:15080477
mcae0_sx97 quick_test/data-fmllr-tri3/train/data/feats_fmllr_train.4.ark:8563216
mdss0_si621 quick_test/data-fmllr-tri3/train/data/feats_fmllr_train.5.ark:8660844
mrab1_si848 quick_test/data-fmllr-tri3/train/data/feats_fmllr_train.8.ark:11411640
mbgt0_si711 quick_test/data-fmllr-tri3/train/data/feats_fmllr_train.4.ark:4887212
fjrp1_sx352 quick_test/data-fmllr-tri3/train/data/feats_fmllr_train.2.ark:3065192
mrmh0_sx391 quick_test/data-fmllr-tri3/train/data/feats_fmllr_train.9.ark:6216737
mtab0_sx42 quick_test/data-fmllr-tri3/train/data/feats_fmllr_train.10.ark:901379
fexm0_sx111 quick_test/data-fmllr-tri3/train/data/feats_fmllr_train.1.ark:15968778
mjrh0_sx225 quick_test/data-fmllr-tri3/train/data/feats_fmllr_train.7.ark:217563
mrjh0_sx307 quick_test/data-fmllr-tri3/train/data/feats_fmllr_train.9.ark:1550558
mdns0_sx111 quick_test/data-fmllr-tri3/train/data/feats_fmllr_train.5.ark:6466449
mpgh0_si924 quick_test/data-fmllr-tri3/train/data/feats_fmllr_train.8.ark:6947173
msdh0_sx170 quick_test/data-fmllr-tri3/train/data/feats_fmllr_train.9.ark:12916221
mrvg0_sx150 quick_test/data-fmllr-tri3/train/data/feats_fmllr_train.9.ark:9782105
mrsp0_sx259 quick_test/data-fmllr-tri3/train/data/feats_fmllr_train.9.ark:8604868
mfrm0_si1155 quick_test/data-fmllr-tri3/train/data/feats_fmllr_train.5.ark:14756634
ftaj0_si1329 quick_test/data-fmllr-tri3/train/data/feats_fmllr_train.3.ark:13913849
mfer0_sx232 quick_test/data-fmllr-tri3/train/data/feats_fmllr_train.5.ark:14182549
fdtd0_sx211 quick_test/data-fmllr-tri3/train/data/feats_fmllr_train.1.ark:12787068
fsrh0_sx311 quick_test/data-fmllr-tri3/train/data/feats_fmllr_train.3.ark:13324910
fkdw0_si1891 quick_test/data-fmllr-tri3/train/data/feats_fmllr_train.2.ark:6129701
mabc0_si1620 quick_test/data-fmllr-tri3/train/data/feats_fmllr_train.3.ark:16853184
mdlb0_si676 quick_test/data-fmllr-tri3/train/data/feats_fmllr_train.5.ark:2461851
mjrk0_si880 quick_test/data-fmllr-tri3/train/data/feats_fmllr_train.7.ark:818903
mmds0_sx443 quick_test/data-fmllr-tri3/train/data/feats_fmllr_train.7.ark:17249669
fetb0_sx158 quick_test/data-fmllr-tri3/train/data/feats_fmllr_train.1.ark:15569361
fcaj0_si1479 quick_test/data-fmllr-tri3/train/data/feats_fmllr_train.1.ark:5242831
mwsh0_si796 quick_test/data-fmllr-tri3/train/data/feats_fmllr_train.10.ark:17245139
msrr0_si501 quick_test/data-fmllr-tri3/train/data/feats_fmllr_train.9.ark:17451382
mcdr0_si1154 quick_test/data-fmllr-tri3/train/data/feats_fmllr_train.4.ark:9690295
maeo0_sx246 quick_test/data-fmllr-tri3/train/data/feats_fmllr_train.4.ark:561140
fssb0_sx272 quick_test/data-fmllr-tri3/train/data/feats_fmllr_train.3.ark:13688301
mdhs0_sx360 quick_test/data-fmllr-tri3/train/data/feats_fmllr_train.5.ark:1433920
mprk0_sx287 quick_test/data-fmllr-tri3/train/data/feats_fmllr_train.8.ark:10164640
mchl0_sx357 quick_test/data-fmllr-tri3/train/data/feats_fmllr_train.4.ark:11236843
flhd0_si1974 quick_test/data-fmllr-tri3/train/data/feats_fmllr_train.2.ark:10491478
mjee0_si607 quick_test/data-fmllr-tri3/train/data/feats_fmllr_train.6.ark:10931259
mjsr0_si2054 quick_test/data-fmllr-tri3/train/data/feats_fmllr_train.7.ark:1525550
fkde0_si1771 quick_test/data-fmllr-tri3/train/data/feats_fmllr_train.2.ark:5696683
mjxl0_sx92 quick_test/data-fmllr-tri3/train/data/feats_fmllr_train.7.ark:3964715
mjee0_sx157 quick_test/data-fmllr-tri3/train/data/feats_fmllr_train.6.ark:10964406
mmag0_sx316 quick_test/data-fmllr-tri3/train/data/feats_fmllr_train.7.ark:13699048
mrsp0_sx169 quick_test/data-fmllr-tri3/train/data/feats_fmllr_train.9.ark:8523374
mjdc0_sx441 quick_test/data-fmllr-tri3/train/data/feats_fmllr_train.6.ark:8660145
fsjk1_si1025 quick_test/data-fmllr-tri3/train/data/feats_fmllr_train.3.ark:8826386
flac0_si901 quick_test/data-fmllr-tri3/train/data/feats_fmllr_train.2.ark:8966768
mjdg0_si1672 quick_test/data-fmllr-tri3/train/data/feats_fmllr_train.6.ark:9291003
mmea0_si1388 quick_test/data-fmllr-tri3/train/data/feats_fmllr_train.7.ark:17323963
mbwp0_si1969 quick_test/data-fmllr-tri3/train/data/feats_fmllr_train.4.ark:7733080
mmeb0_si727 quick_test/data-fmllr-tri3/train/data/feats_fmllr_train.7.ark:17750315
faem0_sx312 quick_test/data-fmllr-tri3/train/data/feats_fmllr_train.1.ark:244309
mdrd0_si752 quick_test/data-fmllr-tri3/train/data/feats_fmllr_train.5.ark:7849210
freh0_sx55 quick_test/data-fmllr-tri3/train/data/feats_fmllr_train.3.ark:4307650
mdcm0_si850 quick_test/data-fmllr-tri3/train/data/feats_fmllr_train.4.ark:16382197
mkln0_si1598 quick_test/data-fmllr-tri3/train/data/feats_fmllr_train.7.ark:7492614
msmr0_sx55 quick_test/data-fmllr-tri3/train/data/feats_fmllr_train.9.ark:16555505
madc0_si1367 quick_test/data-fmllr-tri3/train/data/feats_fmllr_train.3.ark:17176121
mesg0_sx432 quick_test/data-fmllr-tri3/train/data/feats_fmllr_train.5.ark:13267074
mwsb0_si2256 quick_test/data-fmllr-tri3/train/data/feats_fmllr_train.10.ark:16839937
meal0_si1547 quick_test/data-fmllr-tri3/train/data/feats_fmllr_train.5.ark:10773932
mstf0_sx136 quick_test/data-fmllr-tri3/train/data/feats_fmllr_train.9.ark:17891624
mtab0_sx312 quick_test/data-fmllr-tri3/train/data/feats_fmllr_train.10.ark:775406
