mlsh0_sx67 quick_test/data-fmllr-tri3/train/data/feats_fmllr_train.7.ark:12533170
mdtb0_sx390 quick_test/data-fmllr-tri3/train/data/feats_fmllr_train.5.ark:9538693
mgaw0_si1165 quick_test/data-fmllr-tri3/train/data/feats_fmllr_train.6.ark:385831
mtpp0_sx248 quick_test/data-fmllr-tri3/train/data/feats_fmllr_train.10.ark:9338874
meal0_sx197 quick_test/data-fmllr-tri3/train/data/feats_fmllr_train.5.ark:10917401
mmdm1_si783 quick_test/data-fmllr-tri3/train/data/feats_fmllr_train.7.ark:16685824
mtbc0_sx273 quick_test/data-fmllr-tri3/train/data/feats_fmllr_train.10.ark:2254007
mewm0_sx448 quick_test/data-fmllr-tri3/train/data/feats_fmllr_train.5.ark:13941906
mbom0_sx384 quick_test/data-fmllr-tri3/train/data/feats_fmllr_train.4.ark:6980273
fsgf0_sx207 quick_test/data-fmllr-tri3/train/data/feats_fmllr_train.3.ark:8150061
mjda0_si2291 quick_test/data-fmllr-tri3/train/data/feats_fmllr_train.6.ark:8096300
mmrp0_si2034 quick_test/data-fmllr-tri3/train/data/feats_fmllr_train.8.ark:2152358
flmk0_sx45 quick_test/data-fmllr-tri3/train/data/feats_fmllr_train.2.ark:13539852
fcke0_si481 quick_test/data-fmllr-tri3/train/data/feats_fmllr_train.1.ark:7149091
fsjw0_sx253 quick_test/data-fmllr-tri3/train/data/feats_fmllr_train.3.ark:9799569
mmvp0_si1914 quick_test/data-fmllr-tri3/train/data/feats_fmllr_train.8.ark:3015059
fmmh0_sx367 quick_test/data-fmllr-tri3/train/data/feats_fmllr_train.2.ark:17737198
mrkm0_si1267 quick_test/data-fmllr-tri3/train/data/feats_fmllr_train.9.ark:2892731
fsbk0_sx259 quick_test/data-fmllr-tri3/train/data/feats_fmllr_train.3.ark:6505673
mddc0_sx249 quick_test/data-fmllr-tri3/train/data/feats_fmllr_train.4.ark:16840388
mhxl0_sx62 quick_test/data-fmllr-tri3/train/data/feats_fmllr_train.6.ark:6074333
mkjo0_sx77 quick_test/data-fmllr-tri3/train/data/feats_fmllr_train.7.ark:7455146
mwad0_sx162 quick_test/data-fmllr-tri3/train/data/feats_fmllr_train.10.ark:13985292
mmlm0_si897 quick_test/data-fmllr-tri3/train/data/feats_fmllr_train.8.ark:1526698
mdtb0_sx210 quick_test/data-fmllr-tri3/train/data/feats_fmllr_train.5.ark:9417652
fdjh0_sx215 quick_test/data-fmllr-tri3/train/data/feats_fmllr_train.1.ark:10664861
mgsh0_si1806 quick_test/data-fmllr-tri3/train/data/feats_fmllr_train.6.ark:2380065
fkdw0_si1891 quick_test/data-fmllr-tri3/train/data/feats_fmllr_train.2.ark:6129701
msms0_sx83 quick_test/data-fmllr-tri3/train/data/feats_fmllr_train.9.ark:16944042
mgrl0_si2127 quick_test/data-fmllr-tri3/train/data/feats_fmllr_train.6.ark:1544751
mprt0_si580 quick_test/data-fmllr-tri3/train/data/feats_fmllr_train.8.ark:10375149
mjma0_si865 quick_test/data-fmllr-tri3/train/data/feats_fmllr_train.6.ark:15175887
mbjv0_si1247 quick_test/data-fmllr-tri3/train/data/feats_fmllr_train.4.ark:5198254
mlns0_si777 quick_test/data-fmllr-tri3/train/data/feats_fmllr_train.7.ark:11924979
msem1_si2070 quick_test/data-fmllr-tri3/train/data/feats_fmllr_train.9.ark:13710842
mbsb0_sx93 quick_test/data-fmllr-tri3/train/data/feats_fmllr_train.4.ark:7266248
fdfb0_si1318 quick_test/data-fmllr-tri3/train/data/feats_fmllr_train.1.ark:10142134
mmbs0_si521 quick_test/data-fmllr-tri3/train/data/feats_fmllr_train.7.ark:14736099
fcmg0_sx432 quick_test/data-fmllr-tri3/train/data/feats_fmllr_train.1.ark:8087074
mpgh0_sx204 quick_test/data-fmllr-tri3/train/data/feats_fmllr_train.8.ark:7021947
fdjh0_sx35 quick_test/data-fmllr-tri3/train/data/feats_fmllr_train.1.ark:10751314
mrlk0_sx33 quick_test/data-fmllr-tri3/train/data/feats_fmllr_train.9.ark:4706880
mklr0_si1059 quick_test/data-fmllr-tri3/train/data/feats_fmllr_train.7.ark:7862271
mrws0_sx292 quick_test/data-fmllr-tri3/train/data/feats_fmllr_train.9.ark:10611259
mmpm0_si2321 quick_test/data-fmllr-tri3/train/data/feats_fmllr_train.8.ark:1849636
ftaj0_si474 quick_test/data-fmllr-tri3/train/data/feats_fmllr_train.3.ark:13946036
mtdp0_sx441 quick_test/data-fmllr-tri3/train/data/feats_fmllr_train.10.ark:3576633
flkm0_sx80 quick_test/data-fmllr-tri3/train/data/feats_fmllr_train.2.ark:12444320
mjrg0_sx286 quick_test/data-fmllr-tri3/train/data/feats_fmllr_train.6.ark:17822287
mgjc0_sx435 quick_test/data-fmllr-tri3/train/data/feats_fmllr_train.6.ark:1387229
fapb0_sx73 quick_test/data-fmllr-tri3/train/data/feats_fmllr_train.1.ark:1997226
mjwg0_si2155 quick_test/data-fmllr-tri3/train/data/feats_fmllr_train.7.ark:1951819
mjae0_sx354 quick_test/data-fmllr-tri3/train/data/feats_fmllr_train.6.ark:7090449
mdbp0_sx78 quick_test/data-fmllr-tri3/train/data/feats_fmllr_train.4.ark:15851977
mcth0_sx309 quick_test/data-fmllr-tri3/train/data/feats_fmllr_train.4.ark:13472704
mprt0_sx400 quick_test/data-fmllr-tri3/train/data/feats_fmllr_train.8.ark:10590963
fajw0_si1263 quick_test/data-fmllr-tri3/train/data/feats_fmllr_train.1.ark:390310
mrjt0_si1805 quick_test/data-fmllr-tri3/train/data/feats_fmllr_train.9.ark:2539422
mrfl0_si1786 quick_test/data-fmllr-tri3/train/data/feats_fmllr_train.8.ark:17126712
mdpb0_si866 quick_test/data-fmllr-tri3/train/data/feats_fmllr_train.5.ark:6785039
fksr0_si1747 quick_test/data-fmllr-tri3/train/data/feats_fmllr_train.2.ark:8525724
mprk0_si1727 quick_test/data-fmllr-tri3/train/data/feats_fmllr_train.8.ark:9912826
mgak0_si1666 quick_test/data-fmllr-tri3/train/data/feats_fmllr_train.5.ark:16995726
fdaw0_sx416 quick_test/data-fmllr-tri3/train/data/feats_fmllr_train.1.ark:10052480
mrgs0_si1356 quick_test/data-fmllr-tri3/train/data/feats_fmllr_train.9.ark:13
mmar0_sx346 quick_test/data-fmllr-tri3/train/data/feats_fmllr_train.7.ark:14495963
mwsh0_sx166 quick_test/data-fmllr-tri3/train/data/feats_fmllr_train.10.ark:17320686
mpgr0_si2040 quick_test/data-fmllr-tri3/train/data/feats_fmllr_train.8.ark:7217123
mrgm0_sx82 quick_test/data-fmllr-tri3/train/data/feats_fmllr_train.8.ark:17914130
mses0_sx419 quick_test/data-fmllr-tri3/train/data/feats_fmllr_train.9.ark:14436955
fblv0_sx68 quick_test/data-fmllr-tri3/train/data/feats_fmllr_train.1.ark:4039592
mtqc0_sx91 quick_test/data-fmllr-tri3/train/data/feats_fmllr_train.10.ark:10417948
mtwh1_sx432 quick_test/data-fmllr-tri3/train/data/feats_fmllr_train.10.ark:11800229
mjda0_sx311 quick_test/data-fmllr-tri3/train/data/feats_fmllr_train.6.ark:8217981
mjjm0_sx287 quick_test/data-fmllr-tri3/train/data/feats_fmllr_train.6.ark:13457468
mhxl0_si1772 quick_test/data-fmllr-tri3/train/data/feats_fmllr_train.6.ark:5723585
fmjb0_sx277 quick_test/data-fmllr-tri3/train/data/feats_fmllr_train.2.ark:15742836
fmmh0_sx420 quick_test/data-fmllr-tri3/train/data/feats_fmllr_train.2.ark:17782985
fkaa0_si1838 quick_test/data-fmllr-tri3/train/data/feats_fmllr_train.2.ark:5245746
fdaw0_sx326 quick_test/data-fmllr-tri3/train/data/feats_fmllr_train.1.ark:10006853
mlel0_si1876 quick_test/data-fmllr-tri3/train/data/feats_fmllr_train.7.ark:10550861
mrem0_sx61 quick_test/data-fmllr-tri3/train/data/feats_fmllr_train.8.ark:16303661
fmmh0_si907 quick_test/data-fmllr-tri3/train/data/feats_fmllr_train.2.ark:17652344
mclm0_sx376 quick_test/data-fmllr-tri3/train/data/feats_fmllr_train.4.ark:12062770
fjsk0_si2312 quick_test/data-fmllr-tri3/train/data/feats_fmllr_train.2.ark:3379249
fljd0_sx76 quick_test/data-fmllr-tri3/train/data/feats_fmllr_train.2.ark:11535247
mdjm0_sx375 quick_test/data-fmllr-tri3/train/data/feats_fmllr_train.5.ark:1880910
mrai0_si2052 quick_test/data-fmllr-tri3/train/data/feats_fmllr_train.8.ark:11738870
mdpk0_si1053 quick_test/data-fmllr-tri3/train/data/feats_fmllr_train.5.ark:7068081
fetb0_sx248 quick_test/data-fmllr-tri3/train/data/feats_fmllr_train.1.ark:15604908
mrvg0_sx420 quick_test/data-fmllr-tri3/train/data/feats_fmllr_train.9.ark:9898986
mljh0_si1422 quick_test/data-fmllr-tri3/train/data/feats_fmllr_train.7.ark:11379455
mdac0_sx361 quick_test/data-fmllr-tri3/train/data/feats_fmllr_train.4.ark:14627755
madc0_sx197 quick_test/data-fmllr-tri3/train/data/feats_fmllr_train.3.ark:17451616
mklw0_sx131 quick_test/data-fmllr-tri3/train/data/feats_fmllr_train.7.ark:9127007
marc0_si558 quick_test/data-fmllr-tri3/train/data/feats_fmllr_train.4.ark:2720630
mmea0_sx308 quick_test/data-fmllr-tri3/train/data/feats_fmllr_train.7.ark:17530179
mhmr0_si489 quick_test/data-fmllr-tri3/train/data/feats_fmllr_train.6.ark:5070566
mjma0_sx325 quick_test/data-fmllr-tri3/train/data/feats_fmllr_train.6.ark:15305888
fpaf0_sx64 quick_test/data-fmllr-tri3/train/data/feats_fmllr_train.3.ark:2379207
fsah0_sx434 quick_test/data-fmllr-tri3/train/data/feats_fmllr_train.3.ark:5872972
mmws0_si1518 quick_test/data-fmllr-tri3/train/data/feats_fmllr_train.8.ark:3940266
mmgg0_si1079 quick_test/data-fmllr-tri3/train/data/feats_fmllr_train.8.ark:354791
fksr0_si487 quick_test/data-fmllr-tri3/train/data/feats_fmllr_train.2.ark:8573431
fcaj0_sx219 quick_test/data-fmllr-tri3/train/data/feats_fmllr_train.1.ark:5394460
mjpg0_si1821 quick_test/data-fmllr-tri3/train/data/feats_fmllr_train.6.ark:16147392
mchl0_sx357 quick_test/data-fmllr-tri3/train/data/feats_fmllr_train.4.ark:11236843
mrfk0_si2336 quick_test/data-fmllr-tri3/train/data/feats_fmllr_train.8.ark:16806362
mgaf0_sx382 quick_test/data-fmllr-tri3/train/data/feats_fmllr_train.5.ark:16530814
fdaw0_sx56 quick_test/data-fmllr-tri3/train/data/feats_fmllr_train.1.ark:10093946
fspm0_sx431 quick_test/data-fmllr-tri3/train/data/feats_fmllr_train.3.ark:13040880
flja0_sx358 quick_test/data-fmllr-tri3/train/data/feats_fmllr_train.2.ark:11051777
mkaj0_si1414 quick_test/data-fmllr-tri3/train/data/feats_fmllr_train.7.ark:4815576
mrsp0_sx79 quick_test/data-fmllr-tri3/train/data/feats_fmllr_train.9.ark:8711321
mgsl0_sx354 quick_test/data-fmllr-tri3/train/data/feats_fmllr_train.6.ark:2985827
madc0_si737 quick_test/data-fmllr-tri3/train/data/feats_fmllr_train.3.ark:17298416
feeh0_sx302 quick_test/data-fmllr-tri3/train/data/feats_fmllr_train.1.ark:14851381
mdns0_sx21 quick_test/data-fmllr-tri3/train/data/feats_fmllr_train.5.ark:6554182
fdnc0_si1908 quick_test/data-fmllr-tri3/train/data/feats_fmllr_train.1.ark:12230129
mjkr0_sx211 quick_test/data-fmllr-tri3/train/data/feats_fmllr_train.6.ark:13777632
flma0_sx343 quick_test/data-fmllr-tri3/train/data/feats_fmllr_train.2.ark:12687844
mrjb1_sx390 quick_test/data-fmllr-tri3/train/data/feats_fmllr_train.9.ark:1179515
mjrk0_sx70 quick_test/data-fmllr-tri3/train/data/feats_fmllr_train.7.ark:1102717
mdas0_sx186 quick_test/data-fmllr-tri3/train/data/feats_fmllr_train.4.ark:14936558
mrwa0_si2233 quick_test/data-fmllr-tri3/train/data/feats_fmllr_train.9.ark:10040668
fbas0_si1387 quick_test/data-fmllr-tri3/train/data/feats_fmllr_train.1.ark:2053414
mfrm0_si1155 quick_test/data-fmllr-tri3/train/data/feats_fmllr_train.5.ark:14756634
flod0_si657 quick_test/data-fmllr-tri3/train/data/feats_fmllr_train.2.ark:13682815
mdbp0_sx348 quick_test/data-fmllr-tri3/train/data/feats_fmllr_train.4.ark:15723764
mtwh1_si882 quick_test/data-fmllr-tri3/train/data/feats_fmllr_train.10.ark:11633081
mtrt0_sx57 quick_test/data-fmllr-tri3/train/data/feats_fmllr_train.10.ark:11511558
mrpc1_sx402 quick_test/data-fmllr-tri3/train/data/feats_fmllr_train.9.ark:7345684
mrkm0_sx187 quick_test/data-fmllr-tri3/train/data/feats_fmllr_train.9.ark:3128013
medr0_sx114 quick_test/data-fmllr-tri3/train/data/feats_fmllr_train.5.ark:11242872
mhit0_si1613 quick_test/data-fmllr-tri3/train/data/feats_fmllr_train.6.ark:3914659
mjjm0_sx377 quick_test/data-fmllr-tri3/train/data/feats_fmllr_train.6.ark:13504375
mkam0_sx146 quick_test/data-fmllr-tri3/train/data/feats_fmllr_train.7.ark:5337156
marc0_si1818 quick_test/data-fmllr-tri3/train/data/feats_fmllr_train.4.ark:2685883
fsdc0_sx142 quick_test/data-fmllr-tri3/train/data/feats_fmllr_train.3.ark:7355680
mmcc0_sx168 quick_test/data-fmllr-tri3/train/data/feats_fmllr_train.7.ark:15258263
fdxw0_si881 quick_test/data-fmllr-tri3/train/data/feats_fmllr_train.1.ark:13063392
ftbw0_si715 quick_test/data-fmllr-tri3/train/data/feats_fmllr_train.3.ark:14668417
fblv0_si1058 quick_test/data-fmllr-tri3/train/data/feats_fmllr_train.1.ark:3664362
mapv0_sx303 quick_test/data-fmllr-tri3/train/data/feats_fmllr_train.4.ark:2544814
mkdd0_sx37 quick_test/data-fmllr-tri3/train/data/feats_fmllr_train.7.ark:6230309
mmar0_si706 quick_test/data-fmllr-tri3/train/data/feats_fmllr_train.7.ark:14318122
mrvg0_si1140 quick_test/data-fmllr-tri3/train/data/feats_fmllr_train.9.ark:9665703
mejl0_sx422 quick_test/data-fmllr-tri3/train/data/feats_fmllr_train.5.ark:12507120
mrav0_sx198 quick_test/data-fmllr-tri3/train/data/feats_fmllr_train.8.ark:12731093
mkrg0_si1491 quick_test/data-fmllr-tri3/train/data/feats_fmllr_train.7.ark:9393382
mbth0_si505 quick_test/data-fmllr-tri3/train/data/feats_fmllr_train.4.ark:7375903
mjjb0_si1277 quick_test/data-fmllr-tri3/train/data/feats_fmllr_train.6.ark:12393539
mabc0_si1620 quick_test/data-fmllr-tri3/train/data/feats_fmllr_train.3.ark:16853184
mafm0_sx219 quick_test/data-fmllr-tri3/train/data/feats_fmllr_train.4.ark:894637
maeb0_si2250 quick_test/data-fmllr-tri3/train/data/feats_fmllr_train.4.ark:65321
fjlr0_sx421 quick_test/data-fmllr-tri3/train/data/feats_fmllr_train.2.ark:2283185
mtab0_si942 quick_test/data-fmllr-tri3/train/data/feats_fmllr_train.10.ark:606205
msat0_sx266 quick_test/data-fmllr-tri3/train/data/feats_fmllr_train.9.ark:12012395
msas0_sx116 quick_test/data-fmllr-tri3/train/data/feats_fmllr_train.9.ark:11628311
flod0_si1917 quick_test/data-fmllr-tri3/train/data/feats_fmllr_train.2.ark:13643108
mjjj0_sx83 quick_test/data-fmllr-tri3/train/data/feats_fmllr_train.6.ark:13121278
msms0_si803 quick_test/data-fmllr-tri3/train/data/feats_fmllr_train.9.ark:16707748
mmvp0_sx384 quick_test/data-fmllr-tri3/train/data/feats_fmllr_train.8.ark:3385941
fjwb1_si795 quick_test/data-fmllr-tri3/train/data/feats_fmllr_train.2.ark:4145122
mdlr0_sx243 quick_test/data-fmllr-tri3/train/data/feats_fmllr_train.5.ark:4843527
mbom0_sx294 quick_test/data-fmllr-tri3/train/data/feats_fmllr_train.4.ark:6880379
fntb0_sx303 quick_test/data-fmllr-tri3/train/data/feats_fmllr_train.3.ark:626125
mmxs0_sx246 quick_test/data-fmllr-tri3/train/data/feats_fmllr_train.8.ark:4793767
mgaw0_si535 quick_test/data-fmllr-tri3/train/data/feats_fmllr_train.6.ark:516126
frjb0_si1470 quick_test/data-fmllr-tri3/train/data/feats_fmllr_train.3.ark:4395066
mtrr0_si918 quick_test/data-fmllr-tri3/train/data/feats_fmllr_train.10.ark:10884327
fdfb0_si2010 quick_test/data-fmllr-tri3/train/data/feats_fmllr_train.1.ark:10230990
mmds0_sx443 quick_test/data-fmllr-tri3/train/data/feats_fmllr_train.7.ark:17249669
mdcm0_sx400 quick_test/data-fmllr-tri3/train/data/feats_fmllr_train.4.ark:16606491
mcpm0_si1194 quick_test/data-fmllr-tri3/train/data/feats_fmllr_train.4.ark:12101838
fpad0_sx176 quick_test/data-fmllr-tri3/train/data/feats_fmllr_train.3.ark:1775202
mtjm0_si655 quick_test/data-fmllr-tri3/train/data/feats_fmllr_train.10.ark:4585975
mhmg0_sx285 quick_test/data-fmllr-tri3/train/data/feats_fmllr_train.6.ark:4871416
mmpm0_sx431 quick_test/data-fmllr-tri3/train/data/feats_fmllr_train.8.ark:2062864
msrg0_sx321 quick_test/data-fmllr-tri3/train/data/feats_fmllr_train.9.ark:17204366
mpmb0_si871 quick_test/data-fmllr-tri3/train/data/feats_fmllr_train.8.ark:8082705
fsjk1_si696 quick_test/data-fmllr-tri3/train/data/feats_fmllr_train.3.ark:8907561
mmdb0_si1358 quick_test/data-fmllr-tri3/train/data/feats_fmllr_train.7.ark:15480798
msat1_si1703 quick_test/data-fmllr-tri3/train/data/feats_fmllr_train.9.ark:12208051
msrr0_sx30 quick_test/data-fmllr-tri3/train/data/feats_fmllr_train.9.ark:17604582
mcae0_sx367 quick_test/data-fmllr-tri3/train/data/feats_fmllr_train.4.ark:8442685
mtat0_si1110 quick_test/data-fmllr-tri3/train/data/feats_fmllr_train.10.ark:1241304
fltm0_sx80 quick_test/data-fmllr-tri3/train/data/feats_fmllr_train.2.ark:14304608
mdcd0_si785 quick_test/data-fmllr-tri3/train/data/feats_fmllr_train.4.ark:15969500
mklw0_si2201 quick_test/data-fmllr-tri3/train/data/feats_fmllr_train.7.ark:9096900
mcdd0_sx343 quick_test/data-fmllr-tri3/train/data/feats_fmllr_train.4.ark:9550694
mtdb0_sx51 quick_test/data-fmllr-tri3/train/data/feats_fmllr_train.10.ark:3177561
mrmg0_sx180 quick_test/data-fmllr-tri3/train/data/feats_fmllr_train.9.ark:5658972
mapv0_si1293 quick_test/data-fmllr-tri3/train/data/feats_fmllr_train.4.ark:2243558
mbma0_sx142 quick_test/data-fmllr-tri3/train/data/feats_fmllr_train.4.ark:5677113
mdhs0_sx450 quick_test/data-fmllr-tri3/train/data/feats_fmllr_train.5.ark:1474747
fsrh0_si1719 quick_test/data-fmllr-tri3/train/data/feats_fmllr_train.3.ark:13120614
fjhk0_sx122 quick_test/data-fmllr-tri3/train/data/feats_fmllr_train.2.ark:1009492
mmgg0_sx269 quick_test/data-fmllr-tri3/train/data/feats_fmllr_train.8.ark:546261
falr0_si1325 quick_test/data-fmllr-tri3/train/data/feats_fmllr_train.1.ark:1210419
mlel0_si616 quick_test/data-fmllr-tri3/train/data/feats_fmllr_train.7.ark:10587368
mdss1_sx337 quick_test/data-fmllr-tri3/train/data/feats_fmllr_train.5.ark:9129302
mvrw0_sx45 quick_test/data-fmllr-tri3/train/data/feats_fmllr_train.10.ark:13368804
mjdg0_sx412 quick_test/data-fmllr-tri3/train/data/feats_fmllr_train.6.ark:9528579
mgar0_sx312 quick_test/data-fmllr-tri3/train/data/feats_fmllr_train.6.ark:234870
mbom0_si1014 quick_test/data-fmllr-tri3/train/data/feats_fmllr_train.4.ark:6679922
mgar0_si1694 quick_test/data-fmllr-tri3/train/data/feats_fmllr_train.6.ark:59241
mtpg0_si2013 quick_test/data-fmllr-tri3/train/data/feats_fmllr_train.10.ark:8868816
mrsp0_si799 quick_test/data-fmllr-tri3/train/data/feats_fmllr_train.9.ark:8475187
mmdm0_sx141 quick_test/data-fmllr-tri3/train/data/feats_fmllr_train.7.ark:16388834
mmvp0_sx114 quick_test/data-fmllr-tri3/train/data/feats_fmllr_train.8.ark:3167753
mrmh0_sx121 quick_test/data-fmllr-tri3/train/data/feats_fmllr_train.9.ark:6061430
msmc0_sx17 quick_test/data-fmllr-tri3/train/data/feats_fmllr_train.9.ark:16045127
mhbs0_sx225 quick_test/data-fmllr-tri3/train/data/feats_fmllr_train.6.ark:3768311
mdlh0_sx70 quick_test/data-fmllr-tri3/train/data/feats_fmllr_train.5.ark:4293093
mmag0_si1126 quick_test/data-fmllr-tri3/train/data/feats_fmllr_train.7.ark:13412672
fjwb1_sx75 quick_test/data-fmllr-tri3/train/data/feats_fmllr_train.2.ark:4365896
mdjm0_sx285 quick_test/data-fmllr-tri3/train/data/feats_fmllr_train.5.ark:1840083
mdwh0_sx305 quick_test/data-fmllr-tri3/train/data/feats_fmllr_train.5.ark:10231074
mdss0_sx351 quick_test/data-fmllr-tri3/train/data/feats_fmllr_train.5.ark:8778525
mdef0_sx213 quick_test/data-fmllr-tri3/train/data/feats_fmllr_train.5.ark:202843
mdac0_sx181 quick_test/data-fmllr-tri3/train/data/feats_fmllr_train.4.ark:14526101
fsah0_sx344 quick_test/data-fmllr-tri3/train/data/feats_fmllr_train.3.ark:5840465
msvs0_sx398 quick_test/data-fmllr-tri3/train/data/feats_fmllr_train.10.ark:414282
mdbb1_si1636 quick_test/data-fmllr-tri3/train/data/feats_fmllr_train.4.ark:15179278
fgdp0_sx88 quick_test/data-fmllr-tri3/train/data/feats_fmllr_train.1.ark:16985640
mdbb1_sx196 quick_test/data-fmllr-tri3/train/data/feats_fmllr_train.4.ark:15338426
mrcg0_si1428 quick_test/data-fmllr-tri3/train/data/feats_fmllr_train.8.ark:13228352
mrws0_sx382 quick_test/data-fmllr-tri3/train/data/feats_fmllr_train.9.ark:10662166
mppc0_sx422 quick_test/data-fmllr-tri3/train/data/feats_fmllr_train.8.ark:8830550
fjen0_si2307 quick_test/data-fmllr-tri3/train/data/feats_fmllr_train.2.ark:515007
mpar0_sx406 quick_test/data-fmllr-tri3/train/data/feats_fmllr_train.8.ark:5989671
mkls0_sx177 quick_test/data-fmllr-tri3/train/data/feats_fmllr_train.7.ark:8385452
mtrr0_sx378 quick_test/data-fmllr-tri3/train/data/feats_fmllr_train.10.ark:11132621
mcdd0_si1513 quick_test/data-fmllr-tri3/train/data/feats_fmllr_train.4.ark:9348798
mmwb0_si989 quick_test/data-fmllr-tri3/train/data/feats_fmllr_train.8.ark:3577864
mcal0_sx328 quick_test/data-fmllr-tri3/train/data/feats_fmllr_train.4.ark:8808980
mjfh0_sx297 quick_test/data-fmllr-tri3/train/data/feats_fmllr_train.6.ark:11449823
mmdm1_sx423 quick_test/data-fmllr-tri3/train/data/feats_fmllr_train.7.ark:16913292
fclt0_sx358 quick_test/data-fmllr-tri3/train/data/feats_fmllr_train.1.ark:7644109
mcth0_si579 quick_test/data-fmllr-tri3/train/data/feats_fmllr_train.4.ark:13323183
mbbr0_sx335 quick_test/data-fmllr-tri3/train/data/feats_fmllr_train.4.ark:3979923
mdem0_sx428 quick_test/data-fmllr-tri3/train/data/feats_fmllr_train.5.ark:703273
mgag0_si645 quick_test/data-fmllr-tri3/train/data/feats_fmllr_train.5.ark:16632949
mbef0_sx21 quick_test/data-fmllr-tri3/train/data/feats_fmllr_train.4.ark:4694275
fjlg0_si1506 quick_test/data-fmllr-tri3/train/data/feats_fmllr_train.2.ark:1614004
mrlj1_sx321 quick_test/data-fmllr-tri3/train/data/feats_fmllr_train.9.ark:4263917
mtdp0_si1274 quick_test/data-fmllr-tri3/train/data/feats_fmllr_train.10.ark:3218869
mmws1_si1071 quick_test/data-fmllr-tri3/train/data/feats_fmllr_train.8.ark:4306722
fcjs0_sx437 quick_test/data-fmllr-tri3/train/data/feats_fmllr_train.1.ark:6950742
mzmb0_sx266 quick_test/data-fmllr-tri3/train/data/feats_fmllr_train.10.ark:17803010
mreh1_sx429 quick_test/data-fmllr-tri3/train/data/feats_fmllr_train.8.ark:15860379
marw0_sx286 quick_test/data-fmllr-tri3/train/data/feats_fmllr_train.4.ark:3177727
mjdc0_si2165 quick_test/data-fmllr-tri3/train/data/feats_fmllr_train.6.ark:8408490
mrmb0_sx141 quick_test/data-fmllr-tri3/train/data/feats_fmllr_train.9.ark:5289954
maeo0_sx246 quick_test/data-fmllr-tri3/train/data/feats_fmllr_train.4.ark:561140
mdlr0_si1233 quick_test/data-fmllr-tri3/train/data/feats_fmllr_train.5.ark:4649978
mjxa0_si877 quick_test/data-fmllr-tri3/train/data/feats_fmllr_train.7.ark:3350924
mmcc0_si1338 quick_test/data-fmllr-tri3/train/data/feats_fmllr_train.7.ark:15099621
fdjh0_si2195 quick_test/data-fmllr-tri3/train/data/feats_fmllr_train.1.ark:10510860
mbwp0_sx79 quick_test/data-fmllr-tri3/train/data/feats_fmllr_train.4.ark:8056281
mbml0_sx449 quick_test/data-fmllr-tri3/train/data/feats_fmllr_train.4.ark:6588828
mmws1_sx351 quick_test/data-fmllr-tri3/train/data/feats_fmllr_train.8.ark:4495658
mcdr0_si524 quick_test/data-fmllr-tri3/train/data/feats_fmllr_train.4.ark:9831310
mbbr0_si1055 quick_test/data-fmllr-tri3/train/data/feats_fmllr_train.4.ark:3752266
fpjf0_si1259 quick_test/data-fmllr-tri3/train/data/feats_fmllr_train.3.ark:2873239
mpar0_sx226 quick_test/data-fmllr-tri3/train/data/feats_fmllr_train.8.ark:5915217
fskp0_sx18 quick_test/data-fmllr-tri3/train/data/feats_fmllr_train.3.ark:10928219
fear0_si1252 quick_test/data-fmllr-tri3/train/data/feats_fmllr_train.1.ark:13743451
fsgf0_sx387 quick_test/data-fmllr-tri3/train/data/feats_fmllr_train.3.ark:8252861
mdlm0_sx334 quick_test/data-fmllr-tri3/train/data/feats_fmllr_train.5.ark:4542217
mmdb0_si987 quick_test/data-fmllr-tri3/train/data/feats_fmllr_train.7.ark:15563253
msat0_si1526 quick_test/data-fmllr-tri3/train/data/feats_fmllr_train.9.ark:11859166
fsak0_sx400 quick_test/data-fmllr-tri3/train/data/feats_fmllr_train.3.ark:6290175
mwem0_si1393 quick_test/data-fmllr-tri3/train/data/feats_fmllr_train.10.ark:15298748
mkdt0_si893 quick_test/data-fmllr-tri3/train/data/feats_fmllr_train.7.ark:6433458
mjee0_sx427 quick_test/data-fmllr-tri3/train/data/feats_fmllr_train.6.ark:11111687
fbjl0_si2182 quick_test/data-fmllr-tri3/train/data/feats_fmllr_train.1.ark:3325293
fdkn0_sx361 quick_test/data-fmllr-tri3/train/data/feats_fmllr_train.1.ark:11112306
mrtc0_sx198 quick_test/data-fmllr-tri3/train/data/feats_fmllr_train.9.ark:9026044
mjdg0_si1705 quick_test/data-fmllr-tri3/train/data/feats_fmllr_train.6.ark:9352791
fjrp1_si1432 quick_test/data-fmllr-tri3/train/data/feats_fmllr_train.2.ark:2765376
fjkl0_si932 quick_test/data-fmllr-tri3/train/data/feats_fmllr_train.2.ark:1292242
mkag0_si1609 quick_test/data-fmllr-tri3/train/data/feats_fmllr_train.7.ark:4011783
mvlo0_si517 quick_test/data-fmllr-tri3/train/data/feats_fmllr_train.10.ark:12786053
mtxs0_sx160 quick_test/data-fmllr-tri3/train/data/feats_fmllr_train.10.ark:12058606
mjxl0_si1795 quick_test/data-fmllr-tri3/train/data/feats_fmllr_train.7.ark:3687114
mrjm0_sx148 quick_test/data-fmllr-tri3/train/data/feats_fmllr_train.9.ark:1843522
flmc0_sx292 quick_test/data-fmllr-tri3/train/data/feats_fmllr_train.2.ark:13040860
fkkh0_sx120 quick_test/data-fmllr-tri3/train/data/feats_fmllr_train.2.ark:7087469
fdkn0_si1081 quick_test/data-fmllr-tri3/train/data/feats_fmllr_train.1.ark:10838089
fvkb0_sx439 quick_test/data-fmllr-tri3/train/data/feats_fmllr_train.3.ark:16395953
mjws0_si513 quick_test/data-fmllr-tri3/train/data/feats_fmllr_train.7.ark:2487290
fjrb0_sx42 quick_test/data-fmllr-tri3/train/data/feats_fmllr_train.2.ark:2727588
fjlg0_si2306 quick_test/data-fmllr-tri3/train/data/feats_fmllr_train.2.ark:1714060
mrlj0_sx160 quick_test/data-fmllr-tri3/train/data/feats_fmllr_train.9.ark:3860445
mbgt0_sx81 quick_test/data-fmllr-tri3/train/data/feats_fmllr_train.4.ark:5154226
fpjf0_si1046 quick_test/data-fmllr-tri3/train/data/feats_fmllr_train.3.ark:2831611
mdwd0_si557 quick_test/data-fmllr-tri3/train/data/feats_fmllr_train.5.ark:9706136
mmea0_sx398 quick_test/data-fmllr-tri3/train/data/feats_fmllr_train.7.ark:17610552
mtwh1_sx72 quick_test/data-fmllr-tri3/train/data/feats_fmllr_train.10.ark:11855775
mjpm1_sx311 quick_test/data-fmllr-tri3/train/data/feats_fmllr_train.6.ark:17040894
mjdm0_si1937 quick_test/data-fmllr-tri3/train/data/feats_fmllr_train.6.ark:9702581
mmab1_si1494 quick_test/data-fmllr-tri3/train/data/feats_fmllr_train.7.ark:13001095
mrml0_si1421 quick_test/data-fmllr-tri3/train/data/feats_fmllr_train.9.ark:6248925
mrlr0_sx386 quick_test/data-fmllr-tri3/train/data/feats_fmllr_train.9.ark:5112564
mgrp0_sx57 quick_test/data-fmllr-tri3/train/data/feats_fmllr_train.6.ark:2254889
fvkb0_si1159 quick_test/data-fmllr-tri3/train/data/feats_fmllr_train.3.ark:16098030
fdas1_sx111 quick_test/data-fmllr-tri3/train/data/feats_fmllr_train.1.ark:9523061
mjlb0_sx176 quick_test/data-fmllr-tri3/train/data/feats_fmllr_train.6.ark:14090302
fdtd0_sx321 quick_test/data-fmllr-tri3/train/data/feats_fmllr_train.1.ark:12894642
msms0_sx353 quick_test/data-fmllr-tri3/train/data/feats_fmllr_train.9.ark:16854069
mrjb1_sx30 quick_test/data-fmllr-tri3/train/data/feats_fmllr_train.9.ark:1105701
msjk0_sx336 quick_test/data-fmllr-tri3/train/data/feats_fmllr_train.9.ark:15666219
mgaw0_sx175 quick_test/data-fmllr-tri3/train/data/feats_fmllr_train.6.ark:549753
fdtd0_sx301 quick_test/data-fmllr-tri3/train/data/feats_fmllr_train.1.ark:12833975
mrso0_sx309 quick_test/data-fmllr-tri3/train/data/feats_fmllr_train.9.ark:8183211
msmr0_sx415 quick_test/data-fmllr-tri3/train/data/feats_fmllr_train.9.ark:16516919
fsak0_sx310 quick_test/data-fmllr-tri3/train/data/feats_fmllr_train.3.ark:6192042
fclt0_si1438 quick_test/data-fmllr-tri3/train/data/feats_fmllr_train.1.ark:7404133
fdml0_sx159 quick_test/data-fmllr-tri3/train/data/feats_fmllr_train.1.ark:11404790
msem1_si810 quick_test/data-fmllr-tri3/train/data/feats_fmllr_train.9.ark:13798069
mjeb1_si1467 quick_test/data-fmllr-tri3/train/data/feats_fmllr_train.6.ark:10416267
fskp0_sx378 quick_test/data-fmllr-tri3/train/data/feats_fmllr_train.3.ark:11051180
mgag0_sx331 quick_test/data-fmllr-tri3/train/data/feats_fmllr_train.5.ark:16805697
mtrt0_si1227 quick_test/data-fmllr-tri3/train/data/feats_fmllr_train.10.ark:11187849
frll0_sx344 quick_test/data-fmllr-tri3/train/data/feats_fmllr_train.3.ark:4964671
mrew1_si870 quick_test/data-fmllr-tri3/train/data/feats_fmllr_train.8.ark:16413504
mfer0_si862 quick_test/data-fmllr-tri3/train/data/feats_fmllr_train.5.ark:14074975
mree0_sx114 quick_test/data-fmllr-tri3/train/data/feats_fmllr_train.8.ark:15321681
mefg0_si598 quick_test/data-fmllr-tri3/train/data/feats_fmllr_train.5.ark:11534420
mrbc0_sx239 quick_test/data-fmllr-tri3/train/data/feats_fmllr_train.8.ark:13038644
mafm0_si2199 quick_test/data-fmllr-tri3/train/data/feats_fmllr_train.4.ark:770076
mmab1_sx414 quick_test/data-fmllr-tri3/train/data/feats_fmllr_train.7.ark:13306058
fsdj0_si1115 quick_test/data-fmllr-tri3/train/data/feats_fmllr_train.3.ark:7578695
flac0_si2161 quick_test/data-fmllr-tri3/train/data/feats_fmllr_train.2.ark:8942421
mjpg0_sx291 quick_test/data-fmllr-tri3/train/data/feats_fmllr_train.6.ark:16371686
mrds0_si1797 quick_test/data-fmllr-tri3/train/data/feats_fmllr_train.8.ark:14817409
mmwb0_sx89 quick_test/data-fmllr-tri3/train/data/feats_fmllr_train.8.ark:3890158
mkls1_si2175 quick_test/data-fmllr-tri3/train/data/feats_fmllr_train.7.ark:8673135
fdas1_sx21 quick_test/data-fmllr-tri3/train/data/feats_fmllr_train.1.ark:9616554
mtkd0_sx197 quick_test/data-fmllr-tri3/train/data/feats_fmllr_train.10.ark:5938066
flmk0_sx135 quick_test/data-fmllr-tri3/train/data/feats_fmllr_train.2.ark:13358145
mkxl0_sx285 quick_test/data-fmllr-tri3/train/data/feats_fmllr_train.7.ark:10042081
fdnc0_sx378 quick_test/data-fmllr-tri3/train/data/feats_fmllr_train.1.ark:12532691
mdpk0_sx63 quick_test/data-fmllr-tri3/train/data/feats_fmllr_train.5.ark:7377710
mpgh0_sx384 quick_test/data-fmllr-tri3/train/data/feats_fmllr_train.8.ark:7118987
mmab1_si2124 quick_test/data-fmllr-tri3/train/data/feats_fmllr_train.7.ark:13025443
mtrc0_sx183 quick_test/data-fmllr-tri3/train/data/feats_fmllr_train.10.ark:10667364
fskp0_si1728 quick_test/data-fmllr-tri3/train/data/feats_fmllr_train.3.ark:10804939
mmdg0_sx340 quick_test/data-fmllr-tri3/train/data/feats_fmllr_train.7.ark:16099231
mfxv0_sx105 quick_test/data-fmllr-tri3/train/data/feats_fmllr_train.5.ark:16034970
frll0_sx254 quick_test/data-fmllr-tri3/train/data/feats_fmllr_train.3.ark:4924644
mrlj0_sx340 quick_test/data-fmllr-tri3/train/data/feats_fmllr_train.9.ark:3951379
flod0_sx171 quick_test/data-fmllr-tri3/train/data/feats_fmllr_train.2.ark:13766709
mgsh0_sx186 quick_test/data-fmllr-tri3/train/data/feats_fmllr_train.6.ark:2530706
mjfr0_sx75 quick_test/data-fmllr-tri3/train/data/feats_fmllr_train.6.ark:11902867
msfh0_si1738 quick_test/data-fmllr-tri3/train/data/feats_fmllr_train.9.ark:14556237
mrtc0_si828 quick_test/data-fmllr-tri3/train/data/feats_fmllr_train.9.ark:8885484
mrmb0_si951 quick_test/data-fmllr-tri3/train/data/feats_fmllr_train.9.ark:5232647
mjhi0_sx158 quick_test/data-fmllr-tri3/train/data/feats_fmllr_train.6.ark:12114816
mabc0_si781 quick_test/data-fmllr-tri3/train/data/feats_fmllr_train.3.ark:16920439
marw0_sx376 quick_test/data-fmllr-tri3/train/data/feats_fmllr_train.4.ark:3328821
mejs0_sx340 quick_test/data-fmllr-tri3/train/data/feats_fmllr_train.5.ark:12855630
mkls0_sx447 quick_test/data-fmllr-tri3/train/data/feats_fmllr_train.7.ark:8536253
madd0_si1295 quick_test/data-fmllr-tri3/train/data/feats_fmllr_train.3.ark:17591378
mdem0_sx68 quick_test/data-fmllr-tri3/train/data/feats_fmllr_train.5.ark:774819
mstf0_sx136 quick_test/data-fmllr-tri3/train/data/feats_fmllr_train.9.ark:17891624
flkm0_si686 quick_test/data-fmllr-tri3/train/data/feats_fmllr_train.2.ark:12179546
mtrr0_sx288 quick_test/data-fmllr-tri3/train/data/feats_fmllr_train.10.ark:11079634
fkaa0_sx128 quick_test/data-fmllr-tri3/train/data/feats_fmllr_train.2.ark:5349480
mfrm0_sx255 quick_test/data-fmllr-tri3/train/data/feats_fmllr_train.5.ark:14948104
fdfb0_sx148 quick_test/data-fmllr-tri3/train/data/feats_fmllr_train.1.ark:10261577
flod0_si1287 quick_test/data-fmllr-tri3/train/data/feats_fmllr_train.2.ark:13583560
mcss0_si750 quick_test/data-fmllr-tri3/train/data/feats_fmllr_train.4.ark:12977526
mdwm0_si916 quick_test/data-fmllr-tri3/train/data/feats_fmllr_train.5.ark:10479370
fmkf0_sx186 quick_test/data-fmllr-tri3/train/data/feats_fmllr_train.2.ark:17307836
mesg0_sx342 quick_test/data-fmllr-tri3/train/data/feats_fmllr_train.5.ark:13213127
mrws0_sx22 quick_test/data-fmllr-tri3/train/data/feats_fmllr_train.9.ark:10577472
mtkp0_si2283 quick_test/data-fmllr-tri3/train/data/feats_fmllr_train.10.ark:6139936
mgrp0_si1317 quick_test/data-fmllr-tri3/train/data/feats_fmllr_train.6.ark:1876140
mbma1_sx324 quick_test/data-fmllr-tri3/train/data/feats_fmllr_train.4.ark:6153224
fpaf0_sx154 quick_test/data-fmllr-tri3/train/data/feats_fmllr_train.3.ark:2192060
mmag0_sx136 quick_test/data-fmllr-tri3/train/data/feats_fmllr_train.7.ark:13582674
fksr0_sx366 quick_test/data-fmllr-tri3/train/data/feats_fmllr_train.2.ark:8712552
msah1_si1679 quick_test/data-fmllr-tri3/train/data/feats_fmllr_train.9.ark:11139399
mdlb0_sx226 quick_test/data-fmllr-tri3/train/data/feats_fmllr_train.5.ark:2562865
fjdm2_si1964 quick_test/data-fmllr-tri3/train/data/feats_fmllr_train.2.ark:42601
fkfb0_sx438 quick_test/data-fmllr-tri3/train/data/feats_fmllr_train.2.ark:6749093
mded0_sx90 quick_test/data-fmllr-tri3/train/data/feats_fmllr_train.4.ark:17369325
mcpm0_sx204 quick_test/data-fmllr-tri3/train/data/feats_fmllr_train.4.ark:12316827
falr0_si695 quick_test/data-fmllr-tri3/train/data/feats_fmllr_train.1.ark:1302954
mfrm0_sx75 quick_test/data-fmllr-tri3/train/data/feats_fmllr_train.5.ark:15087064
mljc0_sx55 quick_test/data-fmllr-tri3/train/data/feats_fmllr_train.7.ark:11281959
fljg0_si981 quick_test/data-fmllr-tri3/train/data/feats_fmllr_train.2.ark:11672930
fpjf0_sx326 quick_test/data-fmllr-tri3/train/data/feats_fmllr_train.3.ark:3058948
fbmj0_si815 quick_test/data-fmllr-tri3/train/data/feats_fmllr_train.1.ark:4596531
mzmb0_sx176 quick_test/data-fmllr-tri3/train/data/feats_fmllr_train.10.ark:17744423
ftbw0_si1345 quick_test/data-fmllr-tri3/train/data/feats_fmllr_train.3.ark:14590442
mclm0_si2086 quick_test/data-fmllr-tri3/train/data/feats_fmllr_train.4.ark:11816369
fsak0_sx40 quick_test/data-fmllr-tri3/train/data/feats_fmllr_train.3.ark:6244388
mjls0_sx16 quick_test/data-fmllr-tri3/train/data/feats_fmllr_train.6.ark:14880843
mrsp0_sx439 quick_test/data-fmllr-tri3/train/data/feats_fmllr_train.9.ark:8651455
mrjm1_sx38 quick_test/data-fmllr-tri3/train/data/feats_fmllr_train.9.ark:2392139
mrjb1_si2021 quick_test/data-fmllr-tri3/train/data/feats_fmllr_train.9.ark:923541
mdwd0_sx90 quick_test/data-fmllr-tri3/train/data/feats_fmllr_train.5.ark:9899710
fexm0_sx366 quick_test/data-fmllr-tri3/train/data/feats_fmllr_train.1.ark:16135579
mrew1_sx240 quick_test/data-fmllr-tri3/train/data/feats_fmllr_train.8.ark:16503798
fdmy0_sx117 quick_test/data-fmllr-tri3/train/data/feats_fmllr_train.1.ark:11877326
fnkl0_si2152 quick_test/data-fmllr-tri3/train/data/feats_fmllr_train.3.ark:40521
mmvp0_sx204 quick_test/data-fmllr-tri3/train/data/feats_fmllr_train.8.ark:3217380
majp0_sx174 quick_test/data-fmllr-tri3/train/data/feats_fmllr_train.4.ark:1219468
marw0_sx16 quick_test/data-fmllr-tri3/train/data/feats_fmllr_train.4.ark:3135300
mjls0_sx376 quick_test/data-fmllr-tri3/train/data/feats_fmllr_train.6.ark:15009724
fbjl0_sx382 quick_test/data-fmllr-tri3/train/data/feats_fmllr_train.1.ark:3614254
fsls0_sx202 quick_test/data-fmllr-tri3/train/data/feats_fmllr_train.3.ark:11316758
mcef0_si1135 quick_test/data-fmllr-tri3/train/data/feats_fmllr_train.4.ark:10123952
mjpm1_sx401 quick_test/data-fmllr-tri3/train/data/feats_fmllr_train.6.ark:17117561
marc0_sx198 quick_test/data-fmllr-tri3/train/data/feats_fmllr_train.4.ark:2849030
mwsb0_si1626 quick_test/data-fmllr-tri3/train/data/feats_fmllr_train.10.ark:16797669
mdlc0_sx135 quick_test/data-fmllr-tri3/train/data/feats_fmllr_train.5.ark:2968815
mcdc0_sx302 quick_test/data-fmllr-tri3/train/data/feats_fmllr_train.4.ark:9213517
mafm0_sx129 quick_test/data-fmllr-tri3/train/data/feats_fmllr_train.4.ark:850450
mdss1_sx427 quick_test/data-fmllr-tri3/train/data/feats_fmllr_train.5.ark:9169329
mter0_sx17 quick_test/data-fmllr-tri3/train/data/feats_fmllr_train.10.ark:3908155
mlel0_sx256 quick_test/data-fmllr-tri3/train/data/feats_fmllr_train.7.ark:10730782
mrmg0_si2340 quick_test/data-fmllr-tri3/train/data/feats_fmllr_train.9.ark:5602465
mdcm0_sx310 quick_test/data-fmllr-tri3/train/data/feats_fmllr_train.4.ark:16522598
mvlo0_sx67 quick_test/data-fmllr-tri3/train/data/feats_fmllr_train.10.ark:13034027
mdlm0_si1234 quick_test/data-fmllr-tri3/train/data/feats_fmllr_train.5.ark:4310241
fcdr1_sx106 quick_test/data-fmllr-tri3/train/data/feats_fmllr_train.1.ark:5825530
mtlb0_si1764 quick_test/data-fmllr-tri3/train/data/feats_fmllr_train.10.ark:6569273
mtju0_si2020 quick_test/data-fmllr-tri3/train/data/feats_fmllr_train.10.ark:5304434
mtjs0_si562 quick_test/data-fmllr-tri3/train/data/feats_fmllr_train.10.ark:4980272
fmpg0_sx72 quick_test/data-fmllr-tri3/train/data/feats_fmllr_train.2.ark:18382293
mmbs0_sx251 quick_test/data-fmllr-tri3/train/data/feats_fmllr_train.7.ark:14880313
fcjs0_si2237 quick_test/data-fmllr-tri3/train/data/feats_fmllr_train.1.ark:6728207
mkdb0_sx332 quick_test/data-fmllr-tri3/train/data/feats_fmllr_train.7.ark:5785586
mded0_si540 quick_test/data-fmllr-tri3/train/data/feats_fmllr_train.4.ark:17098471
fkaa0_sx398 quick_test/data-fmllr-tri3/train/data/feats_fmllr_train.2.ark:5559347
mdcd0_si2045 quick_test/data-fmllr-tri3/train/data/feats_fmllr_train.4.ark:15932673
msfv0_sx182 quick_test/data-fmllr-tri3/train/data/feats_fmllr_train.9.ark:15153788
mwch0_sx452 quick_test/data-fmllr-tri3/train/data/feats_fmllr_train.10.ark:14769649
msah1_sx59 quick_test/data-fmllr-tri3/train/data/feats_fmllr_train.9.ark:11389961
fjsp0_sx84 quick_test/data-fmllr-tri3/train/data/feats_fmllr_train.2.ark:3984240
mgxp0_sx97 quick_test/data-fmllr-tri3/train/data/feats_fmllr_train.6.ark:3521774
mrav0_si2268 quick_test/data-fmllr-tri3/train/data/feats_fmllr_train.8.ark:12593253
flja0_sx88 quick_test/data-fmllr-tri3/train/data/feats_fmllr_train.2.ark:11143990
fcyl0_sx349 quick_test/data-fmllr-tri3/train/data/feats_fmllr_train.1.ark:9168658
msfh0_sx46 quick_test/data-fmllr-tri3/train/data/feats_fmllr_train.9.ark:14934158
mtwh1_sx252 quick_test/data-fmllr-tri3/train/data/feats_fmllr_train.10.ark:11715215
mjmm0_si1255 quick_test/data-fmllr-tri3/train/data/feats_fmllr_train.6.ark:15752747
mkxl0_sx195 quick_test/data-fmllr-tri3/train/data/feats_fmllr_train.7.ark:10010374
mmdm0_si1941 quick_test/data-fmllr-tri3/train/data/feats_fmllr_train.7.ark:16319660
mjrp0_sx135 quick_test/data-fmllr-tri3/train/data/feats_fmllr_train.7.ark:1255467
mstf0_sx406 quick_test/data-fmllr-tri3/train/data/feats_fmllr_train.9.ark:18040985
medr0_sx204 quick_test/data-fmllr-tri3/train/data/feats_fmllr_train.5.ark:11283059
fcag0_si2133 quick_test/data-fmllr-tri3/train/data/feats_fmllr_train.1.ark:4955309
mchl0_sx177 quick_test/data-fmllr-tri3/train/data/feats_fmllr_train.4.ark:11151989
mmlm0_si2150 quick_test/data-fmllr-tri3/train/data/feats_fmllr_train.8.ark:1458991
mjws0_sx153 quick_test/data-fmllr-tri3/train/data/feats_fmllr_train.7.ark:2531797
mpgr1_sx329 quick_test/data-fmllr-tri3/train/data/feats_fmllr_train.8.ark:7745289
mbml0_si1799 quick_test/data-fmllr-tri3/train/data/feats_fmllr_train.4.ark:6365493
fkde0_sx61 quick_test/data-fmllr-tri3/train/data/feats_fmllr_train.2.ark:5995565
mdlr0_sx153 quick_test/data-fmllr-tri3/train/data/feats_fmllr_train.5.ark:4787980
mcef0_si842 quick_test/data-fmllr-tri3/train/data/feats_fmllr_train.4.ark:10211847
fjxm0_sx131 quick_test/data-fmllr-tri3/train/data/feats_fmllr_train.2.ark:4539286
msem1_sx360 quick_test/data-fmllr-tri3/train/data/feats_fmllr_train.9.ark:14007270
fkfb0_sx168 quick_test/data-fmllr-tri3/train/data/feats_fmllr_train.2.ark:6598132
mzmb0_si1166 quick_test/data-fmllr-tri3/train/data/feats_fmllr_train.10.ark:17595701
mjjm0_si827 quick_test/data-fmllr-tri3/train/data/feats_fmllr_train.6.ark:13298001
mlbc0_si1239 quick_test/data-fmllr-tri3/train/data/feats_fmllr_train.7.ark:10126776
mljh0_si1324 quick_test/data-fmllr-tri3/train/data/feats_fmllr_train.7.ark:11325187
mreh1_si1599 quick_test/data-fmllr-tri3/train/data/feats_fmllr_train.8.ark:15518456
mses0_si2219 quick_test/data-fmllr-tri3/train/data/feats_fmllr_train.9.ark:14253007
mmlm0_si1527 quick_test/data-fmllr-tri3/train/data/feats_fmllr_train.8.ark:1439763
mklw0_si1844 quick_test/data-fmllr-tri3/train/data/feats_fmllr_train.7.ark:9072552
fklh0_sx87 quick_test/data-fmllr-tri3/train/data/feats_fmllr_train.2.ark:8437028
mdpk0_sx333 quick_test/data-fmllr-tri3/train/data/feats_fmllr_train.5.ark:7272377
mgaw0_sx445 quick_test/data-fmllr-tri3/train/data/feats_fmllr_train.6.ark:682954
mtkd0_si1817 quick_test/data-fmllr-tri3/train/data/feats_fmllr_train.10.ark:5712199
fhlm0_si930 quick_test/data-fmllr-tri3/train/data/feats_fmllr_train.1.ark:18029998
mvrw0_sx135 quick_test/data-fmllr-tri3/train/data/feats_fmllr_train.10.ark:13226617
majp0_sx84 quick_test/data-fmllr-tri3/train/data/feats_fmllr_train.4.ark:1439095
mrgm0_sx262 quick_test/data-fmllr-tri3/train/data/feats_fmllr_train.8.ark:17738690
fmbg0_sx440 quick_test/data-fmllr-tri3/train/data/feats_fmllr_train.2.ark:14997335
mclk0_si650 quick_test/data-fmllr-tri3/train/data/feats_fmllr_train.4.ark:11457939
msvs0_sx128 quick_test/data-fmllr-tri3/train/data/feats_fmllr_train.10.ark:200255
fmem0_si747 quick_test/data-fmllr-tri3/train/data/feats_fmllr_train.2.ark:15209124
meal0_sx107 quick_test/data-fmllr-tri3/train/data/feats_fmllr_train.5.ark:10884574
fsjw0_sx433 quick_test/data-fmllr-tri3/train/data/feats_fmllr_train.3.ark:9891623
fleh0_sx331 quick_test/data-fmllr-tri3/train/data/feats_fmllr_train.2.ark:9903604
fksr0_si1117 quick_test/data-fmllr-tri3/train/data/feats_fmllr_train.2.ark:8479456
mrre0_si952 quick_test/data-fmllr-tri3/train/data/feats_fmllr_train.9.ark:7553152
mcth0_sx129 quick_test/data-fmllr-tri3/train/data/feats_fmllr_train.4.ark:13379530
fjlr0_sx241 quick_test/data-fmllr-tri3/train/data/feats_fmllr_train.2.ark:2187931
fdas1_si831 quick_test/data-fmllr-tri3/train/data/feats_fmllr_train.1.ark:9446394
fsak0_si1300 quick_test/data-fmllr-tri3/train/data/feats_fmllr_train.3.ark:5957186
mkes0_si1253 quick_test/data-fmllr-tri3/train/data/feats_fmllr_train.7.ark:6725940
mlbc0_sx249 quick_test/data-fmllr-tri3/train/data/feats_fmllr_train.7.ark:10331045
mmsm0_si1106 quick_test/data-fmllr-tri3/train/data/feats_fmllr_train.8.ark:2568094
mjee0_si1237 quick_test/data-fmllr-tri3/train/data/feats_fmllr_train.6.ark:10834884
mdpb0_sx236 quick_test/data-fmllr-tri3/train/data/feats_fmllr_train.5.ark:6899813
fpaf0_si1684 quick_test/data-fmllr-tri3/train/data/feats_fmllr_train.3.ark:2116645
mhmg0_si735 quick_test/data-fmllr-tri3/train/data/feats_fmllr_train.6.ark:4692269
mkls1_sx375 quick_test/data-fmllr-tri3/train/data/feats_fmllr_train.7.ark:8939376
mklr0_sx69 quick_test/data-fmllr-tri3/train/data/feats_fmllr_train.7.ark:8156061
mjee0_si1867 quick_test/data-fmllr-tri3/train/data/feats_fmllr_train.6.ark:10886272
mdwm0_si1546 quick_test/data-fmllr-tri3/train/data/feats_fmllr_train.5.ark:10394195
mcae0_sx187 quick_test/data-fmllr-tri3/train/data/feats_fmllr_train.4.ark:8351751
mrfl0_si526 quick_test/data-fmllr-tri3/train/data/feats_fmllr_train.8.ark:17160499
mdlh0_sx430 quick_test/data-fmllr-tri3/train/data/feats_fmllr_train.5.ark:4228587
falr0_sx155 quick_test/data-fmllr-tri3/train/data/feats_fmllr_train.1.ark:1348261
mdwh0_sx35 quick_test/data-fmllr-tri3/train/data/feats_fmllr_train.5.ark:10286460
feme0_sx155 quick_test/data-fmllr-tri3/train/data/feats_fmllr_train.1.ark:15155704
fapb0_sx163 quick_test/data-fmllr-tri3/train/data/feats_fmllr_train.1.ark:1767839
mmgc0_si1935 quick_test/data-fmllr-tri3/train/data/feats_fmllr_train.8.ark:67561
fnkl0_sx172 quick_test/data-fmllr-tri3/train/data/feats_fmllr_train.3.ark:156095
fmmh0_sx187 quick_test/data-fmllr-tri3/train/data/feats_fmllr_train.2.ark:17703731
mhxl0_si612 quick_test/data-fmllr-tri3/train/data/feats_fmllr_train.6.ark:5812439
fdml0_sx429 quick_test/data-fmllr-tri3/train/data/feats_fmllr_train.1.ark:11522791
mjwg0_sx175 quick_test/data-fmllr-tri3/train/data/feats_fmllr_train.7.ark:2162780
mdwh0_sx125 quick_test/data-fmllr-tri3/train/data/feats_fmllr_train.5.ark:10126060
mrre0_sx164 quick_test/data-fmllr-tri3/train/data/feats_fmllr_train.9.ark:7632379
fsjg0_sx400 quick_test/data-fmllr-tri3/train/data/feats_fmllr_train.3.ark:8756918
mapv0_si663 quick_test/data-fmllr-tri3/train/data/feats_fmllr_train.4.ark:2364733
fbcg1_sx352 quick_test/data-fmllr-tri3/train/data/feats_fmllr_train.1.ark:2681928
fgdp0_si988 quick_test/data-fmllr-tri3/train/data/feats_fmllr_train.1.ark:16694626
mfer0_si2122 quick_test/data-fmllr-tri3/train/data/feats_fmllr_train.5.ark:14053828
medr0_si744 quick_test/data-fmllr-tri3/train/data/feats_fmllr_train.5.ark:11182685
mtwh1_sx162 quick_test/data-fmllr-tri3/train/data/feats_fmllr_train.10.ark:11674708
mdjm0_sx15 quick_test/data-fmllr-tri3/train/data/feats_fmllr_train.5.ark:1763869
mmws0_si559 quick_test/data-fmllr-tri3/train/data/feats_fmllr_train.8.ark:3990533
mpgr0_sx60 quick_test/data-fmllr-tri3/train/data/feats_fmllr_train.8.ark:7457284
mafm0_si939 quick_test/data-fmllr-tri3/train/data/feats_fmllr_train.4.ark:787543
fapb0_sx253 quick_test/data-fmllr-tri3/train/data/feats_fmllr_train.1.ark:1818106
mfxs0_sx414 quick_test/data-fmllr-tri3/train/data/feats_fmllr_train.5.ark:15763633
mfrm0_sx165 quick_test/data-fmllr-tri3/train/data/feats_fmllr_train.5.ark:14903277
mmsm0_si1736 quick_test/data-fmllr-tri3/train/data/feats_fmllr_train.8.ark:2635802
mmdm0_si1311 quick_test/data-fmllr-tri3/train/data/feats_fmllr_train.7.ark:16233392
mbgt0_sx261 quick_test/data-fmllr-tri3/train/data/feats_fmllr_train.4.ark:5009986
fbch0_si1586 quick_test/data-fmllr-tri3/train/data/feats_fmllr_train.1.ark:2849049
mjrh0_sx405 quick_test/data-fmllr-tri3/train/data/feats_fmllr_train.7.ark:297137
marc0_sx18 quick_test/data-fmllr-tri3/train/data/feats_fmllr_train.4.ark:2811883
mjkr0_sx391 quick_test/data-fmllr-tri3/train/data/feats_fmllr_train.6.ark:13911472
mfwk0_sx349 quick_test/data-fmllr-tri3/train/data/feats_fmllr_train.5.ark:15332348
mges0_sx401 quick_test/data-fmllr-tri3/train/data/feats_fmllr_train.6.ark:987011
mrlj1_si2332 quick_test/data-fmllr-tri3/train/data/feats_fmllr_train.9.ark:4172956
fsbk0_si2329 quick_test/data-fmllr-tri3/train/data/feats_fmllr_train.3.ark:6421299
fpmy0_sx73 quick_test/data-fmllr-tri3/train/data/feats_fmllr_train.3.ark:3959913
mddc0_sx429 quick_test/data-fmllr-tri3/train/data/feats_fmllr_train.4.ark:16914362
mstf0_si1396 quick_test/data-fmllr-tri3/train/data/feats_fmllr_train.9.ark:17729943
msat0_sx86 quick_test/data-fmllr-tri3/train/data/feats_fmllr_train.9.ark:12126395
msdh0_si2240 quick_test/data-fmllr-tri3/train/data/feats_fmllr_train.9.ark:12821927
mwgr0_sx436 quick_test/data-fmllr-tri3/train/data/feats_fmllr_train.10.ark:15949341
mjhi0_si698 quick_test/data-fmllr-tri3/train/data/feats_fmllr_train.6.ark:12057509
mdem0_sx158 quick_test/data-fmllr-tri3/train/data/feats_fmllr_train.5.ark:547832
mvrw0_sx405 quick_test/data-fmllr-tri3/train/data/feats_fmllr_train.10.ark:13333738
mrgm0_sx416 quick_test/data-fmllr-tri3/train/data/feats_fmllr_train.8.ark:17785917
mcef0_sx145 quick_test/data-fmllr-tri3/train/data/feats_fmllr_train.4.ark:10278434
mtjg0_sx260 quick_test/data-fmllr-tri3/train/data/feats_fmllr_train.10.ark:4270132
mjdm0_si1340 quick_test/data-fmllr-tri3/train/data/feats_fmllr_train.6.ark:9616153
msas0_si2006 quick_test/data-fmllr-tri3/train/data/feats_fmllr_train.9.ark:11499457
mefg0_sx105 quick_test/data-fmllr-tri3/train/data/feats_fmllr_train.5.ark:11607567
mbcg0_si957 quick_test/data-fmllr-tri3/train/data/feats_fmllr_train.4.ark:4183098
mpfu0_sx268 quick_test/data-fmllr-tri3/train/data/feats_fmllr_train.8.ark:6613731
mram0_sx15 quick_test/data-fmllr-tri3/train/data/feats_fmllr_train.8.ark:12333568
mcal0_sx238 quick_test/data-fmllr-tri3/train/data/feats_fmllr_train.4.ark:8769593
mmab1_sx54 quick_test/data-fmllr-tri3/train/data/feats_fmllr_train.7.ark:13354244
mwad0_si1062 quick_test/data-fmllr-tri3/train/data/feats_fmllr_train.10.ark:13878809
mpmb0_sx151 quick_test/data-fmllr-tri3/train/data/feats_fmllr_train.8.ark:8180332
mrdm0_si1595 quick_test/data-fmllr-tri3/train/data/feats_fmllr_train.8.ark:14477032
mdtb0_si1830 quick_test/data-fmllr-tri3/train/data/feats_fmllr_train.5.ark:9281891
mcxm0_si1351 quick_test/data-fmllr-tri3/train/data/feats_fmllr_train.4.ark:13986762
mkaj0_sx334 quick_test/data-fmllr-tri3/train/data/feats_fmllr_train.7.ark:5035552
mdbb1_si1006 quick_test/data-fmllr-tri3/train/data/feats_fmllr_train.4.ark:15118290
mcre0_sx221 quick_test/data-fmllr-tri3/train/data/feats_fmllr_train.4.ark:12640245
mmam0_sx337 quick_test/data-fmllr-tri3/train/data/feats_fmllr_train.7.ark:14060866
fmjf0_sx264 quick_test/data-fmllr-tri3/train/data/feats_fmllr_train.2.ark:16126251
mjpg0_sx201 quick_test/data-fmllr-tri3/train/data/feats_fmllr_train.6.ark:16304433
mdrd0_si752 quick_test/data-fmllr-tri3/train/data/feats_fmllr_train.5.ark:7849210
mrdd0_sx277 quick_test/data-fmllr-tri3/train/data/feats_fmllr_train.8.ark:14270843
fsls0_si1056 quick_test/data-fmllr-tri3/train/data/feats_fmllr_train.3.ark:11094088
msdb0_si1007 quick_test/data-fmllr-tri3/train/data/feats_fmllr_train.9.ark:12525841
mjae0_si1999 quick_test/data-fmllr-tri3/train/data/feats_fmllr_train.6.ark:6911140
msds0_sx177 quick_test/data-fmllr-tri3/train/data/feats_fmllr_train.9.ark:13396439
mjac0_sx431 quick_test/data-fmllr-tri3/train/data/feats_fmllr_train.6.ark:6765138
fklc1_si1678 quick_test/data-fmllr-tri3/train/data/feats_fmllr_train.2.ark:7782569
mdtb0_si570 quick_test/data-fmllr-tri3/train/data/feats_fmllr_train.5.ark:9315038
falk0_si658 quick_test/data-fmllr-tri3/train/data/feats_fmllr_train.1.ark:905779
mjmm0_sx85 quick_test/data-fmllr-tri3/train/data/feats_fmllr_train.6.ark:16072776
fltm0_si1070 quick_test/data-fmllr-tri3/train/data/feats_fmllr_train.2.ark:13933538
fmkc0_sx82 quick_test/data-fmllr-tri3/train/data/feats_fmllr_train.2.ark:17085166
makr0_sx272 quick_test/data-fmllr-tri3/train/data/feats_fmllr_train.4.ark:2098330
mdlc1_si2144 quick_test/data-fmllr-tri3/train/data/feats_fmllr_train.5.ark:3334126
flhd0_si1827 quick_test/data-fmllr-tri3/train/data/feats_fmllr_train.2.ark:10463130
mjwg0_sx85 quick_test/data-fmllr-tri3/train/data/feats_fmllr_train.7.ark:2361607
mrjm1_sx128 quick_test/data-fmllr-tri3/train/data/feats_fmllr_train.9.ark:2254299
fmjf0_si1884 quick_test/data-fmllr-tri3/train/data/feats_fmllr_train.2.ark:15956250
mkrg0_sx51 quick_test/data-fmllr-tri3/train/data/feats_fmllr_train.7.ark:9718370
mrwa0_sx73 quick_test/data-fmllr-tri3/train/data/feats_fmllr_train.9.ark:10333629
flma0_sx253 quick_test/data-fmllr-tri3/train/data/feats_fmllr_train.2.ark:12657257
mmag0_sx316 quick_test/data-fmllr-tri3/train/data/feats_fmllr_train.7.ark:13699048
mrhl0_sx165 quick_test/data-fmllr-tri3/train/data/feats_fmllr_train.9.ark:563830
fsjk1_si2285 quick_test/data-fmllr-tri3/train/data/feats_fmllr_train.3.ark:8876014
mjpm0_sx18 quick_test/data-fmllr-tri3/train/data/feats_fmllr_train.6.ark:16650089
mdlm0_sx244 quick_test/data-fmllr-tri3/train/data/feats_fmllr_train.5.ark:4502830
mdma0_si1430 quick_test/data-fmllr-tri3/train/data/feats_fmllr_train.5.ark:5503720
mwrp0_sx273 quick_test/data-fmllr-tri3/train/data/feats_fmllr_train.10.ark:16633883
fcjs0_si1607 quick_test/data-fmllr-tri3/train/data/feats_fmllr_train.1.ark:6700339
mbth0_sx392 quick_test/data-fmllr-tri3/train/data/feats_fmllr_train.4.ark:7656704
mbth0_si2102 quick_test/data-fmllr-tri3/train/data/feats_fmllr_train.4.ark:7293476
mmcc0_si708 quick_test/data-fmllr-tri3/train/data/feats_fmllr_train.7.ark:15207196
mhmr0_sx39 quick_test/data-fmllr-tri3/train/data/feats_fmllr_train.6.ark:5277873
fklc1_sx58 quick_test/data-fmllr-tri3/train/data/feats_fmllr_train.2.ark:8037291
mbth0_sx32 quick_test/data-fmllr-tri3/train/data/feats_fmllr_train.4.ark:7612197
mrmh0_sx31 quick_test/data-fmllr-tri3/train/data/feats_fmllr_train.9.ark:6190790
mmvp0_si1284 quick_test/data-fmllr-tri3/train/data/feats_fmllr_train.8.ark:2969111
fear0_sx442 quick_test/data-fmllr-tri3/train/data/feats_fmllr_train.1.ark:14037374
flma0_si1873 quick_test/data-fmllr-tri3/train/data/feats_fmllr_train.2.ark:12513176
mbcg0_si486 quick_test/data-fmllr-tri3/train/data/feats_fmllr_train.4.ark:4155871
mdas0_sx276 quick_test/data-fmllr-tri3/train/data/feats_fmllr_train.4.ark:14999011
fcrz0_sx73 quick_test/data-fmllr-tri3/train/data/feats_fmllr_train.1.ark:8883854
mjrh0_si1755 quick_test/data-fmllr-tri3/train/data/feats_fmllr_train.7.ark:40521
mmar0_si1336 quick_test/data-fmllr-tri3/train/data/feats_fmllr_train.7.ark:14181587
msrr0_sx411 quick_test/data-fmllr-tri3/train/data/feats_fmllr_train.9.ark:17633569
mmrp0_sx324 quick_test/data-fmllr-tri3/train/data/feats_fmllr_train.8.ark:2378413
mkdd0_si937 quick_test/data-fmllr-tri3/train/data/feats_fmllr_train.7.ark:6078042
mfrm0_si1785 quick_test/data-fmllr-tri3/train/data/feats_fmllr_train.5.ark:14858930
fsjw0_sx163 quick_test/data-fmllr-tri3/train/data/feats_fmllr_train.3.ark:9756182
fjkl0_sx392 quick_test/data-fmllr-tri3/train/data/feats_fmllr_train.2.ark:1564696
fgcs0_si1486 quick_test/data-fmllr-tri3/train/data/feats_fmllr_train.1.ark:16249234
mjra0_sx336 quick_test/data-fmllr-tri3/train/data/feats_fmllr_train.6.ark:17450231
ftlg0_sx33 quick_test/data-fmllr-tri3/train/data/feats_fmllr_train.3.ark:15299620
mmea0_si1388 quick_test/data-fmllr-tri3/train/data/feats_fmllr_train.7.ark:17323963
mtxs0_si1690 quick_test/data-fmllr-tri3/train/data/feats_fmllr_train.10.ark:11959031
mbma0_si1222 quick_test/data-fmllr-tri3/train/data/feats_fmllr_train.4.ark:5550791
flet0_si507 quick_test/data-fmllr-tri3/train/data/feats_fmllr_train.2.ark:10154460
ftmg0_sx182 quick_test/data-fmllr-tri3/train/data/feats_fmllr_train.3.ark:15527117
mfwk0_si619 quick_test/data-fmllr-tri3/train/data/feats_fmllr_train.5.ark:15202187
madd0_si538 quick_test/data-fmllr-tri3/train/data/feats_fmllr_train.3.ark:17676873
fcjs0_sx347 quick_test/data-fmllr-tri3/train/data/feats_fmllr_train.1.ark:6887355
mcth0_si1209 quick_test/data-fmllr-tri3/train/data/feats_fmllr_train.4.ark:13233848
mtmt0_si1118 quick_test/data-fmllr-tri3/train/data/feats_fmllr_train.10.ark:8068354
msms0_sx173 quick_test/data-fmllr-tri3/train/data/feats_fmllr_train.9.ark:16761855
mtkd0_sx107 quick_test/data-fmllr-tri3/train/data/feats_fmllr_train.10.ark:5852733
fgmb0_sx65 quick_test/data-fmllr-tri3/train/data/feats_fmllr_train.1.ark:17463777
mrdm0_sx245 quick_test/data-fmllr-tri3/train/data/feats_fmllr_train.8.ark:14613913
mhmr0_sx129 quick_test/data-fmllr-tri3/train/data/feats_fmllr_train.6.ark:5123073
fntb0_sx33 quick_test/data-fmllr-tri3/train/data/feats_fmllr_train.3.ark:660231
fceg0_sx168 quick_test/data-fmllr-tri3/train/data/feats_fmllr_train.1.ark:6191987
fdas1_si1461 quick_test/data-fmllr-tri3/train/data/feats_fmllr_train.1.ark:9329219
mkls0_sx87 quick_test/data-fmllr-tri3/train/data/feats_fmllr_train.7.ark:8579319
mtdb0_si2031 quick_test/data-fmllr-tri3/train/data/feats_fmllr_train.10.ark:2898200
mkdt0_sx173 quick_test/data-fmllr-tri3/train/data/feats_fmllr_train.7.ark:6480045
mcre0_si1725 quick_test/data-fmllr-tri3/train/data/feats_fmllr_train.4.ark:12513283
mejl0_sx62 quick_test/data-fmllr-tri3/train/data/feats_fmllr_train.5.ark:12555306
fsjs0_si541 quick_test/data-fmllr-tri3/train/data/feats_fmllr_train.3.ark:9261858
fklh0_si1257 quick_test/data-fmllr-tri3/train/data/feats_fmllr_train.2.ark:8100519
mrjb1_si1413 quick_test/data-fmllr-tri3/train/data/feats_fmllr_train.9.ark:841273
mnet0_sx96 quick_test/data-fmllr-tri3/train/data/feats_fmllr_train.8.ark:5278702
fklh0_sx177 quick_test/data-fmllr-tri3/train/data/feats_fmllr_train.2.ark:8249561
mgar0_sx222 quick_test/data-fmllr-tri3/train/data/feats_fmllr_train.6.ark:181083
mwch0_si1895 quick_test/data-fmllr-tri3/train/data/feats_fmllr_train.10.ark:14589353
mrgs0_sx276 quick_test/data-fmllr-tri3/train/data/feats_fmllr_train.9.ark:214522
mrws0_si1732 quick_test/data-fmllr-tri3/train/data/feats_fmllr_train.9.ark:10440565
mjkr0_sx301 quick_test/data-fmllr-tri3/train/data/feats_fmllr_train.6.ark:13819899
mejl0_si1592 quick_test/data-fmllr-tri3/train/data/feats_fmllr_train.5.ark:12259917
flag0_sx24 quick_test/data-fmllr-tri3/train/data/feats_fmllr_train.2.ark:9512825
mcae0_sx277 quick_test/data-fmllr-tri3/train/data/feats_fmllr_train.4.ark:8387938
mrfl0_sx346 quick_test/data-fmllr-tri3/train/data/feats_fmllr_train.8.ark:17339140
mkam0_sx56 quick_test/data-fmllr-tri3/train/data/feats_fmllr_train.7.ark:5507023
ftbw0_si1975 quick_test/data-fmllr-tri3/train/data/feats_fmllr_train.3.ark:14626470
mcth0_sx399 quick_test/data-fmllr-tri3/train/data/feats_fmllr_train.4.ark:13570997
fhlm0_si2190 quick_test/data-fmllr-tri3/train/data/feats_fmllr_train.1.ark:17983571
mjxl0_si542 quick_test/data-fmllr-tri3/train/data/feats_fmllr_train.7.ark:3714501
mjrh1_si1558 quick_test/data-fmllr-tri3/train/data/feats_fmllr_train.7.ark:385191
fbcg1_si1612 quick_test/data-fmllr-tri3/train/data/feats_fmllr_train.1.ark:2469312
mdlc2_si1614 quick_test/data-fmllr-tri3/train/data/feats_fmllr_train.5.ark:3572848
mrds0_si1167 quick_test/data-fmllr-tri3/train/data/feats_fmllr_train.8.ark:14788261
mdps0_sx269 quick_test/data-fmllr-tri3/train/data/feats_fmllr_train.5.ark:7586327
mded0_sx360 quick_test/data-fmllr-tri3/train/data/feats_fmllr_train.4.ark:17263672
fjen0_sx237 quick_test/data-fmllr-tri3/train/data/feats_fmllr_train.2.ark:628341
mprk0_si467 quick_test/data-fmllr-tri3/train/data/feats_fmllr_train.8.ark:9955413
mprd0_sx81 quick_test/data-fmllr-tri3/train/data/feats_fmllr_train.8.ark:9775970
mree0_si1104 quick_test/data-fmllr-tri3/train/data/feats_fmllr_train.8.ark:15129918
mnet0_si816 quick_test/data-fmllr-tri3/train/data/feats_fmllr_train.8.ark:5074250
mrld0_si2224 quick_test/data-fmllr-tri3/train/data/feats_fmllr_train.9.ark:3436014
fsgf0_si927 quick_test/data-fmllr-tri3/train/data/feats_fmllr_train.3.ark:8023607
mmxs0_si2136 quick_test/data-fmllr-tri3/train/data/feats_fmllr_train.8.ark:4612859
fsah0_sx164 quick_test/data-fmllr-tri3/train/data/feats_fmllr_train.3.ark:5714171
mdrd0_sx392 quick_test/data-fmllr-tri3/train/data/feats_fmllr_train.5.ark:8150784
fvfb0_sx402 quick_test/data-fmllr-tri3/train/data/feats_fmllr_train.3.ark:16031576
mbar0_sx149 quick_test/data-fmllr-tri3/train/data/feats_fmllr_train.4.ark:3512771
mklr0_sx249 quick_test/data-fmllr-tri3/train/data/feats_fmllr_train.7.ark:8032781
mesg0_si1962 quick_test/data-fmllr-tri3/train/data/feats_fmllr_train.5.ark:13020539
mjae0_si2154 quick_test/data-fmllr-tri3/train/data/feats_fmllr_train.6.ark:6947808
mgar0_sx42 quick_test/data-fmllr-tri3/train/data/feats_fmllr_train.6.ark:347883
mrlj0_sx70 quick_test/data-fmllr-tri3/train/data/feats_fmllr_train.9.ark:4044712
fetb0_si518 quick_test/data-fmllr-tri3/train/data/feats_fmllr_train.1.ark:15513974
mwad0_sx72 quick_test/data-fmllr-tri3/train/data/feats_fmllr_train.10.ark:14148119
feeh0_sx212 quick_test/data-fmllr-tri3/train/data/feats_fmllr_train.1.ark:14798074
mjxl0_si1172 quick_test/data-fmllr-tri3/train/data/feats_fmllr_train.7.ark:3610126
fmju0_si759 quick_test/data-fmllr-tri3/train/data/feats_fmllr_train.2.ark:16439054
mjfr0_sx435 quick_test/data-fmllr-tri3/train/data/feats_fmllr_train.6.ark:11831961
mpgr1_sx59 quick_test/data-fmllr-tri3/train/data/feats_fmllr_train.8.ark:7852222
msdh0_sx170 quick_test/data-fmllr-tri3/train/data/feats_fmllr_train.9.ark:12916221
mrdm0_sx155 quick_test/data-fmllr-tri3/train/data/feats_fmllr_train.8.ark:14560766
mrmg0_si1710 quick_test/data-fmllr-tri3/train/data/feats_fmllr_train.9.ark:5558757
mrms0_si1113 quick_test/data-fmllr-tri3/train/data/feats_fmllr_train.9.ark:6741622
mdns0_sx201 quick_test/data-fmllr-tri3/train/data/feats_fmllr_train.5.ark:6508076
mkjo0_si1517 quick_test/data-fmllr-tri3/train/data/feats_fmllr_train.7.ark:7147117
mmar0_sx166 quick_test/data-fmllr-tri3/train/data/feats_fmllr_train.7.ark:14354149
mrds0_si537 quick_test/data-fmllr-tri3/train/data/feats_fmllr_train.8.ark:14869436
mkes0_sx173 quick_test/data-fmllr-tri3/train/data/feats_fmllr_train.7.ark:6904582
mclm0_sx106 quick_test/data-fmllr-tri3/train/data/feats_fmllr_train.4.ark:11917383
mmcc0_sx438 quick_test/data-fmllr-tri3/train/data/feats_fmllr_train.7.ark:15383624
fcdr1_si556 quick_test/data-fmllr-tri3/train/data/feats_fmllr_train.1.ark:5744543
mjma0_sx415 quick_test/data-fmllr-tri3/train/data/feats_fmllr_train.6.ark:15339035
mmlm0_sx177 quick_test/data-fmllr-tri3/train/data/feats_fmllr_train.8.ark:1563045
mdbp0_sx258 quick_test/data-fmllr-tri3/train/data/feats_fmllr_train.4.ark:15674777
fcaj0_sx39 quick_test/data-fmllr-tri3/train/data/feats_fmllr_train.1.ark:5496593
mdhl0_sx269 quick_test/data-fmllr-tri3/train/data/feats_fmllr_train.5.ark:1017356
mdss0_si2087 quick_test/data-fmllr-tri3/train/data/feats_fmllr_train.5.ark:8627377
fcyl0_sx127 quick_test/data-fmllr-tri3/train/data/feats_fmllr_train.1.ark:9102844
faem0_sx312 quick_test/data-fmllr-tri3/train/data/feats_fmllr_train.1.ark:244309
ftmg0_sx92 quick_test/data-fmllr-tri3/train/data/feats_fmllr_train.3.ark:15711544
mtjs0_sx292 quick_test/data-fmllr-tri3/train/data/feats_fmllr_train.10.ark:5179899
msas0_sx296 quick_test/data-fmllr-tri3/train/data/feats_fmllr_train.9.ark:11770951
mgxp0_sx277 quick_test/data-fmllr-tri3/train/data/feats_fmllr_train.6.ark:3377216
mbsb0_si1353 quick_test/data-fmllr-tri3/train/data/feats_fmllr_train.4.ark:7009901
mntw0_sx78 quick_test/data-fmllr-tri3/train/data/feats_fmllr_train.8.ark:5697640
ftbr0_si1402 quick_test/data-fmllr-tri3/train/data/feats_fmllr_train.3.ark:14212945
mmbs0_si1781 quick_test/data-fmllr-tri3/train/data/feats_fmllr_train.7.ark:14703912
mrcg0_si2058 quick_test/data-fmllr-tri3/train/data/feats_fmllr_train.8.ark:13305180
mpmb0_sx241 quick_test/data-fmllr-tri3/train/data/feats_fmllr_train.8.ark:8248839
mjae0_sx174 quick_test/data-fmllr-tri3/train/data/feats_fmllr_train.6.ark:6984475
mbjv0_sx437 quick_test/data-fmllr-tri3/train/data/feats_fmllr_train.4.ark:5466257
mjxl0_sx452 quick_test/data-fmllr-tri3/train/data/feats_fmllr_train.7.ark:3903089
