fsms1_sx334 quick_test/data-fmllr-tri3/train/data/feats_fmllr_train.3.ark:12548636
mgar0_sx222 quick_test/data-fmllr-tri3/train/data/feats_fmllr_train.6.ark:181083
mctm0_sx270 quick_test/data-fmllr-tri3/train/data/feats_fmllr_train.4.ark:13821854
mtat1_sx59 quick_test/data-fmllr-tri3/train/data/feats_fmllr_train.10.ark:2030190
mesg0_sx252 quick_test/data-fmllr-tri3/train/data/feats_fmllr_train.5.ark:13172620
mrpc1_si1482 quick_test/data-fmllr-tri3/train/data/feats_fmllr_train.9.ark:7091440
mbef0_sx201 quick_test/data-fmllr-tri3/train/data/feats_fmllr_train.4.ark:4657129
mstf0_sx136 quick_test/data-fmllr-tri3/train/data/feats_fmllr_train.9.ark:17891624
fjen0_si2307 quick_test/data-fmllr-tri3/train/data/feats_fmllr_train.2.ark:515007
mtkp0_si454 quick_test/data-fmllr-tri3/train/data/feats_fmllr_train.10.ark:6223643
mjhi0_sx158 quick_test/data-fmllr-tri3/train/data/feats_fmllr_train.6.ark:12114816
mjwt0_sx211 quick_test/data-fmllr-tri3/train/data/feats_fmllr_train.7.ark:3065641
fjxp0_si1752 quick_test/data-fmllr-tri3/train/data/feats_fmllr_train.2.ark:4884409
fmju0_sx219 quick_test/data-fmllr-tri3/train/data/feats_fmllr_train.2.ark:16542468
msmr0_si1150 quick_test/data-fmllr-tri3/train/data/feats_fmllr_train.9.ark:16220276
mrfl0_si526 quick_test/data-fmllr-tri3/train/data/feats_fmllr_train.8.ark:17160499
fvmh0_sx116 quick_test/data-fmllr-tri3/train/data/feats_fmllr_train.3.ark:16672409
ftlg0_sx303 quick_test/data-fmllr-tri3/train/data/feats_fmllr_train.3.ark:15263434
mkjo0_sx77 quick_test/data-fmllr-tri3/train/data/feats_fmllr_train.7.ark:7455146
mrcw0_sx291 quick_test/data-fmllr-tri3/train/data/feats_fmllr_train.8.ark:13972891
mdks0_si1066 quick_test/data-fmllr-tri3/train/data/feats_fmllr_train.5.ark:1926538
mbsb0_sx183 quick_test/data-fmllr-tri3/train/data/feats_fmllr_train.4.ark:7152703
mlsh0_sx157 quick_test/data-fmllr-tri3/train/data/feats_fmllr_train.7.ark:12338183
mabc0_sx61 quick_test/data-fmllr-tri3/train/data/feats_fmllr_train.3.ark:17136413
fnkl0_sx172 quick_test/data-fmllr-tri3/train/data/feats_fmllr_train.3.ark:156095
flhd0_sx264 quick_test/data-fmllr-tri3/train/data/feats_fmllr_train.2.ark:10600492
mtbc0_si1803 quick_test/data-fmllr-tri3/train/data/feats_fmllr_train.10.ark:2089446
fkde0_sx241 quick_test/data-fmllr-tri3/train/data/feats_fmllr_train.2.ark:5851325
mdlc0_sx45 quick_test/data-fmllr-tri3/train/data/feats_fmllr_train.5.ark:3148762
mtju0_si2020 quick_test/data-fmllr-tri3/train/data/feats_fmllr_train.10.ark:5304434
majp0_si1704 quick_test/data-fmllr-tri3/train/data/feats_fmllr_train.4.ark:1098613
fgcs0_sx226 quick_test/data-fmllr-tri3/train/data/feats_fmllr_train.1.ark:16438303
mtrc0_sx170 quick_test/data-fmllr-tri3/train/data/feats_fmllr_train.10.ark:10604777
mdss1_si1713 quick_test/data-fmllr-tri3/train/data/feats_fmllr_train.5.ark:8958634
mjwt0_sx301 quick_test/data-fmllr-tri3/train/data/feats_fmllr_train.7.ark:3115908
mbom0_sx114 quick_test/data-fmllr-tri3/train/data/feats_fmllr_train.4.ark:6808805
fljg0_si1611 quick_test/data-fmllr-tri3/train/data/feats_fmllr_train.2.ark:11583595
flja0_sx268 quick_test/data-fmllr-tri3/train/data/feats_fmllr_train.2.ark:10991750
mpmb0_sx241 quick_test/data-fmllr-tri3/train/data/feats_fmllr_train.8.ark:8248839
flmc0_si1372 quick_test/data-fmllr-tri3/train/data/feats_fmllr_train.2.ark:12819605
fblv0_sx248 quick_test/data-fmllr-tri3/train/data/feats_fmllr_train.1.ark:3892952
msrg0_si1851 quick_test/data-fmllr-tri3/train/data/feats_fmllr_train.9.ark:17046818
mram0_sx285 quick_test/data-fmllr-tri3/train/data/feats_fmllr_train.8.ark:12416502
msmc0_si1907 quick_test/data-fmllr-tri3/train/data/feats_fmllr_train.9.ark:15828060
mjac0_sx71 quick_test/data-fmllr-tri3/train/data/feats_fmllr_train.6.ark:6817004
mntw0_sx78 quick_test/data-fmllr-tri3/train/data/feats_fmllr_train.8.ark:5697640
fbas0_si1472 quick_test/data-fmllr-tri3/train/data/feats_fmllr_train.1.ark:2110402
mbth0_si2102 quick_test/data-fmllr-tri3/train/data/feats_fmllr_train.4.ark:7293476
mpgr1_si1269 quick_test/data-fmllr-tri3/train/data/feats_fmllr_train.8.ark:7506592
fjen0_sx57 quick_test/data-fmllr-tri3/train/data/feats_fmllr_train.2.ark:812901
mrbc0_si599 quick_test/data-fmllr-tri3/train/data/feats_fmllr_train.8.ark:12936990
mrew1_sx420 quick_test/data-fmllr-tri3/train/data/feats_fmllr_train.8.ark:16604812
mdlc2_sx444 quick_test/data-fmllr-tri3/train/data/feats_fmllr_train.5.ark:3817011
fpmy0_si1783 quick_test/data-fmllr-tri3/train/data/feats_fmllr_train.3.ark:3639272
mdac0_sx361 quick_test/data-fmllr-tri3/train/data/feats_fmllr_train.4.ark:14627755
mjai0_si682 quick_test/data-fmllr-tri3/train/data/feats_fmllr_train.6.ark:7310877
mmar0_si706 quick_test/data-fmllr-tri3/train/data/feats_fmllr_train.7.ark:14318122
mppc0_sx152 quick_test/data-fmllr-tri3/train/data/feats_fmllr_train.8.ark:8696389
fcdr1_sx106 quick_test/data-fmllr-tri3/train/data/feats_fmllr_train.1.ark:5825530
mtkd0_si630 quick_test/data-fmllr-tri3/train/data/feats_fmllr_train.10.ark:5774626
mdss1_sx157 quick_test/data-fmllr-tri3/train/data/feats_fmllr_train.5.ark:9039328
mbsb0_sx93 quick_test/data-fmllr-tri3/train/data/feats_fmllr_train.4.ark:7266248
fsrh0_sx221 quick_test/data-fmllr-tri3/train/data/feats_fmllr_train.3.ark:13264403
mtkp0_sx303 quick_test/data-fmllr-tri3/train/data/feats_fmllr_train.10.ark:6382124
mcth0_si579 quick_test/data-fmllr-tri3/train/data/feats_fmllr_train.4.ark:13323183
mpar0_si946 quick_test/data-fmllr-tri3/train/data/feats_fmllr_train.8.ark:5822843
mtpg0_sx393 quick_test/data-fmllr-tri3/train/data/feats_fmllr_train.10.ark:9120657
mgxp0_sx367 quick_test/data-fmllr-tri3/train/data/feats_fmllr_train.6.ark:3421083
mjda0_si1031 quick_test/data-fmllr-tri3/train/data/feats_fmllr_train.6.ark:8039444
mdps0_sx89 quick_test/data-fmllr-tri3/train/data/feats_fmllr_train.5.ark:7727047
fear0_sx262 quick_test/data-fmllr-tri3/train/data/feats_fmllr_train.1.ark:13917160
mfwk0_sx349 quick_test/data-fmllr-tri3/train/data/feats_fmllr_train.5.ark:15332348
mpar0_si2206 quick_test/data-fmllr-tri3/train/data/feats_fmllr_train.8.ark:5763936
fmjf0_si1254 quick_test/data-fmllr-tri3/train/data/feats_fmllr_train.2.ark:15918782
mmgc0_sx405 quick_test/data-fmllr-tri3/train/data/feats_fmllr_train.8.ark:275537
msrr0_sx30 quick_test/data-fmllr-tri3/train/data/feats_fmllr_train.9.ark:17604582
mjls0_si1096 quick_test/data-fmllr-tri3/train/data/feats_fmllr_train.6.ark:14655615
mjdg0_si1042 quick_test/data-fmllr-tri3/train/data/feats_fmllr_train.6.ark:9246815
mjrp0_sx405 quick_test/data-fmllr-tri3/train/data/feats_fmllr_train.7.ark:1384988
mcae0_si817 quick_test/data-fmllr-tri3/train/data/feats_fmllr_train.4.ark:8285644
mkaj0_si1414 quick_test/data-fmllr-tri3/train/data/feats_fmllr_train.7.ark:4815576
mjfh0_si1107 quick_test/data-fmllr-tri3/train/data/feats_fmllr_train.6.ark:11215581
ftbw0_sx355 quick_test/data-fmllr-tri3/train/data/feats_fmllr_train.3.ark:14854098
fjdm2_sx412 quick_test/data-fmllr-tri3/train/data/feats_fmllr_train.2.ark:317937
mprk0_si467 quick_test/data-fmllr-tri3/train/data/feats_fmllr_train.8.ark:9955413
madd0_sx358 quick_test/data-fmllr-tri3/train/data/feats_fmllr_train.3.ark:17832794
mdks0_sx166 quick_test/data-fmllr-tri3/train/data/feats_fmllr_train.5.ark:2037341
fhlm0_sx349 quick_test/data-fmllr-tri3/train/data/feats_fmllr_train.1.ark:18235386
mrre0_sx164 quick_test/data-fmllr-tri3/train/data/feats_fmllr_train.9.ark:7632379
freh0_si1945 quick_test/data-fmllr-tri3/train/data/feats_fmllr_train.3.ark:4065889
mjbg0_sx422 quick_test/data-fmllr-tri3/train/data/feats_fmllr_train.6.ark:7932510
mfrm0_sx255 quick_test/data-fmllr-tri3/train/data/feats_fmllr_train.5.ark:14948104
fdmy0_si714 quick_test/data-fmllr-tri3/train/data/feats_fmllr_train.1.ark:11772179
mjdg0_si1672 quick_test/data-fmllr-tri3/train/data/feats_fmllr_train.6.ark:9291003
medr0_sx384 quick_test/data-fmllr-tri3/train/data/feats_fmllr_train.5.ark:11386819
mrgs0_si726 quick_test/data-fmllr-tri3/train/data/feats_fmllr_train.9.ark:98628
fkkh0_si1920 quick_test/data-fmllr-tri3/train/data/feats_fmllr_train.2.ark:6962455
mkxl0_sx105 quick_test/data-fmllr-tri3/train/data/feats_fmllr_train.7.ark:9931441
fsmm0_sx144 quick_test/data-fmllr-tri3/train/data/feats_fmllr_train.3.ark:12030125
mbef0_sx21 quick_test/data-fmllr-tri3/train/data/feats_fmllr_train.4.ark:4694275
msrg0_si591 quick_test/data-fmllr-tri3/train/data/feats_fmllr_train.9.ark:17071165
msms0_sx353 quick_test/data-fmllr-tri3/train/data/feats_fmllr_train.9.ark:16854069
mjma0_sx415 quick_test/data-fmllr-tri3/train/data/feats_fmllr_train.6.ark:15339035
mhmr0_si489 quick_test/data-fmllr-tri3/train/data/feats_fmllr_train.6.ark:5070566
mwsh0_sx256 quick_test/data-fmllr-tri3/train/data/feats_fmllr_train.10.ark:17387113
mmaa0_sx305 quick_test/data-fmllr-tri3/train/data/feats_fmllr_train.7.ark:12869814
fsjw0_sx163 quick_test/data-fmllr-tri3/train/data/feats_fmllr_train.3.ark:9756182
fmbg0_sx440 quick_test/data-fmllr-tri3/train/data/feats_fmllr_train.2.ark:14997335
ftaj0_sx339 quick_test/data-fmllr-tri3/train/data/feats_fmllr_train.3.ark:14106144
mkrg0_sx141 quick_test/data-fmllr-tri3/train/data/feats_fmllr_train.7.ark:9582104
mpgh0_sx294 quick_test/data-fmllr-tri3/train/data/feats_fmllr_train.8.ark:7086480
mrgs0_sx96 quick_test/data-fmllr-tri3/train/data/feats_fmllr_train.9.ark:387400
mrws0_sx382 quick_test/data-fmllr-tri3/train/data/feats_fmllr_train.9.ark:10662166
mmwb0_si989 quick_test/data-fmllr-tri3/train/data/feats_fmllr_train.8.ark:3577864
fmkc0_si1041 quick_test/data-fmllr-tri3/train/data/feats_fmllr_train.2.ark:16733616
fmem0_sx117 quick_test/data-fmllr-tri3/train/data/feats_fmllr_train.2.ark:15257311
mrfk0_si1076 quick_test/data-fmllr-tri3/train/data/feats_fmllr_train.8.ark:16712386
mmdm1_sx243 quick_test/data-fmllr-tri3/train/data/feats_fmllr_train.7.ark:16800758
mdlr0_sx153 quick_test/data-fmllr-tri3/train/data/feats_fmllr_train.5.ark:4787980
mwad0_si1062 quick_test/data-fmllr-tri3/train/data/feats_fmllr_train.10.ark:13878809
fcmg0_sx432 quick_test/data-fmllr-tri3/train/data/feats_fmllr_train.1.ark:8087074
fsls0_sx66 quick_test/data-fmllr-tri3/train/data/feats_fmllr_train.3.ark:11441638
flja0_sx88 quick_test/data-fmllr-tri3/train/data/feats_fmllr_train.2.ark:11143990
fcjf0_sx127 quick_test/data-fmllr-tri3/train/data/feats_fmllr_train.1.ark:6550764
msrg0_sx51 quick_test/data-fmllr-tri3/train/data/feats_fmllr_train.9.ark:17305059
maeb0_si1411 quick_test/data-fmllr-tri3/train/data/feats_fmllr_train.4.ark:13
fajw0_sx363 quick_test/data-fmllr-tri3/train/data/feats_fmllr_train.1.ark:710471
mtlc0_si847 quick_test/data-fmllr-tri3/train/data/feats_fmllr_train.10.ark:7032237
mpeb0_si600 quick_test/data-fmllr-tri3/train/data/feats_fmllr_train.8.ark:6117620
marw0_sx286 quick_test/data-fmllr-tri3/train/data/feats_fmllr_train.4.ark:3177727
mpgh0_sx204 quick_test/data-fmllr-tri3/train/data/feats_fmllr_train.8.ark:7021947
fmjb0_sx187 quick_test/data-fmllr-tri3/train/data/feats_fmllr_train.2.ark:15715129
mjfr0_sx435 quick_test/data-fmllr-tri3/train/data/feats_fmllr_train.6.ark:11831961
mjpg0_sx111 quick_test/data-fmllr-tri3/train/data/feats_fmllr_train.6.ark:16271606
mkrg0_sx411 quick_test/data-fmllr-tri3/train/data/feats_fmllr_train.7.ark:9677704
ftmg0_sx272 quick_test/data-fmllr-tri3/train/data/feats_fmllr_train.3.ark:15565864
mtjg0_sx80 quick_test/data-fmllr-tri3/train/data/feats_fmllr_train.10.ark:4438052
mpeb0_sx60 quick_test/data-fmllr-tri3/train/data/feats_fmllr_train.8.ark:6365114
mtxs0_sx70 quick_test/data-fmllr-tri3/train/data/feats_fmllr_train.10.ark:12309913
mdlm0_si604 quick_test/data-fmllr-tri3/train/data/feats_fmllr_train.5.ark:4389336
mbbr0_sx425 quick_test/data-fmllr-tri3/train/data/feats_fmllr_train.4.ark:4048590
mtjs0_si1822 quick_test/data-fmllr-tri3/train/data/feats_fmllr_train.10.ark:4887605
mbom0_si2274 quick_test/data-fmllr-tri3/train/data/feats_fmllr_train.4.ark:6768778
mbom0_si1014 quick_test/data-fmllr-tri3/train/data/feats_fmllr_train.4.ark:6679922
mstf0_si766 quick_test/data-fmllr-tri3/train/data/feats_fmllr_train.9.ark:17783250
mrds0_si1797 quick_test/data-fmllr-tri3/train/data/feats_fmllr_train.8.ark:14817409
mdjm0_sx105 quick_test/data-fmllr-tri3/train/data/feats_fmllr_train.5.ark:1728323
mrlj0_sx430 quick_test/data-fmllr-tri3/train/data/feats_fmllr_train.9.ark:3989966
mdma0_sx440 quick_test/data-fmllr-tri3/train/data/feats_fmllr_train.5.ark:5815696
msfh0_si1738 quick_test/data-fmllr-tri3/train/data/feats_fmllr_train.9.ark:14556237
mjpg0_si1191 quick_test/data-fmllr-tri3/train/data/feats_fmllr_train.6.ark:16109124
mdlc0_sx315 quick_test/data-fmllr-tri3/train/data/feats_fmllr_train.5.ark:3057669
fmkf0_sx366 quick_test/data-fmllr-tri3/train/data/feats_fmllr_train.2.ark:17384530
mmdm1_sx63 quick_test/data-fmllr-tri3/train/data/feats_fmllr_train.7.ark:16973158
faem0_sx312 quick_test/data-fmllr-tri3/train/data/feats_fmllr_train.1.ark:244309
mtjm0_si1856 quick_test/data-fmllr-tri3/train/data/feats_fmllr_train.10.ark:4530428
fklh0_sx87 quick_test/data-fmllr-tri3/train/data/feats_fmllr_train.2.ark:8437028
mkah0_sx358 quick_test/data-fmllr-tri3/train/data/feats_fmllr_train.7.ark:4671495
mrjm0_sx58 quick_test/data-fmllr-tri3/train/data/feats_fmllr_train.9.ark:2037869
mtju0_sx220 quick_test/data-fmllr-tri3/train/data/feats_fmllr_train.10.ark:5484543
mter0_si1787 quick_test/data-fmllr-tri3/train/data/feats_fmllr_train.10.ark:3756395
fhxs0_si2335 quick_test/data-fmllr-tri3/train/data/feats_fmllr_train.1.ark:18546217
fltm0_si1070 quick_test/data-fmllr-tri3/train/data/feats_fmllr_train.2.ark:13933538
mrwa0_sx253 quick_test/data-fmllr-tri3/train/data/feats_fmllr_train.9.ark:10186029
mlel0_sx346 quick_test/data-fmllr-tri3/train/data/feats_fmllr_train.7.ark:10786329
mrai0_sx252 quick_test/data-fmllr-tri3/train/data/feats_fmllr_train.8.ark:11938151
mmxs0_sx156 quick_test/data-fmllr-tri3/train/data/feats_fmllr_train.8.ark:4748940
mcef0_si842 quick_test/data-fmllr-tri3/train/data/feats_fmllr_train.4.ark:10211847
mljc0_sx325 quick_test/data-fmllr-tri3/train/data/feats_fmllr_train.7.ark:11196786
mrjm1_si1298 quick_test/data-fmllr-tri3/train/data/feats_fmllr_train.9.ark:2099977
fntb0_si1203 quick_test/data-fmllr-tri3/train/data/feats_fmllr_train.3.ark:378950
mbsb0_si723 quick_test/data-fmllr-tri3/train/data/feats_fmllr_train.4.ark:7093636
mcpm0_sx204 quick_test/data-fmllr-tri3/train/data/feats_fmllr_train.4.ark:12316827
mjee0_sx427 quick_test/data-fmllr-tri3/train/data/feats_fmllr_train.6.ark:11111687
mfxv0_sx105 quick_test/data-fmllr-tri3/train/data/feats_fmllr_train.5.ark:16034970
mbef0_si1911 quick_test/data-fmllr-tri3/train/data/feats_fmllr_train.4.ark:4524728
fljd0_sx346 quick_test/data-fmllr-tri3/train/data/feats_fmllr_train.2.ark:11453274
mjrh1_sx424 quick_test/data-fmllr-tri3/train/data/feats_fmllr_train.7.ark:681994
fjwb1_sx165 quick_test/data-fmllr-tri3/train/data/feats_fmllr_train.2.ark:4187869
fskl0_sx269 quick_test/data-fmllr-tri3/train/data/feats_fmllr_train.3.ark:10553283
mdtb0_si1200 quick_test/data-fmllr-tri3/train/data/feats_fmllr_train.5.ark:9250983
mnet0_si2076 quick_test/data-fmllr-tri3/train/data/feats_fmllr_train.8.ark:5047983
mrld0_sx424 quick_test/data-fmllr-tri3/train/data/feats_fmllr_train.9.ark:3638229
fbjl0_sx292 quick_test/data-fmllr-tri3/train/data/feats_fmllr_train.1.ark:3556307
mdas0_sx276 quick_test/data-fmllr-tri3/train/data/feats_fmllr_train.4.ark:14999011
fdkn0_sx361 quick_test/data-fmllr-tri3/train/data/feats_fmllr_train.1.ark:11112306
fspm0_sx431 quick_test/data-fmllr-tri3/train/data/feats_fmllr_train.3.ark:13040880
mbwp0_sx79 quick_test/data-fmllr-tri3/train/data/feats_fmllr_train.4.ark:8056281
mjde0_sx130 quick_test/data-fmllr-tri3/train/data/feats_fmllr_train.6.ark:8942360
mmea0_si2018 quick_test/data-fmllr-tri3/train/data/feats_fmllr_train.7.ark:17380951
mbjv0_sx167 quick_test/data-fmllr-tri3/train/data/feats_fmllr_train.4.ark:5330816
mhxl0_sx62 quick_test/data-fmllr-tri3/train/data/feats_fmllr_train.6.ark:6074333
mrlj1_sx321 quick_test/data-fmllr-tri3/train/data/feats_fmllr_train.9.ark:4263917
mtpr0_sx250 quick_test/data-fmllr-tri3/train/data/feats_fmllr_train.10.ark:9746771
fdkn0_si1202 quick_test/data-fmllr-tri3/train/data/feats_fmllr_train.1.ark:10885957
mram0_sx105 quick_test/data-fmllr-tri3/train/data/feats_fmllr_train.8.ark:12294982
mmar0_si1966 quick_test/data-fmllr-tri3/train/data/feats_fmllr_train.7.ark:14239695
mtjg0_si2157 quick_test/data-fmllr-tri3/train/data/feats_fmllr_train.10.ark:4119491
mrjm1_sx128 quick_test/data-fmllr-tri3/train/data/feats_fmllr_train.9.ark:2254299
mrdm0_si965 quick_test/data-fmllr-tri3/train/data/feats_fmllr_train.8.ark:14517059
msah1_sx329 quick_test/data-fmllr-tri3/train/data/feats_fmllr_train.9.ark:11292788
mjwg0_si895 quick_test/data-fmllr-tri3/train/data/feats_fmllr_train.7.ark:2069313
mlel0_si1876 quick_test/data-fmllr-tri3/train/data/feats_fmllr_train.7.ark:10550861
makb0_si1646 quick_test/data-fmllr-tri3/train/data/feats_fmllr_train.4.ark:1594831
mdps0_si1979 quick_test/data-fmllr-tri3/train/data/feats_fmllr_train.5.ark:7443846
mbml0_sx359 quick_test/data-fmllr-tri3/train/data/feats_fmllr_train.4.ark:6532961
mjhi0_sx338 quick_test/data-fmllr-tri3/train/data/feats_fmllr_train.6.ark:12182550
mtas0_sx125 quick_test/data-fmllr-tri3/train/data/feats_fmllr_train.10.ark:1057809
mmab1_si864 quick_test/data-fmllr-tri3/train/data/feats_fmllr_train.7.ark:13064030
mgrl0_si867 quick_test/data-fmllr-tri3/train/data/feats_fmllr_train.6.ark:1588618
mclk0_sx400 quick_test/data-fmllr-tri3/train/data/feats_fmllr_train.4.ark:11725433
feeh0_sx32 quick_test/data-fmllr-tri3/train/data/feats_fmllr_train.1.ark:14896847
mdem0_sx248 quick_test/data-fmllr-tri3/train/data/feats_fmllr_train.5.ark:590419
mrjh0_sx439 quick_test/data-fmllr-tri3/train/data/feats_fmllr_train.9.ark:1578905
fmpg0_si2232 quick_test/data-fmllr-tri3/train/data/feats_fmllr_train.2.ark:17976052
frjb0_si1794 quick_test/data-fmllr-tri3/train/data/feats_fmllr_train.3.ark:4418454
mtdb0_si1401 quick_test/data-fmllr-tri3/train/data/feats_fmllr_train.10.ark:2828092
fpad0_si1976 quick_test/data-fmllr-tri3/train/data/feats_fmllr_train.3.ark:1659948
msas0_si746 quick_test/data-fmllr-tri3/train/data/feats_fmllr_train.9.ark:11557084
mkaj0_si2044 quick_test/data-fmllr-tri3/train/data/feats_fmllr_train.7.ark:4846644
mcdd0_si1513 quick_test/data-fmllr-tri3/train/data/feats_fmllr_train.4.ark:9348798
fcyl0_si667 quick_test/data-fmllr-tri3/train/data/feats_fmllr_train.1.ark:9023297
mmsm0_si1106 quick_test/data-fmllr-tri3/train/data/feats_fmllr_train.8.ark:2568094
mree0_si1104 quick_test/data-fmllr-tri3/train/data/feats_fmllr_train.8.ark:15129918
mdwd0_si1890 quick_test/data-fmllr-tri3/train/data/feats_fmllr_train.5.ark:9647549
fscn0_sx86 quick_test/data-fmllr-tri3/train/data/feats_fmllr_train.3.ark:7182129
mljh0_sx334 quick_test/data-fmllr-tri3/train/data/feats_fmllr_train.7.ark:11677003
mmlm0_si1527 quick_test/data-fmllr-tri3/train/data/feats_fmllr_train.8.ark:1439763
mdlr0_sx243 quick_test/data-fmllr-tri3/train/data/feats_fmllr_train.5.ark:4843527
mrhl0_si1515 quick_test/data-fmllr-tri3/train/data/feats_fmllr_train.9.ark:433028
msdb0_si1007 quick_test/data-fmllr-tri3/train/data/feats_fmllr_train.9.ark:12525841
fjen0_si1677 quick_test/data-fmllr-tri3/train/data/feats_fmllr_train.2.ark:463299
fcmm0_sx93 quick_test/data-fmllr-tri3/train/data/feats_fmllr_train.1.ark:8528917
mjsr0_sx74 quick_test/data-fmllr-tri3/train/data/feats_fmllr_train.7.ark:1893391
mtrt0_sx237 quick_test/data-fmllr-tri3/train/data/feats_fmllr_train.10.ark:11405558
mtlb0_si1764 quick_test/data-fmllr-tri3/train/data/feats_fmllr_train.10.ark:6569273
mmaa0_sx125 quick_test/data-fmllr-tri3/train/data/feats_fmllr_train.7.ark:12774080
mgxp0_si457 quick_test/data-fmllr-tri3/train/data/feats_fmllr_train.6.ark:3218895
mwre0_si1687 quick_test/data-fmllr-tri3/train/data/feats_fmllr_train.10.ark:16092143
mrab1_sx218 quick_test/data-fmllr-tri3/train/data/feats_fmllr_train.8.ark:11517774
mpgr1_sx329 quick_test/data-fmllr-tri3/train/data/feats_fmllr_train.8.ark:7745289
mppc0_sx242 quick_test/data-fmllr-tri3/train/data/feats_fmllr_train.8.ark:8736576
faem0_sx132 quick_test/data-fmllr-tri3/train/data/feats_fmllr_train.1.ark:155455
fdmy0_sx117 quick_test/data-fmllr-tri3/train/data/feats_fmllr_train.1.ark:11877326
fdas1_sx111 quick_test/data-fmllr-tri3/train/data/feats_fmllr_train.1.ark:9523061
fksr0_si1747 quick_test/data-fmllr-tri3/train/data/feats_fmllr_train.2.ark:8525724
mntw0_sx202 quick_test/data-fmllr-tri3/train/data/feats_fmllr_train.8.ark:5552280
fklc1_si2308 quick_test/data-fmllr-tri3/train/data/feats_fmllr_train.2.ark:7812197
mkjo0_si887 quick_test/data-fmllr-tri3/train/data/feats_fmllr_train.7.ark:7230052
mesj0_sx277 quick_test/data-fmllr-tri3/train/data/feats_fmllr_train.5.ark:13550757
mrld0_sx64 quick_test/data-fmllr-tri3/train/data/feats_fmllr_train.9.ark:3680175
mrre0_sx344 quick_test/data-fmllr-tri3/train/data/feats_fmllr_train.9.ark:7734193
mjxa0_si2137 quick_test/data-fmllr-tri3/train/data/feats_fmllr_train.7.ark:3309617
marw0_sx16 quick_test/data-fmllr-tri3/train/data/feats_fmllr_train.4.ark:3135300
fdxw0_sx251 quick_test/data-fmllr-tri3/train/data/feats_fmllr_train.1.ark:13175766
mjjb0_sx419 quick_test/data-fmllr-tri3/train/data/feats_fmllr_train.6.ark:12641195
fcrz0_sx73 quick_test/data-fmllr-tri3/train/data/feats_fmllr_train.1.ark:8883854
mdmt0_si2341 quick_test/data-fmllr-tri3/train/data/feats_fmllr_train.5.ark:5949218
mdbb1_sx376 quick_test/data-fmllr-tri3/train/data/feats_fmllr_train.4.ark:15428720
mtpg0_sx303 quick_test/data-fmllr-tri3/train/data/feats_fmllr_train.10.ark:9043484
fdtd0_sx321 quick_test/data-fmllr-tri3/train/data/feats_fmllr_train.1.ark:12894642
mmgk0_si1952 quick_test/data-fmllr-tri3/train/data/feats_fmllr_train.8.ark:793277
mjpm1_si1897 quick_test/data-fmllr-tri3/train/data/feats_fmllr_train.6.ark:16841558
megj0_sx437 quick_test/data-fmllr-tri3/train/data/feats_fmllr_train.5.ark:12145783
mmdm1_si783 quick_test/data-fmllr-tri3/train/data/feats_fmllr_train.7.ark:16685824
mcef0_si1765 quick_test/data-fmllr-tri3/train/data/feats_fmllr_train.4.ark:10169740
mtpf0_sx425 quick_test/data-fmllr-tri3/train/data/feats_fmllr_train.10.ark:8751774
mkam0_sx236 quick_test/data-fmllr-tri3/train/data/feats_fmllr_train.7.ark:5376863
fsbk0_sx169 quick_test/data-fmllr-tri3/train/data/feats_fmllr_train.3.ark:6455886
fskp0_si1098 quick_test/data-fmllr-tri3/train/data/feats_fmllr_train.3.ark:10735311
mtat1_sx149 quick_test/data-fmllr-tri3/train/data/feats_fmllr_train.10.ark:1772163
mmpm0_sx251 quick_test/data-fmllr-tri3/train/data/feats_fmllr_train.8.ark:1955770
mkdd0_sx307 quick_test/data-fmllr-tri3/train/data/feats_fmllr_train.7.ark:6202923
mjra0_sx156 quick_test/data-fmllr-tri3/train/data/feats_fmllr_train.6.ark:17365537
mkln0_si2228 quick_test/data-fmllr-tri3/train/data/feats_fmllr_train.7.ark:7546882
mtpp0_sx158 quick_test/data-fmllr-tri3/train/data/feats_fmllr_train.10.ark:9298687
fksr0_sx161 quick_test/data-fmllr-tri3/train/data/feats_fmllr_train.2.ark:8615218
mdcd0_sx335 quick_test/data-fmllr-tri3/train/data/feats_fmllr_train.4.ark:16129741
mmea0_sx218 quick_test/data-fmllr-tri3/train/data/feats_fmllr_train.7.ark:17492552
fsms1_si874 quick_test/data-fmllr-tri3/train/data/feats_fmllr_train.3.ark:12404075
mrwa0_sx343 quick_test/data-fmllr-tri3/train/data/feats_fmllr_train.9.ark:10219656
frjb0_sx257 quick_test/data-fmllr-tri3/train/data/feats_fmllr_train.3.ark:4504588
mwac0_si1601 quick_test/data-fmllr-tri3/train/data/feats_fmllr_train.10.ark:13405472
mzmb0_si1166 quick_test/data-fmllr-tri3/train/data/feats_fmllr_train.10.ark:17595701
frjb0_sx347 quick_test/data-fmllr-tri3/train/data/feats_fmllr_train.3.ark:4535975
mcal0_sx418 quick_test/data-fmllr-tri3/train/data/feats_fmllr_train.4.ark:8864367
mbml0_sx269 quick_test/data-fmllr-tri3/train/data/feats_fmllr_train.4.ark:6495494
mcdd0_sx343 quick_test/data-fmllr-tri3/train/data/feats_fmllr_train.4.ark:9550694
mram0_si1951 quick_test/data-fmllr-tri3/train/data/feats_fmllr_train.8.ark:12225995
mkaj0_sx334 quick_test/data-fmllr-tri3/train/data/feats_fmllr_train.7.ark:5035552
fblv0_si2318 quick_test/data-fmllr-tri3/train/data/feats_fmllr_train.1.ark:3799778
fsls0_si2316 quick_test/data-fmllr-tri3/train/data/feats_fmllr_train.3.ark:11197984
mcpm0_sx384 quick_test/data-fmllr-tri3/train/data/feats_fmllr_train.4.ark:12423627
msat1_si1073 quick_test/data-fmllr-tri3/train/data/feats_fmllr_train.9.ark:12156183
mpgh0_sx384 quick_test/data-fmllr-tri3/train/data/feats_fmllr_train.8.ark:7118987
ftbr0_sx21 quick_test/data-fmllr-tri3/train/data/feats_fmllr_train.3.ark:14477400
fnkl0_si1522 quick_test/data-fmllr-tri3/train/data/feats_fmllr_train.3.ark:13
mapv0_si1293 quick_test/data-fmllr-tri3/train/data/feats_fmllr_train.4.ark:2243558
mrjm0_sx418 quick_test/data-fmllr-tri3/train/data/feats_fmllr_train.9.ark:1985523
msah1_sx419 quick_test/data-fmllr-tri3/train/data/feats_fmllr_train.9.ark:11346735
mdss0_sx441 quick_test/data-fmllr-tri3/train/data/feats_fmllr_train.5.ark:8825912
fblv0_si1688 quick_test/data-fmllr-tri3/train/data/feats_fmllr_train.1.ark:3716870
mddc0_sx249 quick_test/data-fmllr-tri3/train/data/feats_fmllr_train.4.ark:16840388
fgdp0_si2248 quick_test/data-fmllr-tri3/train/data/feats_fmllr_train.1.ark:16642439
mmea0_sx38 quick_test/data-fmllr-tri3/train/data/feats_fmllr_train.7.ark:17568925
mter0_sx77 quick_test/data-fmllr-tri3/train/data/feats_fmllr_train.10.ark:4043115
maeb0_si2250 quick_test/data-fmllr-tri3/train/data/feats_fmllr_train.4.ark:65321
mwsb0_si2256 quick_test/data-fmllr-tri3/train/data/feats_fmllr_train.10.ark:16839937
mwar0_sx415 quick_test/data-fmllr-tri3/train/data/feats_fmllr_train.10.ark:14449911
mrjb1_sx30 quick_test/data-fmllr-tri3/train/data/feats_fmllr_train.9.ark:1105701
mhmg0_sx15 quick_test/data-fmllr-tri3/train/data/feats_fmllr_train.6.ark:4802082
mtat0_si1110 quick_test/data-fmllr-tri3/train/data/feats_fmllr_train.10.ark:1241304
mrds0_sx357 quick_test/data-fmllr-tri3/train/data/feats_fmllr_train.8.ark:15008237
mgag0_si645 quick_test/data-fmllr-tri3/train/data/feats_fmllr_train.5.ark:16632949
mjrp0_sx135 quick_test/data-fmllr-tri3/train/data/feats_fmllr_train.7.ark:1255467
milb0_sx363 quick_test/data-fmllr-tri3/train/data/feats_fmllr_train.6.ark:6395801
fmem0_sx333 quick_test/data-fmllr-tri3/train/data/feats_fmllr_train.2.ark:15384272
mrmh0_sx121 quick_test/data-fmllr-tri3/train/data/feats_fmllr_train.9.ark:6061430
mfer0_sx322 quick_test/data-fmllr-tri3/train/data/feats_fmllr_train.5.ark:14236496
mtqc0_si1441 quick_test/data-fmllr-tri3/train/data/feats_fmllr_train.10.ark:9943519
mjrh0_si1125 quick_test/data-fmllr-tri3/train/data/feats_fmllr_train.7.ark:13
mlbc0_sx339 quick_test/data-fmllr-tri3/train/data/feats_fmllr_train.7.ark:10368992
mcdd0_sx73 quick_test/data-fmllr-tri3/train/data/feats_fmllr_train.4.ark:9647227
mrxb0_si1585 quick_test/data-fmllr-tri3/train/data/feats_fmllr_train.9.ark:10707474
mjmm0_sx355 quick_test/data-fmllr-tri3/train/data/feats_fmllr_train.6.ark:16002003
mbcg0_sx147 quick_test/data-fmllr-tri3/train/data/feats_fmllr_train.4.ark:4247285
mjbg0_sx62 quick_test/data-fmllr-tri3/train/data/feats_fmllr_train.6.ark:7992376
mjrk0_si880 quick_test/data-fmllr-tri3/train/data/feats_fmllr_train.7.ark:818903
mtwh1_si1512 quick_test/data-fmllr-tri3/train/data/feats_fmllr_train.10.ark:11556066
fkaa0_sx218 quick_test/data-fmllr-tri3/train/data/feats_fmllr_train.2.ark:5389507
fbmj0_sx336 quick_test/data-fmllr-tri3/train/data/feats_fmllr_train.1.ark:4723812
fsjg0_si2200 quick_test/data-fmllr-tri3/train/data/feats_fmllr_train.3.ark:8355317
mwrp0_si1443 quick_test/data-fmllr-tri3/train/data/feats_fmllr_train.10.ark:16419533
msms0_si1433 quick_test/data-fmllr-tri3/train/data/feats_fmllr_train.9.ark:16600333
flod0_si1287 quick_test/data-fmllr-tri3/train/data/feats_fmllr_train.2.ark:13583560
mgjc0_sx345 quick_test/data-fmllr-tri3/train/data/feats_fmllr_train.6.ark:1331682
mrdd0_sx240 quick_test/data-fmllr-tri3/train/data/feats_fmllr_train.8.ark:14226816
fsrh0_si1931 quick_test/data-fmllr-tri3/train/data/feats_fmllr_train.3.ark:13143522
fpac0_sx31 quick_test/data-fmllr-tri3/train/data/feats_fmllr_train.3.ark:1533145
mdlc0_si2025 quick_test/data-fmllr-tri3/train/data/feats_fmllr_train.5.ark:2865721
faem0_sx42 quick_test/data-fmllr-tri3/train/data/feats_fmllr_train.1.ark:354602
mmab1_sx324 quick_test/data-fmllr-tri3/train/data/feats_fmllr_train.7.ark:13236271
mvjh0_sx296 quick_test/data-fmllr-tri3/train/data/feats_fmllr_train.10.ark:12628503
mcdc0_si1292 quick_test/data-fmllr-tri3/train/data/feats_fmllr_train.4.ark:8986501
madc0_si1997 quick_test/data-fmllr-tri3/train/data/feats_fmllr_train.3.ark:17247989
fmkc0_si1702 quick_test/data-fmllr-tri3/train/data/feats_fmllr_train.2.ark:16841512
mtrc0_sx183 quick_test/data-fmllr-tri3/train/data/feats_fmllr_train.10.ark:10667364
mreh1_si969 quick_test/data-fmllr-tri3/train/data/feats_fmllr_train.8.ark:15629231
mhmg0_sx105 quick_test/data-fmllr-tri3/train/data/feats_fmllr_train.6.ark:4766216
mdlc1_sx85 quick_test/data-fmllr-tri3/train/data/feats_fmllr_train.5.ark:3537940
mbbr0_sx245 quick_test/data-fmllr-tri3/train/data/feats_fmllr_train.4.ark:3943896
mmwb0_si1619 quick_test/data-fmllr-tri3/train/data/feats_fmllr_train.8.ark:3435089
fssb0_sx272 quick_test/data-fmllr-tri3/train/data/feats_fmllr_train.3.ark:13688301
fklc1_si1678 quick_test/data-fmllr-tri3/train/data/feats_fmllr_train.2.ark:7782569
mbgt0_sx171 quick_test/data-fmllr-tri3/train/data/feats_fmllr_train.4.ark:4937479
fdkn0_sx91 quick_test/data-fmllr-tri3/train/data/feats_fmllr_train.1.ark:11232359
fpad0_si716 quick_test/data-fmllr-tri3/train/data/feats_fmllr_train.3.ark:1700135
mkes0_si623 quick_test/data-fmllr-tri3/train/data/feats_fmllr_train.7.ark:6838155
mppc0_si2042 quick_test/data-fmllr-tri3/train/data/feats_fmllr_train.8.ark:8622255
mmcc0_sx168 quick_test/data-fmllr-tri3/train/data/feats_fmllr_train.7.ark:15258263
mrdm0_sx65 quick_test/data-fmllr-tri3/train/data/feats_fmllr_train.8.ark:14755273
fdnc0_sx18 quick_test/data-fmllr-tri3/train/data/feats_fmllr_train.1.ark:12379810
mtrr0_si918 quick_test/data-fmllr-tri3/train/data/feats_fmllr_train.10.ark:10884327
mjac0_si701 quick_test/data-fmllr-tri3/train/data/feats_fmllr_train.6.ark:6545190
fsmm0_sx54 quick_test/data-fmllr-tri3/train/data/feats_fmllr_train.3.ark:12256632
mrew1_sx60 quick_test/data-fmllr-tri3/train/data/feats_fmllr_train.8.ark:16658758
mjws0_sx153 quick_test/data-fmllr-tri3/train/data/feats_fmllr_train.7.ark:2531797
mjda0_sx41 quick_test/data-fmllr-tri3/train/data/feats_fmllr_train.6.ark:8323154
mdas0_sx96 quick_test/data-fmllr-tri3/train/data/feats_fmllr_train.4.ark:15076022
mmws1_si1701 quick_test/data-fmllr-tri3/train/data/feats_fmllr_train.8.ark:4364830
mtbc0_sx183 quick_test/data-fmllr-tri3/train/data/feats_fmllr_train.10.ark:2212700
mjde0_sx40 quick_test/data-fmllr-tri3/train/data/feats_fmllr_train.6.ark:9128360
mjlg1_si1642 quick_test/data-fmllr-tri3/train/data/feats_fmllr_train.6.ark:14346145
mjlb0_sx356 quick_test/data-fmllr-tri3/train/data/feats_fmllr_train.6.ark:14183796
fsjw0_sx343 quick_test/data-fmllr-tri3/train/data/feats_fmllr_train.3.ark:9834796
fjrb0_sx222 quick_test/data-fmllr-tri3/train/data/feats_fmllr_train.2.ark:2543028
mesg0_sx432 quick_test/data-fmllr-tri3/train/data/feats_fmllr_train.5.ark:13267074
fmmh0_sx367 quick_test/data-fmllr-tri3/train/data/feats_fmllr_train.2.ark:17737198
mprb0_si1215 quick_test/data-fmllr-tri3/train/data/feats_fmllr_train.8.ark:8965832
flmc0_sx336 quick_test/data-fmllr-tri3/train/data/feats_fmllr_train.2.ark:13094967
mrxb0_si2215 quick_test/data-fmllr-tri3/train/data/feats_fmllr_train.9.ark:10743182
fmju0_sx129 quick_test/data-fmllr-tri3/train/data/feats_fmllr_train.2.ark:16491241
mpsw0_sx167 quick_test/data-fmllr-tri3/train/data/feats_fmllr_train.8.ark:10738434
mdlm0_si1234 quick_test/data-fmllr-tri3/train/data/feats_fmllr_train.5.ark:4310241
mvjh0_si926 quick_test/data-fmllr-tri3/train/data/feats_fmllr_train.10.ark:12465996
mdpb0_sx236 quick_test/data-fmllr-tri3/train/data/feats_fmllr_train.5.ark:6899813
mkxl0_sx375 quick_test/data-fmllr-tri3/train/data/feats_fmllr_train.7.ark:10080348
mwdk0_si1436 quick_test/data-fmllr-tri3/train/data/feats_fmllr_train.10.ark:14865863
mhmr0_sx309 quick_test/data-fmllr-tri3/train/data/feats_fmllr_train.6.ark:5229047
mmrp0_sx324 quick_test/data-fmllr-tri3/train/data/feats_fmllr_train.8.ark:2378413
mrlk0_si2140 quick_test/data-fmllr-tri3/train/data/feats_fmllr_train.9.ark:4472826
mmlm0_si897 quick_test/data-fmllr-tri3/train/data/feats_fmllr_train.8.ark:1526698
fscn0_si1886 quick_test/data-fmllr-tri3/train/data/feats_fmllr_train.3.ark:6762261
mkes0_sx443 quick_test/data-fmllr-tri3/train/data/feats_fmllr_train.7.ark:7061143
mmrp0_sx54 quick_test/data-fmllr-tri3/train/data/feats_fmllr_train.8.ark:2506466
mbma1_sx414 quick_test/data-fmllr-tri3/train/data/feats_fmllr_train.4.ark:6224451
mjac0_sx251 quick_test/data-fmllr-tri3/train/data/feats_fmllr_train.6.ark:6615937
mhxl0_si1772 quick_test/data-fmllr-tri3/train/data/feats_fmllr_train.6.ark:5723585
fear0_sx82 quick_test/data-fmllr-tri3/train/data/feats_fmllr_train.1.ark:14089720
fbcg1_sx442 quick_test/data-fmllr-tri3/train/data/feats_fmllr_train.1.ark:2750915
mdlm0_sx154 quick_test/data-fmllr-tri3/train/data/feats_fmllr_train.5.ark:4468883
mtml0_sx75 quick_test/data-fmllr-tri3/train/data/feats_fmllr_train.10.ark:7603149
fbas0_si1387 quick_test/data-fmllr-tri3/train/data/feats_fmllr_train.1.ark:2053414
mhmg0_si1995 quick_test/data-fmllr-tri3/train/data/feats_fmllr_train.6.ark:4649842
mdss1_sx427 quick_test/data-fmllr-tri3/train/data/feats_fmllr_train.5.ark:9169329
mtcs0_sx262 quick_test/data-fmllr-tri3/train/data/feats_fmllr_train.10.ark:2627504
mdwh0_si1168 quick_test/data-fmllr-tri3/train/data/feats_fmllr_train.5.ark:9933178
fexm0_si482 quick_test/data-fmllr-tri3/train/data/feats_fmllr_train.1.ark:15900911
fapb0_si1693 quick_test/data-fmllr-tri3/train/data/feats_fmllr_train.1.ark:1637384
mcdd0_si2143 quick_test/data-fmllr-tri3/train/data/feats_fmllr_train.4.ark:9381466
fmjb0_sx277 quick_test/data-fmllr-tri3/train/data/feats_fmllr_train.2.ark:15742836
feeh0_si471 quick_test/data-fmllr-tri3/train/data/feats_fmllr_train.1.ark:14706020
msms0_sx83 quick_test/data-fmllr-tri3/train/data/feats_fmllr_train.9.ark:16944042
msem1_si2070 quick_test/data-fmllr-tri3/train/data/feats_fmllr_train.9.ark:13710842
mkdb0_si872 quick_test/data-fmllr-tri3/train/data/feats_fmllr_train.7.ark:5640865
fsjs0_si541 quick_test/data-fmllr-tri3/train/data/feats_fmllr_train.3.ark:9261858
mmgg0_sx359 quick_test/data-fmllr-tri3/train/data/feats_fmllr_train.8.ark:579888
mbma1_sx324 quick_test/data-fmllr-tri3/train/data/feats_fmllr_train.4.ark:6153224
mrwa0_si1603 quick_test/data-fmllr-tri3/train/data/feats_fmllr_train.9.ark:10002560
mgsl0_sx84 quick_test/data-fmllr-tri3/train/data/feats_fmllr_train.6.ark:3090200
fdnc0_sx108 quick_test/data-fmllr-tri3/train/data/feats_fmllr_train.1.ark:12333064
msmc0_si509 quick_test/data-fmllr-tri3/train/data/feats_fmllr_train.9.ark:15868407
mntw0_sx168 quick_test/data-fmllr-tri3/train/data/feats_fmllr_train.8.ark:5514973
mkah0_si898 quick_test/data-fmllr-tri3/train/data/feats_fmllr_train.7.ark:4511094
mrld0_si964 quick_test/data-fmllr-tri3/train/data/feats_fmllr_train.9.ark:3471401
mdbb1_sx16 quick_test/data-fmllr-tri3/train/data/feats_fmllr_train.4.ark:15305119
mrcw0_sx201 quick_test/data-fmllr-tri3/train/data/feats_fmllr_train.8.ark:13901958
mjpm0_sx198 quick_test/data-fmllr-tri3/train/data/feats_fmllr_train.6.ark:16688516
fmjb0_si547 quick_test/data-fmllr-tri3/train/data/feats_fmllr_train.2.ark:15659262
mmcc0_si708 quick_test/data-fmllr-tri3/train/data/feats_fmllr_train.7.ark:15207196
mbma1_sx234 quick_test/data-fmllr-tri3/train/data/feats_fmllr_train.4.ark:6109037
mdlc0_si1395 quick_test/data-fmllr-tri3/train/data/feats_fmllr_train.5.ark:2782173
mbef0_si1281 quick_test/data-fmllr-tri3/train/data/feats_fmllr_train.4.ark:4472700
mrgs0_sx186 quick_test/data-fmllr-tri3/train/data/feats_fmllr_train.9.ark:168735
mmxs0_si2136 quick_test/data-fmllr-tri3/train/data/feats_fmllr_train.8.ark:4612859
fklh0_sx447 quick_test/data-fmllr-tri3/train/data/feats_fmllr_train.2.ark:8393802
mlsh0_sx427 quick_test/data-fmllr-tri3/train/data/feats_fmllr_train.7.ark:12494424
mdlr1_sx219 quick_test/data-fmllr-tri3/train/data/feats_fmllr_train.5.ark:5270464
mwch0_sx362 quick_test/data-fmllr-tri3/train/data/feats_fmllr_train.10.ark:14722902
fbas0_sx307 quick_test/data-fmllr-tri3/train/data/feats_fmllr_train.1.ark:2348271
mdlr0_si1863 quick_test/data-fmllr-tri3/train/data/feats_fmllr_train.5.ark:4713526
fjlg0_sx269 quick_test/data-fmllr-tri3/train/data/feats_fmllr_train.2.ark:1793154
fpmy0_sx253 quick_test/data-fmllr-tri3/train/data/feats_fmllr_train.3.ark:3859700
fgcs0_sx136 quick_test/data-fmllr-tri3/train/data/feats_fmllr_train.1.ark:16375236
mcre0_sx24 quick_test/data-fmllr-tri3/train/data/feats_fmllr_train.4.ark:12692911
feme0_sx335 quick_test/data-fmllr-tri3/train/data/feats_fmllr_train.1.ark:15255278
mmsm0_si476 quick_test/data-fmllr-tri3/train/data/feats_fmllr_train.8.ark:2678229
mmdm1_si1650 quick_test/data-fmllr-tri3/train/data/feats_fmllr_train.7.ark:16622089
mlbc0_si1869 quick_test/data-fmllr-tri3/train/data/feats_fmllr_train.7.ark:10191764
flkm0_sx116 quick_test/data-fmllr-tri3/train/data/feats_fmllr_train.2.ark:12206453
fvkb0_sx259 quick_test/data-fmllr-tri3/train/data/feats_fmllr_train.3.ark:16264699
mmxs0_si876 quick_test/data-fmllr-tri3/train/data/feats_fmllr_train.8.ark:4715153
mded0_si1800 quick_test/data-fmllr-tri3/train/data/feats_fmllr_train.4.ark:17047404
mtml0_si1695 quick_test/data-fmllr-tri3/train/data/feats_fmllr_train.10.ark:7285067
mkls0_sx447 quick_test/data-fmllr-tri3/train/data/feats_fmllr_train.7.ark:8536253
flod0_sx171 quick_test/data-fmllr-tri3/train/data/feats_fmllr_train.2.ark:13766709
fcrz0_sx343 quick_test/data-fmllr-tri3/train/data/feats_fmllr_train.1.ark:8786841
mtrt0_si597 quick_test/data-fmllr-tri3/train/data/feats_fmllr_train.10.ark:11320064
mtcs0_sx352 quick_test/data-fmllr-tri3/train/data/feats_fmllr_train.10.ark:2665451
fkaa0_si578 quick_test/data-fmllr-tri3/train/data/feats_fmllr_train.2.ark:5292493
mvjh0_sx386 quick_test/data-fmllr-tri3/train/data/feats_fmllr_train.10.ark:12665970
fkkh0_sx120 quick_test/data-fmllr-tri3/train/data/feats_fmllr_train.2.ark:7087469
mgsh0_si546 quick_test/data-fmllr-tri3/train/data/feats_fmllr_train.6.ark:2430332
mjdg0_sx142 quick_test/data-fmllr-tri3/train/data/feats_fmllr_train.6.ark:9388338
mzmb0_sx446 quick_test/data-fmllr-tri3/train/data/feats_fmllr_train.10.ark:17896504
flhd0_sx84 quick_test/data-fmllr-tri3/train/data/feats_fmllr_train.2.ark:10728092
msrr0_si1761 quick_test/data-fmllr-tri3/train/data/feats_fmllr_train.9.ark:17384795
mjeb0_sx296 quick_test/data-fmllr-tri3/train/data/feats_fmllr_train.6.ark:10338772
fcmg0_sx252 quick_test/data-fmllr-tri3/train/data/feats_fmllr_train.1.ark:7998540
ftmg0_sx452 quick_test/data-fmllr-tri3/train/data/feats_fmllr_train.3.ark:15658718
fmpg0_sx432 quick_test/data-fmllr-tri3/train/data/feats_fmllr_train.2.ark:18300347
fjwb1_si2055 quick_test/data-fmllr-tri3/train/data/feats_fmllr_train.2.ark:4039308
mmlm0_sx447 quick_test/data-fmllr-tri3/train/data/feats_fmllr_train.8.ark:1690966
mprb0_sx125 quick_test/data-fmllr-tri3/train/data/feats_fmllr_train.8.ark:9127006
fsag0_sx153 quick_test/data-fmllr-tri3/train/data/feats_fmllr_train.3.ark:5209474
mjpm0_sx108 quick_test/data-fmllr-tri3/train/data/feats_fmllr_train.6.ark:16610383
mbma0_si1852 quick_test/data-fmllr-tri3/train/data/feats_fmllr_train.4.ark:5627139
mrlj0_si1420 quick_test/data-fmllr-tri3/train/data/feats_fmllr_train.9.ark:3714123
mdpk0_si552 quick_test/data-fmllr-tri3/train/data/feats_fmllr_train.5.ark:7156456
mprk0_sx197 quick_test/data-fmllr-tri3/train/data/feats_fmllr_train.8.ark:10123013
mjeb1_si837 quick_test/data-fmllr-tri3/train/data/feats_fmllr_train.6.ark:10548162
fsms1_si2134 quick_test/data-fmllr-tri3/train/data/feats_fmllr_train.3.ark:12357968
mmpm0_si1691 quick_test/data-fmllr-tri3/train/data/feats_fmllr_train.8.ark:1803688
mkdd0_si2197 quick_test/data-fmllr-tri3/train/data/feats_fmllr_train.7.ark:6006815
fkde0_si2221 quick_test/data-fmllr-tri3/train/data/feats_fmllr_train.2.ark:5768711
fhxs0_sx445 quick_test/data-fmllr-tri3/train/data/feats_fmllr_train.1.ark:18754165
fbmj0_sx156 quick_test/data-fmllr-tri3/train/data/feats_fmllr_train.1.ark:4630318
mcae0_si1447 quick_test/data-fmllr-tri3/train/data/feats_fmllr_train.4.ark:8108629
mmam0_sx157 quick_test/data-fmllr-tri3/train/data/feats_fmllr_train.7.ark:13974892
fsag0_si1953 quick_test/data-fmllr-tri3/train/data/feats_fmllr_train.3.ark:5146700
fmju0_si1389 quick_test/data-fmllr-tri3/train/data/feats_fmllr_train.2.ark:16331479
mdlh0_si1960 quick_test/data-fmllr-tri3/train/data/feats_fmllr_train.5.ark:3906505
mcre0_si1725 quick_test/data-fmllr-tri3/train/data/feats_fmllr_train.4.ark:12513283
mses0_sx419 quick_test/data-fmllr-tri3/train/data/feats_fmllr_train.9.ark:14436955
mlsh0_sx247 quick_test/data-fmllr-tri3/train/data/feats_fmllr_train.7.ark:12378690
mrlj0_sx160 quick_test/data-fmllr-tri3/train/data/feats_fmllr_train.9.ark:3860445
fskp0_sx288 quick_test/data-fmllr-tri3/train/data/feats_fmllr_train.3.ark:11003793
fvkb0_sx349 quick_test/data-fmllr-tri3/train/data/feats_fmllr_train.3.ark:16318486
fpab1_si2101 quick_test/data-fmllr-tri3/train/data/feats_fmllr_train.3.ark:795034
mmrp0_sx144 quick_test/data-fmllr-tri3/train/data/feats_fmllr_train.8.ark:2272599
mmam0_sx337 quick_test/data-fmllr-tri3/train/data/feats_fmllr_train.7.ark:14060866
mkag0_sx30 quick_test/data-fmllr-tri3/train/data/feats_fmllr_train.7.ark:4287758
mkaj0_sx244 quick_test/data-fmllr-tri3/train/data/feats_fmllr_train.7.ark:4986725
msdb0_sx287 quick_test/data-fmllr-tri3/train/data/feats_fmllr_train.9.ark:12732564
mrre0_sx74 quick_test/data-fmllr-tri3/train/data/feats_fmllr_train.9.ark:7824806
ftbr0_sx291 quick_test/data-fmllr-tri3/train/data/feats_fmllr_train.3.ark:14511987
mjae0_si1524 quick_test/data-fmllr-tri3/train/data/feats_fmllr_train.6.ark:6859592
mcss0_si688 quick_test/data-fmllr-tri3/train/data/feats_fmllr_train.4.ark:12901019
mdsj0_sx438 quick_test/data-fmllr-tri3/train/data/feats_fmllr_train.5.ark:8528441
mrgs0_sx6 quick_test/data-fmllr-tri3/train/data/feats_fmllr_train.9.ark:316014
mdlr0_sx333 quick_test/data-fmllr-tri3/train/data/feats_fmllr_train.5.ark:4893634
mkln0_sx248 quick_test/data-fmllr-tri3/train/data/feats_fmllr_train.7.ark:7677363
mmdb0_sx177 quick_test/data-fmllr-tri3/train/data/feats_fmllr_train.7.ark:15631440
mrmg0_sx180 quick_test/data-fmllr-tri3/train/data/feats_fmllr_train.9.ark:5658972
mtrc0_sx273 quick_test/data-fmllr-tri3/train/data/feats_fmllr_train.10.ark:10704511
mbbr0_si1685 quick_test/data-fmllr-tri3/train/data/feats_fmllr_train.4.ark:3823654
mjdm0_sx80 quick_test/data-fmllr-tri3/train/data/feats_fmllr_train.6.ark:10004662
mrml0_si1421 quick_test/data-fmllr-tri3/train/data/feats_fmllr_train.9.ark:6248925
mjxl0_si1795 quick_test/data-fmllr-tri3/train/data/feats_fmllr_train.7.ark:3687114
mjdc0_sx351 quick_test/data-fmllr-tri3/train/data/feats_fmllr_train.6.ark:8611318
mgxp0_sx7 quick_test/data-fmllr-tri3/train/data/feats_fmllr_train.6.ark:3475828
mjjj0_si533 quick_test/data-fmllr-tri3/train/data/feats_fmllr_train.6.ark:12855704
msjk0_si1596 quick_test/data-fmllr-tri3/train/data/feats_fmllr_train.9.ark:15415363
mbgt0_sx81 quick_test/data-fmllr-tri3/train/data/feats_fmllr_train.4.ark:5154226
mdlb0_sx226 quick_test/data-fmllr-tri3/train/data/feats_fmllr_train.5.ark:2562865
fbmh0_si1766 quick_test/data-fmllr-tri3/train/data/feats_fmllr_train.1.ark:4153888
fdkn0_sx271 quick_test/data-fmllr-tri3/train/data/feats_fmllr_train.1.ark:11062839
mges0_si851 quick_test/data-fmllr-tri3/train/data/feats_fmllr_train.6.ark:795383
fdfb0_sx148 quick_test/data-fmllr-tri3/train/data/feats_fmllr_train.1.ark:10261577
fljd0_sx436 quick_test/data-fmllr-tri3/train/data/feats_fmllr_train.2.ark:11506901
mdcd0_sx425 quick_test/data-fmllr-tri3/train/data/feats_fmllr_train.4.ark:16199528
mhbs0_si2205 quick_test/data-fmllr-tri3/train/data/feats_fmllr_train.6.ark:3607270
fkkh0_sx30 quick_test/data-fmllr-tri3/train/data/feats_fmllr_train.2.ark:7181762
fdfb0_sx58 quick_test/data-fmllr-tri3/train/data/feats_fmllr_train.1.ark:10422164
mcae0_sx187 quick_test/data-fmllr-tri3/train/data/feats_fmllr_train.4.ark:8351751
fltm0_si1700 quick_test/data-fmllr-tri3/train/data/feats_fmllr_train.2.ark:13967006
mgsh0_sx96 quick_test/data-fmllr-tri3/train/data/feats_fmllr_train.6.ark:2664064
fpab1_sx31 quick_test/data-fmllr-tri3/train/data/feats_fmllr_train.3.ark:1115968
mdtb0_sx321 quick_test/data-fmllr-tri3/train/data/feats_fmllr_train.5.ark:9484746
mjfh0_si477 quick_test/data-fmllr-tri3/train/data/feats_fmllr_train.6.ark:11298996
mdbp0_si1788 quick_test/data-fmllr-tri3/train/data/feats_fmllr_train.4.ark:15502856
mrab0_sx144 quick_test/data-fmllr-tri3/train/data/feats_fmllr_train.8.ark:11074490
mklr0_sx249 quick_test/data-fmllr-tri3/train/data/feats_fmllr_train.7.ark:8032781
mdmt0_sx122 quick_test/data-fmllr-tri3/train/data/feats_fmllr_train.5.ark:6036312
majp0_si1074 quick_test/data-fmllr-tri3/train/data/feats_fmllr_train.4.ark:1061785
mlel0_sx436 quick_test/data-fmllr-tri3/train/data/feats_fmllr_train.7.ark:10840436
fskc0_sx66 quick_test/data-fmllr-tri3/train/data/feats_fmllr_train.3.ark:10309146
fkdw0_sx37 quick_test/data-fmllr-tri3/train/data/feats_fmllr_train.2.ark:6343915
mgjc0_sx255 quick_test/data-fmllr-tri3/train/data/feats_fmllr_train.6.ark:1282695
mtrr0_sx378 quick_test/data-fmllr-tri3/train/data/feats_fmllr_train.10.ark:11132621
mgsl0_sx354 quick_test/data-fmllr-tri3/train/data/feats_fmllr_train.6.ark:2985827
mhmg0_sx375 quick_test/data-fmllr-tri3/train/data/feats_fmllr_train.6.ark:4912563
mpeb0_sx150 quick_test/data-fmllr-tri3/train/data/feats_fmllr_train.8.ark:6184527
mpgr0_si1410 quick_test/data-fmllr-tri3/train/data/feats_fmllr_train.8.ark:7151815
fpmy0_sx343 quick_test/data-fmllr-tri3/train/data/feats_fmllr_train.3.ark:3903567
fsrh0_sx131 quick_test/data-fmllr-tri3/train/data/feats_fmllr_train.3.ark:13225016
mcal0_si508 quick_test/data-fmllr-tri3/train/data/feats_fmllr_train.4.ark:8700259
mklr0_si1689 quick_test/data-fmllr-tri3/train/data/feats_fmllr_train.7.ark:7925179
mrab0_sx324 quick_test/data-fmllr-tri3/train/data/feats_fmllr_train.8.ark:11158864
fmjf0_sx354 quick_test/data-fmllr-tri3/train/data/feats_fmllr_train.2.ark:16170438
mwsh0_sx436 quick_test/data-fmllr-tri3/train/data/feats_fmllr_train.10.ark:17497087
mjra0_sx246 quick_test/data-fmllr-tri3/train/data/feats_fmllr_train.6.ark:17412764
fmbg0_sx80 quick_test/data-fmllr-tri3/train/data/feats_fmllr_train.2.ark:15057521
mbcg0_sx57 quick_test/data-fmllr-tri3/train/data/feats_fmllr_train.4.ark:4432192
mlns0_sx417 quick_test/data-fmllr-tri3/train/data/feats_fmllr_train.7.ark:12090207
fbmh0_sx326 quick_test/data-fmllr-tri3/train/data/feats_fmllr_train.1.ark:4337836
msat0_sx266 quick_test/data-fmllr-tri3/train/data/feats_fmllr_train.9.ark:12012395
mmlm0_sx357 quick_test/data-fmllr-tri3/train/data/feats_fmllr_train.8.ark:1643419
makr0_si1352 quick_test/data-fmllr-tri3/train/data/feats_fmllr_train.4.ark:1956301
mmvp0_sx114 quick_test/data-fmllr-tri3/train/data/feats_fmllr_train.8.ark:3167753
fjxp0_sx402 quick_test/data-fmllr-tri3/train/data/feats_fmllr_train.2.ark:5114944
mdwm0_sx16 quick_test/data-fmllr-tri3/train/data/feats_fmllr_train.5.ark:10589183
fmmh0_si907 quick_test/data-fmllr-tri3/train/data/feats_fmllr_train.2.ark:17652344
milb0_si2163 quick_test/data-fmllr-tri3/train/data/feats_fmllr_train.6.ark:6120761
fpab1_sx211 quick_test/data-fmllr-tri3/train/data/feats_fmllr_train.3.ark:1006475
mtxs0_sx160 quick_test/data-fmllr-tri3/train/data/feats_fmllr_train.10.ark:12058606
medr0_si2004 quick_test/data-fmllr-tri3/train/data/feats_fmllr_train.5.ark:11117058
fpad0_sx266 quick_test/data-fmllr-tri3/train/data/feats_fmllr_train.3.ark:1839389
mmdm0_sx321 quick_test/data-fmllr-tri3/train/data/feats_fmllr_train.7.ark:16464728
mmrp0_si774 quick_test/data-fmllr-tri3/train/data/feats_fmllr_train.8.ark:2216732
mjmd0_sx128 quick_test/data-fmllr-tri3/train/data/feats_fmllr_train.6.ark:15542052
mmds0_si713 quick_test/data-fmllr-tri3/train/data/feats_fmllr_train.7.ark:17098841
mjws0_si1773 quick_test/data-fmllr-tri3/train/data/feats_fmllr_train.7.ark:2444063
mjjm0_sx377 quick_test/data-fmllr-tri3/train/data/feats_fmllr_train.6.ark:13504375
fcjf0_sx307 quick_test/data-fmllr-tri3/train/data/feats_fmllr_train.1.ark:6602498
maeb0_sx180 quick_test/data-fmllr-tri3/train/data/feats_fmllr_train.4.ark:158015
mkah0_sx88 quick_test/data-fmllr-tri3/train/data/feats_fmllr_train.7.ark:4757948
mrkm0_sx367 quick_test/data-fmllr-tri3/train/data/feats_fmllr_train.9.ark:3223427
mtlb0_sx234 quick_test/data-fmllr-tri3/train/data/feats_fmllr_train.10.ark:6680074
mrdd0_sx60 quick_test/data-fmllr-tri3/train/data/feats_fmllr_train.8.ark:14357136
mmwb0_sx449 quick_test/data-fmllr-tri3/train/data/feats_fmllr_train.8.ark:3816372
mklr0_sx429 quick_test/data-fmllr-tri3/train/data/feats_fmllr_train.7.ark:8115875
mgrp0_sx237 quick_test/data-fmllr-tri3/train/data/feats_fmllr_train.6.ark:2094489
mgxp0_sx277 quick_test/data-fmllr-tri3/train/data/feats_fmllr_train.6.ark:3377216
mgar0_si1694 quick_test/data-fmllr-tri3/train/data/feats_fmllr_train.6.ark:59241
mpar0_sx316 quick_test/data-fmllr-tri3/train/data/feats_fmllr_train.8.ark:5954764
mlns0_si777 quick_test/data-fmllr-tri3/train/data/feats_fmllr_train.7.ark:11924979
frjb0_si1470 quick_test/data-fmllr-tri3/train/data/feats_fmllr_train.3.ark:4395066
fleh0_sx241 quick_test/data-fmllr-tri3/train/data/feats_fmllr_train.2.ark:9859897
mmab1_sx54 quick_test/data-fmllr-tri3/train/data/feats_fmllr_train.7.ark:13354244
msat0_si2156 quick_test/data-fmllr-tri3/train/data/feats_fmllr_train.9.ark:11894394
mmbs0_sx431 quick_test/data-fmllr-tri3/train/data/feats_fmllr_train.7.ark:14995727
mgrp0_si1947 quick_test/data-fmllr-tri3/train/data/feats_fmllr_train.6.ark:1944808
mmam0_sx67 quick_test/data-fmllr-tri3/train/data/feats_fmllr_train.7.ark:14132759
flma0_si1243 quick_test/data-fmllr-tri3/train/data/feats_fmllr_train.2.ark:12481788
mtmt0_sx218 quick_test/data-fmllr-tri3/train/data/feats_fmllr_train.10.ark:8265103
mrav0_sx378 quick_test/data-fmllr-tri3/train/data/feats_fmllr_train.8.ark:12811947
fajw0_sx3 quick_test/data-fmllr-tri3/train/data/feats_fmllr_train.1.ark:683084
mdps0_sx359 quick_test/data-fmllr-tri3/train/data/feats_fmllr_train.5.ark:7619474
madd0_si1798 quick_test/data-fmllr-tri3/train/data/feats_fmllr_train.3.ark:17620686
mjpm0_si1998 quick_test/data-fmllr-tri3/train/data/feats_fmllr_train.6.ark:16506809
mdhl0_sx89 quick_test/data-fmllr-tri3/train/data/feats_fmllr_train.5.ark:1165276
mcxm0_sx361 quick_test/data-fmllr-tri3/train/data/feats_fmllr_train.4.ark:14229618
mjws0_sx63 quick_test/data-fmllr-tri3/train/data/feats_fmllr_train.7.ark:2774944
mrgs0_sx276 quick_test/data-fmllr-tri3/train/data/feats_fmllr_train.9.ark:214522
fmkc0_sx82 quick_test/data-fmllr-tri3/train/data/feats_fmllr_train.2.ark:17085166
flag0_sx294 quick_test/data-fmllr-tri3/train/data/feats_fmllr_train.2.ark:9558772
mwem0_sx60 quick_test/data-fmllr-tri3/train/data/feats_fmllr_train.10.ark:15600350
flod0_sx207 quick_test/data-fmllr-tri3/train/data/feats_fmllr_train.2.ark:13827376
ftmg0_si2162 quick_test/data-fmllr-tri3/train/data/feats_fmllr_train.3.ark:15409303
mjjb0_sx329 quick_test/data-fmllr-tri3/train/data/feats_fmllr_train.6.ark:12580528
mree0_si1734 quick_test/data-fmllr-tri3/train/data/feats_fmllr_train.8.ark:15202906
mtpg0_sx123 quick_test/data-fmllr-tri3/train/data/feats_fmllr_train.10.ark:8962950
fpab1_si841 quick_test/data-fmllr-tri3/train/data/feats_fmllr_train.3.ark:872501
fleh0_sx151 quick_test/data-fmllr-tri3/train/data/feats_fmllr_train.2.ark:9805150
mdbb1_sx286 quick_test/data-fmllr-tri3/train/data/feats_fmllr_train.4.ark:15369013
mrso0_sx129 quick_test/data-fmllr-tri3/train/data/feats_fmllr_train.9.ark:8069237
mjxa0_sx157 quick_test/data-fmllr-tri3/train/data/feats_fmllr_train.7.ark:3392071
mfer0_si2122 quick_test/data-fmllr-tri3/train/data/feats_fmllr_train.5.ark:14053828
fkfb0_si978 quick_test/data-fmllr-tri3/train/data/feats_fmllr_train.2.ark:6541465
fceg0_si618 quick_test/data-fmllr-tri3/train/data/feats_fmllr_train.1.ark:6152920
mlns0_sx57 quick_test/data-fmllr-tri3/train/data/feats_fmllr_train.7.ark:12143833
mter0_sx167 quick_test/data-fmllr-tri3/train/data/feats_fmllr_train.10.ark:3847169
mwsh0_sx166 quick_test/data-fmllr-tri3/train/data/feats_fmllr_train.10.ark:17320686
flma0_sx163 quick_test/data-fmllr-tri3/train/data/feats_fmllr_train.2.ark:12620910
mdcm0_si850 quick_test/data-fmllr-tri3/train/data/feats_fmllr_train.4.ark:16382197
mdcd0_si2045 quick_test/data-fmllr-tri3/train/data/feats_fmllr_train.4.ark:15932673
mbwp0_sx169 quick_test/data-fmllr-tri3/train/data/feats_fmllr_train.4.ark:7828014
mjrk0_sx70 quick_test/data-fmllr-tri3/train/data/feats_fmllr_train.7.ark:1102717
mgrp0_si687 quick_test/data-fmllr-tri3/train/data/feats_fmllr_train.6.ark:1984515
mree0_sx114 quick_test/data-fmllr-tri3/train/data/feats_fmllr_train.8.ark:15321681
mddc0_si2049 quick_test/data-fmllr-tri3/train/data/feats_fmllr_train.4.ark:16715667
mbgt0_sx351 quick_test/data-fmllr-tri3/train/data/feats_fmllr_train.4.ark:5047133
meal0_sx107 quick_test/data-fmllr-tri3/train/data/feats_fmllr_train.5.ark:10884574
mdlh0_sx70 quick_test/data-fmllr-tri3/train/data/feats_fmllr_train.5.ark:4293093
frjb0_si1427 quick_test/data-fmllr-tri3/train/data/feats_fmllr_train.3.ark:4352158
mcew0_sx452 quick_test/data-fmllr-tri3/train/data/feats_fmllr_train.4.ark:10857932
msrr0_sx51 quick_test/data-fmllr-tri3/train/data/feats_fmllr_train.9.ark:17683835
mmrp0_sx414 quick_test/data-fmllr-tri3/train/data/feats_fmllr_train.8.ark:2452040
mgrl0_si1497 quick_test/data-fmllr-tri3/train/data/feats_fmllr_train.6.ark:1506803
mbml0_sx179 quick_test/data-fmllr-tri3/train/data/feats_fmllr_train.4.ark:6450667
mprd0_sx441 quick_test/data-fmllr-tri3/train/data/feats_fmllr_train.8.ark:9730504
mjbg0_si1862 quick_test/data-fmllr-tri3/train/data/feats_fmllr_train.6.ark:7726962
mljc0_sx235 quick_test/data-fmllr-tri3/train/data/feats_fmllr_train.7.ark:11149559
fclt0_si1438 quick_test/data-fmllr-tri3/train/data/feats_fmllr_train.1.ark:7404133
mmgg0_sx449 quick_test/data-fmllr-tri3/train/data/feats_fmllr_train.8.ark:633835
mgsh0_sx127 quick_test/data-fmllr-tri3/train/data/feats_fmllr_train.6.ark:2497079
fdmy0_sx387 quick_test/data-fmllr-tri3/train/data/feats_fmllr_train.1.ark:12079033
mchl0_sx357 quick_test/data-fmllr-tri3/train/data/feats_fmllr_train.4.ark:11236843
fpls0_si2220 quick_test/data-fmllr-tri3/train/data/feats_fmllr_train.3.ark:3242097
mmar0_sx256 quick_test/data-fmllr-tri3/train/data/feats_fmllr_train.7.ark:14439936
mmdg0_sx430 quick_test/data-fmllr-tri3/train/data/feats_fmllr_train.7.ark:16153658
msat1_si2333 quick_test/data-fmllr-tri3/train/data/feats_fmllr_train.9.ark:12250319
mesg0_sx162 quick_test/data-fmllr-tri3/train/data/feats_fmllr_train.5.ark:13121073
mapv0_si663 quick_test/data-fmllr-tri3/train/data/feats_fmllr_train.4.ark:2364733
mmrp0_si717 quick_test/data-fmllr-tri3/train/data/feats_fmllr_train.8.ark:2177185
fceg0_sx438 quick_test/data-fmllr-tri3/train/data/feats_fmllr_train.1.ark:6311908
mges0_sx131 quick_test/data-fmllr-tri3/train/data/feats_fmllr_train.6.ark:850610
ftbw0_sx85 quick_test/data-fmllr-tri3/train/data/feats_fmllr_train.3.ark:14932871
fmkf0_sx276 quick_test/data-fmllr-tri3/train/data/feats_fmllr_train.2.ark:17344503
mwem0_sx330 quick_test/data-fmllr-tri3/train/data/feats_fmllr_train.10.ark:15469097
mbcg0_sx327 quick_test/data-fmllr-tri3/train/data/feats_fmllr_train.4.ark:4319179
fdtd0_sx301 quick_test/data-fmllr-tri3/train/data/feats_fmllr_train.1.ark:12833975
fmah1_si1509 quick_test/data-fmllr-tri3/train/data/feats_fmllr_train.2.ark:14337436
mrcg0_si2058 quick_test/data-fmllr-tri3/train/data/feats_fmllr_train.8.ark:13305180
marw0_si1276 quick_test/data-fmllr-tri3/train/data/feats_fmllr_train.4.ark:2970872
fjlr0_si601 quick_test/data-fmllr-tri3/train/data/feats_fmllr_train.2.ark:2090917
mdpk0_si1683 quick_test/data-fmllr-tri3/train/data/feats_fmllr_train.5.ark:7125709
mclm0_si2086 quick_test/data-fmllr-tri3/train/data/feats_fmllr_train.4.ark:11816369
mdmt0_sx302 quick_test/data-fmllr-tri3/train/data/feats_fmllr_train.5.ark:6144686
feme0_sx425 quick_test/data-fmllr-tri3/train/data/feats_fmllr_train.1.ark:15331625
mjmd0_sx38 quick_test/data-fmllr-tri3/train/data/feats_fmllr_train.6.ark:15659572
mdwm0_si916 quick_test/data-fmllr-tri3/train/data/feats_fmllr_train.5.ark:10479370
mjra0_sx66 quick_test/data-fmllr-tri3/train/data/feats_fmllr_train.6.ark:17569164
fgmb0_si1775 quick_test/data-fmllr-tri3/train/data/feats_fmllr_train.1.ark:17137216
mter0_sx257 quick_test/data-fmllr-tri3/train/data/feats_fmllr_train.10.ark:3939222
mdss1_si697 quick_test/data-fmllr-tri3/train/data/feats_fmllr_train.5.ark:8982501
fdfb0_sx238 quick_test/data-fmllr-tri3/train/data/feats_fmllr_train.1.ark:10298724
mprt0_sx40 quick_test/data-fmllr-tri3/train/data/feats_fmllr_train.8.ark:10545016
mrsp0_si1429 quick_test/data-fmllr-tri3/train/data/feats_fmllr_train.9.ark:8344572
mdlc0_sx405 quick_test/data-fmllr-tri3/train/data/feats_fmllr_train.5.ark:3103456
mrtc0_si828 quick_test/data-fmllr-tri3/train/data/feats_fmllr_train.9.ark:8885484
mjrh1_si514 quick_test/data-fmllr-tri3/train/data/feats_fmllr_train.7.ark:503326
msat0_sx356 quick_test/data-fmllr-tri3/train/data/feats_fmllr_train.9.ark:12043302
mreh1_si1599 quick_test/data-fmllr-tri3/train/data/feats_fmllr_train.8.ark:15518456
mrms0_sx210 quick_test/data-fmllr-tri3/train/data/feats_fmllr_train.9.ark:6958052
mprb0_sx395 quick_test/data-fmllr-tri3/train/data/feats_fmllr_train.8.ark:9330633
mrms0_si1113 quick_test/data-fmllr-tri3/train/data/feats_fmllr_train.9.ark:6741622
mdpk0_sx333 quick_test/data-fmllr-tri3/train/data/feats_fmllr_train.5.ark:7272377
msvs0_si2198 quick_test/data-fmllr-tri3/train/data/feats_fmllr_train.10.ark:41321
mdks0_sx436 quick_test/data-fmllr-tri3/train/data/feats_fmllr_train.5.ark:2222542
msvs0_sx308 quick_test/data-fmllr-tri3/train/data/feats_fmllr_train.10.ark:305269
msfh0_sx136 quick_test/data-fmllr-tri3/train/data/feats_fmllr_train.9.ark:14698531
mewm0_si1348 quick_test/data-fmllr-tri3/train/data/feats_fmllr_train.5.ark:13692783
fklh0_si1257 quick_test/data-fmllr-tri3/train/data/feats_fmllr_train.2.ark:8100519
ftbw0_si1345 quick_test/data-fmllr-tri3/train/data/feats_fmllr_train.3.ark:14590442
makr0_sx272 quick_test/data-fmllr-tri3/train/data/feats_fmllr_train.4.ark:2098330
mhrm0_sx238 quick_test/data-fmllr-tri3/train/data/feats_fmllr_train.6.ark:5522517
mprt0_si495 quick_test/data-fmllr-tri3/train/data/feats_fmllr_train.8.ark:10347602
marw0_si646 quick_test/data-fmllr-tri3/train/data/feats_fmllr_train.4.ark:3050287
mjxl0_si542 quick_test/data-fmllr-tri3/train/data/feats_fmllr_train.7.ark:3714501
fdas1_sx21 quick_test/data-fmllr-tri3/train/data/feats_fmllr_train.1.ark:9616554
mclm0_sx286 quick_test/data-fmllr-tri3/train/data/feats_fmllr_train.4.ark:12010583
fapb0_sx163 quick_test/data-fmllr-tri3/train/data/feats_fmllr_train.1.ark:1767839
fcdr1_sx196 quick_test/data-fmllr-tri3/train/data/feats_fmllr_train.1.ark:5917103
mkdb0_si588 quick_test/data-fmllr-tri3/train/data/feats_fmllr_train.7.ark:5604358
mbgt0_si1341 quick_test/data-fmllr-tri3/train/data/feats_fmllr_train.4.ark:4784437
mmaa0_si845 quick_test/data-fmllr-tri3/train/data/feats_fmllr_train.7.ark:12701733
madd0_sx448 quick_test/data-fmllr-tri3/train/data/feats_fmllr_train.3.ark:17874421
mwsb0_sx96 quick_test/data-fmllr-tri3/train/data/feats_fmllr_train.10.ark:17095456
mgsh0_sx186 quick_test/data-fmllr-tri3/train/data/feats_fmllr_train.6.ark:2530706
fltm0_sx80 quick_test/data-fmllr-tri3/train/data/feats_fmllr_train.2.ark:14304608
mdef0_si2193 quick_test/data-fmllr-tri3/train/data/feats_fmllr_train.5.ark:122149
fsjs0_sx271 quick_test/data-fmllr-tri3/train/data/feats_fmllr_train.3.ark:9385752
fjrb0_sx312 quick_test/data-fmllr-tri3/train/data/feats_fmllr_train.2.ark:2591535
mrld0_sx154 quick_test/data-fmllr-tri3/train/data/feats_fmllr_train.9.ark:3529028
mcxm0_si1351 quick_test/data-fmllr-tri3/train/data/feats_fmllr_train.4.ark:13986762
mrcw0_si1371 quick_test/data-fmllr-tri3/train/data/feats_fmllr_train.8.ark:13699929
flmk0_si1035 quick_test/data-fmllr-tri3/train/data/feats_fmllr_train.2.ark:13204142
fcke0_sx301 quick_test/data-fmllr-tri3/train/data/feats_fmllr_train.1.ark:7306132
mrjm1_sx308 quick_test/data-fmllr-tri3/train/data/feats_fmllr_train.9.ark:2338993
mrwa0_sx163 quick_test/data-fmllr-tri3/train/data/feats_fmllr_train.9.ark:10142002
ftmg0_si1532 quick_test/data-fmllr-tri3/train/data/feats_fmllr_train.3.ark:15382715
feme0_si2135 quick_test/data-fmllr-tri3/train/data/feats_fmllr_train.1.ark:15042850
fpaz0_si2223 quick_test/data-fmllr-tri3/train/data/feats_fmllr_train.3.ark:2455103
mkag0_sx439 quick_test/data-fmllr-tri3/train/data/feats_fmllr_train.7.ark:4317385
flhd0_si1344 quick_test/data-fmllr-tri3/train/data/feats_fmllr_train.2.ark:10420862
mhjb0_si1017 quick_test/data-fmllr-tri3/train/data/feats_fmllr_train.6.ark:4299836
msvs0_si938 quick_test/data-fmllr-tri3/train/data/feats_fmllr_train.10.ark:123908
