ftaj0_sx159 quick_test/fbank/raw_fbank_train.2.ark:1293665
mdwd0_sx360 quick_test/fbank/raw_fbank_train.2.ark:9309902
mgxp0_si457 quick_test/fbank/raw_fbank_train.3.ark:827245
mjrh1_sx64 quick_test/fbank/raw_fbank_train.3.ark:4816042
mtju0_sx130 quick_test/fbank/raw_fbank_train.4.ark:8433461
fapb0_sx163 quick_test/fbank/raw_fbank_train.1.ark:454089
ftmg0_si2162 quick_test/fbank/raw_fbank_train.2.ark:1648458
fsrh0_sx41 quick_test/fbank/raw_fbank_train.2.ark:1140146
fvmh0_si836 quick_test/fbank/raw_fbank_train.2.ark:1955767
mcae0_sx277 quick_test/fbank/raw_fbank_train.2.ark:4466525
mdhl0_sx269 quick_test/fbank/raw_fbank_train.2.ark:7048731
mmbs0_si1151 quick_test/fbank/raw_fbank_train.3.ark:8398512
mgag0_sx241 quick_test/fbank/raw_fbank_train.2.ark:11103621
maeb0_sx180 quick_test/fbank/raw_fbank_train.2.ark:2347740
mjxa0_si877 quick_test/fbank/raw_fbank_train.3.ark:5489852
fmbg0_sx260 quick_test/fbank/raw_fbank_train.1.ark:8657992
mgrp0_si687 quick_test/fbank/raw_fbank_train.3.ark:510687
fgmb0_si515 quick_test/fbank/raw_fbank_train.1.ark:4416359
fpad0_sx446 quick_test/fbank/raw_fbank_train.1.ark:10070969
meal0_si917 quick_test/fbank/raw_fbank_train.2.ark:9578398
mhmr0_sx39 quick_test/fbank/raw_fbank_train.3.ark:1357573
mwre0_si2317 quick_test/fbank/raw_fbank_train.4.ark:11181414
mrwa0_si1603 quick_test/fbank/raw_fbank_train.4.ark:4941029
mdsj0_si832 quick_test/fbank/raw_fbank_train.2.ark:8922902
fvkb0_sx259 quick_test/fbank/raw_fbank_train.2.ark:1868888
mefg0_sx285 quick_test/fbank/raw_fbank_train.2.ark:9803858
fsak0_sx130 quick_test/fbank/raw_fbank_train.1.ark:11140744
fjsk0_sx422 quick_test/fbank/raw_fbank_train.1.ark:5753039
mprd0_si1431 quick_test/fbank/raw_fbank_train.4.ark:165489
falr0_sx65 quick_test/fbank/raw_fbank_train.1.ark:393554
ftlg0_sx393 quick_test/fbank/raw_fbank_train.2.ark:1630390
mmgc0_sx315 quick_test/fbank/raw_fbank_train.3.ark:9317142
madd0_sx268 quick_test/fbank/raw_fbank_train.2.ark:2258908
mesg0_sx252 quick_test/fbank/raw_fbank_train.2.ark:10176211
mcss0_sx120 quick_test/fbank/raw_fbank_train.2.ark:5657790
mntw0_si1698 quick_test/fbank/raw_fbank_train.3.ark:10648958
marc0_sx288 quick_test/fbank/raw_fbank_train.2.ark:3049576
mgxp0_si1087 quick_test/fbank/raw_fbank_train.3.ark:808732
mjhi0_sx68 quick_test/fbank/raw_fbank_train.3.ark:3161333
mjrp0_si585 quick_test/fbank/raw_fbank_train.3.ark:4940408
mjlb0_sx446 quick_test/fbank/raw_fbank_train.3.ark:3658907
mesj0_sx7 quick_test/fbank/raw_fbank_train.2.ark:10293620
mrms0_sx210 quick_test/fbank/raw_fbank_train.4.ark:4159121
fkde0_si2221 quick_test/fbank/raw_fbank_train.1.ark:6320897
mpgr0_sx330 quick_test/fbank/raw_fbank_train.3.ark:11149855
mtrt0_sx237 quick_test/fbank/raw_fbank_train.4.ark:9965469
mlns0_sx417 quick_test/fbank/raw_fbank_train.3.ark:7737015
fsag0_sx243 quick_test/fbank/raw_fbank_train.1.ark:10930207
megj0_sx77 quick_test/fbank/raw_fbank_train.2.ark:9927674
fvkb0_si1789 quick_test/fbank/raw_fbank_train.2.ark:1835469
mbbr0_sx245 quick_test/fbank/raw_fbank_train.2.ark:3322267
mdlh0_si1960 quick_test/fbank/raw_fbank_train.2.ark:7791800
fceg0_sx78 quick_test/fbank/raw_fbank_train.1.ark:1635896
mjeb1_si2097 quick_test/fbank/raw_fbank_train.3.ark:2698197
mwar0_sx415 quick_test/fbank/raw_fbank_train.4.ark:10749418
mppc0_si782 quick_test/fbank/raw_fbank_train.3.ark:11481832
fmkc0_sx82 quick_test/fbank/raw_fbank_train.1.ark:9229326
mhxl0_sx62 quick_test/fbank/raw_fbank_train.3.ark:1562575
mcre0_si1121 quick_test/fbank/raw_fbank_train.2.ark:5512306
marw0_si646 quick_test/fbank/raw_fbank_train.2.ark:3092630
fsms1_si2134 quick_test/fbank/raw_fbank_train.2.ark:863459
fsjw0_sx253 quick_test/fbank/raw_fbank_train.2.ark:205502
msat1_sx443 quick_test/fbank/raw_fbank_train.4.ark:5568340
mrcw0_si2001 quick_test/fbank/raw_fbank_train.4.ark:1288079
fblv0_sx68 quick_test/fbank/raw_fbank_train.1.ark:1037266
mdwd0_sx450 quick_test/fbank/raw_fbank_train.2.ark:9320895
mdpb0_sx56 quick_test/fbank/raw_fbank_train.2.ark:8593446
fecd0_si1418 quick_test/fbank/raw_fbank_train.1.ark:3633836
mree0_sx24 quick_test/fbank/raw_fbank_train.4.ark:1714592
mcpm0_si1824 quick_test/fbank/raw_fbank_train.2.ark:5432795
mkag0_si1609 quick_test/fbank/raw_fbank_train.3.ark:5659915
mjws0_sx153 quick_test/fbank/raw_fbank_train.3.ark:5279875
mjlb0_sx176 quick_test/fbank/raw_fbank_train.3.ark:3623368
fjxm0_sx311 quick_test/fbank/raw_fbank_train.1.ark:6028560
mjhi0_si555 quick_test/fbank/raw_fbank_train.3.ark:3092336
mcdd0_si1513 quick_test/fbank/raw_fbank_train.2.ark:4713665
mchl0_si1404 quick_test/fbank/raw_fbank_train.2.ark:5152079
makb0_sx116 quick_test/fbank/raw_fbank_train.2.ark:2750603
mrpc1_sx132 quick_test/fbank/raw_fbank_train.4.ark:4223194
mrms0_sx390 quick_test/fbank/raw_fbank_train.4.ark:4183019
mjmm0_sx175 quick_test/fbank/raw_fbank_train.3.ark:4087375
mcss0_sx390 quick_test/fbank/raw_fbank_train.2.ark:5700361
fsjw0_sx343 quick_test/fbank/raw_fbank_train.2.ark:214655
mdem0_sx68 quick_test/fbank/raw_fbank_train.2.ark:6986364
msem1_sx450 quick_test/fbank/raw_fbank_train.4.ark:5984242
mkdd0_sx127 quick_test/fbank/raw_fbank_train.3.ark:6207859
mjlg1_sx112 quick_test/fbank/raw_fbank_train.3.ark:3717274
mrws0_sx292 quick_test/fbank/raw_fbank_train.4.ark:5098052
mges0_si851 quick_test/fbank/raw_fbank_train.3.ark:205091
mjrk0_sx430 quick_test/fbank/raw_fbank_train.3.ark:4897235
mdps0_sx359 quick_test/fbank/raw_fbank_train.2.ark:8746711
mdlc0_sx315 quick_test/fbank/raw_fbank_train.2.ark:7573010
fcag0_si1503 quick_test/fbank/raw_fbank_train.1.ark:1257109
flja0_si2338 quick_test/fbank/raw_fbank_train.1.ark:7639826
flkm0_sx440 quick_test/fbank/raw_fbank_train.1.ark:8018352
mmam0_si2227 quick_test/fbank/raw_fbank_train.3.ark:8213049
mmaa0_sx305 quick_test/fbank/raw_fbank_train.3.ark:7937112
fdkn0_sx271 quick_test/fbank/raw_fbank_train.1.ark:2844687
mjmd0_sx128 quick_test/fbank/raw_fbank_train.3.ark:3997390
mmrp0_sx414 quick_test/fbank/raw_fbank_train.3.ark:9889766
mclm0_si826 quick_test/fbank/raw_fbank_train.2.ark:5358803
mgrl0_sx57 quick_test/fbank/raw_fbank_train.3.ark:474546
mmgg0_sx269 quick_test/fbank/raw_fbank_train.3.ark:9398775
mmam0_sx157 quick_test/fbank/raw_fbank_train.3.ark:8221002
mlbc0_si609 quick_test/fbank/raw_fbank_train.3.ark:7258263
fcmm0_sx273 quick_test/fbank/raw_fbank_train.1.ark:2153789
mjrg0_sx16 quick_test/fbank/raw_fbank_train.3.ark:4576732
mjpm0_si1368 quick_test/fbank/raw_fbank_train.3.ark:4228245
fkde0_sx241 quick_test/fbank/raw_fbank_train.1.ark:6342243
mwsb0_sx96 quick_test/fbank/raw_fbank_train.4.ark:11430545
mtlb0_sx234 quick_test/fbank/raw_fbank_train.4.ark:8750849
mtjs0_si562 quick_test/fbank/raw_fbank_train.4.ark:8314123
mgsh0_sx96 quick_test/fbank/raw_fbank_train.3.ark:685074
mtxs0_si1060 quick_test/fbank/raw_fbank_train.4.ark:10089186
fnkl0_sx262 quick_test/fbank/raw_fbank_train.1.ark:9632677
mjra0_sx336 quick_test/fbank/raw_fbank_train.3.ark:4488981
mmdm1_si2043 quick_test/fbank/raw_fbank_train.3.ark:8908751
mbom0_si1014 quick_test/fbank/raw_fbank_train.2.ark:4027053
fltm0_si1700 quick_test/fbank/raw_fbank_train.1.ark:8428314
flkm0_si620 quick_test/fbank/raw_fbank_train.1.ark:7946267
mkrg0_si861 quick_test/fbank/raw_fbank_train.3.ark:7074933
fbjl0_si1552 quick_test/fbank/raw_fbank_train.1.ark:841289
mjdc0_sx441 quick_test/fbank/raw_fbank_train.3.ark:2228077
mtdb0_sx411 quick_test/fbank/raw_fbank_train.4.ark:7838290
mkjo0_si2147 quick_test/fbank/raw_fbank_train.3.ark:6478587
mjxa0_sx427 quick_test/fbank/raw_fbank_train.3.ark:5535104
msdh0_sx260 quick_test/fbank/raw_fbank_train.4.ark:5710525
mdcd0_sx245 quick_test/fbank/raw_fbank_train.2.ark:6447581
mesj0_si2257 quick_test/fbank/raw_fbank_train.2.ark:10242617
mdmt0_si1832 quick_test/fbank/raw_fbank_train.2.ark:8311285
mdlc1_si2065 quick_test/fbank/raw_fbank_train.2.ark:7627623
mljc0_si595 quick_test/fbank/raw_fbank_train.3.ark:7471993
mbth0_sx122 quick_test/fbank/raw_fbank_train.2.ark:4227522
mdlr1_sx309 quick_test/fbank/raw_fbank_train.2.ark:8156440
fjxp0_si492 quick_test/fbank/raw_fbank_train.1.ark:6111006
mdbb1_si1006 quick_test/fbank/raw_fbank_train.2.ark:6197597
fjkl0_sx122 quick_test/fbank/raw_fbank_train.1.ark:5191453
fjwb1_si2055 quick_test/fbank/raw_fbank_train.1.ark:5876770
freh0_si1315 quick_test/fbank/raw_fbank_train.1.ark:10601759
fsbk0_sx79 quick_test/fbank/raw_fbank_train.1.ark:11293621
mdss0_si1881 quick_test/fbank/raw_fbank_train.2.ark:8997500
fpaf0_si1684 quick_test/fbank/raw_fbank_train.1.ark:10115189
mdhs0_sx360 quick_test/fbank/raw_fbank_train.2.ark:7155989
mjrk0_si2103 quick_test/fbank/raw_fbank_train.3.ark:4833230
mjeb1_sx27 quick_test/fbank/raw_fbank_train.3.ark:2752568
fbcg1_sx82 quick_test/fbank/raw_fbank_train.1.ark:721111
fdfb0_si1948 quick_test/fbank/raw_fbank_train.1.ark:2623816
mtpf0_si1235 quick_test/fbank/raw_fbank_train.4.ark:9206402
mwac0_si971 quick_test/fbank/raw_fbank_train.4.ark:10513034
mtrt0_sx147 quick_test/fbank/raw_fbank_train.4.ark:9953556
fsag0_si1953 quick_test/fbank/raw_fbank_train.1.ark:10894868
mrws0_si472 quick_test/fbank/raw_fbank_train.4.ark:5060801
fsjs0_si1801 quick_test/fbank/raw_fbank_train.2.ark:52378
mtrr0_si918 quick_test/fbank/raw_fbank_train.4.ark:9831698
mkdb0_sx62 quick_test/fbank/raw_fbank_train.3.ark:6144565
mrsp0_si799 quick_test/fbank/raw_fbank_train.4.ark:4548796
mkxl0_si1958 quick_test/fbank/raw_fbank_train.3.ark:7165758
mdsj0_si2092 quick_test/fbank/raw_fbank_train.2.ark:8914149
mjrk0_sx250 quick_test/fbank/raw_fbank_train.3.ark:4873089
mgrl0_sx327 quick_test/fbank/raw_fbank_train.3.ark:440241
mjee0_si1237 quick_test/fbank/raw_fbank_train.3.ark:2786308
mbar0_si1949 quick_test/fbank/raw_fbank_train.2.ark:3191702
mdpk0_si1683 quick_test/fbank/raw_fbank_train.2.ark:8619114
falk0_sx276 quick_test/fbank/raw_fbank_train.1.ark:262553
mrgm0_si1792 quick_test/fbank/raw_fbank_train.4.ark:2263091
mtcs0_si2265 quick_test/fbank/raw_fbank_train.4.ark:7670060
fdkn0_sx361 quick_test/fbank/raw_fbank_train.1.ark:2857400
fetb0_sx68 quick_test/fbank/raw_fbank_train.1.ark:4048542
mjxa0_sx67 quick_test/fbank/raw_fbank_train.3.ark:5544176
fpmy0_sx253 quick_test/fbank/raw_fbank_train.1.ark:10563420
fcag0_si2133 quick_test/fbank/raw_fbank_train.1.ark:1272777
fbjl0_si922 quick_test/fbank/raw_fbank_train.1.ark:864036
mjdc0_sx171 quick_test/fbank/raw_fbank_train.3.ark:2194778
fjxp0_sx132 quick_test/fbank/raw_fbank_train.1.ark:6118439
mpgh0_si675 quick_test/fbank/raw_fbank_train.3.ark:11028698
mmws1_si1701 quick_test/fbank/raw_fbank_train.3.ark:10380086
mtrr0_si2178 quick_test/fbank/raw_fbank_train.4.ark:9820585
fsjs0_si541 quick_test/fbank/raw_fbank_train.2.ark:67611
mkag0_sx169 quick_test/fbank/raw_fbank_train.3.ark:5705335
mejl0_si962 quick_test/fbank/raw_fbank_train.2.ark:9959415
fmju0_sx309 quick_test/fbank/raw_fbank_train.1.ark:9102195
fskp0_sx288 quick_test/fbank/raw_fbank_train.2.ark:515562
mprt0_si495 quick_test/fbank/raw_fbank_train.4.ark:412812
fljd0_sx436 quick_test/fbank/raw_fbank_train.1.ark:7795623
mtjm0_si1226 quick_test/fbank/raw_fbank_train.4.ark:8182951
mdlr1_sx39 quick_test/fbank/raw_fbank_train.2.ark:8170312
mrkm0_si1391 quick_test/fbank/raw_fbank_train.4.ark:3132210
mrjh0_sx439 quick_test/fbank/raw_fbank_train.4.ark:2776234
mdns0_sx111 quick_test/fbank/raw_fbank_train.2.ark:8449450
fcke0_si481 quick_test/fbank/raw_fbank_train.1.ark:1837847
mjde0_sx400 quick_test/fbank/raw_fbank_train.3.ark:2363133
mjde0_sx220 quick_test/fbank/raw_fbank_train.3.ark:2313875
fjlr0_si1231 quick_test/fbank/raw_fbank_train.1.ark:5351804
fskl0_sx89 quick_test/fbank/raw_fbank_train.2.ark:434970
mhjb0_si1647 quick_test/fbank/raw_fbank_train.3.ark:1114998
fklc0_sx445 quick_test/fbank/raw_fbank_train.1.ark:6796409
flag0_sx24 quick_test/fbank/raw_fbank_train.1.ark:7282901
mjbg0_sx422 quick_test/fbank/raw_fbank_train.3.ark:2040626
mcdc0_si1292 quick_test/fbank/raw_fbank_train.2.ark:4620320
mdlc2_si2244 quick_test/fbank/raw_fbank_train.2.ark:7712169
mges0_si1481 quick_test/fbank/raw_fbank_train.3.ark:193384
mtdp0_sx351 quick_test/fbank/raw_fbank_train.4.ark:7932203
fsgf0_si927 quick_test/fbank/raw_fbank_train.1.ark:11633837
mmaa0_sx35 quick_test/fbank/raw_fbank_train.3.ark:7948704
fljd0_si2146 quick_test/fbank/raw_fbank_train.1.ark:7737098
fkfb0_sx78 quick_test/fbank/raw_fbank_train.1.ark:6598711
mesg0_sx432 quick_test/fbank/raw_fbank_train.2.ark:10200517
mrlr0_sx26 quick_test/fbank/raw_fbank_train.4.ark:3664665
fsdc0_sx412 quick_test/fbank/raw_fbank_train.1.ark:11497159
mmwb0_si1619 quick_test/fbank/raw_fbank_train.3.ark:10141763
mgak0_sx316 quick_test/fbank/raw_fbank_train.2.ark:11216160
mjkr0_sx121 quick_test/fbank/raw_fbank_train.3.ark:3529183
mdbp0_si528 quick_test/fbank/raw_fbank_train.2.ark:6310450
mwrp0_si1525 quick_test/fbank/raw_fbank_train.4.ark:11273686
mram0_sx15 quick_test/fbank/raw_fbank_train.4.ark:924196
msrg0_sx51 quick_test/fbank/raw_fbank_train.4.ark:6818954
fjsp0_sx264 quick_test/fbank/raw_fbank_train.1.ark:5827758
fjlg0_si2306 quick_test/fbank/raw_fbank_train.1.ark:5279526
mtpp0_sx248 quick_test/fbank/raw_fbank_train.4.ark:9434945
mkln0_sx338 quick_test/fbank/raw_fbank_train.3.ark:6611984
mbjv0_si1877 quick_test/fbank/raw_fbank_train.2.ark:3657267
mjxa0_si1507 quick_test/fbank/raw_fbank_train.3.ark:5463105
mjmd0_si2288 quick_test/fbank/raw_fbank_train.3.ark:3979317
mtrr0_sx288 quick_test/fbank/raw_fbank_train.4.ark:9881909
mrem0_si961 quick_test/fbank/raw_fbank_train.4.ark:1888743
mtrt0_si1857 quick_test/fbank/raw_fbank_train.4.ark:9929890
maeo0_sx426 quick_test/fbank/raw_fbank_train.2.ark:2475505
msem1_sx270 quick_test/fbank/raw_fbank_train.4.ark:5961536
fbcg1_sx352 quick_test/fbank/raw_fbank_train.1.ark:688846
fbcg1_si2242 quick_test/fbank/raw_fbank_train.1.ark:640234
mjda0_sx401 quick_test/fbank/raw_fbank_train.3.ark:2128652
mjlg1_sx22 quick_test/fbank/raw_fbank_train.3.ark:3736059
mmeb0_si727 quick_test/fbank/raw_fbank_train.3.ark:9192219
maeo0_sx66 quick_test/fbank/raw_fbank_train.2.ark:2490137
fskc0_si2046 quick_test/fbank/raw_fbank_train.2.ark:267348
msdb0_sx107 quick_test/fbank/raw_fbank_train.4.ark:5622867
mafm0_sx39 quick_test/fbank/raw_fbank_train.2.ark:2561849
mfwk0_sx349 quick_test/fbank/raw_fbank_train.2.ark:10733113
mbma1_si2214 quick_test/fbank/raw_fbank_train.2.ark:3838877
mbsb0_si1353 quick_test/fbank/raw_fbank_train.2.ark:4112320
fksr0_sx217 quick_test/fbank/raw_fbank_train.1.ark:7068619
msmr0_sx55 quick_test/fbank/raw_fbank_train.4.ark:6626024
mkln0_sx248 quick_test/fbank/raw_fbank_train.3.ark:6602631
mdlr1_si1929 quick_test/fbank/raw_fbank_train.2.ark:8100748
fecd0_si2048 quick_test/fbank/raw_fbank_train.1.ark:3656390
mddc0_sx339 quick_test/fbank/raw_fbank_train.2.ark:6650664
mtas0_sx125 quick_test/fbank/raw_fbank_train.4.ark:7306146
fpjf0_sx352 quick_test/fbank/raw_fbank_train.1.ark:10367085
flja0_si1708 quick_test/fbank/raw_fbank_train.1.ark:7633432
fpjf0_sx236 quick_test/fbank/raw_fbank_train.1.ark:10347659
mfer0_sx142 quick_test/fbank/raw_fbank_train.2.ark:10425291
fbch0_sx326 quick_test/fbank/raw_fbank_train.1.ark:800070
mcxm0_sx361 quick_test/fbank/raw_fbank_train.2.ark:5968851
mbom0_si1644 quick_test/fbank/raw_fbank_train.2.ark:4042007
fsah0_si614 quick_test/fbank/raw_fbank_train.1.ark:11021206
mgrl0_si867 quick_test/fbank/raw_fbank_train.3.ark:408942
mkes0_sx263 quick_test/fbank/raw_fbank_train.3.ark:6418661
fkfb0_si1608 quick_test/fbank/raw_fbank_train.1.ark:6491200
mjra0_si1866 quick_test/fbank/raw_fbank_train.3.ark:4442129
msvs0_si2198 quick_test/fbank/raw_fbank_train.4.ark:7045790
mrjb1_sx210 quick_test/fbank/raw_fbank_train.4.ark:2644064
fcmg0_sx72 quick_test/fbank/raw_fbank_train.1.ark:2097942
fgcs0_sx226 quick_test/fbank/raw_fbank_train.1.ark:4224575
mjeb1_si837 quick_test/fbank/raw_fbank_train.3.ark:2712550
mjae0_sx264 quick_test/fbank/raw_fbank_train.3.ark:1812470
mkag0_si979 quick_test/fbank/raw_fbank_train.3.ark:5686222
mdsj0_sx438 quick_test/fbank/raw_fbank_train.2.ark:8980186
mjrp0_sx225 quick_test/fbank/raw_fbank_train.3.ark:4966354
mvlo0_si517 quick_test/fbank/raw_fbank_train.4.ark:10320984
mhmr0_sx129 quick_test/fbank/raw_fbank_train.3.ark:1317835
falr0_sx155 quick_test/fbank/raw_fbank_train.1.ark:346423
mcth0_si1209 quick_test/fbank/raw_fbank_train.2.ark:5712635
mjmm0_sx85 quick_test/fbank/raw_fbank_train.3.ark:4134226
mgxp0_sx277 quick_test/fbank/raw_fbank_train.3.ark:867864
fkdw0_sx127 quick_test/fbank/raw_fbank_train.1.ark:6445155
flmc0_si742 quick_test/fbank/raw_fbank_train.1.ark:8157030
fclt0_sx88 quick_test/fbank/raw_fbank_train.1.ark:1986316
mtpr0_si1600 quick_test/fbank/raw_fbank_train.4.ark:9481037
mcpm0_sx114 quick_test/fbank/raw_fbank_train.2.ark:5465461
mkdb0_sx152 quick_test/fbank/raw_fbank_train.3.ark:6091234
mjlb0_si986 quick_test/fbank/raw_fbank_train.3.ark:3613335
mgjc0_sx75 quick_test/fbank/raw_fbank_train.3.ark:375521
flja0_sx448 quick_test/fbank/raw_fbank_train.1.ark:7690838
fdaw0_si1271 quick_test/fbank/raw_fbank_train.1.ark:2502036
mrms0_sx120 quick_test/fbank/raw_fbank_train.4.ark:4146568
mapv0_sx393 quick_test/fbank/raw_fbank_train.2.ark:2981584
mesj0_si2039 quick_test/fbank/raw_fbank_train.2.ark:10223743
maeo0_si1956 quick_test/fbank/raw_fbank_train.2.ark:2430413
mtmn0_sx254 quick_test/fbank/raw_fbank_train.4.ark:9067365
fsag0_sx333 quick_test/fbank/raw_fbank_train.1.ark:10943600
mrtj0_sx412 quick_test/fbank/raw_fbank_train.4.ark:4824418
mesg0_si702 quick_test/fbank/raw_fbank_train.2.ark:10145225
mfwk0_sx79 quick_test/fbank/raw_fbank_train.2.ark:10764178
mdlc2_sx264 quick_test/fbank/raw_fbank_train.2.ark:7748588
fskp0_si1728 quick_test/fbank/raw_fbank_train.2.ark:464118
mzmb0_si1166 quick_test/fbank/raw_fbank_train.4.ark:11558724
msas0_sx206 quick_test/fbank/raw_fbank_train.4.ark:5369783
meal0_sx107 quick_test/fbank/raw_fbank_train.2.ark:9587231
mjlg1_sx382 quick_test/fbank/raw_fbank_train.3.ark:3757765
fcjf0_si1027 quick_test/fbank/raw_fbank_train.1.ark:1644050
mkaj0_sx424 quick_test/fbank/raw_fbank_train.3.ark:5931403
fscn0_si626 quick_test/fbank/raw_fbank_train.1.ark:11320768
mses0_sx59 quick_test/fbank/raw_fbank_train.4.ark:6092180
mjwg0_si2155 quick_test/fbank/raw_fbank_train.3.ark:5131071
mjxl0_si1172 quick_test/fbank/raw_fbank_train.3.ark:5556730
mdlc1_sx85 quick_test/fbank/raw_fbank_train.2.ark:7696541
faem0_sx132 quick_test/fbank/raw_fbank_train.1.ark:39913
mges0_sx221 quick_test/fbank/raw_fbank_train.3.ark:226997
fkdw0_si577 quick_test/fbank/raw_fbank_train.1.ark:6433882
mbma0_sx412 quick_test/fbank/raw_fbank_train.2.ark:3806897
mrcw0_sx291 quick_test/fbank/raw_fbank_train.4.ark:1345803
mtcs0_sx262 quick_test/fbank/raw_fbank_train.4.ark:7709999
mmdm0_si1311 quick_test/fbank/raw_fbank_train.3.ark:8801212
mpgr1_si1499 quick_test/fbank/raw_fbank_train.3.ark:11197308
mtkp0_si2283 quick_test/fbank/raw_fbank_train.4.ark:8612005
mkrg0_sx51 quick_test/fbank/raw_fbank_train.3.ark:7127776
fjlr0_si1861 quick_test/fbank/raw_fbank_train.1.ark:5369398
fcyl0_sx217 quick_test/fbank/raw_fbank_train.1.ark:2348999
msat1_si1703 quick_test/fbank/raw_fbank_train.4.ark:5509374
mded0_sx450 quick_test/fbank/raw_fbank_train.2.ark:6762322
fpac0_sx301 quick_test/fbank/raw_fbank_train.1.ark:9950431
flmk0_sx135 quick_test/fbank/raw_fbank_train.1.ark:8271249
fjen0_sx147 quick_test/fbank/raw_fbank_train.1.ark:4985802
fpjf0_si1046 quick_test/fbank/raw_fbank_train.1.ark:10299125
mrlr0_si1196 quick_test/fbank/raw_fbank_train.4.ark:3600260
fjkl0_sx32 quick_test/fbank/raw_fbank_train.1.ark:5230471
fmbg0_si2264 quick_test/fbank/raw_fbank_train.1.ark:8649479
msdb0_sx197 quick_test/fbank/raw_fbank_train.4.ark:5637612
mefg0_sx15 quick_test/fbank/raw_fbank_train.2.ark:9783592
fdaw0_si1406 quick_test/fbank/raw_fbank_train.1.ark:2521750
mdlr1_sx219 quick_test/fbank/raw_fbank_train.2.ark:8142487
mhxl0_sx422 quick_test/fbank/raw_fbank_train.3.ark:1546903
mmbs0_sx71 quick_test/fbank/raw_fbank_train.3.ark:8497263
mses0_sx329 quick_test/fbank/raw_fbank_train.4.ark:6069395
mjde0_si463 quick_test/fbank/raw_fbank_train.3.ark:2270936
fvkb0_si529 quick_test/fbank/raw_fbank_train.2.ark:1843302
msds0_sx357 quick_test/fbank/raw_fbank_train.4.ark:5841344
mrew1_si870 quick_test/fbank/raw_fbank_train.4.ark:1973968
mtpf0_sx65 quick_test/fbank/raw_fbank_train.4.ark:9290313
mbml0_si1169 quick_test/fbank/raw_fbank_train.2.ark:3937348
fjrb0_sx42 quick_test/fbank/raw_fbank_train.1.ark:5540180
mgag0_sx61 quick_test/fbank/raw_fbank_train.2.ark:11131719
mkag0_sx79 quick_test/fbank/raw_fbank_train.3.ark:5753265
mjjj0_sx353 quick_test/fbank/raw_fbank_train.3.ark:3349959
mbma1_sx234 quick_test/fbank/raw_fbank_train.2.ark:3880176
mgag0_sx151 quick_test/fbank/raw_fbank_train.2.ark:11092268
mrlj1_sx411 quick_test/fbank/raw_fbank_train.4.ark:3480329
fsmm0_sx234 quick_test/fbank/raw_fbank_train.2.ark:790133
mddc0_sx69 quick_test/fbank/raw_fbank_train.2.ark:6670689
fapb0_sx343 quick_test/fbank/raw_fbank_train.1.ark:479235
mrgs0_sx96 quick_test/fbank/raw_fbank_train.4.ark:2470391
msdh0_sx170 quick_test/fbank/raw_fbank_train.4.ark:5692652
mbth0_sx32 quick_test/fbank/raw_fbank_train.2.ark:4267740
mjdg0_sx412 quick_test/fbank/raw_fbank_train.3.ark:2450727
fdjh0_si2195 quick_test/fbank/raw_fbank_train.1.ark:2702882
mwsb0_si2256 quick_test/fbank/raw_fbank_train.4.ark:11364590
megj0_sx3 quick_test/fbank/raw_fbank_train.2.ark:9904609
mmea0_sx218 quick_test/fbank/raw_fbank_train.3.ark:9125700
fkfb0_sx348 quick_test/fbank/raw_fbank_train.1.ark:6557806
mkam0_sx146 quick_test/fbank/raw_fbank_train.3.ark:6000610
frjb0_sx167 quick_test/fbank/raw_fbank_train.1.ark:10715085
mwgr0_sx76 quick_test/fbank/raw_fbank_train.4.ark:11143952
mesg0_sx162 quick_test/fbank/raw_fbank_train.2.ark:10162978
fjrb0_sx222 quick_test/fbank/raw_fbank_train.1.ark:5493002
mdac0_sx271 quick_test/fbank/raw_fbank_train.2.ark:6061203
mwgr0_sx166 quick_test/fbank/raw_fbank_train.4.ark:11095821
mcal0_si1768 quick_test/fbank/raw_fbank_train.2.ark:4540009
mprt0_sx130 quick_test/fbank/raw_fbank_train.4.ark:431518
mpeb0_sx330 quick_test/fbank/raw_fbank_train.3.ark:10869741
mpgr1_sx419 quick_test/fbank/raw_fbank_train.3.ark:11266394
fpaf0_sx154 quick_test/fbank/raw_fbank_train.1.ark:10134736
mdns0_sx291 quick_test/fbank/raw_fbank_train.2.ark:8480508
ftmg0_sx92 quick_test/fbank/raw_fbank_train.2.ark:1726095
mjrh0_sx45 quick_test/fbank/raw_fbank_train.3.ark:4716737
fcmm0_sx420 quick_test/fbank/raw_fbank_train.1.ark:2175975
mlsh0_sx247 quick_test/fbank/raw_fbank_train.3.ark:7811214
fcdr1_sx286 quick_test/fbank/raw_fbank_train.1.ark:1529638
mjfr0_sx435 quick_test/fbank/raw_fbank_train.3.ark:3043197
fjrb0_si1302 quick_test/fbank/raw_fbank_train.1.ark:5451789
fear0_sx352 quick_test/fbank/raw_fbank_train.1.ark:3588537
mcae0_si1447 quick_test/fbank/raw_fbank_train.2.ark:4395312
mrwa0_si2233 quick_test/fbank/raw_fbank_train.4.ark:4950903
fpmy0_si1153 quick_test/fbank/raw_fbank_train.1.ark:10487974
mmar0_sx346 quick_test/fbank/raw_fbank_train.3.ark:8354733
mjra0_si606 quick_test/fbank/raw_fbank_train.3.ark:4456042
fkfb0_si978 quick_test/fbank/raw_fbank_train.1.ark:6519627
mtpg0_si2013 quick_test/fbank/raw_fbank_train.4.ark:9313621
mrai0_sx432 quick_test/fbank/raw_fbank_train.4.ark:846557
mrjh0_si914 quick_test/fbank/raw_fbank_train.4.ark:2727422
mdac0_si631 quick_test/fbank/raw_fbank_train.2.ark:6024217
mprk0_si1097 quick_test/fbank/raw_fbank_train.4.ark:276994
mmwb0_sx89 quick_test/fbank/raw_fbank_train.3.ark:10257954
mtab0_si2202 quick_test/fbank/raw_fbank_train.4.ark:7180135
fsms1_si874 quick_test/fbank/raw_fbank_train.2.ark:875332
mrtj0_si2032 quick_test/fbank/raw_fbank_train.4.ark:4743133
mjbg0_sx242 quick_test/fbank/raw_fbank_train.3.ark:2011960
mdwd0_si1890 quick_test/fbank/raw_fbank_train.2.ark:9268970
fmjb0_sx97 quick_test/fbank/raw_fbank_train.1.ark:8920050
msas0_si1376 quick_test/fbank/raw_fbank_train.4.ark:5304970
feeh0_sx392 quick_test/fbank/raw_fbank_train.1.ark:3840572
mdns0_sx21 quick_test/fbank/raw_fbank_train.2.ark:8472075
mjae0_sx174 quick_test/fbank/raw_fbank_train.3.ark:1797037
mrcw0_sx381 quick_test/fbank/raw_fbank_train.4.ark:1355676
makr0_si1982 quick_test/fbank/raw_fbank_train.2.ark:2819042
mmag0_sx46 quick_test/fbank/raw_fbank_train.3.ark:8178427
marc0_sx198 quick_test/fbank/raw_fbank_train.2.ark:3040583
mhjb0_sx207 quick_test/fbank/raw_fbank_train.3.ark:1152098
mfrm0_si1785 quick_test/fbank/raw_fbank_train.2.ark:10610949
fvmh0_sx26 quick_test/fbank/raw_fbank_train.2.ark:1993825
fscn0_sx176 quick_test/fbank/raw_fbank_train.1.ark:11355154
mpeb0_sx420 quick_test/fbank/raw_fbank_train.3.ark:10881974
mdbb1_sx106 quick_test/fbank/raw_fbank_train.2.ark:6236418
mtjg0_sx350 quick_test/fbank/raw_fbank_train.4.ark:8143532
fhlm0_si1560 quick_test/fbank/raw_fbank_train.1.ark:4614663
fclt0_si2068 quick_test/fbank/raw_fbank_train.1.ark:1915359
mkrg0_sx141 quick_test/fbank/raw_fbank_train.3.ark:7092326
mntw0_sx202 quick_test/fbank/raw_fbank_train.3.ark:10686298
mjpm1_sx221 quick_test/fbank/raw_fbank_train.3.ark:4371363
fsak0_si1300 quick_test/fbank/raw_fbank_train.1.ark:11102684
mrjb1_sx120 quick_test/fbank/raw_fbank_train.4.ark:2627471
mnet0_si2076 quick_test/fbank/raw_fbank_train.3.ark:10556415
fdmy0_sx207 quick_test/fbank/raw_fbank_train.1.ark:3068337
mtat0_sx120 quick_test/fbank/raw_fbank_train.4.ark:7401811
mljh0_sx154 quick_test/fbank/raw_fbank_train.3.ark:7600131
fsrh0_sx311 quick_test/fbank/raw_fbank_train.2.ark:1112121
fjrb0_sx312 quick_test/fbank/raw_fbank_train.1.ark:5505475
mdas0_si1896 quick_test/fbank/raw_fbank_train.2.ark:6116729
mhmr0_sx219 quick_test/fbank/raw_fbank_train.3.ark:1329988
mmcc0_sx438 quick_test/fbank/raw_fbank_train.3.ark:8582536
mpar0_sx46 quick_test/fbank/raw_fbank_train.3.ark:10811581
mpar0_sx226 quick_test/fbank/raw_fbank_train.3.ark:10779803
mnet0_si816 quick_test/fbank/raw_fbank_train.3.ark:10563328
fmjb0_si1177 quick_test/fbank/raw_fbank_train.1.ark:8828981
mppc0_si2042 quick_test/fbank/raw_fbank_train.3.ark:11474919
mgar0_si1694 quick_test/fbank/raw_fbank_train.3.ark:15167
msdh0_si2113 quick_test/fbank/raw_fbank_train.4.ark:5663032
mzmb0_sx176 quick_test/fbank/raw_fbank_train.4.ark:11596944
mpgr1_si2129 quick_test/fbank/raw_fbank_train.3.ark:11214742
mbml0_sx89 quick_test/fbank/raw_fbank_train.2.ark:4016419
mbom0_sx311 quick_test/fbank/raw_fbank_train.2.ark:4089973
fetb0_si1148 quick_test/fbank/raw_fbank_train.1.ark:3962311
fear0_sx82 quick_test/fbank/raw_fbank_train.1.ark:3621842
mprb0_si1205 quick_test/fbank/raw_fbank_train.4.ark:49464
mgaf0_sx292 quick_test/fbank/raw_fbank_train.2.ark:11029262
fsrh0_sx221 quick_test/fbank/raw_fbank_train.2.ark:1096648
mcew0_si2072 quick_test/fbank/raw_fbank_train.2.ark:5019614
mmgc0_sx135 quick_test/fbank/raw_fbank_train.3.ark:9296596
mclk0_si1660 quick_test/fbank/raw_fbank_train.2.ark:5231751
fdnc0_sx288 quick_test/fbank/raw_fbank_train.1.ark:3205908
mses0_si1589 quick_test/fbank/raw_fbank_train.4.ark:6012468
mdsj0_sx292 quick_test/fbank/raw_fbank_train.2.ark:8955040
mmdm1_sx153 quick_test/fbank/raw_fbank_train.3.ark:8928537
ftbr0_sx201 quick_test/fbank/raw_fbank_train.2.ark:1396323
mesj0_si997 quick_test/fbank/raw_fbank_train.2.ark:10251930
fjrp1_sx442 quick_test/fbank/raw_fbank_train.1.ark:5648933
ftlg0_sx123 quick_test/fbank/raw_fbank_train.2.ark:1585299
mrlj0_sx70 quick_test/fbank/raw_fbank_train.4.ark:3409655
falr0_si1955 quick_test/fbank/raw_fbank_train.1.ark:324237
mprb0_sx395 quick_test/fbank/raw_fbank_train.4.ark:152335
mmrp0_sx144 quick_test/fbank/raw_fbank_train.3.ark:9843867
fsls0_sx66 quick_test/fbank/raw_fbank_train.2.ark:628141
fgcs0_sx316 quick_test/fbank/raw_fbank_train.1.ark:4236488
mhmr0_sx399 quick_test/fbank/raw_fbank_train.3.ark:1368406
mklr0_si2319 quick_test/fbank/raw_fbank_train.3.ark:6675071
mwch0_sx362 quick_test/fbank/raw_fbank_train.4.ark:10820091
mmdm1_sx243 quick_test/fbank/raw_fbank_train.3.ark:8947210
fgmb0_sx245 quick_test/fbank/raw_fbank_train.1.ark:4444585
mmxs0_si2136 quick_test/fbank/raw_fbank_train.3.ark:10444517
mrdd0_si1680 quick_test/fbank/raw_fbank_train.4.ark:1380864
mcew0_si812 quick_test/fbank/raw_fbank_train.2.ark:5036687
mrmh0_sx211 quick_test/fbank/raw_fbank_train.4.ark:3940470
mrmh0_si1349 quick_test/fbank/raw_fbank_train.4.ark:3901410
fsms1_sx64 quick_test/fbank/raw_fbank_train.2.ark:939296
mpgr1_sx239 quick_test/fbank/raw_fbank_train.3.ark:11240568
msds0_sx447 quick_test/fbank/raw_fbank_train.4.ark:5860057
mewm0_si1978 quick_test/fbank/raw_fbank_train.2.ark:10319960
mbjv0_sx437 quick_test/fbank/raw_fbank_train.2.ark:3714632
mgjc0_sx255 quick_test/fbank/raw_fbank_train.3.ark:330383
fjen0_sx417 quick_test/fbank/raw_fbank_train.1.ark:5030861
mmxs0_sx66 quick_test/fbank/raw_fbank_train.3.ark:10530827
mrjm0_si1095 quick_test/fbank/raw_fbank_train.4.ark:2807340
mpfu0_sx448 quick_test/fbank/raw_fbank_train.3.ark:10983599
mjkr0_sx301 quick_test/fbank/raw_fbank_train.3.ark:3553689
mkjo0_sx424 quick_test/fbank/raw_fbank_train.3.ark:6518279
fcdr1_si1816 quick_test/fbank/raw_fbank_train.1.ark:1456074
freh0_sx325 quick_test/fbank/raw_fbank_train.1.ark:10662285
mkdd0_si2197 quick_test/fbank/raw_fbank_train.3.ark:6172873
mtqc0_sx451 quick_test/fbank/raw_fbank_train.4.ark:9690461
mcdc0_si662 quick_test/fbank/raw_fbank_train.2.ark:4641227
msmc0_sx377 quick_test/fbank/raw_fbank_train.4.ark:6526999
fjen0_si1047 quick_test/fbank/raw_fbank_train.1.ark:4946261
fbjl0_sx112 quick_test/fbank/raw_fbank_train.1.ark:882109
mwgr0_si1606 quick_test/fbank/raw_fbank_train.4.ark:11059921
mjjj0_sx263 quick_test/fbank/raw_fbank_train.3.ark:3334526
ftlg0_si1743 quick_test/fbank/raw_fbank_train.2.ark:1535880
fcrz0_sx253 quick_test/fbank/raw_fbank_train.1.ark:2250894
mmar0_si1336 quick_test/fbank/raw_fbank_train.3.ark:8274407
mrjm0_sx418 quick_test/fbank/raw_fbank_train.4.ark:2880660
fjsp0_si1763 quick_test/fbank/raw_fbank_train.1.ark:5796699
mtrr0_sx198 quick_test/fbank/raw_fbank_train.4.ark:9871356
mjrk0_sx160 quick_test/fbank/raw_fbank_train.3.ark:4857776
mpgr0_sx150 quick_test/fbank/raw_fbank_train.3.ark:11131909
fklh0_si627 quick_test/fbank/raw_fbank_train.1.ark:6946728
msmc0_si509 quick_test/fbank/raw_fbank_train.4.ark:6449402
mrgs0_si1356 quick_test/fbank/raw_fbank_train.4.ark:2371122
fdnc0_si1278 quick_test/fbank/raw_fbank_train.1.ark:3122589
fceg0_sx438 quick_test/fbank/raw_fbank_train.1.ark:1621624
ftaj0_sx429 quick_test/fbank/raw_fbank_train.2.ark:1321244
mtdb0_sx321 quick_test/fbank/raw_fbank_train.4.ark:7824337
mjeb1_sx117 quick_test/fbank/raw_fbank_train.3.ark:2732743
fpaz0_sx153 quick_test/fbank/raw_fbank_train.1.ark:10238561
mmvp0_si654 quick_test/fbank/raw_fbank_train.3.ark:10046084
mcss0_si750 quick_test/fbank/raw_fbank_train.2.ark:5646477
msvs0_sx308 quick_test/fbank/raw_fbank_train.4.ark:7113162
mfmc0_si1762 quick_test/fbank/raw_fbank_train.2.ark:10494210
mjws0_si1143 quick_test/fbank/raw_fbank_train.3.ark:5246855
mmab1_sx144 quick_test/fbank/raw_fbank_train.3.ark:8007751
mvjh0_sx116 quick_test/fbank/raw_fbank_train.4.ark:10249872
fdml0_si2075 quick_test/fbank/raw_fbank_train.1.ark:2925927
mdlm0_si1234 quick_test/fbank/raw_fbank_train.2.ark:7895504
mdjm0_sx195 quick_test/fbank/raw_fbank_train.2.ark:7252453
mrre0_si952 quick_test/fbank/raw_fbank_train.4.ark:4312745
fbcg1_sx172 quick_test/fbank/raw_fbank_train.1.ark:665060
fjwb1_sx345 quick_test/fbank/raw_fbank_train.1.ark:5935695
mtas0_si1385 quick_test/fbank/raw_fbank_train.4.ark:7275006
mgrl0_sx417 quick_test/fbank/raw_fbank_train.3.ark:462434
mrfk0_si1076 quick_test/fbank/raw_fbank_train.4.ark:2050766
fclt0_si808 quick_test/fbank/raw_fbank_train.1.ark:1920912
fcrz0_si793 quick_test/fbank/raw_fbank_train.1.ark:2228108
fdkn0_si1711 quick_test/fbank/raw_fbank_train.1.ark:2819381
mdac0_sx451 quick_test/fbank/raw_fbank_train.2.ark:6081789
fsjg0_si940 quick_test/fbank/raw_fbank_train.1.ark:11732782
mmlm0_sx177 quick_test/fbank/raw_fbank_train.3.ark:9660937
mclm0_si2086 quick_test/fbank/raw_fbank_train.2.ark:5347530
mjbg0_sx152 quick_test/fbank/raw_fbank_train.3.ark:1998567
mljh0_sx244 quick_test/fbank/raw_fbank_train.3.ark:7613724
mgaf0_si652 quick_test/fbank/raw_fbank_train.2.ark:10997211
fsls0_si1056 quick_test/fbank/raw_fbank_train.2.ark:538829
mrfk0_sx176 quick_test/fbank/raw_fbank_train.4.ark:2083707
mmdm0_sx141 quick_test/fbank/raw_fbank_train.3.ark:8841112
fskl0_sx269 quick_test/fbank/raw_fbank_train.2.ark:399472
fcjs0_si2237 quick_test/fbank/raw_fbank_train.1.ark:1729509
mwdk0_sx266 quick_test/fbank/raw_fbank_train.4.ark:10911323
mgak0_si1036 quick_test/fbank/raw_fbank_train.2.ark:11142913
mstf0_sx316 quick_test/fbank/raw_fbank_train.4.ark:6996217
fkde0_sx61 quick_test/fbank/raw_fbank_train.1.ark:6379341
mjjm0_sx377 quick_test/fbank/raw_fbank_train.3.ark:3472729
mbma0_si592 quick_test/fbank/raw_fbank_train.2.ark:3762885
mbth0_sx212 quick_test/fbank/raw_fbank_train.2.ark:4242235
mmgg0_si2339 quick_test/fbank/raw_fbank_train.3.ark:9376869
fpls0_sx330 quick_test/fbank/raw_fbank_train.1.ark:10462588
falr0_sx335 quick_test/fbank/raw_fbank_train.1.ark:369049
mhjb0_sx117 quick_test/fbank/raw_fbank_train.3.ark:1143145
mdwd0_si557 quick_test/fbank/raw_fbank_train.2.ark:9283963
mdsj0_sx112 quick_test/fbank/raw_fbank_train.2.ark:8934055
mtdp0_si1274 quick_test/fbank/raw_fbank_train.4.ark:7861996
mdps0_sx269 quick_test/fbank/raw_fbank_train.2.ark:8738078
mctm0_sx90 quick_test/fbank/raw_fbank_train.2.ark:5898491
mpeb0_sx240 quick_test/fbank/raw_fbank_train.3.ark:10858908
fjdm2_si2212 quick_test/fbank/raw_fbank_train.1.ark:4864063
mjrh0_sx135 quick_test/fbank/raw_fbank_train.3.ark:4671486
mwad0_sx162 quick_test/fbank/raw_fbank_train.4.ark:10629453
fear0_sx442 quick_test/fbank/raw_fbank_train.1.ark:3608410
mmgk0_sx152 quick_test/fbank/raw_fbank_train.3.ark:9475607
mtlc0_sx217 quick_test/fbank/raw_fbank_train.4.ark:8858514
mhbs0_si1575 quick_test/fbank/raw_fbank_train.3.ark:916394
frll0_sx254 quick_test/fbank/raw_fbank_train.1.ark:10837622
fcaj0_sx39 quick_test/fbank/raw_fbank_train.1.ark:1412253
mdlr0_sx423 quick_test/fbank/raw_fbank_train.2.ark:8062848
mgrp0_sx147 quick_test/fbank/raw_fbank_train.3.ark:524160
fdas1_si831 quick_test/fbank/raw_fbank_train.1.ark:2428798
mfer0_si2122 quick_test/fbank/raw_fbank_train.2.ark:10403785
mbml0_sx449 quick_test/fbank/raw_fbank_train.2.ark:4003587
mrtj0_sx232 quick_test/fbank/raw_fbank_train.4.ark:4793712
mkls0_sx447 quick_test/fbank/raw_fbank_train.3.ark:6823589
mlel0_sx346 quick_test/fbank/raw_fbank_train.3.ark:7402387
fspm0_si1241 quick_test/fbank/raw_fbank_train.2.ark:950410
mdlh0_sx430 quick_test/fbank/raw_fbank_train.2.ark:7874398
fmkf0_sx6 quick_test/fbank/raw_fbank_train.1.ark:9321757
mbar0_sx419 quick_test/fbank/raw_fbank_train.2.ark:3253107
mtmt0_si488 quick_test/fbank/raw_fbank_train.4.ark:9129564
mddc0_si789 quick_test/fbank/raw_fbank_train.2.ark:6614285
mcae0_sx187 quick_test/fbank/raw_fbank_train.2.ark:4457132
flkm0_si1880 quick_test/fbank/raw_fbank_train.1.ark:7933234
mrtc0_sx288 quick_test/fbank/raw_fbank_train.4.ark:4701272
fvmh0_sx116 quick_test/fbank/raw_fbank_train.2.ark:1973240
mefg0_si598 quick_test/fbank/raw_fbank_train.2.ark:9754887
msfv0_sx452 quick_test/fbank/raw_fbank_train.4.ark:6302878
mrdd0_sx240 quick_test/fbank/raw_fbank_train.4.ark:1411364
mjmm0_sx445 quick_test/fbank/raw_fbank_train.3.ark:4125514
mdtb0_sx390 quick_test/fbank/raw_fbank_train.2.ark:9241062
mpar0_sx406 quick_test/fbank/raw_fbank_train.3.ark:10799109
mdac0_sx181 quick_test/fbank/raw_fbank_train.2.ark:6045050
mtpr0_si506 quick_test/fbank/raw_fbank_train.4.ark:9514984
mwch0_si1895 quick_test/fbank/raw_fbank_train.4.ark:10785318
mdlh0_sx340 quick_test/fbank/raw_fbank_train.2.ark:7861125
fmem0_sx117 quick_test/fbank/raw_fbank_train.1.ark:8759895
fsak0_sx310 quick_test/fbank/raw_fbank_train.1.ark:11163130
fcaj0_si849 quick_test/fbank/raw_fbank_train.1.ark:1359962
mrld0_si1594 quick_test/fbank/raw_fbank_train.4.ark:3239599
msfh0_sx316 quick_test/fbank/raw_fbank_train.4.ark:6180380
mdlb0_sx46 quick_test/fbank/raw_fbank_train.2.ark:7492010
mgxp0_sx97 quick_test/fbank/raw_fbank_train.3.ark:905040
mrai0_si1954 quick_test/fbank/raw_fbank_train.4.ark:765438
mjac0_sx71 quick_test/fbank/raw_fbank_train.3.ark:1753782
mtpp0_si1508 quick_test/fbank/raw_fbank_train.4.ark:9388892
fdtd0_sx301 quick_test/fbank/raw_fbank_train.1.ark:3298901
mbcg0_si957 quick_test/fbank/raw_fbank_train.2.ark:3384145
fgdp0_sx268 quick_test/fbank/raw_fbank_train.1.ark:4323080
mrjm1_sx218 quick_test/fbank/raw_fbank_train.4.ark:2959139
mpeb0_si1860 quick_test/fbank/raw_fbank_train.3.ark:10825569
mwem0_sx60 quick_test/fbank/raw_fbank_train.4.ark:11045687
mtrt0_sx254 quick_test/fbank/raw_fbank_train.4.ark:9971902
mses0_sx239 quick_test/fbank/raw_fbank_train.4.ark:6058322
mrso0_sx399 quick_test/fbank/raw_fbank_train.4.ark:4502695
mbar0_sx59 quick_test/fbank/raw_fbank_train.2.ark:3265099
mgaw0_sx445 quick_test/fbank/raw_fbank_train.3.ark:175598
mtkd0_sx107 quick_test/fbank/raw_fbank_train.4.ark:8538126
mklr0_sx249 quick_test/fbank/raw_fbank_train.3.ark:6694257
mdtb0_si1830 quick_test/fbank/raw_fbank_train.2.ark:9174784
fceg0_sx258 quick_test/fbank/raw_fbank_train.1.ark:1598238
mpsw0_sx24 quick_test/fbank/raw_fbank_train.4.ark:525896
mmdg0_sx250 quick_test/fbank/raw_fbank_train.3.ark:8752360
fmju0_sx39 quick_test/fbank/raw_fbank_train.1.ark:9115947
mdlc0_si2025 quick_test/fbank/raw_fbank_train.2.ark:7523638
fsma0_sx451 quick_test/fbank/raw_fbank_train.2.ark:714214
mgag0_si691 quick_test/fbank/raw_fbank_train.2.ark:11075875
fpls0_si2220 quick_test/fbank/raw_fbank_train.1.ark:10404865
mrav0_sx378 quick_test/fbank/raw_fbank_train.4.ark:1047601
mcdc0_sx212 quick_test/fbank/raw_fbank_train.2.ark:4665333
mtab0_sx402 quick_test/fbank/raw_fbank_train.4.ark:7252540
msrg0_sx141 quick_test/fbank/raw_fbank_train.4.ark:6774983
mtdp0_si1521 quick_test/fbank/raw_fbank_train.4.ark:7869270
mjai0_si710 quick_test/fbank/raw_fbank_train.3.ark:1898868
fsah0_sx344 quick_test/fbank/raw_fbank_train.1.ark:11072465
fdnc0_sx18 quick_test/fbank/raw_fbank_train.1.ark:3182242
fkaa0_sx218 quick_test/fbank/raw_fbank_train.1.ark:6224017
meal0_sx347 quick_test/fbank/raw_fbank_train.2.ark:9614210
mjeb0_si656 quick_test/fbank/raw_fbank_train.3.ark:2607645
fjhk0_sx212 quick_test/fbank/raw_fbank_train.1.ark:5112301
mdmt0_sx302 quick_test/fbank/raw_fbank_train.2.ark:8366931
mhbs0_si2205 quick_test/fbank/raw_fbank_train.3.ark:927108
mhbs0_sx315 quick_test/fbank/raw_fbank_train.3.ark:976200
fskp0_si468 quick_test/fbank/raw_fbank_train.2.ark:474431
mrws0_si1102 quick_test/fbank/raw_fbank_train.4.ark:5036374
fpls0_sx150 quick_test/fbank/raw_fbank_train.1.ark:10435411
mjrg0_sx286 quick_test/fbank/raw_fbank_train.3.ark:4584765
mter0_sx167 quick_test/fbank/raw_fbank_train.4.ark:8022882
fsjs0_sx361 quick_test/fbank/raw_fbank_train.2.ark:110990
mkah0_sx358 quick_test/fbank/raw_fbank_train.3.ark:5829345
fbmj0_si1776 quick_test/fbank/raw_fbank_train.1.ark:1145565
mkaj0_sx244 quick_test/fbank/raw_fbank_train.3.ark:5910577
mtlb0_sx324 quick_test/fbank/raw_fbank_train.4.ark:8762002
fdfb0_sx148 quick_test/fbank/raw_fbank_train.1.ark:2638483
mbcg0_sx417 quick_test/fbank/raw_fbank_train.2.ark:3436957
mpmb0_si2131 quick_test/fbank/raw_fbank_train.3.ark:11314654
mvjh0_sx26 quick_test/fbank/raw_fbank_train.4.ark:10271577
mtab0_si942 quick_test/fbank/raw_fbank_train.4.ark:7190128
marc0_si1818 quick_test/fbank/raw_fbank_train.2.ark:2998412
mcre0_sx41 quick_test/fbank/raw_fbank_train.2.ark:5595377
mkes0_sx443 quick_test/fbank/raw_fbank_train.3.ark:6443727
fcjf0_si1657 quick_test/fbank/raw_fbank_train.1.ark:1656684
fntb0_sx123 quick_test/fbank/raw_fbank_train.1.ark:9710155
msah1_sx59 quick_test/fbank/raw_fbank_train.4.ark:5298616
fleh0_sx241 quick_test/fbank/raw_fbank_train.1.ark:7372095
fhlm0_sx120 quick_test/fbank/raw_fbank_train.1.ark:4645003
mrre0_sx74 quick_test/fbank/raw_fbank_train.4.ark:4382389
ftbw0_si1345 quick_test/fbank/raw_fbank_train.2.ark:1437855
fmmh0_sx420 quick_test/fbank/raw_fbank_train.1.ark:9408629
mabc0_sx241 quick_test/fbank/raw_fbank_train.2.ark:2065258
fjkl0_sx212 quick_test/fbank/raw_fbank_train.1.ark:5205766
msat0_sx176 quick_test/fbank/raw_fbank_train.4.ark:5446495
mtpf0_sx335 quick_test/fbank/raw_fbank_train.4.ark:9267608
mrms0_si2100 quick_test/fbank/raw_fbank_train.4.ark:4136935
fdtd0_si931 quick_test/fbank/raw_fbank_train.1.ark:3261722
mklr0_sx69 quick_test/fbank/raw_fbank_train.3.ark:6726115
mdmt0_sx32 quick_test/fbank/raw_fbank_train.2.ark:8378603
fhxs0_sx355 quick_test/fbank/raw_fbank_train.1.ark:4806056
mrlk0_sx123 quick_test/fbank/raw_fbank_train.4.ark:3549415
mljc0_sx145 quick_test/fbank/raw_fbank_train.3.ark:7483506
mrab1_sx398 quick_test/fbank/raw_fbank_train.4.ark:752604
mtwh1_sx72 quick_test/fbank/raw_fbank_train.4.ark:10081832
mbef0_si1281 quick_test/fbank/raw_fbank_train.2.ark:3458623
mrlj1_sx51 quick_test/fbank/raw_fbank_train.4.ark:3491601
fcmm0_sx183 quick_test/fbank/raw_fbank_train.1.ark:2145236
mtkd0_si1187 quick_test/fbank/raw_fbank_train.4.ark:8491346
mkdt0_sx83 quick_test/fbank/raw_fbank_train.3.ark:6347054
mvjh0_si2186 quick_test/fbank/raw_fbank_train.4.ark:10223766
mrcw0_sx111 quick_test/fbank/raw_fbank_train.4.ark:1318265
mkdt0_sx263 quick_test/fbank/raw_fbank_train.3.ark:6310236
mwem0_si1950 quick_test/fbank/raw_fbank_train.4.ark:10978243
mwem0_sx330 quick_test/fbank/raw_fbank_train.4.ark:11012182
flkm0_si686 quick_test/fbank/raw_fbank_train.1.ark:7967940
frll0_sx344 quick_test/fbank/raw_fbank_train.1.ark:10847975
fsma0_sx181 quick_test/fbank/raw_fbank_train.2.ark:677355
fspm0_sx431 quick_test/fbank/raw_fbank_train.2.ark:1038689
mrlk0_sx393 quick_test/fbank/raw_fbank_train.4.ark:3589026
mzmb0_sx446 quick_test/fbank/raw_fbank_train.4.ark:11636003
mrfl0_si1786 quick_test/fbank/raw_fbank_train.4.ark:2157466
fdas1_sx21 quick_test/fbank/raw_fbank_train.1.ark:2472376
megj0_sx167 quick_test/fbank/raw_fbank_train.2.ark:9876945
mmpm0_si2321 quick_test/fbank/raw_fbank_train.3.ark:9735010
mtxs0_si2320 quick_test/fbank/raw_fbank_train.4.ark:10115494
mtat0_si811 quick_test/fbank/raw_fbank_train.4.ark:7385138
mgsh0_sx6 quick_test/fbank/raw_fbank_train.3.ark:673882
mhit0_sx263 quick_test/fbank/raw_fbank_train.3.ark:1060752
msjk0_sx336 quick_test/fbank/raw_fbank_train.4.ark:6397470
fdml0_sx429 quick_test/fbank/raw_fbank_train.1.ark:2963139
mkam0_sx236 quick_test/fbank/raw_fbank_train.3.ark:6010883
mrbc0_sx419 quick_test/fbank/raw_fbank_train.4.ark:1133474
fvfb0_sx42 quick_test/fbank/raw_fbank_train.2.ark:1817921
mjpm1_sx311 quick_test/fbank/raw_fbank_train.3.ark:4383876
fkdw0_si1207 quick_test/fbank/raw_fbank_train.1.ark:6394295
mwrp0_sx3 quick_test/fbank/raw_fbank_train.4.ark:11322337
fdaw0_sx56 quick_test/fbank/raw_fbank_train.1.ark:2595188
fssb0_sx362 quick_test/fbank/raw_fbank_train.2.ark:1215667
mtpr0_sx160 quick_test/fbank/raw_fbank_train.4.ark:9522537
fpac0_sx31 quick_test/fbank/raw_fbank_train.1.ark:9965503
mesg0_si1332 quick_test/fbank/raw_fbank_train.2.ark:10124878
mrjt0_sx418 quick_test/fbank/raw_fbank_train.4.ark:3083630
fjsk0_si2312 quick_test/fbank/raw_fbank_train.1.ark:5706907
mlns0_sx147 quick_test/fbank/raw_fbank_train.3.ark:7704996
mdlm0_sx334 quick_test/fbank/raw_fbank_train.2.ark:7955230
fsgf0_si1557 quick_test/fbank/raw_fbank_train.1.ark:11605690
marw0_sx376 quick_test/fbank/raw_fbank_train.2.ark:3163994
fntb0_sx213 quick_test/fbank/raw_fbank_train.1.ark:9722388
mclk0_sx310 quick_test/fbank/raw_fbank_train.2.ark:5303037
ftmg0_sx452 quick_test/fbank/raw_fbank_train.2.ark:1712543
fsms1_si1504 quick_test/fbank/raw_fbank_train.2.ark:851665
fskl0_sx359 quick_test/fbank/raw_fbank_train.2.ark:408025
mbar0_si689 quick_test/fbank/raw_fbank_train.2.ark:3196775
mkls1_sx375 quick_test/fbank/raw_fbank_train.3.ark:6927486
mtpp0_sx158 quick_test/fbank/raw_fbank_train.4.ark:9424552
fsak0_sx40 quick_test/fbank/raw_fbank_train.1.ark:11176562
medr0_si2004 quick_test/fbank/raw_fbank_train.2.ark:9647431
mdlh0_si700 quick_test/fbank/raw_fbank_train.2.ark:7814866
mdss1_sx247 quick_test/fbank/raw_fbank_train.2.ark:9121138
msfh0_si1738 quick_test/fbank/raw_fbank_train.4.ark:6113048
fjdm2_sx142 quick_test/fbank/raw_fbank_train.1.ark:4876136
