mjdg0_sx232 quick_test/data-fmllr-tri3/train/data/feats_fmllr_train.6.ark:9438285
madd0_si538 quick_test/data-fmllr-tri3/train/data/feats_fmllr_train.3.ark:17676873
flja0_sx358 quick_test/data-fmllr-tri3/train/data/feats_fmllr_train.2.ark:11051777
mjdg0_sx142 quick_test/data-fmllr-tri3/train/data/feats_fmllr_train.6.ark:9388338
msds0_sx357 quick_test/data-fmllr-tri3/train/data/feats_fmllr_train.9.ark:13497133
mgjc0_si1965 quick_test/data-fmllr-tri3/train/data/feats_fmllr_train.6.ark:1170961
fsms1_si1504 quick_test/data-fmllr-tri3/train/data/feats_fmllr_train.3.ark:12312180
fpls0_sx150 quick_test/data-fmllr-tri3/train/data/feats_fmllr_train.3.ark:3361511
fcjf0_sx217 quick_test/data-fmllr-tri3/train/data/feats_fmllr_train.1.ark:6575111
mmpm0_sx431 quick_test/data-fmllr-tri3/train/data/feats_fmllr_train.8.ark:2062864
fsrh0_sx401 quick_test/data-fmllr-tri3/train/data/feats_fmllr_train.3.ark:13389577
mmws1_si1701 quick_test/data-fmllr-tri3/train/data/feats_fmllr_train.8.ark:4364830
mmeb0_si1987 quick_test/data-fmllr-tri3/train/data/feats_fmllr_train.7.ark:17716848
flkm0_sx80 quick_test/data-fmllr-tri3/train/data/feats_fmllr_train.2.ark:12444320
mtrr0_si1548 quick_test/data-fmllr-tri3/train/data/feats_fmllr_train.10.ark:10803792
mmdm1_si2043 quick_test/data-fmllr-tri3/train/data/feats_fmllr_train.7.ark:16651077
fljg0_si1611 quick_test/data-fmllr-tri3/train/data/feats_fmllr_train.2.ark:11583595
mdem0_sx68 quick_test/data-fmllr-tri3/train/data/feats_fmllr_train.5.ark:774819
mjmd0_sx218 quick_test/data-fmllr-tri3/train/data/feats_fmllr_train.6.ark:15578879
flja0_sx268 quick_test/data-fmllr-tri3/train/data/feats_fmllr_train.2.ark:10991750
msdh0_sx260 quick_test/data-fmllr-tri3/train/data/feats_fmllr_train.9.ark:12986328
msms0_sx263 quick_test/data-fmllr-tri3/train/data/feats_fmllr_train.9.ark:16816922
mdsj0_sx382 quick_test/data-fmllr-tri3/train/data/feats_fmllr_train.5.ark:8486174
mjpm0_si738 quick_test/data-fmllr-tri3/train/data/feats_fmllr_train.6.ark:16566036
msdh0_sx350 quick_test/data-fmllr-tri3/train/data/feats_fmllr_train.9.ark:13033875
mjde0_sx400 quick_test/data-fmllr-tri3/train/data/feats_fmllr_train.6.ark:9187907
fltm0_si1700 quick_test/data-fmllr-tri3/train/data/feats_fmllr_train.2.ark:13967006
mjjj0_sx83 quick_test/data-fmllr-tri3/train/data/feats_fmllr_train.6.ark:13121278
fsdj0_sx35 quick_test/data-fmllr-tri3/train/data/feats_fmllr_train.3.ark:7837737
mmcc0_sx258 quick_test/data-fmllr-tri3/train/data/feats_fmllr_train.7.ark:15285330
fdnc0_sx18 quick_test/data-fmllr-tri3/train/data/feats_fmllr_train.1.ark:12379810
fmbg0_sx260 quick_test/data-fmllr-tri3/train/data/feats_fmllr_train.2.ark:14860776
mmag0_sx406 quick_test/data-fmllr-tri3/train/data/feats_fmllr_train.7.ark:13748035
msmc0_sx17 quick_test/data-fmllr-tri3/train/data/feats_fmllr_train.9.ark:16045127
fpac0_si1921 quick_test/data-fmllr-tri3/train/data/feats_fmllr_train.3.ark:1188503
mjlg1_sx202 quick_test/data-fmllr-tri3/train/data/feats_fmllr_train.6.ark:14499987
mmeb0_si727 quick_test/data-fmllr-tri3/train/data/feats_fmllr_train.7.ark:17750315
mbgt0_sx81 quick_test/data-fmllr-tri3/train/data/feats_fmllr_train.4.ark:5154226
mrmh0_sx31 quick_test/data-fmllr-tri3/train/data/feats_fmllr_train.9.ark:6190790
fjkl0_sx32 quick_test/data-fmllr-tri3/train/data/feats_fmllr_train.2.ark:1523389
fceg0_sx78 quick_test/data-fmllr-tri3/train/data/feats_fmllr_train.1.ark:6367614
fjlg0_sx89 quick_test/data-fmllr-tri3/train/data/feats_fmllr_train.2.ark:1950194
mtas0_sx215 quick_test/data-fmllr-tri3/train/data/feats_fmllr_train.10.ark:1088876
mdps0_si1651 quick_test/data-fmllr-tri3/train/data/feats_fmllr_train.5.ark:7415338
mpgr1_sx59 quick_test/data-fmllr-tri3/train/data/feats_fmllr_train.8.ark:7852222
mrbc0_si1859 quick_test/data-fmllr-tri3/train/data/feats_fmllr_train.8.ark:12894563
mcth0_sx399 quick_test/data-fmllr-tri3/train/data/feats_fmllr_train.4.ark:13570997
mclk0_sx400 quick_test/data-fmllr-tri3/train/data/feats_fmllr_train.4.ark:11725433
mrgs0_sx276 quick_test/data-fmllr-tri3/train/data/feats_fmllr_train.9.ark:214522
mtcs0_sx262 quick_test/data-fmllr-tri3/train/data/feats_fmllr_train.10.ark:2627504
mcal0_sx148 quick_test/data-fmllr-tri3/train/data/feats_fmllr_train.4.ark:8728286
fbcg1_si1612 quick_test/data-fmllr-tri3/train/data/feats_fmllr_train.1.ark:2469312
fsbk0_sx349 quick_test/data-fmllr-tri3/train/data/feats_fmllr_train.3.ark:6559940
mcth0_si579 quick_test/data-fmllr-tri3/train/data/feats_fmllr_train.4.ark:13323183
mafm0_si2199 quick_test/data-fmllr-tri3/train/data/feats_fmllr_train.4.ark:770076
mjrh1_sx424 quick_test/data-fmllr-tri3/train/data/feats_fmllr_train.7.ark:681994
feac0_si615 quick_test/data-fmllr-tri3/train/data/feats_fmllr_train.1.ark:13432569
fsjg0_sx40 quick_test/data-fmllr-tri3/train/data/feats_fmllr_train.3.ark:8690971
fmkf0_sx366 quick_test/data-fmllr-tri3/train/data/feats_fmllr_train.2.ark:17384530
maeb0_sx450 quick_test/data-fmllr-tri3/train/data/feats_fmllr_train.4.ark:288656
faem0_sx42 quick_test/data-fmllr-tri3/train/data/feats_fmllr_train.1.ark:354602
mrwa0_sx343 quick_test/data-fmllr-tri3/train/data/feats_fmllr_train.9.ark:10219656
mrdm0_sx245 quick_test/data-fmllr-tri3/train/data/feats_fmllr_train.8.ark:14613913
mrjm0_sx418 quick_test/data-fmllr-tri3/train/data/feats_fmllr_train.9.ark:1985523
majp0_si1704 quick_test/data-fmllr-tri3/train/data/feats_fmllr_train.4.ark:1098613
mcef0_sx235 quick_test/data-fmllr-tri3/train/data/feats_fmllr_train.4.ark:10319101
mdpb0_si866 quick_test/data-fmllr-tri3/train/data/feats_fmllr_train.5.ark:6785039
flja0_si1708 quick_test/data-fmllr-tri3/train/data/feats_fmllr_train.2.ark:10876148
mgak0_si2296 quick_test/data-fmllr-tri3/train/data/feats_fmllr_train.5.ark:17042154
mrso0_si1206 quick_test/data-fmllr-tri3/train/data/feats_fmllr_train.9.ark:7875074
feeh0_sx32 quick_test/data-fmllr-tri3/train/data/feats_fmllr_train.1.ark:14896847
mkln0_si2228 quick_test/data-fmllr-tri3/train/data/feats_fmllr_train.7.ark:7546882
fcjf0_si1027 quick_test/data-fmllr-tri3/train/data/feats_fmllr_train.1.ark:6398842
mdlc1_sx445 quick_test/data-fmllr-tri3/train/data/feats_fmllr_train.5.ark:3504794
mtdb0_sx321 quick_test/data-fmllr-tri3/train/data/feats_fmllr_train.10.ark:3072388
mdlc0_sx135 quick_test/data-fmllr-tri3/train/data/feats_fmllr_train.5.ark:2968815
mprk0_sx197 quick_test/data-fmllr-tri3/train/data/feats_fmllr_train.8.ark:10123013
fsma0_si991 quick_test/data-fmllr-tri3/train/data/feats_fmllr_train.3.ark:11561401
fpab1_si1471 quick_test/data-fmllr-tri3/train/data/feats_fmllr_train.3.ark:741406
mtas0_si755 quick_test/data-fmllr-tri3/train/data/feats_fmllr_train.10.ark:1021942
mpar0_sx226 quick_test/data-fmllr-tri3/train/data/feats_fmllr_train.8.ark:5915217
mwre0_sx67 quick_test/data-fmllr-tri3/train/data/feats_fmllr_train.10.ark:16347665
mtxs0_sx340 quick_test/data-fmllr-tri3/train/data/feats_fmllr_train.10.ark:12178020
fpjf0_sx352 quick_test/data-fmllr-tri3/train/data/feats_fmllr_train.3.ark:3095135
mjeb1_sx207 quick_test/data-fmllr-tri3/train/data/feats_fmllr_train.6.ark:10667256
mrai0_sx72 quick_test/data-fmllr-tri3/train/data/feats_fmllr_train.8.ark:12101271
madc0_sx197 quick_test/data-fmllr-tri3/train/data/feats_fmllr_train.3.ark:17451616
mkls1_si2175 quick_test/data-fmllr-tri3/train/data/feats_fmllr_train.7.ark:8673135
fdxw0_si2141 quick_test/data-fmllr-tri3/train/data/feats_fmllr_train.1.ark:13041765
mdcd0_sx155 quick_test/data-fmllr-tri3/train/data/feats_fmllr_train.4.ark:16042807
fcmg0_si1242 quick_test/data-fmllr-tri3/train/data/feats_fmllr_train.1.ark:7858298
falk0_sx366 quick_test/data-fmllr-tri3/train/data/feats_fmllr_train.1.ark:1064740
fmkf0_si1536 quick_test/data-fmllr-tri3/train/data/feats_fmllr_train.2.ark:17201702
feeh0_si471 quick_test/data-fmllr-tri3/train/data/feats_fmllr_train.1.ark:14706020
mjlg1_sx112 quick_test/data-fmllr-tri3/train/data/feats_fmllr_train.6.ark:14454840
mdks0_si1696 quick_test/data-fmllr-tri3/train/data/feats_fmllr_train.5.ark:1955686
mbef0_sx111 quick_test/data-fmllr-tri3/train/data/feats_fmllr_train.4.ark:4623662
mdtb0_sx390 quick_test/data-fmllr-tri3/train/data/feats_fmllr_train.5.ark:9538693
flac0_sx361 quick_test/data-fmllr-tri3/train/data/feats_fmllr_train.2.ark:9082849
fkfb0_sx438 quick_test/data-fmllr-tri3/train/data/feats_fmllr_train.2.ark:6749093
madd0_si1295 quick_test/data-fmllr-tri3/train/data/feats_fmllr_train.3.ark:17591378
mtpr0_si1600 quick_test/data-fmllr-tri3/train/data/feats_fmllr_train.10.ark:9517702
majp0_sx264 quick_test/data-fmllr-tri3/train/data/feats_fmllr_train.4.ark:1287655
fkfb0_si978 quick_test/data-fmllr-tri3/train/data/feats_fmllr_train.2.ark:6541465
mdlr1_si669 quick_test/data-fmllr-tri3/train/data/feats_fmllr_train.5.ark:5153610
mgaw0_sx445 quick_test/data-fmllr-tri3/train/data/feats_fmllr_train.6.ark:682954
fhxs0_sx265 quick_test/data-fmllr-tri3/train/data/feats_fmllr_train.1.ark:18663231
mtas0_sx305 quick_test/data-fmllr-tri3/train/data/feats_fmllr_train.10.ark:1132423
mlel0_sx76 quick_test/data-fmllr-tri3/train/data/feats_fmllr_train.7.ark:10886382
mprk0_sx377 quick_test/data-fmllr-tri3/train/data/feats_fmllr_train.8.ark:10230107
ftmg0_sx92 quick_test/data-fmllr-tri3/train/data/feats_fmllr_train.3.ark:15711544
mtlb0_sx144 quick_test/data-fmllr-tri3/train/data/feats_fmllr_train.10.ark:6638447
mrcg0_sx438 quick_test/data-fmllr-tri3/train/data/feats_fmllr_train.8.ark:13571395
fskl0_sx269 quick_test/data-fmllr-tri3/train/data/feats_fmllr_train.3.ark:10553283
mkln0_si1598 quick_test/data-fmllr-tri3/train/data/feats_fmllr_train.7.ark:7492614
mrfl0_si1156 quick_test/data-fmllr-tri3/train/data/feats_fmllr_train.8.ark:17052284
fmkf0_sx96 quick_test/data-fmllr-tri3/train/data/feats_fmllr_train.2.ark:17483781
mdhl0_si809 quick_test/data-fmllr-tri3/train/data/feats_fmllr_train.5.ark:919702
mtmn0_sx344 quick_test/data-fmllr-tri3/train/data/feats_fmllr_train.10.ark:7948113
mbth0_si757 quick_test/data-fmllr-tri3/train/data/feats_fmllr_train.4.ark:7422010
mjde0_sx130 quick_test/data-fmllr-tri3/train/data/feats_fmllr_train.6.ark:8942360
mcew0_sx272 quick_test/data-fmllr-tri3/train/data/feats_fmllr_train.4.ark:10734198
mchl0_sx87 quick_test/data-fmllr-tri3/train/data/feats_fmllr_train.4.ark:11327936
fjxp0_sx312 quick_test/data-fmllr-tri3/train/data/feats_fmllr_train.2.ark:5058277
fpab1_sx211 quick_test/data-fmllr-tri3/train/data/feats_fmllr_train.3.ark:1006475
mwac0_si2231 quick_test/data-fmllr-tri3/train/data/feats_fmllr_train.10.ark:13479580
mjdc0_sx441 quick_test/data-fmllr-tri3/train/data/feats_fmllr_train.6.ark:8660145
mtpr0_si2230 quick_test/data-fmllr-tri3/train/data/feats_fmllr_train.10.ark:9569570
mrso0_si1659 quick_test/data-fmllr-tri3/train/data/feats_fmllr_train.9.ark:7963422
mcre0_sx401 quick_test/data-fmllr-tri3/train/data/feats_fmllr_train.4.ark:12729098
mhxl0_si512 quick_test/data-fmllr-tri3/train/data/feats_fmllr_train.6.ark:5768892
mbml0_si1799 quick_test/data-fmllr-tri3/train/data/feats_fmllr_train.4.ark:6365493
fsbk0_si2329 quick_test/data-fmllr-tri3/train/data/feats_fmllr_train.3.ark:6421299
mbom0_sx204 quick_test/data-fmllr-tri3/train/data/feats_fmllr_train.4.ark:6846752
fdaw0_sx146 quick_test/data-fmllr-tri3/train/data/feats_fmllr_train.1.ark:9925199
fcjs0_si2237 quick_test/data-fmllr-tri3/train/data/feats_fmllr_train.1.ark:6728207
fapb0_si2323 quick_test/data-fmllr-tri3/train/data/feats_fmllr_train.1.ark:1679812
mtrr0_si2178 quick_test/data-fmllr-tri3/train/data/feats_fmllr_train.10.ark:10841260
fbas0_sx217 quick_test/data-fmllr-tri3/train/data/feats_fmllr_train.1.ark:2311124
fjen0_si1047 quick_test/data-fmllr-tri3/train/data/feats_fmllr_train.2.ark:417031
mgrp0_si1947 quick_test/data-fmllr-tri3/train/data/feats_fmllr_train.6.ark:1944808
mkdb0_sx242 quick_test/data-fmllr-tri3/train/data/feats_fmllr_train.7.ark:5735319
fssb0_sx362 quick_test/data-fmllr-tri3/train/data/feats_fmllr_train.3.ark:13728008
fljd0_sx436 quick_test/data-fmllr-tri3/train/data/feats_fmllr_train.2.ark:11506901
mwsb0_si2256 quick_test/data-fmllr-tri3/train/data/feats_fmllr_train.10.ark:16839937
fvkb0_sx259 quick_test/data-fmllr-tri3/train/data/feats_fmllr_train.3.ark:16264699
mbwp0_si709 quick_test/data-fmllr-tri3/train/data/feats_fmllr_train.4.ark:7776147
mkdt0_sx173 quick_test/data-fmllr-tri3/train/data/feats_fmllr_train.7.ark:6480045
mkjo0_sx167 quick_test/data-fmllr-tri3/train/data/feats_fmllr_train.7.ark:7272159
mdjm0_si2085 quick_test/data-fmllr-tri3/train/data/feats_fmllr_train.5.ark:1629389
mwre0_si2317 quick_test/data-fmllr-tri3/train/data/feats_fmllr_train.10.ark:16128011
mbbr0_si1055 quick_test/data-fmllr-tri3/train/data/feats_fmllr_train.4.ark:3752266
mwad0_si1062 quick_test/data-fmllr-tri3/train/data/feats_fmllr_train.10.ark:13878809
fbcg1_sx172 quick_test/data-fmllr-tri3/train/data/feats_fmllr_train.1.ark:2589554
mgar0_sx402 quick_test/data-fmllr-tri3/train/data/feats_fmllr_train.6.ark:299057
fsah0_si1244 quick_test/data-fmllr-tri3/train/data/feats_fmllr_train.3.ark:5542089
mcae0_si817 quick_test/data-fmllr-tri3/train/data/feats_fmllr_train.4.ark:8285644
mpsw0_si1697 quick_test/data-fmllr-tri3/train/data/feats_fmllr_train.8.ark:10666539
msat1_sx353 quick_test/data-fmllr-tri3/train/data/feats_fmllr_train.9.ark:12392160
mlel0_si1876 quick_test/data-fmllr-tri3/train/data/feats_fmllr_train.7.ark:10550861
fmju0_si759 quick_test/data-fmllr-tri3/train/data/feats_fmllr_train.2.ark:16439054
fpaf0_si1054 quick_test/data-fmllr-tri3/train/data/feats_fmllr_train.3.ark:2026057
mdps0_si1979 quick_test/data-fmllr-tri3/train/data/feats_fmllr_train.5.ark:7443846
mtmt0_sx308 quick_test/data-fmllr-tri3/train/data/feats_fmllr_train.10.ark:8311530
mdas0_sx96 quick_test/data-fmllr-tri3/train/data/feats_fmllr_train.4.ark:15076022
mbom0_si1644 quick_test/data-fmllr-tri3/train/data/feats_fmllr_train.4.ark:6738350
mrds0_sx177 quick_test/data-fmllr-tri3/train/data/feats_fmllr_train.8.ark:14927543
fmpg0_sx162 quick_test/data-fmllr-tri3/train/data/feats_fmllr_train.2.ark:18115146
mdcm0_si1480 quick_test/data-fmllr-tri3/train/data/feats_fmllr_train.4.ark:16264542
fsmm0_sx324 quick_test/data-fmllr-tri3/train/data/feats_fmllr_train.3.ark:12132259
mrws0_sx22 quick_test/data-fmllr-tri3/train/data/feats_fmllr_train.9.ark:10577472
fhlm0_sx349 quick_test/data-fmllr-tri3/train/data/feats_fmllr_train.1.ark:18235386
mgak0_si1666 quick_test/data-fmllr-tri3/train/data/feats_fmllr_train.5.ark:16995726
mrjb1_si1020 quick_test/data-fmllr-tri3/train/data/feats_fmllr_train.9.ark:783805
mdhl0_sx269 quick_test/data-fmllr-tri3/train/data/feats_fmllr_train.5.ark:1017356
mvjh0_sx206 quick_test/data-fmllr-tri3/train/data/feats_fmllr_train.10.ark:12546210
msat1_sx173 quick_test/data-fmllr-tri3/train/data/feats_fmllr_train.9.ark:12292266
mmdb0_sx177 quick_test/data-fmllr-tri3/train/data/feats_fmllr_train.7.ark:15631440
fjrp1_sx352 quick_test/data-fmllr-tri3/train/data/feats_fmllr_train.2.ark:3065192
mjeb0_si1286 quick_test/data-fmllr-tri3/train/data/feats_fmllr_train.6.ark:10042290
makr0_si1352 quick_test/data-fmllr-tri3/train/data/feats_fmllr_train.4.ark:1956301
mses0_sx149 quick_test/data-fmllr-tri3/train/data/feats_fmllr_train.9.ark:14300074
mrfk0_sx446 quick_test/data-fmllr-tri3/train/data/feats_fmllr_train.8.ark:16976550
flod0_si1287 quick_test/data-fmllr-tri3/train/data/feats_fmllr_train.2.ark:13583560
mdma0_si1238 quick_test/data-fmllr-tri3/train/data/feats_fmllr_train.5.ark:5469772
fkde0_sx61 quick_test/data-fmllr-tri3/train/data/feats_fmllr_train.2.ark:5995565
mkes0_sx443 quick_test/data-fmllr-tri3/train/data/feats_fmllr_train.7.ark:7061143
mwrp0_sx363 quick_test/data-fmllr-tri3/train/data/feats_fmllr_train.10.ark:16707215
fclt0_sx358 quick_test/data-fmllr-tri3/train/data/feats_fmllr_train.1.ark:7644109
mrfl0_si526 quick_test/data-fmllr-tri3/train/data/feats_fmllr_train.8.ark:17160499
mhbs0_si945 quick_test/data-fmllr-tri3/train/data/feats_fmllr_train.6.ark:3654977
fjwb1_sx255 quick_test/data-fmllr-tri3/train/data/feats_fmllr_train.2.ark:4233496
fkkh0_sx300 quick_test/data-fmllr-tri3/train/data/feats_fmllr_train.2.ark:7215549
fpaz0_sx423 quick_test/data-fmllr-tri3/train/data/feats_fmllr_train.3.ark:2729317
flet0_si1767 quick_test/data-fmllr-tri3/train/data/feats_fmllr_train.2.ark:10101633
msmr0_si1405 quick_test/data-fmllr-tri3/train/data/feats_fmllr_train.9.ark:16303664
mrdd0_si2310 quick_test/data-fmllr-tri3/train/data/feats_fmllr_train.8.ark:14155082
mmea0_sx308 quick_test/data-fmllr-tri3/train/data/feats_fmllr_train.7.ark:17530179
mpar0_sx136 quick_test/data-fmllr-tri3/train/data/feats_fmllr_train.8.ark:5860150
fcmg0_sx72 quick_test/data-fmllr-tri3/train/data/feats_fmllr_train.1.ark:8160380
mcxm0_sx451 quick_test/data-fmllr-tri3/train/data/feats_fmllr_train.4.ark:14266285
mtmt0_sx128 quick_test/data-fmllr-tri3/train/data/feats_fmllr_train.10.ark:8227956
mlbc0_sx159 quick_test/data-fmllr-tri3/train/data/feats_fmllr_train.7.ark:10286858
mtxs0_si1060 quick_test/data-fmllr-tri3/train/data/feats_fmllr_train.10.ark:11883803
fexm0_si1101 quick_test/data-fmllr-tri3/train/data/feats_fmllr_train.1.ark:15794776
mjdm0_sx440 quick_test/data-fmllr-tri3/train/data/feats_fmllr_train.6.ark:9943036
mrjb1_sx300 quick_test/data-fmllr-tri3/train/data/feats_fmllr_train.9.ark:1138848
mmpm0_si2321 quick_test/data-fmllr-tri3/train/data/feats_fmllr_train.8.ark:1849636
fbmj0_si516 quick_test/data-fmllr-tri3/train/data/feats_fmllr_train.1.ark:4527064
fksr0_sx366 quick_test/data-fmllr-tri3/train/data/feats_fmllr_train.2.ark:8712552
mpsw0_si2327 quick_test/data-fmllr-tri3/train/data/feats_fmllr_train.8.ark:10705287
mbar0_si1949 quick_test/data-fmllr-tri3/train/data/feats_fmllr_train.4.ark:3436877
mtdb0_sx51 quick_test/data-fmllr-tri3/train/data/feats_fmllr_train.10.ark:3177561
mrjh0_si889 quick_test/data-fmllr-tri3/train/data/feats_fmllr_train.9.ark:1312850
fcyl0_si1927 quick_test/data-fmllr-tri3/train/data/feats_fmllr_train.1.ark:8975110
milb0_sx183 quick_test/data-fmllr-tri3/train/data/feats_fmllr_train.6.ark:6286602
feme0_si875 quick_test/data-fmllr-tri3/train/data/feats_fmllr_train.1.ark:15080477
mrab1_sx128 quick_test/data-fmllr-tri3/train/data/feats_fmllr_train.8.ark:11477267
fjwb1_si795 quick_test/data-fmllr-tri3/train/data/feats_fmllr_train.2.ark:4145122
fvmh0_si2096 quick_test/data-fmllr-tri3/train/data/feats_fmllr_train.3.ark:16560195
mrre0_sx74 quick_test/data-fmllr-tri3/train/data/feats_fmllr_train.9.ark:7824806
mrtc0_si828 quick_test/data-fmllr-tri3/train/data/feats_fmllr_train.9.ark:8885484
ftmg0_si2162 quick_test/data-fmllr-tri3/train/data/feats_fmllr_train.3.ark:15409303
mpgr1_sx329 quick_test/data-fmllr-tri3/train/data/feats_fmllr_train.8.ark:7745289
fljd0_sx166 quick_test/data-fmllr-tri3/train/data/feats_fmllr_train.2.ark:11348260
msas0_si2006 quick_test/data-fmllr-tri3/train/data/feats_fmllr_train.9.ark:11499457
mmdm1_sx153 quick_test/data-fmllr-tri3/train/data/feats_fmllr_train.7.ark:16727451
fcrz0_si793 quick_test/data-fmllr-tri3/train/data/feats_fmllr_train.1.ark:8665800
fntb0_si1203 quick_test/data-fmllr-tri3/train/data/feats_fmllr_train.3.ark:378950
mfmc0_sx232 quick_test/data-fmllr-tri3/train/data/feats_fmllr_train.5.ark:14557166
mpgh0_sx384 quick_test/data-fmllr-tri3/train/data/feats_fmllr_train.8.ark:7118987
mmpm0_sx161 quick_test/data-fmllr-tri3/train/data/feats_fmllr_train.8.ark:1889983
mmam0_sx247 quick_test/data-fmllr-tri3/train/data/feats_fmllr_train.7.ark:14006279
falr0_si1325 quick_test/data-fmllr-tri3/train/data/feats_fmllr_train.1.ark:1210419
mewm0_sx448 quick_test/data-fmllr-tri3/train/data/feats_fmllr_train.5.ark:13941906
mrtc0_sx288 quick_test/data-fmllr-tri3/train/data/feats_fmllr_train.9.ark:9068471
fsgf0_sx297 quick_test/data-fmllr-tri3/train/data/feats_fmllr_train.3.ark:8216994
mram0_si1905 quick_test/data-fmllr-tri3/train/data/feats_fmllr_train.8.ark:12187087
mrwa0_sx433 quick_test/data-fmllr-tri3/train/data/feats_fmllr_train.9.ark:10277283
mrlj0_sx160 quick_test/data-fmllr-tri3/train/data/feats_fmllr_train.9.ark:3860445
mmds0_sx353 quick_test/data-fmllr-tri3/train/data/feats_fmllr_train.7.ark:17209002
mklr0_sx249 quick_test/data-fmllr-tri3/train/data/feats_fmllr_train.7.ark:8032781
fhxs0_sx445 quick_test/data-fmllr-tri3/train/data/feats_fmllr_train.1.ark:18754165
fclt0_si1438 quick_test/data-fmllr-tri3/train/data/feats_fmllr_train.1.ark:7404133
mjeb1_sx297 quick_test/data-fmllr-tri3/train/data/feats_fmllr_train.6.ark:10738669
feeh0_si1742 quick_test/data-fmllr-tri3/train/data/feats_fmllr_train.1.ark:14652553
mrsp0_sx169 quick_test/data-fmllr-tri3/train/data/feats_fmllr_train.9.ark:8523374
flkm0_sx440 quick_test/data-fmllr-tri3/train/data/feats_fmllr_train.2.ark:12375654
mrld0_sx424 quick_test/data-fmllr-tri3/train/data/feats_fmllr_train.9.ark:3638229
mjpg0_sx21 quick_test/data-fmllr-tri3/train/data/feats_fmllr_train.6.ark:16340139
mdpk0_sx153 quick_test/data-fmllr-tri3/train/data/feats_fmllr_train.5.ark:7182723
mjpm1_si761 quick_test/data-fmllr-tri3/train/data/feats_fmllr_train.6.ark:16894253
mwar0_si1675 quick_test/data-fmllr-tri3/train/data/feats_fmllr_train.10.ark:14246735
mjai0_si710 quick_test/data-fmllr-tri3/train/data/feats_fmllr_train.6.ark:7382104
mcdd0_si2143 quick_test/data-fmllr-tri3/train/data/feats_fmllr_train.4.ark:9381466
mjrh1_si514 quick_test/data-fmllr-tri3/train/data/feats_fmllr_train.7.ark:503326
mljh0_sx424 quick_test/data-fmllr-tri3/train/data/feats_fmllr_train.7.ark:11725830
mrjb1_sx210 quick_test/data-fmllr-tri3/train/data/feats_fmllr_train.9.ark:1064075
fsak0_si1930 quick_test/data-fmllr-tri3/train/data/feats_fmllr_train.3.ark:6031134
fapb0_sx163 quick_test/data-fmllr-tri3/train/data/feats_fmllr_train.1.ark:1767839
mpgr0_si2040 quick_test/data-fmllr-tri3/train/data/feats_fmllr_train.8.ark:7217123
mkdd0_sx127 quick_test/data-fmllr-tri3/train/data/feats_fmllr_train.7.ark:6143989
mkxl0_sx105 quick_test/data-fmllr-tri3/train/data/feats_fmllr_train.7.ark:9931441
mhmg0_sx15 quick_test/data-fmllr-tri3/train/data/feats_fmllr_train.6.ark:4802082
fcmm0_sx273 quick_test/data-fmllr-tri3/train/data/feats_fmllr_train.1.ark:8376837
mfmc0_si502 quick_test/data-fmllr-tri3/train/data/feats_fmllr_train.5.ark:14451992
fsdc0_si1942 quick_test/data-fmllr-tri3/train/data/feats_fmllr_train.3.ark:7291145
mhxl0_si1772 quick_test/data-fmllr-tri3/train/data/feats_fmllr_train.6.ark:5723585
fspm0_si1241 quick_test/data-fmllr-tri3/train/data/feats_fmllr_train.3.ark:12696077
fvfb0_si2292 quick_test/data-fmllr-tri3/train/data/feats_fmllr_train.3.ark:15863628
mgag0_si1321 quick_test/data-fmllr-tri3/train/data/feats_fmllr_train.5.ark:16573402
fpad0_si1976 quick_test/data-fmllr-tri3/train/data/feats_fmllr_train.3.ark:1659948
mdrd0_si1382 quick_test/data-fmllr-tri3/train/data/feats_fmllr_train.5.ark:7766115
marw0_si1906 quick_test/data-fmllr-tri3/train/data/feats_fmllr_train.4.ark:3016820
fajw0_sx363 quick_test/data-fmllr-tri3/train/data/feats_fmllr_train.1.ark:710471
mdlb0_sx226 quick_test/data-fmllr-tri3/train/data/feats_fmllr_train.5.ark:2562865
mbar0_sx419 quick_test/data-fmllr-tri3/train/data/feats_fmllr_train.4.ark:3675572
mtjg0_sx440 quick_test/data-fmllr-tri3/train/data/feats_fmllr_train.10.ark:4377226
mprt0_sx220 quick_test/data-fmllr-tri3/train/data/feats_fmllr_train.8.ark:10454243
madc0_sx287 quick_test/data-fmllr-tri3/train/data/feats_fmllr_train.3.ark:17492123
mrld0_sx64 quick_test/data-fmllr-tri3/train/data/feats_fmllr_train.9.ark:3680175
mrmh0_si1021 quick_test/data-fmllr-tri3/train/data/feats_fmllr_train.9.ark:5893347
mgxp0_si1087 quick_test/data-fmllr-tri3/train/data/feats_fmllr_train.6.ark:3146228
mbma1_si2214 quick_test/data-fmllr-tri3/train/data/feats_fmllr_train.4.ark:5947996
mmrp0_si717 quick_test/data-fmllr-tri3/train/data/feats_fmllr_train.8.ark:2177185
fcag0_sx333 quick_test/data-fmllr-tri3/train/data/feats_fmllr_train.1.ark:5084510
mrcw0_sx111 quick_test/data-fmllr-tri3/train/data/feats_fmllr_train.8.ark:13866891
marc0_sx18 quick_test/data-fmllr-tri3/train/data/feats_fmllr_train.4.ark:2811883
mwsb0_si996 quick_test/data-fmllr-tri3/train/data/feats_fmllr_train.10.ark:16875644
mmea0_sx398 quick_test/data-fmllr-tri3/train/data/feats_fmllr_train.7.ark:17610552
fjsk0_sx242 quick_test/data-fmllr-tri3/train/data/feats_fmllr_train.2.ark:3458183
fntb0_sx393 quick_test/data-fmllr-tri3/train/data/feats_fmllr_train.3.ark:702978
fbmh0_si970 quick_test/data-fmllr-tri3/train/data/feats_fmllr_train.1.ark:4190875
makr0_sx182 quick_test/data-fmllr-tri3/train/data/feats_fmllr_train.4.ark:2070463
fmem0_sx297 quick_test/data-fmllr-tri3/train/data/feats_fmllr_train.2.ark:15341525
fdxw0_sx161 quick_test/data-fmllr-tri3/train/data/feats_fmllr_train.1.ark:13123579
madd0_sx268 quick_test/data-fmllr-tri3/train/data/feats_fmllr_train.3.ark:17780447
fdtd0_si2191 quick_test/data-fmllr-tri3/train/data/feats_fmllr_train.1.ark:12638347
mwch0_sx182 quick_test/data-fmllr-tri3/train/data/feats_fmllr_train.10.ark:14657248
msfv0_sx92 quick_test/data-fmllr-tri3/train/data/feats_fmllr_train.9.ark:15360775
mkes0_si623 quick_test/data-fmllr-tri3/train/data/feats_fmllr_train.7.ark:6838155
mjwg0_si2155 quick_test/data-fmllr-tri3/train/data/feats_fmllr_train.7.ark:1951819
mtrc0_sx183 quick_test/data-fmllr-tri3/train/data/feats_fmllr_train.10.ark:10667364
msah1_sx419 quick_test/data-fmllr-tri3/train/data/feats_fmllr_train.9.ark:11346735
mrmh0_si2281 quick_test/data-fmllr-tri3/train/data/feats_fmllr_train.9.ark:6013403
flhd0_sx444 quick_test/data-fmllr-tri3/train/data/feats_fmllr_train.2.ark:10683106
mdac0_sx91 quick_test/data-fmllr-tri3/train/data/feats_fmllr_train.4.ark:14729568
mmdg0_si1780 quick_test/data-fmllr-tri3/train/data/feats_fmllr_train.7.ark:15817815
fmem0_sx333 quick_test/data-fmllr-tri3/train/data/feats_fmllr_train.2.ark:15384272
msmr0_sx55 quick_test/data-fmllr-tri3/train/data/feats_fmllr_train.9.ark:16555505
mkls1_si915 quick_test/data-fmllr-tri3/train/data/feats_fmllr_train.7.ark:8709322
mrjm0_sx328 quick_test/data-fmllr-tri3/train/data/feats_fmllr_train.9.ark:1930136
fgrw0_sx72 quick_test/data-fmllr-tri3/train/data/feats_fmllr_train.1.ark:17921435
mwsh0_si2266 quick_test/data-fmllr-tri3/train/data/feats_fmllr_train.10.ark:17211512
mtdb0_si771 quick_test/data-fmllr-tri3/train/data/feats_fmllr_train.10.ark:2927027
mtmn0_sx434 quick_test/data-fmllr-tri3/train/data/feats_fmllr_train.10.ark:7982700
fmpg0_sx342 quick_test/data-fmllr-tri3/train/data/feats_fmllr_train.2.ark:18230720
msms0_si2063 quick_test/data-fmllr-tri3/train/data/feats_fmllr_train.9.ark:16668681
mrew1_sx60 quick_test/data-fmllr-tri3/train/data/feats_fmllr_train.8.ark:16658758
fmkc0_sx172 quick_test/data-fmllr-tri3/train/data/feats_fmllr_train.2.ark:16873059
mjfr0_sx75 quick_test/data-fmllr-tri3/train/data/feats_fmllr_train.6.ark:11902867
ftlg0_si1743 quick_test/data-fmllr-tri3/train/data/feats_fmllr_train.3.ark:14971459
ftbw0_sx445 quick_test/data-fmllr-tri3/train/data/feats_fmllr_train.3.ark:14894125
mcpm0_sx384 quick_test/data-fmllr-tri3/train/data/feats_fmllr_train.4.ark:12423627
fcjf0_sx397 quick_test/data-fmllr-tri3/train/data/feats_fmllr_train.1.ark:6661431
mmvp0_sx347 quick_test/data-fmllr-tri3/train/data/feats_fmllr_train.8.ark:3309594
mkaj0_si1414 quick_test/data-fmllr-tri3/train/data/feats_fmllr_train.7.ark:4815576
mrsp0_sx439 quick_test/data-fmllr-tri3/train/data/feats_fmllr_train.9.ark:8651455
mkls0_si1533 quick_test/data-fmllr-tri3/train/data/feats_fmllr_train.7.ark:8286997
flmk0_si1229 quick_test/data-fmllr-tri3/train/data/feats_fmllr_train.2.ark:13250570
faem0_si2022 quick_test/data-fmllr-tri3/train/data/feats_fmllr_train.1.ark:75881
fkde0_sx151 quick_test/data-fmllr-tri3/train/data/feats_fmllr_train.2.ark:5801858
fdkn0_sx181 quick_test/data-fmllr-tri3/train/data/feats_fmllr_train.1.ark:10997852
fjdm2_sx142 quick_test/data-fmllr-tri3/train/data/feats_fmllr_train.2.ark:143456
mtdp0_sx81 quick_test/data-fmllr-tri3/train/data/feats_fmllr_train.10.ark:3638259
mmdm1_sx423 quick_test/data-fmllr-tri3/train/data/feats_fmllr_train.7.ark:16913292
mdpk0_sx423 quick_test/data-fmllr-tri3/train/data/feats_fmllr_train.5.ark:7327764
mntw0_sx258 quick_test/data-fmllr-tri3/train/data/feats_fmllr_train.8.ark:5584627
fljg0_sx441 quick_test/data-fmllr-tri3/train/data/feats_fmllr_train.2.ark:11942638
fpjf0_sx56 quick_test/data-fmllr-tri3/train/data/feats_fmllr_train.3.ark:3162681
msrr0_si501 quick_test/data-fmllr-tri3/train/data/feats_fmllr_train.9.ark:17451382
mdmt0_sx32 quick_test/data-fmllr-tri3/train/data/feats_fmllr_train.5.ark:6189992
mwch0_si1895 quick_test/data-fmllr-tri3/train/data/feats_fmllr_train.10.ark:14589353
fcdr1_sx376 quick_test/data-fmllr-tri3/train/data/feats_fmllr_train.1.ark:6024517
fsrh0_si1719 quick_test/data-fmllr-tri3/train/data/feats_fmllr_train.3.ark:13120614
mljh0_si694 quick_test/data-fmllr-tri3/train/data/feats_fmllr_train.7.ark:11485562
mjee0_si1237 quick_test/data-fmllr-tri3/train/data/feats_fmllr_train.6.ark:10834884
fbas0_si1387 quick_test/data-fmllr-tri3/train/data/feats_fmllr_train.1.ark:2053414
mgsl0_sx84 quick_test/data-fmllr-tri3/train/data/feats_fmllr_train.6.ark:3090200
fkaa0_si1838 quick_test/data-fmllr-tri3/train/data/feats_fmllr_train.2.ark:5245746
mtml0_sx255 quick_test/data-fmllr-tri3/train/data/feats_fmllr_train.10.ark:7454109
mjrp0_sx225 quick_test/data-fmllr-tri3/train/data/feats_fmllr_train.7.ark:1309574
mlbc0_sx339 quick_test/data-fmllr-tri3/train/data/feats_fmllr_train.7.ark:10368992
fpac0_si2011 quick_test/data-fmllr-tri3/train/data/feats_fmllr_train.3.ark:1269171
mtrt0_si1857 quick_test/data-fmllr-tri3/train/data/feats_fmllr_train.10.ark:11267397
fsjg0_si2200 quick_test/data-fmllr-tri3/train/data/feats_fmllr_train.3.ark:8355317
fjsp0_si1434 quick_test/data-fmllr-tri3/train/data/feats_fmllr_train.2.ark:3658931
mdmt0_sx122 quick_test/data-fmllr-tri3/train/data/feats_fmllr_train.5.ark:6036312
fgcs0_sx226 quick_test/data-fmllr-tri3/train/data/feats_fmllr_train.1.ark:16438303
mjdm0_si1340 quick_test/data-fmllr-tri3/train/data/feats_fmllr_train.6.ark:9616153
mtju0_sx400 quick_test/data-fmllr-tri3/train/data/feats_fmllr_train.10.ark:5623023
ftlg0_sx33 quick_test/data-fmllr-tri3/train/data/feats_fmllr_train.3.ark:15299620
mafm0_sx129 quick_test/data-fmllr-tri3/train/data/feats_fmllr_train.4.ark:850450
mrjt0_sx328 quick_test/data-fmllr-tri3/train/data/feats_fmllr_train.9.ark:2718250
msfv0_si1892 quick_test/data-fmllr-tri3/train/data/feats_fmllr_train.9.ark:15015814
mrcw0_sx291 quick_test/data-fmllr-tri3/train/data/feats_fmllr_train.8.ark:13972891
mjda0_si1661 quick_test/data-fmllr-tri3/train/data/feats_fmllr_train.6.ark:8058992
mdmt0_sx392 quick_test/data-fmllr-tri3/train/data/feats_fmllr_train.5.ark:6231139
frll0_sx74 quick_test/data-fmllr-tri3/train/data/feats_fmllr_train.3.ark:5040084
mjjm0_sx377 quick_test/data-fmllr-tri3/train/data/feats_fmllr_train.6.ark:13504375
mrab0_sx234 quick_test/data-fmllr-tri3/train/data/feats_fmllr_train.8.ark:11114837
mrew1_si1500 quick_test/data-fmllr-tri3/train/data/feats_fmllr_train.8.ark:16352169
mljh0_si1422 quick_test/data-fmllr-tri3/train/data/feats_fmllr_train.7.ark:11379455
mfer0_sx322 quick_test/data-fmllr-tri3/train/data/feats_fmllr_train.5.ark:14236496
fntb0_si573 quick_test/data-fmllr-tri3/train/data/feats_fmllr_train.3.ark:417537
faem0_sx222 quick_test/data-fmllr-tri3/train/data/feats_fmllr_train.1.ark:201402
fjhk0_si1652 quick_test/data-fmllr-tri3/train/data/feats_fmllr_train.2.ark:906717
mjbg0_si1724 quick_test/data-fmllr-tri3/train/data/feats_fmllr_train.6.ark:7700374
mcss0_sx300 quick_test/data-fmllr-tri3/train/data/feats_fmllr_train.4.ark:13148513
mjjb0_sx329 quick_test/data-fmllr-tri3/train/data/feats_fmllr_train.6.ark:12580528
mdns0_sx111 quick_test/data-fmllr-tri3/train/data/feats_fmllr_train.5.ark:6466449
mjkr0_si1201 quick_test/data-fmllr-tri3/train/data/feats_fmllr_train.6.ark:13552563
mgrp0_sx57 quick_test/data-fmllr-tri3/train/data/feats_fmllr_train.6.ark:2254889
fsmm0_sx54 quick_test/data-fmllr-tri3/train/data/feats_fmllr_train.3.ark:12256632
mstf0_sx136 quick_test/data-fmllr-tri3/train/data/feats_fmllr_train.9.ark:17891624
mbar0_si1319 quick_test/data-fmllr-tri3/train/data/feats_fmllr_train.4.ark:3375569
fdaw0_sx56 quick_test/data-fmllr-tri3/train/data/feats_fmllr_train.1.ark:10093946
mcpm0_si564 quick_test/data-fmllr-tri3/train/data/feats_fmllr_train.4.ark:12213253
makr0_sx452 quick_test/data-fmllr-tri3/train/data/feats_fmllr_train.4.ark:2167824
mhmr0_si489 quick_test/data-fmllr-tri3/train/data/feats_fmllr_train.6.ark:5070566
fdmy0_si714 quick_test/data-fmllr-tri3/train/data/feats_fmllr_train.1.ark:11772179
mafm0_si1569 quick_test/data-fmllr-tri3/train/data/feats_fmllr_train.4.ark:746368
mwdk0_sx176 quick_test/data-fmllr-tri3/train/data/feats_fmllr_train.10.ark:15018585
mcae0_si1447 quick_test/data-fmllr-tri3/train/data/feats_fmllr_train.4.ark:8108629
mjae0_si2154 quick_test/data-fmllr-tri3/train/data/feats_fmllr_train.6.ark:6947808
mbwp0_si1969 quick_test/data-fmllr-tri3/train/data/feats_fmllr_train.4.ark:7733080
mpgh0_si924 quick_test/data-fmllr-tri3/train/data/feats_fmllr_train.8.ark:6947173
mmxs0_sx156 quick_test/data-fmllr-tri3/train/data/feats_fmllr_train.8.ark:4748940
fsma0_sx451 quick_test/data-fmllr-tri3/train/data/feats_fmllr_train.3.ark:11776229
mbsb0_sx363 quick_test/data-fmllr-tri3/train/data/feats_fmllr_train.4.ark:7229582
mkln0_sx68 quick_test/data-fmllr-tri3/train/data/feats_fmllr_train.7.ark:7820963
mjmm0_si1885 quick_test/data-fmllr-tri3/train/data/feats_fmllr_train.6.ark:15820295
fgcs0_sx316 quick_test/data-fmllr-tri3/train/data/feats_fmllr_train.1.ark:16484570
fpaf0_sx334 quick_test/data-fmllr-tri3/train/data/feats_fmllr_train.3.ark:2290994
mdlr0_sx243 quick_test/data-fmllr-tri3/train/data/feats_fmllr_train.5.ark:4843527
mtxs0_sx70 quick_test/data-fmllr-tri3/train/data/feats_fmllr_train.10.ark:12309913
mdlc1_sx175 quick_test/data-fmllr-tri3/train/data/feats_fmllr_train.5.ark:3358153
mdjm0_sx105 quick_test/data-fmllr-tri3/train/data/feats_fmllr_train.5.ark:1728323
mprk0_si1097 quick_test/data-fmllr-tri3/train/data/feats_fmllr_train.8.ark:9816798
mrml0_si791 quick_test/data-fmllr-tri3/train/data/feats_fmllr_train.9.ark:6372180
mtrt0_sx57 quick_test/data-fmllr-tri3/train/data/feats_fmllr_train.10.ark:11511558
mdmt0_si1832 quick_test/data-fmllr-tri3/train/data/feats_fmllr_train.5.ark:5929030
mcdr0_sx434 quick_test/data-fmllr-tri3/train/data/feats_fmllr_train.4.ark:10041178
mprt0_sx310 quick_test/data-fmllr-tri3/train/data/feats_fmllr_train.8.ark:10507550
mtas0_sx125 quick_test/data-fmllr-tri3/train/data/feats_fmllr_train.10.ark:1057809
mjeb0_sx296 quick_test/data-fmllr-tri3/train/data/feats_fmllr_train.6.ark:10338772
flod0_sx171 quick_test/data-fmllr-tri3/train/data/feats_fmllr_train.2.ark:13766709
mmeb0_sx367 quick_test/data-fmllr-tri3/train/data/feats_fmllr_train.7.ark:17883676
fjxm0_sx401 quick_test/data-fmllr-tri3/train/data/feats_fmllr_train.2.ark:4704807
fsak0_sx400 quick_test/data-fmllr-tri3/train/data/feats_fmllr_train.3.ark:6290175
mjwt0_sx301 quick_test/data-fmllr-tri3/train/data/feats_fmllr_train.7.ark:3115908
mtjs0_si562 quick_test/data-fmllr-tri3/train/data/feats_fmllr_train.10.ark:4980272
mfer0_si2122 quick_test/data-fmllr-tri3/train/data/feats_fmllr_train.5.ark:14053828
mprd0_si1431 quick_test/data-fmllr-tri3/train/data/feats_fmllr_train.8.ark:9381861
mhmr0_si1692 quick_test/data-fmllr-tri3/train/data/feats_fmllr_train.6.ark:4998219
fmem0_si2007 quick_test/data-fmllr-tri3/train/data/feats_fmllr_train.2.ark:15152617
mmgg0_sx179 quick_test/data-fmllr-tri3/train/data/feats_fmllr_train.8.ark:498234
mmeb0_sx7 quick_test/data-fmllr-tri3/train/data/feats_fmllr_train.7.ark:17925141
mpgr0_sx330 quick_test/data-fmllr-tri3/train/data/feats_fmllr_train.8.ark:7349711
mjai0_sx344 quick_test/data-fmllr-tri3/train/data/feats_fmllr_train.6.ark:7536425
mdbb1_sx16 quick_test/data-fmllr-tri3/train/data/feats_fmllr_train.4.ark:15305119
fjwb1_si2055 quick_test/data-fmllr-tri3/train/data/feats_fmllr_train.2.ark:4039308
meal0_sx347 quick_test/data-fmllr-tri3/train/data/feats_fmllr_train.5.ark:10988335
mmdm0_sx411 quick_test/data-fmllr-tri3/train/data/feats_fmllr_train.7.ark:16521715
mtjm0_sx416 quick_test/data-fmllr-tri3/train/data/feats_fmllr_train.10.ark:4765123
fsdc0_si2234 quick_test/data-fmllr-tri3/train/data/feats_fmllr_train.3.ark:7332773
fmkc0_sx262 quick_test/data-fmllr-tri3/train/data/feats_fmllr_train.2.ark:16927646
mgaw0_sx355 quick_test/data-fmllr-tri3/train/data/feats_fmllr_train.6.ark:650127
mjmd0_sx308 quick_test/data-fmllr-tri3/train/data/feats_fmllr_train.6.ark:15619386
mjmm0_si1255 quick_test/data-fmllr-tri3/train/data/feats_fmllr_train.6.ark:15752747
mjxa0_sx157 quick_test/data-fmllr-tri3/train/data/feats_fmllr_train.7.ark:3392071
fcmm0_sx420 quick_test/data-fmllr-tri3/train/data/feats_fmllr_train.1.ark:8462811
mtjm0_sx56 quick_test/data-fmllr-tri3/train/data/feats_fmllr_train.10.ark:4806269
mjrk0_si2103 quick_test/data-fmllr-tri3/train/data/feats_fmllr_train.7.ark:792316
falr0_sx425 quick_test/data-fmllr-tri3/train/data/feats_fmllr_train.1.ark:1500342
fpaf0_si1684 quick_test/data-fmllr-tri3/train/data/feats_fmllr_train.3.ark:2116645
mrjt0_sx148 quick_test/data-fmllr-tri3/train/data/feats_fmllr_train.9.ark:2635476
feeh0_sx212 quick_test/data-fmllr-tri3/train/data/feats_fmllr_train.1.ark:14798074
mrlj0_sx70 quick_test/data-fmllr-tri3/train/data/feats_fmllr_train.9.ark:4044712
mmeb0_sx97 quick_test/data-fmllr-tri3/train/data/feats_fmllr_train.7.ark:17961967
mwar0_sx55 quick_test/data-fmllr-tri3/train/data/feats_fmllr_train.10.ark:14488497
fspm0_si1871 quick_test/data-fmllr-tri3/train/data/feats_fmllr_train.3.ark:12783785
mjwg0_si895 quick_test/data-fmllr-tri3/train/data/feats_fmllr_train.7.ark:2069313
mvrw0_si1485 quick_test/data-fmllr-tri3/train/data/feats_fmllr_train.10.ark:13095495
mcxm0_sx271 quick_test/data-fmllr-tri3/train/data/feats_fmllr_train.4.ark:14189911
mpgr1_si1499 quick_test/data-fmllr-tri3/train/data/feats_fmllr_train.8.ark:7533980
mtpf0_sx65 quick_test/data-fmllr-tri3/train/data/feats_fmllr_train.10.ark:8778360
mfxs0_sx54 quick_test/data-fmllr-tri3/train/data/feats_fmllr_train.5.ark:15812619
mkxl0_si1815 quick_test/data-fmllr-tri3/train/data/feats_fmllr_train.7.ark:9795386
fmpg0_sx432 quick_test/data-fmllr-tri3/train/data/feats_fmllr_train.2.ark:18300347
mdlb0_sx46 quick_test/data-fmllr-tri3/train/data/feats_fmllr_train.5.ark:2741985
msfh0_sx46 quick_test/data-fmllr-tri3/train/data/feats_fmllr_train.9.ark:14934158
mter0_si1787 quick_test/data-fmllr-tri3/train/data/feats_fmllr_train.10.ark:3756395
mdlh0_sx160 quick_test/data-fmllr-tri3/train/data/feats_fmllr_train.5.ark:4055866
mkrg0_sx231 quick_test/data-fmllr-tri3/train/data/feats_fmllr_train.7.ark:9633011
mmws0_sx348 quick_test/data-fmllr-tri3/train/data/feats_fmllr_train.8.ark:4159761
mram0_sx375 quick_test/data-fmllr-tri3/train/data/feats_fmllr_train.8.ark:12461969
freh0_sx325 quick_test/data-fmllr-tri3/train/data/feats_fmllr_train.3.ark:4244077
mtmt0_si1118 quick_test/data-fmllr-tri3/train/data/feats_fmllr_train.10.ark:8068354
mjfh0_sx27 quick_test/data-fmllr-tri3/train/data/feats_fmllr_train.6.ark:11421956
mesg0_si702 quick_test/data-fmllr-tri3/train/data/feats_fmllr_train.5.ark:13051446
fhlm0_si2190 quick_test/data-fmllr-tri3/train/data/feats_fmllr_train.1.ark:17983571
mdlm0_si604 quick_test/data-fmllr-tri3/train/data/feats_fmllr_train.5.ark:4389336
fdas1_sx111 quick_test/data-fmllr-tri3/train/data/feats_fmllr_train.1.ark:9523061
mdns0_sx201 quick_test/data-fmllr-tri3/train/data/feats_fmllr_train.5.ark:6508076
mcae0_si2077 quick_test/data-fmllr-tri3/train/data/feats_fmllr_train.4.ark:8199057
mrcw0_sx381 quick_test/data-fmllr-tri3/train/data/feats_fmllr_train.8.ark:14010998
mdtb0_si570 quick_test/data-fmllr-tri3/train/data/feats_fmllr_train.5.ark:9315038
mwgr0_si2236 quick_test/data-fmllr-tri3/train/data/feats_fmllr_train.10.ark:15694806
fsjg0_si940 quick_test/data-fmllr-tri3/train/data/feats_fmllr_train.3.ark:8408304
fbcg1_sx352 quick_test/data-fmllr-tri3/train/data/feats_fmllr_train.1.ark:2681928
mdlc2_sx174 quick_test/data-fmllr-tri3/train/data/feats_fmllr_train.5.ark:3683330
mmaa0_sx215 quick_test/data-fmllr-tri3/train/data/feats_fmllr_train.7.ark:12818907
fcmm0_sx363 quick_test/data-fmllr-tri3/train/data/feats_fmllr_train.1.ark:8416384
fskp0_sx108 quick_test/data-fmllr-tri3/train/data/feats_fmllr_train.3.ark:10887713
fbjl0_si2182 quick_test/data-fmllr-tri3/train/data/feats_fmllr_train.1.ark:3325293
mrcw0_si741 quick_test/data-fmllr-tri3/train/data/feats_fmllr_train.8.ark:13797904
mmds0_sx173 quick_test/data-fmllr-tri3/train/data/feats_fmllr_train.7.ark:17130068
fvfb0_si1510 quick_test/data-fmllr-tri3/train/data/feats_fmllr_train.3.ark:15799280
fklc0_sx445 quick_test/data-fmllr-tri3/train/data/feats_fmllr_train.2.ark:7620887
fdml0_sx69 quick_test/data-fmllr-tri3/train/data/feats_fmllr_train.1.ark:11566657
mmcc0_si708 quick_test/data-fmllr-tri3/train/data/feats_fmllr_train.7.ark:15207196
fdfb0_sx58 quick_test/data-fmllr-tri3/train/data/feats_fmllr_train.1.ark:10422164
marc0_sx378 quick_test/data-fmllr-tri3/train/data/feats_fmllr_train.4.ark:2929244
mntw0_si1068 quick_test/data-fmllr-tri3/train/data/feats_fmllr_train.8.ark:5322090
mdlr1_sx309 quick_test/data-fmllr-tri3/train/data/feats_fmllr_train.5.ark:5324891
mjda0_sx41 quick_test/data-fmllr-tri3/train/data/feats_fmllr_train.6.ark:8323154
mjjb0_sx419 quick_test/data-fmllr-tri3/train/data/feats_fmllr_train.6.ark:12641195
mgrl0_si2127 quick_test/data-fmllr-tri3/train/data/feats_fmllr_train.6.ark:1544751
fklc1_sx418 quick_test/data-fmllr-tri3/train/data/feats_fmllr_train.2.ark:7981105
mjdm0_sx170 quick_test/data-fmllr-tri3/train/data/feats_fmllr_train.6.ark:9746635
mmea0_si758 quick_test/data-fmllr-tri3/train/data/feats_fmllr_train.7.ark:17396818
mtrr0_si918 quick_test/data-fmllr-tri3/train/data/feats_fmllr_train.10.ark:10884327
mrwa0_sx163 quick_test/data-fmllr-tri3/train/data/feats_fmllr_train.9.ark:10142002
mjsr0_si1424 quick_test/data-fmllr-tri3/train/data/feats_fmllr_train.7.ark:1466482
fkdw0_sx397 quick_test/data-fmllr-tri3/train/data/feats_fmllr_train.2.ark:6385222
mesj0_sx367 quick_test/data-fmllr-tri3/train/data/feats_fmllr_train.5.ark:13586624
mwsb0_sx276 quick_test/data-fmllr-tri3/train/data/feats_fmllr_train.10.ark:16977778
ftaj0_si699 quick_test/data-fmllr-tri3/train/data/feats_fmllr_train.3.ark:13980303
mhit0_si983 quick_test/data-fmllr-tri3/train/data/feats_fmllr_train.6.ark:3993914
ftlg0_sx393 quick_test/data-fmllr-tri3/train/data/feats_fmllr_train.3.ark:15339807
mree0_si1104 quick_test/data-fmllr-tri3/train/data/feats_fmllr_train.8.ark:15129918
mjkr0_si1831 quick_test/data-fmllr-tri3/train/data/feats_fmllr_train.6.ark:13615791
mrlj1_sx231 quick_test/data-fmllr-tri3/train/data/feats_fmllr_train.9.ark:4245810
mjjb0_si1277 quick_test/data-fmllr-tri3/train/data/feats_fmllr_train.6.ark:12393539
mcre0_si1725 quick_test/data-fmllr-tri3/train/data/feats_fmllr_train.4.ark:12513283
fvkb0_si1789 quick_test/data-fmllr-tri3/train/data/feats_fmllr_train.3.ark:16135178
mdhl0_sx449 quick_test/data-fmllr-tri3/train/data/feats_fmllr_train.5.ark:1108290
mtcs0_sx172 quick_test/data-fmllr-tri3/train/data/feats_fmllr_train.10.ark:2582837
mjrh0_sx45 quick_test/data-fmllr-tri3/train/data/feats_fmllr_train.7.ark:340203
fbcg1_sx442 quick_test/data-fmllr-tri3/train/data/feats_fmllr_train.1.ark:2750915
fkde0_sx421 quick_test/data-fmllr-tri3/train/data/feats_fmllr_train.2.ark:5950259
mdlr0_si1233 quick_test/data-fmllr-tri3/train/data/feats_fmllr_train.5.ark:4649978
mjrh0_si1755 quick_test/data-fmllr-tri3/train/data/feats_fmllr_train.7.ark:40521
fjlg0_si2306 quick_test/data-fmllr-tri3/train/data/feats_fmllr_train.2.ark:1714060
mrsp0_sx196 quick_test/data-fmllr-tri3/train/data/feats_fmllr_train.9.ark:8576361
mjlg1_sx382 quick_test/data-fmllr-tri3/train/data/feats_fmllr_train.6.ark:14611267
mtml0_si1695 quick_test/data-fmllr-tri3/train/data/feats_fmllr_train.10.ark:7285067
mrdm0_si1595 quick_test/data-fmllr-tri3/train/data/feats_fmllr_train.8.ark:14477032
mtab0_sx42 quick_test/data-fmllr-tri3/train/data/feats_fmllr_train.10.ark:901379
fjrb0_si1932 quick_test/data-fmllr-tri3/train/data/feats_fmllr_train.2.ark:2443267
mrtj0_sx232 quick_test/data-fmllr-tri3/train/data/feats_fmllr_train.9.ark:9429915
fetb0_sx338 quick_test/data-fmllr-tri3/train/data/feats_fmllr_train.1.ark:15646855
fntb0_sx303 quick_test/data-fmllr-tri3/train/data/feats_fmllr_train.3.ark:626125
fsjw0_sx253 quick_test/data-fmllr-tri3/train/data/feats_fmllr_train.3.ark:9799569
mrvg0_sx330 quick_test/data-fmllr-tri3/train/data/feats_fmllr_train.9.ark:9858959
mpeb0_sx150 quick_test/data-fmllr-tri3/train/data/feats_fmllr_train.8.ark:6184527
fjlr0_si601 quick_test/data-fmllr-tri3/train/data/feats_fmllr_train.2.ark:2090917
fpmy0_si1783 quick_test/data-fmllr-tri3/train/data/feats_fmllr_train.3.ark:3639272
mbsb0_sx3 quick_test/data-fmllr-tri3/train/data/feats_fmllr_train.4.ark:7209235
mdbb1_sx286 quick_test/data-fmllr-tri3/train/data/feats_fmllr_train.4.ark:15369013
fdtd0_sx211 quick_test/data-fmllr-tri3/train/data/feats_fmllr_train.1.ark:12787068
fmkf0_sx186 quick_test/data-fmllr-tri3/train/data/feats_fmllr_train.2.ark:17307836
fjxp0_sx42 quick_test/data-fmllr-tri3/train/data/feats_fmllr_train.2.ark:5162330
mclm0_sx376 quick_test/data-fmllr-tri3/train/data/feats_fmllr_train.4.ark:12062770
msjk0_si966 quick_test/data-fmllr-tri3/train/data/feats_fmllr_train.9.ark:15525498
mmdm0_sx141 quick_test/data-fmllr-tri3/train/data/feats_fmllr_train.7.ark:16388834
mhrm0_si958 quick_test/data-fmllr-tri3/train/data/feats_fmllr_train.6.ark:5429823
fclt0_sx448 quick_test/data-fmllr-tri3/train/data/feats_fmllr_train.1.ark:7684776
fdml0_si1149 quick_test/data-fmllr-tri3/train/data/feats_fmllr_train.1.ark:11281667
mmdb0_sx447 quick_test/data-fmllr-tri3/train/data/feats_fmllr_train.7.ark:15755521
mjai0_si1604 quick_test/data-fmllr-tri3/train/data/feats_fmllr_train.6.ark:7268130
mbth0_sx122 quick_test/data-fmllr-tri3/train/data/feats_fmllr_train.4.ark:7455477
fpmy0_si1153 quick_test/data-fmllr-tri3/train/data/feats_fmllr_train.3.ark:3564844
mkrg0_sx141 quick_test/data-fmllr-tri3/train/data/feats_fmllr_train.7.ark:9582104
mcal0_si1138 quick_test/data-fmllr-tri3/train/data/feats_fmllr_train.4.ark:8609644
fvkb0_sx349 quick_test/data-fmllr-tri3/train/data/feats_fmllr_train.3.ark:16318486
msem1_si1440 quick_test/data-fmllr-tri3/train/data/feats_fmllr_train.9.ark:13658974
mpgr1_sx149 quick_test/data-fmllr-tri3/train/data/feats_fmllr_train.8.ark:7646675
fleh0_sx421 quick_test/data-fmllr-tri3/train/data/feats_fmllr_train.2.ark:9949231
fbmj0_si815 quick_test/data-fmllr-tri3/train/data/feats_fmllr_train.1.ark:4596531
frll0_si805 quick_test/data-fmllr-tri3/train/data/feats_fmllr_train.3.ark:4743443
mbma0_si592 quick_test/data-fmllr-tri3/train/data/feats_fmllr_train.4.ark:5653726
mjkr0_sx211 quick_test/data-fmllr-tri3/train/data/feats_fmllr_train.6.ark:13777632
fdtd0_si1561 quick_test/data-fmllr-tri3/train/data/feats_fmllr_train.1.ark:12587759
mdlr1_sx39 quick_test/data-fmllr-tri3/train/data/feats_fmllr_train.5.ark:5378997
mrjh0_sx79 quick_test/data-fmllr-tri3/train/data/feats_fmllr_train.9.ark:1642131
mdcm0_sx400 quick_test/data-fmllr-tri3/train/data/feats_fmllr_train.4.ark:16606491
mmws1_sx261 quick_test/data-fmllr-tri3/train/data/feats_fmllr_train.8.ark:4438965
fjwb1_sx75 quick_test/data-fmllr-tri3/train/data/feats_fmllr_train.2.ark:4365896
flag0_sx294 quick_test/data-fmllr-tri3/train/data/feats_fmllr_train.2.ark:9558772
mgsh0_sx276 quick_test/data-fmllr-tri3/train/data/feats_fmllr_train.6.ark:2576493
mtkp0_si2283 quick_test/data-fmllr-tri3/train/data/feats_fmllr_train.10.ark:6139936
mrml0_si2051 quick_test/data-fmllr-tri3/train/data/feats_fmllr_train.9.ark:6342393
mjmm0_sx355 quick_test/data-fmllr-tri3/train/data/feats_fmllr_train.6.ark:16002003
mtdb0_sx411 quick_test/data-fmllr-tri3/train/data/feats_fmllr_train.10.ark:3126815
mdsj0_si832 quick_test/data-fmllr-tri3/train/data/feats_fmllr_train.5.ark:8306227
mcpm0_sx114 quick_test/data-fmllr-tri3/train/data/feats_fmllr_train.4.ark:12274240
mkam0_sx236 quick_test/data-fmllr-tri3/train/data/feats_fmllr_train.7.ark:5376863
mrkm0_si637 quick_test/data-fmllr-tri3/train/data/feats_fmllr_train.9.ark:3046546
mtju0_sx40 quick_test/data-fmllr-tri3/train/data/feats_fmllr_train.10.ark:5580756
mprd0_sx351 quick_test/data-fmllr-tri3/train/data/feats_fmllr_train.8.ark:9671757
mlsh0_sx427 quick_test/data-fmllr-tri3/train/data/feats_fmllr_train.7.ark:12494424
fmah1_si1509 quick_test/data-fmllr-tri3/train/data/feats_fmllr_train.2.ark:14337436
mprb0_si1205 quick_test/data-fmllr-tri3/train/data/feats_fmllr_train.8.ark:8928844
mvrw0_si855 quick_test/data-fmllr-tri3/train/data/feats_fmllr_train.10.ark:13176350
mwac0_sx431 quick_test/data-fmllr-tri3/train/data/feats_fmllr_train.10.ark:13770915
mmws1_sx81 quick_test/data-fmllr-tri3/train/data/feats_fmllr_train.8.ark:4580511
mbml0_si1169 quick_test/data-fmllr-tri3/train/data/feats_fmllr_train.4.ark:6332185
marc0_si1188 quick_test/data-fmllr-tri3/train/data/feats_fmllr_train.4.ark:2663295
mkdd0_sx397 quick_test/data-fmllr-tri3/train/data/feats_fmllr_train.7.ark:6273536
mtdp0_sx261 quick_test/data-fmllr-tri3/train/data/feats_fmllr_train.10.ark:3458339
fblv0_si1058 quick_test/data-fmllr-tri3/train/data/feats_fmllr_train.1.ark:3664362
mrmh0_sx211 quick_test/data-fmllr-tri3/train/data/feats_fmllr_train.9.ark:6105617
mtcs0_sx442 quick_test/data-fmllr-tri3/train/data/feats_fmllr_train.10.ark:2728518
fbch0_sx146 quick_test/data-fmllr-tri3/train/data/feats_fmllr_train.1.ark:3030250
mrjm1_sx398 quick_test/data-fmllr-tri3/train/data/feats_fmllr_train.9.ark:2440326
fsjw0_si1963 quick_test/data-fmllr-tri3/train/data/feats_fmllr_train.3.ark:9667168
mrkm0_si1267 quick_test/data-fmllr-tri3/train/data/feats_fmllr_train.9.ark:2892731
mbma1_si2207 quick_test/data-fmllr-tri3/train/data/feats_fmllr_train.4.ark:5918528
falr0_sx155 quick_test/data-fmllr-tri3/train/data/feats_fmllr_train.1.ark:1348261
mlns0_sx237 quick_test/data-fmllr-tri3/train/data/feats_fmllr_train.7.ark:12005993
mdss1_si1327 quick_test/data-fmllr-tri3/train/data/feats_fmllr_train.5.ark:8901966
fdaw0_sx236 quick_test/data-fmllr-tri3/train/data/feats_fmllr_train.1.ark:9966986
msat0_sx446 quick_test/data-fmllr-tri3/train/data/feats_fmllr_train.9.ark:12079969
mlns0_sx417 quick_test/data-fmllr-tri3/train/data/feats_fmllr_train.7.ark:12090207
fljd0_si1516 quick_test/data-fmllr-tri3/train/data/feats_fmllr_train.2.ark:11200178
mcae0_sx277 quick_test/data-fmllr-tri3/train/data/feats_fmllr_train.4.ark:8387938
mmvp0_sx294 quick_test/data-fmllr-tri3/train/data/feats_fmllr_train.8.ark:3263647
mges0_si851 quick_test/data-fmllr-tri3/train/data/feats_fmllr_train.6.ark:795383
fklc0_si985 quick_test/data-fmllr-tri3/train/data/feats_fmllr_train.2.ark:7365899
mjac0_sx341 quick_test/data-fmllr-tri3/train/data/feats_fmllr_train.6.ark:6715191
mwsb0_sx186 quick_test/data-fmllr-tri3/train/data/feats_fmllr_train.10.ark:16945271
mbma1_sx54 quick_test/data-fmllr-tri3/train/data/feats_fmllr_train.4.ark:6271197
mges0_sx131 quick_test/data-fmllr-tri3/train/data/feats_fmllr_train.6.ark:850610
fskl0_si1529 quick_test/data-fmllr-tri3/train/data/feats_fmllr_train.3.ark:10349654
mrms0_sx120 quick_test/data-fmllr-tri3/train/data/feats_fmllr_train.9.ark:6909225
flkm0_si620 quick_test/data-fmllr-tri3/train/data/feats_fmllr_train.2.ark:12094239
ftmg0_sx272 quick_test/data-fmllr-tri3/train/data/feats_fmllr_train.3.ark:15565864
fpls0_si1590 quick_test/data-fmllr-tri3/train/data/feats_fmllr_train.3.ark:3203989
fleh0_sx331 quick_test/data-fmllr-tri3/train/data/feats_fmllr_train.2.ark:9903604
flja0_sx178 quick_test/data-fmllr-tri3/train/data/feats_fmllr_train.2.ark:10927403
mkrg0_si2121 quick_test/data-fmllr-tri3/train/data/feats_fmllr_train.7.ark:9455170
falk0_si658 quick_test/data-fmllr-tri3/train/data/feats_fmllr_train.1.ark:905779
mljh0_sx334 quick_test/data-fmllr-tri3/train/data/feats_fmllr_train.7.ark:11677003
mjfr0_sx255 quick_test/data-fmllr-tri3/train/data/feats_fmllr_train.6.ark:11723427
mmws1_sx27 quick_test/data-fmllr-tri3/train/data/feats_fmllr_train.8.ark:4469231
msms0_sx353 quick_test/data-fmllr-tri3/train/data/feats_fmllr_train.9.ark:16854069
mzmb0_si1796 quick_test/data-fmllr-tri3/train/data/feats_fmllr_train.10.ark:17657489
mljc0_sx325 quick_test/data-fmllr-tri3/train/data/feats_fmllr_train.7.ark:11196786
mwre0_sx247 quick_test/data-fmllr-tri3/train/data/feats_fmllr_train.10.ark:16206785
fdnc0_si2287 quick_test/data-fmllr-tri3/train/data/feats_fmllr_train.1.ark:12303437
fsjg0_sx400 quick_test/data-fmllr-tri3/train/data/feats_fmllr_train.3.ark:8756918
mgrl0_sx57 quick_test/data-fmllr-tri3/train/data/feats_fmllr_train.6.ark:1844112
mdas0_sx276 quick_test/data-fmllr-tri3/train/data/feats_fmllr_train.4.ark:14999011
mbef0_sx201 quick_test/data-fmllr-tri3/train/data/feats_fmllr_train.4.ark:4657129
fskp0_sx378 quick_test/data-fmllr-tri3/train/data/feats_fmllr_train.3.ark:11051180
mmjb1_si778 quick_test/data-fmllr-tri3/train/data/feats_fmllr_train.8.ark:1137201
mnet0_sx6 quick_test/data-fmllr-tri3/train/data/feats_fmllr_train.8.ark:5245556
mkes0_sx263 quick_test/data-fmllr-tri3/train/data/feats_fmllr_train.7.ark:6963649
mdcd0_si1415 quick_test/data-fmllr-tri3/train/data/feats_fmllr_train.4.ark:15888805
fmkc0_si1041 quick_test/data-fmllr-tri3/train/data/feats_fmllr_train.2.ark:16733616
msfv0_si632 quick_test/data-fmllr-tri3/train/data/feats_fmllr_train.9.ark:15078561
fsak0_sx220 quick_test/data-fmllr-tri3/train/data/feats_fmllr_train.3.ark:6137135
mjai0_si682 quick_test/data-fmllr-tri3/train/data/feats_fmllr_train.6.ark:7310877
mdlr0_sx153 quick_test/data-fmllr-tri3/train/data/feats_fmllr_train.5.ark:4787980
mrab1_sx38 quick_test/data-fmllr-tri3/train/data/feats_fmllr_train.8.ark:11616707
mkam0_sx416 quick_test/data-fmllr-tri3/train/data/feats_fmllr_train.7.ark:5466197
mejl0_sx242 quick_test/data-fmllr-tri3/train/data/feats_fmllr_train.5.ark:12416506
mljc0_sx415 quick_test/data-fmllr-tri3/train/data/feats_fmllr_train.7.ark:11238733
mjrk0_sx160 quick_test/data-fmllr-tri3/train/data/feats_fmllr_train.7.ark:887730
mbgt0_sx441 quick_test/data-fmllr-tri3/train/data/feats_fmllr_train.4.ark:5111160
mtat1_sx419 quick_test/data-fmllr-tri3/train/data/feats_fmllr_train.10.ark:1970804
mhbs0_sx405 quick_test/data-fmllr-tri3/train/data/feats_fmllr_train.6.ark:3837325
mdsj0_sx292 quick_test/data-fmllr-tri3/train/data/feats_fmllr_train.5.ark:8430627
flmc0_sx112 quick_test/data-fmllr-tri3/train/data/feats_fmllr_train.2.ark:12959527
mdjm0_si1455 quick_test/data-fmllr-tri3/train/data/feats_fmllr_train.5.ark:1555441
fmem0_si747 quick_test/data-fmllr-tri3/train/data/feats_fmllr_train.2.ark:15209124
mrai0_sx252 quick_test/data-fmllr-tri3/train/data/feats_fmllr_train.8.ark:11938151
fsag0_si1323 quick_test/data-fmllr-tri3/train/data/feats_fmllr_train.3.ark:5081712
mrwa0_si973 quick_test/data-fmllr-tri3/train/data/feats_fmllr_train.9.ark:10096055
mwsb0_si1626 quick_test/data-fmllr-tri3/train/data/feats_fmllr_train.10.ark:16797669
mdhs0_si900 quick_test/data-fmllr-tri3/train/data/feats_fmllr_train.5.ark:1286959
mchl0_si1347 quick_test/data-fmllr-tri3/train/data/feats_fmllr_train.4.ark:10976546
mwem0_si1950 quick_test/data-fmllr-tri3/train/data/feats_fmllr_train.10.ark:15337496
mrjm0_sx148 quick_test/data-fmllr-tri3/train/data/feats_fmllr_train.9.ark:1843522
mtdb0_sx231 quick_test/data-fmllr-tri3/train/data/feats_fmllr_train.10.ark:3052841
mwdk0_sx266 quick_test/data-fmllr-tri3/train/data/feats_fmllr_train.10.ark:15078132
fbch0_sx326 quick_test/data-fmllr-tri3/train/data/feats_fmllr_train.1.ark:3115744
mmdg0_sx430 quick_test/data-fmllr-tri3/train/data/feats_fmllr_train.7.ark:16153658
fdxw0_sx251 quick_test/data-fmllr-tri3/train/data/feats_fmllr_train.1.ark:13175766
mrld0_si2224 quick_test/data-fmllr-tri3/train/data/feats_fmllr_train.9.ark:3436014
mtml0_sx435 quick_test/data-fmllr-tri3/train/data/feats_fmllr_train.10.ark:7534963
mdlb0_sx406 quick_test/data-fmllr-tri3/train/data/feats_fmllr_train.5.ark:2672199
fcaj0_si1804 quick_test/data-fmllr-tri3/train/data/feats_fmllr_train.1.ark:5264459
mdlc1_sx265 quick_test/data-fmllr-tri3/train/data/feats_fmllr_train.5.ark:3421060
mbbr0_sx425 quick_test/data-fmllr-tri3/train/data/feats_fmllr_train.4.ark:4048590
mdma0_sx440 quick_test/data-fmllr-tri3/train/data/feats_fmllr_train.5.ark:5815696
mejs0_sx250 quick_test/data-fmllr-tri3/train/data/feats_fmllr_train.5.ark:12811123
fpab1_sx301 quick_test/data-fmllr-tri3/train/data/feats_fmllr_train.3.ark:1059302
fsjk1_si1025 quick_test/data-fmllr-tri3/train/data/feats_fmllr_train.3.ark:8826386
mges0_sx311 quick_test/data-fmllr-tri3/train/data/feats_fmllr_train.6.ark:916904
mtrc0_si1623 quick_test/data-fmllr-tri3/train/data/feats_fmllr_train.10.ark:10473976
mmrp0_sx54 quick_test/data-fmllr-tri3/train/data/feats_fmllr_train.8.ark:2506466
mwsh0_sx76 quick_test/data-fmllr-tri3/train/data/feats_fmllr_train.10.ark:17537273
mpeb0_si1034 quick_test/data-fmllr-tri3/train/data/feats_fmllr_train.8.ark:6068285
fbmh0_sx146 quick_test/data-fmllr-tri3/train/data/feats_fmllr_train.1.ark:4261942
msrg0_sx231 quick_test/data-fmllr-tri3/train/data/feats_fmllr_train.9.ark:17180979
mgsh0_si1806 quick_test/data-fmllr-tri3/train/data/feats_fmllr_train.6.ark:2380065
mclk0_si650 quick_test/data-fmllr-tri3/train/data/feats_fmllr_train.4.ark:11457939
mclk0_sx310 quick_test/data-fmllr-tri3/train/data/feats_fmllr_train.4.ark:11643940
mrlj1_sx411 quick_test/data-fmllr-tri3/train/data/feats_fmllr_train.9.ark:4317704
mppc0_si782 quick_test/data-fmllr-tri3/train/data/feats_fmllr_train.8.ark:8648522
mbjv0_sx437 quick_test/data-fmllr-tri3/train/data/feats_fmllr_train.4.ark:5466257
mdbp0_sx168 quick_test/data-fmllr-tri3/train/data/feats_fmllr_train.4.ark:15640190
mmgc0_si1935 quick_test/data-fmllr-tri3/train/data/feats_fmllr_train.8.ark:67561
mdks0_sx436 quick_test/data-fmllr-tri3/train/data/feats_fmllr_train.5.ark:2222542
fmju0_sx309 quick_test/data-fmllr-tri3/train/data/feats_fmllr_train.2.ark:16590495
mgak0_sx136 quick_test/data-fmllr-tri3/train/data/feats_fmllr_train.5.ark:17080421
mejl0_sx422 quick_test/data-fmllr-tri3/train/data/feats_fmllr_train.5.ark:12507120
mmdm0_sx231 quick_test/data-fmllr-tri3/train/data/feats_fmllr_train.7.ark:16439101
fkkh0_sx30 quick_test/data-fmllr-tri3/train/data/feats_fmllr_train.2.ark:7181762
frjb0_sx77 quick_test/data-fmllr-tri3/train/data/feats_fmllr_train.3.ark:4658108
mcdd0_sx343 quick_test/data-fmllr-tri3/train/data/feats_fmllr_train.4.ark:9550694
mbml0_sx89 quick_test/data-fmllr-tri3/train/data/feats_fmllr_train.4.ark:6638774
fdfb0_si1318 quick_test/data-fmllr-tri3/train/data/feats_fmllr_train.1.ark:10142134
fsrh0_si1931 quick_test/data-fmllr-tri3/train/data/feats_fmllr_train.3.ark:13143522
mafm0_sx39 quick_test/data-fmllr-tri3/train/data/feats_fmllr_train.4.ark:988130
mgsh0_si1176 quick_test/data-fmllr-tri3/train/data/feats_fmllr_train.6.ark:2305957
msvs0_sx218 quick_test/data-fmllr-tri3/train/data/feats_fmllr_train.10.ark:249402
mdsj0_sx22 quick_test/data-fmllr-tri3/train/data/feats_fmllr_train.5.ark:8394280
mlbc0_si609 quick_test/data-fmllr-tri3/train/data/feats_fmllr_train.7.ark:10225071
mhit0_si2243 quick_test/data-fmllr-tri3/train/data/feats_fmllr_train.6.ark:3961087
fjhk0_sx32 quick_test/data-fmllr-tri3/train/data/feats_fmllr_train.2.ark:1161092
mtkd0_si1187 quick_test/data-fmllr-tri3/train/data/feats_fmllr_train.10.ark:5669771
fgmb0_si1145 quick_test/data-fmllr-tri3/train/data/feats_fmllr_train.1.ark:17059428
mrfl0_sx166 quick_test/data-fmllr-tri3/train/data/feats_fmllr_train.8.ark:17226126
mjwg0_sx175 quick_test/data-fmllr-tri3/train/data/feats_fmllr_train.7.ark:2162780
mdbb1_si1636 quick_test/data-fmllr-tri3/train/data/feats_fmllr_train.4.ark:15179278
mrhl0_si2145 quick_test/data-fmllr-tri3/train/data/feats_fmllr_train.9.ark:450176
mchl0_si1404 quick_test/data-fmllr-tri3/train/data/feats_fmllr_train.4.ark:11056734
mjrh0_sx315 quick_test/data-fmllr-tri3/train/data/feats_fmllr_train.7.ark:249910
fsgf0_sx387 quick_test/data-fmllr-tri3/train/data/feats_fmllr_train.3.ark:8252861
fspm0_sx71 quick_test/data-fmllr-tri3/train/data/feats_fmllr_train.3.ark:13084586
ftlg0_sx303 quick_test/data-fmllr-tri3/train/data/feats_fmllr_train.3.ark:15263434
fcdr1_si556 quick_test/data-fmllr-tri3/train/data/feats_fmllr_train.1.ark:5744543
msas0_sx26 quick_test/data-fmllr-tri3/train/data/feats_fmllr_train.9.ark:11727084
mrso0_si2289 quick_test/data-fmllr-tri3/train/data/feats_fmllr_train.9.ark:8022970
fnkl0_si892 quick_test/data-fmllr-tri3/train/data/feats_fmllr_train.3.ark:81348
mtdp0_sx351 quick_test/data-fmllr-tri3/train/data/feats_fmllr_train.10.ark:3492766
mrmg0_si1080 quick_test/data-fmllr-tri3/train/data/feats_fmllr_train.9.ark:5511529
mrdm0_sx65 quick_test/data-fmllr-tri3/train/data/feats_fmllr_train.8.ark:14755273
fsah0_sx344 quick_test/data-fmllr-tri3/train/data/feats_fmllr_train.3.ark:5840465
mjbg0_sx62 quick_test/data-fmllr-tri3/train/data/feats_fmllr_train.6.ark:7992376
mvrw0_sx45 quick_test/data-fmllr-tri3/train/data/feats_fmllr_train.10.ark:13368804
fsdc0_sx52 quick_test/data-fmllr-tri3/train/data/feats_fmllr_train.3.ark:7531627
mrdm0_si1044 quick_test/data-fmllr-tri3/train/data/feats_fmllr_train.8.ark:14410124
mmxs0_si629 quick_test/data-fmllr-tri3/train/data/feats_fmllr_train.8.ark:4656726
mbcg0_si2217 quick_test/data-fmllr-tri3/train/data/feats_fmllr_train.4.ark:4113444
