mefg0_sx15 quick_test/data-fmllr-tri3/train/data/feats_fmllr_train.5.ark:11646473
mkdb0_sx62 quick_test/data-fmllr-tri3/train/data/feats_fmllr_train.7.ark:5896359
mmvp0_sx114 quick_test/data-fmllr-tri3/train/data/feats_fmllr_train.8.ark:3167753
mtlb0_si1764 quick_test/data-fmllr-tri3/train/data/feats_fmllr_train.10.ark:6569273
mntw0_si1068 quick_test/data-fmllr-tri3/train/data/feats_fmllr_train.8.ark:5322090
mtju0_si2269 quick_test/data-fmllr-tri3/train/data/feats_fmllr_train.10.ark:5370862
mjhi0_si698 quick_test/data-fmllr-tri3/train/data/feats_fmllr_train.6.ark:12057509
mdjm0_sx375 quick_test/data-fmllr-tri3/train/data/feats_fmllr_train.5.ark:1880910
mrav0_sx108 quick_test/data-fmllr-tri3/train/data/feats_fmllr_train.8.ark:12654080
mapv0_sx123 quick_test/data-fmllr-tri3/train/data/feats_fmllr_train.4.ark:2436600
mdhs0_sx270 quick_test/data-fmllr-tri3/train/data/feats_fmllr_train.5.ark:1398373
mrkm0_sx187 quick_test/data-fmllr-tri3/train/data/feats_fmllr_train.9.ark:3128013
fdas1_si1461 quick_test/data-fmllr-tri3/train/data/feats_fmllr_train.1.ark:9329219
mlsh0_si1417 quick_test/data-fmllr-tri3/train/data/feats_fmllr_train.7.ark:12180661
fjxm0_sx41 quick_test/data-fmllr-tri3/train/data/feats_fmllr_train.2.ark:4761313
mrjm0_sx238 quick_test/data-fmllr-tri3/train/data/feats_fmllr_train.9.ark:1888829
marw0_sx106 quick_test/data-fmllr-tri3/train/data/feats_fmllr_train.4.ark:3088554
mjrk0_sx70 quick_test/data-fmllr-tri3/train/data/feats_fmllr_train.7.ark:1102717
mtjg0_si2157 quick_test/data-fmllr-tri3/train/data/feats_fmllr_train.10.ark:4119491
mrlr0_sx386 quick_test/data-fmllr-tri3/train/data/feats_fmllr_train.9.ark:5112564
mrav0_sx378 quick_test/data-fmllr-tri3/train/data/feats_fmllr_train.8.ark:12811947
flmc0_sx382 quick_test/data-fmllr-tri3/train/data/feats_fmllr_train.2.ark:13158674
fexm0_si1731 quick_test/data-fmllr-tri3/train/data/feats_fmllr_train.1.ark:15844404
fdkn0_sx451 quick_test/data-fmllr-tri3/train/data/feats_fmllr_train.1.ark:11158253
mrew1_si870 quick_test/data-fmllr-tri3/train/data/feats_fmllr_train.8.ark:16413504
feeh0_sx302 quick_test/data-fmllr-tri3/train/data/feats_fmllr_train.1.ark:14851381
mlsh0_sx247 quick_test/data-fmllr-tri3/train/data/feats_fmllr_train.7.ark:12378690
madd0_sx178 quick_test/data-fmllr-tri3/train/data/feats_fmllr_train.3.ark:17721860
mmgc0_si2184 quick_test/data-fmllr-tri3/train/data/feats_fmllr_train.8.ark:120549
mtdp0_sx261 quick_test/data-fmllr-tri3/train/data/feats_fmllr_train.10.ark:3458339
mdpb0_si2126 quick_test/data-fmllr-tri3/train/data/feats_fmllr_train.5.ark:6733172
mrws0_si472 quick_test/data-fmllr-tri3/train/data/feats_fmllr_train.9.ark:10467792
mbef0_si1911 quick_test/data-fmllr-tri3/train/data/feats_fmllr_train.4.ark:4524728
msem1_sx450 quick_test/data-fmllr-tri3/train/data/feats_fmllr_train.9.ark:14056257
flac0_sx361 quick_test/data-fmllr-tri3/train/data/feats_fmllr_train.2.ark:9082849
mmdb0_si1617 quick_test/data-fmllr-tri3/train/data/feats_fmllr_train.7.ark:15537946
mtrr0_sx108 quick_test/data-fmllr-tri3/train/data/feats_fmllr_train.10.ark:10950114
fsjs0_si541 quick_test/data-fmllr-tri3/train/data/feats_fmllr_train.3.ark:9261858
mkls1_sx105 quick_test/data-fmllr-tri3/train/data/feats_fmllr_train.7.ark:8780229
fljg0_sx261 quick_test/data-fmllr-tri3/train/data/feats_fmllr_train.2.ark:11830584
fmju0_si1389 quick_test/data-fmllr-tri3/train/data/feats_fmllr_train.2.ark:16331479
mbth0_si2102 quick_test/data-fmllr-tri3/train/data/feats_fmllr_train.4.ark:7293476
mtpr0_sx250 quick_test/data-fmllr-tri3/train/data/feats_fmllr_train.10.ark:9746771
mreh1_si969 quick_test/data-fmllr-tri3/train/data/feats_fmllr_train.8.ark:15629231
mjeb1_sx117 quick_test/data-fmllr-tri3/train/data/feats_fmllr_train.6.ark:10627549
mesj0_si997 quick_test/data-fmllr-tri3/train/data/feats_fmllr_train.5.ark:13467183
mprd0_sx171 quick_test/data-fmllr-tri3/train/data/feats_fmllr_train.8.ark:9560183
fsjg0_sx310 quick_test/data-fmllr-tri3/train/data/feats_fmllr_train.3.ark:8630145
msrr0_sx231 quick_test/data-fmllr-tri3/train/data/feats_fmllr_train.9.ark:17581676
fskl0_si2159 quick_test/data-fmllr-tri3/train/data/feats_fmllr_train.3.ark:10395922
mdwd0_si1260 quick_test/data-fmllr-tri3/train/data/feats_fmllr_train.5.ark:9577441
mjlb0_si986 quick_test/data-fmllr-tri3/train/data/feats_fmllr_train.6.ark:14051555
fvmh0_sx296 quick_test/data-fmllr-tri3/train/data/feats_fmllr_train.3.ark:16784809
mfwk0_sx439 quick_test/data-fmllr-tri3/train/data/feats_fmllr_train.5.ark:15399895
mgrl0_sx417 quick_test/data-fmllr-tri3/train/data/feats_fmllr_train.6.ark:1797046
ftmg0_sx92 quick_test/data-fmllr-tri3/train/data/feats_fmllr_train.3.ark:15711544
msah1_si1679 quick_test/data-fmllr-tri3/train/data/feats_fmllr_train.9.ark:11139399
mdcd0_si1415 quick_test/data-fmllr-tri3/train/data/feats_fmllr_train.4.ark:15888805
msjk0_sx66 quick_test/data-fmllr-tri3/train/data/feats_fmllr_train.9.ark:15787072
fclt0_sx268 quick_test/data-fmllr-tri3/train/data/feats_fmllr_train.1.ark:7593042
fmah1_si2139 quick_test/data-fmllr-tri3/train/data/feats_fmllr_train.2.ark:14383384
mtas0_sx305 quick_test/data-fmllr-tri3/train/data/feats_fmllr_train.10.ark:1132423
mjai0_si710 quick_test/data-fmllr-tri3/train/data/feats_fmllr_train.6.ark:7382104
mrgs0_sx96 quick_test/data-fmllr-tri3/train/data/feats_fmllr_train.9.ark:387400
fmkc0_si1072 quick_test/data-fmllr-tri3/train/data/feats_fmllr_train.2.ark:16805484
mmgk0_si1952 quick_test/data-fmllr-tri3/train/data/feats_fmllr_train.8.ark:793277
fsls0_si2316 quick_test/data-fmllr-tri3/train/data/feats_fmllr_train.3.ark:11197984
mtjs0_sx202 quick_test/data-fmllr-tri3/train/data/feats_fmllr_train.10.ark:5111366
mwac0_sx161 quick_test/data-fmllr-tri3/train/data/feats_fmllr_train.10.ark:13575474
mgrp0_si1317 quick_test/data-fmllr-tri3/train/data/feats_fmllr_train.6.ark:1876140
faem0_sx402 quick_test/data-fmllr-tri3/train/data/feats_fmllr_train.1.ark:304336
feac0_sx165 quick_test/data-fmllr-tri3/train/data/feats_fmllr_train.1.ark:13500916
majp0_si1074 quick_test/data-fmllr-tri3/train/data/feats_fmllr_train.4.ark:1061785
mrem0_si511 quick_test/data-fmllr-tri3/train/data/feats_fmllr_train.8.ark:16013900
mfxv0_sx195 quick_test/data-fmllr-tri3/train/data/feats_fmllr_train.5.ark:16109743
mprt0_sx220 quick_test/data-fmllr-tri3/train/data/feats_fmllr_train.8.ark:10454243
mrcw0_si2001 quick_test/data-fmllr-tri3/train/data/feats_fmllr_train.8.ark:13748917
mjrk0_sx160 quick_test/data-fmllr-tri3/train/data/feats_fmllr_train.7.ark:887730
mmar0_sx166 quick_test/data-fmllr-tri3/train/data/feats_fmllr_train.7.ark:14354149
mjmm0_si1885 quick_test/data-fmllr-tri3/train/data/feats_fmllr_train.6.ark:15820295
mter0_sx257 quick_test/data-fmllr-tri3/train/data/feats_fmllr_train.10.ark:3939222
fdml0_si1779 quick_test/data-fmllr-tri3/train/data/feats_fmllr_train.1.ark:11339295
mhmr0_sx129 quick_test/data-fmllr-tri3/train/data/feats_fmllr_train.6.ark:5123073
fjxm0_sx221 quick_test/data-fmllr-tri3/train/data/feats_fmllr_train.2.ark:4581553
ftbw0_sx175 quick_test/data-fmllr-tri3/train/data/feats_fmllr_train.3.ark:14741564
mmgk0_sx422 quick_test/data-fmllr-tri3/train/data/feats_fmllr_train.8.ark:950692
mgar0_sx42 quick_test/data-fmllr-tri3/train/data/feats_fmllr_train.6.ark:347883
mfxv0_si1342 quick_test/data-fmllr-tri3/train/data/feats_fmllr_train.5.ark:15932835
mjws0_sx153 quick_test/data-fmllr-tri3/train/data/feats_fmllr_train.7.ark:2531797
mtat0_sx300 quick_test/data-fmllr-tri3/train/data/feats_fmllr_train.10.ark:1542586
mrlj1_si1671 quick_test/data-fmllr-tri3/train/data/feats_fmllr_train.9.ark:4063460
fdnc0_sx108 quick_test/data-fmllr-tri3/train/data/feats_fmllr_train.1.ark:12333064
mgxp0_si1087 quick_test/data-fmllr-tri3/train/data/feats_fmllr_train.6.ark:3146228
mdbb1_sx286 quick_test/data-fmllr-tri3/train/data/feats_fmllr_train.4.ark:15369013
mmxs0_sx336 quick_test/data-fmllr-tri3/train/data/feats_fmllr_train.8.ark:4831234
mrlj1_sx51 quick_test/data-fmllr-tri3/train/data/feats_fmllr_train.9.ark:4361410
mpfu0_si628 quick_test/data-fmllr-tri3/train/data/feats_fmllr_train.8.ark:6519437
mprb0_sx215 quick_test/data-fmllr-tri3/train/data/feats_fmllr_train.8.ark:9170873
mrso0_sx399 quick_test/data-fmllr-tri3/train/data/feats_fmllr_train.9.ark:8294944
frjb0_sx437 quick_test/data-fmllr-tri3/train/data/feats_fmllr_train.3.ark:4597762
mdbb1_sx376 quick_test/data-fmllr-tri3/train/data/feats_fmllr_train.4.ark:15428720
mbwp0_sx169 quick_test/data-fmllr-tri3/train/data/feats_fmllr_train.4.ark:7828014
mwac0_sx431 quick_test/data-fmllr-tri3/train/data/feats_fmllr_train.10.ark:13770915
mpgr1_sx419 quick_test/data-fmllr-tri3/train/data/feats_fmllr_train.8.ark:7803396
mtcs0_si712 quick_test/data-fmllr-tri3/train/data/feats_fmllr_train.10.ark:2496730
mmaa0_sx125 quick_test/data-fmllr-tri3/train/data/feats_fmllr_train.7.ark:12774080
fceg0_si1248 quick_test/data-fmllr-tri3/train/data/feats_fmllr_train.1.ark:6075585
mtpp0_sx158 quick_test/data-fmllr-tri3/train/data/feats_fmllr_train.10.ark:9298687
mrpc1_si2112 quick_test/data-fmllr-tri3/train/data/feats_fmllr_train.9.ark:7170696
maeb0_si1411 quick_test/data-fmllr-tri3/train/data/feats_fmllr_train.4.ark:13
mfxv0_sx105 quick_test/data-fmllr-tri3/train/data/feats_fmllr_train.5.ark:16034970
mrjt0_sx58 quick_test/data-fmllr-tri3/train/data/feats_fmllr_train.9.ark:2828063
mmcc0_sx348 quick_test/data-fmllr-tri3/train/data/feats_fmllr_train.7.ark:15329677
mtpg0_si753 quick_test/data-fmllr-tri3/train/data/feats_fmllr_train.10.ark:8900363
mwre0_sx157 quick_test/data-fmllr-tri3/train/data/feats_fmllr_train.10.ark:16165478
mrtc0_si2088 quick_test/data-fmllr-tri3/train/data/feats_fmllr_train.9.ark:8826097
fgdp0_sx358 quick_test/data-fmllr-tri3/train/data/feats_fmllr_train.1.ark:16881907
mdac0_si1261 quick_test/data-fmllr-tri3/train/data/feats_fmllr_train.4.ark:14365379
mjpm1_sx131 quick_test/data-fmllr-tri3/train/data/feats_fmllr_train.6.ark:16957160
frjb0_si1470 quick_test/data-fmllr-tri3/train/data/feats_fmllr_train.3.ark:4395066
mrmh0_si1349 quick_test/data-fmllr-tri3/train/data/feats_fmllr_train.9.ark:5953535
mmeb0_sx367 quick_test/data-fmllr-tri3/train/data/feats_fmllr_train.7.ark:17883676
mjpm0_sx288 quick_test/data-fmllr-tri3/train/data/feats_fmllr_train.6.ark:16743423
mctm0_sx270 quick_test/data-fmllr-tri3/train/data/feats_fmllr_train.4.ark:13821854
mjjj0_sx83 quick_test/data-fmllr-tri3/train/data/feats_fmllr_train.6.ark:13121278
fcag0_sx153 quick_test/data-fmllr-tri3/train/data/feats_fmllr_train.1.ark:4988456
medr0_sx294 quick_test/data-fmllr-tri3/train/data/feats_fmllr_train.5.ark:11355112
mcss0_sx300 quick_test/data-fmllr-tri3/train/data/feats_fmllr_train.4.ark:13148513
ftmg0_sx272 quick_test/data-fmllr-tri3/train/data/feats_fmllr_train.3.ark:15565864
mstf0_si1396 quick_test/data-fmllr-tri3/train/data/feats_fmllr_train.9.ark:17729943
mfxs0_sx234 quick_test/data-fmllr-tri3/train/data/feats_fmllr_train.5.ark:15645499
fbjl0_si2182 quick_test/data-fmllr-tri3/train/data/feats_fmllr_train.1.ark:3325293
mmea0_sx128 quick_test/data-fmllr-tri3/train/data/feats_fmllr_train.7.ark:17457805
fdxw0_si2141 quick_test/data-fmllr-tri3/train/data/feats_fmllr_train.1.ark:13041765
msms0_si2063 quick_test/data-fmllr-tri3/train/data/feats_fmllr_train.9.ark:16668681
mrld0_sx244 quick_test/data-fmllr-tri3/train/data/feats_fmllr_train.9.ark:3565215
fgmb0_si1145 quick_test/data-fmllr-tri3/train/data/feats_fmllr_train.1.ark:17059428
mdbb1_si1636 quick_test/data-fmllr-tri3/train/data/feats_fmllr_train.4.ark:15179278
mrxb0_sx325 quick_test/data-fmllr-tri3/train/data/feats_fmllr_train.9.ark:10968410
fcjf0_sx127 quick_test/data-fmllr-tri3/train/data/feats_fmllr_train.1.ark:6550764
fjen0_si2307 quick_test/data-fmllr-tri3/train/data/feats_fmllr_train.2.ark:515007
mcae0_si2077 quick_test/data-fmllr-tri3/train/data/feats_fmllr_train.4.ark:8199057
mrml0_sx71 quick_test/data-fmllr-tri3/train/data/feats_fmllr_train.9.ark:6692474
mrsp0_sx259 quick_test/data-fmllr-tri3/train/data/feats_fmllr_train.9.ark:8604868
mmbs0_sx161 quick_test/data-fmllr-tri3/train/data/feats_fmllr_train.7.ark:14812126
msrg0_sx411 quick_test/data-fmllr-tri3/train/data/feats_fmllr_train.9.ark:17258633
mcre0_sx24 quick_test/data-fmllr-tri3/train/data/feats_fmllr_train.4.ark:12692911
fsah0_sx434 quick_test/data-fmllr-tri3/train/data/feats_fmllr_train.3.ark:5872972
mjrg0_sx286 quick_test/data-fmllr-tri3/train/data/feats_fmllr_train.6.ark:17822287
mrws0_sx382 quick_test/data-fmllr-tri3/train/data/feats_fmllr_train.9.ark:10662166
mrcg0_si798 quick_test/data-fmllr-tri3/train/data/feats_fmllr_train.8.ark:13347447
fsah0_sx164 quick_test/data-fmllr-tri3/train/data/feats_fmllr_train.3.ark:5714171
mgaw0_sx85 quick_test/data-fmllr-tri3/train/data/feats_fmllr_train.6.ark:716580
mmgc0_sx135 quick_test/data-fmllr-tri3/train/data/feats_fmllr_train.8.ark:150016
mtkp0_sx213 quick_test/data-fmllr-tri3/train/data/feats_fmllr_train.10.ark:6340337
fkkh0_sx30 quick_test/data-fmllr-tri3/train/data/feats_fmllr_train.2.ark:7181762
mwac0_sx251 quick_test/data-fmllr-tri3/train/data/feats_fmllr_train.10.ark:13646381
mtlc0_sx307 quick_test/data-fmllr-tri3/train/data/feats_fmllr_train.10.ark:7131038
msat1_sx83 quick_test/data-fmllr-tri3/train/data/feats_fmllr_train.9.ark:12482613
fskc0_si2046 quick_test/data-fmllr-tri3/train/data/feats_fmllr_train.3.ark:10040025
mtat0_sx30 quick_test/data-fmllr-tri3/train/data/feats_fmllr_train.10.ark:1514559
flag0_sx294 quick_test/data-fmllr-tri3/train/data/feats_fmllr_train.2.ark:9558772
mreh1_sx339 quick_test/data-fmllr-tri3/train/data/feats_fmllr_train.8.ark:15812512
mwem0_si1393 quick_test/data-fmllr-tri3/train/data/feats_fmllr_train.10.ark:15298748
maeb0_sx270 quick_test/data-fmllr-tri3/train/data/feats_fmllr_train.4.ark:201882
mtab0_sx222 quick_test/data-fmllr-tri3/train/data/feats_fmllr_train.10.ark:724659
mgsl0_sx174 quick_test/data-fmllr-tri3/train/data/feats_fmllr_train.6.ark:2879853
fcdr1_sx286 quick_test/data-fmllr-tri3/train/data/feats_fmllr_train.1.ark:5955050
mdcd0_si785 quick_test/data-fmllr-tri3/train/data/feats_fmllr_train.4.ark:15969500
mrlr0_sx206 quick_test/data-fmllr-tri3/train/data/feats_fmllr_train.9.ark:4982404
mdtb0_si570 quick_test/data-fmllr-tri3/train/data/feats_fmllr_train.5.ark:9315038
mtas0_si2015 quick_test/data-fmllr-tri3/train/data/feats_fmllr_train.10.ark:993915
mklw0_sx401 quick_test/data-fmllr-tri3/train/data/feats_fmllr_train.7.ark:9290608
mmab1_si864 quick_test/data-fmllr-tri3/train/data/feats_fmllr_train.7.ark:13064030
fear0_sx82 quick_test/data-fmllr-tri3/train/data/feats_fmllr_train.1.ark:14089720
mtas0_sx125 quick_test/data-fmllr-tri3/train/data/feats_fmllr_train.10.ark:1057809
mklw0_si1844 quick_test/data-fmllr-tri3/train/data/feats_fmllr_train.7.ark:9072552
fdxw0_si1511 quick_test/data-fmllr-tri3/train/data/feats_fmllr_train.1.ark:13009417
mjma0_si1495 quick_test/data-fmllr-tri3/train/data/feats_fmllr_train.6.ark:15057912
mtlb0_sx324 quick_test/data-fmllr-tri3/train/data/feats_fmllr_train.10.ark:6723301
mdtb0_sx120 quick_test/data-fmllr-tri3/train/data/feats_fmllr_train.5.ark:9369465
mgxp0_sx97 quick_test/data-fmllr-tri3/train/data/feats_fmllr_train.6.ark:3521774
fsmm0_sx234 quick_test/data-fmllr-tri3/train/data/feats_fmllr_train.3.ark:12071592
mmgk0_sx242 quick_test/data-fmllr-tri3/train/data/feats_fmllr_train.8.ark:877358
fpac0_si661 quick_test/data-fmllr-tri3/train/data/feats_fmllr_train.3.ark:1302958
fdfb0_si2010 quick_test/data-fmllr-tri3/train/data/feats_fmllr_train.1.ark:10230990
mlel0_sx76 quick_test/data-fmllr-tri3/train/data/feats_fmllr_train.7.ark:10886382
fsms1_sx64 quick_test/data-fmllr-tri3/train/data/feats_fmllr_train.3.ark:12653009
meal0_sx377 quick_test/data-fmllr-tri3/train/data/feats_fmllr_train.5.ark:11042922
mdwh0_sx395 quick_test/data-fmllr-tri3/train/data/feats_fmllr_train.5.ark:10330327
mrvg0_sx330 quick_test/data-fmllr-tri3/train/data/feats_fmllr_train.9.ark:9858959
fcmg0_sx432 quick_test/data-fmllr-tri3/train/data/feats_fmllr_train.1.ark:8087074
mbml0_si1799 quick_test/data-fmllr-tri3/train/data/feats_fmllr_train.4.ark:6365493
mmdm0_si1941 quick_test/data-fmllr-tri3/train/data/feats_fmllr_train.7.ark:16319660
feac0_si615 quick_test/data-fmllr-tri3/train/data/feats_fmllr_train.1.ark:13432569
mkxl0_si1815 quick_test/data-fmllr-tri3/train/data/feats_fmllr_train.7.ark:9795386
fmem0_sx207 quick_test/data-fmllr-tri3/train/data/feats_fmllr_train.2.ark:15308698
fltm0_sx440 quick_test/data-fmllr-tri3/train/data/feats_fmllr_train.2.ark:14239622
mdlh0_sx430 quick_test/data-fmllr-tri3/train/data/feats_fmllr_train.5.ark:4228587
mdas0_sx186 quick_test/data-fmllr-tri3/train/data/feats_fmllr_train.4.ark:14936558
mtju0_sx130 quick_test/data-fmllr-tri3/train/data/feats_fmllr_train.10.ark:5445156
mjrp0_sx405 quick_test/data-fmllr-tri3/train/data/feats_fmllr_train.7.ark:1384988
mbom0_si1014 quick_test/data-fmllr-tri3/train/data/feats_fmllr_train.4.ark:6679922
fjxm0_sx131 quick_test/data-fmllr-tri3/train/data/feats_fmllr_train.2.ark:4539286
mdem0_si608 quick_test/data-fmllr-tri3/train/data/feats_fmllr_train.5.ark:393858
mcae0_si1447 quick_test/data-fmllr-tri3/train/data/feats_fmllr_train.4.ark:8108629
mtpp0_sx428 quick_test/data-fmllr-tri3/train/data/feats_fmllr_train.10.ark:9427408
fcrz0_sx73 quick_test/data-fmllr-tri3/train/data/feats_fmllr_train.1.ark:8883854
fjhk0_si1652 quick_test/data-fmllr-tri3/train/data/feats_fmllr_train.2.ark:906717
fmju0_sx399 quick_test/data-fmllr-tri3/train/data/feats_fmllr_train.2.ark:16692948
mddc0_si1419 quick_test/data-fmllr-tri3/train/data/feats_fmllr_train.4.ark:16649879
flhd0_sx264 quick_test/data-fmllr-tri3/train/data/feats_fmllr_train.2.ark:10600492
mrld0_sx424 quick_test/data-fmllr-tri3/train/data/feats_fmllr_train.9.ark:3638229
mrvg0_sx420 quick_test/data-fmllr-tri3/train/data/feats_fmllr_train.9.ark:9898986
mmcc0_si1968 quick_test/data-fmllr-tri3/train/data/feats_fmllr_train.7.ark:15171329
mrmb0_sx141 quick_test/data-fmllr-tri3/train/data/feats_fmllr_train.9.ark:5289954
mmws0_si559 quick_test/data-fmllr-tri3/train/data/feats_fmllr_train.8.ark:3990533
fapb0_sx73 quick_test/data-fmllr-tri3/train/data/feats_fmllr_train.1.ark:1997226
mtxs0_sx160 quick_test/data-fmllr-tri3/train/data/feats_fmllr_train.10.ark:12058606
mjdc0_sx441 quick_test/data-fmllr-tri3/train/data/feats_fmllr_train.6.ark:8660145
mrre0_sx434 quick_test/data-fmllr-tri3/train/data/feats_fmllr_train.9.ark:7775820
mdhl0_sx359 quick_test/data-fmllr-tri3/train/data/feats_fmllr_train.5.ark:1047623
fhxs0_sx445 quick_test/data-fmllr-tri3/train/data/feats_fmllr_train.1.ark:18754165
fecd0_sx428 quick_test/data-fmllr-tri3/train/data/feats_fmllr_train.1.ark:14490871
fljd0_si2146 quick_test/data-fmllr-tri3/train/data/feats_fmllr_train.2.ark:11279726
mvjh0_si926 quick_test/data-fmllr-tri3/train/data/feats_fmllr_train.10.ark:12465996
mdmt0_sx302 quick_test/data-fmllr-tri3/train/data/feats_fmllr_train.5.ark:6144686
fpls0_sx60 quick_test/data-fmllr-tri3/train/data/feats_fmllr_train.3.ark:3512016
msmc0_sx377 quick_test/data-fmllr-tri3/train/data/feats_fmllr_train.9.ark:16170488
fgcs0_si1486 quick_test/data-fmllr-tri3/train/data/feats_fmllr_train.1.ark:16249234
mgag0_si691 quick_test/data-fmllr-tri3/train/data/feats_fmllr_train.5.ark:16663216
fpaz0_sx243 quick_test/data-fmllr-tri3/train/data/feats_fmllr_train.3.ark:2652784
fsah0_si1244 quick_test/data-fmllr-tri3/train/data/feats_fmllr_train.3.ark:5542089
mclk0_sx40 quick_test/data-fmllr-tri3/train/data/feats_fmllr_train.4.ark:11680606
flod0_sx387 quick_test/data-fmllr-tri3/train/data/feats_fmllr_train.2.ark:13891750
fjrp1_sx262 quick_test/data-fmllr-tri3/train/data/feats_fmllr_train.2.ark:3000685
mwar0_sx325 quick_test/data-fmllr-tri3/train/data/feats_fmllr_train.10.ark:14414204
mkjo0_sx257 quick_test/data-fmllr-tri3/train/data/feats_fmllr_train.7.ark:7322106
mram0_sx285 quick_test/data-fmllr-tri3/train/data/feats_fmllr_train.8.ark:12416502
fmmh0_sx97 quick_test/data-fmllr-tri3/train/data/feats_fmllr_train.2.ark:17889436
fapb0_sx253 quick_test/data-fmllr-tri3/train/data/feats_fmllr_train.1.ark:1818106
mewm0_si1978 quick_test/data-fmllr-tri3/train/data/feats_fmllr_train.5.ark:13729611
mjjj0_si1163 quick_test/data-fmllr-tri3/train/data/feats_fmllr_train.6.ark:12724129
mjxa0_si877 quick_test/data-fmllr-tri3/train/data/feats_fmllr_train.7.ark:3350924
mljh0_sx244 quick_test/data-fmllr-tri3/train/data/feats_fmllr_train.7.ark:11610896
msmc0_si647 quick_test/data-fmllr-tri3/train/data/feats_fmllr_train.9.ark:15933234
mmab1_sx54 quick_test/data-fmllr-tri3/train/data/feats_fmllr_train.7.ark:13354244
mfwk0_si1879 quick_test/data-fmllr-tri3/train/data/feats_fmllr_train.5.ark:15163120
mrdd0_sx330 quick_test/data-fmllr-tri3/train/data/feats_fmllr_train.8.ark:14306870
mjai0_sx344 quick_test/data-fmllr-tri3/train/data/feats_fmllr_train.6.ark:7536425
mesg0_sx252 quick_test/data-fmllr-tri3/train/data/feats_fmllr_train.5.ark:13172620
fsms1_sx347 quick_test/data-fmllr-tri3/train/data/feats_fmllr_train.3.ark:12589623
mrjm1_sx308 quick_test/data-fmllr-tri3/train/data/feats_fmllr_train.9.ark:2338993
fvmh0_sx206 quick_test/data-fmllr-tri3/train/data/feats_fmllr_train.3.ark:16704276
fssb0_si2342 quick_test/data-fmllr-tri3/train/data/feats_fmllr_train.3.ark:13619287
fscn0_si705 quick_test/data-fmllr-tri3/train/data/feats_fmllr_train.3.ark:6854475
mdbp0_sx438 quick_test/data-fmllr-tri3/train/data/feats_fmllr_train.4.ark:15781551
ftaj0_si474 quick_test/data-fmllr-tri3/train/data/feats_fmllr_train.3.ark:13946036
mtbc0_sx183 quick_test/data-fmllr-tri3/train/data/feats_fmllr_train.10.ark:2212700
mdns0_sx21 quick_test/data-fmllr-tri3/train/data/feats_fmllr_train.5.ark:6554182
fhlm0_sx210 quick_test/data-fmllr-tri3/train/data/feats_fmllr_train.1.ark:18143172
mjrp0_sx45 quick_test/data-fmllr-tri3/train/data/feats_fmllr_train.7.ark:1425814
mdcm0_sx40 quick_test/data-fmllr-tri3/train/data/feats_fmllr_train.4.ark:16562304
freh0_si685 quick_test/data-fmllr-tri3/train/data/feats_fmllr_train.3.ark:4130236
mrjh0_si1519 quick_test/data-fmllr-tri3/train/data/feats_fmllr_train.9.ark:1237303
fetb0_sx428 quick_test/data-fmllr-tri3/train/data/feats_fmllr_train.1.ark:15697602
mbom0_sx384 quick_test/data-fmllr-tri3/train/data/feats_fmllr_train.4.ark:6980273
mmws1_sx81 quick_test/data-fmllr-tri3/train/data/feats_fmllr_train.8.ark:4580511
fbas0_sx217 quick_test/data-fmllr-tri3/train/data/feats_fmllr_train.1.ark:2311124
fdas1_sx381 quick_test/data-fmllr-tri3/train/data/feats_fmllr_train.1.ark:9692768
mkes0_si1253 quick_test/data-fmllr-tri3/train/data/feats_fmllr_train.7.ark:6725940
fmjf0_sx174 quick_test/data-fmllr-tri3/train/data/feats_fmllr_train.2.ark:16056944
feac0_sx345 quick_test/data-fmllr-tri3/train/data/feats_fmllr_train.1.ark:13598250
mmab1_si1494 quick_test/data-fmllr-tri3/train/data/feats_fmllr_train.7.ark:13001095
mdef0_sx213 quick_test/data-fmllr-tri3/train/data/feats_fmllr_train.5.ark:202843
falk0_si456 quick_test/data-fmllr-tri3/train/data/feats_fmllr_train.1.ark:860152
fdnc0_sx288 quick_test/data-fmllr-tri3/train/data/feats_fmllr_train.1.ark:12471704
mefg0_si491 quick_test/data-fmllr-tri3/train/data/feats_fmllr_train.5.ark:11461913
mjde0_sx130 quick_test/data-fmllr-tri3/train/data/feats_fmllr_train.6.ark:8942360
mmwb0_sx449 quick_test/data-fmllr-tri3/train/data/feats_fmllr_train.8.ark:3816372
mtml0_sx165 quick_test/data-fmllr-tri3/train/data/feats_fmllr_train.10.ark:7399842
mcre0_sx41 quick_test/data-fmllr-tri3/train/data/feats_fmllr_train.4.ark:12777284
mmdm0_si1311 quick_test/data-fmllr-tri3/train/data/feats_fmllr_train.7.ark:16233392
fmbg0_sx3 quick_test/data-fmllr-tri3/train/data/feats_fmllr_train.2.ark:14909761
fjsk0_si1682 quick_test/data-fmllr-tri3/train/data/feats_fmllr_train.2.ark:3336661
mrds0_sx87 quick_test/data-fmllr-tri3/train/data/feats_fmllr_train.8.ark:15095490
mjpg0_sx381 quick_test/data-fmllr-tri3/train/data/feats_fmllr_train.6.ark:16403713
flmk0_sx315 quick_test/data-fmllr-tri3/train/data/feats_fmllr_train.2.ark:13451479
mdmt0_sx32 quick_test/data-fmllr-tri3/train/data/feats_fmllr_train.5.ark:6189992
mrkm0_si1267 quick_test/data-fmllr-tri3/train/data/feats_fmllr_train.9.ark:2892731
fmpg0_sx252 quick_test/data-fmllr-tri3/train/data/feats_fmllr_train.2.ark:18185413
fbmj0_si815 quick_test/data-fmllr-tri3/train/data/feats_fmllr_train.1.ark:4596531
msrg0_si1851 quick_test/data-fmllr-tri3/train/data/feats_fmllr_train.9.ark:17046818
mjws0_si513 quick_test/data-fmllr-tri3/train/data/feats_fmllr_train.7.ark:2487290
mjeb0_sx386 quick_test/data-fmllr-tri3/train/data/feats_fmllr_train.6.ark:10380239
fcjs0_sx347 quick_test/data-fmllr-tri3/train/data/feats_fmllr_train.1.ark:6887355
mrai0_sx342 quick_test/data-fmllr-tri3/train/data/feats_fmllr_train.8.ark:11978338
fcrz0_sx433 quick_test/data-fmllr-tri3/train/data/feats_fmllr_train.1.ark:8833428
ftbr0_sx381 quick_test/data-fmllr-tri3/train/data/feats_fmllr_train.3.ark:14551054
fjhk0_si1022 quick_test/data-fmllr-tri3/train/data/feats_fmllr_train.2.ark:864449
mpeb0_sx150 quick_test/data-fmllr-tri3/train/data/feats_fmllr_train.8.ark:6184527
mrkm0_si1391 quick_test/data-fmllr-tri3/train/data/feats_fmllr_train.9.ark:2965399
mmag0_si496 quick_test/data-fmllr-tri3/train/data/feats_fmllr_train.7.ark:13535607
mrcw0_sx291 quick_test/data-fmllr-tri3/train/data/feats_fmllr_train.8.ark:13972891
mbcg0_si2217 quick_test/data-fmllr-tri3/train/data/feats_fmllr_train.4.ark:4113444
fnkl0_sx172 quick_test/data-fmllr-tri3/train/data/feats_fmllr_train.3.ark:156095
mrso0_si1206 quick_test/data-fmllr-tri3/train/data/feats_fmllr_train.9.ark:7875074
mkam0_si1465 quick_test/data-fmllr-tri3/train/data/feats_fmllr_train.7.ark:5256169
mmea0_sx38 quick_test/data-fmllr-tri3/train/data/feats_fmllr_train.7.ark:17568925
mctm0_sx450 quick_test/data-fmllr-tri3/train/data/feats_fmllr_train.4.ark:13904948
flac0_sx451 quick_test/data-fmllr-tri3/train/data/feats_fmllr_train.2.ark:9123676
msjk0_sx246 quick_test/data-fmllr-tri3/train/data/feats_fmllr_train.9.ark:15623312
mkls0_sx357 quick_test/data-fmllr-tri3/train/data/feats_fmllr_train.7.ark:8477826
makb0_sx296 quick_test/data-fmllr-tri3/train/data/feats_fmllr_train.4.ark:1875446
mwem0_si1950 quick_test/data-fmllr-tri3/train/data/feats_fmllr_train.10.ark:15337496
fmmh0_sx420 quick_test/data-fmllr-tri3/train/data/feats_fmllr_train.2.ark:17782985
mmdm0_sx231 quick_test/data-fmllr-tri3/train/data/feats_fmllr_train.7.ark:16439101
mmgc0_sx315 quick_test/data-fmllr-tri3/train/data/feats_fmllr_train.8.ark:229430
fsjk1_si696 quick_test/data-fmllr-tri3/train/data/feats_fmllr_train.3.ark:8907561
mzmb0_sx176 quick_test/data-fmllr-tri3/train/data/feats_fmllr_train.10.ark:17744423
mdjm0_si1455 quick_test/data-fmllr-tri3/train/data/feats_fmllr_train.5.ark:1555441
fsgf0_sx387 quick_test/data-fmllr-tri3/train/data/feats_fmllr_train.3.ark:8252861
fsjs0_sx181 quick_test/data-fmllr-tri3/train/data/feats_fmllr_train.3.ark:9321725
mafm0_si939 quick_test/data-fmllr-tri3/train/data/feats_fmllr_train.4.ark:787543
msvs0_sx308 quick_test/data-fmllr-tri3/train/data/feats_fmllr_train.10.ark:305269
mkah0_sx268 quick_test/data-fmllr-tri3/train/data/feats_fmllr_train.7.ark:4619948
fbmh0_sx416 quick_test/data-fmllr-tri3/train/data/feats_fmllr_train.1.ark:4376423
fljd0_sx346 quick_test/data-fmllr-tri3/train/data/feats_fmllr_train.2.ark:11453274
mtkd0_sx107 quick_test/data-fmllr-tri3/train/data/feats_fmllr_train.10.ark:5852733
fjkl0_si932 quick_test/data-fmllr-tri3/train/data/feats_fmllr_train.2.ark:1292242
mrab1_si848 quick_test/data-fmllr-tri3/train/data/feats_fmllr_train.8.ark:11411640
makb0_sx206 quick_test/data-fmllr-tri3/train/data/feats_fmllr_train.4.ark:1790433
mdbb1_si1006 quick_test/data-fmllr-tri3/train/data/feats_fmllr_train.4.ark:15118290
mbef0_sx21 quick_test/data-fmllr-tri3/train/data/feats_fmllr_train.4.ark:4694275
mwre0_sx427 quick_test/data-fmllr-tri3/train/data/feats_fmllr_train.10.ark:16316119
mpgr0_sx420 quick_test/data-fmllr-tri3/train/data/feats_fmllr_train.8.ark:7398218
fvmh0_sx386 quick_test/data-fmllr-tri3/train/data/feats_fmllr_train.3.ark:16820836
mgsh0_si546 quick_test/data-fmllr-tri3/train/data/feats_fmllr_train.6.ark:2430332
mjsr0_sx344 quick_test/data-fmllr-tri3/train/data/feats_fmllr_train.7.ark:1792698
mrlj1_sx411 quick_test/data-fmllr-tri3/train/data/feats_fmllr_train.9.ark:4317704
fsjs0_sx361 quick_test/data-fmllr-tri3/train/data/feats_fmllr_train.3.ark:9431219
mjrp0_sx135 quick_test/data-fmllr-tri3/train/data/feats_fmllr_train.7.ark:1255467
mdlr1_si1929 quick_test/data-fmllr-tri3/train/data/feats_fmllr_train.5.ark:5107663
mpmb0_sx151 quick_test/data-fmllr-tri3/train/data/feats_fmllr_train.8.ark:8180332
mses0_sx419 quick_test/data-fmllr-tri3/train/data/feats_fmllr_train.9.ark:14436955
mrmh0_sx301 quick_test/data-fmllr-tri3/train/data/feats_fmllr_train.9.ark:6145484
mdbp0_sx258 quick_test/data-fmllr-tri3/train/data/feats_fmllr_train.4.ark:15674777
fntb0_sx123 quick_test/data-fmllr-tri3/train/data/feats_fmllr_train.3.ark:538071
mfrm0_si1717 quick_test/data-fmllr-tri3/train/data/feats_fmllr_train.5.ark:14818102
mrgs0_si1986 quick_test/data-fmllr-tri3/train/data/feats_fmllr_train.9.ark:75081
mcdd0_sx163 quick_test/data-fmllr-tri3/train/data/feats_fmllr_train.4.ark:9474800
mbgt0_sx351 quick_test/data-fmllr-tri3/train/data/feats_fmllr_train.4.ark:5047133
mrsp0_si1429 quick_test/data-fmllr-tri3/train/data/feats_fmllr_train.9.ark:8344572
mmdg0_sx430 quick_test/data-fmllr-tri3/train/data/feats_fmllr_train.7.ark:16153658
mbar0_si689 quick_test/data-fmllr-tri3/train/data/feats_fmllr_train.4.ark:3455784
megj0_si1337 quick_test/data-fmllr-tri3/train/data/feats_fmllr_train.5.ark:11824502
mrcw0_sx201 quick_test/data-fmllr-tri3/train/data/feats_fmllr_train.8.ark:13901958
mmsm0_sx386 quick_test/data-fmllr-tri3/train/data/feats_fmllr_train.8.ark:2922843
mdef0_si1123 quick_test/data-fmllr-tri3/train/data/feats_fmllr_train.5.ark:13
fsrh0_si1931 quick_test/data-fmllr-tri3/train/data/feats_fmllr_train.3.ark:13143522
mkjo0_sx437 quick_test/data-fmllr-tri3/train/data/feats_fmllr_train.7.ark:7400080
feme0_sx155 quick_test/data-fmllr-tri3/train/data/feats_fmllr_train.1.ark:15155704
fsma0_si1621 quick_test/data-fmllr-tri3/train/data/feats_fmllr_train.3.ark:11485026
mpgh0_sx294 quick_test/data-fmllr-tri3/train/data/feats_fmllr_train.8.ark:7086480
fsag0_sx153 quick_test/data-fmllr-tri3/train/data/feats_fmllr_train.3.ark:5209474
fclt0_sx88 quick_test/data-fmllr-tri3/train/data/feats_fmllr_train.1.ark:7724962
fcjs0_si977 quick_test/data-fmllr-tri3/train/data/feats_fmllr_train.1.ark:6753674
mmlm0_sx87 quick_test/data-fmllr-tri3/train/data/feats_fmllr_train.8.ark:1725232
mlbc0_sx249 quick_test/data-fmllr-tri3/train/data/feats_fmllr_train.7.ark:10331045
mgrl0_sx57 quick_test/data-fmllr-tri3/train/data/feats_fmllr_train.6.ark:1844112
flod0_si1917 quick_test/data-fmllr-tri3/train/data/feats_fmllr_train.2.ark:13643108
mtpf0_sx65 quick_test/data-fmllr-tri3/train/data/feats_fmllr_train.10.ark:8778360
mdas0_si636 quick_test/data-fmllr-tri3/train/data/feats_fmllr_train.4.ark:14871411
mjsr0_sx164 quick_test/data-fmllr-tri3/train/data/feats_fmllr_train.7.ark:1688804
mbsb0_sx273 quick_test/data-fmllr-tri3/train/data/feats_fmllr_train.4.ark:7181050
fmah1_sx429 quick_test/data-fmllr-tri3/train/data/feats_fmllr_train.2.ark:14618559
mree0_sx24 quick_test/data-fmllr-tri3/train/data/feats_fmllr_train.8.ark:15405094
mhit0_sx173 quick_test/data-fmllr-tri3/train/data/feats_fmllr_train.6.ark:4069301
mmam0_sx337 quick_test/data-fmllr-tri3/train/data/feats_fmllr_train.7.ark:14060866
mtdb0_si2031 quick_test/data-fmllr-tri3/train/data/feats_fmllr_train.10.ark:2898200
fskl0_sx269 quick_test/data-fmllr-tri3/train/data/feats_fmllr_train.3.ark:10553283
fskl0_si899 quick_test/data-fmllr-tri3/train/data/feats_fmllr_train.3.ark:10459789
mhxl0_sx422 quick_test/data-fmllr-tri3/train/data/feats_fmllr_train.6.ark:6013027
mgag0_sx331 quick_test/data-fmllr-tri3/train/data/feats_fmllr_train.5.ark:16805697
mtpr0_si2230 quick_test/data-fmllr-tri3/train/data/feats_fmllr_train.10.ark:9569570
mafm0_si1569 quick_test/data-fmllr-tri3/train/data/feats_fmllr_train.4.ark:746368
mrre0_sx164 quick_test/data-fmllr-tri3/train/data/feats_fmllr_train.9.ark:7632379
mgaf0_sx382 quick_test/data-fmllr-tri3/train/data/feats_fmllr_train.5.ark:16530814
mdlc2_sx354 quick_test/data-fmllr-tri3/train/data/feats_fmllr_train.5.ark:3781944
faem0_sx312 quick_test/data-fmllr-tri3/train/data/feats_fmllr_train.1.ark:244309
ftbw0_sx445 quick_test/data-fmllr-tri3/train/data/feats_fmllr_train.3.ark:14894125
mdlc2_si2244 quick_test/data-fmllr-tri3/train/data/feats_fmllr_train.5.ark:3597676
mdsj0_sx292 quick_test/data-fmllr-tri3/train/data/feats_fmllr_train.5.ark:8430627
msat0_sx266 quick_test/data-fmllr-tri3/train/data/feats_fmllr_train.9.ark:12012395
fjlg0_sx89 quick_test/data-fmllr-tri3/train/data/feats_fmllr_train.2.ark:1950194
flkm0_sx116 quick_test/data-fmllr-tri3/train/data/feats_fmllr_train.2.ark:12206453
mmws1_sx441 quick_test/data-fmllr-tri3/train/data/feats_fmllr_train.8.ark:4545125
fvkb0_sx439 quick_test/data-fmllr-tri3/train/data/feats_fmllr_train.3.ark:16395953
mrai0_sx252 quick_test/data-fmllr-tri3/train/data/feats_fmllr_train.8.ark:11938151
fdjh0_si1565 quick_test/data-fmllr-tri3/train/data/feats_fmllr_train.1.ark:10472272
fcmg0_sx162 quick_test/data-fmllr-tri3/train/data/feats_fmllr_train.1.ark:7944433
mrgm0_sx172 quick_test/data-fmllr-tri3/train/data/feats_fmllr_train.8.ark:17673703
mtcs0_sx82 quick_test/data-fmllr-tri3/train/data/feats_fmllr_train.10.ark:2785024
mdma0_sx80 quick_test/data-fmllr-tri3/train/data/feats_fmllr_train.5.ark:5889962
mvjh0_sx26 quick_test/data-fmllr-tri3/train/data/feats_fmllr_train.10.ark:12595356
fcjf0_si648 quick_test/data-fmllr-tri3/train/data/feats_fmllr_train.1.ark:6493137
mcef0_sx235 quick_test/data-fmllr-tri3/train/data/feats_fmllr_train.4.ark:10319101
mmdm0_si681 quick_test/data-fmllr-tri3/train/data/feats_fmllr_train.7.ark:16349127
mpmb0_sx331 quick_test/data-fmllr-tri3/train/data/feats_fmllr_train.8.ark:8302946
msat0_si896 quick_test/data-fmllr-tri3/train/data/feats_fmllr_train.9.ark:11931221
mbar0_sx419 quick_test/data-fmllr-tri3/train/data/feats_fmllr_train.4.ark:3675572
fkfb0_sx348 quick_test/data-fmllr-tri3/train/data/feats_fmllr_train.2.ark:6690026
fcyl0_si1927 quick_test/data-fmllr-tri3/train/data/feats_fmllr_train.1.ark:8975110
mtlc0_sx397 quick_test/data-fmllr-tri3/train/data/feats_fmllr_train.10.ark:7195891
mafm0_sx129 quick_test/data-fmllr-tri3/train/data/feats_fmllr_train.4.ark:850450
mjjm0_sx287 quick_test/data-fmllr-tri3/train/data/feats_fmllr_train.6.ark:13457468
mmjb1_si778 quick_test/data-fmllr-tri3/train/data/feats_fmllr_train.8.ark:1137201
mjlg1_si1642 quick_test/data-fmllr-tri3/train/data/feats_fmllr_train.6.ark:14346145
mhjb0_sx387 quick_test/data-fmllr-tri3/train/data/feats_fmllr_train.6.ark:4566106
mwch0_si2252 quick_test/data-fmllr-tri3/train/data/feats_fmllr_train.10.ark:14609541
mtpg0_sx123 quick_test/data-fmllr-tri3/train/data/feats_fmllr_train.10.ark:8962950
mjwg0_sx355 quick_test/data-fmllr-tri3/train/data/feats_fmllr_train.7.ark:2280434
mtjm0_sx236 quick_test/data-fmllr-tri3/train/data/feats_fmllr_train.10.ark:4685549
mjkr0_sx121 quick_test/data-fmllr-tri3/train/data/feats_fmllr_train.6.ark:13724645
mrso0_sx309 quick_test/data-fmllr-tri3/train/data/feats_fmllr_train.9.ark:8183211
mrab1_si2108 quick_test/data-fmllr-tri3/train/data/feats_fmllr_train.8.ark:11368893
fjlr0_sx151 quick_test/data-fmllr-tri3/train/data/feats_fmllr_train.2.ark:2135264
mwsb0_sx96 quick_test/data-fmllr-tri3/train/data/feats_fmllr_train.10.ark:17095456
mrxb0_sx235 quick_test/data-fmllr-tri3/train/data/feats_fmllr_train.9.ark:10924703
fklc1_sx148 quick_test/data-fmllr-tri3/train/data/feats_fmllr_train.2.ark:7841024
mtab0_si1572 quick_test/data-fmllr-tri3/train/data/feats_fmllr_train.10.ark:481670
fpaf0_sx424 quick_test/data-fmllr-tri3/train/data/feats_fmllr_train.3.ark:2336941
mjeb0_sx170 quick_test/data-fmllr-tri3/train/data/feats_fmllr_train.6.ark:10177892
mjws0_si1773 quick_test/data-fmllr-tri3/train/data/feats_fmllr_train.7.ark:2444063
mtju0_sx310 quick_test/data-fmllr-tri3/train/data/feats_fmllr_train.10.ark:5538490
fsdj0_sx125 quick_test/data-fmllr-tri3/train/data/feats_fmllr_train.3.ark:7722297
mcdc0_sx212 quick_test/data-fmllr-tri3/train/data/feats_fmllr_train.4.ark:9161010
fmju0_sx219 quick_test/data-fmllr-tri3/train/data/feats_fmllr_train.2.ark:16542468
mrre0_si952 quick_test/data-fmllr-tri3/train/data/feats_fmllr_train.9.ark:7553152
mwgr0_sx436 quick_test/data-fmllr-tri3/train/data/feats_fmllr_train.10.ark:15949341
fmju0_sx39 quick_test/data-fmllr-tri3/train/data/feats_fmllr_train.2.ark:16644121
fskc0_sx246 quick_test/data-fmllr-tri3/train/data/feats_fmllr_train.3.ark:10161386
mrwa0_si973 quick_test/data-fmllr-tri3/train/data/feats_fmllr_train.9.ark:10096055
mdlr1_si1299 quick_test/data-fmllr-tri3/train/data/feats_fmllr_train.5.ark:5059635
mrjm1_sx38 quick_test/data-fmllr-tri3/train/data/feats_fmllr_train.9.ark:2392139
mrtc0_sx108 quick_test/data-fmllr-tri3/train/data/feats_fmllr_train.9.ark:8931591
fcjf0_sx37 quick_test/data-fmllr-tri3/train/data/feats_fmllr_train.1.ark:6625404
mtlc0_si847 quick_test/data-fmllr-tri3/train/data/feats_fmllr_train.10.ark:7032237
mdpk0_sx243 quick_test/data-fmllr-tri3/train/data/feats_fmllr_train.5.ark:7229470
fdkn0_sx361 quick_test/data-fmllr-tri3/train/data/feats_fmllr_train.1.ark:11112306
mrws0_sx292 quick_test/data-fmllr-tri3/train/data/feats_fmllr_train.9.ark:10611259
fmkc0_sx262 quick_test/data-fmllr-tri3/train/data/feats_fmllr_train.2.ark:16927646
msrg0_sx231 quick_test/data-fmllr-tri3/train/data/feats_fmllr_train.9.ark:17180979
mdhs0_si1530 quick_test/data-fmllr-tri3/train/data/feats_fmllr_train.5.ark:1207864
mrgm0_si1792 quick_test/data-fmllr-tri3/train/data/feats_fmllr_train.8.ark:17538129
mpgh0_si924 quick_test/data-fmllr-tri3/train/data/feats_fmllr_train.8.ark:6947173
mprt0_si495 quick_test/data-fmllr-tri3/train/data/feats_fmllr_train.8.ark:10347602
mlsh0_sx157 quick_test/data-fmllr-tri3/train/data/feats_fmllr_train.7.ark:12338183
fetb0_sx68 quick_test/data-fmllr-tri3/train/data/feats_fmllr_train.1.ark:15752188
mmdg0_sx340 quick_test/data-fmllr-tri3/train/data/feats_fmllr_train.7.ark:16099231
mdpk0_sx423 quick_test/data-fmllr-tri3/train/data/feats_fmllr_train.5.ark:7327764
mrvg0_si510 quick_test/data-fmllr-tri3/train/data/feats_fmllr_train.9.ark:9743358
mjdm0_sx170 quick_test/data-fmllr-tri3/train/data/feats_fmllr_train.6.ark:9746635
mkaj0_sx424 quick_test/data-fmllr-tri3/train/data/feats_fmllr_train.7.ark:5067259
mfxs0_sx54 quick_test/data-fmllr-tri3/train/data/feats_fmllr_train.5.ark:15812619
mtmt0_sx38 quick_test/data-fmllr-tri3/train/data/feats_fmllr_train.10.ark:8353476
fpaf0_si1684 quick_test/data-fmllr-tri3/train/data/feats_fmllr_train.3.ark:2116645
mjws0_sx243 quick_test/data-fmllr-tri3/train/data/feats_fmllr_train.7.ark:2592944
fmpg0_sx72 quick_test/data-fmllr-tri3/train/data/feats_fmllr_train.2.ark:18382293
mkes0_sx443 quick_test/data-fmllr-tri3/train/data/feats_fmllr_train.7.ark:7061143
mcae0_sx367 quick_test/data-fmllr-tri3/train/data/feats_fmllr_train.4.ark:8442685
mrjh0_si889 quick_test/data-fmllr-tri3/train/data/feats_fmllr_train.9.ark:1312850
mrfl0_sx256 quick_test/data-fmllr-tri3/train/data/feats_fmllr_train.8.ark:17293513
ftlg0_si840 quick_test/data-fmllr-tri3/train/data/feats_fmllr_train.3.ark:15123033
mjwg0_sx265 quick_test/data-fmllr-tri3/train/data/feats_fmllr_train.7.ark:2230967
mtmt0_sx218 quick_test/data-fmllr-tri3/train/data/feats_fmllr_train.10.ark:8265103
mewm0_sx448 quick_test/data-fmllr-tri3/train/data/feats_fmllr_train.5.ark:13941906
mrab0_sx144 quick_test/data-fmllr-tri3/train/data/feats_fmllr_train.8.ark:11074490
mjae0_sx444 quick_test/data-fmllr-tri3/train/data/feats_fmllr_train.6.ark:7141836
frll0_sx74 quick_test/data-fmllr-tri3/train/data/feats_fmllr_train.3.ark:5040084
mppc0_sx332 quick_test/data-fmllr-tri3/train/data/feats_fmllr_train.8.ark:8783643
mhmg0_sx15 quick_test/data-fmllr-tri3/train/data/feats_fmllr_train.6.ark:4802082
msmr0_sx325 quick_test/data-fmllr-tri3/train/data/feats_fmllr_train.9.ark:16480092
mgar0_sx132 quick_test/data-fmllr-tri3/train/data/feats_fmllr_train.6.ark:133696
mrdd0_sx277 quick_test/data-fmllr-tri3/train/data/feats_fmllr_train.8.ark:14270843
mpgr1_si1269 quick_test/data-fmllr-tri3/train/data/feats_fmllr_train.8.ark:7506592
marc0_si1188 quick_test/data-fmllr-tri3/train/data/feats_fmllr_train.4.ark:2663295
fkaa0_si1208 quick_test/data-fmllr-tri3/train/data/feats_fmllr_train.2.ark:5196758
mrxb0_sx415 quick_test/data-fmllr-tri3/train/data/feats_fmllr_train.9.ark:11009717
mnet0_si2076 quick_test/data-fmllr-tri3/train/data/feats_fmllr_train.8.ark:5047983
mtas0_sx215 quick_test/data-fmllr-tri3/train/data/feats_fmllr_train.10.ark:1088876
mfxv0_sx15 quick_test/data-fmllr-tri3/train/data/feats_fmllr_train.5.ark:16070836
mlns0_sx237 quick_test/data-fmllr-tri3/train/data/feats_fmllr_train.7.ark:12005993
fcke0_sx121 quick_test/data-fmllr-tri3/train/data/feats_fmllr_train.1.ark:7224478
mrfk0_sx176 quick_test/data-fmllr-tri3/train/data/feats_fmllr_train.8.ark:16839989
fsdj0_si1115 quick_test/data-fmllr-tri3/train/data/feats_fmllr_train.3.ark:7578695
mcef0_sx145 quick_test/data-fmllr-tri3/train/data/feats_fmllr_train.4.ark:10278434
mgar0_si1212 quick_test/data-fmllr-tri3/train/data/feats_fmllr_train.6.ark:13
fskp0_sx18 quick_test/data-fmllr-tri3/train/data/feats_fmllr_train.3.ark:10928219
fmkc0_si1702 quick_test/data-fmllr-tri3/train/data/feats_fmllr_train.2.ark:16841512
mbth0_sx212 quick_test/data-fmllr-tri3/train/data/feats_fmllr_train.4.ark:7512944
ftmg0_sx362 quick_test/data-fmllr-tri3/train/data/feats_fmllr_train.3.ark:15607171
mdpb0_sx146 quick_test/data-fmllr-tri3/train/data/feats_fmllr_train.5.ark:6857066
fcke0_sx391 quick_test/data-fmllr-tri3/train/data/feats_fmllr_train.1.ark:7373865
fkaa0_sx38 quick_test/data-fmllr-tri3/train/data/feats_fmllr_train.2.ark:5499800
fdxw0_sx71 quick_test/data-fmllr-tri3/train/data/feats_fmllr_train.1.ark:13310566
mdlc2_si984 quick_test/data-fmllr-tri3/train/data/feats_fmllr_train.5.ark:3621383
fapb0_si1693 quick_test/data-fmllr-tri3/train/data/feats_fmllr_train.1.ark:1637384
mmgk0_sx62 quick_test/data-fmllr-tri3/train/data/feats_fmllr_train.8.ark:998238
mdem0_sx248 quick_test/data-fmllr-tri3/train/data/feats_fmllr_train.5.ark:590419
mjbg0_sx62 quick_test/data-fmllr-tri3/train/data/feats_fmllr_train.6.ark:7992376
mrds0_sx447 quick_test/data-fmllr-tri3/train/data/feats_fmllr_train.8.ark:15059784
mjdg0_sx142 quick_test/data-fmllr-tri3/train/data/feats_fmllr_train.6.ark:9388338
fsjw0_si1333 quick_test/data-fmllr-tri3/train/data/feats_fmllr_train.3.ark:9584260
mrpc1_sx42 quick_test/data-fmllr-tri3/train/data/feats_fmllr_train.9.ark:7385070
mjrh1_si1558 quick_test/data-fmllr-tri3/train/data/feats_fmllr_train.7.ark:385191
mjma0_sx235 quick_test/data-fmllr-tri3/train/data/feats_fmllr_train.6.ark:15268101
mrmg0_sx450 quick_test/data-fmllr-tri3/train/data/feats_fmllr_train.9.ark:5796333
fltm0_sx170 quick_test/data-fmllr-tri3/train/data/feats_fmllr_train.2.ark:14040661
mdma0_si1238 quick_test/data-fmllr-tri3/train/data/feats_fmllr_train.5.ark:5469772
mjfh0_si1737 quick_test/data-fmllr-tri3/train/data/feats_fmllr_train.6.ark:11256729
mses0_sx59 quick_test/data-fmllr-tri3/train/data/feats_fmllr_train.9.ark:14475541
mrjt0_sx328 quick_test/data-fmllr-tri3/train/data/feats_fmllr_train.9.ark:2718250
mdsj0_si2092 quick_test/data-fmllr-tri3/train/data/feats_fmllr_train.5.ark:8272600
mbth0_si505 quick_test/data-fmllr-tri3/train/data/feats_fmllr_train.4.ark:7375903
fdml0_sx159 quick_test/data-fmllr-tri3/train/data/feats_fmllr_train.1.ark:11404790
fkaa0_sx398 quick_test/data-fmllr-tri3/train/data/feats_fmllr_train.2.ark:5559347
mdhl0_sx269 quick_test/data-fmllr-tri3/train/data/feats_fmllr_train.5.ark:1017356
mdss1_sx157 quick_test/data-fmllr-tri3/train/data/feats_fmllr_train.5.ark:9039328
mtwh1_sx72 quick_test/data-fmllr-tri3/train/data/feats_fmllr_train.10.ark:11855775
fpaf0_sx334 quick_test/data-fmllr-tri3/train/data/feats_fmllr_train.3.ark:2290994
fcmg0_si1242 quick_test/data-fmllr-tri3/train/data/feats_fmllr_train.1.ark:7858298
msrr0_si1131 quick_test/data-fmllr-tri3/train/data/feats_fmllr_train.9.ark:17342047
mdwh0_sx215 quick_test/data-fmllr-tri3/train/data/feats_fmllr_train.5.ark:10169127
madc0_sx107 quick_test/data-fmllr-tri3/train/data/feats_fmllr_train.3.ark:17374923
fbas0_sx397 quick_test/data-fmllr-tri3/train/data/feats_fmllr_train.1.ark:2416324
fhlm0_sx120 quick_test/data-fmllr-tri3/train/data/feats_fmllr_train.1.ark:18077065
mtmn0_sx344 quick_test/data-fmllr-tri3/train/data/feats_fmllr_train.10.ark:7948113
msem1_sx360 quick_test/data-fmllr-tri3/train/data/feats_fmllr_train.9.ark:14007270
mkln0_si1598 quick_test/data-fmllr-tri3/train/data/feats_fmllr_train.7.ark:7492614
mrcg0_sx438 quick_test/data-fmllr-tri3/train/data/feats_fmllr_train.8.ark:13571395
mhmr0_sx399 quick_test/data-fmllr-tri3/train/data/feats_fmllr_train.6.ark:5319820
mjrh1_sx154 quick_test/data-fmllr-tri3/train/data/feats_fmllr_train.7.ark:547833
fkfb0_si1608 quick_test/data-fmllr-tri3/train/data/feats_fmllr_train.2.ark:6430530
fnkl0_si892 quick_test/data-fmllr-tri3/train/data/feats_fmllr_train.3.ark:81348
fsma0_sx271 quick_test/data-fmllr-tri3/train/data/feats_fmllr_train.3.ark:11689775
mwar0_si1045 quick_test/data-fmllr-tri3/train/data/feats_fmllr_train.10.ark:14170707
mbcg0_si486 quick_test/data-fmllr-tri3/train/data/feats_fmllr_train.4.ark:4155871
mlel0_sx256 quick_test/data-fmllr-tri3/train/data/feats_fmllr_train.7.ark:10730782
madc0_sx377 quick_test/data-fmllr-tri3/train/data/feats_fmllr_train.3.ark:17540630
mjdc0_si2165 quick_test/data-fmllr-tri3/train/data/feats_fmllr_train.6.ark:8408490
mtpg0_si2013 quick_test/data-fmllr-tri3/train/data/feats_fmllr_train.10.ark:8868816
mdlc0_sx45 quick_test/data-fmllr-tri3/train/data/feats_fmllr_train.5.ark:3148762
fltm0_sx350 quick_test/data-fmllr-tri3/train/data/feats_fmllr_train.2.ark:14164395
mrjm1_si668 quick_test/data-fmllr-tri3/train/data/feats_fmllr_train.9.ark:2208352
mgjc0_si1256 quick_test/data-fmllr-tri3/train/data/feats_fmllr_train.6.ark:1075385
fcjf0_sx397 quick_test/data-fmllr-tri3/train/data/feats_fmllr_train.1.ark:6661431
falk0_sx96 quick_test/data-fmllr-tri3/train/data/feats_fmllr_train.1.ark:1160151
mrvg0_sx60 quick_test/data-fmllr-tri3/train/data/feats_fmllr_train.9.ark:9954692
fljg0_sx441 quick_test/data-fmllr-tri3/train/data/feats_fmllr_train.2.ark:11942638
msds0_sx267 quick_test/data-fmllr-tri3/train/data/feats_fmllr_train.9.ark:13429586
frjb0_sx347 quick_test/data-fmllr-tri3/train/data/feats_fmllr_train.3.ark:4535975
mpsw0_sx167 quick_test/data-fmllr-tri3/train/data/feats_fmllr_train.8.ark:10738434
ftbw0_sx355 quick_test/data-fmllr-tri3/train/data/feats_fmllr_train.3.ark:14854098
mdbb1_sx196 quick_test/data-fmllr-tri3/train/data/feats_fmllr_train.4.ark:15338426
mjwt0_sx391 quick_test/data-fmllr-tri3/train/data/feats_fmllr_train.7.ark:3210041
faem0_sx132 quick_test/data-fmllr-tri3/train/data/feats_fmllr_train.1.ark:155455
mntw0_sx78 quick_test/data-fmllr-tri3/train/data/feats_fmllr_train.8.ark:5697640
fexm0_sx366 quick_test/data-fmllr-tri3/train/data/feats_fmllr_train.1.ark:16135579
mtpr0_si1600 quick_test/data-fmllr-tri3/train/data/feats_fmllr_train.10.ark:9517702
fsdj0_si485 quick_test/data-fmllr-tri3/train/data/feats_fmllr_train.3.ark:7689790
mwar0_sx415 quick_test/data-fmllr-tri3/train/data/feats_fmllr_train.10.ark:14449911
mjbg0_sx422 quick_test/data-fmllr-tri3/train/data/feats_fmllr_train.6.ark:7932510
msrg0_sx141 quick_test/data-fmllr-tri3/train/data/feats_fmllr_train.9.ark:17134712
mtkd0_si630 quick_test/data-fmllr-tri3/train/data/feats_fmllr_train.10.ark:5774626
mmcc0_sx78 quick_test/data-fmllr-tri3/train/data/feats_fmllr_train.7.ark:15445890
mmjb1_sx58 quick_test/data-fmllr-tri3/train/data/feats_fmllr_train.8.ark:1380855
fmkc0_sx82 quick_test/data-fmllr-tri3/train/data/feats_fmllr_train.2.ark:17085166
mpgh0_sx24 quick_test/data-fmllr-tri3/train/data/feats_fmllr_train.8.ark:7056053
mdhs0_sx360 quick_test/data-fmllr-tri3/train/data/feats_fmllr_train.5.ark:1433920
mmdm0_sx51 quick_test/data-fmllr-tri3/train/data/feats_fmllr_train.7.ark:16577581
fpaz0_si1593 quick_test/data-fmllr-tri3/train/data/feats_fmllr_train.3.ark:2427075
fecd0_sx248 quick_test/data-fmllr-tri3/train/data/feats_fmllr_train.1.ark:14389537
mcdc0_si1922 quick_test/data-fmllr-tri3/train/data/feats_fmllr_train.4.ark:9029409
mjpm1_sx221 quick_test/data-fmllr-tri3/train/data/feats_fmllr_train.6.ark:16992227
msmr0_si1405 quick_test/data-fmllr-tri3/train/data/feats_fmllr_train.9.ark:16303664
mjeb0_sx26 quick_test/data-fmllr-tri3/train/data/feats_fmllr_train.6.ark:10304345
ftbr0_sx291 quick_test/data-fmllr-tri3/train/data/feats_fmllr_train.3.ark:14511987
mbma0_sx412 quick_test/data-fmllr-tri3/train/data/feats_fmllr_train.4.ark:5824234
fkkh0_sx390 quick_test/data-fmllr-tri3/train/data/feats_fmllr_train.2.ark:7254456
mdlm0_sx64 quick_test/data-fmllr-tri3/train/data/feats_fmllr_train.5.ark:4616350
flhd0_sx174 quick_test/data-fmllr-tri3/train/data/feats_fmllr_train.2.ark:10539345
mejl0_si1592 quick_test/data-fmllr-tri3/train/data/feats_fmllr_train.5.ark:12259917
mdlr1_si669 quick_test/data-fmllr-tri3/train/data/feats_fmllr_train.5.ark:5153610
mvjh0_sx206 quick_test/data-fmllr-tri3/train/data/feats_fmllr_train.10.ark:12546210
mjxl0_sx362 quick_test/data-fmllr-tri3/train/data/feats_fmllr_train.7.ark:3842582
fsrh0_sx221 quick_test/data-fmllr-tri3/train/data/feats_fmllr_train.3.ark:13264403
mkdt0_sx443 quick_test/data-fmllr-tri3/train/data/feats_fmllr_train.7.ark:6634206
mrbc0_si1665 quick_test/data-fmllr-tri3/train/data/feats_fmllr_train.8.ark:12855815
msrg0_sx51 quick_test/data-fmllr-tri3/train/data/feats_fmllr_train.9.ark:17305059
fsmm0_sx144 quick_test/data-fmllr-tri3/train/data/feats_fmllr_train.3.ark:12030125
makb0_si1016 quick_test/data-fmllr-tri3/train/data/feats_fmllr_train.4.ark:1498323
mvlo0_si517 quick_test/data-fmllr-tri3/train/data/feats_fmllr_train.10.ark:12786053
mdtb0_si1200 quick_test/data-fmllr-tri3/train/data/feats_fmllr_train.5.ark:9250983
mmam0_sx247 quick_test/data-fmllr-tri3/train/data/feats_fmllr_train.7.ark:14006279
falk0_sx6 quick_test/data-fmllr-tri3/train/data/feats_fmllr_train.1.ark:1121405
mddc0_sx159 quick_test/data-fmllr-tri3/train/data/feats_fmllr_train.4.ark:16793321
flja0_si1078 quick_test/data-fmllr-tri3/train/data/feats_fmllr_train.2.ark:10780920
mkjo0_si887 quick_test/data-fmllr-tri3/train/data/feats_fmllr_train.7.ark:7230052
mprb0_si1205 quick_test/data-fmllr-tri3/train/data/feats_fmllr_train.8.ark:8928844
fsdc0_sx142 quick_test/data-fmllr-tri3/train/data/feats_fmllr_train.3.ark:7355680
fljd0_sx256 quick_test/data-fmllr-tri3/train/data/feats_fmllr_train.2.ark:11412287
fskp0_sx198 quick_test/data-fmllr-tri3/train/data/feats_fmllr_train.3.ark:10966646
fbmh0_sx326 quick_test/data-fmllr-tri3/train/data/feats_fmllr_train.1.ark:4337836
mtqc0_sx91 quick_test/data-fmllr-tri3/train/data/feats_fmllr_train.10.ark:10417948
mwrp0_si1443 quick_test/data-fmllr-tri3/train/data/feats_fmllr_train.10.ark:16419533
mljc0_sx415 quick_test/data-fmllr-tri3/train/data/feats_fmllr_train.7.ark:11238733
mtjs0_si1822 quick_test/data-fmllr-tri3/train/data/feats_fmllr_train.10.ark:4887605
mjxa0_si1507 quick_test/data-fmllr-tri3/train/data/feats_fmllr_train.7.ark:3246709
mjxa0_sx157 quick_test/data-fmllr-tri3/train/data/feats_fmllr_train.7.ark:3392071
mdhs0_sx90 quick_test/data-fmllr-tri3/train/data/feats_fmllr_train.5.ark:1524053
mrfl0_sx436 quick_test/data-fmllr-tri3/train/data/feats_fmllr_train.8.ark:17399327
fpac0_sx121 quick_test/data-fmllr-tri3/train/data/feats_fmllr_train.3.ark:1377865
mtrc0_sx170 quick_test/data-fmllr-tri3/train/data/feats_fmllr_train.10.ark:10604777
mdcm0_sx400 quick_test/data-fmllr-tri3/train/data/feats_fmllr_train.4.ark:16606491
mejs0_sx70 quick_test/data-fmllr-tri3/train/data/feats_fmllr_train.5.ark:12958403
mdps0_si1651 quick_test/data-fmllr-tri3/train/data/feats_fmllr_train.5.ark:7415338
mtjg0_sx80 quick_test/data-fmllr-tri3/train/data/feats_fmllr_train.10.ark:4438052
mrfk0_si1706 quick_test/data-fmllr-tri3/train/data/feats_fmllr_train.8.ark:16782494
mefg0_sx375 quick_test/data-fmllr-tri3/train/data/feats_fmllr_train.5.ark:11770074
msrr0_si1761 quick_test/data-fmllr-tri3/train/data/feats_fmllr_train.9.ark:17384795
fjlr0_sx241 quick_test/data-fmllr-tri3/train/data/feats_fmllr_train.2.ark:2187931
msds0_sx357 quick_test/data-fmllr-tri3/train/data/feats_fmllr_train.9.ark:13497133
feme0_sx65 quick_test/data-fmllr-tri3/train/data/feats_fmllr_train.1.ark:15377251
ftmg0_sx452 quick_test/data-fmllr-tri3/train/data/feats_fmllr_train.3.ark:15658718
mjra0_si1236 quick_test/data-fmllr-tri3/train/data/feats_fmllr_train.6.ark:17223375
mjbg0_si1724 quick_test/data-fmllr-tri3/train/data/feats_fmllr_train.6.ark:7700374
fmkf0_si1018 quick_test/data-fmllr-tri3/train/data/feats_fmllr_train.2.ark:17130474
mgsl0_si797 quick_test/data-fmllr-tri3/train/data/feats_fmllr_train.6.ark:2809906
fkfb0_sx78 quick_test/data-fmllr-tri3/train/data/feats_fmllr_train.2.ark:6850879
mdbb1_si2056 quick_test/data-fmllr-tri3/train/data/feats_fmllr_train.4.ark:15208106
fjkl0_si1562 quick_test/data-fmllr-tri3/train/data/feats_fmllr_train.2.ark:1247867
feeh0_si1112 quick_test/data-fmllr-tri3/train/data/feats_fmllr_train.1.ark:14596205
mdlc1_si1435 quick_test/data-fmllr-tri3/train/data/feats_fmllr_train.5.ark:3195510
fjdm2_si1964 quick_test/data-fmllr-tri3/train/data/feats_fmllr_train.2.ark:42601
mrlj0_sx70 quick_test/data-fmllr-tri3/train/data/feats_fmllr_train.9.ark:4044712
fcmm0_sx363 quick_test/data-fmllr-tri3/train/data/feats_fmllr_train.1.ark:8416384
mjrh0_si1125 quick_test/data-fmllr-tri3/train/data/feats_fmllr_train.7.ark:13
mrjh0_sx79 quick_test/data-fmllr-tri3/train/data/feats_fmllr_train.9.ark:1642131
mclm0_sx286 quick_test/data-fmllr-tri3/train/data/feats_fmllr_train.4.ark:12010583
majp0_sx174 quick_test/data-fmllr-tri3/train/data/feats_fmllr_train.4.ark:1219468
fgrw0_sx252 quick_test/data-fmllr-tri3/train/data/feats_fmllr_train.1.ark:17756715
fbcg1_si1612 quick_test/data-fmllr-tri3/train/data/feats_fmllr_train.1.ark:2469312
mtpp0_sx338 quick_test/data-fmllr-tri3/train/data/feats_fmllr_train.10.ark:9379701
mtju0_sx400 quick_test/data-fmllr-tri3/train/data/feats_fmllr_train.10.ark:5623023
madc0_si1367 quick_test/data-fmllr-tri3/train/data/feats_fmllr_train.3.ark:17176121
mbwp0_sx79 quick_test/data-fmllr-tri3/train/data/feats_fmllr_train.4.ark:8056281
mapv0_sx393 quick_test/data-fmllr-tri3/train/data/feats_fmllr_train.4.ark:2621347
mrlk0_sx393 quick_test/data-fmllr-tri3/train/data/feats_fmllr_train.9.ark:4740027
mtpf0_sx425 quick_test/data-fmllr-tri3/train/data/feats_fmllr_train.10.ark:8751774
flma0_si1873 quick_test/data-fmllr-tri3/train/data/feats_fmllr_train.2.ark:12513176
fbcg1_si2242 quick_test/data-fmllr-tri3/train/data/feats_fmllr_train.1.ark:2493020
fsdj0_sx395 quick_test/data-fmllr-tri3/train/data/feats_fmllr_train.3.ark:7872484
msdb0_sx107 quick_test/data-fmllr-tri3/train/data/feats_fmllr_train.9.ark:12648164
mcxm0_sx91 quick_test/data-fmllr-tri3/train/data/feats_fmllr_train.4.ark:14324551
fmem0_sx387 quick_test/data-fmllr-tri3/train/data/feats_fmllr_train.2.ark:15466219
majp0_sx84 quick_test/data-fmllr-tri3/train/data/feats_fmllr_train.4.ark:1439095
mvrw0_sx225 quick_test/data-fmllr-tri3/train/data/feats_fmllr_train.10.ark:13271444
mbar0_sx149 quick_test/data-fmllr-tri3/train/data/feats_fmllr_train.4.ark:3512771
fcke0_sx31 quick_test/data-fmllr-tri3/train/data/feats_fmllr_train.1.ark:7348718
mjdm0_si1340 quick_test/data-fmllr-tri3/train/data/feats_fmllr_train.6.ark:9616153
fkfb0_si978 quick_test/data-fmllr-tri3/train/data/feats_fmllr_train.2.ark:6541465
ftbr0_si1402 quick_test/data-fmllr-tri3/train/data/feats_fmllr_train.3.ark:14212945
fsah0_si1874 quick_test/data-fmllr-tri3/train/data/feats_fmllr_train.3.ark:5598437
mbef0_si651 quick_test/data-fmllr-tri3/train/data/feats_fmllr_train.4.ark:4562035
msfv0_si632 quick_test/data-fmllr-tri3/train/data/feats_fmllr_train.9.ark:15078561
feeh0_si1742 quick_test/data-fmllr-tri3/train/data/feats_fmllr_train.1.ark:14652553
mjpm0_si1998 quick_test/data-fmllr-tri3/train/data/feats_fmllr_train.6.ark:16506809
mvlo0_sx67 quick_test/data-fmllr-tri3/train/data/feats_fmllr_train.10.ark:13034027
msfh0_sx226 quick_test/data-fmllr-tri3/train/data/feats_fmllr_train.9.ark:14763358
mjda0_sx221 quick_test/data-fmllr-tri3/train/data/feats_fmllr_train.6.ark:8176674
mdac0_sx451 quick_test/data-fmllr-tri3/train/data/feats_fmllr_train.4.ark:14668902
mcal0_sx148 quick_test/data-fmllr-tri3/train/data/feats_fmllr_train.4.ark:8728286
mcxm0_si721 quick_test/data-fmllr-tri3/train/data/feats_fmllr_train.4.ark:14093697
mtjm0_si1226 quick_test/data-fmllr-tri3/train/data/feats_fmllr_train.10.ark:4469440
mdlr0_sx423 quick_test/data-fmllr-tri3/train/data/feats_fmllr_train.5.ark:4960221
mvrw0_si2115 quick_test/data-fmllr-tri3/train/data/feats_fmllr_train.10.ark:13157123
makr0_sx92 quick_test/data-fmllr-tri3/train/data/feats_fmllr_train.4.ark:2209770
mmwb0_sx269 quick_test/data-fmllr-tri3/train/data/feats_fmllr_train.8.ark:3694078
mkes0_sx83 quick_test/data-fmllr-tri3/train/data/feats_fmllr_train.7.ark:7105329
mmvp0_si654 quick_test/data-fmllr-tri3/train/data/feats_fmllr_train.8.ark:3060686
mmpm0_si2321 quick_test/data-fmllr-tri3/train/data/feats_fmllr_train.8.ark:1849636
mdlb0_sx226 quick_test/data-fmllr-tri3/train/data/feats_fmllr_train.5.ark:2562865
mrav0_si2268 quick_test/data-fmllr-tri3/train/data/feats_fmllr_train.8.ark:12593253
mcew0_sx452 quick_test/data-fmllr-tri3/train/data/feats_fmllr_train.4.ark:10857932
fecd0_sx338 quick_test/data-fmllr-tri3/train/data/feats_fmllr_train.1.ark:14438044
mrai0_sx432 quick_test/data-fmllr-tri3/train/data/feats_fmllr_train.8.ark:12031325
mrlj0_si1420 quick_test/data-fmllr-tri3/train/data/feats_fmllr_train.9.ark:3714123
fmjf0_si1884 quick_test/data-fmllr-tri3/train/data/feats_fmllr_train.2.ark:15956250
mtlb0_si504 quick_test/data-fmllr-tri3/train/data/feats_fmllr_train.10.ark:6598420
fspm0_sx431 quick_test/data-fmllr-tri3/train/data/feats_fmllr_train.3.ark:13040880
mjfr0_si1605 quick_test/data-fmllr-tri3/train/data/feats_fmllr_train.6.ark:11522678
mtlb0_sx144 quick_test/data-fmllr-tri3/train/data/feats_fmllr_train.10.ark:6638447
mbom0_sx311 quick_test/data-fmllr-tri3/train/data/feats_fmllr_train.4.ark:6923286
mrdd0_sx60 quick_test/data-fmllr-tri3/train/data/feats_fmllr_train.8.ark:14357136
fjkl0_sx392 quick_test/data-fmllr-tri3/train/data/feats_fmllr_train.2.ark:1564696
mtqc0_sx361 quick_test/data-fmllr-tri3/train/data/feats_fmllr_train.10.ark:10276775
mrds0_sx357 quick_test/data-fmllr-tri3/train/data/feats_fmllr_train.8.ark:15008237
mdcd0_sx245 quick_test/data-fmllr-tri3/train/data/feats_fmllr_train.4.ark:16090514
mjrg0_sx106 quick_test/data-fmllr-tri3/train/data/feats_fmllr_train.6.ark:17754074
fclt0_sx448 quick_test/data-fmllr-tri3/train/data/feats_fmllr_train.1.ark:7684776
mcss0_si1380 quick_test/data-fmllr-tri3/train/data/feats_fmllr_train.4.ark:12832672
mfrm0_sx345 quick_test/data-fmllr-tri3/train/data/feats_fmllr_train.5.ark:14988611
mwsb0_si2256 quick_test/data-fmllr-tri3/train/data/feats_fmllr_train.10.ark:16839937
mrsp0_sx79 quick_test/data-fmllr-tri3/train/data/feats_fmllr_train.9.ark:8711321
mrtj0_sx232 quick_test/data-fmllr-tri3/train/data/feats_fmllr_train.9.ark:9429915
mrre0_sx74 quick_test/data-fmllr-tri3/train/data/feats_fmllr_train.9.ark:7824806
mtdp0_sx81 quick_test/data-fmllr-tri3/train/data/feats_fmllr_train.10.ark:3638259
fntb0_sx393 quick_test/data-fmllr-tri3/train/data/feats_fmllr_train.3.ark:702978
mfrm0_si1785 quick_test/data-fmllr-tri3/train/data/feats_fmllr_train.5.ark:14858930
mgjc0_sx345 quick_test/data-fmllr-tri3/train/data/feats_fmllr_train.6.ark:1331682
mtrr0_sx288 quick_test/data-fmllr-tri3/train/data/feats_fmllr_train.10.ark:11079634
mreh1_sx69 quick_test/data-fmllr-tri3/train/data/feats_fmllr_train.8.ark:15912085
mrlk0_si843 quick_test/data-fmllr-tri3/train/data/feats_fmllr_train.9.ark:4534933
msvs0_sx128 quick_test/data-fmllr-tri3/train/data/feats_fmllr_train.10.ark:200255
fear0_si1882 quick_test/data-fmllr-tri3/train/data/feats_fmllr_train.1.ark:13784759
mmaa0_sx215 quick_test/data-fmllr-tri3/train/data/feats_fmllr_train.7.ark:12818907
fjrb0_si672 quick_test/data-fmllr-tri3/train/data/feats_fmllr_train.2.ark:2480734
mrab0_sx54 quick_test/data-fmllr-tri3/train/data/feats_fmllr_train.8.ark:11271397
fklc0_si2245 quick_test/data-fmllr-tri3/train/data/feats_fmllr_train.2.ark:7334352
mmvp0_sx204 quick_test/data-fmllr-tri3/train/data/feats_fmllr_train.8.ark:3217380
mesj0_sx277 quick_test/data-fmllr-tri3/train/data/feats_fmllr_train.5.ark:13550757
flmc0_si742 quick_test/data-fmllr-tri3/train/data/feats_fmllr_train.2.ark:12913740
mmdb0_sx267 quick_test/data-fmllr-tri3/train/data/feats_fmllr_train.7.ark:15657067
fcdr1_sx196 quick_test/data-fmllr-tri3/train/data/feats_fmllr_train.1.ark:5917103
mmgg0_si1079 quick_test/data-fmllr-tri3/train/data/feats_fmllr_train.8.ark:354791
mrds0_sx177 quick_test/data-fmllr-tri3/train/data/feats_fmllr_train.8.ark:14927543
mrlk0_si2140 quick_test/data-fmllr-tri3/train/data/feats_fmllr_train.9.ark:4472826
flag0_sx204 quick_test/data-fmllr-tri3/train/data/feats_fmllr_train.2.ark:9459359
