msfh0_sx46 quick_test/mfcc/raw_mfcc_train.4.ark:2029114
mmea0_sx128 quick_test/mfcc/raw_mfcc_train.3.ark:2979270
mrjb1_sx390 quick_test/mfcc/raw_mfcc_train.4.ark:873764
mrsp0_si799 quick_test/mfcc/raw_mfcc_train.4.ark:1486375
mefg0_si465 quick_test/mfcc/raw_mfcc_train.2.ark:3178439
mppc0_si2042 quick_test/mfcc/raw_mfcc_train.3.ark:3749949
fmju0_sx129 quick_test/mfcc/raw_mfcc_train.1.ark:2965752
mcal0_sx238 quick_test/mfcc/raw_mfcc_train.2.ark:1491946
mdpb0_si866 quick_test/mfcc/raw_mfcc_train.2.ark:2788271
mgak0_sx226 quick_test/mfcc/raw_mfcc_train.2.ark:3661387
mrgs0_sx96 quick_test/mfcc/raw_mfcc_train.4.ark:807245
mrmb0_sx141 quick_test/mfcc/raw_mfcc_train.4.ark:1219071
mkjo0_si1517 quick_test/mfcc/raw_mfcc_train.3.ark:2113054
fsdc0_sx52 quick_test/mfcc/raw_mfcc_train.1.ark:3759813
fjrp1_si1432 quick_test/mfcc/raw_mfcc_train.1.ark:1813417
fsls0_si1056 quick_test/mfcc/raw_mfcc_train.2.ark:176111
mmam0_sx247 quick_test/mfcc/raw_mfcc_train.3.ark:2689254
mrwa0_si973 quick_test/mfcc/raw_mfcc_train.4.ark:1622388
mwre0_si1687 quick_test/mfcc/raw_mfcc_train.4.ark:3650737
mtcs0_sx172 quick_test/mfcc/raw_mfcc_train.4.ark:2515593
mbsb0_sx3 quick_test/mfcc/raw_mfcc_train.2.ark:1360987
mclm0_sx16 quick_test/mfcc/raw_mfcc_train.2.ark:1759188
mjxa0_si877 quick_test/mfcc/raw_mfcc_train.3.ark:1794092
mklr0_sx429 quick_test/mfcc/raw_mfcc_train.3.ark:2194735
mpsw0_sx77 quick_test/mfcc/raw_mfcc_train.4.ark:181211
mdwh0_sx305 quick_test/mfcc/raw_mfcc_train.2.ark:3078381
mgxp0_sx7 quick_test/mfcc/raw_mfcc_train.3.ark:291864
mejl0_si1592 quick_test/mfcc/raw_mfcc_train.2.ark:3249023
mjdg0_sx232 quick_test/mfcc/raw_mfcc_train.3.ark:793313
mwch0_si1895 quick_test/mfcc/raw_mfcc_train.4.ark:3524316
fsdc0_sx142 quick_test/mfcc/raw_mfcc_train.1.ark:3744979
mjeb0_sx170 quick_test/mfcc/raw_mfcc_train.3.ark:855430
mmsm0_si1106 quick_test/mfcc/raw_mfcc_train.3.ark:3241724
mwad0_sx342 quick_test/mfcc/raw_mfcc_train.4.ark:3479353
mmdm0_sx231 quick_test/mfcc/raw_mfcc_train.3.ark:2893397
mgaf0_si1282 quick_test/mfcc/raw_mfcc_train.2.ark:3583777
fgdp0_sx178 quick_test/mfcc/raw_mfcc_train.1.ark:1407473
mdhl0_si809 quick_test/mfcc/raw_mfcc_train.2.ark:2295520
mtas0_sx125 quick_test/mfcc/raw_mfcc_train.4.ark:2387367
mdrd0_sx302 quick_test/mfcc/raw_mfcc_train.2.ark:2895024
fajw0_sx183 quick_test/mfcc/raw_mfcc_train.1.ark:49518
mjdg0_sx142 quick_test/mfcc/raw_mfcc_train.3.ark:789120
mges0_sx401 quick_test/mfcc/raw_mfcc_train.3.ark:83176
mtju0_si2269 quick_test/mfcc/raw_mfcc_train.4.ark:2749406
mjwt0_sx391 quick_test/mfcc/raw_mfcc_train.3.ark:1782239
fsjg0_sx130 quick_test/mfcc/raw_mfcc_train.1.ark:3840635
mtat0_sx390 quick_test/mfcc/raw_mfcc_train.4.ark:2431313
mtjm0_sx146 quick_test/mfcc/raw_mfcc_train.4.ark:2688752
mmvp0_si1284 quick_test/mfcc/raw_mfcc_train.3.ark:3275386
mhbs0_si1575 quick_test/mfcc/raw_mfcc_train.3.ark:299444
mjpm1_sx311 quick_test/mfcc/raw_mfcc_train.3.ark:1432749
mrjt0_sx418 quick_test/mfcc/raw_mfcc_train.4.ark:1007600
fvmh0_si1466 quick_test/mfcc/raw_mfcc_train.2.ark:629895
mreh1_si1599 quick_test/mfcc/raw_mfcc_train.4.ark:569931
flet0_sx417 quick_test/mfcc/raw_mfcc_train.1.ark:2448382
mlbc0_si609 quick_test/mfcc/raw_mfcc_train.3.ark:2372046
flkm0_si620 quick_test/mfcc/raw_mfcc_train.1.ark:2596352
mzmb0_sx266 quick_test/mfcc/raw_mfcc_train.4.ark:3794465
msmr0_sx415 quick_test/mfcc/raw_mfcc_train.4.ark:2161896
fcmm0_sx93 quick_test/mfcc/raw_mfcc_train.1.ark:716595
mtcs0_si1972 quick_test/mfcc/raw_mfcc_train.4.ark:2504105
mkls0_sx267 quick_test/mfcc/raw_mfcc_train.3.ark:2220090
mjdc0_sx441 quick_test/mfcc/raw_mfcc_train.3.ark:728200
mpgr1_si1499 quick_test/mfcc/raw_mfcc_train.3.ark:3659367
megj0_sx3 quick_test/mfcc/raw_mfcc_train.2.ark:3237094
feeh0_sx302 quick_test/mfcc/raw_mfcc_train.1.ark:1247301
meal0_si1547 quick_test/mfcc/raw_mfcc_train.2.ark:3123972
mjai0_sx344 quick_test/mfcc/raw_mfcc_train.3.ark:633523
mprd0_sx351 quick_test/mfcc/raw_mfcc_train.4.ark:78289
flhd0_sx444 quick_test/mfcc/raw_mfcc_train.1.ark:2478054
fjen0_si1677 quick_test/mfcc/raw_mfcc_train.1.ark:1620030
mrtc0_sx288 quick_test/mfcc/raw_mfcc_train.4.ark:1536197
mstf0_sx226 quick_test/mfcc/raw_mfcc_train.4.ark:2282293
mjxl0_sx362 quick_test/mfcc/raw_mfcc_train.3.ark:1835523
msvs0_sx38 quick_test/mfcc/raw_mfcc_train.4.ark:2328773
mjrp0_sx405 quick_test/mfcc/raw_mfcc_train.3.ark:1629503
mgrl0_si1497 quick_test/mfcc/raw_mfcc_train.3.ark:126759
mjxa0_sx157 quick_test/mfcc/raw_mfcc_train.3.ark:1797570
msas0_sx296 quick_test/mfcc/raw_mfcc_train.4.ark:1763330
fpmy0_si1153 quick_test/mfcc/raw_mfcc_train.1.ark:3426853
mwrp0_si1443 quick_test/mfcc/raw_mfcc_train.4.ark:3678282
mwgr0_sx256 quick_test/mfcc/raw_mfcc_train.4.ark:3630785
mjhi0_sx68 quick_test/mfcc/raw_mfcc_train.3.ark:1033139
mbgt0_sx81 quick_test/mfcc/raw_mfcc_train.2.ark:1187810
mmlm0_si1527 quick_test/mfcc/raw_mfcc_train.3.ark:3146809
mrlr0_sx386 quick_test/mfcc/raw_mfcc_train.4.ark:1204117
fsjs0_sx91 quick_test/mfcc/raw_mfcc_train.2.ark:45199
mges0_sx311 quick_test/mfcc/raw_mfcc_train.3.ark:77345
mdsj0_si2092 quick_test/mfcc/raw_mfcc_train.2.ark:2913318
msmr0_sx145 quick_test/mfcc/raw_mfcc_train.4.ark:2150929
mjsr0_sx344 quick_test/mfcc/raw_mfcc_train.3.ark:1663574
fleh0_sx151 quick_test/mfcc/raw_mfcc_train.1.ark:2404156
mdlm0_si1864 quick_test/mfcc/raw_mfcc_train.2.ark:2584965
mgrl0_sx417 quick_test/mfcc/raw_mfcc_train.3.ark:151151
mrlk0_sx393 quick_test/mfcc/raw_mfcc_train.4.ark:1172769
fgcs0_sx406 quick_test/mfcc/raw_mfcc_train.1.ark:1387508
mbar0_si689 quick_test/mfcc/raw_mfcc_train.2.ark:1044821
msms0_sx83 quick_test/mfcc/raw_mfcc_train.4.ark:2197813
mrfk0_si2336 quick_test/mfcc/raw_mfcc_train.4.ark:678082
fceg0_sx168 quick_test/mfcc/raw_mfcc_train.1.ark:519704
medr0_si744 quick_test/mfcc/raw_mfcc_train.2.ark:3158534
mwch0_si2252 quick_test/mfcc/raw_mfcc_train.4.ark:3526092
mmeb0_sx367 quick_test/mfcc/raw_mfcc_train.3.ark:3015221
fsrh0_sx41 quick_test/mfcc/raw_mfcc_train.2.ark:372590
fmmh0_si1537 quick_test/mfcc/raw_mfcc_train.1.ark:3053468
mmcc0_sx168 quick_test/mfcc/raw_mfcc_train.3.ark:2794081
mtab0_sx222 quick_test/mfcc/raw_mfcc_train.4.ark:2359354
mmvp0_sx347 quick_test/mfcc/raw_mfcc_train.3.ark:3303860
mmws0_si888 quick_test/mfcc/raw_mfcc_train.3.ark:3363395
mpsw0_sx167 quick_test/mfcc/raw_mfcc_train.4.ark:167925
fpad0_si716 quick_test/mfcc/raw_mfcc_train.1.ark:3270220
fdml0_sx339 quick_test/mfcc/raw_mfcc_train.1.ark:964913
fmjb0_sx7 quick_test/mfcc/raw_mfcc_train.1.ark:2910552
milb0_sx363 quick_test/mfcc/raw_mfcc_train.3.ark:537744
mjrg0_sx286 quick_test/mfcc/raw_mfcc_train.3.ark:1498395
mlel0_sx166 quick_test/mfcc/raw_mfcc_train.3.ark:2408822
mclk0_sx40 quick_test/mfcc/raw_mfcc_train.2.ark:1736291
mfxv0_sx375 quick_test/mfcc/raw_mfcc_train.2.ark:3579544
fvfb0_sx402 quick_test/mfcc/raw_mfcc_train.2.ark:591045
fklc0_sx85 quick_test/mfcc/raw_mfcc_train.1.ark:2224426
mjlb0_sx356 quick_test/mfcc/raw_mfcc_train.3.ark:1191973
mjrk0_sx340 quick_test/mfcc/raw_mfcc_train.3.ark:1596718
msat1_sx83 quick_test/mfcc/raw_mfcc_train.4.ark:1823447
mjpm1_sx131 quick_test/mfcc/raw_mfcc_train.3.ark:1425676
mlbc0_si1869 quick_test/mfcc/raw_mfcc_train.3.ark:2369205
msvs0_si938 quick_test/mfcc/raw_mfcc_train.4.ark:2309194
mjac0_sx71 quick_test/mfcc/raw_mfcc_train.3.ark:573180
fjxm0_si1211 quick_test/mfcc/raw_mfcc_train.1.ark:1950574
fmbg0_sx80 quick_test/mfcc/raw_mfcc_train.1.ark:2845484
ftbw0_si715 quick_test/mfcc/raw_mfcc_train.2.ark:476511
mdsj0_sx112 quick_test/mfcc/raw_mfcc_train.2.ark:2919832
msrg0_si591 quick_test/mfcc/raw_mfcc_train.4.ark:2208548
mdks0_sx346 quick_test/mfcc/raw_mfcc_train.2.ark:2399687
mdlh0_si574 quick_test/mfcc/raw_mfcc_train.2.ark:2551381
fmem0_si1377 quick_test/mfcc/raw_mfcc_train.1.ark:2848339
mejs0_si1870 quick_test/mfcc/raw_mfcc_train.2.ark:3283278
mrlj1_sx231 quick_test/mfcc/raw_mfcc_train.4.ark:1131131
mdac0_sx451 quick_test/mfcc/raw_mfcc_train.2.ark:1987725
mdcd0_si1415 quick_test/mfcc/raw_mfcc_train.2.ark:2090348
feme0_sx65 quick_test/mfcc/raw_mfcc_train.1.ark:1291376
fhxs0_si2335 quick_test/mfcc/raw_mfcc_train.1.ark:1556820
mkes0_sx83 quick_test/mfcc/raw_mfcc_train.3.ark:2109523
fsdc0_sx322 quick_test/mfcc/raw_mfcc_train.1.ark:3753248
mdtb0_sx300 quick_test/mfcc/raw_mfcc_train.2.ark:3012941
maeo0_sx66 quick_test/mfcc/raw_mfcc_train.2.ark:813842
mmdm1_sx63 quick_test/mfcc/raw_mfcc_train.3.ark:2938272
fljd0_sx76 quick_test/mfcc/raw_mfcc_train.1.ark:2549584
mdhl0_sx449 quick_test/mfcc/raw_mfcc_train.2.ark:2311382
mejl0_si962 quick_test/mfcc/raw_mfcc_train.2.ark:3255018
mrmg0_sx180 quick_test/mfcc/raw_mfcc_train.4.ark:1250134
mejs0_si610 quick_test/mfcc/raw_mfcc_train.2.ark:3286392
mtjg0_si890 quick_test/mfcc/raw_mfcc_train.4.ark:2646386
fbjl0_sx382 quick_test/mfcc/raw_mfcc_train.1.ark:303245
mreh1_sx339 quick_test/mfcc/raw_mfcc_train.4.ark:594498
mjrp0_si585 quick_test/mfcc/raw_mfcc_train.3.ark:1614629
mwre0_sx67 quick_test/mfcc/raw_mfcc_train.4.ark:3672307
mmeb0_si1987 quick_test/mfcc/raw_mfcc_train.3.ark:3001127
flod0_sx117 quick_test/mfcc/raw_mfcc_train.1.ark:2733836
fsgf0_si2187 quick_test/mfcc/raw_mfcc_train.1.ark:3795922
mgag0_sx151 quick_test/mfcc/raw_mfcc_train.2.ark:3625364
flma0_sx253 quick_test/mfcc/raw_mfcc_train.1.ark:2643581
feac0_sx435 quick_test/mfcc/raw_mfcc_train.1.ark:1145945
mrwa0_si2233 quick_test/mfcc/raw_mfcc_train.4.ark:1617753
fsak0_sx400 quick_test/mfcc/raw_mfcc_train.1.ark:3655706
fsjk1_sx215 quick_test/mfcc/raw_mfcc_train.2.ark:12
mkag0_si2239 quick_test/mfcc/raw_mfcc_train.3.ark:1855000
mjeb0_si1916 quick_test/mfcc/raw_mfcc_train.3.ark:848448
mklw0_si1844 quick_test/mfcc/raw_mfcc_train.3.ark:2275030
mrso0_si1659 quick_test/mfcc/raw_mfcc_train.4.ark:1443579
mdlr0_sx423 quick_test/mfcc/raw_mfcc_train.2.ark:2635146
mrds0_si1167 quick_test/mfcc/raw_mfcc_train.4.ark:508443
msdh0_si980 quick_test/mfcc/raw_mfcc_train.4.ark:1854338
fgcs0_si2116 quick_test/mfcc/raw_mfcc_train.1.ark:1368012
mgrp0_sx57 quick_test/mfcc/raw_mfcc_train.3.ark:189564
mdem0_si800 quick_test/mfcc/raw_mfcc_train.2.ark:2257438
mjdc0_si2165 quick_test/mfcc/raw_mfcc_train.3.ark:707079
mgxp0_si1087 quick_test/mfcc/raw_mfcc_train.3.ark:264277
mrlr0_sx206 quick_test/mfcc/raw_mfcc_train.4.ark:1193138
fdtd0_si931 quick_test/mfcc/raw_mfcc_train.1.ark:1065839
mjee0_si1237 quick_test/mfcc/raw_mfcc_train.3.ark:910564
mrfk0_sx176 quick_test/mfcc/raw_mfcc_train.4.ark:680949
mrkm0_si1267 quick_test/mfcc/raw_mfcc_train.4.ark:1017416
mjae0_si1999 quick_test/mfcc/raw_mfcc_train.3.ark:581100
mhrm0_sx328 quick_test/mfcc/raw_mfcc_train.3.ark:467583
fjxp0_sx42 quick_test/mfcc/raw_mfcc_train.1.ark:2014510
mtpg0_sx123 quick_test/mfcc/raw_mfcc_train.4.ark:3051248
feac0_sx255 quick_test/mfcc/raw_mfcc_train.1.ark:1138820
maeb0_sx90 quick_test/mfcc/raw_mfcc_train.2.ark:782454
mpar0_si946 quick_test/mfcc/raw_mfcc_train.3.ark:3515076
fksr0_si1117 quick_test/mfcc/raw_mfcc_train.1.ark:2292799
mrai0_sx342 quick_test/mfcc/raw_mfcc_train.4.ark:272174
fkfb0_sx78 quick_test/mfcc/raw_mfcc_train.1.ark:2156023
msfv0_sx272 quick_test/mfcc/raw_mfcc_train.4.ark:2051134
mkrg0_sx31 quick_test/mfcc/raw_mfcc_train.3.ark:2323579
mmab1_sx414 quick_test/mfcc/raw_mfcc_train.3.ark:2630471
mrxb0_si2215 quick_test/mfcc/raw_mfcc_train.4.ark:1676991
mmws1_sx351 quick_test/mfcc/raw_mfcc_train.3.ark:3403331
mwad0_sx162 quick_test/mfcc/raw_mfcc_train.4.ark:3473346
majp0_si2334 quick_test/mfcc/raw_mfcc_train.2.ark:852455
fdtd0_sx301 quick_test/mfcc/raw_mfcc_train.1.ark:1077989
fskl0_sx449 quick_test/mfcc/raw_mfcc_train.2.ark:137820
mjsr0_sx164 quick_test/mfcc/raw_mfcc_train.3.ark:1654863
mcre0_si1121 quick_test/mfcc/raw_mfcc_train.2.ark:1801615
mtdp0_sx261 quick_test/mfcc/raw_mfcc_train.4.ark:2589022
mgxp0_si457 quick_test/mfcc/raw_mfcc_train.3.ark:270316
fbmj0_sx246 quick_test/mfcc/raw_mfcc_train.1.ark:392940
mdks0_si1066 quick_test/mfcc/raw_mfcc_train.2.ark:2380293
fjsp0_si804 quick_test/mfcc/raw_mfcc_train.1.ark:1895707
fssb0_sx182 quick_test/mfcc/raw_mfcc_train.2.ark:390119
fkde0_sx331 quick_test/mfcc/raw_mfcc_train.1.ark:2075946
mmws1_si1071 quick_test/mfcc/raw_mfcc_train.3.ark:3387305
mdas0_sx276 quick_test/mfcc/raw_mfcc_train.2.ark:2015490
mtpr0_sx70 quick_test/mfcc/raw_mfcc_train.4.ark:3132262
mapv0_sx303 quick_test/mfcc/raw_mfcc_train.2.ark:967971
fhlm0_sx300 quick_test/mfcc/raw_mfcc_train.1.ark:1527285
mmgg0_sx179 quick_test/mfcc/raw_mfcc_train.3.ark:3067477
mwsh0_sx166 quick_test/mfcc/raw_mfcc_train.4.ark:3754062
mdma0_sx80 quick_test/mfcc/raw_mfcc_train.2.ark:2712981
fsjg0_si1570 quick_test/mfcc/raw_mfcc_train.1.ark:3824402
mklr0_si1059 quick_test/mfcc/raw_mfcc_train.3.ark:2173319
fmjf0_sx84 quick_test/mfcc/raw_mfcc_train.1.ark:2946885
medr0_si1374 quick_test/mfcc/raw_mfcc_train.2.ark:3150004
mpsw0_sx257 quick_test/mfcc/raw_mfcc_train.4.ark:174347
mrlk0_sx123 quick_test/mfcc/raw_mfcc_train.4.ark:1159807
mtpp0_sx428 quick_test/mfcc/raw_mfcc_train.4.ark:3090469
mtjs0_sx292 quick_test/mfcc/raw_mfcc_train.4.ark:2733484
msah1_sx239 quick_test/mfcc/raw_mfcc_train.4.ark:1719840
mrdm0_si1595 quick_test/mfcc/raw_mfcc_train.4.ark:482212
mjrh1_sx64 quick_test/mfcc/raw_mfcc_train.3.ark:1573963
marw0_sx376 quick_test/mfcc/raw_mfcc_train.2.ark:1034099
mjjm0_sx287 quick_test/mfcc/raw_mfcc_train.3.ark:1130934
mkls1_sx105 quick_test/mfcc/raw_mfcc_train.3.ark:2250469
flhd0_si1827 quick_test/mfcc/raw_mfcc_train.1.ark:2459506
mabc0_sx331 quick_test/mfcc/raw_mfcc_train.2.ark:677685
feac0_sx345 quick_test/mfcc/raw_mfcc_train.1.ark:1142246
mtat1_sx239 quick_test/mfcc/raw_mfcc_train.4.ark:2453229
mmcc0_si1968 quick_test/mfcc/raw_mfcc_train.3.ark:2786748
mjma0_sx55 quick_test/mfcc/raw_mfcc_train.3.ark:1292193
fpjf0_si1676 quick_test/mfcc/raw_mfcc_train.1.ark:3374054
flet0_si1137 quick_test/mfcc/raw_mfcc_train.1.ark:2424913
marw0_sx349 quick_test/mfcc/raw_mfcc_train.2.ark:1027319
freh0_si1315 quick_test/mfcc/raw_mfcc_train.1.ark:3464012
mhxl0_si1772 quick_test/mfcc/raw_mfcc_train.3.ark:481241
flmk0_si1229 quick_test/mfcc/raw_mfcc_train.1.ark:2693542
fkfb0_sx168 quick_test/mfcc/raw_mfcc_train.1.ark:2134949
mjfr0_si1605 quick_test/mfcc/raw_mfcc_train.3.ark:968606
fpjf0_sx56 quick_test/mfcc/raw_mfcc_train.1.ark:3392964
mesg0_si1962 quick_test/mfcc/raw_mfcc_train.2.ark:3313118
mtpp0_si1508 quick_test/mfcc/raw_mfcc_train.4.ark:3067949
mdlh0_sx340 quick_test/mfcc/raw_mfcc_train.2.ark:2569206
ftmg0_sx272 quick_test/mfcc/raw_mfcc_train.2.ark:551856
mbjv0_si617 quick_test/mfcc/raw_mfcc_train.2.ark:1198415
mklw0_sx131 quick_test/mfcc/raw_mfcc_train.3.ark:2279725
mcdd0_si1513 quick_test/mfcc/raw_mfcc_train.2.ark:1540625
mrkm0_sx187 quick_test/mfcc/raw_mfcc_train.4.ark:1036938
mdem0_si1868 quick_test/mfcc/raw_mfcc_train.2.ark:2248051
mtat1_si1627 quick_test/mfcc/raw_mfcc_train.4.ark:2438895
fspm0_si1871 quick_test/mfcc/raw_mfcc_train.2.ark:317853
mcpm0_si1824 quick_test/mfcc/raw_mfcc_train.2.ark:1775618
mhmr0_si489 quick_test/mfcc/raw_mfcc_train.3.ark:426295
mrtc0_sx108 quick_test/mfcc/raw_mfcc_train.4.ark:1524672
fltm0_si2330 quick_test/mfcc/raw_mfcc_train.1.ark:2757483
fntb0_si573 quick_test/mfcc/raw_mfcc_train.1.ark:3162636
fntb0_sx303 quick_test/mfcc/raw_mfcc_train.1.ark:3180123
mmdm0_si1311 quick_test/mfcc/raw_mfcc_train.3.ark:2876143
flma0_si1243 quick_test/mfcc/raw_mfcc_train.1.ark:2628784
mhrm0_si1475 quick_test/mfcc/raw_mfcc_train.3.ark:450452
freh0_si1945 quick_test/mfcc/raw_mfcc_train.1.ark:3468778
fdjh0_sx395 quick_test/mfcc/raw_mfcc_train.1.ark:906895
fjkl0_sx302 quick_test/mfcc/raw_mfcc_train.1.ark:1705597
megj0_si1967 quick_test/mfcc/raw_mfcc_train.2.ark:3220662
mrdm0_sx245 quick_test/mfcc/raw_mfcc_train.4.ark:493738
msdb0_sx287 quick_test/mfcc/raw_mfcc_train.4.ark:1844701
mbma1_sx144 quick_test/mfcc/raw_mfcc_train.2.ark:1264186
mclm0_sx286 quick_test/mfcc/raw_mfcc_train.2.ark:1764181
mkdt0_sx263 quick_test/mfcc/raw_mfcc_train.3.ark:2062191
mtml0_sx255 quick_test/mfcc/raw_mfcc_train.4.ark:2924472
mpeb0_sx420 quick_test/mfcc/raw_mfcc_train.3.ark:3556280
mprk0_sx287 quick_test/mfcc/raw_mfcc_train.4.ark:119549
fcjs0_sx167 quick_test/mfcc/raw_mfcc_train.1.ark:571233
mkls0_sx447 quick_test/mfcc/raw_mfcc_train.3.ark:2229971
mjsr0_si1424 quick_test/mfcc/raw_mfcc_train.3.ark:1636394
maeo0_si1655 quick_test/mfcc/raw_mfcc_train.2.ark:790621
msfh0_sx316 quick_test/mfcc/raw_mfcc_train.4.ark:2019572
mbar0_si1949 quick_test/mfcc/raw_mfcc_train.2.ark:1043150
mtpg0_sx393 quick_test/mfcc/raw_mfcc_train.4.ark:3064600
mgsl0_sx354 quick_test/mfcc/raw_mfcc_train.3.ark:250840
mjbg0_si1862 quick_test/mfcc/raw_mfcc_train.3.ark:649680
mkah0_sx358 quick_test/mfcc/raw_mfcc_train.3.ark:1905030
mrai0_sx162 quick_test/mfcc/raw_mfcc_train.4.ark:264581
mtpr0_sx160 quick_test/mfcc/raw_mfcc_train.4.ark:3111630
mdlc1_sx445 quick_test/mfcc/raw_mfcc_train.2.ark:2512576
ftaj0_si1329 quick_test/mfcc/raw_mfcc_train.2.ark:412774
fssb0_sx362 quick_test/mfcc/raw_mfcc_train.2.ark:397270
fljd0_si1516 quick_test/mfcc/raw_mfcc_train.1.ark:2521416
fsak0_sx40 quick_test/mfcc/raw_mfcc_train.1.ark:3651851
mgsl0_sx174 quick_test/mfcc/raw_mfcc_train.3.ark:241960
fklc0_si2245 quick_test/mfcc/raw_mfcc_train.1.ark:2196656
mmpm0_si1691 quick_test/mfcc/raw_mfcc_train.3.ark:3177593
mdma0_sx440 quick_test/mfcc/raw_mfcc_train.2.ark:2706813
mcxm0_sx271 quick_test/mfcc/raw_mfcc_train.2.ark:1947458
fklc1_sx58 quick_test/mfcc/raw_mfcc_train.1.ark:2255658
mkam0_si1465 quick_test/mfcc/raw_mfcc_train.3.ark:1954290
fceg0_si1878 quick_test/mfcc/raw_mfcc_train.1.ark:514620
mprb0_sx395 quick_test/mfcc/raw_mfcc_train.4.ark:49762
mdmt0_sx122 quick_test/mfcc/raw_mfcc_train.2.ark:2725413
fklc1_sx148 quick_test/mfcc/raw_mfcc_train.1.ark:2239173
mafm0_si939 quick_test/mfcc/raw_mfcc_train.2.ark:820469
fcjs0_si977 quick_test/mfcc/raw_mfcc_train.1.ark:567365
feeh0_si471 quick_test/mfcc/raw_mfcc_train.1.ark:1235086
mdlr0_si1233 quick_test/mfcc/raw_mfcc_train.2.ark:2609129
mtdp0_sx81 quick_test/mfcc/raw_mfcc_train.4.ark:2604044
mdhs0_sx180 quick_test/mfcc/raw_mfcc_train.2.ark:2332166
mdlc1_si2065 quick_test/mfcc/raw_mfcc_train.2.ark:2492871
mtpr0_sx250 quick_test/mfcc/raw_mfcc_train.4.ark:3117227
mrmb0_si951 quick_test/mfcc/raw_mfcc_train.4.ark:1214280
fgcs0_si1486 quick_test/mfcc/raw_mfcc_train.1.ark:1364520
mdwd0_si1890 quick_test/mfcc/raw_mfcc_train.2.ark:3029351
fksr0_sx217 quick_test/mfcc/raw_mfcc_train.1.ark:2309572
mpgh0_sx294 quick_test/mfcc/raw_mfcc_train.3.ark:3621522
flod0_si1917 quick_test/mfcc/raw_mfcc_train.1.ark:2726516
flag0_si834 quick_test/mfcc/raw_mfcc_train.1.ark:2364753
mjdg0_si1672 quick_test/mfcc/raw_mfcc_train.3.ark:780941
mdpk0_si1683 quick_test/mfcc/raw_mfcc_train.2.ark:2816895
mrld0_sx424 quick_test/mfcc/raw_mfcc_train.4.ark:1079875
mapv0_sx33 quick_test/mfcc/raw_mfcc_train.2.ark:971188
mbcg0_sx147 quick_test/mfcc/raw_mfcc_train.2.ark:1111424
mjdm0_si1937 quick_test/mfcc/raw_mfcc_train.3.ark:815462
fsgf0_si927 quick_test/mfcc/raw_mfcc_train.1.ark:3801272
mlns0_si777 quick_test/mfcc/raw_mfcc_train.3.ark:2514481
mfxs0_sx234 quick_test/mfcc/raw_mfcc_train.2.ark:3534356
fklh0_si1887 quick_test/mfcc/raw_mfcc_train.1.ark:2267777
mwdk0_sx176 quick_test/mfcc/raw_mfcc_train.4.ark:3560541
mfwk0_sx439 quick_test/mfcc/raw_mfcc_train.2.ark:3513590
marc0_sx288 quick_test/mfcc/raw_mfcc_train.2.ark:996712
fjwb1_sx345 quick_test/mfcc/raw_mfcc_train.1.ark:1939425
mbef0_sx381 quick_test/mfcc/raw_mfcc_train.2.ark:1154226
mmws0_sx168 quick_test/mfcc/raw_mfcc_train.3.ark:3367783
mdlc0_si1395 quick_test/mfcc/raw_mfcc_train.2.ark:2451973
msrg0_sx231 quick_test/mfcc/raw_mfcc_train.4.ark:2217740
msmr0_si1405 quick_test/mfcc/raw_mfcc_train.4.ark:2143895
fkfb0_sx348 quick_test/mfcc/raw_mfcc_train.1.ark:2142685
mmgg0_si2339 quick_test/mfcc/raw_mfcc_train.3.ark:3064350
mmab1_si1494 quick_test/mfcc/raw_mfcc_train.3.ark:2604883
flkm0_sx440 quick_test/mfcc/raw_mfcc_train.1.ark:2619891
ftmg0_sx362 quick_test/mfcc/raw_mfcc_train.2.ark:555347
mgjc0_si1965 quick_test/mfcc/raw_mfcc_train.3.ark:98663
msat1_sx443 quick_test/mfcc/raw_mfcc_train.4.ark:1819606
mhrm0_si2218 quick_test/mfcc/raw_mfcc_train.3.ark:452800
fmmh0_sx420 quick_test/mfcc/raw_mfcc_train.1.ark:3074213
mdks0_si1696 quick_test/mfcc/raw_mfcc_train.2.ark:2382797
msem1_sx360 quick_test/mfcc/raw_mfcc_train.4.ark:1951376
mkaj0_sx64 quick_test/mfcc/raw_mfcc_train.3.ark:1941721
fpaf0_sx424 quick_test/mfcc/raw_mfcc_train.1.ark:3323580
mtlc0_sx37 quick_test/mfcc/raw_mfcc_train.4.ark:2899415
mjhi0_sx248 quick_test/mfcc/raw_mfcc_train.3.ark:1020990
mmam0_sx337 quick_test/mfcc/raw_mfcc_train.3.ark:2693824
mtmn0_sx434 quick_test/mfcc/raw_mfcc_train.4.ark:2968769
fsjg0_sx310 quick_test/mfcc/raw_mfcc_train.1.ark:3852037
mrwa0_sx253 quick_test/mfcc/raw_mfcc_train.4.ark:1629968
msjk0_si966 quick_test/mfcc/raw_mfcc_train.4.ark:2078646
fkfb0_sx438 quick_test/mfcc/raw_mfcc_train.1.ark:2147619
mfxs0_sx414 quick_test/mfcc/raw_mfcc_train.2.ark:3544224
mrmg0_sx270 quick_test/mfcc/raw_mfcc_train.4.ark:1254002
mjws0_si1143 quick_test/mfcc/raw_mfcc_train.3.ark:1714715
mdlh0_sx250 quick_test/mfcc/raw_mfcc_train.2.ark:2564909
fpaf0_sx64 quick_test/mfcc/raw_mfcc_train.1.ark:3327148
fvmh0_sx26 quick_test/mfcc/raw_mfcc_train.2.ark:651601
fvkb0_si1159 quick_test/mfcc/raw_mfcc_train.2.ark:596714
mmgk0_sx422 quick_test/mfcc/raw_mfcc_train.3.ark:3105723
fklc0_si1615 quick_test/mfcc/raw_mfcc_train.1.ark:2194061
mclm0_sx376 quick_test/mfcc/raw_mfcc_train.2.ark:1768556
mmcc0_sx348 quick_test/mfcc/raw_mfcc_train.3.ark:2800153
fmjb0_sx277 quick_test/mfcc/raw_mfcc_train.1.ark:2902922
mrav0_si1638 quick_test/mfcc/raw_mfcc_train.4.ark:319516
mtmt0_si1748 quick_test/mfcc/raw_mfcc_train.4.ark:2979867
mclm0_sx196 quick_test/mfcc/raw_mfcc_train.2.ark:1761808
mgxp0_sx277 quick_test/mfcc/raw_mfcc_train.3.ark:283584
mbma1_sx54 quick_test/mfcc/raw_mfcc_train.2.ark:1281802
mljh0_si1324 quick_test/mfcc/raw_mfcc_train.3.ark:2464398
fsjs0_si541 quick_test/mfcc/raw_mfcc_train.2.ark:22116
mddc0_sx159 quick_test/mfcc/raw_mfcc_train.2.ark:2166404
fvfb0_si1510 quick_test/mfcc/raw_mfcc_train.2.ark:571496
fbmh0_sx236 quick_test/mfcc/raw_mfcc_train.1.ark:360956
mcss0_sx30 quick_test/mfcc/raw_mfcc_train.2.ark:1857138
marc0_sx198 quick_test/mfcc/raw_mfcc_train.2.ark:993767
frll0_sx254 quick_test/mfcc/raw_mfcc_train.1.ark:3541115
mtml0_si2325 quick_test/mfcc/raw_mfcc_train.4.ark:2915241
mded0_si540 quick_test/mfcc/raw_mfcc_train.2.ark:2192142
mrlr0_sx26 quick_test/mfcc/raw_mfcc_train.4.ark:1197486
feme0_sx155 quick_test/mfcc/raw_mfcc_train.1.ark:1272837
msjk0_sx426 quick_test/mfcc/raw_mfcc_train.4.ark:2096029
msms0_sx263 quick_test/mfcc/raw_mfcc_train.4.ark:2187081
fsmm0_sx324 quick_test/mfcc/raw_mfcc_train.2.ark:263297
mrtj0_si772 quick_test/mfcc/raw_mfcc_train.4.ark:1553218
meal0_sx197 quick_test/mfcc/raw_mfcc_train.2.ark:3136169
mljc0_si1855 quick_test/mfcc/raw_mfcc_train.3.ark:2439181
mtab0_sx312 quick_test/mfcc/raw_mfcc_train.4.ark:2363612
fklh0_sx447 quick_test/mfcc/raw_mfcc_train.1.ark:2285570
fcmg0_sx432 quick_test/mfcc/raw_mfcc_train.1.ark:679482
fkaa0_sx128 quick_test/mfcc/raw_mfcc_train.1.ark:2030257
fsjk1_si2285 quick_test/mfcc/raw_mfcc_train.1.ark:3872554
mdef0_sx393 quick_test/mfcc/raw_mfcc_train.2.ark:2245287
mfwk0_si619 quick_test/mfcc/raw_mfcc_train.2.ark:3496987
mtkd0_sx17 quick_test/mfcc/raw_mfcc_train.4.ark:2794047
mrab0_sx234 quick_test/mfcc/raw_mfcc_train.4.ark:199721
fkaa0_sx308 quick_test/mfcc/raw_mfcc_train.1.ark:2038149
mmdb0_sx267 quick_test/mfcc/raw_mfcc_train.3.ark:2827698
mgag0_sx241 quick_test/mfcc/raw_mfcc_train.2.ark:3629076
fdtd0_sx391 quick_test/mfcc/raw_mfcc_train.1.ark:1089170
fsmm0_sx234 quick_test/mfcc/raw_mfcc_train.2.ark:258233
mrml0_si2051 quick_test/mfcc/raw_mfcc_train.4.ark:1307552
fmem0_si2007 quick_test/mfcc/raw_mfcc_train.1.ark:2853482
fpaf0_sx244 quick_test/mfcc/raw_mfcc_train.1.ark:3315064
mhxl0_sx332 quick_test/mfcc/raw_mfcc_train.3.ark:500828
msvs0_sx128 quick_test/mfcc/raw_mfcc_train.4.ark:2315532
frll0_sx164 quick_test/mfcc/raw_mfcc_train.1.ark:3536935
fjdm2_sx52 quick_test/mfcc/raw_mfcc_train.1.ark:1611863
mgjc0_si1335 quick_test/mfcc/raw_mfcc_train.3.ark:94430
flhd0_sx84 quick_test/mfcc/raw_mfcc_train.1.ark:2481843
mpar0_sx46 quick_test/mfcc/raw_mfcc_train.3.ark:3533245
mctm0_sx360 quick_test/mfcc/raw_mfcc_train.2.ark:1919523
msrr0_sx141 quick_test/mfcc/raw_mfcc_train.4.ark:2246403
mwem0_sx60 quick_test/mfcc/raw_mfcc_train.4.ark:3609428
mvrw0_sx225 quick_test/mfcc/raw_mfcc_train.4.ark:3413321
fcrz0_si2053 quick_test/mfcc/raw_mfcc_train.1.ark:724723
fsah0_si614 quick_test/mfcc/raw_mfcc_train.1.ark:3601093
mfwk0_si1879 quick_test/mfcc/raw_mfcc_train.2.ark:3493678
mwar0_sx55 quick_test/mfcc/raw_mfcc_train.4.ark:3515850
fbmh0_si970 quick_test/mfcc/raw_mfcc_train.1.ark:351582
mtas0_sx395 quick_test/mfcc/raw_mfcc_train.4.ark:2399328
mwre0_sx337 quick_test/mfcc/raw_mfcc_train.4.ark:3665248
mrcw0_sx111 quick_test/mfcc/raw_mfcc_train.4.ark:430748
fapb0_sx253 quick_test/mfcc/raw_mfcc_train.1.ark:152587
fscn0_sx446 quick_test/mfcc/raw_mfcc_train.1.ark:3725377
fkkh0_si1920 quick_test/mfcc/raw_mfcc_train.1.ark:2165360
fhxs0_sx355 quick_test/mfcc/raw_mfcc_train.1.ark:1570322
fdas1_si2091 quick_test/mfcc/raw_mfcc_train.1.ark:790422
mmgc0_sx315 quick_test/mfcc/raw_mfcc_train.3.ark:3044826
flmc0_si1372 quick_test/mfcc/raw_mfcc_train.1.ark:2657311
mclm0_si826 quick_test/mfcc/raw_mfcc_train.2.ark:1751414
mkdd0_si937 quick_test/mfcc/raw_mfcc_train.3.ark:2023225
fjxp0_si1122 quick_test/mfcc/raw_mfcc_train.1.ark:1987460
mdlr0_sx333 quick_test/mfcc/raw_mfcc_train.2.ark:2629601
mdjm0_si2085 quick_test/mfcc/raw_mfcc_train.2.ark:2355206
mrws0_sx382 quick_test/mfcc/raw_mfcc_train.4.ark:1670137
mrgm0_si532 quick_test/mfcc/raw_mfcc_train.4.ark:744496
mctm0_si720 quick_test/mfcc/raw_mfcc_train.2.ark:1909778
mctm0_sx180 quick_test/mfcc/raw_mfcc_train.2.ark:1912671
flma0_si1873 quick_test/mfcc/raw_mfcc_train.1.ark:2631470
mdwd0_si557 quick_test/mfcc/raw_mfcc_train.2.ark:3034246
mcew0_sx182 quick_test/mfcc/raw_mfcc_train.2.ark:1653138
mter0_sx257 quick_test/mfcc/raw_mfcc_train.4.ark:2629307
fdkn0_si1081 quick_test/mfcc/raw_mfcc_train.1.ark:910829
mgrp0_sx147 quick_test/mfcc/raw_mfcc_train.3.ark:171324
majp0_sx84 quick_test/mfcc/raw_mfcc_train.2.ark:875161
majp0_sx444 quick_test/mfcc/raw_mfcc_train.2.ark:870865
mrre0_si1334 quick_test/mfcc/raw_mfcc_train.4.ark:1397963
mjws0_sx423 quick_test/mfcc/raw_mfcc_train.3.ark:1740654
mbma1_si2214 quick_test/mfcc/raw_mfcc_train.2.ark:1254734
fmkc0_sx352 quick_test/mfcc/raw_mfcc_train.1.ark:3006176
mtas0_si755 quick_test/mfcc/raw_mfcc_train.4.ark:2384318
fetb0_sx338 quick_test/mfcc/raw_mfcc_train.1.ark:1314092
fpac0_si661 quick_test/mfcc/raw_mfcc_train.1.ark:3236870
mjrh0_sx315 quick_test/mfcc/raw_mfcc_train.3.ark:1533905
fvfb0_si1032 quick_test/mfcc/raw_mfcc_train.2.ark:567718
mgak0_sx316 quick_test/mfcc/raw_mfcc_train.2.ark:3665853
mgag0_si645 quick_test/mfcc/raw_mfcc_train.2.ark:3617420
fmjf0_sx264 quick_test/mfcc/raw_mfcc_train.1.ark:2935152
mtju0_sx310 quick_test/mfcc/raw_mfcc_train.4.ark:2763565
msat1_sx353 quick_test/mfcc/raw_mfcc_train.4.ark:1815829
mreh1_sx429 quick_test/mfcc/raw_mfcc_train.4.ark:598522
mpeb0_si1860 quick_test/mfcc/raw_mfcc_train.3.ark:3537837
fapb0_si1063 quick_test/mfcc/raw_mfcc_train.1.ark:131783
mmdg0_sx430 quick_test/mfcc/raw_mfcc_train.3.ark:2869395
mhbs0_sx45 quick_test/mfcc/raw_mfcc_train.3.ark:325597
fjhk0_sx302 quick_test/mfcc/raw_mfcc_train.1.ark:1675172
mtqc0_si1441 quick_test/mfcc/raw_mfcc_train.4.ark:3133752
msdh0_sx80 quick_test/mfcc/raw_mfcc_train.4.ark:1880372
mgxp0_si525 quick_test/mfcc/raw_mfcc_train.3.ark:274301
fcyl0_si1927 quick_test/mfcc/raw_mfcc_train.1.ark:754199
mmds0_sx443 quick_test/mfcc/raw_mfcc_train.3.ark:2961684
mjmm0_sx175 quick_test/mfcc/raw_mfcc_train.3.ark:1335805
mjma0_si865 quick_test/mfcc/raw_mfcc_train.3.ark:1275415
frjb0_sx167 quick_test/mfcc/raw_mfcc_train.1.ark:3501090
mjws0_sx63 quick_test/mfcc/raw_mfcc_train.3.ark:1745808
mrhl0_si2145 quick_test/mfcc/raw_mfcc_train.4.ark:812617
mabc0_sx241 quick_test/mfcc/raw_mfcc_train.2.ark:674974
mtmn0_sx344 quick_test/mfcc/raw_mfcc_train.4.ark:2965824
mtxs0_sx340 quick_test/mfcc/raw_mfcc_train.4.ark:3321377
fbch0_si959 quick_test/mfcc/raw_mfcc_train.1.ark:247995
maeb0_sx360 quick_test/mfcc/raw_mfcc_train.2.ark:774433
msds0_sx267 quick_test/mfcc/raw_mfcc_train.4.ark:1903225
mrmg0_si1710 quick_test/mfcc/raw_mfcc_train.4.ark:1241721
mjxa0_sx247 quick_test/mfcc/raw_mfcc_train.3.ark:1800463
mrew1_sx240 quick_test/mfcc/raw_mfcc_train.4.ark:652688
fdmy0_sx27 quick_test/mfcc/raw_mfcc_train.1.ark:1006516
mdpk0_sx63 quick_test/mfcc/raw_mfcc_train.2.ark:2838178
mrso0_si2289 quick_test/mfcc/raw_mfcc_train.4.ark:1448553
fpab1_sx391 quick_test/mfcc/raw_mfcc_train.1.ark:3224107
msjk0_sx246 quick_test/mfcc/raw_mfcc_train.4.ark:2086863
frjb0_si1794 quick_test/mfcc/raw_mfcc_train.1.ark:3498639
fvfb0_sx312 quick_test/mfcc/raw_mfcc_train.2.ark:585994
mtab0_sx402 quick_test/mfcc/raw_mfcc_train.4.ark:2369833
mbcg0_si2217 quick_test/mfcc/raw_mfcc_train.2.ark:1100145
fsjw0_sx163 quick_test/mfcc/raw_mfcc_train.2.ark:63494
mgjc0_sx435 quick_test/mfcc/raw_mfcc_train.3.ark:116774
fkkh0_sx30 quick_test/mfcc/raw_mfcc_train.1.ark:2183717
mrmg0_sx450 quick_test/mfcc/raw_mfcc_train.4.ark:1261699
mstf0_sx316 quick_test/mfcc/raw_mfcc_train.4.ark:2286148
mntw0_sx258 quick_test/mfcc/raw_mfcc_train.3.ark:3495046
mkdt0_sx83 quick_test/mfcc/raw_mfcc_train.3.ark:2074223
mges0_si1481 quick_test/mfcc/raw_mfcc_train.3.ark:63217
mkdd0_sx127 quick_test/mfcc/raw_mfcc_train.3.ark:2028718
mwdk0_sx446 quick_test/mfcc/raw_mfcc_train.4.ark:3572873
fmjb0_si1177 quick_test/mfcc/raw_mfcc_train.1.ark:2884823
mrre0_si704 quick_test/mfcc/raw_mfcc_train.4.ark:1404808
fcmm0_sx183 quick_test/mfcc/raw_mfcc_train.1.ark:701033
mrkm0_sx277 quick_test/mfcc/raw_mfcc_train.4.ark:1040338
mrld0_si964 quick_test/mfcc/raw_mfcc_train.4.ark:1065781
msmc0_sx287 quick_test/mfcc/raw_mfcc_train.4.ark:2128870
fmjf0_sx444 quick_test/mfcc/raw_mfcc_train.1.ark:2942719
mkes0_si1883 quick_test/mfcc/raw_mfcc_train.3.ark:2082052
fpad0_si1976 quick_test/mfcc/raw_mfcc_train.1.ark:3266820
mjac0_si2148 quick_test/mfcc/raw_mfcc_train.3.ark:548153
fcaj0_sx39 quick_test/mfcc/raw_mfcc_train.1.ark:461448
fetb0_si518 quick_test/mfcc/raw_mfcc_train.1.ark:1302891
mlel0_si1876 quick_test/mfcc/raw_mfcc_train.3.ark:2399461
mpeb0_sx150 quick_test/mfcc/raw_mfcc_train.3.ark:3545677
mmrp0_sx414 quick_test/mfcc/raw_mfcc_train.3.ark:3232025
flmk0_si1035 quick_test/mfcc/raw_mfcc_train.1.ark:2689634
mjpg0_si1191 quick_test/mfcc/raw_mfcc_train.3.ark:1354209
mtdp0_sx171 quick_test/mfcc/raw_mfcc_train.4.ark:2582957
fdas1_si1461 quick_test/mfcc/raw_mfcc_train.1.ark:783914
mrlj1_si2301 quick_test/mfcc/raw_mfcc_train.4.ark:1119591
mrlr0_si1196 quick_test/mfcc/raw_mfcc_train.4.ark:1176443
mcxm0_si721 quick_test/mfcc/raw_mfcc_train.2.ark:1939371
mdns0_si1011 quick_test/mfcc/raw_mfcc_train.2.ark:2745832
fbcg1_sx172 quick_test/mfcc/raw_mfcc_train.1.ark:217292
megj0_sx167 quick_test/mfcc/raw_mfcc_train.2.ark:3228060
mcre0_sx41 quick_test/mfcc/raw_mfcc_train.2.ark:1828769
fkkh0_sx120 quick_test/mfcc/raw_mfcc_train.1.ark:2175787
mrjt0_si1805 quick_test/mfcc/raw_mfcc_train.4.ark:987766
fskp0_si1728 quick_test/mfcc/raw_mfcc_train.2.ark:151674
mwdk0_sx86 quick_test/mfcc/raw_mfcc_train.4.ark:3576649
falk0_si456 quick_test/mfcc/raw_mfcc_train.1.ark:72191
fjrb0_si1302 quick_test/mfcc/raw_mfcc_train.1.ark:1781328
mdks0_sx436 quick_test/mfcc/raw_mfcc_train.2.ark:2405154
mtas0_sx35 quick_test/mfcc/raw_mfcc_train.4.ark:2396682
fmjf0_sx174 quick_test/mfcc/raw_mfcc_train.1.ark:2929386
frll0_sx434 quick_test/mfcc/raw_mfcc_train.1.ark:3547720
fsms1_sx244 quick_test/mfcc/raw_mfcc_train.2.ark:294040
feme0_si1505 quick_test/mfcc/raw_mfcc_train.1.ark:1259191
mdlc0_sx45 quick_test/mfcc/raw_mfcc_train.2.ark:2482702
fear0_sx172 quick_test/mfcc/raw_mfcc_train.1.ark:1164844
fexm0_si1101 quick_test/mfcc/raw_mfcc_train.1.ark:1326515
mjjb0_sx329 quick_test/mfcc/raw_mfcc_train.3.ark:1057390
mgar0_si1694 quick_test/mfcc/raw_mfcc_train.3.ark:4961
mtpg0_si1383 quick_test/mfcc/raw_mfcc_train.4.ark:3038330
mdef0_si1563 quick_test/mfcc/raw_mfcc_train.2.ark:2224900
fvfb0_sx222 quick_test/mfcc/raw_mfcc_train.2.ark:582594
mjde0_sx310 quick_test/mfcc/raw_mfcc_train.3.ark:762257
fjxm0_sx41 quick_test/mfcc/raw_mfcc_train.1.ark:1980848
mkag0_si1609 quick_test/mfcc/raw_mfcc_train.3.ark:1849675
fsjw0_sx253 quick_test/mfcc/raw_mfcc_train.2.ark:67154
fmem0_sx117 quick_test/mfcc/raw_mfcc_train.1.ark:2862258
fsrh0_sx401 quick_test/mfcc/raw_mfcc_train.2.ark:368827
fsjg0_si940 quick_test/mfcc/raw_mfcc_train.1.ark:3833608
mbma1_sx234 quick_test/mfcc/raw_mfcc_train.2.ark:1268223
mgaw0_si1802 quick_test/mfcc/raw_mfcc_train.3.ark:38325
mmar0_sx166 quick_test/mfcc/raw_mfcc_train.3.ark:2718463
fmmh0_sx187 quick_test/mfcc/raw_mfcc_train.1.ark:3067504
feme0_si875 quick_test/mfcc/raw_mfcc_train.1.ark:1266590
mkln0_sx248 quick_test/mfcc/raw_mfcc_train.3.ark:2157756
mbwp0_sx349 quick_test/mfcc/raw_mfcc_train.2.ark:1421953
mjpm1_sx401 quick_test/mfcc/raw_mfcc_train.3.ark:1439113
mcxm0_sx361 quick_test/mfcc/raw_mfcc_train.2.ark:1950819
fbmh0_si1136 quick_test/mfcc/raw_mfcc_train.1.ark:342519
mgrl0_sx57 quick_test/mfcc/raw_mfcc_train.3.ark:155109
falk0_sx366 quick_test/mfcc/raw_mfcc_train.1.ark:89353
mdbp0_sx78 quick_test/mfcc/raw_mfcc_train.2.ark:2087220
mtbc0_sx363 quick_test/mfcc/raw_mfcc_train.4.ark:2496252
mjbg0_sx62 quick_test/mfcc/raw_mfcc_train.3.ark:671918
mmxs0_sx246 quick_test/mfcc/raw_mfcc_train.3.ark:3428496
mdac0_si1837 quick_test/mfcc/raw_mfcc_train.2.ark:1965915
fmkc0_si1702 quick_test/mfcc/raw_mfcc_train.1.ark:2995157
mrfk0_si1706 quick_test/mfcc/raw_mfcc_train.4.ark:676007
mcdd0_si2143 quick_test/mfcc/raw_mfcc_train.2.ark:1543415
fcaj0_sx309 quick_test/mfcc/raw_mfcc_train.1.ark:457191
mtwh1_sx162 quick_test/mfcc/raw_mfcc_train.4.ark:3279133
mrlj0_si790 quick_test/mfcc/raw_mfcc_train.4.ark:1093125
mhbs0_sx225 quick_test/mfcc/raw_mfcc_train.3.ark:316438
fdfb0_si2010 quick_test/mfcc/raw_mfcc_train.1.ark:859614
mtqc0_sx451 quick_test/mfcc/raw_mfcc_train.4.ark:3166451
mjmd0_sx218 quick_test/mfcc/raw_mfcc_train.3.ark:1309508
mtpf0_sx335 quick_test/mfcc/raw_mfcc_train.4.ark:3028286
fblv0_sx248 quick_test/mfcc/raw_mfcc_train.1.ark:326566
fpad0_sx446 quick_test/mfcc/raw_mfcc_train.1.ark:3290567
mkxl0_si1185 quick_test/mfcc/raw_mfcc_train.3.ark:2332583
mwem0_si1320 quick_test/mfcc/raw_mfcc_train.4.ark:3579855
mjrh1_si514 quick_test/mfcc/raw_mfcc_train.3.ark:1555170
mkah0_sx88 quick_test/mfcc/raw_mfcc_train.3.ark:1912323
mmab1_sx144 quick_test/mfcc/raw_mfcc_train.3.ark:2616904
mkjo0_si2147 quick_test/mfcc/raw_mfcc_train.3.ark:2117196
mdps0_si719 quick_test/mfcc/raw_mfcc_train.2.ark:2848211
mrcg0_sx438 quick_test/mfcc/raw_mfcc_train.4.ark:406064
ftmg0_sx452 quick_test/mfcc/raw_mfcc_train.2.ark:559670
fcke0_si481 quick_test/mfcc/raw_mfcc_train.1.ark:600572
flet0_sx57 quick_test/mfcc/raw_mfcc_train.1.ark:2452392
fjlr0_sx421 quick_test/mfcc/raw_mfcc_train.1.ark:1772890
mrjh0_si889 quick_test/mfcc/raw_mfcc_train.4.ark:884868
mrpc1_sx312 quick_test/mfcc/raw_mfcc_train.4.ark:1386736
msat0_sx356 quick_test/mfcc/raw_mfcc_train.4.ark:1786404
mdsj0_sx292 quick_test/mfcc/raw_mfcc_train.2.ark:2926696
fcrz0_sx253 quick_test/mfcc/raw_mfcc_train.1.ark:735573
mgaw0_sx175 quick_test/mfcc/raw_mfcc_train.3.ark:46165
mrew1_sx330 quick_test/mfcc/raw_mfcc_train.4.ark:656556
mmgk0_sx62 quick_test/mfcc/raw_mfcc_train.3.ark:3109720
flag0_si2094 quick_test/mfcc/raw_mfcc_train.1.ark:2361912
mjde0_si1120 quick_test/mfcc/raw_mfcc_train.3.ark:733960
mtkd0_si1817 quick_test/mfcc/raw_mfcc_train.4.ark:2778219
mcdd0_sx433 quick_test/mfcc/raw_mfcc_train.2.ark:1561741
mrdd0_sx330 quick_test/mfcc/raw_mfcc_train.4.ark:467981
mpar0_sx316 quick_test/mfcc/raw_mfcc_train.3.ark:3526199
mjfr0_si975 quick_test/mfcc/raw_mfcc_train.3.ark:976525
fjlr0_si601 quick_test/mfcc/raw_mfcc_train.1.ark:1756729
mrjt0_sx58 quick_test/mfcc/raw_mfcc_train.4.ark:1012026
fnkl0_si892 quick_test/mfcc/raw_mfcc_train.1.ark:3134377
mdbp0_sx348 quick_test/mfcc/raw_mfcc_train.2.ark:2076534
fbjl0_sx292 quick_test/mfcc/raw_mfcc_train.1.ark:298402
mrtj0_si2032 quick_test/mfcc/raw_mfcc_train.4.ark:1549870
mfxs0_sx324 quick_test/mfcc/raw_mfcc_train.2.ark:3538640
fvmh0_sx386 quick_test/mfcc/raw_mfcc_train.2.ark:657465
mcef0_sx145 quick_test/mfcc/raw_mfcc_train.2.ark:1618722
mfwk0_sx169 quick_test/mfcc/raw_mfcc_train.2.ark:3500504
falk0_sx276 quick_test/mfcc/raw_mfcc_train.1.ark:85784
mddc0_si789 quick_test/mfcc/raw_mfcc_train.2.ark:2161769
mmws0_sx438 quick_test/mfcc/raw_mfcc_train.3.ark:3379075
mljh0_si1422 quick_test/mfcc/raw_mfcc_train.3.ark:2468943
fgdp0_si2248 quick_test/mfcc/raw_mfcc_train.1.ark:1397683
fbmj0_si516 quick_test/mfcc/raw_mfcc_train.1.ark:379841
mnet0_sx276 quick_test/mfcc/raw_mfcc_train.3.ark:3458947
mbgt0_sx441 quick_test/mfcc/raw_mfcc_train.2.ark:1184177
mbgt0_si1341 quick_test/mfcc/raw_mfcc_train.2.ark:1156821
mkam0_sx56 quick_test/mfcc/raw_mfcc_train.3.ark:1975345
mfrm0_si1785 quick_test/mfcc/raw_mfcc_train.2.ark:3468018
mdss1_sx247 quick_test/mfcc/raw_mfcc_train.2.ark:2981014
mree0_si1959 quick_test/mfcc/raw_mfcc_train.4.ark:547698
fmem0_sx297 quick_test/mfcc/raw_mfcc_train.1.ark:2869370
fcaj0_sx219 quick_test/mfcc/raw_mfcc_train.1.ark:452881
mrjm1_sx218 quick_test/mfcc/raw_mfcc_train.4.ark:966917
fdtd0_sx321 quick_test/mfcc/raw_mfcc_train.1.ark:1083053
mdss0_sx351 quick_test/mfcc/raw_mfcc_train.2.ark:2956043
mjra0_sx156 quick_test/mfcc/raw_mfcc_train.3.ark:1459936
mjlg1_sx382 quick_test/mfcc/raw_mfcc_train.3.ark:1228054
flja0_sx268 quick_test/mfcc/raw_mfcc_train.1.ark:2503942
mbar0_sx329 quick_test/mfcc/raw_mfcc_train.2.ark:1058570
mtpg0_si2013 quick_test/mfcc/raw_mfcc_train.4.ark:3043330
mtat0_si1110 quick_test/mfcc/raw_mfcc_train.4.ark:2402950
fjrp1_sx262 quick_test/mfcc/raw_mfcc_train.1.ark:1833076
mkag0_si979 quick_test/mfcc/raw_mfcc_train.3.ark:1858270
mrem0_si511 quick_test/mfcc/raw_mfcc_train.4.ark:611400
mvlo0_si1147 quick_test/mfcc/raw_mfcc_train.4.ark:3365512
mtwh1_sx72 quick_test/mfcc/raw_mfcc_train.4.ark:3294383
mjjm0_sx17 quick_test/mfcc/raw_mfcc_train.3.ark:1124615
mrav0_si1008 quick_test/mfcc/raw_mfcc_train.4.ark:317064
mejl0_si1654 quick_test/mfcc/raw_mfcc_train.2.ark:3252385
mdlh0_sx70 quick_test/mfcc/raw_mfcc_train.2.ark:2578917
mbjv0_sx77 quick_test/mfcc/raw_mfcc_train.2.ark:1218001
mdjm0_sx195 quick_test/mfcc/raw_mfcc_train.2.ark:2370313
fmju0_si1389 quick_test/mfcc/raw_mfcc_train.1.ark:2952366
mtlb0_sx324 quick_test/mfcc/raw_mfcc_train.4.ark:2863069
mrjb1_si2021 quick_test/mfcc/raw_mfcc_train.4.ark:852293
mdwm0_sx16 quick_test/mfcc/raw_mfcc_train.2.ark:3108421
mmeb0_sx97 quick_test/mfcc/raw_mfcc_train.3.ark:3021849
mchl0_sx447 quick_test/mfcc/raw_mfcc_train.2.ark:1703449
mbma0_sx322 quick_test/mfcc/raw_mfcc_train.2.ark:1240782
fsma0_sx91 quick_test/mfcc/raw_mfcc_train.2.ark:239788
mdwh0_si1925 quick_test/mfcc/raw_mfcc_train.2.ark:3060140
mreh1_si2229 quick_test/mfcc/raw_mfcc_train.4.ark:576634
fljg0_si1611 quick_test/mfcc/raw_mfcc_train.1.ark:2553648
mkam0_sx236 quick_test/mfcc/raw_mfcc_train.3.ark:1964366
mded0_sx360 quick_test/mfcc/raw_mfcc_train.2.ark:2205969
fdtd0_sx121 quick_test/mfcc/raw_mfcc_train.1.ark:1069668
mdhl0_sx179 quick_test/mfcc/raw_mfcc_train.2.ark:2299661
fblv0_sx428 quick_test/mfcc/raw_mfcc_train.1.ark:334354
mmbs0_si1151 quick_test/mfcc/raw_mfcc_train.3.ark:2744550
msfh0_si1216 quick_test/mfcc/raw_mfcc_train.4.ark:1993159
mfmc0_sx142 quick_test/mfcc/raw_mfcc_train.2.ark:3437755
mjeb1_sx27 quick_test/mfcc/raw_mfcc_train.3.ark:899531
fklh0_sx357 quick_test/mfcc/raw_mfcc_train.1.ark:2280662
msrg0_sx321 quick_test/mfcc/raw_mfcc_train.4.ark:2219775
mlns0_si2037 quick_test/mfcc/raw_mfcc_train.3.ark:2509716
mctm0_si1980 quick_test/mfcc/raw_mfcc_train.2.ark:1904220
msvs0_sx308 quick_test/mfcc/raw_mfcc_train.4.ark:2324334
fdjh0_si2195 quick_test/mfcc/raw_mfcc_train.1.ark:883298
mtlb0_sx54 quick_test/mfcc/raw_mfcc_train.4.ark:2872520
fbch0_sx236 quick_test/mfcc/raw_mfcc_train.1.ark:258084
mrlj1_sx141 quick_test/mfcc/raw_mfcc_train.4.ark:1127081
fsdj0_sx35 quick_test/mfcc/raw_mfcc_train.1.ark:3785629
mjdm0_si1340 quick_test/mfcc/raw_mfcc_train.3.ark:808304
mmds0_si713 quick_test/mfcc/raw_mfcc_train.3.ark:2948890
mhrm0_sx58 quick_test/mfcc/raw_mfcc_train.3.ark:476761
mdns0_si873 quick_test/mfcc/raw_mfcc_train.2.ark:2755311
msas0_sx116 quick_test/mfcc/raw_mfcc_train.4.ark:1751337
mrjm1_si1928 quick_test/mfcc/raw_mfcc_train.4.ark:956041
mdrd0_si2012 quick_test/mfcc/raw_mfcc_train.2.ark:2874404
mjai0_si682 quick_test/mfcc/raw_mfcc_train.3.ark:614658
fdxw0_sx431 quick_test/mfcc/raw_mfcc_train.1.ark:1114285
mabc0_sx61 quick_test/mfcc/raw_mfcc_train.2.ark:684185
fcag0_si2133 quick_test/mfcc/raw_mfcc_train.1.ark:415851
mwem0_sx330 quick_test/mfcc/raw_mfcc_train.4.ark:3598495
mlns0_si1407 quick_test/mfcc/raw_mfcc_train.3.ark:2506679
fjlg0_si1506 quick_test/mfcc/raw_mfcc_train.1.ark:1716629
mrws0_sx292 quick_test/mfcc/raw_mfcc_train.4.ark:1665866
fvmh0_si2096 quick_test/mfcc/raw_mfcc_train.2.ark:635480
mtrc0_sx170 quick_test/mfcc/raw_mfcc_train.4.ark:3188963
mwac0_si2231 quick_test/mfcc/raw_mfcc_train.4.ark:3430907
fapb0_sx343 quick_test/mfcc/raw_mfcc_train.1.ark:156585
fsdj0_si485 quick_test/mfcc/raw_mfcc_train.1.ark:3773070
mtpp0_sx248 quick_test/mfcc/raw_mfcc_train.4.ark:3083006
mkls0_si2067 quick_test/mfcc/raw_mfcc_train.3.ark:2211665
mejs0_sx430 quick_test/mfcc/raw_mfcc_train.2.ark:3302735
mmws1_sx81 quick_test/mfcc/raw_mfcc_train.3.ark:3410494
mrlj0_si2050 quick_test/mfcc/raw_mfcc_train.4.ark:1090531
fdml0_si2075 quick_test/mfcc/raw_mfcc_train.1.ark:956169
mjmd0_si1658 quick_test/mfcc/raw_mfcc_train.3.ark:1299086
mrjm0_sx238 quick_test/mfcc/raw_mfcc_train.4.ark:933151
mgaw0_si1165 quick_test/mfcc/raw_mfcc_train.3.ark:32441
mwsb0_si1626 quick_test/mfcc/raw_mfcc_train.4.ark:3710084
mmvp0_sx114 quick_test/mfcc/raw_mfcc_train.3.ark:3291931
mjdg0_sx322 quick_test/mfcc/raw_mfcc_train.3.ark:797844
fbmj0_sx156 quick_test/mfcc/raw_mfcc_train.1.ark:388500
fpmy0_sx343 quick_test/mfcc/raw_mfcc_train.1.ark:3455184
fcag0_sx333 quick_test/mfcc/raw_mfcc_train.1.ark:426753
fmkf0_sx6 quick_test/mfcc/raw_mfcc_train.1.ark:3045823
fjxp0_sx402 quick_test/mfcc/raw_mfcc_train.1.ark:2010526
mzmb0_sx356 quick_test/mfcc/raw_mfcc_train.4.ark:3798047
fetb0_si1778 quick_test/mfcc/raw_mfcc_train.1.ark:1298191
