fvfb0_si1510 quick_test/fbank/raw_fbank_train.2.ark:1748723
mmpm0_si1061 quick_test/fbank/raw_fbank_train.3.ark:9712502
mfxv0_sx195 quick_test/fbank/raw_fbank_train.2.ark:10933004
mmag0_si1756 quick_test/fbank/raw_fbank_train.3.ark:8090110
mdlr1_sx39 quick_test/fbank/raw_fbank_train.2.ark:8170312
mpmb0_si871 quick_test/fbank/raw_fbank_train.3.ark:11337607
mewm0_sx88 quick_test/fbank/raw_fbank_train.2.ark:10383237
mmlm0_sx447 quick_test/fbank/raw_fbank_train.3.ark:9693956
mcre0_sx131 quick_test/fbank/raw_fbank_train.2.ark:5549687
mree0_sx294 quick_test/fbank/raw_fbank_train.4.ark:1724145
mcth0_si1209 quick_test/fbank/raw_fbank_train.2.ark:5712635
medr0_sx384 quick_test/fbank/raw_fbank_train.2.ark:9716948
mtkd0_sx377 quick_test/fbank/raw_fbank_train.4.ark:8587137
mkag0_sx79 quick_test/fbank/raw_fbank_train.3.ark:5753265
mjfh0_sx117 quick_test/fbank/raw_fbank_train.3.ark:2920953
msmr0_sx325 quick_test/fbank/raw_fbank_train.4.ark:6606479
mtrt0_sx57 quick_test/fbank/raw_fbank_train.4.ark:9993007
fsdc0_sx412 quick_test/fbank/raw_fbank_train.1.ark:11497159
mprt0_sx220 quick_test/fbank/raw_fbank_train.4.ark:440511
fljd0_sx436 quick_test/fbank/raw_fbank_train.1.ark:7795623
mdlb0_sx136 quick_test/fbank/raw_fbank_train.2.ark:7428439
mpfu0_sx88 quick_test/fbank/raw_fbank_train.3.ark:10998871
mvjh0_sx296 quick_test/fbank/raw_fbank_train.4.ark:10280210
mlsh0_sx337 quick_test/fbank/raw_fbank_train.3.ark:7828927
mdns0_sx111 quick_test/fbank/raw_fbank_train.2.ark:8449450
fpjf0_sx236 quick_test/fbank/raw_fbank_train.1.ark:10347659
ftaj0_sx429 quick_test/fbank/raw_fbank_train.2.ark:1321244
mmds0_si713 quick_test/fbank/raw_fbank_train.3.ark:9023809
mjjj0_sx353 quick_test/fbank/raw_fbank_train.3.ark:3349959
mljc0_sx55 quick_test/fbank/raw_fbank_train.3.ark:7529757
mkls1_si1545 quick_test/fbank/raw_fbank_train.3.ark:6845655
mmwb0_sx359 quick_test/fbank/raw_fbank_train.3.ark:10220449
mppc0_sx62 quick_test/fbank/raw_fbank_train.4.ark:37510
mjpg0_sx201 quick_test/fbank/raw_fbank_train.3.ark:4193873
fpmy0_sx73 quick_test/fbank/raw_fbank_train.1.ark:10589165
mzmb0_si1166 quick_test/fbank/raw_fbank_train.4.ark:11558724
mbar0_sx149 quick_test/fbank/raw_fbank_train.2.ark:3211368
fdjh0_sx215 quick_test/fbank/raw_fbank_train.1.ark:2742421
mbom0_sx311 quick_test/fbank/raw_fbank_train.2.ark:4089973
mtpf0_si1235 quick_test/fbank/raw_fbank_train.4.ark:9206402
msdb0_si2267 quick_test/fbank/raw_fbank_train.4.ark:5614674
fpab1_si2101 quick_test/fbank/raw_fbank_train.1.ark:9776474
fcaj0_si1804 quick_test/fbank/raw_fbank_train.1.ark:1352489
mcdr0_si524 quick_test/fbank/raw_fbank_train.2.ark:4837757
mrgs0_sx186 quick_test/fbank/raw_fbank_train.4.ark:2414342
mjws0_si513 quick_test/fbank/raw_fbank_train.3.ark:5268402
mcth0_sx219 quick_test/fbank/raw_fbank_train.2.ark:5761408
mdbp0_si528 quick_test/fbank/raw_fbank_train.2.ark:6310450
mrjb1_sx300 quick_test/fbank/raw_fbank_train.4.ark:2663449
mwdk0_sx176 quick_test/fbank/raw_fbank_train.4.ark:10896090
mrlj1_si1671 quick_test/fbank/raw_fbank_train.4.ark:3414689
flmk0_si1229 quick_test/fbank/raw_fbank_train.1.ark:8243662
falk0_sx186 quick_test/fbank/raw_fbank_train.1.ark:252640
fsjg0_sx400 quick_test/fbank/raw_fbank_train.1.ark:11821666
fgcs0_si1486 quick_test/fbank/raw_fbank_train.1.ark:4175922
fvkb0_sx79 quick_test/fbank/raw_fbank_train.2.ark:1915986
fbcg1_sx172 quick_test/fbank/raw_fbank_train.1.ark:665060
fetb0_sx428 quick_test/fbank/raw_fbank_train.1.ark:4034550
mbcg0_si486 quick_test/fbank/raw_fbank_train.2.ark:3376992
fnkl0_sx172 quick_test/fbank/raw_fbank_train.1.ark:9611891
mgar0_sx222 quick_test/fbank/raw_fbank_train.3.ark:46667
fmbg0_si1160 quick_test/fbank/raw_fbank_train.1.ark:8618491
fbmj0_sx66 quick_test/fbank/raw_fbank_train.1.ark:1245595
mnet0_sx366 quick_test/fbank/raw_fbank_train.3.ark:10593587
mrew1_si2130 quick_test/fbank/raw_fbank_train.4.ark:1968375
mjeb0_sx206 quick_test/fbank/raw_fbank_train.3.ark:2636151
mpar0_sx406 quick_test/fbank/raw_fbank_train.3.ark:10799109
mrjm0_sx148 quick_test/fbank/raw_fbank_train.4.ark:2844121
mdrd0_si752 quick_test/fbank/raw_fbank_train.2.ark:8805877
mdlb0_si676 quick_test/fbank/raw_fbank_train.2.ark:7420246
feeh0_sx302 quick_test/fbank/raw_fbank_train.1.ark:3817107
mtkp0_si1023 quick_test/fbank/raw_fbank_train.4.ark:8599811
mter0_sx437 quick_test/fbank/raw_fbank_train.4.ark:8056580
mrcw0_sx381 quick_test/fbank/raw_fbank_train.4.ark:1355676
mbom0_sx384 quick_test/fbank/raw_fbank_train.2.ark:4104566
fpab1_sx121 quick_test/fbank/raw_fbank_train.1.ark:9815980
mtmn0_sx344 quick_test/fbank/raw_fbank_train.4.ark:9076518
fmkc0_sx82 quick_test/fbank/raw_fbank_train.1.ark:9229326
msmc0_si647 quick_test/fbank/raw_fbank_train.4.ark:6465955
mhxl0_sx152 quick_test/fbank/raw_fbank_train.3.ark:1506084
msrg0_sx51 quick_test/fbank/raw_fbank_train.4.ark:6818954
mmgg0_si2339 quick_test/fbank/raw_fbank_train.3.ark:9376869
fpad0_sx446 quick_test/fbank/raw_fbank_train.1.ark:10070969
mjxa0_sx157 quick_test/fbank/raw_fbank_train.3.ark:5500485
fdkn0_sx91 quick_test/fbank/raw_fbank_train.1.ark:2888105
mjai0_sx254 quick_test/fbank/raw_fbank_train.3.ark:1930614
mdas0_sx96 quick_test/fbank/raw_fbank_train.2.ark:6186683
mgag0_si1321 quick_test/fbank/raw_fbank_train.2.ark:11052729
mdcd0_sx335 quick_test/fbank/raw_fbank_train.2.ark:6457734
mgak0_si1036 quick_test/fbank/raw_fbank_train.2.ark:11142913
mrxb0_sx415 quick_test/fbank/raw_fbank_train.4.ark:5200438
flma0_sx163 quick_test/fbank/raw_fbank_train.1.ark:8081398
mfmc0_sx142 quick_test/fbank/raw_fbank_train.2.ark:10518316
mkdt0_sx83 quick_test/fbank/raw_fbank_train.3.ark:6347054
mdtb0_sx210 quick_test/fbank/raw_fbank_train.2.ark:9209763
mklr0_sx339 quick_test/fbank/raw_fbank_train.3.ark:6705090
mreh1_sx159 quick_test/fbank/raw_fbank_train.4.ark:1793792
mmam0_sx427 quick_test/fbank/raw_fbank_train.3.ark:8253701
mjeb1_sx297 quick_test/fbank/raw_fbank_train.3.ark:2761561
mesj0_si997 quick_test/fbank/raw_fbank_train.2.ark:10251930
fjrb0_sx42 quick_test/fbank/raw_fbank_train.1.ark:5540180
mdbb1_sx16 quick_test/fbank/raw_fbank_train.2.ark:6245690
mrlj0_si790 quick_test/fbank/raw_fbank_train.4.ark:3345411
mdcd0_si785 quick_test/fbank/raw_fbank_train.2.ark:6416635
msjk0_si1596 quick_test/fbank/raw_fbank_train.4.ark:6333024
fklc1_sx58 quick_test/fbank/raw_fbank_train.1.ark:6903627
fdml0_si1779 quick_test/fbank/raw_fbank_train.1.ark:2915533
mlns0_sx237 quick_test/fbank/raw_fbank_train.3.ark:7715269
mtcs0_si712 quick_test/fbank/raw_fbank_train.4.ark:7676613
mjee0_sx337 quick_test/fbank/raw_fbank_train.3.ark:2844674
mbth0_sx302 quick_test/fbank/raw_fbank_train.2.ark:4256108
mrew1_sx330 quick_test/fbank/raw_fbank_train.4.ark:2009067
mtwh1_si1512 quick_test/fbank/raw_fbank_train.4.ark:10004481
maeo0_sx246 quick_test/fbank/raw_fbank_train.2.ark:2451639
flod0_sx117 quick_test/fbank/raw_fbank_train.1.ark:8366954
mrkm0_sx187 quick_test/fbank/raw_fbank_train.4.ark:3173556
mejl0_sx332 quick_test/fbank/raw_fbank_train.2.ark:9992834
mhmg0_sx285 quick_test/fbank/raw_fbank_train.3.ark:1253188
mfxv0_sx105 quick_test/fbank/raw_fbank_train.2.ark:10913619
mjeb1_si1467 quick_test/fbank/raw_fbank_train.3.ark:2678883
mmdm0_sx141 quick_test/fbank/raw_fbank_train.3.ark:8841112
mdlr0_sx243 quick_test/fbank/raw_fbank_train.2.ark:8032982
fssb0_sx452 quick_test/fbank/raw_fbank_train.2.ark:1233900
fear0_sx352 quick_test/fbank/raw_fbank_train.1.ark:3588537
mklr0_sx159 quick_test/fbank/raw_fbank_train.3.ark:6682224
fcjs0_si1607 quick_test/fbank/raw_fbank_train.1.ark:1722195
mjpg0_sx381 quick_test/fbank/raw_fbank_train.3.ark:4219731
ftbw0_sx355 quick_test/fbank/raw_fbank_train.2.ark:1505501
fdnc0_sx198 quick_test/fbank/raw_fbank_train.1.ark:3195355
flja0_si1708 quick_test/fbank/raw_fbank_train.1.ark:7633432
mtat1_sx419 quick_test/fbank/raw_fbank_train.4.ark:7540975
mtkd0_si630 quick_test/fbank/raw_fbank_train.4.ark:8518253
mmgk0_si1322 quick_test/fbank/raw_fbank_train.3.ark:9448467
mreh1_sx69 quick_test/fbank/raw_fbank_train.4.ark:1844803
mfrm0_si1785 quick_test/fbank/raw_fbank_train.2.ark:10610949
fsah0_sx344 quick_test/fbank/raw_fbank_train.1.ark:11072465
mmws1_si1701 quick_test/fbank/raw_fbank_train.3.ark:10380086
mtrr0_sx18 quick_test/fbank/raw_fbank_train.4.ark:9859963
freh0_sx55 quick_test/fbank/raw_fbank_train.1.ark:10678870
mrab1_sx128 quick_test/fbank/raw_fbank_train.4.ark:704233
fvmh0_sx116 quick_test/fbank/raw_fbank_train.2.ark:1973240
fblv0_sx428 quick_test/fbank/raw_fbank_train.1.ark:1023394
meal0_sx347 quick_test/fbank/raw_fbank_train.2.ark:9614210
mabc0_si2041 quick_test/fbank/raw_fbank_train.2.ark:2026039
msfh0_sx226 quick_test/fbank/raw_fbank_train.4.ark:6165867
mkdd0_sx397 quick_test/fbank/raw_fbank_train.3.ark:6241630
fmju0_sx309 quick_test/fbank/raw_fbank_train.1.ark:9102195
mrld0_si1594 quick_test/fbank/raw_fbank_train.4.ark:3239599
mbcg0_sx417 quick_test/fbank/raw_fbank_train.2.ark:3436957
mdlm0_sx334 quick_test/fbank/raw_fbank_train.2.ark:7955230
mwgr0_sx166 quick_test/fbank/raw_fbank_train.4.ark:11095821
mrcw0_sx291 quick_test/fbank/raw_fbank_train.4.ark:1345803
ftbr0_sx201 quick_test/fbank/raw_fbank_train.2.ark:1396323
mrxb0_sx235 quick_test/fbank/raw_fbank_train.4.ark:5178492
fjrb0_si672 quick_test/fbank/raw_fbank_train.1.ark:5476736
mppc0_si1412 quick_test/fbank/raw_fbank_train.3.ark:11454885
fcdr1_sx16 quick_test/fbank/raw_fbank_train.1.ark:1509092
mtlb0_si504 quick_test/fbank/raw_fbank_train.4.ark:8729743
mjfh0_si477 quick_test/fbank/raw_fbank_train.3.ark:2905800
mapv0_si1923 quick_test/fbank/raw_fbank_train.2.ark:2904467
fpac0_si661 quick_test/fbank/raw_fbank_train.1.ark:9906572
mmbs0_si1781 quick_test/fbank/raw_fbank_train.3.ark:8408106
mjdc0_sx81 quick_test/fbank/raw_fbank_train.3.ark:2237549
mtlb0_sx234 quick_test/fbank/raw_fbank_train.4.ark:8750849
mjfh0_si1737 quick_test/fbank/raw_fbank_train.3.ark:2894887
msas0_sx206 quick_test/fbank/raw_fbank_train.4.ark:5369783
mmvp0_sx294 quick_test/fbank/raw_fbank_train.3.ark:10097863
mmws0_sx258 quick_test/fbank/raw_fbank_train.3.ark:10314880
fvkb0_sx439 quick_test/fbank/raw_fbank_train.2.ark:1902394
mmdg0_sx250 quick_test/fbank/raw_fbank_train.3.ark:8752360
mdwh0_sx35 quick_test/fbank/raw_fbank_train.2.ark:9433199
mefg0_si491 quick_test/fbank/raw_fbank_train.2.ark:9736414
fbjl0_sx112 quick_test/fbank/raw_fbank_train.1.ark:882109
fmem0_sx117 quick_test/fbank/raw_fbank_train.1.ark:8759895
mtlc0_sx397 quick_test/fbank/raw_fbank_train.4.ark:8883612
mkag0_si979 quick_test/fbank/raw_fbank_train.3.ark:5686222
mewm0_sx268 quick_test/fbank/raw_fbank_train.2.ark:10353099
fpaz0_sx423 quick_test/fbank/raw_fbank_train.1.ark:10272859
mbbr0_sx425 quick_test/fbank/raw_fbank_train.2.ark:3349133
mppc0_sx332 quick_test/fbank/raw_fbank_train.4.ark:12125
mbth0_sx122 quick_test/fbank/raw_fbank_train.2.ark:4227522
mrmg0_sx360 quick_test/fbank/raw_fbank_train.4.ark:3848557
mjlb0_sx176 quick_test/fbank/raw_fbank_train.3.ark:3623368
fclt0_sx448 quick_test/fbank/raw_fbank_train.1.ark:1975924
mrfl0_sx166 quick_test/fbank/raw_fbank_train.4.ark:2183012
majp0_sx174 quick_test/fbank/raw_fbank_train.2.ark:2621417
mtkd0_si1187 quick_test/fbank/raw_fbank_train.4.ark:8491346
mrre0_si704 quick_test/fbank/raw_fbank_train.4.ark:4298992
mtjs0_sx22 quick_test/fbank/raw_fbank_train.4.ark:8356581
fjwb1_sx75 quick_test/fbank/raw_fbank_train.1.ark:5960840
mcal0_sx418 quick_test/fbank/raw_fbank_train.2.ark:4589094
mcth0_sx399 quick_test/fbank/raw_fbank_train.2.ark:5799346
fmjb0_sx187 quick_test/fbank/raw_fbank_train.1.ark:8877121
fsdc0_sx232 quick_test/fbank/raw_fbank_train.1.ark:11474293
mrcg0_sx168 quick_test/fbank/raw_fbank_train.4.ark:1200600
msvs0_si938 quick_test/fbank/raw_fbank_train.4.ark:7066783
mrdm0_si965 quick_test/fbank/raw_fbank_train.4.ark:1486003
fksr0_si1747 quick_test/fbank/raw_fbank_train.1.ark:7029200
milb0_sx183 quick_test/fbank/raw_fbank_train.3.ark:1617028
mchl0_sx447 quick_test/fbank/raw_fbank_train.2.ark:5212045
mclk0_sx220 quick_test/fbank/raw_fbank_train.2.ark:5288924
mjfr0_si1605 quick_test/fbank/raw_fbank_train.3.ark:2963798
msrr0_sx30 quick_test/fbank/raw_fbank_train.4.ark:6895913
mcdd0_si2143 quick_test/fbank/raw_fbank_train.2.ark:4722179
mjxa0_sx67 quick_test/fbank/raw_fbank_train.3.ark:5544176
fbcg1_sx442 quick_test/fbank/raw_fbank_train.1.ark:706439
fvmh0_sx26 quick_test/fbank/raw_fbank_train.2.ark:1993825
mjjb0_sx239 quick_test/fbank/raw_fbank_train.3.ark:3222501
mrem0_si511 quick_test/fbank/raw_fbank_train.4.ark:1870950
maeo0_sx66 quick_test/fbank/raw_fbank_train.2.ark:2490137
mgxp0_si457 quick_test/fbank/raw_fbank_train.3.ark:827245
mfrm0_si1155 quick_test/fbank/raw_fbank_train.2.ark:10584681
mdlc2_si984 quick_test/fbank/raw_fbank_train.2.ark:7718442
fdxw0_si1511 quick_test/fbank/raw_fbank_train.1.ark:3343801
fsls0_sx426 quick_test/fbank/raw_fbank_train.2.ark:614149
mjjb0_sx329 quick_test/fbank/raw_fbank_train.3.ark:3235534
fsdj0_sx305 quick_test/fbank/raw_fbank_train.1.ark:11576271
mvlo0_sx337 quick_test/fbank/raw_fbank_train.4.ark:10363003
fmpg0_sx72 quick_test/fbank/raw_fbank_train.1.ark:9561917
mlns0_si2037 quick_test/fbank/raw_fbank_train.3.ark:7679730
mmws0_si1518 quick_test/fbank/raw_fbank_train.3.ark:10270828
mrpc1_si1482 quick_test/fbank/raw_fbank_train.4.ark:4193853
fspm0_sx341 quick_test/fbank/raw_fbank_train.2.ark:1026096
fear0_sx442 quick_test/fbank/raw_fbank_train.1.ark:3608410
msdh0_si980 quick_test/fbank/raw_fbank_train.4.ark:5674379
fdmy0_sx207 quick_test/fbank/raw_fbank_train.1.ark:3068337
msem1_sx450 quick_test/fbank/raw_fbank_train.4.ark:5984242
mcdd0_sx343 quick_test/fbank/raw_fbank_train.2.ark:4765871
fajw0_si1893 quick_test/fbank/raw_fbank_train.1.ark:120592
flmk0_sx315 quick_test/fbank/raw_fbank_train.1.ark:8295275
mjsr0_sx434 quick_test/fbank/raw_fbank_train.3.ark:5102725
mtqc0_sx361 quick_test/fbank/raw_fbank_train.4.ark:9675308
mwad0_si1749 quick_test/fbank/raw_fbank_train.4.ark:10614866
mjwt0_sx391 quick_test/fbank/raw_fbank_train.3.ark:5453591
mtkd0_sx107 quick_test/fbank/raw_fbank_train.4.ark:8538126
fkdw0_sx127 quick_test/fbank/raw_fbank_train.1.ark:6445155
mrjh0_si914 quick_test/fbank/raw_fbank_train.4.ark:2727422
fleh0_si1681 quick_test/fbank/raw_fbank_train.1.ark:7339235
flja0_sx358 quick_test/fbank/raw_fbank_train.1.ark:7678725
mdhl0_sx449 quick_test/fbank/raw_fbank_train.2.ark:7072157
mmab1_sx144 quick_test/fbank/raw_fbank_train.3.ark:8007751
madd0_sx88 quick_test/fbank/raw_fbank_train.2.ark:2293726
mrtc0_sx18 quick_test/fbank/raw_fbank_train.4.ark:4678086
mmeb0_si1357 quick_test/fbank/raw_fbank_train.3.ark:9167672
mrjt0_sx58 quick_test/fbank/raw_fbank_train.4.ark:3097182
fgrw0_sx342 quick_test/fbank/raw_fbank_train.1.ark:4573484
mmlm0_si897 quick_test/fbank/raw_fbank_train.3.ark:9651504
marw0_sx376 quick_test/fbank/raw_fbank_train.2.ark:3163994
mtpf0_sx335 quick_test/fbank/raw_fbank_train.4.ark:9267608
mntw0_sx78 quick_test/fbank/raw_fbank_train.3.ark:10723676
mtlb0_sx54 quick_test/fbank/raw_fbank_train.4.ark:8790947
mrjb1_si1413 quick_test/fbank/raw_fbank_train.4.ark:2587324
mrbc0_sx419 quick_test/fbank/raw_fbank_train.4.ark:1133474
fljd0_si886 quick_test/fbank/raw_fbank_train.1.ark:7747051
fjdm2_sx322 quick_test/fbank/raw_fbank_train.1.ark:4908882
mjpm1_sx401 quick_test/fbank/raw_fbank_train.3.ark:4403389
mprb0_sx125 quick_test/fbank/raw_fbank_train.4.ark:100044
mctm0_si720 quick_test/fbank/raw_fbank_train.2.ark:5843327
frjb0_si1470 quick_test/fbank/raw_fbank_train.1.ark:10701418
fcyl0_sx349 quick_test/fbank/raw_fbank_train.1.ark:2357632
mjbg0_sx332 quick_test/fbank/raw_fbank_train.3.ark:2025233
mwdk0_si2017 quick_test/fbank/raw_fbank_train.4.ark:10873544
mdma0_si2060 quick_test/fbank/raw_fbank_train.2.ark:8216367
mram0_sx105 quick_test/fbank/raw_fbank_train.4.ark:914204
mjfr0_sx435 quick_test/fbank/raw_fbank_train.3.ark:3043197
mmdm0_sx231 quick_test/fbank/raw_fbank_train.3.ark:8854025
mprt0_si495 quick_test/fbank/raw_fbank_train.4.ark:412812
fcrz0_sx433 quick_test/fbank/raw_fbank_train.1.ark:2271400
fnkl0_si1522 quick_test/fbank/raw_fbank_train.1.ark:9571831
fcyl0_si667 quick_test/fbank/raw_fbank_train.1.ark:2320253
mtcs0_si1972 quick_test/fbank/raw_fbank_train.4.ark:7663346
mcpm0_sx204 quick_test/fbank/raw_fbank_train.2.ark:5476454
fmah1_sx159 quick_test/fbank/raw_fbank_train.1.ark:8561686
mpgr0_si2040 quick_test/fbank/raw_fbank_train.3.ark:11115323
mcxm0_sx181 quick_test/fbank/raw_fbank_train.2.ark:5942865
mdwd0_si1260 quick_test/fbank/raw_fbank_train.2.ark:9251096
falr0_sx335 quick_test/fbank/raw_fbank_train.1.ark:369049
mjsr0_sx344 quick_test/fbank/raw_fbank_train.3.ark:5090252
fpmy0_sx196 quick_test/fbank/raw_fbank_train.1.ark:10554307
mprd0_sx171 quick_test/fbank/raw_fbank_train.4.ark:211109
mmag0_sx406 quick_test/fbank/raw_fbank_train.3.ark:8162555
mjrh0_sx315 quick_test/fbank/raw_fbank_train.3.ark:4693472
mfer0_si2122 quick_test/fbank/raw_fbank_train.2.ark:10403785
mrjb1_si2021 quick_test/fbank/raw_fbank_train.4.ark:2608238
mmaa0_sx35 quick_test/fbank/raw_fbank_train.3.ark:7948704
mpgh0_sx204 quick_test/fbank/raw_fbank_train.3.ark:11064797
mbbr0_sx245 quick_test/fbank/raw_fbank_train.2.ark:3322267
fklc0_si1615 quick_test/fbank/raw_fbank_train.1.ark:6715130
fmbg0_si2264 quick_test/fbank/raw_fbank_train.1.ark:8649479
mmar0_sx76 quick_test/fbank/raw_fbank_train.3.ark:8383838
fexm0_si482 quick_test/fbank/raw_fbank_train.1.ark:4086763
mljc0_sx415 quick_test/fbank/raw_fbank_train.3.ark:7518605
mkam0_sx146 quick_test/fbank/raw_fbank_train.3.ark:6000610
mkls1_si2175 quick_test/fbank/raw_fbank_train.3.ark:6858849
mpfu0_sx358 quick_test/fbank/raw_fbank_train.3.ark:10973286
mprd0_si1431 quick_test/fbank/raw_fbank_train.4.ark:165489
fmem0_si1377 quick_test/fbank/raw_fbank_train.1.ark:8717275
fbas0_sx307 quick_test/fbank/raw_fbank_train.1.ark:602661
fkaa0_si1208 quick_test/fbank/raw_fbank_train.1.ark:6174444
msms0_si2063 quick_test/fbank/raw_fbank_train.4.ark:6655012
mtrc0_sx170 quick_test/fbank/raw_fbank_train.4.ark:9759386
mrmb0_si951 quick_test/fbank/raw_fbank_train.4.ark:3715992
mbgt0_sx261 quick_test/fbank/raw_fbank_train.2.ark:3597101
fspm0_sx161 quick_test/fbank/raw_fbank_train.2.ark:992630
mdlc2_sx264 quick_test/fbank/raw_fbank_train.2.ark:7748588
mdpb0_sx56 quick_test/fbank/raw_fbank_train.2.ark:8593446
mtmn0_sx74 quick_test/fbank/raw_fbank_train.4.ark:9096343
mrsp0_sx259 quick_test/fbank/raw_fbank_train.4.ark:4582255
mtdp0_si1274 quick_test/fbank/raw_fbank_train.4.ark:7861996
mjxl0_si1795 quick_test/fbank/raw_fbank_train.3.ark:5576324
fcmg0_sx162 quick_test/fbank/raw_fbank_train.1.ark:2042571
mbth0_si505 quick_test/fbank/raw_fbank_train.2.ark:4206936
mjeb0_si1286 quick_test/fbank/raw_fbank_train.3.ark:2582618
mlns0_si1407 quick_test/fbank/raw_fbank_train.3.ark:7670456
mrkm0_si1391 quick_test/fbank/raw_fbank_train.4.ark:3132210
fmjf0_si1884 quick_test/fbank/raw_fbank_train.1.ark:8939478
mpmb0_si2131 quick_test/fbank/raw_fbank_train.3.ark:11314654
mdbb1_sx196 quick_test/fbank/raw_fbank_train.2.ark:6254363
mrsp0_si1429 quick_test/fbank/raw_fbank_train.4.ark:4515449
mrem0_sx151 quick_test/fbank/raw_fbank_train.4.ark:1898736
mjra0_si606 quick_test/fbank/raw_fbank_train.3.ark:4456042
mctm0_si1980 quick_test/fbank/raw_fbank_train.2.ark:5826294
mrlj1_sx141 quick_test/fbank/raw_fbank_train.4.ark:3449270
fjlr0_sx151 quick_test/fbank/raw_fbank_train.1.ark:5387944
mrjh0_sx169 quick_test/fbank/raw_fbank_train.4.ark:2736135
mbma1_sx234 quick_test/fbank/raw_fbank_train.2.ark:3880176
faem0_sx132 quick_test/fbank/raw_fbank_train.1.ark:39913
mbjv0_si1877 quick_test/fbank/raw_fbank_train.2.ark:3657267
mdhs0_sx180 quick_test/fbank/raw_fbank_train.2.ark:7135763
megj0_si707 quick_test/fbank/raw_fbank_train.2.ark:9859992
fpab1_sx211 quick_test/fbank/raw_fbank_train.1.ark:9830373
mmar0_sx256 quick_test/fbank/raw_fbank_train.3.ark:8340380
fklh0_si1257 quick_test/fbank/raw_fbank_train.1.ark:6919781
mkls1_sx15 quick_test/fbank/raw_fbank_train.3.ark:6897147
fcke0_sx121 quick_test/fbank/raw_fbank_train.1.ark:1857040
fmmh0_si2167 quick_test/fbank/raw_fbank_train.1.ark:9361097
msdh0_sx80 quick_test/fbank/raw_fbank_train.4.ark:5754143
mjrp0_si1845 quick_test/fbank/raw_fbank_train.3.ark:4923295
fcmg0_sx342 quick_test/fbank/raw_fbank_train.1.ark:2066397
fvmh0_si836 quick_test/fbank/raw_fbank_train.2.ark:1955767
fjen0_si2307 quick_test/fbank/raw_fbank_train.1.ark:4971449
msem1_sx180 quick_test/fbank/raw_fbank_train.4.ark:5946063
flmk0_sx225 quick_test/fbank/raw_fbank_train.1.ark:8286282
mjwt0_sx31 quick_test/fbank/raw_fbank_train.3.ark:5443958
fdas1_sx291 quick_test/fbank/raw_fbank_train.1.ark:2480849
mrms0_sx120 quick_test/fbank/raw_fbank_train.4.ark:4146568
fcmg0_si1872 quick_test/fbank/raw_fbank_train.1.ark:2031618
mkln0_sx68 quick_test/fbank/raw_fbank_train.3.ark:6639569
mdpk0_sx153 quick_test/fbank/raw_fbank_train.2.ark:8634060
mkjo0_sx167 quick_test/fbank/raw_fbank_train.3.ark:6498213
fklc0_sx355 quick_test/fbank/raw_fbank_train.1.ark:6785416
mrav0_sx108 quick_test/fbank/raw_fbank_train.4.ark:1006750
mmag0_sx46 quick_test/fbank/raw_fbank_train.3.ark:8178427
fdfb0_sx418 quick_test/fbank/raw_fbank_train.1.ark:2668262
mjeb0_si1916 quick_test/fbank/raw_fbank_train.3.ark:2596212
mrcg0_si2058 quick_test/fbank/raw_fbank_train.4.ark:1174374
mdpk0_si1683 quick_test/fbank/raw_fbank_train.2.ark:8619114
mhbs0_sx315 quick_test/fbank/raw_fbank_train.3.ark:976200
mgrl0_sx327 quick_test/fbank/raw_fbank_train.3.ark:440241
maeo0_si1956 quick_test/fbank/raw_fbank_train.2.ark:2430413
mdsj0_si2092 quick_test/fbank/raw_fbank_train.2.ark:8914149
fdml0_sx249 quick_test/fbank/raw_fbank_train.1.ark:2944353
fsjs0_sx361 quick_test/fbank/raw_fbank_train.2.ark:110990
mjdc0_sx261 quick_test/fbank/raw_fbank_train.3.ark:2208331
fmkc0_si1702 quick_test/fbank/raw_fbank_train.1.ark:9166682
mjmd0_sx398 quick_test/fbank/raw_fbank_train.3.ark:4039721
mdlh0_si700 quick_test/fbank/raw_fbank_train.2.ark:7814866
fklh0_si627 quick_test/fbank/raw_fbank_train.1.ark:6946728
ftmg0_sx452 quick_test/fbank/raw_fbank_train.2.ark:1712543
mrso0_si1206 quick_test/fbank/raw_fbank_train.4.ark:4395303
mjac0_sx251 quick_test/fbank/raw_fbank_train.3.ark:1702131
fdkn0_sx451 quick_test/fbank/raw_fbank_train.1.ark:2869233
fapb0_sx163 quick_test/fbank/raw_fbank_train.1.ark:454089
mtpf0_sx245 quick_test/fbank/raw_fbank_train.4.ark:9253775
mrmg0_si2340 quick_test/fbank/raw_fbank_train.4.ark:3811218
fdaw0_sx416 quick_test/fbank/raw_fbank_train.1.ark:2584476
mgsh0_sx186 quick_test/fbank/raw_fbank_train.3.ark:650698
mrjt0_si1498 quick_test/fbank/raw_fbank_train.4.ark:3011511
mgar0_si1842 quick_test/fbank/raw_fbank_train.3.ark:24161
mkam0_si1250 quick_test/fbank/raw_fbank_train.3.ark:5950269
mtpp0_sx338 quick_test/fbank/raw_fbank_train.4.ark:9445498
mjlg1_si1642 quick_test/fbank/raw_fbank_train.3.ark:3689407
mmlm0_sx357 quick_test/fbank/raw_fbank_train.3.ark:9681723
fhlm0_sx349 quick_test/fbank/raw_fbank_train.1.ark:4685622
mmag0_sx316 quick_test/fbank/raw_fbank_train.3.ark:8149962
fvkb0_si529 quick_test/fbank/raw_fbank_train.2.ark:1843302
mfxs0_si2225 quick_test/fbank/raw_fbank_train.2.ark:10785646
mwad0_sx432 quick_test/fbank/raw_fbank_train.4.ark:10657752
fjsk0_si2312 quick_test/fbank/raw_fbank_train.1.ark:5706907
fsak0_si1300 quick_test/fbank/raw_fbank_train.1.ark:11102684
mcdr0_si1154 quick_test/fbank/raw_fbank_train.2.ark:4801810
msjk0_sx156 quick_test/fbank/raw_fbank_train.4.ark:6372644
mmws1_sx261 quick_test/fbank/raw_fbank_train.3.ark:10399313
mrjt0_sx328 quick_test/fbank/raw_fbank_train.4.ark:3069037
fpjf0_si1046 quick_test/fbank/raw_fbank_train.1.ark:10299125
mjpm0_si738 quick_test/fbank/raw_fbank_train.3.ark:4261352
mmcc0_si1338 quick_test/fbank/raw_fbank_train.3.ark:8509457
mrmb0_sx51 quick_test/fbank/raw_fbank_train.4.ark:3777156
mdac0_sx451 quick_test/fbank/raw_fbank_train.2.ark:6081789
fear0_sx82 quick_test/fbank/raw_fbank_train.1.ark:3621842
mrai0_sx72 quick_test/fbank/raw_fbank_train.4.ark:864389
milb0_si903 quick_test/fbank/raw_fbank_train.3.ark:1598995
mjbg0_si1232 quick_test/fbank/raw_fbank_train.3.ark:1966906
fmjb0_sx7 quick_test/fbank/raw_fbank_train.1.ark:8907738
fcyl0_sx37 quick_test/fbank/raw_fbank_train.1.ark:2375024
mjrh1_sx244 quick_test/fbank/raw_fbank_train.3.ark:4782024
mjxa0_sx337 quick_test/fbank/raw_fbank_train.3.ark:5524311
mtrr0_si918 quick_test/fbank/raw_fbank_train.4.ark:9831698
mmam0_sx337 quick_test/fbank/raw_fbank_train.3.ark:8243188
mjxa0_si2137 quick_test/fbank/raw_fbank_train.3.ark:5479179
mjmd0_si1028 quick_test/fbank/raw_fbank_train.3.ark:3965689
mdtb0_sx300 quick_test/fbank/raw_fbank_train.2.ark:9218756
mdmt0_si572 quick_test/fbank/raw_fbank_train.2.ark:8323032
fdas1_si831 quick_test/fbank/raw_fbank_train.1.ark:2428798
feme0_sx155 quick_test/fbank/raw_fbank_train.1.ark:3895266
fear0_sx262 quick_test/fbank/raw_fbank_train.1.ark:3577664
mkxl0_si1958 quick_test/fbank/raw_fbank_train.3.ark:7165758
fklc0_si2245 quick_test/fbank/raw_fbank_train.1.ark:6723044
fsrh0_si1719 quick_test/fbank/raw_fbank_train.2.ark:1059315
mrws0_sx202 quick_test/fbank/raw_fbank_train.4.ark:5083347
mmxs0_si629 quick_test/fbank/raw_fbank_train.3.ark:10455830
mvjh0_sx116 quick_test/fbank/raw_fbank_train.4.ark:10249872
mprd0_si2061 quick_test/fbank/raw_fbank_train.4.ark:181283
mtjs0_si1192 quick_test/fbank/raw_fbank_train.4.ark:8280896
mmdg0_sx340 quick_test/fbank/raw_fbank_train.3.ark:8766633
mmdm1_si783 quick_test/fbank/raw_fbank_train.3.ark:8917784
mprb0_sx305 quick_test/fbank/raw_fbank_train.4.ark:127430
fsjs0_sx451 quick_test/fbank/raw_fbank_train.2.ark:121743
mjxl0_sx272 quick_test/fbank/raw_fbank_train.3.ark:5605023
mhmr0_sx219 quick_test/fbank/raw_fbank_train.3.ark:1329988
msem1_si2070 quick_test/fbank/raw_fbank_train.4.ark:5896157
mmgk0_sx332 quick_test/fbank/raw_fbank_train.3.ark:9493513
fsmm0_sx54 quick_test/fbank/raw_fbank_train.2.ark:837431
marc0_sx18 quick_test/fbank/raw_fbank_train.2.ark:3030950
mmag0_sx136 quick_test/fbank/raw_fbank_train.3.ark:8120176
msvs0_sx128 quick_test/fbank/raw_fbank_train.4.ark:7086216
fltm0_sx350 quick_test/fbank/raw_fbank_train.1.ark:8479047
mdhl0_sx89 quick_test/fbank/raw_fbank_train.2.ark:7086749
fgcs0_sx316 quick_test/fbank/raw_fbank_train.1.ark:4236488
fjlg0_si1506 quick_test/fbank/raw_fbank_train.1.ark:5253818
mkrg0_sx231 quick_test/fbank/raw_fbank_train.3.ark:7105399
msas0_si2006 quick_test/fbank/raw_fbank_train.4.ark:5326684
fmmh0_si907 quick_test/fbank/raw_fbank_train.1.ark:9374930
mtlb0_si1764 quick_test/fbank/raw_fbank_train.4.ark:8722110
fgmb0_sx425 quick_test/fbank/raw_fbank_train.1.ark:4477811
fmmh0_sx367 quick_test/fbank/raw_fbank_train.1.ark:9396836
marc0_sx288 quick_test/fbank/raw_fbank_train.2.ark:3049576
fdnc0_sx18 quick_test/fbank/raw_fbank_train.1.ark:3182242
mcdd0_sx433 quick_test/fbank/raw_fbank_train.2.ark:4778224
mjae0_sx354 quick_test/fbank/raw_fbank_train.3.ark:1824223
feac0_si1245 quick_test/fbank/raw_fbank_train.1.ark:3429986
mjdg0_sx412 quick_test/fbank/raw_fbank_train.3.ark:2450727
fblv0_sx248 quick_test/fbank/raw_fbank_train.1.ark:999568
mmxs0_sx426 quick_test/fbank/raw_fbank_train.3.ark:10517075
mbbr0_sx65 quick_test/fbank/raw_fbank_train.2.ark:3357045
mgak0_sx226 quick_test/fbank/raw_fbank_train.2.ark:11202487
fcjs0_sx347 quick_test/fbank/raw_fbank_train.1.ark:1770681
msdh0_si2240 quick_test/fbank/raw_fbank_train.4.ark:5668386
marw0_sx106 quick_test/fbank/raw_fbank_train.2.ark:3102543
mdjm0_sx375 quick_test/fbank/raw_fbank_train.2.ark:7271199
mrjm0_sx238 quick_test/fbank/raw_fbank_train.4.ark:2855794
fskl0_sx359 quick_test/fbank/raw_fbank_train.2.ark:408025
mrvg0_sx60 quick_test/fbank/raw_fbank_train.4.ark:4928715
fjkl0_sx212 quick_test/fbank/raw_fbank_train.1.ark:5205766
mcdd0_si883 quick_test/fbank/raw_fbank_train.2.ark:4733452
fsmm0_sx144 quick_test/fbank/raw_fbank_train.2.ark:779420
mzmb0_si1796 quick_test/fbank/raw_fbank_train.4.ark:11574518
meal0_si917 quick_test/fbank/raw_fbank_train.2.ark:9578398
frll0_si1514 quick_test/fbank/raw_fbank_train.1.ark:10781290
mdns0_sx201 quick_test/fbank/raw_fbank_train.2.ark:8460203
mkah0_si2158 quick_test/fbank/raw_fbank_train.3.ark:5777533
mcss0_sx390 quick_test/fbank/raw_fbank_train.2.ark:5700361
mrms0_sx30 quick_test/fbank/raw_fbank_train.4.ark:4167353
fklc1_si1678 quick_test/fbank/raw_fbank_train.1.ark:6837869
feac0_sx75 quick_test/fbank/raw_fbank_train.1.ark:3522577
mmrp0_sx54 quick_test/fbank/raw_fbank_train.3.ark:9903718
mtml0_sx75 quick_test/fbank/raw_fbank_train.4.ark:8988198
msrg0_sx411 quick_test/fbank/raw_fbank_train.4.ark:6807002
mrlk0_sx33 quick_test/fbank/raw_fbank_train.4.ark:3580393
mdma0_si1430 quick_test/fbank/raw_fbank_train.2.ark:8202533
mrjm1_sx128 quick_test/fbank/raw_fbank_train.4.ark:2949586
mrso0_sx399 quick_test/fbank/raw_fbank_train.4.ark:4502695
mdrd0_sx122 quick_test/fbank/raw_fbank_train.2.ark:8828470
fcke0_sx391 quick_test/fbank/raw_fbank_train.1.ark:1895771
fcdr1_si556 quick_test/fbank/raw_fbank_train.1.ark:1475627
mrjm1_sx218 quick_test/fbank/raw_fbank_train.4.ark:2959139
mkah0_sx448 quick_test/fbank/raw_fbank_train.3.ark:5840258
mjrk0_sx430 quick_test/fbank/raw_fbank_train.3.ark:4897235
fmah1_sx339 quick_test/fbank/raw_fbank_train.1.ark:8585032
mfwk0_si1879 quick_test/fbank/raw_fbank_train.2.ark:10689421
mtdp0_sx351 quick_test/fbank/raw_fbank_train.4.ark:7932203
mcae0_si2077 quick_test/fbank/raw_fbank_train.2.ark:4418266
mdhl0_sx269 quick_test/fbank/raw_fbank_train.2.ark:7048731
mrgs0_si1986 quick_test/fbank/raw_fbank_train.4.ark:2390236
fksr0_sx161 quick_test/fbank/raw_fbank_train.1.ark:7052266
mctm0_si1350 quick_test/fbank/raw_fbank_train.2.ark:5809260
mjws0_sx243 quick_test/fbank/raw_fbank_train.3.ark:5295508
mrre0_sx254 quick_test/fbank/raw_fbank_train.4.ark:4348771
mcew0_si2072 quick_test/fbank/raw_fbank_train.2.ark:5019614
fmjb0_si1807 quick_test/fbank/raw_fbank_train.1.ark:8847335
mjws0_sx423 quick_test/fbank/raw_fbank_train.3.ark:5326254
makb0_sx296 quick_test/fbank/raw_fbank_train.2.ark:2789221
mrgs0_sx366 quick_test/fbank/raw_fbank_train.4.ark:2437248
mjkr0_sx301 quick_test/fbank/raw_fbank_train.3.ark:3553689
flet0_si1137 quick_test/fbank/raw_fbank_train.1.ark:7421587
mtbc0_sx93 quick_test/fbank/raw_fbank_train.4.ark:7654032
mjra0_sx336 quick_test/fbank/raw_fbank_train.3.ark:4488981
fmbg0_sx3 quick_test/fbank/raw_fbank_train.1.ark:8670583
fdxw0_si881 quick_test/fbank/raw_fbank_train.1.ark:3357988
madc0_si1367 quick_test/fbank/raw_fbank_train.2.ark:2103670
mesg0_si702 quick_test/fbank/raw_fbank_train.2.ark:10145225
mkes0_sx173 quick_test/fbank/raw_fbank_train.3.ark:6403548
msdh0_sx170 quick_test/fbank/raw_fbank_train.4.ark:5692652
mtmt0_sx308 quick_test/fbank/raw_fbank_train.4.ark:9170143
fskp0_sx288 quick_test/fbank/raw_fbank_train.2.ark:515562
fjlg0_sx449 quick_test/fbank/raw_fbank_train.1.ark:5324898
mtpr0_sx340 quick_test/fbank/raw_fbank_train.4.ark:9554283
mjee0_si1237 quick_test/fbank/raw_fbank_train.3.ark:2786308
fcrz0_sx253 quick_test/fbank/raw_fbank_train.1.ark:2250894
msds0_si2337 quick_test/fbank/raw_fbank_train.4.ark:5800285
mdlr1_sx219 quick_test/fbank/raw_fbank_train.2.ark:8142487
mwar0_sx55 quick_test/fbank/raw_fbank_train.4.ark:10759410
mdmt0_sx32 quick_test/fbank/raw_fbank_train.2.ark:8378603
mbgt0_si1841 quick_test/fbank/raw_fbank_train.2.ark:3546402
mdss0_sx351 quick_test/fbank/raw_fbank_train.2.ark:9044786
mgjc0_si1965 quick_test/fbank/raw_fbank_train.3.ark:301757
fljg0_sx351 quick_test/fbank/raw_fbank_train.1.ark:7887895
fcag0_si2133 quick_test/fbank/raw_fbank_train.1.ark:1272777
fcjf0_si1027 quick_test/fbank/raw_fbank_train.1.ark:1644050
fksr0_sx366 quick_test/fbank/raw_fbank_train.1.ark:7077292
mjpg0_si1191 quick_test/fbank/raw_fbank_train.3.ark:4143660
mbth0_sx212 quick_test/fbank/raw_fbank_train.2.ark:4242235
mzmb0_sx176 quick_test/fbank/raw_fbank_train.4.ark:11596944
mtpp0_si2138 quick_test/fbank/raw_fbank_train.4.ark:9405806
mmaa0_si845 quick_test/fbank/raw_fbank_train.3.ark:7894053
mprb0_si575 quick_test/fbank/raw_fbank_train.4.ark:80051
fcrz0_sx343 quick_test/fbank/raw_fbank_train.1.ark:2259407
falr0_si1325 quick_test/fbank/raw_fbank_train.1.ark:310923
feeh0_sx392 quick_test/fbank/raw_fbank_train.1.ark:3840572
fpaf0_sx244 quick_test/fbank/raw_fbank_train.1.ark:10145929
fclt0_si1438 quick_test/fbank/raw_fbank_train.1.ark:1903685
mkjo0_si2147 quick_test/fbank/raw_fbank_train.3.ark:6478587
mmpm0_sx251 quick_test/fbank/raw_fbank_train.3.ark:9762236
fetb0_si518 quick_test/fbank/raw_fbank_train.1.ark:3987258
mtat1_sx329 quick_test/fbank/raw_fbank_train.4.ark:7523022
mdhl0_si1439 quick_test/fbank/raw_fbank_train.2.ark:6999558
mtab0_sx42 quick_test/fbank/raw_fbank_train.4.ark:7265652
mdlc1_sx355 quick_test/fbank/raw_fbank_train.2.ark:7678116
mwch0_si2252 quick_test/fbank/raw_fbank_train.4.ark:10790712
mrso0_si1659 quick_test/fbank/raw_fbank_train.4.ark:4417737
fjkl0_sx392 quick_test/fbank/raw_fbank_train.1.ark:5241144
fsrh0_si671 quick_test/fbank/raw_fbank_train.2.ark:1075742
mmdm0_sx51 quick_test/fbank/raw_fbank_train.3.ark:8889683
mdwh0_sx215 quick_test/fbank/raw_fbank_train.2.ark:9403174
msdb0_sx197 quick_test/fbank/raw_fbank_train.4.ark:5637612
mreh1_sx429 quick_test/fbank/raw_fbank_train.4.ark:1831531
mmds0_sx353 quick_test/fbank/raw_fbank_train.3.ark:9052388
mhjb0_si1647 quick_test/fbank/raw_fbank_train.3.ark:1114998
fmkf0_si1018 quick_test/fbank/raw_fbank_train.1.ark:9241000
fpls0_sx3 quick_test/fbank/raw_fbank_train.1.ark:10455995
mdss0_sx171 quick_test/fbank/raw_fbank_train.2.ark:9024840
mpar0_sx316 quick_test/fbank/raw_fbank_train.3.ark:10790036
mabc0_sx421 quick_test/fbank/raw_fbank_train.2.ark:2083644
mrmh0_sx391 quick_test/fbank/raw_fbank_train.4.ark:3969288
ftbr0_si1402 quick_test/fbank/raw_fbank_train.2.ark:1340710
mbom0_sx204 quick_test/fbank/raw_fbank_train.2.ark:4070147
fceg0_sx78 quick_test/fbank/raw_fbank_train.1.ark:1635896
mmdm1_sx423 quick_test/fbank/raw_fbank_train.3.ark:8976036
mdwd0_si1890 quick_test/fbank/raw_fbank_train.2.ark:9268970
mjdc0_sx441 quick_test/fbank/raw_fbank_train.3.ark:2228077
fpaf0_si1684 quick_test/fbank/raw_fbank_train.1.ark:10115189
fmpg0_sx162 quick_test/fbank/raw_fbank_train.1.ark:9493746
fjrb0_sx402 quick_test/fbank/raw_fbank_train.1.ark:5521828
fcaj0_si1479 quick_test/fbank/raw_fbank_train.1.ark:1346735
mgxp0_si525 quick_test/fbank/raw_fbank_train.3.ark:839438
mdac0_sx181 quick_test/fbank/raw_fbank_train.2.ark:6045050
milb0_sx363 quick_test/fbank/raw_fbank_train.3.ark:1645365
mrfk0_si1076 quick_test/fbank/raw_fbank_train.4.ark:2050766
mdss1_si697 quick_test/fbank/raw_fbank_train.2.ark:9097512
fjsk0_sx332 quick_test/fbank/raw_fbank_train.1.ark:5739206
mrld0_si2224 quick_test/fbank/raw_fbank_train.4.ark:3252633
mapv0_sx123 quick_test/fbank/raw_fbank_train.2.ark:2934013
mkaj0_sx244 quick_test/fbank/raw_fbank_train.3.ark:5910577
fgmb0_si1145 quick_test/fbank/raw_fbank_train.1.ark:4384012
ftmg0_sx182 quick_test/fbank/raw_fbank_train.2.ark:1678604
mtlc0_sx307 quick_test/fbank/raw_fbank_train.4.ark:8866707
maeb0_sx270 quick_test/fbank/raw_fbank_train.2.ark:2359053
fbas0_sx397 quick_test/fbank/raw_fbank_train.1.ark:620366
mwar0_si1045 quick_test/fbank/raw_fbank_train.4.ark:10677538
fbch0_sx416 quick_test/fbank/raw_fbank_train.1.ark:813303
mhbs0_sx405 quick_test/fbank/raw_fbank_train.3.ark:986353
fsms1_si2134 quick_test/fbank/raw_fbank_train.2.ark:863459
mjee0_si607 quick_test/fbank/raw_fbank_train.3.ark:2811095
mhmr0_si1119 quick_test/fbank/raw_fbank_train.3.ark:1275495
mmdg0_sx160 quick_test/fbank/raw_fbank_train.3.ark:8736047
mmlm0_si2150 quick_test/fbank/raw_fbank_train.3.ark:9634231
fskc0_si786 quick_test/fbank/raw_fbank_train.2.ark:280901
mjfr0_sx75 quick_test/fbank/raw_fbank_train.3.ark:3061269
mpeb0_sx60 quick_test/fbank/raw_fbank_train.3.ark:10896086
fapb0_sx253 quick_test/fbank/raw_fbank_train.1.ark:467002
fbch0_si1586 quick_test/fbank/raw_fbank_train.1.ark:731665
mjeb1_sx207 quick_test/fbank/raw_fbank_train.3.ark:2743016
mchl0_sx357 quick_test/fbank/raw_fbank_train.2.ark:5198492
mbsb0_sx363 quick_test/fbank/raw_fbank_train.2.ark:4169317
ftaj0_si1329 quick_test/fbank/raw_fbank_train.2.ark:1263166
mmsm0_sx386 quick_test/fbank/raw_fbank_train.3.ark:10010583
fjsp0_sx354 quick_test/fbank/raw_fbank_train.1.ark:5839591
fjxp0_sx42 quick_test/fbank/raw_fbank_train.1.ark:6165490
msms0_si803 quick_test/fbank/raw_fbank_train.4.ark:6665125
flja0_si2338 quick_test/fbank/raw_fbank_train.1.ark:7639826
mfxs0_sx324 quick_test/fbank/raw_fbank_train.2.ark:10826939
mtpg0_sx303 quick_test/fbank/raw_fbank_train.4.ark:9358673
mejl0_si962 quick_test/fbank/raw_fbank_train.2.ark:9959415
mkln0_sx428 quick_test/fbank/raw_fbank_train.3.ark:6625697
fsjw0_sx253 quick_test/fbank/raw_fbank_train.2.ark:205502
fsjk1_sx35 quick_test/fbank/raw_fbank_train.2.ark:22477
fgmb0_si515 quick_test/fbank/raw_fbank_train.1.ark:4416359
fcmm0_sx183 quick_test/fbank/raw_fbank_train.1.ark:2145236
fskl0_sx179 quick_test/fbank/raw_fbank_train.2.ark:386359
mrld0_si964 quick_test/fbank/raw_fbank_train.4.ark:3261826
mwdk0_si806 quick_test/fbank/raw_fbank_train.4.ark:10882937
fjwb1_si2055 quick_test/fbank/raw_fbank_train.1.ark:5876770
mjdm0_sx260 quick_test/fbank/raw_fbank_train.3.ark:2527606
mjls0_si466 quick_test/fbank/raw_fbank_train.3.ark:3806186
frjb0_si1427 quick_test/fbank/raw_fbank_train.1.ark:10690344
falk0_sx276 quick_test/fbank/raw_fbank_train.1.ark:262553
mtdb0_sx321 quick_test/fbank/raw_fbank_train.4.ark:7824337
mjdc0_si531 quick_test/fbank/raw_fbank_train.3.ark:2171065
mdks0_sx436 quick_test/fbank/raw_fbank_train.2.ark:7359033
mjai0_sx74 quick_test/fbank/raw_fbank_train.3.ark:1957352
mdss1_si1327 quick_test/fbank/raw_fbank_train.2.ark:9076685
mrso0_si2289 quick_test/fbank/raw_fbank_train.4.ark:4432971
meal0_sx107 quick_test/fbank/raw_fbank_train.2.ark:9587231
mdlh0_sx250 quick_test/fbank/raw_fbank_train.2.ark:7847972
mclm0_si2086 quick_test/fbank/raw_fbank_train.2.ark:5347530
fgcs0_sx46 quick_test/fbank/raw_fbank_train.1.ark:4259073
mrgm0_sx262 quick_test/fbank/raw_fbank_train.4.ark:2314270
msds0_sx267 quick_test/fbank/raw_fbank_train.4.ark:5824111
fcmm0_sx363 quick_test/fbank/raw_fbank_train.1.ark:2164022
fsrh0_sx401 quick_test/fbank/raw_fbank_train.2.ark:1128634
fpac0_sx31 quick_test/fbank/raw_fbank_train.1.ark:9965503
mrtj0_sx232 quick_test/fbank/raw_fbank_train.4.ark:4793712
mmam0_si1668 quick_test/fbank/raw_fbank_train.3.ark:8203935
mrjb1_sx30 quick_test/fbank/raw_fbank_train.4.ark:2654816
mdss1_sx337 quick_test/fbank/raw_fbank_train.2.ark:9135251
fmjf0_sx444 quick_test/fbank/raw_fbank_train.1.ark:9006163
fjxm0_si581 quick_test/fbank/raw_fbank_train.1.ark:5990461
mrfk0_sx176 quick_test/fbank/raw_fbank_train.4.ark:2083707
fapb0_si1693 quick_test/fbank/raw_fbank_train.1.ark:420782
fkfb0_sx438 quick_test/fbank/raw_fbank_train.1.ark:6572919
fsdc0_sx52 quick_test/fbank/raw_fbank_train.1.ark:11507031
mjjj0_si1163 quick_test/fbank/raw_fbank_train.3.ark:3272473
mlel0_si616 quick_test/fbank/raw_fbank_train.3.ark:7351608
msrr0_si1131 quick_test/fbank/raw_fbank_train.4.ark:6828548
mmgc0_sx315 quick_test/fbank/raw_fbank_train.3.ark:9317142
mrab0_si1224 quick_test/fbank/raw_fbank_train.4.ark:564788
fdnc0_si1908 quick_test/fbank/raw_fbank_train.1.ark:3143783
mmxs0_sx246 quick_test/fbank/raw_fbank_train.3.ark:10491129
fnkl0_sx196 quick_test/fbank/raw_fbank_train.1.ark:9625124
mrpc1_sx42 quick_test/fbank/raw_fbank_train.4.ark:4269685
fleh0_sx151 quick_test/fbank/raw_fbank_train.1.ark:7358062
fkfb0_sx258 quick_test/fbank/raw_fbank_train.1.ark:6543813
mabc0_sx151 quick_test/fbank/raw_fbank_train.2.ark:2052705
fskl0_si1529 quick_test/fbank/raw_fbank_train.2.ark:347179
fdfb0_sx328 quick_test/fbank/raw_fbank_train.1.ark:2656949
mdjm0_sx105 quick_test/fbank/raw_fbank_train.2.ark:7231668
mbcg0_si957 quick_test/fbank/raw_fbank_train.2.ark:3384145
flet0_sx417 quick_test/fbank/raw_fbank_train.1.ark:7493386
mrhl0_sx75 quick_test/fbank/raw_fbank_train.4.ark:2563416
mpgr1_si1269 quick_test/fbank/raw_fbank_train.3.ark:11190114
fkaa0_sx308 quick_test/fbank/raw_fbank_train.1.ark:6237810
msfv0_sx92 quick_test/fbank/raw_fbank_train.4.ark:6319030
mcxm0_sx91 quick_test/fbank/raw_fbank_train.2.ark:5993276
mrml0_sx251 quick_test/fbank/raw_fbank_train.4.ark:4043055
mhbs0_sx45 quick_test/fbank/raw_fbank_train.3.ark:996385
fclt0_sx268 quick_test/fbank/raw_fbank_train.1.ark:1952298
mprt0_sx400 quick_test/fbank/raw_fbank_train.4.ark:475729
mmeb0_sx7 quick_test/fbank/raw_fbank_train.3.ark:9237309
mpgr0_sx150 quick_test/fbank/raw_fbank_train.3.ark:11131909
mjwg0_sx355 quick_test/fbank/raw_fbank_train.3.ark:5214956
makb0_si2276 quick_test/fbank/raw_fbank_train.2.ark:2729810
fvfb0_si2292 quick_test/fbank/raw_fbank_train.2.ark:1765157
mesg0_sx342 quick_test/fbank/raw_fbank_train.2.ark:10186684
mrmb0_sx321 quick_test/fbank/raw_fbank_train.4.ark:3751251
mdss0_sx261 quick_test/fbank/raw_fbank_train.2.ark:9038073
fpls0_sx150 quick_test/fbank/raw_fbank_train.1.ark:10435411
mwdk0_sx266 quick_test/fbank/raw_fbank_train.4.ark:10911323
medr0_si2004 quick_test/fbank/raw_fbank_train.2.ark:9647431
msas0_sx296 quick_test/fbank/raw_fbank_train.4.ark:5396288
mjwg0_si813 quick_test/fbank/raw_fbank_train.3.ark:5141104
mter0_si1787 quick_test/fbank/raw_fbank_train.4.ark:7999496
mddc0_sx339 quick_test/fbank/raw_fbank_train.2.ark:6650664
mbml0_sx269 quick_test/fbank/raw_fbank_train.2.ark:3979561
fjlg0_si2306 quick_test/fbank/raw_fbank_train.1.ark:5279526
mjma0_si865 quick_test/fbank/raw_fbank_train.3.ark:3902731
mtkp0_sx393 quick_test/fbank/raw_fbank_train.4.ark:8694162
fcag0_sx63 quick_test/fbank/raw_fbank_train.1.ark:1336101
mrml0_sx341 quick_test/fbank/raw_fbank_train.4.ark:4061648
fgcs0_si856 quick_test/fbank/raw_fbank_train.1.ark:4198309
mtat1_sx59 quick_test/fbank/raw_fbank_train.4.ark:7556167
mtlc0_sx127 quick_test/fbank/raw_fbank_train.4.ark:8851801
mhxl0_si512 quick_test/fbank/raw_fbank_train.3.ark:1484138
fcaj0_sx39 quick_test/fbank/raw_fbank_train.1.ark:1412253
fbas0_sx127 quick_test/fbank/raw_fbank_train.1.ark:584755
fdtd0_sx211 quick_test/fbank/raw_fbank_train.1.ark:3286828
fcrz0_sx73 quick_test/fbank/raw_fbank_train.1.ark:2284352
fskc0_si1416 quick_test/fbank/raw_fbank_train.2.ark:256514
mjdc0_sx171 quick_test/fbank/raw_fbank_train.3.ark:2194778
fsgf0_sx27 quick_test/fbank/raw_fbank_train.1.ark:11675055
mjls0_sx286 quick_test/fbank/raw_fbank_train.3.ark:3844277
fjlr0_sx331 quick_test/fbank/raw_fbank_train.1.ark:5412930
fbas0_si1472 quick_test/fbank/raw_fbank_train.1.ark:541808
mbjv0_sx167 quick_test/fbank/raw_fbank_train.2.ark:3679733
msah1_si1679 quick_test/fbank/raw_fbank_train.4.ark:5233898
mmvp0_sx347 quick_test/fbank/raw_fbank_train.3.ark:10109696
mdwh0_si665 quick_test/fbank/raw_fbank_train.2.ark:9372468
mmaa0_si2105 quick_test/fbank/raw_fbank_train.3.ark:7883980
fsah0_si614 quick_test/fbank/raw_fbank_train.1.ark:11021206
mrdd0_si1050 quick_test/fbank/raw_fbank_train.4.ark:1364790
fcjf0_si648 quick_test/fbank/raw_fbank_train.1.ark:1668317
frjb0_sx167 quick_test/fbank/raw_fbank_train.1.ark:10715085
mefg0_sx105 quick_test/fbank/raw_fbank_train.2.ark:9773520
fgrw0_sx252 quick_test/fbank/raw_fbank_train.1.ark:4562491
mgjc0_sx255 quick_test/fbank/raw_fbank_train.3.ark:330383
mjda0_si1661 quick_test/fbank/raw_fbank_train.3.ark:2073286
mbef0_si1911 quick_test/fbank/raw_fbank_train.2.ark:3471977
ftbr0_sx111 quick_test/fbank/raw_fbank_train.2.ark:1386050
mprk0_si1097 quick_test/fbank/raw_fbank_train.4.ark:276994
mdsj0_sx22 quick_test/fbank/raw_fbank_train.2.ark:8945607
mmdm1_sx243 quick_test/fbank/raw_fbank_train.3.ark:8947210
mded0_sx270 quick_test/fbank/raw_fbank_train.2.ark:6738856
mdhs0_sx90 quick_test/fbank/raw_fbank_train.2.ark:7179214
mkls0_sx267 quick_test/fbank/raw_fbank_train.3.ark:6793323
mwsb0_sx96 quick_test/fbank/raw_fbank_train.4.ark:11430545
mtml0_si2325 quick_test/fbank/raw_fbank_train.4.ark:8921634
mtkd0_sx17 quick_test/fbank/raw_fbank_train.4.ark:8550798
fjxp0_si1752 quick_test/fbank/raw_fbank_train.1.ark:6093933
mrlj1_sx51 quick_test/fbank/raw_fbank_train.4.ark:3491601
fsjs0_si1171 quick_test/fbank/raw_fbank_train.2.ark:43184
