fvfb0_sx42 quick_test/data-fmllr-tri3/train/data/feats_fmllr_train.3.ark:16067762
mjjj0_sx173 quick_test/data-fmllr-tri3/train/data/feats_fmllr_train.6.ark:12913011
mclm0_sx196 quick_test/data-fmllr-tri3/train/data/feats_fmllr_train.4.ark:11983036
fmkf0_sx186 quick_test/data-fmllr-tri3/train/data/feats_fmllr_train.2.ark:17307836
fjsk0_sx332 quick_test/data-fmllr-tri3/train/data/feats_fmllr_train.2.ark:3504290
mgxp0_sx7 quick_test/data-fmllr-tri3/train/data/feats_fmllr_train.6.ark:3475828
mpgr0_sx420 quick_test/data-fmllr-tri3/train/data/feats_fmllr_train.8.ark:7398218
mdlr1_sx399 quick_test/data-fmllr-tri3/train/data/feats_fmllr_train.5.ark:5426384
fhlm0_sx210 quick_test/data-fmllr-tri3/train/data/feats_fmllr_train.1.ark:18143172
fbjl0_si2182 quick_test/data-fmllr-tri3/train/data/feats_fmllr_train.1.ark:3325293
mmag0_sx46 quick_test/data-fmllr-tri3/train/data/feats_fmllr_train.7.ark:13810141
mkdt0_sx443 quick_test/data-fmllr-tri3/train/data/feats_fmllr_train.7.ark:6634206
fspm0_sx161 quick_test/data-fmllr-tri3/train/data/feats_fmllr_train.3.ark:12860799
frll0_si884 quick_test/data-fmllr-tri3/train/data/feats_fmllr_train.3.ark:4818030
mmwb0_si989 quick_test/data-fmllr-tri3/train/data/feats_fmllr_train.8.ark:3577864
medr0_sx384 quick_test/data-fmllr-tri3/train/data/feats_fmllr_train.5.ark:11386819
fajw0_sx93 quick_test/data-fmllr-tri3/train/data/feats_fmllr_train.1.ark:764097
mrcg0_sx438 quick_test/data-fmllr-tri3/train/data/feats_fmllr_train.8.ark:13571395
mcre0_si1751 quick_test/data-fmllr-tri3/train/data/feats_fmllr_train.4.ark:12538431
mwad0_sx342 quick_test/data-fmllr-tri3/train/data/feats_fmllr_train.10.ark:14055906
msms0_sx353 quick_test/data-fmllr-tri3/train/data/feats_fmllr_train.9.ark:16854069
mdpk0_sx243 quick_test/data-fmllr-tri3/train/data/feats_fmllr_train.5.ark:7229470
fpab1_sx31 quick_test/data-fmllr-tri3/train/data/feats_fmllr_train.3.ark:1115968
mtlc0_si847 quick_test/data-fmllr-tri3/train/data/feats_fmllr_train.10.ark:7032237
mfer0_sx232 quick_test/data-fmllr-tri3/train/data/feats_fmllr_train.5.ark:14182549
mntw0_sx348 quick_test/data-fmllr-tri3/train/data/feats_fmllr_train.8.ark:5640334
fpac0_sx391 quick_test/data-fmllr-tri3/train/data/feats_fmllr_train.3.ark:1566772
msah1_si1679 quick_test/data-fmllr-tri3/train/data/feats_fmllr_train.9.ark:11139399
mbma0_si592 quick_test/data-fmllr-tri3/train/data/feats_fmllr_train.4.ark:5653726
fvkb0_si1159 quick_test/data-fmllr-tri3/train/data/feats_fmllr_train.3.ark:16098030
mrcg0_sx168 quick_test/data-fmllr-tri3/train/data/feats_fmllr_train.8.ark:13407314
mtcs0_si1972 quick_test/data-fmllr-tri3/train/data/feats_fmllr_train.10.ark:2446435
fmjb0_sx97 quick_test/data-fmllr-tri3/train/data/feats_fmllr_train.2.ark:15881314
mkxl0_sx15 quick_test/data-fmllr-tri3/train/data/feats_fmllr_train.7.ark:9968427
mtlb0_si504 quick_test/data-fmllr-tri3/train/data/feats_fmllr_train.10.ark:6598420
fklc1_sx148 quick_test/data-fmllr-tri3/train/data/feats_fmllr_train.2.ark:7841024
mcre0_sx41 quick_test/data-fmllr-tri3/train/data/feats_fmllr_train.4.ark:12777284
feme0_si1505 quick_test/data-fmllr-tri3/train/data/feats_fmllr_train.1.ark:14992742
mjls0_sx106 quick_test/data-fmllr-tri3/train/data/feats_fmllr_train.6.ark:14838577
majp0_sx444 quick_test/data-fmllr-tri3/train/data/feats_fmllr_train.4.ark:1387869
mdac0_si631 quick_test/data-fmllr-tri3/train/data/feats_fmllr_train.4.ark:14444154
mjrp0_si1835 quick_test/data-fmllr-tri3/train/data/feats_fmllr_train.7.ark:1120985
mtab0_sx312 quick_test/data-fmllr-tri3/train/data/feats_fmllr_train.10.ark:775406
mtas0_sx305 quick_test/data-fmllr-tri3/train/data/feats_fmllr_train.10.ark:1132423
falk0_si1086 quick_test/data-fmllr-tri3/train/data/feats_fmllr_train.1.ark:814845
mdjm0_si825 quick_test/data-fmllr-tri3/train/data/feats_fmllr_train.5.ark:1679496
msvs0_sx308 quick_test/data-fmllr-tri3/train/data/feats_fmllr_train.10.ark:305269
mtat0_sx210 quick_test/data-fmllr-tri3/train/data/feats_fmllr_train.10.ark:1480133
mwrp0_sx3 quick_test/data-fmllr-tri3/train/data/feats_fmllr_train.10.ark:16676468
fdxw0_sx341 quick_test/data-fmllr-tri3/train/data/feats_fmllr_train.1.ark:13223633
mwsh0_sx346 quick_test/data-fmllr-tri3/train/data/feats_fmllr_train.10.ark:17437060
fmkc0_sx442 quick_test/data-fmllr-tri3/train/data/feats_fmllr_train.2.ark:17034900
fpjf0_si1046 quick_test/data-fmllr-tri3/train/data/feats_fmllr_train.3.ark:2831611
mtwh1_sx432 quick_test/data-fmllr-tri3/train/data/feats_fmllr_train.10.ark:11800229
mdhs0_sx450 quick_test/data-fmllr-tri3/train/data/feats_fmllr_train.5.ark:1474747
mdlc0_si765 quick_test/data-fmllr-tri3/train/data/feats_fmllr_train.5.ark:2932948
mjpm1_sx41 quick_test/data-fmllr-tri3/train/data/feats_fmllr_train.6.ark:17164307
mpgr0_sx150 quick_test/data-fmllr-tri3/train/data/feats_fmllr_train.8.ark:7280697
fcmg0_sx432 quick_test/data-fmllr-tri3/train/data/feats_fmllr_train.1.ark:8087074
mkaj0_sx244 quick_test/data-fmllr-tri3/train/data/feats_fmllr_train.7.ark:4986725
mbjv0_sx257 quick_test/data-fmllr-tri3/train/data/feats_fmllr_train.4.ark:5381723
mtpp0_sx338 quick_test/data-fmllr-tri3/train/data/feats_fmllr_train.10.ark:9379701
mjde0_si490 quick_test/data-fmllr-tri3/train/data/feats_fmllr_train.6.ark:8860573
fblv0_si2318 quick_test/data-fmllr-tri3/train/data/feats_fmllr_train.1.ark:3799778
mrgm0_si1792 quick_test/data-fmllr-tri3/train/data/feats_fmllr_train.8.ark:17538129
mvrw0_si855 quick_test/data-fmllr-tri3/train/data/feats_fmllr_train.10.ark:13176350
mdef0_sx123 quick_test/data-fmllr-tri3/train/data/feats_fmllr_train.5.ark:160256
mtlc0_sx37 quick_test/data-fmllr-tri3/train/data/feats_fmllr_train.10.ark:7155704
mrbc0_sx239 quick_test/data-fmllr-tri3/train/data/feats_fmllr_train.8.ark:13038644
mlbc0_sx429 quick_test/data-fmllr-tri3/train/data/feats_fmllr_train.7.ark:10408219
mhit0_si983 quick_test/data-fmllr-tri3/train/data/feats_fmllr_train.6.ark:3993914
mtwh1_si1512 quick_test/data-fmllr-tri3/train/data/feats_fmllr_train.10.ark:11556066
fklc0_si985 quick_test/data-fmllr-tri3/train/data/feats_fmllr_train.2.ark:7365899
mrlj0_si1420 quick_test/data-fmllr-tri3/train/data/feats_fmllr_train.9.ark:3714123
madd0_sx88 quick_test/data-fmllr-tri3/train/data/feats_fmllr_train.3.ark:17915567
mjls0_sx376 quick_test/data-fmllr-tri3/train/data/feats_fmllr_train.6.ark:15009724
mkls0_sx267 quick_test/data-fmllr-tri3/train/data/feats_fmllr_train.7.ark:8417959
mbbr0_sx335 quick_test/data-fmllr-tri3/train/data/feats_fmllr_train.4.ark:3979923
msat1_sx263 quick_test/data-fmllr-tri3/train/data/feats_fmllr_train.9.ark:12353413
mpsw0_sx24 quick_test/data-fmllr-tri3/train/data/feats_fmllr_train.8.ark:10784700
mctm0_sx360 quick_test/data-fmllr-tri3/train/data/feats_fmllr_train.4.ark:13857721
mjlg1_sx382 quick_test/data-fmllr-tri3/train/data/feats_fmllr_train.6.ark:14611267
mjrh1_sx334 quick_test/data-fmllr-tri3/train/data/feats_fmllr_train.7.ark:646287
falk0_sx186 quick_test/data-fmllr-tri3/train/data/feats_fmllr_train.1.ark:984206
mtju0_si2269 quick_test/data-fmllr-tri3/train/data/feats_fmllr_train.10.ark:5370862
mclk0_si2290 quick_test/data-fmllr-tri3/train/data/feats_fmllr_train.4.ark:11392312
msdh0_sx350 quick_test/data-fmllr-tri3/train/data/feats_fmllr_train.9.ark:13033875
fdmy0_sx297 quick_test/data-fmllr-tri3/train/data/feats_fmllr_train.1.ark:12031166
mrlj1_sx51 quick_test/data-fmllr-tri3/train/data/feats_fmllr_train.9.ark:4361410
mtrr0_sx288 quick_test/data-fmllr-tri3/train/data/feats_fmllr_train.10.ark:11079634
mbma1_sx144 quick_test/data-fmllr-tri3/train/data/feats_fmllr_train.4.ark:6061010
flja0_si1708 quick_test/data-fmllr-tri3/train/data/feats_fmllr_train.2.ark:10876148
fsls0_sx202 quick_test/data-fmllr-tri3/train/data/feats_fmllr_train.3.ark:11316758
mrhl0_sx165 quick_test/data-fmllr-tri3/train/data/feats_fmllr_train.9.ark:563830
mjjj0_sx263 quick_test/data-fmllr-tri3/train/data/feats_fmllr_train.6.ark:12966798
fapb0_si1063 quick_test/data-fmllr-tri3/train/data/feats_fmllr_train.1.ark:1568716
fjlr0_sx421 quick_test/data-fmllr-tri3/train/data/feats_fmllr_train.2.ark:2283185
mtlb0_sx414 quick_test/data-fmllr-tri3/train/data/feats_fmllr_train.10.ark:6790688
mdhl0_si2069 quick_test/data-fmllr-tri3/train/data/feats_fmllr_train.5.ark:877915
fdnc0_si2287 quick_test/data-fmllr-tri3/train/data/feats_fmllr_train.1.ark:12303437
fear0_sx82 quick_test/data-fmllr-tri3/train/data/feats_fmllr_train.1.ark:14089720
mrdm0_si965 quick_test/data-fmllr-tri3/train/data/feats_fmllr_train.8.ark:14517059
mtcs0_sx442 quick_test/data-fmllr-tri3/train/data/feats_fmllr_train.10.ark:2728518
mtat0_si1740 quick_test/data-fmllr-tri3/train/data/feats_fmllr_train.10.ark:1314132
mkah0_sx448 quick_test/data-fmllr-tri3/train/data/feats_fmllr_train.7.ark:4713762
mjkr0_si1201 quick_test/data-fmllr-tri3/train/data/feats_fmllr_train.6.ark:13552563
fsmm0_si1314 quick_test/data-fmllr-tri3/train/data/feats_fmllr_train.3.ark:11896283
mkrg0_sx231 quick_test/data-fmllr-tri3/train/data/feats_fmllr_train.7.ark:9633011
fdnc0_sx198 quick_test/data-fmllr-tri3/train/data/feats_fmllr_train.1.ark:12430877
mrpc1_sx402 quick_test/data-fmllr-tri3/train/data/feats_fmllr_train.9.ark:7345684
mvlo0_si1147 quick_test/data-fmllr-tri3/train/data/feats_fmllr_train.10.ark:12702958
mdjm0_si2085 quick_test/data-fmllr-tri3/train/data/feats_fmllr_train.5.ark:1629389
mcdr0_sx434 quick_test/data-fmllr-tri3/train/data/feats_fmllr_train.4.ark:10041178
mkjo0_si1517 quick_test/data-fmllr-tri3/train/data/feats_fmllr_train.7.ark:7147117
mabc0_sx331 quick_test/data-fmllr-tri3/train/data/feats_fmllr_train.3.ark:17059720
msms0_si803 quick_test/data-fmllr-tri3/train/data/feats_fmllr_train.9.ark:16707748
mjeb0_sx386 quick_test/data-fmllr-tri3/train/data/feats_fmllr_train.6.ark:10380239
falk0_sx6 quick_test/data-fmllr-tri3/train/data/feats_fmllr_train.1.ark:1121405
mlsh0_sx157 quick_test/data-fmllr-tri3/train/data/feats_fmllr_train.7.ark:12338183
mjws0_si1773 quick_test/data-fmllr-tri3/train/data/feats_fmllr_train.7.ark:2444063
mjma0_sx145 quick_test/data-fmllr-tri3/train/data/feats_fmllr_train.6.ark:15230634
fgmb0_sx245 quick_test/data-fmllr-tri3/train/data/feats_fmllr_train.1.ark:17296177
mtrt0_si597 quick_test/data-fmllr-tri3/train/data/feats_fmllr_train.10.ark:11320064
flja0_sx358 quick_test/data-fmllr-tri3/train/data/feats_fmllr_train.2.ark:11051777
fsjk1_si1025 quick_test/data-fmllr-tri3/train/data/feats_fmllr_train.3.ark:8826386
mrbc0_si1859 quick_test/data-fmllr-tri3/train/data/feats_fmllr_train.8.ark:12894563
mgaf0_si1282 quick_test/data-fmllr-tri3/train/data/feats_fmllr_train.5.ark:16233825
msah1_si2309 quick_test/data-fmllr-tri3/train/data/feats_fmllr_train.9.ark:11162627
mdlh0_sx70 quick_test/data-fmllr-tri3/train/data/feats_fmllr_train.5.ark:4293093
mtjs0_si1822 quick_test/data-fmllr-tri3/train/data/feats_fmllr_train.10.ark:4887605
msas0_sx206 quick_test/data-fmllr-tri3/train/data/feats_fmllr_train.9.ark:11667698
msmr0_sx325 quick_test/data-fmllr-tri3/train/data/feats_fmllr_train.9.ark:16480092
mmpm0_sx71 quick_test/data-fmllr-tri3/train/data/feats_fmllr_train.8.ark:2112810
mjpm0_sx108 quick_test/data-fmllr-tri3/train/data/feats_fmllr_train.6.ark:16610383
fjkl0_si932 quick_test/data-fmllr-tri3/train/data/feats_fmllr_train.2.ark:1292242
fltm0_si1070 quick_test/data-fmllr-tri3/train/data/feats_fmllr_train.2.ark:13933538
fdxw0_sx431 quick_test/data-fmllr-tri3/train/data/feats_fmllr_train.1.ark:13265740
mrpc1_sx312 quick_test/data-fmllr-tri3/train/data/feats_fmllr_train.9.ark:7283737
mdlc1_si1435 quick_test/data-fmllr-tri3/train/data/feats_fmllr_train.5.ark:3195510
mklr0_si1689 quick_test/data-fmllr-tri3/train/data/feats_fmllr_train.7.ark:7925179
fdaw0_sx146 quick_test/data-fmllr-tri3/train/data/feats_fmllr_train.1.ark:9925199
mewm0_sx448 quick_test/data-fmllr-tri3/train/data/feats_fmllr_train.5.ark:13941906
mmam0_sx67 quick_test/data-fmllr-tri3/train/data/feats_fmllr_train.7.ark:14132759
mdmt0_sx302 quick_test/data-fmllr-tri3/train/data/feats_fmllr_train.5.ark:6144686
mfer0_sx142 quick_test/data-fmllr-tri3/train/data/feats_fmllr_train.5.ark:14137082
fgrw0_si1152 quick_test/data-fmllr-tri3/train/data/feats_fmllr_train.1.ark:17507965
mcpm0_sx114 quick_test/data-fmllr-tri3/train/data/feats_fmllr_train.4.ark:12274240
fljd0_si886 quick_test/data-fmllr-tri3/train/data/feats_fmllr_train.2.ark:11318153
msas0_si1376 quick_test/data-fmllr-tri3/train/data/feats_fmllr_train.9.ark:11413989
mjfh0_sx27 quick_test/data-fmllr-tri3/train/data/feats_fmllr_train.6.ark:11421956
mclm0_si1456 quick_test/data-fmllr-tri3/train/data/feats_fmllr_train.4.ark:11767541
mdef0_sx213 quick_test/data-fmllr-tri3/train/data/feats_fmllr_train.5.ark:202843
fblv0_sx158 quick_test/data-fmllr-tri3/train/data/feats_fmllr_train.1.ark:3857085
fpad0_sx176 quick_test/data-fmllr-tri3/train/data/feats_fmllr_train.3.ark:1775202
fskc0_si2046 quick_test/data-fmllr-tri3/train/data/feats_fmllr_train.3.ark:10040025
mtpr0_si2230 quick_test/data-fmllr-tri3/train/data/feats_fmllr_train.10.ark:9569570
fpaz0_sx423 quick_test/data-fmllr-tri3/train/data/feats_fmllr_train.3.ark:2729317
mesj0_sx187 quick_test/data-fmllr-tri3/train/data/feats_fmllr_train.5.ark:13525130
fdaw0_si1271 quick_test/data-fmllr-tri3/train/data/feats_fmllr_train.1.ark:9731036
mmag0_sx406 quick_test/data-fmllr-tri3/train/data/feats_fmllr_train.7.ark:13748035
fkkh0_sx300 quick_test/data-fmllr-tri3/train/data/feats_fmllr_train.2.ark:7215549
feac0_sx255 quick_test/data-fmllr-tri3/train/data/feats_fmllr_train.1.ark:13557743
mmbs0_sx341 quick_test/data-fmllr-tri3/train/data/feats_fmllr_train.7.ark:14942740
ftmg0_sx272 quick_test/data-fmllr-tri3/train/data/feats_fmllr_train.3.ark:15565864
mwsh0_si1426 quick_test/data-fmllr-tri3/train/data/feats_fmllr_train.10.ark:17135164
mrmh0_sx301 quick_test/data-fmllr-tri3/train/data/feats_fmllr_train.9.ark:6145484
mtpg0_si2013 quick_test/data-fmllr-tri3/train/data/feats_fmllr_train.10.ark:8868816
fcjs0_sx437 quick_test/data-fmllr-tri3/train/data/feats_fmllr_train.1.ark:6950742
msdh0_si980 quick_test/data-fmllr-tri3/train/data/feats_fmllr_train.9.ark:12844514
mbwp0_si1969 quick_test/data-fmllr-tri3/train/data/feats_fmllr_train.4.ark:7733080
mdlc1_si2065 quick_test/data-fmllr-tri3/train/data/feats_fmllr_train.5.ark:3270578
mlbc0_sx339 quick_test/data-fmllr-tri3/train/data/feats_fmllr_train.7.ark:10368992
mjjj0_sx443 quick_test/data-fmllr-tri3/train/data/feats_fmllr_train.6.ark:13077412
mdas0_sx6 quick_test/data-fmllr-tri3/train/data/feats_fmllr_train.4.ark:15034236
mram0_sx195 quick_test/data-fmllr-tri3/train/data/feats_fmllr_train.8.ark:12384795
fvfb0_si1032 quick_test/data-fmllr-tri3/train/data/feats_fmllr_train.3.ark:15754452
fbjl0_si1552 quick_test/data-fmllr-tri3/train/data/feats_fmllr_train.1.ark:3276465
mdmt0_sx212 quick_test/data-fmllr-tri3/train/data/feats_fmllr_train.5.ark:6090739
mdwh0_sx35 quick_test/data-fmllr-tri3/train/data/feats_fmllr_train.5.ark:10286460
mjbg0_si1724 quick_test/data-fmllr-tri3/train/data/feats_fmllr_train.6.ark:7700374
mcef0_sx55 quick_test/data-fmllr-tri3/train/data/feats_fmllr_train.4.ark:10439821
mcdc0_sx212 quick_test/data-fmllr-tri3/train/data/feats_fmllr_train.4.ark:9161010
mejl0_sx152 quick_test/data-fmllr-tri3/train/data/feats_fmllr_train.5.ark:12376479
fsjs0_sx181 quick_test/data-fmllr-tri3/train/data/feats_fmllr_train.3.ark:9321725
mppc0_sx152 quick_test/data-fmllr-tri3/train/data/feats_fmllr_train.8.ark:8696389
frll0_sx164 quick_test/data-fmllr-tri3/train/data/feats_fmllr_train.3.ark:4874857
fsjg0_si1570 quick_test/data-fmllr-tri3/train/data/feats_fmllr_train.3.ark:8298329
mhbs0_si1575 quick_test/data-fmllr-tri3/train/data/feats_fmllr_train.6.ark:3565802
fjlr0_si1861 quick_test/data-fmllr-tri3/train/data/feats_fmllr_train.2.ark:2063850
fcmg0_si1872 quick_test/data-fmllr-tri3/train/data/feats_fmllr_train.1.ark:7902006
fklh0_si1257 quick_test/data-fmllr-tri3/train/data/feats_fmllr_train.2.ark:8100519
mmws1_si2331 quick_test/data-fmllr-tri3/train/data/feats_fmllr_train.8.ark:4403578
mdhl0_sx359 quick_test/data-fmllr-tri3/train/data/feats_fmllr_train.5.ark:1047623
fkde0_si1141 quick_test/data-fmllr-tri3/train/data/feats_fmllr_train.2.ark:5621455
mtbc0_si543 quick_test/data-fmllr-tri3/train/data/feats_fmllr_train.10.ark:2137473
mjxl0_si1172 quick_test/data-fmllr-tri3/train/data/feats_fmllr_train.7.ark:3610126
fntb0_sx213 quick_test/data-fmllr-tri3/train/data/feats_fmllr_train.3.ark:585618
fssb0_si1082 quick_test/data-fmllr-tri3/train/data/feats_fmllr_train.3.ark:13492191
mkdd0_si1567 quick_test/data-fmllr-tri3/train/data/feats_fmllr_train.7.ark:5940067
mprb0_si575 quick_test/data-fmllr-tri3/train/data/feats_fmllr_train.8.ark:9048419
mpeb0_si1034 quick_test/data-fmllr-tri3/train/data/feats_fmllr_train.8.ark:6068285
msfv0_si1892 quick_test/data-fmllr-tri3/train/data/feats_fmllr_train.9.ark:15015814
mtjg0_sx80 quick_test/data-fmllr-tri3/train/data/feats_fmllr_train.10.ark:4438052
mjma0_sx415 quick_test/data-fmllr-tri3/train/data/feats_fmllr_train.6.ark:15339035
mprk0_sx197 quick_test/data-fmllr-tri3/train/data/feats_fmllr_train.8.ark:10123013
fbmh0_si1136 quick_test/data-fmllr-tri3/train/data/feats_fmllr_train.1.ark:4082660
mbth0_sx122 quick_test/data-fmllr-tri3/train/data/feats_fmllr_train.4.ark:7455477
mrav0_sx198 quick_test/data-fmllr-tri3/train/data/feats_fmllr_train.8.ark:12731093
fljd0_si2146 quick_test/data-fmllr-tri3/train/data/feats_fmllr_train.2.ark:11279726
mwad0_si2322 quick_test/data-fmllr-tri3/train/data/feats_fmllr_train.10.ark:13948305
mdmt0_sx122 quick_test/data-fmllr-tri3/train/data/feats_fmllr_train.5.ark:6036312
mmlm0_sx267 quick_test/data-fmllr-tri3/train/data/feats_fmllr_train.8.ark:1594432
mmxs0_sx246 quick_test/data-fmllr-tri3/train/data/feats_fmllr_train.8.ark:4793767
mpsw0_sx167 quick_test/data-fmllr-tri3/train/data/feats_fmllr_train.8.ark:10738434
mafm0_si1569 quick_test/data-fmllr-tri3/train/data/feats_fmllr_train.4.ark:746368
mjpg0_sx111 quick_test/data-fmllr-tri3/train/data/feats_fmllr_train.6.ark:16271606
mklw0_si1571 quick_test/data-fmllr-tri3/train/data/feats_fmllr_train.7.ark:8990444
mmvp0_si654 quick_test/data-fmllr-tri3/train/data/feats_fmllr_train.8.ark:3060686
fgdp0_si988 quick_test/data-fmllr-tri3/train/data/feats_fmllr_train.1.ark:16694626
fsjs0_si541 quick_test/data-fmllr-tri3/train/data/feats_fmllr_train.3.ark:9261858
mgsl0_sx84 quick_test/data-fmllr-tri3/train/data/feats_fmllr_train.6.ark:3090200
fpls0_sx3 quick_test/data-fmllr-tri3/train/data/feats_fmllr_train.3.ark:3441083
mjac0_si701 quick_test/data-fmllr-tri3/train/data/feats_fmllr_train.6.ark:6545190
fhxs0_sx175 quick_test/data-fmllr-tri3/train/data/feats_fmllr_train.1.ark:18588164
mdlc0_sx405 quick_test/data-fmllr-tri3/train/data/feats_fmllr_train.5.ark:3103456
mwdk0_si2017 quick_test/data-fmllr-tri3/train/data/feats_fmllr_train.10.ark:14931171
mlsh0_sx427 quick_test/data-fmllr-tri3/train/data/feats_fmllr_train.7.ark:12494424
mhxl0_sx332 quick_test/data-fmllr-tri3/train/data/feats_fmllr_train.6.ark:5956360
ftbr0_si1402 quick_test/data-fmllr-tri3/train/data/feats_fmllr_train.3.ark:14212945
mjws0_sx63 quick_test/data-fmllr-tri3/train/data/feats_fmllr_train.7.ark:2774944
mejl0_sx332 quick_test/data-fmllr-tri3/train/data/feats_fmllr_train.5.ark:12459893
fskc0_sx336 quick_test/data-fmllr-tri3/train/data/feats_fmllr_train.3.ark:10198853
mmea0_sx218 quick_test/data-fmllr-tri3/train/data/feats_fmllr_train.7.ark:17492552
mtkp0_sx123 quick_test/data-fmllr-tri3/train/data/feats_fmllr_train.10.ark:6293590
mlel0_sx166 quick_test/data-fmllr-tri3/train/data/feats_fmllr_train.7.ark:10662755
mwad0_si1062 quick_test/data-fmllr-tri3/train/data/feats_fmllr_train.10.ark:13878809
mstf0_sx136 quick_test/data-fmllr-tri3/train/data/feats_fmllr_train.9.ark:17891624
mpgr0_sx240 quick_test/data-fmllr-tri3/train/data/feats_fmllr_train.8.ark:7307764
fbcg1_sx262 quick_test/data-fmllr-tri3/train/data/feats_fmllr_train.1.ark:2640621
fdaw0_si1406 quick_test/data-fmllr-tri3/train/data/feats_fmllr_train.1.ark:9808504
mpgh0_si675 quick_test/data-fmllr-tri3/train/data/feats_fmllr_train.8.ark:6881706
mhmg0_sx15 quick_test/data-fmllr-tri3/train/data/feats_fmllr_train.6.ark:4802082
fltm0_sx350 quick_test/data-fmllr-tri3/train/data/feats_fmllr_train.2.ark:14164395
mrai0_si2052 quick_test/data-fmllr-tri3/train/data/feats_fmllr_train.8.ark:11738870
fjxp0_sx222 quick_test/data-fmllr-tri3/train/data/feats_fmllr_train.2.ark:5018250
fcke0_sx301 quick_test/data-fmllr-tri3/train/data/feats_fmllr_train.1.ark:7306132
fmpg0_sx72 quick_test/data-fmllr-tri3/train/data/feats_fmllr_train.2.ark:18382293
flod0_sx207 quick_test/data-fmllr-tri3/train/data/feats_fmllr_train.2.ark:13827376
fsjw0_sx433 quick_test/data-fmllr-tri3/train/data/feats_fmllr_train.3.ark:9891623
mrmb0_sx231 quick_test/data-fmllr-tri3/train/data/feats_fmllr_train.9.ark:5342941
fpaf0_si2314 quick_test/data-fmllr-tri3/train/data/feats_fmllr_train.3.ark:2162273
fcag0_sx333 quick_test/data-fmllr-tri3/train/data/feats_fmllr_train.1.ark:5084510
msrr0_sx411 quick_test/data-fmllr-tri3/train/data/feats_fmllr_train.9.ark:17633569
mmvp0_sx347 quick_test/data-fmllr-tri3/train/data/feats_fmllr_train.8.ark:3309594
fcmm0_si453 quick_test/data-fmllr-tri3/train/data/feats_fmllr_train.1.ark:8306383
mbsb0_si1983 quick_test/data-fmllr-tri3/train/data/feats_fmllr_train.4.ark:7070569
mtqc0_sx361 quick_test/data-fmllr-tri3/train/data/feats_fmllr_train.10.ark:10276775
flag0_sx24 quick_test/data-fmllr-tri3/train/data/feats_fmllr_train.2.ark:9512825
mrew1_sx330 quick_test/data-fmllr-tri3/train/data/feats_fmllr_train.8.ark:16549745
mdas0_sx21 quick_test/data-fmllr-tri3/train/data/feats_fmllr_train.4.ark:14970504
mmcc0_si708 quick_test/data-fmllr-tri3/train/data/feats_fmllr_train.7.ark:15207196
mgak0_si1036 quick_test/data-fmllr-tri3/train/data/feats_fmllr_train.5.ark:16923058
mjdm0_sx170 quick_test/data-fmllr-tri3/train/data/feats_fmllr_train.6.ark:9746635
mabc0_si781 quick_test/data-fmllr-tri3/train/data/feats_fmllr_train.3.ark:16920439
fmjb0_si1807 quick_test/data-fmllr-tri3/train/data/feats_fmllr_train.2.ark:15598755
mkxl0_sx285 quick_test/data-fmllr-tri3/train/data/feats_fmllr_train.7.ark:10042081
fcdr1_sx106 quick_test/data-fmllr-tri3/train/data/feats_fmllr_train.1.ark:5825530
mewm0_si718 quick_test/data-fmllr-tri3/train/data/feats_fmllr_train.5.ark:13751398
fhlm0_sx300 quick_test/data-fmllr-tri3/train/data/feats_fmllr_train.1.ark:18191039
fjlr0_si1231 quick_test/data-fmllr-tri3/train/data/feats_fmllr_train.2.ark:1994862
fdas1_sx21 quick_test/data-fmllr-tri3/train/data/feats_fmllr_train.1.ark:9616554
mtkd0_sx17 quick_test/data-fmllr-tri3/train/data/feats_fmllr_train.10.ark:5902039
fdml0_sx429 quick_test/data-fmllr-tri3/train/data/feats_fmllr_train.1.ark:11522791
mwgr0_sx346 quick_test/data-fmllr-tri3/train/data/feats_fmllr_train.10.ark:15894594
mgxp0_sx97 quick_test/data-fmllr-tri3/train/data/feats_fmllr_train.6.ark:3521774
fcmg0_sx252 quick_test/data-fmllr-tri3/train/data/feats_fmllr_train.1.ark:7998540
fjdm2_sx142 quick_test/data-fmllr-tri3/train/data/feats_fmllr_train.2.ark:143456
mesj0_sx367 quick_test/data-fmllr-tri3/train/data/feats_fmllr_train.5.ark:13586624
fhlm0_si2190 quick_test/data-fmllr-tri3/train/data/feats_fmllr_train.1.ark:17983571
mses0_sx59 quick_test/data-fmllr-tri3/train/data/feats_fmllr_train.9.ark:14475541
fsrh0_si671 quick_test/data-fmllr-tri3/train/data/feats_fmllr_train.3.ark:13183549
fsjg0_si940 quick_test/data-fmllr-tri3/train/data/feats_fmllr_train.3.ark:8408304
mpmb0_sx61 quick_test/data-fmllr-tri3/train/data/feats_fmllr_train.8.ark:8466039
mtpp0_sx428 quick_test/data-fmllr-tri3/train/data/feats_fmllr_train.10.ark:9427408
mrem0_si961 quick_test/data-fmllr-tri3/train/data/feats_fmllr_train.8.ark:16083687
mbwp0_sx79 quick_test/data-fmllr-tri3/train/data/feats_fmllr_train.4.ark:8056281
mtrr0_sx18 quick_test/data-fmllr-tri3/train/data/feats_fmllr_train.10.ark:10994620
mafm0_sx309 quick_test/data-fmllr-tri3/train/data/feats_fmllr_train.4.ark:940104
fskp0_sx18 quick_test/data-fmllr-tri3/train/data/feats_fmllr_train.3.ark:10928219
msvs0_si938 quick_test/data-fmllr-tri3/train/data/feats_fmllr_train.10.ark:123908
mtbc0_si1803 quick_test/data-fmllr-tri3/train/data/feats_fmllr_train.10.ark:2089446
mklr0_sx339 quick_test/data-fmllr-tri3/train/data/feats_fmllr_train.7.ark:8074728
mses0_sx419 quick_test/data-fmllr-tri3/train/data/feats_fmllr_train.9.ark:14436955
fbjl0_sx112 quick_test/data-fmllr-tri3/train/data/feats_fmllr_train.1.ark:3435587
mgrl0_sx237 quick_test/data-fmllr-tri3/train/data/feats_fmllr_train.6.ark:1689792
mddc0_sx429 quick_test/data-fmllr-tri3/train/data/feats_fmllr_train.4.ark:16914362
mtat1_si779 quick_test/data-fmllr-tri3/train/data/feats_fmllr_train.10.ark:1701256
fskc0_sx156 quick_test/data-fmllr-tri3/train/data/feats_fmllr_train.3.ark:10120559
mtkd0_si630 quick_test/data-fmllr-tri3/train/data/feats_fmllr_train.10.ark:5774626
mdps0_sx359 quick_test/data-fmllr-tri3/train/data/feats_fmllr_train.5.ark:7619474
fexm0_si482 quick_test/data-fmllr-tri3/train/data/feats_fmllr_train.1.ark:15900911
fjhk0_sx122 quick_test/data-fmllr-tri3/train/data/feats_fmllr_train.2.ark:1009492
fkfb0_si1608 quick_test/data-fmllr-tri3/train/data/feats_fmllr_train.2.ark:6430530
fpls0_sx240 quick_test/data-fmllr-tri3/train/data/feats_fmllr_train.3.ark:3394338
mrsp0_si799 quick_test/data-fmllr-tri3/train/data/feats_fmllr_train.9.ark:8475187
mtlb0_sx234 quick_test/data-fmllr-tri3/train/data/feats_fmllr_train.10.ark:6680074
mmam0_sx247 quick_test/data-fmllr-tri3/train/data/feats_fmllr_train.7.ark:14006279
mmjb1_sx238 quick_test/data-fmllr-tri3/train/data/feats_fmllr_train.8.ark:1219975
mvjh0_sx116 quick_test/data-fmllr-tri3/train/data/feats_fmllr_train.10.ark:12511303
mdem0_sx248 quick_test/data-fmllr-tri3/train/data/feats_fmllr_train.5.ark:590419
mbjv0_si617 quick_test/data-fmllr-tri3/train/data/feats_fmllr_train.4.ark:5279749
mmwb0_sx269 quick_test/data-fmllr-tri3/train/data/feats_fmllr_train.8.ark:3694078
mdpk0_si552 quick_test/data-fmllr-tri3/train/data/feats_fmllr_train.5.ark:7156456
mmlm0_si1527 quick_test/data-fmllr-tri3/train/data/feats_fmllr_train.8.ark:1439763
mpar0_sx406 quick_test/data-fmllr-tri3/train/data/feats_fmllr_train.8.ark:5989671
mtqc0_sx271 quick_test/data-fmllr-tri3/train/data/feats_fmllr_train.10.ark:10227148
fnkl0_si1522 quick_test/data-fmllr-tri3/train/data/feats_fmllr_train.3.ark:13
fexm0_si1731 quick_test/data-fmllr-tri3/train/data/feats_fmllr_train.1.ark:15844404
fmem0_sx333 quick_test/data-fmllr-tri3/train/data/feats_fmllr_train.2.ark:15384272
mjpg0_si1821 quick_test/data-fmllr-tri3/train/data/feats_fmllr_train.6.ark:16147392
mwch0_sx182 quick_test/data-fmllr-tri3/train/data/feats_fmllr_train.10.ark:14657248
fsag0_sx153 quick_test/data-fmllr-tri3/train/data/feats_fmllr_train.3.ark:5209474
fdtd0_si931 quick_test/data-fmllr-tri3/train/data/feats_fmllr_train.1.ark:12689414
mmsm0_si1736 quick_test/data-fmllr-tri3/train/data/feats_fmllr_train.8.ark:2635802
msdh0_si2240 quick_test/data-fmllr-tri3/train/data/feats_fmllr_train.9.ark:12821927
mbma1_sx234 quick_test/data-fmllr-tri3/train/data/feats_fmllr_train.4.ark:6109037
mrjm0_sx58 quick_test/data-fmllr-tri3/train/data/feats_fmllr_train.9.ark:2037869
mbma1_sx54 quick_test/data-fmllr-tri3/train/data/feats_fmllr_train.4.ark:6271197
fcjs0_si2237 quick_test/data-fmllr-tri3/train/data/feats_fmllr_train.1.ark:6728207
mrlr0_sx386 quick_test/data-fmllr-tri3/train/data/feats_fmllr_train.9.ark:5112564
fapb0_sx163 quick_test/data-fmllr-tri3/train/data/feats_fmllr_train.1.ark:1767839
mkam0_sx236 quick_test/data-fmllr-tri3/train/data/feats_fmllr_train.7.ark:5376863
fhxs0_sx265 quick_test/data-fmllr-tri3/train/data/feats_fmllr_train.1.ark:18663231
mpar0_si946 quick_test/data-fmllr-tri3/train/data/feats_fmllr_train.8.ark:5822843
mtpr0_sx250 quick_test/data-fmllr-tri3/train/data/feats_fmllr_train.10.ark:9746771
mjfr0_si1605 quick_test/data-fmllr-tri3/train/data/feats_fmllr_train.6.ark:11522678
mdem0_sx428 quick_test/data-fmllr-tri3/train/data/feats_fmllr_train.5.ark:703273
fjen0_si1677 quick_test/data-fmllr-tri3/train/data/feats_fmllr_train.2.ark:463299
mgsl0_sx174 quick_test/data-fmllr-tri3/train/data/feats_fmllr_train.6.ark:2879853
mtwh1_si882 quick_test/data-fmllr-tri3/train/data/feats_fmllr_train.10.ark:11633081
maeb0_si990 quick_test/data-fmllr-tri3/train/data/feats_fmllr_train.4.ark:105828
mjpm0_si1368 quick_test/data-fmllr-tri3/train/data/feats_fmllr_train.6.ark:16436381
mtas0_si2015 quick_test/data-fmllr-tri3/train/data/feats_fmllr_train.10.ark:993915
mmcc0_sx78 quick_test/data-fmllr-tri3/train/data/feats_fmllr_train.7.ark:15445890
mbom0_si1644 quick_test/data-fmllr-tri3/train/data/feats_fmllr_train.4.ark:6738350
mdlr1_sx309 quick_test/data-fmllr-tri3/train/data/feats_fmllr_train.5.ark:5324891
mdwh0_si665 quick_test/data-fmllr-tri3/train/data/feats_fmllr_train.5.ark:10049073
mses0_sx329 quick_test/data-fmllr-tri3/train/data/feats_fmllr_train.9.ark:14387168
mdss1_sx67 quick_test/data-fmllr-tri3/train/data/feats_fmllr_train.5.ark:9202795
mljc0_si1225 quick_test/data-fmllr-tri3/train/data/feats_fmllr_train.7.ark:10940010
mjmd0_sx308 quick_test/data-fmllr-tri3/train/data/feats_fmllr_train.6.ark:15619386
mrmh0_sx211 quick_test/data-fmllr-tri3/train/data/feats_fmllr_train.9.ark:6105617
falk0_sx276 quick_test/data-fmllr-tri3/train/data/feats_fmllr_train.1.ark:1022473
mrms0_sx120 quick_test/data-fmllr-tri3/train/data/feats_fmllr_train.9.ark:6909225
mprt0_sx130 quick_test/data-fmllr-tri3/train/data/feats_fmllr_train.8.ark:10419656
mcdd0_si883 quick_test/data-fmllr-tri3/train/data/feats_fmllr_train.4.ark:9425173
mprd0_sx441 quick_test/data-fmllr-tri3/train/data/feats_fmllr_train.8.ark:9730504
mdlc2_si1614 quick_test/data-fmllr-tri3/train/data/feats_fmllr_train.5.ark:3572848
frjb0_sx77 quick_test/data-fmllr-tri3/train/data/feats_fmllr_train.3.ark:4658108
mmgc0_sx315 quick_test/data-fmllr-tri3/train/data/feats_fmllr_train.8.ark:229430
mefg0_sx375 quick_test/data-fmllr-tri3/train/data/feats_fmllr_train.5.ark:11770074
mkxl0_si1958 quick_test/data-fmllr-tri3/train/data/feats_fmllr_train.7.ark:9866134
fceg0_sx348 quick_test/data-fmllr-tri3/train/data/feats_fmllr_train.1.ark:6262121
mtdb0_si771 quick_test/data-fmllr-tri3/train/data/feats_fmllr_train.10.ark:2927027
msjk0_sx336 quick_test/data-fmllr-tri3/train/data/feats_fmllr_train.9.ark:15666219
fpls0_si960 quick_test/data-fmllr-tri3/train/data/feats_fmllr_train.3.ark:3288524
mhxl0_si1772 quick_test/data-fmllr-tri3/train/data/feats_fmllr_train.6.ark:5723585
mwch0_si1895 quick_test/data-fmllr-tri3/train/data/feats_fmllr_train.10.ark:14589353
mrgm0_sx262 quick_test/data-fmllr-tri3/train/data/feats_fmllr_train.8.ark:17738690
ftmg0_si2162 quick_test/data-fmllr-tri3/train/data/feats_fmllr_train.3.ark:15409303
mgsl0_si1164 quick_test/data-fmllr-tri3/train/data/feats_fmllr_train.6.ark:2726812
mrkm0_sx97 quick_test/data-fmllr-tri3/train/data/feats_fmllr_train.9.ark:3340918
mesg0_sx432 quick_test/data-fmllr-tri3/train/data/feats_fmllr_train.5.ark:13267074
fsmm0_si1944 quick_test/data-fmllr-tri3/train/data/feats_fmllr_train.3.ark:11939351
mtjg0_sx170 quick_test/data-fmllr-tri3/train/data/feats_fmllr_train.10.ark:4200345
mrlk0_sx123 quick_test/data-fmllr-tri3/train/data/feats_fmllr_train.9.ark:4587120
mlns0_sx237 quick_test/data-fmllr-tri3/train/data/feats_fmllr_train.7.ark:12005993
mcth0_sx219 quick_test/data-fmllr-tri3/train/data/feats_fmllr_train.4.ark:13423397
fkdw0_sx397 quick_test/data-fmllr-tri3/train/data/feats_fmllr_train.2.ark:6385222
feac0_si1875 quick_test/data-fmllr-tri3/train/data/feats_fmllr_train.1.ark:13380702
fskl0_si2159 quick_test/data-fmllr-tri3/train/data/feats_fmllr_train.3.ark:10395922
ftaj0_sx339 quick_test/data-fmllr-tri3/train/data/feats_fmllr_train.3.ark:14106144
mvrw0_si1485 quick_test/data-fmllr-tri3/train/data/feats_fmllr_train.10.ark:13095495
mwem0_si1950 quick_test/data-fmllr-tri3/train/data/feats_fmllr_train.10.ark:15337496
mjeb0_sx206 quick_test/data-fmllr-tri3/train/data/feats_fmllr_train.6.ark:10250879
mdlm0_si1864 quick_test/data-fmllr-tri3/train/data/feats_fmllr_train.5.ark:4364189
mwch0_si1622 quick_test/data-fmllr-tri3/train/data/feats_fmllr_train.10.ark:14541165
mjrh0_sx315 quick_test/data-fmllr-tri3/train/data/feats_fmllr_train.7.ark:249910
mrre0_sx434 quick_test/data-fmllr-tri3/train/data/feats_fmllr_train.9.ark:7775820
mfxs0_si2304 quick_test/data-fmllr-tri3/train/data/feats_fmllr_train.5.ark:15562565
fcaj0_sx399 quick_test/data-fmllr-tri3/train/data/feats_fmllr_train.1.ark:5537260
mejs0_sx70 quick_test/data-fmllr-tri3/train/data/feats_fmllr_train.5.ark:12958403
mapv0_si1293 quick_test/data-fmllr-tri3/train/data/feats_fmllr_train.4.ark:2243558
msat1_sx443 quick_test/data-fmllr-tri3/train/data/feats_fmllr_train.9.ark:12436987
fpmy0_si1153 quick_test/data-fmllr-tri3/train/data/feats_fmllr_train.3.ark:3564844
mnet0_sx96 quick_test/data-fmllr-tri3/train/data/feats_fmllr_train.8.ark:5278702
fcjf0_si1027 quick_test/data-fmllr-tri3/train/data/feats_fmllr_train.1.ark:6398842
fspm0_sx251 quick_test/data-fmllr-tri3/train/data/feats_fmllr_train.3.ark:12919386
mrhl0_sx345 quick_test/data-fmllr-tri3/train/data/feats_fmllr_train.9.ark:652204
mkls0_si2067 quick_test/data-fmllr-tri3/train/data/feats_fmllr_train.7.ark:8317585
mjee0_si1237 quick_test/data-fmllr-tri3/train/data/feats_fmllr_train.6.ark:10834884
mjdm0_sx440 quick_test/data-fmllr-tri3/train/data/feats_fmllr_train.6.ark:9943036
msah1_sx59 quick_test/data-fmllr-tri3/train/data/feats_fmllr_train.9.ark:11389961
mjws0_sx333 quick_test/data-fmllr-tri3/train/data/feats_fmllr_train.7.ark:2644491
mtpg0_si753 quick_test/data-fmllr-tri3/train/data/feats_fmllr_train.10.ark:8900363
fceg0_sx438 quick_test/data-fmllr-tri3/train/data/feats_fmllr_train.1.ark:6311908
mtkd0_sx287 quick_test/data-fmllr-tri3/train/data/feats_fmllr_train.10.ark:5980173
fcdr1_sx376 quick_test/data-fmllr-tri3/train/data/feats_fmllr_train.1.ark:6024517
mjjj0_sx353 quick_test/data-fmllr-tri3/train/data/feats_fmllr_train.6.ark:13027145
mprt0_si1210 quick_test/data-fmllr-tri3/train/data/feats_fmllr_train.8.ark:10284855
mvjh0_sx26 quick_test/data-fmllr-tri3/train/data/feats_fmllr_train.10.ark:12595356
mgar0_sx222 quick_test/data-fmllr-tri3/train/data/feats_fmllr_train.6.ark:181083
msat0_sx446 quick_test/data-fmllr-tri3/train/data/feats_fmllr_train.9.ark:12079969
fcrz0_si793 quick_test/data-fmllr-tri3/train/data/feats_fmllr_train.1.ark:8665800
mrlj0_sx340 quick_test/data-fmllr-tri3/train/data/feats_fmllr_train.9.ark:3951379
fsjg0_sx130 quick_test/data-fmllr-tri3/train/data/feats_fmllr_train.3.ark:8493131
mrml0_sx341 quick_test/data-fmllr-tri3/train/data/feats_fmllr_train.9.ark:6577861
fnkl0_si2152 quick_test/data-fmllr-tri3/train/data/feats_fmllr_train.3.ark:40521
fgmb0_si1775 quick_test/data-fmllr-tri3/train/data/feats_fmllr_train.1.ark:17137216
fskl0_si899 quick_test/data-fmllr-tri3/train/data/feats_fmllr_train.3.ark:10459789
fsmm0_sx234 quick_test/data-fmllr-tri3/train/data/feats_fmllr_train.3.ark:12071592
mdlc2_si2244 quick_test/data-fmllr-tri3/train/data/feats_fmllr_train.5.ark:3597676
ftbw0_sx265 quick_test/data-fmllr-tri3/train/data/feats_fmllr_train.3.ark:14809911
fjsp0_sx354 quick_test/data-fmllr-tri3/train/data/feats_fmllr_train.2.ark:3894747
mpsw0_sx77 quick_test/data-fmllr-tri3/train/data/feats_fmllr_train.8.ark:10895340
fjsp0_sx174 quick_test/data-fmllr-tri3/train/data/feats_fmllr_train.2.ark:3787973
ftaj0_sx429 quick_test/data-fmllr-tri3/train/data/feats_fmllr_train.3.ark:14137851
mwre0_sx337 quick_test/data-fmllr-tri3/train/data/feats_fmllr_train.10.ark:16264092
mtjm0_sx236 quick_test/data-fmllr-tri3/train/data/feats_fmllr_train.10.ark:4685549
fsjs0_sx451 quick_test/data-fmllr-tri3/train/data/feats_fmllr_train.3.ark:9472846
fdas1_si2091 quick_test/data-fmllr-tri3/train/data/feats_fmllr_train.1.ark:9407647
fceg0_si1248 quick_test/data-fmllr-tri3/train/data/feats_fmllr_train.1.ark:6075585
mdas0_sx276 quick_test/data-fmllr-tri3/train/data/feats_fmllr_train.4.ark:14999011
mcth0_sx309 quick_test/data-fmllr-tri3/train/data/feats_fmllr_train.4.ark:13472704
mgrl0_sx327 quick_test/data-fmllr-tri3/train/data/feats_fmllr_train.6.ark:1709659
mwgr0_sx436 quick_test/data-fmllr-tri3/train/data/feats_fmllr_train.10.ark:15949341
fkde0_si1771 quick_test/data-fmllr-tri3/train/data/feats_fmllr_train.2.ark:5696683
fdmy0_sx207 quick_test/data-fmllr-tri3/train/data/feats_fmllr_train.1.ark:11935273
mkah0_sx268 quick_test/data-fmllr-tri3/train/data/feats_fmllr_train.7.ark:4619948
fclt0_sx358 quick_test/data-fmllr-tri3/train/data/feats_fmllr_train.1.ark:7644109
mcdr0_sx164 quick_test/data-fmllr-tri3/train/data/feats_fmllr_train.4.ark:9907337
fbas0_sx397 quick_test/data-fmllr-tri3/train/data/feats_fmllr_train.1.ark:2416324
mmeb0_sx367 quick_test/data-fmllr-tri3/train/data/feats_fmllr_train.7.ark:17883676
fsmm0_sx144 quick_test/data-fmllr-tri3/train/data/feats_fmllr_train.3.ark:12030125
msah1_sx149 quick_test/data-fmllr-tri3/train/data/feats_fmllr_train.9.ark:11202014
mmea0_si1388 quick_test/data-fmllr-tri3/train/data/feats_fmllr_train.7.ark:17323963
mrem0_sx61 quick_test/data-fmllr-tri3/train/data/feats_fmllr_train.8.ark:16303661
fpad0_sx356 quick_test/data-fmllr-tri3/train/data/feats_fmllr_train.3.ark:1886456
mmpm0_si2321 quick_test/data-fmllr-tri3/train/data/feats_fmllr_train.8.ark:1849636
frll0_sx344 quick_test/data-fmllr-tri3/train/data/feats_fmllr_train.3.ark:4964671
mtab0_sx132 quick_test/data-fmllr-tri3/train/data/feats_fmllr_train.10.ark:666392
fmju0_si1389 quick_test/data-fmllr-tri3/train/data/feats_fmllr_train.2.ark:16331479
mmgg0_si2339 quick_test/data-fmllr-tri3/train/data/feats_fmllr_train.8.ark:461407
mrwa0_si2233 quick_test/data-fmllr-tri3/train/data/feats_fmllr_train.9.ark:10040668
flmc0_si2002 quick_test/data-fmllr-tri3/train/data/feats_fmllr_train.2.ark:12884593
mhbs0_sx135 quick_test/data-fmllr-tri3/train/data/feats_fmllr_train.6.ark:3722524
flag0_sx114 quick_test/data-fmllr-tri3/train/data/feats_fmllr_train.2.ark:9410372
mjdc0_si1161 quick_test/data-fmllr-tri3/train/data/feats_fmllr_train.6.ark:8372142
msdb0_sx197 quick_test/data-fmllr-tri3/train/data/feats_fmllr_train.9.ark:12704377
frll0_sx74 quick_test/data-fmllr-tri3/train/data/feats_fmllr_train.3.ark:5040084
mdwh0_sx395 quick_test/data-fmllr-tri3/train/data/feats_fmllr_train.5.ark:10330327
fexm0_sx366 quick_test/data-fmllr-tri3/train/data/feats_fmllr_train.1.ark:16135579
mgak0_sx406 quick_test/data-fmllr-tri3/train/data/feats_fmllr_train.5.ark:17254582
mapv0_si1923 quick_test/data-fmllr-tri3/train/data/feats_fmllr_train.4.ark:2321186
flmc0_si742 quick_test/data-fmllr-tri3/train/data/feats_fmllr_train.2.ark:12913740
mrtc0_si828 quick_test/data-fmllr-tri3/train/data/feats_fmllr_train.9.ark:8885484
mgrp0_sx147 quick_test/data-fmllr-tri3/train/data/feats_fmllr_train.6.ark:2037022
fcdr1_sx286 quick_test/data-fmllr-tri3/train/data/feats_fmllr_train.1.ark:5955050
fjxp0_si1752 quick_test/data-fmllr-tri3/train/data/feats_fmllr_train.2.ark:4884409
mtml0_sx345 quick_test/data-fmllr-tri3/train/data/feats_fmllr_train.10.ark:7490136
mljh0_sx244 quick_test/data-fmllr-tri3/train/data/feats_fmllr_train.7.ark:11610896
mchl0_si1404 quick_test/data-fmllr-tri3/train/data/feats_fmllr_train.4.ark:11056734
mbgt0_sx261 quick_test/data-fmllr-tri3/train/data/feats_fmllr_train.4.ark:5009986
mtkp0_sx303 quick_test/data-fmllr-tri3/train/data/feats_fmllr_train.10.ark:6382124
fntb0_sx393 quick_test/data-fmllr-tri3/train/data/feats_fmllr_train.3.ark:702978
mrkm0_si637 quick_test/data-fmllr-tri3/train/data/feats_fmllr_train.9.ark:3046546
mprb0_sx305 quick_test/data-fmllr-tri3/train/data/feats_fmllr_train.8.ark:9233780
mcae0_sx367 quick_test/data-fmllr-tri3/train/data/feats_fmllr_train.4.ark:8442685
mjlb0_si1616 quick_test/data-fmllr-tri3/train/data/feats_fmllr_train.6.ark:13949420
mpar0_sx136 quick_test/data-fmllr-tri3/train/data/feats_fmllr_train.8.ark:5860150
mmlm0_sx447 quick_test/data-fmllr-tri3/train/data/feats_fmllr_train.8.ark:1690966
mrsp0_sx259 quick_test/data-fmllr-tri3/train/data/feats_fmllr_train.9.ark:8604868
mlel0_si616 quick_test/data-fmllr-tri3/train/data/feats_fmllr_train.7.ark:10587368
mbma0_sx52 quick_test/data-fmllr-tri3/train/data/feats_fmllr_train.4.ark:5871300
mrlj0_si790 quick_test/data-fmllr-tri3/train/data/feats_fmllr_train.9.ark:3794658
mdlh0_si574 quick_test/data-fmllr-tri3/train/data/feats_fmllr_train.5.ark:3964132
mclm0_sx376 quick_test/data-fmllr-tri3/train/data/feats_fmllr_train.4.ark:12062770
mreh1_sx339 quick_test/data-fmllr-tri3/train/data/feats_fmllr_train.8.ark:15812512
fdfb0_sx418 quick_test/data-fmllr-tri3/train/data/feats_fmllr_train.1.ark:10376538
fgdp0_sx358 quick_test/data-fmllr-tri3/train/data/feats_fmllr_train.1.ark:16881907
mrjt0_si1498 quick_test/data-fmllr-tri3/train/data/feats_fmllr_train.9.ark:2495074
mtdp0_sx441 quick_test/data-fmllr-tri3/train/data/feats_fmllr_train.10.ark:3576633
fgmb0_sx155 quick_test/data-fmllr-tri3/train/data/feats_fmllr_train.1.ark:17233270
faem0_si1392 quick_test/data-fmllr-tri3/train/data/feats_fmllr_train.1.ark:13
mmvp0_sx204 quick_test/data-fmllr-tri3/train/data/feats_fmllr_train.8.ark:3217380
fpjf0_sx326 quick_test/data-fmllr-tri3/train/data/feats_fmllr_train.3.ark:3058948
mafm0_sx219 quick_test/data-fmllr-tri3/train/data/feats_fmllr_train.4.ark:894637
mrgm0_sx82 quick_test/data-fmllr-tri3/train/data/feats_fmllr_train.8.ark:17914130
madc0_sx287 quick_test/data-fmllr-tri3/train/data/feats_fmllr_train.3.ark:17492123
mdlh0_sx430 quick_test/data-fmllr-tri3/train/data/feats_fmllr_train.5.ark:4228587
mhbs0_sx405 quick_test/data-fmllr-tri3/train/data/feats_fmllr_train.6.ark:3837325
mrdd0_sx150 quick_test/data-fmllr-tri3/train/data/feats_fmllr_train.8.ark:14194789
mwac0_sx71 quick_test/data-fmllr-tri3/train/data/feats_fmllr_train.10.ark:13834941
fmkc0_sx352 quick_test/data-fmllr-tri3/train/data/feats_fmllr_train.2.ark:16972153
fapb0_sx73 quick_test/data-fmllr-tri3/train/data/feats_fmllr_train.1.ark:1997226
mdcm0_sx310 quick_test/data-fmllr-tri3/train/data/feats_fmllr_train.4.ark:16522598
mcae0_sx97 quick_test/data-fmllr-tri3/train/data/feats_fmllr_train.4.ark:8563216
mjma0_si2125 quick_test/data-fmllr-tri3/train/data/feats_fmllr_train.6.ark:15104980
mdlc0_si1395 quick_test/data-fmllr-tri3/train/data/feats_fmllr_train.5.ark:2782173
fdas1_si831 quick_test/data-fmllr-tri3/train/data/feats_fmllr_train.1.ark:9446394
msfh0_si586 quick_test/data-fmllr-tri3/train/data/feats_fmllr_train.9.ark:14648584
fcag0_sx423 quick_test/data-fmllr-tri3/train/data/feats_fmllr_train.1.ark:5146457
fmkf0_sx366 quick_test/data-fmllr-tri3/train/data/feats_fmllr_train.2.ark:17384530
fjsk0_sx242 quick_test/data-fmllr-tri3/train/data/feats_fmllr_train.2.ark:3458183
mtml0_sx435 quick_test/data-fmllr-tri3/train/data/feats_fmllr_train.10.ark:7534963
fcjs0_sx347 quick_test/data-fmllr-tri3/train/data/feats_fmllr_train.1.ark:6887355
falr0_sx425 quick_test/data-fmllr-tri3/train/data/feats_fmllr_train.1.ark:1500342
mbef0_si651 quick_test/data-fmllr-tri3/train/data/feats_fmllr_train.4.ark:4562035
mjjm0_si827 quick_test/data-fmllr-tri3/train/data/feats_fmllr_train.6.ark:13298001
mjsr0_sx74 quick_test/data-fmllr-tri3/train/data/feats_fmllr_train.7.ark:1893391
mmab1_sx144 quick_test/data-fmllr-tri3/train/data/feats_fmllr_train.7.ark:13144057
mmag0_sx136 quick_test/data-fmllr-tri3/train/data/feats_fmllr_train.7.ark:13582674
mkrg0_sx411 quick_test/data-fmllr-tri3/train/data/feats_fmllr_train.7.ark:9677704
mvlo0_si517 quick_test/data-fmllr-tri3/train/data/feats_fmllr_train.10.ark:12786053
fsdc0_si2234 quick_test/data-fmllr-tri3/train/data/feats_fmllr_train.3.ark:7332773
ftbr0_si921 quick_test/data-fmllr-tri3/train/data/feats_fmllr_train.3.ark:14323720
mrgm0_si1162 quick_test/data-fmllr-tri3/train/data/feats_fmllr_train.8.ark:17486421
mrml0_si791 quick_test/data-fmllr-tri3/train/data/feats_fmllr_train.9.ark:6372180
mjmd0_sx128 quick_test/data-fmllr-tri3/train/data/feats_fmllr_train.6.ark:15542052
mkls0_sx447 quick_test/data-fmllr-tri3/train/data/feats_fmllr_train.7.ark:8536253
fcjf0_sx307 quick_test/data-fmllr-tri3/train/data/feats_fmllr_train.1.ark:6602498
mtjg0_si1520 quick_test/data-fmllr-tri3/train/data/feats_fmllr_train.10.ark:4089063
mprb0_si1215 quick_test/data-fmllr-tri3/train/data/feats_fmllr_train.8.ark:8965832
mtab0_si2202 quick_test/data-fmllr-tri3/train/data/feats_fmllr_train.10.ark:567618
mkah0_si898 quick_test/data-fmllr-tri3/train/data/feats_fmllr_train.7.ark:4511094
fgrw0_sx342 quick_test/data-fmllr-tri3/train/data/feats_fmllr_train.1.ark:17799302
mgxp0_si1087 quick_test/data-fmllr-tri3/train/data/feats_fmllr_train.6.ark:3146228
fksr0_sx397 quick_test/data-fmllr-tri3/train/data/feats_fmllr_train.2.ark:8818525
majp0_sx264 quick_test/data-fmllr-tri3/train/data/feats_fmllr_train.4.ark:1287655
msem1_sx180 quick_test/data-fmllr-tri3/train/data/feats_fmllr_train.9.ark:13907696
mesg0_si702 quick_test/data-fmllr-tri3/train/data/feats_fmllr_train.5.ark:13051446
mpgr1_sx419 quick_test/data-fmllr-tri3/train/data/feats_fmllr_train.8.ark:7803396
mrfl0_si1786 quick_test/data-fmllr-tri3/train/data/feats_fmllr_train.8.ark:17126712
mljh0_sx424 quick_test/data-fmllr-tri3/train/data/feats_fmllr_train.7.ark:11725830
mpmb0_sx421 quick_test/data-fmllr-tri3/train/data/feats_fmllr_train.8.ark:8371133
mjfh0_si1107 quick_test/data-fmllr-tri3/train/data/feats_fmllr_train.6.ark:11215581
mjmm0_sx85 quick_test/data-fmllr-tri3/train/data/feats_fmllr_train.6.ark:16072776
mrsp0_sx79 quick_test/data-fmllr-tri3/train/data/feats_fmllr_train.9.ark:8711321
mcef0_si1765 quick_test/data-fmllr-tri3/train/data/feats_fmllr_train.4.ark:10169740
msah1_si1049 quick_test/data-fmllr-tri3/train/data/feats_fmllr_train.9.ark:11101451
fsma0_si2251 quick_test/data-fmllr-tri3/train/data/feats_fmllr_train.3.ark:11510014
mpmb0_sx151 quick_test/data-fmllr-tri3/train/data/feats_fmllr_train.8.ark:8180332
fceg0_sx78 quick_test/data-fmllr-tri3/train/data/feats_fmllr_train.1.ark:6367614
fskc0_sx66 quick_test/data-fmllr-tri3/train/data/feats_fmllr_train.3.ark:10309146
marc0_sx378 quick_test/data-fmllr-tri3/train/data/feats_fmllr_train.4.ark:2929244
mcss0_si750 quick_test/data-fmllr-tri3/train/data/feats_fmllr_train.4.ark:12977526
fsls0_si1056 quick_test/data-fmllr-tri3/train/data/feats_fmllr_train.3.ark:11094088
mkxl0_sx105 quick_test/data-fmllr-tri3/train/data/feats_fmllr_train.7.ark:9931441
fblv0_sx428 quick_test/data-fmllr-tri3/train/data/feats_fmllr_train.1.ark:3985486
mpeb0_sx60 quick_test/data-fmllr-tri3/train/data/feats_fmllr_train.8.ark:6365114
msfh0_sx406 quick_test/data-fmllr-tri3/train/data/feats_fmllr_train.9.ark:14863412
fsjg0_si2200 quick_test/data-fmllr-tri3/train/data/feats_fmllr_train.3.ark:8355317
mreh1_sx429 quick_test/data-fmllr-tri3/train/data/feats_fmllr_train.8.ark:15860379
mljh0_si694 quick_test/data-fmllr-tri3/train/data/feats_fmllr_train.7.ark:11485562
mgsh0_sx127 quick_test/data-fmllr-tri3/train/data/feats_fmllr_train.6.ark:2497079
mjrh0_sx135 quick_test/data-fmllr-tri3/train/data/feats_fmllr_train.7.ark:164736
mree0_sx114 quick_test/data-fmllr-tri3/train/data/feats_fmllr_train.8.ark:15321681
mcth0_sx399 quick_test/data-fmllr-tri3/train/data/feats_fmllr_train.4.ark:13570997
megj0_si1337 quick_test/data-fmllr-tri3/train/data/feats_fmllr_train.5.ark:11824502
mgjc0_si1335 quick_test/data-fmllr-tri3/train/data/feats_fmllr_train.6.ark:1120533
fmbg0_si1160 quick_test/data-fmllr-tri3/train/data/feats_fmllr_train.2.ark:14706933
fjlg0_si1889 quick_test/data-fmllr-tri3/train/data/feats_fmllr_train.2.ark:1638832
mwac0_sx161 quick_test/data-fmllr-tri3/train/data/feats_fmllr_train.10.ark:13575474
mmgk0_sx62 quick_test/data-fmllr-tri3/train/data/feats_fmllr_train.8.ark:998238
mdwm0_sx376 quick_test/data-fmllr-tri3/train/data/feats_fmllr_train.5.ark:10682037
mmag0_sx316 quick_test/data-fmllr-tri3/train/data/feats_fmllr_train.7.ark:13699048
fvkb0_sx169 quick_test/data-fmllr-tri3/train/data/feats_fmllr_train.3.ark:16219392
ftlg0_sx33 quick_test/data-fmllr-tri3/train/data/feats_fmllr_train.3.ark:15299620
mbcg0_si957 quick_test/data-fmllr-tri3/train/data/feats_fmllr_train.4.ark:4183098
mdhs0_sx180 quick_test/data-fmllr-tri3/train/data/feats_fmllr_train.5.ark:1355786
fmem0_si1377 quick_test/data-fmllr-tri3/train/data/feats_fmllr_train.2.ark:15090989
mrgs0_sx96 quick_test/data-fmllr-tri3/train/data/feats_fmllr_train.9.ark:387400
fpaz0_sx243 quick_test/data-fmllr-tri3/train/data/feats_fmllr_train.3.ark:2652784
msrr0_si501 quick_test/data-fmllr-tri3/train/data/feats_fmllr_train.9.ark:17451382
fsdc0_sx142 quick_test/data-fmllr-tri3/train/data/feats_fmllr_train.3.ark:7355680
flma0_si613 quick_test/data-fmllr-tri3/train/data/feats_fmllr_train.2.ark:12567283
mmwb0_si1619 quick_test/data-fmllr-tri3/train/data/feats_fmllr_train.8.ark:3435089
mjai0_sx434 quick_test/data-fmllr-tri3/train/data/feats_fmllr_train.6.ark:7573412
mtjg0_si890 quick_test/data-fmllr-tri3/train/data/feats_fmllr_train.10.ark:4141118
fdjh0_sx35 quick_test/data-fmllr-tri3/train/data/feats_fmllr_train.1.ark:10751314
fklc1_sx238 quick_test/data-fmllr-tri3/train/data/feats_fmllr_train.2.ark:7885371
mmws1_si1071 quick_test/data-fmllr-tri3/train/data/feats_fmllr_train.8.ark:4306722
mcal0_sx148 quick_test/data-fmllr-tri3/train/data/feats_fmllr_train.4.ark:8728286
mcdd0_sx73 quick_test/data-fmllr-tri3/train/data/feats_fmllr_train.4.ark:9647227
mrab0_sx324 quick_test/data-fmllr-tri3/train/data/feats_fmllr_train.8.ark:11158864
fvmh0_si2096 quick_test/data-fmllr-tri3/train/data/feats_fmllr_train.3.ark:16560195
mhit0_si2243 quick_test/data-fmllr-tri3/train/data/feats_fmllr_train.6.ark:3961087
fhlm0_sx390 quick_test/data-fmllr-tri3/train/data/feats_fmllr_train.1.ark:18308053
fntb0_si679 quick_test/data-fmllr-tri3/train/data/feats_fmllr_train.3.ark:458684
mpeb0_sx150 quick_test/data-fmllr-tri3/train/data/feats_fmllr_train.8.ark:6184527
mmdg0_sx160 quick_test/data-fmllr-tri3/train/data/feats_fmllr_train.7.ark:15979657
fsma0_sx181 quick_test/data-fmllr-tri3/train/data/feats_fmllr_train.3.ark:11632948
mdac0_sx91 quick_test/data-fmllr-tri3/train/data/feats_fmllr_train.4.ark:14729568
mbsb0_sx93 quick_test/data-fmllr-tri3/train/data/feats_fmllr_train.4.ark:7266248
mkdb0_sx422 quick_test/data-fmllr-tri3/train/data/feats_fmllr_train.7.ark:5836653
mrmb0_sx411 quick_test/data-fmllr-tri3/train/data/feats_fmllr_train.9.ark:5424435
fgcs0_sx46 quick_test/data-fmllr-tri3/train/data/feats_fmllr_train.1.ark:16572143
mtrt0_si1227 quick_test/data-fmllr-tri3/train/data/feats_fmllr_train.10.ark:11187849
fjsk0_si1052 quick_test/data-fmllr-tri3/train/data/feats_fmllr_train.2.ark:3263193
mjxa0_si1507 quick_test/data-fmllr-tri3/train/data/feats_fmllr_train.7.ark:3246709
fsah0_si614 quick_test/data-fmllr-tri3/train/data/feats_fmllr_train.3.ark:5639584
mfwk0_si1879 quick_test/data-fmllr-tri3/train/data/feats_fmllr_train.5.ark:15163120
fbas0_si2066 quick_test/data-fmllr-tri3/train/data/feats_fmllr_train.1.ark:2181150
mdss1_si1327 quick_test/data-fmllr-tri3/train/data/feats_fmllr_train.5.ark:8901966
mmab1_si2124 quick_test/data-fmllr-tri3/train/data/feats_fmllr_train.7.ark:13025443
mtjs0_si562 quick_test/data-fmllr-tri3/train/data/feats_fmllr_train.10.ark:4980272
fsjw0_si1333 quick_test/data-fmllr-tri3/train/data/feats_fmllr_train.3.ark:9584260
mhrm0_sx238 quick_test/data-fmllr-tri3/train/data/feats_fmllr_train.6.ark:5522517
msvs0_si1568 quick_test/data-fmllr-tri3/train/data/feats_fmllr_train.10.ark:13
mkdt0_sx353 quick_test/data-fmllr-tri3/train/data/feats_fmllr_train.7.ark:6578499
mzmb0_sx356 quick_test/data-fmllr-tri3/train/data/feats_fmllr_train.10.ark:17845437
mkah0_si2158 quick_test/data-fmllr-tri3/train/data/feats_fmllr_train.7.ark:4469787
mdss1_si1713 quick_test/data-fmllr-tri3/train/data/feats_fmllr_train.5.ark:8958634
mmrp0_si774 quick_test/data-fmllr-tri3/train/data/feats_fmllr_train.8.ark:2216732
fpaf0_sx334 quick_test/data-fmllr-tri3/train/data/feats_fmllr_train.3.ark:2290994
mmdb0_sx87 quick_test/data-fmllr-tri3/train/data/feats_fmllr_train.7.ark:15786107
mjjm0_si1457 quick_test/data-fmllr-tri3/train/data/feats_fmllr_train.6.ark:13239894
mcdr0_si1784 quick_test/data-fmllr-tri3/train/data/feats_fmllr_train.4.ark:9753523
ftbw0_sx445 quick_test/data-fmllr-tri3/train/data/feats_fmllr_train.3.ark:14894125
makb0_sx386 quick_test/data-fmllr-tri3/train/data/feats_fmllr_train.4.ark:1917073
milb0_si903 quick_test/data-fmllr-tri3/train/data/feats_fmllr_train.6.ark:6215855
mstf0_sx406 quick_test/data-fmllr-tri3/train/data/feats_fmllr_train.9.ark:18040985
mljh0_sx334 quick_test/data-fmllr-tri3/train/data/feats_fmllr_train.7.ark:11677003
fmah1_sx69 quick_test/data-fmllr-tri3/train/data/feats_fmllr_train.2.ark:14660665
mjda0_sx401 quick_test/data-fmllr-tri3/train/data/feats_fmllr_train.6.ark:8273528
falr0_si695 quick_test/data-fmllr-tri3/train/data/feats_fmllr_train.1.ark:1302954
mjai0_sx344 quick_test/data-fmllr-tri3/train/data/feats_fmllr_train.6.ark:7536425
mwch0_sx92 quick_test/data-fmllr-tri3/train/data/feats_fmllr_train.10.ark:14825035
fjsk0_si1682 quick_test/data-fmllr-tri3/train/data/feats_fmllr_train.2.ark:3336661
flhd0_sx264 quick_test/data-fmllr-tri3/train/data/feats_fmllr_train.2.ark:10600492
fblv0_sx68 quick_test/data-fmllr-tri3/train/data/feats_fmllr_train.1.ark:4039592
mdhs0_sx90 quick_test/data-fmllr-tri3/train/data/feats_fmllr_train.5.ark:1524053
mjrh1_si1774 quick_test/data-fmllr-tri3/train/data/feats_fmllr_train.7.ark:461219
ftaj0_sx159 quick_test/data-fmllr-tri3/train/data/feats_fmllr_train.3.ark:14031690
mpgr0_si780 quick_test/data-fmllr-tri3/train/data/feats_fmllr_train.8.ark:7244190
mbsb0_sx183 quick_test/data-fmllr-tri3/train/data/feats_fmllr_train.4.ark:7152703
mjai0_si1604 quick_test/data-fmllr-tri3/train/data/feats_fmllr_train.6.ark:7268130
mwsb0_sx186 quick_test/data-fmllr-tri3/train/data/feats_fmllr_train.10.ark:16945271
mrkm0_sx367 quick_test/data-fmllr-tri3/train/data/feats_fmllr_train.9.ark:3223427
milb0_sx363 quick_test/data-fmllr-tri3/train/data/feats_fmllr_train.6.ark:6395801
fsjw0_sx253 quick_test/data-fmllr-tri3/train/data/feats_fmllr_train.3.ark:9799569
fapb0_si1693 quick_test/data-fmllr-tri3/train/data/feats_fmllr_train.1.ark:1637384
mtdb0_si1401 quick_test/data-fmllr-tri3/train/data/feats_fmllr_train.10.ark:2828092
msem1_sx360 quick_test/data-fmllr-tri3/train/data/feats_fmllr_train.9.ark:14007270
feme0_si875 quick_test/data-fmllr-tri3/train/data/feats_fmllr_train.1.ark:15080477
fsjs0_sx361 quick_test/data-fmllr-tri3/train/data/feats_fmllr_train.3.ark:9431219
mdcm0_si850 quick_test/data-fmllr-tri3/train/data/feats_fmllr_train.4.ark:16382197
mjda0_sx311 quick_test/data-fmllr-tri3/train/data/feats_fmllr_train.6.ark:8217981
mdlr1_si1929 quick_test/data-fmllr-tri3/train/data/feats_fmllr_train.5.ark:5107663
fvkb0_sx349 quick_test/data-fmllr-tri3/train/data/feats_fmllr_train.3.ark:16318486
mjrk0_sx250 quick_test/data-fmllr-tri3/train/data/feats_fmllr_train.7.ark:947597
mdbp0_sx78 quick_test/data-fmllr-tri3/train/data/feats_fmllr_train.4.ark:15851977
mjjm0_sx197 quick_test/data-fmllr-tri3/train/data/feats_fmllr_train.6.ark:13415201
mjrg0_sx352 quick_test/data-fmllr-tri3/train/data/feats_fmllr_train.6.ark:17882154
fmem0_si2007 quick_test/data-fmllr-tri3/train/data/feats_fmllr_train.2.ark:15152617
fsag0_sx333 quick_test/data-fmllr-tri3/train/data/feats_fmllr_train.3.ark:5336088
mjda0_si2291 quick_test/data-fmllr-tri3/train/data/feats_fmllr_train.6.ark:8096300
mrso0_sx219 quick_test/data-fmllr-tri3/train/data/feats_fmllr_train.9.ark:8121104
fsag0_si1323 quick_test/data-fmllr-tri3/train/data/feats_fmllr_train.3.ark:5081712
mjbg0_sx332 quick_test/data-fmllr-tri3/train/data/feats_fmllr_train.6.ark:7872323
fsak0_sx310 quick_test/data-fmllr-tri3/train/data/feats_fmllr_train.3.ark:6192042
mtju0_si760 quick_test/data-fmllr-tri3/train/data/feats_fmllr_train.10.ark:5394889
mmwb0_sx179 quick_test/data-fmllr-tri3/train/data/feats_fmllr_train.8.ark:3632291
mtmt0_sx38 quick_test/data-fmllr-tri3/train/data/feats_fmllr_train.10.ark:8353476
mrav0_sx378 quick_test/data-fmllr-tri3/train/data/feats_fmllr_train.8.ark:12811947
fsrh0_si1931 quick_test/data-fmllr-tri3/train/data/feats_fmllr_train.3.ark:13143522
mgsh0_si546 quick_test/data-fmllr-tri3/train/data/feats_fmllr_train.6.ark:2430332
mdss0_sx171 quick_test/data-fmllr-tri3/train/data/feats_fmllr_train.5.ark:8701511
mwar0_sx235 quick_test/data-fmllr-tri3/train/data/feats_fmllr_train.10.ark:14370817
mrre0_si952 quick_test/data-fmllr-tri3/train/data/feats_fmllr_train.9.ark:7553152
mcdc0_si1922 quick_test/data-fmllr-tri3/train/data/feats_fmllr_train.4.ark:9029409
fdkn0_sx361 quick_test/data-fmllr-tri3/train/data/feats_fmllr_train.1.ark:11112306
flmk0_sx225 quick_test/data-fmllr-tri3/train/data/feats_fmllr_train.2.ark:13416892
fsjk1_sx305 quick_test/data-fmllr-tri3/train/data/feats_fmllr_train.3.ark:9047482
mstf0_sx226 quick_test/data-fmllr-tri3/train/data/feats_fmllr_train.9.ark:17948931
mwch0_sx272 quick_test/data-fmllr-tri3/train/data/feats_fmllr_train.10.ark:14687035
mdss0_si2087 quick_test/data-fmllr-tri3/train/data/feats_fmllr_train.5.ark:8627377
mses0_si1589 quick_test/data-fmllr-tri3/train/data/feats_fmllr_train.9.ark:14166391
fdnc0_si1278 quick_test/data-fmllr-tri3/train/data/feats_fmllr_train.1.ark:12146741
mdmt0_sx392 quick_test/data-fmllr-tri3/train/data/feats_fmllr_train.5.ark:6231139
frjb0_si1470 quick_test/data-fmllr-tri3/train/data/feats_fmllr_train.3.ark:4395066
mkdd0_sx127 quick_test/data-fmllr-tri3/train/data/feats_fmllr_train.7.ark:6143989
feme0_sx245 quick_test/data-fmllr-tri3/train/data/feats_fmllr_train.1.ark:15211571
mbom0_sx311 quick_test/data-fmllr-tri3/train/data/feats_fmllr_train.4.ark:6923286
msmc0_si1907 quick_test/data-fmllr-tri3/train/data/feats_fmllr_train.9.ark:15828060
mrtj0_si772 quick_test/data-fmllr-tri3/train/data/feats_fmllr_train.9.ark:9271301
mrtc0_sx378 quick_test/data-fmllr-tri3/train/data/feats_fmllr_train.9.ark:9123538
fmkf0_sx6 quick_test/data-fmllr-tri3/train/data/feats_fmllr_train.2.ark:17445195
mgrp0_si687 quick_test/data-fmllr-tri3/train/data/feats_fmllr_train.6.ark:1984515
mjlb0_sx356 quick_test/data-fmllr-tri3/train/data/feats_fmllr_train.6.ark:14183796
fsgf0_si2187 quick_test/data-fmllr-tri3/train/data/feats_fmllr_train.3.ark:7959420
fjhk0_sx32 quick_test/data-fmllr-tri3/train/data/feats_fmllr_train.2.ark:1161092
mgjc0_si1965 quick_test/data-fmllr-tri3/train/data/feats_fmllr_train.6.ark:1170961
flkm0_si620 quick_test/data-fmllr-tri3/train/data/feats_fmllr_train.2.ark:12094239
mcss0_sx120 quick_test/data-fmllr-tri3/train/data/feats_fmllr_train.4.ark:13021393
fgmb0_sx65 quick_test/data-fmllr-tri3/train/data/feats_fmllr_train.1.ark:17463777
mpeb0_sx420 quick_test/data-fmllr-tri3/train/data/feats_fmllr_train.8.ark:6310048
fklc1_si2308 quick_test/data-fmllr-tri3/train/data/feats_fmllr_train.2.ark:7812197
mkah0_si1528 quick_test/data-fmllr-tri3/train/data/feats_fmllr_train.7.ark:4423519
mjsr0_si2054 quick_test/data-fmllr-tri3/train/data/feats_fmllr_train.7.ark:1525550
mwsb0_si2256 quick_test/data-fmllr-tri3/train/data/feats_fmllr_train.10.ark:16839937
fpmy0_sx163 quick_test/data-fmllr-tri3/train/data/feats_fmllr_train.3.ark:3776446
marw0_si1906 quick_test/data-fmllr-tri3/train/data/feats_fmllr_train.4.ark:3016820
mdef0_si1123 quick_test/data-fmllr-tri3/train/data/feats_fmllr_train.5.ark:13
mdsj0_sx438 quick_test/data-fmllr-tri3/train/data/feats_fmllr_train.5.ark:8528441
fbch0_si1586 quick_test/data-fmllr-tri3/train/data/feats_fmllr_train.1.ark:2849049
fcke0_si481 quick_test/data-fmllr-tri3/train/data/feats_fmllr_train.1.ark:7149091
mrfl0_si1156 quick_test/data-fmllr-tri3/train/data/feats_fmllr_train.8.ark:17052284
mrgm0_sx416 quick_test/data-fmllr-tri3/train/data/feats_fmllr_train.8.ark:17785917
flkm0_sx80 quick_test/data-fmllr-tri3/train/data/feats_fmllr_train.2.ark:12444320
mdps0_si1651 quick_test/data-fmllr-tri3/train/data/feats_fmllr_train.5.ark:7415338
mmwb0_sx89 quick_test/data-fmllr-tri3/train/data/feats_fmllr_train.8.ark:3890158
fljd0_sx166 quick_test/data-fmllr-tri3/train/data/feats_fmllr_train.2.ark:11348260
mdpb0_sx236 quick_test/data-fmllr-tri3/train/data/feats_fmllr_train.5.ark:6899813
fmjb0_sx277 quick_test/data-fmllr-tri3/train/data/feats_fmllr_train.2.ark:15742836
fcyl0_sx217 quick_test/data-fmllr-tri3/train/data/feats_fmllr_train.1.ark:9135511
fjxp0_sx402 quick_test/data-fmllr-tri3/train/data/feats_fmllr_train.2.ark:5114944
mtat1_sx329 quick_test/data-fmllr-tri3/train/data/feats_fmllr_train.10.ark:1900377
makr0_si1982 quick_test/data-fmllr-tri3/train/data/feats_fmllr_train.4.ark:1990569
majp0_sx174 quick_test/data-fmllr-tri3/train/data/feats_fmllr_train.4.ark:1219468
mdcd0_si1415 quick_test/data-fmllr-tri3/train/data/feats_fmllr_train.4.ark:15888805
fskl0_sx179 quick_test/data-fmllr-tri3/train/data/feats_fmllr_train.3.ark:10502216
mjjb0_sx59 quick_test/data-fmllr-tri3/train/data/feats_fmllr_train.6.ark:12690181
mgjc0_sx435 quick_test/data-fmllr-tri3/train/data/feats_fmllr_train.6.ark:1387229
fsdc0_si1942 quick_test/data-fmllr-tri3/train/data/feats_fmllr_train.3.ark:7291145
frjb0_si1794 quick_test/data-fmllr-tri3/train/data/feats_fmllr_train.3.ark:4418454
mkaj0_si2044 quick_test/data-fmllr-tri3/train/data/feats_fmllr_train.7.ark:4846644
fmpg0_sx432 quick_test/data-fmllr-tri3/train/data/feats_fmllr_train.2.ark:18300347
mmam0_sx337 quick_test/data-fmllr-tri3/train/data/feats_fmllr_train.7.ark:14060866
fdfb0_sx328 quick_test/data-fmllr-tri3/train/data/feats_fmllr_train.1.ark:10332671
