mrem0_sx151 /home/mirco/kaldi-trunk/egs/timit/s5/mfcc/raw_mfcc_train.4.ark:620475
flag0_sx384 /home/mirco/kaldi-trunk/egs/timit/s5/mfcc/raw_mfcc_train.1.ark:2388044
fbch0_sx326 /home/mirco/kaldi-trunk/egs/timit/s5/mfcc/raw_mfcc_train.1.ark:261393
mesg0_si1332 /home/mirco/kaldi-trunk/egs/timit/s5/mfcc/raw_mfcc_train.2.ark:3309106
mdlc0_si1395 /home/mirco/kaldi-trunk/egs/timit/s5/mfcc/raw_mfcc_train.2.ark:2451973
fdaw0_si2036 /home/mirco/kaldi-trunk/egs/timit/s5/mfcc/raw_mfcc_train.1.ark:827485
msdh0_sx260 /home/mirco/kaldi-trunk/egs/timit/s5/mfcc/raw_mfcc_train.4.ark:1866130
mchl0_si1977 /home/mirco/kaldi-trunk/egs/timit/s5/mfcc/raw_mfcc_train.2.ark:1689264
fexm0_sx366 /home/mirco/kaldi-trunk/egs/timit/s5/mfcc/raw_mfcc_train.1.ark:1355015
maeb0_sx450 /home/mirco/kaldi-trunk/egs/timit/s5/mfcc/raw_mfcc_train.2.ark:778314
mjmd0_sx308 /home/mirco/kaldi-trunk/egs/timit/s5/mfcc/raw_mfcc_train.3.ark:1312934
mwch0_sx452 /home/mirco/kaldi-trunk/egs/timit/s5/mfcc/raw_mfcc_train.4.ark:3539640
fleh0_sx151 /home/mirco/kaldi-trunk/egs/timit/s5/mfcc/raw_mfcc_train.1.ark:2404156
mrcw0_sx291 /home/mirco/kaldi-trunk/egs/timit/s5/mfcc/raw_mfcc_train.4.ark:439764
mwgr0_sx166 /home/mirco/kaldi-trunk/egs/timit/s5/mfcc/raw_mfcc_train.4.ark:3625812
mkrg0_sx141 /home/mirco/kaldi-trunk/egs/timit/s5/mfcc/raw_mfcc_train.3.ark:2317781
mgjc0_si1335 /home/mirco/kaldi-trunk/egs/timit/s5/mfcc/raw_mfcc_train.3.ark:94430
mwgr0_sx346 /home/mirco/kaldi-trunk/egs/timit/s5/mfcc/raw_mfcc_train.4.ark:3634146
flja0_si2338 /home/mirco/kaldi-trunk/egs/timit/s5/mfcc/raw_mfcc_train.1.ark:2496245
msrr0_sx231 /home/mirco/kaldi-trunk/egs/timit/s5/mfcc/raw_mfcc_train.4.ark:2251376
mpfu0_si1888 /home/mirco/kaldi-trunk/egs/timit/s5/mfcc/raw_mfcc_train.3.ark:3571720
fpjf0_sx146 /home/mirco/kaldi-trunk/egs/timit/s5/mfcc/raw_mfcc_train.1.ark:3377857
mcth0_sx129 /home/mirco/kaldi-trunk/egs/timit/s5/mfcc/raw_mfcc_train.2.ark:1879321
megj0_si1337 /home/mirco/kaldi-trunk/egs/timit/s5/mfcc/raw_mfcc_train.2.ark:3212568
mgaf0_si652 /home/mirco/kaldi-trunk/egs/timit/s5/mfcc/raw_mfcc_train.2.ark:3594270
mrms0_sx30 /home/mirco/kaldi-trunk/egs/timit/s5/mfcc/raw_mfcc_train.4.ark:1361756
fsjk1_sx305 /home/mirco/kaldi-trunk/egs/timit/s5/mfcc/raw_mfcc_train.2.ark:4023
faem0_sx42 /home/mirco/kaldi-trunk/egs/timit/s5/mfcc/raw_mfcc_train.1.ark:29767
mvlo0_sx157 /home/mirco/kaldi-trunk/egs/timit/s5/mfcc/raw_mfcc_train.4.ark:3378378
mmeb0_sx97 /home/mirco/kaldi-trunk/egs/timit/s5/mfcc/raw_mfcc_train.3.ark:3021849
mtml0_sx255 /home/mirco/kaldi-trunk/egs/timit/s5/mfcc/raw_mfcc_train.4.ark:2924472
fkaa0_sx128 /home/mirco/kaldi-trunk/egs/timit/s5/mfcc/raw_mfcc_train.1.ark:2030257
mmdm1_si783 /home/mirco/kaldi-trunk/egs/timit/s5/mfcc/raw_mfcc_train.3.ark:2914253
ftbw0_sx175 /home/mirco/kaldi-trunk/egs/timit/s5/mfcc/raw_mfcc_train.2.ark:482589
mdlb0_si676 /home/mirco/kaldi-trunk/egs/timit/s5/mfcc/raw_mfcc_train.2.ark:2425138
mcef0_si1765 /home/mirco/kaldi-trunk/egs/timit/s5/mfcc/raw_mfcc_train.2.ark:1609621
maeo0_sx426 /home/mirco/kaldi-trunk/egs/timit/s5/mfcc/raw_mfcc_train.2.ark:809065
mtpf0_si1235 /home/mirco/kaldi-trunk/egs/timit/s5/mfcc/raw_mfcc_train.4.ark:3008282
mrcg0_sx258 /home/mirco/kaldi-trunk/egs/timit/s5/mfcc/raw_mfcc_train.4.ark:395871
fbjl0_sx22 /home/mirco/kaldi-trunk/egs/timit/s5/mfcc/raw_mfcc_train.1.ark:294469
mrcw0_si2001 /home/mirco/kaldi-trunk/egs/timit/s5/mfcc/raw_mfcc_train.4.ark:420893
mrab1_sx38 /home/mirco/kaldi-trunk/egs/timit/s5/mfcc/raw_mfcc_train.4.ark:241846
fpls0_si960 /home/mirco/kaldi-trunk/egs/timit/s5/mfcc/raw_mfcc_train.1.ark:3403595
mtpg0_sx393 /home/mirco/kaldi-trunk/egs/timit/s5/mfcc/raw_mfcc_train.4.ark:3064600
mmar0_si1966 /home/mirco/kaldi-trunk/egs/timit/s5/mfcc/raw_mfcc_train.3.ark:2708894
mtqc0_sx271 /home/mirco/kaldi-trunk/egs/timit/s5/mfcc/raw_mfcc_train.4.ark:3157337
fmmh0_sx97 /home/mirco/kaldi-trunk/egs/timit/s5/mfcc/raw_mfcc_train.1.ark:3083129
mtpp0_si878 /home/mirco/kaldi-trunk/egs/timit/s5/mfcc/raw_mfcc_train.4.ark:3076206
mwgr0_si2236 /home/mirco/kaldi-trunk/egs/timit/s5/mfcc/raw_mfcc_train.4.ark:3617374
mrcg0_sx348 /home/mirco/kaldi-trunk/egs/timit/s5/mfcc/raw_mfcc_train.4.ark:400649
mrms0_sx390 /home/mirco/kaldi-trunk/egs/timit/s5/mfcc/raw_mfcc_train.4.ark:1366892
ftbr0_si921 /home/mirco/kaldi-trunk/egs/timit/s5/mfcc/raw_mfcc_train.2.ark:447425
fsrh0_si671 /home/mirco/kaldi-trunk/egs/timit/s5/mfcc/raw_mfcc_train.2.ark:351548
fsjk1_sx125 /home/mirco/kaldi-trunk/egs/timit/s5/mfcc/raw_mfcc_train.1.ark:3879952
mejs0_sx430 /home/mirco/kaldi-trunk/egs/timit/s5/mfcc/raw_mfcc_train.2.ark:3302735
mmcc0_sx258 /home/mirco/kaldi-trunk/egs/timit/s5/mfcc/raw_mfcc_train.3.ark:2796415
fbcg1_sx352 /home/mirco/kaldi-trunk/egs/timit/s5/mfcc/raw_mfcc_train.1.ark:225067
mdrd0_sx212 /home/mirco/kaldi-trunk/egs/timit/s5/mfcc/raw_mfcc_train.2.ark:2890142
feme0_sx155 /home/mirco/kaldi-trunk/egs/timit/s5/mfcc/raw_mfcc_train.1.ark:1272837
msfh0_sx226 /home/mirco/kaldi-trunk/egs/timit/s5/mfcc/raw_mfcc_train.4.ark:2014833
msmr0_sx145 /home/mirco/kaldi-trunk/egs/timit/s5/mfcc/raw_mfcc_train.4.ark:2150929
fdml0_si2075 /home/mirco/kaldi-trunk/egs/timit/s5/mfcc/raw_mfcc_train.1.ark:956169
mdlr0_si603 /home/mirco/kaldi-trunk/egs/timit/s5/mfcc/raw_mfcc_train.2.ark:2617568
mrso0_si1206 /home/mirco/kaldi-trunk/egs/timit/s5/mfcc/raw_mfcc_train.4.ark:1436265
mkdd0_sx307 /home/mirco/kaldi-trunk/egs/timit/s5/mfcc/raw_mfcc_train.3.ark:2033776
mbbr0_sx425 /home/mirco/kaldi-trunk/egs/timit/s5/mfcc/raw_mfcc_train.2.ark:1094606
mtbc0_sx183 /home/mirco/kaldi-trunk/egs/timit/s5/mfcc/raw_mfcc_train.4.ark:2484440
mreh1_si1599 /home/mirco/kaldi-trunk/egs/timit/s5/mfcc/raw_mfcc_train.4.ark:569931
mprt0_si495 /home/mirco/kaldi-trunk/egs/timit/s5/mfcc/raw_mfcc_train.4.ark:134820
mrgs0_sx6 /home/mirco/kaldi-trunk/egs/timit/s5/mfcc/raw_mfcc_train.4.ark:801311
mwdk0_sx266 /home/mirco/kaldi-trunk/egs/timit/s5/mfcc/raw_mfcc_train.4.ark:3565514
mljc0_sx235 /home/mirco/kaldi-trunk/egs/timit/s5/mfcc/raw_mfcc_train.3.ark:2449589
mcef0_si1135 /home/mirco/kaldi-trunk/egs/timit/s5/mfcc/raw_mfcc_train.2.ark:1605765
fbjl0_si2182 /home/mirco/kaldi-trunk/egs/timit/s5/mfcc/raw_mfcc_train.1.ark:278959
msds0_sx87 /home/mirco/kaldi-trunk/egs/timit/s5/mfcc/raw_mfcc_train.4.ark:1918468
fsag0_sx153 /home/mirco/kaldi-trunk/egs/timit/s5/mfcc/raw_mfcc_train.1.ark:3565202
mtwh1_sx252 /home/mirco/kaldi-trunk/egs/timit/s5/mfcc/raw_mfcc_train.4.ark:3282559
mrjt0_si1498 /home/mirco/kaldi-trunk/egs/timit/s5/mfcc/raw_mfcc_train.4.ark:984027
mkjo0_si887 /home/mirco/kaldi-trunk/egs/timit/s5/mfcc/raw_mfcc_train.3.ark:2120063
mbom0_sx311 /home/mirco/kaldi-trunk/egs/timit/s5/mfcc/raw_mfcc_train.2.ark:1336810
fdml0_sx69 /home/mirco/kaldi-trunk/egs/timit/s5/mfcc/raw_mfcc_train.1.ark:972050
mrab1_sx308 /home/mirco/kaldi-trunk/egs/timit/s5/mfcc/raw_mfcc_train.4.ark:237576
mbwp0_si709 /home/mirco/kaldi-trunk/egs/timit/s5/mfcc/raw_mfcc_train.2.ark:1408802
mbml0_sx269 /home/mirco/kaldi-trunk/egs/timit/s5/mfcc/raw_mfcc_train.2.ark:1300702
mhxl0_sx422 /home/mirco/kaldi-trunk/egs/timit/s5/mfcc/raw_mfcc_train.3.ark:505567
fjwb1_sx255 /home/mirco/kaldi-trunk/egs/timit/s5/mfcc/raw_mfcc_train.1.ark:1936480
mzmb0_si536 /home/mirco/kaldi-trunk/egs/timit/s5/mfcc/raw_mfcc_train.4.ark:3784831
msmr0_si1405 /home/mirco/kaldi-trunk/egs/timit/s5/mfcc/raw_mfcc_train.4.ark:2143895
fpmy0_sx253 /home/mirco/kaldi-trunk/egs/timit/s5/mfcc/raw_mfcc_train.1.ark:3451485
mctm0_sx180 /home/mirco/kaldi-trunk/egs/timit/s5/mfcc/raw_mfcc_train.2.ark:1912671
mkah0_sx88 /home/mirco/kaldi-trunk/egs/timit/s5/mfcc/raw_mfcc_train.3.ark:1912323
fsjg0_sx310 /home/mirco/kaldi-trunk/egs/timit/s5/mfcc/raw_mfcc_train.1.ark:3852037
mklr0_si1689 /home/mirco/kaldi-trunk/egs/timit/s5/mfcc/raw_mfcc_train.3.ark:2178566
mefg0_sx195 /home/mirco/kaldi-trunk/egs/timit/s5/mfcc/raw_mfcc_train.2.ark:3201353
mefg0_si491 /home/mirco/kaldi-trunk/egs/timit/s5/mfcc/raw_mfcc_train.2.ark:3182164
mmrp0_sx144 /home/mirco/kaldi-trunk/egs/timit/s5/mfcc/raw_mfcc_train.3.ark:3217041
mfer0_sx412 /home/mirco/kaldi-trunk/egs/timit/s5/mfcc/raw_mfcc_train.2.ark:3418570
mfxv0_sx285 /home/mirco/kaldi-trunk/egs/timit/s5/mfcc/raw_mfcc_train.2.ark:3575858
fsjs0_sx91 /home/mirco/kaldi-trunk/egs/timit/s5/mfcc/raw_mfcc_train.2.ark:45199
msrg0_sx51 /home/mirco/kaldi-trunk/egs/timit/s5/mfcc/raw_mfcc_train.4.ark:2228225
fjsk0_sx422 /home/mirco/kaldi-trunk/egs/timit/s5/mfcc/raw_mfcc_train.1.ark:1879727
mdas0_sx186 /home/mirco/kaldi-trunk/egs/timit/s5/mfcc/raw_mfcc_train.2.ark:2010147
fjkl0_sx32 /home/mirco/kaldi-trunk/egs/timit/s5/mfcc/raw_mfcc_train.1.ark:1708996
mabc0_si2041 /home/mirco/kaldi-trunk/egs/timit/s5/mfcc/raw_mfcc_train.2.ark:662161
mtpr0_sx70 /home/mirco/kaldi-trunk/egs/timit/s5/mfcc/raw_mfcc_train.4.ark:3132262
mdpb0_si2126 /home/mirco/kaldi-trunk/egs/timit/s5/mfcc/raw_mfcc_train.2.ark:2783922
mded0_sx180 /home/mirco/kaldi-trunk/egs/timit/s5/mfcc/raw_mfcc_train.2.ark:2198454
mjws0_sx63 /home/mirco/kaldi-trunk/egs/timit/s5/mfcc/raw_mfcc_train.3.ark:1745808
mtkd0_si630 /home/mirco/kaldi-trunk/egs/timit/s5/mfcc/raw_mfcc_train.4.ark:2783426
mtdp0_sx441 /home/mirco/kaldi-trunk/egs/timit/s5/mfcc/raw_mfcc_train.4.ark:2598903
mmws1_si1071 /home/mirco/kaldi-trunk/egs/timit/s5/mfcc/raw_mfcc_train.3.ark:3387305
msds0_sx357 /home/mirco/kaldi-trunk/egs/timit/s5/mfcc/raw_mfcc_train.4.ark:1908848
mrdd0_sx240 /home/mirco/kaldi-trunk/egs/timit/s5/mfcc/raw_mfcc_train.4.ark:461207
mjpm1_si761 /home/mirco/kaldi-trunk/egs/timit/s5/mfcc/raw_mfcc_train.3.ark:1420430
medr0_sx384 /home/mirco/kaldi-trunk/egs/timit/s5/mfcc/raw_mfcc_train.2.ark:3175793
mlsh0_sx67 /home/mirco/kaldi-trunk/egs/timit/s5/mfcc/raw_mfcc_train.3.ark:2565649
mvjh0_sx206 /home/mirco/kaldi-trunk/egs/timit/s5/mfcc/raw_mfcc_train.4.ark:3352237
mjae0_si1999 /home/mirco/kaldi-trunk/egs/timit/s5/mfcc/raw_mfcc_train.3.ark:581100
msrg0_si1221 /home/mirco/kaldi-trunk/egs/timit/s5/mfcc/raw_mfcc_train.4.ark:2201253
mprt0_sx40 /home/mirco/kaldi-trunk/egs/timit/s5/mfcc/raw_mfcc_train.4.ark:151533
fmkc0_sx82 /home/mirco/kaldi-trunk/egs/timit/s5/mfcc/raw_mfcc_train.1.ark:3015627
mtkp0_si2283 /home/mirco/kaldi-trunk/egs/timit/s5/mfcc/raw_mfcc_train.4.ark:2814052
fkdw0_sx217 /home/mirco/kaldi-trunk/egs/timit/s5/mfcc/raw_mfcc_train.1.ark:2108535
mtpr0_si2230 /home/mirco/kaldi-trunk/egs/timit/s5/mfcc/raw_mfcc_train.4.ark:3102425
mkln0_si1598 /home/mirco/kaldi-trunk/egs/timit/s5/mfcc/raw_mfcc_train.3.ark:2142205
mdem0_si800 /home/mirco/kaldi-trunk/egs/timit/s5/mfcc/raw_mfcc_train.2.ark:2257438
mmws0_sx438 /home/mirco/kaldi-trunk/egs/timit/s5/mfcc/raw_mfcc_train.3.ark:3379075
mdlm0_sx64 /home/mirco/kaldi-trunk/egs/timit/s5/mfcc/raw_mfcc_train.2.ark:2606261
mter0_sx167 /home/mirco/kaldi-trunk/egs/timit/s5/mfcc/raw_mfcc_train.4.ark:2621559
mkjo0_si2147 /home/mirco/kaldi-trunk/egs/timit/s5/mfcc/raw_mfcc_train.3.ark:2117196
fssb0_sx362 /home/mirco/kaldi-trunk/egs/timit/s5/mfcc/raw_mfcc_train.2.ark:397270
msrr0_sx51 /home/mirco/kaldi-trunk/egs/timit/s5/mfcc/raw_mfcc_train.4.ark:2260079
mmvp0_sx347 /home/mirco/kaldi-trunk/egs/timit/s5/mfcc/raw_mfcc_train.3.ark:3303860
mrew1_sx60 /home/mirco/kaldi-trunk/egs/timit/s5/mfcc/raw_mfcc_train.4.ark:665682
mreh1_sx429 /home/mirco/kaldi-trunk/egs/timit/s5/mfcc/raw_mfcc_train.4.ark:598522
mrlj0_si790 /home/mirco/kaldi-trunk/egs/timit/s5/mfcc/raw_mfcc_train.4.ark:1093125
mmvp0_sx114 /home/mirco/kaldi-trunk/egs/timit/s5/mfcc/raw_mfcc_train.3.ark:3291931
mses0_sx59 /home/mirco/kaldi-trunk/egs/timit/s5/mfcc/raw_mfcc_train.4.ark:1990772
mkaj0_si2044 /home/mirco/kaldi-trunk/egs/timit/s5/mfcc/raw_mfcc_train.3.ark:1919801
mjdc0_sx351 /home/mirco/kaldi-trunk/egs/timit/s5/mfcc/raw_mfcc_train.3.ark:724098
fmju0_sx129 /home/mirco/kaldi-trunk/egs/timit/s5/mfcc/raw_mfcc_train.1.ark:2965752
mdjm0_si825 /home/mirco/kaldi-trunk/egs/timit/s5/mfcc/raw_mfcc_train.2.ark:2359412
mgrp0_sx417 /home/mirco/kaldi-trunk/egs/timit/s5/mfcc/raw_mfcc_train.3.ark:185151
fecd0_si1418 /home/mirco/kaldi-trunk/egs/timit/s5/mfcc/raw_mfcc_train.1.ark:1187447
mdef0_sx393 /home/mirco/kaldi-trunk/egs/timit/s5/mfcc/raw_mfcc_train.2.ark:2245287
mjwg0_sx265 /home/mirco/kaldi-trunk/egs/timit/s5/mfcc/raw_mfcc_train.3.ark:1700127
fgdp0_sx268 /home/mirco/kaldi-trunk/egs/timit/s5/mfcc/raw_mfcc_train.1.ark:1412615
madc0_sx107 /home/mirco/kaldi-trunk/egs/timit/s5/mfcc/raw_mfcc_train.2.ark:704105
fcag0_sx333 /home/mirco/kaldi-trunk/egs/timit/s5/mfcc/raw_mfcc_train.1.ark:426753
flmc0_sx112 /home/mirco/kaldi-trunk/egs/timit/s5/mfcc/raw_mfcc_train.1.ark:2669085
majp0_si1704 /home/mirco/kaldi-trunk/egs/timit/s5/mfcc/raw_mfcc_train.2.ark:846688
freh0_si1315 /home/mirco/kaldi-trunk/egs/timit/s5/mfcc/raw_mfcc_train.1.ark:3464012
mjdm0_sx80 /home/mirco/kaldi-trunk/egs/timit/s5/mfcc/raw_mfcc_train.3.ark:840814
mljh0_sx244 /home/mirco/kaldi-trunk/egs/timit/s5/mfcc/raw_mfcc_train.3.ark:2488152
mtdp0_si1521 /home/mirco/kaldi-trunk/egs/timit/s5/mfcc/raw_mfcc_train.4.ark:2571411
fsdj0_si485 /home/mirco/kaldi-trunk/egs/timit/s5/mfcc/raw_mfcc_train.1.ark:3773070
mjlb0_si986 /home/mirco/kaldi-trunk/egs/timit/s5/mfcc/raw_mfcc_train.3.ark:1180824
fjsp0_sx84 /home/mirco/kaldi-trunk/egs/timit/s5/mfcc/raw_mfcc_train.1.ark:1915553
mtat1_sx149 /home/mirco/kaldi-trunk/egs/timit/s5/mfcc/raw_mfcc_train.4.ark:2447567
mrjb1_si1020 /home/mirco/kaldi-trunk/egs/timit/s5/mfcc/raw_mfcc_train.4.ark:840668
majp0_sx444 /home/mirco/kaldi-trunk/egs/timit/s5/mfcc/raw_mfcc_train.2.ark:870865
flja0_si1708 /home/mirco/kaldi-trunk/egs/timit/s5/mfcc/raw_mfcc_train.1.ark:2494144
mdlc0_sx225 /home/mirco/kaldi-trunk/egs/timit/s5/mfcc/raw_mfcc_train.2.ark:2471853
fsms1_sx154 /home/mirco/kaldi-trunk/egs/timit/s5/mfcc/raw_mfcc_train.2.ark:290497
mrem0_sx331 /home/mirco/kaldi-trunk/egs/timit/s5/mfcc/raw_mfcc_train.4.ark:627678
mafm0_si939 /home/mirco/kaldi-trunk/egs/timit/s5/mfcc/raw_mfcc_train.2.ark:820469
mesg0_sx432 /home/mirco/kaldi-trunk/egs/timit/s5/mfcc/raw_mfcc_train.2.ark:3333823
mmgc0_sx135 /home/mirco/kaldi-trunk/egs/timit/s5/mfcc/raw_mfcc_train.3.ark:3038104
msem1_sx90 /home/mirco/kaldi-trunk/egs/timit/s5/mfcc/raw_mfcc_train.4.ark:1960684
fsjs0_si541 /home/mirco/kaldi-trunk/egs/timit/s5/mfcc/raw_mfcc_train.2.ark:22116
mjfh0_si477 /home/mirco/kaldi-trunk/egs/timit/s5/mfcc/raw_mfcc_train.3.ark:949623
mtdp0_sx261 /home/mirco/kaldi-trunk/egs/timit/s5/mfcc/raw_mfcc_train.4.ark:2589022
mapv0_sx393 /home/mirco/kaldi-trunk/egs/timit/s5/mfcc/raw_mfcc_train.2.ark:974458
mrai0_sx432 /home/mirco/kaldi-trunk/egs/timit/s5/mfcc/raw_mfcc_train.4.ark:276614
mpgr1_sx59 /home/mirco/kaldi-trunk/egs/timit/s5/mfcc/raw_mfcc_train.3.ark:3686033
mmds0_sx83 /home/mirco/kaldi-trunk/egs/timit/s5/mfcc/raw_mfcc_train.3.ark:2964875
fpad0_sx266 /home/mirco/kaldi-trunk/egs/timit/s5/mfcc/raw_mfcc_train.1.ark:3281804
meal0_si2177 /home/mirco/kaldi-trunk/egs/timit/s5/mfcc/raw_mfcc_train.2.ark:3127126
mbar0_sx419 /home/mirco/kaldi-trunk/egs/timit/s5/mfcc/raw_mfcc_train.2.ark:1063218
mjrh0_sx315 /home/mirco/kaldi-trunk/egs/timit/s5/mfcc/raw_mfcc_train.3.ark:1533905
mpgr0_si1410 /home/mirco/kaldi-trunk/egs/timit/s5/mfcc/raw_mfcc_train.3.ark:3627101
mjsr0_sx74 /home/mirco/kaldi-trunk/egs/timit/s5/mfcc/raw_mfcc_train.3.ark:1672024
fjsp0_si804 /home/mirco/kaldi-trunk/egs/timit/s5/mfcc/raw_mfcc_train.1.ark:1895707
mewm0_sx448 /home/mirco/kaldi-trunk/egs/timit/s5/mfcc/raw_mfcc_train.2.ark:3390810
mtat1_sx59 /home/mirco/kaldi-trunk/egs/timit/s5/mfcc/raw_mfcc_train.4.ark:2469070
fjsk0_si2312 /home/mirco/kaldi-trunk/egs/timit/s5/mfcc/raw_mfcc_train.1.ark:1864645
mcal0_si508 /home/mirco/kaldi-trunk/egs/timit/s5/mfcc/raw_mfcc_train.2.ark:1486043
fjrb0_sx402 /home/mirco/kaldi-trunk/egs/timit/s5/mfcc/raw_mfcc_train.1.ark:1804225
mjrk0_sx70 /home/mirco/kaldi-trunk/egs/timit/s5/mfcc/raw_mfcc_train.3.ark:1605623
fsrh0_si1719 /home/mirco/kaldi-trunk/egs/timit/s5/mfcc/raw_mfcc_train.2.ark:346164
mlsh0_si1417 /home/mirco/kaldi-trunk/egs/timit/s5/mfcc/raw_mfcc_train.3.ark:2536064
fjdm2_sx232 /home/mirco/kaldi-trunk/egs/timit/s5/mfcc/raw_mfcc_train.1.ark:1598648
mclm0_si1456 /home/mirco/kaldi-trunk/egs/timit/s5/mfcc/raw_mfcc_train.2.ark:1743625
mtjg0_si2157 /home/mirco/kaldi-trunk/egs/timit/s5/mfcc/raw_mfcc_train.4.ark:2644494
mmaa0_si845 /home/mirco/kaldi-trunk/egs/timit/s5/mfcc/raw_mfcc_train.3.ark:2579751
mdhl0_sx359 /home/mirco/kaldi-trunk/egs/timit/s5/mfcc/raw_mfcc_train.2.ark:2306318
fdmy0_si1197 /home/mirco/kaldi-trunk/egs/timit/s5/mfcc/raw_mfcc_train.1.ark:975503
fmem0_sx333 /home/mirco/kaldi-trunk/egs/timit/s5/mfcc/raw_mfcc_train.1.ark:2872978
mjee0_si607 /home/mirco/kaldi-trunk/egs/timit/s5/mfcc/raw_mfcc_train.3.ark:918665
mjjm0_sx287 /home/mirco/kaldi-trunk/egs/timit/s5/mfcc/raw_mfcc_train.3.ark:1130934
mctm0_si1350 /home/mirco/kaldi-trunk/egs/timit/s5/mfcc/raw_mfcc_train.2.ark:1898661
mrgm0_sx172 /home/mirco/kaldi-trunk/egs/timit/s5/mfcc/raw_mfcc_train.4.ark:750847
mpgh0_sx294 /home/mirco/kaldi-trunk/egs/timit/s5/mfcc/raw_mfcc_train.3.ark:3621522
mmws0_si1518 /home/mirco/kaldi-trunk/egs/timit/s5/mfcc/raw_mfcc_train.3.ark:3356452
fapb0_sx433 /home/mirco/kaldi-trunk/egs/timit/s5/mfcc/raw_mfcc_train.1.ark:161818
mjmm0_sx175 /home/mirco/kaldi-trunk/egs/timit/s5/mfcc/raw_mfcc_train.3.ark:1335805
mbwp0_sx349 /home/mirco/kaldi-trunk/egs/timit/s5/mfcc/raw_mfcc_train.2.ark:1421953
mjde0_sx130 /home/mirco/kaldi-trunk/egs/timit/s5/mfcc/raw_mfcc_train.3.ark:751804
mjls0_sx196 /home/mirco/kaldi-trunk/egs/timit/s5/mfcc/raw_mfcc_train.3.ark:1253824
mgxp0_sx97 /home/mirco/kaldi-trunk/egs/timit/s5/mfcc/raw_mfcc_train.3.ark:295731
mdns0_si873 /home/mirco/kaldi-trunk/egs/timit/s5/mfcc/raw_mfcc_train.2.ark:2755311
fsag0_si693 /home/mirco/kaldi-trunk/egs/timit/s5/mfcc/raw_mfcc_train.1.ark:3561321
mrfk0_sx266 /home/mirco/kaldi-trunk/egs/timit/s5/mfcc/raw_mfcc_train.4.ark:685714
mesj0_sx367 /home/mirco/kaldi-trunk/egs/timit/s5/mfcc/raw_mfcc_train.2.ark:3360731
mjws0_si1143 /home/mirco/kaldi-trunk/egs/timit/s5/mfcc/raw_mfcc_train.3.ark:1714715
mcew0_sx92 /home/mirco/kaldi-trunk/egs/timit/s5/mfcc/raw_mfcc_train.2.ark:1672678
mlel0_si1246 /home/mirco/kaldi-trunk/egs/timit/s5/mfcc/raw_mfcc_train.3.ark:2395046
mjkr0_sx301 /home/mirco/kaldi-trunk/egs/timit/s5/mfcc/raw_mfcc_train.3.ark:1161327
madd0_sx268 /home/mirco/kaldi-trunk/egs/timit/s5/mfcc/raw_mfcc_train.2.ark:738268
fear0_sx352 /home/mirco/kaldi-trunk/egs/timit/s5/mfcc/raw_mfcc_train.1.ark:1172658
maeo0_sx156 /home/mirco/kaldi-trunk/egs/timit/s5/mfcc/raw_mfcc_train.2.ark:797617
fsgf0_si2187 /home/mirco/kaldi-trunk/egs/timit/s5/mfcc/raw_mfcc_train.1.ark:3795922
mgar0_si1842 /home/mirco/kaldi-trunk/egs/timit/s5/mfcc/raw_mfcc_train.3.ark:7907
mdbb1_sx196 /home/mirco/kaldi-trunk/egs/timit/s5/mfcc/raw_mfcc_train.2.ark:2044145
mtat1_sx239 /home/mirco/kaldi-trunk/egs/timit/s5/mfcc/raw_mfcc_train.4.ark:2453229
msdh0_si2113 /home/mirco/kaldi-trunk/egs/timit/s5/mfcc/raw_mfcc_train.4.ark:1850605
mtpp0_si1508 /home/mirco/kaldi-trunk/egs/timit/s5/mfcc/raw_mfcc_train.4.ark:3067949
mewm0_sx88 /home/mirco/kaldi-trunk/egs/timit/s5/mfcc/raw_mfcc_train.2.ark:3393585
mtxs0_sx160 /home/mirco/kaldi-trunk/egs/timit/s5/mfcc/raw_mfcc_train.4.ark:3311405
fsag0_sx333 /home/mirco/kaldi-trunk/egs/timit/s5/mfcc/raw_mfcc_train.1.ark:3575759
mfrm0_si1717 /home/mirco/kaldi-trunk/egs/timit/s5/mfcc/raw_mfcc_train.2.ark:3464565
mapv0_si663 /home/mirco/kaldi-trunk/egs/timit/s5/mfcc/raw_mfcc_train.2.ark:952935
mmag0_si496 /home/mirco/kaldi-trunk/egs/timit/s5/mfcc/raw_mfcc_train.3.ark:2649662
mjlb0_sx176 /home/mirco/kaldi-trunk/egs/timit/s5/mfcc/raw_mfcc_train.3.ark:1184107
mjpm0_sx18 /home/mirco/kaldi-trunk/egs/timit/s5/mfcc/raw_mfcc_train.3.ark:1399781
fklc0_sx175 /home/mirco/kaldi-trunk/egs/timit/s5/mfcc/raw_mfcc_train.1.ark:2206082
fcmm0_si453 /home/mirco/kaldi-trunk/egs/timit/s5/mfcc/raw_mfcc_train.1.ark:697841
mjwt0_sx301 /home/mirco/kaldi-trunk/egs/timit/s5/mfcc/raw_mfcc_train.3.ark:1774322
mded0_sx360 /home/mirco/kaldi-trunk/egs/timit/s5/mfcc/raw_mfcc_train.2.ark:2205969
mkes0_sx83 /home/mirco/kaldi-trunk/egs/timit/s5/mfcc/raw_mfcc_train.3.ark:2109523
mdlr1_sx399 /home/mirco/kaldi-trunk/egs/timit/s5/mfcc/raw_mfcc_train.2.ark:2674235
mcth0_si1209 /home/mirco/kaldi-trunk/egs/timit/s5/mfcc/raw_mfcc_train.2.ark:1867079
mjwt0_si1381 /home/mirco/kaldi-trunk/egs/timit/s5/mfcc/raw_mfcc_train.3.ark:1755665
fskl0_sx359 /home/mirco/kaldi-trunk/egs/timit/s5/mfcc/raw_mfcc_train.2.ark:133354
mkah0_sx358 /home/mirco/kaldi-trunk/egs/timit/s5/mfcc/raw_mfcc_train.3.ark:1905030
mdks0_sx436 /home/mirco/kaldi-trunk/egs/timit/s5/mfcc/raw_mfcc_train.2.ark:2405154
mkls1_sx15 /home/mirco/kaldi-trunk/egs/timit/s5/mfcc/raw_mfcc_train.3.ark:2254011
mchl0_si1347 /home/mirco/kaldi-trunk/egs/timit/s5/mfcc/raw_mfcc_train.2.ark:1677197
fksr0_sx161 /home/mirco/kaldi-trunk/egs/timit/s5/mfcc/raw_mfcc_train.1.ark:2304235
fdas1_sx291 /home/mirco/kaldi-trunk/egs/timit/s5/mfcc/raw_mfcc_train.1.ark:810710
fjhk0_sx392 /home/mirco/kaldi-trunk/egs/timit/s5/mfcc/raw_mfcc_train.1.ark:1681932
fetb0_si518 /home/mirco/kaldi-trunk/egs/timit/s5/mfcc/raw_mfcc_train.1.ark:1302891
fjlg0_sx269 /home/mirco/kaldi-trunk/egs/timit/s5/mfcc/raw_mfcc_train.1.ark:1731726
mnet0_sx186 /home/mirco/kaldi-trunk/egs/timit/s5/mfcc/raw_mfcc_train.3.ark:3455924
mkxl0_si1185 /home/mirco/kaldi-trunk/egs/timit/s5/mfcc/raw_mfcc_train.3.ark:2332583
mgxp0_sx277 /home/mirco/kaldi-trunk/egs/timit/s5/mfcc/raw_mfcc_train.3.ark:283584
fapb0_sx73 /home/mirco/kaldi-trunk/egs/timit/s5/mfcc/raw_mfcc_train.1.ark:167544
mgxp0_sx7 /home/mirco/kaldi-trunk/egs/timit/s5/mfcc/raw_mfcc_train.3.ark:291864
mded0_si1170 /home/mirco/kaldi-trunk/egs/timit/s5/mfcc/raw_mfcc_train.2.ark:2183638
mmjb1_si1408 /home/mirco/kaldi-trunk/egs/timit/s5/mfcc/raw_mfcc_train.3.ark:3112796
fsbk0_si1699 /home/mirco/kaldi-trunk/egs/timit/s5/mfcc/raw_mfcc_train.1.ark:3664510
mhmg0_si1365 /home/mirco/kaldi-trunk/egs/timit/s5/mfcc/raw_mfcc_train.3.ark:387236
fpab1_sx391 /home/mirco/kaldi-trunk/egs/timit/s5/mfcc/raw_mfcc_train.1.ark:3224107
mdmt0_sx212 /home/mirco/kaldi-trunk/egs/timit/s5/mfcc/raw_mfcc_train.2.ark:2729970
mjlb0_si1616 /home/mirco/kaldi-trunk/egs/timit/s5/mfcc/raw_mfcc_train.3.ark:1172255
mrjh0_sx307 /home/mirco/kaldi-trunk/egs/timit/s5/mfcc/raw_mfcc_train.4.ark:904721
flag0_sx114 /home/mirco/kaldi-trunk/egs/timit/s5/mfcc/raw_mfcc_train.1.ark:2371000
mjdc0_sx171 /home/mirco/kaldi-trunk/egs/timit/s5/mfcc/raw_mfcc_train.3.ark:717311
mpfu0_sx448 /home/mirco/kaldi-trunk/egs/timit/s5/mfcc/raw_mfcc_train.3.ark:3589487
fskp0_si1098 /home/mirco/kaldi-trunk/egs/timit/s5/mfcc/raw_mfcc_train.2.ark:145881
fmkc0_sx262 /home/mirco/kaldi-trunk/egs/timit/s5/mfcc/raw_mfcc_train.1.ark:3002425
meal0_sx107 /home/mirco/kaldi-trunk/egs/timit/s5/mfcc/raw_mfcc_train.2.ark:3133367
mchl0_sx177 /home/mirco/kaldi-trunk/egs/timit/s5/mfcc/raw_mfcc_train.2.ark:1691858
fkde0_sx421 /home/mirco/kaldi-trunk/egs/timit/s5/mfcc/raw_mfcc_train.1.ark:2080555
mjsr0_sx344 /home/mirco/kaldi-trunk/egs/timit/s5/mfcc/raw_mfcc_train.3.ark:1663574
fkde0_sx331 /home/mirco/kaldi-trunk/egs/timit/s5/mfcc/raw_mfcc_train.1.ark:2075946
mrcw0_sx111 /home/mirco/kaldi-trunk/egs/timit/s5/mfcc/raw_mfcc_train.4.ark:430748
msem1_sx270 /home/mirco/kaldi-trunk/egs/timit/s5/mfcc/raw_mfcc_train.4.ark:1948067
msat1_si1703 /home/mirco/kaldi-trunk/egs/timit/s5/mfcc/raw_mfcc_train.4.ark:1800330
fskl0_sx179 /home/mirco/kaldi-trunk/egs/timit/s5/mfcc/raw_mfcc_train.2.ark:126268
mjrp0_si1845 /home/mirco/kaldi-trunk/egs/timit/s5/mfcc/raw_mfcc_train.3.ark:1609045
fgdp0_sx178 /home/mirco/kaldi-trunk/egs/timit/s5/mfcc/raw_mfcc_train.1.ark:1407473
msdb0_sx17 /home/mirco/kaldi-trunk/egs/timit/s5/mfcc/raw_mfcc_train.4.ark:1840293
fdjh0_si2195 /home/mirco/kaldi-trunk/egs/timit/s5/mfcc/raw_mfcc_train.1.ark:883298
fjsp0_sx444 /home/mirco/kaldi-trunk/egs/timit/s5/mfcc/raw_mfcc_train.1.ark:1911686
megj0_si1967 /home/mirco/kaldi-trunk/egs/timit/s5/mfcc/raw_mfcc_train.2.ark:3220662
mtpr0_sx340 /home/mirco/kaldi-trunk/egs/timit/s5/mfcc/raw_mfcc_train.4.ark:3121992
mrtj0_sx142 /home/mirco/kaldi-trunk/egs/timit/s5/mfcc/raw_mfcc_train.4.ark:1560531
mdks0_sx76 /home/mirco/kaldi-trunk/egs/timit/s5/mfcc/raw_mfcc_train.2.ark:2408150
mprt0_sx130 /home/mirco/kaldi-trunk/egs/timit/s5/mfcc/raw_mfcc_train.4.ark:140944
msrg0_si591 /home/mirco/kaldi-trunk/egs/timit/s5/mfcc/raw_mfcc_train.4.ark:2208548
mljh0_sx334 /home/mirco/kaldi-trunk/egs/timit/s5/mfcc/raw_mfcc_train.3.ark:2493658
mrmb0_si951 /home/mirco/kaldi-trunk/egs/timit/s5/mfcc/raw_mfcc_train.4.ark:1214280
mbjv0_sx257 /home/mirco/kaldi-trunk/egs/timit/s5/mfcc/raw_mfcc_train.2.ark:1206970
mrlj0_sx250 /home/mirco/kaldi-trunk/egs/timit/s5/mfcc/raw_mfcc_train.4.ark:1102954
mrjh0_si914 /home/mirco/kaldi-trunk/egs/timit/s5/mfcc/raw_mfcc_train.4.ark:891206
marw0_sx349 /home/mirco/kaldi-trunk/egs/timit/s5/mfcc/raw_mfcc_train.2.ark:1027319
fskc0_si2046 /home/mirco/kaldi-trunk/egs/timit/s5/mfcc/raw_mfcc_train.2.ark:87366
mtpr0_sx160 /home/mirco/kaldi-trunk/egs/timit/s5/mfcc/raw_mfcc_train.4.ark:3111630
mjde0_sx40 /home/mirco/kaldi-trunk/egs/timit/s5/mfcc/raw_mfcc_train.3.ark:767320
mjjb0_sx59 /home/mirco/kaldi-trunk/egs/timit/s5/mfcc/raw_mfcc_train.3.ark:1066568
mdhs0_sx270 /home/mirco/kaldi-trunk/egs/timit/s5/mfcc/raw_mfcc_train.2.ark:2335761
mrms0_sx300 /home/mirco/kaldi-trunk/egs/timit/s5/mfcc/raw_mfcc_train.4.ark:1364051
mclm0_sx106 /home/mirco/kaldi-trunk/egs/timit/s5/mfcc/raw_mfcc_train.2.ark:1756205
mjxa0_sx67 /home/mirco/kaldi-trunk/egs/timit/s5/mfcc/raw_mfcc_train.3.ark:1811858
flhd0_si1344 /home/mirco/kaldi-trunk/egs/timit/s5/mfcc/raw_mfcc_train.1.ark:2455936
mfxv0_sx15 /home/mirco/kaldi-trunk/egs/timit/s5/mfcc/raw_mfcc_train.2.ark:3569994
mdpb0_sx416 /home/mirco/kaldi-trunk/egs/timit/s5/mfcc/raw_mfcc_train.2.ark:2805082
mlel0_si1876 /home/mirco/kaldi-trunk/egs/timit/s5/mfcc/raw_mfcc_train.3.ark:2399461
fsdj0_sx35 /home/mirco/kaldi-trunk/egs/timit/s5/mfcc/raw_mfcc_train.1.ark:3785629
fcmg0_sx72 /home/mirco/kaldi-trunk/egs/timit/s5/mfcc/raw_mfcc_train.1.ark:685572
mjbg0_sx332 /home/mirco/kaldi-trunk/egs/timit/s5/mfcc/raw_mfcc_train.3.ark:661895
fblv0_sx248 /home/mirco/kaldi-trunk/egs/timit/s5/mfcc/raw_mfcc_train.1.ark:326566
mbth0_sx122 /home/mirco/kaldi-trunk/egs/timit/s5/mfcc/raw_mfcc_train.2.ark:1381803
mtpg0_sx33 /home/mirco/kaldi-trunk/egs/timit/s5/mfcc/raw_mfcc_train.4.ark:3061356
mmgk0_sx332 /home/mirco/kaldi-trunk/egs/timit/s5/mfcc/raw_mfcc_train.3.ark:3102505
mjjb0_si1139 /home/mirco/kaldi-trunk/egs/timit/s5/mfcc/raw_mfcc_train.3.ark:1036449
mjeb1_sx117 /home/mirco/kaldi-trunk/egs/timit/s5/mfcc/raw_mfcc_train.3.ark:893044
flma0_sx433 /home/mirco/kaldi-trunk/egs/timit/s5/mfcc/raw_mfcc_train.1.ark:2649783
majp0_sx84 /home/mirco/kaldi-trunk/egs/timit/s5/mfcc/raw_mfcc_train.2.ark:875161
mpgh0_sx384 /home/mirco/kaldi-trunk/egs/timit/s5/mfcc/raw_mfcc_train.3.ark:3624298
mrds0_sx447 /home/mirco/kaldi-trunk/egs/timit/s5/mfcc/raw_mfcc_train.4.ark:531314
mdmt0_si1832 /home/mirco/kaldi-trunk/egs/timit/s5/mfcc/raw_mfcc_train.2.ark:2716291
mrlr0_sx386 /home/mirco/kaldi-trunk/egs/timit/s5/mfcc/raw_mfcc_train.4.ark:1204117
fvkb0_sx79 /home/mirco/kaldi-trunk/egs/timit/s5/mfcc/raw_mfcc_train.2.ark:626169
mter0_si527 /home/mirco/kaldi-trunk/egs/timit/s5/mfcc/raw_mfcc_train.4.ark:2617548
mdpk0_sx153 /home/mirco/kaldi-trunk/egs/timit/s5/mfcc/raw_mfcc_train.2.ark:2821797
fpjf0_sx352 /home/mirco/kaldi-trunk/egs/timit/s5/mfcc/raw_mfcc_train.1.ark:3387342
mtjg0_sx80 /home/mirco/kaldi-trunk/egs/timit/s5/mfcc/raw_mfcc_train.4.ark:2671185
mjxl0_sx182 /home/mirco/kaldi-trunk/egs/timit/s5/mfcc/raw_mfcc_train.3.ark:1828541
feac0_sx75 /home/mirco/kaldi-trunk/egs/timit/s5/mfcc/raw_mfcc_train.1.ark:1151086
fjsk0_sx332 /home/mirco/kaldi-trunk/egs/timit/s5/mfcc/raw_mfcc_train.1.ark:1875209
mdlb0_sx406 /home/mirco/kaldi-trunk/egs/timit/s5/mfcc/raw_mfcc_train.2.ark:2442768
mbom0_sx384 /home/mirco/kaldi-trunk/egs/timit/s5/mfcc/raw_mfcc_train.2.ark:1341575
mdss1_sx247 /home/mirco/kaldi-trunk/egs/timit/s5/mfcc/raw_mfcc_train.2.ark:2981014
mgar0_sx42 /home/mirco/kaldi-trunk/egs/timit/s5/mfcc/raw_mfcc_train.3.ark:29222
mmam0_sx157 /home/mirco/kaldi-trunk/egs/timit/s5/mfcc/raw_mfcc_train.3.ark:2686569
ftbr0_sx381 /home/mirco/kaldi-trunk/egs/timit/s5/mfcc/raw_mfcc_train.2.ark:466569
mntw0_sx258 /home/mirco/kaldi-trunk/egs/timit/s5/mfcc/raw_mfcc_train.3.ark:3495046
mmaa0_sx305 /home/mirco/kaldi-trunk/egs/timit/s5/mfcc/raw_mfcc_train.3.ark:2593812
fear0_sx442 /home/mirco/kaldi-trunk/egs/timit/s5/mfcc/raw_mfcc_train.1.ark:1179139
mkdb0_sx422 /home/mirco/kaldi-trunk/egs/timit/s5/mfcc/raw_mfcc_train.3.ark:2003072
mdef0_si1123 /home/mirco/kaldi-trunk/egs/timit/s5/mfcc/raw_mfcc_train.2.ark:2218366
fblv0_si1058 /home/mirco/kaldi-trunk/egs/timit/s5/mfcc/raw_mfcc_train.1.ark:307452
mcew0_si1442 /home/mirco/kaldi-trunk/egs/timit/s5/mfcc/raw_mfcc_train.2.ark:1636242
msas0_sx386 /home/mirco/kaldi-trunk/egs/timit/s5/mfcc/raw_mfcc_train.4.ark:1767029
mlbc0_si1239 /home/mirco/kaldi-trunk/egs/timit/s5/mfcc/raw_mfcc_train.3.ark:2363789
fljd0_sx256 /home/mirco/kaldi-trunk/egs/timit/s5/mfcc/raw_mfcc_train.1.ark:2539190
fgdp0_si2248 /home/mirco/kaldi-trunk/egs/timit/s5/mfcc/raw_mfcc_train.1.ark:1397683
mcdc0_sx302 /home/mirco/kaldi-trunk/egs/timit/s5/mfcc/raw_mfcc_train.2.ark:1529229
fjsp0_si1434 /home/mirco/kaldi-trunk/egs/timit/s5/mfcc/raw_mfcc_train.1.ark:1888178
mtjs0_sx112 /home/mirco/kaldi-trunk/egs/timit/s5/mfcc/raw_mfcc_train.4.ark:2723181
mjsr0_sx434 /home/mirco/kaldi-trunk/egs/timit/s5/mfcc/raw_mfcc_train.3.ark:1667650
mwad0_si1062 /home/mirco/kaldi-trunk/egs/timit/s5/mfcc/raw_mfcc_train.4.ark:3464288
mrfl0_si526 /home/mirco/kaldi-trunk/egs/timit/s5/mfcc/raw_mfcc_train.4.ark:707935
mmdb0_si987 /home/mirco/kaldi-trunk/egs/timit/s5/mfcc/raw_mfcc_train.3.ark:2819806
mlsh0_sx157 /home/mirco/kaldi-trunk/egs/timit/s5/mfcc/raw_mfcc_train.3.ark:2549268
mmws1_sx81 /home/mirco/kaldi-trunk/egs/timit/s5/mfcc/raw_mfcc_train.3.ark:3410494
mgxp0_si457 /home/mirco/kaldi-trunk/egs/timit/s5/mfcc/raw_mfcc_train.3.ark:270316
mtml0_si1695 /home/mirco/kaldi-trunk/egs/timit/s5/mfcc/raw_mfcc_train.4.ark:2910332
mrai0_sx252 /home/mirco/kaldi-trunk/egs/timit/s5/mfcc/raw_mfcc_train.4.ark:268774
mdac0_sx181 /home/mirco/kaldi-trunk/egs/timit/s5/mfcc/raw_mfcc_train.2.ark:1975718
fmkf0_si906 /home/mirco/kaldi-trunk/egs/timit/s5/mfcc/raw_mfcc_train.1.ark:3029729
fapb0_sx163 /home/mirco/kaldi-trunk/egs/timit/s5/mfcc/raw_mfcc_train.1.ark:148368
mjpm1_sx41 /home/mirco/kaldi-trunk/egs/timit/s5/mfcc/raw_mfcc_train.3.ark:1443045
fjlg0_sx89 /home/mirco/kaldi-trunk/egs/timit/s5/mfcc/raw_mfcc_train.1.ark:1744889
mkdt0_si2153 /home/mirco/kaldi-trunk/egs/timit/s5/mfcc/raw_mfcc_train.3.ark:2043885
mjjj0_si1793 /home/mirco/kaldi-trunk/egs/timit/s5/mfcc/raw_mfcc_train.3.ark:1077231
mgrl0_si2127 /home/mirco/kaldi-trunk/egs/timit/s5/mfcc/raw_mfcc_train.3.ark:129978
flag0_sx294 /home/mirco/kaldi-trunk/egs/timit/s5/mfcc/raw_mfcc_train.1.ark:2383461
mprt0_si580 /home/mirco/kaldi-trunk/egs/timit/s5/mfcc/raw_mfcc_train.4.ark:137193
majp0_sx174 /home/mirco/kaldi-trunk/egs/timit/s5/mfcc/raw_mfcc_train.2.ark:856778
mjpm1_sx401 /home/mirco/kaldi-trunk/egs/timit/s5/mfcc/raw_mfcc_train.3.ark:1439113
mdwm0_sx376 /home/mirco/kaldi-trunk/egs/timit/s5/mfcc/raw_mfcc_train.2.ark:3116235
mbar0_si689 /home/mirco/kaldi-trunk/egs/timit/s5/mfcc/raw_mfcc_train.2.ark:1044821
mmdm0_si1941 /home/mirco/kaldi-trunk/egs/timit/s5/mfcc/raw_mfcc_train.3.ark:2883288
mdcd0_sx425 /home/mirco/kaldi-trunk/egs/timit/s5/mfcc/raw_mfcc_train.2.ark:2116404
mwch0_sx272 /home/mirco/kaldi-trunk/egs/timit/s5/mfcc/raw_mfcc_train.4.ark:3532658
mjai0_sx254 /home/mirco/kaldi-trunk/egs/timit/s5/mfcc/raw_mfcc_train.3.ark:630942
maeo0_si1326 /home/mirco/kaldi-trunk/egs/timit/s5/mfcc/raw_mfcc_train.2.ark:785101
mbma0_sx232 /home/mirco/kaldi-trunk/egs/timit/s5/mfcc/raw_mfcc_train.2.ark:1236329
mpgh0_sx24 /home/mirco/kaldi-trunk/egs/timit/s5/mfcc/raw_mfcc_train.3.ark:3618915
fcdr1_sx196 /home/mirco/kaldi-trunk/egs/timit/s5/mfcc/raw_mfcc_train.1.ark:496559
mklw0_sx41 /home/mirco/kaldi-trunk/egs/timit/s5/mfcc/raw_mfcc_train.3.ark:2297419
fcrz0_sx433 /home/mirco/kaldi-trunk/egs/timit/s5/mfcc/raw_mfcc_train.1.ark:742282
makb0_si1016 /home/mirco/kaldi-trunk/egs/timit/s5/mfcc/raw_mfcc_train.2.ark:880109
mlbc0_si609 /home/mirco/kaldi-trunk/egs/timit/s5/mfcc/raw_mfcc_train.3.ark:2372046
fdmy0_sx27 /home/mirco/kaldi-trunk/egs/timit/s5/mfcc/raw_mfcc_train.1.ark:1006516
flac0_sx451 /home/mirco/kaldi-trunk/egs/timit/s5/mfcc/raw_mfcc_train.1.ark:2347031
mrds0_sx87 /home/mirco/kaldi-trunk/egs/timit/s5/mfcc/raw_mfcc_train.4.ark:534349
flma0_sx73 /home/mirco/kaldi-trunk/egs/timit/s5/mfcc/raw_mfcc_train.1.ark:2654183
madc0_sx197 /home/mirco/kaldi-trunk/egs/timit/s5/mfcc/raw_mfcc_train.2.ark:710605
mdhs0_sx360 /home/mirco/kaldi-trunk/egs/timit/s5/mfcc/raw_mfcc_train.2.ark:2338784
fnkl0_sx172 /home/mirco/kaldi-trunk/egs/timit/s5/mfcc/raw_mfcc_train.1.ark:3140585
mkes0_sx443 /home/mirco/kaldi-trunk/egs/timit/s5/mfcc/raw_mfcc_train.3.ark:2105799
fdkn0_sx361 /home/mirco/kaldi-trunk/egs/timit/s5/mfcc/raw_mfcc_train.1.ark:933785
fcdr1_si1816 /home/mirco/kaldi-trunk/egs/timit/s5/mfcc/raw_mfcc_train.1.ark:475758
mrgm0_sx416 /home/mirco/kaldi-trunk/egs/timit/s5/mfcc/raw_mfcc_train.4.ark:760234
mjrp0_sx45 /home/mirco/kaldi-trunk/egs/timit/s5/mfcc/raw_mfcc_train.3.ark:1632954
mrmg0_si1080 /home/mirco/kaldi-trunk/egs/timit/s5/mfcc/raw_mfcc_train.4.ark:1237748
mcpm0_sx384 /home/mirco/kaldi-trunk/egs/timit/s5/mfcc/raw_mfcc_train.2.ark:1798955
mgaf0_sx112 /home/mirco/kaldi-trunk/egs/timit/s5/mfcc/raw_mfcc_train.2.ark:3597124
mjwt0_sx121 /home/mirco/kaldi-trunk/egs/timit/s5/mfcc/raw_mfcc_train.3.ark:1765923
msvs0_sx38 /home/mirco/kaldi-trunk/egs/timit/s5/mfcc/raw_mfcc_train.4.ark:2328773
mdlb0_sx316 /home/mirco/kaldi-trunk/egs/timit/s5/mfcc/raw_mfcc_train.2.ark:2438458
mmcc0_sx78 /home/mirco/kaldi-trunk/egs/timit/s5/mfcc/raw_mfcc_train.3.ark:2809864
mdlc1_sx445 /home/mirco/kaldi-trunk/egs/timit/s5/mfcc/raw_mfcc_train.2.ark:2512576
fecd0_sx338 /home/mirco/kaldi-trunk/egs/timit/s5/mfcc/raw_mfcc_train.1.ark:1212638
mfwk0_si1879 /home/mirco/kaldi-trunk/egs/timit/s5/mfcc/raw_mfcc_train.2.ark:3493678
mdpb0_sx146 /home/mirco/kaldi-trunk/egs/timit/s5/mfcc/raw_mfcc_train.2.ark:2794258
fjen0_sx147 /home/mirco/kaldi-trunk/egs/timit/s5/mfcc/raw_mfcc_train.1.ark:1629054
mmab1_sx234 /home/mirco/kaldi-trunk/egs/timit/s5/mfcc/raw_mfcc_train.3.ark:2620629
msrr0_si1131 /home/mirco/kaldi-trunk/egs/timit/s5/mfcc/raw_mfcc_train.4.ark:2231366
fmmh0_sx187 /home/mirco/kaldi-trunk/egs/timit/s5/mfcc/raw_mfcc_train.1.ark:3067504
mmab1_si2124 /home/mirco/kaldi-trunk/egs/timit/s5/mfcc/raw_mfcc_train.3.ark:2606997
mrab0_sx54 /home/mirco/kaldi-trunk/egs/timit/s5/mfcc/raw_mfcc_train.4.ark:212845
mjrh1_sx154 /home/mirco/kaldi-trunk/egs/timit/s5/mfcc/raw_mfcc_train.3.ark:1558921
mbom0_si1644 /home/mirco/kaldi-trunk/egs/timit/s5/mfcc/raw_mfcc_train.2.ark:1321109
mbma0_sx322 /home/mirco/kaldi-trunk/egs/timit/s5/mfcc/raw_mfcc_train.2.ark:1240782
mhjb0_sx387 /home/mirco/kaldi-trunk/egs/timit/s5/mfcc/raw_mfcc_train.3.ark:383822
mrgs0_si1986 /home/mirco/kaldi-trunk/egs/timit/s5/mfcc/raw_mfcc_train.4.ark:781063
mpar0_sx406 /home/mirco/kaldi-trunk/egs/timit/s5/mfcc/raw_mfcc_train.3.ark:3529170
mgrp0_sx57 /home/mirco/kaldi-trunk/egs/timit/s5/mfcc/raw_mfcc_train.3.ark:189564
mtjg0_sx260 /home/mirco/kaldi-trunk/egs/timit/s5/mfcc/raw_mfcc_train.4.ark:2657138
mkrg0_sx31 /home/mirco/kaldi-trunk/egs/timit/s5/mfcc/raw_mfcc_train.3.ark:2323579
fmah1_sx339 /home/mirco/kaldi-trunk/egs/timit/s5/mfcc/raw_mfcc_train.1.ark:2805115
mcpm0_sx204 /home/mirco/kaldi-trunk/egs/timit/s5/mfcc/raw_mfcc_train.2.ark:1789874
fskp0_si468 /home/mirco/kaldi-trunk/egs/timit/s5/mfcc/raw_mfcc_train.2.ark:155048
mkls0_si1533 /home/mirco/kaldi-trunk/egs/timit/s5/mfcc/raw_mfcc_train.3.ark:2209044
mrav0_sx108 /home/mirco/kaldi-trunk/egs/timit/s5/mfcc/raw_mfcc_train.4.ark:328969
mdmt0_si572 /home/mirco/kaldi-trunk/egs/timit/s5/mfcc/raw_mfcc_train.2.ark:2720154
mjdm0_si974 /home/mirco/kaldi-trunk/egs/timit/s5/mfcc/raw_mfcc_train.3.ark:817302
mbma1_sx324 /home/mirco/kaldi-trunk/egs/timit/s5/mfcc/raw_mfcc_train.2.ark:1271948
mcal0_sx148 /home/mirco/kaldi-trunk/egs/timit/s5/mfcc/raw_mfcc_train.2.ark:1488455
mmcc0_sx168 /home/mirco/kaldi-trunk/egs/timit/s5/mfcc/raw_mfcc_train.3.ark:2794081
mkjo0_sx77 /home/mirco/kaldi-trunk/egs/timit/s5/mfcc/raw_mfcc_train.3.ark:2139025
mjfh0_sx117 /home/mirco/kaldi-trunk/egs/timit/s5/mfcc/raw_mfcc_train.3.ark:954570
fvfb0_sx42 /home/mirco/kaldi-trunk/egs/timit/s5/mfcc/raw_mfcc_train.2.ark:594119
mmgg0_sx89 /home/mirco/kaldi-trunk/egs/timit/s5/mfcc/raw_mfcc_train.3.ark:3084573
flet0_si1137 /home/mirco/kaldi-trunk/egs/timit/s5/mfcc/raw_mfcc_train.1.ark:2424913
flhd0_sx84 /home/mirco/kaldi-trunk/egs/timit/s5/mfcc/raw_mfcc_train.1.ark:2481843
fmbg0_sx440 /home/mirco/kaldi-trunk/egs/timit/s5/mfcc/raw_mfcc_train.1.ark:2840460
mafm0_sx309 /home/mirco/kaldi-trunk/egs/timit/s5/mfcc/raw_mfcc_train.2.ark:833269
mjda0_sx41 /home/mirco/kaldi-trunk/egs/timit/s5/mfcc/raw_mfcc_train.3.ark:699874
feeh0_sx212 /home/mirco/kaldi-trunk/egs/timit/s5/mfcc/raw_mfcc_train.1.ark:1242835
fpmy0_si1153 /home/mirco/kaldi-trunk/egs/timit/s5/mfcc/raw_mfcc_train.1.ark:3426853
mjjj0_sx353 /home/mirco/kaldi-trunk/egs/timit/s5/mfcc/raw_mfcc_train.3.ark:1094757
fcmm0_sx93 /home/mirco/kaldi-trunk/egs/timit/s5/mfcc/raw_mfcc_train.1.ark:716595
fbjl0_si922 /home/mirco/kaldi-trunk/egs/timit/s5/mfcc/raw_mfcc_train.1.ark:282294
fsah0_sx74 /home/mirco/kaldi-trunk/egs/timit/s5/mfcc/raw_mfcc_train.1.ark:3624137
mcdc0_sx212 /home/mirco/kaldi-trunk/egs/timit/s5/mfcc/raw_mfcc_train.2.ark:1524828
fcrz0_si2053 /home/mirco/kaldi-trunk/egs/timit/s5/mfcc/raw_mfcc_train.1.ark:724723
mpar0_sx316 /home/mirco/kaldi-trunk/egs/timit/s5/mfcc/raw_mfcc_train.3.ark:3526199
mlns0_sx327 /home/mirco/kaldi-trunk/egs/timit/s5/mfcc/raw_mfcc_train.3.ark:2523524
mrml0_si791 /home/mirco/kaldi-trunk/egs/timit/s5/mfcc/raw_mfcc_train.4.ark:1310107
fklh0_si1887 /home/mirco/kaldi-trunk/egs/timit/s5/mfcc/raw_mfcc_train.1.ark:2267777
mwre0_sx337 /home/mirco/kaldi-trunk/egs/timit/s5/mfcc/raw_mfcc_train.4.ark:3665248
fskp0_sx378 /home/mirco/kaldi-trunk/egs/timit/s5/mfcc/raw_mfcc_train.2.ark:172489
mjrh0_si1125 /home/mirco/kaldi-trunk/egs/timit/s5/mfcc/raw_mfcc_train.3.ark:1512925
mmbs0_si1151 /home/mirco/kaldi-trunk/egs/timit/s5/mfcc/raw_mfcc_train.3.ark:2744550
mrml0_sx341 /home/mirco/kaldi-trunk/egs/timit/s5/mfcc/raw_mfcc_train.4.ark:1327223
fcyl0_sx217 /home/mirco/kaldi-trunk/egs/timit/s5/mfcc/raw_mfcc_train.1.ark:767636
fssb0_si2342 /home/mirco/kaldi-trunk/egs/timit/s5/mfcc/raw_mfcc_train.2.ark:388032
mtbc0_sx93 /home/mirco/kaldi-trunk/egs/timit/s5/mfcc/raw_mfcc_train.4.ark:2501055
marw0_sx16 /home/mirco/kaldi-trunk/egs/timit/s5/mfcc/raw_mfcc_train.2.ark:1017971
mrmg0_si1710 /home/mirco/kaldi-trunk/egs/timit/s5/mfcc/raw_mfcc_train.4.ark:1241721
fvfb0_si2292 /home/mirco/kaldi-trunk/egs/timit/s5/mfcc/raw_mfcc_train.2.ark:576860
flag0_sx24 /home/mirco/kaldi-trunk/egs/timit/s5/mfcc/raw_mfcc_train.1.ark:2379593
mmdm1_sx153 /home/mirco/kaldi-trunk/egs/timit/s5/mfcc/raw_mfcc_train.3.ark:2917770
fcmm0_si1957 /home/mirco/kaldi-trunk/egs/timit/s5/mfcc/raw_mfcc_train.1.ark:691984
flja0_si1078 /home/mirco/kaldi-trunk/egs/timit/s5/mfcc/raw_mfcc_train.1.ark:2486271
mrdm0_si1595 /home/mirco/kaldi-trunk/egs/timit/s5/mfcc/raw_mfcc_train.4.ark:482212
mjjm0_sx377 /home/mirco/kaldi-trunk/egs/timit/s5/mfcc/raw_mfcc_train.3.ark:1134880
marc0_si1818 /home/mirco/kaldi-trunk/egs/timit/s5/mfcc/raw_mfcc_train.2.ark:979973
mrjb1_sx120 /home/mirco/kaldi-trunk/egs/timit/s5/mfcc/raw_mfcc_train.4.ark:858566
fpaf0_sx424 /home/mirco/kaldi-trunk/egs/timit/s5/mfcc/raw_mfcc_train.1.ark:3323580
mwrp0_si2073 /home/mirco/kaldi-trunk/egs/timit/s5/mfcc/raw_mfcc_train.4.ark:3687268
mmam0_si2227 /home/mirco/kaldi-trunk/egs/timit/s5/mfcc/raw_mfcc_train.3.ark:2683962
mhxl0_sx332 /home/mirco/kaldi-trunk/egs/timit/s5/mfcc/raw_mfcc_train.3.ark:500828
mcdc0_sx122 /home/mirco/kaldi-trunk/egs/timit/s5/mfcc/raw_mfcc_train.2.ark:1520466
mmdb0_sx447 /home/mirco/kaldi-trunk/egs/timit/s5/mfcc/raw_mfcc_train.3.ark:2835967
mgsh0_si1176 /home/mirco/kaldi-trunk/egs/timit/s5/mfcc/raw_mfcc_train.3.ark:193849
fpad0_sx176 /home/mirco/kaldi-trunk/egs/timit/s5/mfcc/raw_mfcc_train.1.ark:3276454
mrld0_si1594 /home/mirco/kaldi-trunk/egs/timit/s5/mfcc/raw_mfcc_train.4.ark:1058512
mfxs0_si2304 /home/mirco/kaldi-trunk/egs/timit/s5/mfcc/raw_mfcc_train.2.ark:3527348
mpeb0_si1860 /home/mirco/kaldi-trunk/egs/timit/s5/mfcc/raw_mfcc_train.3.ark:3537837
fklc0_sx445 /home/mirco/kaldi-trunk/egs/timit/s5/mfcc/raw_mfcc_train.1.ark:2220611
fkfb0_si1608 /home/mirco/kaldi-trunk/egs/timit/s5/mfcc/raw_mfcc_train.1.ark:2120926
mlsh0_sx427 /home/mirco/kaldi-trunk/egs/timit/s5/mfcc/raw_mfcc_train.3.ark:2562367
fbmh0_sx56 /home/mirco/kaldi-trunk/egs/timit/s5/mfcc/raw_mfcc_train.1.ark:370570
mrbc0_sx149 /home/mirco/kaldi-trunk/egs/timit/s5/mfcc/raw_mfcc_train.4.ark:356872
mmcc0_sx348 /home/mirco/kaldi-trunk/egs/timit/s5/mfcc/raw_mfcc_train.3.ark:2800153
mlbc0_sx339 /home/mirco/kaldi-trunk/egs/timit/s5/mfcc/raw_mfcc_train.3.ark:2384144
mgag0_si645 /home/mirco/kaldi-trunk/egs/timit/s5/mfcc/raw_mfcc_train.2.ark:3617420
mcth0_sx309 /home/mirco/kaldi-trunk/egs/timit/s5/mfcc/raw_mfcc_train.2.ark:1887161
fmjf0_sx444 /home/mirco/kaldi-trunk/egs/timit/s5/mfcc/raw_mfcc_train.1.ark:2942719
mdef0_sx213 /home/mirco/kaldi-trunk/egs/timit/s5/mfcc/raw_mfcc_train.2.ark:2235387
fsjg0_sx220 /home/mirco/kaldi-trunk/egs/timit/s5/mfcc/raw_mfcc_train.1.ark:3845049
mmaa0_sx125 /home/mirco/kaldi-trunk/egs/timit/s5/mfcc/raw_mfcc_train.3.ark:2585764
mjsr0_si794 /home/mirco/kaldi-trunk/egs/timit/s5/mfcc/raw_mfcc_train.3.ark:1648018
msmc0_sx287 /home/mirco/kaldi-trunk/egs/timit/s5/mfcc/raw_mfcc_train.4.ark:2128870
mtcs0_sx172 /home/mirco/kaldi-trunk/egs/timit/s5/mfcc/raw_mfcc_train.4.ark:2515593
fpmy0_si1783 /home/mirco/kaldi-trunk/egs/timit/s5/mfcc/raw_mfcc_train.1.ark:3433036
mesg0_sx162 /home/mirco/kaldi-trunk/egs/timit/s5/mfcc/raw_mfcc_train.2.ark:3321556
mbma1_si954 /home/mirco/kaldi-trunk/egs/timit/s5/mfcc/raw_mfcc_train.2.ark:1258836
mzmb0_sx86 /home/mirco/kaldi-trunk/egs/timit/s5/mfcc/raw_mfcc_train.4.ark:3806016
fmem0_si2007 /home/mirco/kaldi-trunk/egs/timit/s5/mfcc/raw_mfcc_train.1.ark:2853482
majp0_si2334 /home/mirco/kaldi-trunk/egs/timit/s5/mfcc/raw_mfcc_train.2.ark:852455
mrav0_sx18 /home/mirco/kaldi-trunk/egs/timit/s5/mfcc/raw_mfcc_train.4.ark:332420
mcss0_sx300 /home/mirco/kaldi-trunk/egs/timit/s5/mfcc/raw_mfcc_train.2.ark:1859875
mdlr0_sx243 /home/mirco/kaldi-trunk/egs/timit/s5/mfcc/raw_mfcc_train.2.ark:2625395
mppc0_sx152 /home/mirco/kaldi-trunk/egs/timit/s5/mfcc/raw_mfcc_train.3.ark:3756242
mrlr0_sx26 /home/mirco/kaldi-trunk/egs/timit/s5/mfcc/raw_mfcc_train.4.ark:1197486
fajw0_si1263 /home/mirco/kaldi-trunk/egs/timit/s5/mfcc/raw_mfcc_train.1.ark:32804
mtkp0_sx33 /home/mirco/kaldi-trunk/egs/timit/s5/mfcc/raw_mfcc_train.4.ark:2837473
mpfu0_sx178 /home/mirco/kaldi-trunk/egs/timit/s5/mfcc/raw_mfcc_train.3.ark:3577103
mprb0_si1215 /home/mirco/kaldi-trunk/egs/timit/s5/mfcc/raw_mfcc_train.4.ark:19314
mrcg0_sx78 /home/mirco/kaldi-trunk/egs/timit/s5/mfcc/raw_mfcc_train.4.ark:412154
mwdk0_si2017 /home/mirco/kaldi-trunk/egs/timit/s5/mfcc/raw_mfcc_train.4.ark:3553169
fnkl0_si892 /home/mirco/kaldi-trunk/egs/timit/s5/mfcc/raw_mfcc_train.1.ark:3134377
mbar0_sx239 /home/mirco/kaldi-trunk/egs/timit/s5/mfcc/raw_mfcc_train.2.ark:1054533
megj0_si707 /home/mirco/kaldi-trunk/egs/timit/s5/mfcc/raw_mfcc_train.2.ark:3222528
mram0_sx195 /home/mirco/kaldi-trunk/egs/timit/s5/mfcc/raw_mfcc_train.4.ark:306278
fscn0_sx176 /home/mirco/kaldi-trunk/egs/timit/s5/mfcc/raw_mfcc_train.1.ark:3710185
mjls0_sx106 /home/mirco/kaldi-trunk/egs/timit/s5/mfcc/raw_mfcc_train.3.ark:1247064
mjxl0_si542 /home/mirco/kaldi-trunk/egs/timit/s5/mfcc/raw_mfcc_train.3.ark:1824712
mljc0_sx55 /home/mirco/kaldi-trunk/egs/timit/s5/mfcc/raw_mfcc_train.3.ark:2460750
mjxa0_si2137 /home/mirco/kaldi-trunk/egs/timit/s5/mfcc/raw_mfcc_train.3.ark:1790601
mjjm0_si1251 /home/mirco/kaldi-trunk/egs/timit/s5/mfcc/raw_mfcc_train.3.ark:1106088
fdaw0_sx236 /home/mirco/kaldi-trunk/egs/timit/s5/mfcc/raw_mfcc_train.1.ark:837353
fcjs0_si977 /home/mirco/kaldi-trunk/egs/timit/s5/mfcc/raw_mfcc_train.1.ark:567365
mbar0_si1949 /home/mirco/kaldi-trunk/egs/timit/s5/mfcc/raw_mfcc_train.2.ark:1043150
fcag0_sx423 /home/mirco/kaldi-trunk/egs/timit/s5/mfcc/raw_mfcc_train.1.ark:431921
mprd0_sx441 /home/mirco/kaldi-trunk/egs/timit/s5/mfcc/raw_mfcc_train.4.ark:83197
mter0_sx437 /home/mirco/kaldi-trunk/egs/timit/s5/mfcc/raw_mfcc_train.4.ark:2632577
fmjb0_sx97 /home/mirco/kaldi-trunk/egs/timit/s5/mfcc/raw_mfcc_train.1.ark:2914575
mbbr0_sx65 /home/mirco/kaldi-trunk/egs/timit/s5/mfcc/raw_mfcc_train.2.ark:1097199
msdb0_si1007 /home/mirco/kaldi-trunk/egs/timit/s5/mfcc/raw_mfcc_train.4.ark:1827095
mdlh0_sx70 /home/mirco/kaldi-trunk/egs/timit/s5/mfcc/raw_mfcc_train.2.ark:2578917
mmds0_sx173 /home/mirco/kaldi-trunk/egs/timit/s5/mfcc/raw_mfcc_train.3.ark:2951562
mbgt0_sx81 /home/mirco/kaldi-trunk/egs/timit/s5/mfcc/raw_mfcc_train.2.ark:1187810
mwsh0_sx76 /home/mirco/kaldi-trunk/egs/timit/s5/mfcc/raw_mfcc_train.4.ark:3772198
mfrm0_si1785 /home/mirco/kaldi-trunk/egs/timit/s5/mfcc/raw_mfcc_train.2.ark:3468018
mchl0_sx267 /home/mirco/kaldi-trunk/egs/timit/s5/mfcc/raw_mfcc_train.2.ark:1694478
mwsb0_sx186 /home/mirco/kaldi-trunk/egs/timit/s5/mfcc/raw_mfcc_train.4.ark:3722482
mmgg0_si1709 /home/mirco/kaldi-trunk/egs/timit/s5/mfcc/raw_mfcc_train.3.ark:3061547
mrpc1_sx312 /home/mirco/kaldi-trunk/egs/timit/s5/mfcc/raw_mfcc_train.4.ark:1386736
fpad0_sx356 /home/mirco/kaldi-trunk/egs/timit/s5/mfcc/raw_mfcc_train.1.ark:3285763
mnet0_sx276 /home/mirco/kaldi-trunk/egs/timit/s5/mfcc/raw_mfcc_train.3.ark:3458947
mjpm1_sx221 /home/mirco/kaldi-trunk/egs/timit/s5/mfcc/raw_mfcc_train.3.ark:1428660
msjk0_si1596 /home/mirco/kaldi-trunk/egs/timit/s5/mfcc/raw_mfcc_train.4.ark:2069427
mrmh0_sx121 /home/mirco/kaldi-trunk/egs/timit/s5/mfcc/raw_mfcc_train.4.ark:1283914
mjfh0_sx387 /home/mirco/kaldi-trunk/egs/timit/s5/mfcc/raw_mfcc_train.3.ark:965114
flma0_sx253 /home/mirco/kaldi-trunk/egs/timit/s5/mfcc/raw_mfcc_train.1.ark:2643581
fkde0_sx61 /home/mirco/kaldi-trunk/egs/timit/s5/mfcc/raw_mfcc_train.1.ark:2084370
mlel0_sx76 /home/mirco/kaldi-trunk/egs/timit/s5/mfcc/raw_mfcc_train.3.ark:2427530
mmjb1_si2038 /home/mirco/kaldi-trunk/egs/timit/s5/mfcc/raw_mfcc_train.3.ark:3116847
mkls1_sx375 /home/mirco/kaldi-trunk/egs/timit/s5/mfcc/raw_mfcc_train.3.ark:2263938
fcmg0_si1242 /home/mirco/kaldi-trunk/egs/timit/s5/mfcc/raw_mfcc_train.1.ark:660219
mjee0_sx157 /home/mirco/kaldi-trunk/egs/timit/s5/mfcc/raw_mfcc_train.3.ark:921493
mjde0_si463 /home/mirco/kaldi-trunk/egs/timit/s5/mfcc/raw_mfcc_train.3.ark:742196
mtjm0_si655 /home/mirco/kaldi-trunk/egs/timit/s5/mfcc/raw_mfcc_train.4.ark:2683610
mmag0_sx46 /home/mirco/kaldi-trunk/egs/timit/s5/mfcc/raw_mfcc_train.3.ark:2672641
mtjg0_si890 /home/mirco/kaldi-trunk/egs/timit/s5/mfcc/raw_mfcc_train.4.ark:2646386
mjde0_sx310 /home/mirco/kaldi-trunk/egs/timit/s5/mfcc/raw_mfcc_train.3.ark:762257
mjrg0_si1996 /home/mirco/kaldi-trunk/egs/timit/s5/mfcc/raw_mfcc_train.3.ark:1484536
fdtd0_sx321 /home/mirco/kaldi-trunk/egs/timit/s5/mfcc/raw_mfcc_train.1.ark:1083053
mdlr0_sx153 /home/mirco/kaldi-trunk/egs/timit/s5/mfcc/raw_mfcc_train.2.ark:2620747
mjrh0_sx135 /home/mirco/kaldi-trunk/egs/timit/s5/mfcc/raw_mfcc_train.3.ark:1526715
mhbs0_sx405 /home/mirco/kaldi-trunk/egs/timit/s5/mfcc/raw_mfcc_train.3.ark:322315
mjde0_si1120 /home/mirco/kaldi-trunk/egs/timit/s5/mfcc/raw_mfcc_train.3.ark:733960
mfxs0_si1674 /home/mirco/kaldi-trunk/egs/timit/s5/mfcc/raw_mfcc_train.2.ark:3521768
mfxv0_sx375 /home/mirco/kaldi-trunk/egs/timit/s5/mfcc/raw_mfcc_train.2.ark:3579544
fkde0_si2221 /home/mirco/kaldi-trunk/egs/timit/s5/mfcc/raw_mfcc_train.1.ark:2065265
mcxm0_sx91 /home/mirco/kaldi-trunk/egs/timit/s5/mfcc/raw_mfcc_train.2.ark:1958801
mrml0_sx431 /home/mirco/kaldi-trunk/egs/timit/s5/mfcc/raw_mfcc_train.4.ark:1331962
fdas1_si831 /home/mirco/kaldi-trunk/egs/timit/s5/mfcc/raw_mfcc_train.1.ark:793705
mdlc1_si1435 /home/mirco/kaldi-trunk/egs/timit/s5/mfcc/raw_mfcc_train.2.ark:2486636
mclk0_si1660 /home/mirco/kaldi-trunk/egs/timit/s5/mfcc/raw_mfcc_train.2.ark:1709898
mjae0_si1524 /home/mirco/kaldi-trunk/egs/timit/s5/mfcc/raw_mfcc_train.3.ark:576776
mgsl0_sx84 /home/mirco/kaldi-trunk/egs/timit/s5/mfcc/raw_mfcc_train.3.ark:259589
mded0_si540 /home/mirco/kaldi-trunk/egs/timit/s5/mfcc/raw_mfcc_train.2.ark:2192142
mbef0_sx381 /home/mirco/kaldi-trunk/egs/timit/s5/mfcc/raw_mfcc_train.2.ark:1154226
mtkd0_sx377 /home/mirco/kaldi-trunk/egs/timit/s5/mfcc/raw_mfcc_train.4.ark:2805924
flmk0_sx135 /home/mirco/kaldi-trunk/egs/timit/s5/mfcc/raw_mfcc_train.1.ark:2702553
fexm0_sx381 /home/mirco/kaldi-trunk/egs/timit/s5/mfcc/raw_mfcc_train.1.ark:1360924
mrjh0_si889 /home/mirco/kaldi-trunk/egs/timit/s5/mfcc/raw_mfcc_train.4.ark:884868
mtpp0_sx158 /home/mirco/kaldi-trunk/egs/timit/s5/mfcc/raw_mfcc_train.4.ark:3079606
mjee0_sx337 /home/mirco/kaldi-trunk/egs/timit/s5/mfcc/raw_mfcc_train.3.ark:929645
msat0_sx356 /home/mirco/kaldi-trunk/egs/timit/s5/mfcc/raw_mfcc_train.4.ark:1786404
mbbr0_sx335 /home/mirco/kaldi-trunk/egs/timit/s5/mfcc/raw_mfcc_train.2.ark:1088892
mkls0_sx357 /home/mirco/kaldi-trunk/egs/timit/s5/mfcc/raw_mfcc_train.3.ark:2225089
mrbc0_sx419 /home/mirco/kaldi-trunk/egs/timit/s5/mfcc/raw_mfcc_train.4.ark:370400
mrcw0_si741 /home/mirco/kaldi-trunk/egs/timit/s5/mfcc/raw_mfcc_train.4.ark:425008
mtdb0_si771 /home/mirco/kaldi-trunk/egs/timit/s5/mfcc/raw_mfcc_train.4.ark:2544503
mwsb0_si1626 /home/mirco/kaldi-trunk/egs/timit/s5/mfcc/raw_mfcc_train.4.ark:3710084
fkaa0_si578 /home/mirco/kaldi-trunk/egs/timit/s5/mfcc/raw_mfcc_train.1.ark:2025492
mdas0_sx276 /home/mirco/kaldi-trunk/egs/timit/s5/mfcc/raw_mfcc_train.2.ark:2015490
falr0_si695 /home/mirco/kaldi-trunk/egs/timit/s5/mfcc/raw_mfcc_train.1.ark:109381
mrml0_sx251 /home/mirco/kaldi-trunk/egs/timit/s5/mfcc/raw_mfcc_train.4.ark:1321158
fmjb0_sx7 /home/mirco/kaldi-trunk/egs/timit/s5/mfcc/raw_mfcc_train.1.ark:2910552
fsah0_si1874 /home/mirco/kaldi-trunk/egs/timit/s5/mfcc/raw_mfcc_train.1.ark:3597615
mdlr1_sx309 /home/mirco/kaldi-trunk/egs/timit/s5/mfcc/raw_mfcc_train.2.ark:2665720
fkdw0_si1891 /home/mirco/kaldi-trunk/egs/timit/s5/mfcc/raw_mfcc_train.1.ark:2095540
fmem0_si1377 /home/mirco/kaldi-trunk/egs/timit/s5/mfcc/raw_mfcc_train.1.ark:2848339
fblv0_sx338 /home/mirco/kaldi-trunk/egs/timit/s5/mfcc/raw_mfcc_train.1.ark:329771
mdwm0_si2176 /home/mirco/kaldi-trunk/egs/timit/s5/mfcc/raw_mfcc_train.2.ark:3095661
fnkl0_si1522 /home/mirco/kaldi-trunk/egs/timit/s5/mfcc/raw_mfcc_train.1.ark:3127498
mmgc0_sx405 /home/mirco/kaldi-trunk/egs/timit/s5/mfcc/raw_mfcc_train.3.ark:3048707
mctm0_si1980 /home/mirco/kaldi-trunk/egs/timit/s5/mfcc/raw_mfcc_train.2.ark:1904220
mjeb1_si1467 /home/mirco/kaldi-trunk/egs/timit/s5/mfcc/raw_mfcc_train.3.ark:875472
mjbg0_sx152 /home/mirco/kaldi-trunk/egs/timit/s5/mfcc/raw_mfcc_train.3.ark:653184
fjen0_sx417 /home/mirco/kaldi-trunk/egs/timit/s5/mfcc/raw_mfcc_train.1.ark:1643765
mrtc0_si1458 /home/mirco/kaldi-trunk/egs/timit/s5/mfcc/raw_mfcc_train.4.ark:1509635
mbma0_sx142 /home/mirco/kaldi-trunk/egs/timit/s5/mfcc/raw_mfcc_train.2.ark:1231915
marw0_si1906 /home/mirco/kaldi-trunk/egs/timit/s5/mfcc/raw_mfcc_train.2.ark:1007941
mmrp0_si717 /home/mirco/kaldi-trunk/egs/timit/s5/mfcc/raw_mfcc_train.3.ark:3209019
msvs0_sx128 /home/mirco/kaldi-trunk/egs/timit/s5/mfcc/raw_mfcc_train.4.ark:2315532
flmk0_si2295 /home/mirco/kaldi-trunk/egs/timit/s5/mfcc/raw_mfcc_train.1.ark:2699153
fljg0_si1611 /home/mirco/kaldi-trunk/egs/timit/s5/mfcc/raw_mfcc_train.1.ark:2553648
flod0_sx171 /home/mirco/kaldi-trunk/egs/timit/s5/mfcc/raw_mfcc_train.1.ark:2736963
mclk0_sx310 /home/mirco/kaldi-trunk/egs/timit/s5/mfcc/raw_mfcc_train.2.ark:1733178
mppc0_sx332 /home/mirco/kaldi-trunk/egs/timit/s5/mfcc/raw_mfcc_train.4.ark:3971
fsma0_si1621 /home/mirco/kaldi-trunk/egs/timit/s5/mfcc/raw_mfcc_train.2.ark:208955
mlbc0_sx69 /home/mirco/kaldi-trunk/egs/timit/s5/mfcc/raw_mfcc_train.3.ark:2391424
mmws0_sx78 /home/mirco/kaldi-trunk/egs/timit/s5/mfcc/raw_mfcc_train.3.ark:3384333
fltm0_sx170 /home/mirco/kaldi-trunk/egs/timit/s5/mfcc/raw_mfcc_train.1.ark:2760168
fsjw0_sx73 /home/mirco/kaldi-trunk/egs/timit/s5/mfcc/raw_mfcc_train.2.ark:79329
fhxs0_sx175 /home/mirco/kaldi-trunk/egs/timit/s5/mfcc/raw_mfcc_train.1.ark:1560363
fcke0_sx301 /home/mirco/kaldi-trunk/egs/timit/s5/mfcc/raw_mfcc_train.1.ark:613736
marw0_si646 /home/mirco/kaldi-trunk/egs/timit/s5/mfcc/raw_mfcc_train.2.ark:1010795
mfmc0_si1762 /home/mirco/kaldi-trunk/egs/timit/s5/mfcc/raw_mfcc_train.2.ark:3429876
mapv0_sx213 /home/mirco/kaldi-trunk/egs/timit/s5/mfcc/raw_mfcc_train.2.ark:963856
mmbs0_sx431 /home/mirco/kaldi-trunk/egs/timit/s5/mfcc/raw_mfcc_train.3.ark:2772075
fpac0_si661 /home/mirco/kaldi-trunk/egs/timit/s5/mfcc/raw_mfcc_train.1.ark:3236870
mtkp0_sx393 /home/mirco/kaldi-trunk/egs/timit/s5/mfcc/raw_mfcc_train.4.ark:2840886
mcth0_sx399 /home/mirco/kaldi-trunk/egs/timit/s5/mfcc/raw_mfcc_train.2.ark:1895416
fpmy0_sx163 /home/mirco/kaldi-trunk/egs/timit/s5/mfcc/raw_mfcc_train.1.ark:3444451
mbth0_sx212 /home/mirco/kaldi-trunk/egs/timit/s5/mfcc/raw_mfcc_train.2.ark:1386607
mclk0_sx220 /home/mirco/kaldi-trunk/egs/timit/s5/mfcc/raw_mfcc_train.2.ark:1728569
mcpm0_si1824 /home/mirco/kaldi-trunk/egs/timit/s5/mfcc/raw_mfcc_train.2.ark:1775618
mjhi0_sx338 /home/mirco/kaldi-trunk/egs/timit/s5/mfcc/raw_mfcc_train.3.ark:1023974
flhd0_sx264 /home/mirco/kaldi-trunk/egs/timit/s5/mfcc/raw_mfcc_train.1.ark:2471072
mdmt0_sx302 /home/mirco/kaldi-trunk/egs/timit/s5/mfcc/raw_mfcc_train.2.ark:2734488
mjdg0_sx142 /home/mirco/kaldi-trunk/egs/timit/s5/mfcc/raw_mfcc_train.3.ark:789120
mjee0_sx427 /home/mirco/kaldi-trunk/egs/timit/s5/mfcc/raw_mfcc_train.3.ark:933864
mrlj0_si1420 /home/mirco/kaldi-trunk/egs/timit/s5/mfcc/raw_mfcc_train.4.ark:1086311
fsak0_sx220 /home/mirco/kaldi-trunk/egs/timit/s5/mfcc/raw_mfcc_train.1.ark:3642868
mrai0_sx162 /home/mirco/kaldi-trunk/egs/timit/s5/mfcc/raw_mfcc_train.4.ark:264581
fsag0_si1953 /home/mirco/kaldi-trunk/egs/timit/s5/mfcc/raw_mfcc_train.1.ark:3559832
mjeb0_si656 /home/mirco/kaldi-trunk/egs/timit/s5/mfcc/raw_mfcc_train.3.ark:852186
fskl0_sx89 /home/mirco/kaldi-trunk/egs/timit/s5/mfcc/raw_mfcc_train.2.ark:142155
mjjm0_sx197 /home/mirco/kaldi-trunk/egs/timit/s5/mfcc/raw_mfcc_train.3.ark:1127365
fsrh0_sx311 /home/mirco/kaldi-trunk/egs/timit/s5/mfcc/raw_mfcc_train.2.ark:363438
mvlo0_sx247 /home/mirco/kaldi-trunk/egs/timit/s5/mfcc/raw_mfcc_train.4.ark:3381492
mkdd0_si937 /home/mirco/kaldi-trunk/egs/timit/s5/mfcc/raw_mfcc_train.3.ark:2023225
mpeb0_sx150 /home/mirco/kaldi-trunk/egs/timit/s5/mfcc/raw_mfcc_train.3.ark:3545677
mjsr0_si2054 /home/mirco/kaldi-trunk/egs/timit/s5/mfcc/raw_mfcc_train.3.ark:1641329
fkdw0_si1207 /home/mirco/kaldi-trunk/egs/timit/s5/mfcc/raw_mfcc_train.1.ark:2089253
mdwm0_sx16 /home/mirco/kaldi-trunk/egs/timit/s5/mfcc/raw_mfcc_train.2.ark:3108421
mctm0_si720 /home/mirco/kaldi-trunk/egs/timit/s5/mfcc/raw_mfcc_train.2.ark:1909778
fmah1_sx249 /home/mirco/kaldi-trunk/egs/timit/s5/mfcc/raw_mfcc_train.1.ark:2801910
mges0_si851 /home/mirco/kaldi-trunk/egs/timit/s5/mfcc/raw_mfcc_train.3.ark:67067
mdwm0_si916 /home/mirco/kaldi-trunk/egs/timit/s5/mfcc/raw_mfcc_train.2.ark:3099230
mdma0_sx260 /home/mirco/kaldi-trunk/egs/timit/s5/mfcc/raw_mfcc_train.2.ark:2695983
frjb0_sx257 /home/mirco/kaldi-trunk/egs/timit/s5/mfcc/raw_mfcc_train.1.ark:3505907
mkag0_sx169 /home/mirco/kaldi-trunk/egs/timit/s5/mfcc/raw_mfcc_train.3.ark:1864504
mwgr0_sx76 /home/mirco/kaldi-trunk/egs/timit/s5/mfcc/raw_mfcc_train.4.ark:3641543
fhxs0_si2302 /home/mirco/kaldi-trunk/egs/timit/s5/mfcc/raw_mfcc_train.1.ark:1547257
mrvg0_si1770 /home/mirco/kaldi-trunk/egs/timit/s5/mfcc/raw_mfcc_train.4.ark:1589538
mdma0_si1238 /home/mirco/kaldi-trunk/egs/timit/s5/mfcc/raw_mfcc_train.2.ark:2677896
flja0_sx448 /home/mirco/kaldi-trunk/egs/timit/s5/mfcc/raw_mfcc_train.1.ark:2512913
mjws0_si1773 /home/mirco/kaldi-trunk/egs/timit/s5/mfcc/raw_mfcc_train.3.ark:1718116
fblv0_sx428 /home/mirco/kaldi-trunk/egs/timit/s5/mfcc/raw_mfcc_train.1.ark:334354
mstf0_si766 /home/mirco/kaldi-trunk/egs/timit/s5/mfcc/raw_mfcc_train.4.ark:2268427
mkls1_si2175 /home/mirco/kaldi-trunk/egs/timit/s5/mfcc/raw_mfcc_train.3.ark:2241498
mesj0_si997 /home/mirco/kaldi-trunk/egs/timit/s5/mfcc/raw_mfcc_train.2.ark:3350622
mdlm0_sx424 /home/mirco/kaldi-trunk/egs/timit/s5/mfcc/raw_mfcc_train.2.ark:2602355
fjhk0_si2282 /home/mirco/kaldi-trunk/egs/timit/s5/mfcc/raw_mfcc_train.1.ark:1659317
mjae0_sx174 /home/mirco/kaldi-trunk/egs/timit/s5/mfcc/raw_mfcc_train.3.ark:587329
mcew0_si2072 /home/mirco/kaldi-trunk/egs/timit/s5/mfcc/raw_mfcc_train.2.ark:1640618
fljg0_sx261 /home/mirco/kaldi-trunk/egs/timit/s5/mfcc/raw_mfcc_train.1.ark:2574256
feac0_sx345 /home/mirco/kaldi-trunk/egs/timit/s5/mfcc/raw_mfcc_train.1.ark:1142246
mesg0_sx252 /home/mirco/kaldi-trunk/egs/timit/s5/mfcc/raw_mfcc_train.2.ark:3325879
flkm0_si1880 /home/mirco/kaldi-trunk/egs/timit/s5/mfcc/raw_mfcc_train.1.ark:2592094
mrlk0_si843 /home/mirco/kaldi-trunk/egs/timit/s5/mfcc/raw_mfcc_train.4.ark:1155432
mcxm0_si1981 /home/mirco/kaldi-trunk/egs/timit/s5/mfcc/raw_mfcc_train.2.ark:1934151
freh0_sx415 /home/mirco/kaldi-trunk/egs/timit/s5/mfcc/raw_mfcc_train.1.ark:3486415
mjda0_sx131 /home/mirco/kaldi-trunk/egs/timit/s5/mfcc/raw_mfcc_train.3.ark:685105
mmea0_sx308 /home/mirco/kaldi-trunk/egs/timit/s5/mfcc/raw_mfcc_train.3.ark:2985420
mmwb0_sx179 /home/mirco/kaldi-trunk/egs/timit/s5/mfcc/raw_mfcc_train.3.ark:3330755
mkdd0_si2197 /home/mirco/kaldi-trunk/egs/timit/s5/mfcc/raw_mfcc_train.3.ark:2017303
mrlr0_sx206 /home/mirco/kaldi-trunk/egs/timit/s5/mfcc/raw_mfcc_train.4.ark:1193138
fntb0_si573 /home/mirco/kaldi-trunk/egs/timit/s5/mfcc/raw_mfcc_train.1.ark:3162636
mgsl0_si797 /home/mirco/kaldi-trunk/egs/timit/s5/mfcc/raw_mfcc_train.3.ark:236142
mgrl0_sx237 /home/mirco/kaldi-trunk/egs/timit/s5/mfcc/raw_mfcc_train.3.ark:142167
fjlr0_si1231 /home/mirco/kaldi-trunk/egs/timit/s5/mfcc/raw_mfcc_train.1.ark:1748654
mbcg0_si2217 /home/mirco/kaldi-trunk/egs/timit/s5/mfcc/raw_mfcc_train.2.ark:1100145
mjrh0_si1840 /home/mirco/kaldi-trunk/egs/timit/s5/mfcc/raw_mfcc_train.3.ark:1520429
fbcg1_si2242 /home/mirco/kaldi-trunk/egs/timit/s5/mfcc/raw_mfcc_train.1.ark:209179
fmbg0_sx350 /home/mirco/kaldi-trunk/egs/timit/s5/mfcc/raw_mfcc_train.1.ark:2835617
mrms0_sx120 /home/mirco/kaldi-trunk/egs/timit/s5/mfcc/raw_mfcc_train.4.ark:1354957
mtrc0_sx183 /home/mirco/kaldi-trunk/egs/timit/s5/mfcc/raw_mfcc_train.4.ark:3194183
fdjh0_si1565 /home/mirco/kaldi-trunk/egs/timit/s5/mfcc/raw_mfcc_train.1.ark:880027
mjdc0_sx261 /home/mirco/kaldi-trunk/egs/timit/s5/mfcc/raw_mfcc_train.3.ark:721738
mtdb0_sx51 /home/mirco/kaldi-trunk/egs/timit/s5/mfcc/raw_mfcc_train.4.ark:2565532
mrgm0_si1792 /home/mirco/kaldi-trunk/egs/timit/s5/mfcc/raw_mfcc_train.4.ark:739562
mjdg0_sx232 /home/mirco/kaldi-trunk/egs/timit/s5/mfcc/raw_mfcc_train.3.ark:793313
fbmh0_si1766 /home/mirco/kaldi-trunk/egs/timit/s5/mfcc/raw_mfcc_train.1.ark:348442
mvjh0_si2186 /home/mirco/kaldi-trunk/egs/timit/s5/mfcc/raw_mfcc_train.4.ark:3340737
mbjv0_sx437 /home/mirco/kaldi-trunk/egs/timit/s5/mfcc/raw_mfcc_train.2.ark:1214108
mjeb1_sx297 /home/mirco/kaldi-trunk/egs/timit/s5/mfcc/raw_mfcc_train.3.ark:902476
msjk0_si966 /home/mirco/kaldi-trunk/egs/timit/s5/mfcc/raw_mfcc_train.4.ark:2078646
mrmg0_sx90 /home/mirco/kaldi-trunk/egs/timit/s5/mfcc/raw_mfcc_train.4.ark:1266749
msem1_si2070 /home/mirco/kaldi-trunk/egs/timit/s5/mfcc/raw_mfcc_train.4.ark:1926752
mrjm1_sx128 /home/mirco/kaldi-trunk/egs/timit/s5/mfcc/raw_mfcc_train.4.ark:963790
fajw0_sx93 /home/mirco/kaldi-trunk/egs/timit/s5/mfcc/raw_mfcc_train.1.ark:64116
fjlr0_sx421 /home/mirco/kaldi-trunk/egs/timit/s5/mfcc/raw_mfcc_train.1.ark:1772890
mjeb0_sx296 /home/mirco/kaldi-trunk/egs/timit/s5/mfcc/raw_mfcc_train.3.ark:868905
mrpc1_sx132 /home/mirco/kaldi-trunk/egs/timit/s5/mfcc/raw_mfcc_train.4.ark:1380040
mgjc0_si1965 /home/mirco/kaldi-trunk/egs/timit/s5/mfcc/raw_mfcc_train.3.ark:98663
mjfh0_sx297 /home/mirco/kaldi-trunk/egs/timit/s5/mfcc/raw_mfcc_train.3.ark:962416
mmws0_sx348 /home/mirco/kaldi-trunk/egs/timit/s5/mfcc/raw_mfcc_train.3.ark:3374960
mram0_sx105 /home/mirco/kaldi-trunk/egs/timit/s5/mfcc/raw_mfcc_train.4.ark:298712
fmjf0_sx84 /home/mirco/kaldi-trunk/egs/timit/s5/mfcc/raw_mfcc_train.1.ark:2946885
fsjk1_si696 /home/mirco/kaldi-trunk/egs/timit/s5/mfcc/raw_mfcc_train.1.ark:3875252
fgrw0_sx342 /home/mirco/kaldi-trunk/egs/timit/s5/mfcc/raw_mfcc_train.1.ark:1494377
mrws0_sx382 /home/mirco/kaldi-trunk/egs/timit/s5/mfcc/raw_mfcc_train.4.ark:1670137
mkls1_sx285 /home/mirco/kaldi-trunk/egs/timit/s5/mfcc/raw_mfcc_train.3.ark:2260590
medr0_sx204 /home/mirco/kaldi-trunk/egs/timit/s5/mfcc/raw_mfcc_train.2.ark:3166959
mkdb0_si872 /home/mirco/kaldi-trunk/egs/timit/s5/mfcc/raw_mfcc_train.3.ark:1986625
mapv0_sx303 /home/mirco/kaldi-trunk/egs/timit/s5/mfcc/raw_mfcc_train.2.ark:967971
msat0_si896 /home/mirco/kaldi-trunk/egs/timit/s5/mfcc/raw_mfcc_train.4.ark:1776893
mkah0_si898 /home/mirco/kaldi-trunk/egs/timit/s5/mfcc/raw_mfcc_train.3.ark:1891593
fjxp0_sx312 /home/mirco/kaldi-trunk/egs/timit/s5/mfcc/raw_mfcc_train.1.ark:2005787
mpmb0_si1501 /home/mirco/kaldi-trunk/egs/timit/s5/mfcc/raw_mfcc_train.3.ark:3688563
mrjm1_sx38 /home/mirco/kaldi-trunk/egs/timit/s5/mfcc/raw_mfcc_train.4.ark:975393
mefg0_sx375 /home/mirco/kaldi-trunk/egs/timit/s5/mfcc/raw_mfcc_train.2.ark:3208010
mjmd0_si2288 /home/mirco/kaldi-trunk/egs/timit/s5/mfcc/raw_mfcc_train.3.ark:1300485
