fklc0_si2245 /home/mirco/kaldi-trunk/egs/timit/s5/mfcc/raw_mfcc_train.1.ark:2196656
mrlk0_sx213 /home/mirco/kaldi-trunk/egs/timit/s5/mfcc/raw_mfcc_train.4.ark:1164143
mpmb0_si2131 /home/mirco/kaldi-trunk/egs/timit/s5/mfcc/raw_mfcc_train.3.ark:3697684
mlsh0_si1417 /home/mirco/kaldi-trunk/egs/timit/s5/mfcc/raw_mfcc_train.3.ark:2536064
mkes0_sx353 /home/mirco/kaldi-trunk/egs/timit/s5/mfcc/raw_mfcc_train.3.ark:2100917
mwch0_si1622 /home/mirco/kaldi-trunk/egs/timit/s5/mfcc/raw_mfcc_train.4.ark:3520265
mkln0_si968 /home/mirco/kaldi-trunk/egs/timit/s5/mfcc/raw_mfcc_train.3.ark:2149838
fpac0_sx211 /home/mirco/kaldi-trunk/egs/timit/s5/mfcc/raw_mfcc_train.1.ark:3247323
falk0_si1086 /home/mirco/kaldi-trunk/egs/timit/s5/mfcc/raw_mfcc_train.1.ark:68375
mhrm0_sx328 /home/mirco/kaldi-trunk/egs/timit/s5/mfcc/raw_mfcc_train.3.ark:467583
fsjs0_si1801 /home/mirco/kaldi-trunk/egs/timit/s5/mfcc/raw_mfcc_train.2.ark:17143
mtrt0_sx254 /home/mirco/kaldi-trunk/egs/timit/s5/mfcc/raw_mfcc_train.4.ark:3258433
mmaa0_sx35 /home/mirco/kaldi-trunk/egs/timit/s5/mfcc/raw_mfcc_train.3.ark:2597601
mdtb0_sx210 /home/mirco/kaldi-trunk/egs/timit/s5/mfcc/raw_mfcc_train.2.ark:3009996
fdjh0_si935 /home/mirco/kaldi-trunk/egs/timit/s5/mfcc/raw_mfcc_train.1.ark:887465
mljc0_si1855 /home/mirco/kaldi-trunk/egs/timit/s5/mfcc/raw_mfcc_train.3.ark:2439181
flac0_sx181 /home/mirco/kaldi-trunk/egs/timit/s5/mfcc/raw_mfcc_train.1.ark:2336155
mbcg0_si486 /home/mirco/kaldi-trunk/egs/timit/s5/mfcc/raw_mfcc_train.2.ark:1103727
mjmm0_si625 /home/mirco/kaldi-trunk/egs/timit/s5/mfcc/raw_mfcc_train.3.ark:1332626
mtcs0_sx442 /home/mirco/kaldi-trunk/egs/timit/s5/mfcc/raw_mfcc_train.4.ark:2527834
msjk0_sx336 /home/mirco/kaldi-trunk/egs/timit/s5/mfcc/raw_mfcc_train.4.ark:2090484
fdas1_sx291 /home/mirco/kaldi-trunk/egs/timit/s5/mfcc/raw_mfcc_train.1.ark:810710
mtjg0_sx170 /home/mirco/kaldi-trunk/egs/timit/s5/mfcc/raw_mfcc_train.4.ark:2651333
mrml0_sx161 /home/mirco/kaldi-trunk/egs/timit/s5/mfcc/raw_mfcc_train.4.ark:1314963
mtjs0_sx22 /home/mirco/kaldi-trunk/egs/timit/s5/mfcc/raw_mfcc_train.4.ark:2730591
mrcw0_si741 /home/mirco/kaldi-trunk/egs/timit/s5/mfcc/raw_mfcc_train.4.ark:425008
mejl0_sx152 /home/mirco/kaldi-trunk/egs/timit/s5/mfcc/raw_mfcc_train.2.ark:3258899
mrld0_si2224 /home/mirco/kaldi-trunk/egs/timit/s5/mfcc/raw_mfcc_train.4.ark:1062771
fgdp0_sx88 /home/mirco/kaldi-trunk/egs/timit/s5/mfcc/raw_mfcc_train.1.ark:1426376
mjpm1_sx41 /home/mirco/kaldi-trunk/egs/timit/s5/mfcc/raw_mfcc_train.3.ark:1443045
fcke0_si1111 /home/mirco/kaldi-trunk/egs/timit/s5/mfcc/raw_mfcc_train.1.ark:593043
mmar0_sx76 /home/mirco/kaldi-trunk/egs/timit/s5/mfcc/raw_mfcc_train.3.ark:2739758
mfxv0_sx15 /home/mirco/kaldi-trunk/egs/timit/s5/mfcc/raw_mfcc_train.2.ark:3569994
fklh0_sx267 /home/mirco/kaldi-trunk/egs/timit/s5/mfcc/raw_mfcc_train.1.ark:2276131
freh0_sx415 /home/mirco/kaldi-trunk/egs/timit/s5/mfcc/raw_mfcc_train.1.ark:3486415
fmmh0_sx187 /home/mirco/kaldi-trunk/egs/timit/s5/mfcc/raw_mfcc_train.1.ark:3067504
mmgg0_sx269 /home/mirco/kaldi-trunk/egs/timit/s5/mfcc/raw_mfcc_train.3.ark:3071514
fmkc0_sx442 /home/mirco/kaldi-trunk/egs/timit/s5/mfcc/raw_mfcc_train.1.ark:3011409
fjlg0_sx449 /home/mirco/kaldi-trunk/egs/timit/s5/mfcc/raw_mfcc_train.1.ark:1739865
mcae0_sx367 /home/mirco/kaldi-trunk/egs/timit/s5/mfcc/raw_mfcc_train.2.ark:1464442
mmea0_si758 /home/mirco/kaldi-trunk/egs/timit/s5/mfcc/raw_mfcc_train.3.ark:2974180
mjmd0_sx218 /home/mirco/kaldi-trunk/egs/timit/s5/mfcc/raw_mfcc_train.3.ark:1309508
mjls0_sx286 /home/mirco/kaldi-trunk/egs/timit/s5/mfcc/raw_mfcc_train.3.ark:1256327
flja0_sx178 /home/mirco/kaldi-trunk/egs/timit/s5/mfcc/raw_mfcc_train.1.ark:2498579
mtjm0_sx326 /home/mirco/kaldi-trunk/egs/timit/s5/mfcc/raw_mfcc_train.4.ark:2694954
fpls0_si960 /home/mirco/kaldi-trunk/egs/timit/s5/mfcc/raw_mfcc_train.1.ark:3403595
fgmb0_si1145 /home/mirco/kaldi-trunk/egs/timit/s5/mfcc/raw_mfcc_train.1.ark:1432507
mljh0_sx424 /home/mirco/kaldi-trunk/egs/timit/s5/mfcc/raw_mfcc_train.3.ark:2497760
fntb0_sx393 /home/mirco/kaldi-trunk/egs/timit/s5/mfcc/raw_mfcc_train.1.ark:3186636
msds0_si2337 /home/mirco/kaldi-trunk/egs/timit/s5/mfcc/raw_mfcc_train.4.ark:1895437
mjrg0_si1996 /home/mirco/kaldi-trunk/egs/timit/s5/mfcc/raw_mfcc_train.3.ark:1484536
mkes0_sx173 /home/mirco/kaldi-trunk/egs/timit/s5/mfcc/raw_mfcc_train.3.ark:2092674
milb0_sx273 /home/mirco/kaldi-trunk/egs/timit/s5/mfcc/raw_mfcc_train.3.ark:532194
fljd0_sx76 /home/mirco/kaldi-trunk/egs/timit/s5/mfcc/raw_mfcc_train.1.ark:2549584
mtcs0_si712 /home/mirco/kaldi-trunk/egs/timit/s5/mfcc/raw_mfcc_train.4.ark:2508462
fcaj0_sx219 /home/mirco/kaldi-trunk/egs/timit/s5/mfcc/raw_mfcc_train.1.ark:452881
fbch0_sx236 /home/mirco/kaldi-trunk/egs/timit/s5/mfcc/raw_mfcc_train.1.ark:258084
mkxl0_sx285 /home/mirco/kaldi-trunk/egs/timit/s5/mfcc/raw_mfcc_train.3.ark:2356637
flmc0_sx112 /home/mirco/kaldi-trunk/egs/timit/s5/mfcc/raw_mfcc_train.1.ark:2669085
mabc0_sx241 /home/mirco/kaldi-trunk/egs/timit/s5/mfcc/raw_mfcc_train.2.ark:674974
mcdc0_si662 /home/mirco/kaldi-trunk/egs/timit/s5/mfcc/raw_mfcc_train.2.ark:1516949
mrms0_sx300 /home/mirco/kaldi-trunk/egs/timit/s5/mfcc/raw_mfcc_train.4.ark:1364051
fjhk0_sx32 /home/mirco/kaldi-trunk/egs/timit/s5/mfcc/raw_mfcc_train.1.ark:1678480
mtmn0_sx434 /home/mirco/kaldi-trunk/egs/timit/s5/mfcc/raw_mfcc_train.4.ark:2968769
mkah0_sx448 /home/mirco/kaldi-trunk/egs/timit/s5/mfcc/raw_mfcc_train.3.ark:1908599
mlsh0_sx67 /home/mirco/kaldi-trunk/egs/timit/s5/mfcc/raw_mfcc_train.3.ark:2565649
fdxw0_si2141 /home/mirco/kaldi-trunk/egs/timit/s5/mfcc/raw_mfcc_train.1.ark:1095413
mdef0_sx33 /home/mirco/kaldi-trunk/egs/timit/s5/mfcc/raw_mfcc_train.2.ark:2241458
mcew0_si812 /home/mirco/kaldi-trunk/egs/timit/s5/mfcc/raw_mfcc_train.2.ark:1646189
mrew1_sx330 /home/mirco/kaldi-trunk/egs/timit/s5/mfcc/raw_mfcc_train.4.ark:656556
mcpm0_sx24 /home/mirco/kaldi-trunk/egs/timit/s5/mfcc/raw_mfcc_train.2.ark:1793143
mtwh1_sx162 /home/mirco/kaldi-trunk/egs/timit/s5/mfcc/raw_mfcc_train.4.ark:3279133
mkam0_sx326 /home/mirco/kaldi-trunk/egs/timit/s5/mfcc/raw_mfcc_train.3.ark:1967727
mrvg0_si1770 /home/mirco/kaldi-trunk/egs/timit/s5/mfcc/raw_mfcc_train.4.ark:1589538
mwgr0_si976 /home/mirco/kaldi-trunk/egs/timit/s5/mfcc/raw_mfcc_train.4.ark:3620865
fjsp0_sx174 /home/mirco/kaldi-trunk/egs/timit/s5/mfcc/raw_mfcc_train.1.ark:1899068
mter0_si1157 /home/mirco/kaldi-trunk/egs/timit/s5/mfcc/raw_mfcc_train.4.ark:2608108
fbch0_sx326 /home/mirco/kaldi-trunk/egs/timit/s5/mfcc/raw_mfcc_train.1.ark:261393
mcxm0_sx271 /home/mirco/kaldi-trunk/egs/timit/s5/mfcc/raw_mfcc_train.2.ark:1947458
fljg0_si2241 /home/mirco/kaldi-trunk/egs/timit/s5/mfcc/raw_mfcc_train.1.ark:2558206
mdmt0_sx32 /home/mirco/kaldi-trunk/egs/timit/s5/mfcc/raw_mfcc_train.2.ark:2738303
mprd0_sx261 /home/mirco/kaldi-trunk/egs/timit/s5/mfcc/raw_mfcc_train.4.ark:74928
mrav0_si1008 /home/mirco/kaldi-trunk/egs/timit/s5/mfcc/raw_mfcc_train.4.ark:317064
mfxv0_sx375 /home/mirco/kaldi-trunk/egs/timit/s5/mfcc/raw_mfcc_train.2.ark:3579544
fmju0_sx39 /home/mirco/kaldi-trunk/egs/timit/s5/mfcc/raw_mfcc_train.1.ark:2978577
mtmt0_sx128 /home/mirco/kaldi-trunk/egs/timit/s5/mfcc/raw_mfcc_train.4.ark:2989371
flac0_si1339 /home/mirco/kaldi-trunk/egs/timit/s5/mfcc/raw_mfcc_train.1.ark:2324979
flet0_sx147 /home/mirco/kaldi-trunk/egs/timit/s5/mfcc/raw_mfcc_train.1.ark:2439625
mdps0_sx179 /home/mirco/kaldi-trunk/egs/timit/s5/mfcc/raw_mfcc_train.2.ark:2851897
mrfk0_sx266 /home/mirco/kaldi-trunk/egs/timit/s5/mfcc/raw_mfcc_train.4.ark:685714
mtcs0_sx82 /home/mirco/kaldi-trunk/egs/timit/s5/mfcc/raw_mfcc_train.4.ark:2532559
fcmm0_si453 /home/mirco/kaldi-trunk/egs/timit/s5/mfcc/raw_mfcc_train.1.ark:697841
mbom0_si1644 /home/mirco/kaldi-trunk/egs/timit/s5/mfcc/raw_mfcc_train.2.ark:1321109
fsma0_sx451 /home/mirco/kaldi-trunk/egs/timit/s5/mfcc/raw_mfcc_train.2.ark:233425
mrml0_sx341 /home/mirco/kaldi-trunk/egs/timit/s5/mfcc/raw_mfcc_train.4.ark:1327223
fsjk1_sx215 /home/mirco/kaldi-trunk/egs/timit/s5/mfcc/raw_mfcc_train.2.ark:12
mjsr0_sx344 /home/mirco/kaldi-trunk/egs/timit/s5/mfcc/raw_mfcc_train.3.ark:1663574
meal0_si917 /home/mirco/kaldi-trunk/egs/timit/s5/mfcc/raw_mfcc_train.2.ark:3130474
mjrg0_sx106 /home/mirco/kaldi-trunk/egs/timit/s5/mfcc/raw_mfcc_train.3.ark:1492584
mwsb0_sx186 /home/mirco/kaldi-trunk/egs/timit/s5/mfcc/raw_mfcc_train.4.ark:3722482
mjsr0_si1424 /home/mirco/kaldi-trunk/egs/timit/s5/mfcc/raw_mfcc_train.3.ark:1636394
mlsh0_sx337 /home/mirco/kaldi-trunk/egs/timit/s5/mfcc/raw_mfcc_train.3.ark:2558473
mdas0_sx21 /home/mirco/kaldi-trunk/egs/timit/s5/mfcc/raw_mfcc_train.2.ark:2013039
frll0_sx434 /home/mirco/kaldi-trunk/egs/timit/s5/mfcc/raw_mfcc_train.1.ark:3547720
fssb0_si1082 /home/mirco/kaldi-trunk/egs/timit/s5/mfcc/raw_mfcc_train.2.ark:377434
mrre0_si1334 /home/mirco/kaldi-trunk/egs/timit/s5/mfcc/raw_mfcc_train.4.ark:1397963
fvkb0_sx79 /home/mirco/kaldi-trunk/egs/timit/s5/mfcc/raw_mfcc_train.2.ark:626169
mjma0_si1495 /home/mirco/kaldi-trunk/egs/timit/s5/mfcc/raw_mfcc_train.3.ark:1265559
mrlk0_si1468 /home/mirco/kaldi-trunk/egs/timit/s5/mfcc/raw_mfcc_train.4.ark:1144146
fmkc0_sx262 /home/mirco/kaldi-trunk/egs/timit/s5/mfcc/raw_mfcc_train.1.ark:3002425
mkes0_sx83 /home/mirco/kaldi-trunk/egs/timit/s5/mfcc/raw_mfcc_train.3.ark:2109523
mrjt0_sx418 /home/mirco/kaldi-trunk/egs/timit/s5/mfcc/raw_mfcc_train.4.ark:1007600
mdem0_si1868 /home/mirco/kaldi-trunk/egs/timit/s5/mfcc/raw_mfcc_train.2.ark:2248051
mdpb0_si1760 /home/mirco/kaldi-trunk/egs/timit/s5/mfcc/raw_mfcc_train.2.ark:2777999
mkam0_si1250 /home/mirco/kaldi-trunk/egs/timit/s5/mfcc/raw_mfcc_train.3.ark:1944576
mprb0_sx35 /home/mirco/kaldi-trunk/egs/timit/s5/mfcc/raw_mfcc_train.4.ark:46076
fdaw0_si2036 /home/mirco/kaldi-trunk/egs/timit/s5/mfcc/raw_mfcc_train.1.ark:827485
fjwb1_si748 /home/mirco/kaldi-trunk/egs/timit/s5/mfcc/raw_mfcc_train.1.ark:1923498
fsrh0_si1719 /home/mirco/kaldi-trunk/egs/timit/s5/mfcc/raw_mfcc_train.2.ark:346164
fsma0_sx271 /home/mirco/kaldi-trunk/egs/timit/s5/mfcc/raw_mfcc_train.2.ark:226131
msem1_si810 /home/mirco/kaldi-trunk/egs/timit/s5/mfcc/raw_mfcc_train.4.ark:1933974
fmmh0_si1537 /home/mirco/kaldi-trunk/egs/timit/s5/mfcc/raw_mfcc_train.1.ark:3053468
flja0_sx358 /home/mirco/kaldi-trunk/egs/timit/s5/mfcc/raw_mfcc_train.1.ark:2508954
fskl0_si1529 /home/mirco/kaldi-trunk/egs/timit/s5/mfcc/raw_mfcc_train.2.ark:113467
fmah1_si879 /home/mirco/kaldi-trunk/egs/timit/s5/mfcc/raw_mfcc_train.1.ark:2791210
mtlb0_sx324 /home/mirco/kaldi-trunk/egs/timit/s5/mfcc/raw_mfcc_train.4.ark:2863069
feeh0_sx122 /home/mirco/kaldi-trunk/egs/timit/s5/mfcc/raw_mfcc_train.1.ark:1238447
mclk0_sx310 /home/mirco/kaldi-trunk/egs/timit/s5/mfcc/raw_mfcc_train.2.ark:1733178
fljd0_si886 /home/mirco/kaldi-trunk/egs/timit/s5/mfcc/raw_mfcc_train.1.ark:2531272
fjhk0_sx392 /home/mirco/kaldi-trunk/egs/timit/s5/mfcc/raw_mfcc_train.1.ark:1681932
mrjh0_si1519 /home/mirco/kaldi-trunk/egs/timit/s5/mfcc/raw_mfcc_train.4.ark:878595
fjkl0_sx122 /home/mirco/kaldi-trunk/egs/timit/s5/mfcc/raw_mfcc_train.1.ark:1696249
mjjj0_sx173 /home/mirco/kaldi-trunk/egs/timit/s5/mfcc/raw_mfcc_train.3.ark:1085214
mwar0_sx145 /home/mirco/kaldi-trunk/egs/timit/s5/mfcc/raw_mfcc_train.4.ark:3502199
fhxs0_si2302 /home/mirco/kaldi-trunk/egs/timit/s5/mfcc/raw_mfcc_train.1.ark:1547257
feac0_sx435 /home/mirco/kaldi-trunk/egs/timit/s5/mfcc/raw_mfcc_train.1.ark:1145945
mzmb0_sx266 /home/mirco/kaldi-trunk/egs/timit/s5/mfcc/raw_mfcc_train.4.ark:3794465
mrmh0_si2281 /home/mirco/kaldi-trunk/egs/timit/s5/mfcc/raw_mfcc_train.4.ark:1279877
fpaz0_si963 /home/mirco/kaldi-trunk/egs/timit/s5/mfcc/raw_mfcc_train.1.ark:3339859
mchl0_si1347 /home/mirco/kaldi-trunk/egs/timit/s5/mfcc/raw_mfcc_train.2.ark:1677197
fklc0_sx355 /home/mirco/kaldi-trunk/egs/timit/s5/mfcc/raw_mfcc_train.1.ark:2217016
mjjm0_si1457 /home/mirco/kaldi-trunk/egs/timit/s5/mfcc/raw_mfcc_train.3.ark:1112583
mrtj0_sx232 /home/mirco/kaldi-trunk/egs/timit/s5/mfcc/raw_mfcc_train.4.ark:1566375
mdtb0_sx300 /home/mirco/kaldi-trunk/egs/timit/s5/mfcc/raw_mfcc_train.2.ark:3012941
mfrm0_si1785 /home/mirco/kaldi-trunk/egs/timit/s5/mfcc/raw_mfcc_train.2.ark:3468018
mjeb0_sx26 /home/mirco/kaldi-trunk/egs/timit/s5/mfcc/raw_mfcc_train.3.ark:865973
mgsh0_si1176 /home/mirco/kaldi-trunk/egs/timit/s5/mfcc/raw_mfcc_train.3.ark:193849
mjjb0_si1277 /home/mirco/kaldi-trunk/egs/timit/s5/mfcc/raw_mfcc_train.3.ark:1041657
mhbs0_sx405 /home/mirco/kaldi-trunk/egs/timit/s5/mfcc/raw_mfcc_train.3.ark:322315
mtat0_sx300 /home/mirco/kaldi-trunk/egs/timit/s5/mfcc/raw_mfcc_train.4.ark:2428238
mjpg0_sx201 /home/mirco/kaldi-trunk/egs/timit/s5/mfcc/raw_mfcc_train.3.ark:1370618
fdas1_si831 /home/mirco/kaldi-trunk/egs/timit/s5/mfcc/raw_mfcc_train.1.ark:793705
fsls0_sx246 /home/mirco/kaldi-trunk/egs/timit/s5/mfcc/raw_mfcc_train.2.ark:197403
mrvg0_sx420 /home/mirco/kaldi-trunk/egs/timit/s5/mfcc/raw_mfcc_train.4.ark:1605836
fcjs0_si977 /home/mirco/kaldi-trunk/egs/timit/s5/mfcc/raw_mfcc_train.1.ark:567365
mrjm0_sx148 /home/mirco/kaldi-trunk/egs/timit/s5/mfcc/raw_mfcc_train.4.ark:929335
fkfb0_sx168 /home/mirco/kaldi-trunk/egs/timit/s5/mfcc/raw_mfcc_train.1.ark:2134949
mpgr0_sx240 /home/mirco/kaldi-trunk/egs/timit/s5/mfcc/raw_mfcc_train.3.ark:3640312
fajw0_sx273 /home/mirco/kaldi-trunk/egs/timit/s5/mfcc/raw_mfcc_train.1.ark:53477
mjhi0_si698 /home/mirco/kaldi-trunk/egs/timit/s5/mfcc/raw_mfcc_train.3.ark:1013410
mfmc0_sx322 /home/mirco/kaldi-trunk/egs/timit/s5/mfcc/raw_mfcc_train.2.ark:3447688
mree0_sx384 /home/mirco/kaldi-trunk/egs/timit/s5/mfcc/raw_mfcc_train.4.ark:567011
ftlg0_sx213 /home/mirco/kaldi-trunk/egs/timit/s5/mfcc/raw_mfcc_train.2.ark:522497
mkdd0_si937 /home/mirco/kaldi-trunk/egs/timit/s5/mfcc/raw_mfcc_train.3.ark:2023225
msrr0_sx231 /home/mirco/kaldi-trunk/egs/timit/s5/mfcc/raw_mfcc_train.4.ark:2251376
mcre0_sx221 /home/mirco/kaldi-trunk/egs/timit/s5/mfcc/raw_mfcc_train.2.ark:1817232
mkdt0_sx83 /home/mirco/kaldi-trunk/egs/timit/s5/mfcc/raw_mfcc_train.3.ark:2074223
fjxm0_sx221 /home/mirco/kaldi-trunk/egs/timit/s5/mfcc/raw_mfcc_train.1.ark:1965839
mrgm0_sx262 /home/mirco/kaldi-trunk/egs/timit/s5/mfcc/raw_mfcc_train.4.ark:756262
mdcm0_sx130 /home/mirco/kaldi-trunk/egs/timit/s5/mfcc/raw_mfcc_train.2.ark:2135420
flet0_si507 /home/mirco/kaldi-trunk/egs/timit/s5/mfcc/raw_mfcc_train.1.ark:2433482
mrjh0_sx307 /home/mirco/kaldi-trunk/egs/timit/s5/mfcc/raw_mfcc_train.4.ark:904721
mmwb0_sx89 /home/mirco/kaldi-trunk/egs/timit/s5/mfcc/raw_mfcc_train.3.ark:3352245
mges0_sx401 /home/mirco/kaldi-trunk/egs/timit/s5/mfcc/raw_mfcc_train.3.ark:83176
mgrp0_si1317 /home/mirco/kaldi-trunk/egs/timit/s5/mfcc/raw_mfcc_train.3.ark:157847
mcdd0_sx163 /home/mirco/kaldi-trunk/egs/timit/s5/mfcc/raw_mfcc_train.2.ark:1551268
fjrb0_sx402 /home/mirco/kaldi-trunk/egs/timit/s5/mfcc/raw_mfcc_train.1.ark:1804225
mclm0_sx376 /home/mirco/kaldi-trunk/egs/timit/s5/mfcc/raw_mfcc_train.2.ark:1768556
fbcg1_sx262 /home/mirco/kaldi-trunk/egs/timit/s5/mfcc/raw_mfcc_train.1.ark:221576
mfwk0_sx439 /home/mirco/kaldi-trunk/egs/timit/s5/mfcc/raw_mfcc_train.2.ark:3513590
falr0_si695 /home/mirco/kaldi-trunk/egs/timit/s5/mfcc/raw_mfcc_train.1.ark:109381
majp0_sx264 /home/mirco/kaldi-trunk/egs/timit/s5/mfcc/raw_mfcc_train.2.ark:862453
mntw0_si1068 /home/mirco/kaldi-trunk/egs/timit/s5/mfcc/raw_mfcc_train.3.ark:3473039
mwem0_sx150 /home/mirco/kaldi-trunk/egs/timit/s5/mfcc/raw_mfcc_train.4.ark:3590356
mrhl0_sx345 /home/mirco/kaldi-trunk/egs/timit/s5/mfcc/raw_mfcc_train.4.ark:829571
mbjv0_si617 /home/mirco/kaldi-trunk/egs/timit/s5/mfcc/raw_mfcc_train.2.ark:1198415
mrcg0_sx438 /home/mirco/kaldi-trunk/egs/timit/s5/mfcc/raw_mfcc_train.4.ark:406064
fpls0_sx150 /home/mirco/kaldi-trunk/egs/timit/s5/mfcc/raw_mfcc_train.1.ark:3409660
mrcw0_si2001 /home/mirco/kaldi-trunk/egs/timit/s5/mfcc/raw_mfcc_train.4.ark:420893
flhd0_si1974 /home/mirco/kaldi-trunk/egs/timit/s5/mfcc/raw_mfcc_train.1.ark:2461945
mdac0_si631 /home/mirco/kaldi-trunk/egs/timit/s5/mfcc/raw_mfcc_train.2.ark:1968925
frll0_sx254 /home/mirco/kaldi-trunk/egs/timit/s5/mfcc/raw_mfcc_train.1.ark:3541115
mrjb1_si1020 /home/mirco/kaldi-trunk/egs/timit/s5/mfcc/raw_mfcc_train.4.ark:840668
msah1_si1049 /home/mirco/kaldi-trunk/egs/timit/s5/mfcc/raw_mfcc_train.4.ark:1707044
feac0_si615 /home/mirco/kaldi-trunk/egs/timit/s5/mfcc/raw_mfcc_train.1.ark:1128380
mjfr0_si1605 /home/mirco/kaldi-trunk/egs/timit/s5/mfcc/raw_mfcc_train.3.ark:968606
mdrd0_sx212 /home/mirco/kaldi-trunk/egs/timit/s5/mfcc/raw_mfcc_train.2.ark:2890142
fcke0_sx391 /home/mirco/kaldi-trunk/egs/timit/s5/mfcc/raw_mfcc_train.1.ark:619508
fsrh0_sx311 /home/mirco/kaldi-trunk/egs/timit/s5/mfcc/raw_mfcc_train.2.ark:363438
mstf0_sx406 /home/mirco/kaldi-trunk/egs/timit/s5/mfcc/raw_mfcc_train.4.ark:2290042
mdwd0_sx450 /home/mirco/kaldi-trunk/egs/timit/s5/mfcc/raw_mfcc_train.2.ark:3046338
fsdc0_sx322 /home/mirco/kaldi-trunk/egs/timit/s5/mfcc/raw_mfcc_train.1.ark:3753248
mnet0_sx96 /home/mirco/kaldi-trunk/egs/timit/s5/mfcc/raw_mfcc_train.3.ark:3469378
mkag0_sx259 /home/mirco/kaldi-trunk/egs/timit/s5/mfcc/raw_mfcc_train.3.ark:1868463
mclk0_sx130 /home/mirco/kaldi-trunk/egs/timit/s5/mfcc/raw_mfcc_train.2.ark:1725208
mtlc0_si1313 /home/mirco/kaldi-trunk/egs/timit/s5/mfcc/raw_mfcc_train.4.ark:2877039
mvjh0_sx116 /home/mirco/kaldi-trunk/egs/timit/s5/mfcc/raw_mfcc_train.4.ark:3349266
mfmc0_sx232 /home/mirco/kaldi-trunk/egs/timit/s5/mfcc/raw_mfcc_train.2.ark:3442689
mdbp0_si528 /home/mirco/kaldi-trunk/egs/timit/s5/mfcc/raw_mfcc_train.2.ark:2062486
mmdm0_sx141 /home/mirco/kaldi-trunk/egs/timit/s5/mfcc/raw_mfcc_train.3.ark:2889178
megj0_si1337 /home/mirco/kaldi-trunk/egs/timit/s5/mfcc/raw_mfcc_train.2.ark:3212568
msds0_sx447 /home/mirco/kaldi-trunk/egs/timit/s5/mfcc/raw_mfcc_train.4.ark:1914952
mrpc1_sx402 /home/mirco/kaldi-trunk/egs/timit/s5/mfcc/raw_mfcc_train.4.ark:1391904
makb0_sx206 /home/mirco/kaldi-trunk/egs/timit/s5/mfcc/raw_mfcc_train.2.ark:904384
mrml0_sx71 /home/mirco/kaldi-trunk/egs/timit/s5/mfcc/raw_mfcc_train.4.ark:1336804
fleh0_si1681 /home/mirco/kaldi-trunk/egs/timit/s5/mfcc/raw_mfcc_train.1.ark:2397992
mwre0_sx337 /home/mirco/kaldi-trunk/egs/timit/s5/mfcc/raw_mfcc_train.4.ark:3665248
mdlm0_si1864 /home/mirco/kaldi-trunk/egs/timit/s5/mfcc/raw_mfcc_train.2.ark:2584965
mewm0_si1978 /home/mirco/kaldi-trunk/egs/timit/s5/mfcc/raw_mfcc_train.2.ark:3372887
flhd0_sx444 /home/mirco/kaldi-trunk/egs/timit/s5/mfcc/raw_mfcc_train.1.ark:2478054
fgcs0_si1486 /home/mirco/kaldi-trunk/egs/timit/s5/mfcc/raw_mfcc_train.1.ark:1364520
mjhi0_sx248 /home/mirco/kaldi-trunk/egs/timit/s5/mfcc/raw_mfcc_train.3.ark:1020990
mjhi0_sx428 /home/mirco/kaldi-trunk/egs/timit/s5/mfcc/raw_mfcc_train.3.ark:1028180
mbbr0_sx155 /home/mirco/kaldi-trunk/egs/timit/s5/mfcc/raw_mfcc_train.2.ark:1081676
mesg0_si702 /home/mirco/kaldi-trunk/egs/timit/s5/mfcc/raw_mfcc_train.2.ark:3315764
mrlj0_sx250 /home/mirco/kaldi-trunk/egs/timit/s5/mfcc/raw_mfcc_train.4.ark:1102954
medr0_sx294 /home/mirco/kaldi-trunk/egs/timit/s5/mfcc/raw_mfcc_train.2.ark:3173082
fbmj0_sx426 /home/mirco/kaldi-trunk/egs/timit/s5/mfcc/raw_mfcc_train.1.ark:402678
fjlr0_sx61 /home/mirco/kaldi-trunk/egs/timit/s5/mfcc/raw_mfcc_train.1.ark:1776640
madc0_si1367 /home/mirco/kaldi-trunk/egs/timit/s5/mfcc/raw_mfcc_train.2.ark:687547
fksr0_sx37 /home/mirco/kaldi-trunk/egs/timit/s5/mfcc/raw_mfcc_train.1.ark:2317762
fsms1_si1504 /home/mirco/kaldi-trunk/egs/timit/s5/mfcc/raw_mfcc_train.2.ark:278320
mprb0_si575 /home/mirco/kaldi-trunk/egs/timit/s5/mfcc/raw_mfcc_train.4.ark:26159
mgak0_si2296 /home/mirco/kaldi-trunk/egs/timit/s5/mfcc/raw_mfcc_train.2.ark:3651883
mmgk0_sx62 /home/mirco/kaldi-trunk/egs/timit/s5/mfcc/raw_mfcc_train.3.ark:3109720
mntw0_si1698 /home/mirco/kaldi-trunk/egs/timit/s5/mfcc/raw_mfcc_train.3.ark:3480080
mbml0_sx449 /home/mirco/kaldi-trunk/egs/timit/s5/mfcc/raw_mfcc_train.2.ark:1308555
fskp0_sx108 /home/mirco/kaldi-trunk/egs/timit/s5/mfcc/raw_mfcc_train.2.ark:158669
mjfr0_sx345 /home/mirco/kaldi-trunk/egs/timit/s5/mfcc/raw_mfcc_train.3.ark:989611
mdss0_si2087 /home/mirco/kaldi-trunk/egs/timit/s5/mfcc/raw_mfcc_train.2.ark:2943223
mvrw0_sx225 /home/mirco/kaldi-trunk/egs/timit/s5/mfcc/raw_mfcc_train.4.ark:3413321
falr0_sx65 /home/mirco/kaldi-trunk/egs/timit/s5/mfcc/raw_mfcc_train.1.ark:128603
marc0_sx288 /home/mirco/kaldi-trunk/egs/timit/s5/mfcc/raw_mfcc_train.2.ark:996712
mses0_sx149 /home/mirco/kaldi-trunk/egs/timit/s5/mfcc/raw_mfcc_train.4.ark:1975977
marc0_si1818 /home/mirco/kaldi-trunk/egs/timit/s5/mfcc/raw_mfcc_train.2.ark:979973
mrai0_sx432 /home/mirco/kaldi-trunk/egs/timit/s5/mfcc/raw_mfcc_train.4.ark:276614
mtab0_sx222 /home/mirco/kaldi-trunk/egs/timit/s5/mfcc/raw_mfcc_train.4.ark:2359354
megj0_sx77 /home/mirco/kaldi-trunk/egs/timit/s5/mfcc/raw_mfcc_train.2.ark:3244634
mdsj0_si2092 /home/mirco/kaldi-trunk/egs/timit/s5/mfcc/raw_mfcc_train.2.ark:2913318
mrsp0_si799 /home/mirco/kaldi-trunk/egs/timit/s5/mfcc/raw_mfcc_train.4.ark:1486375
mjee0_si1237 /home/mirco/kaldi-trunk/egs/timit/s5/mfcc/raw_mfcc_train.3.ark:910564
madc0_sx17 /home/mirco/kaldi-trunk/egs/timit/s5/mfcc/raw_mfcc_train.2.ark:707946
mram0_sx15 /home/mirco/kaldi-trunk/egs/timit/s5/mfcc/raw_mfcc_train.4.ark:301981
mdcm0_sx40 /home/mirco/kaldi-trunk/egs/timit/s5/mfcc/raw_mfcc_train.2.ark:2146958
maeo0_sx426 /home/mirco/kaldi-trunk/egs/timit/s5/mfcc/raw_mfcc_train.2.ark:809065
mcew0_si1442 /home/mirco/kaldi-trunk/egs/timit/s5/mfcc/raw_mfcc_train.2.ark:1636242
flet0_sx417 /home/mirco/kaldi-trunk/egs/timit/s5/mfcc/raw_mfcc_train.1.ark:2448382
mjxl0_sx272 /home/mirco/kaldi-trunk/egs/timit/s5/mfcc/raw_mfcc_train.3.ark:1831746
maeb0_sx450 /home/mirco/kaldi-trunk/egs/timit/s5/mfcc/raw_mfcc_train.2.ark:778314
fdjh0_sx305 /home/mirco/kaldi-trunk/egs/timit/s5/mfcc/raw_mfcc_train.1.ark:900018
mkdb0_sx152 /home/mirco/kaldi-trunk/egs/timit/s5/mfcc/raw_mfcc_train.3.ark:1990636
fsjs0_sx91 /home/mirco/kaldi-trunk/egs/timit/s5/mfcc/raw_mfcc_train.2.ark:45199
mrkm0_si1267 /home/mirco/kaldi-trunk/egs/timit/s5/mfcc/raw_mfcc_train.4.ark:1017416
fcyl0_sx397 /home/mirco/kaldi-trunk/egs/timit/s5/mfcc/raw_mfcc_train.1.ark:779681
fljg0_sx81 /home/mirco/kaldi-trunk/egs/timit/s5/mfcc/raw_mfcc_train.1.ark:2588186
mrld0_si1594 /home/mirco/kaldi-trunk/egs/timit/s5/mfcc/raw_mfcc_train.4.ark:1058512
mejs0_sx340 /home/mirco/kaldi-trunk/egs/timit/s5/mfcc/raw_mfcc_train.2.ark:3299179
feeh0_si1742 /home/mirco/kaldi-trunk/egs/timit/s5/mfcc/raw_mfcc_train.1.ark:1230607
ftbr0_si2181 /home/mirco/kaldi-trunk/egs/timit/s5/mfcc/raw_mfcc_train.2.ark:444116
fklc0_si1615 /home/mirco/kaldi-trunk/egs/timit/s5/mfcc/raw_mfcc_train.1.ark:2194061
mkls0_sx267 /home/mirco/kaldi-trunk/egs/timit/s5/mfcc/raw_mfcc_train.3.ark:2220090
mrmg0_si1710 /home/mirco/kaldi-trunk/egs/timit/s5/mfcc/raw_mfcc_train.4.ark:1241721
mmea0_si1388 /home/mirco/kaldi-trunk/egs/timit/s5/mfcc/raw_mfcc_train.3.ark:2967990
mpgh0_sx24 /home/mirco/kaldi-trunk/egs/timit/s5/mfcc/raw_mfcc_train.3.ark:3618915
mmxs0_sx336 /home/mirco/kaldi-trunk/egs/timit/s5/mfcc/raw_mfcc_train.3.ark:3431675
fbcg1_si2242 /home/mirco/kaldi-trunk/egs/timit/s5/mfcc/raw_mfcc_train.1.ark:209179
mjdm0_si974 /home/mirco/kaldi-trunk/egs/timit/s5/mfcc/raw_mfcc_train.3.ark:817302
fnkl0_sx262 /home/mirco/kaldi-trunk/egs/timit/s5/mfcc/raw_mfcc_train.1.ark:3147385
mree0_sx294 /home/mirco/kaldi-trunk/egs/timit/s5/mfcc/raw_mfcc_train.4.ark:563442
mdrd0_si2012 /home/mirco/kaldi-trunk/egs/timit/s5/mfcc/raw_mfcc_train.2.ark:2874404
fhxs0_sx265 /home/mirco/kaldi-trunk/egs/timit/s5/mfcc/raw_mfcc_train.1.ark:1566597
mrbc0_sx59 /home/mirco/kaldi-trunk/egs/timit/s5/mfcc/raw_mfcc_train.4.ark:374592
mgaw0_si1802 /home/mirco/kaldi-trunk/egs/timit/s5/mfcc/raw_mfcc_train.3.ark:38325
fdfb0_si1318 /home/mirco/kaldi-trunk/egs/timit/s5/mfcc/raw_mfcc_train.1.ark:852123
fjxm0_sx311 /home/mirco/kaldi-trunk/egs/timit/s5/mfcc/raw_mfcc_train.1.ark:1969785
mljh0_sx154 /home/mirco/kaldi-trunk/egs/timit/s5/mfcc/raw_mfcc_train.3.ark:2483712
fkde0_si1771 /home/mirco/kaldi-trunk/egs/timit/s5/mfcc/raw_mfcc_train.1.ark:2059277
mmjb1_si2038 /home/mirco/kaldi-trunk/egs/timit/s5/mfcc/raw_mfcc_train.3.ark:3116847
mlel0_sx256 /home/mirco/kaldi-trunk/egs/timit/s5/mfcc/raw_mfcc_train.3.ark:2414484
fbmj0_si1776 /home/mirco/kaldi-trunk/egs/timit/s5/mfcc/raw_mfcc_train.1.ark:374283
mrdm0_si1595 /home/mirco/kaldi-trunk/egs/timit/s5/mfcc/raw_mfcc_train.4.ark:482212
mgrp0_sx147 /home/mirco/kaldi-trunk/egs/timit/s5/mfcc/raw_mfcc_train.3.ark:171324
msds0_sx87 /home/mirco/kaldi-trunk/egs/timit/s5/mfcc/raw_mfcc_train.4.ark:1918468
mklw0_sx311 /home/mirco/kaldi-trunk/egs/timit/s5/mfcc/raw_mfcc_train.3.ark:2287305
mafm0_si1569 /home/mirco/kaldi-trunk/egs/timit/s5/mfcc/raw_mfcc_train.2.ark:816853
fsms1_sx154 /home/mirco/kaldi-trunk/egs/timit/s5/mfcc/raw_mfcc_train.2.ark:290497
mdwd0_si1260 /home/mirco/kaldi-trunk/egs/timit/s5/mfcc/raw_mfcc_train.2.ark:3023519
mwsb0_sx276 /home/mirco/kaldi-trunk/egs/timit/s5/mfcc/raw_mfcc_train.4.ark:3725258
fjdm2_si1964 /home/mirco/kaldi-trunk/egs/timit/s5/mfcc/raw_mfcc_train.1.ark:1584768
mmcc0_sx438 /home/mirco/kaldi-trunk/egs/timit/s5/mfcc/raw_mfcc_train.3.ark:2804671
mddc0_sx339 /home/mirco/kaldi-trunk/egs/timit/s5/mfcc/raw_mfcc_train.2.ark:2173659
mjdc0_si531 /home/mirco/kaldi-trunk/egs/timit/s5/mfcc/raw_mfcc_train.3.ark:709582
mdcm0_sx310 /home/mirco/kaldi-trunk/egs/timit/s5/mfcc/raw_mfcc_train.2.ark:2143598
mcal0_si1138 /home/mirco/kaldi-trunk/egs/timit/s5/mfcc/raw_mfcc_train.2.ark:1478410
mpsw0_si1067 /home/mirco/kaldi-trunk/egs/timit/s5/mfcc/raw_mfcc_train.4.ark:158646
mdas0_si636 /home/mirco/kaldi-trunk/egs/timit/s5/mfcc/raw_mfcc_train.2.ark:2004719
mrsp0_si2059 /home/mirco/kaldi-trunk/egs/timit/s5/mfcc/raw_mfcc_train.4.ark:1482065
fgmb0_sx425 /home/mirco/kaldi-trunk/egs/timit/s5/mfcc/raw_mfcc_train.1.ark:1463126
madd0_sx268 /home/mirco/kaldi-trunk/egs/timit/s5/mfcc/raw_mfcc_train.2.ark:738268
mdhl0_si809 /home/mirco/kaldi-trunk/egs/timit/s5/mfcc/raw_mfcc_train.2.ark:2295520
fsak0_si1930 /home/mirco/kaldi-trunk/egs/timit/s5/mfcc/raw_mfcc_train.1.ark:3633851
mrdm0_si1044 /home/mirco/kaldi-trunk/egs/timit/s5/mfcc/raw_mfcc_train.4.ark:476640
fjkl0_si932 /home/mirco/kaldi-trunk/egs/timit/s5/mfcc/raw_mfcc_train.1.ark:1689677
mjee0_sx157 /home/mirco/kaldi-trunk/egs/timit/s5/mfcc/raw_mfcc_train.3.ark:921493
fcaj0_si1804 /home/mirco/kaldi-trunk/egs/timit/s5/mfcc/raw_mfcc_train.1.ark:441914
mdrd0_si752 /home/mirco/kaldi-trunk/egs/timit/s5/mfcc/raw_mfcc_train.2.ark:2877973
fsjw0_si703 /home/mirco/kaldi-trunk/egs/timit/s5/mfcc/raw_mfcc_train.2.ark:60016
fsdc0_sx142 /home/mirco/kaldi-trunk/egs/timit/s5/mfcc/raw_mfcc_train.1.ark:3744979
fdas1_sx381 /home/mirco/kaldi-trunk/egs/timit/s5/mfcc/raw_mfcc_train.1.ark:814396
fcaj0_sx129 /home/mirco/kaldi-trunk/egs/timit/s5/mfcc/raw_mfcc_train.1.ark:449013
mmpm0_sx161 /home/mirco/kaldi-trunk/egs/timit/s5/mfcc/raw_mfcc_train.3.ark:3184875
fcyl0_si1927 /home/mirco/kaldi-trunk/egs/timit/s5/mfcc/raw_mfcc_train.1.ark:754199
milb0_sx93 /home/mirco/kaldi-trunk/egs/timit/s5/mfcc/raw_mfcc_train.3.ark:541260
mjrh0_si1840 /home/mirco/kaldi-trunk/egs/timit/s5/mfcc/raw_mfcc_train.3.ark:1520429
fsak0_sx130 /home/mirco/kaldi-trunk/egs/timit/s5/mfcc/raw_mfcc_train.1.ark:3640144
mcss0_sx300 /home/mirco/kaldi-trunk/egs/timit/s5/mfcc/raw_mfcc_train.2.ark:1859875
mjjj0_sx443 /home/mirco/kaldi-trunk/egs/timit/s5/mfcc/raw_mfcc_train.3.ark:1098976
frjb0_sx437 /home/mirco/kaldi-trunk/egs/timit/s5/mfcc/raw_mfcc_train.1.ark:3513747
mejs0_si1870 /home/mirco/kaldi-trunk/egs/timit/s5/mfcc/raw_mfcc_train.2.ark:3283278
fsdj0_sx215 /home/mirco/kaldi-trunk/egs/timit/s5/mfcc/raw_mfcc_train.1.ark:3778674
mjxl0_sx182 /home/mirco/kaldi-trunk/egs/timit/s5/mfcc/raw_mfcc_train.3.ark:1828541
fjxm0_sx41 /home/mirco/kaldi-trunk/egs/timit/s5/mfcc/raw_mfcc_train.1.ark:1980848
mcew0_sx362 /home/mirco/kaldi-trunk/egs/timit/s5/mfcc/raw_mfcc_train.2.ark:1661199
mhmr0_sx219 /home/mirco/kaldi-trunk/egs/timit/s5/mfcc/raw_mfcc_train.3.ark:434668
mjae0_sx354 /home/mirco/kaldi-trunk/egs/timit/s5/mfcc/raw_mfcc_train.3.ark:596209
mjpm0_sx288 /home/mirco/kaldi-trunk/egs/timit/s5/mfcc/raw_mfcc_train.3.ark:1407634
mpgr0_si2040 /home/mirco/kaldi-trunk/egs/timit/s5/mfcc/raw_mfcc_train.3.ark:3632543
mrjb1_sx390 /home/mirco/kaldi-trunk/egs/timit/s5/mfcc/raw_mfcc_train.4.ark:873764
mjai0_sx344 /home/mirco/kaldi-trunk/egs/timit/s5/mfcc/raw_mfcc_train.3.ark:633523
mrmb0_sx141 /home/mirco/kaldi-trunk/egs/timit/s5/mfcc/raw_mfcc_train.4.ark:1219071
mmvp0_si1284 /home/mirco/kaldi-trunk/egs/timit/s5/mfcc/raw_mfcc_train.3.ark:3275386
mmam0_sx247 /home/mirco/kaldi-trunk/egs/timit/s5/mfcc/raw_mfcc_train.3.ark:2689254
fjxp0_si1122 /home/mirco/kaldi-trunk/egs/timit/s5/mfcc/raw_mfcc_train.1.ark:1987460
fpjf0_si1676 /home/mirco/kaldi-trunk/egs/timit/s5/mfcc/raw_mfcc_train.1.ark:3374054
fgcs0_si2116 /home/mirco/kaldi-trunk/egs/timit/s5/mfcc/raw_mfcc_train.1.ark:1368012
mcdr0_sx344 /home/mirco/kaldi-trunk/egs/timit/s5/mfcc/raw_mfcc_train.2.ark:1595370
mtqc0_sx91 /home/mirco/kaldi-trunk/egs/timit/s5/mfcc/raw_mfcc_train.4.ark:3173243
mclm0_sx196 /home/mirco/kaldi-trunk/egs/timit/s5/mfcc/raw_mfcc_train.2.ark:1761808
fcjf0_si1027 /home/mirco/kaldi-trunk/egs/timit/s5/mfcc/raw_mfcc_train.1.ark:537185
mlbc0_sx69 /home/mirco/kaldi-trunk/egs/timit/s5/mfcc/raw_mfcc_train.3.ark:2391424
mmws1_sx441 /home/mirco/kaldi-trunk/egs/timit/s5/mfcc/raw_mfcc_train.3.ark:3407485
mkln0_sx68 /home/mirco/kaldi-trunk/egs/timit/s5/mfcc/raw_mfcc_train.3.ark:2169827
mabc0_si1620 /home/mirco/kaldi-trunk/egs/timit/s5/mfcc/raw_mfcc_train.2.ark:660229
mtdp0_sx261 /home/mirco/kaldi-trunk/egs/timit/s5/mfcc/raw_mfcc_train.4.ark:2589022
fpac0_si1921 /home/mirco/kaldi-trunk/egs/timit/s5/mfcc/raw_mfcc_train.1.ark:3227300
mklw0_sx41 /home/mirco/kaldi-trunk/egs/timit/s5/mfcc/raw_mfcc_train.3.ark:2297419
mfxs0_sx234 /home/mirco/kaldi-trunk/egs/timit/s5/mfcc/raw_mfcc_train.2.ark:3534356
mjeb0_sx170 /home/mirco/kaldi-trunk/egs/timit/s5/mfcc/raw_mfcc_train.3.ark:855430
mdlc2_si1614 /home/mirco/kaldi-trunk/egs/timit/s5/mfcc/raw_mfcc_train.2.ark:2518375
mejs0_sx430 /home/mirco/kaldi-trunk/egs/timit/s5/mfcc/raw_mfcc_train.2.ark:3302735
fnkl0_si892 /home/mirco/kaldi-trunk/egs/timit/s5/mfcc/raw_mfcc_train.1.ark:3134377
mrws0_sx112 /home/mirco/kaldi-trunk/egs/timit/s5/mfcc/raw_mfcc_train.4.ark:1657474
mjlg1_sx382 /home/mirco/kaldi-trunk/egs/timit/s5/mfcc/raw_mfcc_train.3.ark:1228054
fblv0_si1058 /home/mirco/kaldi-trunk/egs/timit/s5/mfcc/raw_mfcc_train.1.ark:307452
mram0_si1275 /home/mirco/kaldi-trunk/egs/timit/s5/mfcc/raw_mfcc_train.4.ark:285442
mnet0_sx276 /home/mirco/kaldi-trunk/egs/timit/s5/mfcc/raw_mfcc_train.3.ark:3458947
mcdc0_sx122 /home/mirco/kaldi-trunk/egs/timit/s5/mfcc/raw_mfcc_train.2.ark:1520466
mjrg0_sx286 /home/mirco/kaldi-trunk/egs/timit/s5/mfcc/raw_mfcc_train.3.ark:1498395
mbjv0_sx347 /home/mirco/kaldi-trunk/egs/timit/s5/mfcc/raw_mfcc_train.2.ark:1209291
fkde0_si1141 /home/mirco/kaldi-trunk/egs/timit/s5/mfcc/raw_mfcc_train.1.ark:2053029
mmlm0_sx87 /home/mirco/kaldi-trunk/egs/timit/s5/mfcc/raw_mfcc_train.3.ark:3170947
mtpp0_sx248 /home/mirco/kaldi-trunk/egs/timit/s5/mfcc/raw_mfcc_train.4.ark:3083006
fpad0_si1346 /home/mirco/kaldi-trunk/egs/timit/s5/mfcc/raw_mfcc_train.1.ark:3262210
fsrh0_sx41 /home/mirco/kaldi-trunk/egs/timit/s5/mfcc/raw_mfcc_train.2.ark:372590
madc0_si737 /home/mirco/kaldi-trunk/egs/timit/s5/mfcc/raw_mfcc_train.2.ark:697754
mrgm0_si1162 /home/mirco/kaldi-trunk/egs/timit/s5/mfcc/raw_mfcc_train.4.ark:735225
mjwt0_sx391 /home/mirco/kaldi-trunk/egs/timit/s5/mfcc/raw_mfcc_train.3.ark:1782239
mbma0_sx142 /home/mirco/kaldi-trunk/egs/timit/s5/mfcc/raw_mfcc_train.2.ark:1231915
faem0_si2022 /home/mirco/kaldi-trunk/egs/timit/s5/mfcc/raw_mfcc_train.1.ark:6313
mfer0_sx412 /home/mirco/kaldi-trunk/egs/timit/s5/mfcc/raw_mfcc_train.2.ark:3418570
mstf0_sx46 /home/mirco/kaldi-trunk/egs/timit/s5/mfcc/raw_mfcc_train.4.ark:2295365
mlel0_si616 /home/mirco/kaldi-trunk/egs/timit/s5/mfcc/raw_mfcc_train.3.ark:2402562
fjhk0_sx122 /home/mirco/kaldi-trunk/egs/timit/s5/mfcc/raw_mfcc_train.1.ark:1665759
mrwa0_si973 /home/mirco/kaldi-trunk/egs/timit/s5/mfcc/raw_mfcc_train.4.ark:1622388
mrlr0_si1196 /home/mirco/kaldi-trunk/egs/timit/s5/mfcc/raw_mfcc_train.4.ark:1176443
msdb0_sx17 /home/mirco/kaldi-trunk/egs/timit/s5/mfcc/raw_mfcc_train.4.ark:1840293
fklh0_si1887 /home/mirco/kaldi-trunk/egs/timit/s5/mfcc/raw_mfcc_train.1.ark:2267777
mtat1_si1627 /home/mirco/kaldi-trunk/egs/timit/s5/mfcc/raw_mfcc_train.4.ark:2438895
feac0_sx165 /home/mirco/kaldi-trunk/egs/timit/s5/mfcc/raw_mfcc_train.1.ark:1134068
mdbb1_si2056 /home/mirco/kaldi-trunk/egs/timit/s5/mfcc/raw_mfcc_train.2.ark:2033153
fdaw0_sx146 /home/mirco/kaldi-trunk/egs/timit/s5/mfcc/raw_mfcc_train.1.ark:833823
fcaj0_sx39 /home/mirco/kaldi-trunk/egs/timit/s5/mfcc/raw_mfcc_train.1.ark:461448
mjpm1_sx131 /home/mirco/kaldi-trunk/egs/timit/s5/mfcc/raw_mfcc_train.3.ark:1425676
fbjl0_sx112 /home/mirco/kaldi-trunk/egs/timit/s5/mfcc/raw_mfcc_train.1.ark:288190
mmdb0_sx447 /home/mirco/kaldi-trunk/egs/timit/s5/mfcc/raw_mfcc_train.3.ark:2835967
mjpm1_si761 /home/mirco/kaldi-trunk/egs/timit/s5/mfcc/raw_mfcc_train.3.ark:1420430
mrew1_si2130 /home/mirco/kaldi-trunk/egs/timit/s5/mfcc/raw_mfcc_train.4.ark:643242
mmws1_sx81 /home/mirco/kaldi-trunk/egs/timit/s5/mfcc/raw_mfcc_train.3.ark:3410494
mdlc1_sx265 /home/mirco/kaldi-trunk/egs/timit/s5/mfcc/raw_mfcc_train.2.ark:2505503
mdhl0_si1439 /home/mirco/kaldi-trunk/egs/timit/s5/mfcc/raw_mfcc_train.2.ark:2287653
mrjh0_sx79 /home/mirco/kaldi-trunk/egs/timit/s5/mfcc/raw_mfcc_train.4.ark:912430
mfwk0_sx169 /home/mirco/kaldi-trunk/egs/timit/s5/mfcc/raw_mfcc_train.2.ark:3500504
mjlb0_si2246 /home/mirco/kaldi-trunk/egs/timit/s5/mfcc/raw_mfcc_train.3.ark:1177892
mdlr1_sx309 /home/mirco/kaldi-trunk/egs/timit/s5/mfcc/raw_mfcc_train.2.ark:2665720
mjlb0_si1616 /home/mirco/kaldi-trunk/egs/timit/s5/mfcc/raw_mfcc_train.3.ark:1172255
mbma0_sx322 /home/mirco/kaldi-trunk/egs/timit/s5/mfcc/raw_mfcc_train.2.ark:1240782
fpaf0_sx334 /home/mirco/kaldi-trunk/egs/timit/s5/mfcc/raw_mfcc_train.1.ark:3319712
mtju0_si760 /home/mirco/kaldi-trunk/egs/timit/s5/mfcc/raw_mfcc_train.4.ark:2751493
fkfb0_si1608 /home/mirco/kaldi-trunk/egs/timit/s5/mfcc/raw_mfcc_train.1.ark:2120926
fecd0_sx338 /home/mirco/kaldi-trunk/egs/timit/s5/mfcc/raw_mfcc_train.1.ark:1212638
mrms0_sx30 /home/mirco/kaldi-trunk/egs/timit/s5/mfcc/raw_mfcc_train.4.ark:1361756
flmk0_si2295 /home/mirco/kaldi-trunk/egs/timit/s5/mfcc/raw_mfcc_train.1.ark:2699153
mdem0_sx338 /home/mirco/kaldi-trunk/egs/timit/s5/mfcc/raw_mfcc_train.2.ark:2272630
fntb0_sx303 /home/mirco/kaldi-trunk/egs/timit/s5/mfcc/raw_mfcc_train.1.ark:3180123
mzmb0_sx176 /home/mirco/kaldi-trunk/egs/timit/s5/mfcc/raw_mfcc_train.4.ark:3789570
fpab1_sx121 /home/mirco/kaldi-trunk/egs/timit/s5/mfcc/raw_mfcc_train.1.ark:3207271
fvmh0_si1466 /home/mirco/kaldi-trunk/egs/timit/s5/mfcc/raw_mfcc_train.2.ark:629895
fkde0_sx421 /home/mirco/kaldi-trunk/egs/timit/s5/mfcc/raw_mfcc_train.1.ark:2080555
mjjb0_sx149 /home/mirco/kaldi-trunk/egs/timit/s5/mfcc/raw_mfcc_train.3.ark:1048185
fklc0_sx175 /home/mirco/kaldi-trunk/egs/timit/s5/mfcc/raw_mfcc_train.1.ark:2206082
fsgf0_sx117 /home/mirco/kaldi-trunk/egs/timit/s5/mfcc/raw_mfcc_train.1.ark:3808273
mjmd0_si1658 /home/mirco/kaldi-trunk/egs/timit/s5/mfcc/raw_mfcc_train.3.ark:1299086
mfxv0_si1005 /home/mirco/kaldi-trunk/egs/timit/s5/mfcc/raw_mfcc_train.2.ark:3552935
mrgm0_si532 /home/mirco/kaldi-trunk/egs/timit/s5/mfcc/raw_mfcc_train.4.ark:744496
mrso0_sx39 /home/mirco/kaldi-trunk/egs/timit/s5/mfcc/raw_mfcc_train.4.ark:1467183
fcjs0_sx257 /home/mirco/kaldi-trunk/egs/timit/s5/mfcc/raw_mfcc_train.1.ark:576206
mjrk0_sx160 /home/mirco/kaldi-trunk/egs/timit/s5/mfcc/raw_mfcc_train.3.ark:1587617
mapv0_sx303 /home/mirco/kaldi-trunk/egs/timit/s5/mfcc/raw_mfcc_train.2.ark:967971
mapv0_sx393 /home/mirco/kaldi-trunk/egs/timit/s5/mfcc/raw_mfcc_train.2.ark:974458
mrlr0_si1826 /home/mirco/kaldi-trunk/egs/timit/s5/mfcc/raw_mfcc_train.4.ark:1182249
mrlj1_si2301 /home/mirco/kaldi-trunk/egs/timit/s5/mfcc/raw_mfcc_train.4.ark:1119591
freh0_sx55 /home/mirco/kaldi-trunk/egs/timit/s5/mfcc/raw_mfcc_train.1.ark:3489229
mfxs0_sx324 /home/mirco/kaldi-trunk/egs/timit/s5/mfcc/raw_mfcc_train.2.ark:3538640
ftbw0_sx445 /home/mirco/kaldi-trunk/egs/timit/s5/mfcc/raw_mfcc_train.2.ark:495389
mjdg0_sx52 /home/mirco/kaldi-trunk/egs/timit/s5/mfcc/raw_mfcc_train.3.ark:804513
fjwb1_sx75 /home/mirco/kaldi-trunk/egs/timit/s5/mfcc/raw_mfcc_train.1.ark:1947641
mtkd0_sx197 /home/mirco/kaldi-trunk/egs/timit/s5/mfcc/raw_mfcc_train.4.ark:2797109
mewm0_si718 /home/mirco/kaldi-trunk/egs/timit/s5/mfcc/raw_mfcc_train.2.ark:3374792
mdlh0_sx160 /home/mirco/kaldi-trunk/egs/timit/s5/mfcc/raw_mfcc_train.2.ark:2559104
mmdg0_sx250 /home/mirco/kaldi-trunk/egs/timit/s5/mfcc/raw_mfcc_train.3.ark:2860177
mrso0_sx399 /home/mirco/kaldi-trunk/egs/timit/s5/mfcc/raw_mfcc_train.4.ark:1471324
fsms1_sx347 /home/mirco/kaldi-trunk/egs/timit/s5/mfcc/raw_mfcc_train.2.ark:301672
fhxs0_sx355 /home/mirco/kaldi-trunk/egs/timit/s5/mfcc/raw_mfcc_train.1.ark:1570322
fcyl0_si1297 /home/mirco/kaldi-trunk/egs/timit/s5/mfcc/raw_mfcc_train.1.ark:750083
fjxp0_sx132 /home/mirco/kaldi-trunk/egs/timit/s5/mfcc/raw_mfcc_train.1.ark:1999130
mkjo0_sx257 /home/mirco/kaldi-trunk/egs/timit/s5/mfcc/raw_mfcc_train.3.ark:2127812
mwch0_si2252 /home/mirco/kaldi-trunk/egs/timit/s5/mfcc/raw_mfcc_train.4.ark:3526092
fsgf0_sx27 /home/mirco/kaldi-trunk/egs/timit/s5/mfcc/raw_mfcc_train.1.ark:3814734
mesg0_si1332 /home/mirco/kaldi-trunk/egs/timit/s5/mfcc/raw_mfcc_train.2.ark:3309106
flag0_si834 /home/mirco/kaldi-trunk/egs/timit/s5/mfcc/raw_mfcc_train.1.ark:2364753
milb0_sx183 /home/mirco/kaldi-trunk/egs/timit/s5/mfcc/raw_mfcc_train.3.ark:528469
mtmt0_sx398 /home/mirco/kaldi-trunk/egs/timit/s5/mfcc/raw_mfcc_train.4.ark:3003815
mmdg0_si2035 /home/mirco/kaldi-trunk/egs/timit/s5/mfcc/raw_mfcc_train.3.ark:2847728
msdb0_si1637 /home/mirco/kaldi-trunk/egs/timit/s5/mfcc/raw_mfcc_train.4.ark:1832134
mses0_si1589 /home/mirco/kaldi-trunk/egs/timit/s5/mfcc/raw_mfcc_train.4.ark:1964709
fjlr0_si1861 /home/mirco/kaldi-trunk/egs/timit/s5/mfcc/raw_mfcc_train.1.ark:1754395
mtrr0_sx108 /home/mirco/kaldi-trunk/egs/timit/s5/mfcc/raw_mfcc_train.4.ark:3218101
fjlg0_sx179 /home/mirco/kaldi-trunk/egs/timit/s5/mfcc/raw_mfcc_train.1.ark:1727494
ftbr0_si921 /home/mirco/kaldi-trunk/egs/timit/s5/mfcc/raw_mfcc_train.2.ark:447425
makr0_si1982 /home/mirco/kaldi-trunk/egs/timit/s5/mfcc/raw_mfcc_train.2.ark:921320
mkxl0_si1815 /home/mirco/kaldi-trunk/egs/timit/s5/mfcc/raw_mfcc_train.3.ark:2335919
mejl0_si1654 /home/mirco/kaldi-trunk/egs/timit/s5/mfcc/raw_mfcc_train.2.ark:3252385
flet0_sx57 /home/mirco/kaldi-trunk/egs/timit/s5/mfcc/raw_mfcc_train.1.ark:2452392
mrjt0_sx148 /home/mirco/kaldi-trunk/egs/timit/s5/mfcc/raw_mfcc_train.4.ark:995840
mjai0_sx164 /home/mirco/kaldi-trunk/egs/timit/s5/mfcc/raw_mfcc_train.3.ark:626554
fntb0_si679 /home/mirco/kaldi-trunk/egs/timit/s5/mfcc/raw_mfcc_train.1.ark:3166114
mwar0_sx325 /home/mirco/kaldi-trunk/egs/timit/s5/mfcc/raw_mfcc_train.4.ark:3509545
mtjg0_si1520 /home/mirco/kaldi-trunk/egs/timit/s5/mfcc/raw_mfcc_train.4.ark:2641886
mrav0_sx288 /home/mirco/kaldi-trunk/egs/timit/s5/mfcc/raw_mfcc_train.4.ark:338557
mjrh1_si1774 /home/mirco/kaldi-trunk/egs/timit/s5/mfcc/raw_mfcc_train.3.ark:1551614
mtrt0_sx147 /home/mirco/kaldi-trunk/egs/timit/s5/mfcc/raw_mfcc_train.4.ark:3252426
fetb0_si1148 /home/mirco/kaldi-trunk/egs/timit/s5/mfcc/raw_mfcc_train.1.ark:1294738
mklr0_sx339 /home/mirco/kaldi-trunk/egs/timit/s5/mfcc/raw_mfcc_train.3.ark:2191257
megj0_sx167 /home/mirco/kaldi-trunk/egs/timit/s5/mfcc/raw_mfcc_train.2.ark:3228060
mtdp0_sx81 /home/mirco/kaldi-trunk/egs/timit/s5/mfcc/raw_mfcc_train.4.ark:2604044
fcag0_sx423 /home/mirco/kaldi-trunk/egs/timit/s5/mfcc/raw_mfcc_train.1.ark:431921
mjlg1_sx202 /home/mirco/kaldi-trunk/egs/timit/s5/mfcc/raw_mfcc_train.3.ark:1218609
fexm0_sx366 /home/mirco/kaldi-trunk/egs/timit/s5/mfcc/raw_mfcc_train.1.ark:1355015
mrtc0_si2088 /home/mirco/kaldi-trunk/egs/timit/s5/mfcc/raw_mfcc_train.4.ark:1515831
fkfb0_si2238 /home/mirco/kaldi-trunk/egs/timit/s5/mfcc/raw_mfcc_train.1.ark:2127239
mtjs0_sx202 /home/mirco/kaldi-trunk/egs/timit/s5/mfcc/raw_mfcc_train.4.ark:2727647
mwrp0_si1525 /home/mirco/kaldi-trunk/egs/timit/s5/mfcc/raw_mfcc_train.4.ark:3683932
mrfk0_si1706 /home/mirco/kaldi-trunk/egs/timit/s5/mfcc/raw_mfcc_train.4.ark:676007
fmjf0_sx174 /home/mirco/kaldi-trunk/egs/timit/s5/mfcc/raw_mfcc_train.1.ark:2929386
fdtd0_sx211 /home/mirco/kaldi-trunk/egs/timit/s5/mfcc/raw_mfcc_train.1.ark:1074043
fvfb0_sx42 /home/mirco/kaldi-trunk/egs/timit/s5/mfcc/raw_mfcc_train.2.ark:594119
medr0_si744 /home/mirco/kaldi-trunk/egs/timit/s5/mfcc/raw_mfcc_train.2.ark:3158534
mpmb0_sx61 /home/mirco/kaldi-trunk/egs/timit/s5/mfcc/raw_mfcc_train.3.ark:3736985
msds0_sx177 /home/mirco/kaldi-trunk/egs/timit/s5/mfcc/raw_mfcc_train.4.ark:1900397
mmgc0_sx45 /home/mirco/kaldi-trunk/egs/timit/s5/mfcc/raw_mfcc_train.3.ark:3051898
fmbg0_sx3 /home/mirco/kaldi-trunk/egs/timit/s5/mfcc/raw_mfcc_train.1.ark:2833075
mrtc0_sx198 /home/mirco/kaldi-trunk/egs/timit/s5/mfcc/raw_mfcc_train.4.ark:1532615
mtlc0_si1477 /home/mirco/kaldi-trunk/egs/timit/s5/mfcc/raw_mfcc_train.4.ark:2882650
msdb0_sx377 /home/mirco/kaldi-trunk/egs/timit/s5/mfcc/raw_mfcc_train.4.ark:1847529
mjac0_sx307 /home/mirco/kaldi-trunk/egs/timit/s5/mfcc/raw_mfcc_train.3.ark:561902
mkxl0_sx195 /home/mirco/kaldi-trunk/egs/timit/s5/mfcc/raw_mfcc_train.3.ark:2353926
mtxs0_si1060 /home/mirco/kaldi-trunk/egs/timit/s5/mfcc/raw_mfcc_train.4.ark:3296796
fklc1_sx148 /home/mirco/kaldi-trunk/egs/timit/s5/mfcc/raw_mfcc_train.1.ark:2239173
mbma1_sx144 /home/mirco/kaldi-trunk/egs/timit/s5/mfcc/raw_mfcc_train.2.ark:1264186
fclt0_sx268 /home/mirco/kaldi-trunk/egs/timit/s5/mfcc/raw_mfcc_train.1.ark:637992
msas0_sx386 /home/mirco/kaldi-trunk/egs/timit/s5/mfcc/raw_mfcc_train.4.ark:1767029
mkxl0_si1958 /home/mirco/kaldi-trunk/egs/timit/s5/mfcc/raw_mfcc_train.3.ark:2341803
fpaf0_sx154 /home/mirco/kaldi-trunk/egs/timit/s5/mfcc/raw_mfcc_train.1.ark:3311404
flma0_sx433 /home/mirco/kaldi-trunk/egs/timit/s5/mfcc/raw_mfcc_train.1.ark:2649783
fvmh0_si836 /home/mirco/kaldi-trunk/egs/timit/s5/mfcc/raw_mfcc_train.2.ark:639166
mcdr0_sx254 /home/mirco/kaldi-trunk/egs/timit/s5/mfcc/raw_mfcc_train.2.ark:1592581
mkam0_sx56 /home/mirco/kaldi-trunk/egs/timit/s5/mfcc/raw_mfcc_train.3.ark:1975345
fcag0_sx63 /home/mirco/kaldi-trunk/egs/timit/s5/mfcc/raw_mfcc_train.1.ark:436542
mmgc0_si1305 /home/mirco/kaldi-trunk/egs/timit/s5/mfcc/raw_mfcc_train.3.ark:3025510
maeo0_sx246 /home/mirco/kaldi-trunk/egs/timit/s5/mfcc/raw_mfcc_train.2.ark:801264
fpaf0_sx424 /home/mirco/kaldi-trunk/egs/timit/s5/mfcc/raw_mfcc_train.1.ark:3323580
mkxl0_si1185 /home/mirco/kaldi-trunk/egs/timit/s5/mfcc/raw_mfcc_train.3.ark:2332583
flmk0_sx225 /home/mirco/kaldi-trunk/egs/timit/s5/mfcc/raw_mfcc_train.1.ark:2707461
mjls0_si1726 /home/mirco/kaldi-trunk/egs/timit/s5/mfcc/raw_mfcc_train.3.ark:1236429
fkkh0_sx390 /home/mirco/kaldi-trunk/egs/timit/s5/mfcc/raw_mfcc_train.1.ark:2189893
mmjb1_sx238 /home/mirco/kaldi-trunk/egs/timit/s5/mfcc/raw_mfcc_train.3.ark:3128412
fpad0_sx356 /home/mirco/kaldi-trunk/egs/timit/s5/mfcc/raw_mfcc_train.1.ark:3285763
mmab1_si2124 /home/mirco/kaldi-trunk/egs/timit/s5/mfcc/raw_mfcc_train.3.ark:2606997
mefg0_si598 /home/mirco/kaldi-trunk/egs/timit/s5/mfcc/raw_mfcc_train.2.ark:3188190
mtmn0_sx74 /home/mirco/kaldi-trunk/egs/timit/s5/mfcc/raw_mfcc_train.4.ark:2972311
mdss0_sx171 /home/mirco/kaldi-trunk/egs/timit/s5/mfcc/raw_mfcc_train.2.ark:2949516
mreh1_sx249 /home/mirco/kaldi-trunk/egs/timit/s5/mfcc/raw_mfcc_train.4.ark:590916
mtat1_sx419 /home/mirco/kaldi-trunk/egs/timit/s5/mfcc/raw_mfcc_train.4.ark:2464111
mmgk0_si1322 /home/mirco/kaldi-trunk/egs/timit/s5/mfcc/raw_mfcc_train.3.ark:3087753
mdcd0_si1415 /home/mirco/kaldi-trunk/egs/timit/s5/mfcc/raw_mfcc_train.2.ark:2090348
fkaa0_si1838 /home/mirco/kaldi-trunk/egs/timit/s5/mfcc/raw_mfcc_train.1.ark:2021559
mjdg0_sx232 /home/mirco/kaldi-trunk/egs/timit/s5/mfcc/raw_mfcc_train.3.ark:793313
mkrg0_sx51 /home/mirco/kaldi-trunk/egs/timit/s5/mfcc/raw_mfcc_train.3.ark:2329390
fjlg0_si2306 /home/mirco/kaldi-trunk/egs/timit/s5/mfcc/raw_mfcc_train.1.ark:1725030
fsjg0_si940 /home/mirco/kaldi-trunk/egs/timit/s5/mfcc/raw_mfcc_train.1.ark:3833608
mejs0_si610 /home/mirco/kaldi-trunk/egs/timit/s5/mfcc/raw_mfcc_train.2.ark:3286392
mbsb0_sx363 /home/mirco/kaldi-trunk/egs/timit/s5/mfcc/raw_mfcc_train.2.ark:1362775
flet0_si1137 /home/mirco/kaldi-trunk/egs/timit/s5/mfcc/raw_mfcc_train.1.ark:2424913
mrjm0_sx328 /home/mirco/kaldi-trunk/egs/timit/s5/mfcc/raw_mfcc_train.4.ark:936642
mdhs0_sx90 /home/mirco/kaldi-trunk/egs/timit/s5/mfcc/raw_mfcc_train.2.ark:2346376
mgsh0_sx6 /home/mirco/kaldi-trunk/egs/timit/s5/mfcc/raw_mfcc_train.3.ark:220228
mbml0_si1799 /home/mirco/kaldi-trunk/egs/timit/s5/mfcc/raw_mfcc_train.2.ark:1289735
msds0_sx267 /home/mirco/kaldi-trunk/egs/timit/s5/mfcc/raw_mfcc_train.4.ark:1903225
mjjm0_si827 /home/mirco/kaldi-trunk/egs/timit/s5/mfcc/raw_mfcc_train.3.ark:1117439
mjjm0_sx197 /home/mirco/kaldi-trunk/egs/timit/s5/mfcc/raw_mfcc_train.3.ark:1127365
mdlr0_si603 /home/mirco/kaldi-trunk/egs/timit/s5/mfcc/raw_mfcc_train.2.ark:2617568
ftlg0_si1743 /home/mirco/kaldi-trunk/egs/timit/s5/mfcc/raw_mfcc_train.2.ark:501942
mgxp0_sx97 /home/mirco/kaldi-trunk/egs/timit/s5/mfcc/raw_mfcc_train.3.ark:295731
mwgr0_sx346 /home/mirco/kaldi-trunk/egs/timit/s5/mfcc/raw_mfcc_train.4.ark:3634146
mwdk0_sx266 /home/mirco/kaldi-trunk/egs/timit/s5/mfcc/raw_mfcc_train.4.ark:3565514
fklc1_sx328 /home/mirco/kaldi-trunk/egs/timit/s5/mfcc/raw_mfcc_train.1.ark:2246558
mmpm0_sx341 /home/mirco/kaldi-trunk/egs/timit/s5/mfcc/raw_mfcc_train.3.ark:3195107
fgrw0_si1990 /home/mirco/kaldi-trunk/egs/timit/s5/mfcc/raw_mfcc_train.1.ark:1481824
fvmh0_sx386 /home/mirco/kaldi-trunk/egs/timit/s5/mfcc/raw_mfcc_train.2.ark:657465
fdxw0_si1511 /home/mirco/kaldi-trunk/egs/timit/s5/mfcc/raw_mfcc_train.1.ark:1092649
mlbc0_si609 /home/mirco/kaldi-trunk/egs/timit/s5/mfcc/raw_mfcc_train.3.ark:2372046
fdtd0_sx121 /home/mirco/kaldi-trunk/egs/timit/s5/mfcc/raw_mfcc_train.1.ark:1069668
mcal0_sx328 /home/mirco/kaldi-trunk/egs/timit/s5/mfcc/raw_mfcc_train.2.ark:1495281
mjjm0_sx17 /home/mirco/kaldi-trunk/egs/timit/s5/mfcc/raw_mfcc_train.3.ark:1124615
mntw0_sx258 /home/mirco/kaldi-trunk/egs/timit/s5/mfcc/raw_mfcc_train.3.ark:3495046
flag0_si2094 /home/mirco/kaldi-trunk/egs/timit/s5/mfcc/raw_mfcc_train.1.ark:2361912
msds0_si1707 /home/mirco/kaldi-trunk/egs/timit/s5/mfcc/raw_mfcc_train.4.ark:1890866
mcdc0_sx212 /home/mirco/kaldi-trunk/egs/timit/s5/mfcc/raw_mfcc_train.2.ark:1524828
mgag0_sx61 /home/mirco/kaldi-trunk/egs/timit/s5/mfcc/raw_mfcc_train.2.ark:3638274
mrtc0_si1458 /home/mirco/kaldi-trunk/egs/timit/s5/mfcc/raw_mfcc_train.4.ark:1509635
mclm0_si826 /home/mirco/kaldi-trunk/egs/timit/s5/mfcc/raw_mfcc_train.2.ark:1751414
msat1_sx263 /home/mirco/kaldi-trunk/egs/timit/s5/mfcc/raw_mfcc_train.4.ark:1812546
mrds0_sx177 /home/mirco/kaldi-trunk/egs/timit/s5/mfcc/raw_mfcc_train.4.ark:520165
mwad0_sx162 /home/mirco/kaldi-trunk/egs/timit/s5/mfcc/raw_mfcc_train.4.ark:3473346
mjfr0_sx165 /home/mirco/kaldi-trunk/egs/timit/s5/mfcc/raw_mfcc_train.3.ark:980731
mtlc0_sx217 /home/mirco/kaldi-trunk/egs/timit/s5/mfcc/raw_mfcc_train.4.ark:2894592
fjxp0_sx42 /home/mirco/kaldi-trunk/egs/timit/s5/mfcc/raw_mfcc_train.1.ark:2014510
mdns0_sx111 /home/mirco/kaldi-trunk/egs/timit/s5/mfcc/raw_mfcc_train.2.ark:2761441
fsag0_si1323 /home/mirco/kaldi-trunk/egs/timit/s5/mfcc/raw_mfcc_train.1.ark:3554416
fdml0_si2075 /home/mirco/kaldi-trunk/egs/timit/s5/mfcc/raw_mfcc_train.1.ark:956169
fjrp1_si802 /home/mirco/kaldi-trunk/egs/timit/s5/mfcc/raw_mfcc_train.1.ark:1824755
mcss0_si1380 /home/mirco/kaldi-trunk/egs/timit/s5/mfcc/raw_mfcc_train.2.ark:1833405
mkln0_sx158 /home/mirco/kaldi-trunk/egs/timit/s5/mfcc/raw_mfcc_train.3.ark:2154889
mjfh0_si1737 /home/mirco/kaldi-trunk/egs/timit/s5/mfcc/raw_mfcc_train.3.ark:946054
mrem0_sx151 /home/mirco/kaldi-trunk/egs/timit/s5/mfcc/raw_mfcc_train.4.ark:620475
mrmh0_sx391 /home/mirco/kaldi-trunk/egs/timit/s5/mfcc/raw_mfcc_train.4.ark:1297071
mmdb0_sx357 /home/mirco/kaldi-trunk/egs/timit/s5/mfcc/raw_mfcc_train.3.ark:2831748
flja0_si1708 /home/mirco/kaldi-trunk/egs/timit/s5/mfcc/raw_mfcc_train.1.ark:2494144
mmgk0_sx332 /home/mirco/kaldi-trunk/egs/timit/s5/mfcc/raw_mfcc_train.3.ark:3102505
fmjb0_sx367 /home/mirco/kaldi-trunk/egs/timit/s5/mfcc/raw_mfcc_train.1.ark:2905971
msfv0_sx272 /home/mirco/kaldi-trunk/egs/timit/s5/mfcc/raw_mfcc_train.4.ark:2051134
mmag0_si1756 /home/mirco/kaldi-trunk/egs/timit/s5/mfcc/raw_mfcc_train.3.ark:2643805
mkln0_sx428 /home/mirco/kaldi-trunk/egs/timit/s5/mfcc/raw_mfcc_train.3.ark:2165297
mmdg0_sx160 /home/mirco/kaldi-trunk/egs/timit/s5/mfcc/raw_mfcc_train.3.ark:2854853
fcdr1_si1186 /home/mirco/kaldi-trunk/egs/timit/s5/mfcc/raw_mfcc_train.1.ark:468314
mjai0_sx254 /home/mirco/kaldi-trunk/egs/timit/s5/mfcc/raw_mfcc_train.3.ark:630942
mdma0_sx350 /home/mirco/kaldi-trunk/egs/timit/s5/mfcc/raw_mfcc_train.2.ark:2700748
msah1_sx59 /home/mirco/kaldi-trunk/egs/timit/s5/mfcc/raw_mfcc_train.4.ark:1731430
fear0_sx442 /home/mirco/kaldi-trunk/egs/timit/s5/mfcc/raw_mfcc_train.1.ark:1179139
fcaj0_sx399 /home/mirco/kaldi-trunk/egs/timit/s5/mfcc/raw_mfcc_train.1.ark:464887
mtxs0_si1690 /home/mirco/kaldi-trunk/egs/timit/s5/mfcc/raw_mfcc_train.4.ark:3303044
fsrh0_sx401 /home/mirco/kaldi-trunk/egs/timit/s5/mfcc/raw_mfcc_train.2.ark:368827
mklr0_si2319 /home/mirco/kaldi-trunk/egs/timit/s5/mfcc/raw_mfcc_train.3.ark:2181434
mtjm0_si655 /home/mirco/kaldi-trunk/egs/timit/s5/mfcc/raw_mfcc_train.4.ark:2683610
mdjm0_sx15 /home/mirco/kaldi-trunk/egs/timit/s5/mfcc/raw_mfcc_train.2.ark:2366536
fskp0_si468 /home/mirco/kaldi-trunk/egs/timit/s5/mfcc/raw_mfcc_train.2.ark:155048
mjde0_si1120 /home/mirco/kaldi-trunk/egs/timit/s5/mfcc/raw_mfcc_train.3.ark:733960
mmpm0_sx71 /home/mirco/kaldi-trunk/egs/timit/s5/mfcc/raw_mfcc_train.3.ark:3203518
mtrr0_sx18 /home/mirco/kaldi-trunk/egs/timit/s5/mfcc/raw_mfcc_train.4.ark:3221851
mmcc0_sx78 /home/mirco/kaldi-trunk/egs/timit/s5/mfcc/raw_mfcc_train.3.ark:2809864
fskc0_sx156 /home/mirco/kaldi-trunk/egs/timit/s5/mfcc/raw_mfcc_train.2.ark:94179
mdsj0_si1462 /home/mirco/kaldi-trunk/egs/timit/s5/mfcc/raw_mfcc_train.2.ark:2907525
mjrh1_sx244 /home/mirco/kaldi-trunk/egs/timit/s5/mfcc/raw_mfcc_train.3.ark:1562841
fclt0_sx358 /home/mirco/kaldi-trunk/egs/timit/s5/mfcc/raw_mfcc_train.1.ark:642276
mkrg0_si2121 /home/mirco/kaldi-trunk/egs/timit/s5/mfcc/raw_mfcc_train.3.ark:2307198
msas0_si2006 /home/mirco/kaldi-trunk/egs/timit/s5/mfcc/raw_mfcc_train.4.ark:1740598
fjsk0_sx332 /home/mirco/kaldi-trunk/egs/timit/s5/mfcc/raw_mfcc_train.1.ark:1875209
mjdc0_si2165 /home/mirco/kaldi-trunk/egs/timit/s5/mfcc/raw_mfcc_train.3.ark:707079
mjeb1_sx27 /home/mirco/kaldi-trunk/egs/timit/s5/mfcc/raw_mfcc_train.3.ark:899531
mhmg0_sx195 /home/mirco/kaldi-trunk/egs/timit/s5/mfcc/raw_mfcc_train.3.ark:407213
fskc0_sx426 /home/mirco/kaldi-trunk/egs/timit/s5/mfcc/raw_mfcc_train.2.ark:105978
mdlc1_sx355 /home/mirco/kaldi-trunk/egs/timit/s5/mfcc/raw_mfcc_train.2.ark:2509371
fpab1_sx391 /home/mirco/kaldi-trunk/egs/timit/s5/mfcc/raw_mfcc_train.1.ark:3224107
mjrg0_si736 /home/mirco/kaldi-trunk/egs/timit/s5/mfcc/raw_mfcc_train.3.ark:1486493
mjrk0_si1662 /home/mirco/kaldi-trunk/egs/timit/s5/mfcc/raw_mfcc_train.3.ark:1577312
fpad0_sx446 /home/mirco/kaldi-trunk/egs/timit/s5/mfcc/raw_mfcc_train.1.ark:3290567
msms0_sx263 /home/mirco/kaldi-trunk/egs/timit/s5/mfcc/raw_mfcc_train.4.ark:2187081
mdbb1_sx196 /home/mirco/kaldi-trunk/egs/timit/s5/mfcc/raw_mfcc_train.2.ark:2044145
fmem0_sx387 /home/mirco/kaldi-trunk/egs/timit/s5/mfcc/raw_mfcc_train.1.ark:2879771
fsjs0_sx451 /home/mirco/kaldi-trunk/egs/timit/s5/mfcc/raw_mfcc_train.2.ark:39798
mmsm0_sx206 /home/mirco/kaldi-trunk/egs/timit/s5/mfcc/raw_mfcc_train.3.ark:3259823
mdlr1_sx39 /home/mirco/kaldi-trunk/egs/timit/s5/mfcc/raw_mfcc_train.2.ark:2670250
fjrp1_si1432 /home/mirco/kaldi-trunk/egs/timit/s5/mfcc/raw_mfcc_train.1.ark:1813417
mkdt0_sx263 /home/mirco/kaldi-trunk/egs/timit/s5/mfcc/raw_mfcc_train.3.ark:2062191
fpmy0_si1153 /home/mirco/kaldi-trunk/egs/timit/s5/mfcc/raw_mfcc_train.1.ark:3426853
mtpg0_si2013 /home/mirco/kaldi-trunk/egs/timit/s5/mfcc/raw_mfcc_train.4.ark:3043330
fvmh0_sx296 /home/mirco/kaldi-trunk/egs/timit/s5/mfcc/raw_mfcc_train.2.ark:654403
fsah0_sx164 /home/mirco/kaldi-trunk/egs/timit/s5/mfcc/raw_mfcc_train.1.ark:3607288
mrjm1_si668 /home/mirco/kaldi-trunk/egs/timit/s5/mfcc/raw_mfcc_train.4.ark:959922
fsrh0_si671 /home/mirco/kaldi-trunk/egs/timit/s5/mfcc/raw_mfcc_train.2.ark:351548
fljd0_sx166 /home/mirco/kaldi-trunk/egs/timit/s5/mfcc/raw_mfcc_train.1.ark:2533853
mrcw0_sx111 /home/mirco/kaldi-trunk/egs/timit/s5/mfcc/raw_mfcc_train.4.ark:430748
mjma0_sx235 /home/mirco/kaldi-trunk/egs/timit/s5/mfcc/raw_mfcc_train.3.ark:1283177
mdns0_si1011 /home/mirco/kaldi-trunk/egs/timit/s5/mfcc/raw_mfcc_train.2.ark:2745832
mejl0_sx242 /home/mirco/kaldi-trunk/egs/timit/s5/mfcc/raw_mfcc_train.2.ark:3262286
mpgr1_si1499 /home/mirco/kaldi-trunk/egs/timit/s5/mfcc/raw_mfcc_train.3.ark:3659367
mkls0_si2067 /home/mirco/kaldi-trunk/egs/timit/s5/mfcc/raw_mfcc_train.3.ark:2211665
mgrl0_si2127 /home/mirco/kaldi-trunk/egs/timit/s5/mfcc/raw_mfcc_train.3.ark:129978
mjlg1_si1012 /home/mirco/kaldi-trunk/egs/timit/s5/mfcc/raw_mfcc_train.3.ark:1202043
medr0_sx24 /home/mirco/kaldi-trunk/egs/timit/s5/mfcc/raw_mfcc_train.2.ark:3170007
mdwh0_si665 /home/mirco/kaldi-trunk/egs/timit/s5/mfcc/raw_mfcc_train.2.ark:3063189
ftbw0_si715 /home/mirco/kaldi-trunk/egs/timit/s5/mfcc/raw_mfcc_train.2.ark:476511
mlns0_sx237 /home/mirco/kaldi-trunk/egs/timit/s5/mfcc/raw_mfcc_train.3.ark:2521333
fltm0_sx170 /home/mirco/kaldi-trunk/egs/timit/s5/mfcc/raw_mfcc_train.1.ark:2760168
fjsk0_si2312 /home/mirco/kaldi-trunk/egs/timit/s5/mfcc/raw_mfcc_train.1.ark:1864645
mtpr0_sx70 /home/mirco/kaldi-trunk/egs/timit/s5/mfcc/raw_mfcc_train.4.ark:3132262
fcag0_si2133 /home/mirco/kaldi-trunk/egs/timit/s5/mfcc/raw_mfcc_train.1.ark:415851
fsjw0_sx73 /home/mirco/kaldi-trunk/egs/timit/s5/mfcc/raw_mfcc_train.2.ark:79329
fjrb0_si1302 /home/mirco/kaldi-trunk/egs/timit/s5/mfcc/raw_mfcc_train.1.ark:1781328
flkm0_sx350 /home/mirco/kaldi-trunk/egs/timit/s5/mfcc/raw_mfcc_train.1.ark:2613904
fsjk1_si2285 /home/mirco/kaldi-trunk/egs/timit/s5/mfcc/raw_mfcc_train.1.ark:3872554
msdb0_si2267 /home/mirco/kaldi-trunk/egs/timit/s5/mfcc/raw_mfcc_train.4.ark:1834755
mppc0_sx332 /home/mirco/kaldi-trunk/egs/timit/s5/mfcc/raw_mfcc_train.4.ark:3971
fpac0_si2011 /home/mirco/kaldi-trunk/egs/timit/s5/mfcc/raw_mfcc_train.1.ark:3233990
mtmt0_si488 /home/mirco/kaldi-trunk/egs/timit/s5/mfcc/raw_mfcc_train.4.ark:2983176
mabc0_sx151 /home/mirco/kaldi-trunk/egs/timit/s5/mfcc/raw_mfcc_train.2.ark:670872
mrlr0_sx296 /home/mirco/kaldi-trunk/egs/timit/s5/mfcc/raw_mfcc_train.4.ark:1200756
fklc0_sx265 /home/mirco/kaldi-trunk/egs/timit/s5/mfcc/raw_mfcc_train.1.ark:2212719
mdpb0_sx326 /home/mirco/kaldi-trunk/egs/timit/s5/mfcc/raw_mfcc_train.2.ark:2801591
mtwh1_sx342 /home/mirco/kaldi-trunk/egs/timit/s5/mfcc/raw_mfcc_train.4.ark:3286258
mjee0_sx67 /home/mirco/kaldi-trunk/egs/timit/s5/mfcc/raw_mfcc_train.3.ark:937367
mtkp0_si2283 /home/mirco/kaldi-trunk/egs/timit/s5/mfcc/raw_mfcc_train.4.ark:2814052
msfv0_si1892 /home/mirco/kaldi-trunk/egs/timit/s5/mfcc/raw_mfcc_train.4.ark:2036020
mpeb0_sx420 /home/mirco/kaldi-trunk/egs/timit/s5/mfcc/raw_mfcc_train.3.ark:3556280
mfxs0_sx414 /home/mirco/kaldi-trunk/egs/timit/s5/mfcc/raw_mfcc_train.2.ark:3544224
mrjb1_sx210 /home/mirco/kaldi-trunk/egs/timit/s5/mfcc/raw_mfcc_train.4.ark:863981
mjls0_si466 /home/mirco/kaldi-trunk/egs/timit/s5/mfcc/raw_mfcc_train.3.ark:1243859
mgag0_sx241 /home/mirco/kaldi-trunk/egs/timit/s5/mfcc/raw_mfcc_train.2.ark:3629076
mmds0_sx173 /home/mirco/kaldi-trunk/egs/timit/s5/mfcc/raw_mfcc_train.3.ark:2951562
fceg0_si1248 /home/mirco/kaldi-trunk/egs/timit/s5/mfcc/raw_mfcc_train.1.ark:509841
flma0_si1873 /home/mirco/kaldi-trunk/egs/timit/s5/mfcc/raw_mfcc_train.1.ark:2631470
mjee0_si607 /home/mirco/kaldi-trunk/egs/timit/s5/mfcc/raw_mfcc_train.3.ark:918665
msat0_si896 /home/mirco/kaldi-trunk/egs/timit/s5/mfcc/raw_mfcc_train.4.ark:1776893
mfrm0_sx345 /home/mirco/kaldi-trunk/egs/timit/s5/mfcc/raw_mfcc_train.2.ark:3478959
mrgm0_sx442 /home/mirco/kaldi-trunk/egs/timit/s5/mfcc/raw_mfcc_train.4.ark:764037
mtju0_sx130 /home/mirco/kaldi-trunk/egs/timit/s5/mfcc/raw_mfcc_train.4.ark:2755712
mjee0_sx337 /home/mirco/kaldi-trunk/egs/timit/s5/mfcc/raw_mfcc_train.3.ark:929645
fmmh0_si2167 /home/mirco/kaldi-trunk/egs/timit/s5/mfcc/raw_mfcc_train.1.ark:3058676
flet0_si1767 /home/mirco/kaldi-trunk/egs/timit/s5/mfcc/raw_mfcc_train.1.ark:2429055
fbcg1_si982 /home/mirco/kaldi-trunk/egs/timit/s5/mfcc/raw_mfcc_train.1.ark:211994
flmk0_si1229 /home/mirco/kaldi-trunk/egs/timit/s5/mfcc/raw_mfcc_train.1.ark:2693542
mmag0_si496 /home/mirco/kaldi-trunk/egs/timit/s5/mfcc/raw_mfcc_train.3.ark:2649662
mmws0_sx438 /home/mirco/kaldi-trunk/egs/timit/s5/mfcc/raw_mfcc_train.3.ark:3379075
mfxv0_si1342 /home/mirco/kaldi-trunk/egs/timit/s5/mfcc/raw_mfcc_train.2.ark:3558377
mrsp0_sx79 /home/mirco/kaldi-trunk/egs/timit/s5/mfcc/raw_mfcc_train.4.ark:1506234
mrpc1_sx222 /home/mirco/kaldi-trunk/egs/timit/s5/mfcc/raw_mfcc_train.4.ark:1383011
mtat1_si779 /home/mirco/kaldi-trunk/egs/timit/s5/mfcc/raw_mfcc_train.4.ark:2441671
mkdt0_si814 /home/mirco/kaldi-trunk/egs/timit/s5/mfcc/raw_mfcc_train.3.ark:2047272
mchl0_sx177 /home/mirco/kaldi-trunk/egs/timit/s5/mfcc/raw_mfcc_train.2.ark:1691858
mprk0_sx17 /home/mirco/kaldi-trunk/egs/timit/s5/mfcc/raw_mfcc_train.4.ark:111657
mded0_sx180 /home/mirco/kaldi-trunk/egs/timit/s5/mfcc/raw_mfcc_train.2.ark:2198454
mtas0_sx35 /home/mirco/kaldi-trunk/egs/timit/s5/mfcc/raw_mfcc_train.4.ark:2396682
mjmd0_sx398 /home/mirco/kaldi-trunk/egs/timit/s5/mfcc/raw_mfcc_train.3.ark:1320227
mgaw0_si535 /home/mirco/kaldi-trunk/egs/timit/s5/mfcc/raw_mfcc_train.3.ark:43298
feme0_sx245 /home/mirco/kaldi-trunk/egs/timit/s5/mfcc/raw_mfcc_train.1.ark:1277511
mbar0_sx239 /home/mirco/kaldi-trunk/egs/timit/s5/mfcc/raw_mfcc_train.2.ark:1054533
fskc0_sx246 /home/mirco/kaldi-trunk/egs/timit/s5/mfcc/raw_mfcc_train.2.ark:97631
mcss0_sx30 /home/mirco/kaldi-trunk/egs/timit/s5/mfcc/raw_mfcc_train.2.ark:1857138
fmjf0_sx444 /home/mirco/kaldi-trunk/egs/timit/s5/mfcc/raw_mfcc_train.1.ark:2942719
fbmh0_si1136 /home/mirco/kaldi-trunk/egs/timit/s5/mfcc/raw_mfcc_train.1.ark:342519
mtbc0_si1173 /home/mirco/kaldi-trunk/egs/timit/s5/mfcc/raw_mfcc_train.4.ark:2472198
mdlh0_sx430 /home/mirco/kaldi-trunk/egs/timit/s5/mfcc/raw_mfcc_train.2.ark:2573542
mtml0_sx165 /home/mirco/kaldi-trunk/egs/timit/s5/mfcc/raw_mfcc_train.4.ark:2919928
msmr0_sx55 /home/mirco/kaldi-trunk/egs/timit/s5/mfcc/raw_mfcc_train.4.ark:2165165
mtwh1_sx252 /home/mirco/kaldi-trunk/egs/timit/s5/mfcc/raw_mfcc_train.4.ark:3282559
mrmh0_sx31 /home/mirco/kaldi-trunk/egs/timit/s5/mfcc/raw_mfcc_train.4.ark:1294828
fdnc0_si1908 /home/mirco/kaldi-trunk/egs/timit/s5/mfcc/raw_mfcc_train.1.ark:1027307
mmcc0_sx348 /home/mirco/kaldi-trunk/egs/timit/s5/mfcc/raw_mfcc_train.3.ark:2800153
mjwg0_si2155 /home/mirco/kaldi-trunk/egs/timit/s5/mfcc/raw_mfcc_train.3.ark:1676907
mcpm0_si564 /home/mirco/kaldi-trunk/egs/timit/s5/mfcc/raw_mfcc_train.2.ark:1781189
mmds0_si1343 /home/mirco/kaldi-trunk/egs/timit/s5/mfcc/raw_mfcc_train.3.ark:2941972
mddc0_sx429 /home/mirco/kaldi-trunk/egs/timit/s5/mfcc/raw_mfcc_train.2.ark:2176643
mpar0_sx226 /home/mirco/kaldi-trunk/egs/timit/s5/mfcc/raw_mfcc_train.3.ark:3522851
mmar0_si1336 /home/mirco/kaldi-trunk/egs/timit/s5/mfcc/raw_mfcc_train.3.ark:2704037
fmjf0_si624 /home/mirco/kaldi-trunk/egs/timit/s5/mfcc/raw_mfcc_train.1.ark:2923672
mbma0_sx232 /home/mirco/kaldi-trunk/egs/timit/s5/mfcc/raw_mfcc_train.2.ark:1236329
fjrp1_sx172 /home/mirco/kaldi-trunk/egs/timit/s5/mfcc/raw_mfcc_train.1.ark:1828194
mjda0_sx221 /home/mirco/kaldi-trunk/egs/timit/s5/mfcc/raw_mfcc_train.3.ark:687569
mdlc1_si2065 /home/mirco/kaldi-trunk/egs/timit/s5/mfcc/raw_mfcc_train.2.ark:2492871
mfer0_sx52 /home/mirco/kaldi-trunk/egs/timit/s5/mfcc/raw_mfcc_train.2.ark:3421943
mjac0_si2148 /home/mirco/kaldi-trunk/egs/timit/s5/mfcc/raw_mfcc_train.3.ark:548153
mtmn0_si582 /home/mirco/kaldi-trunk/egs/timit/s5/mfcc/raw_mfcc_train.4.ark:2951087
mjmm0_sx175 /home/mirco/kaldi-trunk/egs/timit/s5/mfcc/raw_mfcc_train.3.ark:1335805
mdrd0_sx392 /home/mirco/kaldi-trunk/egs/timit/s5/mfcc/raw_mfcc_train.2.ark:2903149
mrld0_sx244 /home/mirco/kaldi-trunk/egs/timit/s5/mfcc/raw_mfcc_train.4.ark:1073673
fsjg0_sx40 /home/mirco/kaldi-trunk/egs/timit/s5/mfcc/raw_mfcc_train.1.ark:3857113
fgdp0_si1618 /home/mirco/kaldi-trunk/egs/timit/s5/mfcc/raw_mfcc_train.1.ark:1394464
freh0_si1315 /home/mirco/kaldi-trunk/egs/timit/s5/mfcc/raw_mfcc_train.1.ark:3464012
mjfh0_sx207 /home/mirco/kaldi-trunk/egs/timit/s5/mfcc/raw_mfcc_train.3.ark:957606
mtat1_sx329 /home/mirco/kaldi-trunk/egs/timit/s5/mfcc/raw_mfcc_train.4.ark:2458254
msat0_sx176 /home/mirco/kaldi-trunk/egs/timit/s5/mfcc/raw_mfcc_train.4.ark:1779760
mbwp0_si709 /home/mirco/kaldi-trunk/egs/timit/s5/mfcc/raw_mfcc_train.2.ark:1408802
mtjm0_si1226 /home/mirco/kaldi-trunk/egs/timit/s5/mfcc/raw_mfcc_train.4.ark:2673871
mdef0_sx303 /home/mirco/kaldi-trunk/egs/timit/s5/mfcc/raw_mfcc_train.2.ark:2238891
mrsp0_sx259 /home/mirco/kaldi-trunk/egs/timit/s5/mfcc/raw_mfcc_train.4.ark:1497316
freh0_si685 /home/mirco/kaldi-trunk/egs/timit/s5/mfcc/raw_mfcc_train.1.ark:3474141
mdps0_si719 /home/mirco/kaldi-trunk/egs/timit/s5/mfcc/raw_mfcc_train.2.ark:2848211
mjrh0_sx405 /home/mirco/kaldi-trunk/egs/timit/s5/mfcc/raw_mfcc_train.3.ark:1537877
fmah1_sx249 /home/mirco/kaldi-trunk/egs/timit/s5/mfcc/raw_mfcc_train.1.ark:2801910
mdlc2_sx264 /home/mirco/kaldi-trunk/egs/timit/s5/mfcc/raw_mfcc_train.2.ark:2532431
