msmc0_sx197 raw_TIMIT_200ms/train/msmc0_sx197.ark:12
mhmr0_si1119 raw_TIMIT_200ms/train/mhmr0_si1119.ark:13
mjrk0_si880 raw_TIMIT_200ms/train/mjrk0_si880.ark:12
fmpg0_sx342 raw_TIMIT_200ms/train/fmpg0_sx342.ark:12
fdas1_sx291 raw_TIMIT_200ms/train/fdas1_sx291.ark:12
ftbr0_sx21 raw_TIMIT_200ms/train/ftbr0_sx21.ark:11
mjac0_sx307 raw_TIMIT_200ms/train/mjac0_sx307.ark:12
mklw0_sx41 raw_TIMIT_200ms/train/mklw0_sx41.ark:11
fksr0_sx161 raw_TIMIT_200ms/train/fksr0_sx161.ark:12
mhit0_sx263 raw_TIMIT_200ms/train/mhit0_sx263.ark:12
mdbp0_si1788 raw_TIMIT_200ms/train/mdbp0_si1788.ark:13
fbjl0_si922 raw_TIMIT_200ms/train/fbjl0_si922.ark:12
mjra0_sx246 raw_TIMIT_200ms/train/mjra0_sx246.ark:12
fdkn0_sx361 raw_TIMIT_200ms/train/fdkn0_sx361.ark:12
mjrp0_sx45 raw_TIMIT_200ms/train/mjrp0_sx45.ark:11
fjkl0_si932 raw_TIMIT_200ms/train/fjkl0_si932.ark:12
mrjm0_sx418 raw_TIMIT_200ms/train/mrjm0_sx418.ark:12
fsdj0_sx215 raw_TIMIT_200ms/train/fsdj0_sx215.ark:12
msds0_si2337 raw_TIMIT_200ms/train/msds0_si2337.ark:13
fjkl0_sx392 raw_TIMIT_200ms/train/fjkl0_sx392.ark:12
fdtd0_si2191 raw_TIMIT_200ms/train/fdtd0_si2191.ark:13
fmbg0_sx350 raw_TIMIT_200ms/train/fmbg0_sx350.ark:12
mgaw0_sx355 raw_TIMIT_200ms/train/mgaw0_sx355.ark:12
mhbs0_sx315 raw_TIMIT_200ms/train/mhbs0_sx315.ark:12
mkls0_sx357 raw_TIMIT_200ms/train/mkls0_sx357.ark:12
mded0_sx450 raw_TIMIT_200ms/train/mded0_sx450.ark:12
mhjb0_sx27 raw_TIMIT_200ms/train/mhjb0_sx27.ark:11
fdjh0_sx395 raw_TIMIT_200ms/train/fdjh0_sx395.ark:12
feac0_sx435 raw_TIMIT_200ms/train/feac0_sx435.ark:12
mmgc0_sx225 raw_TIMIT_200ms/train/mmgc0_sx225.ark:12
feeh0_sx392 raw_TIMIT_200ms/train/feeh0_sx392.ark:12
mrlr0_sx296 raw_TIMIT_200ms/train/mrlr0_sx296.ark:12
mtpf0_sx245 raw_TIMIT_200ms/train/mtpf0_sx245.ark:12
makr0_si1982 raw_TIMIT_200ms/train/makr0_si1982.ark:13
mrwa0_si1603 raw_TIMIT_200ms/train/mrwa0_si1603.ark:13
fhxs0_sx265 raw_TIMIT_200ms/train/fhxs0_sx265.ark:12
mrav0_sx108 raw_TIMIT_200ms/train/mrav0_sx108.ark:12
mdtb0_sx390 raw_TIMIT_200ms/train/mdtb0_sx390.ark:12
mrlj1_sx231 raw_TIMIT_200ms/train/mrlj1_sx231.ark:12
mmgg0_sx89 raw_TIMIT_200ms/train/mmgg0_sx89.ark:11
fsjg0_sx40 raw_TIMIT_200ms/train/fsjg0_sx40.ark:11
ftbw0_si715 raw_TIMIT_200ms/train/ftbw0_si715.ark:12
mbgt0_sx351 raw_TIMIT_200ms/train/mbgt0_sx351.ark:12
mrwa0_sx343 raw_TIMIT_200ms/train/mrwa0_sx343.ark:12
flma0_sx343 raw_TIMIT_200ms/train/flma0_sx343.ark:12
fssb0_sx272 raw_TIMIT_200ms/train/fssb0_sx272.ark:12
mprk0_sx17 raw_TIMIT_200ms/train/mprk0_sx17.ark:11
mcdc0_si1292 raw_TIMIT_200ms/train/mcdc0_si1292.ark:13
fgrw0_si1152 raw_TIMIT_200ms/train/fgrw0_si1152.ark:13
mmsm0_sx206 raw_TIMIT_200ms/train/mmsm0_sx206.ark:12
mtdb0_si771 raw_TIMIT_200ms/train/mtdb0_si771.ark:12
mdac0_sx181 raw_TIMIT_200ms/train/mdac0_sx181.ark:12
msas0_sx386 raw_TIMIT_200ms/train/msas0_sx386.ark:12
fcmg0_si1142 raw_TIMIT_200ms/train/fcmg0_si1142.ark:13
mrsp0_sx439 raw_TIMIT_200ms/train/mrsp0_sx439.ark:12
fpac0_sx121 raw_TIMIT_200ms/train/fpac0_sx121.ark:12
fssb0_sx182 raw_TIMIT_200ms/train/fssb0_sx182.ark:12
msfv0_sx272 raw_TIMIT_200ms/train/msfv0_sx272.ark:12
ftmg0_sx362 raw_TIMIT_200ms/train/ftmg0_sx362.ark:12
freh0_si685 raw_TIMIT_200ms/train/freh0_si685.ark:12
fjlg0_si1506 raw_TIMIT_200ms/train/fjlg0_si1506.ark:13
mdbb1_si1636 raw_TIMIT_200ms/train/mdbb1_si1636.ark:13
mmaa0_sx215 raw_TIMIT_200ms/train/mmaa0_sx215.ark:12
flag0_sx294 raw_TIMIT_200ms/train/flag0_sx294.ark:12
mkah0_sx448 raw_TIMIT_200ms/train/mkah0_sx448.ark:12
fbjl0_sx112 raw_TIMIT_200ms/train/fbjl0_sx112.ark:12
mmws0_si559 raw_TIMIT_200ms/train/mmws0_si559.ark:12
mgxp0_si1087 raw_TIMIT_200ms/train/mgxp0_si1087.ark:13
mter0_sx437 raw_TIMIT_200ms/train/mter0_sx437.ark:12
mdmt0_sx32 raw_TIMIT_200ms/train/mdmt0_sx32.ark:11
mrkm0_sx277 raw_TIMIT_200ms/train/mrkm0_sx277.ark:12
mbcg0_si957 raw_TIMIT_200ms/train/mbcg0_si957.ark:12
fmjf0_si1884 raw_TIMIT_200ms/train/fmjf0_si1884.ark:13
fsjs0_sx181 raw_TIMIT_200ms/train/fsjs0_sx181.ark:12
mjrh0_sx45 raw_TIMIT_200ms/train/mjrh0_sx45.ark:11
mtju0_si2020 raw_TIMIT_200ms/train/mtju0_si2020.ark:13
mjjb0_si1769 raw_TIMIT_200ms/train/mjjb0_si1769.ark:13
megj0_sx3 raw_TIMIT_200ms/train/megj0_sx3.ark:10
mrld0_sx154 raw_TIMIT_200ms/train/mrld0_sx154.ark:12
mpgr1_sx59 raw_TIMIT_200ms/train/mpgr1_sx59.ark:11
fpls0_si1590 raw_TIMIT_200ms/train/fpls0_si1590.ark:13
mrgm0_si1162 raw_TIMIT_200ms/train/mrgm0_si1162.ark:13
fklh0_si1887 raw_TIMIT_200ms/train/fklh0_si1887.ark:13
fkde0_sx61 raw_TIMIT_200ms/train/fkde0_sx61.ark:11
mwgr0_sx436 raw_TIMIT_200ms/train/mwgr0_sx436.ark:12
mprd0_sx261 raw_TIMIT_200ms/train/mprd0_sx261.ark:12
majp0_si1074 raw_TIMIT_200ms/train/majp0_si1074.ark:13
fjwb1_sx345 raw_TIMIT_200ms/train/fjwb1_sx345.ark:12
mbar0_si1319 raw_TIMIT_200ms/train/mbar0_si1319.ark:13
mjbg0_sx332 raw_TIMIT_200ms/train/mjbg0_sx332.ark:12
mmwb0_sx449 raw_TIMIT_200ms/train/mmwb0_sx449.ark:12
mrvg0_si1140 raw_TIMIT_200ms/train/mrvg0_si1140.ark:13
flac0_sx361 raw_TIMIT_200ms/train/flac0_sx361.ark:12
msvs0_sx128 raw_TIMIT_200ms/train/msvs0_sx128.ark:12
mrre0_sx434 raw_TIMIT_200ms/train/mrre0_sx434.ark:12
mmdm0_si1941 raw_TIMIT_200ms/train/mmdm0_si1941.ark:13
fdkn0_si1711 raw_TIMIT_200ms/train/fdkn0_si1711.ark:13
mrso0_si2289 raw_TIMIT_200ms/train/mrso0_si2289.ark:13
fjen0_si1047 raw_TIMIT_200ms/train/fjen0_si1047.ark:13
mgrl0_si867 raw_TIMIT_200ms/train/mgrl0_si867.ark:12
mtjg0_sx80 raw_TIMIT_200ms/train/mtjg0_sx80.ark:11
mjrh0_sx405 raw_TIMIT_200ms/train/mjrh0_sx405.ark:12
mwre0_si1687 raw_TIMIT_200ms/train/mwre0_si1687.ark:13
mrjt0_sx328 raw_TIMIT_200ms/train/mrjt0_sx328.ark:12
fvmh0_sx296 raw_TIMIT_200ms/train/fvmh0_sx296.ark:12
mdef0_sx303 raw_TIMIT_200ms/train/mdef0_sx303.ark:12
fgcs0_sx46 raw_TIMIT_200ms/train/fgcs0_sx46.ark:11
fmkf0_si906 raw_TIMIT_200ms/train/fmkf0_si906.ark:12
fcke0_si1741 raw_TIMIT_200ms/train/fcke0_si1741.ark:13
fleh0_sx331 raw_TIMIT_200ms/train/fleh0_sx331.ark:12
mdlc1_si2144 raw_TIMIT_200ms/train/mdlc1_si2144.ark:13
mjrh0_si1755 raw_TIMIT_200ms/train/mjrh0_si1755.ark:13
mmgk0_sx242 raw_TIMIT_200ms/train/mmgk0_sx242.ark:12
maeb0_sx450 raw_TIMIT_200ms/train/maeb0_sx450.ark:12
mses0_si2219 raw_TIMIT_200ms/train/mses0_si2219.ark:13
mdwh0_si1168 raw_TIMIT_200ms/train/mdwh0_si1168.ark:13
mdns0_si1011 raw_TIMIT_200ms/train/mdns0_si1011.ark:13
ftlg0_si483 raw_TIMIT_200ms/train/ftlg0_si483.ark:12
mrkm0_sx97 raw_TIMIT_200ms/train/mrkm0_sx97.ark:11
mdcd0_sx155 raw_TIMIT_200ms/train/mdcd0_sx155.ark:12
falr0_sx245 raw_TIMIT_200ms/train/falr0_sx245.ark:12
mdlc1_sx265 raw_TIMIT_200ms/train/mdlc1_sx265.ark:12
mrms0_si2100 raw_TIMIT_200ms/train/mrms0_si2100.ark:13
ftmg0_sx182 raw_TIMIT_200ms/train/ftmg0_sx182.ark:12
mmrp0_sx54 raw_TIMIT_200ms/train/mmrp0_sx54.ark:11
mmpm0_si1691 raw_TIMIT_200ms/train/mmpm0_si1691.ark:13
mwsb0_si2256 raw_TIMIT_200ms/train/mwsb0_si2256.ark:13
mrfk0_si1076 raw_TIMIT_200ms/train/mrfk0_si1076.ark:13
feme0_sx335 raw_TIMIT_200ms/train/feme0_sx335.ark:12
mhbs0_sx135 raw_TIMIT_200ms/train/mhbs0_sx135.ark:12
fmju0_si1389 raw_TIMIT_200ms/train/fmju0_si1389.ark:13
mdlc1_sx445 raw_TIMIT_200ms/train/mdlc1_sx445.ark:12
mrdm0_sx245 raw_TIMIT_200ms/train/mrdm0_sx245.ark:12
mgjc0_sx345 raw_TIMIT_200ms/train/mgjc0_sx345.ark:12
mwar0_sx145 raw_TIMIT_200ms/train/mwar0_sx145.ark:12
fpab1_si1471 raw_TIMIT_200ms/train/fpab1_si1471.ark:13
mrpc1_sx222 raw_TIMIT_200ms/train/mrpc1_sx222.ark:12
mkah0_sx88 raw_TIMIT_200ms/train/mkah0_sx88.ark:11
mlsh0_sx247 raw_TIMIT_200ms/train/mlsh0_sx247.ark:12
mdac0_sx271 raw_TIMIT_200ms/train/mdac0_sx271.ark:12
mpgr1_si2129 raw_TIMIT_200ms/train/mpgr1_si2129.ark:13
mlel0_sx256 raw_TIMIT_200ms/train/mlel0_sx256.ark:12
msdb0_si1007 raw_TIMIT_200ms/train/msdb0_si1007.ark:13
mbcg0_sx147 raw_TIMIT_200ms/train/mbcg0_sx147.ark:12
fkfb0_si978 raw_TIMIT_200ms/train/fkfb0_si978.ark:12
fbjl0_sx382 raw_TIMIT_200ms/train/fbjl0_sx382.ark:12
fklc0_si2245 raw_TIMIT_200ms/train/fklc0_si2245.ark:13
mtpg0_sx303 raw_TIMIT_200ms/train/mtpg0_sx303.ark:12
fssb0_sx92 raw_TIMIT_200ms/train/fssb0_sx92.ark:11
fdxw0_si1511 raw_TIMIT_200ms/train/fdxw0_si1511.ark:13
fpmy0_sx73 raw_TIMIT_200ms/train/fpmy0_sx73.ark:11
fvmh0_si1466 raw_TIMIT_200ms/train/fvmh0_si1466.ark:13
flet0_si1767 raw_TIMIT_200ms/train/flet0_si1767.ark:13
mmam0_sx157 raw_TIMIT_200ms/train/mmam0_sx157.ark:12
mdas0_sx21 raw_TIMIT_200ms/train/mdas0_sx21.ark:11
fntb0_sx33 raw_TIMIT_200ms/train/fntb0_sx33.ark:11
fgdp0_si1618 raw_TIMIT_200ms/train/fgdp0_si1618.ark:13
mpgh0_sx384 raw_TIMIT_200ms/train/mpgh0_sx384.ark:12
mbom0_si1644 raw_TIMIT_200ms/train/mbom0_si1644.ark:13
mgsl0_sx264 raw_TIMIT_200ms/train/mgsl0_sx264.ark:12
fmju0_sx129 raw_TIMIT_200ms/train/fmju0_sx129.ark:12
mrmb0_sx231 raw_TIMIT_200ms/train/mrmb0_sx231.ark:12
fskp0_sx108 raw_TIMIT_200ms/train/fskp0_sx108.ark:12
mjhi0_sx248 raw_TIMIT_200ms/train/mjhi0_sx248.ark:12
fmpg0_si972 raw_TIMIT_200ms/train/fmpg0_si972.ark:12
mcxm0_sx271 raw_TIMIT_200ms/train/mcxm0_sx271.ark:12
mhmr0_si1692 raw_TIMIT_200ms/train/mhmr0_si1692.ark:13
mdlh0_sx340 raw_TIMIT_200ms/train/mdlh0_sx340.ark:12
mdma0_sx170 raw_TIMIT_200ms/train/mdma0_sx170.ark:12
fcaj0_sx129 raw_TIMIT_200ms/train/fcaj0_sx129.ark:12
mdbp0_sx78 raw_TIMIT_200ms/train/mdbp0_sx78.ark:11
fsdj0_sx395 raw_TIMIT_200ms/train/fsdj0_sx395.ark:12
mfrm0_si1155 raw_TIMIT_200ms/train/mfrm0_si1155.ark:13
mrem0_sx61 raw_TIMIT_200ms/train/mrem0_sx61.ark:11
fjlr0_sx241 raw_TIMIT_200ms/train/fjlr0_sx241.ark:12
fklc0_sx175 raw_TIMIT_200ms/train/fklc0_sx175.ark:12
fdxw0_sx251 raw_TIMIT_200ms/train/fdxw0_sx251.ark:12
mjda0_sx221 raw_TIMIT_200ms/train/mjda0_sx221.ark:12
fcmm0_si1957 raw_TIMIT_200ms/train/fcmm0_si1957.ark:13
mhjb0_sx117 raw_TIMIT_200ms/train/mhjb0_sx117.ark:12
fljg0_si981 raw_TIMIT_200ms/train/fljg0_si981.ark:12
fjwb1_si2055 raw_TIMIT_200ms/train/fjwb1_si2055.ark:13
mjjm0_sx287 raw_TIMIT_200ms/train/mjjm0_sx287.ark:12
mjjm0_si1251 raw_TIMIT_200ms/train/mjjm0_si1251.ark:13
mreh1_sx69 raw_TIMIT_200ms/train/mreh1_sx69.ark:11
mjeb0_si1286 raw_TIMIT_200ms/train/mjeb0_si1286.ark:13
fcdr1_si1816 raw_TIMIT_200ms/train/fcdr1_si1816.ark:13
mafm0_si939 raw_TIMIT_200ms/train/mafm0_si939.ark:12
mges0_sx221 raw_TIMIT_200ms/train/mges0_sx221.ark:12
mrbc0_si1859 raw_TIMIT_200ms/train/mrbc0_si1859.ark:13
mtbc0_si1803 raw_TIMIT_200ms/train/mtbc0_si1803.ark:13
mhxl0_sx152 raw_TIMIT_200ms/train/mhxl0_sx152.ark:12
mvjh0_sx386 raw_TIMIT_200ms/train/mvjh0_sx386.ark:12
mdhs0_sx270 raw_TIMIT_200ms/train/mdhs0_sx270.ark:12
fljd0_sx256 raw_TIMIT_200ms/train/fljd0_sx256.ark:12
fsak0_si1300 raw_TIMIT_200ms/train/fsak0_si1300.ark:13
mewm0_sx178 raw_TIMIT_200ms/train/mewm0_sx178.ark:12
fcaj0_sx399 raw_TIMIT_200ms/train/fcaj0_sx399.ark:12
msfv0_sx182 raw_TIMIT_200ms/train/msfv0_sx182.ark:12
mtjg0_sx170 raw_TIMIT_200ms/train/mtjg0_sx170.ark:12
mwgr0_si2236 raw_TIMIT_200ms/train/mwgr0_si2236.ark:13
mkrg0_sx31 raw_TIMIT_200ms/train/mkrg0_sx31.ark:11
mrmh0_sx391 raw_TIMIT_200ms/train/mrmh0_sx391.ark:12
mapv0_sx303 raw_TIMIT_200ms/train/mapv0_sx303.ark:12
mjfr0_sx435 raw_TIMIT_200ms/train/mjfr0_sx435.ark:12
mfxs0_sx414 raw_TIMIT_200ms/train/mfxs0_sx414.ark:12
majp0_sx84 raw_TIMIT_200ms/train/majp0_sx84.ark:11
mtju0_sx40 raw_TIMIT_200ms/train/mtju0_sx40.ark:11
fpab1_sx301 raw_TIMIT_200ms/train/fpab1_sx301.ark:12
msmc0_sx287 raw_TIMIT_200ms/train/msmc0_sx287.ark:12
mtdb0_sx51 raw_TIMIT_200ms/train/mtdb0_sx51.ark:11
mpfu0_sx88 raw_TIMIT_200ms/train/mpfu0_sx88.ark:11
meal0_sx347 raw_TIMIT_200ms/train/meal0_sx347.ark:12
mkdt0_sx443 raw_TIMIT_200ms/train/mkdt0_sx443.ark:12
megj0_sx257 raw_TIMIT_200ms/train/megj0_sx257.ark:12
mded0_sx180 raw_TIMIT_200ms/train/mded0_sx180.ark:12
mtqc0_sx361 raw_TIMIT_200ms/train/mtqc0_sx361.ark:12
mtas0_sx125 raw_TIMIT_200ms/train/mtas0_sx125.ark:12
mbma1_sx414 raw_TIMIT_200ms/train/mbma1_sx414.ark:12
ftmg0_si1532 raw_TIMIT_200ms/train/ftmg0_si1532.ark:13
mree0_sx114 raw_TIMIT_200ms/train/mree0_sx114.ark:12
mhbs0_sx45 raw_TIMIT_200ms/train/mhbs0_sx45.ark:11
fsma0_si2251 raw_TIMIT_200ms/train/fsma0_si2251.ark:13
mewm0_si1978 raw_TIMIT_200ms/train/mewm0_si1978.ark:13
mgjc0_sx165 raw_TIMIT_200ms/train/mgjc0_sx165.ark:12
fcjf0_sx397 raw_TIMIT_200ms/train/fcjf0_sx397.ark:12
mdem0_sx158 raw_TIMIT_200ms/train/mdem0_sx158.ark:12
mtjg0_si890 raw_TIMIT_200ms/train/mtjg0_si890.ark:12
madc0_sx197 raw_TIMIT_200ms/train/madc0_sx197.ark:12
mcae0_si2077 raw_TIMIT_200ms/train/mcae0_si2077.ark:13
fdfb0_si1948 raw_TIMIT_200ms/train/fdfb0_si1948.ark:13
mvjh0_si2186 raw_TIMIT_200ms/train/mvjh0_si2186.ark:13
fgmb0_sx155 raw_TIMIT_200ms/train/fgmb0_sx155.ark:12
fnkl0_sx262 raw_TIMIT_200ms/train/fnkl0_sx262.ark:12
fpaz0_sx153 raw_TIMIT_200ms/train/fpaz0_sx153.ark:12
fpaz0_sx27 raw_TIMIT_200ms/train/fpaz0_sx27.ark:11
mjbg0_si1724 raw_TIMIT_200ms/train/mjbg0_si1724.ark:13
fsag0_si1953 raw_TIMIT_200ms/train/fsag0_si1953.ark:13
mwsb0_si1626 raw_TIMIT_200ms/train/mwsb0_si1626.ark:13
mrtc0_sx378 raw_TIMIT_200ms/train/mrtc0_sx378.ark:12
mbjv0_si1247 raw_TIMIT_200ms/train/mbjv0_si1247.ark:13
fsah0_si614 raw_TIMIT_200ms/train/fsah0_si614.ark:12
fbcg1_sx172 raw_TIMIT_200ms/train/fbcg1_sx172.ark:12
mklr0_sx249 raw_TIMIT_200ms/train/mklr0_sx249.ark:12
fnkl0_si1522 raw_TIMIT_200ms/train/fnkl0_si1522.ark:13
fdnc0_sx18 raw_TIMIT_200ms/train/fdnc0_sx18.ark:11
mtju0_sx130 raw_TIMIT_200ms/train/mtju0_sx130.ark:12
mjpg0_sx381 raw_TIMIT_200ms/train/mjpg0_sx381.ark:12
fltm0_sx440 raw_TIMIT_200ms/train/fltm0_sx440.ark:12
mmdb0_sx87 raw_TIMIT_200ms/train/mmdb0_sx87.ark:11
msas0_sx296 raw_TIMIT_200ms/train/msas0_sx296.ark:12
madc0_si1997 raw_TIMIT_200ms/train/madc0_si1997.ark:13
fmbg0_si2264 raw_TIMIT_200ms/train/fmbg0_si2264.ark:13
mjrh1_sx244 raw_TIMIT_200ms/train/mjrh1_sx244.ark:12
fljg0_sx171 raw_TIMIT_200ms/train/fljg0_sx171.ark:12
mmds0_sx83 raw_TIMIT_200ms/train/mmds0_sx83.ark:11
mmvp0_sx384 raw_TIMIT_200ms/train/mmvp0_sx384.ark:12
mdcd0_si2045 raw_TIMIT_200ms/train/mdcd0_si2045.ark:13
mmam0_sx247 raw_TIMIT_200ms/train/mmam0_sx247.ark:12
fdtd0_sx301 raw_TIMIT_200ms/train/fdtd0_sx301.ark:12
makb0_sx296 raw_TIMIT_200ms/train/makb0_sx296.ark:12
mrwa0_sx73 raw_TIMIT_200ms/train/mrwa0_sx73.ark:11
mprt0_si495 raw_TIMIT_200ms/train/mprt0_si495.ark:12
fajw0_si1893 raw_TIMIT_200ms/train/fajw0_si1893.ark:13
mdpk0_sx423 raw_TIMIT_200ms/train/mdpk0_sx423.ark:12
mdac0_si631 raw_TIMIT_200ms/train/mdac0_si631.ark:12
fdas1_sx201 raw_TIMIT_200ms/train/fdas1_sx201.ark:12
mrso0_sx309 raw_TIMIT_200ms/train/mrso0_sx309.ark:12
mtkd0_sx197 raw_TIMIT_200ms/train/mtkd0_sx197.ark:12
fmju0_sx219 raw_TIMIT_200ms/train/fmju0_sx219.ark:12
flja0_sx268 raw_TIMIT_200ms/train/flja0_sx268.ark:12
mjkr0_sx211 raw_TIMIT_200ms/train/mjkr0_sx211.ark:12
fbch0_si956 raw_TIMIT_200ms/train/fbch0_si956.ark:12
mdlm0_sx334 raw_TIMIT_200ms/train/mdlm0_sx334.ark:12
mjjb0_si1277 raw_TIMIT_200ms/train/mjjb0_si1277.ark:13
fjrb0_sx312 raw_TIMIT_200ms/train/fjrb0_sx312.ark:12
fcag0_sx243 raw_TIMIT_200ms/train/fcag0_sx243.ark:12
mtrt0_si597 raw_TIMIT_200ms/train/mtrt0_si597.ark:12
fsjw0_si1963 raw_TIMIT_200ms/train/fsjw0_si1963.ark:13
mbcg0_si2217 raw_TIMIT_200ms/train/mbcg0_si2217.ark:13
mmbs0_si521 raw_TIMIT_200ms/train/mmbs0_si521.ark:12
mmar0_si1336 raw_TIMIT_200ms/train/mmar0_si1336.ark:13
fsma0_si991 raw_TIMIT_200ms/train/fsma0_si991.ark:12
msfv0_sx362 raw_TIMIT_200ms/train/msfv0_sx362.ark:12
mrjb1_sx30 raw_TIMIT_200ms/train/mrjb1_sx30.ark:11
mcss0_si688 raw_TIMIT_200ms/train/mcss0_si688.ark:12
mprt0_si1210 raw_TIMIT_200ms/train/mprt0_si1210.ark:13
fecd0_sx68 raw_TIMIT_200ms/train/fecd0_sx68.ark:11
fclt0_sx268 raw_TIMIT_200ms/train/fclt0_sx268.ark:12
mmar0_si706 raw_TIMIT_200ms/train/mmar0_si706.ark:12
mmrp0_sx144 raw_TIMIT_200ms/train/mmrp0_sx144.ark:12
fbas0_sx127 raw_TIMIT_200ms/train/fbas0_sx127.ark:12
freh0_si1315 raw_TIMIT_200ms/train/freh0_si1315.ark:13
fjrb0_si1302 raw_TIMIT_200ms/train/fjrb0_si1302.ark:13
mdbb1_sx196 raw_TIMIT_200ms/train/mdbb1_sx196.ark:12
fksr0_si1747 raw_TIMIT_200ms/train/fksr0_si1747.ark:13
mtpp0_sx248 raw_TIMIT_200ms/train/mtpp0_sx248.ark:12
mdmt0_sx392 raw_TIMIT_200ms/train/mdmt0_sx392.ark:12
mgar0_sx222 raw_TIMIT_200ms/train/mgar0_sx222.ark:12
mrdd0_si1680 raw_TIMIT_200ms/train/mrdd0_si1680.ark:13
mmgk0_sx152 raw_TIMIT_200ms/train/mmgk0_sx152.ark:12
mejl0_sx422 raw_TIMIT_200ms/train/mejl0_sx422.ark:12
mgsl0_sx444 raw_TIMIT_200ms/train/mgsl0_sx444.ark:12
mmcc0_sx438 raw_TIMIT_200ms/train/mmcc0_sx438.ark:12
fpac0_sx31 raw_TIMIT_200ms/train/fpac0_sx31.ark:11
mrdm0_si965 raw_TIMIT_200ms/train/mrdm0_si965.ark:12
fscn0_si626 raw_TIMIT_200ms/train/fscn0_si626.ark:12
mlns0_si1407 raw_TIMIT_200ms/train/mlns0_si1407.ark:13
fgdp0_sx268 raw_TIMIT_200ms/train/fgdp0_sx268.ark:12
mdlr0_sx333 raw_TIMIT_200ms/train/mdlr0_sx333.ark:12
mpeb0_sx240 raw_TIMIT_200ms/train/mpeb0_sx240.ark:12
ftlg0_sx393 raw_TIMIT_200ms/train/ftlg0_sx393.ark:12
mgrl0_sx417 raw_TIMIT_200ms/train/mgrl0_sx417.ark:12
fclt0_sx448 raw_TIMIT_200ms/train/fclt0_sx448.ark:12
mmds0_sx443 raw_TIMIT_200ms/train/mmds0_sx443.ark:12
ftaj0_sx69 raw_TIMIT_200ms/train/ftaj0_sx69.ark:11
fbcg1_sx262 raw_TIMIT_200ms/train/fbcg1_sx262.ark:12
fear0_sx262 raw_TIMIT_200ms/train/fear0_sx262.ark:12
mmbs0_sx341 raw_TIMIT_200ms/train/mmbs0_sx341.ark:12
mgag0_sx151 raw_TIMIT_200ms/train/mgag0_sx151.ark:12
mmeb0_sx7 raw_TIMIT_200ms/train/mmeb0_sx7.ark:10
makr0_sx272 raw_TIMIT_200ms/train/makr0_sx272.ark:12
mmxs0_sx246 raw_TIMIT_200ms/train/mmxs0_sx246.ark:12
fcke0_si1111 raw_TIMIT_200ms/train/fcke0_si1111.ark:13
mses0_sx419 raw_TIMIT_200ms/train/mses0_sx419.ark:12
fetb0_si1148 raw_TIMIT_200ms/train/fetb0_si1148.ark:13
msfh0_si1738 raw_TIMIT_200ms/train/msfh0_si1738.ark:13
mdma0_si1238 raw_TIMIT_200ms/train/mdma0_si1238.ark:13
fecd0_sx248 raw_TIMIT_200ms/train/fecd0_sx248.ark:12
mcdr0_sx344 raw_TIMIT_200ms/train/mcdr0_sx344.ark:12
mpsw0_sx77 raw_TIMIT_200ms/train/mpsw0_sx77.ark:11
mdsj0_sx22 raw_TIMIT_200ms/train/mdsj0_sx22.ark:11
mtrt0_sx254 raw_TIMIT_200ms/train/mtrt0_sx254.ark:12
fklc1_sx328 raw_TIMIT_200ms/train/fklc1_sx328.ark:12
mcxm0_si1351 raw_TIMIT_200ms/train/mcxm0_si1351.ark:13
mmds0_sx353 raw_TIMIT_200ms/train/mmds0_sx353.ark:12
msas0_sx26 raw_TIMIT_200ms/train/msas0_sx26.ark:11
fcdr1_sx196 raw_TIMIT_200ms/train/fcdr1_sx196.ark:12
mrjm0_si1858 raw_TIMIT_200ms/train/mrjm0_si1858.ark:13
mgrp0_sx417 raw_TIMIT_200ms/train/mgrp0_sx417.ark:12
mclm0_sx376 raw_TIMIT_200ms/train/mclm0_sx376.ark:12
frjb0_si1794 raw_TIMIT_200ms/train/frjb0_si1794.ark:13
falk0_sx276 raw_TIMIT_200ms/train/falk0_sx276.ark:12
mdmt0_sx212 raw_TIMIT_200ms/train/mdmt0_sx212.ark:12
fklc1_si1678 raw_TIMIT_200ms/train/fklc1_si1678.ark:13
mctm0_sx450 raw_TIMIT_200ms/train/mctm0_sx450.ark:12
mmcc0_sx78 raw_TIMIT_200ms/train/mmcc0_sx78.ark:11
mcdd0_si1513 raw_TIMIT_200ms/train/mcdd0_si1513.ark:13
flac0_si901 raw_TIMIT_200ms/train/flac0_si901.ark:12
mdrd0_si2012 raw_TIMIT_200ms/train/mdrd0_si2012.ark:13
mdjm0_si2085 raw_TIMIT_200ms/train/mdjm0_si2085.ark:13
mklw0_si1844 raw_TIMIT_200ms/train/mklw0_si1844.ark:13
fgcs0_sx136 raw_TIMIT_200ms/train/fgcs0_sx136.ark:12
mfrm0_sx75 raw_TIMIT_200ms/train/mfrm0_sx75.ark:11
fmah1_sx69 raw_TIMIT_200ms/train/fmah1_sx69.ark:11
fbmj0_si1776 raw_TIMIT_200ms/train/fbmj0_si1776.ark:13
mkam0_si1316 raw_TIMIT_200ms/train/mkam0_si1316.ark:13
mdpk0_si1683 raw_TIMIT_200ms/train/mdpk0_si1683.ark:13
mtas0_sx215 raw_TIMIT_200ms/train/mtas0_sx215.ark:12
fjkl0_sx212 raw_TIMIT_200ms/train/fjkl0_sx212.ark:12
mwem0_sx60 raw_TIMIT_200ms/train/mwem0_sx60.ark:11
mzmb0_si1166 raw_TIMIT_200ms/train/mzmb0_si1166.ark:13
mefg0_si491 raw_TIMIT_200ms/train/mefg0_si491.ark:12
fcjs0_si1607 raw_TIMIT_200ms/train/fcjs0_si1607.ark:13
fhxs0_si2302 raw_TIMIT_200ms/train/fhxs0_si2302.ark:13
mzmb0_sx356 raw_TIMIT_200ms/train/mzmb0_sx356.ark:12
mrab1_si1478 raw_TIMIT_200ms/train/mrab1_si1478.ark:13
mrvg0_sx60 raw_TIMIT_200ms/train/mrvg0_sx60.ark:11
msdh0_sx350 raw_TIMIT_200ms/train/msdh0_sx350.ark:12
mdwd0_si557 raw_TIMIT_200ms/train/mdwd0_si557.ark:12
