mrjm0_sx148 raw_TIMIT_200ms/train/mrjm0_sx148.ark:12
mtlc0_si847 raw_TIMIT_200ms/train/mtlc0_si847.ark:12
mklw0_sx221 raw_TIMIT_200ms/train/mklw0_sx221.ark:12
mdmt0_sx302 raw_TIMIT_200ms/train/mdmt0_sx302.ark:12
mprd0_sx261 raw_TIMIT_200ms/train/mprd0_sx261.ark:12
fajw0_sx363 raw_TIMIT_200ms/train/fajw0_sx363.ark:12
fjlr0_si1231 raw_TIMIT_200ms/train/fjlr0_si1231.ark:13
fpaz0_sx153 raw_TIMIT_200ms/train/fpaz0_sx153.ark:12
fetb0_sx428 raw_TIMIT_200ms/train/fetb0_sx428.ark:12
mjws0_sx423 raw_TIMIT_200ms/train/mjws0_sx423.ark:12
fsjg0_sx220 raw_TIMIT_200ms/train/fsjg0_sx220.ark:12
feeh0_si471 raw_TIMIT_200ms/train/feeh0_si471.ark:12
fpls0_sx3 raw_TIMIT_200ms/train/fpls0_sx3.ark:10
fsjs0_si1171 raw_TIMIT_200ms/train/fsjs0_si1171.ark:13
fdas1_si831 raw_TIMIT_200ms/train/fdas1_si831.ark:12
mhmr0_sx399 raw_TIMIT_200ms/train/mhmr0_sx399.ark:12
mkln0_sx428 raw_TIMIT_200ms/train/mkln0_sx428.ark:12
fear0_sx82 raw_TIMIT_200ms/train/fear0_sx82.ark:11
fltm0_sx350 raw_TIMIT_200ms/train/fltm0_sx350.ark:12
mtjs0_sx112 raw_TIMIT_200ms/train/mtjs0_sx112.ark:12
flet0_sx147 raw_TIMIT_200ms/train/flet0_sx147.ark:12
mjma0_sx325 raw_TIMIT_200ms/train/mjma0_sx325.ark:12
mrjb1_sx30 raw_TIMIT_200ms/train/mrjb1_sx30.ark:11
fgrw0_sx342 raw_TIMIT_200ms/train/fgrw0_sx342.ark:12
fjlr0_si1861 raw_TIMIT_200ms/train/fjlr0_si1861.ark:13
mfxv0_si1635 raw_TIMIT_200ms/train/mfxv0_si1635.ark:13
mbwp0_si1969 raw_TIMIT_200ms/train/mbwp0_si1969.ark:13
mkln0_si968 raw_TIMIT_200ms/train/mkln0_si968.ark:12
mhmg0_sx285 raw_TIMIT_200ms/train/mhmg0_sx285.ark:12
msjk0_si2226 raw_TIMIT_200ms/train/msjk0_si2226.ark:13
mclm0_sx16 raw_TIMIT_200ms/train/mclm0_sx16.ark:11
mjws0_si1773 raw_TIMIT_200ms/train/mjws0_si1773.ark:13
fsjg0_si2200 raw_TIMIT_200ms/train/fsjg0_si2200.ark:13
mkxl0_si1958 raw_TIMIT_200ms/train/mkxl0_si1958.ark:13
fsjs0_sx271 raw_TIMIT_200ms/train/fsjs0_sx271.ark:12
mdhs0_si2160 raw_TIMIT_200ms/train/mdhs0_si2160.ark:13
mmvp0_sx204 raw_TIMIT_200ms/train/mmvp0_sx204.ark:12
fjlg0_si1889 raw_TIMIT_200ms/train/fjlg0_si1889.ark:13
mabc0_sx61 raw_TIMIT_200ms/train/mabc0_sx61.ark:11
flag0_sx204 raw_TIMIT_200ms/train/flag0_sx204.ark:12
mdcd0_si1415 raw_TIMIT_200ms/train/mdcd0_si1415.ark:13
mrmb0_sx321 raw_TIMIT_200ms/train/mrmb0_sx321.ark:12
mrab1_sx218 raw_TIMIT_200ms/train/mrab1_sx218.ark:12
mchl0_sx447 raw_TIMIT_200ms/train/mchl0_sx447.ark:12
ftbr0_si1402 raw_TIMIT_200ms/train/ftbr0_si1402.ark:13
fcyl0_sx127 raw_TIMIT_200ms/train/fcyl0_sx127.ark:12
mgrl0_si2127 raw_TIMIT_200ms/train/mgrl0_si2127.ark:13
mvrw0_sx135 raw_TIMIT_200ms/train/mvrw0_sx135.ark:12
mjmm0_sx85 raw_TIMIT_200ms/train/mjmm0_sx85.ark:11
mmbs0_sx71 raw_TIMIT_200ms/train/mmbs0_sx71.ark:11
mgag0_si1321 raw_TIMIT_200ms/train/mgag0_si1321.ark:13
fnkl0_sx262 raw_TIMIT_200ms/train/fnkl0_sx262.ark:12
mpar0_sx46 raw_TIMIT_200ms/train/mpar0_sx46.ark:11
fskp0_sx18 raw_TIMIT_200ms/train/fskp0_sx18.ark:11
flmk0_si1035 raw_TIMIT_200ms/train/flmk0_si1035.ark:13
mmaa0_si2105 raw_TIMIT_200ms/train/mmaa0_si2105.ark:13
fkaa0_sx398 raw_TIMIT_200ms/train/fkaa0_sx398.ark:12
mrai0_si792 raw_TIMIT_200ms/train/mrai0_si792.ark:12
mmar0_sx76 raw_TIMIT_200ms/train/mmar0_sx76.ark:11
mrsp0_sx169 raw_TIMIT_200ms/train/mrsp0_sx169.ark:12
mlsh0_sx67 raw_TIMIT_200ms/train/mlsh0_sx67.ark:11
fjsk0_sx422 raw_TIMIT_200ms/train/fjsk0_sx422.ark:12
mkdb0_sx152 raw_TIMIT_200ms/train/mkdb0_sx152.ark:12
mjkr0_sx121 raw_TIMIT_200ms/train/mjkr0_sx121.ark:12
mjfr0_sx345 raw_TIMIT_200ms/train/mjfr0_sx345.ark:12
mpfu0_si628 raw_TIMIT_200ms/train/mpfu0_si628.ark:12
mpar0_sx226 raw_TIMIT_200ms/train/mpar0_sx226.ark:12
fjhk0_sx32 raw_TIMIT_200ms/train/fjhk0_sx32.ark:11
fjxp0_sx312 raw_TIMIT_200ms/train/fjxp0_sx312.ark:12
fscn0_sx266 raw_TIMIT_200ms/train/fscn0_sx266.ark:12
mmgc0_sx135 raw_TIMIT_200ms/train/mmgc0_sx135.ark:12
mcss0_si750 raw_TIMIT_200ms/train/mcss0_si750.ark:12
mjda0_si2291 raw_TIMIT_200ms/train/mjda0_si2291.ark:13
fsak0_sx310 raw_TIMIT_200ms/train/fsak0_sx310.ark:12
mkdt0_sx353 raw_TIMIT_200ms/train/mkdt0_sx353.ark:12
msat0_si1526 raw_TIMIT_200ms/train/msat0_si1526.ark:13
mmdg0_sx430 raw_TIMIT_200ms/train/mmdg0_sx430.ark:12
ftaj0_sx159 raw_TIMIT_200ms/train/ftaj0_sx159.ark:12
mcdd0_sx253 raw_TIMIT_200ms/train/mcdd0_sx253.ark:12
mrtj0_sx142 raw_TIMIT_200ms/train/mrtj0_sx142.ark:12
msrr0_sx51 raw_TIMIT_200ms/train/msrr0_sx51.ark:11
mwsh0_sx256 raw_TIMIT_200ms/train/mwsh0_sx256.ark:12
fpaf0_sx244 raw_TIMIT_200ms/train/fpaf0_sx244.ark:12
mtbc0_si543 raw_TIMIT_200ms/train/mtbc0_si543.ark:12
mjpg0_si1191 raw_TIMIT_200ms/train/mjpg0_si1191.ark:13
mmsm0_si476 raw_TIMIT_200ms/train/mmsm0_si476.ark:12
madd0_sx178 raw_TIMIT_200ms/train/madd0_sx178.ark:12
mhxl0_si612 raw_TIMIT_200ms/train/mhxl0_si612.ark:12
mdbp0_sx438 raw_TIMIT_200ms/train/mdbp0_sx438.ark:12
mrjt0_sx238 raw_TIMIT_200ms/train/mrjt0_sx238.ark:12
mcdc0_sx302 raw_TIMIT_200ms/train/mcdc0_sx302.ark:12
makr0_si1982 raw_TIMIT_200ms/train/makr0_si1982.ark:13
majp0_si1704 raw_TIMIT_200ms/train/majp0_si1704.ark:13
fskp0_si1728 raw_TIMIT_200ms/train/fskp0_si1728.ark:13
fdmy0_sx297 raw_TIMIT_200ms/train/fdmy0_sx297.ark:12
mcre0_sx221 raw_TIMIT_200ms/train/mcre0_sx221.ark:12
mklw0_sx131 raw_TIMIT_200ms/train/mklw0_sx131.ark:12
mtjg0_sx80 raw_TIMIT_200ms/train/mtjg0_sx80.ark:11
madd0_si538 raw_TIMIT_200ms/train/madd0_si538.ark:12
flet0_si1137 raw_TIMIT_200ms/train/flet0_si1137.ark:13
mmwb0_si1619 raw_TIMIT_200ms/train/mmwb0_si1619.ark:13
flma0_sx163 raw_TIMIT_200ms/train/flma0_sx163.ark:12
mrfk0_sx356 raw_TIMIT_200ms/train/mrfk0_sx356.ark:12
fpab1_sx301 raw_TIMIT_200ms/train/fpab1_sx301.ark:12
mkls0_sx447 raw_TIMIT_200ms/train/mkls0_sx447.ark:12
madc0_sx377 raw_TIMIT_200ms/train/madc0_sx377.ark:12
ftbw0_si715 raw_TIMIT_200ms/train/ftbw0_si715.ark:12
fsma0_si2251 raw_TIMIT_200ms/train/fsma0_si2251.ark:13
fpjf0_sx56 raw_TIMIT_200ms/train/fpjf0_sx56.ark:11
fpab1_sx211 raw_TIMIT_200ms/train/fpab1_sx211.ark:12
mhjb0_si1017 raw_TIMIT_200ms/train/mhjb0_si1017.ark:13
fjsp0_sx264 raw_TIMIT_200ms/train/fjsp0_sx264.ark:12
mrdm0_sx65 raw_TIMIT_200ms/train/mrdm0_sx65.ark:11
mrtc0_si1458 raw_TIMIT_200ms/train/mrtc0_si1458.ark:13
fmkf0_sx6 raw_TIMIT_200ms/train/fmkf0_sx6.ark:10
mjpg0_sx291 raw_TIMIT_200ms/train/mjpg0_sx291.ark:12
fbch0_si1586 raw_TIMIT_200ms/train/fbch0_si1586.ark:13
mlsh0_sx247 raw_TIMIT_200ms/train/mlsh0_sx247.ark:12
fdas1_si1461 raw_TIMIT_200ms/train/fdas1_si1461.ark:13
mhjb0_sx387 raw_TIMIT_200ms/train/mhjb0_sx387.ark:12
mrtj0_sx322 raw_TIMIT_200ms/train/mrtj0_sx322.ark:12
mdpb0_sx146 raw_TIMIT_200ms/train/mdpb0_sx146.ark:12
mjmd0_si1028 raw_TIMIT_200ms/train/mjmd0_si1028.ark:13
msfv0_si1892 raw_TIMIT_200ms/train/msfv0_si1892.ark:13
fpaf0_sx334 raw_TIMIT_200ms/train/fpaf0_sx334.ark:12
mwem0_sx150 raw_TIMIT_200ms/train/mwem0_sx150.ark:12
mkes0_si1253 raw_TIMIT_200ms/train/mkes0_si1253.ark:13
mwre0_sx157 raw_TIMIT_200ms/train/mwre0_sx157.ark:12
mnet0_si1446 raw_TIMIT_200ms/train/mnet0_si1446.ark:13
majp0_sx444 raw_TIMIT_200ms/train/majp0_sx444.ark:12
fdas1_sx381 raw_TIMIT_200ms/train/fdas1_sx381.ark:12
fklc0_si1615 raw_TIMIT_200ms/train/fklc0_si1615.ark:13
mfxs0_sx324 raw_TIMIT_200ms/train/mfxs0_sx324.ark:12
mefg0_sx15 raw_TIMIT_200ms/train/mefg0_sx15.ark:11
mdwh0_sx305 raw_TIMIT_200ms/train/mdwh0_sx305.ark:12
fcjs0_si1607 raw_TIMIT_200ms/train/fcjs0_si1607.ark:13
fklh0_si1257 raw_TIMIT_200ms/train/fklh0_si1257.ark:13
fjlg0_sx449 raw_TIMIT_200ms/train/fjlg0_sx449.ark:12
falk0_sx366 raw_TIMIT_200ms/train/falk0_sx366.ark:12
madc0_si1367 raw_TIMIT_200ms/train/madc0_si1367.ark:13
mrdm0_si1044 raw_TIMIT_200ms/train/mrdm0_si1044.ark:13
fskc0_si2046 raw_TIMIT_200ms/train/fskc0_si2046.ark:13
mrml0_sx71 raw_TIMIT_200ms/train/mrml0_sx71.ark:11
mprk0_si1097 raw_TIMIT_200ms/train/mprk0_si1097.ark:13
mdma0_si1238 raw_TIMIT_200ms/train/mdma0_si1238.ark:13
mrab0_sx144 raw_TIMIT_200ms/train/mrab0_sx144.ark:12
mrld0_sx424 raw_TIMIT_200ms/train/mrld0_sx424.ark:12
mnet0_sx186 raw_TIMIT_200ms/train/mnet0_sx186.ark:12
mrmb0_si951 raw_TIMIT_200ms/train/mrmb0_si951.ark:12
fpls0_sx240 raw_TIMIT_200ms/train/fpls0_sx240.ark:12
mrjm0_si1095 raw_TIMIT_200ms/train/mrjm0_si1095.ark:13
fpaz0_sx423 raw_TIMIT_200ms/train/fpaz0_sx423.ark:12
mgaw0_sx445 raw_TIMIT_200ms/train/mgaw0_sx445.ark:12
mcdc0_si1922 raw_TIMIT_200ms/train/mcdc0_si1922.ark:13
mesj0_sx97 raw_TIMIT_200ms/train/mesj0_sx97.ark:11
mtat1_sx59 raw_TIMIT_200ms/train/mtat1_sx59.ark:11
msdb0_si1637 raw_TIMIT_200ms/train/msdb0_si1637.ark:13
fsbk0_si2329 raw_TIMIT_200ms/train/fsbk0_si2329.ark:13
mdpk0_si552 raw_TIMIT_200ms/train/mdpk0_si552.ark:12
fecd0_sx158 raw_TIMIT_200ms/train/fecd0_sx158.ark:12
mefg0_sx375 raw_TIMIT_200ms/train/mefg0_sx375.ark:12
mjrk0_sx250 raw_TIMIT_200ms/train/mjrk0_sx250.ark:12
mwdk0_sx266 raw_TIMIT_200ms/train/mwdk0_sx266.ark:12
mkls0_si1533 raw_TIMIT_200ms/train/mkls0_si1533.ark:13
mprt0_sx400 raw_TIMIT_200ms/train/mprt0_sx400.ark:12
fdtd0_sx121 raw_TIMIT_200ms/train/fdtd0_sx121.ark:12
mjeb1_sx297 raw_TIMIT_200ms/train/mjeb1_sx297.ark:12
mrvg0_sx150 raw_TIMIT_200ms/train/mrvg0_sx150.ark:12
mbma1_si2214 raw_TIMIT_200ms/train/mbma1_si2214.ark:13
mhjb0_sx27 raw_TIMIT_200ms/train/mhjb0_sx27.ark:11
mdns0_sx111 raw_TIMIT_200ms/train/mdns0_sx111.ark:12
mwsb0_si2256 raw_TIMIT_200ms/train/mwsb0_si2256.ark:13
mhit0_sx173 raw_TIMIT_200ms/train/mhit0_sx173.ark:12
mbom0_si2274 raw_TIMIT_200ms/train/mbom0_si2274.ark:13
fklh0_sx357 raw_TIMIT_200ms/train/fklh0_sx357.ark:12
mbma1_si2207 raw_TIMIT_200ms/train/mbma1_si2207.ark:13
mkjo0_sx424 raw_TIMIT_200ms/train/mkjo0_sx424.ark:12
mprb0_si1205 raw_TIMIT_200ms/train/mprb0_si1205.ark:13
fssb0_sx362 raw_TIMIT_200ms/train/fssb0_sx362.ark:12
mjkr0_si1831 raw_TIMIT_200ms/train/mjkr0_si1831.ark:13
mdma0_si1430 raw_TIMIT_200ms/train/mdma0_si1430.ark:13
mdks0_sx166 raw_TIMIT_200ms/train/mdks0_sx166.ark:12
mdlb0_sx316 raw_TIMIT_200ms/train/mdlb0_sx316.ark:12
msdh0_sx170 raw_TIMIT_200ms/train/msdh0_sx170.ark:12
fpad0_sx356 raw_TIMIT_200ms/train/fpad0_sx356.ark:12
mjjj0_sx173 raw_TIMIT_200ms/train/mjjj0_sx173.ark:12
mjjj0_si1163 raw_TIMIT_200ms/train/mjjj0_si1163.ark:13
mhit0_sx353 raw_TIMIT_200ms/train/mhit0_sx353.ark:12
mppc0_sx332 raw_TIMIT_200ms/train/mppc0_sx332.ark:12
mtml0_sx345 raw_TIMIT_200ms/train/mtml0_sx345.ark:12
fapb0_sx73 raw_TIMIT_200ms/train/fapb0_sx73.ark:11
mtjg0_si1520 raw_TIMIT_200ms/train/mtjg0_si1520.ark:13
fvkb0_si1159 raw_TIMIT_200ms/train/fvkb0_si1159.ark:13
mdks0_sx256 raw_TIMIT_200ms/train/mdks0_sx256.ark:12
mrxb0_si1585 raw_TIMIT_200ms/train/mrxb0_si1585.ark:13
medr0_sx24 raw_TIMIT_200ms/train/medr0_sx24.ark:11
mjsr0_sx344 raw_TIMIT_200ms/train/mjsr0_sx344.ark:12
mfxv0_sx15 raw_TIMIT_200ms/train/mfxv0_sx15.ark:11
mree0_sx204 raw_TIMIT_200ms/train/mree0_sx204.ark:12
mbom0_sx294 raw_TIMIT_200ms/train/mbom0_sx294.ark:12
mclm0_sx106 raw_TIMIT_200ms/train/mclm0_sx106.ark:12
mmws1_sx351 raw_TIMIT_200ms/train/mmws1_sx351.ark:12
fdml0_si1779 raw_TIMIT_200ms/train/fdml0_si1779.ark:13
mtat1_sx239 raw_TIMIT_200ms/train/mtat1_sx239.ark:12
faem0_si1392 raw_TIMIT_200ms/train/faem0_si1392.ark:13
msmr0_si1405 raw_TIMIT_200ms/train/msmr0_si1405.ark:13
mcpm0_sx384 raw_TIMIT_200ms/train/mcpm0_sx384.ark:12
mjmd0_sx218 raw_TIMIT_200ms/train/mjmd0_sx218.ark:12
fcjf0_sx397 raw_TIMIT_200ms/train/fcjf0_sx397.ark:12
mjeb0_si1916 raw_TIMIT_200ms/train/mjeb0_si1916.ark:13
mwsb0_sx186 raw_TIMIT_200ms/train/mwsb0_sx186.ark:12
mcef0_sx415 raw_TIMIT_200ms/train/mcef0_sx415.ark:12
mjwg0_si895 raw_TIMIT_200ms/train/mjwg0_si895.ark:12
fnkl0_si1522 raw_TIMIT_200ms/train/fnkl0_si1522.ark:13
mbom0_sx311 raw_TIMIT_200ms/train/mbom0_sx311.ark:12
msah1_sx239 raw_TIMIT_200ms/train/msah1_sx239.ark:12
feac0_sx75 raw_TIMIT_200ms/train/feac0_sx75.ark:11
madc0_si737 raw_TIMIT_200ms/train/madc0_si737.ark:12
mkdb0_sx422 raw_TIMIT_200ms/train/mkdb0_sx422.ark:12
mmar0_si706 raw_TIMIT_200ms/train/mmar0_si706.ark:12
mrms0_si2100 raw_TIMIT_200ms/train/mrms0_si2100.ark:13
mded0_si1170 raw_TIMIT_200ms/train/mded0_si1170.ark:13
mjai0_sx254 raw_TIMIT_200ms/train/mjai0_sx254.ark:12
mddc0_sx429 raw_TIMIT_200ms/train/mddc0_sx429.ark:12
mmrp0_sx324 raw_TIMIT_200ms/train/mmrp0_sx324.ark:12
mkdd0_si1567 raw_TIMIT_200ms/train/mkdd0_si1567.ark:13
mbjv0_sx437 raw_TIMIT_200ms/train/mbjv0_sx437.ark:12
fljg0_sx441 raw_TIMIT_200ms/train/fljg0_sx441.ark:12
fcdr1_sx196 raw_TIMIT_200ms/train/fcdr1_sx196.ark:12
mrpc1_sx222 raw_TIMIT_200ms/train/mrpc1_sx222.ark:12
fjsp0_sx444 raw_TIMIT_200ms/train/fjsp0_sx444.ark:12
mgaf0_sx112 raw_TIMIT_200ms/train/mgaf0_sx112.ark:12
mbcg0_sx147 raw_TIMIT_200ms/train/mbcg0_sx147.ark:12
mree0_si1959 raw_TIMIT_200ms/train/mree0_si1959.ark:13
mter0_sx167 raw_TIMIT_200ms/train/mter0_sx167.ark:12
mges0_si851 raw_TIMIT_200ms/train/mges0_si851.ark:12
fleh0_si1051 raw_TIMIT_200ms/train/fleh0_si1051.ark:13
fcaj0_si1479 raw_TIMIT_200ms/train/fcaj0_si1479.ark:13
mtlc0_sx307 raw_TIMIT_200ms/train/mtlc0_sx307.ark:12
mdss1_sx427 raw_TIMIT_200ms/train/mdss1_sx427.ark:12
faem0_si2022 raw_TIMIT_200ms/train/faem0_si2022.ark:13
fjsk0_si1052 raw_TIMIT_200ms/train/fjsk0_si1052.ark:13
flma0_sx433 raw_TIMIT_200ms/train/flma0_sx433.ark:12
msfv0_si632 raw_TIMIT_200ms/train/msfv0_si632.ark:12
mrcw0_sx291 raw_TIMIT_200ms/train/mrcw0_sx291.ark:12
mwre0_sx67 raw_TIMIT_200ms/train/mwre0_sx67.ark:11
majp0_si2334 raw_TIMIT_200ms/train/majp0_si2334.ark:13
mrab0_si594 raw_TIMIT_200ms/train/mrab0_si594.ark:12
mdwd0_sx450 raw_TIMIT_200ms/train/mdwd0_sx450.ark:12
fgmb0_sx155 raw_TIMIT_200ms/train/fgmb0_sx155.ark:12
mhmr0_sx219 raw_TIMIT_200ms/train/mhmr0_sx219.ark:12
mcdd0_sx163 raw_TIMIT_200ms/train/mcdd0_sx163.ark:12
fkde0_si2221 raw_TIMIT_200ms/train/fkde0_si2221.ark:13
fbcg1_si2242 raw_TIMIT_200ms/train/fbcg1_si2242.ark:13
fvmh0_sx26 raw_TIMIT_200ms/train/fvmh0_sx26.ark:11
mjxl0_sx452 raw_TIMIT_200ms/train/mjxl0_sx452.ark:12
fcyl0_sx217 raw_TIMIT_200ms/train/fcyl0_sx217.ark:12
mclk0_sx130 raw_TIMIT_200ms/train/mclk0_sx130.ark:12
msas0_sx206 raw_TIMIT_200ms/train/msas0_sx206.ark:12
madd0_si1295 raw_TIMIT_200ms/train/madd0_si1295.ark:13
msfv0_sx92 raw_TIMIT_200ms/train/msfv0_sx92.ark:11
medr0_si1374 raw_TIMIT_200ms/train/medr0_si1374.ark:13
mgak0_si1666 raw_TIMIT_200ms/train/mgak0_si1666.ark:13
mwdk0_sx356 raw_TIMIT_200ms/train/mwdk0_sx356.ark:12
ftbw0_sx85 raw_TIMIT_200ms/train/ftbw0_sx85.ark:11
mafm0_sx399 raw_TIMIT_200ms/train/mafm0_sx399.ark:12
ftlg0_sx213 raw_TIMIT_200ms/train/ftlg0_sx213.ark:12
fmjb0_sx277 raw_TIMIT_200ms/train/fmjb0_sx277.ark:12
fpaf0_si1684 raw_TIMIT_200ms/train/fpaf0_si1684.ark:13
fjkl0_sx392 raw_TIMIT_200ms/train/fjkl0_sx392.ark:12
mctm0_si720 raw_TIMIT_200ms/train/mctm0_si720.ark:12
fcdr1_sx106 raw_TIMIT_200ms/train/fcdr1_sx106.ark:12
mcth0_sx309 raw_TIMIT_200ms/train/mcth0_sx309.ark:12
mhxl0_sx152 raw_TIMIT_200ms/train/mhxl0_sx152.ark:12
mdsj0_si2092 raw_TIMIT_200ms/train/mdsj0_si2092.ark:13
mtpg0_sx123 raw_TIMIT_200ms/train/mtpg0_sx123.ark:12
flmc0_si2002 raw_TIMIT_200ms/train/flmc0_si2002.ark:13
mkdt0_sx443 raw_TIMIT_200ms/train/mkdt0_sx443.ark:12
mdwd0_sx180 raw_TIMIT_200ms/train/mdwd0_sx180.ark:12
mwem0_si1950 raw_TIMIT_200ms/train/mwem0_si1950.ark:13
mtjs0_sx292 raw_TIMIT_200ms/train/mtjs0_sx292.ark:12
mrmh0_sx121 raw_TIMIT_200ms/train/mrmh0_sx121.ark:12
mprd0_sx81 raw_TIMIT_200ms/train/mprd0_sx81.ark:11
mtpf0_si1865 raw_TIMIT_200ms/train/mtpf0_si1865.ark:13
flmk0_si1229 raw_TIMIT_200ms/train/flmk0_si1229.ark:13
fsdj0_si1745 raw_TIMIT_200ms/train/fsdj0_si1745.ark:13
frll0_si1514 raw_TIMIT_200ms/train/frll0_si1514.ark:13
fjxp0_sx402 raw_TIMIT_200ms/train/fjxp0_sx402.ark:12
fhxs0_si2335 raw_TIMIT_200ms/train/fhxs0_si2335.ark:13
fklc0_sx175 raw_TIMIT_200ms/train/fklc0_sx175.ark:12
fsak0_sx130 raw_TIMIT_200ms/train/fsak0_sx130.ark:12
fjrp1_sx82 raw_TIMIT_200ms/train/fjrp1_sx82.ark:11
flmc0_si742 raw_TIMIT_200ms/train/flmc0_si742.ark:12
mcdd0_sx343 raw_TIMIT_200ms/train/mcdd0_sx343.ark:12
mabc0_sx421 raw_TIMIT_200ms/train/mabc0_sx421.ark:12
fmkc0_si1072 raw_TIMIT_200ms/train/fmkc0_si1072.ark:13
fetb0_sx158 raw_TIMIT_200ms/train/fetb0_sx158.ark:12
mrem0_sx61 raw_TIMIT_200ms/train/mrem0_sx61.ark:11
meal0_si2177 raw_TIMIT_200ms/train/meal0_si2177.ark:13
mrml0_si2051 raw_TIMIT_200ms/train/mrml0_si2051.ark:13
fcrz0_si793 raw_TIMIT_200ms/train/fcrz0_si793.ark:12
mwar0_si2305 raw_TIMIT_200ms/train/mwar0_si2305.ark:13
mdem0_si1868 raw_TIMIT_200ms/train/mdem0_si1868.ark:13
majp0_sx264 raw_TIMIT_200ms/train/majp0_sx264.ark:12
mstf0_sx316 raw_TIMIT_200ms/train/mstf0_sx316.ark:12
mtbc0_sx183 raw_TIMIT_200ms/train/mtbc0_sx183.ark:12
mdmt0_si2341 raw_TIMIT_200ms/train/mdmt0_si2341.ark:13
mter0_si527 raw_TIMIT_200ms/train/mter0_si527.ark:12
mbml0_si1799 raw_TIMIT_200ms/train/mbml0_si1799.ark:13
mtkd0_si1187 raw_TIMIT_200ms/train/mtkd0_si1187.ark:13
frll0_sx74 raw_TIMIT_200ms/train/frll0_sx74.ark:11
mdrd0_si752 raw_TIMIT_200ms/train/mdrd0_si752.ark:12
mgsh0_si1176 raw_TIMIT_200ms/train/mgsh0_si1176.ark:13
mrlj1_si2332 raw_TIMIT_200ms/train/mrlj1_si2332.ark:13
mbcg0_sx417 raw_TIMIT_200ms/train/mbcg0_sx417.ark:12
mbjv0_si617 raw_TIMIT_200ms/train/mbjv0_si617.ark:12
mrai0_sx252 raw_TIMIT_200ms/train/mrai0_sx252.ark:12
flod0_sx171 raw_TIMIT_200ms/train/flod0_sx171.ark:12
mprb0_si575 raw_TIMIT_200ms/train/mprb0_si575.ark:12
mapv0_si1293 raw_TIMIT_200ms/train/mapv0_si1293.ark:13
mmgc0_si2184 raw_TIMIT_200ms/train/mmgc0_si2184.ark:13
mmam0_si1668 raw_TIMIT_200ms/train/mmam0_si1668.ark:13
fjrp1_sx442 raw_TIMIT_200ms/train/fjrp1_sx442.ark:12
mhrm0_si2218 raw_TIMIT_200ms/train/mhrm0_si2218.ark:13
fsbk0_sx439 raw_TIMIT_200ms/train/fsbk0_sx439.ark:12
freh0_sx145 raw_TIMIT_200ms/train/freh0_sx145.ark:12
mmdb0_sx447 raw_TIMIT_200ms/train/mmdb0_sx447.ark:12
mbar0_si689 raw_TIMIT_200ms/train/mbar0_si689.ark:12
mclk0_sx400 raw_TIMIT_200ms/train/mclk0_sx400.ark:12
fpad0_sx446 raw_TIMIT_200ms/train/fpad0_sx446.ark:12
mjeb1_sx207 raw_TIMIT_200ms/train/mjeb1_sx207.ark:12
mdbp0_si1788 raw_TIMIT_200ms/train/mdbp0_si1788.ark:13
mdcm0_sx40 raw_TIMIT_200ms/train/mdcm0_sx40.ark:11
mjrh0_sx45 raw_TIMIT_200ms/train/mjrh0_sx45.ark:11
fblv0_sx248 raw_TIMIT_200ms/train/fblv0_sx248.ark:12
mtas0_sx305 raw_TIMIT_200ms/train/mtas0_sx305.ark:12
mrvg0_sx60 raw_TIMIT_200ms/train/mrvg0_sx60.ark:11
mjjb0_si1139 raw_TIMIT_200ms/train/mjjb0_si1139.ark:13
mntw0_si2328 raw_TIMIT_200ms/train/mntw0_si2328.ark:13
mdjm0_sx375 raw_TIMIT_200ms/train/mdjm0_sx375.ark:12
mwsb0_si996 raw_TIMIT_200ms/train/mwsb0_si996.ark:12
mwsb0_sx276 raw_TIMIT_200ms/train/mwsb0_sx276.ark:12
fjxm0_sx401 raw_TIMIT_200ms/train/fjxm0_sx401.ark:12
mrwa0_si1603 raw_TIMIT_200ms/train/mrwa0_si1603.ark:13
fjhk0_sx392 raw_TIMIT_200ms/train/fjhk0_sx392.ark:12
mdks0_sx436 raw_TIMIT_200ms/train/mdks0_sx436.ark:12
mtcs0_si1972 raw_TIMIT_200ms/train/mtcs0_si1972.ark:13
mabc0_si1620 raw_TIMIT_200ms/train/mabc0_si1620.ark:13
mbbr0_sx245 raw_TIMIT_200ms/train/mbbr0_sx245.ark:12
fsls0_si1056 raw_TIMIT_200ms/train/fsls0_si1056.ark:13
mmdm1_sx153 raw_TIMIT_200ms/train/mmdm1_sx153.ark:12
mtkp0_si2283 raw_TIMIT_200ms/train/mtkp0_si2283.ark:13
mkes0_sx83 raw_TIMIT_200ms/train/mkes0_sx83.ark:11
fkde0_sx331 raw_TIMIT_200ms/train/fkde0_sx331.ark:12
mmbs0_sx341 raw_TIMIT_200ms/train/mmbs0_sx341.ark:12
mlel0_si1246 raw_TIMIT_200ms/train/mlel0_si1246.ark:13
fjwb1_sx165 raw_TIMIT_200ms/train/fjwb1_sx165.ark:12
mjrh1_si514 raw_TIMIT_200ms/train/mjrh1_si514.ark:12
mcre0_sx131 raw_TIMIT_200ms/train/mcre0_sx131.ark:12
mmgg0_sx89 raw_TIMIT_200ms/train/mmgg0_sx89.ark:11
mgsh0_sx186 raw_TIMIT_200ms/train/mgsh0_sx186.ark:12
fleh0_sx421 raw_TIMIT_200ms/train/fleh0_sx421.ark:12
fmmh0_sx367 raw_TIMIT_200ms/train/fmmh0_sx367.ark:12
mmag0_sx406 raw_TIMIT_200ms/train/mmag0_sx406.ark:12
mprk0_sx287 raw_TIMIT_200ms/train/mprk0_sx287.ark:12
fjkl0_sx32 raw_TIMIT_200ms/train/fjkl0_sx32.ark:11
fspm0_sx251 raw_TIMIT_200ms/train/fspm0_sx251.ark:12
mrjh0_sx169 raw_TIMIT_200ms/train/mrjh0_sx169.ark:12
mrre0_si1334 raw_TIMIT_200ms/train/mrre0_si1334.ark:13
mdbp0_sx348 raw_TIMIT_200ms/train/mdbp0_sx348.ark:12
