mbth0_si505 raw_TIMIT_200ms/train/mbth0_si505.ark:12
mhjb0_sx297 raw_TIMIT_200ms/train/mhjb0_sx297.ark:12
mpar0_si2206 raw_TIMIT_200ms/train/mpar0_si2206.ark:13
mwgr0_si2236 raw_TIMIT_200ms/train/mwgr0_si2236.ark:13
mmdm0_si681 raw_TIMIT_200ms/train/mmdm0_si681.ark:12
fcke0_si1741 raw_TIMIT_200ms/train/fcke0_si1741.ark:13
mjkr0_sx301 raw_TIMIT_200ms/train/mjkr0_sx301.ark:12
majp0_si1704 raw_TIMIT_200ms/train/majp0_si1704.ark:13
fsrh0_sx401 raw_TIMIT_200ms/train/fsrh0_sx401.ark:12
fjlr0_sx61 raw_TIMIT_200ms/train/fjlr0_sx61.ark:11
fskc0_sx66 raw_TIMIT_200ms/train/fskc0_sx66.ark:11
msmr0_sx145 raw_TIMIT_200ms/train/msmr0_sx145.ark:12
mtlb0_sx234 raw_TIMIT_200ms/train/mtlb0_sx234.ark:12
msfh0_si1216 raw_TIMIT_200ms/train/msfh0_si1216.ark:13
marw0_sx16 raw_TIMIT_200ms/train/marw0_sx16.ark:11
mkdd0_sx127 raw_TIMIT_200ms/train/mkdd0_sx127.ark:12
fkdw0_si1891 raw_TIMIT_200ms/train/fkdw0_si1891.ark:13
mrjh0_si914 raw_TIMIT_200ms/train/mrjh0_si914.ark:12
fsgf0_si2187 raw_TIMIT_200ms/train/fsgf0_si2187.ark:13
fmem0_si2007 raw_TIMIT_200ms/train/fmem0_si2007.ark:13
mmws0_sx438 raw_TIMIT_200ms/train/mmws0_sx438.ark:12
mdjm0_si1455 raw_TIMIT_200ms/train/mdjm0_si1455.ark:13
mmlm0_sx357 raw_TIMIT_200ms/train/mmlm0_sx357.ark:12
mcew0_sx362 raw_TIMIT_200ms/train/mcew0_sx362.ark:12
flac0_si2161 raw_TIMIT_200ms/train/flac0_si2161.ark:13
mbma1_sx414 raw_TIMIT_200ms/train/mbma1_sx414.ark:12
fpab1_sx211 raw_TIMIT_200ms/train/fpab1_sx211.ark:12
fsdj0_sx35 raw_TIMIT_200ms/train/fsdj0_sx35.ark:11
mgjc0_si1256 raw_TIMIT_200ms/train/mgjc0_si1256.ark:13
mbjv0_si1247 raw_TIMIT_200ms/train/mbjv0_si1247.ark:13
mdps0_si1651 raw_TIMIT_200ms/train/mdps0_si1651.ark:13
fdtd0_sx391 raw_TIMIT_200ms/train/fdtd0_sx391.ark:12
fljg0_si981 raw_TIMIT_200ms/train/fljg0_si981.ark:12
fsjs0_sx271 raw_TIMIT_200ms/train/fsjs0_sx271.ark:12
fetb0_sx428 raw_TIMIT_200ms/train/fetb0_sx428.ark:12
mdcm0_si1480 raw_TIMIT_200ms/train/mdcm0_si1480.ark:13
mdma0_sx80 raw_TIMIT_200ms/train/mdma0_sx80.ark:11
fkde0_si1141 raw_TIMIT_200ms/train/fkde0_si1141.ark:13
mwsb0_si996 raw_TIMIT_200ms/train/mwsb0_si996.ark:12
mwad0_si2322 raw_TIMIT_200ms/train/mwad0_si2322.ark:13
mrdm0_sx155 raw_TIMIT_200ms/train/mrdm0_sx155.ark:12
fcaj0_sx399 raw_TIMIT_200ms/train/fcaj0_sx399.ark:12
mrre0_sx344 raw_TIMIT_200ms/train/mrre0_sx344.ark:12
mjbg0_sx422 raw_TIMIT_200ms/train/mjbg0_sx422.ark:12
mljh0_si694 raw_TIMIT_200ms/train/mljh0_si694.ark:12
mtat1_si779 raw_TIMIT_200ms/train/mtat1_si779.ark:12
mdas0_si636 raw_TIMIT_200ms/train/mdas0_si636.ark:12
mdjm0_si2085 raw_TIMIT_200ms/train/mdjm0_si2085.ark:13
mmdg0_si2035 raw_TIMIT_200ms/train/mmdg0_si2035.ark:13
mtlb0_si1764 raw_TIMIT_200ms/train/mtlb0_si1764.ark:13
mjma0_sx145 raw_TIMIT_200ms/train/mjma0_sx145.ark:12
mrjt0_si1498 raw_TIMIT_200ms/train/mrjt0_si1498.ark:13
mrre0_si952 raw_TIMIT_200ms/train/mrre0_si952.ark:12
mwsb0_sx276 raw_TIMIT_200ms/train/mwsb0_sx276.ark:12
mmpm0_si2321 raw_TIMIT_200ms/train/mmpm0_si2321.ark:13
mtdp0_si1274 raw_TIMIT_200ms/train/mtdp0_si1274.ark:13
mjeb1_sx297 raw_TIMIT_200ms/train/mjeb1_sx297.ark:12
mcdd0_si883 raw_TIMIT_200ms/train/mcdd0_si883.ark:12
mvrw0_sx225 raw_TIMIT_200ms/train/mvrw0_sx225.ark:12
mtqc0_si480 raw_TIMIT_200ms/train/mtqc0_si480.ark:12
mkxl0_sx195 raw_TIMIT_200ms/train/mkxl0_sx195.ark:12
mfwk0_sx79 raw_TIMIT_200ms/train/mfwk0_sx79.ark:11
marc0_sx198 raw_TIMIT_200ms/train/marc0_sx198.ark:12
mjdc0_si2165 raw_TIMIT_200ms/train/mjdc0_si2165.ark:13
fbmh0_si1136 raw_TIMIT_200ms/train/fbmh0_si1136.ark:13
flod0_sx387 raw_TIMIT_200ms/train/flod0_sx387.ark:12
mrld0_sx334 raw_TIMIT_200ms/train/mrld0_sx334.ark:12
fklh0_sx267 raw_TIMIT_200ms/train/fklh0_sx267.ark:12
fdxw0_sx161 raw_TIMIT_200ms/train/fdxw0_sx161.ark:12
mdem0_si1868 raw_TIMIT_200ms/train/mdem0_si1868.ark:13
meal0_si917 raw_TIMIT_200ms/train/meal0_si917.ark:12
mejl0_si1592 raw_TIMIT_200ms/train/mejl0_si1592.ark:13
mcxm0_sx91 raw_TIMIT_200ms/train/mcxm0_sx91.ark:11
mrjm1_sx128 raw_TIMIT_200ms/train/mrjm1_sx128.ark:12
mdns0_sx291 raw_TIMIT_200ms/train/mdns0_sx291.ark:12
faem0_sx42 raw_TIMIT_200ms/train/faem0_sx42.ark:11
fklc0_si985 raw_TIMIT_200ms/train/fklc0_si985.ark:12
makr0_si1352 raw_TIMIT_200ms/train/makr0_si1352.ark:13
mdrd0_sx392 raw_TIMIT_200ms/train/mdrd0_sx392.ark:12
fvmh0_si1466 raw_TIMIT_200ms/train/fvmh0_si1466.ark:13
mprd0_sx441 raw_TIMIT_200ms/train/mprd0_sx441.ark:12
mkam0_sx146 raw_TIMIT_200ms/train/mkam0_sx146.ark:12
mtlb0_sx144 raw_TIMIT_200ms/train/mtlb0_sx144.ark:12
mrdm0_sx425 raw_TIMIT_200ms/train/mrdm0_sx425.ark:12
mdcd0_si1415 raw_TIMIT_200ms/train/mdcd0_si1415.ark:13
mlel0_sx256 raw_TIMIT_200ms/train/mlel0_sx256.ark:12
fvkb0_sx259 raw_TIMIT_200ms/train/fvkb0_sx259.ark:12
frll0_si1514 raw_TIMIT_200ms/train/frll0_si1514.ark:13
msds0_si1077 raw_TIMIT_200ms/train/msds0_si1077.ark:13
fjxm0_sx401 raw_TIMIT_200ms/train/fjxm0_sx401.ark:12
mwrp0_sx183 raw_TIMIT_200ms/train/mwrp0_sx183.ark:12
mwre0_si1687 raw_TIMIT_200ms/train/mwre0_si1687.ark:13
mrml0_si2051 raw_TIMIT_200ms/train/mrml0_si2051.ark:13
mkaj0_sx64 raw_TIMIT_200ms/train/mkaj0_sx64.ark:11
mapv0_si663 raw_TIMIT_200ms/train/mapv0_si663.ark:12
mbml0_si1799 raw_TIMIT_200ms/train/mbml0_si1799.ark:13
mmgg0_sx359 raw_TIMIT_200ms/train/mmgg0_sx359.ark:12
mtpp0_si2138 raw_TIMIT_200ms/train/mtpp0_si2138.ark:13
mbcg0_sx327 raw_TIMIT_200ms/train/mbcg0_sx327.ark:12
mrtc0_sx18 raw_TIMIT_200ms/train/mrtc0_sx18.ark:11
fssb0_si1712 raw_TIMIT_200ms/train/fssb0_si1712.ark:13
mrew1_sx60 raw_TIMIT_200ms/train/mrew1_sx60.ark:11
makr0_sx182 raw_TIMIT_200ms/train/makr0_sx182.ark:12
mfmc0_si502 raw_TIMIT_200ms/train/mfmc0_si502.ark:12
mmar0_sx256 raw_TIMIT_200ms/train/mmar0_sx256.ark:12
mses0_si2216 raw_TIMIT_200ms/train/mses0_si2216.ark:13
mtjg0_sx80 raw_TIMIT_200ms/train/mtjg0_sx80.ark:11
mjhi0_sx158 raw_TIMIT_200ms/train/mjhi0_sx158.ark:12
mgrp0_sx237 raw_TIMIT_200ms/train/mgrp0_sx237.ark:12
mjrh1_sx64 raw_TIMIT_200ms/train/mjrh1_sx64.ark:11
fapb0_si1693 raw_TIMIT_200ms/train/fapb0_si1693.ark:13
feeh0_si1742 raw_TIMIT_200ms/train/feeh0_si1742.ark:13
mjdc0_sx81 raw_TIMIT_200ms/train/mjdc0_sx81.ark:11
fjkl0_sx302 raw_TIMIT_200ms/train/fjkl0_sx302.ark:12
mrcg0_si2058 raw_TIMIT_200ms/train/mrcg0_si2058.ark:13
mrmb0_sx321 raw_TIMIT_200ms/train/mrmb0_sx321.ark:12
mpgr1_sx239 raw_TIMIT_200ms/train/mpgr1_sx239.ark:12
fsdj0_sx215 raw_TIMIT_200ms/train/fsdj0_sx215.ark:12
mjrp0_si1845 raw_TIMIT_200ms/train/mjrp0_si1845.ark:13
mdlc0_sx405 raw_TIMIT_200ms/train/mdlc0_sx405.ark:12
mdss1_sx337 raw_TIMIT_200ms/train/mdss1_sx337.ark:12
fjrp1_sx442 raw_TIMIT_200ms/train/fjrp1_sx442.ark:12
fskc0_si786 raw_TIMIT_200ms/train/fskc0_si786.ark:12
mrlj1_si2332 raw_TIMIT_200ms/train/mrlj1_si2332.ark:13
mtrc0_sx273 raw_TIMIT_200ms/train/mtrc0_sx273.ark:12
mhbs0_sx405 raw_TIMIT_200ms/train/mhbs0_sx405.ark:12
mmxs0_si629 raw_TIMIT_200ms/train/mmxs0_si629.ark:12
mkes0_sx83 raw_TIMIT_200ms/train/mkes0_sx83.ark:11
makb0_si1646 raw_TIMIT_200ms/train/makb0_si1646.ark:13
fjen0_sx237 raw_TIMIT_200ms/train/fjen0_sx237.ark:12
mdpk0_si552 raw_TIMIT_200ms/train/mdpk0_si552.ark:12
mjee0_sx337 raw_TIMIT_200ms/train/mjee0_sx337.ark:12
mjma0_sx55 raw_TIMIT_200ms/train/mjma0_sx55.ark:11
fmkc0_sx172 raw_TIMIT_200ms/train/fmkc0_sx172.ark:12
mjrk0_sx430 raw_TIMIT_200ms/train/mjrk0_sx430.ark:12
mrre0_sx164 raw_TIMIT_200ms/train/mrre0_sx164.ark:12
mjsr0_sx74 raw_TIMIT_200ms/train/mjsr0_sx74.ark:11
mrlk0_sx213 raw_TIMIT_200ms/train/mrlk0_sx213.ark:12
mrfl0_si1786 raw_TIMIT_200ms/train/mrfl0_si1786.ark:13
fsdc0_si1942 raw_TIMIT_200ms/train/fsdc0_si1942.ark:13
fcjs0_sx77 raw_TIMIT_200ms/train/fcjs0_sx77.ark:11
flag0_si834 raw_TIMIT_200ms/train/flag0_si834.ark:12
fbmh0_si970 raw_TIMIT_200ms/train/fbmh0_si970.ark:12
mkdt0_sx83 raw_TIMIT_200ms/train/mkdt0_sx83.ark:11
fklh0_si1257 raw_TIMIT_200ms/train/fklh0_si1257.ark:13
fgmb0_sx65 raw_TIMIT_200ms/train/fgmb0_sx65.ark:11
mbsb0_si723 raw_TIMIT_200ms/train/mbsb0_si723.ark:12
fmpg0_sx252 raw_TIMIT_200ms/train/fmpg0_sx252.ark:12
mges0_sx41 raw_TIMIT_200ms/train/mges0_sx41.ark:11
mfwk0_si1249 raw_TIMIT_200ms/train/mfwk0_si1249.ark:13
mdmt0_sx122 raw_TIMIT_200ms/train/mdmt0_sx122.ark:12
mmgk0_sx62 raw_TIMIT_200ms/train/mmgk0_sx62.ark:11
mbbr0_si1055 raw_TIMIT_200ms/train/mbbr0_si1055.ark:13
mbwp0_sx349 raw_TIMIT_200ms/train/mbwp0_sx349.ark:12
mdss0_si621 raw_TIMIT_200ms/train/mdss0_si621.ark:12
fmah1_si1509 raw_TIMIT_200ms/train/fmah1_si1509.ark:13
fkkh0_si1920 raw_TIMIT_200ms/train/fkkh0_si1920.ark:13
mmgk0_sx242 raw_TIMIT_200ms/train/mmgk0_sx242.ark:12
fgcs0_sx136 raw_TIMIT_200ms/train/fgcs0_sx136.ark:12
mddc0_sx69 raw_TIMIT_200ms/train/mddc0_sx69.ark:11
mrmb0_si2211 raw_TIMIT_200ms/train/mrmb0_si2211.ark:13
mgrp0_sx417 raw_TIMIT_200ms/train/mgrp0_sx417.ark:12
fcyl0_si1927 raw_TIMIT_200ms/train/fcyl0_si1927.ark:13
mmab1_si1494 raw_TIMIT_200ms/train/mmab1_si1494.ark:13
mwsb0_si1626 raw_TIMIT_200ms/train/mwsb0_si1626.ark:13
fklc0_sx445 raw_TIMIT_200ms/train/fklc0_sx445.ark:12
mtdb0_sx51 raw_TIMIT_200ms/train/mtdb0_sx51.ark:11
mdwd0_sx90 raw_TIMIT_200ms/train/mdwd0_sx90.ark:11
fmjb0_sx367 raw_TIMIT_200ms/train/fmjb0_sx367.ark:12
mzmb0_sx446 raw_TIMIT_200ms/train/mzmb0_sx446.ark:12
mjfr0_sx255 raw_TIMIT_200ms/train/mjfr0_sx255.ark:12
fljd0_si1516 raw_TIMIT_200ms/train/fljd0_si1516.ark:13
mhmr0_si1692 raw_TIMIT_200ms/train/mhmr0_si1692.ark:13
fpad0_si1976 raw_TIMIT_200ms/train/fpad0_si1976.ark:13
mdwd0_si1890 raw_TIMIT_200ms/train/mdwd0_si1890.ark:13
mfwk0_sx349 raw_TIMIT_200ms/train/mfwk0_sx349.ark:12
mjlg1_sx382 raw_TIMIT_200ms/train/mjlg1_sx382.ark:12
meal0_sx107 raw_TIMIT_200ms/train/meal0_sx107.ark:12
fmem0_sx117 raw_TIMIT_200ms/train/fmem0_sx117.ark:12
mgag0_si1321 raw_TIMIT_200ms/train/mgag0_si1321.ark:13
mtml0_sx255 raw_TIMIT_200ms/train/mtml0_sx255.ark:12
msrg0_sx411 raw_TIMIT_200ms/train/msrg0_sx411.ark:12
mdbp0_sx438 raw_TIMIT_200ms/train/mdbp0_sx438.ark:12
mjrp0_sx405 raw_TIMIT_200ms/train/mjrp0_sx405.ark:12
mjda0_sx131 raw_TIMIT_200ms/train/mjda0_sx131.ark:12
fjkl0_sx32 raw_TIMIT_200ms/train/fjkl0_sx32.ark:11
mchl0_sx357 raw_TIMIT_200ms/train/mchl0_sx357.ark:12
fjrb0_sx42 raw_TIMIT_200ms/train/fjrb0_sx42.ark:11
mpfu0_si628 raw_TIMIT_200ms/train/mpfu0_si628.ark:12
mbbr0_sx155 raw_TIMIT_200ms/train/mbbr0_sx155.ark:12
mtdb0_sx411 raw_TIMIT_200ms/train/mtdb0_sx411.ark:12
mkdb0_si588 raw_TIMIT_200ms/train/mkdb0_si588.ark:12
fkaa0_sx38 raw_TIMIT_200ms/train/fkaa0_sx38.ark:11
fetb0_sx68 raw_TIMIT_200ms/train/fetb0_sx68.ark:11
mfer0_si2122 raw_TIMIT_200ms/train/mfer0_si2122.ark:13
mbcg0_sx147 raw_TIMIT_200ms/train/mbcg0_sx147.ark:12
mjws0_si513 raw_TIMIT_200ms/train/mjws0_si513.ark:12
mafm0_si1569 raw_TIMIT_200ms/train/mafm0_si1569.ark:13
fear0_sx172 raw_TIMIT_200ms/train/fear0_sx172.ark:12
fjen0_si1047 raw_TIMIT_200ms/train/fjen0_si1047.ark:13
mhxl0_si612 raw_TIMIT_200ms/train/mhxl0_si612.ark:12
mprd0_sx351 raw_TIMIT_200ms/train/mprd0_sx351.ark:12
mprk0_sx197 raw_TIMIT_200ms/train/mprk0_sx197.ark:12
mjpm1_sx221 raw_TIMIT_200ms/train/mjpm1_sx221.ark:12
fspm0_sx341 raw_TIMIT_200ms/train/fspm0_sx341.ark:12
fsjs0_sx451 raw_TIMIT_200ms/train/fsjs0_sx451.ark:12
flac0_si901 raw_TIMIT_200ms/train/flac0_si901.ark:12
mtkd0_sx17 raw_TIMIT_200ms/train/mtkd0_sx17.ark:11
fcmg0_si1142 raw_TIMIT_200ms/train/fcmg0_si1142.ark:13
mpmb0_si871 raw_TIMIT_200ms/train/mpmb0_si871.ark:12
mjac0_sx71 raw_TIMIT_200ms/train/mjac0_sx71.ark:11
fsag0_sx63 raw_TIMIT_200ms/train/fsag0_sx63.ark:11
fpaz0_si963 raw_TIMIT_200ms/train/fpaz0_si963.ark:12
msah1_si1679 raw_TIMIT_200ms/train/msah1_si1679.ark:13
marc0_si558 raw_TIMIT_200ms/train/marc0_si558.ark:12
mjac0_sx307 raw_TIMIT_200ms/train/mjac0_sx307.ark:12
makb0_sx296 raw_TIMIT_200ms/train/makb0_sx296.ark:12
mpsw0_si1697 raw_TIMIT_200ms/train/mpsw0_si1697.ark:13
fjlg0_si1889 raw_TIMIT_200ms/train/fjlg0_si1889.ark:13
ftbw0_sx85 raw_TIMIT_200ms/train/ftbw0_sx85.ark:11
msdh0_si2113 raw_TIMIT_200ms/train/msdh0_si2113.ark:13
msfh0_sx226 raw_TIMIT_200ms/train/msfh0_sx226.ark:12
fdfb0_si2010 raw_TIMIT_200ms/train/fdfb0_si2010.ark:13
mdps0_sx449 raw_TIMIT_200ms/train/mdps0_sx449.ark:12
mjdg0_si1042 raw_TIMIT_200ms/train/mjdg0_si1042.ark:13
fdfb0_si1948 raw_TIMIT_200ms/train/fdfb0_si1948.ark:13
mwsb0_sx186 raw_TIMIT_200ms/train/mwsb0_sx186.ark:12
mdhs0_sx270 raw_TIMIT_200ms/train/mdhs0_sx270.ark:12
flma0_si1873 raw_TIMIT_200ms/train/flma0_si1873.ark:13
fbch0_sx146 raw_TIMIT_200ms/train/fbch0_sx146.ark:12
mrdm0_si1044 raw_TIMIT_200ms/train/mrdm0_si1044.ark:13
fvkb0_si1159 raw_TIMIT_200ms/train/fvkb0_si1159.ark:13
mrmh0_sx211 raw_TIMIT_200ms/train/mrmh0_sx211.ark:12
mdcm0_sx130 raw_TIMIT_200ms/train/mdcm0_sx130.ark:12
ftaj0_sx339 raw_TIMIT_200ms/train/ftaj0_sx339.ark:12
mtdp0_si1521 raw_TIMIT_200ms/train/mtdp0_si1521.ark:13
fsmm0_sx54 raw_TIMIT_200ms/train/fsmm0_sx54.ark:11
mmlm0_sx447 raw_TIMIT_200ms/train/mmlm0_sx447.ark:12
mrlj0_sx430 raw_TIMIT_200ms/train/mrlj0_sx430.ark:12
fcke0_sx211 raw_TIMIT_200ms/train/fcke0_sx211.ark:12
fdmy0_si714 raw_TIMIT_200ms/train/fdmy0_si714.ark:12
mlel0_sx346 raw_TIMIT_200ms/train/mlel0_sx346.ark:12
msfv0_sx272 raw_TIMIT_200ms/train/msfv0_sx272.ark:12
mtjg0_si1520 raw_TIMIT_200ms/train/mtjg0_si1520.ark:13
mbef0_si651 raw_TIMIT_200ms/train/mbef0_si651.ark:12
mrgm0_si532 raw_TIMIT_200ms/train/mrgm0_si532.ark:12
fgrw0_si1990 raw_TIMIT_200ms/train/fgrw0_si1990.ark:13
mwgr0_si976 raw_TIMIT_200ms/train/mwgr0_si976.ark:12
fsah0_sx434 raw_TIMIT_200ms/train/fsah0_sx434.ark:12
mlbc0_sx429 raw_TIMIT_200ms/train/mlbc0_sx429.ark:12
mjfh0_sx387 raw_TIMIT_200ms/train/mjfh0_sx387.ark:12
mgar0_si1694 raw_TIMIT_200ms/train/mgar0_si1694.ark:13
mdns0_sx21 raw_TIMIT_200ms/train/mdns0_sx21.ark:11
fsdc0_sx232 raw_TIMIT_200ms/train/fsdc0_sx232.ark:12
mjwg0_sx85 raw_TIMIT_200ms/train/mjwg0_sx85.ark:11
mgaw0_sx445 raw_TIMIT_200ms/train/mgaw0_sx445.ark:12
mtpf0_sx155 raw_TIMIT_200ms/train/mtpf0_sx155.ark:12
mjai0_si1604 raw_TIMIT_200ms/train/mjai0_si1604.ark:13
mcss0_si688 raw_TIMIT_200ms/train/mcss0_si688.ark:12
mlel0_sx166 raw_TIMIT_200ms/train/mlel0_sx166.ark:12
fceg0_sx258 raw_TIMIT_200ms/train/fceg0_sx258.ark:12
mtrc0_sx93 raw_TIMIT_200ms/train/mtrc0_sx93.ark:11
megj0_sx77 raw_TIMIT_200ms/train/megj0_sx77.ark:11
mjac0_sx431 raw_TIMIT_200ms/train/mjac0_sx431.ark:12
mmdb0_si1358 raw_TIMIT_200ms/train/mmdb0_si1358.ark:13
mram0_sx285 raw_TIMIT_200ms/train/mram0_sx285.ark:12
fdkn0_si1711 raw_TIMIT_200ms/train/fdkn0_si1711.ark:13
mrbc0_si1859 raw_TIMIT_200ms/train/mrbc0_si1859.ark:13
fmju0_sx219 raw_TIMIT_200ms/train/fmju0_sx219.ark:12
fleh0_sx331 raw_TIMIT_200ms/train/fleh0_sx331.ark:12
mrjm1_si1928 raw_TIMIT_200ms/train/mrjm1_si1928.ark:13
fcjf0_sx37 raw_TIMIT_200ms/train/fcjf0_sx37.ark:11
mtpr0_si506 raw_TIMIT_200ms/train/mtpr0_si506.ark:12
fpmy0_si1783 raw_TIMIT_200ms/train/fpmy0_si1783.ark:13
fgdp0_si1618 raw_TIMIT_200ms/train/fgdp0_si1618.ark:13
flma0_sx73 raw_TIMIT_200ms/train/flma0_sx73.ark:11
mrlr0_sx296 raw_TIMIT_200ms/train/mrlr0_sx296.ark:12
mclm0_sx376 raw_TIMIT_200ms/train/mclm0_sx376.ark:12
mcdr0_si524 raw_TIMIT_200ms/train/mcdr0_si524.ark:12
mkag0_sx30 raw_TIMIT_200ms/train/mkag0_sx30.ark:11
fblv0_si1058 raw_TIMIT_200ms/train/fblv0_si1058.ark:13
fsjk1_sx305 raw_TIMIT_200ms/train/fsjk1_sx305.ark:12
mcdd0_si2143 raw_TIMIT_200ms/train/mcdd0_si2143.ark:13
mdmt0_si572 raw_TIMIT_200ms/train/mdmt0_si572.ark:12
mcal0_si508 raw_TIMIT_200ms/train/mcal0_si508.ark:12
mgjc0_sx435 raw_TIMIT_200ms/train/mgjc0_sx435.ark:12
fskl0_sx449 raw_TIMIT_200ms/train/fskl0_sx449.ark:12
msms0_sx263 raw_TIMIT_200ms/train/msms0_sx263.ark:12
mjlg1_si1012 raw_TIMIT_200ms/train/mjlg1_si1012.ark:13
msah1_sx419 raw_TIMIT_200ms/train/msah1_sx419.ark:12
mjdg0_sx142 raw_TIMIT_200ms/train/mjdg0_sx142.ark:12
mfmc0_sx142 raw_TIMIT_200ms/train/mfmc0_sx142.ark:12
mjjm0_sx377 raw_TIMIT_200ms/train/mjjm0_sx377.ark:12
mdrd0_sx122 raw_TIMIT_200ms/train/mdrd0_sx122.ark:12
fclt0_si1438 raw_TIMIT_200ms/train/fclt0_si1438.ark:13
mhbs0_sx45 raw_TIMIT_200ms/train/mhbs0_sx45.ark:11
fmmh0_sx367 raw_TIMIT_200ms/train/fmmh0_sx367.ark:12
fmem0_si747 raw_TIMIT_200ms/train/fmem0_si747.ark:12
fdaw0_sx416 raw_TIMIT_200ms/train/fdaw0_sx416.ark:12
mdhs0_sx360 raw_TIMIT_200ms/train/mdhs0_sx360.ark:12
fjlr0_si601 raw_TIMIT_200ms/train/fjlr0_si601.ark:12
mdks0_si1066 raw_TIMIT_200ms/train/mdks0_si1066.ark:13
mcpm0_sx384 raw_TIMIT_200ms/train/mcpm0_sx384.ark:12
milb0_sx273 raw_TIMIT_200ms/train/milb0_sx273.ark:12
mdlh0_si574 raw_TIMIT_200ms/train/mdlh0_si574.ark:12
flet0_sx277 raw_TIMIT_200ms/train/flet0_sx277.ark:12
mtlb0_si504 raw_TIMIT_200ms/train/mtlb0_si504.ark:12
mdks0_sx76 raw_TIMIT_200ms/train/mdks0_sx76.ark:11
mmgc0_sx405 raw_TIMIT_200ms/train/mmgc0_sx405.ark:12
mrmh0_si1021 raw_TIMIT_200ms/train/mrmh0_si1021.ark:13
mcth0_si1209 raw_TIMIT_200ms/train/mcth0_si1209.ark:13
mdlc2_sx174 raw_TIMIT_200ms/train/mdlc2_sx174.ark:12
mjls0_si1096 raw_TIMIT_200ms/train/mjls0_si1096.ark:13
mmar0_sx346 raw_TIMIT_200ms/train/mmar0_sx346.ark:12
mjpg0_sx111 raw_TIMIT_200ms/train/mjpg0_sx111.ark:12
mgag0_sx331 raw_TIMIT_200ms/train/mgag0_sx331.ark:12
mdef0_si1563 raw_TIMIT_200ms/train/mdef0_si1563.ark:13
fscn0_sx446 raw_TIMIT_200ms/train/fscn0_sx446.ark:12
mprt0_sx40 raw_TIMIT_200ms/train/mprt0_sx40.ark:11
mrre0_sx434 raw_TIMIT_200ms/train/mrre0_sx434.ark:12
mkln0_sx248 raw_TIMIT_200ms/train/mkln0_sx248.ark:12
mklw0_sx401 raw_TIMIT_200ms/train/mklw0_sx401.ark:12
mwem0_si1393 raw_TIMIT_200ms/train/mwem0_si1393.ark:13
mrbc0_sx59 raw_TIMIT_200ms/train/mrbc0_sx59.ark:11
mjpm1_sx131 raw_TIMIT_200ms/train/mjpm1_sx131.ark:12
mkln0_sx68 raw_TIMIT_200ms/train/mkln0_sx68.ark:11
fcjs0_si1607 raw_TIMIT_200ms/train/fcjs0_si1607.ark:13
fcyl0_si1297 raw_TIMIT_200ms/train/fcyl0_si1297.ark:13
fpls0_sx330 raw_TIMIT_200ms/train/fpls0_sx330.ark:12
mwch0_sx272 raw_TIMIT_200ms/train/mwch0_sx272.ark:12
mdem0_si800 raw_TIMIT_200ms/train/mdem0_si800.ark:12
mtrr0_si2178 raw_TIMIT_200ms/train/mtrr0_si2178.ark:13
mmgc0_si2184 raw_TIMIT_200ms/train/mmgc0_si2184.ark:13
mrsp0_si2059 raw_TIMIT_200ms/train/mrsp0_si2059.ark:13
mpsw0_sx437 raw_TIMIT_200ms/train/mpsw0_sx437.ark:12
mhit0_sx83 raw_TIMIT_200ms/train/mhit0_sx83.ark:11
mrvg0_sx150 raw_TIMIT_200ms/train/mrvg0_sx150.ark:12
mgak0_si2296 raw_TIMIT_200ms/train/mgak0_si2296.ark:13
mgag0_sx421 raw_TIMIT_200ms/train/mgag0_sx421.ark:12
mstf0_sx46 raw_TIMIT_200ms/train/mstf0_sx46.ark:11
mmvp0_si1284 raw_TIMIT_200ms/train/mmvp0_si1284.ark:13
fjhk0_si1022 raw_TIMIT_200ms/train/fjhk0_si1022.ark:13
fcaj0_si1479 raw_TIMIT_200ms/train/fcaj0_si1479.ark:13
fajw0_sx93 raw_TIMIT_200ms/train/fajw0_sx93.ark:11
fntb0_sx213 raw_TIMIT_200ms/train/fntb0_sx213.ark:12
mkxl0_si1815 raw_TIMIT_200ms/train/mkxl0_si1815.ark:13
mprk0_sx287 raw_TIMIT_200ms/train/mprk0_sx287.ark:12
mmbs0_si1781 raw_TIMIT_200ms/train/mmbs0_si1781.ark:13
mdwm0_sx376 raw_TIMIT_200ms/train/mdwm0_sx376.ark:12
mjma0_sx325 raw_TIMIT_200ms/train/mjma0_sx325.ark:12
flma0_si613 raw_TIMIT_200ms/train/flma0_si613.ark:12
fsma0_si1621 raw_TIMIT_200ms/train/fsma0_si1621.ark:13
fsak0_sx130 raw_TIMIT_200ms/train/fsak0_sx130.ark:12
mwch0_sx92 raw_TIMIT_200ms/train/mwch0_sx92.ark:11
mmdm1_sx153 raw_TIMIT_200ms/train/mmdm1_sx153.ark:12
mntw0_si1698 raw_TIMIT_200ms/train/mntw0_si1698.ark:13
mrtc0_si2088 raw_TIMIT_200ms/train/mrtc0_si2088.ark:13
fnkl0_si2152 raw_TIMIT_200ms/train/fnkl0_si2152.ark:13
mgsl0_si797 raw_TIMIT_200ms/train/mgsl0_si797.ark:12
mmgk0_sx152 raw_TIMIT_200ms/train/mmgk0_sx152.ark:12
mrjm1_sx308 raw_TIMIT_200ms/train/mrjm1_sx308.ark:12
mrlj0_sx340 raw_TIMIT_200ms/train/mrlj0_sx340.ark:12
fear0_sx442 raw_TIMIT_200ms/train/fear0_sx442.ark:12
fgcs0_sx226 raw_TIMIT_200ms/train/fgcs0_sx226.ark:12
mjdg0_sx322 raw_TIMIT_200ms/train/mjdg0_sx322.ark:12
fcyl0_sx397 raw_TIMIT_200ms/train/fcyl0_sx397.ark:12
mbom0_sx311 raw_TIMIT_200ms/train/mbom0_sx311.ark:12
mtrr0_si918 raw_TIMIT_200ms/train/mtrr0_si918.ark:12
mwrp0_sx93 raw_TIMIT_200ms/train/mwrp0_sx93.ark:11
