mpfu0_si1258 raw_TIMIT_200ms/train/mpfu0_si1258.ark:13
mddc0_si1419 raw_TIMIT_200ms/train/mddc0_si1419.ark:13
fbch0_si1586 raw_TIMIT_200ms/train/fbch0_si1586.ark:13
mpfu0_si628 raw_TIMIT_200ms/train/mpfu0_si628.ark:12
fskc0_sx336 raw_TIMIT_200ms/train/fskc0_sx336.ark:12
mpfu0_sx178 raw_TIMIT_200ms/train/mpfu0_sx178.ark:12
mcdd0_sx253 raw_TIMIT_200ms/train/mcdd0_sx253.ark:12
majp0_sx84 raw_TIMIT_200ms/train/majp0_sx84.ark:11
mdbp0_sx258 raw_TIMIT_200ms/train/mdbp0_sx258.ark:12
mejl0_si1592 raw_TIMIT_200ms/train/mejl0_si1592.ark:13
mdbb1_sx106 raw_TIMIT_200ms/train/mdbb1_sx106.ark:12
fcdr1_si1816 raw_TIMIT_200ms/train/fcdr1_si1816.ark:13
mchl0_si1404 raw_TIMIT_200ms/train/mchl0_si1404.ark:13
mljh0_sx244 raw_TIMIT_200ms/train/mljh0_sx244.ark:12
msfv0_si1262 raw_TIMIT_200ms/train/msfv0_si1262.ark:13
mtqc0_sx361 raw_TIMIT_200ms/train/mtqc0_sx361.ark:12
fjrp1_sx82 raw_TIMIT_200ms/train/fjrp1_sx82.ark:11
mctm0_sx180 raw_TIMIT_200ms/train/mctm0_sx180.ark:12
mgjc0_si1965 raw_TIMIT_200ms/train/mgjc0_si1965.ark:13
mhmr0_si1692 raw_TIMIT_200ms/train/mhmr0_si1692.ark:13
msdb0_sx107 raw_TIMIT_200ms/train/msdb0_sx107.ark:12
falr0_si1955 raw_TIMIT_200ms/train/falr0_si1955.ark:13
mdpk0_si1053 raw_TIMIT_200ms/train/mdpk0_si1053.ark:13
fnkl0_sx196 raw_TIMIT_200ms/train/fnkl0_sx196.ark:12
mjrh0_si1755 raw_TIMIT_200ms/train/mjrh0_si1755.ark:13
fgdp0_sx268 raw_TIMIT_200ms/train/fgdp0_sx268.ark:12
msmc0_si647 raw_TIMIT_200ms/train/msmc0_si647.ark:12
fgmb0_sx335 raw_TIMIT_200ms/train/fgmb0_sx335.ark:12
mjwt0_sx121 raw_TIMIT_200ms/train/mjwt0_sx121.ark:12
flkm0_si686 raw_TIMIT_200ms/train/flkm0_si686.ark:12
fsjw0_sx433 raw_TIMIT_200ms/train/fsjw0_sx433.ark:12
mmag0_sx316 raw_TIMIT_200ms/train/mmag0_sx316.ark:12
mjeb0_si1916 raw_TIMIT_200ms/train/mjeb0_si1916.ark:13
mrai0_si2052 raw_TIMIT_200ms/train/mrai0_si2052.ark:13
mbjv0_si1247 raw_TIMIT_200ms/train/mbjv0_si1247.ark:13
mhit0_si2243 raw_TIMIT_200ms/train/mhit0_si2243.ark:13
mgar0_si1212 raw_TIMIT_200ms/train/mgar0_si1212.ark:13
mrjh0_si889 raw_TIMIT_200ms/train/mrjh0_si889.ark:12
fsgf0_si927 raw_TIMIT_200ms/train/fsgf0_si927.ark:12
mcae0_sx97 raw_TIMIT_200ms/train/mcae0_sx97.ark:11
fkkh0_si1290 raw_TIMIT_200ms/train/fkkh0_si1290.ark:13
meal0_si1547 raw_TIMIT_200ms/train/meal0_si1547.ark:13
mklw0_si2201 raw_TIMIT_200ms/train/mklw0_si2201.ark:13
mdwh0_si1925 raw_TIMIT_200ms/train/mdwh0_si1925.ark:13
flja0_sx448 raw_TIMIT_200ms/train/flja0_sx448.ark:12
mrem0_sx241 raw_TIMIT_200ms/train/mrem0_sx241.ark:12
fjsp0_sx444 raw_TIMIT_200ms/train/fjsp0_sx444.ark:12
fcag0_si1503 raw_TIMIT_200ms/train/fcag0_si1503.ark:13
mmeb0_sx327 raw_TIMIT_200ms/train/mmeb0_sx327.ark:12
fbas0_si2066 raw_TIMIT_200ms/train/fbas0_si2066.ark:13
fmjf0_sx84 raw_TIMIT_200ms/train/fmjf0_sx84.ark:11
mtjs0_sx112 raw_TIMIT_200ms/train/mtjs0_sx112.ark:12
mdwh0_sx395 raw_TIMIT_200ms/train/mdwh0_sx395.ark:12
fntb0_sx33 raw_TIMIT_200ms/train/fntb0_sx33.ark:11
fsbk0_si1699 raw_TIMIT_200ms/train/fsbk0_si1699.ark:13
fpaz0_sx153 raw_TIMIT_200ms/train/fpaz0_sx153.ark:12
fsag0_si693 raw_TIMIT_200ms/train/fsag0_si693.ark:12
mjma0_si2125 raw_TIMIT_200ms/train/mjma0_si2125.ark:13
mdss0_sx351 raw_TIMIT_200ms/train/mdss0_sx351.ark:12
mdps0_sx449 raw_TIMIT_200ms/train/mdps0_sx449.ark:12
mwar0_si1045 raw_TIMIT_200ms/train/mwar0_si1045.ark:13
fjsk0_sx242 raw_TIMIT_200ms/train/fjsk0_sx242.ark:12
flkm0_si620 raw_TIMIT_200ms/train/flkm0_si620.ark:12
fdfb0_si1948 raw_TIMIT_200ms/train/fdfb0_si1948.ark:13
mjkr0_sx391 raw_TIMIT_200ms/train/mjkr0_sx391.ark:12
fjkl0_si1562 raw_TIMIT_200ms/train/fjkl0_si1562.ark:13
mtwh1_sx432 raw_TIMIT_200ms/train/mtwh1_sx432.ark:12
mwad0_si1749 raw_TIMIT_200ms/train/mwad0_si1749.ark:13
mchl0_sx447 raw_TIMIT_200ms/train/mchl0_sx447.ark:12
mklw0_si1844 raw_TIMIT_200ms/train/mklw0_si1844.ark:13
fjsk0_si1052 raw_TIMIT_200ms/train/fjsk0_si1052.ark:13
mhjb0_si1647 raw_TIMIT_200ms/train/mhjb0_si1647.ark:13
mkdd0_sx217 raw_TIMIT_200ms/train/mkdd0_sx217.ark:12
mdlc0_sx225 raw_TIMIT_200ms/train/mdlc0_sx225.ark:12
madc0_sx377 raw_TIMIT_200ms/train/madc0_sx377.ark:12
mrem0_sx421 raw_TIMIT_200ms/train/mrem0_sx421.ark:12
mrlj1_si2332 raw_TIMIT_200ms/train/mrlj1_si2332.ark:13
mdac0_sx91 raw_TIMIT_200ms/train/mdac0_sx91.ark:11
mtab0_sx132 raw_TIMIT_200ms/train/mtab0_sx132.ark:12
mhit0_sx173 raw_TIMIT_200ms/train/mhit0_sx173.ark:12
mdpk0_sx153 raw_TIMIT_200ms/train/mdpk0_sx153.ark:12
fssb0_si1712 raw_TIMIT_200ms/train/fssb0_si1712.ark:13
fsdc0_si1942 raw_TIMIT_200ms/train/fsdc0_si1942.ark:13
mtwh1_si2142 raw_TIMIT_200ms/train/mtwh1_si2142.ark:13
faem0_sx402 raw_TIMIT_200ms/train/faem0_sx402.ark:12
mrlr0_sx386 raw_TIMIT_200ms/train/mrlr0_sx386.ark:12
mrav0_sx108 raw_TIMIT_200ms/train/mrav0_sx108.ark:12
mtrc0_si993 raw_TIMIT_200ms/train/mtrc0_si993.ark:12
mdas0_si1896 raw_TIMIT_200ms/train/mdas0_si1896.ark:13
mrvg0_sx330 raw_TIMIT_200ms/train/mrvg0_sx330.ark:12
fsjw0_sx253 raw_TIMIT_200ms/train/fsjw0_sx253.ark:12
mjmm0_sx445 raw_TIMIT_200ms/train/mjmm0_sx445.ark:12
mljc0_sx145 raw_TIMIT_200ms/train/mljc0_sx145.ark:12
mwsh0_sx76 raw_TIMIT_200ms/train/mwsh0_sx76.ark:11
mjrh0_sx225 raw_TIMIT_200ms/train/mjrh0_sx225.ark:12
mrew1_sx150 raw_TIMIT_200ms/train/mrew1_sx150.ark:12
mljh0_si1422 raw_TIMIT_200ms/train/mljh0_si1422.ark:13
makr0_si722 raw_TIMIT_200ms/train/makr0_si722.ark:12
mfmc0_sx142 raw_TIMIT_200ms/train/mfmc0_sx142.ark:12
mdhs0_sx180 raw_TIMIT_200ms/train/mdhs0_sx180.ark:12
mwem0_sx420 raw_TIMIT_200ms/train/mwem0_sx420.ark:12
mgaw0_sx265 raw_TIMIT_200ms/train/mgaw0_sx265.ark:12
ftmg0_sx182 raw_TIMIT_200ms/train/ftmg0_sx182.ark:12
mfxv0_sx285 raw_TIMIT_200ms/train/mfxv0_sx285.ark:12
mmeb0_sx187 raw_TIMIT_200ms/train/mmeb0_sx187.ark:12
mprt0_sx130 raw_TIMIT_200ms/train/mprt0_sx130.ark:12
ftaj0_si474 raw_TIMIT_200ms/train/ftaj0_si474.ark:12
mreh1_sx69 raw_TIMIT_200ms/train/mreh1_sx69.ark:11
mctm0_si1980 raw_TIMIT_200ms/train/mctm0_si1980.ark:13
majp0_si2334 raw_TIMIT_200ms/train/majp0_si2334.ark:13
fbmh0_sx56 raw_TIMIT_200ms/train/fbmh0_sx56.ark:11
mefg0_si491 raw_TIMIT_200ms/train/mefg0_si491.ark:12
mjde0_si463 raw_TIMIT_200ms/train/mjde0_si463.ark:12
mtml0_sx255 raw_TIMIT_200ms/train/mtml0_sx255.ark:12
mpar0_si1576 raw_TIMIT_200ms/train/mpar0_si1576.ark:13
mcdc0_si1922 raw_TIMIT_200ms/train/mcdc0_si1922.ark:13
mzmb0_si536 raw_TIMIT_200ms/train/mzmb0_si536.ark:12
faem0_sx222 raw_TIMIT_200ms/train/faem0_sx222.ark:12
mpeb0_sx330 raw_TIMIT_200ms/train/mpeb0_sx330.ark:12
mcew0_si2072 raw_TIMIT_200ms/train/mcew0_si2072.ark:13
mgaf0_sx202 raw_TIMIT_200ms/train/mgaf0_sx202.ark:12
mgaw0_si1165 raw_TIMIT_200ms/train/mgaw0_si1165.ark:13
msmr0_sx235 raw_TIMIT_200ms/train/msmr0_sx235.ark:12
fsbk0_si1069 raw_TIMIT_200ms/train/fsbk0_si1069.ark:13
mjwg0_sx445 raw_TIMIT_200ms/train/mjwg0_sx445.ark:12
mdac0_sx271 raw_TIMIT_200ms/train/mdac0_sx271.ark:12
frll0_sx74 raw_TIMIT_200ms/train/frll0_sx74.ark:11
mtbc0_sx347 raw_TIMIT_200ms/train/mtbc0_sx347.ark:12
mwsb0_si996 raw_TIMIT_200ms/train/mwsb0_si996.ark:12
mrkm0_si637 raw_TIMIT_200ms/train/mrkm0_si637.ark:12
fdkn0_sx451 raw_TIMIT_200ms/train/fdkn0_sx451.ark:12
faem0_si1392 raw_TIMIT_200ms/train/faem0_si1392.ark:13
mtqc0_sx271 raw_TIMIT_200ms/train/mtqc0_sx271.ark:12
fdml0_si1779 raw_TIMIT_200ms/train/fdml0_si1779.ark:13
fvkb0_si1789 raw_TIMIT_200ms/train/fvkb0_si1789.ark:13
fnkl0_si2152 raw_TIMIT_200ms/train/fnkl0_si2152.ark:13
maeb0_si990 raw_TIMIT_200ms/train/maeb0_si990.ark:12
ftbr0_sx111 raw_TIMIT_200ms/train/ftbr0_sx111.ark:12
mjwg0_sx85 raw_TIMIT_200ms/train/mjwg0_sx85.ark:11
msjk0_si966 raw_TIMIT_200ms/train/msjk0_si966.ark:12
mbom0_sx294 raw_TIMIT_200ms/train/mbom0_sx294.ark:12
mrds0_si1167 raw_TIMIT_200ms/train/mrds0_si1167.ark:13
mvlo0_si517 raw_TIMIT_200ms/train/mvlo0_si517.ark:12
fetb0_sx248 raw_TIMIT_200ms/train/fetb0_sx248.ark:12
mrtc0_sx378 raw_TIMIT_200ms/train/mrtc0_sx378.ark:12
fbas0_sx217 raw_TIMIT_200ms/train/fbas0_sx217.ark:12
mrpc1_si2026 raw_TIMIT_200ms/train/mrpc1_si2026.ark:13
meal0_si2177 raw_TIMIT_200ms/train/meal0_si2177.ark:13
mtmn0_sx344 raw_TIMIT_200ms/train/mtmn0_sx344.ark:12
mlbc0_si1239 raw_TIMIT_200ms/train/mlbc0_si1239.ark:13
fmem0_si747 raw_TIMIT_200ms/train/fmem0_si747.ark:12
mmeb0_si727 raw_TIMIT_200ms/train/mmeb0_si727.ark:12
fjlr0_sx421 raw_TIMIT_200ms/train/fjlr0_sx421.ark:12
mmcc0_si1338 raw_TIMIT_200ms/train/mmcc0_si1338.ark:13
fcmm0_sx420 raw_TIMIT_200ms/train/fcmm0_sx420.ark:12
mmdm0_sx51 raw_TIMIT_200ms/train/mmdm0_sx51.ark:11
fmpg0_sx252 raw_TIMIT_200ms/train/fmpg0_sx252.ark:12
mjrp0_si1845 raw_TIMIT_200ms/train/mjrp0_si1845.ark:13
mmdm0_sx411 raw_TIMIT_200ms/train/mmdm0_sx411.ark:12
mpsw0_si2327 raw_TIMIT_200ms/train/mpsw0_si2327.ark:13
mmdm0_si1941 raw_TIMIT_200ms/train/mmdm0_si1941.ark:13
fvfb0_si1032 raw_TIMIT_200ms/train/fvfb0_si1032.ark:13
fsbk0_sx259 raw_TIMIT_200ms/train/fsbk0_sx259.ark:12
fvfb0_sx222 raw_TIMIT_200ms/train/fvfb0_sx222.ark:12
mcew0_sx92 raw_TIMIT_200ms/train/mcew0_sx92.ark:11
fear0_sx172 raw_TIMIT_200ms/train/fear0_sx172.ark:12
mbar0_si1319 raw_TIMIT_200ms/train/mbar0_si1319.ark:13
mtat0_si1740 raw_TIMIT_200ms/train/mtat0_si1740.ark:13
mvlo0_si1777 raw_TIMIT_200ms/train/mvlo0_si1777.ark:13
flod0_si1917 raw_TIMIT_200ms/train/flod0_si1917.ark:13
msem1_sx180 raw_TIMIT_200ms/train/msem1_sx180.ark:12
mtxs0_sx430 raw_TIMIT_200ms/train/mtxs0_sx430.ark:12
mrso0_sx219 raw_TIMIT_200ms/train/mrso0_sx219.ark:12
marc0_sx18 raw_TIMIT_200ms/train/marc0_sx18.ark:11
mdma0_si1430 raw_TIMIT_200ms/train/mdma0_si1430.ark:13
mdks0_si2326 raw_TIMIT_200ms/train/mdks0_si2326.ark:13
mdhl0_sx179 raw_TIMIT_200ms/train/mdhl0_sx179.ark:12
mntw0_sx348 raw_TIMIT_200ms/train/mntw0_sx348.ark:12
fsdc0_sx232 raw_TIMIT_200ms/train/fsdc0_sx232.ark:12
mmvp0_sx204 raw_TIMIT_200ms/train/mmvp0_sx204.ark:12
fjdm2_si1582 raw_TIMIT_200ms/train/fjdm2_si1582.ark:13
mtdb0_sx141 raw_TIMIT_200ms/train/mtdb0_sx141.ark:12
msdh0_sx80 raw_TIMIT_200ms/train/msdh0_sx80.ark:11
mafm0_sx39 raw_TIMIT_200ms/train/mafm0_sx39.ark:11
mrdd0_si1680 raw_TIMIT_200ms/train/mrdd0_si1680.ark:13
fbcg1_si1612 raw_TIMIT_200ms/train/fbcg1_si1612.ark:13
fscn0_si705 raw_TIMIT_200ms/train/fscn0_si705.ark:12
mrxb0_sx145 raw_TIMIT_200ms/train/mrxb0_sx145.ark:12
mmbs0_sx251 raw_TIMIT_200ms/train/mmbs0_sx251.ark:12
mjra0_si1236 raw_TIMIT_200ms/train/mjra0_si1236.ark:13
fvmh0_sx206 raw_TIMIT_200ms/train/fvmh0_sx206.ark:12
flkm0_sx260 raw_TIMIT_200ms/train/flkm0_sx260.ark:12
mwad0_sx432 raw_TIMIT_200ms/train/mwad0_sx432.ark:12
mapv0_sx33 raw_TIMIT_200ms/train/mapv0_sx33.ark:11
mkrg0_si861 raw_TIMIT_200ms/train/mkrg0_si861.ark:12
fjsp0_sx354 raw_TIMIT_200ms/train/fjsp0_sx354.ark:12
fvfb0_sx312 raw_TIMIT_200ms/train/fvfb0_sx312.ark:12
mrkm0_si1391 raw_TIMIT_200ms/train/mrkm0_si1391.ark:13
mkam0_si1316 raw_TIMIT_200ms/train/mkam0_si1316.ark:13
fpac0_sx121 raw_TIMIT_200ms/train/fpac0_sx121.ark:12
flkm0_si1880 raw_TIMIT_200ms/train/flkm0_si1880.ark:13
mbar0_sx419 raw_TIMIT_200ms/train/mbar0_sx419.ark:12
mrem0_sx61 raw_TIMIT_200ms/train/mrem0_sx61.ark:11
fclt0_sx448 raw_TIMIT_200ms/train/fclt0_sx448.ark:12
fcrz0_sx253 raw_TIMIT_200ms/train/fcrz0_sx253.ark:12
fssb0_sx362 raw_TIMIT_200ms/train/fssb0_sx362.ark:12
mwac0_sx431 raw_TIMIT_200ms/train/mwac0_sx431.ark:12
flma0_sx253 raw_TIMIT_200ms/train/flma0_sx253.ark:12
mcpm0_sx114 raw_TIMIT_200ms/train/mcpm0_sx114.ark:12
mdps0_si1651 raw_TIMIT_200ms/train/mdps0_si1651.ark:13
mwdk0_sx356 raw_TIMIT_200ms/train/mwdk0_sx356.ark:12
mtpp0_sx338 raw_TIMIT_200ms/train/mtpp0_sx338.ark:12
megj0_sx257 raw_TIMIT_200ms/train/megj0_sx257.ark:12
mrab0_si1224 raw_TIMIT_200ms/train/mrab0_si1224.ark:13
mwac0_sx341 raw_TIMIT_200ms/train/mwac0_sx341.ark:12
mrds0_si537 raw_TIMIT_200ms/train/mrds0_si537.ark:12
mefg0_sx285 raw_TIMIT_200ms/train/mefg0_sx285.ark:12
mafm0_si2199 raw_TIMIT_200ms/train/mafm0_si2199.ark:13
mfer0_sx232 raw_TIMIT_200ms/train/mfer0_sx232.ark:12
mmds0_sx83 raw_TIMIT_200ms/train/mmds0_sx83.ark:11
mdss1_sx247 raw_TIMIT_200ms/train/mdss1_sx247.ark:12
mjrh1_si1558 raw_TIMIT_200ms/train/mjrh1_si1558.ark:13
mtat1_si1409 raw_TIMIT_200ms/train/mtat1_si1409.ark:13
mdhs0_si2160 raw_TIMIT_200ms/train/mdhs0_si2160.ark:13
fbch0_sx146 raw_TIMIT_200ms/train/fbch0_sx146.ark:12
mtqc0_si480 raw_TIMIT_200ms/train/mtqc0_si480.ark:12
mhxl0_sx242 raw_TIMIT_200ms/train/mhxl0_sx242.ark:12
fksr0_si1117 raw_TIMIT_200ms/train/fksr0_si1117.ark:13
mesj0_si2039 raw_TIMIT_200ms/train/mesj0_si2039.ark:13
mvjh0_si2186 raw_TIMIT_200ms/train/mvjh0_si2186.ark:13
mkag0_sx169 raw_TIMIT_200ms/train/mkag0_sx169.ark:12
mdss0_si621 raw_TIMIT_200ms/train/mdss0_si621.ark:12
mjbg0_sx152 raw_TIMIT_200ms/train/mjbg0_sx152.ark:12
fsah0_sx74 raw_TIMIT_200ms/train/fsah0_sx74.ark:11
mtjg0_sx350 raw_TIMIT_200ms/train/mtjg0_sx350.ark:12
mdlr1_si1929 raw_TIMIT_200ms/train/mdlr1_si1929.ark:13
mgrp0_sx57 raw_TIMIT_200ms/train/mgrp0_sx57.ark:11
mlel0_sx166 raw_TIMIT_200ms/train/mlel0_sx166.ark:12
fsbk0_si2329 raw_TIMIT_200ms/train/fsbk0_si2329.ark:13
fjen0_sx417 raw_TIMIT_200ms/train/fjen0_sx417.ark:12
mrjt0_sx328 raw_TIMIT_200ms/train/mrjt0_sx328.ark:12
fcmm0_si1957 raw_TIMIT_200ms/train/fcmm0_si1957.ark:13
mprt0_sx220 raw_TIMIT_200ms/train/mprt0_sx220.ark:12
mrjh0_sx169 raw_TIMIT_200ms/train/mrjh0_sx169.ark:12
mrfk0_sx356 raw_TIMIT_200ms/train/mrfk0_sx356.ark:12
mrlr0_sx116 raw_TIMIT_200ms/train/mrlr0_sx116.ark:12
mdas0_sx6 raw_TIMIT_200ms/train/mdas0_sx6.ark:10
madc0_sx287 raw_TIMIT_200ms/train/madc0_sx287.ark:12
mapv0_sx213 raw_TIMIT_200ms/train/mapv0_sx213.ark:12
mdhs0_si900 raw_TIMIT_200ms/train/mdhs0_si900.ark:12
mrjb1_sx300 raw_TIMIT_200ms/train/mrjb1_sx300.ark:12
mkjo0_si1517 raw_TIMIT_200ms/train/mkjo0_si1517.ark:13
mfer0_si1492 raw_TIMIT_200ms/train/mfer0_si1492.ark:13
mreh1_sx429 raw_TIMIT_200ms/train/mreh1_sx429.ark:12
mcae0_sx7 raw_TIMIT_200ms/train/mcae0_sx7.ark:10
mmbs0_sx71 raw_TIMIT_200ms/train/mmbs0_sx71.ark:11
mter0_sx437 raw_TIMIT_200ms/train/mter0_sx437.ark:12
mjxl0_sx452 raw_TIMIT_200ms/train/mjxl0_sx452.ark:12
fljg0_sx351 raw_TIMIT_200ms/train/fljg0_sx351.ark:12
mrkm0_sx97 raw_TIMIT_200ms/train/mrkm0_sx97.ark:11
mjwt0_si751 raw_TIMIT_200ms/train/mjwt0_si751.ark:12
mesj0_sx7 raw_TIMIT_200ms/train/mesj0_sx7.ark:10
fjxp0_sx312 raw_TIMIT_200ms/train/fjxp0_sx312.ark:12
mapv0_sx123 raw_TIMIT_200ms/train/mapv0_sx123.ark:12
mbar0_si689 raw_TIMIT_200ms/train/mbar0_si689.ark:12
mmsm0_sx116 raw_TIMIT_200ms/train/mmsm0_sx116.ark:12
mkdt0_si2153 raw_TIMIT_200ms/train/mkdt0_si2153.ark:13
mrxb0_si955 raw_TIMIT_200ms/train/mrxb0_si955.ark:12
mjhi0_sx68 raw_TIMIT_200ms/train/mjhi0_sx68.ark:11
mdbp0_sx348 raw_TIMIT_200ms/train/mdbp0_sx348.ark:12
mmws0_sx168 raw_TIMIT_200ms/train/mmws0_sx168.ark:12
mwem0_si1320 raw_TIMIT_200ms/train/mwem0_si1320.ark:13
mjmm0_sx265 raw_TIMIT_200ms/train/mjmm0_sx265.ark:12
fskp0_sx378 raw_TIMIT_200ms/train/fskp0_sx378.ark:12
fdkn0_si1081 raw_TIMIT_200ms/train/fdkn0_si1081.ark:13
mcxm0_si1981 raw_TIMIT_200ms/train/mcxm0_si1981.ark:13
mtas0_sx395 raw_TIMIT_200ms/train/mtas0_sx395.ark:12
feme0_sx155 raw_TIMIT_200ms/train/feme0_sx155.ark:12
fcmm0_sx363 raw_TIMIT_200ms/train/fcmm0_sx363.ark:12
mtmt0_sx308 raw_TIMIT_200ms/train/mtmt0_sx308.ark:12
mgaf0_sx292 raw_TIMIT_200ms/train/mgaf0_sx292.ark:12
mjdm0_sx170 raw_TIMIT_200ms/train/mjdm0_sx170.ark:12
msmr0_sx145 raw_TIMIT_200ms/train/msmr0_sx145.ark:12
fgcs0_sx46 raw_TIMIT_200ms/train/fgcs0_sx46.ark:11
fjxm0_si581 raw_TIMIT_200ms/train/fjxm0_si581.ark:12
mklr0_sx159 raw_TIMIT_200ms/train/mklr0_sx159.ark:12
fkkh0_si660 raw_TIMIT_200ms/train/fkkh0_si660.ark:12
mgaf0_si1912 raw_TIMIT_200ms/train/mgaf0_si1912.ark:13
mcdr0_si524 raw_TIMIT_200ms/train/mcdr0_si524.ark:12
mkjo0_sx424 raw_TIMIT_200ms/train/mkjo0_sx424.ark:12
mchl0_sx267 raw_TIMIT_200ms/train/mchl0_sx267.ark:12
mrjb1_sx120 raw_TIMIT_200ms/train/mrjb1_sx120.ark:12
mtml0_sx345 raw_TIMIT_200ms/train/mtml0_sx345.ark:12
mwad0_sx72 raw_TIMIT_200ms/train/mwad0_sx72.ark:11
fjkl0_sx212 raw_TIMIT_200ms/train/fjkl0_sx212.ark:12
mmvp0_sx384 raw_TIMIT_200ms/train/mmvp0_sx384.ark:12
mrcg0_sx78 raw_TIMIT_200ms/train/mrcg0_sx78.ark:11
msfv0_sx452 raw_TIMIT_200ms/train/msfv0_sx452.ark:12
mmea0_sx128 raw_TIMIT_200ms/train/mmea0_sx128.ark:12
mbma0_sx52 raw_TIMIT_200ms/train/mbma0_sx52.ark:11
fvkb0_si529 raw_TIMIT_200ms/train/fvkb0_si529.ark:12
mgaf0_sx22 raw_TIMIT_200ms/train/mgaf0_sx22.ark:11
fdml0_sx159 raw_TIMIT_200ms/train/fdml0_sx159.ark:12
mprk0_sx287 raw_TIMIT_200ms/train/mprk0_sx287.ark:12
mkdb0_sx62 raw_TIMIT_200ms/train/mkdb0_sx62.ark:11
mmgk0_sx242 raw_TIMIT_200ms/train/mmgk0_sx242.ark:12
mwsb0_sx366 raw_TIMIT_200ms/train/mwsb0_sx366.ark:12
mclm0_sx106 raw_TIMIT_200ms/train/mclm0_sx106.ark:12
mpar0_sx46 raw_TIMIT_200ms/train/mpar0_sx46.ark:11
mrlk0_sx33 raw_TIMIT_200ms/train/mrlk0_sx33.ark:11
mprd0_si1431 raw_TIMIT_200ms/train/mprd0_si1431.ark:13
mbsb0_si1353 raw_TIMIT_200ms/train/mbsb0_si1353.ark:13
fetb0_sx158 raw_TIMIT_200ms/train/fetb0_sx158.ark:12
mdpb0_sx56 raw_TIMIT_200ms/train/mdpb0_sx56.ark:11
mhit0_si983 raw_TIMIT_200ms/train/mhit0_si983.ark:12
mdpb0_sx146 raw_TIMIT_200ms/train/mdpb0_sx146.ark:12
mmbs0_si1781 raw_TIMIT_200ms/train/mmbs0_si1781.ark:13
mewm0_sx178 raw_TIMIT_200ms/train/mewm0_sx178.ark:12
mpfu0_sx268 raw_TIMIT_200ms/train/mpfu0_sx268.ark:12
fcke0_si1741 raw_TIMIT_200ms/train/fcke0_si1741.ark:13
fmbg0_sx260 raw_TIMIT_200ms/train/fmbg0_sx260.ark:12
mwar0_sx235 raw_TIMIT_200ms/train/mwar0_sx235.ark:12
fsmm0_sx234 raw_TIMIT_200ms/train/fsmm0_sx234.ark:12
flmc0_sx292 raw_TIMIT_200ms/train/flmc0_sx292.ark:12
fhlm0_si2190 raw_TIMIT_200ms/train/fhlm0_si2190.ark:13
mvrw0_sx405 raw_TIMIT_200ms/train/mvrw0_sx405.ark:12
msat1_sx83 raw_TIMIT_200ms/train/msat1_sx83.ark:11
mjdc0_sx81 raw_TIMIT_200ms/train/mjdc0_sx81.ark:11
fsbk0_sx439 raw_TIMIT_200ms/train/fsbk0_sx439.ark:12
msms0_sx173 raw_TIMIT_200ms/train/msms0_sx173.ark:12
mcre0_si1121 raw_TIMIT_200ms/train/mcre0_si1121.ark:13
mjfh0_sx387 raw_TIMIT_200ms/train/mjfh0_sx387.ark:12
mdwm0_sx433 raw_TIMIT_200ms/train/mdwm0_sx433.ark:12
msat1_sx353 raw_TIMIT_200ms/train/msat1_sx353.ark:12
mjae0_sx84 raw_TIMIT_200ms/train/mjae0_sx84.ark:11
mklw0_si1571 raw_TIMIT_200ms/train/mklw0_si1571.ark:13
mjjm0_sx107 raw_TIMIT_200ms/train/mjjm0_sx107.ark:12
fsgf0_sx297 raw_TIMIT_200ms/train/fsgf0_sx297.ark:12
mjrh1_sx334 raw_TIMIT_200ms/train/mjrh1_sx334.ark:12
mrsp0_sx169 raw_TIMIT_200ms/train/mrsp0_sx169.ark:12
mrlj0_si2050 raw_TIMIT_200ms/train/mrlj0_si2050.ark:13
marw0_si1906 raw_TIMIT_200ms/train/marw0_si1906.ark:13
falr0_sx335 raw_TIMIT_200ms/train/falr0_sx335.ark:12
msat1_sx173 raw_TIMIT_200ms/train/msat1_sx173.ark:12
mvjh0_sx206 raw_TIMIT_200ms/train/mvjh0_sx206.ark:12
msrr0_si501 raw_TIMIT_200ms/train/msrr0_si501.ark:12
fsah0_si1874 raw_TIMIT_200ms/train/fsah0_si1874.ark:13
fsak0_sx40 raw_TIMIT_200ms/train/fsak0_sx40.ark:11
mrws0_sx292 raw_TIMIT_200ms/train/mrws0_sx292.ark:12
makb0_si1016 raw_TIMIT_200ms/train/makb0_si1016.ark:13
falk0_si658 raw_TIMIT_200ms/train/falk0_si658.ark:12
majp0_sx444 raw_TIMIT_200ms/train/majp0_sx444.ark:12
mmws1_si2331 raw_TIMIT_200ms/train/mmws1_si2331.ark:13
ftmg0_sx92 raw_TIMIT_200ms/train/ftmg0_sx92.ark:11
mrml0_si791 raw_TIMIT_200ms/train/mrml0_si791.ark:12
fscn0_sx266 raw_TIMIT_200ms/train/fscn0_sx266.ark:12
fgrw0_si1782 raw_TIMIT_200ms/train/fgrw0_si1782.ark:13
fsls0_si1056 raw_TIMIT_200ms/train/fsls0_si1056.ark:13
mrfl0_sx436 raw_TIMIT_200ms/train/mrfl0_sx436.ark:12
mcef0_si1135 raw_TIMIT_200ms/train/mcef0_si1135.ark:13
mddc0_sx159 raw_TIMIT_200ms/train/mddc0_sx159.ark:12
mgag0_sx421 raw_TIMIT_200ms/train/mgag0_sx421.ark:12
mdjm0_sx285 raw_TIMIT_200ms/train/mdjm0_sx285.ark:12
mwar0_si1675 raw_TIMIT_200ms/train/mwar0_si1675.ark:13
mmdg0_si520 raw_TIMIT_200ms/train/mmdg0_si520.ark:12
mrsp0_sx196 raw_TIMIT_200ms/train/mrsp0_sx196.ark:12
mdks0_sx76 raw_TIMIT_200ms/train/mdks0_sx76.ark:11
mrgm0_sx172 raw_TIMIT_200ms/train/mrgm0_sx172.ark:12
flod0_sx387 raw_TIMIT_200ms/train/flod0_sx387.ark:12
fmmh0_sx420 raw_TIMIT_200ms/train/fmmh0_sx420.ark:12
