mrld0_sx244 raw_TIMIT_200ms/train/mrld0_sx244.ark:12
mafm0_sx219 raw_TIMIT_200ms/train/mafm0_sx219.ark:12
mrjh0_sx259 raw_TIMIT_200ms/train/mrjh0_sx259.ark:12
msah1_sx329 raw_TIMIT_200ms/train/msah1_sx329.ark:12
mfxv0_sx195 raw_TIMIT_200ms/train/mfxv0_sx195.ark:12
mclk0_sx130 raw_TIMIT_200ms/train/mclk0_sx130.ark:12
mmwb0_sx269 raw_TIMIT_200ms/train/mmwb0_sx269.ark:12
mjfr0_si2235 raw_TIMIT_200ms/train/mjfr0_si2235.ark:13
mmea0_si2018 raw_TIMIT_200ms/train/mmea0_si2018.ark:13
mfwk0_si619 raw_TIMIT_200ms/train/mfwk0_si619.ark:12
msat0_sx446 raw_TIMIT_200ms/train/msat0_sx446.ark:12
mmgk0_sx332 raw_TIMIT_200ms/train/mmgk0_sx332.ark:12
fsjk1_sx125 raw_TIMIT_200ms/train/fsjk1_sx125.ark:12
mdlm0_si1234 raw_TIMIT_200ms/train/mdlm0_si1234.ark:13
fklh0_sx87 raw_TIMIT_200ms/train/fklh0_sx87.ark:11
mefg0_sx375 raw_TIMIT_200ms/train/mefg0_sx375.ark:12
mtwh1_sx252 raw_TIMIT_200ms/train/mtwh1_sx252.ark:12
mdhs0_si900 raw_TIMIT_200ms/train/mdhs0_si900.ark:12
fltm0_sx260 raw_TIMIT_200ms/train/fltm0_sx260.ark:12
mrxb0_si1585 raw_TIMIT_200ms/train/mrxb0_si1585.ark:13
fgmb0_si1145 raw_TIMIT_200ms/train/fgmb0_si1145.ark:13
fdas1_si831 raw_TIMIT_200ms/train/fdas1_si831.ark:12
fltm0_sx170 raw_TIMIT_200ms/train/fltm0_sx170.ark:12
mbma0_si1852 raw_TIMIT_200ms/train/mbma0_si1852.ark:13
mdlh0_sx70 raw_TIMIT_200ms/train/mdlh0_sx70.ark:11
mbef0_si651 raw_TIMIT_200ms/train/mbef0_si651.ark:12
fleh0_si1681 raw_TIMIT_200ms/train/fleh0_si1681.ark:13
fjlg0_si1506 raw_TIMIT_200ms/train/fjlg0_si1506.ark:13
mtdp0_sx81 raw_TIMIT_200ms/train/mtdp0_sx81.ark:11
mwrp0_sx363 raw_TIMIT_200ms/train/mwrp0_sx363.ark:12
mtqc0_sx91 raw_TIMIT_200ms/train/mtqc0_sx91.ark:11
mtrc0_si589 raw_TIMIT_200ms/train/mtrc0_si589.ark:12
fcmm0_sx93 raw_TIMIT_200ms/train/fcmm0_sx93.ark:11
mcdd0_sx73 raw_TIMIT_200ms/train/mcdd0_sx73.ark:11
fcdr1_si1186 raw_TIMIT_200ms/train/fcdr1_si1186.ark:13
mdac0_sx271 raw_TIMIT_200ms/train/mdac0_sx271.ark:12
fjsp0_sx174 raw_TIMIT_200ms/train/fjsp0_sx174.ark:12
mtjs0_sx112 raw_TIMIT_200ms/train/mtjs0_sx112.ark:12
fsmm0_sx144 raw_TIMIT_200ms/train/fsmm0_sx144.ark:12
mgaf0_sx22 raw_TIMIT_200ms/train/mgaf0_sx22.ark:11
mkdt0_si814 raw_TIMIT_200ms/train/mkdt0_si814.ark:12
fhlm0_si930 raw_TIMIT_200ms/train/fhlm0_si930.ark:12
mlbc0_si1239 raw_TIMIT_200ms/train/mlbc0_si1239.ark:13
mcal0_sx148 raw_TIMIT_200ms/train/mcal0_sx148.ark:12
fdmy0_sx387 raw_TIMIT_200ms/train/fdmy0_sx387.ark:12
mkdb0_si588 raw_TIMIT_200ms/train/mkdb0_si588.ark:12
mbcg0_sx327 raw_TIMIT_200ms/train/mbcg0_sx327.ark:12
mwem0_si1950 raw_TIMIT_200ms/train/mwem0_si1950.ark:13
mrav0_si1638 raw_TIMIT_200ms/train/mrav0_si1638.ark:13
mrkm0_sx97 raw_TIMIT_200ms/train/mrkm0_sx97.ark:11
milb0_sx183 raw_TIMIT_200ms/train/milb0_sx183.ark:12
mlsh0_si1417 raw_TIMIT_200ms/train/mlsh0_si1417.ark:13
mrre0_si1334 raw_TIMIT_200ms/train/mrre0_si1334.ark:13
mdlr1_sx219 raw_TIMIT_200ms/train/mdlr1_sx219.ark:12
mrre0_sx74 raw_TIMIT_200ms/train/mrre0_sx74.ark:11
mcth0_sx309 raw_TIMIT_200ms/train/mcth0_sx309.ark:12
madd0_sx358 raw_TIMIT_200ms/train/madd0_sx358.ark:12
fajw0_sx273 raw_TIMIT_200ms/train/fajw0_sx273.ark:12
fleh0_sx421 raw_TIMIT_200ms/train/fleh0_sx421.ark:12
mtpp0_sx158 raw_TIMIT_200ms/train/mtpp0_sx158.ark:12
mdsj0_si2092 raw_TIMIT_200ms/train/mdsj0_si2092.ark:13
mtdb0_si771 raw_TIMIT_200ms/train/mtdb0_si771.ark:12
freh0_sx145 raw_TIMIT_200ms/train/freh0_sx145.ark:12
mdsj0_sx22 raw_TIMIT_200ms/train/mdsj0_sx22.ark:11
fgcs0_si856 raw_TIMIT_200ms/train/fgcs0_si856.ark:12
mmvp0_sx204 raw_TIMIT_200ms/train/mmvp0_sx204.ark:12
ftlg0_si1743 raw_TIMIT_200ms/train/ftlg0_si1743.ark:13
mclm0_sx376 raw_TIMIT_200ms/train/mclm0_sx376.ark:12
mmbs0_si1781 raw_TIMIT_200ms/train/mmbs0_si1781.ark:13
mgaw0_si1165 raw_TIMIT_200ms/train/mgaw0_si1165.ark:13
mkaj0_sx154 raw_TIMIT_200ms/train/mkaj0_sx154.ark:12
mjae0_sx84 raw_TIMIT_200ms/train/mjae0_sx84.ark:11
feme0_sx155 raw_TIMIT_200ms/train/feme0_sx155.ark:12
flma0_si613 raw_TIMIT_200ms/train/flma0_si613.ark:12
fetb0_si1778 raw_TIMIT_200ms/train/fetb0_si1778.ark:13
mmdm1_sx153 raw_TIMIT_200ms/train/mmdm1_sx153.ark:12
fear0_sx262 raw_TIMIT_200ms/train/fear0_sx262.ark:12
mjrh0_sx315 raw_TIMIT_200ms/train/mjrh0_sx315.ark:12
mjlg1_si1642 raw_TIMIT_200ms/train/mjlg1_si1642.ark:13
mcss0_si750 raw_TIMIT_200ms/train/mcss0_si750.ark:12
fljg0_sx81 raw_TIMIT_200ms/train/fljg0_sx81.ark:11
mmag0_sx226 raw_TIMIT_200ms/train/mmag0_sx226.ark:12
fsgf0_sx387 raw_TIMIT_200ms/train/fsgf0_sx387.ark:12
msdh0_sx350 raw_TIMIT_200ms/train/msdh0_sx350.ark:12
mrlr0_sx386 raw_TIMIT_200ms/train/mrlr0_sx386.ark:12
mjeb1_sx207 raw_TIMIT_200ms/train/mjeb1_sx207.ark:12
mchl0_sx267 raw_TIMIT_200ms/train/mchl0_sx267.ark:12
mmgk0_si1322 raw_TIMIT_200ms/train/mmgk0_si1322.ark:13
fsak0_si1300 raw_TIMIT_200ms/train/fsak0_si1300.ark:13
mjrh1_sx244 raw_TIMIT_200ms/train/mjrh1_sx244.ark:12
mjxa0_sx337 raw_TIMIT_200ms/train/mjxa0_sx337.ark:12
mdpb0_si1760 raw_TIMIT_200ms/train/mdpb0_si1760.ark:13
mrai0_sx162 raw_TIMIT_200ms/train/mrai0_sx162.ark:12
fjwb1_sx435 raw_TIMIT_200ms/train/fjwb1_sx435.ark:12
makr0_sx452 raw_TIMIT_200ms/train/makr0_sx452.ark:12
mwre0_sx337 raw_TIMIT_200ms/train/mwre0_sx337.ark:12
mejl0_sx242 raw_TIMIT_200ms/train/mejl0_sx242.ark:12
mtdb0_sx51 raw_TIMIT_200ms/train/mtdb0_sx51.ark:11
fcmm0_sx273 raw_TIMIT_200ms/train/fcmm0_sx273.ark:12
mree0_si1104 raw_TIMIT_200ms/train/mree0_si1104.ark:13
mrgs0_si1986 raw_TIMIT_200ms/train/mrgs0_si1986.ark:13
mtrt0_si1857 raw_TIMIT_200ms/train/mtrt0_si1857.ark:13
frjb0_sx437 raw_TIMIT_200ms/train/frjb0_sx437.ark:12
mtml0_sx345 raw_TIMIT_200ms/train/mtml0_sx345.ark:12
mrdm0_si1595 raw_TIMIT_200ms/train/mrdm0_si1595.ark:13
mdps0_si719 raw_TIMIT_200ms/train/mdps0_si719.ark:12
mpeb0_sx330 raw_TIMIT_200ms/train/mpeb0_sx330.ark:12
mtcs0_si2265 raw_TIMIT_200ms/train/mtcs0_si2265.ark:13
fpab1_si841 raw_TIMIT_200ms/train/fpab1_si841.ark:12
fjkl0_si2192 raw_TIMIT_200ms/train/fjkl0_si2192.ark:13
mbgt0_si1341 raw_TIMIT_200ms/train/mbgt0_si1341.ark:13
fsag0_si1323 raw_TIMIT_200ms/train/fsag0_si1323.ark:13
mbth0_sx32 raw_TIMIT_200ms/train/mbth0_sx32.ark:11
mcef0_sx325 raw_TIMIT_200ms/train/mcef0_sx325.ark:12
fsls0_sx66 raw_TIMIT_200ms/train/fsls0_sx66.ark:11
mpmb0_si2131 raw_TIMIT_200ms/train/mpmb0_si2131.ark:13
mram0_si1951 raw_TIMIT_200ms/train/mram0_si1951.ark:13
fnkl0_sx262 raw_TIMIT_200ms/train/fnkl0_sx262.ark:12
mefg0_si491 raw_TIMIT_200ms/train/mefg0_si491.ark:12
fmkf0_sx366 raw_TIMIT_200ms/train/fmkf0_sx366.ark:12
fbmh0_sx146 raw_TIMIT_200ms/train/fbmh0_sx146.ark:12
mmaa0_si1588 raw_TIMIT_200ms/train/mmaa0_si1588.ark:13
mrso0_si1206 raw_TIMIT_200ms/train/mrso0_si1206.ark:13
mdwd0_si557 raw_TIMIT_200ms/train/mdwd0_si557.ark:12
medr0_sx114 raw_TIMIT_200ms/train/medr0_sx114.ark:12
mtqc0_sx181 raw_TIMIT_200ms/train/mtqc0_sx181.ark:12
mgrl0_sx417 raw_TIMIT_200ms/train/mgrl0_sx417.ark:12
mwad0_si1749 raw_TIMIT_200ms/train/mwad0_si1749.ark:13
mtkd0_sx107 raw_TIMIT_200ms/train/mtkd0_sx107.ark:12
mmar0_sx346 raw_TIMIT_200ms/train/mmar0_sx346.ark:12
flag0_sx24 raw_TIMIT_200ms/train/flag0_sx24.ark:11
msat1_sx263 raw_TIMIT_200ms/train/msat1_sx263.ark:12
mntw0_si1068 raw_TIMIT_200ms/train/mntw0_si1068.ark:13
mkjo0_sx77 raw_TIMIT_200ms/train/mkjo0_sx77.ark:11
mmag0_sx316 raw_TIMIT_200ms/train/mmag0_sx316.ark:12
fmah1_sx339 raw_TIMIT_200ms/train/fmah1_sx339.ark:12
mejs0_sx340 raw_TIMIT_200ms/train/mejs0_sx340.ark:12
mkjo0_sx167 raw_TIMIT_200ms/train/mkjo0_sx167.ark:12
mjxa0_si1507 raw_TIMIT_200ms/train/mjxa0_si1507.ark:13
mrlk0_sx33 raw_TIMIT_200ms/train/mrlk0_sx33.ark:11
mrds0_sx87 raw_TIMIT_200ms/train/mrds0_sx87.ark:11
mrcw0_si1371 raw_TIMIT_200ms/train/mrcw0_si1371.ark:13
msem1_sx180 raw_TIMIT_200ms/train/msem1_sx180.ark:12
mbom0_sx384 raw_TIMIT_200ms/train/mbom0_sx384.ark:12
mjmd0_si1658 raw_TIMIT_200ms/train/mjmd0_si1658.ark:13
mjrp0_si585 raw_TIMIT_200ms/train/mjrp0_si585.ark:12
mcpm0_sx204 raw_TIMIT_200ms/train/mcpm0_sx204.ark:12
makb0_sx26 raw_TIMIT_200ms/train/makb0_sx26.ark:11
fdkn0_sx181 raw_TIMIT_200ms/train/fdkn0_sx181.ark:12
mdas0_sx96 raw_TIMIT_200ms/train/mdas0_sx96.ark:11
mdpk0_sx63 raw_TIMIT_200ms/train/mdpk0_sx63.ark:11
mljh0_si1422 raw_TIMIT_200ms/train/mljh0_si1422.ark:13
mree0_si1959 raw_TIMIT_200ms/train/mree0_si1959.ark:13
fdml0_sx429 raw_TIMIT_200ms/train/fdml0_sx429.ark:12
mjeb0_si1916 raw_TIMIT_200ms/train/mjeb0_si1916.ark:13
mter0_sx167 raw_TIMIT_200ms/train/mter0_sx167.ark:12
mkln0_sx338 raw_TIMIT_200ms/train/mkln0_sx338.ark:12
mtjs0_si562 raw_TIMIT_200ms/train/mtjs0_si562.ark:12
mtdb0_sx231 raw_TIMIT_200ms/train/mtdb0_sx231.ark:12
mcae0_sx7 raw_TIMIT_200ms/train/mcae0_sx7.ark:10
mmlm0_sx267 raw_TIMIT_200ms/train/mmlm0_sx267.ark:12
fsak0_sx130 raw_TIMIT_200ms/train/fsak0_sx130.ark:12
mrlj1_sx51 raw_TIMIT_200ms/train/mrlj1_sx51.ark:11
fbcg1_sx442 raw_TIMIT_200ms/train/fbcg1_sx442.ark:12
mhmr0_si1692 raw_TIMIT_200ms/train/mhmr0_si1692.ark:13
msah1_sx59 raw_TIMIT_200ms/train/msah1_sx59.ark:11
mejs0_sx430 raw_TIMIT_200ms/train/mejs0_sx430.ark:12
fleh0_si1051 raw_TIMIT_200ms/train/fleh0_si1051.ark:13
mrre0_sx254 raw_TIMIT_200ms/train/mrre0_sx254.ark:12
mdef0_si1123 raw_TIMIT_200ms/train/mdef0_si1123.ark:13
mklr0_sx69 raw_TIMIT_200ms/train/mklr0_sx69.ark:11
fskl0_sx89 raw_TIMIT_200ms/train/fskl0_sx89.ark:11
mrtc0_si1458 raw_TIMIT_200ms/train/mrtc0_si1458.ark:13
mrfl0_sx256 raw_TIMIT_200ms/train/mrfl0_sx256.ark:12
feac0_sx345 raw_TIMIT_200ms/train/feac0_sx345.ark:12
mdlb0_si1306 raw_TIMIT_200ms/train/mdlb0_si1306.ark:13
mtkd0_sx197 raw_TIMIT_200ms/train/mtkd0_sx197.ark:12
mdmt0_sx32 raw_TIMIT_200ms/train/mdmt0_sx32.ark:11
mtqc0_si2071 raw_TIMIT_200ms/train/mtqc0_si2071.ark:13
mdks0_sx76 raw_TIMIT_200ms/train/mdks0_sx76.ark:11
mmea0_sx38 raw_TIMIT_200ms/train/mmea0_sx38.ark:11
msfv0_sx452 raw_TIMIT_200ms/train/msfv0_sx452.ark:12
fmmh0_sx187 raw_TIMIT_200ms/train/fmmh0_sx187.ark:12
msms0_sx173 raw_TIMIT_200ms/train/msms0_sx173.ark:12
maeb0_sx360 raw_TIMIT_200ms/train/maeb0_sx360.ark:12
mfrm0_si1155 raw_TIMIT_200ms/train/mfrm0_si1155.ark:13
fcag0_sx243 raw_TIMIT_200ms/train/fcag0_sx243.ark:12
mwad0_sx432 raw_TIMIT_200ms/train/mwad0_sx432.ark:12
fjrb0_sx222 raw_TIMIT_200ms/train/fjrb0_sx222.ark:12
mges0_sx131 raw_TIMIT_200ms/train/mges0_sx131.ark:12
majp0_sx174 raw_TIMIT_200ms/train/majp0_sx174.ark:12
fjrb0_sx312 raw_TIMIT_200ms/train/fjrb0_sx312.ark:12
ftbr0_si2181 raw_TIMIT_200ms/train/ftbr0_si2181.ark:13
mjpm1_sx401 raw_TIMIT_200ms/train/mjpm1_sx401.ark:12
mjlb0_sx86 raw_TIMIT_200ms/train/mjlb0_sx86.ark:11
mapv0_sx303 raw_TIMIT_200ms/train/mapv0_sx303.ark:12
mlel0_si616 raw_TIMIT_200ms/train/mlel0_si616.ark:12
mmdb0_si1617 raw_TIMIT_200ms/train/mmdb0_si1617.ark:13
mclm0_si2086 raw_TIMIT_200ms/train/mclm0_si2086.ark:13
fsdj0_sx125 raw_TIMIT_200ms/train/fsdj0_sx125.ark:12
fcrz0_sx253 raw_TIMIT_200ms/train/fcrz0_sx253.ark:12
mjrk0_si1662 raw_TIMIT_200ms/train/mjrk0_si1662.ark:13
mcxm0_sx271 raw_TIMIT_200ms/train/mcxm0_sx271.ark:12
fjxm0_si1211 raw_TIMIT_200ms/train/fjxm0_si1211.ark:13
mrfk0_si1076 raw_TIMIT_200ms/train/mrfk0_si1076.ark:13
mdwh0_si665 raw_TIMIT_200ms/train/mdwh0_si665.ark:12
mdns0_si873 raw_TIMIT_200ms/train/mdns0_si873.ark:12
fsgf0_si1557 raw_TIMIT_200ms/train/fsgf0_si1557.ark:13
mbma1_si2214 raw_TIMIT_200ms/train/mbma1_si2214.ark:13
fsah0_sx164 raw_TIMIT_200ms/train/fsah0_sx164.ark:12
mpfu0_sx88 raw_TIMIT_200ms/train/mpfu0_sx88.ark:11
mgak0_sx136 raw_TIMIT_200ms/train/mgak0_sx136.ark:12
mmsm0_sx26 raw_TIMIT_200ms/train/mmsm0_sx26.ark:11
mtjm0_si1226 raw_TIMIT_200ms/train/mtjm0_si1226.ark:13
mrgs0_sx366 raw_TIMIT_200ms/train/mrgs0_sx366.ark:12
mrcg0_sx78 raw_TIMIT_200ms/train/mrcg0_sx78.ark:11
mwch0_si1895 raw_TIMIT_200ms/train/mwch0_si1895.ark:13
falk0_sx366 raw_TIMIT_200ms/train/falk0_sx366.ark:12
fvfb0_si2292 raw_TIMIT_200ms/train/fvfb0_si2292.ark:13
mmjb1_sx238 raw_TIMIT_200ms/train/mmjb1_sx238.ark:12
mmar0_sx166 raw_TIMIT_200ms/train/mmar0_sx166.ark:12
mwrp0_sx93 raw_TIMIT_200ms/train/mwrp0_sx93.ark:11
fdtd0_sx301 raw_TIMIT_200ms/train/fdtd0_sx301.ark:12
fecd0_sx428 raw_TIMIT_200ms/train/fecd0_sx428.ark:12
mdac0_sx451 raw_TIMIT_200ms/train/mdac0_sx451.ark:12
fskp0_si1098 raw_TIMIT_200ms/train/fskp0_si1098.ark:13
mjde0_si490 raw_TIMIT_200ms/train/mjde0_si490.ark:12
fpac0_sx301 raw_TIMIT_200ms/train/fpac0_sx301.ark:12
fceg0_sx168 raw_TIMIT_200ms/train/fceg0_sx168.ark:12
mdss1_si1713 raw_TIMIT_200ms/train/mdss1_si1713.ark:13
mrem0_sx421 raw_TIMIT_200ms/train/mrem0_sx421.ark:12
mmab1_si2124 raw_TIMIT_200ms/train/mmab1_si2124.ark:13
fdfb0_si1318 raw_TIMIT_200ms/train/fdfb0_si1318.ark:13
fjlr0_sx421 raw_TIMIT_200ms/train/fjlr0_sx421.ark:12
mrjm0_si1858 raw_TIMIT_200ms/train/mrjm0_si1858.ark:13
mddc0_si1419 raw_TIMIT_200ms/train/mddc0_si1419.ark:13
mfer0_sx412 raw_TIMIT_200ms/train/mfer0_sx412.ark:12
fsjs0_si1171 raw_TIMIT_200ms/train/fsjs0_si1171.ark:13
mgaf0_si652 raw_TIMIT_200ms/train/mgaf0_si652.ark:12
mbgt0_si1841 raw_TIMIT_200ms/train/mbgt0_si1841.ark:13
mmgc0_sx405 raw_TIMIT_200ms/train/mmgc0_sx405.ark:12
mcef0_sx415 raw_TIMIT_200ms/train/mcef0_sx415.ark:12
mgaw0_sx265 raw_TIMIT_200ms/train/mgaw0_sx265.ark:12
mkxl0_sx105 raw_TIMIT_200ms/train/mkxl0_sx105.ark:12
mrre0_si704 raw_TIMIT_200ms/train/mrre0_si704.ark:12
mrml0_sx431 raw_TIMIT_200ms/train/mrml0_sx431.ark:12
mfxv0_sx15 raw_TIMIT_200ms/train/mfxv0_sx15.ark:11
mdlr0_sx333 raw_TIMIT_200ms/train/mdlr0_sx333.ark:12
fcag0_sx423 raw_TIMIT_200ms/train/fcag0_sx423.ark:12
mdwd0_sx90 raw_TIMIT_200ms/train/mdwd0_sx90.ark:11
mrld0_sx154 raw_TIMIT_200ms/train/mrld0_sx154.ark:12
mjrk0_si880 raw_TIMIT_200ms/train/mjrk0_si880.ark:12
madc0_si1997 raw_TIMIT_200ms/train/madc0_si1997.ark:13
fsag0_sx243 raw_TIMIT_200ms/train/fsag0_sx243.ark:12
mjmm0_sx445 raw_TIMIT_200ms/train/mjmm0_sx445.ark:12
msjk0_sx336 raw_TIMIT_200ms/train/msjk0_sx336.ark:12
mdsj0_sx382 raw_TIMIT_200ms/train/mdsj0_sx382.ark:12
msat1_si2333 raw_TIMIT_200ms/train/msat1_si2333.ark:13
fjsp0_sx354 raw_TIMIT_200ms/train/fjsp0_sx354.ark:12
fceg0_sx348 raw_TIMIT_200ms/train/fceg0_sx348.ark:12
fsmm0_sx54 raw_TIMIT_200ms/train/fsmm0_sx54.ark:11
fmkf0_si906 raw_TIMIT_200ms/train/fmkf0_si906.ark:12
mmgk0_si692 raw_TIMIT_200ms/train/mmgk0_si692.ark:12
fklc1_si1678 raw_TIMIT_200ms/train/fklc1_si1678.ark:13
fklc0_si1615 raw_TIMIT_200ms/train/fklc0_si1615.ark:13
mlns0_sx237 raw_TIMIT_200ms/train/mlns0_sx237.ark:12
mmar0_sx436 raw_TIMIT_200ms/train/mmar0_sx436.ark:12
fmjb0_sx7 raw_TIMIT_200ms/train/fmjb0_sx7.ark:10
mjwt0_sx391 raw_TIMIT_200ms/train/mjwt0_sx391.ark:12
fleh0_sx331 raw_TIMIT_200ms/train/fleh0_sx331.ark:12
mjde0_si463 raw_TIMIT_200ms/train/mjde0_si463.ark:12
mwsb0_sx366 raw_TIMIT_200ms/train/mwsb0_sx366.ark:12
mfxs0_sx54 raw_TIMIT_200ms/train/mfxs0_sx54.ark:11
mtat0_sx300 raw_TIMIT_200ms/train/mtat0_sx300.ark:12
mbth0_si505 raw_TIMIT_200ms/train/mbth0_si505.ark:12
feme0_sx425 raw_TIMIT_200ms/train/feme0_sx425.ark:12
mmds0_si1973 raw_TIMIT_200ms/train/mmds0_si1973.ark:13
fjxp0_sx222 raw_TIMIT_200ms/train/fjxp0_sx222.ark:12
mrwa0_si2233 raw_TIMIT_200ms/train/mrwa0_si2233.ark:13
mpgr1_sx419 raw_TIMIT_200ms/train/mpgr1_sx419.ark:12
mrwa0_sx343 raw_TIMIT_200ms/train/mrwa0_sx343.ark:12
mrlk0_sx393 raw_TIMIT_200ms/train/mrlk0_sx393.ark:12
mhrm0_sx328 raw_TIMIT_200ms/train/mhrm0_sx328.ark:12
mdas0_si1896 raw_TIMIT_200ms/train/mdas0_si1896.ark:13
mbth0_sx122 raw_TIMIT_200ms/train/mbth0_sx122.ark:12
mjfh0_si1107 raw_TIMIT_200ms/train/mjfh0_si1107.ark:13
mrtj0_si1551 raw_TIMIT_200ms/train/mrtj0_si1551.ark:13
mwem0_si1393 raw_TIMIT_200ms/train/mwem0_si1393.ark:13
mdwm0_sx286 raw_TIMIT_200ms/train/mdwm0_sx286.ark:12
mmwb0_sx449 raw_TIMIT_200ms/train/mmwb0_sx449.ark:12
fdmy0_sx27 raw_TIMIT_200ms/train/fdmy0_sx27.ark:11
fkfb0_sx438 raw_TIMIT_200ms/train/fkfb0_sx438.ark:12
mrmh0_si1021 raw_TIMIT_200ms/train/mrmh0_si1021.ark:13
mcef0_si1135 raw_TIMIT_200ms/train/mcef0_si1135.ark:13
mjae0_sx354 raw_TIMIT_200ms/train/mjae0_sx354.ark:12
mcth0_si1209 raw_TIMIT_200ms/train/mcth0_si1209.ark:13
mjac0_sx251 raw_TIMIT_200ms/train/mjac0_sx251.ark:12
mtpg0_sx393 raw_TIMIT_200ms/train/mtpg0_sx393.ark:12
msdh0_sx440 raw_TIMIT_200ms/train/msdh0_sx440.ark:12
fjlg0_si2306 raw_TIMIT_200ms/train/fjlg0_si2306.ark:13
mrgm0_sx262 raw_TIMIT_200ms/train/mrgm0_sx262.ark:12
mrjm0_sx148 raw_TIMIT_200ms/train/mrjm0_sx148.ark:12
mjdc0_sx441 raw_TIMIT_200ms/train/mjdc0_sx441.ark:12
mgaw0_sx355 raw_TIMIT_200ms/train/mgaw0_sx355.ark:12
fajw0_si1263 raw_TIMIT_200ms/train/fajw0_si1263.ark:13
fpmy0_si1153 raw_TIMIT_200ms/train/fpmy0_si1153.ark:13
mtrc0_sx273 raw_TIMIT_200ms/train/mtrc0_sx273.ark:12
mvjh0_sx116 raw_TIMIT_200ms/train/mvjh0_sx116.ark:12
mgar0_si1212 raw_TIMIT_200ms/train/mgar0_si1212.ark:13
mprk0_sx377 raw_TIMIT_200ms/train/mprk0_sx377.ark:12
msds0_sx267 raw_TIMIT_200ms/train/msds0_sx267.ark:12
mpgr0_si2040 raw_TIMIT_200ms/train/mpgr0_si2040.ark:13
fdjh0_sx35 raw_TIMIT_200ms/train/fdjh0_sx35.ark:11
fsbk0_si1699 raw_TIMIT_200ms/train/fsbk0_si1699.ark:13
meal0_sx347 raw_TIMIT_200ms/train/meal0_sx347.ark:12
mrav0_sx198 raw_TIMIT_200ms/train/mrav0_sx198.ark:12
fpac0_sx391 raw_TIMIT_200ms/train/fpac0_sx391.ark:12
ftbw0_si1345 raw_TIMIT_200ms/train/ftbw0_si1345.ark:13
fjlr0_si1861 raw_TIMIT_200ms/train/fjlr0_si1861.ark:13
ftmg0_si902 raw_TIMIT_200ms/train/ftmg0_si902.ark:12
madc0_sx197 raw_TIMIT_200ms/train/madc0_sx197.ark:12
mbom0_sx204 raw_TIMIT_200ms/train/mbom0_sx204.ark:12
mesj0_si2039 raw_TIMIT_200ms/train/mesj0_si2039.ark:13
mdjm0_sx375 raw_TIMIT_200ms/train/mdjm0_sx375.ark:12
mpmb0_sx331 raw_TIMIT_200ms/train/mpmb0_sx331.ark:12
mgrp0_sx327 raw_TIMIT_200ms/train/mgrp0_sx327.ark:12
mafm0_si1569 raw_TIMIT_200ms/train/mafm0_si1569.ark:13
mwgr0_sx166 raw_TIMIT_200ms/train/mwgr0_sx166.ark:12
flet0_si507 raw_TIMIT_200ms/train/flet0_si507.ark:12
frll0_si1514 raw_TIMIT_200ms/train/frll0_si1514.ark:13
mjrg0_sx376 raw_TIMIT_200ms/train/mjrg0_sx376.ark:12
mmam0_sx337 raw_TIMIT_200ms/train/mmam0_sx337.ark:12
mded0_si1170 raw_TIMIT_200ms/train/mded0_si1170.ark:13
fsak0_si1930 raw_TIMIT_200ms/train/fsak0_si1930.ark:13
mbom0_sx114 raw_TIMIT_200ms/train/mbom0_sx114.ark:12
fcaj0_si849 raw_TIMIT_200ms/train/fcaj0_si849.ark:12
mnet0_sx186 raw_TIMIT_200ms/train/mnet0_sx186.ark:12
fcjs0_sx77 raw_TIMIT_200ms/train/fcjs0_sx77.ark:11
mtjm0_si655 raw_TIMIT_200ms/train/mtjm0_si655.ark:12
mgag0_si1321 raw_TIMIT_200ms/train/mgag0_si1321.ark:13
mjeb1_sx387 raw_TIMIT_200ms/train/mjeb1_sx387.ark:12
mjra0_sx66 raw_TIMIT_200ms/train/mjra0_sx66.ark:11
mrgs0_si726 raw_TIMIT_200ms/train/mrgs0_si726.ark:12
mdlr0_si603 raw_TIMIT_200ms/train/mdlr0_si603.ark:12
fdfb0_si2010 raw_TIMIT_200ms/train/fdfb0_si2010.ark:13
fltm0_si1700 raw_TIMIT_200ms/train/fltm0_si1700.ark:13
fcrz0_sx433 raw_TIMIT_200ms/train/fcrz0_sx433.ark:12
mjlg1_sx22 raw_TIMIT_200ms/train/mjlg1_sx22.ark:11
mwch0_si2252 raw_TIMIT_200ms/train/mwch0_si2252.ark:13
mdac0_sx181 raw_TIMIT_200ms/train/mdac0_sx181.ark:12
fpls0_sx150 raw_TIMIT_200ms/train/fpls0_sx150.ark:12
fbjl0_sx292 raw_TIMIT_200ms/train/fbjl0_sx292.ark:12
fmju0_sx129 raw_TIMIT_200ms/train/fmju0_sx129.ark:12
mjrg0_sx352 raw_TIMIT_200ms/train/mjrg0_sx352.ark:12
msdh0_si2113 raw_TIMIT_200ms/train/msdh0_si2113.ark:13
mfmc0_sx142 raw_TIMIT_200ms/train/mfmc0_sx142.ark:12
mgsh0_sx96 raw_TIMIT_200ms/train/mgsh0_sx96.ark:11
mbma1_si954 raw_TIMIT_200ms/train/mbma1_si954.ark:12
mwdk0_si2017 raw_TIMIT_200ms/train/mwdk0_si2017.ark:13
mtas0_si2015 raw_TIMIT_200ms/train/mtas0_si2015.ark:13
fpmy0_sx253 raw_TIMIT_200ms/train/fpmy0_sx253.ark:12
mtcs0_sx262 raw_TIMIT_200ms/train/mtcs0_sx262.ark:12
mcpm0_sx384 raw_TIMIT_200ms/train/mcpm0_sx384.ark:12
ftbw0_si1975 raw_TIMIT_200ms/train/ftbw0_si1975.ark:13
fmjf0_sx174 raw_TIMIT_200ms/train/fmjf0_sx174.ark:12
mses0_si1589 raw_TIMIT_200ms/train/mses0_si1589.ark:13
fcke0_sx391 raw_TIMIT_200ms/train/fcke0_sx391.ark:12
mwch0_sx362 raw_TIMIT_200ms/train/mwch0_sx362.ark:12
fceg0_sx258 raw_TIMIT_200ms/train/fceg0_sx258.ark:12
mtrc0_si1623 raw_TIMIT_200ms/train/mtrc0_si1623.ark:13
