mmgc0_si2184 raw_TIMIT_200ms/train/mmgc0_si2184.ark:13
flod0_si1917 raw_TIMIT_200ms/train/flod0_si1917.ark:13
mbgt0_sx351 raw_TIMIT_200ms/train/mbgt0_sx351.ark:12
mjjb0_sx59 raw_TIMIT_200ms/train/mjjb0_sx59.ark:11
mdlc1_sx355 raw_TIMIT_200ms/train/mdlc1_sx355.ark:12
mjpm1_sx41 raw_TIMIT_200ms/train/mjpm1_sx41.ark:11
mctm0_si720 raw_TIMIT_200ms/train/mctm0_si720.ark:12
mddc0_si2049 raw_TIMIT_200ms/train/mddc0_si2049.ark:13
mjls0_sx16 raw_TIMIT_200ms/train/mjls0_sx16.ark:11
mpsw0_si2327 raw_TIMIT_200ms/train/mpsw0_si2327.ark:13
mhrm0_si1475 raw_TIMIT_200ms/train/mhrm0_si1475.ark:13
msmc0_sx377 raw_TIMIT_200ms/train/msmc0_sx377.ark:12
mtmt0_sx38 raw_TIMIT_200ms/train/mtmt0_sx38.ark:11
mdcm0_sx40 raw_TIMIT_200ms/train/mdcm0_sx40.ark:11
flmk0_si2295 raw_TIMIT_200ms/train/flmk0_si2295.ark:13
mtjs0_si1822 raw_TIMIT_200ms/train/mtjs0_si1822.ark:13
msfv0_sx362 raw_TIMIT_200ms/train/msfv0_sx362.ark:12
fsmm0_sx414 raw_TIMIT_200ms/train/fsmm0_sx414.ark:12
mjwt0_sx31 raw_TIMIT_200ms/train/mjwt0_sx31.ark:11
mkjo0_sx77 raw_TIMIT_200ms/train/mkjo0_sx77.ark:11
mrab0_si594 raw_TIMIT_200ms/train/mrab0_si594.ark:12
mjxa0_sx427 raw_TIMIT_200ms/train/mjxa0_sx427.ark:12
mmws0_si888 raw_TIMIT_200ms/train/mmws0_si888.ark:12
mjbg0_si1862 raw_TIMIT_200ms/train/mjbg0_si1862.ark:13
mbwp0_si709 raw_TIMIT_200ms/train/mbwp0_si709.ark:12
mdhl0_sx269 raw_TIMIT_200ms/train/mdhl0_sx269.ark:12
fltm0_sx350 raw_TIMIT_200ms/train/fltm0_sx350.ark:12
mjwg0_si2155 raw_TIMIT_200ms/train/mjwg0_si2155.ark:13
mcef0_si1135 raw_TIMIT_200ms/train/mcef0_si1135.ark:13
mtrc0_sx183 raw_TIMIT_200ms/train/mtrc0_sx183.ark:12
mdef0_sx33 raw_TIMIT_200ms/train/mdef0_sx33.ark:11
mtqc0_sx451 raw_TIMIT_200ms/train/mtqc0_sx451.ark:12
mdwm0_sx376 raw_TIMIT_200ms/train/mdwm0_sx376.ark:12
msdh0_si2113 raw_TIMIT_200ms/train/msdh0_si2113.ark:13
mmjb1_sx328 raw_TIMIT_200ms/train/mmjb1_sx328.ark:12
mpfu0_sx358 raw_TIMIT_200ms/train/mpfu0_sx358.ark:12
mmab1_si2124 raw_TIMIT_200ms/train/mmab1_si2124.ark:13
fklh0_sx87 raw_TIMIT_200ms/train/fklh0_sx87.ark:11
mtcs0_si2265 raw_TIMIT_200ms/train/mtcs0_si2265.ark:13
mdbp0_si1158 raw_TIMIT_200ms/train/mdbp0_si1158.ark:13
mprd0_sx261 raw_TIMIT_200ms/train/mprd0_sx261.ark:12
mtpr0_si1600 raw_TIMIT_200ms/train/mtpr0_si1600.ark:13
fpad0_si1346 raw_TIMIT_200ms/train/fpad0_si1346.ark:13
mbth0_sx392 raw_TIMIT_200ms/train/mbth0_sx392.ark:12
fbmj0_si516 raw_TIMIT_200ms/train/fbmj0_si516.ark:12
mtpr0_sx70 raw_TIMIT_200ms/train/mtpr0_sx70.ark:11
mrgs0_sx96 raw_TIMIT_200ms/train/mrgs0_sx96.ark:11
fsjg0_si1570 raw_TIMIT_200ms/train/fsjg0_si1570.ark:13
mcal0_si1138 raw_TIMIT_200ms/train/mcal0_si1138.ark:13
mjfh0_sx117 raw_TIMIT_200ms/train/mjfh0_sx117.ark:12
mprb0_sx215 raw_TIMIT_200ms/train/mprb0_sx215.ark:12
mmdg0_sx250 raw_TIMIT_200ms/train/mmdg0_sx250.ark:12
flod0_sx387 raw_TIMIT_200ms/train/flod0_sx387.ark:12
mtrr0_si918 raw_TIMIT_200ms/train/mtrr0_si918.ark:12
mdef0_si1563 raw_TIMIT_200ms/train/mdef0_si1563.ark:13
mprb0_si1215 raw_TIMIT_200ms/train/mprb0_si1215.ark:13
mtml0_sx345 raw_TIMIT_200ms/train/mtml0_sx345.ark:12
mhxl0_si512 raw_TIMIT_200ms/train/mhxl0_si512.ark:12
fmpg0_si2232 raw_TIMIT_200ms/train/fmpg0_si2232.ark:13
mdlc2_si984 raw_TIMIT_200ms/train/mdlc2_si984.ark:12
mtmt0_sx398 raw_TIMIT_200ms/train/mtmt0_sx398.ark:12
mmws1_si1701 raw_TIMIT_200ms/train/mmws1_si1701.ark:13
mjeb1_sx117 raw_TIMIT_200ms/train/mjeb1_sx117.ark:12
mdss0_sx261 raw_TIMIT_200ms/train/mdss0_sx261.ark:12
mjmd0_sx308 raw_TIMIT_200ms/train/mjmd0_sx308.ark:12
msmc0_si647 raw_TIMIT_200ms/train/msmc0_si647.ark:12
mtpf0_sx245 raw_TIMIT_200ms/train/mtpf0_sx245.ark:12
mcal0_sx58 raw_TIMIT_200ms/train/mcal0_sx58.ark:11
fvkb0_sx439 raw_TIMIT_200ms/train/fvkb0_sx439.ark:12
mmar0_sx346 raw_TIMIT_200ms/train/mmar0_sx346.ark:12
mmdm0_si681 raw_TIMIT_200ms/train/mmdm0_si681.ark:12
mesj0_si2257 raw_TIMIT_200ms/train/mesj0_si2257.ark:13
fljg0_sx351 raw_TIMIT_200ms/train/fljg0_sx351.ark:12
mtkp0_sx303 raw_TIMIT_200ms/train/mtkp0_sx303.ark:12
fskc0_sx66 raw_TIMIT_200ms/train/fskc0_sx66.ark:11
mdem0_si800 raw_TIMIT_200ms/train/mdem0_si800.ark:12
mgsl0_sx264 raw_TIMIT_200ms/train/mgsl0_sx264.ark:12
mkdb0_sx152 raw_TIMIT_200ms/train/mkdb0_sx152.ark:12
fbmj0_si1776 raw_TIMIT_200ms/train/fbmj0_si1776.ark:13
fpmy0_si1153 raw_TIMIT_200ms/train/fpmy0_si1153.ark:13
mrmg0_sx360 raw_TIMIT_200ms/train/mrmg0_sx360.ark:12
mwad0_si1062 raw_TIMIT_200ms/train/mwad0_si1062.ark:13
mmxs0_sx336 raw_TIMIT_200ms/train/mmxs0_sx336.ark:12
mdks0_sx166 raw_TIMIT_200ms/train/mdks0_sx166.ark:12
mrkm0_sx97 raw_TIMIT_200ms/train/mrkm0_sx97.ark:11
fpab1_si1471 raw_TIMIT_200ms/train/fpab1_si1471.ark:13
msem1_sx450 raw_TIMIT_200ms/train/msem1_sx450.ark:12
fsdj0_si1115 raw_TIMIT_200ms/train/fsdj0_si1115.ark:13
mdlb0_sx316 raw_TIMIT_200ms/train/mdlb0_sx316.ark:12
mtpf0_si605 raw_TIMIT_200ms/train/mtpf0_si605.ark:12
fvfb0_si2292 raw_TIMIT_200ms/train/fvfb0_si2292.ark:13
mmag0_si496 raw_TIMIT_200ms/train/mmag0_si496.ark:12
fgrw0_sx342 raw_TIMIT_200ms/train/fgrw0_sx342.ark:12
mnet0_sx366 raw_TIMIT_200ms/train/mnet0_sx366.ark:12
mcxm0_sx181 raw_TIMIT_200ms/train/mcxm0_sx181.ark:12
mntw0_sx168 raw_TIMIT_200ms/train/mntw0_sx168.ark:12
msjk0_sx66 raw_TIMIT_200ms/train/msjk0_sx66.ark:11
mgag0_si1321 raw_TIMIT_200ms/train/mgag0_si1321.ark:13
mapv0_si1923 raw_TIMIT_200ms/train/mapv0_si1923.ark:13
fjrp1_si1432 raw_TIMIT_200ms/train/fjrp1_si1432.ark:13
mdks0_si1066 raw_TIMIT_200ms/train/mdks0_si1066.ark:13
fleh0_sx151 raw_TIMIT_200ms/train/fleh0_sx151.ark:12
fdtd0_sx121 raw_TIMIT_200ms/train/fdtd0_sx121.ark:12
mdhs0_sx360 raw_TIMIT_200ms/train/mdhs0_sx360.ark:12
marc0_sx198 raw_TIMIT_200ms/train/marc0_sx198.ark:12
mdhs0_si2160 raw_TIMIT_200ms/train/mdhs0_si2160.ark:13
ftbw0_sx175 raw_TIMIT_200ms/train/ftbw0_sx175.ark:12
fsah0_si614 raw_TIMIT_200ms/train/fsah0_si614.ark:12
ftaj0_si1329 raw_TIMIT_200ms/train/ftaj0_si1329.ark:13
fmkc0_sx442 raw_TIMIT_200ms/train/fmkc0_sx442.ark:12
mjeb0_si1916 raw_TIMIT_200ms/train/mjeb0_si1916.ark:13
mafm0_sx219 raw_TIMIT_200ms/train/mafm0_sx219.ark:12
fblv0_si2318 raw_TIMIT_200ms/train/fblv0_si2318.ark:13
mree0_sx24 raw_TIMIT_200ms/train/mree0_sx24.ark:11
frll0_si805 raw_TIMIT_200ms/train/frll0_si805.ark:12
mjbg0_si1232 raw_TIMIT_200ms/train/mjbg0_si1232.ark:13
msat0_sx266 raw_TIMIT_200ms/train/msat0_sx266.ark:12
megj0_si1337 raw_TIMIT_200ms/train/megj0_si1337.ark:13
mjrg0_sx106 raw_TIMIT_200ms/train/mjrg0_sx106.ark:12
fmkf0_sx6 raw_TIMIT_200ms/train/fmkf0_sx6.ark:10
fclt0_sx88 raw_TIMIT_200ms/train/fclt0_sx88.ark:11
msmc0_sx17 raw_TIMIT_200ms/train/msmc0_sx17.ark:11
mhmg0_sx195 raw_TIMIT_200ms/train/mhmg0_sx195.ark:12
fpaz0_sx27 raw_TIMIT_200ms/train/fpaz0_sx27.ark:11
mgag0_si645 raw_TIMIT_200ms/train/mgag0_si645.ark:12
mmwb0_sx449 raw_TIMIT_200ms/train/mmwb0_sx449.ark:12
mklr0_sx159 raw_TIMIT_200ms/train/mklr0_sx159.ark:12
fdfb0_si2010 raw_TIMIT_200ms/train/fdfb0_si2010.ark:13
mbwp0_sx79 raw_TIMIT_200ms/train/mbwp0_sx79.ark:11
mbma1_si2214 raw_TIMIT_200ms/train/mbma1_si2214.ark:13
mdac0_sx181 raw_TIMIT_200ms/train/mdac0_sx181.ark:12
mjmd0_si1658 raw_TIMIT_200ms/train/mjmd0_si1658.ark:13
msfh0_si1738 raw_TIMIT_200ms/train/msfh0_si1738.ark:13
mkjo0_sx167 raw_TIMIT_200ms/train/mkjo0_sx167.ark:12
fgdp0_si1618 raw_TIMIT_200ms/train/fgdp0_si1618.ark:13
mges0_sx131 raw_TIMIT_200ms/train/mges0_sx131.ark:12
mbma0_si592 raw_TIMIT_200ms/train/mbma0_si592.ark:12
mpgh0_si924 raw_TIMIT_200ms/train/mpgh0_si924.ark:12
mbom0_si1644 raw_TIMIT_200ms/train/mbom0_si1644.ark:13
fear0_si1882 raw_TIMIT_200ms/train/fear0_si1882.ark:13
mwgr0_si2236 raw_TIMIT_200ms/train/mwgr0_si2236.ark:13
fpad0_sx86 raw_TIMIT_200ms/train/fpad0_sx86.ark:11
mrjh0_sx259 raw_TIMIT_200ms/train/mrjh0_sx259.ark:12
mjkr0_sx31 raw_TIMIT_200ms/train/mjkr0_sx31.ark:11
fpmy0_si523 raw_TIMIT_200ms/train/fpmy0_si523.ark:12
mtmn0_sx164 raw_TIMIT_200ms/train/mtmn0_sx164.ark:12
fsgf0_si1557 raw_TIMIT_200ms/train/fsgf0_si1557.ark:13
fear0_sx172 raw_TIMIT_200ms/train/fear0_sx172.ark:12
mwad0_sx72 raw_TIMIT_200ms/train/mwad0_sx72.ark:11
fvmh0_sx386 raw_TIMIT_200ms/train/fvmh0_sx386.ark:12
mdbb1_sx16 raw_TIMIT_200ms/train/mdbb1_sx16.ark:11
mrhl0_si2145 raw_TIMIT_200ms/train/mrhl0_si2145.ark:13
msdh0_si980 raw_TIMIT_200ms/train/msdh0_si980.ark:12
makr0_sx272 raw_TIMIT_200ms/train/makr0_sx272.ark:12
fsjk1_sx395 raw_TIMIT_200ms/train/fsjk1_sx395.ark:12
mrem0_si961 raw_TIMIT_200ms/train/mrem0_si961.ark:12
fdmy0_sx27 raw_TIMIT_200ms/train/fdmy0_sx27.ark:11
msat0_sx86 raw_TIMIT_200ms/train/msat0_sx86.ark:11
mdlr1_sx129 raw_TIMIT_200ms/train/mdlr1_sx129.ark:12
mmgk0_si692 raw_TIMIT_200ms/train/mmgk0_si692.ark:12
msrg0_si1851 raw_TIMIT_200ms/train/msrg0_si1851.ark:13
fdxw0_sx431 raw_TIMIT_200ms/train/fdxw0_sx431.ark:12
mmjb1_si1408 raw_TIMIT_200ms/train/mmjb1_si1408.ark:13
mdwm0_sx433 raw_TIMIT_200ms/train/mdwm0_sx433.ark:12
mrlk0_sx393 raw_TIMIT_200ms/train/mrlk0_sx393.ark:12
mesg0_sx432 raw_TIMIT_200ms/train/mesg0_sx432.ark:12
mclm0_sx286 raw_TIMIT_200ms/train/mclm0_sx286.ark:12
flmc0_sx112 raw_TIMIT_200ms/train/flmc0_sx112.ark:12
mvlo0_sx67 raw_TIMIT_200ms/train/mvlo0_sx67.ark:11
mcdc0_sx212 raw_TIMIT_200ms/train/mcdc0_sx212.ark:12
mjfr0_sx165 raw_TIMIT_200ms/train/mjfr0_sx165.ark:12
mdwm0_sx16 raw_TIMIT_200ms/train/mdwm0_sx16.ark:11
fltm0_si2330 raw_TIMIT_200ms/train/fltm0_si2330.ark:13
marw0_sx106 raw_TIMIT_200ms/train/marw0_sx106.ark:12
mtjg0_si890 raw_TIMIT_200ms/train/mtjg0_si890.ark:12
msrg0_sx411 raw_TIMIT_200ms/train/msrg0_sx411.ark:12
mrjm1_si668 raw_TIMIT_200ms/train/mrjm1_si668.ark:12
mcal0_si508 raw_TIMIT_200ms/train/mcal0_si508.ark:12
mdks0_sx76 raw_TIMIT_200ms/train/mdks0_sx76.ark:11
mjra0_sx66 raw_TIMIT_200ms/train/mjra0_sx66.ark:11
mrxb0_sx325 raw_TIMIT_200ms/train/mrxb0_sx325.ark:12
mrds0_sx447 raw_TIMIT_200ms/train/mrds0_sx447.ark:12
mhit0_sx83 raw_TIMIT_200ms/train/mhit0_sx83.ark:11
mrmg0_sx180 raw_TIMIT_200ms/train/mrmg0_sx180.ark:12
mgxp0_sx367 raw_TIMIT_200ms/train/mgxp0_sx367.ark:12
flhd0_si1827 raw_TIMIT_200ms/train/flhd0_si1827.ark:13
fscn0_sx176 raw_TIMIT_200ms/train/fscn0_sx176.ark:12
msas0_sx26 raw_TIMIT_200ms/train/msas0_sx26.ark:11
mbwp0_sx259 raw_TIMIT_200ms/train/mbwp0_sx259.ark:12
mtat1_si1409 raw_TIMIT_200ms/train/mtat1_si1409.ark:13
mbsb0_sx3 raw_TIMIT_200ms/train/mbsb0_sx3.ark:10
mjhi0_si698 raw_TIMIT_200ms/train/mjhi0_si698.ark:12
freh0_sx235 raw_TIMIT_200ms/train/freh0_sx235.ark:12
mtjg0_sx350 raw_TIMIT_200ms/train/mtjg0_sx350.ark:12
fpmy0_sx253 raw_TIMIT_200ms/train/fpmy0_sx253.ark:12
fpls0_si2220 raw_TIMIT_200ms/train/fpls0_si2220.ark:13
mbma1_sx234 raw_TIMIT_200ms/train/mbma1_sx234.ark:12
mrab1_sx128 raw_TIMIT_200ms/train/mrab1_sx128.ark:12
mrms0_si2100 raw_TIMIT_200ms/train/mrms0_si2100.ark:13
mrmb0_sx411 raw_TIMIT_200ms/train/mrmb0_sx411.ark:12
mdem0_si608 raw_TIMIT_200ms/train/mdem0_si608.ark:12
fpad0_si1976 raw_TIMIT_200ms/train/fpad0_si1976.ark:13
mfrm0_sx255 raw_TIMIT_200ms/train/mfrm0_sx255.ark:12
fdjh0_sx215 raw_TIMIT_200ms/train/fdjh0_sx215.ark:12
mcae0_sx187 raw_TIMIT_200ms/train/mcae0_sx187.ark:12
mrlr0_sx116 raw_TIMIT_200ms/train/mrlr0_sx116.ark:12
mjjm0_si1457 raw_TIMIT_200ms/train/mjjm0_si1457.ark:13
fecd0_sx158 raw_TIMIT_200ms/train/fecd0_sx158.ark:12
mdac0_sx361 raw_TIMIT_200ms/train/mdac0_sx361.ark:12
mkdt0_sx443 raw_TIMIT_200ms/train/mkdt0_sx443.ark:12
mdem0_sx248 raw_TIMIT_200ms/train/mdem0_sx248.ark:12
mmcc0_si708 raw_TIMIT_200ms/train/mmcc0_si708.ark:12
mpfu0_sx178 raw_TIMIT_200ms/train/mpfu0_sx178.ark:12
mfxs0_si1674 raw_TIMIT_200ms/train/mfxs0_si1674.ark:13
mefg0_sx375 raw_TIMIT_200ms/train/mefg0_sx375.ark:12
mtdp0_sx441 raw_TIMIT_200ms/train/mtdp0_sx441.ark:12
mjde0_sx400 raw_TIMIT_200ms/train/mjde0_sx400.ark:12
fpab1_sx391 raw_TIMIT_200ms/train/fpab1_sx391.ark:12
fbjl0_sx112 raw_TIMIT_200ms/train/fbjl0_sx112.ark:12
msdh0_sx80 raw_TIMIT_200ms/train/msdh0_sx80.ark:11
mwem0_si1393 raw_TIMIT_200ms/train/mwem0_si1393.ark:13
fbas0_sx397 raw_TIMIT_200ms/train/fbas0_sx397.ark:12
mprb0_sx125 raw_TIMIT_200ms/train/mprb0_sx125.ark:12
mkrg0_sx51 raw_TIMIT_200ms/train/mkrg0_sx51.ark:11
mrkm0_si1391 raw_TIMIT_200ms/train/mrkm0_si1391.ark:13
mmlm0_sx267 raw_TIMIT_200ms/train/mmlm0_sx267.ark:12
mgsl0_sx84 raw_TIMIT_200ms/train/mgsl0_sx84.ark:11
mjhi0_sx68 raw_TIMIT_200ms/train/mjhi0_sx68.ark:11
mwsb0_sx96 raw_TIMIT_200ms/train/mwsb0_sx96.ark:11
mbma0_sx142 raw_TIMIT_200ms/train/mbma0_sx142.ark:12
fcmg0_si1872 raw_TIMIT_200ms/train/fcmg0_si1872.ark:13
mtml0_sx255 raw_TIMIT_200ms/train/mtml0_sx255.ark:12
mjmd0_si2288 raw_TIMIT_200ms/train/mjmd0_si2288.ark:13
mjai0_sx74 raw_TIMIT_200ms/train/mjai0_sx74.ark:11
mtpf0_sx155 raw_TIMIT_200ms/train/mtpf0_sx155.ark:12
mjpm1_sx311 raw_TIMIT_200ms/train/mjpm1_sx311.ark:12
mpsw0_si1067 raw_TIMIT_200ms/train/mpsw0_si1067.ark:13
mljc0_sx145 raw_TIMIT_200ms/train/mljc0_sx145.ark:12
fjxp0_sx312 raw_TIMIT_200ms/train/fjxp0_sx312.ark:12
mnet0_sx6 raw_TIMIT_200ms/train/mnet0_sx6.ark:10
mjdc0_sx351 raw_TIMIT_200ms/train/mjdc0_sx351.ark:12
fjwb1_si748 raw_TIMIT_200ms/train/fjwb1_si748.ark:12
fjxp0_sx222 raw_TIMIT_200ms/train/fjxp0_sx222.ark:12
mkls1_sx15 raw_TIMIT_200ms/train/mkls1_sx15.ark:11
mesj0_sx97 raw_TIMIT_200ms/train/mesj0_sx97.ark:11
faem0_sx402 raw_TIMIT_200ms/train/faem0_sx402.ark:12
fclt0_si2068 raw_TIMIT_200ms/train/fclt0_si2068.ark:13
mjra0_sx426 raw_TIMIT_200ms/train/mjra0_sx426.ark:12
mctm0_sx450 raw_TIMIT_200ms/train/mctm0_sx450.ark:12
mkdb0_sx62 raw_TIMIT_200ms/train/mkdb0_sx62.ark:11
mtcs0_sx442 raw_TIMIT_200ms/train/mtcs0_sx442.ark:12
mjsr0_sx434 raw_TIMIT_200ms/train/mjsr0_sx434.ark:12
mfmc0_si1132 raw_TIMIT_200ms/train/mfmc0_si1132.ark:13
fmkc0_si1072 raw_TIMIT_200ms/train/fmkc0_si1072.ark:13
mwsh0_si796 raw_TIMIT_200ms/train/mwsh0_si796.ark:12
mjfh0_sx297 raw_TIMIT_200ms/train/mjfh0_sx297.ark:12
mcpm0_sx384 raw_TIMIT_200ms/train/mcpm0_sx384.ark:12
mrlj1_sx141 raw_TIMIT_200ms/train/mrlj1_sx141.ark:12
fdjh0_si1565 raw_TIMIT_200ms/train/fdjh0_si1565.ark:13
fcjs0_sx257 raw_TIMIT_200ms/train/fcjs0_sx257.ark:12
mrpc1_sx132 raw_TIMIT_200ms/train/mrpc1_sx132.ark:12
mram0_sx375 raw_TIMIT_200ms/train/mram0_sx375.ark:12
ftlg0_si1743 raw_TIMIT_200ms/train/ftlg0_si1743.ark:13
fskc0_si786 raw_TIMIT_200ms/train/fskc0_si786.ark:12
marc0_si1188 raw_TIMIT_200ms/train/marc0_si1188.ark:13
freh0_si1945 raw_TIMIT_200ms/train/freh0_si1945.ark:13
fpaf0_sx334 raw_TIMIT_200ms/train/fpaf0_sx334.ark:12
makb0_sx296 raw_TIMIT_200ms/train/makb0_sx296.ark:12
fpaf0_sx244 raw_TIMIT_200ms/train/fpaf0_sx244.ark:12
mrfl0_si1786 raw_TIMIT_200ms/train/mrfl0_si1786.ark:13
mdas0_si1266 raw_TIMIT_200ms/train/mdas0_si1266.ark:13
mtxs0_sx70 raw_TIMIT_200ms/train/mtxs0_sx70.ark:11
mppc0_si2042 raw_TIMIT_200ms/train/mppc0_si2042.ark:13
mlsh0_sx67 raw_TIMIT_200ms/train/mlsh0_sx67.ark:11
mgaf0_sx292 raw_TIMIT_200ms/train/mgaf0_sx292.ark:12
mtpp0_si2138 raw_TIMIT_200ms/train/mtpp0_si2138.ark:13
fsgf0_sx297 raw_TIMIT_200ms/train/fsgf0_sx297.ark:12
mcxm0_sx91 raw_TIMIT_200ms/train/mcxm0_sx91.ark:11
mkag0_si1609 raw_TIMIT_200ms/train/mkag0_si1609.ark:13
mrms0_sx120 raw_TIMIT_200ms/train/mrms0_sx120.ark:12
fcjf0_sx307 raw_TIMIT_200ms/train/fcjf0_sx307.ark:12
mjpm0_si1998 raw_TIMIT_200ms/train/mjpm0_si1998.ark:13
mkls0_sx87 raw_TIMIT_200ms/train/mkls0_sx87.ark:11
mhit0_si1613 raw_TIMIT_200ms/train/mhit0_si1613.ark:13
msrr0_sx30 raw_TIMIT_200ms/train/msrr0_sx30.ark:11
mwar0_sx55 raw_TIMIT_200ms/train/mwar0_sx55.ark:11
mdrd0_si2012 raw_TIMIT_200ms/train/mdrd0_si2012.ark:13
mjjm0_sx377 raw_TIMIT_200ms/train/mjjm0_sx377.ark:12
mabc0_si2041 raw_TIMIT_200ms/train/mabc0_si2041.ark:13
mtat0_si811 raw_TIMIT_200ms/train/mtat0_si811.ark:12
flmc0_sx22 raw_TIMIT_200ms/train/flmc0_sx22.ark:11
mrcw0_si1371 raw_TIMIT_200ms/train/mrcw0_si1371.ark:13
fsmm0_si684 raw_TIMIT_200ms/train/fsmm0_si684.ark:12
msmr0_si1150 raw_TIMIT_200ms/train/msmr0_si1150.ark:13
mmgc0_si1305 raw_TIMIT_200ms/train/mmgc0_si1305.ark:13
mjkr0_si571 raw_TIMIT_200ms/train/mjkr0_si571.ark:12
fceg0_sx168 raw_TIMIT_200ms/train/fceg0_sx168.ark:12
mstf0_sx316 raw_TIMIT_200ms/train/mstf0_sx316.ark:12
mvjh0_sx386 raw_TIMIT_200ms/train/mvjh0_sx386.ark:12
flma0_sx163 raw_TIMIT_200ms/train/flma0_sx163.ark:12
mmgg0_sx179 raw_TIMIT_200ms/train/mmgg0_sx179.ark:12
fpjf0_sx236 raw_TIMIT_200ms/train/fpjf0_sx236.ark:12
mges0_sx221 raw_TIMIT_200ms/train/mges0_sx221.ark:12
fksr0_sx397 raw_TIMIT_200ms/train/fksr0_sx397.ark:12
frjb0_si1470 raw_TIMIT_200ms/train/frjb0_si1470.ark:13
mljc0_sx325 raw_TIMIT_200ms/train/mljc0_sx325.ark:12
mdcd0_si2045 raw_TIMIT_200ms/train/mdcd0_si2045.ark:13
mrvg0_sx240 raw_TIMIT_200ms/train/mrvg0_sx240.ark:12
mdbb1_si1006 raw_TIMIT_200ms/train/mdbb1_si1006.ark:13
milb0_si903 raw_TIMIT_200ms/train/milb0_si903.ark:12
mrre0_sx164 raw_TIMIT_200ms/train/mrre0_sx164.ark:12
mrtc0_sx288 raw_TIMIT_200ms/train/mrtc0_sx288.ark:12
milb0_sx273 raw_TIMIT_200ms/train/milb0_sx273.ark:12
mrcg0_sx78 raw_TIMIT_200ms/train/mrcg0_sx78.ark:11
mmvp0_sx204 raw_TIMIT_200ms/train/mmvp0_sx204.ark:12
mrms0_sx300 raw_TIMIT_200ms/train/mrms0_sx300.ark:12
mmgc0_sx135 raw_TIMIT_200ms/train/mmgc0_sx135.ark:12
msat0_si2156 raw_TIMIT_200ms/train/msat0_si2156.ark:13
mcdd0_si883 raw_TIMIT_200ms/train/mcdd0_si883.ark:12
mtrr0_si2178 raw_TIMIT_200ms/train/mtrr0_si2178.ark:13
mjjj0_si533 raw_TIMIT_200ms/train/mjjj0_si533.ark:12
mesg0_sx162 raw_TIMIT_200ms/train/mesg0_sx162.ark:12
mdps0_si719 raw_TIMIT_200ms/train/mdps0_si719.ark:12
fsls0_sx202 raw_TIMIT_200ms/train/fsls0_sx202.ark:12
milb0_sx363 raw_TIMIT_200ms/train/milb0_sx363.ark:12
flmk0_sx405 raw_TIMIT_200ms/train/flmk0_sx405.ark:12
mppc0_si1412 raw_TIMIT_200ms/train/mppc0_si1412.ark:13
mrmb0_si951 raw_TIMIT_200ms/train/mrmb0_si951.ark:12
fdxw0_si2141 raw_TIMIT_200ms/train/fdxw0_si2141.ark:13
msms0_sx353 raw_TIMIT_200ms/train/msms0_sx353.ark:12
majp0_sx174 raw_TIMIT_200ms/train/majp0_sx174.ark:12
msfh0_sx46 raw_TIMIT_200ms/train/msfh0_sx46.ark:11
mefg0_si598 raw_TIMIT_200ms/train/mefg0_si598.ark:12
mkxl0_sx195 raw_TIMIT_200ms/train/mkxl0_sx195.ark:12
mkdt0_si814 raw_TIMIT_200ms/train/mkdt0_si814.ark:12
mrjb1_sx300 raw_TIMIT_200ms/train/mrjb1_sx300.ark:12
fscn0_si626 raw_TIMIT_200ms/train/fscn0_si626.ark:12
mwsb0_si996 raw_TIMIT_200ms/train/mwsb0_si996.ark:12
fapb0_sx253 raw_TIMIT_200ms/train/fapb0_sx253.ark:12
mclm0_sx376 raw_TIMIT_200ms/train/mclm0_sx376.ark:12
fmju0_si1389 raw_TIMIT_200ms/train/fmju0_si1389.ark:13
mdps0_si1979 raw_TIMIT_200ms/train/mdps0_si1979.ark:13
mjlb0_sx86 raw_TIMIT_200ms/train/mjlb0_sx86.ark:11
fgmb0_si1145 raw_TIMIT_200ms/train/fgmb0_si1145.ark:13
mjws0_si1143 raw_TIMIT_200ms/train/mjws0_si1143.ark:13
fdfb0_si1318 raw_TIMIT_200ms/train/fdfb0_si1318.ark:13
mrkm0_sx277 raw_TIMIT_200ms/train/mrkm0_sx277.ark:12
mtab0_sx312 raw_TIMIT_200ms/train/mtab0_sx312.ark:12
mclm0_si826 raw_TIMIT_200ms/train/mclm0_si826.ark:12
mmdb0_sx447 raw_TIMIT_200ms/train/mmdb0_sx447.ark:12
fjlg0_sx359 raw_TIMIT_200ms/train/fjlg0_sx359.ark:12
mdmt0_sx32 raw_TIMIT_200ms/train/mdmt0_sx32.ark:11
mdlh0_si700 raw_TIMIT_200ms/train/mdlh0_si700.ark:12
mcpm0_sx204 raw_TIMIT_200ms/train/mcpm0_sx204.ark:12
mjrh1_sx64 raw_TIMIT_200ms/train/mjrh1_sx64.ark:11
fdkn0_si1711 raw_TIMIT_200ms/train/fdkn0_si1711.ark:13
fsjw0_sx253 raw_TIMIT_200ms/train/fsjw0_sx253.ark:12
mkls1_sx195 raw_TIMIT_200ms/train/mkls1_sx195.ark:12
mpgh0_sx294 raw_TIMIT_200ms/train/mpgh0_sx294.ark:12
mmpm0_sx341 raw_TIMIT_200ms/train/mmpm0_sx341.ark:12
fmju0_si2019 raw_TIMIT_200ms/train/fmju0_si2019.ark:13
mjlb0_sx356 raw_TIMIT_200ms/train/mjlb0_sx356.ark:12
mcxm0_si721 raw_TIMIT_200ms/train/mcxm0_si721.ark:12
mjmm0_si1885 raw_TIMIT_200ms/train/mjmm0_si1885.ark:13
mges0_si851 raw_TIMIT_200ms/train/mges0_si851.ark:12
mtrc0_sx93 raw_TIMIT_200ms/train/mtrc0_sx93.ark:11
mljc0_si1225 raw_TIMIT_200ms/train/mljc0_si1225.ark:13
mddc0_sx429 raw_TIMIT_200ms/train/mddc0_sx429.ark:12
mdwd0_sx360 raw_TIMIT_200ms/train/mdwd0_sx360.ark:12
fjxp0_sx132 raw_TIMIT_200ms/train/fjxp0_sx132.ark:12
