mmag0_sx316 raw_TIMIT_200ms/train/mmag0_sx316.ark:12
fbcg1_sx352 raw_TIMIT_200ms/train/fbcg1_sx352.ark:12
fmah1_sx69 raw_TIMIT_200ms/train/fmah1_sx69.ark:11
mkah0_sx178 raw_TIMIT_200ms/train/mkah0_sx178.ark:12
mdtb0_sx390 raw_TIMIT_200ms/train/mdtb0_sx390.ark:12
mdas0_sx96 raw_TIMIT_200ms/train/mdas0_sx96.ark:11
mclm0_si2086 raw_TIMIT_200ms/train/mclm0_si2086.ark:13
mrab0_sx144 raw_TIMIT_200ms/train/mrab0_sx144.ark:12
fpaf0_si1684 raw_TIMIT_200ms/train/fpaf0_si1684.ark:13
fdtd0_sx211 raw_TIMIT_200ms/train/fdtd0_sx211.ark:12
fbmj0_sx246 raw_TIMIT_200ms/train/fbmj0_sx246.ark:12
mjda0_sx401 raw_TIMIT_200ms/train/mjda0_sx401.ark:12
mrcw0_sx201 raw_TIMIT_200ms/train/mrcw0_sx201.ark:12
falk0_sx6 raw_TIMIT_200ms/train/falk0_sx6.ark:10
mjjb0_sx239 raw_TIMIT_200ms/train/mjjb0_sx239.ark:12
mkes0_sx443 raw_TIMIT_200ms/train/mkes0_sx443.ark:12
mdac0_sx361 raw_TIMIT_200ms/train/mdac0_sx361.ark:12
mmdm0_sx321 raw_TIMIT_200ms/train/mmdm0_sx321.ark:12
mjwg0_si895 raw_TIMIT_200ms/train/mjwg0_si895.ark:12
mclk0_sx130 raw_TIMIT_200ms/train/mclk0_sx130.ark:12
mclk0_si2290 raw_TIMIT_200ms/train/mclk0_si2290.ark:13
mjdm0_si1340 raw_TIMIT_200ms/train/mjdm0_si1340.ark:13
mkdb0_sx152 raw_TIMIT_200ms/train/mkdb0_sx152.ark:12
mprb0_si575 raw_TIMIT_200ms/train/mprb0_si575.ark:12
fdtd0_si2191 raw_TIMIT_200ms/train/fdtd0_si2191.ark:13
mmeb0_sx327 raw_TIMIT_200ms/train/mmeb0_sx327.ark:12
frll0_si884 raw_TIMIT_200ms/train/frll0_si884.ark:12
mapv0_si1923 raw_TIMIT_200ms/train/mapv0_si1923.ark:13
mgaw0_si1165 raw_TIMIT_200ms/train/mgaw0_si1165.ark:13
mrav0_sx198 raw_TIMIT_200ms/train/mrav0_sx198.ark:12
mtat0_si811 raw_TIMIT_200ms/train/mtat0_si811.ark:12
mjrp0_sx45 raw_TIMIT_200ms/train/mjrp0_sx45.ark:11
mjjj0_si533 raw_TIMIT_200ms/train/mjjj0_si533.ark:12
fsbk0_si1069 raw_TIMIT_200ms/train/fsbk0_si1069.ark:13
mcth0_sx129 raw_TIMIT_200ms/train/mcth0_sx129.ark:12
fceg0_si618 raw_TIMIT_200ms/train/fceg0_si618.ark:12
mjae0_si2154 raw_TIMIT_200ms/train/mjae0_si2154.ark:13
mdlb0_sx406 raw_TIMIT_200ms/train/mdlb0_sx406.ark:12
fpab1_sx301 raw_TIMIT_200ms/train/fpab1_sx301.ark:12
fjen0_sx327 raw_TIMIT_200ms/train/fjen0_sx327.ark:12
mjjm0_sx287 raw_TIMIT_200ms/train/mjjm0_sx287.ark:12
mrmg0_si1710 raw_TIMIT_200ms/train/mrmg0_si1710.ark:13
mewm0_sx448 raw_TIMIT_200ms/train/mewm0_sx448.ark:12
mbsb0_sx183 raw_TIMIT_200ms/train/mbsb0_sx183.ark:12
fkfb0_sx438 raw_TIMIT_200ms/train/fkfb0_sx438.ark:12
mrtj0_si772 raw_TIMIT_200ms/train/mrtj0_si772.ark:12
mjeb0_sx26 raw_TIMIT_200ms/train/mjeb0_sx26.ark:11
mkes0_sx173 raw_TIMIT_200ms/train/mkes0_sx173.ark:12
mjbg0_sx152 raw_TIMIT_200ms/train/mjbg0_sx152.ark:12
frll0_sx434 raw_TIMIT_200ms/train/frll0_sx434.ark:12
mges0_si851 raw_TIMIT_200ms/train/mges0_si851.ark:12
fsbk0_si1699 raw_TIMIT_200ms/train/fsbk0_si1699.ark:13
fsjk1_sx395 raw_TIMIT_200ms/train/fsjk1_sx395.ark:12
mtbc0_si1803 raw_TIMIT_200ms/train/mtbc0_si1803.ark:13
fnkl0_si1522 raw_TIMIT_200ms/train/fnkl0_si1522.ark:13
mgrp0_sx57 raw_TIMIT_200ms/train/mgrp0_sx57.ark:11
mwsb0_si2256 raw_TIMIT_200ms/train/mwsb0_si2256.ark:13
falk0_sx186 raw_TIMIT_200ms/train/falk0_sx186.ark:12
mrjb1_sx30 raw_TIMIT_200ms/train/mrjb1_sx30.ark:11
mdsj0_sx112 raw_TIMIT_200ms/train/mdsj0_sx112.ark:12
fsma0_si991 raw_TIMIT_200ms/train/fsma0_si991.ark:12
fsmm0_sx234 raw_TIMIT_200ms/train/fsmm0_sx234.ark:12
fvfb0_sx312 raw_TIMIT_200ms/train/fvfb0_sx312.ark:12
fdaw0_sx56 raw_TIMIT_200ms/train/fdaw0_sx56.ark:11
mjws0_sx153 raw_TIMIT_200ms/train/mjws0_sx153.ark:12
mtrt0_si1857 raw_TIMIT_200ms/train/mtrt0_si1857.ark:13
mkdt0_si2153 raw_TIMIT_200ms/train/mkdt0_si2153.ark:13
mjlg1_sx202 raw_TIMIT_200ms/train/mjlg1_sx202.ark:12
mddc0_si1419 raw_TIMIT_200ms/train/mddc0_si1419.ark:13
fcke0_sx301 raw_TIMIT_200ms/train/fcke0_sx301.ark:12
fmbg0_sx3 raw_TIMIT_200ms/train/fmbg0_sx3.ark:10
mtrt0_sx237 raw_TIMIT_200ms/train/mtrt0_sx237.ark:12
fltm0_si1070 raw_TIMIT_200ms/train/fltm0_si1070.ark:13
fcag0_sx423 raw_TIMIT_200ms/train/fcag0_sx423.ark:12
mdps0_sx179 raw_TIMIT_200ms/train/mdps0_sx179.ark:12
fapb0_sx73 raw_TIMIT_200ms/train/fapb0_sx73.ark:11
fssb0_sx182 raw_TIMIT_200ms/train/fssb0_sx182.ark:12
mtjm0_sx236 raw_TIMIT_200ms/train/mtjm0_sx236.ark:12
fcrz0_sx433 raw_TIMIT_200ms/train/fcrz0_sx433.ark:12
mlsh0_sx67 raw_TIMIT_200ms/train/mlsh0_sx67.ark:11
mtmt0_sx398 raw_TIMIT_200ms/train/mtmt0_sx398.ark:12
mrfk0_sx446 raw_TIMIT_200ms/train/mrfk0_sx446.ark:12
mwac0_si1601 raw_TIMIT_200ms/train/mwac0_si1601.ark:13
mewm0_si1978 raw_TIMIT_200ms/train/mewm0_si1978.ark:13
fscn0_si1886 raw_TIMIT_200ms/train/fscn0_si1886.ark:13
mdlr0_sx423 raw_TIMIT_200ms/train/mdlr0_sx423.ark:12
mpgr0_sx60 raw_TIMIT_200ms/train/mpgr0_sx60.ark:11
mwsh0_si796 raw_TIMIT_200ms/train/mwsh0_si796.ark:12
marw0_sx376 raw_TIMIT_200ms/train/marw0_sx376.ark:12
mdpb0_sx236 raw_TIMIT_200ms/train/mdpb0_sx236.ark:12
mkrg0_sx141 raw_TIMIT_200ms/train/mkrg0_sx141.ark:12
mprk0_sx107 raw_TIMIT_200ms/train/mprk0_sx107.ark:12
fssb0_sx272 raw_TIMIT_200ms/train/fssb0_sx272.ark:12
fdfb0_sx148 raw_TIMIT_200ms/train/fdfb0_sx148.ark:12
msrr0_si501 raw_TIMIT_200ms/train/msrr0_si501.ark:12
mfmc0_sx52 raw_TIMIT_200ms/train/mfmc0_sx52.ark:11
fntb0_sx393 raw_TIMIT_200ms/train/fntb0_sx393.ark:12
fbjl0_si2182 raw_TIMIT_200ms/train/fbjl0_si2182.ark:13
mdss1_sx157 raw_TIMIT_200ms/train/mdss1_sx157.ark:12
fjwb1_sx255 raw_TIMIT_200ms/train/fjwb1_sx255.ark:12
flmc0_sx382 raw_TIMIT_200ms/train/flmc0_sx382.ark:12
mwre0_sx157 raw_TIMIT_200ms/train/mwre0_sx157.ark:12
fcdr1_sx106 raw_TIMIT_200ms/train/fcdr1_sx106.ark:12
fhxs0_sx265 raw_TIMIT_200ms/train/fhxs0_sx265.ark:12
mgsh0_sx96 raw_TIMIT_200ms/train/mgsh0_sx96.ark:11
feme0_si2135 raw_TIMIT_200ms/train/feme0_si2135.ark:13
mcre0_sx401 raw_TIMIT_200ms/train/mcre0_sx401.ark:12
ftlg0_sx213 raw_TIMIT_200ms/train/ftlg0_sx213.ark:12
mmcc0_sx258 raw_TIMIT_200ms/train/mmcc0_sx258.ark:12
mjrg0_sx376 raw_TIMIT_200ms/train/mjrg0_sx376.ark:12
mgsl0_sx264 raw_TIMIT_200ms/train/mgsl0_sx264.ark:12
mjjb0_sx329 raw_TIMIT_200ms/train/mjjb0_sx329.ark:12
mljc0_sx325 raw_TIMIT_200ms/train/mljc0_sx325.ark:12
fbas0_sx217 raw_TIMIT_200ms/train/fbas0_sx217.ark:12
msjk0_sx66 raw_TIMIT_200ms/train/msjk0_sx66.ark:11
mtab0_si2202 raw_TIMIT_200ms/train/mtab0_si2202.ark:13
mcdc0_sx122 raw_TIMIT_200ms/train/mcdc0_sx122.ark:12
mjrg0_si1996 raw_TIMIT_200ms/train/mjrg0_si1996.ark:13
mafm0_si2199 raw_TIMIT_200ms/train/mafm0_si2199.ark:13
fcrz0_si1913 raw_TIMIT_200ms/train/fcrz0_si1913.ark:13
frjb0_sx437 raw_TIMIT_200ms/train/frjb0_sx437.ark:12
mtmn0_sx434 raw_TIMIT_200ms/train/mtmn0_sx434.ark:12
mtmt0_si488 raw_TIMIT_200ms/train/mtmt0_si488.ark:12
mdhs0_si2160 raw_TIMIT_200ms/train/mdhs0_si2160.ark:13
mrab1_sx218 raw_TIMIT_200ms/train/mrab1_sx218.ark:12
mmrp0_sx414 raw_TIMIT_200ms/train/mmrp0_sx414.ark:12
mpar0_sx406 raw_TIMIT_200ms/train/mpar0_sx406.ark:12
ftlg0_sx303 raw_TIMIT_200ms/train/ftlg0_sx303.ark:12
fmkf0_sx186 raw_TIMIT_200ms/train/fmkf0_sx186.ark:12
mkjo0_sx257 raw_TIMIT_200ms/train/mkjo0_sx257.ark:12
mdlh0_sx340 raw_TIMIT_200ms/train/mdlh0_sx340.ark:12
mpeb0_sx240 raw_TIMIT_200ms/train/mpeb0_sx240.ark:12
mjdc0_sx171 raw_TIMIT_200ms/train/mjdc0_sx171.ark:12
mtrr0_si1548 raw_TIMIT_200ms/train/mtrr0_si1548.ark:13
mtab0_sx42 raw_TIMIT_200ms/train/mtab0_sx42.ark:11
fpls0_sx240 raw_TIMIT_200ms/train/fpls0_sx240.ark:12
fscn0_sx356 raw_TIMIT_200ms/train/fscn0_sx356.ark:12
msvs0_si2198 raw_TIMIT_200ms/train/msvs0_si2198.ark:13
mrab0_si1854 raw_TIMIT_200ms/train/mrab0_si1854.ark:13
falk0_si1086 raw_TIMIT_200ms/train/falk0_si1086.ark:13
fkaa0_si1208 raw_TIMIT_200ms/train/fkaa0_si1208.ark:13
mkdb0_sx422 raw_TIMIT_200ms/train/mkdb0_sx422.ark:12
mtjs0_si1192 raw_TIMIT_200ms/train/mtjs0_si1192.ark:13
mbom0_si1014 raw_TIMIT_200ms/train/mbom0_si1014.ark:13
mtlc0_si847 raw_TIMIT_200ms/train/mtlc0_si847.ark:12
mmws1_si1701 raw_TIMIT_200ms/train/mmws1_si1701.ark:13
mtkp0_sx393 raw_TIMIT_200ms/train/mtkp0_sx393.ark:12
mjmm0_sx265 raw_TIMIT_200ms/train/mjmm0_sx265.ark:12
mtcs0_si2265 raw_TIMIT_200ms/train/mtcs0_si2265.ark:13
mwdk0_si806 raw_TIMIT_200ms/train/mwdk0_si806.ark:12
mmgc0_si1935 raw_TIMIT_200ms/train/mmgc0_si1935.ark:13
mbar0_sx329 raw_TIMIT_200ms/train/mbar0_sx329.ark:12
mrem0_si511 raw_TIMIT_200ms/train/mrem0_si511.ark:12
mprt0_sx220 raw_TIMIT_200ms/train/mprt0_sx220.ark:12
mtml0_sx435 raw_TIMIT_200ms/train/mtml0_sx435.ark:12
fjhk0_sx212 raw_TIMIT_200ms/train/fjhk0_sx212.ark:12
mgak0_sx316 raw_TIMIT_200ms/train/mgak0_sx316.ark:12
mjeb0_si1916 raw_TIMIT_200ms/train/mjeb0_si1916.ark:13
faem0_sx132 raw_TIMIT_200ms/train/faem0_sx132.ark:12
fjdm2_sx232 raw_TIMIT_200ms/train/fjdm2_sx232.ark:12
fsgf0_sx207 raw_TIMIT_200ms/train/fsgf0_sx207.ark:12
mdlc0_si2025 raw_TIMIT_200ms/train/mdlc0_si2025.ark:13
mrfk0_sx86 raw_TIMIT_200ms/train/mrfk0_sx86.ark:11
mdlc1_sx265 raw_TIMIT_200ms/train/mdlc1_sx265.ark:12
fdml0_sx159 raw_TIMIT_200ms/train/fdml0_sx159.ark:12
mgak0_sx226 raw_TIMIT_200ms/train/mgak0_sx226.ark:12
mcre0_si1725 raw_TIMIT_200ms/train/mcre0_si1725.ark:13
mjfh0_si1107 raw_TIMIT_200ms/train/mjfh0_si1107.ark:13
mgsh0_sx6 raw_TIMIT_200ms/train/mgsh0_sx6.ark:10
flhd0_sx354 raw_TIMIT_200ms/train/flhd0_sx354.ark:12
mgag0_si691 raw_TIMIT_200ms/train/mgag0_si691.ark:12
fpaz0_sx423 raw_TIMIT_200ms/train/fpaz0_sx423.ark:12
mmlm0_sx87 raw_TIMIT_200ms/train/mmlm0_sx87.ark:11
mrkm0_sx97 raw_TIMIT_200ms/train/mrkm0_sx97.ark:11
mddc0_sx339 raw_TIMIT_200ms/train/mddc0_sx339.ark:12
mrem0_sx421 raw_TIMIT_200ms/train/mrem0_sx421.ark:12
mrai0_sx162 raw_TIMIT_200ms/train/mrai0_sx162.ark:12
mgar0_sx132 raw_TIMIT_200ms/train/mgar0_sx132.ark:12
mrjm0_sx58 raw_TIMIT_200ms/train/mrjm0_sx58.ark:11
fgmb0_sx155 raw_TIMIT_200ms/train/fgmb0_sx155.ark:12
mdlh0_sx430 raw_TIMIT_200ms/train/mdlh0_sx430.ark:12
fcjs0_si977 raw_TIMIT_200ms/train/fcjs0_si977.ark:12
mtat0_sx120 raw_TIMIT_200ms/train/mtat0_sx120.ark:12
mkdt0_si814 raw_TIMIT_200ms/train/mkdt0_si814.ark:12
mtkp0_sx33 raw_TIMIT_200ms/train/mtkp0_sx33.ark:11
flag0_sx204 raw_TIMIT_200ms/train/flag0_sx204.ark:12
mfer0_sx142 raw_TIMIT_200ms/train/mfer0_sx142.ark:12
msmc0_si647 raw_TIMIT_200ms/train/msmc0_si647.ark:12
mrtj0_sx142 raw_TIMIT_200ms/train/mrtj0_sx142.ark:12
mrms0_sx210 raw_TIMIT_200ms/train/mrms0_sx210.ark:12
mdps0_sx269 raw_TIMIT_200ms/train/mdps0_sx269.ark:12
mdlb0_si1936 raw_TIMIT_200ms/train/mdlb0_si1936.ark:13
fcjf0_si1027 raw_TIMIT_200ms/train/fcjf0_si1027.ark:13
mrfl0_si526 raw_TIMIT_200ms/train/mrfl0_si526.ark:12
mrmb0_si951 raw_TIMIT_200ms/train/mrmb0_si951.ark:12
mvrw0_sx45 raw_TIMIT_200ms/train/mvrw0_sx45.ark:11
mrav0_si2268 raw_TIMIT_200ms/train/mrav0_si2268.ark:13
mrgs0_si726 raw_TIMIT_200ms/train/mrgs0_si726.ark:12
mtjs0_si1822 raw_TIMIT_200ms/train/mtjs0_si1822.ark:13
fceg0_sx438 raw_TIMIT_200ms/train/fceg0_sx438.ark:12
fjsk0_si2312 raw_TIMIT_200ms/train/fjsk0_si2312.ark:13
feeh0_si471 raw_TIMIT_200ms/train/feeh0_si471.ark:12
mhrm0_sx148 raw_TIMIT_200ms/train/mhrm0_sx148.ark:12
fpac0_sx211 raw_TIMIT_200ms/train/fpac0_sx211.ark:12
mpfu0_sx178 raw_TIMIT_200ms/train/mpfu0_sx178.ark:12
maeo0_sx336 raw_TIMIT_200ms/train/maeo0_sx336.ark:12
maeo0_si1956 raw_TIMIT_200ms/train/maeo0_si1956.ark:13
mjwg0_sx265 raw_TIMIT_200ms/train/mjwg0_sx265.ark:12
mgsl0_sx174 raw_TIMIT_200ms/train/mgsl0_sx174.ark:12
mrlk0_si1468 raw_TIMIT_200ms/train/mrlk0_si1468.ark:13
fdmy0_si567 raw_TIMIT_200ms/train/fdmy0_si567.ark:12
fmjf0_si1254 raw_TIMIT_200ms/train/fmjf0_si1254.ark:13
mjsr0_si794 raw_TIMIT_200ms/train/mjsr0_si794.ark:12
fsah0_sx344 raw_TIMIT_200ms/train/fsah0_sx344.ark:12
mppc0_sx62 raw_TIMIT_200ms/train/mppc0_sx62.ark:11
fmju0_sx399 raw_TIMIT_200ms/train/fmju0_sx399.ark:12
fbcg1_sx262 raw_TIMIT_200ms/train/fbcg1_sx262.ark:12
mbjv0_sx167 raw_TIMIT_200ms/train/mbjv0_sx167.ark:12
flod0_sx297 raw_TIMIT_200ms/train/flod0_sx297.ark:12
flkm0_sx350 raw_TIMIT_200ms/train/flkm0_sx350.ark:12
mmpm0_sx431 raw_TIMIT_200ms/train/mmpm0_sx431.ark:12
mgak0_sx406 raw_TIMIT_200ms/train/mgak0_sx406.ark:12
fpaz0_sx243 raw_TIMIT_200ms/train/fpaz0_sx243.ark:12
fgdp0_sx448 raw_TIMIT_200ms/train/fgdp0_sx448.ark:12
mclm0_sx196 raw_TIMIT_200ms/train/mclm0_sx196.ark:12
mbgt0_si1841 raw_TIMIT_200ms/train/mbgt0_si1841.ark:13
mrmg0_sx450 raw_TIMIT_200ms/train/mrmg0_sx450.ark:12
fvkb0_si529 raw_TIMIT_200ms/train/fvkb0_si529.ark:12
mbjv0_si617 raw_TIMIT_200ms/train/mbjv0_si617.ark:12
maeo0_sx156 raw_TIMIT_200ms/train/maeo0_sx156.ark:12
mtlc0_sx217 raw_TIMIT_200ms/train/mtlc0_sx217.ark:12
fcke0_si481 raw_TIMIT_200ms/train/fcke0_si481.ark:12
mjmm0_sx85 raw_TIMIT_200ms/train/mjmm0_sx85.ark:11
mklr0_si1689 raw_TIMIT_200ms/train/mklr0_si1689.ark:13
mprd0_si1431 raw_TIMIT_200ms/train/mprd0_si1431.ark:13
mrmb0_sx141 raw_TIMIT_200ms/train/mrmb0_sx141.ark:12
mtbc0_sx93 raw_TIMIT_200ms/train/mtbc0_sx93.ark:11
fpad0_si1346 raw_TIMIT_200ms/train/fpad0_si1346.ark:13
mmsm0_si1106 raw_TIMIT_200ms/train/mmsm0_si1106.ark:13
mbwp0_si1531 raw_TIMIT_200ms/train/mbwp0_si1531.ark:13
fmju0_si759 raw_TIMIT_200ms/train/fmju0_si759.ark:12
msfh0_sx46 raw_TIMIT_200ms/train/msfh0_sx46.ark:11
medr0_si744 raw_TIMIT_200ms/train/medr0_si744.ark:12
mhjb0_sx207 raw_TIMIT_200ms/train/mhjb0_sx207.ark:12
fsms1_sx154 raw_TIMIT_200ms/train/fsms1_sx154.ark:12
fjsp0_sx174 raw_TIMIT_200ms/train/fjsp0_sx174.ark:12
mdwm0_si1546 raw_TIMIT_200ms/train/mdwm0_si1546.ark:13
fkdw0_sx37 raw_TIMIT_200ms/train/fkdw0_sx37.ark:11
mgag0_sx61 raw_TIMIT_200ms/train/mgag0_sx61.ark:11
mmsm0_sx206 raw_TIMIT_200ms/train/mmsm0_sx206.ark:12
mjlg1_sx22 raw_TIMIT_200ms/train/mjlg1_sx22.ark:11
fssb0_si2342 raw_TIMIT_200ms/train/fssb0_si2342.ark:13
fsjw0_sx343 raw_TIMIT_200ms/train/fsjw0_sx343.ark:12
fjlg0_si1506 raw_TIMIT_200ms/train/fjlg0_si1506.ark:13
mjrh0_sx405 raw_TIMIT_200ms/train/mjrh0_sx405.ark:12
fsjs0_sx91 raw_TIMIT_200ms/train/fsjs0_sx91.ark:11
madd0_sx88 raw_TIMIT_200ms/train/madd0_sx88.ark:11
mrew1_sx330 raw_TIMIT_200ms/train/mrew1_sx330.ark:12
mhjb0_si1647 raw_TIMIT_200ms/train/mhjb0_si1647.ark:13
mjpg0_sx21 raw_TIMIT_200ms/train/mjpg0_sx21.ark:11
mctm0_sx270 raw_TIMIT_200ms/train/mctm0_sx270.ark:12
fblv0_sx158 raw_TIMIT_200ms/train/fblv0_sx158.ark:12
mses0_si2219 raw_TIMIT_200ms/train/mses0_si2219.ark:13
mkdb0_sx242 raw_TIMIT_200ms/train/mkdb0_sx242.ark:12
mses0_sx239 raw_TIMIT_200ms/train/mses0_sx239.ark:12
mrwa0_sx433 raw_TIMIT_200ms/train/mrwa0_sx433.ark:12
mfwk0_sx259 raw_TIMIT_200ms/train/mfwk0_sx259.ark:12
mrgs0_si1986 raw_TIMIT_200ms/train/mrgs0_si1986.ark:13
mkag0_si979 raw_TIMIT_200ms/train/mkag0_si979.ark:12
fjwb1_si748 raw_TIMIT_200ms/train/fjwb1_si748.ark:12
mjhi0_sx428 raw_TIMIT_200ms/train/mjhi0_sx428.ark:12
mtkp0_sx123 raw_TIMIT_200ms/train/mtkp0_sx123.ark:12
mdpb0_si2126 raw_TIMIT_200ms/train/mdpb0_si2126.ark:13
mrlr0_sx116 raw_TIMIT_200ms/train/mrlr0_sx116.ark:12
mjhi0_sx68 raw_TIMIT_200ms/train/mjhi0_sx68.ark:11
mreh1_sx69 raw_TIMIT_200ms/train/mreh1_sx69.ark:11
mrkm0_si1391 raw_TIMIT_200ms/train/mrkm0_si1391.ark:13
mrws0_sx292 raw_TIMIT_200ms/train/mrws0_sx292.ark:12
fbch0_si956 raw_TIMIT_200ms/train/fbch0_si956.ark:12
mrwa0_sx163 raw_TIMIT_200ms/train/mrwa0_sx163.ark:12
mtat1_si1409 raw_TIMIT_200ms/train/mtat1_si1409.ark:13
flhd0_si1974 raw_TIMIT_200ms/train/flhd0_si1974.ark:13
fcyl0_si667 raw_TIMIT_200ms/train/fcyl0_si667.ark:12
mrjh0_si889 raw_TIMIT_200ms/train/mrjh0_si889.ark:12
mvjh0_sx26 raw_TIMIT_200ms/train/mvjh0_sx26.ark:11
mppc0_sx242 raw_TIMIT_200ms/train/mppc0_sx242.ark:12
mefg0_si598 raw_TIMIT_200ms/train/mefg0_si598.ark:12
mmeb0_sx187 raw_TIMIT_200ms/train/mmeb0_sx187.ark:12
mjma0_si865 raw_TIMIT_200ms/train/mjma0_si865.ark:12
fsgf0_sx387 raw_TIMIT_200ms/train/fsgf0_sx387.ark:12
fjxm0_si1971 raw_TIMIT_200ms/train/fjxm0_si1971.ark:13
mkaj0_sx334 raw_TIMIT_200ms/train/mkaj0_sx334.ark:12
mtlb0_sx414 raw_TIMIT_200ms/train/mtlb0_sx414.ark:12
fear0_si622 raw_TIMIT_200ms/train/fear0_si622.ark:12
mesj0_si2257 raw_TIMIT_200ms/train/mesj0_si2257.ark:13
mrjm0_si1228 raw_TIMIT_200ms/train/mrjm0_si1228.ark:13
fdfb0_si1318 raw_TIMIT_200ms/train/fdfb0_si1318.ark:13
mtpf0_sx65 raw_TIMIT_200ms/train/mtpf0_sx65.ark:11
mdpk0_sx63 raw_TIMIT_200ms/train/mdpk0_sx63.ark:11
mlbc0_sx69 raw_TIMIT_200ms/train/mlbc0_sx69.ark:11
mpgh0_si1554 raw_TIMIT_200ms/train/mpgh0_si1554.ark:13
ftbw0_si1345 raw_TIMIT_200ms/train/ftbw0_si1345.ark:13
fcaj0_si849 raw_TIMIT_200ms/train/fcaj0_si849.ark:12
mzmb0_sx356 raw_TIMIT_200ms/train/mzmb0_sx356.ark:12
fexm0_sx291 raw_TIMIT_200ms/train/fexm0_sx291.ark:12
mrlr0_sx26 raw_TIMIT_200ms/train/mrlr0_sx26.ark:11
fpaz0_sx27 raw_TIMIT_200ms/train/fpaz0_sx27.ark:11
mpgh0_sx114 raw_TIMIT_200ms/train/mpgh0_sx114.ark:12
mmam0_sx427 raw_TIMIT_200ms/train/mmam0_sx427.ark:12
frjb0_si1794 raw_TIMIT_200ms/train/frjb0_si1794.ark:13
mdcd0_sx335 raw_TIMIT_200ms/train/mdcd0_sx335.ark:12
mgak0_sx136 raw_TIMIT_200ms/train/mgak0_sx136.ark:12
fgrw0_si1782 raw_TIMIT_200ms/train/fgrw0_si1782.ark:13
mrpc1_sx132 raw_TIMIT_200ms/train/mrpc1_sx132.ark:12
mmar0_si706 raw_TIMIT_200ms/train/mmar0_si706.ark:12
mrsp0_sx439 raw_TIMIT_200ms/train/mrsp0_sx439.ark:12
mafm0_sx219 raw_TIMIT_200ms/train/mafm0_sx219.ark:12
fpjf0_si1259 raw_TIMIT_200ms/train/fpjf0_si1259.ark:13
mdss0_si2087 raw_TIMIT_200ms/train/mdss0_si2087.ark:13
mtdb0_sx141 raw_TIMIT_200ms/train/mtdb0_sx141.ark:12
mmar0_si1966 raw_TIMIT_200ms/train/mmar0_si1966.ark:13
mjra0_si1236 raw_TIMIT_200ms/train/mjra0_si1236.ark:13
makr0_sx92 raw_TIMIT_200ms/train/makr0_sx92.ark:11
fdas1_si1461 raw_TIMIT_200ms/train/fdas1_si1461.ark:13
mkls0_si1437 raw_TIMIT_200ms/train/mkls0_si1437.ark:13
fmkf0_sx96 raw_TIMIT_200ms/train/fmkf0_sx96.ark:11
mjmd0_sx308 raw_TIMIT_200ms/train/mjmd0_sx308.ark:12
mrxb0_sx145 raw_TIMIT_200ms/train/mrxb0_sx145.ark:12
mmar0_si1336 raw_TIMIT_200ms/train/mmar0_si1336.ark:13
mtab0_sx222 raw_TIMIT_200ms/train/mtab0_sx222.ark:12
mjwt0_si1381 raw_TIMIT_200ms/train/mjwt0_si1381.ark:13
mdks0_si1696 raw_TIMIT_200ms/train/mdks0_si1696.ark:13
mrjh0_sx259 raw_TIMIT_200ms/train/mrjh0_sx259.ark:12
mwdk0_sx86 raw_TIMIT_200ms/train/mwdk0_sx86.ark:11
fnkl0_sx196 raw_TIMIT_200ms/train/fnkl0_sx196.ark:12
mcal0_si1138 raw_TIMIT_200ms/train/mcal0_si1138.ark:13
fceg0_sx168 raw_TIMIT_200ms/train/fceg0_sx168.ark:12
mcre0_si1121 raw_TIMIT_200ms/train/mcre0_si1121.ark:13
mwgr0_sx256 raw_TIMIT_200ms/train/mwgr0_sx256.ark:12
mvlo0_si1777 raw_TIMIT_200ms/train/mvlo0_si1777.ark:13
fspm0_sx71 raw_TIMIT_200ms/train/fspm0_sx71.ark:11
msjk0_sx426 raw_TIMIT_200ms/train/msjk0_sx426.ark:12
mjjj0_sx443 raw_TIMIT_200ms/train/mjjj0_sx443.ark:12
mabc0_sx421 raw_TIMIT_200ms/train/mabc0_sx421.ark:12
mejs0_sx70 raw_TIMIT_200ms/train/mejs0_sx70.ark:11
mcth0_sx219 raw_TIMIT_200ms/train/mcth0_sx219.ark:12
mejl0_sx152 raw_TIMIT_200ms/train/mejl0_sx152.ark:12
mrmh0_sx301 raw_TIMIT_200ms/train/mrmh0_sx301.ark:12
mcre0_sx131 raw_TIMIT_200ms/train/mcre0_sx131.ark:12
mgar0_sx222 raw_TIMIT_200ms/train/mgar0_sx222.ark:12
mdlr0_sx63 raw_TIMIT_200ms/train/mdlr0_sx63.ark:11
mlns0_sx327 raw_TIMIT_200ms/train/mlns0_sx327.ark:12
fcjs0_sx347 raw_TIMIT_200ms/train/fcjs0_sx347.ark:12
fpmy0_si523 raw_TIMIT_200ms/train/fpmy0_si523.ark:12
mejs0_si610 raw_TIMIT_200ms/train/mejs0_si610.ark:12
mwar0_sx325 raw_TIMIT_200ms/train/mwar0_sx325.ark:12
mpeb0_si1034 raw_TIMIT_200ms/train/mpeb0_si1034.ark:13
mtpr0_sx430 raw_TIMIT_200ms/train/mtpr0_sx430.ark:12
mprb0_sx395 raw_TIMIT_200ms/train/mprb0_sx395.ark:12
mtrr0_sx198 raw_TIMIT_200ms/train/mtrr0_sx198.ark:12
mdlr0_si1233 raw_TIMIT_200ms/train/mdlr0_si1233.ark:13
mcpm0_si564 raw_TIMIT_200ms/train/mcpm0_si564.ark:12
fmkf0_sx366 raw_TIMIT_200ms/train/fmkf0_sx366.ark:12
msjk0_si966 raw_TIMIT_200ms/train/msjk0_si966.ark:12
fhlm0_sx300 raw_TIMIT_200ms/train/fhlm0_sx300.ark:12
mcal0_sx238 raw_TIMIT_200ms/train/mcal0_sx238.ark:12
fntb0_sx303 raw_TIMIT_200ms/train/fntb0_sx303.ark:12
mhjb0_sx27 raw_TIMIT_200ms/train/mhjb0_sx27.ark:11
fvfb0_sx42 raw_TIMIT_200ms/train/fvfb0_sx42.ark:11
mkam0_si1250 raw_TIMIT_200ms/train/mkam0_si1250.ark:13
