fmjb0_si547 raw_TIMIT_200ms/train/fmjb0_si547.ark:12
mjeb1_sx27 raw_TIMIT_200ms/train/mjeb1_sx27.ark:11
mhrm0_si1475 raw_TIMIT_200ms/train/mhrm0_si1475.ark:13
fsah0_sx74 raw_TIMIT_200ms/train/fsah0_sx74.ark:11
mlns0_si777 raw_TIMIT_200ms/train/mlns0_si777.ark:12
mmdm1_sx423 raw_TIMIT_200ms/train/mmdm1_sx423.ark:12
mcss0_si1380 raw_TIMIT_200ms/train/mcss0_si1380.ark:13
mgag0_si691 raw_TIMIT_200ms/train/mgag0_si691.ark:12
mmam0_sx157 raw_TIMIT_200ms/train/mmam0_sx157.ark:12
mpfu0_si1888 raw_TIMIT_200ms/train/mpfu0_si1888.ark:13
fgrw0_sx342 raw_TIMIT_200ms/train/fgrw0_sx342.ark:12
makb0_si2276 raw_TIMIT_200ms/train/makb0_si2276.ark:13
fcjs0_sx167 raw_TIMIT_200ms/train/fcjs0_sx167.ark:12
fdtd0_sx391 raw_TIMIT_200ms/train/fdtd0_sx391.ark:12
mdma0_si1238 raw_TIMIT_200ms/train/mdma0_si1238.ark:13
mrsp0_sx79 raw_TIMIT_200ms/train/mrsp0_sx79.ark:11
mkls0_si1533 raw_TIMIT_200ms/train/mkls0_si1533.ark:13
mrxb0_si955 raw_TIMIT_200ms/train/mrxb0_si955.ark:12
mgsh0_sx6 raw_TIMIT_200ms/train/mgsh0_sx6.ark:10
mdem0_sx338 raw_TIMIT_200ms/train/mdem0_sx338.ark:12
maeb0_si1411 raw_TIMIT_200ms/train/maeb0_si1411.ark:13
mdas0_si1266 raw_TIMIT_200ms/train/mdas0_si1266.ark:13
mcxm0_sx451 raw_TIMIT_200ms/train/mcxm0_sx451.ark:12
fsls0_si1056 raw_TIMIT_200ms/train/fsls0_si1056.ark:13
fcrz0_sx163 raw_TIMIT_200ms/train/fcrz0_sx163.ark:12
mcal0_sx238 raw_TIMIT_200ms/train/mcal0_sx238.ark:12
fntb0_sx303 raw_TIMIT_200ms/train/fntb0_sx303.ark:12
mbma1_sx234 raw_TIMIT_200ms/train/mbma1_sx234.ark:12
mvlo0_sx157 raw_TIMIT_200ms/train/mvlo0_sx157.ark:12
mhbs0_sx135 raw_TIMIT_200ms/train/mhbs0_sx135.ark:12
fhlm0_si2190 raw_TIMIT_200ms/train/fhlm0_si2190.ark:13
fcjf0_sx397 raw_TIMIT_200ms/train/fcjf0_sx397.ark:12
mrgm0_sx172 raw_TIMIT_200ms/train/mrgm0_sx172.ark:12
mdks0_sx166 raw_TIMIT_200ms/train/mdks0_sx166.ark:12
mtpp0_sx158 raw_TIMIT_200ms/train/mtpp0_sx158.ark:12
msat0_sx176 raw_TIMIT_200ms/train/msat0_sx176.ark:12
fvfb0_si2292 raw_TIMIT_200ms/train/fvfb0_si2292.ark:13
mtxs0_si2320 raw_TIMIT_200ms/train/mtxs0_si2320.ark:13
mclk0_sx130 raw_TIMIT_200ms/train/mclk0_sx130.ark:12
mdjm0_sx285 raw_TIMIT_200ms/train/mdjm0_sx285.ark:12
mtpr0_sx340 raw_TIMIT_200ms/train/mtpr0_sx340.ark:12
fklc1_sx148 raw_TIMIT_200ms/train/fklc1_sx148.ark:12
fdjh0_sx305 raw_TIMIT_200ms/train/fdjh0_sx305.ark:12
mwre0_sx427 raw_TIMIT_200ms/train/mwre0_sx427.ark:12
mrml0_sx341 raw_TIMIT_200ms/train/mrml0_sx341.ark:12
fskl0_sx269 raw_TIMIT_200ms/train/fskl0_sx269.ark:12
mrld0_si1594 raw_TIMIT_200ms/train/mrld0_si1594.ark:13
mrds0_sx357 raw_TIMIT_200ms/train/mrds0_sx357.ark:12
mjdm0_sx350 raw_TIMIT_200ms/train/mjdm0_sx350.ark:12
mjdm0_sx260 raw_TIMIT_200ms/train/mjdm0_sx260.ark:12
mjrh0_sx315 raw_TIMIT_200ms/train/mjrh0_sx315.ark:12
fsdc0_sx142 raw_TIMIT_200ms/train/fsdc0_sx142.ark:12
mrjm1_sx128 raw_TIMIT_200ms/train/mrjm1_sx128.ark:12
mfmc0_sx412 raw_TIMIT_200ms/train/mfmc0_sx412.ark:12
mdks0_sx346 raw_TIMIT_200ms/train/mdks0_sx346.ark:12
mdpk0_si1683 raw_TIMIT_200ms/train/mdpk0_si1683.ark:13
fspm0_sx431 raw_TIMIT_200ms/train/fspm0_sx431.ark:12
mmlm0_sx87 raw_TIMIT_200ms/train/mmlm0_sx87.ark:11
mwem0_sx150 raw_TIMIT_200ms/train/mwem0_sx150.ark:12
mjdg0_si1705 raw_TIMIT_200ms/train/mjdg0_si1705.ark:13
fsdc0_sx52 raw_TIMIT_200ms/train/fsdc0_sx52.ark:11
fsjs0_si1171 raw_TIMIT_200ms/train/fsjs0_si1171.ark:13
mjkr0_si571 raw_TIMIT_200ms/train/mjkr0_si571.ark:12
fjsk0_sx152 raw_TIMIT_200ms/train/fjsk0_sx152.ark:12
mfxv0_si1342 raw_TIMIT_200ms/train/mfxv0_si1342.ark:13
fleh0_sx421 raw_TIMIT_200ms/train/fleh0_sx421.ark:12
mjde0_sx220 raw_TIMIT_200ms/train/mjde0_sx220.ark:12
mrab0_sx324 raw_TIMIT_200ms/train/mrab0_sx324.ark:12
mdhl0_sx269 raw_TIMIT_200ms/train/mdhl0_sx269.ark:12
fexm0_si1731 raw_TIMIT_200ms/train/fexm0_si1731.ark:13
mgsh0_sx186 raw_TIMIT_200ms/train/mgsh0_sx186.ark:12
mhmr0_sx39 raw_TIMIT_200ms/train/mhmr0_sx39.ark:11
mdlr0_sx423 raw_TIMIT_200ms/train/mdlr0_sx423.ark:12
mdhl0_si1439 raw_TIMIT_200ms/train/mdhl0_si1439.ark:13
mrem0_si961 raw_TIMIT_200ms/train/mrem0_si961.ark:12
mtcs0_si1972 raw_TIMIT_200ms/train/mtcs0_si1972.ark:13
fklc1_si1678 raw_TIMIT_200ms/train/fklc1_si1678.ark:13
fdtd0_si931 raw_TIMIT_200ms/train/fdtd0_si931.ark:12
mdwh0_si665 raw_TIMIT_200ms/train/mdwh0_si665.ark:12
flag0_sx24 raw_TIMIT_200ms/train/flag0_sx24.ark:11
mrdd0_sx240 raw_TIMIT_200ms/train/mrdd0_sx240.ark:12
mkdt0_sx83 raw_TIMIT_200ms/train/mkdt0_sx83.ark:11
fklc1_sx58 raw_TIMIT_200ms/train/fklc1_sx58.ark:11
mtrt0_sx237 raw_TIMIT_200ms/train/mtrt0_sx237.ark:12
mlsh0_sx427 raw_TIMIT_200ms/train/mlsh0_sx427.ark:12
mfer0_si1492 raw_TIMIT_200ms/train/mfer0_si1492.ark:13
mhmr0_sx129 raw_TIMIT_200ms/train/mhmr0_sx129.ark:12
mjhi0_sx158 raw_TIMIT_200ms/train/mjhi0_sx158.ark:12
mkag0_si979 raw_TIMIT_200ms/train/mkag0_si979.ark:12
msjk0_sx156 raw_TIMIT_200ms/train/msjk0_sx156.ark:12
fjrp1_si802 raw_TIMIT_200ms/train/fjrp1_si802.ark:12
mmgg0_sx449 raw_TIMIT_200ms/train/mmgg0_sx449.ark:12
mddc0_sx339 raw_TIMIT_200ms/train/mddc0_sx339.ark:12
mljc0_sx235 raw_TIMIT_200ms/train/mljc0_sx235.ark:12
msfh0_sx136 raw_TIMIT_200ms/train/msfh0_sx136.ark:12
mwrp0_si1443 raw_TIMIT_200ms/train/mwrp0_si1443.ark:13
fpjf0_si1259 raw_TIMIT_200ms/train/fpjf0_si1259.ark:13
flmc0_si1372 raw_TIMIT_200ms/train/flmc0_si1372.ark:13
fsrh0_si1931 raw_TIMIT_200ms/train/fsrh0_si1931.ark:13
mjda0_sx131 raw_TIMIT_200ms/train/mjda0_sx131.ark:12
marc0_sx108 raw_TIMIT_200ms/train/marc0_sx108.ark:12
mmar0_sx346 raw_TIMIT_200ms/train/mmar0_sx346.ark:12
mreh1_si969 raw_TIMIT_200ms/train/mreh1_si969.ark:12
fjkl0_si2192 raw_TIMIT_200ms/train/fjkl0_si2192.ark:13
ftaj0_sx69 raw_TIMIT_200ms/train/ftaj0_sx69.ark:11
mtkp0_si1023 raw_TIMIT_200ms/train/mtkp0_si1023.ark:13
fcdr1_sx196 raw_TIMIT_200ms/train/fcdr1_sx196.ark:12
mrld0_sx244 raw_TIMIT_200ms/train/mrld0_sx244.ark:12
flmk0_sx45 raw_TIMIT_200ms/train/flmk0_sx45.ark:11
mmaa0_si845 raw_TIMIT_200ms/train/mmaa0_si845.ark:12
mdhl0_sx449 raw_TIMIT_200ms/train/mdhl0_sx449.ark:12
ftbw0_sx265 raw_TIMIT_200ms/train/ftbw0_sx265.ark:12
mbsb0_sx273 raw_TIMIT_200ms/train/mbsb0_sx273.ark:12
fmah1_si879 raw_TIMIT_200ms/train/fmah1_si879.ark:12
fmju0_si759 raw_TIMIT_200ms/train/fmju0_si759.ark:12
fskc0_si2046 raw_TIMIT_200ms/train/fskc0_si2046.ark:13
mdlc1_si2144 raw_TIMIT_200ms/train/mdlc1_si2144.ark:13
mhmg0_sx285 raw_TIMIT_200ms/train/mhmg0_sx285.ark:12
mjpg0_sx291 raw_TIMIT_200ms/train/mjpg0_sx291.ark:12
fcmm0_si1957 raw_TIMIT_200ms/train/fcmm0_si1957.ark:13
mmdg0_sx70 raw_TIMIT_200ms/train/mmdg0_sx70.ark:11
flod0_sx207 raw_TIMIT_200ms/train/flod0_sx207.ark:12
fdkn0_si1711 raw_TIMIT_200ms/train/fdkn0_si1711.ark:13
mtmt0_si488 raw_TIMIT_200ms/train/mtmt0_si488.ark:12
mjlg1_si2272 raw_TIMIT_200ms/train/mjlg1_si2272.ark:13
mpgr0_sx420 raw_TIMIT_200ms/train/mpgr0_sx420.ark:12
mded0_sx270 raw_TIMIT_200ms/train/mded0_sx270.ark:12
mdlc1_sx175 raw_TIMIT_200ms/train/mdlc1_sx175.ark:12
fjwb1_si748 raw_TIMIT_200ms/train/fjwb1_si748.ark:12
mhrm0_sx328 raw_TIMIT_200ms/train/mhrm0_sx328.ark:12
mjjj0_sx83 raw_TIMIT_200ms/train/mjjj0_sx83.ark:11
mrmh0_sx31 raw_TIMIT_200ms/train/mrmh0_sx31.ark:11
mgxp0_sx7 raw_TIMIT_200ms/train/mgxp0_sx7.ark:10
mmwb0_sx89 raw_TIMIT_200ms/train/mmwb0_sx89.ark:11
mwch0_sx362 raw_TIMIT_200ms/train/mwch0_sx362.ark:12
fklc0_si1615 raw_TIMIT_200ms/train/fklc0_si1615.ark:13
mwsh0_sx76 raw_TIMIT_200ms/train/mwsh0_sx76.ark:11
mmws1_si1071 raw_TIMIT_200ms/train/mmws1_si1071.ark:13
fbas0_sx397 raw_TIMIT_200ms/train/fbas0_sx397.ark:12
mhmr0_sx219 raw_TIMIT_200ms/train/mhmr0_sx219.ark:12
mrlj0_sx250 raw_TIMIT_200ms/train/mrlj0_sx250.ark:12
msem1_si810 raw_TIMIT_200ms/train/msem1_si810.ark:12
mwrp0_sx273 raw_TIMIT_200ms/train/mwrp0_sx273.ark:12
mlel0_sx166 raw_TIMIT_200ms/train/mlel0_sx166.ark:12
mtmn0_sx74 raw_TIMIT_200ms/train/mtmn0_sx74.ark:11
mmpm0_sx431 raw_TIMIT_200ms/train/mmpm0_sx431.ark:12
fjrb0_sx222 raw_TIMIT_200ms/train/fjrb0_sx222.ark:12
mjxa0_si1507 raw_TIMIT_200ms/train/mjxa0_si1507.ark:13
marw0_sx286 raw_TIMIT_200ms/train/marw0_sx286.ark:12
fpls0_si1590 raw_TIMIT_200ms/train/fpls0_si1590.ark:13
mlel0_si616 raw_TIMIT_200ms/train/mlel0_si616.ark:12
mcdc0_si1292 raw_TIMIT_200ms/train/mcdc0_si1292.ark:13
fajw0_si1263 raw_TIMIT_200ms/train/fajw0_si1263.ark:13
msfv0_si632 raw_TIMIT_200ms/train/msfv0_si632.ark:12
mgsl0_si1164 raw_TIMIT_200ms/train/mgsl0_si1164.ark:13
mrdd0_sx277 raw_TIMIT_200ms/train/mrdd0_sx277.ark:12
mclm0_sx16 raw_TIMIT_200ms/train/mclm0_sx16.ark:11
mlbc0_sx429 raw_TIMIT_200ms/train/mlbc0_sx429.ark:12
mwch0_si2252 raw_TIMIT_200ms/train/mwch0_si2252.ark:13
fsls0_sx156 raw_TIMIT_200ms/train/fsls0_sx156.ark:12
mkah0_sx178 raw_TIMIT_200ms/train/mkah0_sx178.ark:12
freh0_sx55 raw_TIMIT_200ms/train/freh0_sx55.ark:11
fkkh0_sx30 raw_TIMIT_200ms/train/fkkh0_sx30.ark:11
fljg0_si1611 raw_TIMIT_200ms/train/fljg0_si1611.ark:13
mjwg0_sx85 raw_TIMIT_200ms/train/mjwg0_sx85.ark:11
fdmy0_sx387 raw_TIMIT_200ms/train/fdmy0_sx387.ark:12
mfxs0_sx324 raw_TIMIT_200ms/train/mfxs0_sx324.ark:12
mjpm0_sx198 raw_TIMIT_200ms/train/mjpm0_sx198.ark:12
mpsw0_si1067 raw_TIMIT_200ms/train/mpsw0_si1067.ark:13
fsjg0_si940 raw_TIMIT_200ms/train/fsjg0_si940.ark:12
mjwt0_sx31 raw_TIMIT_200ms/train/mjwt0_sx31.ark:11
falr0_sx425 raw_TIMIT_200ms/train/falr0_sx425.ark:12
msmc0_sx377 raw_TIMIT_200ms/train/msmc0_sx377.ark:12
mbsb0_si1983 raw_TIMIT_200ms/train/mbsb0_si1983.ark:13
fjxm0_sx131 raw_TIMIT_200ms/train/fjxm0_sx131.ark:12
mbbr0_sx425 raw_TIMIT_200ms/train/mbbr0_sx425.ark:12
mrwa0_si1603 raw_TIMIT_200ms/train/mrwa0_si1603.ark:13
mfxv0_sx105 raw_TIMIT_200ms/train/mfxv0_sx105.ark:12
fcjs0_sx257 raw_TIMIT_200ms/train/fcjs0_sx257.ark:12
fcaj0_sx39 raw_TIMIT_200ms/train/fcaj0_sx39.ark:11
mtwh1_si1512 raw_TIMIT_200ms/train/mtwh1_si1512.ark:13
mtkd0_sx17 raw_TIMIT_200ms/train/mtkd0_sx17.ark:11
msas0_sx206 raw_TIMIT_200ms/train/msas0_sx206.ark:12
mmeb0_sx7 raw_TIMIT_200ms/train/mmeb0_sx7.ark:10
fklh0_sx357 raw_TIMIT_200ms/train/fklh0_sx357.ark:12
msmc0_sx287 raw_TIMIT_200ms/train/msmc0_sx287.ark:12
mjrh0_sx405 raw_TIMIT_200ms/train/mjrh0_sx405.ark:12
meal0_sx197 raw_TIMIT_200ms/train/meal0_sx197.ark:12
fsjk1_si2285 raw_TIMIT_200ms/train/fsjk1_si2285.ark:13
fpaz0_si1593 raw_TIMIT_200ms/train/fpaz0_si1593.ark:13
fjkl0_sx32 raw_TIMIT_200ms/train/fjkl0_sx32.ark:11
mrso0_sx309 raw_TIMIT_200ms/train/mrso0_sx309.ark:12
fskl0_si2159 raw_TIMIT_200ms/train/fskl0_si2159.ark:13
mdlr0_sx333 raw_TIMIT_200ms/train/mdlr0_sx333.ark:12
mwem0_si1950 raw_TIMIT_200ms/train/mwem0_si1950.ark:13
ftaj0_si1329 raw_TIMIT_200ms/train/ftaj0_si1329.ark:13
mrdd0_si1680 raw_TIMIT_200ms/train/mrdd0_si1680.ark:13
mjxl0_sx452 raw_TIMIT_200ms/train/mjxl0_sx452.ark:12
fdas1_si1461 raw_TIMIT_200ms/train/fdas1_si1461.ark:13
mrsp0_sx259 raw_TIMIT_200ms/train/mrsp0_sx259.ark:12
fljd0_si886 raw_TIMIT_200ms/train/fljd0_si886.ark:12
mrlj0_sx160 raw_TIMIT_200ms/train/mrlj0_sx160.ark:12
ftbw0_sx175 raw_TIMIT_200ms/train/ftbw0_sx175.ark:12
fklc1_sx418 raw_TIMIT_200ms/train/fklc1_sx418.ark:12
mrav0_sx198 raw_TIMIT_200ms/train/mrav0_sx198.ark:12
mjdc0_si531 raw_TIMIT_200ms/train/mjdc0_si531.ark:12
mjai0_sx164 raw_TIMIT_200ms/train/mjai0_sx164.ark:12
mdlh0_sx340 raw_TIMIT_200ms/train/mdlh0_sx340.ark:12
mgrp0_sx147 raw_TIMIT_200ms/train/mgrp0_sx147.ark:12
mjdc0_sx261 raw_TIMIT_200ms/train/mjdc0_sx261.ark:12
mrfk0_si2336 raw_TIMIT_200ms/train/mrfk0_si2336.ark:13
mtlc0_si1477 raw_TIMIT_200ms/train/mtlc0_si1477.ark:13
mprb0_sx215 raw_TIMIT_200ms/train/mprb0_sx215.ark:12
mprk0_si1097 raw_TIMIT_200ms/train/mprk0_si1097.ark:13
msat0_si1526 raw_TIMIT_200ms/train/msat0_si1526.ark:13
mjee0_sx157 raw_TIMIT_200ms/train/mjee0_sx157.ark:12
mewm0_sx88 raw_TIMIT_200ms/train/mewm0_sx88.ark:11
mtqc0_sx361 raw_TIMIT_200ms/train/mtqc0_sx361.ark:12
mklw0_sx401 raw_TIMIT_200ms/train/mklw0_sx401.ark:12
mrfl0_si1786 raw_TIMIT_200ms/train/mrfl0_si1786.ark:13
msmr0_sx325 raw_TIMIT_200ms/train/msmr0_sx325.ark:12
mesg0_si1332 raw_TIMIT_200ms/train/mesg0_si1332.ark:13
mjpm1_sx41 raw_TIMIT_200ms/train/mjpm1_sx41.ark:11
fceg0_si618 raw_TIMIT_200ms/train/fceg0_si618.ark:12
mdlh0_si700 raw_TIMIT_200ms/train/mdlh0_si700.ark:12
mlel0_si1876 raw_TIMIT_200ms/train/mlel0_si1876.ark:13
mrlr0_sx386 raw_TIMIT_200ms/train/mrlr0_sx386.ark:12
mtjg0_sx260 raw_TIMIT_200ms/train/mtjg0_sx260.ark:12
mkln0_sx428 raw_TIMIT_200ms/train/mkln0_sx428.ark:12
fcaj0_si1804 raw_TIMIT_200ms/train/fcaj0_si1804.ark:13
mkam0_sx416 raw_TIMIT_200ms/train/mkam0_sx416.ark:12
mdlm0_sx334 raw_TIMIT_200ms/train/mdlm0_sx334.ark:12
mdrd0_si2012 raw_TIMIT_200ms/train/mdrd0_si2012.ark:13
frll0_sx164 raw_TIMIT_200ms/train/frll0_sx164.ark:12
mgag0_si645 raw_TIMIT_200ms/train/mgag0_si645.ark:12
fjlr0_si1231 raw_TIMIT_200ms/train/fjlr0_si1231.ark:13
mrai0_sx342 raw_TIMIT_200ms/train/mrai0_sx342.ark:12
fmjf0_sx84 raw_TIMIT_200ms/train/fmjf0_sx84.ark:11
mrpc1_sx312 raw_TIMIT_200ms/train/mrpc1_sx312.ark:12
mrab0_sx234 raw_TIMIT_200ms/train/mrab0_sx234.ark:12
mter0_sx167 raw_TIMIT_200ms/train/mter0_sx167.ark:12
fetb0_sx338 raw_TIMIT_200ms/train/fetb0_sx338.ark:12
fljg0_sx351 raw_TIMIT_200ms/train/fljg0_sx351.ark:12
mdas0_sx186 raw_TIMIT_200ms/train/mdas0_sx186.ark:12
mrem0_sx61 raw_TIMIT_200ms/train/mrem0_sx61.ark:11
mcae0_si1447 raw_TIMIT_200ms/train/mcae0_si1447.ark:13
mtat0_sx390 raw_TIMIT_200ms/train/mtat0_sx390.ark:12
mtpr0_sx430 raw_TIMIT_200ms/train/mtpr0_sx430.ark:12
mmam0_sx337 raw_TIMIT_200ms/train/mmam0_sx337.ark:12
mtdb0_sx411 raw_TIMIT_200ms/train/mtdb0_sx411.ark:12
mjrg0_si736 raw_TIMIT_200ms/train/mjrg0_si736.ark:12
mkrg0_si1491 raw_TIMIT_200ms/train/mkrg0_si1491.ark:13
mdlc2_si984 raw_TIMIT_200ms/train/mdlc2_si984.ark:12
fsrh0_sx131 raw_TIMIT_200ms/train/fsrh0_sx131.ark:12
fltm0_sx170 raw_TIMIT_200ms/train/fltm0_sx170.ark:12
mpgr1_si1499 raw_TIMIT_200ms/train/mpgr1_si1499.ark:13
fjrb0_sx312 raw_TIMIT_200ms/train/fjrb0_sx312.ark:12
mlsh0_sx157 raw_TIMIT_200ms/train/mlsh0_sx157.ark:12
mbma0_sx322 raw_TIMIT_200ms/train/mbma0_sx322.ark:12
fklh0_sx87 raw_TIMIT_200ms/train/fklh0_sx87.ark:11
mjxl0_sx362 raw_TIMIT_200ms/train/mjxl0_sx362.ark:12
mzmb0_si536 raw_TIMIT_200ms/train/mzmb0_si536.ark:12
mesg0_sx252 raw_TIMIT_200ms/train/mesg0_sx252.ark:12
mjkr0_si1831 raw_TIMIT_200ms/train/mjkr0_si1831.ark:13
fetb0_sx158 raw_TIMIT_200ms/train/fetb0_sx158.ark:12
mrhl0_sx435 raw_TIMIT_200ms/train/mrhl0_sx435.ark:12
fdfb0_si1948 raw_TIMIT_200ms/train/fdfb0_si1948.ark:13
fjwb1_si2055 raw_TIMIT_200ms/train/fjwb1_si2055.ark:13
fdnc0_sx108 raw_TIMIT_200ms/train/fdnc0_sx108.ark:12
ftbr0_si2181 raw_TIMIT_200ms/train/ftbr0_si2181.ark:13
mmsm0_sx116 raw_TIMIT_200ms/train/mmsm0_sx116.ark:12
fjhk0_sx122 raw_TIMIT_200ms/train/fjhk0_sx122.ark:12
mtpp0_sx248 raw_TIMIT_200ms/train/mtpp0_sx248.ark:12
mjlg1_sx202 raw_TIMIT_200ms/train/mjlg1_sx202.ark:12
mreh1_sx429 raw_TIMIT_200ms/train/mreh1_sx429.ark:12
mlel0_sx346 raw_TIMIT_200ms/train/mlel0_sx346.ark:12
mwrp0_sx183 raw_TIMIT_200ms/train/mwrp0_sx183.ark:12
mcxm0_sx181 raw_TIMIT_200ms/train/mcxm0_sx181.ark:12
flkm0_si686 raw_TIMIT_200ms/train/flkm0_si686.ark:12
fpaz0_si963 raw_TIMIT_200ms/train/fpaz0_si963.ark:12
mmab1_sx234 raw_TIMIT_200ms/train/mmab1_sx234.ark:12
fklc0_sx355 raw_TIMIT_200ms/train/fklc0_sx355.ark:12
mmdm1_si2043 raw_TIMIT_200ms/train/mmdm1_si2043.ark:13
fmkc0_sx352 raw_TIMIT_200ms/train/fmkc0_sx352.ark:12
mdwm0_si916 raw_TIMIT_200ms/train/mdwm0_si916.ark:12
mrgm0_si532 raw_TIMIT_200ms/train/mrgm0_si532.ark:12
madd0_sx358 raw_TIMIT_200ms/train/madd0_sx358.ark:12
fgrw0_si1782 raw_TIMIT_200ms/train/fgrw0_si1782.ark:13
mwsh0_sx436 raw_TIMIT_200ms/train/mwsh0_sx436.ark:12
msat0_sx446 raw_TIMIT_200ms/train/msat0_sx446.ark:12
mdpk0_sx423 raw_TIMIT_200ms/train/mdpk0_sx423.ark:12
mram0_si1951 raw_TIMIT_200ms/train/mram0_si1951.ark:13
flja0_si2338 raw_TIMIT_200ms/train/flja0_si2338.ark:13
medr0_si2004 raw_TIMIT_200ms/train/medr0_si2004.ark:13
fdaw0_sx146 raw_TIMIT_200ms/train/fdaw0_sx146.ark:12
mjhi0_si555 raw_TIMIT_200ms/train/mjhi0_si555.ark:12
mtlb0_sx234 raw_TIMIT_200ms/train/mtlb0_sx234.ark:12
mmvp0_sx294 raw_TIMIT_200ms/train/mmvp0_sx294.ark:12
fjlg0_si1506 raw_TIMIT_200ms/train/fjlg0_si1506.ark:13
mcal0_si1768 raw_TIMIT_200ms/train/mcal0_si1768.ark:13
mkdb0_si2132 raw_TIMIT_200ms/train/mkdb0_si2132.ark:13
mbml0_si1799 raw_TIMIT_200ms/train/mbml0_si1799.ark:13
msem1_si1440 raw_TIMIT_200ms/train/msem1_si1440.ark:13
fssb0_sx362 raw_TIMIT_200ms/train/fssb0_sx362.ark:12
mree0_si1959 raw_TIMIT_200ms/train/mree0_si1959.ark:13
mmrp0_si2034 raw_TIMIT_200ms/train/mmrp0_si2034.ark:13
fltm0_sx80 raw_TIMIT_200ms/train/fltm0_sx80.ark:11
mcpm0_si1194 raw_TIMIT_200ms/train/mcpm0_si1194.ark:13
mesj0_si997 raw_TIMIT_200ms/train/mesj0_si997.ark:12
mfer0_sx52 raw_TIMIT_200ms/train/mfer0_sx52.ark:11
mpsw0_sx257 raw_TIMIT_200ms/train/mpsw0_sx257.ark:12
mejs0_si1240 raw_TIMIT_200ms/train/mejs0_si1240.ark:13
mtmn0_si2324 raw_TIMIT_200ms/train/mtmn0_si2324.ark:13
marw0_si1276 raw_TIMIT_200ms/train/marw0_si1276.ark:13
mdhs0_sx450 raw_TIMIT_200ms/train/mdhs0_sx450.ark:12
mrkm0_sx7 raw_TIMIT_200ms/train/mrkm0_sx7.ark:10
fdaw0_sx56 raw_TIMIT_200ms/train/fdaw0_sx56.ark:11
fjdm2_sx412 raw_TIMIT_200ms/train/fjdm2_sx412.ark:12
flhd0_sx354 raw_TIMIT_200ms/train/flhd0_sx354.ark:12
mpar0_si1576 raw_TIMIT_200ms/train/mpar0_si1576.ark:13
fbjl0_si2182 raw_TIMIT_200ms/train/fbjl0_si2182.ark:13
msdb0_sx197 raw_TIMIT_200ms/train/msdb0_sx197.ark:12
fdas1_sx291 raw_TIMIT_200ms/train/fdas1_sx291.ark:12
mcae0_sx97 raw_TIMIT_200ms/train/mcae0_sx97.ark:11
mmxs0_sx336 raw_TIMIT_200ms/train/mmxs0_sx336.ark:12
mpeb0_sx150 raw_TIMIT_200ms/train/mpeb0_sx150.ark:12
mgak0_sx226 raw_TIMIT_200ms/train/mgak0_sx226.ark:12
mdac0_si631 raw_TIMIT_200ms/train/mdac0_si631.ark:12
mkls0_sx87 raw_TIMIT_200ms/train/mkls0_sx87.ark:11
mpfu0_sx448 raw_TIMIT_200ms/train/mpfu0_sx448.ark:12
msfh0_sx46 raw_TIMIT_200ms/train/msfh0_sx46.ark:11
mmea0_si758 raw_TIMIT_200ms/train/mmea0_si758.ark:12
mrld0_si964 raw_TIMIT_200ms/train/mrld0_si964.ark:12
msdb0_si2267 raw_TIMIT_200ms/train/msdb0_si2267.ark:13
mabc0_si2041 raw_TIMIT_200ms/train/mabc0_si2041.ark:13
mjrp0_sx225 raw_TIMIT_200ms/train/mjrp0_sx225.ark:12
mtkp0_sx393 raw_TIMIT_200ms/train/mtkp0_sx393.ark:12
fcrz0_sx253 raw_TIMIT_200ms/train/fcrz0_sx253.ark:12
mgrp0_sx417 raw_TIMIT_200ms/train/mgrp0_sx417.ark:12
fklc1_si2308 raw_TIMIT_200ms/train/fklc1_si2308.ark:13
mdlb0_si676 raw_TIMIT_200ms/train/mdlb0_si676.ark:12
mjrh0_sx45 raw_TIMIT_200ms/train/mjrh0_sx45.ark:11
mdtb0_sx210 raw_TIMIT_200ms/train/mdtb0_sx210.ark:12
mrtj0_sx412 raw_TIMIT_200ms/train/mrtj0_sx412.ark:12
mgsl0_sx174 raw_TIMIT_200ms/train/mgsl0_sx174.ark:12
mjdg0_si1042 raw_TIMIT_200ms/train/mjdg0_si1042.ark:13
mreh1_sx249 raw_TIMIT_200ms/train/mreh1_sx249.ark:12
mjfh0_sx297 raw_TIMIT_200ms/train/mjfh0_sx297.ark:12
fbmh0_si1766 raw_TIMIT_200ms/train/fbmh0_si1766.ark:13
mmar0_sx256 raw_TIMIT_200ms/train/mmar0_sx256.ark:12
mtpg0_sx33 raw_TIMIT_200ms/train/mtpg0_sx33.ark:11
mntw0_si1068 raw_TIMIT_200ms/train/mntw0_si1068.ark:13
fmmh0_sx367 raw_TIMIT_200ms/train/fmmh0_sx367.ark:12
fbcg1_si982 raw_TIMIT_200ms/train/fbcg1_si982.ark:12
fdml0_sx69 raw_TIMIT_200ms/train/fdml0_sx69.ark:11
mtmt0_sx218 raw_TIMIT_200ms/train/mtmt0_sx218.ark:12
fjrp1_sx82 raw_TIMIT_200ms/train/fjrp1_sx82.ark:11
mtkd0_sx377 raw_TIMIT_200ms/train/mtkd0_sx377.ark:12
mjeb0_sx170 raw_TIMIT_200ms/train/mjeb0_sx170.ark:12
mmjb1_si1408 raw_TIMIT_200ms/train/mmjb1_si1408.ark:13
mfwk0_sx79 raw_TIMIT_200ms/train/mfwk0_sx79.ark:11
fajw0_sx93 raw_TIMIT_200ms/train/fajw0_sx93.ark:11
fcmm0_sx273 raw_TIMIT_200ms/train/fcmm0_sx273.ark:12
fsdj0_sx35 raw_TIMIT_200ms/train/fsdj0_sx35.ark:11
mdlc1_sx445 raw_TIMIT_200ms/train/mdlc1_sx445.ark:12
milb0_sx3 raw_TIMIT_200ms/train/milb0_sx3.ark:10
mjrp0_si1835 raw_TIMIT_200ms/train/mjrp0_si1835.ark:13
mmgg0_sx179 raw_TIMIT_200ms/train/mmgg0_sx179.ark:12
mgsl0_sx444 raw_TIMIT_200ms/train/mgsl0_sx444.ark:12
