fgrw0_si1990 quick_test/fbank/raw_fbank_train.1.ark:4535065
mrjb1_si1020 quick_test/fbank/raw_fbank_train.4.ark:2572610
fgcs0_si856 quick_test/fbank/raw_fbank_train.1.ark:4198309
mnet0_si1446 quick_test/fbank/raw_fbank_train.3.ark:10540661
mrwa0_sx253 quick_test/fbank/raw_fbank_train.4.ark:4988282
mgsh0_sx96 quick_test/fbank/raw_fbank_train.3.ark:685074
mcpm0_sx294 quick_test/fbank/raw_fbank_train.2.ark:5495359
mdss0_si621 quick_test/fbank/raw_fbank_train.2.ark:9014327
mjfh0_si1107 quick_test/fbank/raw_fbank_train.3.ark:2884253
mtrr0_si918 quick_test/fbank/raw_fbank_train.4.ark:9831698
fjxp0_si492 quick_test/fbank/raw_fbank_train.1.ark:6111006
mbcg0_sx147 quick_test/fbank/raw_fbank_train.2.ark:3400538
mmlm0_si1527 quick_test/fbank/raw_fbank_train.3.ark:9629077
mmlm0_sx357 quick_test/fbank/raw_fbank_train.3.ark:9681723
mjde0_sx310 quick_test/fbank/raw_fbank_train.3.ark:2332388
msem1_si1440 quick_test/fbank/raw_fbank_train.4.ark:5882843
fclt0_si2068 quick_test/fbank/raw_fbank_train.1.ark:1915359
fjxm0_si1211 quick_test/fbank/raw_fbank_train.1.ark:5969794
feeh0_sx212 quick_test/fbank/raw_fbank_train.1.ark:3803434
mprt0_sx400 quick_test/fbank/raw_fbank_train.4.ark:475729
mges0_si851 quick_test/fbank/raw_fbank_train.3.ark:205091
fjsk0_sx242 quick_test/fbank/raw_fbank_train.1.ark:5727333
fvkb0_sx169 quick_test/fbank/raw_fbank_train.2.ark:1857215
mdlc0_si1395 quick_test/fbank/raw_fbank_train.2.ark:7502404
mdrd0_sx302 quick_test/fbank/raw_fbank_train.2.ark:8858136
mmag0_sx136 quick_test/fbank/raw_fbank_train.3.ark:8120176
mbgt0_si1841 quick_test/fbank/raw_fbank_train.2.ark:3546402
mjeb1_si837 quick_test/fbank/raw_fbank_train.3.ark:2712550
mbar0_sx239 quick_test/fbank/raw_fbank_train.2.ark:3226521
fdtd0_sx301 quick_test/fbank/raw_fbank_train.1.ark:3298901
mtkd0_sx17 quick_test/fbank/raw_fbank_train.4.ark:8550798
mrhl0_sx165 quick_test/fbank/raw_fbank_train.4.ark:2515885
mesj0_si2257 quick_test/fbank/raw_fbank_train.2.ark:10242617
mtlc0_sx37 quick_test/fbank/raw_fbank_train.4.ark:8873219
mrdm0_sx335 quick_test/fbank/raw_fbank_train.4.ark:1521262
mvrw0_si1485 quick_test/fbank/raw_fbank_train.4.ark:10400422
mbbr0_si1685 quick_test/fbank/raw_fbank_train.2.ark:3291167
mjwg0_sx85 quick_test/fbank/raw_fbank_train.3.ark:5235941
madc0_si1997 quick_test/fbank/raw_fbank_train.2.ark:2121984
fpls0_si1590 quick_test/fbank/raw_fbank_train.1.ark:10394991
mjdc0_sx261 quick_test/fbank/raw_fbank_train.3.ark:2208331
mjrk0_si1662 quick_test/fbank/raw_fbank_train.3.ark:4826276
mkag0_si1609 quick_test/fbank/raw_fbank_train.3.ark:5659915
mcew0_si812 quick_test/fbank/raw_fbank_train.2.ark:5036687
fjwb1_sx75 quick_test/fbank/raw_fbank_train.1.ark:5960840
fdaw0_sx146 quick_test/fbank/raw_fbank_train.1.ark:2551617
mbwp0_sx349 quick_test/fbank/raw_fbank_train.2.ark:4350373
fbas0_si1472 quick_test/fbank/raw_fbank_train.1.ark:541808
fcmm0_si1957 quick_test/fbank/raw_fbank_train.1.ark:2117530
fdas1_si2091 quick_test/fbank/raw_fbank_train.1.ark:2418765
mmeb0_sx187 quick_test/fbank/raw_fbank_train.3.ark:9201092
mcef0_sx415 quick_test/fbank/raw_fbank_train.2.ark:4983914
mkaj0_sx154 quick_test/fbank/raw_fbank_train.3.ark:5901744
fgmb0_sx425 quick_test/fbank/raw_fbank_train.1.ark:4477811
mwch0_si1622 quick_test/fbank/raw_fbank_train.4.ark:10772924
mrvg0_si1140 quick_test/fbank/raw_fbank_train.4.ark:4854044
mtjg0_si890 quick_test/fbank/raw_fbank_train.4.ark:8098793
mter0_sx17 quick_test/fbank/raw_fbank_train.4.ark:8038474
mmxs0_si876 quick_test/fbank/raw_fbank_train.3.ark:10470783
mwsb0_sx6 quick_test/fbank/raw_fbank_train.4.ark:11422033
mclm0_sx196 quick_test/fbank/raw_fbank_train.2.ark:5390581
mhmr0_si1119 quick_test/fbank/raw_fbank_train.3.ark:1275495
fcjf0_sx307 quick_test/fbank/raw_fbank_train.1.ark:1696696
fsjg0_sx130 quick_test/fbank/raw_fbank_train.1.ark:11754335
fjrp1_sx352 quick_test/fbank/raw_fbank_train.1.ark:5626660
mdlc0_si2025 quick_test/fbank/raw_fbank_train.2.ark:7523638
mdss0_sx261 quick_test/fbank/raw_fbank_train.2.ark:9038073
milb0_sx93 quick_test/fbank/raw_fbank_train.3.ark:1656117
mjls0_si466 quick_test/fbank/raw_fbank_train.3.ark:3806186
fskp0_si1098 quick_test/fbank/raw_fbank_train.2.ark:446364
mtmt0_si1748 quick_test/fbank/raw_fbank_train.4.ark:9119451
mkls1_sx285 quick_test/fbank/raw_fbank_train.3.ark:6917253
mgsl0_sx264 quick_test/fbank/raw_fbank_train.3.ark:755880
mrdm0_si1595 quick_test/fbank/raw_fbank_train.4.ark:1475650
mrew1_sx60 quick_test/fbank/raw_fbank_train.4.ark:2037012
fbjl0_sx22 quick_test/fbank/raw_fbank_train.1.ark:901294
mfwk0_sx349 quick_test/fbank/raw_fbank_train.2.ark:10733113
mdlh0_si700 quick_test/fbank/raw_fbank_train.2.ark:7814866
mmdm1_si783 quick_test/fbank/raw_fbank_train.3.ark:8917784
fkdw0_sx217 quick_test/fbank/raw_fbank_train.1.ark:6453348
mesg0_si702 quick_test/fbank/raw_fbank_train.2.ark:10145225
mmgg0_sx449 quick_test/fbank/raw_fbank_train.3.ark:9421361
mjwt0_sx121 quick_test/fbank/raw_fbank_train.3.ark:5403660
mjra0_sx66 quick_test/fbank/raw_fbank_train.3.ark:4519406
mmgk0_sx332 quick_test/fbank/raw_fbank_train.3.ark:9493513
mcef0_si842 quick_test/fbank/raw_fbank_train.2.ark:4935662
mrav0_si1008 quick_test/fbank/raw_fbank_train.4.ark:970329
mtrr0_sx378 quick_test/fbank/raw_fbank_train.4.ark:9895502
mkag0_sx169 quick_test/fbank/raw_fbank_train.3.ark:5705335
fsmm0_si684 quick_test/fbank/raw_fbank_train.2.ark:766867
mtat1_sx59 quick_test/fbank/raw_fbank_train.4.ark:7556167
mrds0_si1167 quick_test/fbank/raw_fbank_train.4.ark:1555881
mejs0_sx160 quick_test/fbank/raw_fbank_train.2.ark:10067273
fsdc0_sx232 quick_test/fbank/raw_fbank_train.1.ark:11474293
mrms0_sx390 quick_test/fbank/raw_fbank_train.4.ark:4183019
mmrp0_si774 quick_test/fbank/raw_fbank_train.3.ark:9829554
fpad0_si1976 quick_test/fbank/raw_fbank_train.1.ark:9998244
fcmg0_sx72 quick_test/fbank/raw_fbank_train.1.ark:2097942
mcre0_si1751 quick_test/fbank/raw_fbank_train.2.ark:5533934
mdks0_sx256 quick_test/fbank/raw_fbank_train.2.ark:7330367
mrlj1_si2332 quick_test/fbank/raw_fbank_train.4.ark:3442757
mgrl0_sx147 quick_test/fbank/raw_fbank_train.3.ark:424615
mdwh0_si1168 quick_test/fbank/raw_fbank_train.2.ark:9342801
mkrg0_sx31 quick_test/fbank/raw_fbank_train.3.ark:7110031
fcyl0_sx37 quick_test/fbank/raw_fbank_train.1.ark:2375024
mses0_sx239 quick_test/fbank/raw_fbank_train.4.ark:6058322
mdlc1_sx445 quick_test/fbank/raw_fbank_train.2.ark:7687909
mrgm0_sx442 quick_test/fbank/raw_fbank_train.4.ark:2338056
mctm0_si1980 quick_test/fbank/raw_fbank_train.2.ark:5826294
fsls0_sx202 quick_test/fbank/raw_fbank_train.2.ark:595883
mgak0_sx226 quick_test/fbank/raw_fbank_train.2.ark:11202487
flod0_sx207 quick_test/fbank/raw_fbank_train.1.ark:8392020
maeo0_sx336 quick_test/fbank/raw_fbank_train.2.ark:2460032
fscn0_sx266 quick_test/fbank/raw_fbank_train.1.ark:11374867
mtpr0_sx70 quick_test/fbank/raw_fbank_train.4.ark:9585748
mesj0_si2039 quick_test/fbank/raw_fbank_train.2.ark:10223743
mtdb0_si1401 quick_test/fbank/raw_fbank_train.4.ark:7761531
mkjo0_si2147 quick_test/fbank/raw_fbank_train.3.ark:6478587
mjra0_si606 quick_test/fbank/raw_fbank_train.3.ark:4456042
fjlg0_si2306 quick_test/fbank/raw_fbank_train.1.ark:5279526
fbch0_sx236 quick_test/fbank/raw_fbank_train.1.ark:789957
mcre0_sx131 quick_test/fbank/raw_fbank_train.2.ark:5549687
mbml0_sx449 quick_test/fbank/raw_fbank_train.2.ark:4003587
milb0_sx363 quick_test/fbank/raw_fbank_train.3.ark:1645365
flma0_si613 quick_test/fbank/raw_fbank_train.1.ark:8067645
mdss0_sx81 quick_test/fbank/raw_fbank_train.2.ark:9068131
mjae0_sx354 quick_test/fbank/raw_fbank_train.3.ark:1824223
fssb0_sx92 quick_test/fbank/raw_fbank_train.2.ark:1249132
fsmm0_si1944 quick_test/fbank/raw_fbank_train.2.ark:756034
fhlm0_sx390 quick_test/fbank/raw_fbank_train.1.ark:4704135
fgmb0_si1775 quick_test/fbank/raw_fbank_train.1.ark:4403806
mmbs0_si1151 quick_test/fbank/raw_fbank_train.3.ark:8398512
fmem0_sx297 quick_test/fbank/raw_fbank_train.1.ark:8781641
mrgs0_sx6 quick_test/fbank/raw_fbank_train.4.ark:2452199
fblv0_sx338 quick_test/fbank/raw_fbank_train.1.ark:1009361
mhjb0_sx117 quick_test/fbank/raw_fbank_train.3.ark:1143145
fsdj0_sx305 quick_test/fbank/raw_fbank_train.1.ark:11576271
mjee0_sx427 quick_test/fbank/raw_fbank_train.3.ark:2857587
flmk0_si1035 quick_test/fbank/raw_fbank_train.1.ark:8231708
mjae0_sx264 quick_test/fbank/raw_fbank_train.3.ark:1812470
maeo0_si1326 quick_test/fbank/raw_fbank_train.2.ark:2402185
mdpb0_sx56 quick_test/fbank/raw_fbank_train.2.ark:8593446
maeb0_si2250 quick_test/fbank/raw_fbank_train.2.ark:2323874
medr0_si1374 quick_test/fbank/raw_fbank_train.2.ark:9638077
fsdc0_si1942 quick_test/fbank/raw_fbank_train.1.ark:11444833
mkah0_si2158 quick_test/fbank/raw_fbank_train.3.ark:5777533
fdtd0_si2191 quick_test/fbank/raw_fbank_train.1.ark:3248609
mjlg1_sx112 quick_test/fbank/raw_fbank_train.3.ark:3717274
fsag0_si1323 quick_test/fbank/raw_fbank_train.1.ark:10878274
maeo0_si1956 quick_test/fbank/raw_fbank_train.2.ark:2430413
mppc0_sx422 quick_test/fbank/raw_fbank_train.4.ark:24198
mdem0_si800 quick_test/fbank/raw_fbank_train.2.ark:6907000
mcae0_si817 quick_test/fbank/raw_fbank_train.2.ark:4440259
mrdm0_sx425 quick_test/fbank/raw_fbank_train.4.ark:1539615
msmr0_sx235 quick_test/fbank/raw_fbank_train.4.ark:6594366
mjmd0_si1028 quick_test/fbank/raw_fbank_train.3.ark:3965689
mmds0_sx443 quick_test/fbank/raw_fbank_train.3.ark:9062901
mjlb0_si2246 quick_test/fbank/raw_fbank_train.3.ark:3604382
fskc0_sx66 quick_test/fbank/raw_fbank_train.2.ark:336705
mtat0_sx390 quick_test/fbank/raw_fbank_train.4.ark:7440542
mdwm0_si916 quick_test/fbank/raw_fbank_train.2.ark:9482813
fmpg0_si1602 quick_test/fbank/raw_fbank_train.1.ark:9445206
fajw0_si633 quick_test/fbank/raw_fbank_train.1.ark:131585
mtpg0_sx393 quick_test/fbank/raw_fbank_train.4.ark:9378658
fmah1_si1509 quick_test/fbank/raw_fbank_train.1.ark:8523346
mhmg0_si1365 quick_test/fbank/raw_fbank_train.3.ark:1184870
mmwb0_si989 quick_test/fbank/raw_fbank_train.3.ark:10178150
msms0_si1433 quick_test/fbank/raw_fbank_train.4.ark:6637578
mtrc0_sx183 quick_test/fbank/raw_fbank_train.4.ark:9775379
mdwm0_sx286 quick_test/fbank/raw_fbank_train.2.ark:9519991
mrfk0_sx356 quick_test/fbank/raw_fbank_train.4.ark:2107133
mcdr0_sx74 quick_test/fbank/raw_fbank_train.2.ark:4902161
mrlr0_sx116 quick_test/fbank/raw_fbank_train.4.ark:3642320
mlel0_si1876 quick_test/fbank/raw_fbank_train.3.ark:7342135
mgjc0_sx435 quick_test/fbank/raw_fbank_train.3.ark:357209
mjdg0_sx232 quick_test/fbank/raw_fbank_train.3.ark:2427461
fvfb0_si1510 quick_test/fbank/raw_fbank_train.2.ark:1748723
fsbk0_sx169 quick_test/fbank/raw_fbank_train.1.ark:11231170
mclm0_si1456 quick_test/fbank/raw_fbank_train.2.ark:5334976
mjkr0_si571 quick_test/fbank/raw_fbank_train.3.ark:3513870
fvfb0_si1032 quick_test/fbank/raw_fbank_train.2.ark:1737169
mcdd0_si2143 quick_test/fbank/raw_fbank_train.2.ark:4722179
majp0_sx444 quick_test/fbank/raw_fbank_train.2.ark:2664556
mtqc0_sx181 quick_test/fbank/raw_fbank_train.4.ark:9643202
mrem0_si961 quick_test/fbank/raw_fbank_train.4.ark:1888743
mmdb0_sx447 quick_test/fbank/raw_fbank_train.3.ark:8678281
mjjj0_sx263 quick_test/fbank/raw_fbank_train.3.ark:3334526
mesg0_sx72 quick_test/fbank/raw_fbank_train.2.ark:10216749
mbjv0_sx77 quick_test/fbank/raw_fbank_train.2.ark:3726544
mgag0_sx61 quick_test/fbank/raw_fbank_train.2.ark:11131719
mcth0_sx219 quick_test/fbank/raw_fbank_train.2.ark:5761408
mtdb0_sx321 quick_test/fbank/raw_fbank_train.4.ark:7824337
mtcs0_sx352 quick_test/fbank/raw_fbank_train.4.ark:7719832
fpmy0_si523 quick_test/fbank/raw_fbank_train.1.ark:10517281
mbml0_sx179 quick_test/fbank/raw_fbank_train.2.ark:3968008
mklr0_sx69 quick_test/fbank/raw_fbank_train.3.ark:6726115
fnkl0_sx442 quick_test/fbank/raw_fbank_train.1.ark:9643430
makr0_si722 quick_test/fbank/raw_fbank_train.2.ark:2831235
mmgg0_sx269 quick_test/fbank/raw_fbank_train.3.ark:9398775
mcxm0_sx181 quick_test/fbank/raw_fbank_train.2.ark:5942865
msfh0_sx316 quick_test/fbank/raw_fbank_train.4.ark:6180380
mtpf0_si605 quick_test/fbank/raw_fbank_train.4.ark:9229469
mkln0_sx158 quick_test/fbank/raw_fbank_train.3.ark:6593878
mpgr1_sx59 quick_test/fbank/raw_fbank_train.3.ark:11278946
mmdm1_sx153 quick_test/fbank/raw_fbank_train.3.ark:8928537
mmgg0_sx359 quick_test/fbank/raw_fbank_train.3.ark:9407528
mrwa0_si1603 quick_test/fbank/raw_fbank_train.4.ark:4941029
fbas0_si1387 quick_test/fbank/raw_fbank_train.1.ark:527214
fvkb0_sx259 quick_test/fbank/raw_fbank_train.2.ark:1868888
mgag0_si1321 quick_test/fbank/raw_fbank_train.2.ark:11052729
mfrm0_sx255 quick_test/fbank/raw_fbank_train.2.ark:10633935
mwsh0_si2266 quick_test/fbank/raw_fbank_train.4.ark:11460253
mcdr0_si1784 quick_test/fbank/raw_fbank_train.2.ark:4817964
frll0_sx344 quick_test/fbank/raw_fbank_train.1.ark:10847975
msrg0_sx321 quick_test/fbank/raw_fbank_train.4.ark:6793089
mkjo0_sx77 quick_test/fbank/raw_fbank_train.3.ark:6545344
mjrh0_sx405 quick_test/fbank/raw_fbank_train.3.ark:4705625
fskp0_si468 quick_test/fbank/raw_fbank_train.2.ark:474431
mrhl0_sx345 quick_test/fbank/raw_fbank_train.4.ark:2538671
mnet0_sx96 quick_test/fbank/raw_fbank_train.3.ark:10616170
mwrp0_sx363 quick_test/fbank/raw_fbank_train.4.ark:11330370
fapb0_sx433 quick_test/fbank/raw_fbank_train.1.ark:495268
fsma0_si991 quick_test/fbank/raw_fbank_train.2.ark:659122
mdsj0_si1462 quick_test/fbank/raw_fbank_train.2.ark:8896395
mrmh0_sx391 quick_test/fbank/raw_fbank_train.4.ark:3969288
mstf0_sx46 quick_test/fbank/raw_fbank_train.4.ark:7024442
msmc0_si509 quick_test/fbank/raw_fbank_train.4.ark:6449402
fkfb0_sx438 quick_test/fbank/raw_fbank_train.1.ark:6572919
mbma0_si1852 quick_test/fbank/raw_fbank_train.2.ark:3755892
mrgm0_si1162 quick_test/fbank/raw_fbank_train.4.ark:2249817
msas0_sx116 quick_test/fbank/raw_fbank_train.4.ark:5359590
fmpg0_si972 quick_test/fbank/raw_fbank_train.1.ark:9472113
mmgg0_si1709 quick_test/fbank/raw_fbank_train.3.ark:9368315
ftaj0_sx429 quick_test/fbank/raw_fbank_train.2.ark:1321244
mtkp0_sx393 quick_test/fbank/raw_fbank_train.4.ark:8694162
mrxb0_sx145 quick_test/fbank/raw_fbank_train.4.ark:5167579
megj0_si707 quick_test/fbank/raw_fbank_train.2.ark:9859992
mdrd0_sx212 quick_test/fbank/raw_fbank_train.2.ark:8843183
fskl0_sx179 quick_test/fbank/raw_fbank_train.2.ark:386359
fexm0_sx201 quick_test/fbank/raw_fbank_train.1.ark:4116669
mhbs0_sx405 quick_test/fbank/raw_fbank_train.3.ark:986353
mjfh0_sx117 quick_test/fbank/raw_fbank_train.3.ark:2920953
mfxs0_si2225 quick_test/fbank/raw_fbank_train.2.ark:10785646
fsjw0_sx253 quick_test/fbank/raw_fbank_train.2.ark:205502
fmjb0_sx187 quick_test/fbank/raw_fbank_train.1.ark:8877121
mmag0_sx316 quick_test/fbank/raw_fbank_train.3.ark:8149962
fdfb0_si1948 quick_test/fbank/raw_fbank_train.1.ark:2623816
mcre0_si1121 quick_test/fbank/raw_fbank_train.2.ark:5512306
mmaa0_si845 quick_test/fbank/raw_fbank_train.3.ark:7894053
mcss0_si688 quick_test/fbank/raw_fbank_train.2.ark:5627004
mwsh0_sx256 quick_test/fbank/raw_fbank_train.4.ark:11505192
mdlb0_sx316 quick_test/fbank/raw_fbank_train.2.ark:7461025
mtdb0_sx231 quick_test/fbank/raw_fbank_train.4.ark:7819104
mdas0_si1266 quick_test/fbank/raw_fbank_train.2.ark:6106815
mtkd0_sx287 quick_test/fbank/raw_fbank_train.4.ark:8571024
mrfk0_si1076 quick_test/fbank/raw_fbank_train.4.ark:2050766
mtpr0_sx430 quick_test/fbank/raw_fbank_train.4.ark:9567476
ftmg0_si902 quick_test/fbank/raw_fbank_train.2.ark:1658211
mkam0_si1316 quick_test/fbank/raw_fbank_train.3.ark:5968183
mdwh0_si665 quick_test/fbank/raw_fbank_train.2.ark:9372468
flet0_sx147 quick_test/fbank/raw_fbank_train.1.ark:7466647
fkfb0_sx168 quick_test/fbank/raw_fbank_train.1.ark:6534140
mdhl0_si809 quick_test/fbank/raw_fbank_train.2.ark:7023625
mrjm1_sx128 quick_test/fbank/raw_fbank_train.4.ark:2949586
mkxl0_sx285 quick_test/fbank/raw_fbank_train.3.ark:7211129
mbef0_sx381 quick_test/fbank/raw_fbank_train.2.ark:3531414
fexm0_si482 quick_test/fbank/raw_fbank_train.1.ark:4086763
faem0_si2022 quick_test/fbank/raw_fbank_train.1.ark:19327
mjda0_si2291 quick_test/fbank/raw_fbank_train.3.ark:2082960
fleh0_si1681 quick_test/fbank/raw_fbank_train.1.ark:7339235
fpac0_sx301 quick_test/fbank/raw_fbank_train.1.ark:9950431
fsah0_sx327 quick_test/fbank/raw_fbank_train.1.ark:11052192
fjkl0_sx212 quick_test/fbank/raw_fbank_train.1.ark:5205766
fjdm2_sx52 quick_test/fbank/raw_fbank_train.1.ark:4933187
mhrm0_si958 quick_test/fbank/raw_fbank_train.3.ark:1396947
fexm0_sx381 quick_test/fbank/raw_fbank_train.1.ark:4164928
mgrl0_si1497 quick_test/fbank/raw_fbank_train.3.ark:387795
mtrc0_sx273 quick_test/fbank/raw_fbank_train.4.ark:9785012
mwch0_si1895 quick_test/fbank/raw_fbank_train.4.ark:10785318
mwad0_sx432 quick_test/fbank/raw_fbank_train.4.ark:10657752
mprd0_sx351 quick_test/fbank/raw_fbank_train.4.ark:239695
mtqc0_si480 quick_test/fbank/raw_fbank_train.4.ark:9633249
mkam0_sx326 quick_test/fbank/raw_fbank_train.3.ark:6021156
flmc0_sx22 quick_test/fbank/raw_fbank_train.1.ark:8179935
mrbc0_si1859 quick_test/fbank/raw_fbank_train.4.ark:1068949
mmaa0_sx305 quick_test/fbank/raw_fbank_train.3.ark:7937112
mjmm0_sx85 quick_test/fbank/raw_fbank_train.3.ark:4134226
mwsh0_sx346 quick_test/fbank/raw_fbank_train.4.ark:11518025
mkam0_sx416 quick_test/fbank/raw_fbank_train.3.ark:6033909
mcae0_sx187 quick_test/fbank/raw_fbank_train.2.ark:4457132
mkag0_sx79 quick_test/fbank/raw_fbank_train.3.ark:5753265
mded0_sx360 quick_test/fbank/raw_fbank_train.2.ark:6749529
fdmy0_si1197 quick_test/fbank/raw_fbank_train.1.ark:2985005
fjen0_sx57 quick_test/fbank/raw_fbank_train.1.ark:5047653
mclk0_sx400 quick_test/fbank/raw_fbank_train.2.ark:5324102
fmjb0_si547 quick_test/fbank/raw_fbank_train.1.ark:8862808
mrxb0_si1585 quick_test/fbank/raw_fbank_train.4.ark:5122799
fcaj0_sx399 quick_test/fbank/raw_fbank_train.1.ark:1422766
mkls0_si1437 quick_test/fbank/raw_fbank_train.3.ark:6736749
mgaw0_si1165 quick_test/fbank/raw_fbank_train.3.ark:99239
mkdb0_sx422 quick_test/fbank/raw_fbank_train.3.ark:6129293
mwch0_sx362 quick_test/fbank/raw_fbank_train.4.ark:10820091
mdma0_sx440 quick_test/fbank/raw_fbank_train.2.ark:8282259
fpls0_si2220 quick_test/fbank/raw_fbank_train.1.ark:10404865
feac0_si1875 quick_test/fbank/raw_fbank_train.1.ark:3439740
fntb0_si1203 quick_test/fbank/raw_fbank_train.1.ark:9669336
mhit0_sx353 quick_test/fbank/raw_fbank_train.3.ark:1070425
mdhs0_sx450 quick_test/fbank/raw_fbank_train.2.ark:7166542
fscn0_sx176 quick_test/fbank/raw_fbank_train.1.ark:11355154
mljh0_sx334 quick_test/fbank/raw_fbank_train.3.ark:7630597
mgxp0_si457 quick_test/fbank/raw_fbank_train.3.ark:827245
mwsh0_sx166 quick_test/fbank/raw_fbank_train.4.ark:11488239
flag0_si2094 quick_test/fbank/raw_fbank_train.1.ark:7228770
mmxs0_sx426 quick_test/fbank/raw_fbank_train.3.ark:10517075
flag0_sx114 quick_test/fbank/raw_fbank_train.1.ark:7256596
mesj0_sx187 quick_test/fbank/raw_fbank_train.2.ark:10266763
mrmg0_sx180 quick_test/fbank/raw_fbank_train.4.ark:3825691
fpab1_sx391 quick_test/fbank/raw_fbank_train.1.ark:9867511
fcmg0_sx342 quick_test/fbank/raw_fbank_train.1.ark:2066397
mpgh0_sx384 quick_test/fbank/raw_fbank_train.3.ark:11090095
mkes0_sx353 quick_test/fbank/raw_fbank_train.3.ark:6428774
fetb0_sx158 quick_test/fbank/raw_fbank_train.1.ark:4001451
fbjl0_sx382 quick_test/fbank/raw_fbank_train.1.ark:928160
makb0_si1646 quick_test/fbank/raw_fbank_train.2.ark:2717336
mtmn0_sx434 quick_test/fbank/raw_fbank_train.4.ark:9085511
mjac0_si1331 quick_test/fbank/raw_fbank_train.3.ark:1664231
mdlm0_si1864 quick_test/fbank/raw_fbank_train.2.ark:7909338
mhjb0_si1017 quick_test/fbank/raw_fbank_train.3.ark:1105444
fpmy0_sx253 quick_test/fbank/raw_fbank_train.1.ark:10563420
mdss0_si2087 quick_test/fbank/raw_fbank_train.2.ark:9005614
fspm0_si611 quick_test/fbank/raw_fbank_train.2.ark:982877
fmjf0_sx354 quick_test/fbank/raw_fbank_train.1.ark:8994410
mjde0_si490 quick_test/fbank/raw_fbank_train.3.ark:2279569
mdwd0_sx90 quick_test/fbank/raw_fbank_train.2.ark:9334087
feme0_si1505 quick_test/fbank/raw_fbank_train.1.ark:3853486
mljc0_si1225 quick_test/fbank/raw_fbank_train.3.ark:7441846
mjra0_sx246 quick_test/fbank/raw_fbank_train.3.ark:4479268
fhlm0_sx300 quick_test/fbank/raw_fbank_train.1.ark:4674189
mmar0_sx76 quick_test/fbank/raw_fbank_train.3.ark:8383838
mdcd0_sx425 quick_test/fbank/raw_fbank_train.2.ark:6475527
fjwb1_sx435 quick_test/fbank/raw_fbank_train.1.ark:5946968
mtcs0_sx262 quick_test/fbank/raw_fbank_train.4.ark:7709999
maeo0_sx426 quick_test/fbank/raw_fbank_train.2.ark:2475505
fsbk0_si1069 quick_test/fbank/raw_fbank_train.1.ark:11199629
mkdd0_sx37 quick_test/fbank/raw_fbank_train.3.ark:6230477
mdlc2_sx174 quick_test/fbank/raw_fbank_train.2.ark:7734275
fvmh0_sx26 quick_test/fbank/raw_fbank_train.2.ark:1993825
faem0_sx222 quick_test/fbank/raw_fbank_train.1.ark:51746
mjjb0_si1769 quick_test/fbank/raw_fbank_train.3.ark:3196875
mdlr0_si1233 quick_test/fbank/raw_fbank_train.2.ark:7983209
mter0_sx77 quick_test/fbank/raw_fbank_train.4.ark:8073252
fkkh0_sx210 quick_test/fbank/raw_fbank_train.1.ark:6672958
msfh0_si586 quick_test/fbank/raw_fbank_train.4.ark:6136481
msms0_si803 quick_test/fbank/raw_fbank_train.4.ark:6665125
mdma0_sx350 quick_test/fbank/raw_fbank_train.2.ark:8263666
mmsm0_si476 quick_test/fbank/raw_fbank_train.3.ark:9947699
mtat1_si779 quick_test/fbank/raw_fbank_train.4.ark:7472203
mefg0_sx105 quick_test/fbank/raw_fbank_train.2.ark:9773520
mrtc0_sx198 quick_test/fbank/raw_fbank_train.4.ark:4690319
mcdc0_sx122 quick_test/fbank/raw_fbank_train.2.ark:4651980
mtrc0_sx93 quick_test/fbank/raw_fbank_train.4.ark:9803317
mjwt0_sx301 quick_test/fbank/raw_fbank_train.3.ark:5429366
fspm0_si1241 quick_test/fbank/raw_fbank_train.2.ark:950410
mrem0_sx61 quick_test/fbank/raw_fbank_train.4.ark:1945467
msmc0_sx197 quick_test/fbank/raw_fbank_train.4.ark:6503253
mrjm0_si1095 quick_test/fbank/raw_fbank_train.4.ark:2807340
fcke0_si1111 quick_test/fbank/raw_fbank_train.1.ark:1814820
mbma0_sx52 quick_test/fbank/raw_fbank_train.2.ark:3819009
mjpg0_sx201 quick_test/fbank/raw_fbank_train.3.ark:4193873
fceg0_sx168 quick_test/fbank/raw_fbank_train.1.ark:1590605
mdps0_sx269 quick_test/fbank/raw_fbank_train.2.ark:8738078
mhbs0_si2205 quick_test/fbank/raw_fbank_train.3.ark:927108
mcal0_si1768 quick_test/fbank/raw_fbank_train.2.ark:4540009
mmwb0_sx359 quick_test/fbank/raw_fbank_train.3.ark:10220449
fmpg0_sx162 quick_test/fbank/raw_fbank_train.1.ark:9493746
mgrp0_si687 quick_test/fbank/raw_fbank_train.3.ark:510687
mmam0_sx67 quick_test/fbank/raw_fbank_train.3.ark:8261853
fsak0_sx400 quick_test/fbank/raw_fbank_train.1.ark:11188355
mdss1_si697 quick_test/fbank/raw_fbank_train.2.ark:9097512
mtas0_sx395 quick_test/fbank/raw_fbank_train.4.ark:7342677
mgsh0_si1176 quick_test/fbank/raw_fbank_train.3.ark:593125
mrgm0_sx262 quick_test/fbank/raw_fbank_train.4.ark:2314270
fjxp0_sx42 quick_test/fbank/raw_fbank_train.1.ark:6165490
mcth0_si1209 quick_test/fbank/raw_fbank_train.2.ark:5712635
mlbc0_si1239 quick_test/fbank/raw_fbank_train.3.ark:7232996
mrai0_sx72 quick_test/fbank/raw_fbank_train.4.ark:864389
mklw0_sx311 quick_test/fbank/raw_fbank_train.3.ark:6998967
mbml0_si539 quick_test/fbank/raw_fbank_train.2.ark:3957455
fmem0_si1377 quick_test/fbank/raw_fbank_train.1.ark:8717275
mpgr0_si1410 quick_test/fbank/raw_fbank_train.3.ark:11098649
mddc0_sx429 quick_test/fbank/raw_fbank_train.2.ark:6659777
mmag0_sx406 quick_test/fbank/raw_fbank_train.3.ark:8162555
fmah1_sx339 quick_test/fbank/raw_fbank_train.1.ark:8585032
fsjg0_sx400 quick_test/fbank/raw_fbank_train.1.ark:11821666
fkaa0_sx218 quick_test/fbank/raw_fbank_train.1.ark:6224017
msdh0_sx440 quick_test/fbank/raw_fbank_train.4.ark:5739031
mcef0_sx325 quick_test/fbank/raw_fbank_train.2.ark:4974081
mjws0_sx333 quick_test/fbank/raw_fbank_train.3.ark:5308741
mwsb0_sx366 quick_test/fbank/raw_fbank_train.4.ark:11408442
fcke0_sx211 quick_test/fbank/raw_fbank_train.1.ark:1867433
mrab1_sx38 quick_test/fbank/raw_fbank_train.4.ark:740131
fskl0_sx359 quick_test/fbank/raw_fbank_train.2.ark:408025
flkm0_si620 quick_test/fbank/raw_fbank_train.1.ark:7946267
mkam0_si1250 quick_test/fbank/raw_fbank_train.3.ark:5950269
mdas0_sx276 quick_test/fbank/raw_fbank_train.2.ark:6166740
mdlr1_sx129 quick_test/fbank/raw_fbank_train.2.ark:8130814
fsgf0_si1557 quick_test/fbank/raw_fbank_train.1.ark:11605690
falr0_sx155 quick_test/fbank/raw_fbank_train.1.ark:346423
mkln0_sx248 quick_test/fbank/raw_fbank_train.3.ark:6602631
fkfb0_sx258 quick_test/fbank/raw_fbank_train.1.ark:6543813
mpsw0_sx437 quick_test/fbank/raw_fbank_train.4.ark:542042
mjjm0_sx197 quick_test/fbank/raw_fbank_train.3.ark:3449743
mrjt0_si868 quick_test/fbank/raw_fbank_train.4.ark:3029778
mjma0_sx55 quick_test/fbank/raw_fbank_train.3.ark:3954015
mdps0_sx359 quick_test/fbank/raw_fbank_train.2.ark:8746711
mrmh0_sx121 quick_test/fbank/raw_fbank_train.4.ark:3929077
mjkr0_si1201 quick_test/fbank/raw_fbank_train.3.ark:3485123
mprk0_si1727 quick_test/fbank/raw_fbank_train.4.ark:301348
fntb0_sx33 quick_test/fbank/raw_fbank_train.1.ark:9741733
mrew1_sx150 quick_test/fbank/raw_fbank_train.4.ark:1987841
fklc1_sx238 quick_test/fbank/raw_fbank_train.1.ark:6864609
mwre0_sx247 quick_test/fbank/raw_fbank_train.4.ark:11201800
mmsm0_sx26 quick_test/fbank/raw_fbank_train.3.ark:9988037
mcae0_sx7 quick_test/fbank/raw_fbank_train.2.ark:4495749
mmea0_sx398 quick_test/fbank/raw_fbank_train.3.ark:9156238
makr0_sx272 quick_test/fbank/raw_fbank_train.2.ark:2847021
marc0_sx108 quick_test/fbank/raw_fbank_train.2.ark:3021398
fpac0_sx31 quick_test/fbank/raw_fbank_train.1.ark:9965503
fhxs0_sx265 quick_test/fbank/raw_fbank_train.1.ark:4794663
fvfb0_si2292 quick_test/fbank/raw_fbank_train.2.ark:1765157
mmab1_sx144 quick_test/fbank/raw_fbank_train.3.ark:8007751
mtcs0_si2265 quick_test/fbank/raw_fbank_train.4.ark:7670060
mtwh1_si1512 quick_test/fbank/raw_fbank_train.4.ark:10004481
fbmj0_si516 quick_test/fbank/raw_fbank_train.1.ark:1162598
mdhl0_si2069 quick_test/fbank/raw_fbank_train.2.ark:7012832
msvs0_sx218 quick_test/fbank/raw_fbank_train.4.ark:7098849
mbsb0_sx93 quick_test/fbank/raw_fbank_train.2.ark:4178829
fcrz0_si1913 quick_test/fbank/raw_fbank_train.1.ark:2201841
megj0_sx3 quick_test/fbank/raw_fbank_train.2.ark:9904609
meal0_sx347 quick_test/fbank/raw_fbank_train.2.ark:9614210
mrjt0_si1498 quick_test/fbank/raw_fbank_train.4.ark:3011511
ftbr0_si921 quick_test/fbank/raw_fbank_train.2.ark:1369097
mcth0_sx309 quick_test/fbank/raw_fbank_train.2.ark:5774081
mcdd0_sx433 quick_test/fbank/raw_fbank_train.2.ark:4778224
mhrm0_si2218 quick_test/fbank/raw_fbank_train.3.ark:1385434
fpmy0_sx163 quick_test/fbank/raw_fbank_train.1.ark:10541914
mjjb0_sx149 quick_test/fbank/raw_fbank_train.3.ark:3207348
fbmh0_si1136 quick_test/fbank/raw_fbank_train.1.ark:1048380
mjda0_si1031 quick_test/fbank/raw_fbank_train.3.ark:2068052
mree0_sx114 quick_test/fbank/raw_fbank_train.4.ark:1693047
mkah0_sx448 quick_test/fbank/raw_fbank_train.3.ark:5840258
mrml0_si1421 quick_test/fbank/raw_fbank_train.4.ark:3977682
fjsp0_si1763 quick_test/fbank/raw_fbank_train.1.ark:5796699
mrbc0_sx419 quick_test/fbank/raw_fbank_train.4.ark:1133474
mtxs0_sx70 quick_test/fbank/raw_fbank_train.4.ark:10198138
fpad0_sx266 quick_test/fbank/raw_fbank_train.1.ark:10044143
mtrt0_sx57 quick_test/fbank/raw_fbank_train.4.ark:9993007
mwch0_sx452 quick_test/fbank/raw_fbank_train.4.ark:10832124
mfrm0_sx435 quick_test/fbank/raw_fbank_train.2.ark:10654961
mlsh0_sx427 quick_test/fbank/raw_fbank_train.3.ark:7840840
madd0_si1798 quick_test/fbank/raw_fbank_train.2.ark:2217929
fjsp0_sx354 quick_test/fbank/raw_fbank_train.1.ark:5839591
mjde0_sx40 quick_test/fbank/raw_fbank_train.3.ark:2347900
fkde0_sx151 quick_test/fbank/raw_fbank_train.1.ark:6329530
mhit0_sx443 quick_test/fbank/raw_fbank_train.3.ark:1083098
mjfh0_sx207 quick_test/fbank/raw_fbank_train.3.ark:2930226
mdcd0_si2045 quick_test/fbank/raw_fbank_train.2.ark:6407082
mjwg0_sx175 quick_test/fbank/raw_fbank_train.3.ark:5184850
mjrh0_sx225 quick_test/fbank/raw_fbank_train.3.ark:4685039
fmbg0_si2264 quick_test/fbank/raw_fbank_train.1.ark:8649479
fleh0_sx61 quick_test/fbank/raw_fbank_train.1.ark:7408233
mjxa0_sx247 quick_test/fbank/raw_fbank_train.3.ark:5509318
mmsm0_si1106 quick_test/fbank/raw_fbank_train.3.ark:9919472
mgak0_sx136 quick_test/fbank/raw_fbank_train.2.ark:11183294
msat0_si1526 quick_test/fbank/raw_fbank_train.4.ark:5419035
mhmr0_sx309 quick_test/fbank/raw_fbank_train.3.ark:1345021
mpar0_sx316 quick_test/fbank/raw_fbank_train.3.ark:10790036
mreh1_si2229 quick_test/fbank/raw_fbank_train.4.ark:1764526
fksr0_sx161 quick_test/fbank/raw_fbank_train.1.ark:7052266
mdps0_si1979 quick_test/fbank/raw_fbank_train.2.ark:8701419
fajw0_sx3 quick_test/fbank/raw_fbank_train.1.ark:175282
mtrt0_sx417 quick_test/fbank/raw_fbank_train.4.ark:9980815
fpjf0_sx236 quick_test/fbank/raw_fbank_train.1.ark:10347659
falr0_si695 quick_test/fbank/raw_fbank_train.1.ark:334750
msvs0_si1568 quick_test/fbank/raw_fbank_train.4.ark:7035116
mmwb0_si1619 quick_test/fbank/raw_fbank_train.3.ark:10141763
mjxl0_sx92 quick_test/fbank/raw_fbank_train.3.ark:5647801
mrmh0_sx31 quick_test/fbank/raw_fbank_train.4.ark:3962455
mrkm0_sx367 quick_test/fbank/raw_fbank_train.4.ark:3198102
mjrg0_sx352 quick_test/fbank/raw_fbank_train.3.ark:4600078
mcew0_sx92 quick_test/fbank/raw_fbank_train.2.ark:5117851
mtrt0_si1227 quick_test/fbank/raw_fbank_train.4.ark:9909656
mtmt0_si1118 quick_test/fbank/raw_fbank_train.4.ark:9107617
mntw0_sx348 quick_test/fbank/raw_fbank_train.3.ark:10709004
mrhl0_si2145 quick_test/fbank/raw_fbank_train.4.ark:2486779
mrdd0_si1050 quick_test/fbank/raw_fbank_train.4.ark:1364790
mfmc0_sx142 quick_test/fbank/raw_fbank_train.2.ark:10518316
mbma1_si954 quick_test/fbank/raw_fbank_train.2.ark:3851430
fjsk0_sx332 quick_test/fbank/raw_fbank_train.1.ark:5739206
mpgr0_sx60 quick_test/fbank/raw_fbank_train.3.ark:11177440
fcmm0_sx273 quick_test/fbank/raw_fbank_train.1.ark:2153789
mtmt0_sx308 quick_test/fbank/raw_fbank_train.4.ark:9170143
fsjw0_sx73 quick_test/fbank/raw_fbank_train.2.ark:242760
mjpg0_si561 quick_test/fbank/raw_fbank_train.3.ark:4170127
fhxs0_sx85 quick_test/fbank/raw_fbank_train.1.ark:4827481
mrwa0_sx73 quick_test/fbank/raw_fbank_train.4.ark:5026220
mmam0_si1597 quick_test/fbank/raw_fbank_train.3.ark:8188781
mdbp0_sx348 quick_test/fbank/raw_fbank_train.2.ark:6353469
fsls0_si1056 quick_test/fbank/raw_fbank_train.2.ark:538829
fdxw0_sx431 quick_test/fbank/raw_fbank_train.1.ark:3409960
mrjm0_si1858 quick_test/fbank/raw_fbank_train.4.ark:2827928
mram0_si1275 quick_test/fbank/raw_fbank_train.4.ark:873583
mgrp0_sx147 quick_test/fbank/raw_fbank_train.3.ark:524160
mdns0_si2271 quick_test/fbank/raw_fbank_train.2.ark:8422344
mbom0_sx294 quick_test/fbank/raw_fbank_train.2.ark:4078900
fpab1_si2101 quick_test/fbank/raw_fbank_train.1.ark:9776474
fpac0_si2011 quick_test/fbank/raw_fbank_train.1.ark:9897779
mwgr0_sx346 quick_test/fbank/raw_fbank_train.4.ark:11121327
mmea0_si2018 quick_test/fbank/raw_fbank_train.3.ark:9096761
mklw0_sx221 quick_test/fbank/raw_fbank_train.3.ark:6986334
fgdp0_si1618 quick_test/fbank/raw_fbank_train.1.ark:4267507
mpsw0_si1067 quick_test/fbank/raw_fbank_train.4.ark:485643
mgaf0_sx202 quick_test/fbank/raw_fbank_train.2.ark:11015837
mrre0_si1334 quick_test/fbank/raw_fbank_train.4.ark:4277999
fleh0_sx421 quick_test/fbank/raw_fbank_train.1.ark:7395121
mdlh0_sx250 quick_test/fbank/raw_fbank_train.2.ark:7847972
mpsw0_si1697 quick_test/fbank/raw_fbank_train.4.ark:495317
mses0_si2219 quick_test/fbank/raw_fbank_train.4.ark:6034816
fdaw0_si1271 quick_test/fbank/raw_fbank_train.1.ark:2502036
mkdt0_si2153 quick_test/fbank/raw_fbank_train.3.ark:6254184
makb0_sx26 quick_test/fbank/raw_fbank_train.2.ark:2778908
mtjs0_si562 quick_test/fbank/raw_fbank_train.4.ark:8314123
falr0_sx335 quick_test/fbank/raw_fbank_train.1.ark:369049
mprd0_sx441 quick_test/fbank/raw_fbank_train.4.ark:254728
mljc0_si595 quick_test/fbank/raw_fbank_train.3.ark:7471993
mjee0_sx157 quick_test/fbank/raw_fbank_train.3.ark:2819728
mewm0_sx268 quick_test/fbank/raw_fbank_train.2.ark:10353099
mchl0_si1347 quick_test/fbank/raw_fbank_train.2.ark:5131685
mchl0_sx177 quick_test/fbank/raw_fbank_train.2.ark:5176586
fvkb0_sx79 quick_test/fbank/raw_fbank_train.2.ark:1915986
mbbr0_sx155 quick_test/fbank/raw_fbank_train.2.ark:3309554
mfer0_si2122 quick_test/fbank/raw_fbank_train.2.ark:10403785
mjrh1_sx244 quick_test/fbank/raw_fbank_train.3.ark:4782024
mmbs0_sx71 quick_test/fbank/raw_fbank_train.3.ark:8497263
mreh1_sx249 quick_test/fbank/raw_fbank_train.4.ark:1808265
mjdm0_sx350 quick_test/fbank/raw_fbank_train.3.ark:2539959
mrmg0_sx360 quick_test/fbank/raw_fbank_train.4.ark:3848557
fmmh0_sx7 quick_test/fbank/raw_fbank_train.1.ark:9424300
mcss0_sx210 quick_test/fbank/raw_fbank_train.2.ark:5672623
mewm0_sx88 quick_test/fbank/raw_fbank_train.2.ark:10383237
flet0_sx417 quick_test/fbank/raw_fbank_train.1.ark:7493386
msds0_si1077 quick_test/fbank/raw_fbank_train.4.ark:5763057
mppc0_sx152 quick_test/fbank/raw_fbank_train.3.ark:11494145
mrpc1_sx312 quick_test/fbank/raw_fbank_train.4.ark:4243660
fceg0_si618 quick_test/fbank/raw_fbank_train.1.ark:1580492
ftbr0_sx111 quick_test/fbank/raw_fbank_train.2.ark:1386050
mrcg0_sx258 quick_test/fbank/raw_fbank_train.4.ark:1211433
fjhk0_sx392 quick_test/fbank/raw_fbank_train.1.ark:5147679
mddc0_sx69 quick_test/fbank/raw_fbank_train.2.ark:6670689
mtrt0_si597 quick_test/fbank/raw_fbank_train.4.ark:9943403
fbmj0_sx336 quick_test/fbank/raw_fbank_train.1.ark:1213170
mmpm0_si1061 quick_test/fbank/raw_fbank_train.3.ark:9712502
mtab0_sx312 quick_test/fbank/raw_fbank_train.4.ark:7233467
mddc0_si2049 quick_test/fbank/raw_fbank_train.2.ark:6608372
msrr0_sx411 quick_test/fbank/raw_fbank_train.4.ark:6903506
msdh0_si980 quick_test/fbank/raw_fbank_train.4.ark:5674379
ftaj0_sx339 quick_test/fbank/raw_fbank_train.2.ark:1312971
fcyl0_sx349 quick_test/fbank/raw_fbank_train.1.ark:2357632
fjen0_sx327 quick_test/fbank/raw_fbank_train.1.ark:5009788
mrmg0_si1080 quick_test/fbank/raw_fbank_train.4.ark:3787790
mbom0_sx114 quick_test/fbank/raw_fbank_train.2.ark:4060314
mwsh0_si1426 quick_test/fbank/raw_fbank_train.4.ark:11440819
fdas1_sx21 quick_test/fbank/raw_fbank_train.1.ark:2472376
mtpp0_si2138 quick_test/fbank/raw_fbank_train.4.ark:9405806
fsjw0_sx343 quick_test/fbank/raw_fbank_train.2.ark:214655
mklr0_sx159 quick_test/fbank/raw_fbank_train.3.ark:6682224
mmws0_sx348 quick_test/fbank/raw_fbank_train.3.ark:10327433
mtjm0_sx416 quick_test/fbank/raw_fbank_train.4.ark:8258950
mfer0_sx142 quick_test/fbank/raw_fbank_train.2.ark:10425291
fetb0_sx338 quick_test/fbank/raw_fbank_train.1.ark:4021517
mrkm0_si637 quick_test/fbank/raw_fbank_train.4.ark:3152843
mntw0_sx168 quick_test/fbank/raw_fbank_train.3.ark:10676625
mrvg0_si1770 quick_test/fbank/raw_fbank_train.4.ark:4864638
fvfb0_sx312 quick_test/fbank/raw_fbank_train.2.ark:1793056
fspm0_sx341 quick_test/fbank/raw_fbank_train.2.ark:1026096
fsjk1_sx125 quick_test/fbank/raw_fbank_train.1.ark:11874760
mjjj0_sx353 quick_test/fbank/raw_fbank_train.3.ark:3349959
marw0_sx376 quick_test/fbank/raw_fbank_train.2.ark:3163994
mfwk0_si619 quick_test/fbank/raw_fbank_train.2.ark:10699534
mdmt0_sx212 quick_test/fbank/raw_fbank_train.2.ark:8353098
fpjf0_sx352 quick_test/fbank/raw_fbank_train.1.ark:10367085
fmkc0_si1041 quick_test/fbank/raw_fbank_train.1.ark:9139014
mrwa0_sx163 quick_test/fbank/raw_fbank_train.4.ark:4976929
mjwt0_si751 quick_test/fbank/raw_fbank_train.3.ark:5391067
mtbc0_si543 quick_test/fbank/raw_fbank_train.4.ark:7584028
falk0_sx366 quick_test/fbank/raw_fbank_train.1.ark:273466
madc0_sx17 quick_test/fbank/raw_fbank_train.2.ark:2166162
mpgr0_si780 quick_test/fbank/raw_fbank_train.3.ark:11122436
mrtc0_sx378 quick_test/fbank/raw_fbank_train.4.ark:4715385
fkkh0_si1920 quick_test/fbank/raw_fbank_train.1.ark:6627299
fpad0_si1346 quick_test/fbank/raw_fbank_train.1.ark:9984130
mlel0_sx346 quick_test/fbank/raw_fbank_train.3.ark:7402387
fdaw0_sx326 quick_test/fbank/raw_fbank_train.1.ark:2572723
fmem0_sx333 quick_test/fbank/raw_fbank_train.1.ark:8792674
mejl0_sx152 quick_test/fbank/raw_fbank_train.2.ark:9971288
feac0_sx75 quick_test/fbank/raw_fbank_train.1.ark:3522577
fsdj0_sx215 quick_test/fbank/raw_fbank_train.1.ark:11564718
fdjh0_sx305 quick_test/fbank/raw_fbank_train.1.ark:2754054
fmbg0_sx80 quick_test/fbank/raw_fbank_train.1.ark:8708561
mmar0_sx256 quick_test/fbank/raw_fbank_train.3.ark:8340380
msjk0_si2226 quick_test/fbank/raw_fbank_train.4.ark:6352378
mmbs0_sx341 quick_test/fbank/raw_fbank_train.3.ark:8469198
milb0_sx183 quick_test/fbank/raw_fbank_train.3.ark:1617028
mhrm0_sx238 quick_test/fbank/raw_fbank_train.3.ark:1420813
flmk0_sx405 quick_test/fbank/raw_fbank_train.1.ark:8306948
msat1_sx353 quick_test/fbank/raw_fbank_train.4.ark:5556787
fcrz0_sx163 quick_test/fbank/raw_fbank_train.1.ark:2239581
mwsb0_si996 quick_test/fbank/raw_fbank_train.4.ark:11373863
mdbp0_sx168 quick_test/fbank/raw_fbank_train.2.ark:6331883
mzmb0_sx266 quick_test/fbank/raw_fbank_train.4.ark:11611937
mrml0_si791 quick_test/fbank/raw_fbank_train.4.ark:4009189
fmkf0_sx96 quick_test/fbank/raw_fbank_train.1.ark:9331749
msat1_si2333 quick_test/fbank/raw_fbank_train.4.ark:5520288
mvlo0_sx427 quick_test/fbank/raw_fbank_train.4.ark:10375236
mdss1_si1713 quick_test/fbank/raw_fbank_train.2.ark:9091199
mjkr0_sx391 quick_test/fbank/raw_fbank_train.3.ark:3577274
mrjb1_sx30 quick_test/fbank/raw_fbank_train.4.ark:2654816
mram0_si1905 quick_test/fbank/raw_fbank_train.4.ark:886537
fjen0_si1677 quick_test/fbank/raw_fbank_train.1.ark:4958175
mmeb0_sx97 quick_test/fbank/raw_fbank_train.3.ark:9246861
mdrd0_si2012 quick_test/fbank/raw_fbank_train.2.ark:8794964
fmjb0_si1807 quick_test/fbank/raw_fbank_train.1.ark:8847335
mgsl0_sx444 quick_test/fbank/raw_fbank_train.3.ark:779666
mkag0_sx439 quick_test/fbank/raw_fbank_train.3.ark:5738393
mgag0_sx421 quick_test/fbank/raw_fbank_train.2.ark:11122287
makr0_sx182 quick_test/fbank/raw_fbank_train.2.ark:2839708
mefg0_sx195 quick_test/fbank/raw_fbank_train.2.ark:9795185
mesg0_sx162 quick_test/fbank/raw_fbank_train.2.ark:10162978
flja0_sx448 quick_test/fbank/raw_fbank_train.1.ark:7690838
mjai0_si682 quick_test/fbank/raw_fbank_train.3.ark:1880715
mgsl0_sx84 quick_test/fbank/raw_fbank_train.3.ark:794378
megj0_sx167 quick_test/fbank/raw_fbank_train.2.ark:9876945
mstf0_sx136 quick_test/fbank/raw_fbank_train.4.ark:6969751
mwgr0_si976 quick_test/fbank/raw_fbank_train.4.ark:11080668
mjjm0_sx107 quick_test/fbank/raw_fbank_train.3.ark:3432518
mmjb1_sx418 quick_test/fbank/raw_fbank_train.3.ark:9600251
mdma0_sx170 quick_test/fbank/raw_fbank_train.2.ark:8229120
fjxp0_si1752 quick_test/fbank/raw_fbank_train.1.ark:6093933
fsmm0_si1314 quick_test/fbank/raw_fbank_train.2.ark:744920
mbsb0_si1983 quick_test/fbank/raw_fbank_train.2.ark:4127834
falr0_sx425 quick_test/fbank/raw_fbank_train.1.ark:385482
mdpb0_sx416 quick_test/fbank/raw_fbank_train.2.ark:8582974
mpeb0_sx420 quick_test/fbank/raw_fbank_train.3.ark:10881974
fleh0_sx151 quick_test/fbank/raw_fbank_train.1.ark:7358062
mjws0_sx63 quick_test/fbank/raw_fbank_train.3.ark:5342046
mjls0_si1096 quick_test/fbank/raw_fbank_train.3.ark:3769199
fbmh0_sx236 quick_test/fbank/raw_fbank_train.1.ark:1104833
fbch0_sx416 quick_test/fbank/raw_fbank_train.1.ark:813303
fljg0_sx81 quick_test/fbank/raw_fbank_train.1.ark:7921280
mjrp0_sx315 quick_test/fbank/raw_fbank_train.3.ark:4974907
fklc0_si1615 quick_test/fbank/raw_fbank_train.1.ark:6715130
makb0_si2276 quick_test/fbank/raw_fbank_train.2.ark:2729810
mtbc0_sx93 quick_test/fbank/raw_fbank_train.4.ark:7654032
fdkn0_sx91 quick_test/fbank/raw_fbank_train.1.ark:2888105
msms0_sx83 quick_test/fbank/raw_fbank_train.4.ark:6725929
mbth0_si757 quick_test/fbank/raw_fbank_train.2.ark:4218809
msjk0_si966 quick_test/fbank/raw_fbank_train.4.ark:6361251
mjhi0_sx68 quick_test/fbank/raw_fbank_train.3.ark:3161333
mrmh0_sx211 quick_test/fbank/raw_fbank_train.4.ark:3940470
msvs0_sx38 quick_test/fbank/raw_fbank_train.4.ark:7126754
mejl0_sx62 quick_test/fbank/raw_fbank_train.2.ark:10017379
fkdw0_si1891 quick_test/fbank/raw_fbank_train.1.ark:6413569
falk0_si1086 quick_test/fbank/raw_fbank_train.1.ark:209261
fsms1_sx154 quick_test/fbank/raw_fbank_train.2.ark:888925
fjhk0_sx212 quick_test/fbank/raw_fbank_train.1.ark:5112301
mjrh1_si1774 quick_test/fbank/raw_fbank_train.3.ark:4747685
fdas1_sx111 quick_test/fbank/raw_fbank_train.1.ark:2448311
fcag0_sx243 quick_test/fbank/raw_fbank_train.1.ark:1294643
mpmb0_sx421 quick_test/fbank/raw_fbank_train.3.ark:11411099
fskc0_si786 quick_test/fbank/raw_fbank_train.2.ark:280901
madc0_si737 quick_test/fbank/raw_fbank_train.2.ark:2134937
fbmj0_sx66 quick_test/fbank/raw_fbank_train.1.ark:1245595
fksr0_si1747 quick_test/fbank/raw_fbank_train.1.ark:7029200
fsbk0_sx79 quick_test/fbank/raw_fbank_train.1.ark:11293621
mhbs0_sx45 quick_test/fbank/raw_fbank_train.3.ark:996385
fjlg0_sx179 quick_test/fbank/raw_fbank_train.1.ark:5287039
mwar0_si2305 quick_test/fbank/raw_fbank_train.4.ark:10708166
fvfb0_sx132 quick_test/fbank/raw_fbank_train.2.ark:1772430
mjda0_sx41 quick_test/fbank/raw_fbank_train.3.ark:2141404
mcdr0_sx164 quick_test/fbank/raw_fbank_train.2.ark:4857110
fskp0_si1728 quick_test/fbank/raw_fbank_train.2.ark:464118
mjrh1_sx64 quick_test/fbank/raw_fbank_train.3.ark:4816042
mtwh1_sx252 quick_test/fbank/raw_fbank_train.4.ark:10045654
mges0_si1481 quick_test/fbank/raw_fbank_train.3.ark:193384
fsbk0_sx439 quick_test/fbank/raw_fbank_train.1.ark:11278269
ftlg0_sx303 quick_test/fbank/raw_fbank_train.2.ark:1610605
mtlb0_sx234 quick_test/fbank/raw_fbank_train.4.ark:8750849
fsag0_sx423 quick_test/fbank/raw_fbank_train.1.ark:10963873
msms0_sx263 quick_test/fbank/raw_fbank_train.4.ark:6693111
mwad0_si1062 quick_test/fbank/raw_fbank_train.4.ark:10601792
mdmt0_si2341 quick_test/fbank/raw_fbank_train.2.ark:8316679
mdlc1_sx85 quick_test/fbank/raw_fbank_train.2.ark:7696541
fsag0_si693 quick_test/fbank/raw_fbank_train.1.ark:10899381
mjai0_sx254 quick_test/fbank/raw_fbank_train.3.ark:1930614
mlbc0_si1869 quick_test/fbank/raw_fbank_train.3.ark:7249590
fcmm0_sx183 quick_test/fbank/raw_fbank_train.1.ark:2145236
fhlm0_sx349 quick_test/fbank/raw_fbank_train.1.ark:4685622
msds0_si1707 quick_test/fbank/raw_fbank_train.4.ark:5786291
mjlg1_si1012 quick_test/fbank/raw_fbank_train.3.ark:3678213
mcpm0_sx114 quick_test/fbank/raw_fbank_train.2.ark:5465461
fmem0_si2007 quick_test/fbank/raw_fbank_train.1.ark:8733029
fksr0_si1117 quick_test/fbank/raw_fbank_train.1.ark:7017286
mrre0_sx254 quick_test/fbank/raw_fbank_train.4.ark:4348771
mmgc0_si1935 quick_test/fbank/raw_fbank_train.3.ark:9275289
mhmr0_si1692 quick_test/fbank/raw_fbank_train.3.ark:1285929
mmrp0_si2034 quick_test/fbank/raw_fbank_train.3.ark:9812768
mjrh1_sx424 quick_test/fbank/raw_fbank_train.3.ark:4804610
madd0_sx88 quick_test/fbank/raw_fbank_train.2.ark:2293726
mppc0_si1412 quick_test/fbank/raw_fbank_train.3.ark:11454885
fdmy0_sx387 quick_test/fbank/raw_fbank_train.1.ark:3105315
mjdg0_sx322 quick_test/fbank/raw_fbank_train.3.ark:2441334
mbom0_si2274 quick_test/fbank/raw_fbank_train.2.ark:4049961
mljh0_sx64 quick_test/fbank/raw_fbank_train.3.ark:7657902
fdnc0_si2287 quick_test/fbank/raw_fbank_train.1.ark:3162457
mdlc2_sx84 quick_test/fbank/raw_fbank_train.2.ark:7779526
mtjm0_si655 quick_test/fbank/raw_fbank_train.4.ark:8212778
mljh0_si1422 quick_test/fbank/raw_fbank_train.3.ark:7554825
mrhl0_si1515 quick_test/fbank/raw_fbank_train.4.ark:2482145
feeh0_sx392 quick_test/fbank/raw_fbank_train.1.ark:3840572
maeo0_si1655 quick_test/fbank/raw_fbank_train.2.ark:2419099
fblv0_si1688 quick_test/fbank/raw_fbank_train.1.ark:954508
mwar0_sx55 quick_test/fbank/raw_fbank_train.4.ark:10759410
mpar0_sx406 quick_test/fbank/raw_fbank_train.3.ark:10799109
mjrg0_si736 quick_test/fbank/raw_fbank_train.3.ark:4548347
mmws1_sx351 quick_test/fbank/raw_fbank_train.3.ark:10414178
mdpb0_sx236 quick_test/fbank/raw_fbank_train.2.ark:8560908
mmdb0_si987 quick_test/fbank/raw_fbank_train.3.ark:8628829
mwre0_sx67 quick_test/fbank/raw_fbank_train.4.ark:11238058
mgak0_si1036 quick_test/fbank/raw_fbank_train.2.ark:11142913
fear0_sx352 quick_test/fbank/raw_fbank_train.1.ark:3588537
