mwrp0_sx3 quick_test/fbank/raw_fbank_train.4.ark:11322337
mvrw0_sx315 quick_test/fbank/raw_fbank_train.4.ark:10453068
mjai0_sx74 quick_test/fbank/raw_fbank_train.3.ark:1957352
fssb0_si1712 quick_test/fbank/raw_fbank_train.2.ark:1170054
flma0_si613 quick_test/fbank/raw_fbank_train.1.ark:8067645
mrfk0_sx356 quick_test/fbank/raw_fbank_train.4.ark:2107133
mhmr0_sx399 quick_test/fbank/raw_fbank_train.3.ark:1368406
fclt0_sx358 quick_test/fbank/raw_fbank_train.1.ark:1965411
mtdp0_sx351 quick_test/fbank/raw_fbank_train.4.ark:7932203
fklc1_sx418 quick_test/fbank/raw_fbank_train.1.ark:6889235
mbjv0_sx437 quick_test/fbank/raw_fbank_train.2.ark:3714632
fdaw0_sx326 quick_test/fbank/raw_fbank_train.1.ark:2572723
mdks0_sx76 quick_test/fbank/raw_fbank_train.2.ark:7368185
mdwm0_si2176 quick_test/fbank/raw_fbank_train.2.ark:9471900
ftbw0_sx85 quick_test/fbank/raw_fbank_train.2.ark:1525886
mdss1_sx157 quick_test/fbank/raw_fbank_train.2.ark:9112065
mmsm0_sx26 quick_test/fbank/raw_fbank_train.3.ark:9988037
mdas0_si1896 quick_test/fbank/raw_fbank_train.2.ark:6116729
mrmg0_sx450 quick_test/fbank/raw_fbank_train.4.ark:3861070
mprd0_sx81 quick_test/fbank/raw_fbank_train.4.ark:266440
mram0_sx195 quick_test/fbank/raw_fbank_train.4.ark:937349
mjbg0_si1862 quick_test/fbank/raw_fbank_train.3.ark:1987854
mtrc0_si589 quick_test/fbank/raw_fbank_train.4.ark:9734520
mjrh1_sx154 quick_test/fbank/raw_fbank_train.3.ark:4770031
mjls0_si466 quick_test/fbank/raw_fbank_train.3.ark:3806186
mrgs0_sx96 quick_test/fbank/raw_fbank_train.4.ark:2470391
fsgf0_sx387 quick_test/fbank/raw_fbank_train.1.ark:11692881
mpfu0_sx178 quick_test/fbank/raw_fbank_train.3.ark:10945700
mrvg0_si510 quick_test/fbank/raw_fbank_train.4.ark:4874151
fljd0_si2146 quick_test/fbank/raw_fbank_train.1.ark:7737098
mjlb0_sx356 quick_test/fbank/raw_fbank_train.3.ark:3647434
fvmh0_si836 quick_test/fbank/raw_fbank_train.2.ark:1955767
fpaf0_sx154 quick_test/fbank/raw_fbank_train.1.ark:10134736
fsak0_sx40 quick_test/fbank/raw_fbank_train.1.ark:11176562
fjxp0_sx312 quick_test/fbank/raw_fbank_train.1.ark:6138785
mfxv0_sx15 quick_test/fbank/raw_fbank_train.2.ark:10922931
mrjb1_sx120 quick_test/fbank/raw_fbank_train.4.ark:2627471
mjfh0_sx117 quick_test/fbank/raw_fbank_train.3.ark:2920953
mgag0_sx331 quick_test/fbank/raw_fbank_train.2.ark:11112534
mwac0_si971 quick_test/fbank/raw_fbank_train.4.ark:10513034
mgsl0_sx174 quick_test/fbank/raw_fbank_train.3.ark:740407
mgak0_sx226 quick_test/fbank/raw_fbank_train.2.ark:11202487
mrjh0_sx439 quick_test/fbank/raw_fbank_train.4.ark:2776234
flhd0_sx354 quick_test/fbank/raw_fbank_train.1.ark:7574339
mdlb0_sx136 quick_test/fbank/raw_fbank_train.2.ark:7428439
mprd0_si801 quick_test/fbank/raw_fbank_train.4.ark:188756
fsrh0_sx41 quick_test/fbank/raw_fbank_train.2.ark:1140146
mpgh0_sx114 quick_test/fbank/raw_fbank_train.3.ark:11055324
mclm0_sx286 quick_test/fbank/raw_fbank_train.2.ark:5397814
mmwb0_sx359 quick_test/fbank/raw_fbank_train.3.ark:10220449
msas0_si1376 quick_test/fbank/raw_fbank_train.4.ark:5304970
fdjh0_sx215 quick_test/fbank/raw_fbank_train.1.ark:2742421
mkjo0_si1517 quick_test/fbank/raw_fbank_train.3.ark:6465913
mree0_si1104 quick_test/fbank/raw_fbank_train.4.ark:1644066
fjsp0_si1763 quick_test/fbank/raw_fbank_train.1.ark:5796699
fdml0_si1779 quick_test/fbank/raw_fbank_train.1.ark:2915533
mwgr0_sx76 quick_test/fbank/raw_fbank_train.4.ark:11143952
mhxl0_sx242 quick_test/fbank/raw_fbank_train.3.ark:1519917
mtwh1_sx342 quick_test/fbank/raw_fbank_train.4.ark:10056967
mbcg0_si2217 quick_test/fbank/raw_fbank_train.2.ark:3366039
fajw0_si1263 quick_test/fbank/raw_fbank_train.1.ark:100358
mrgm0_sx442 quick_test/fbank/raw_fbank_train.4.ark:2338056
mtjm0_sx146 quick_test/fbank/raw_fbank_train.4.ark:8228531
mdwh0_si1925 quick_test/fbank/raw_fbank_train.2.ark:9363155
mtpg0_sx33 quick_test/fbank/raw_fbank_train.4.ark:9368745
mdrd0_sx212 quick_test/fbank/raw_fbank_train.2.ark:8843183
mmpm0_si1061 quick_test/fbank/raw_fbank_train.3.ark:9712502
msmr0_sx145 quick_test/fbank/raw_fbank_train.4.ark:6582493
mzmb0_sx86 quick_test/fbank/raw_fbank_train.4.ark:11647275
fkaa0_sx398 quick_test/fbank/raw_fbank_train.1.ark:6267515
mjpg0_sx291 quick_test/fbank/raw_fbank_train.3.ark:4211378
ftbw0_si1345 quick_test/fbank/raw_fbank_train.2.ark:1437855
mjdc0_sx171 quick_test/fbank/raw_fbank_train.3.ark:2194778
fajw0_sx93 quick_test/fbank/raw_fbank_train.1.ark:196227
mdpb0_sx326 quick_test/fbank/raw_fbank_train.2.ark:8572301
fjrp1_si2062 quick_test/fbank/raw_fbank_train.1.ark:5576648
mljc0_si1855 quick_test/fbank/raw_fbank_train.3.ark:7463800
fscn0_sx266 quick_test/fbank/raw_fbank_train.1.ark:11374867
mtdp0_si2151 quick_test/fbank/raw_fbank_train.4.ark:7889184
mbml0_sx89 quick_test/fbank/raw_fbank_train.2.ark:4016419
mjjm0_si1457 quick_test/fbank/raw_fbank_train.3.ark:3404532
mdwh0_si665 quick_test/fbank/raw_fbank_train.2.ark:9372468
mrlr0_si1196 quick_test/fbank/raw_fbank_train.4.ark:3600260
mmgg0_si1079 quick_test/fbank/raw_fbank_train.3.ark:9349521
mhmr0_si489 quick_test/fbank/raw_fbank_train.3.ark:1304362
mwre0_sx157 quick_test/fbank/raw_fbank_train.4.ark:11191127
mrmb0_si2211 quick_test/fbank/raw_fbank_train.4.ark:3704679
fcjs0_sx257 quick_test/fbank/raw_fbank_train.1.ark:1763288
fcdr1_sx376 quick_test/fbank/raw_fbank_train.1.ark:1547351
fdfb0_sx148 quick_test/fbank/raw_fbank_train.1.ark:2638483
fklc1_sx328 quick_test/fbank/raw_fbank_train.1.ark:6875762
fgmb0_sx335 quick_test/fbank/raw_fbank_train.1.ark:4457338
mafm0_sx399 quick_test/fbank/raw_fbank_train.2.ark:2571682
mejl0_sx242 quick_test/fbank/raw_fbank_train.2.ark:9981641
mrtj0_si1551 quick_test/fbank/raw_fbank_train.4.ark:4728299
flhd0_si1344 quick_test/fbank/raw_fbank_train.1.ark:7516492
madd0_sx268 quick_test/fbank/raw_fbank_train.2.ark:2258908
mpmb0_sx151 quick_test/fbank/raw_fbank_train.3.ark:11362360
mnet0_sx186 quick_test/fbank/raw_fbank_train.3.ark:10575041
mabc0_si781 quick_test/fbank/raw_fbank_train.2.ark:2037672
mdbp0_sx348 quick_test/fbank/raw_fbank_train.2.ark:6353469
fmju0_sx39 quick_test/fbank/raw_fbank_train.1.ark:9115947
mwsb0_sx96 quick_test/fbank/raw_fbank_train.4.ark:11430545
fdmy0_sx207 quick_test/fbank/raw_fbank_train.1.ark:3068337
fmem0_sx387 quick_test/fbank/raw_fbank_train.1.ark:8813507
flet0_sx147 quick_test/fbank/raw_fbank_train.1.ark:7466647
mdcd0_si1415 quick_test/fbank/raw_fbank_train.2.ark:6395768
fljg0_sx81 quick_test/fbank/raw_fbank_train.1.ark:7921280
mklw0_si2201 quick_test/fbank/raw_fbank_train.3.ark:6967908
frjb0_sx77 quick_test/fbank/raw_fbank_train.1.ark:10769256
mcef0_sx415 quick_test/fbank/raw_fbank_train.2.ark:4983914
fsjs0_sx91 quick_test/fbank/raw_fbank_train.2.ark:138295
mrtj0_sx412 quick_test/fbank/raw_fbank_train.4.ark:4824418
fsjg0_si940 quick_test/fbank/raw_fbank_train.1.ark:11732782
mtrr0_sx198 quick_test/fbank/raw_fbank_train.4.ark:9871356
mses0_si1589 quick_test/fbank/raw_fbank_train.4.ark:6012468
mrdd0_sx330 quick_test/fbank/raw_fbank_train.4.ark:1432070
frjb0_sx347 quick_test/fbank/raw_fbank_train.1.ark:10738031
mtat1_sx149 quick_test/fbank/raw_fbank_train.4.ark:7490276
fexm0_si482 quick_test/fbank/raw_fbank_train.1.ark:4086763
marw0_sx376 quick_test/fbank/raw_fbank_train.2.ark:3163994
ftlg0_sx33 quick_test/fbank/raw_fbank_train.2.ark:1619997
fpad0_si1976 quick_test/fbank/raw_fbank_train.1.ark:9998244
mpgr1_sx329 quick_test/fbank/raw_fbank_train.3.ark:11251521
mded0_si1800 quick_test/fbank/raw_fbank_train.2.ark:6694077
mjeb0_si656 quick_test/fbank/raw_fbank_train.3.ark:2607645
mcth0_sx39 quick_test/fbank/raw_fbank_train.2.ark:5787033
fskc0_sx336 quick_test/fbank/raw_fbank_train.2.ark:308440
mdsj0_si1462 quick_test/fbank/raw_fbank_train.2.ark:8896395
mdem0_sx158 quick_test/fbank/raw_fbank_train.2.ark:6928233
mbgt0_sx351 quick_test/fbank/raw_fbank_train.2.ark:3606734
fcjf0_sx217 quick_test/fbank/raw_fbank_train.1.ark:1689503
mtrt0_sx57 quick_test/fbank/raw_fbank_train.4.ark:9993007
mrab1_sx218 quick_test/fbank/raw_fbank_train.4.ark:714706
fmmh0_sx420 quick_test/fbank/raw_fbank_train.1.ark:9408629
fltm0_sx260 quick_test/fbank/raw_fbank_train.1.ark:8465374
mmws1_si2331 quick_test/fbank/raw_fbank_train.3.ark:10390120
flma0_sx73 quick_test/fbank/raw_fbank_train.1.ark:8123249
mdhl0_si2069 quick_test/fbank/raw_fbank_train.2.ark:7012832
mdbb1_si1636 quick_test/fbank/raw_fbank_train.2.ark:6213191
mtrc0_sx363 quick_test/fbank/raw_fbank_train.4.ark:9792805
fvmh0_si1466 quick_test/fbank/raw_fbank_train.2.ark:1927380
msdh0_sx440 quick_test/fbank/raw_fbank_train.4.ark:5739031
fceg0_si1878 quick_test/fbank/raw_fbank_train.1.ark:1575099
mrsp0_si799 quick_test/fbank/raw_fbank_train.4.ark:4548796
flag0_sx24 quick_test/fbank/raw_fbank_train.1.ark:7282901
mtdb0_si1401 quick_test/fbank/raw_fbank_train.4.ark:7761531
fpad0_sx86 quick_test/fbank/raw_fbank_train.1.ark:10082521
mprk0_sx197 quick_test/fbank/raw_fbank_train.4.ark:355279
mtwh1_sx162 quick_test/fbank/raw_fbank_train.4.ark:10035181
fmkf0_sx276 quick_test/fbank/raw_fbank_train.1.ark:9295893
mmab1_sx234 quick_test/fbank/raw_fbank_train.3.ark:8019144
msas0_sx206 quick_test/fbank/raw_fbank_train.4.ark:5369783
mrfl0_si526 quick_test/fbank/raw_fbank_train.4.ark:2166259
mlbc0_sx249 quick_test/fbank/raw_fbank_train.3.ark:7285449
mrdd0_si2310 quick_test/fbank/raw_fbank_train.4.ark:1392738
fgdp0_sx88 quick_test/fbank/raw_fbank_train.1.ark:4365218
mhrm0_sx238 quick_test/fbank/raw_fbank_train.3.ark:1420813
mrab0_si1854 quick_test/fbank/raw_fbank_train.4.ark:574822
mdpk0_sx423 quick_test/fbank/raw_fbank_train.2.ark:8671359
mtdp0_sx81 quick_test/fbank/raw_fbank_train.4.ark:7969268
fsgf0_sx27 quick_test/fbank/raw_fbank_train.1.ark:11675055
mkaj0_sx64 quick_test/fbank/raw_fbank_train.3.ark:5941555
mctm0_si1980 quick_test/fbank/raw_fbank_train.2.ark:5826294
mdsj0_sx438 quick_test/fbank/raw_fbank_train.2.ark:8980186
mcxm0_sx181 quick_test/fbank/raw_fbank_train.2.ark:5942865
mkdt0_sx443 quick_test/fbank/raw_fbank_train.3.ark:6334222
mrre0_sx164 quick_test/fbank/raw_fbank_train.4.ark:4332898
mjjm0_sx197 quick_test/fbank/raw_fbank_train.3.ark:3449743
mljc0_sx55 quick_test/fbank/raw_fbank_train.3.ark:7529757
fbjl0_sx22 quick_test/fbank/raw_fbank_train.1.ark:901294
mdss1_si1713 quick_test/fbank/raw_fbank_train.2.ark:9091199
mmdg0_sx250 quick_test/fbank/raw_fbank_train.3.ark:8752360
mdlc1_sx175 quick_test/fbank/raw_fbank_train.2.ark:7650210
fbjl0_si1552 quick_test/fbank/raw_fbank_train.1.ark:841289
mrlj1_sx231 quick_test/fbank/raw_fbank_train.4.ark:3461663
mstf0_si1396 quick_test/fbank/raw_fbank_train.4.ark:6928292
fjrp1_si1432 quick_test/fbank/raw_fbank_train.1.ark:5549974
mrxb0_sx415 quick_test/fbank/raw_fbank_train.4.ark:5200438
fklc1_si1048 quick_test/fbank/raw_fbank_train.1.ark:6819195
mwsh0_sx436 quick_test/fbank/raw_fbank_train.4.ark:11533378
mjee0_sx157 quick_test/fbank/raw_fbank_train.3.ark:2819728
msah1_sx329 quick_test/fbank/raw_fbank_train.4.ark:5273631
mdas0_sx6 quick_test/fbank/raw_fbank_train.2.ark:6175891
fsmm0_sx414 quick_test/fbank/raw_fbank_train.2.ark:823439
mjdg0_si1672 quick_test/fbank/raw_fbank_train.3.ark:2389601
mrjm1_sx38 quick_test/fbank/raw_fbank_train.4.ark:2985084
mdmt0_si2341 quick_test/fbank/raw_fbank_train.2.ark:8316679
mbth0_sx212 quick_test/fbank/raw_fbank_train.2.ark:4242235
mjdg0_sx232 quick_test/fbank/raw_fbank_train.3.ark:2427461
mtpg0_sx213 quick_test/fbank/raw_fbank_train.4.ark:9348480
fvfb0_sx402 quick_test/fbank/raw_fbank_train.2.ark:1808529
marc0_si1818 quick_test/fbank/raw_fbank_train.2.ark:2998412
mgaf0_sx202 quick_test/fbank/raw_fbank_train.2.ark:11015837
mdlc1_sx445 quick_test/fbank/raw_fbank_train.2.ark:7687909
fsjk1_si696 quick_test/fbank/raw_fbank_train.1.ark:11860367
mrwa0_si1603 quick_test/fbank/raw_fbank_train.4.ark:4941029
mdlr1_si1929 quick_test/fbank/raw_fbank_train.2.ark:8100748
mmxs0_sx336 quick_test/fbank/raw_fbank_train.3.ark:10500842
mdhs0_si1530 quick_test/fbank/raw_fbank_train.2.ark:7097743
fcag0_sx333 quick_test/fbank/raw_fbank_train.1.ark:1306116
fvmh0_sx296 quick_test/fbank/raw_fbank_train.2.ark:2002378
mntw0_sx348 quick_test/fbank/raw_fbank_train.3.ark:10709004
mkdt0_si2153 quick_test/fbank/raw_fbank_train.3.ark:6254184
mklr0_sx159 quick_test/fbank/raw_fbank_train.3.ark:6682224
mmdm1_sx153 quick_test/fbank/raw_fbank_train.3.ark:8928537
fjxm0_sx221 quick_test/fbank/raw_fbank_train.1.ark:6016487
fcrz0_sx343 quick_test/fbank/raw_fbank_train.1.ark:2259407
mrlj0_si1420 quick_test/fbank/raw_fbank_train.4.ark:3324584
fscn0_si1886 quick_test/fbank/raw_fbank_train.1.ark:11309495
mdac0_si1837 quick_test/fbank/raw_fbank_train.2.ark:6015024
mdks0_sx256 quick_test/fbank/raw_fbank_train.2.ark:7330367
mhit0_si2243 quick_test/fbank/raw_fbank_train.3.ark:1018333
mrgs0_sx366 quick_test/fbank/raw_fbank_train.4.ark:2437248
mmds0_si713 quick_test/fbank/raw_fbank_train.3.ark:9023809
mtqc0_sx91 quick_test/fbank/raw_fbank_train.4.ark:9711293
fjdm2_sx412 quick_test/fbank/raw_fbank_train.1.ark:4920795
fmkc0_sx82 quick_test/fbank/raw_fbank_train.1.ark:9229326
mtdb0_sx51 quick_test/fbank/raw_fbank_train.4.ark:7851322
mjsr0_si2054 quick_test/fbank/raw_fbank_train.3.ark:5022080
fmkf0_sx186 quick_test/fbank/raw_fbank_train.1.ark:9286380
mpmb0_sx331 quick_test/fbank/raw_fbank_train.3.ark:11393706
mrwa0_sx73 quick_test/fbank/raw_fbank_train.4.ark:5026220
mejl0_si1654 quick_test/fbank/raw_fbank_train.2.ark:9951382
fdaw0_si1406 quick_test/fbank/raw_fbank_train.1.ark:2521750
mbth0_sx392 quick_test/fbank/raw_fbank_train.2.ark:4279213
fblv0_sx428 quick_test/fbank/raw_fbank_train.1.ark:1023394
mrmg0_si1710 quick_test/fbank/raw_fbank_train.4.ark:3799944
mrai0_sx252 quick_test/fbank/raw_fbank_train.4.ark:822571
makb0_si1016 quick_test/fbank/raw_fbank_train.2.ark:2692862
mhit0_sx173 quick_test/fbank/raw_fbank_train.3.ark:1046079
fpaf0_sx334 quick_test/fbank/raw_fbank_train.1.ark:10160162
mdps0_sx449 quick_test/fbank/raw_fbank_train.2.ark:8760984
msmr0_si1150 quick_test/fbank/raw_fbank_train.4.ark:6539793
fsrh0_sx131 quick_test/fbank/raw_fbank_train.2.ark:1086455
mjrh0_sx405 quick_test/fbank/raw_fbank_train.3.ark:4705625
mrwa0_sx163 quick_test/fbank/raw_fbank_train.4.ark:4976929
mwrp0_sx183 quick_test/fbank/raw_fbank_train.4.ark:11299673
mrvg0_sx330 quick_test/fbank/raw_fbank_train.4.ark:4904090
mbcg0_sx417 quick_test/fbank/raw_fbank_train.2.ark:3436957
msjk0_sx246 quick_test/fbank/raw_fbank_train.4.ark:6386397
mhxl0_sx62 quick_test/fbank/raw_fbank_train.3.ark:1562575
ftbw0_sx175 quick_test/fbank/raw_fbank_train.2.ark:1476675
mbbr0_sx335 quick_test/fbank/raw_fbank_train.2.ark:3331620
mmeb0_sx187 quick_test/fbank/raw_fbank_train.3.ark:9201092
mdcd0_sx335 quick_test/fbank/raw_fbank_train.2.ark:6457734
fnkl0_si892 quick_test/fbank/raw_fbank_train.1.ark:9592858
medr0_si744 quick_test/fbank/raw_fbank_train.2.ark:9664184
fjlg0_sx269 quick_test/fbank/raw_fbank_train.1.ark:5299992
mzmb0_sx446 quick_test/fbank/raw_fbank_train.4.ark:11636003
madd0_si1295 quick_test/fbank/raw_fbank_train.2.ark:2210255
frll0_sx74 quick_test/fbank/raw_fbank_train.1.ark:10867520
mbth0_sx302 quick_test/fbank/raw_fbank_train.2.ark:4256108
fjhk0_si1652 quick_test/fbank/raw_fbank_train.1.ark:5071801
fsms1_sx64 quick_test/fbank/raw_fbank_train.2.ark:939296
mbwp0_si709 quick_test/fbank/raw_fbank_train.2.ark:4310114
flag0_sx294 quick_test/fbank/raw_fbank_train.1.ark:7294734
fljd0_sx346 quick_test/fbank/raw_fbank_train.1.ark:7781870
fceg0_sx168 quick_test/fbank/raw_fbank_train.1.ark:1590605
mcdd0_sx73 quick_test/fbank/raw_fbank_train.2.ark:4790696
mjmd0_si2288 quick_test/fbank/raw_fbank_train.3.ark:3979317
mdks0_sx436 quick_test/fbank/raw_fbank_train.2.ark:7359033
fetb0_sx158 quick_test/fbank/raw_fbank_train.1.ark:4001451
fsjw0_si703 quick_test/fbank/raw_fbank_train.2.ark:183676
fltm0_sx170 quick_test/fbank/raw_fbank_train.1.ark:8447421
fetb0_si1778 quick_test/fbank/raw_fbank_train.1.ark:3972865
mdrd0_sx122 quick_test/fbank/raw_fbank_train.2.ark:8828470
msdb0_sx17 quick_test/fbank/raw_fbank_train.4.ark:5631579
mjmm0_sx445 quick_test/fbank/raw_fbank_train.3.ark:4125514
msds0_sx267 quick_test/fbank/raw_fbank_train.4.ark:5824111
ftbw0_si1975 quick_test/fbank/raw_fbank_train.2.ark:1447209
fpac0_sx301 quick_test/fbank/raw_fbank_train.1.ark:9950431
mlns0_si2037 quick_test/fbank/raw_fbank_train.3.ark:7679730
mmwb0_si1619 quick_test/fbank/raw_fbank_train.3.ark:10141763
fkdw0_si1207 quick_test/fbank/raw_fbank_train.1.ark:6394295
mtjg0_sx440 quick_test/fbank/raw_fbank_train.4.ark:8159205
mdwm0_sx106 quick_test/fbank/raw_fbank_train.2.ark:9500606
mpsw0_sx437 quick_test/fbank/raw_fbank_train.4.ark:542042
fklc0_sx355 quick_test/fbank/raw_fbank_train.1.ark:6785416
fjdm2_sx232 quick_test/fbank/raw_fbank_train.1.ark:4892729
fhlm0_si1560 quick_test/fbank/raw_fbank_train.1.ark:4614663
mkaj0_sx334 quick_test/fbank/raw_fbank_train.3.ark:5923130
msah1_sx239 quick_test/fbank/raw_fbank_train.4.ark:5263158
mtkp0_si1023 quick_test/fbank/raw_fbank_train.4.ark:8599811
mwch0_sx272 quick_test/fbank/raw_fbank_train.4.ark:10810778
mrdd0_sx240 quick_test/fbank/raw_fbank_train.4.ark:1411364
mvjh0_si926 quick_test/fbank/raw_fbank_train.4.ark:10238199
mcxm0_sx361 quick_test/fbank/raw_fbank_train.2.ark:5968851
fgcs0_si2116 quick_test/fbank/raw_fbank_train.1.ark:4186596
mgak0_sx46 quick_test/fbank/raw_fbank_train.2.ark:11244145
mtmn0_sx434 quick_test/fbank/raw_fbank_train.4.ark:9085511
mdtb0_sx300 quick_test/fbank/raw_fbank_train.2.ark:9218756
fpaf0_sx244 quick_test/fbank/raw_fbank_train.1.ark:10145929
msmr0_sx235 quick_test/fbank/raw_fbank_train.4.ark:6594366
mfxs0_si2225 quick_test/fbank/raw_fbank_train.2.ark:10785646
mefg0_sx195 quick_test/fbank/raw_fbank_train.2.ark:9795185
mcpm0_sx384 quick_test/fbank/raw_fbank_train.2.ark:5504192
mjai0_si1604 quick_test/fbank/raw_fbank_train.3.ark:1869682
mkah0_si898 quick_test/fbank/raw_fbank_train.3.ark:5788206
falk0_si658 quick_test/fbank/raw_fbank_train.1.ark:232687
fjlg0_si1506 quick_test/fbank/raw_fbank_train.1.ark:5253818
fkdw0_si577 quick_test/fbank/raw_fbank_train.1.ark:6433882
mrtj0_si2032 quick_test/fbank/raw_fbank_train.4.ark:4743133
mjac0_sx251 quick_test/fbank/raw_fbank_train.3.ark:1702131
mejs0_si1870 quick_test/fbank/raw_fbank_train.2.ark:10045887
faem0_sx222 quick_test/fbank/raw_fbank_train.1.ark:51746
mrws0_sx22 quick_test/fbank/raw_fbank_train.4.ark:5089259
mrem0_si1591 quick_test/fbank/raw_fbank_train.4.ark:1859037
mmcc0_sx78 quick_test/fbank/raw_fbank_train.3.ark:8598448
mrdm0_sx245 quick_test/fbank/raw_fbank_train.4.ark:1510909
mklr0_sx429 quick_test/fbank/raw_fbank_train.3.ark:6715723
mfer0_sx412 quick_test/fbank/raw_fbank_train.2.ark:10459630
fmjf0_sx174 quick_test/fbank/raw_fbank_train.1.ark:8965344
mbom0_sx384 quick_test/fbank/raw_fbank_train.2.ark:4104566
mdss1_si697 quick_test/fbank/raw_fbank_train.2.ark:9097512
mrmb0_sx51 quick_test/fbank/raw_fbank_train.4.ark:3777156
fhlm0_sx390 quick_test/fbank/raw_fbank_train.1.ark:4704135
mbwp0_sx439 quick_test/fbank/raw_fbank_train.2.ark:4367846
mjws0_sx153 quick_test/fbank/raw_fbank_train.3.ark:5279875
fmah1_sx429 quick_test/fbank/raw_fbank_train.1.ark:8595705
mjmd0_sx218 quick_test/fbank/raw_fbank_train.3.ark:4006943
mdpb0_sx236 quick_test/fbank/raw_fbank_train.2.ark:8560908
mrlj1_sx411 quick_test/fbank/raw_fbank_train.4.ark:3480329
mdhs0_sx180 quick_test/fbank/raw_fbank_train.2.ark:7135763
mfwk0_si1249 quick_test/fbank/raw_fbank_train.2.ark:10679387
majp0_sx264 quick_test/fbank/raw_fbank_train.2.ark:2638810
mmws0_si1518 quick_test/fbank/raw_fbank_train.3.ark:10270828
mjde0_si490 quick_test/fbank/raw_fbank_train.3.ark:2279569
fclt0_si808 quick_test/fbank/raw_fbank_train.1.ark:1920912
mjlb0_sx446 quick_test/fbank/raw_fbank_train.3.ark:3658907
mmds0_sx443 quick_test/fbank/raw_fbank_train.3.ark:9062901
mfrm0_si1717 quick_test/fbank/raw_fbank_train.2.ark:10600395
mrjh0_sx307 quick_test/fbank/raw_fbank_train.4.ark:2768801
mjeb1_sx207 quick_test/fbank/raw_fbank_train.3.ark:2743016
fsjk1_sx125 quick_test/fbank/raw_fbank_train.1.ark:11874760
mmvp0_sx204 quick_test/fbank/raw_fbank_train.3.ark:10085950
mter0_sx17 quick_test/fbank/raw_fbank_train.4.ark:8038474
fklc0_si1615 quick_test/fbank/raw_fbank_train.1.ark:6715130
mpmb0_si1501 quick_test/fbank/raw_fbank_train.3.ark:11286660
mjde0_sx220 quick_test/fbank/raw_fbank_train.3.ark:2313875
mbma1_sx234 quick_test/fbank/raw_fbank_train.2.ark:3880176
fskl0_sx89 quick_test/fbank/raw_fbank_train.2.ark:434970
fjrb0_sx132 quick_test/fbank/raw_fbank_train.1.ark:5482809
mmaa0_si1588 quick_test/fbank/raw_fbank_train.3.ark:7864866
mfxs0_sx234 quick_test/fbank/raw_fbank_train.2.ark:10813826
mmaa0_sx305 quick_test/fbank/raw_fbank_train.3.ark:7937112
mmws1_sx81 quick_test/fbank/raw_fbank_train.3.ark:10436083
madc0_sx197 quick_test/fbank/raw_fbank_train.2.ark:2174275
fpls0_sx330 quick_test/fbank/raw_fbank_train.1.ark:10462588
mkaj0_sx244 quick_test/fbank/raw_fbank_train.3.ark:5910577
mjjj0_sx173 quick_test/fbank/raw_fbank_train.3.ark:3320733
mpgh0_si675 quick_test/fbank/raw_fbank_train.3.ark:11028698
mdbb1_sx376 quick_test/fbank/raw_fbank_train.2.ark:6277629
fcmm0_sx93 quick_test/fbank/raw_fbank_train.1.ark:2192847
fpab1_si841 quick_test/fbank/raw_fbank_train.1.ark:9796187
mddc0_sx159 quick_test/fbank/raw_fbank_train.2.ark:6628478
mmgg0_sx269 quick_test/fbank/raw_fbank_train.3.ark:9398775
mjrg0_sx16 quick_test/fbank/raw_fbank_train.3.ark:4576732
mdpb0_sx56 quick_test/fbank/raw_fbank_train.2.ark:8593446
fnkl0_sx172 quick_test/fbank/raw_fbank_train.1.ark:9611891
mkls0_sx177 quick_test/fbank/raw_fbank_train.3.ark:6784850
ftbw0_si715 quick_test/fbank/raw_fbank_train.2.ark:1458042
mfxv0_si1635 quick_test/fbank/raw_fbank_train.2.ark:10905066
fkkh0_si660 quick_test/fbank/raw_fbank_train.1.ark:6647932
fdxw0_si881 quick_test/fbank/raw_fbank_train.1.ark:3357988
marc0_si1188 quick_test/fbank/raw_fbank_train.2.ark:2992418
mwem0_sx150 quick_test/fbank/raw_fbank_train.4.ark:10987276
mkdb0_si2132 quick_test/fbank/raw_fbank_train.3.ark:6056135
mtat0_si1740 quick_test/fbank/raw_fbank_train.4.ark:7372305
fcaj0_sx309 quick_test/fbank/raw_fbank_train.1.ark:1399221
mjee0_sx337 quick_test/fbank/raw_fbank_train.3.ark:2844674
mkls0_si1437 quick_test/fbank/raw_fbank_train.3.ark:6736749
mdcm0_sx130 quick_test/fbank/raw_fbank_train.2.ark:6533693
mafm0_sx129 quick_test/fbank/raw_fbank_train.2.ark:2526391
fpmy0_sx73 quick_test/fbank/raw_fbank_train.1.ark:10589165
mjae0_si1999 quick_test/fbank/raw_fbank_train.3.ark:1778010
mrem0_sx151 quick_test/fbank/raw_fbank_train.4.ark:1898736
fbmh0_sx416 quick_test/fbank/raw_fbank_train.1.ark:1123899
mjwg0_si2155 quick_test/fbank/raw_fbank_train.3.ark:5131071
mmcc0_sx168 quick_test/fbank/raw_fbank_train.3.ark:8550157
mrsp0_sx439 quick_test/fbank/raw_fbank_train.4.ark:4594248
fdas1_si2091 quick_test/fbank/raw_fbank_train.1.ark:2418765
mpar0_si1576 quick_test/fbank/raw_fbank_train.3.ark:10734870
mbar0_sx59 quick_test/fbank/raw_fbank_train.2.ark:3265099
mtpr0_si2230 quick_test/fbank/raw_fbank_train.4.ark:9494351
mapv0_sx303 quick_test/fbank/raw_fbank_train.2.ark:2961759
mjwg0_sx175 quick_test/fbank/raw_fbank_train.3.ark:5184850
mmab1_sx414 quick_test/fbank/raw_fbank_train.3.ark:8049290
fpad0_sx176 quick_test/fbank/raw_fbank_train.1.ark:10027750
mmsm0_sx386 quick_test/fbank/raw_fbank_train.3.ark:10010583
mgaw0_sx265 quick_test/fbank/raw_fbank_train.3.ark:155652
mjwt0_si1291 quick_test/fbank/raw_fbank_train.3.ark:5353040
fjwb1_sx435 quick_test/fbank/raw_fbank_train.1.ark:5946968
fdxw0_sx251 quick_test/fbank/raw_fbank_train.1.ark:3386774
mbth0_sx122 quick_test/fbank/raw_fbank_train.2.ark:4227522
mrlk0_sx123 quick_test/fbank/raw_fbank_train.4.ark:3549415
fmbg0_sx3 quick_test/fbank/raw_fbank_train.1.ark:8670583
flac0_sx91 quick_test/fbank/raw_fbank_train.1.ark:7197662
mgsh0_sx127 quick_test/fbank/raw_fbank_train.3.ark:641945
fmmh0_si907 quick_test/fbank/raw_fbank_train.1.ark:9374930
mbjv0_si617 quick_test/fbank/raw_fbank_train.2.ark:3666620
fvkb0_sx79 quick_test/fbank/raw_fbank_train.2.ark:1915986
milb0_sx93 quick_test/fbank/raw_fbank_train.3.ark:1656117
mvjh0_sx206 quick_test/fbank/raw_fbank_train.4.ark:10258945
mklr0_si1689 quick_test/fbank/raw_fbank_train.3.ark:6666317
mnet0_si2076 quick_test/fbank/raw_fbank_train.3.ark:10556415
mjbg0_si1724 quick_test/fbank/raw_fbank_train.3.ark:1980860
mjeb1_sx27 quick_test/fbank/raw_fbank_train.3.ark:2752568
mjac0_sx431 quick_test/fbank/raw_fbank_train.3.ark:1740470
fsdj0_sx125 quick_test/fbank/raw_fbank_train.1.ark:11556085
mwdk0_sx176 quick_test/fbank/raw_fbank_train.4.ark:10896090
mfrm0_sx345 quick_test/fbank/raw_fbank_train.2.ark:10644408
mklr0_si1059 quick_test/fbank/raw_fbank_train.3.ark:6650243
mtat0_sx120 quick_test/fbank/raw_fbank_train.4.ark:7401811
fnkl0_sx82 quick_test/fbank/raw_fbank_train.1.ark:9656382
mbcg0_sx327 quick_test/fbank/raw_fbank_train.2.ark:3419204
msmc0_si509 quick_test/fbank/raw_fbank_train.4.ark:6449402
mwrp0_si1525 quick_test/fbank/raw_fbank_train.4.ark:11273686
fexm0_si1731 quick_test/fbank/raw_fbank_train.1.ark:4072290
mefg0_si598 quick_test/fbank/raw_fbank_train.2.ark:9754887
mjfh0_si477 quick_test/fbank/raw_fbank_train.3.ark:2905800
msat1_sx353 quick_test/fbank/raw_fbank_train.4.ark:5556787
mmag0_sx316 quick_test/fbank/raw_fbank_train.3.ark:8149962
mhrm0_si958 quick_test/fbank/raw_fbank_train.3.ark:1396947
fbcg1_sx262 quick_test/fbank/raw_fbank_train.1.ark:678173
fpaf0_sx424 quick_test/fbank/raw_fbank_train.1.ark:10171995
fbmj0_sx156 quick_test/fbank/raw_fbank_train.1.ark:1189104
mprb0_sx215 quick_test/fbank/raw_fbank_train.4.ark:111357
fjwb1_si748 quick_test/fbank/raw_fbank_train.1.ark:5886963
mwrp0_sx93 quick_test/fbank/raw_fbank_train.4.ark:11343842
mgrl0_sx147 quick_test/fbank/raw_fbank_train.3.ark:424615
mrmg0_sx180 quick_test/fbank/raw_fbank_train.4.ark:3825691
marc0_sx108 quick_test/fbank/raw_fbank_train.2.ark:3021398
mgsh0_si1806 quick_test/fbank/raw_fbank_train.3.ark:611999
mjhi0_si555 quick_test/fbank/raw_fbank_train.3.ark:3092336
mtwh1_sx432 quick_test/fbank/raw_fbank_train.4.ark:10067600
mreh1_sx429 quick_test/fbank/raw_fbank_train.4.ark:1831531
mdpk0_sx63 quick_test/fbank/raw_fbank_train.2.ark:8684191
mmrp0_si774 quick_test/fbank/raw_fbank_train.3.ark:9829554
mgrp0_si1947 quick_test/fbank/raw_fbank_train.3.ark:500414
fmpg0_sx252 quick_test/fbank/raw_fbank_train.1.ark:9511659
mkln0_si968 quick_test/fbank/raw_fbank_train.3.ark:6578405
mbjv0_si1877 quick_test/fbank/raw_fbank_train.2.ark:3657267
feeh0_si1742 quick_test/fbank/raw_fbank_train.1.ark:3766015
mcef0_sx235 quick_test/fbank/raw_fbank_train.2.ark:4963168
mbef0_si651 quick_test/fbank/raw_fbank_train.2.ark:3481650
mtpp0_sx428 quick_test/fbank/raw_fbank_train.4.ark:9457771
fsms1_sx347 quick_test/fbank/raw_fbank_train.2.ark:923104
mtdb0_si771 quick_test/fbank/raw_fbank_train.4.ark:7786958
fgdp0_si1618 quick_test/fbank/raw_fbank_train.1.ark:4267507
mrkm0_sx277 quick_test/fbank/raw_fbank_train.4.ark:3183949
msat0_sx176 quick_test/fbank/raw_fbank_train.4.ark:5446495
mwac0_si2231 quick_test/fbank/raw_fbank_train.4.ark:10499561
mkag0_si979 quick_test/fbank/raw_fbank_train.3.ark:5686222
mjxl0_sx92 quick_test/fbank/raw_fbank_train.3.ark:5647801
mbml0_si539 quick_test/fbank/raw_fbank_train.2.ark:3957455
fbmh0_sx56 quick_test/fbank/raw_fbank_train.1.ark:1134211
msdb0_si1637 quick_test/fbank/raw_fbank_train.4.ark:5606680
mjra0_si1236 quick_test/fbank/raw_fbank_train.3.ark:4430535
mcal0_sx328 quick_test/fbank/raw_fbank_train.2.ark:4574901
mdlr1_si1299 quick_test/fbank/raw_fbank_train.2.ark:8088394
mmbs0_sx71 quick_test/fbank/raw_fbank_train.3.ark:8497263
maeo0_sx156 quick_test/fbank/raw_fbank_train.2.ark:2440486
fkaa0_sx218 quick_test/fbank/raw_fbank_train.1.ark:6224017
mkls0_si2067 quick_test/fbank/raw_fbank_train.3.ark:6767537
mpfu0_si1258 quick_test/fbank/raw_fbank_train.3.ark:10909360
mjwt0_sx391 quick_test/fbank/raw_fbank_train.3.ark:5453591
mtju0_sx400 quick_test/fbank/raw_fbank_train.4.ark:8479312
mdrd0_si2012 quick_test/fbank/raw_fbank_train.2.ark:8794964
mges0_si2111 quick_test/fbank/raw_fbank_train.3.ark:198938
mmdg0_si520 quick_test/fbank/raw_fbank_train.3.ark:8722894
mmeb0_si1357 quick_test/fbank/raw_fbank_train.3.ark:9167672
msds0_si1077 quick_test/fbank/raw_fbank_train.4.ark:5763057
mdlr1_sx129 quick_test/fbank/raw_fbank_train.2.ark:8130814
msjk0_sx336 quick_test/fbank/raw_fbank_train.4.ark:6397470
mmeb0_sx327 quick_test/fbank/raw_fbank_train.3.ark:9208565
mtqc0_si2071 quick_test/fbank/raw_fbank_train.4.ark:9621696
mbma0_sx322 quick_test/fbank/raw_fbank_train.2.ark:3796224
mbgt0_si1841 quick_test/fbank/raw_fbank_train.2.ark:3546402
mpsw0_sx257 quick_test/fbank/raw_fbank_train.4.ark:533609
fcrz0_sx253 quick_test/fbank/raw_fbank_train.1.ark:2250894
flet0_sx237 quick_test/fbank/raw_fbank_train.1.ark:7477560
mtas0_sx395 quick_test/fbank/raw_fbank_train.4.ark:7342677
mjma0_si1495 quick_test/fbank/raw_fbank_train.3.ark:3872544
mmdg0_sx430 quick_test/fbank/raw_fbank_train.3.ark:8780586
flma0_si1873 quick_test/fbank/raw_fbank_train.1.ark:8053772
mrld0_sx154 quick_test/fbank/raw_fbank_train.4.ark:3276579
fhxs0_sx175 quick_test/fbank/raw_fbank_train.1.ark:4775550
mrfl0_sx436 quick_test/fbank/raw_fbank_train.4.ark:2227351
mlsh0_si787 quick_test/fbank/raw_fbank_train.3.ark:7789148
fklh0_sx267 quick_test/fbank/raw_fbank_train.1.ark:6966274
fajw0_sx273 quick_test/fbank/raw_fbank_train.1.ark:163691
mmaa0_si2105 quick_test/fbank/raw_fbank_train.3.ark:7883980
fcmm0_si453 quick_test/fbank/raw_fbank_train.1.ark:2135483
mrws0_si472 quick_test/fbank/raw_fbank_train.4.ark:5060801
flma0_sx433 quick_test/fbank/raw_fbank_train.1.ark:8109777
mtdp0_sx261 quick_test/fbank/raw_fbank_train.4.ark:7923250
mdma0_si1238 quick_test/fbank/raw_fbank_train.2.ark:8193699
mtcs0_si712 quick_test/fbank/raw_fbank_train.4.ark:7676613
mpeb0_si600 quick_test/fbank/raw_fbank_train.3.ark:10832482
mmlm0_si1527 quick_test/fbank/raw_fbank_train.3.ark:9629077
mree0_sx294 quick_test/fbank/raw_fbank_train.4.ark:1724145
fjhk0_sx122 quick_test/fbank/raw_fbank_train.1.ark:5098188
megj0_sx167 quick_test/fbank/raw_fbank_train.2.ark:9876945
mgjc0_sx165 quick_test/fbank/raw_fbank_train.3.ark:315070
mrmg0_sx360 quick_test/fbank/raw_fbank_train.4.ark:3848557
mgjc0_si1965 quick_test/fbank/raw_fbank_train.3.ark:301757
mkrg0_sx141 quick_test/fbank/raw_fbank_train.3.ark:7092326
mjxa0_sx427 quick_test/fbank/raw_fbank_train.3.ark:5535104
fcjs0_si2237 quick_test/fbank/raw_fbank_train.1.ark:1729509
mprd0_sx261 quick_test/fbank/raw_fbank_train.4.ark:229422
mrws0_si1732 quick_test/fbank/raw_fbank_train.4.ark:5053648
mmgc0_si1305 quick_test/fbank/raw_fbank_train.3.ark:9258055
mmws1_si1701 quick_test/fbank/raw_fbank_train.3.ark:10380086
mjpm1_si1897 quick_test/fbank/raw_fbank_train.3.ark:4332310
mjde0_si463 quick_test/fbank/raw_fbank_train.3.ark:2270936
mkag0_si1609 quick_test/fbank/raw_fbank_train.3.ark:5659915
fcmg0_si1142 quick_test/fbank/raw_fbank_train.1.ark:2000270
mtkp0_sx303 quick_test/fbank/raw_fbank_train.4.ark:8673937
mkam0_si1250 quick_test/fbank/raw_fbank_train.3.ark:5950269
mkjo0_sx167 quick_test/fbank/raw_fbank_train.3.ark:6498213
mjac0_si701 quick_test/fbank/raw_fbank_train.3.ark:1684098
mrgs0_si1356 quick_test/fbank/raw_fbank_train.4.ark:2371122
mklw0_sx311 quick_test/fbank/raw_fbank_train.3.ark:6998967
fmmh0_sx187 quick_test/fbank/raw_fbank_train.1.ark:9388123
msms0_sx263 quick_test/fbank/raw_fbank_train.4.ark:6693111
fpab1_sx301 quick_test/fbank/raw_fbank_train.1.ark:9843926
mkaj0_si2044 quick_test/fbank/raw_fbank_train.3.ark:5874518
mprb0_sx125 quick_test/fbank/raw_fbank_train.4.ark:100044
fajw0_si633 quick_test/fbank/raw_fbank_train.1.ark:131585
fkkh0_sx120 quick_test/fbank/raw_fbank_train.1.ark:6659245
ftmg0_sx92 quick_test/fbank/raw_fbank_train.2.ark:1726095
mhbs0_sx405 quick_test/fbank/raw_fbank_train.3.ark:986353
mtat1_si779 quick_test/fbank/raw_fbank_train.4.ark:7472203
mgak0_sx316 quick_test/fbank/raw_fbank_train.2.ark:11216160
fmbg0_si1790 quick_test/fbank/raw_fbank_train.1.ark:8639885
mdem0_sx428 quick_test/fbank/raw_fbank_train.2.ark:6968132
mrjm1_sx218 quick_test/fbank/raw_fbank_train.4.ark:2959139
mjpg0_sx381 quick_test/fbank/raw_fbank_train.3.ark:4219731
mjeb1_sx387 quick_test/fbank/raw_fbank_train.3.ark:2771554
fkaa0_si1838 quick_test/fbank/raw_fbank_train.1.ark:6187038
mtmt0_si1118 quick_test/fbank/raw_fbank_train.4.ark:9107617
ftbr0_si1402 quick_test/fbank/raw_fbank_train.2.ark:1340710
mmgk0_sx332 quick_test/fbank/raw_fbank_train.3.ark:9493513
fmah1_si1509 quick_test/fbank/raw_fbank_train.1.ark:8523346
mrfl0_sx76 quick_test/fbank/raw_fbank_train.4.ark:2236703
mkls0_sx447 quick_test/fbank/raw_fbank_train.3.ark:6823589
mgak0_sx136 quick_test/fbank/raw_fbank_train.2.ark:11183294
mbsb0_sx273 quick_test/fbank/raw_fbank_train.2.ark:4156493
mrab0_sx324 quick_test/fbank/raw_fbank_train.4.ark:622554
fsls0_sx246 quick_test/fbank/raw_fbank_train.2.ark:603996
mgak0_sx406 quick_test/fbank/raw_fbank_train.2.ark:11227873
mjee0_si1867 quick_test/fbank/raw_fbank_train.3.ark:2799502
mprb0_si1215 quick_test/fbank/raw_fbank_train.4.ark:59058
msds0_sx357 quick_test/fbank/raw_fbank_train.4.ark:5841344
msrr0_si1131 quick_test/fbank/raw_fbank_train.4.ark:6828548
flhd0_sx264 quick_test/fbank/raw_fbank_train.1.ark:7562786
fnkl0_sx442 quick_test/fbank/raw_fbank_train.1.ark:9643430
mtrc0_sx183 quick_test/fbank/raw_fbank_train.4.ark:9775379
mddc0_sx69 quick_test/fbank/raw_fbank_train.2.ark:6670689
mjpm0_si738 quick_test/fbank/raw_fbank_train.3.ark:4261352
mdlh0_si1960 quick_test/fbank/raw_fbank_train.2.ark:7791800
fexm0_si1101 quick_test/fbank/raw_fbank_train.1.ark:4059536
fdxw0_si2141 quick_test/fbank/raw_fbank_train.1.ark:3352235
mrwa0_sx343 quick_test/fbank/raw_fbank_train.4.ark:4997035
mabc0_sx151 quick_test/fbank/raw_fbank_train.2.ark:2052705
fcyl0_sx397 quick_test/fbank/raw_fbank_train.1.ark:2385857
mrjb1_sx300 quick_test/fbank/raw_fbank_train.4.ark:2663449
mtat0_sx390 quick_test/fbank/raw_fbank_train.4.ark:7440542
fcdr1_si1186 quick_test/fbank/raw_fbank_train.1.ark:1433240
mjdg0_sx322 quick_test/fbank/raw_fbank_train.3.ark:2441334
mrsp0_sx196 quick_test/fbank/raw_fbank_train.4.ark:4574782
flma0_sx343 quick_test/fbank/raw_fbank_train.1.ark:8098824
fbch0_sx56 quick_test/fbank/raw_fbank_train.1.ark:828855
mmws0_si559 quick_test/fbank/raw_fbank_train.3.ark:10283741
mmjb1_sx238 quick_test/fbank/raw_fbank_train.3.ark:9572745
mbsb0_si1983 quick_test/fbank/raw_fbank_train.2.ark:4127834
freh0_sx55 quick_test/fbank/raw_fbank_train.1.ark:10678870
fexm0_sx381 quick_test/fbank/raw_fbank_train.1.ark:4164928
fksr0_si487 quick_test/fbank/raw_fbank_train.1.ark:7041473
majp0_si1074 quick_test/fbank/raw_fbank_train.2.ark:2580956
fbch0_si1586 quick_test/fbank/raw_fbank_train.1.ark:731665
mjwt0_sx121 quick_test/fbank/raw_fbank_train.3.ark:5403660
fdfb0_si1948 quick_test/fbank/raw_fbank_train.1.ark:2623816
msem1_si1440 quick_test/fbank/raw_fbank_train.4.ark:5882843
fmah1_sx339 quick_test/fbank/raw_fbank_train.1.ark:8585032
flet0_si1137 quick_test/fbank/raw_fbank_train.1.ark:7421587
fskl0_sx269 quick_test/fbank/raw_fbank_train.2.ark:399472
fmjb0_si1807 quick_test/fbank/raw_fbank_train.1.ark:8847335
fjsp0_sx354 quick_test/fbank/raw_fbank_train.1.ark:5839591
msvs0_si938 quick_test/fbank/raw_fbank_train.4.ark:7066783
flag0_sx114 quick_test/fbank/raw_fbank_train.1.ark:7256596
mlbc0_sx339 quick_test/fbank/raw_fbank_train.3.ark:7295282
mtpp0_si2138 quick_test/fbank/raw_fbank_train.4.ark:9405806
fjlr0_si1861 quick_test/fbank/raw_fbank_train.1.ark:5369398
fskc0_si1416 quick_test/fbank/raw_fbank_train.2.ark:256514
mmsm0_sx116 quick_test/fbank/raw_fbank_train.3.ark:9965492
msdh0_sx80 quick_test/fbank/raw_fbank_train.4.ark:5754143
mtpr0_sx250 quick_test/fbank/raw_fbank_train.4.ark:9539690
mjra0_sx66 quick_test/fbank/raw_fbank_train.3.ark:4519406
fmbg0_si2264 quick_test/fbank/raw_fbank_train.1.ark:8649479
mdlb0_sx406 quick_test/fbank/raw_fbank_train.2.ark:7474218
fjrp1_sx262 quick_test/fbank/raw_fbank_train.1.ark:5610187
fvfb0_si1510 quick_test/fbank/raw_fbank_train.2.ark:1748723
mmgg0_sx359 quick_test/fbank/raw_fbank_train.3.ark:9407528
fjsk0_si1682 quick_test/fbank/raw_fbank_train.1.ark:5695913
mjwg0_sx85 quick_test/fbank/raw_fbank_train.3.ark:5235941
fklh0_sx177 quick_test/fbank/raw_fbank_train.1.ark:6958081
fear0_sx442 quick_test/fbank/raw_fbank_train.1.ark:3608410
msdh0_si2240 quick_test/fbank/raw_fbank_train.4.ark:5668386
mjma0_sx415 quick_test/fbank/raw_fbank_train.3.ark:3944903
mvjh0_si1556 quick_test/fbank/raw_fbank_train.4.ark:10205492
meal0_sx347 quick_test/fbank/raw_fbank_train.2.ark:9614210
mcpm0_sx24 quick_test/fbank/raw_fbank_train.2.ark:5486446
mnet0_si1446 quick_test/fbank/raw_fbank_train.3.ark:10540661
mkdt0_si814 quick_test/fbank/raw_fbank_train.3.ark:6264537
msfh0_si1216 quick_test/fbank/raw_fbank_train.4.ark:6099454
mjws0_sx423 quick_test/fbank/raw_fbank_train.3.ark:5326254
mgak0_si2296 quick_test/fbank/raw_fbank_train.2.ark:11173381
mreh1_sx339 quick_test/fbank/raw_fbank_train.4.ark:1819218
mmea0_si1388 quick_test/fbank/raw_fbank_train.3.ark:9082167
fbcg1_sx442 quick_test/fbank/raw_fbank_train.1.ark:706439
mdma0_sx170 quick_test/fbank/raw_fbank_train.2.ark:8229120
mtpp0_si878 quick_test/fbank/raw_fbank_train.4.ark:9414159
mefg0_sx15 quick_test/fbank/raw_fbank_train.2.ark:9783592
fsms1_sx154 quick_test/fbank/raw_fbank_train.2.ark:888925
fpjf0_sx56 quick_test/fbank/raw_fbank_train.1.ark:10384317
mddc0_sx429 quick_test/fbank/raw_fbank_train.2.ark:6659777
mtju0_si2020 quick_test/fbank/raw_fbank_train.4.ark:8397241
fsma0_si991 quick_test/fbank/raw_fbank_train.2.ark:659122
mkag0_sx259 quick_test/fbank/raw_fbank_train.3.ark:5717448
fgcs0_si1486 quick_test/fbank/raw_fbank_train.1.ark:4175922
fsjs0_si541 quick_test/fbank/raw_fbank_train.2.ark:67611
mdpb0_si2126 quick_test/fbank/raw_fbank_train.2.ark:8518209
fjlr0_sx151 quick_test/fbank/raw_fbank_train.1.ark:5387944
mvrw0_sx45 quick_test/fbank/raw_fbank_train.4.ark:10471173
mcdd0_si1513 quick_test/fbank/raw_fbank_train.2.ark:4713665
mjae0_sx84 quick_test/fbank/raw_fbank_train.3.ark:1851648
mrgm0_sx82 quick_test/fbank/raw_fbank_train.4.ark:2359168
fbmj0_sx336 quick_test/fbank/raw_fbank_train.1.ark:1213170
mtrc0_si1623 quick_test/fbank/raw_fbank_train.4.ark:9725647
mkls1_sx285 quick_test/fbank/raw_fbank_train.3.ark:6917253
flkm0_sx350 quick_test/fbank/raw_fbank_train.1.ark:7999999
mtat1_sx59 quick_test/fbank/raw_fbank_train.4.ark:7556167
mkls1_sx105 quick_test/fbank/raw_fbank_train.3.ark:6886315
fleh0_sx61 quick_test/fbank/raw_fbank_train.1.ark:7408233
fpab1_sx211 quick_test/fbank/raw_fbank_train.1.ark:9830373
fjxm0_sx41 quick_test/fbank/raw_fbank_train.1.ark:6062465
fcaj0_sx39 quick_test/fbank/raw_fbank_train.1.ark:1412253
mrjh0_sx169 quick_test/fbank/raw_fbank_train.4.ark:2736135
mjde0_si1120 quick_test/fbank/raw_fbank_train.3.ark:2245663
mmpm0_sx251 quick_test/fbank/raw_fbank_train.3.ark:9762236
mkjo0_sx77 quick_test/fbank/raw_fbank_train.3.ark:6545344
fsjs0_sx271 quick_test/fbank/raw_fbank_train.2.ark:99277
fajw0_sx183 quick_test/fbank/raw_fbank_train.1.ark:151578
mmlm0_si897 quick_test/fbank/raw_fbank_train.3.ark:9651504
mvlo0_si1147 quick_test/fbank/raw_fbank_train.4.ark:10299517
fkde0_si1141 quick_test/fbank/raw_fbank_train.1.ark:6283389
mrms0_sx30 quick_test/fbank/raw_fbank_train.4.ark:4167353
mjeb0_sx386 quick_test/fbank/raw_fbank_train.3.ark:2669529
mhxl0_sx332 quick_test/fbank/raw_fbank_train.3.ark:1532390
mmsm0_si1736 quick_test/fbank/raw_fbank_train.3.ark:9936746
mtml0_sx75 quick_test/fbank/raw_fbank_train.4.ark:8988198
mrav0_sx378 quick_test/fbank/raw_fbank_train.4.ark:1047601
mlbc0_si1869 quick_test/fbank/raw_fbank_train.3.ark:7249590
mcth0_sx309 quick_test/fbank/raw_fbank_train.2.ark:5774081
mrem0_sx421 quick_test/fbank/raw_fbank_train.4.ark:1933675
msrg0_sx51 quick_test/fbank/raw_fbank_train.4.ark:6818954
mkaj0_sx424 quick_test/fbank/raw_fbank_train.3.ark:5931403
mdns0_si2271 quick_test/fbank/raw_fbank_train.2.ark:8422344
mjeb0_sx170 quick_test/fbank/raw_fbank_train.3.ark:2617558
mrab1_sx308 quick_test/fbank/raw_fbank_train.4.ark:727059
fblv0_si1058 quick_test/fbank/raw_fbank_train.1.ark:941034
mejs0_sx340 quick_test/fbank/raw_fbank_train.2.ark:10094539
mdlc2_sx264 quick_test/fbank/raw_fbank_train.2.ark:7748588
mdmt0_si572 quick_test/fbank/raw_fbank_train.2.ark:8323032
mzmb0_si1796 quick_test/fbank/raw_fbank_train.4.ark:11574518
mjdg0_sx142 quick_test/fbank/raw_fbank_train.3.ark:2414628
mdlh0_sx430 quick_test/fbank/raw_fbank_train.2.ark:7874398
marc0_sx378 quick_test/fbank/raw_fbank_train.2.ark:3061329
msdb0_sx377 quick_test/fbank/raw_fbank_train.4.ark:5653638
mwem0_sx420 quick_test/fbank/raw_fbank_train.4.ark:11025415
mjmd0_sx308 quick_test/fbank/raw_fbank_train.3.ark:4017416
mrjm1_sx128 quick_test/fbank/raw_fbank_train.4.ark:2949586
mtpr0_si1600 quick_test/fbank/raw_fbank_train.4.ark:9481037
mtjm0_sx416 quick_test/fbank/raw_fbank_train.4.ark:8258950
mmpm0_sx341 quick_test/fbank/raw_fbank_train.3.ark:9776789
falr0_si695 quick_test/fbank/raw_fbank_train.1.ark:334750
mwsh0_sx256 quick_test/fbank/raw_fbank_train.4.ark:11505192
fmkc0_si1702 quick_test/fbank/raw_fbank_train.1.ark:9166682
mzmb0_sx356 quick_test/fbank/raw_fbank_train.4.ark:11622890
fdtd0_sx211 quick_test/fbank/raw_fbank_train.1.ark:3286828
mdem0_sx338 quick_test/fbank/raw_fbank_train.2.ark:6953539
fpls0_si960 quick_test/fbank/raw_fbank_train.1.ark:10416818
fbmj0_sx426 quick_test/fbank/raw_fbank_train.1.ark:1232523
fbmj0_si1776 quick_test/fbank/raw_fbank_train.1.ark:1145565
mvrw0_si855 quick_test/fbank/raw_fbank_train.4.ark:10421329
mrjm1_si1298 quick_test/fbank/raw_fbank_train.4.ark:2909966
fcjs0_si1607 quick_test/fbank/raw_fbank_train.1.ark:1722195
mkes0_sx443 quick_test/fbank/raw_fbank_train.3.ark:6443727
mlel0_si616 quick_test/fbank/raw_fbank_train.3.ark:7351608
makr0_sx272 quick_test/fbank/raw_fbank_train.2.ark:2847021
mclm0_si1456 quick_test/fbank/raw_fbank_train.2.ark:5334976
mmdb0_sx447 quick_test/fbank/raw_fbank_train.3.ark:8678281
milb0_sx183 quick_test/fbank/raw_fbank_train.3.ark:1617028
mjbg0_sx152 quick_test/fbank/raw_fbank_train.3.ark:1998567
fecd0_sx338 quick_test/fbank/raw_fbank_train.1.ark:3711002
fpaf0_si1054 quick_test/fbank/raw_fbank_train.1.ark:10092195
mdwm0_si1546 quick_test/fbank/raw_fbank_train.2.ark:9460826
mhxl0_si612 quick_test/fbank/raw_fbank_train.3.ark:1495371
mrmh0_sx121 quick_test/fbank/raw_fbank_train.4.ark:3929077
mrab1_si1478 quick_test/fbank/raw_fbank_train.4.ark:664133
mrcg0_sx78 quick_test/fbank/raw_fbank_train.4.ark:1261331
mdsj0_sx382 quick_test/fbank/raw_fbank_train.2.ark:8969273
mpmb0_sx241 quick_test/fbank/raw_fbank_train.3.ark:11379833
mjrk0_sx160 quick_test/fbank/raw_fbank_train.3.ark:4857776
fjsp0_sx174 quick_test/fbank/raw_fbank_train.1.ark:5812205
fmah1_sx69 quick_test/fbank/raw_fbank_train.1.ark:8606577
mrmh0_sx301 quick_test/fbank/raw_fbank_train.4.ark:3950783
fklc0_si2245 quick_test/fbank/raw_fbank_train.1.ark:6723044
mjhi0_sx68 quick_test/fbank/raw_fbank_train.3.ark:3161333
fjdm2_si1964 quick_test/fbank/raw_fbank_train.1.ark:4850229
mmab1_si864 quick_test/fbank/raw_fbank_train.3.ark:7987398
mdlr0_si1233 quick_test/fbank/raw_fbank_train.2.ark:7983209
mmam0_sx157 quick_test/fbank/raw_fbank_train.3.ark:8221002
mwar0_sx325 quick_test/fbank/raw_fbank_train.4.ark:10740145
mbef0_sx21 quick_test/fbank/raw_fbank_train.2.ark:3515748
fsmm0_si1944 quick_test/fbank/raw_fbank_train.2.ark:756034
mjeb0_sx296 quick_test/fbank/raw_fbank_train.3.ark:2658816
mree0_sx24 quick_test/fbank/raw_fbank_train.4.ark:1714592
fleh0_si2311 quick_test/fbank/raw_fbank_train.1.ark:7349149
mwdk0_si2017 quick_test/fbank/raw_fbank_train.4.ark:10873544
flhd0_si1827 quick_test/fbank/raw_fbank_train.1.ark:7527406
mkam0_sx326 quick_test/fbank/raw_fbank_train.3.ark:6021156
mkxl0_sx285 quick_test/fbank/raw_fbank_train.3.ark:7211129
mtlc0_sx307 quick_test/fbank/raw_fbank_train.4.ark:8866707
mdma0_sx260 quick_test/fbank/raw_fbank_train.2.ark:8249073
fgmb0_si1775 quick_test/fbank/raw_fbank_train.1.ark:4403806
mtas0_sx215 quick_test/fbank/raw_fbank_train.4.ark:7314259
msdh0_si980 quick_test/fbank/raw_fbank_train.4.ark:5674379
