mtab0_sx222 quick_test/data-fmllr-tri3/train/data/feats_fmllr_train.10.ark:724659
fsjs0_sx181 quick_test/data-fmllr-tri3/train/data/feats_fmllr_train.3.ark:9321725
fsls0_si2316 quick_test/data-fmllr-tri3/train/data/feats_fmllr_train.3.ark:11197984
mmds0_sx353 quick_test/data-fmllr-tri3/train/data/feats_fmllr_train.7.ark:17209002
mgjc0_si1335 quick_test/data-fmllr-tri3/train/data/feats_fmllr_train.6.ark:1120533
fsjk1_si696 quick_test/data-fmllr-tri3/train/data/feats_fmllr_train.3.ark:8907561
mljh0_sx334 quick_test/data-fmllr-tri3/train/data/feats_fmllr_train.7.ark:11677003
mdrd0_sx32 quick_test/data-fmllr-tri3/train/data/feats_fmllr_train.5.ark:8102597
mjmd0_si1028 quick_test/data-fmllr-tri3/train/data/feats_fmllr_train.6.ark:15419409
mjjj0_sx173 quick_test/data-fmllr-tri3/train/data/feats_fmllr_train.6.ark:12913011
mmgg0_si1709 quick_test/data-fmllr-tri3/train/data/feats_fmllr_train.8.ark:428579
mrjh0_sx439 quick_test/data-fmllr-tri3/train/data/feats_fmllr_train.9.ark:1578905
mddc0_sx339 quick_test/data-fmllr-tri3/train/data/feats_fmllr_train.4.ark:16879295
mtkd0_sx17 quick_test/data-fmllr-tri3/train/data/feats_fmllr_train.10.ark:5902039
mdlc2_sx264 quick_test/data-fmllr-tri3/train/data/feats_fmllr_train.5.ark:3739197
fbjl0_si1552 quick_test/data-fmllr-tri3/train/data/feats_fmllr_train.1.ark:3276465
fsbk0_si1699 quick_test/data-fmllr-tri3/train/data/feats_fmllr_train.3.ark:6395191
mmar0_si1336 quick_test/data-fmllr-tri3/train/data/feats_fmllr_train.7.ark:14181587
msms0_si803 quick_test/data-fmllr-tri3/train/data/feats_fmllr_train.9.ark:16707748
mtbc0_si1803 quick_test/data-fmllr-tri3/train/data/feats_fmllr_train.10.ark:2089446
mrld0_sx424 quick_test/data-fmllr-tri3/train/data/feats_fmllr_train.9.ark:3638229
mvlo0_sx247 quick_test/data-fmllr-tri3/train/data/feats_fmllr_train.10.ark:12892987
flmc0_sx292 quick_test/data-fmllr-tri3/train/data/feats_fmllr_train.2.ark:13040860
mmjb1_sx418 quick_test/data-fmllr-tri3/train/data/feats_fmllr_train.8.ark:1327229
fmem0_sx117 quick_test/data-fmllr-tri3/train/data/feats_fmllr_train.2.ark:15257311
mjwg0_sx175 quick_test/data-fmllr-tri3/train/data/feats_fmllr_train.7.ark:2162780
mjeb0_sx170 quick_test/data-fmllr-tri3/train/data/feats_fmllr_train.6.ark:10177892
mfwk0_sx439 quick_test/data-fmllr-tri3/train/data/feats_fmllr_train.5.ark:15399895
fvmh0_sx386 quick_test/data-fmllr-tri3/train/data/feats_fmllr_train.3.ark:16820836
mdbp0_si528 quick_test/data-fmllr-tri3/train/data/feats_fmllr_train.4.ark:15555843
fjxp0_sx312 quick_test/data-fmllr-tri3/train/data/feats_fmllr_train.2.ark:5058277
fsrh0_sx41 quick_test/data-fmllr-tri3/train/data/feats_fmllr_train.3.ark:13434243
mrre0_sx74 quick_test/data-fmllr-tri3/train/data/feats_fmllr_train.9.ark:7824806
mcre0_si1725 quick_test/data-fmllr-tri3/train/data/feats_fmllr_train.4.ark:12513283
falr0_sx335 quick_test/data-fmllr-tri3/train/data/feats_fmllr_train.1.ark:1435995
mljh0_sx244 quick_test/data-fmllr-tri3/train/data/feats_fmllr_train.7.ark:11610896
mdbb1_si2056 quick_test/data-fmllr-tri3/train/data/feats_fmllr_train.4.ark:15208106
mjrg0_si1996 quick_test/data-fmllr-tri3/train/data/feats_fmllr_train.6.ark:17658340
fear0_si1252 quick_test/data-fmllr-tri3/train/data/feats_fmllr_train.1.ark:13743451
msah1_sx59 quick_test/data-fmllr-tri3/train/data/feats_fmllr_train.9.ark:11389961
mdma0_sx350 quick_test/data-fmllr-tri3/train/data/feats_fmllr_train.5.ark:5742709
mrmb0_si2211 quick_test/data-fmllr-tri3/train/data/feats_fmllr_train.9.ark:5188780
fksr0_si1747 quick_test/data-fmllr-tri3/train/data/feats_fmllr_train.2.ark:8525724
mlsh0_sx427 quick_test/data-fmllr-tri3/train/data/feats_fmllr_train.7.ark:12494424
mkag0_si979 quick_test/data-fmllr-tri3/train/data/feats_fmllr_train.7.ark:4114238
mdlc0_si2025 quick_test/data-fmllr-tri3/train/data/feats_fmllr_train.5.ark:2865721
mtpr0_sx250 quick_test/data-fmllr-tri3/train/data/feats_fmllr_train.10.ark:9746771
fsdc0_sx412 quick_test/data-fmllr-tri3/train/data/feats_fmllr_train.3.ark:7493521
mhit0_si2243 quick_test/data-fmllr-tri3/train/data/feats_fmllr_train.6.ark:3961087
mclm0_si1456 quick_test/data-fmllr-tri3/train/data/feats_fmllr_train.4.ark:11767541
mbom0_sx311 quick_test/data-fmllr-tri3/train/data/feats_fmllr_train.4.ark:6923286
fsdc0_si1312 quick_test/data-fmllr-tri3/train/data/feats_fmllr_train.3.ark:7225517
fsmm0_sx144 quick_test/data-fmllr-tri3/train/data/feats_fmllr_train.3.ark:12030125
mtlc0_si1477 quick_test/data-fmllr-tri3/train/data/feats_fmllr_train.10.ark:6957650
mhxl0_sx332 quick_test/data-fmllr-tri3/train/data/feats_fmllr_train.6.ark:5956360
mjrh0_sx315 quick_test/data-fmllr-tri3/train/data/feats_fmllr_train.7.ark:249910
mtas0_si2015 quick_test/data-fmllr-tri3/train/data/feats_fmllr_train.10.ark:993915
mkam0_sx326 quick_test/data-fmllr-tri3/train/data/feats_fmllr_train.7.ark:5416570
maeb0_sx90 quick_test/data-fmllr-tri3/train/data/feats_fmllr_train.4.ark:337962
msdb0_si2267 quick_test/data-fmllr-tri3/train/data/feats_fmllr_train.9.ark:12616777
mpgr0_sx330 quick_test/data-fmllr-tri3/train/data/feats_fmllr_train.8.ark:7349711
mdss1_si1713 quick_test/data-fmllr-tri3/train/data/feats_fmllr_train.5.ark:8958634
fgdp0_sx178 quick_test/data-fmllr-tri3/train/data/feats_fmllr_train.1.ark:16759613
mmcc0_sx258 quick_test/data-fmllr-tri3/train/data/feats_fmllr_train.7.ark:15285330
flmk0_sx315 quick_test/data-fmllr-tri3/train/data/feats_fmllr_train.2.ark:13451479
mtlb0_sx144 quick_test/data-fmllr-tri3/train/data/feats_fmllr_train.10.ark:6638447
mkaj0_sx154 quick_test/data-fmllr-tri3/train/data/feats_fmllr_train.7.ark:4952778
fmkf0_si906 quick_test/data-fmllr-tri3/train/data/feats_fmllr_train.2.ark:17253729
maeo0_si1956 quick_test/data-fmllr-tri3/train/data/feats_fmllr_train.4.ark:479006
madd0_sx178 quick_test/data-fmllr-tri3/train/data/feats_fmllr_train.3.ark:17721860
msat1_sx263 quick_test/data-fmllr-tri3/train/data/feats_fmllr_train.9.ark:12353413
mcew0_si812 quick_test/data-fmllr-tri3/train/data/feats_fmllr_train.4.ark:10604864
mcae0_si2077 quick_test/data-fmllr-tri3/train/data/feats_fmllr_train.4.ark:8199057
mljc0_sx415 quick_test/data-fmllr-tri3/train/data/feats_fmllr_train.7.ark:11238733
mbcg0_sx57 quick_test/data-fmllr-tri3/train/data/feats_fmllr_train.4.ark:4432192
fkfb0_sx348 quick_test/data-fmllr-tri3/train/data/feats_fmllr_train.2.ark:6690026
mcth0_si1839 quick_test/data-fmllr-tri3/train/data/feats_fmllr_train.4.ark:13289716
mjdm0_sx170 quick_test/data-fmllr-tri3/train/data/feats_fmllr_train.6.ark:9746635
mpeb0_sx60 quick_test/data-fmllr-tri3/train/data/feats_fmllr_train.8.ark:6365114
mjws0_sx243 quick_test/data-fmllr-tri3/train/data/feats_fmllr_train.7.ark:2592944
fcjs0_sx437 quick_test/data-fmllr-tri3/train/data/feats_fmllr_train.1.ark:6950742
mtmt0_si1748 quick_test/data-fmllr-tri3/train/data/feats_fmllr_train.10.ark:8114302
fmjb0_sx187 quick_test/data-fmllr-tri3/train/data/feats_fmllr_train.2.ark:15715129
fdkn0_sx91 quick_test/data-fmllr-tri3/train/data/feats_fmllr_train.1.ark:11232359
msfv0_si1892 quick_test/data-fmllr-tri3/train/data/feats_fmllr_train.9.ark:15015814
mljh0_si1324 quick_test/data-fmllr-tri3/train/data/feats_fmllr_train.7.ark:11325187
mmdg0_sx70 quick_test/data-fmllr-tri3/train/data/feats_fmllr_train.7.ark:16216884
mtmn0_sx344 quick_test/data-fmllr-tri3/train/data/feats_fmllr_train.10.ark:7948113
mbma1_si2214 quick_test/data-fmllr-tri3/train/data/feats_fmllr_train.4.ark:5947996
mter0_sx257 quick_test/data-fmllr-tri3/train/data/feats_fmllr_train.10.ark:3939222
makr0_sx272 quick_test/data-fmllr-tri3/train/data/feats_fmllr_train.4.ark:2098330
mrwa0_si1603 quick_test/data-fmllr-tri3/train/data/feats_fmllr_train.9.ark:10002560
mgrp0_sx147 quick_test/data-fmllr-tri3/train/data/feats_fmllr_train.6.ark:2037022
feac0_si1875 quick_test/data-fmllr-tri3/train/data/feats_fmllr_train.1.ark:13380702
fbmj0_si516 quick_test/data-fmllr-tri3/train/data/feats_fmllr_train.1.ark:4527064
fpaz0_sx243 quick_test/data-fmllr-tri3/train/data/feats_fmllr_train.3.ark:2652784
mmds0_sx173 quick_test/data-fmllr-tri3/train/data/feats_fmllr_train.7.ark:17130068
mrlr0_sx296 quick_test/data-fmllr-tri3/train/data/feats_fmllr_train.9.ark:5072857
mlbc0_si1239 quick_test/data-fmllr-tri3/train/data/feats_fmllr_train.7.ark:10126776
mbth0_sx392 quick_test/data-fmllr-tri3/train/data/feats_fmllr_train.4.ark:7656704
mmvp0_si654 quick_test/data-fmllr-tri3/train/data/feats_fmllr_train.8.ark:3060686
mljc0_si1855 quick_test/data-fmllr-tri3/train/data/feats_fmllr_train.7.ark:11026438
makb0_sx296 quick_test/data-fmllr-tri3/train/data/feats_fmllr_train.4.ark:1875446
mjra0_sx246 quick_test/data-fmllr-tri3/train/data/feats_fmllr_train.6.ark:17412764
fcyl0_si1297 quick_test/data-fmllr-tri3/train/data/feats_fmllr_train.1.ark:8926122
flma0_sx73 quick_test/data-fmllr-tri3/train/data/feats_fmllr_train.2.ark:12782777
mjai0_sx434 quick_test/data-fmllr-tri3/train/data/feats_fmllr_train.6.ark:7573412
mdtb0_sx120 quick_test/data-fmllr-tri3/train/data/feats_fmllr_train.5.ark:9369465
fmmh0_si2167 quick_test/data-fmllr-tri3/train/data/feats_fmllr_train.2.ark:17598397
mrav0_sx108 quick_test/data-fmllr-tri3/train/data/feats_fmllr_train.8.ark:12654080
frjb0_sx167 quick_test/data-fmllr-tri3/train/data/feats_fmllr_train.3.ark:4446961
mtpf0_sx65 quick_test/data-fmllr-tri3/train/data/feats_fmllr_train.10.ark:8778360
mjee0_si1237 quick_test/data-fmllr-tri3/train/data/feats_fmllr_train.6.ark:10834884
mrhl0_sx75 quick_test/data-fmllr-tri3/train/data/feats_fmllr_train.9.ark:748417
mmds0_si1343 quick_test/data-fmllr-tri3/train/data/feats_fmllr_train.7.ark:17017026
mrjb1_sx30 quick_test/data-fmllr-tri3/train/data/feats_fmllr_train.9.ark:1105701
mmaa0_sx215 quick_test/data-fmllr-tri3/train/data/feats_fmllr_train.7.ark:12818907
mjmm0_sx355 quick_test/data-fmllr-tri3/train/data/feats_fmllr_train.6.ark:16002003
mcdd0_sx73 quick_test/data-fmllr-tri3/train/data/feats_fmllr_train.4.ark:9647227
mdns0_sx381 quick_test/data-fmllr-tri3/train/data/feats_fmllr_train.5.ark:6625916
mdhs0_si900 quick_test/data-fmllr-tri3/train/data/feats_fmllr_train.5.ark:1286959
fdkn0_si1081 quick_test/data-fmllr-tri3/train/data/feats_fmllr_train.1.ark:10838089
mppc0_si1412 quick_test/data-fmllr-tri3/train/data/feats_fmllr_train.8.ark:8543507
mtcs0_sx442 quick_test/data-fmllr-tri3/train/data/feats_fmllr_train.10.ark:2728518
fear0_sx262 quick_test/data-fmllr-tri3/train/data/feats_fmllr_train.1.ark:13917160
mgxp0_si1087 quick_test/data-fmllr-tri3/train/data/feats_fmllr_train.6.ark:3146228
mpeb0_sx240 quick_test/data-fmllr-tri3/train/data/feats_fmllr_train.8.ark:6220554
fdml0_sx159 quick_test/data-fmllr-tri3/train/data/feats_fmllr_train.1.ark:11404790
mcdc0_si1292 quick_test/data-fmllr-tri3/train/data/feats_fmllr_train.4.ark:8986501
flet0_si1767 quick_test/data-fmllr-tri3/train/data/feats_fmllr_train.2.ark:10101633
feac0_si615 quick_test/data-fmllr-tri3/train/data/feats_fmllr_train.1.ark:13432569
fmkc0_sx172 quick_test/data-fmllr-tri3/train/data/feats_fmllr_train.2.ark:16873059
mrjt0_si868 quick_test/data-fmllr-tri3/train/data/feats_fmllr_train.9.ark:2565369
mree0_sx384 quick_test/data-fmllr-tri3/train/data/feats_fmllr_train.8.ark:15484188
mtdp0_sx81 quick_test/data-fmllr-tri3/train/data/feats_fmllr_train.10.ark:3638259
mrms0_sx390 quick_test/data-fmllr-tri3/train/data/feats_fmllr_train.9.ark:7049492
mdcd0_sx155 quick_test/data-fmllr-tri3/train/data/feats_fmllr_train.4.ark:16042807
mdns0_si2271 quick_test/data-fmllr-tri3/train/data/feats_fmllr_train.5.ark:6360795
flod0_sx117 quick_test/data-fmllr-tri3/train/data/feats_fmllr_train.2.ark:13729882
fjkl0_sx212 quick_test/data-fmllr-tri3/train/data/feats_fmllr_train.2.ark:1427336
mkdd0_si1567 quick_test/data-fmllr-tri3/train/data/feats_fmllr_train.7.ark:5940067
mgsh0_si1806 quick_test/data-fmllr-tri3/train/data/feats_fmllr_train.6.ark:2380065
mcal0_si508 quick_test/data-fmllr-tri3/train/data/feats_fmllr_train.4.ark:8700259
mjkr0_sx391 quick_test/data-fmllr-tri3/train/data/feats_fmllr_train.6.ark:13911472
flmk0_si1035 quick_test/data-fmllr-tri3/train/data/feats_fmllr_train.2.ark:13204142
mcal0_si1768 quick_test/data-fmllr-tri3/train/data/feats_fmllr_train.4.ark:8674952
mdhs0_si1530 quick_test/data-fmllr-tri3/train/data/feats_fmllr_train.5.ark:1207864
mwre0_sx427 quick_test/data-fmllr-tri3/train/data/feats_fmllr_train.10.ark:16316119
mded0_sx270 quick_test/data-fmllr-tri3/train/data/feats_fmllr_train.4.ark:17222365
mtbc0_si543 quick_test/data-fmllr-tri3/train/data/feats_fmllr_train.10.ark:2137473
mmaa0_sx395 quick_test/data-fmllr-tri3/train/data/feats_fmllr_train.7.ark:12953547
mtdb0_si1401 quick_test/data-fmllr-tri3/train/data/feats_fmllr_train.10.ark:2828092
mrlj0_si1420 quick_test/data-fmllr-tri3/train/data/feats_fmllr_train.9.ark:3714123
mmws0_sx258 quick_test/data-fmllr-tri3/train/data/feats_fmllr_train.8.ark:4110934
fsdj0_sx395 quick_test/data-fmllr-tri3/train/data/feats_fmllr_train.3.ark:7872484
mctm0_sx270 quick_test/data-fmllr-tri3/train/data/feats_fmllr_train.4.ark:13821854
fgrw0_si1152 quick_test/data-fmllr-tri3/train/data/feats_fmllr_train.1.ark:17507965
mjws0_sx423 quick_test/data-fmllr-tri3/train/data/feats_fmllr_train.7.ark:2713158
mkam0_si1250 quick_test/data-fmllr-tri3/train/data/feats_fmllr_train.7.ark:5139953
fmjb0_sx97 quick_test/data-fmllr-tri3/train/data/feats_fmllr_train.2.ark:15881314
fjxm0_sx131 quick_test/data-fmllr-tri3/train/data/feats_fmllr_train.2.ark:4539286
mtpg0_si753 quick_test/data-fmllr-tri3/train/data/feats_fmllr_train.10.ark:8900363
fgmb0_si515 quick_test/data-fmllr-tri3/train/data/feats_fmllr_train.1.ark:17186043
mkah0_sx358 quick_test/data-fmllr-tri3/train/data/feats_fmllr_train.7.ark:4671495
mprb0_sx125 quick_test/data-fmllr-tri3/train/data/feats_fmllr_train.8.ark:9127006
fmjb0_sx7 quick_test/data-fmllr-tri3/train/data/feats_fmllr_train.2.ark:15833448
mefg0_si598 quick_test/data-fmllr-tri3/train/data/feats_fmllr_train.5.ark:11534420
mdmt0_si2341 quick_test/data-fmllr-tri3/train/data/feats_fmllr_train.5.ark:5949218
frjb0_sx437 quick_test/data-fmllr-tri3/train/data/feats_fmllr_train.3.ark:4597762
mmdm1_si2043 quick_test/data-fmllr-tri3/train/data/feats_fmllr_train.7.ark:16651077
mdtb0_sx210 quick_test/data-fmllr-tri3/train/data/feats_fmllr_train.5.ark:9417652
fbmh0_sx56 quick_test/data-fmllr-tri3/train/data/feats_fmllr_train.1.ark:4416289
mppc0_sx422 quick_test/data-fmllr-tri3/train/data/feats_fmllr_train.8.ark:8830550
fpmy0_si1783 quick_test/data-fmllr-tri3/train/data/feats_fmllr_train.3.ark:3639272
mbma1_sx144 quick_test/data-fmllr-tri3/train/data/feats_fmllr_train.4.ark:6061010
fskc0_sx336 quick_test/data-fmllr-tri3/train/data/feats_fmllr_train.3.ark:10198853
fklc1_sx418 quick_test/data-fmllr-tri3/train/data/feats_fmllr_train.2.ark:7981105
mdsj0_sx382 quick_test/data-fmllr-tri3/train/data/feats_fmllr_train.5.ark:8486174
mcre0_sx401 quick_test/data-fmllr-tri3/train/data/feats_fmllr_train.4.ark:12729098
mgrl0_sx417 quick_test/data-fmllr-tri3/train/data/feats_fmllr_train.6.ark:1797046
fkfb0_si2238 quick_test/data-fmllr-tri3/train/data/feats_fmllr_train.2.ark:6506558
mesg0_sx252 quick_test/data-fmllr-tri3/train/data/feats_fmllr_train.5.ark:13172620
fjrb0_sx42 quick_test/data-fmllr-tri3/train/data/feats_fmllr_train.2.ark:2727588
fbmh0_sx416 quick_test/data-fmllr-tri3/train/data/feats_fmllr_train.1.ark:4376423
fajw0_sx93 quick_test/data-fmllr-tri3/train/data/feats_fmllr_train.1.ark:764097
fdfb0_sx238 quick_test/data-fmllr-tri3/train/data/feats_fmllr_train.1.ark:10298724
mtat1_sx419 quick_test/data-fmllr-tri3/train/data/feats_fmllr_train.10.ark:1970804
mkxl0_si1958 quick_test/data-fmllr-tri3/train/data/feats_fmllr_train.7.ark:9866134
mrav0_si2268 quick_test/data-fmllr-tri3/train/data/feats_fmllr_train.8.ark:12593253
mfrm0_sx345 quick_test/data-fmllr-tri3/train/data/feats_fmllr_train.5.ark:14988611
mdss0_sx351 quick_test/data-fmllr-tri3/train/data/feats_fmllr_train.5.ark:8778525
mtwh1_sx162 quick_test/data-fmllr-tri3/train/data/feats_fmllr_train.10.ark:11674708
mmxs0_si629 quick_test/data-fmllr-tri3/train/data/feats_fmllr_train.8.ark:4656726
mgsl0_si534 quick_test/data-fmllr-tri3/train/data/feats_fmllr_train.6.ark:2773079
mfmc0_si502 quick_test/data-fmllr-tri3/train/data/feats_fmllr_train.5.ark:14451992
mlns0_si1407 quick_test/data-fmllr-tri3/train/data/feats_fmllr_train.7.ark:11832284
feeh0_sx302 quick_test/data-fmllr-tri3/train/data/feats_fmllr_train.1.ark:14851381
marw0_si1906 quick_test/data-fmllr-tri3/train/data/feats_fmllr_train.4.ark:3016820
mdac0_si631 quick_test/data-fmllr-tri3/train/data/feats_fmllr_train.4.ark:14444154
fklh0_sx447 quick_test/data-fmllr-tri3/train/data/feats_fmllr_train.2.ark:8393802
fjhk0_sx32 quick_test/data-fmllr-tri3/train/data/feats_fmllr_train.2.ark:1161092
fdmy0_si567 quick_test/data-fmllr-tri3/train/data/feats_fmllr_train.1.ark:11671032
mrtj0_sx322 quick_test/data-fmllr-tri3/train/data/feats_fmllr_train.9.ark:9504342
fjrb0_sx132 quick_test/data-fmllr-tri3/train/data/feats_fmllr_train.2.ark:2503641
mrjt0_sx58 quick_test/data-fmllr-tri3/train/data/feats_fmllr_train.9.ark:2828063
mfer0_sx232 quick_test/data-fmllr-tri3/train/data/feats_fmllr_train.5.ark:14182549
mtkp0_si1023 quick_test/data-fmllr-tri3/train/data/feats_fmllr_train.10.ark:6092548
mmgk0_si1952 quick_test/data-fmllr-tri3/train/data/feats_fmllr_train.8.ark:793277
mrld0_si2224 quick_test/data-fmllr-tri3/train/data/feats_fmllr_train.9.ark:3436014
frll0_sx344 quick_test/data-fmllr-tri3/train/data/feats_fmllr_train.3.ark:4964671
fsjw0_sx343 quick_test/data-fmllr-tri3/train/data/feats_fmllr_train.3.ark:9834796
maeb0_sx270 quick_test/data-fmllr-tri3/train/data/feats_fmllr_train.4.ark:201882
mmbs0_si521 quick_test/data-fmllr-tri3/train/data/feats_fmllr_train.7.ark:14736099
mfxv0_sx105 quick_test/data-fmllr-tri3/train/data/feats_fmllr_train.5.ark:16034970
fskl0_sx449 quick_test/data-fmllr-tri3/train/data/feats_fmllr_train.3.ark:10639417
fkkh0_sx390 quick_test/data-fmllr-tri3/train/data/feats_fmllr_train.2.ark:7254456
fpad0_sx266 quick_test/data-fmllr-tri3/train/data/feats_fmllr_train.3.ark:1839389
msjk0_sx66 quick_test/data-fmllr-tri3/train/data/feats_fmllr_train.9.ark:15787072
mges0_sx41 quick_test/data-fmllr-tri3/train/data/feats_fmllr_train.6.ark:1024797
mtab0_si1572 quick_test/data-fmllr-tri3/train/data/feats_fmllr_train.10.ark:481670
mrfl0_si526 quick_test/data-fmllr-tri3/train/data/feats_fmllr_train.8.ark:17160499
mkes0_sx353 quick_test/data-fmllr-tri3/train/data/feats_fmllr_train.7.ark:7002716
majp0_sx264 quick_test/data-fmllr-tri3/train/data/feats_fmllr_train.4.ark:1287655
mdss1_sx337 quick_test/data-fmllr-tri3/train/data/feats_fmllr_train.5.ark:9129302
fcjs0_sx77 quick_test/data-fmllr-tri3/train/data/feats_fmllr_train.1.ark:7012688
mdlm0_si1864 quick_test/data-fmllr-tri3/train/data/feats_fmllr_train.5.ark:4364189
mpgh0_si675 quick_test/data-fmllr-tri3/train/data/feats_fmllr_train.8.ark:6881706
mcpm0_sx384 quick_test/data-fmllr-tri3/train/data/feats_fmllr_train.4.ark:12423627
mgaf0_sx202 quick_test/data-fmllr-tri3/train/data/feats_fmllr_train.5.ark:16431374
fskp0_si1728 quick_test/data-fmllr-tri3/train/data/feats_fmllr_train.3.ark:10804939
fcdr1_si1186 quick_test/data-fmllr-tri3/train/data/feats_fmllr_train.1.ark:5577768
fcjf0_si1657 quick_test/data-fmllr-tri3/train/data/feats_fmllr_train.1.ark:6447990
mjra0_sx426 quick_test/data-fmllr-tri3/train/data/feats_fmllr_train.6.ark:17516338
mrjb1_sx210 quick_test/data-fmllr-tri3/train/data/feats_fmllr_train.9.ark:1064075
mmeb0_sx187 quick_test/data-fmllr-tri3/train/data/feats_fmllr_train.7.ark:17784422
mmpm0_sx161 quick_test/data-fmllr-tri3/train/data/feats_fmllr_train.8.ark:1889983
fkde0_sx241 quick_test/data-fmllr-tri3/train/data/feats_fmllr_train.2.ark:5851325
mmwb0_sx449 quick_test/data-fmllr-tri3/train/data/feats_fmllr_train.8.ark:3816372
mtlb0_sx324 quick_test/data-fmllr-tri3/train/data/feats_fmllr_train.10.ark:6723301
fleh0_si1051 quick_test/data-fmllr-tri3/train/data/feats_fmllr_train.2.ark:9664267
mmcc0_si1968 quick_test/data-fmllr-tri3/train/data/feats_fmllr_train.7.ark:15171329
mdma0_si1430 quick_test/data-fmllr-tri3/train/data/feats_fmllr_train.5.ark:5503720
fdaw0_sx326 quick_test/data-fmllr-tri3/train/data/feats_fmllr_train.1.ark:10006853
mtrr0_sx378 quick_test/data-fmllr-tri3/train/data/feats_fmllr_train.10.ark:11132621
msrg0_sx51 quick_test/data-fmllr-tri3/train/data/feats_fmllr_train.9.ark:17305059
fvmh0_sx26 quick_test/data-fmllr-tri3/train/data/feats_fmllr_train.3.ark:16751982
mtat0_si1110 quick_test/data-fmllr-tri3/train/data/feats_fmllr_train.10.ark:1241304
fcaj0_sx219 quick_test/data-fmllr-tri3/train/data/feats_fmllr_train.1.ark:5394460
mafm0_sx219 quick_test/data-fmllr-tri3/train/data/feats_fmllr_train.4.ark:894637
flma0_sx433 quick_test/data-fmllr-tri3/train/data/feats_fmllr_train.2.ark:12730271
mprk0_sx17 quick_test/data-fmllr-tri3/train/data/feats_fmllr_train.8.ark:10070826
fear0_sx352 quick_test/data-fmllr-tri3/train/data/feats_fmllr_train.1.ark:13959267
fdas1_sx291 quick_test/data-fmllr-tri3/train/data/feats_fmllr_train.1.ark:9649061
mrsp0_sx169 quick_test/data-fmllr-tri3/train/data/feats_fmllr_train.9.ark:8523374
flja0_sx358 quick_test/data-fmllr-tri3/train/data/feats_fmllr_train.2.ark:11051777
fjsp0_si804 quick_test/data-fmllr-tri3/train/data/feats_fmllr_train.2.ark:3748266
mrem0_si1591 quick_test/data-fmllr-tri3/train/data/feats_fmllr_train.8.ark:15967633
mrxb0_si1585 quick_test/data-fmllr-tri3/train/data/feats_fmllr_train.9.ark:10707474
msmr0_sx145 quick_test/data-fmllr-tri3/train/data/feats_fmllr_train.9.ark:16386918
mbom0_si1014 quick_test/data-fmllr-tri3/train/data/feats_fmllr_train.4.ark:6679922
mwgr0_si1606 quick_test/data-fmllr-tri3/train/data/feats_fmllr_train.10.ark:15655898
mkdb0_sx332 quick_test/data-fmllr-tri3/train/data/feats_fmllr_train.7.ark:5785586
fjkl0_sx302 quick_test/data-fmllr-tri3/train/data/feats_fmllr_train.2.ark:1483203
fbmh0_sx146 quick_test/data-fmllr-tri3/train/data/feats_fmllr_train.1.ark:4261942
ftbw0_si1345 quick_test/data-fmllr-tri3/train/data/feats_fmllr_train.3.ark:14590442
mrbc0_si1859 quick_test/data-fmllr-tri3/train/data/feats_fmllr_train.8.ark:12894563
mmwb0_si989 quick_test/data-fmllr-tri3/train/data/feats_fmllr_train.8.ark:3577864
fmmh0_sx187 quick_test/data-fmllr-tri3/train/data/feats_fmllr_train.2.ark:17703731
fssb0_si2342 quick_test/data-fmllr-tri3/train/data/feats_fmllr_train.3.ark:13619287
mjlg1_sx22 quick_test/data-fmllr-tri3/train/data/feats_fmllr_train.6.ark:14527213
fkfb0_sx438 quick_test/data-fmllr-tri3/train/data/feats_fmllr_train.2.ark:6749093
mdma0_si1238 quick_test/data-fmllr-tri3/train/data/feats_fmllr_train.5.ark:5469772
mtxs0_sx340 quick_test/data-fmllr-tri3/train/data/feats_fmllr_train.10.ark:12178020
mgsh0_si546 quick_test/data-fmllr-tri3/train/data/feats_fmllr_train.6.ark:2430332
mdjm0_sx375 quick_test/data-fmllr-tri3/train/data/feats_fmllr_train.5.ark:1880910
mtmn0_sx254 quick_test/data-fmllr-tri3/train/data/feats_fmllr_train.10.ark:7912886
msat1_sx353 quick_test/data-fmllr-tri3/train/data/feats_fmllr_train.9.ark:12392160
fjdm2_sx232 quick_test/data-fmllr-tri3/train/data/feats_fmllr_train.2.ark:208443
fkde0_si2221 quick_test/data-fmllr-tri3/train/data/feats_fmllr_train.2.ark:5768711
fjen0_sx327 quick_test/data-fmllr-tri3/train/data/feats_fmllr_train.2.ark:664208
msfv0_sx182 quick_test/data-fmllr-tri3/train/data/feats_fmllr_train.9.ark:15153788
mree0_si1104 quick_test/data-fmllr-tri3/train/data/feats_fmllr_train.8.ark:15129918
mppc0_si2042 quick_test/data-fmllr-tri3/train/data/feats_fmllr_train.8.ark:8622255
mdlc2_sx354 quick_test/data-fmllr-tri3/train/data/feats_fmllr_train.5.ark:3781944
mtrt0_si1227 quick_test/data-fmllr-tri3/train/data/feats_fmllr_train.10.ark:11187849
mges0_sx221 quick_test/data-fmllr-tri3/train/data/feats_fmllr_train.6.ark:880237
fceg0_sx78 quick_test/data-fmllr-tri3/train/data/feats_fmllr_train.1.ark:6367614
mtat0_sx30 quick_test/data-fmllr-tri3/train/data/feats_fmllr_train.10.ark:1514559
mcdd0_sx163 quick_test/data-fmllr-tri3/train/data/feats_fmllr_train.4.ark:9474800
fdnc0_sx288 quick_test/data-fmllr-tri3/train/data/feats_fmllr_train.1.ark:12471704
mtlb0_si1134 quick_test/data-fmllr-tri3/train/data/feats_fmllr_train.10.ark:6498845
mclk0_sx400 quick_test/data-fmllr-tri3/train/data/feats_fmllr_train.4.ark:11725433
mhit0_sx263 quick_test/data-fmllr-tri3/train/data/feats_fmllr_train.6.ark:4126608
mrvg0_sx240 quick_test/data-fmllr-tri3/train/data/feats_fmllr_train.9.ark:9817012
fjsp0_sx354 quick_test/data-fmllr-tri3/train/data/feats_fmllr_train.2.ark:3894747
mrds0_sx447 quick_test/data-fmllr-tri3/train/data/feats_fmllr_train.8.ark:15059784
mtas0_sx35 quick_test/data-fmllr-tri3/train/data/feats_fmllr_train.10.ark:1167489
mbma0_sx52 quick_test/data-fmllr-tri3/train/data/feats_fmllr_train.4.ark:5871300
fhxs0_sx85 quick_test/data-fmllr-tri3/train/data/feats_fmllr_train.1.ark:18790351
mreh1_sx159 quick_test/data-fmllr-tri3/train/data/feats_fmllr_train.8.ark:15713578
fdtd0_si1561 quick_test/data-fmllr-tri3/train/data/feats_fmllr_train.1.ark:12587759
mklr0_si2319 quick_test/data-fmllr-tri3/train/data/feats_fmllr_train.7.ark:7958807
fsdj0_si485 quick_test/data-fmllr-tri3/train/data/feats_fmllr_train.3.ark:7689790
mclk0_sx40 quick_test/data-fmllr-tri3/train/data/feats_fmllr_train.4.ark:11680606
mgar0_sx222 quick_test/data-fmllr-tri3/train/data/feats_fmllr_train.6.ark:181083
mmgc0_sx405 quick_test/data-fmllr-tri3/train/data/feats_fmllr_train.8.ark:275537
mvrw0_si1485 quick_test/data-fmllr-tri3/train/data/feats_fmllr_train.10.ark:13095495
ftbr0_sx291 quick_test/data-fmllr-tri3/train/data/feats_fmllr_train.3.ark:14511987
mhbs0_sx45 quick_test/data-fmllr-tri3/train/data/feats_fmllr_train.6.ark:3876071
mdlc2_si1614 quick_test/data-fmllr-tri3/train/data/feats_fmllr_train.5.ark:3572848
mrjb1_sx120 quick_test/data-fmllr-tri3/train/data/feats_fmllr_train.9.ark:999088
mrws0_si1102 quick_test/data-fmllr-tri3/train/data/feats_fmllr_train.9.ark:10372857
mbef0_si1281 quick_test/data-fmllr-tri3/train/data/feats_fmllr_train.4.ark:4472700
fkaa0_si578 quick_test/data-fmllr-tri3/train/data/feats_fmllr_train.2.ark:5292493
mkdb0_sx62 quick_test/data-fmllr-tri3/train/data/feats_fmllr_train.7.ark:5896359
fmkf0_sx366 quick_test/data-fmllr-tri3/train/data/feats_fmllr_train.2.ark:17384530
mlel0_si1876 quick_test/data-fmllr-tri3/train/data/feats_fmllr_train.7.ark:10550861
mkxl0_si1815 quick_test/data-fmllr-tri3/train/data/feats_fmllr_train.7.ark:9795386
mpgh0_sx114 quick_test/data-fmllr-tri3/train/data/feats_fmllr_train.8.ark:6985440
mfmc0_sx52 quick_test/data-fmllr-tri3/train/data/feats_fmllr_train.5.ark:14704766
fgmb0_si1145 quick_test/data-fmllr-tri3/train/data/feats_fmllr_train.1.ark:17059428
fpab1_si841 quick_test/data-fmllr-tri3/train/data/feats_fmllr_train.3.ark:872501
fsdj0_sx35 quick_test/data-fmllr-tri3/train/data/feats_fmllr_train.3.ark:7837737
mgrp0_si1947 quick_test/data-fmllr-tri3/train/data/feats_fmllr_train.6.ark:1944808
mjpg0_sx21 quick_test/data-fmllr-tri3/train/data/feats_fmllr_train.6.ark:16340139
mdac0_sx91 quick_test/data-fmllr-tri3/train/data/feats_fmllr_train.4.ark:14729568
fscn0_sx356 quick_test/data-fmllr-tri3/train/data/feats_fmllr_train.3.ark:7071836
mdlr1_si669 quick_test/data-fmllr-tri3/train/data/feats_fmllr_train.5.ark:5153610
mabc0_sx61 quick_test/data-fmllr-tri3/train/data/feats_fmllr_train.3.ark:17136413
mcss0_sx210 quick_test/data-fmllr-tri3/train/data/feats_fmllr_train.4.ark:13079340
mtat1_sx149 quick_test/data-fmllr-tri3/train/data/feats_fmllr_train.10.ark:1772163
mrgs0_si726 quick_test/data-fmllr-tri3/train/data/feats_fmllr_train.9.ark:98628
mfxs0_si1674 quick_test/data-fmllr-tri3/train/data/feats_fmllr_train.5.ark:15497229
mdbp0_si1788 quick_test/data-fmllr-tri3/train/data/feats_fmllr_train.4.ark:15502856
mzmb0_sx266 quick_test/data-fmllr-tri3/train/data/feats_fmllr_train.10.ark:17803010
mmgc0_sx225 quick_test/data-fmllr-tri3/train/data/feats_fmllr_train.8.ark:195163
mter0_sx17 quick_test/data-fmllr-tri3/train/data/feats_fmllr_train.10.ark:3908155
mgsh0_sx127 quick_test/data-fmllr-tri3/train/data/feats_fmllr_train.6.ark:2497079
mdns0_si873 quick_test/data-fmllr-tri3/train/data/feats_fmllr_train.5.ark:6392662
mjpm0_sx198 quick_test/data-fmllr-tri3/train/data/feats_fmllr_train.6.ark:16688516
mbth0_sx122 quick_test/data-fmllr-tri3/train/data/feats_fmllr_train.4.ark:7455477
mkls1_sx195 quick_test/data-fmllr-tri3/train/data/feats_fmllr_train.7.ark:8868442
mrml0_si791 quick_test/data-fmllr-tri3/train/data/feats_fmllr_train.9.ark:6372180
fkdw0_sx307 quick_test/data-fmllr-tri3/train/data/feats_fmllr_train.2.ark:6313969
mpfu0_sx448 quick_test/data-fmllr-tri3/train/data/feats_fmllr_train.8.ark:6705465
mtpp0_sx248 quick_test/data-fmllr-tri3/train/data/feats_fmllr_train.10.ark:9338874
mnet0_si816 quick_test/data-fmllr-tri3/train/data/feats_fmllr_train.8.ark:5074250
fkaa0_sx38 quick_test/data-fmllr-tri3/train/data/feats_fmllr_train.2.ark:5499800
mejl0_sx62 quick_test/data-fmllr-tri3/train/data/feats_fmllr_train.5.ark:12555306
mtjm0_sx56 quick_test/data-fmllr-tri3/train/data/feats_fmllr_train.10.ark:4806269
mcef0_sx325 quick_test/data-fmllr-tri3/train/data/feats_fmllr_train.4.ark:10361368
mbom0_sx204 quick_test/data-fmllr-tri3/train/data/feats_fmllr_train.4.ark:6846752
mkrg0_si2121 quick_test/data-fmllr-tri3/train/data/feats_fmllr_train.7.ark:9455170
mtlc0_sx397 quick_test/data-fmllr-tri3/train/data/feats_fmllr_train.10.ark:7195891
marw0_sx286 quick_test/data-fmllr-tri3/train/data/feats_fmllr_train.4.ark:3177727
fsrh0_si1931 quick_test/data-fmllr-tri3/train/data/feats_fmllr_train.3.ark:13143522
fkkh0_si1920 quick_test/data-fmllr-tri3/train/data/feats_fmllr_train.2.ark:6962455
mpsw0_sx437 quick_test/data-fmllr-tri3/train/data/feats_fmllr_train.8.ark:10846514
fdjh0_si935 quick_test/data-fmllr-tri3/train/data/feats_fmllr_train.1.ark:10560487
mdbp0_si1158 quick_test/data-fmllr-tri3/train/data/feats_fmllr_train.4.ark:15474348
fksr0_si1117 quick_test/data-fmllr-tri3/train/data/feats_fmllr_train.2.ark:8479456
mjhi0_sx248 quick_test/data-fmllr-tri3/train/data/feats_fmllr_train.6.ark:12147483
mpmb0_sx421 quick_test/data-fmllr-tri3/train/data/feats_fmllr_train.8.ark:8371133
fmpg0_si2232 quick_test/data-fmllr-tri3/train/data/feats_fmllr_train.2.ark:17976052
mtml0_si1695 quick_test/data-fmllr-tri3/train/data/feats_fmllr_train.10.ark:7285067
msah1_sx329 quick_test/data-fmllr-tri3/train/data/feats_fmllr_train.9.ark:11292788
mwar0_sx235 quick_test/data-fmllr-tri3/train/data/feats_fmllr_train.10.ark:14370817
mjmd0_sx38 quick_test/data-fmllr-tri3/train/data/feats_fmllr_train.6.ark:15659572
msrg0_sx141 quick_test/data-fmllr-tri3/train/data/feats_fmllr_train.9.ark:17134712
fnkl0_si2152 quick_test/data-fmllr-tri3/train/data/feats_fmllr_train.3.ark:40521
mtml0_si1065 quick_test/data-fmllr-tri3/train/data/feats_fmllr_train.10.ark:7235759
fbas0_sx307 quick_test/data-fmllr-tri3/train/data/feats_fmllr_train.1.ark:2348271
mgak0_si2296 quick_test/data-fmllr-tri3/train/data/feats_fmllr_train.5.ark:17042154
mpar0_sx46 quick_test/data-fmllr-tri3/train/data/feats_fmllr_train.8.ark:6038177
mjmd0_si1658 quick_test/data-fmllr-tri3/train/data/feats_fmllr_train.6.ark:15455597
mprk0_sx107 quick_test/data-fmllr-tri3/train/data/feats_fmllr_train.8.ark:10022640
mdhl0_sx449 quick_test/data-fmllr-tri3/train/data/feats_fmllr_train.5.ark:1108290
mmam0_sx157 quick_test/data-fmllr-tri3/train/data/feats_fmllr_train.7.ark:13974892
mhrm0_si2218 quick_test/data-fmllr-tri3/train/data/feats_fmllr_train.6.ark:5385156
mdmt0_sx122 quick_test/data-fmllr-tri3/train/data/feats_fmllr_train.5.ark:6036312
mrab1_sx128 quick_test/data-fmllr-tri3/train/data/feats_fmllr_train.8.ark:11477267
fetb0_si1148 quick_test/data-fmllr-tri3/train/data/feats_fmllr_train.1.ark:15416959
megj0_sx257 quick_test/data-fmllr-tri3/train/data/feats_fmllr_train.5.ark:12087171
fceg0_sx168 quick_test/data-fmllr-tri3/train/data/feats_fmllr_train.1.ark:6191987
msat1_sx83 quick_test/data-fmllr-tri3/train/data/feats_fmllr_train.9.ark:12482613
mmxs0_sx246 quick_test/data-fmllr-tri3/train/data/feats_fmllr_train.8.ark:4793767
mrmb0_sx231 quick_test/data-fmllr-tri3/train/data/feats_fmllr_train.9.ark:5342941
flag0_si2094 quick_test/data-fmllr-tri3/train/data/feats_fmllr_train.2.ark:9301838
fpls0_si1590 quick_test/data-fmllr-tri3/train/data/feats_fmllr_train.3.ark:3203989
mcth0_sx309 quick_test/data-fmllr-tri3/train/data/feats_fmllr_train.4.ark:13472704
mjdc0_sx351 quick_test/data-fmllr-tri3/train/data/feats_fmllr_train.6.ark:8611318
fcag0_si2133 quick_test/data-fmllr-tri3/train/data/feats_fmllr_train.1.ark:4955309
mkrg0_sx141 quick_test/data-fmllr-tri3/train/data/feats_fmllr_train.7.ark:9582104
mkrg0_si1491 quick_test/data-fmllr-tri3/train/data/feats_fmllr_train.7.ark:9393382
mmgg0_sx89 quick_test/data-fmllr-tri3/train/data/feats_fmllr_train.8.ark:702021
mjac0_si701 quick_test/data-fmllr-tri3/train/data/feats_fmllr_train.6.ark:6545190
fjsp0_sx444 quick_test/data-fmllr-tri3/train/data/feats_fmllr_train.2.ark:3938294
mdss0_sx81 quick_test/data-fmllr-tri3/train/data/feats_fmllr_train.5.ark:8869138
mdmt0_sx392 quick_test/data-fmllr-tri3/train/data/feats_fmllr_train.5.ark:6231139
mjra0_sx336 quick_test/data-fmllr-tri3/train/data/feats_fmllr_train.6.ark:17450231
mbml0_sx89 quick_test/data-fmllr-tri3/train/data/feats_fmllr_train.4.ark:6638774
mklw0_sx221 quick_test/data-fmllr-tri3/train/data/feats_fmllr_train.7.ark:9167834
flja0_sx448 quick_test/data-fmllr-tri3/train/data/feats_fmllr_train.2.ark:11098844
mrso0_sx309 quick_test/data-fmllr-tri3/train/data/feats_fmllr_train.9.ark:8183211
fbmh0_sx326 quick_test/data-fmllr-tri3/train/data/feats_fmllr_train.1.ark:4337836
mrso0_sx129 quick_test/data-fmllr-tri3/train/data/feats_fmllr_train.9.ark:8069237
mgxp0_sx187 quick_test/data-fmllr-tri3/train/data/feats_fmllr_train.6.ark:3339749
mjac0_sx307 quick_test/data-fmllr-tri3/train/data/feats_fmllr_train.6.ark:6683164
mtwh1_si1512 quick_test/data-fmllr-tri3/train/data/feats_fmllr_train.10.ark:11556066
mmdb0_si1617 quick_test/data-fmllr-tri3/train/data/feats_fmllr_train.7.ark:15537946
fsjg0_si2200 quick_test/data-fmllr-tri3/train/data/feats_fmllr_train.3.ark:8355317
mjdg0_si1672 quick_test/data-fmllr-tri3/train/data/feats_fmllr_train.6.ark:9291003
mrdm0_sx335 quick_test/data-fmllr-tri3/train/data/feats_fmllr_train.8.ark:14653940
mbma0_sx232 quick_test/data-fmllr-tri3/train/data/feats_fmllr_train.4.ark:5729780
mtab0_sx132 quick_test/data-fmllr-tri3/train/data/feats_fmllr_train.10.ark:666392
mrjm1_sx218 quick_test/data-fmllr-tri3/train/data/feats_fmllr_train.9.ark:2291126
mrmb0_si1581 quick_test/data-fmllr-tri3/train/data/feats_fmllr_train.9.ark:5146512
mjrk0_si2103 quick_test/data-fmllr-tri3/train/data/feats_fmllr_train.7.ark:792316
mbth0_sx302 quick_test/data-fmllr-tri3/train/data/feats_fmllr_train.4.ark:7567051
mdef0_sx393 quick_test/data-fmllr-tri3/train/data/feats_fmllr_train.5.ark:319723
mchl0_sx357 quick_test/data-fmllr-tri3/train/data/feats_fmllr_train.4.ark:11236843
mppc0_sx242 quick_test/data-fmllr-tri3/train/data/feats_fmllr_train.8.ark:8736576
flag0_sx114 quick_test/data-fmllr-tri3/train/data/feats_fmllr_train.2.ark:9410372
msdb0_sx287 quick_test/data-fmllr-tri3/train/data/feats_fmllr_train.9.ark:12732564
mdhl0_si1439 quick_test/data-fmllr-tri3/train/data/feats_fmllr_train.5.ark:826207
msah1_sx149 quick_test/data-fmllr-tri3/train/data/feats_fmllr_train.9.ark:11202014
ftbr0_sx111 quick_test/data-fmllr-tri3/train/data/feats_fmllr_train.3.ark:14390147
mkls0_sx357 quick_test/data-fmllr-tri3/train/data/feats_fmllr_train.7.ark:8477826
mtrc0_sx170 quick_test/data-fmllr-tri3/train/data/feats_fmllr_train.10.ark:10604777
mrkm0_si1391 quick_test/data-fmllr-tri3/train/data/feats_fmllr_train.9.ark:2965399
fjxm0_sx221 quick_test/data-fmllr-tri3/train/data/feats_fmllr_train.2.ark:4581553
mvrw0_sx405 quick_test/data-fmllr-tri3/train/data/feats_fmllr_train.10.ark:13333738
mhbs0_si945 quick_test/data-fmllr-tri3/train/data/feats_fmllr_train.6.ark:3654977
mrjm1_sx398 quick_test/data-fmllr-tri3/train/data/feats_fmllr_train.9.ark:2440326
fntb0_si679 quick_test/data-fmllr-tri3/train/data/feats_fmllr_train.3.ark:458684
fjlg0_sx269 quick_test/data-fmllr-tri3/train/data/feats_fmllr_train.2.ark:1793154
mjlg1_si1012 quick_test/data-fmllr-tri3/train/data/feats_fmllr_train.6.ark:14302757
fklc0_si1615 quick_test/data-fmllr-tri3/train/data/feats_fmllr_train.2.ark:7304084
fjlg0_sx89 quick_test/data-fmllr-tri3/train/data/feats_fmllr_train.2.ark:1950194
mdsj0_si1462 quick_test/data-fmllr-tri3/train/data/feats_fmllr_train.5.ark:8202972
fear0_sx82 quick_test/data-fmllr-tri3/train/data/feats_fmllr_train.1.ark:14089720
mgxp0_sx97 quick_test/data-fmllr-tri3/train/data/feats_fmllr_train.6.ark:3521774
mdss0_si2087 quick_test/data-fmllr-tri3/train/data/feats_fmllr_train.5.ark:8627377
mtkd0_si1817 quick_test/data-fmllr-tri3/train/data/feats_fmllr_train.10.ark:5712199
mjjm0_sx107 quick_test/data-fmllr-tri3/train/data/feats_fmllr_train.6.ark:13349068
mrmg0_si1710 quick_test/data-fmllr-tri3/train/data/feats_fmllr_train.9.ark:5558757
mpeb0_sx420 quick_test/data-fmllr-tri3/train/data/feats_fmllr_train.8.ark:6310048
mrfk0_sx266 quick_test/data-fmllr-tri3/train/data/feats_fmllr_train.8.ark:16896976
mdwd0_si557 quick_test/data-fmllr-tri3/train/data/feats_fmllr_train.5.ark:9706136
flet0_si1137 quick_test/data-fmllr-tri3/train/data/feats_fmllr_train.2.ark:10052325
fjwb1_si2055 quick_test/data-fmllr-tri3/train/data/feats_fmllr_train.2.ark:4039308
fdaw0_sx56 quick_test/data-fmllr-tri3/train/data/feats_fmllr_train.1.ark:10093946
fvmh0_si2096 quick_test/data-fmllr-tri3/train/data/feats_fmllr_train.3.ark:16560195
mrbc0_sx59 quick_test/data-fmllr-tri3/train/data/feats_fmllr_train.8.ark:13195684
mrem0_sx421 quick_test/data-fmllr-tri3/train/data/feats_fmllr_train.8.ark:16257875
fpaf0_si1684 quick_test/data-fmllr-tri3/train/data/feats_fmllr_train.3.ark:2116645
mjlg1_sx382 quick_test/data-fmllr-tri3/train/data/feats_fmllr_train.6.ark:14611267
mjpg0_sx381 quick_test/data-fmllr-tri3/train/data/feats_fmllr_train.6.ark:16403713
falk0_sx276 quick_test/data-fmllr-tri3/train/data/feats_fmllr_train.1.ark:1022473
fjkl0_si1562 quick_test/data-fmllr-tri3/train/data/feats_fmllr_train.2.ark:1247867
mjjb0_sx239 quick_test/data-fmllr-tri3/train/data/feats_fmllr_train.6.ark:12529781
mcss0_si1380 quick_test/data-fmllr-tri3/train/data/feats_fmllr_train.4.ark:12832672
mgag0_si1321 quick_test/data-fmllr-tri3/train/data/feats_fmllr_train.5.ark:16573402
fsjk1_sx395 quick_test/data-fmllr-tri3/train/data/feats_fmllr_train.3.ark:9124015
mrab0_sx54 quick_test/data-fmllr-tri3/train/data/feats_fmllr_train.8.ark:11271397
mjpm1_sx401 quick_test/data-fmllr-tri3/train/data/feats_fmllr_train.6.ark:17117561
fetb0_sx248 quick_test/data-fmllr-tri3/train/data/feats_fmllr_train.1.ark:15604908
fskc0_si786 quick_test/data-fmllr-tri3/train/data/feats_fmllr_train.3.ark:10092852
fsag0_sx333 quick_test/data-fmllr-tri3/train/data/feats_fmllr_train.3.ark:5336088
msrr0_sx141 quick_test/data-fmllr-tri3/train/data/feats_fmllr_train.9.ark:17522129
mdem0_si1868 quick_test/data-fmllr-tri3/train/data/feats_fmllr_train.5.ark:352071
flac0_si1339 quick_test/data-fmllr-tri3/train/data/feats_fmllr_train.2.ark:8862233
mtjs0_sx22 quick_test/data-fmllr-tri3/train/data/feats_fmllr_train.10.ark:5145952
mabc0_sx331 quick_test/data-fmllr-tri3/train/data/feats_fmllr_train.3.ark:17059720
mpgr1_si2129 quick_test/data-fmllr-tri3/train/data/feats_fmllr_train.8.ark:7602328
mtat0_sx390 quick_test/data-fmllr-tri3/train/data/feats_fmllr_train.10.ark:1578773
mtcs0_si2265 quick_test/data-fmllr-tri3/train/data/feats_fmllr_train.10.ark:2471903
mrab0_sx144 quick_test/data-fmllr-tri3/train/data/feats_fmllr_train.8.ark:11074490
mcre0_sx41 quick_test/data-fmllr-tri3/train/data/feats_fmllr_train.4.ark:12777284
fbas0_si1472 quick_test/data-fmllr-tri3/train/data/feats_fmllr_train.1.ark:2110402
flod0_sx171 quick_test/data-fmllr-tri3/train/data/feats_fmllr_train.2.ark:13766709
fksr0_sx366 quick_test/data-fmllr-tri3/train/data/feats_fmllr_train.2.ark:8712552
mrlj0_sx250 quick_test/data-fmllr-tri3/train/data/feats_fmllr_train.9.ark:3912312
mrjm0_sx418 quick_test/data-fmllr-tri3/train/data/feats_fmllr_train.9.ark:1985523
mdtb0_si570 quick_test/data-fmllr-tri3/train/data/feats_fmllr_train.5.ark:9315038
mtjm0_sx416 quick_test/data-fmllr-tri3/train/data/feats_fmllr_train.10.ark:4765123
mprd0_sx261 quick_test/data-fmllr-tri3/train/data/feats_fmllr_train.8.ark:9632050
mdlc1_sx85 quick_test/data-fmllr-tri3/train/data/feats_fmllr_train.5.ark:3537940
mkln0_sx248 quick_test/data-fmllr-tri3/train/data/feats_fmllr_train.7.ark:7677363
mcdc0_sx212 quick_test/data-fmllr-tri3/train/data/feats_fmllr_train.4.ark:9161010
mdwm0_sx106 quick_test/data-fmllr-tri3/train/data/feats_fmllr_train.5.ark:10549157
mhxl0_sx242 quick_test/data-fmllr-tri3/train/data/feats_fmllr_train.6.ark:5907853
fcag0_sx243 quick_test/data-fmllr-tri3/train/data/feats_fmllr_train.1.ark:5040003
mmcc0_sx438 quick_test/data-fmllr-tri3/train/data/feats_fmllr_train.7.ark:15383624
mprt0_sx130 quick_test/data-fmllr-tri3/train/data/feats_fmllr_train.8.ark:10419656
fblv0_sx248 quick_test/data-fmllr-tri3/train/data/feats_fmllr_train.1.ark:3892952
mtxs0_sx430 quick_test/data-fmllr-tri3/train/data/feats_fmllr_train.10.ark:12226847
mfwk0_sx259 quick_test/data-fmllr-tri3/train/data/feats_fmllr_train.5.ark:15288961
mclm0_sx286 quick_test/data-fmllr-tri3/train/data/feats_fmllr_train.4.ark:12010583
msas0_si746 quick_test/data-fmllr-tri3/train/data/feats_fmllr_train.9.ark:11557084
fscn0_si705 quick_test/data-fmllr-tri3/train/data/feats_fmllr_train.3.ark:6854475
mmag0_si496 quick_test/data-fmllr-tri3/train/data/feats_fmllr_train.7.ark:13535607
mljc0_sx55 quick_test/data-fmllr-tri3/train/data/feats_fmllr_train.7.ark:11281959
fmkc0_si1702 quick_test/data-fmllr-tri3/train/data/feats_fmllr_train.2.ark:16841512
mapv0_si1293 quick_test/data-fmllr-tri3/train/data/feats_fmllr_train.4.ark:2243558
mrgm0_si1162 quick_test/data-fmllr-tri3/train/data/feats_fmllr_train.8.ark:17486421
mkjo0_si1517 quick_test/data-fmllr-tri3/train/data/feats_fmllr_train.7.ark:7147117
mjra0_si606 quick_test/data-fmllr-tri3/train/data/feats_fmllr_train.6.ark:17322630
flod0_sx207 quick_test/data-fmllr-tri3/train/data/feats_fmllr_train.2.ark:13827376
fmjf0_sx264 quick_test/data-fmllr-tri3/train/data/feats_fmllr_train.2.ark:16126251
mjde0_si463 quick_test/data-fmllr-tri3/train/data/feats_fmllr_train.6.ark:8827426
mwem0_si1950 quick_test/data-fmllr-tri3/train/data/feats_fmllr_train.10.ark:15337496
fbcg1_sx172 quick_test/data-fmllr-tri3/train/data/feats_fmllr_train.1.ark:2589554
fpab1_sx121 quick_test/data-fmllr-tri3/train/data/feats_fmllr_train.3.ark:950288
mmab1_sx54 quick_test/data-fmllr-tri3/train/data/feats_fmllr_train.7.ark:13354244
mjma0_sx325 quick_test/data-fmllr-tri3/train/data/feats_fmllr_train.6.ark:15305888
mdhs0_sx180 quick_test/data-fmllr-tri3/train/data/feats_fmllr_train.5.ark:1355786
faem0_sx132 quick_test/data-fmllr-tri3/train/data/feats_fmllr_train.1.ark:155455
mrew1_si2130 quick_test/data-fmllr-tri3/train/data/feats_fmllr_train.8.ark:16392517
mjkr0_si571 quick_test/data-fmllr-tri3/train/data/feats_fmllr_train.6.ark:13664778
mjls0_sx16 quick_test/data-fmllr-tri3/train/data/feats_fmllr_train.6.ark:14880843
fkaa0_sx218 quick_test/data-fmllr-tri3/train/data/feats_fmllr_train.2.ark:5389507
mrdd0_sx60 quick_test/data-fmllr-tri3/train/data/feats_fmllr_train.8.ark:14357136
fsmm0_sx324 quick_test/data-fmllr-tri3/train/data/feats_fmllr_train.3.ark:12132259
mdlc0_sx405 quick_test/data-fmllr-tri3/train/data/feats_fmllr_train.5.ark:3103456
mdps0_si1651 quick_test/data-fmllr-tri3/train/data/feats_fmllr_train.5.ark:7415338
msfh0_si586 quick_test/data-fmllr-tri3/train/data/feats_fmllr_train.9.ark:14648584
fcjf0_sx307 quick_test/data-fmllr-tri3/train/data/feats_fmllr_train.1.ark:6602498
fdjh0_sx305 quick_test/data-fmllr-tri3/train/data/feats_fmllr_train.1.ark:10710008
msds0_sx177 quick_test/data-fmllr-tri3/train/data/feats_fmllr_train.9.ark:13396439
mjdg0_si1042 quick_test/data-fmllr-tri3/train/data/feats_fmllr_train.6.ark:9246815
mpsw0_sx77 quick_test/data-fmllr-tri3/train/data/feats_fmllr_train.8.ark:10895340
msms0_sx173 quick_test/data-fmllr-tri3/train/data/feats_fmllr_train.9.ark:16761855
mtdp0_sx441 quick_test/data-fmllr-tri3/train/data/feats_fmllr_train.10.ark:3576633
mrjm1_sx308 quick_test/data-fmllr-tri3/train/data/feats_fmllr_train.9.ark:2338993
mpmb0_si2131 quick_test/data-fmllr-tri3/train/data/feats_fmllr_train.8.ark:7992278
mvlo0_sx337 quick_test/data-fmllr-tri3/train/data/feats_fmllr_train.10.ark:12949974
mzmb0_sx446 quick_test/data-fmllr-tri3/train/data/feats_fmllr_train.10.ark:17896504
fjkl0_si2192 quick_test/data-fmllr-tri3/train/data/feats_fmllr_train.2.ark:1267415
mtmn0_si582 quick_test/data-fmllr-tri3/train/data/feats_fmllr_train.10.ark:7771712
fmkf0_sx6 quick_test/data-fmllr-tri3/train/data/feats_fmllr_train.2.ark:17445195
mhxl0_sx422 quick_test/data-fmllr-tri3/train/data/feats_fmllr_train.6.ark:6013027
fsjs0_sx451 quick_test/data-fmllr-tri3/train/data/feats_fmllr_train.3.ark:9472846
mtas0_si755 quick_test/data-fmllr-tri3/train/data/feats_fmllr_train.10.ark:1021942
flet0_sx147 quick_test/data-fmllr-tri3/train/data/feats_fmllr_train.2.ark:10228407
mtpr0_sx70 quick_test/data-fmllr-tri3/train/data/feats_fmllr_train.10.ark:9926851
mtmt0_sx38 quick_test/data-fmllr-tri3/train/data/feats_fmllr_train.10.ark:8353476
maeo0_sx246 quick_test/data-fmllr-tri3/train/data/feats_fmllr_train.4.ark:561140
mdmt0_sx302 quick_test/data-fmllr-tri3/train/data/feats_fmllr_train.5.ark:6144686
mmgg0_sx449 quick_test/data-fmllr-tri3/train/data/feats_fmllr_train.8.ark:633835
fdfb0_sx148 quick_test/data-fmllr-tri3/train/data/feats_fmllr_train.1.ark:10261577
mtpg0_sx33 quick_test/data-fmllr-tri3/train/data/feats_fmllr_train.10.ark:9082390
mmcc0_si708 quick_test/data-fmllr-tri3/train/data/feats_fmllr_train.7.ark:15207196
falk0_sx186 quick_test/data-fmllr-tri3/train/data/feats_fmllr_train.1.ark:984206
mrre0_sx434 quick_test/data-fmllr-tri3/train/data/feats_fmllr_train.9.ark:7775820
mtkd0_sx287 quick_test/data-fmllr-tri3/train/data/feats_fmllr_train.10.ark:5980173
mjrh0_sx405 quick_test/data-fmllr-tri3/train/data/feats_fmllr_train.7.ark:297137
fkkh0_sx120 quick_test/data-fmllr-tri3/train/data/feats_fmllr_train.2.ark:7087469
mbml0_si1169 quick_test/data-fmllr-tri3/train/data/feats_fmllr_train.4.ark:6332185
mkah0_sx178 quick_test/data-fmllr-tri3/train/data/feats_fmllr_train.7.ark:4554161
msfv0_sx362 quick_test/data-fmllr-tri3/train/data/feats_fmllr_train.9.ark:15240242
mwgr0_sx346 quick_test/data-fmllr-tri3/train/data/feats_fmllr_train.10.ark:15894594
mprk0_si1097 quick_test/data-fmllr-tri3/train/data/feats_fmllr_train.8.ark:9816798
fkaa0_si1208 quick_test/data-fmllr-tri3/train/data/feats_fmllr_train.2.ark:5196758
mhbs0_sx315 quick_test/data-fmllr-tri3/train/data/feats_fmllr_train.6.ark:3798098
mjrg0_si1366 quick_test/data-fmllr-tri3/train/data/feats_fmllr_train.6.ark:17606152
mgjc0_sx75 quick_test/data-fmllr-tri3/train/data/feats_fmllr_train.6.ark:1459095
mtju0_sx40 quick_test/data-fmllr-tri3/train/data/feats_fmllr_train.10.ark:5580756
mrkm0_si637 quick_test/data-fmllr-tri3/train/data/feats_fmllr_train.9.ark:3046546
mabc0_si781 quick_test/data-fmllr-tri3/train/data/feats_fmllr_train.3.ark:16920439
fhxs0_sx175 quick_test/data-fmllr-tri3/train/data/feats_fmllr_train.1.ark:18588164
mmvp0_si1914 quick_test/data-fmllr-tri3/train/data/feats_fmllr_train.8.ark:3015059
mgrp0_si1317 quick_test/data-fmllr-tri3/train/data/feats_fmllr_train.6.ark:1876140
mkaj0_sx334 quick_test/data-fmllr-tri3/train/data/feats_fmllr_train.7.ark:5035552
fkaa0_sx128 quick_test/data-fmllr-tri3/train/data/feats_fmllr_train.2.ark:5349480
fcjf0_sx217 quick_test/data-fmllr-tri3/train/data/feats_fmllr_train.1.ark:6575111
mjpm0_si1998 quick_test/data-fmllr-tri3/train/data/feats_fmllr_train.6.ark:16506809
msrg0_sx411 quick_test/data-fmllr-tri3/train/data/feats_fmllr_train.9.ark:17258633
mmaa0_sx35 quick_test/data-fmllr-tri3/train/data/feats_fmllr_train.7.ark:12914800
fdxw0_sx161 quick_test/data-fmllr-tri3/train/data/feats_fmllr_train.1.ark:13123579
mwsh0_si796 quick_test/data-fmllr-tri3/train/data/feats_fmllr_train.10.ark:17245139
mrjm0_si1228 quick_test/data-fmllr-tri3/train/data/feats_fmllr_train.9.ark:1734827
mpgr1_sx239 quick_test/data-fmllr-tri3/train/data/feats_fmllr_train.8.ark:7702862
mgag0_sx151 quick_test/data-fmllr-tri3/train/data/feats_fmllr_train.5.ark:16727403
mvlo0_sx67 quick_test/data-fmllr-tri3/train/data/feats_fmllr_train.10.ark:13034027
mcth0_sx399 quick_test/data-fmllr-tri3/train/data/feats_fmllr_train.4.ark:13570997
msrg0_si591 quick_test/data-fmllr-tri3/train/data/feats_fmllr_train.9.ark:17071165
mkdd0_sx217 quick_test/data-fmllr-tri3/train/data/feats_fmllr_train.7.ark:6173456
mrlj0_sx70 quick_test/data-fmllr-tri3/train/data/feats_fmllr_train.9.ark:4044712
fsms1_si2134 quick_test/data-fmllr-tri3/train/data/feats_fmllr_train.3.ark:12357968
mvjh0_si926 quick_test/data-fmllr-tri3/train/data/feats_fmllr_train.10.ark:12465996
mejs0_sx430 quick_test/data-fmllr-tri3/train/data/feats_fmllr_train.5.ark:12897737
mjee0_si1867 quick_test/data-fmllr-tri3/train/data/feats_fmllr_train.6.ark:10886272
fnkl0_sx172 quick_test/data-fmllr-tri3/train/data/feats_fmllr_train.3.ark:156095
mprk0_si467 quick_test/data-fmllr-tri3/train/data/feats_fmllr_train.8.ark:9955413
mbgt0_si711 quick_test/data-fmllr-tri3/train/data/feats_fmllr_train.4.ark:4887212
mges0_sx401 quick_test/data-fmllr-tri3/train/data/feats_fmllr_train.6.ark:987011
fcaj0_sx309 quick_test/data-fmllr-tri3/train/data/feats_fmllr_train.1.ark:5445847
maeo0_sx66 quick_test/data-fmllr-tri3/train/data/feats_fmllr_train.4.ark:710980
mhmr0_sx129 quick_test/data-fmllr-tri3/train/data/feats_fmllr_train.6.ark:5123073
feme0_sx245 quick_test/data-fmllr-tri3/train/data/feats_fmllr_train.1.ark:15211571
mdpk0_sx63 quick_test/data-fmllr-tri3/train/data/feats_fmllr_train.5.ark:7377710
mgaw0_si1165 quick_test/data-fmllr-tri3/train/data/feats_fmllr_train.6.ark:385831
fsah0_sx327 quick_test/data-fmllr-tri3/train/data/feats_fmllr_train.3.ark:5760758
faem0_sx42 quick_test/data-fmllr-tri3/train/data/feats_fmllr_train.1.ark:354602
mjfh0_si477 quick_test/data-fmllr-tri3/train/data/feats_fmllr_train.6.ark:11298996
mtrc0_si589 quick_test/data-fmllr-tri3/train/data/feats_fmllr_train.10.ark:10508083
fklh0_si627 quick_test/data-fmllr-tri3/train/data/feats_fmllr_train.2.ark:8205534
fjlg0_si2306 quick_test/data-fmllr-tri3/train/data/feats_fmllr_train.2.ark:1714060
mmab1_si864 quick_test/data-fmllr-tri3/train/data/feats_fmllr_train.7.ark:13064030
fvmh0_sx206 quick_test/data-fmllr-tri3/train/data/feats_fmllr_train.3.ark:16704276
fsmm0_si1314 quick_test/data-fmllr-tri3/train/data/feats_fmllr_train.3.ark:11896283
mcdc0_sx122 quick_test/data-fmllr-tri3/train/data/feats_fmllr_train.4.ark:9108983
mwem0_si1320 quick_test/data-fmllr-tri3/train/data/feats_fmllr_train.10.ark:15248000
mdrd0_si752 quick_test/data-fmllr-tri3/train/data/feats_fmllr_train.5.ark:7849210
mmab1_sx234 quick_test/data-fmllr-tri3/train/data/feats_fmllr_train.7.ark:13188244
mjeb0_sx386 quick_test/data-fmllr-tri3/train/data/feats_fmllr_train.6.ark:10380239
mrmh0_sx211 quick_test/data-fmllr-tri3/train/data/feats_fmllr_train.9.ark:6105617
fgcs0_sx316 quick_test/data-fmllr-tri3/train/data/feats_fmllr_train.1.ark:16484570
fcaj0_si1804 quick_test/data-fmllr-tri3/train/data/feats_fmllr_train.1.ark:5264459
ftaj0_sx429 quick_test/data-fmllr-tri3/train/data/feats_fmllr_train.3.ark:14137851
fkdw0_sx37 quick_test/data-fmllr-tri3/train/data/feats_fmllr_train.2.ark:6343915
frll0_sx164 quick_test/data-fmllr-tri3/train/data/feats_fmllr_train.3.ark:4874857
ftlg0_sx213 quick_test/data-fmllr-tri3/train/data/feats_fmllr_train.3.ark:15217807
msah1_si1679 quick_test/data-fmllr-tri3/train/data/feats_fmllr_train.9.ark:11139399
fbcg1_si2242 quick_test/data-fmllr-tri3/train/data/feats_fmllr_train.1.ark:2493020
mdps0_sx89 quick_test/data-fmllr-tri3/train/data/feats_fmllr_train.5.ark:7727047
fsbk0_sx169 quick_test/data-fmllr-tri3/train/data/feats_fmllr_train.3.ark:6455886
msmr0_si775 quick_test/data-fmllr-tri3/train/data/feats_fmllr_train.9.ark:16346251
mpgh0_si924 quick_test/data-fmllr-tri3/train/data/feats_fmllr_train.8.ark:6947173
mdlh0_sx340 quick_test/data-fmllr-tri3/train/data/feats_fmllr_train.5.ark:4176880
mjrk0_sx160 quick_test/data-fmllr-tri3/train/data/feats_fmllr_train.7.ark:887730
fclt0_sx88 quick_test/data-fmllr-tri3/train/data/feats_fmllr_train.1.ark:7724962
mrxb0_sx325 quick_test/data-fmllr-tri3/train/data/feats_fmllr_train.9.ark:10968410
makr0_sx362 quick_test/data-fmllr-tri3/train/data/feats_fmllr_train.4.ark:2124277
mjde0_si1120 quick_test/data-fmllr-tri3/train/data/feats_fmllr_train.6.ark:8727719
msmc0_sx377 quick_test/data-fmllr-tri3/train/data/feats_fmllr_train.9.ark:16170488
fclt0_sx358 quick_test/data-fmllr-tri3/train/data/feats_fmllr_train.1.ark:7644109
flhd0_si1974 quick_test/data-fmllr-tri3/train/data/feats_fmllr_train.2.ark:10491478
mgaw0_sx85 quick_test/data-fmllr-tri3/train/data/feats_fmllr_train.6.ark:716580
mjls0_sx286 quick_test/data-fmllr-tri3/train/data/feats_fmllr_train.6.ark:14947617
mkdd0_si2197 quick_test/data-fmllr-tri3/train/data/feats_fmllr_train.7.ark:6006815
mlsh0_si787 quick_test/data-fmllr-tri3/train/data/feats_fmllr_train.7.ark:12293196
msah1_sx239 quick_test/data-fmllr-tri3/train/data/feats_fmllr_train.9.ark:11252281
fceg0_si618 quick_test/data-fmllr-tri3/train/data/feats_fmllr_train.1.ark:6152920
mmsm0_sx386 quick_test/data-fmllr-tri3/train/data/feats_fmllr_train.8.ark:2922843
mhit0_si1613 quick_test/data-fmllr-tri3/train/data/feats_fmllr_train.6.ark:3914659
mmsm0_si1106 quick_test/data-fmllr-tri3/train/data/feats_fmllr_train.8.ark:2568094
fmkf0_sx96 quick_test/data-fmllr-tri3/train/data/feats_fmllr_train.2.ark:17483781
fexm0_si482 quick_test/data-fmllr-tri3/train/data/feats_fmllr_train.1.ark:15900911
mrlk0_sx213 quick_test/data-fmllr-tri3/train/data/feats_fmllr_train.9.ark:4638827
mprk0_sx377 quick_test/data-fmllr-tri3/train/data/feats_fmllr_train.8.ark:10230107
mdas0_sx6 quick_test/data-fmllr-tri3/train/data/feats_fmllr_train.4.ark:15034236
mhit0_sx173 quick_test/data-fmllr-tri3/train/data/feats_fmllr_train.6.ark:4069301
mjwt0_si751 quick_test/data-fmllr-tri3/train/data/feats_fmllr_train.7.ark:2966867
msdb0_si1637 quick_test/data-fmllr-tri3/train/data/feats_fmllr_train.9.ark:12586189
mtqc0_si1441 quick_test/data-fmllr-tri3/train/data/feats_fmllr_train.10.ark:9943519
mrdm0_si1595 quick_test/data-fmllr-tri3/train/data/feats_fmllr_train.8.ark:14477032
fgrw0_sx342 quick_test/data-fmllr-tri3/train/data/feats_fmllr_train.1.ark:17799302
fkdw0_sx217 quick_test/data-fmllr-tri3/train/data/feats_fmllr_train.2.ark:6284662
flja0_si2338 quick_test/data-fmllr-tri3/train/data/feats_fmllr_train.2.ark:10900336
medr0_sx114 quick_test/data-fmllr-tri3/train/data/feats_fmllr_train.5.ark:11242872
mrdd0_sx330 quick_test/data-fmllr-tri3/train/data/feats_fmllr_train.8.ark:14306870
mklr0_sx249 quick_test/data-fmllr-tri3/train/data/feats_fmllr_train.7.ark:8032781
feme0_sx425 quick_test/data-fmllr-tri3/train/data/feats_fmllr_train.1.ark:15331625
mtpg0_sx123 quick_test/data-fmllr-tri3/train/data/feats_fmllr_train.10.ark:8962950
mrsp0_sx259 quick_test/data-fmllr-tri3/train/data/feats_fmllr_train.9.ark:8604868
mrtj0_sx52 quick_test/data-fmllr-tri3/train/data/feats_fmllr_train.9.ark:9601355
fcjs0_si1607 quick_test/data-fmllr-tri3/train/data/feats_fmllr_train.1.ark:6700339
mtdp0_si1521 quick_test/data-fmllr-tri3/train/data/feats_fmllr_train.10.ark:3246577
mkdt0_sx83 quick_test/data-fmllr-tri3/train/data/feats_fmllr_train.7.ark:6684152
fdkn0_sx181 quick_test/data-fmllr-tri3/train/data/feats_fmllr_train.1.ark:10997852
mpmb0_sx61 quick_test/data-fmllr-tri3/train/data/feats_fmllr_train.8.ark:8466039
mkls0_sx267 quick_test/data-fmllr-tri3/train/data/feats_fmllr_train.7.ark:8417959
fsls0_si1686 quick_test/data-fmllr-tri3/train/data/feats_fmllr_train.3.ark:11142596
fjlg0_sx179 quick_test/data-fmllr-tri3/train/data/feats_fmllr_train.2.ark:1742727
mddc0_sx429 quick_test/data-fmllr-tri3/train/data/feats_fmllr_train.4.ark:16914362
mpsw0_sx257 quick_test/data-fmllr-tri3/train/data/feats_fmllr_train.8.ark:10814167
mlns0_sx57 quick_test/data-fmllr-tri3/train/data/feats_fmllr_train.7.ark:12143833
mbth0_sx32 quick_test/data-fmllr-tri3/train/data/feats_fmllr_train.4.ark:7612197
mrpc1_sx402 quick_test/data-fmllr-tri3/train/data/feats_fmllr_train.9.ark:7345684
fjlr0_sx151 quick_test/data-fmllr-tri3/train/data/feats_fmllr_train.2.ark:2135264
milb0_si2163 quick_test/data-fmllr-tri3/train/data/feats_fmllr_train.6.ark:6120761
fpls0_sx3 quick_test/data-fmllr-tri3/train/data/feats_fmllr_train.3.ark:3441083
mmgg0_sx179 quick_test/data-fmllr-tri3/train/data/feats_fmllr_train.8.ark:498234
fvfb0_sx402 quick_test/data-fmllr-tri3/train/data/feats_fmllr_train.3.ark:16031576
mmws1_si1701 quick_test/data-fmllr-tri3/train/data/feats_fmllr_train.8.ark:4364830
mtkp0_sx393 quick_test/data-fmllr-tri3/train/data/feats_fmllr_train.10.ark:6460257
mrjm1_si1298 quick_test/data-fmllr-tri3/train/data/feats_fmllr_train.9.ark:2099977
mjee0_sx427 quick_test/data-fmllr-tri3/train/data/feats_fmllr_train.6.ark:11111687
fjkl0_sx392 quick_test/data-fmllr-tri3/train/data/feats_fmllr_train.2.ark:1564696
fhxs0_si2335 quick_test/data-fmllr-tri3/train/data/feats_fmllr_train.1.ark:18546217
mdlb0_sx406 quick_test/data-fmllr-tri3/train/data/feats_fmllr_train.5.ark:2672199
msmc0_si509 quick_test/data-fmllr-tri3/train/data/feats_fmllr_train.9.ark:15868407
mdpb0_sx326 quick_test/data-fmllr-tri3/train/data/feats_fmllr_train.5.ark:6944000
mntw0_si1068 quick_test/data-fmllr-tri3/train/data/feats_fmllr_train.8.ark:5322090
fcke0_si1741 quick_test/data-fmllr-tri3/train/data/feats_fmllr_train.1.ark:7077864
mhbs0_sx225 quick_test/data-fmllr-tri3/train/data/feats_fmllr_train.6.ark:3768311
mrjt0_sx328 quick_test/data-fmllr-tri3/train/data/feats_fmllr_train.9.ark:2718250
mmds0_si1973 quick_test/data-fmllr-tri3/train/data/feats_fmllr_train.7.ark:17077214
mapv0_sx303 quick_test/data-fmllr-tri3/train/data/feats_fmllr_train.4.ark:2544814
mkln0_sx338 quick_test/data-fmllr-tri3/train/data/feats_fmllr_train.7.ark:7713390
fsah0_sx74 quick_test/data-fmllr-tri3/train/data/feats_fmllr_train.3.ark:5914918
fdxw0_si1511 quick_test/data-fmllr-tri3/train/data/feats_fmllr_train.1.ark:13009417
mjxl0_si1172 quick_test/data-fmllr-tri3/train/data/feats_fmllr_train.7.ark:3610126
mdps0_sx269 quick_test/data-fmllr-tri3/train/data/feats_fmllr_train.5.ark:7586327
mdas0_si1266 quick_test/data-fmllr-tri3/train/data/feats_fmllr_train.4.ark:14766236
mjls0_sx196 quick_test/data-fmllr-tri3/train/data/feats_fmllr_train.6.ark:14918470
mrld0_sx64 quick_test/data-fmllr-tri3/train/data/feats_fmllr_train.9.ark:3680175
mses0_sx149 quick_test/data-fmllr-tri3/train/data/feats_fmllr_train.9.ark:14300074
fcyl0_sx127 quick_test/data-fmllr-tri3/train/data/feats_fmllr_train.1.ark:9102844
fcjf0_sx37 quick_test/data-fmllr-tri3/train/data/feats_fmllr_train.1.ark:6625404
mtml0_sx75 quick_test/data-fmllr-tri3/train/data/feats_fmllr_train.10.ark:7603149
fmah1_sx159 quick_test/data-fmllr-tri3/train/data/feats_fmllr_train.2.ark:14486638
mkln0_si2228 quick_test/data-fmllr-tri3/train/data/feats_fmllr_train.7.ark:7546882
mjrh1_si514 quick_test/data-fmllr-tri3/train/data/feats_fmllr_train.7.ark:503326
mjjb0_si1139 quick_test/data-fmllr-tri3/train/data/feats_fmllr_train.6.ark:12331111
mkaj0_sx424 quick_test/data-fmllr-tri3/train/data/feats_fmllr_train.7.ark:5067259
fcrz0_sx253 quick_test/data-fmllr-tri3/train/data/feats_fmllr_train.1.ark:8754174
mclk0_sx310 quick_test/data-fmllr-tri3/train/data/feats_fmllr_train.4.ark:11643940
mpgh0_sx384 quick_test/data-fmllr-tri3/train/data/feats_fmllr_train.8.ark:7118987
fksr0_si487 quick_test/data-fmllr-tri3/train/data/feats_fmllr_train.2.ark:8573431
fbjl0_sx22 quick_test/data-fmllr-tri3/train/data/feats_fmllr_train.1.ark:3509560
mbar0_sx419 quick_test/data-fmllr-tri3/train/data/feats_fmllr_train.4.ark:3675572
msjk0_si1596 quick_test/data-fmllr-tri3/train/data/feats_fmllr_train.9.ark:15415363
mreh1_sx249 quick_test/data-fmllr-tri3/train/data/feats_fmllr_train.8.ark:15770085
frjb0_si1427 quick_test/data-fmllr-tri3/train/data/feats_fmllr_train.3.ark:4352158
ftbw0_si1975 quick_test/data-fmllr-tri3/train/data/feats_fmllr_train.3.ark:14626470
mwrp0_si1525 quick_test/data-fmllr-tri3/train/data/feats_fmllr_train.10.ark:16487401
msdh0_si980 quick_test/data-fmllr-tri3/train/data/feats_fmllr_train.9.ark:12844514
mtrc0_si993 quick_test/data-fmllr-tri3/train/data/feats_fmllr_train.10.ark:10573390
fdjh0_si1565 quick_test/data-fmllr-tri3/train/data/feats_fmllr_train.1.ark:10472272
mejs0_sx340 quick_test/data-fmllr-tri3/train/data/feats_fmllr_train.5.ark:12855630
msat1_si2333 quick_test/data-fmllr-tri3/train/data/feats_fmllr_train.9.ark:12250319
fmju0_sx219 quick_test/data-fmllr-tri3/train/data/feats_fmllr_train.2.ark:16542468
mrjm1_sx128 quick_test/data-fmllr-tri3/train/data/feats_fmllr_train.9.ark:2254299
msfv0_si1262 quick_test/data-fmllr-tri3/train/data/feats_fmllr_train.9.ark:14979466
fcdr1_sx106 quick_test/data-fmllr-tri3/train/data/feats_fmllr_train.1.ark:5825530
mgak0_si1036 quick_test/data-fmllr-tri3/train/data/feats_fmllr_train.5.ark:16923058
ftaj0_sx249 quick_test/data-fmllr-tri3/train/data/feats_fmllr_train.3.ark:14072197
