fgmb0_si515 quick_test/mfcc/raw_mfcc_train.1.ark:1443065
makb0_si1646 quick_test/mfcc/raw_mfcc_train.2.ark:888086
mmwb0_sx89 quick_test/mfcc/raw_mfcc_train.3.ark:3352245
mbjv0_sx347 quick_test/mfcc/raw_mfcc_train.2.ark:1209291
mree0_si1104 quick_test/mfcc/raw_mfcc_train.4.ark:537282
mkls0_sx357 quick_test/mfcc/raw_mfcc_train.3.ark:2225089
mrjm0_sx238 quick_test/mfcc/raw_mfcc_train.4.ark:933151
mjsr0_sx254 quick_test/mfcc/raw_mfcc_train.3.ark:1659498
mmds0_si713 quick_test/mfcc/raw_mfcc_train.3.ark:2948890
fcaj0_si1804 quick_test/mfcc/raw_mfcc_train.1.ark:441914
fgcs0_sx46 quick_test/mfcc/raw_mfcc_train.1.ark:1391700
mtml0_si1065 quick_test/mfcc/raw_mfcc_train.4.ark:2906190
fskc0_sx426 quick_test/mfcc/raw_mfcc_train.2.ark:105978
mstf0_sx316 quick_test/mfcc/raw_mfcc_train.4.ark:2286148
fklh0_sx447 quick_test/mfcc/raw_mfcc_train.1.ark:2285570
fpls0_si2220 quick_test/mfcc/raw_mfcc_train.1.ark:3399688
ftbr0_si921 quick_test/mfcc/raw_mfcc_train.2.ark:447425
mjsr0_sx344 quick_test/mfcc/raw_mfcc_train.3.ark:1663574
fpad0_sx356 quick_test/mfcc/raw_mfcc_train.1.ark:3285763
mpgr1_sx239 quick_test/mfcc/raw_mfcc_train.3.ark:3673494
mwrp0_sx183 quick_test/mfcc/raw_mfcc_train.4.ark:3692423
fceg0_sx258 quick_test/mfcc/raw_mfcc_train.1.ark:522207
mkln0_si1598 quick_test/mfcc/raw_mfcc_train.3.ark:2142205
mrgm0_sx416 quick_test/mfcc/raw_mfcc_train.4.ark:760234
fclt0_sx448 quick_test/mfcc/raw_mfcc_train.1.ark:645715
mjdg0_si1672 quick_test/mfcc/raw_mfcc_train.3.ark:780941
mwsb0_sx96 quick_test/mfcc/raw_mfcc_train.4.ark:3735221
mgrp0_sx147 quick_test/mfcc/raw_mfcc_train.3.ark:171324
mtlb0_sx414 quick_test/mfcc/raw_mfcc_train.4.ark:2868679
mdrd0_sx392 quick_test/mfcc/raw_mfcc_train.2.ark:2903149
mcdr0_sx74 quick_test/mfcc/raw_mfcc_train.2.ark:1602221
mrtj0_si772 quick_test/mfcc/raw_mfcc_train.4.ark:1553218
ftlg0_sx123 quick_test/mfcc/raw_mfcc_train.2.ark:518070
fmah1_sx249 quick_test/mfcc/raw_mfcc_train.1.ark:2801910
mmdm0_sx411 quick_test/mfcc/raw_mfcc_train.3.ark:2900379
mrws0_sx292 quick_test/mfcc/raw_mfcc_train.4.ark:1665866
mdsj0_sx112 quick_test/mfcc/raw_mfcc_train.2.ark:2919832
mprt0_sx220 quick_test/mfcc/raw_mfcc_train.4.ark:143889
mtmn0_si582 quick_test/mfcc/raw_mfcc_train.4.ark:2951087
fmbg0_sx260 quick_test/mfcc/raw_mfcc_train.1.ark:2828962
mgaf0_si652 quick_test/mfcc/raw_mfcc_train.2.ark:3594270
mpgr0_sx60 quick_test/mfcc/raw_mfcc_train.3.ark:3652864
mrab1_sx128 quick_test/mfcc/raw_mfcc_train.4.ark:230113
fskl0_si1529 quick_test/mfcc/raw_mfcc_train.2.ark:113467
mrmb0_sx141 quick_test/mfcc/raw_mfcc_train.4.ark:1219071
fbas0_sx37 quick_test/mfcc/raw_mfcc_train.1.ark:199029
mdlm0_si1864 quick_test/mfcc/raw_mfcc_train.2.ark:2584965
fljd0_sx436 quick_test/mfcc/raw_mfcc_train.1.ark:2547147
mgxp0_sx367 quick_test/mfcc/raw_mfcc_train.3.ark:287283
mmds0_sx263 quick_test/mfcc/raw_mfcc_train.3.ark:2955586
mrmh0_sx121 quick_test/mfcc/raw_mfcc_train.4.ark:1283914
mtdp0_sx171 quick_test/mfcc/raw_mfcc_train.4.ark:2582957
mrgm0_si1162 quick_test/mfcc/raw_mfcc_train.4.ark:735225
mfxv0_si1005 quick_test/mfcc/raw_mfcc_train.2.ark:3552935
mvlo0_sx427 quick_test/mfcc/raw_mfcc_train.4.ark:3390255
mjeb1_sx27 quick_test/mfcc/raw_mfcc_train.3.ark:899531
fbas0_sx397 quick_test/mfcc/raw_mfcc_train.1.ark:202676
fecd0_sx248 quick_test/mfcc/raw_mfcc_train.1.ark:1208562
mdlc2_sx84 quick_test/mfcc/raw_mfcc_train.2.ark:2542552
fsjs0_si1171 quick_test/mfcc/raw_mfcc_train.2.ark:14132
fear0_sx262 quick_test/mfcc/raw_mfcc_train.1.ark:1169102
fsbk0_si1069 quick_test/mfcc/raw_mfcc_train.1.ark:3659393
mkaj0_sx154 quick_test/mfcc/raw_mfcc_train.3.ark:1928694
fdjh0_si1565 quick_test/mfcc/raw_mfcc_train.1.ark:880027
msrg0_sx411 quick_test/mfcc/raw_mfcc_train.4.ark:2224319
mrlr0_sx26 quick_test/mfcc/raw_mfcc_train.4.ark:1197486
mkxl0_sx195 quick_test/mfcc/raw_mfcc_train.3.ark:2353926
mklw0_si1844 quick_test/mfcc/raw_mfcc_train.3.ark:2275030
mbma1_sx324 quick_test/mfcc/raw_mfcc_train.2.ark:1271948
mkdb0_sx242 quick_test/mfcc/raw_mfcc_train.3.ark:1994569
flag0_sx114 quick_test/mfcc/raw_mfcc_train.1.ark:2371000
mtjg0_sx260 quick_test/mfcc/raw_mfcc_train.4.ark:2657138
mdlr0_si1233 quick_test/mfcc/raw_mfcc_train.2.ark:2609129
fpab1_si1471 quick_test/mfcc/raw_mfcc_train.1.ark:3189894
mrwa0_sx343 quick_test/mfcc/raw_mfcc_train.4.ark:1632835
freh0_sx145 quick_test/mfcc/raw_mfcc_train.1.ark:3477593
mwrp0_sx363 quick_test/mfcc/raw_mfcc_train.4.ark:3702465
fvmh0_sx296 quick_test/mfcc/raw_mfcc_train.2.ark:654403
mprd0_si1431 quick_test/mfcc/raw_mfcc_train.4.ark:54060
majp0_sx444 quick_test/mfcc/raw_mfcc_train.2.ark:870865
mjxl0_sx452 quick_test/mfcc/raw_mfcc_train.3.ark:1840574
mljh0_sx244 quick_test/mfcc/raw_mfcc_train.3.ark:2488152
mtdb0_sx51 quick_test/mfcc/raw_mfcc_train.4.ark:2565532
mpgh0_sx114 quick_test/mfcc/raw_mfcc_train.3.ark:3612909
mgaw0_sx85 quick_test/mfcc/raw_mfcc_train.3.ark:60258
mmaa0_sx215 quick_test/mfcc/raw_mfcc_train.3.ark:2589541
mppc0_sx332 quick_test/mfcc/raw_mfcc_train.4.ark:3971
fmkf0_si1018 quick_test/mfcc/raw_mfcc_train.1.ark:3019444
mtml0_sx255 quick_test/mfcc/raw_mfcc_train.4.ark:2924472
mprt0_sx40 quick_test/mfcc/raw_mfcc_train.4.ark:151533
mcss0_si688 quick_test/mfcc/raw_mfcc_train.2.ark:1839093
mrdd0_sx277 quick_test/mfcc/raw_mfcc_train.4.ark:464919
mses0_si2216 quick_test/mfcc/raw_mfcc_train.4.ark:1969605
mtat0_si811 quick_test/mfcc/raw_mfcc_train.4.ark:2413196
mjde0_sx130 quick_test/mfcc/raw_mfcc_train.3.ark:751804
mmsm0_si476 quick_test/mfcc/raw_mfcc_train.3.ark:3250943
fpjf0_sx146 quick_test/mfcc/raw_mfcc_train.1.ark:3377857
ftbw0_sx355 quick_test/mfcc/raw_mfcc_train.2.ark:492002
mkes0_sx83 quick_test/mfcc/raw_mfcc_train.3.ark:2109523
milb0_si2163 quick_test/mfcc/raw_mfcc_train.3.ark:514590
mjai0_sx434 quick_test/mfcc/raw_mfcc_train.3.ark:636663
mdpb0_si2126 quick_test/mfcc/raw_mfcc_train.2.ark:2783922
fntb0_si679 quick_test/mfcc/raw_mfcc_train.1.ark:3166114
mbma1_sx54 quick_test/mfcc/raw_mfcc_train.2.ark:1281802
mrfk0_sx446 quick_test/mfcc/raw_mfcc_train.4.ark:692449
flma0_sx253 quick_test/mfcc/raw_mfcc_train.1.ark:2643581
mvlo0_sx157 quick_test/mfcc/raw_mfcc_train.4.ark:3378378
fmmh0_si2167 quick_test/mfcc/raw_mfcc_train.1.ark:3058676
mjxa0_sx157 quick_test/mfcc/raw_mfcc_train.3.ark:1797570
mdlr1_si1299 quick_test/mfcc/raw_mfcc_train.2.ark:2643493
mprb0_sx305 quick_test/mfcc/raw_mfcc_train.4.ark:41624
mgaw0_sx265 quick_test/mfcc/raw_mfcc_train.3.ark:50865
mejl0_sx332 quick_test/mfcc/raw_mfcc_train.2.ark:3265946
mfxv0_sx285 quick_test/mfcc/raw_mfcc_train.2.ark:3575858
mdma0_sx350 quick_test/mfcc/raw_mfcc_train.2.ark:2700748
mdps0_sx359 quick_test/mfcc/raw_mfcc_train.2.ark:2858632
fecd0_si1418 quick_test/mfcc/raw_mfcc_train.1.ark:1187447
mdmt0_si572 quick_test/mfcc/raw_mfcc_train.2.ark:2720154
fmkc0_si1702 quick_test/mfcc/raw_mfcc_train.1.ark:2995157
mesj0_si2039 quick_test/mfcc/raw_mfcc_train.2.ark:3341416
mjrh1_si1558 quick_test/mfcc/raw_mfcc_train.3.ark:1545301
mefg0_sx195 quick_test/mfcc/raw_mfcc_train.2.ark:3201353
fntb0_sx123 quick_test/mfcc/raw_mfcc_train.1.ark:3172699
mprb0_si1215 quick_test/mfcc/raw_mfcc_train.4.ark:19314
mrlj0_si1420 quick_test/mfcc/raw_mfcc_train.4.ark:1086311
msrg0_sx321 quick_test/mfcc/raw_mfcc_train.4.ark:2219775
mdlc0_sx225 quick_test/mfcc/raw_mfcc_train.2.ark:2471853
mbcg0_sx417 quick_test/mfcc/raw_mfcc_train.2.ark:1123327
mjeb0_sx206 quick_test/mfcc/raw_mfcc_train.3.ark:861495
mrtj0_sx142 quick_test/mfcc/raw_mfcc_train.4.ark:1560531
madc0_si1367 quick_test/mfcc/raw_mfcc_train.2.ark:687547
mprd0_sx351 quick_test/mfcc/raw_mfcc_train.4.ark:78289
mdcd0_sx65 quick_test/mfcc/raw_mfcc_train.2.ark:2119166
fjsp0_si1434 quick_test/mfcc/raw_mfcc_train.1.ark:1888178
fnkl0_sx442 quick_test/mfcc/raw_mfcc_train.1.ark:3150902
mhjb0_sx207 quick_test/mfcc/raw_mfcc_train.3.ark:376496
mtdp0_si1274 quick_test/mfcc/raw_mfcc_train.4.ark:2569024
fbch0_si959 quick_test/mfcc/raw_mfcc_train.1.ark:247995
mhit0_si1613 quick_test/mfcc/raw_mfcc_train.3.ark:328868
fclt0_si1438 quick_test/mfcc/raw_mfcc_train.1.ark:622103
fblv0_sx338 quick_test/mfcc/raw_mfcc_train.1.ark:329771
mjsr0_sx164 quick_test/mfcc/raw_mfcc_train.3.ark:1654863
meal0_si917 quick_test/mfcc/raw_mfcc_train.2.ark:3130474
fpac0_si2011 quick_test/mfcc/raw_mfcc_train.1.ark:3233990
fmjf0_sx84 quick_test/mfcc/raw_mfcc_train.1.ark:2946885
fbjl0_si1552 quick_test/mfcc/raw_mfcc_train.1.ark:274856
mmar0_sx166 quick_test/mfcc/raw_mfcc_train.3.ark:2718463
fmjf0_sx444 quick_test/mfcc/raw_mfcc_train.1.ark:2942719
mjws0_si513 quick_test/mfcc/raw_mfcc_train.3.ark:1721763
mefg0_sx105 quick_test/mfcc/raw_mfcc_train.2.ark:3194268
fpaf0_sx154 quick_test/mfcc/raw_mfcc_train.1.ark:3311404
mgar0_sx312 quick_test/mfcc/raw_mfcc_train.3.ark:19771
mgrl0_sx417 quick_test/mfcc/raw_mfcc_train.3.ark:151151
msmc0_si647 quick_test/mfcc/raw_mfcc_train.4.ark:2112853
fbch0_si956 quick_test/mfcc/raw_mfcc_train.1.ark:244075
mtmt0_si1748 quick_test/mfcc/raw_mfcc_train.4.ark:2979867
mclk0_si1660 quick_test/mfcc/raw_mfcc_train.2.ark:1709898
mrfk0_sx176 quick_test/mfcc/raw_mfcc_train.4.ark:680949
mgjc0_si1965 quick_test/mfcc/raw_mfcc_train.3.ark:98663
mrlk0_sx393 quick_test/mfcc/raw_mfcc_train.4.ark:1172769
mmdb0_si1358 quick_test/mfcc/raw_mfcc_train.3.ark:2812836
mmvp0_sx347 quick_test/mfcc/raw_mfcc_train.3.ark:3303860
fklh0_sx357 quick_test/mfcc/raw_mfcc_train.1.ark:2280662
mejs0_si1240 quick_test/mfcc/raw_mfcc_train.2.ark:3277602
milb0_si807 quick_test/mfcc/raw_mfcc_train.3.ark:517925
mrmg0_sx450 quick_test/mfcc/raw_mfcc_train.4.ark:1261699
fskc0_sx66 quick_test/mfcc/raw_mfcc_train.2.ark:110040
fvkb0_sx79 quick_test/mfcc/raw_mfcc_train.2.ark:626169
mrhl0_sx435 quick_test/mfcc/raw_mfcc_train.4.ark:833010
mram0_si1951 quick_test/mfcc/raw_mfcc_train.4.ark:292972
mjfh0_sx117 quick_test/mfcc/raw_mfcc_train.3.ark:954570
mtpr0_sx250 quick_test/mfcc/raw_mfcc_train.4.ark:3117227
mkls0_sx267 quick_test/mfcc/raw_mfcc_train.3.ark:2220090
mdrd0_sx302 quick_test/mfcc/raw_mfcc_train.2.ark:2895024
mtxs0_si2320 quick_test/mfcc/raw_mfcc_train.4.ark:3305392
mkah0_sx268 quick_test/mfcc/raw_mfcc_train.3.ark:1900707
fsmm0_sx414 quick_test/mfcc/raw_mfcc_train.2.ark:269102
mdss1_sx157 quick_test/mfcc/raw_mfcc_train.2.ark:2978043
mmar0_sx436 quick_test/mfcc/raw_mfcc_train.3.ark:2736268
fklh0_si627 quick_test/mfcc/raw_mfcc_train.1.ark:2269734
mjdg0_sx412 quick_test/mfcc/raw_mfcc_train.3.ark:800919
mgag0_si1321 quick_test/mfcc/raw_mfcc_train.2.ark:3612447
mmdb0_si987 quick_test/mfcc/raw_mfcc_train.3.ark:2819806
flet0_sx147 quick_test/mfcc/raw_mfcc_train.1.ark:2439625
mmbs0_sx161 quick_test/mfcc/raw_mfcc_train.3.ark:2756753
mbar0_sx239 quick_test/mfcc/raw_mfcc_train.2.ark:1054533
mntw0_sx348 quick_test/mfcc/raw_mfcc_train.3.ark:3499707
mrms0_sx120 quick_test/mfcc/raw_mfcc_train.4.ark:1354957
maeb0_sx270 quick_test/mfcc/raw_mfcc_train.2.ark:770994
mppc0_sx152 quick_test/mfcc/raw_mfcc_train.3.ark:3756242
fpmy0_si1153 quick_test/mfcc/raw_mfcc_train.1.ark:3426853
mtas0_sx215 quick_test/mfcc/raw_mfcc_train.4.ark:2390026
fjxp0_si1122 quick_test/mfcc/raw_mfcc_train.1.ark:1987460
mdbp0_sx258 quick_test/mfcc/raw_mfcc_train.2.ark:2072419
mrwa0_sx163 quick_test/mfcc/raw_mfcc_train.4.ark:1626256
mges0_si1481 quick_test/mfcc/raw_mfcc_train.3.ark:63217
milb0_sx183 quick_test/mfcc/raw_mfcc_train.3.ark:528469
fsbk0_si1699 quick_test/mfcc/raw_mfcc_train.1.ark:3664510
fcjf0_sx37 quick_test/mfcc/raw_mfcc_train.1.ark:556402
fjwb1_si2055 quick_test/mfcc/raw_mfcc_train.1.ark:1920163
mbcg0_si486 quick_test/mfcc/raw_mfcc_train.2.ark:1103727
mbcg0_sx327 quick_test/mfcc/raw_mfcc_train.2.ark:1117535
fdxw0_sx161 quick_test/mfcc/raw_mfcc_train.1.ark:1102330
fjxm0_si1211 quick_test/mfcc/raw_mfcc_train.1.ark:1950574
mdwd0_sx450 quick_test/mfcc/raw_mfcc_train.2.ark:3046338
mlel0_si1876 quick_test/mfcc/raw_mfcc_train.3.ark:2399461
fdmy0_sx117 quick_test/mfcc/raw_mfcc_train.1.ark:997832
mtpf0_sx245 quick_test/mfcc/raw_mfcc_train.4.ark:3023768
mdbb1_si1006 quick_test/mfcc/raw_mfcc_train.2.ark:2025584
mjae0_sx84 quick_test/mfcc/raw_mfcc_train.3.ark:605166
mmdb0_sx357 quick_test/mfcc/raw_mfcc_train.3.ark:2831748
fsrh0_sx41 quick_test/mfcc/raw_mfcc_train.2.ark:372590
mkdt0_sx263 quick_test/mfcc/raw_mfcc_train.3.ark:2062191
fssb0_si1712 quick_test/mfcc/raw_mfcc_train.2.ark:382356
mrre0_sx254 quick_test/mfcc/raw_mfcc_train.4.ark:1421053
feeh0_sx392 quick_test/mfcc/raw_mfcc_train.1.ark:1254971
fsah0_si1244 quick_test/mfcc/raw_mfcc_train.1.ark:3592901
mtkp0_sx33 quick_test/mfcc/raw_mfcc_train.4.ark:2837473
mtxs0_si1690 quick_test/mfcc/raw_mfcc_train.4.ark:3303044
mhbs0_sx405 quick_test/mfcc/raw_mfcc_train.3.ark:322315
fcjf0_si1657 quick_test/mfcc/raw_mfcc_train.1.ark:541314
mdlc1_sx355 quick_test/mfcc/raw_mfcc_train.2.ark:2509371
mclk0_sx310 quick_test/mfcc/raw_mfcc_train.2.ark:1733178
mdlc1_si2065 quick_test/mfcc/raw_mfcc_train.2.ark:2492871
mrai0_sx432 quick_test/mfcc/raw_mfcc_train.4.ark:276614
msat0_si2156 quick_test/mfcc/raw_mfcc_train.4.ark:1773766
mjrh1_sx64 quick_test/mfcc/raw_mfcc_train.3.ark:1573963
fbmh0_sx416 quick_test/mfcc/raw_mfcc_train.1.ark:367197
falr0_sx65 quick_test/mfcc/raw_mfcc_train.1.ark:128603
mded0_sx180 quick_test/mfcc/raw_mfcc_train.2.ark:2198454
mwre0_si2317 quick_test/mfcc/raw_mfcc_train.4.ark:3653787
mdlr1_sx399 quick_test/mfcc/raw_mfcc_train.2.ark:2674235
fpad0_sx86 quick_test/mfcc/raw_mfcc_train.1.ark:3294343
mdlc0_sx45 quick_test/mfcc/raw_mfcc_train.2.ark:2482702
mgsl0_sx264 quick_test/mfcc/raw_mfcc_train.3.ark:247011
mtkp0_si2283 quick_test/mfcc/raw_mfcc_train.4.ark:2814052
mjae0_sx174 quick_test/mfcc/raw_mfcc_train.3.ark:587329
fjsp0_si1763 quick_test/mfcc/raw_mfcc_train.1.ark:1893984
fljg0_si981 quick_test/mfcc/raw_mfcc_train.1.ark:2561177
mmea0_si2018 quick_test/mfcc/raw_mfcc_train.3.ark:2972756
mcxm0_sx361 quick_test/mfcc/raw_mfcc_train.2.ark:1950819
fcmm0_sx363 quick_test/mfcc/raw_mfcc_train.1.ark:707183
mbsb0_sx93 quick_test/mfcc/raw_mfcc_train.2.ark:1365888
mtmt0_sx128 quick_test/mfcc/raw_mfcc_train.4.ark:2989371
mstf0_si766 quick_test/mfcc/raw_mfcc_train.4.ark:2268427
mtab0_si2202 quick_test/mfcc/raw_mfcc_train.4.ark:2346190
mfxs0_si2304 quick_test/mfcc/raw_mfcc_train.2.ark:3527348
mmdm0_sx321 quick_test/mfcc/raw_mfcc_train.3.ark:2895614
fkkh0_sx30 quick_test/mfcc/raw_mfcc_train.1.ark:2183717
mcpm0_si564 quick_test/mfcc/raw_mfcc_train.2.ark:1781189
msdb0_sx197 quick_test/mfcc/raw_mfcc_train.4.ark:1842276
feeh0_si1742 quick_test/mfcc/raw_mfcc_train.1.ark:1230607
mreh1_sx249 quick_test/mfcc/raw_mfcc_train.4.ark:590916
mtlc0_sx397 quick_test/mfcc/raw_mfcc_train.4.ark:2902815
mjeb1_si837 quick_test/mfcc/raw_mfcc_train.3.ark:886459
mjrh0_sx45 quick_test/mfcc/raw_mfcc_train.3.ark:1541510
fpab1_sx391 quick_test/mfcc/raw_mfcc_train.1.ark:3224107
mrfk0_sx266 quick_test/mfcc/raw_mfcc_train.4.ark:685714
fdas1_sx21 quick_test/mfcc/raw_mfcc_train.1.ark:807934
fsjg0_sx130 quick_test/mfcc/raw_mfcc_train.1.ark:3840635
fapb0_sx163 quick_test/mfcc/raw_mfcc_train.1.ark:148368
mprk0_si1097 quick_test/mfcc/raw_mfcc_train.4.ark:90478
mejs0_sx340 quick_test/mfcc/raw_mfcc_train.2.ark:3299179
fcaj0_si849 quick_test/mfcc/raw_mfcc_train.1.ark:444365
mjac0_sx251 quick_test/mfcc/raw_mfcc_train.3.ark:556305
mdef0_sx303 quick_test/mfcc/raw_mfcc_train.2.ark:2238891
msmr0_sx415 quick_test/mfcc/raw_mfcc_train.4.ark:2161896
mkrg0_sx31 quick_test/mfcc/raw_mfcc_train.3.ark:2323579
fnkl0_sx262 quick_test/mfcc/raw_mfcc_train.1.ark:3147385
fsma0_sx271 quick_test/mfcc/raw_mfcc_train.2.ark:226131
fdkn0_sx181 quick_test/mfcc/raw_mfcc_train.1.ark:924216
maeo0_si1326 quick_test/mfcc/raw_mfcc_train.2.ark:785101
fpaz0_sx243 quick_test/mfcc/raw_mfcc_train.1.ark:3350052
mcef0_si842 quick_test/mfcc/raw_mfcc_train.2.ark:1613177
mjda0_sx311 quick_test/mfcc/raw_mfcc_train.3.ark:691060
mmdg0_si520 quick_test/mfcc/raw_mfcc_train.3.ark:2850556
mdps0_sx89 quick_test/mfcc/raw_mfcc_train.2.ark:2867641
flod0_sx117 quick_test/mfcc/raw_mfcc_train.1.ark:2733836
mdks0_si1066 quick_test/mfcc/raw_mfcc_train.2.ark:2380293
mjee0_si1237 quick_test/mfcc/raw_mfcc_train.3.ark:910564
mdpb0_sx416 quick_test/mfcc/raw_mfcc_train.2.ark:2805082
fdfb0_sx148 quick_test/mfcc/raw_mfcc_train.1.ark:862234
mfxs0_sx144 quick_test/mfcc/raw_mfcc_train.2.ark:3530774
fscn0_sx356 quick_test/mfcc/raw_mfcc_train.1.ark:3721106
mhit0_si2243 quick_test/mfcc/raw_mfcc_train.3.ark:332776
mrkm0_sx7 quick_test/mfcc/raw_mfcc_train.4.ark:1050269
fkfb0_sx258 quick_test/mfcc/raw_mfcc_train.1.ark:2138115
mjee0_sx67 quick_test/mfcc/raw_mfcc_train.3.ark:937367
fdfb0_sx58 quick_test/mfcc/raw_mfcc_train.1.ark:875820
msdb0_sx17 quick_test/mfcc/raw_mfcc_train.4.ark:1840293
mmeb0_sx97 quick_test/mfcc/raw_mfcc_train.3.ark:3021849
flkm0_sx260 quick_test/mfcc/raw_mfcc_train.1.ark:2609139
mpgr0_si780 quick_test/mfcc/raw_mfcc_train.3.ark:3634877
mefg0_si598 quick_test/mfcc/raw_mfcc_train.2.ark:3188190
mtas0_sx35 quick_test/mfcc/raw_mfcc_train.4.ark:2396682
mdac0_sx181 quick_test/mfcc/raw_mfcc_train.2.ark:1975718
fjrp1_si1432 quick_test/mfcc/raw_mfcc_train.1.ark:1813417
mrjm0_si1228 quick_test/mfcc/raw_mfcc_train.4.ark:920233
mbcg0_sx237 quick_test/mfcc/raw_mfcc_train.2.ark:1115240
mrmb0_sx321 quick_test/mfcc/raw_mfcc_train.4.ark:1225806
mdlc0_sx405 quick_test/mfcc/raw_mfcc_train.2.ark:2478887
mabc0_si2041 quick_test/mfcc/raw_mfcc_train.2.ark:662161
fscn0_si705 quick_test/mfcc/raw_mfcc_train.1.ark:3703041
fjlg0_si1889 quick_test/mfcc/raw_mfcc_train.1.ark:1718782
marw0_sx286 quick_test/mfcc/raw_mfcc_train.2.ark:1021553
mdss1_sx67 quick_test/mfcc/raw_mfcc_train.2.ark:2991863
mbef0_si651 quick_test/mfcc/raw_mfcc_train.2.ark:1137942
mjwt0_si1381 quick_test/mfcc/raw_mfcc_train.3.ark:1755665
mjrp0_sx45 quick_test/mfcc/raw_mfcc_train.3.ark:1632954
mmvp0_sx114 quick_test/mfcc/raw_mfcc_train.3.ark:3291931
mdlr1_sx129 quick_test/mfcc/raw_mfcc_train.2.ark:2657347
mrre0_si952 quick_test/mfcc/raw_mfcc_train.4.ark:1409300
mrmh0_sx31 quick_test/mfcc/raw_mfcc_train.4.ark:1294828
mjeb1_sx207 quick_test/mfcc/raw_mfcc_train.3.ark:896405
madd0_sx88 quick_test/mfcc/raw_mfcc_train.2.ark:749650
mdmt0_sx302 quick_test/mfcc/raw_mfcc_train.2.ark:2734488
mtjs0_sx382 quick_test/mfcc/raw_mfcc_train.4.ark:2738483
fpjf0_si1259 quick_test/mfcc/raw_mfcc_train.1.ark:3368638
mvlo0_si1777 quick_test/mfcc/raw_mfcc_train.4.ark:3369459
mljc0_si1225 quick_test/mfcc/raw_mfcc_train.3.ark:2432023
fdtd0_sx121 quick_test/mfcc/raw_mfcc_train.1.ark:1069668
mmrp0_sx324 quick_test/mfcc/raw_mfcc_train.3.ark:3225908
mjmd0_si2288 quick_test/mfcc/raw_mfcc_train.3.ark:1300485
mhjb0_sx117 quick_test/mfcc/raw_mfcc_train.3.ark:373564
feeh0_sx122 quick_test/mfcc/raw_mfcc_train.1.ark:1238447
mbwp0_sx79 quick_test/mfcc/raw_mfcc_train.2.ark:1432236
mpar0_sx136 quick_test/mfcc/raw_mfcc_train.3.ark:3518242
frjb0_si1470 quick_test/mfcc/raw_mfcc_train.1.ark:3496603
mtas0_sx305 quick_test/mfcc/raw_mfcc_train.4.ark:2393699
msms0_si2063 quick_test/mfcc/raw_mfcc_train.4.ark:2174632
fceg0_sx168 quick_test/mfcc/raw_mfcc_train.1.ark:519704
mjeb1_si2097 quick_test/mfcc/raw_mfcc_train.3.ark:881772
mtpf0_sx65 quick_test/mfcc/raw_mfcc_train.4.ark:3035709
mfxs0_sx324 quick_test/mfcc/raw_mfcc_train.2.ark:3538640
mbgt0_sx441 quick_test/mfcc/raw_mfcc_train.2.ark:1184177
fcdr1_si556 quick_test/mfcc/raw_mfcc_train.1.ark:482135
fdml0_sx69 quick_test/mfcc/raw_mfcc_train.1.ark:972050
mdlr1_si1929 quick_test/mfcc/raw_mfcc_train.2.ark:2647531
mtab0_sx42 quick_test/mfcc/raw_mfcc_train.4.ark:2374116
fnkl0_sx82 quick_test/mfcc/raw_mfcc_train.1.ark:3155133
mntw0_si2328 quick_test/mfcc/raw_mfcc_train.3.ark:3486731
mbth0_sx122 quick_test/mfcc/raw_mfcc_train.2.ark:1381803
flet0_sx57 quick_test/mfcc/raw_mfcc_train.1.ark:2452392
mtbc0_sx363 quick_test/mfcc/raw_mfcc_train.4.ark:2496252
mklr0_si1059 quick_test/mfcc/raw_mfcc_train.3.ark:2173319
mlsh0_sx337 quick_test/mfcc/raw_mfcc_train.3.ark:2558473
mejs0_sx70 quick_test/mfcc/raw_mfcc_train.2.ark:3307798
mdlr1_sx39 quick_test/mfcc/raw_mfcc_train.2.ark:2670250
mrhl0_sx165 quick_test/mfcc/raw_mfcc_train.4.ark:822121
flod0_sx207 quick_test/mfcc/raw_mfcc_train.1.ark:2742027
mrew1_si1500 quick_test/mfcc/raw_mfcc_train.4.ark:639828
mklw0_sx401 quick_test/mfcc/raw_mfcc_train.3.ark:2293422
mdpb0_sx326 quick_test/mfcc/raw_mfcc_train.2.ark:2801591
mzmb0_sx266 quick_test/mfcc/raw_mfcc_train.4.ark:3794465
mwdk0_sx446 quick_test/mfcc/raw_mfcc_train.4.ark:3572873
mhit0_sx83 quick_test/mfcc/raw_mfcc_train.3.ark:357673
mewm0_sx268 quick_test/mfcc/raw_mfcc_train.2.ark:3383724
mtrc0_sx363 quick_test/mfcc/raw_mfcc_train.4.ark:3199891
mlbc0_si1869 quick_test/mfcc/raw_mfcc_train.3.ark:2369205
fjrp1_sx262 quick_test/mfcc/raw_mfcc_train.1.ark:1833076
mclm0_sx196 quick_test/mfcc/raw_mfcc_train.2.ark:1761808
mrab0_si594 quick_test/mfcc/raw_mfcc_train.4.ark:193532
fcag0_sx333 quick_test/mfcc/raw_mfcc_train.1.ark:426753
fjsp0_sx444 quick_test/mfcc/raw_mfcc_train.1.ark:1911686
fkaa0_sx308 quick_test/mfcc/raw_mfcc_train.1.ark:2038149
fmkf0_sx276 quick_test/mfcc/raw_mfcc_train.1.ark:3037374
fsah0_sx164 quick_test/mfcc/raw_mfcc_train.1.ark:3607288
mmpm0_sx341 quick_test/mfcc/raw_mfcc_train.3.ark:3195107
mrjh0_si914 quick_test/mfcc/raw_mfcc_train.4.ark:891206
frjb0_si1794 quick_test/mfcc/raw_mfcc_train.1.ark:3498639
fbcg1_si1612 quick_test/mfcc/raw_mfcc_train.1.ark:207117
mfxs0_sx234 quick_test/mfcc/raw_mfcc_train.2.ark:3534356
mdps0_sx179 quick_test/mfcc/raw_mfcc_train.2.ark:2851897
faem0_sx222 quick_test/mfcc/raw_mfcc_train.1.ark:16916
msmr0_sx235 quick_test/mfcc/raw_mfcc_train.4.ark:2154810
fpls0_sx330 quick_test/mfcc/raw_mfcc_train.1.ark:3418558
mrcg0_sx168 quick_test/mfcc/raw_mfcc_train.4.ark:392328
mjpg0_si1191 quick_test/mfcc/raw_mfcc_train.3.ark:1354209
mtdb0_si2031 quick_test/mfcc/raw_mfcc_train.4.ark:2542026
fpaf0_si1054 quick_test/mfcc/raw_mfcc_train.1.ark:3297510
mrso0_si1659 quick_test/mfcc/raw_mfcc_train.4.ark:1443579
fjrb0_si1932 quick_test/mfcc/raw_mfcc_train.1.ark:1786302
mhbs0_sx225 quick_test/mfcc/raw_mfcc_train.3.ark:316438
mrkm0_sx277 quick_test/mfcc/raw_mfcc_train.4.ark:1040338
mddc0_sx249 quick_test/mfcc/raw_mfcc_train.2.ark:2170363
mpgr1_sx59 quick_test/mfcc/raw_mfcc_train.3.ark:3686033
mcss0_sx390 quick_test/mfcc/raw_mfcc_train.2.ark:1863067
mree0_sx114 quick_test/mfcc/raw_mfcc_train.4.ark:553269
mjlb0_si986 quick_test/mfcc/raw_mfcc_train.3.ark:1180824
mgjc0_sx435 quick_test/mfcc/raw_mfcc_train.3.ark:116774
mpgr1_sx419 quick_test/mfcc/raw_mfcc_train.3.ark:3681932
falk0_sx366 quick_test/mfcc/raw_mfcc_train.1.ark:89353
flja0_si2338 quick_test/mfcc/raw_mfcc_train.1.ark:2496245
fsag0_sx423 quick_test/mfcc/raw_mfcc_train.1.ark:3582370
mmws1_sx261 quick_test/mfcc/raw_mfcc_train.3.ark:3398456
flja0_sx268 quick_test/mfcc/raw_mfcc_train.1.ark:2503942
mdmt0_si2341 quick_test/mfcc/raw_mfcc_train.2.ark:2718067
mpmb0_sx421 quick_test/mfcc/raw_mfcc_train.3.ark:3729140
mtrt0_si597 quick_test/mfcc/raw_mfcc_train.4.ark:3249104
mdlc1_sx445 quick_test/mfcc/raw_mfcc_train.2.ark:2512576
fsjk1_sx395 quick_test/mfcc/raw_mfcc_train.2.ark:10510
fceg0_si618 quick_test/mfcc/raw_mfcc_train.1.ark:516395
mmea0_si758 quick_test/mfcc/raw_mfcc_train.3.ark:2974180
mclm0_si826 quick_test/mfcc/raw_mfcc_train.2.ark:1751414
fssb0_si2342 quick_test/mfcc/raw_mfcc_train.2.ark:388032
fsdj0_sx395 quick_test/mfcc/raw_mfcc_train.1.ark:3788587
mjkr0_sx391 quick_test/mfcc/raw_mfcc_train.3.ark:1169036
fmbg0_sx80 quick_test/mfcc/raw_mfcc_train.1.ark:2845484
mmaa0_si845 quick_test/mfcc/raw_mfcc_train.3.ark:2579751
mdlb0_sx46 quick_test/mfcc/raw_mfcc_train.2.ark:2448572
msem1_sx270 quick_test/mfcc/raw_mfcc_train.4.ark:1948067
mgrp0_si687 quick_test/mfcc/raw_mfcc_train.3.ark:166923
fcjf0_sx307 quick_test/mfcc/raw_mfcc_train.1.ark:554407
mjdc0_sx81 quick_test/mfcc/raw_mfcc_train.3.ark:731300
fcmg0_si1872 quick_test/mfcc/raw_mfcc_train.1.ark:663906
mtrt0_sx417 quick_test/mfcc/raw_mfcc_train.4.ark:3261352
mjda0_sx401 quick_test/mfcc/raw_mfcc_train.3.ark:695708
mprk0_si1727 quick_test/mfcc/raw_mfcc_train.4.ark:98416
ftlg0_sx213 quick_test/mfcc/raw_mfcc_train.2.ark:522497
fpls0_sx150 quick_test/mfcc/raw_mfcc_train.1.ark:3409660
mrre0_sx344 quick_test/mfcc/raw_mfcc_train.4.ark:1424414
mhrm0_sx418 quick_test/mfcc/raw_mfcc_train.3.ark:471672
mafm0_sx399 quick_test/mfcc/raw_mfcc_train.2.ark:840523
fskl0_si2159 quick_test/mfcc/raw_mfcc_train.2.ark:117362
msjk0_si2226 quick_test/mfcc/raw_mfcc_train.4.ark:2075740
mbma0_si592 quick_test/mfcc/raw_mfcc_train.2.ark:1229880
mmlm0_sx177 quick_test/mfcc/raw_mfcc_train.3.ark:3157231
mlns0_si777 quick_test/mfcc/raw_mfcc_train.3.ark:2514481
mjrp0_sx225 quick_test/mfcc/raw_mfcc_train.3.ark:1623106
fmmh0_sx7 quick_test/mfcc/raw_mfcc_train.1.ark:3079327
fcrz0_si2053 quick_test/mfcc/raw_mfcc_train.1.ark:724723
mfwk0_sx349 quick_test/mfcc/raw_mfcc_train.2.ark:3507967
fskl0_sx359 quick_test/mfcc/raw_mfcc_train.2.ark:133354
mdlr1_sx309 quick_test/mfcc/raw_mfcc_train.2.ark:2665720
mgjc0_sx75 quick_test/mfcc/raw_mfcc_train.3.ark:122747
mdlb0_si1306 quick_test/mfcc/raw_mfcc_train.2.ark:2413306
fpls0_sx240 quick_test/mfcc/raw_mfcc_train.1.ark:3412462
mmpm0_si1061 quick_test/mfcc/raw_mfcc_train.3.ark:3174101
fmmh0_sx367 quick_test/mfcc/raw_mfcc_train.1.ark:3070358
mkes0_sx263 quick_test/mfcc/raw_mfcc_train.3.ark:2097608
mjlb0_sx446 quick_test/mfcc/raw_mfcc_train.3.ark:1195724
fdxw0_sx251 quick_test/mfcc/raw_mfcc_train.1.ark:1106705
mdlh0_si700 quick_test/mfcc/raw_mfcc_train.2.ark:2554105
mhbs0_si1575 quick_test/mfcc/raw_mfcc_train.3.ark:299444
mges0_sx131 quick_test/mfcc/raw_mfcc_train.3.ark:71689
mwsb0_sx186 quick_test/mfcc/raw_mfcc_train.4.ark:3722482
mjra0_sx426 quick_test/mfcc/raw_mfcc_train.3.ark:1472593
mkdd0_si937 quick_test/mfcc/raw_mfcc_train.3.ark:2023225
mrxb0_si955 quick_test/mfcc/raw_mfcc_train.4.ark:1683082
mdhl0_sx89 quick_test/mfcc/raw_mfcc_train.2.ark:2316146
feeh0_si1112 quick_test/mfcc/raw_mfcc_train.1.ark:1225893
fcdr1_sx376 quick_test/mfcc/raw_mfcc_train.1.ark:505556
fsbk0_sx349 quick_test/mfcc/raw_mfcc_train.1.ark:3678436
mdns0_sx291 quick_test/mfcc/raw_mfcc_train.2.ark:2771601
madd0_sx268 quick_test/mfcc/raw_mfcc_train.2.ark:738268
mgaf0_si1282 quick_test/mfcc/raw_mfcc_train.2.ark:3583777
fjlg0_sx179 quick_test/mfcc/raw_mfcc_train.1.ark:1727494
fdtd0_sx211 quick_test/mfcc/raw_mfcc_train.1.ark:1074043
fecd0_sx68 quick_test/mfcc/raw_mfcc_train.1.ark:1221946
mrlr0_sx386 quick_test/mfcc/raw_mfcc_train.4.ark:1204117
fbmh0_si1136 quick_test/mfcc/raw_mfcc_train.1.ark:342519
mgsl0_sx84 quick_test/mfcc/raw_mfcc_train.3.ark:259589
mjpm0_si1368 quick_test/mfcc/raw_mfcc_train.3.ark:1381878
mprd0_si2061 quick_test/mfcc/raw_mfcc_train.4.ark:59216
mjfr0_si975 quick_test/mfcc/raw_mfcc_train.3.ark:976525
mvjh0_sx386 quick_test/mfcc/raw_mfcc_train.4.ark:3362371
mbom0_sx294 quick_test/mfcc/raw_mfcc_train.2.ark:1333189
faem0_si1392 quick_test/mfcc/raw_mfcc_train.1.ark:13
mrbc0_sx239 quick_test/mfcc/raw_mfcc_train.4.ark:361429
mvlo0_sx67 quick_test/mfcc/raw_mfcc_train.4.ark:3393355
fecd0_sx338 quick_test/mfcc/raw_mfcc_train.1.ark:1212638
mjai0_si710 quick_test/mfcc/raw_mfcc_train.3.ark:620580
mbar0_sx59 quick_test/mfcc/raw_mfcc_train.2.ark:1067137
mrfl0_si526 quick_test/mfcc/raw_mfcc_train.4.ark:707935
fjhk0_sx122 quick_test/mfcc/raw_mfcc_train.1.ark:1665759
mdma0_sx80 quick_test/mfcc/raw_mfcc_train.2.ark:2712981
fmjf0_sx354 quick_test/mfcc/raw_mfcc_train.1.ark:2938877
mdlb0_sx226 quick_test/mfcc/raw_mfcc_train.2.ark:2433615
mmjb1_si2038 quick_test/mfcc/raw_mfcc_train.3.ark:3116847
fjsk0_sx242 quick_test/mfcc/raw_mfcc_train.1.ark:1871328
mpeb0_si1860 quick_test/mfcc/raw_mfcc_train.3.ark:3537837
mjac0_si1331 quick_test/mfcc/raw_mfcc_train.3.ark:543920
mrso0_sx129 quick_test/mfcc/raw_mfcc_train.4.ark:1452447
mdbb1_sx376 quick_test/mfcc/raw_mfcc_train.2.ark:2051751
milb0_sx363 quick_test/mfcc/raw_mfcc_train.3.ark:537744
mgag0_si645 quick_test/mfcc/raw_mfcc_train.2.ark:3617420
mdwd0_sx90 quick_test/mfcc/raw_mfcc_train.2.ark:3050647
fjxm0_sx311 quick_test/mfcc/raw_mfcc_train.1.ark:1969785
mtat0_sx120 quick_test/mfcc/raw_mfcc_train.4.ark:2418637
mtjs0_si1822 quick_test/mfcc/raw_mfcc_train.4.ark:2709062
mrpc1_sx312 quick_test/mfcc/raw_mfcc_train.4.ark:1386736
mrmb0_si951 quick_test/mfcc/raw_mfcc_train.4.ark:1214280
marw0_sx349 quick_test/mfcc/raw_mfcc_train.2.ark:1027319
mrav0_si1008 quick_test/mfcc/raw_mfcc_train.4.ark:317064
mrws0_sx382 quick_test/mfcc/raw_mfcc_train.4.ark:1670137
flac0_si1339 quick_test/mfcc/raw_mfcc_train.1.ark:2324979
fnkl0_sx196 quick_test/mfcc/raw_mfcc_train.1.ark:3144908
mdss0_sx261 quick_test/mfcc/raw_mfcc_train.2.ark:2953839
mjsr0_si2054 quick_test/mfcc/raw_mfcc_train.3.ark:1641329
mjhi0_sx248 quick_test/mfcc/raw_mfcc_train.3.ark:1020990
mdss0_si621 quick_test/mfcc/raw_mfcc_train.2.ark:2946077
mrab1_si848 quick_test/mfcc/raw_mfcc_train.4.ark:224646
mrlj0_sx340 quick_test/mfcc/raw_mfcc_train.4.ark:1106263
mtlc0_sx37 quick_test/mfcc/raw_mfcc_train.4.ark:2899415
mlbc0_sx429 quick_test/mfcc/raw_mfcc_train.3.ark:2387466
mdlh0_si574 quick_test/mfcc/raw_mfcc_train.2.ark:2551381
mrpc1_sx222 quick_test/mfcc/raw_mfcc_train.4.ark:1383011
mtcs0_sx82 quick_test/mfcc/raw_mfcc_train.4.ark:2532559
mtwh1_sx432 quick_test/mfcc/raw_mfcc_train.4.ark:3289736
mrso0_sx309 quick_test/mfcc/raw_mfcc_train.4.ark:1461977
mgak0_sx226 quick_test/mfcc/raw_mfcc_train.2.ark:3661387
fjsk0_sx332 quick_test/mfcc/raw_mfcc_train.1.ark:1875209
flhd0_sx444 quick_test/mfcc/raw_mfcc_train.1.ark:2478054
mmvp0_si1914 quick_test/mfcc/raw_mfcc_train.3.ark:3279255
mkdd0_sx397 quick_test/mfcc/raw_mfcc_train.3.ark:2039782
fmjb0_sx7 quick_test/mfcc/raw_mfcc_train.1.ark:2910552
mmgc0_si1305 quick_test/mfcc/raw_mfcc_train.3.ark:3025510
mlsh0_sx427 quick_test/mfcc/raw_mfcc_train.3.ark:2562367
mkjo0_sx424 quick_test/mfcc/raw_mfcc_train.3.ark:2130185
mkxl0_sx375 quick_test/mfcc/raw_mfcc_train.3.ark:2359881
mdma0_sx260 quick_test/mfcc/raw_mfcc_train.2.ark:2695983
fdml0_si1779 quick_test/mfcc/raw_mfcc_train.1.ark:952768
mwre0_sx157 quick_test/mfcc/raw_mfcc_train.4.ark:3656966
mdwh0_sx35 quick_test/mfcc/raw_mfcc_train.2.ark:3083015
fpaz0_sx63 quick_test/mfcc/raw_mfcc_train.1.ark:3361095
maeo0_sx336 quick_test/mfcc/raw_mfcc_train.2.ark:804014
mjpm1_si2280 quick_test/mfcc/raw_mfcc_train.3.ark:1417836
mrsp0_sx169 quick_test/mfcc/raw_mfcc_train.4.ark:1490425
msdh0_si2113 quick_test/mfcc/raw_mfcc_train.4.ark:1850605
fcaj0_sx39 quick_test/mfcc/raw_mfcc_train.1.ark:461448
feac0_sx75 quick_test/mfcc/raw_mfcc_train.1.ark:1151086
fear0_si1882 quick_test/mfcc/raw_mfcc_train.1.ark:1157940
mdps0_sx449 quick_test/mfcc/raw_mfcc_train.2.ark:2863293
flmk0_sx45 quick_test/mfcc/raw_mfcc_train.1.ark:2717855
mdks0_sx256 quick_test/mfcc/raw_mfcc_train.2.ark:2395793
fbmj0_sx66 quick_test/mfcc/raw_mfcc_train.1.ark:406948
msrg0_sx51 quick_test/mfcc/raw_mfcc_train.4.ark:2228225
mrab1_sx218 quick_test/mfcc/raw_mfcc_train.4.ark:233539
mfer0_si862 quick_test/mfcc/raw_mfcc_train.2.ark:3402162
mrav0_sx378 quick_test/mfcc/raw_mfcc_train.4.ark:342334
fpac0_sx391 quick_test/mfcc/raw_mfcc_train.1.ark:3258978
fskc0_si1416 quick_test/mfcc/raw_mfcc_train.2.ark:83822
fmkf0_sx186 quick_test/mfcc/raw_mfcc_train.1.ark:3034260
mrem0_si1591 quick_test/mfcc/raw_mfcc_train.4.ark:607506
fsjw0_si1963 quick_test/mfcc/raw_mfcc_train.2.ark:55992
mmws0_si1518 quick_test/mfcc/raw_mfcc_train.3.ark:3356452
msdb0_sx377 quick_test/mfcc/raw_mfcc_train.4.ark:1847529
mrlj1_sx231 quick_test/mfcc/raw_mfcc_train.4.ark:1131131
mtju0_si2020 quick_test/mfcc/raw_mfcc_train.4.ark:2743873
mdcd0_sx155 quick_test/mfcc/raw_mfcc_train.2.ark:2103266
fmpg0_sx252 quick_test/mfcc/raw_mfcc_train.1.ark:3107853
mwch0_si1622 quick_test/mfcc/raw_mfcc_train.4.ark:3520265
mlns0_si1407 quick_test/mfcc/raw_mfcc_train.3.ark:2506679
mjdg0_si1042 quick_test/mfcc/raw_mfcc_train.3.ark:777215
mpfu0_sx358 quick_test/mfcc/raw_mfcc_train.3.ark:3586113
fsgf0_si927 quick_test/mfcc/raw_mfcc_train.1.ark:3801272
mljc0_sx145 quick_test/mfcc/raw_mfcc_train.3.ark:2445630
fskp0_sx378 quick_test/mfcc/raw_mfcc_train.2.ark:172489
mjjm0_si1251 quick_test/mfcc/raw_mfcc_train.3.ark:1106088
mdpk0_si1683 quick_test/mfcc/raw_mfcc_train.2.ark:2816895
mrfk0_si1706 quick_test/mfcc/raw_mfcc_train.4.ark:676007
mkam0_sx326 quick_test/mfcc/raw_mfcc_train.3.ark:1967727
mrjb1_sx210 quick_test/mfcc/raw_mfcc_train.4.ark:863981
frjb0_sx437 quick_test/mfcc/raw_mfcc_train.1.ark:3513747
fsag0_sx333 quick_test/mfcc/raw_mfcc_train.1.ark:3575759
mgak0_si1036 quick_test/mfcc/raw_mfcc_train.2.ark:3641935
mljh0_si694 quick_test/mfcc/raw_mfcc_train.3.ark:2477699
mmlm0_sx87 quick_test/mfcc/raw_mfcc_train.3.ark:3170947
mbwp0_sx259 quick_test/mfcc/raw_mfcc_train.2.ark:1417019
mtmn0_sx434 quick_test/mfcc/raw_mfcc_train.4.ark:2968769
mrbc0_si599 quick_test/mfcc/raw_mfcc_train.4.ark:352900
mwch0_si2252 quick_test/mfcc/raw_mfcc_train.4.ark:3526092
fsls0_si1056 quick_test/mfcc/raw_mfcc_train.2.ark:176111
flod0_si657 quick_test/mfcc/raw_mfcc_train.1.ark:2729877
mhjb0_sx297 quick_test/mfcc/raw_mfcc_train.3.ark:381384
mjrg0_si1366 quick_test/mfcc/raw_mfcc_train.3.ark:1480160
mrdm0_sx335 quick_test/mfcc/raw_mfcc_train.4.ark:497125
mgaw0_sx445 quick_test/mfcc/raw_mfcc_train.3.ark:57392
fkde0_si1141 quick_test/mfcc/raw_mfcc_train.1.ark:2053029
fcyl0_sx397 quick_test/mfcc/raw_mfcc_train.1.ark:779681
msat0_sx266 quick_test/mfcc/raw_mfcc_train.4.ark:1783758
mdlc2_si1614 quick_test/mfcc/raw_mfcc_train.2.ark:2518375
mklr0_sx429 quick_test/mfcc/raw_mfcc_train.3.ark:2194735
mwsb0_si1626 quick_test/mfcc/raw_mfcc_train.4.ark:3710084
fskc0_sx156 quick_test/mfcc/raw_mfcc_train.2.ark:94179
fdtd0_si1561 quick_test/mfcc/raw_mfcc_train.1.ark:1057309
mtpr0_sx160 quick_test/mfcc/raw_mfcc_train.4.ark:3111630
mkdb0_si872 quick_test/mfcc/raw_mfcc_train.3.ark:1986625
mmea0_sx398 quick_test/mfcc/raw_mfcc_train.3.ark:2992219
fkaa0_si578 quick_test/mfcc/raw_mfcc_train.1.ark:2025492
mwem0_si1393 quick_test/mfcc/raw_mfcc_train.4.ark:3584114
mcae0_si1447 quick_test/mfcc/raw_mfcc_train.2.ark:1436625
mmam0_sx67 quick_test/mfcc/raw_mfcc_train.3.ark:2699934
mmgg0_si1079 quick_test/mfcc/raw_mfcc_train.3.ark:3055416
mctm0_sx270 quick_test/mfcc/raw_mfcc_train.2.ark:1916474
mgxp0_sx7 quick_test/mfcc/raw_mfcc_train.3.ark:291864
fdmy0_si1197 quick_test/mfcc/raw_mfcc_train.1.ark:975503
mnet0_si816 quick_test/mfcc/raw_mfcc_train.3.ark:3452095
mjdg0_sx322 quick_test/mfcc/raw_mfcc_train.3.ark:797844
mses0_sx59 quick_test/mfcc/raw_mfcc_train.4.ark:1990772
mjpg0_sx21 quick_test/mfcc/raw_mfcc_train.3.ark:1373653
mjlb0_sx176 quick_test/mfcc/raw_mfcc_train.3.ark:1184107
mbbr0_sx65 quick_test/mfcc/raw_mfcc_train.2.ark:1097199
mlbc0_si1239 quick_test/mfcc/raw_mfcc_train.3.ark:2363789
mcdc0_sx392 quick_test/mfcc/raw_mfcc_train.2.ark:1536509
fcdr1_sx196 quick_test/mfcc/raw_mfcc_train.1.ark:496559
flet0_si507 quick_test/mfcc/raw_mfcc_train.1.ark:2433482
fscn0_sx266 quick_test/mfcc/raw_mfcc_train.1.ark:3716614
mrgs0_si1356 quick_test/mfcc/raw_mfcc_train.4.ark:774828
mdjm0_sx195 quick_test/mfcc/raw_mfcc_train.2.ark:2370313
mbjv0_sx167 quick_test/mfcc/raw_mfcc_train.2.ark:1202699
mtmn0_sx74 quick_test/mfcc/raw_mfcc_train.4.ark:2972311
ftmg0_sx182 quick_test/mfcc/raw_mfcc_train.2.ark:548573
mgxp0_si1087 quick_test/mfcc/raw_mfcc_train.3.ark:264277
fvkb0_si529 quick_test/mfcc/raw_mfcc_train.2.ark:602436
fjsp0_sx354 quick_test/mfcc/raw_mfcc_train.1.ark:1908013
mklw0_sx221 quick_test/mfcc/raw_mfcc_train.3.ark:2283177
frjb0_sx257 quick_test/mfcc/raw_mfcc_train.1.ark:3505907
fsjw0_sx163 quick_test/mfcc/raw_mfcc_train.2.ark:63494
mkls1_sx105 quick_test/mfcc/raw_mfcc_train.3.ark:2250469
mafm0_si1569 quick_test/mfcc/raw_mfcc_train.2.ark:816853
mrjb1_sx30 quick_test/mfcc/raw_mfcc_train.4.ark:867497
mesj0_si997 quick_test/mfcc/raw_mfcc_train.2.ark:3350622
mdef0_sx33 quick_test/mfcc/raw_mfcc_train.2.ark:2241458
fgcs0_sx406 quick_test/mfcc/raw_mfcc_train.1.ark:1387508
fpjf0_sx326 quick_test/mfcc/raw_mfcc_train.1.ark:3384267
mklr0_sx69 quick_test/mfcc/raw_mfcc_train.3.ark:2198134
mmdg0_si1780 quick_test/mfcc/raw_mfcc_train.3.ark:2841298
mrwa0_si973 quick_test/mfcc/raw_mfcc_train.4.ark:1622388
mgxp0_sx277 quick_test/mfcc/raw_mfcc_train.3.ark:283584
freh0_sx325 quick_test/mfcc/raw_mfcc_train.1.ark:3483795
maeb0_si1411 quick_test/mfcc/raw_mfcc_train.2.ark:754052
fear0_sx442 quick_test/mfcc/raw_mfcc_train.1.ark:1179139
mdsj0_si1462 quick_test/mfcc/raw_mfcc_train.2.ark:2907525
mmdm0_si1311 quick_test/mfcc/raw_mfcc_train.3.ark:2876143
mtjm0_si655 quick_test/mfcc/raw_mfcc_train.4.ark:2683610
fhxs0_sx85 quick_test/mfcc/raw_mfcc_train.1.ark:1577329
mrjt0_sx58 quick_test/mfcc/raw_mfcc_train.4.ark:1012026
majp0_sx84 quick_test/mfcc/raw_mfcc_train.2.ark:875161
mrdd0_si1050 quick_test/mfcc/raw_mfcc_train.4.ark:445980
mrtj0_sx52 quick_test/mfcc/raw_mfcc_train.4.ark:1580708
mrdd0_si2310 quick_test/mfcc/raw_mfcc_train.4.ark:455109
fmjb0_si1177 quick_test/mfcc/raw_mfcc_train.1.ark:2884823
mtlc0_si847 quick_test/mfcc/raw_mfcc_train.4.ark:2888845
fmkf0_si1536 quick_test/mfcc/raw_mfcc_train.1.ark:3025367
fvkb0_si1159 quick_test/mfcc/raw_mfcc_train.2.ark:596714
mprd0_sx441 quick_test/mfcc/raw_mfcc_train.4.ark:83197
mddc0_sx429 quick_test/mfcc/raw_mfcc_train.2.ark:2176643
mmvp0_si654 quick_test/mfcc/raw_mfcc_train.3.ark:3283097
fscn0_sx86 quick_test/mfcc/raw_mfcc_train.1.ark:3730336
mlns0_sx327 quick_test/mfcc/raw_mfcc_train.3.ark:2523524
mtdp0_sx441 quick_test/mfcc/raw_mfcc_train.4.ark:2598903
faem0_sx132 quick_test/mfcc/raw_mfcc_train.1.ark:13048
mmdb0_si1617 quick_test/mfcc/raw_mfcc_train.3.ark:2817615
fvfb0_si1032 quick_test/mfcc/raw_mfcc_train.2.ark:567718
mddc0_si789 quick_test/mfcc/raw_mfcc_train.2.ark:2161769
msah1_si1049 quick_test/mfcc/raw_mfcc_train.4.ark:1707044
mkdb0_si2132 quick_test/mfcc/raw_mfcc_train.3.ark:1979162
mrab1_sx398 quick_test/mfcc/raw_mfcc_train.4.ark:245922
mbom0_sx204 quick_test/mfcc/raw_mfcc_train.2.ark:1330322
mcxm0_sx271 quick_test/mfcc/raw_mfcc_train.2.ark:1947458
msdb0_si1007 quick_test/mfcc/raw_mfcc_train.4.ark:1827095
mdjm0_sx375 quick_test/mfcc/raw_mfcc_train.2.ark:2376450
mtqc0_sx271 quick_test/mfcc/raw_mfcc_train.4.ark:3157337
mprb0_sx125 quick_test/mfcc/raw_mfcc_train.4.ark:32679
ftbr0_sx111 quick_test/mfcc/raw_mfcc_train.2.ark:452957
fdxw0_sx431 quick_test/mfcc/raw_mfcc_train.1.ark:1114285
fcmm0_sx273 quick_test/mfcc/raw_mfcc_train.1.ark:703835
mrlk0_sx303 quick_test/mfcc/raw_mfcc_train.4.ark:1167010
msfv0_sx272 quick_test/mfcc/raw_mfcc_train.4.ark:2051134
mtcs0_sx352 quick_test/mfcc/raw_mfcc_train.4.ark:2522575
mhxl0_sx242 quick_test/mfcc/raw_mfcc_train.3.ark:496752
mjdm0_si1340 quick_test/mfcc/raw_mfcc_train.3.ark:808304
ftaj0_sx159 quick_test/mfcc/raw_mfcc_train.2.ark:422753
mjjj0_si1163 quick_test/mfcc/raw_mfcc_train.3.ark:1069462
fpad0_sx176 quick_test/mfcc/raw_mfcc_train.1.ark:3276454
mdlc1_sx85 quick_test/mfcc/raw_mfcc_train.2.ark:2515403
mprk0_si467 quick_test/mfcc/raw_mfcc_train.4.ark:102011
mhrm0_si2218 quick_test/mfcc/raw_mfcc_train.3.ark:452800
fklc0_si985 quick_test/mfcc/raw_mfcc_train.1.ark:2199354
mrgm0_sx172 quick_test/mfcc/raw_mfcc_train.4.ark:750847
mmpm0_sx71 quick_test/mfcc/raw_mfcc_train.3.ark:3203518
fjsp0_si804 quick_test/mfcc/raw_mfcc_train.1.ark:1895707
fbas0_sx217 quick_test/mfcc/raw_mfcc_train.1.ark:193725
mjma0_sx55 quick_test/mfcc/raw_mfcc_train.3.ark:1292193
mmjb1_sx238 quick_test/mfcc/raw_mfcc_train.3.ark:3128412
flmc0_sx382 quick_test/mfcc/raw_mfcc_train.1.ark:2685804
mbma0_sx232 quick_test/mfcc/raw_mfcc_train.2.ark:1236329
mhxl0_sx422 quick_test/mfcc/raw_mfcc_train.3.ark:505567
fdfb0_si1948 quick_test/mfcc/raw_mfcc_train.1.ark:857422
medr0_si2004 quick_test/mfcc/raw_mfcc_train.2.ark:3153067
mdlc2_si984 quick_test/mfcc/raw_mfcc_train.2.ark:2522589
mwem0_sx240 quick_test/mfcc/raw_mfcc_train.4.ark:3594107
fssb0_si1082 quick_test/mfcc/raw_mfcc_train.2.ark:377434
mdbb1_si1636 quick_test/mfcc/raw_mfcc_train.2.ark:2030675
mdlc0_si2025 quick_test/mfcc/raw_mfcc_train.2.ark:2458897
mmam0_sx157 quick_test/mfcc/raw_mfcc_train.3.ark:2686569
fdxw0_si881 quick_test/mfcc/raw_mfcc_train.1.ark:1097305
msmr0_sx145 quick_test/mfcc/raw_mfcc_train.4.ark:2150929
mjhi0_sx158 quick_test/mfcc/raw_mfcc_train.3.ark:1018201
msrr0_si1761 quick_test/mfcc/raw_mfcc_train.4.ark:2234975
mhmr0_si1692 quick_test/mfcc/raw_mfcc_train.3.ark:420282
mprt0_si1210 quick_test/mfcc/raw_mfcc_train.4.ark:129587
msdh0_sx170 quick_test/mfcc/raw_mfcc_train.4.ark:1860299
fsrh0_si1719 quick_test/mfcc/raw_mfcc_train.2.ark:346164
fgdp0_sx178 quick_test/mfcc/raw_mfcc_train.1.ark:1407473
megj0_si1967 quick_test/mfcc/raw_mfcc_train.2.ark:3220662
mdtb0_si1200 quick_test/mfcc/raw_mfcc_train.2.ark:2995914
mjdc0_si1161 quick_test/mfcc/raw_mfcc_train.3.ark:703990
fjxp0_sx42 quick_test/mfcc/raw_mfcc_train.1.ark:2014510
mjfh0_si1737 quick_test/mfcc/raw_mfcc_train.3.ark:946054
mrjb1_si2021 quick_test/mfcc/raw_mfcc_train.4.ark:852293
mgaf0_sx292 quick_test/mfcc/raw_mfcc_train.2.ark:3604775
mdef0_si2193 quick_test/mfcc/raw_mfcc_train.2.ark:2228561
mesg0_si1962 quick_test/mfcc/raw_mfcc_train.2.ark:3313118
mpeb0_sx420 quick_test/mfcc/raw_mfcc_train.3.ark:3556280
mrld0_si964 quick_test/mfcc/raw_mfcc_train.4.ark:1065781
mmam0_si1668 quick_test/mfcc/raw_mfcc_train.3.ark:2680977
mrai0_sx162 quick_test/mfcc/raw_mfcc_train.4.ark:264581
mtab0_si1572 quick_test/mfcc/raw_mfcc_train.4.ark:2339071
mprt0_si580 quick_test/mfcc/raw_mfcc_train.4.ark:137193
fcyl0_sx37 quick_test/mfcc/raw_mfcc_train.1.ark:776138
mdwm0_sx286 quick_test/mfcc/raw_mfcc_train.2.ark:3111379
fpac0_sx121 quick_test/mfcc/raw_mfcc_train.1.ark:3243091
mrgs0_sx186 quick_test/mfcc/raw_mfcc_train.4.ark:788942
mwdk0_sx356 quick_test/mfcc/raw_mfcc_train.4.ark:3568849
frll0_si805 quick_test/mfcc/raw_mfcc_train.1.ark:3525988
mcdd0_si1513 quick_test/mfcc/raw_mfcc_train.2.ark:1540625
fgdp0_si2248 quick_test/mfcc/raw_mfcc_train.1.ark:1397683
msvs0_sx308 quick_test/mfcc/raw_mfcc_train.4.ark:2324334
mcdd0_sx253 quick_test/mfcc/raw_mfcc_train.2.ark:1554876
fkde0_si2221 quick_test/mfcc/raw_mfcc_train.1.ark:2065265
mjeb0_si1286 quick_test/mfcc/raw_mfcc_train.3.ark:844007
mgrp0_si1317 quick_test/mfcc/raw_mfcc_train.3.ark:157847
fmkf0_sx6 quick_test/mfcc/raw_mfcc_train.1.ark:3045823
mjfr0_sx435 quick_test/mfcc/raw_mfcc_train.3.ark:994545
mbjv0_sx77 quick_test/mfcc/raw_mfcc_train.2.ark:1218001
fksr0_sx37 quick_test/mfcc/raw_mfcc_train.1.ark:2317762
fntb0_si573 quick_test/mfcc/raw_mfcc_train.1.ark:3162636
