mjdg0_sx232 quick_test/fbank/raw_fbank_train.3.ark:2427461
madd0_si538 quick_test/fbank/raw_fbank_train.2.ark:2232322
flja0_sx358 quick_test/fbank/raw_fbank_train.1.ark:7678725
mjdg0_sx142 quick_test/fbank/raw_fbank_train.3.ark:2414628
msds0_sx357 quick_test/fbank/raw_fbank_train.4.ark:5841344
mgjc0_si1965 quick_test/fbank/raw_fbank_train.3.ark:301757
fsms1_si1504 quick_test/fbank/raw_fbank_train.2.ark:851665
fpls0_sx150 quick_test/fbank/raw_fbank_train.1.ark:10435411
fcjf0_sx217 quick_test/fbank/raw_fbank_train.1.ark:1689503
mmpm0_sx431 quick_test/fbank/raw_fbank_train.3.ark:9789702
fsrh0_sx401 quick_test/fbank/raw_fbank_train.2.ark:1128634
mmws1_si1701 quick_test/fbank/raw_fbank_train.3.ark:10380086
mmeb0_si1987 quick_test/fbank/raw_fbank_train.3.ark:9183506
flkm0_sx80 quick_test/fbank/raw_fbank_train.1.ark:8035864
mtrr0_si1548 quick_test/fbank/raw_fbank_train.4.ark:9810871
mmdm1_si2043 quick_test/fbank/raw_fbank_train.3.ark:8908751
fljg0_si1611 quick_test/fbank/raw_fbank_train.1.ark:7815489
mdem0_sx68 quick_test/fbank/raw_fbank_train.2.ark:6986364
mjmd0_sx218 quick_test/fbank/raw_fbank_train.3.ark:4006943
flja0_sx268 quick_test/fbank/raw_fbank_train.1.ark:7663372
msdh0_sx260 quick_test/fbank/raw_fbank_train.4.ark:5710525
msms0_sx263 quick_test/fbank/raw_fbank_train.4.ark:6693111
mdsj0_sx382 quick_test/fbank/raw_fbank_train.2.ark:8969273
mjpm0_si738 quick_test/fbank/raw_fbank_train.3.ark:4261352
msdh0_sx350 quick_test/fbank/raw_fbank_train.4.ark:5722758
mjde0_sx400 quick_test/fbank/raw_fbank_train.3.ark:2363133
fltm0_si1700 quick_test/fbank/raw_fbank_train.1.ark:8428314
mjjj0_sx83 quick_test/fbank/raw_fbank_train.3.ark:3374184
fsdj0_sx35 quick_test/fbank/raw_fbank_train.1.ark:11585983
mmcc0_sx258 quick_test/fbank/raw_fbank_train.3.ark:8557270
fdnc0_sx18 quick_test/fbank/raw_fbank_train.1.ark:3182242
fmbg0_sx260 quick_test/fbank/raw_fbank_train.1.ark:8657992
mmag0_sx406 quick_test/fbank/raw_fbank_train.3.ark:8162555
msmc0_sx17 quick_test/fbank/raw_fbank_train.4.ark:6494620
fpac0_si1921 quick_test/fbank/raw_fbank_train.1.ark:9877265
mjlg1_sx202 quick_test/fbank/raw_fbank_train.3.ark:3728907
mmeb0_si727 quick_test/fbank/raw_fbank_train.3.ark:9192219
mbgt0_sx81 quick_test/fbank/raw_fbank_train.2.ark:3634199
mrmh0_sx31 quick_test/fbank/raw_fbank_train.4.ark:3962455
fjkl0_sx32 quick_test/fbank/raw_fbank_train.1.ark:5230471
fceg0_sx78 quick_test/fbank/raw_fbank_train.1.ark:1635896
fjlg0_sx89 quick_test/fbank/raw_fbank_train.1.ark:5340290
mtas0_sx215 quick_test/fbank/raw_fbank_train.4.ark:7314259
mdps0_si1651 quick_test/fbank/raw_fbank_train.2.ark:8693945
mpgr1_sx59 quick_test/fbank/raw_fbank_train.3.ark:11278946
mrbc0_si1859 quick_test/fbank/raw_fbank_train.4.ark:1068949
mcth0_sx399 quick_test/fbank/raw_fbank_train.2.ark:5799346
mclk0_sx400 quick_test/fbank/raw_fbank_train.2.ark:5324102
mrgs0_sx276 quick_test/fbank/raw_fbank_train.4.ark:2426135
mtcs0_sx262 quick_test/fbank/raw_fbank_train.4.ark:7709999
mcal0_sx148 quick_test/fbank/raw_fbank_train.2.ark:4554035
fbcg1_si1612 quick_test/fbank/raw_fbank_train.1.ark:633960
fsbk0_sx349 quick_test/fbank/raw_fbank_train.1.ark:11257876
mcth0_si579 quick_test/fbank/raw_fbank_train.2.ark:5735662
mafm0_si2199 quick_test/fbank/raw_fbank_train.2.ark:2505605
mjrh1_sx424 quick_test/fbank/raw_fbank_train.3.ark:4804610
feac0_si615 quick_test/fbank/raw_fbank_train.1.ark:3453053
fsjg0_sx40 quick_test/fbank/raw_fbank_train.1.ark:11804833
fmkf0_sx366 quick_test/fbank/raw_fbank_train.1.ark:9306246
maeb0_sx450 quick_test/fbank/raw_fbank_train.2.ark:2381439
faem0_sx42 quick_test/fbank/raw_fbank_train.1.ark:91084
mrwa0_sx343 quick_test/fbank/raw_fbank_train.4.ark:4997035
mrdm0_sx245 quick_test/fbank/raw_fbank_train.4.ark:1510909
mrjm0_sx418 quick_test/fbank/raw_fbank_train.4.ark:2880660
majp0_si1704 quick_test/fbank/raw_fbank_train.2.ark:2590510
mcef0_sx235 quick_test/fbank/raw_fbank_train.2.ark:4963168
mdpb0_si866 quick_test/fbank/raw_fbank_train.2.ark:8531522
flja0_si1708 quick_test/fbank/raw_fbank_train.1.ark:7633432
mgak0_si2296 quick_test/fbank/raw_fbank_train.2.ark:11173381
mrso0_si1206 quick_test/fbank/raw_fbank_train.4.ark:4395303
feeh0_sx32 quick_test/fbank/raw_fbank_train.1.ark:3828819
mkln0_si2228 quick_test/fbank/raw_fbank_train.3.ark:6568972
fcjf0_si1027 quick_test/fbank/raw_fbank_train.1.ark:1644050
mdlc1_sx445 quick_test/fbank/raw_fbank_train.2.ark:7687909
mtdb0_sx321 quick_test/fbank/raw_fbank_train.4.ark:7824337
mdlc0_sx135 quick_test/fbank/raw_fbank_train.2.ark:7550104
mprk0_sx197 quick_test/fbank/raw_fbank_train.4.ark:355279
fsma0_si991 quick_test/fbank/raw_fbank_train.2.ark:659122
fpab1_si1471 quick_test/fbank/raw_fbank_train.1.ark:9762720
mtas0_si755 quick_test/fbank/raw_fbank_train.4.ark:7296833
mpar0_sx226 quick_test/fbank/raw_fbank_train.3.ark:10779803
mwre0_sx67 quick_test/fbank/raw_fbank_train.4.ark:11238058
mtxs0_sx340 quick_test/fbank/raw_fbank_train.4.ark:10164473
fpjf0_sx352 quick_test/fbank/raw_fbank_train.1.ark:10367085
mjeb1_sx207 quick_test/fbank/raw_fbank_train.3.ark:2743016
mrai0_sx72 quick_test/fbank/raw_fbank_train.4.ark:864389
madc0_sx197 quick_test/fbank/raw_fbank_train.2.ark:2174275
mkls1_si2175 quick_test/fbank/raw_fbank_train.3.ark:6858849
fdxw0_si2141 quick_test/fbank/raw_fbank_train.1.ark:3352235
mdcd0_sx155 quick_test/fbank/raw_fbank_train.2.ark:6435308
fcmg0_si1242 quick_test/fbank/raw_fbank_train.1.ark:2020344
falk0_sx366 quick_test/fbank/raw_fbank_train.1.ark:273466
fmkf0_si1536 quick_test/fbank/raw_fbank_train.1.ark:9259154
feeh0_si471 quick_test/fbank/raw_fbank_train.1.ark:3779728
mjlg1_sx112 quick_test/fbank/raw_fbank_train.3.ark:3717274
mdks0_si1696 quick_test/fbank/raw_fbank_train.2.ark:7290587
mbef0_sx111 quick_test/fbank/raw_fbank_train.2.ark:3497403
mdtb0_sx390 quick_test/fbank/raw_fbank_train.2.ark:9241062
flac0_sx361 quick_test/fbank/raw_fbank_train.1.ark:7172637
fkfb0_sx438 quick_test/fbank/raw_fbank_train.1.ark:6572919
madd0_si1295 quick_test/fbank/raw_fbank_train.2.ark:2210255
mtpr0_si1600 quick_test/fbank/raw_fbank_train.4.ark:9481037
majp0_sx264 quick_test/fbank/raw_fbank_train.2.ark:2638810
fkfb0_si978 quick_test/fbank/raw_fbank_train.1.ark:6519627
mdlr1_si669 quick_test/fbank/raw_fbank_train.2.ark:8112581
mgaw0_sx445 quick_test/fbank/raw_fbank_train.3.ark:175598
fhxs0_sx265 quick_test/fbank/raw_fbank_train.1.ark:4794663
mtas0_sx305 quick_test/fbank/raw_fbank_train.4.ark:7325492
mlel0_sx76 quick_test/fbank/raw_fbank_train.3.ark:7428092
mprk0_sx377 quick_test/fbank/raw_fbank_train.4.ark:382745
ftmg0_sx92 quick_test/fbank/raw_fbank_train.2.ark:1726095
mtlb0_sx144 quick_test/fbank/raw_fbank_train.4.ark:8740096
mrcg0_sx438 quick_test/fbank/raw_fbank_train.4.ark:1242659
fskl0_sx269 quick_test/fbank/raw_fbank_train.2.ark:399472
mkln0_si1598 quick_test/fbank/raw_fbank_train.3.ark:6555058
mrfl0_si1156 quick_test/fbank/raw_fbank_train.4.ark:2138512
fmkf0_sx96 quick_test/fbank/raw_fbank_train.1.ark:9331749
mdhl0_si809 quick_test/fbank/raw_fbank_train.2.ark:7023625
mtmn0_sx344 quick_test/fbank/raw_fbank_train.4.ark:9076518
mbth0_si757 quick_test/fbank/raw_fbank_train.2.ark:4218809
mjde0_sx130 quick_test/fbank/raw_fbank_train.3.ark:2300362
mcew0_sx272 quick_test/fbank/raw_fbank_train.2.ark:5069713
mchl0_sx87 quick_test/fbank/raw_fbank_train.2.ark:5221957
fjxp0_sx312 quick_test/fbank/raw_fbank_train.1.ark:6138785
fpab1_sx211 quick_test/fbank/raw_fbank_train.1.ark:9830373
mwac0_si2231 quick_test/fbank/raw_fbank_train.4.ark:10499561
mjdc0_sx441 quick_test/fbank/raw_fbank_train.3.ark:2228077
mtpr0_si2230 quick_test/fbank/raw_fbank_train.4.ark:9494351
mrso0_si1659 quick_test/fbank/raw_fbank_train.4.ark:4417737
mcre0_sx401 quick_test/fbank/raw_fbank_train.2.ark:5582985
mhxl0_si512 quick_test/fbank/raw_fbank_train.3.ark:1484138
mbml0_si1799 quick_test/fbank/raw_fbank_train.2.ark:3946022
fsbk0_si2329 quick_test/fbank/raw_fbank_train.1.ark:11222177
mbom0_sx204 quick_test/fbank/raw_fbank_train.2.ark:4070147
fdaw0_sx146 quick_test/fbank/raw_fbank_train.1.ark:2551617
fcjs0_si2237 quick_test/fbank/raw_fbank_train.1.ark:1729509
fapb0_si2323 quick_test/fbank/raw_fbank_train.1.ark:431736
mtrr0_si2178 quick_test/fbank/raw_fbank_train.4.ark:9820585
fbas0_sx217 quick_test/fbank/raw_fbank_train.1.ark:593028
fjen0_si1047 quick_test/fbank/raw_fbank_train.1.ark:4946261
mgrp0_si1947 quick_test/fbank/raw_fbank_train.3.ark:500414
mkdb0_sx242 quick_test/fbank/raw_fbank_train.3.ark:6103267
fssb0_sx362 quick_test/fbank/raw_fbank_train.2.ark:1215667
fljd0_sx436 quick_test/fbank/raw_fbank_train.1.ark:7795623
mwsb0_si2256 quick_test/fbank/raw_fbank_train.4.ark:11364590
fvkb0_sx259 quick_test/fbank/raw_fbank_train.2.ark:1868888
mbwp0_si709 quick_test/fbank/raw_fbank_train.2.ark:4310114
mkdt0_sx173 quick_test/fbank/raw_fbank_train.3.ark:6294643
mkjo0_sx167 quick_test/fbank/raw_fbank_train.3.ark:6498213
mdjm0_si2085 quick_test/fbank/raw_fbank_train.2.ark:7206242
mwre0_si2317 quick_test/fbank/raw_fbank_train.4.ark:11181414
mbbr0_si1055 quick_test/fbank/raw_fbank_train.2.ark:3272973
mwad0_si1062 quick_test/fbank/raw_fbank_train.4.ark:10601792
fbcg1_sx172 quick_test/fbank/raw_fbank_train.1.ark:665060
mgar0_sx402 quick_test/fbank/raw_fbank_train.3.ark:76853
fsah0_si1244 quick_test/fbank/raw_fbank_train.1.ark:10996139
mcae0_si817 quick_test/fbank/raw_fbank_train.2.ark:4440259
mpsw0_si1697 quick_test/fbank/raw_fbank_train.4.ark:495317
msat1_sx353 quick_test/fbank/raw_fbank_train.4.ark:5556787
mlel0_si1876 quick_test/fbank/raw_fbank_train.3.ark:7342135
fmju0_si759 quick_test/fbank/raw_fbank_train.1.ark:9063296
fpaf0_si1054 quick_test/fbank/raw_fbank_train.1.ark:10092195
mdps0_si1979 quick_test/fbank/raw_fbank_train.2.ark:8701419
mtmt0_sx308 quick_test/fbank/raw_fbank_train.4.ark:9170143
mdas0_sx96 quick_test/fbank/raw_fbank_train.2.ark:6186683
mbom0_si1644 quick_test/fbank/raw_fbank_train.2.ark:4042007
mrds0_sx177 quick_test/fbank/raw_fbank_train.4.ark:1591741
fmpg0_sx162 quick_test/fbank/raw_fbank_train.1.ark:9493746
mdcm0_si1480 quick_test/fbank/raw_fbank_train.2.ark:6492473
fsmm0_sx324 quick_test/fbank/raw_fbank_train.2.ark:805646
mrws0_sx22 quick_test/fbank/raw_fbank_train.4.ark:5089259
fhlm0_sx349 quick_test/fbank/raw_fbank_train.1.ark:4685622
mgak0_si1666 quick_test/fbank/raw_fbank_train.2.ark:11161427
mrjb1_si1020 quick_test/fbank/raw_fbank_train.4.ark:2572610
mdhl0_sx269 quick_test/fbank/raw_fbank_train.2.ark:7048731
mvjh0_sx206 quick_test/fbank/raw_fbank_train.4.ark:10258945
msat1_sx173 quick_test/fbank/raw_fbank_train.4.ark:5531121
mmdb0_sx177 quick_test/fbank/raw_fbank_train.3.ark:8646222
fjrp1_sx352 quick_test/fbank/raw_fbank_train.1.ark:5626660
mjeb0_si1286 quick_test/fbank/raw_fbank_train.3.ark:2582618
makr0_si1352 quick_test/fbank/raw_fbank_train.2.ark:2810128
mses0_sx149 quick_test/fbank/raw_fbank_train.4.ark:6046929
mrfk0_sx446 quick_test/fbank/raw_fbank_train.4.ark:2118886
flod0_si1287 quick_test/fbank/raw_fbank_train.1.ark:8329334
mdma0_si1238 quick_test/fbank/raw_fbank_train.2.ark:8193699
fkde0_sx61 quick_test/fbank/raw_fbank_train.1.ark:6379341
mkes0_sx443 quick_test/fbank/raw_fbank_train.3.ark:6443727
mwrp0_sx363 quick_test/fbank/raw_fbank_train.4.ark:11330370
fclt0_sx358 quick_test/fbank/raw_fbank_train.1.ark:1965411
mrfl0_si526 quick_test/fbank/raw_fbank_train.4.ark:2166259
mhbs0_si945 quick_test/fbank/raw_fbank_train.3.ark:939381
fjwb1_sx255 quick_test/fbank/raw_fbank_train.1.ark:5926702
fkkh0_sx300 quick_test/fbank/raw_fbank_train.1.ark:6692303
fpaz0_sx423 quick_test/fbank/raw_fbank_train.1.ark:10272859
flet0_si1767 quick_test/fbank/raw_fbank_train.1.ark:7434261
msmr0_si1405 quick_test/fbank/raw_fbank_train.4.ark:6560987
mrdd0_si2310 quick_test/fbank/raw_fbank_train.4.ark:1392738
mmea0_sx308 quick_test/fbank/raw_fbank_train.3.ark:9135453
mpar0_sx136 quick_test/fbank/raw_fbank_train.3.ark:10765690
fcmg0_sx72 quick_test/fbank/raw_fbank_train.1.ark:2097942
mcxm0_sx451 quick_test/fbank/raw_fbank_train.2.ark:5978364
mtmt0_sx128 quick_test/fbank/raw_fbank_train.4.ark:9148557
mlbc0_sx159 quick_test/fbank/raw_fbank_train.3.ark:7274056
mtxs0_si1060 quick_test/fbank/raw_fbank_train.4.ark:10089186
fexm0_si1101 quick_test/fbank/raw_fbank_train.1.ark:4059536
mjdm0_sx440 quick_test/fbank/raw_fbank_train.3.ark:2557112
mrjb1_sx300 quick_test/fbank/raw_fbank_train.4.ark:2663449
mmpm0_si2321 quick_test/fbank/raw_fbank_train.3.ark:9735010
fbmj0_si516 quick_test/fbank/raw_fbank_train.1.ark:1162598
fksr0_sx366 quick_test/fbank/raw_fbank_train.1.ark:7077292
mpsw0_si2327 quick_test/fbank/raw_fbank_train.4.ark:505351
mbar0_si1949 quick_test/fbank/raw_fbank_train.2.ark:3191702
mtdb0_sx51 quick_test/fbank/raw_fbank_train.4.ark:7851322
mrjh0_si889 quick_test/fbank/raw_fbank_train.4.ark:2707989
fcyl0_si1927 quick_test/fbank/raw_fbank_train.1.ark:2307860
milb0_sx183 quick_test/fbank/raw_fbank_train.3.ark:1617028
feme0_si875 quick_test/fbank/raw_fbank_train.1.ark:3876113
mrab1_sx128 quick_test/fbank/raw_fbank_train.4.ark:704233
fjwb1_si795 quick_test/fbank/raw_fbank_train.1.ark:5903916
fvmh0_si2096 quick_test/fbank/raw_fbank_train.2.ark:1944494
mrre0_sx74 quick_test/fbank/raw_fbank_train.4.ark:4382389
mrtc0_si828 quick_test/fbank/raw_fbank_train.4.ark:4654141
ftmg0_si2162 quick_test/fbank/raw_fbank_train.2.ark:1648458
mpgr1_sx329 quick_test/fbank/raw_fbank_train.3.ark:11251521
fljd0_sx166 quick_test/fbank/raw_fbank_train.1.ark:7754924
msas0_si2006 quick_test/fbank/raw_fbank_train.4.ark:5326684
mmdm1_sx153 quick_test/fbank/raw_fbank_train.3.ark:8928537
fcrz0_si793 quick_test/fbank/raw_fbank_train.1.ark:2228108
fntb0_si1203 quick_test/fbank/raw_fbank_train.1.ark:9669336
mfmc0_sx232 quick_test/fbank/raw_fbank_train.2.ark:10533429
mpgh0_sx384 quick_test/fbank/raw_fbank_train.3.ark:11090095
mmpm0_sx161 quick_test/fbank/raw_fbank_train.3.ark:9745443
mmam0_sx247 quick_test/fbank/raw_fbank_train.3.ark:8229195
falr0_si1325 quick_test/fbank/raw_fbank_train.1.ark:310923
mewm0_sx448 quick_test/fbank/raw_fbank_train.2.ark:10374765
mrtc0_sx288 quick_test/fbank/raw_fbank_train.4.ark:4701272
fsgf0_sx297 quick_test/fbank/raw_fbank_train.1.ark:11683568
mram0_si1905 quick_test/fbank/raw_fbank_train.4.ark:886537
mrwa0_sx433 quick_test/fbank/raw_fbank_train.4.ark:5011788
mrlj0_sx160 quick_test/fbank/raw_fbank_train.4.ark:3362204
mmds0_sx353 quick_test/fbank/raw_fbank_train.3.ark:9052388
mklr0_sx249 quick_test/fbank/raw_fbank_train.3.ark:6694257
fhxs0_sx445 quick_test/fbank/raw_fbank_train.1.ark:4818089
fclt0_si1438 quick_test/fbank/raw_fbank_train.1.ark:1903685
mjeb1_sx297 quick_test/fbank/raw_fbank_train.3.ark:2761561
feeh0_si1742 quick_test/fbank/raw_fbank_train.1.ark:3766015
mrsp0_sx169 quick_test/fbank/raw_fbank_train.4.ark:4561189
flkm0_sx440 quick_test/fbank/raw_fbank_train.1.ark:8018352
mrld0_sx424 quick_test/fbank/raw_fbank_train.4.ark:3304918
mjpg0_sx21 quick_test/fbank/raw_fbank_train.3.ark:4203145
mdpk0_sx153 quick_test/fbank/raw_fbank_train.2.ark:8634060
mjpm1_si761 quick_test/fbank/raw_fbank_train.3.ark:4346177
mwar0_si1675 quick_test/fbank/raw_fbank_train.4.ark:10696892
mjai0_si710 quick_test/fbank/raw_fbank_train.3.ark:1898868
mcdd0_si2143 quick_test/fbank/raw_fbank_train.2.ark:4722179
mjrh1_si514 quick_test/fbank/raw_fbank_train.3.ark:4758558
mljh0_sx424 quick_test/fbank/raw_fbank_train.3.ark:7643150
mrjb1_sx210 quick_test/fbank/raw_fbank_train.4.ark:2644064
fsak0_si1930 quick_test/fbank/raw_fbank_train.1.ark:11121518
fapb0_sx163 quick_test/fbank/raw_fbank_train.1.ark:454089
mpgr0_si2040 quick_test/fbank/raw_fbank_train.3.ark:11115323
mkdd0_sx127 quick_test/fbank/raw_fbank_train.3.ark:6207859
mkxl0_sx105 quick_test/fbank/raw_fbank_train.3.ark:7182431
mhmg0_sx15 quick_test/fbank/raw_fbank_train.3.ark:1235162
fcmm0_sx273 quick_test/fbank/raw_fbank_train.1.ark:2153789
mfmc0_si502 quick_test/fbank/raw_fbank_train.2.ark:10506443
fsdc0_si1942 quick_test/fbank/raw_fbank_train.1.ark:11444833
mhxl0_si1772 quick_test/fbank/raw_fbank_train.3.ark:1472465
fspm0_si1241 quick_test/fbank/raw_fbank_train.2.ark:950410
fvfb0_si2292 quick_test/fbank/raw_fbank_train.2.ark:1765157
mgag0_si1321 quick_test/fbank/raw_fbank_train.2.ark:11052729
fpad0_si1976 quick_test/fbank/raw_fbank_train.1.ark:9998244
mdrd0_si1382 quick_test/fbank/raw_fbank_train.2.ark:8784410
marw0_si1906 quick_test/fbank/raw_fbank_train.2.ark:3083917
fajw0_sx363 quick_test/fbank/raw_fbank_train.1.ark:182475
mdlb0_sx226 quick_test/fbank/raw_fbank_train.2.ark:7446192
mbar0_sx419 quick_test/fbank/raw_fbank_train.2.ark:3253107
mtjg0_sx440 quick_test/fbank/raw_fbank_train.4.ark:8159205
mprt0_sx220 quick_test/fbank/raw_fbank_train.4.ark:440511
madc0_sx287 quick_test/fbank/raw_fbank_train.2.ark:2184748
mrld0_sx64 quick_test/fbank/raw_fbank_train.4.ark:3315750
mrmh0_si1021 quick_test/fbank/raw_fbank_train.4.ark:3886016
mgxp0_si1087 quick_test/fbank/raw_fbank_train.3.ark:808732
mbma1_si2214 quick_test/fbank/raw_fbank_train.2.ark:3838877
mmrp0_si717 quick_test/fbank/raw_fbank_train.3.ark:9819321
fcag0_sx333 quick_test/fbank/raw_fbank_train.1.ark:1306116
mrcw0_sx111 quick_test/fbank/raw_fbank_train.4.ark:1318265
marc0_sx18 quick_test/fbank/raw_fbank_train.2.ark:3030950
mwsb0_si996 quick_test/fbank/raw_fbank_train.4.ark:11373863
mmea0_sx398 quick_test/fbank/raw_fbank_train.3.ark:9156238
fjsk0_sx242 quick_test/fbank/raw_fbank_train.1.ark:5727333
fntb0_sx393 quick_test/fbank/raw_fbank_train.1.ark:9752766
fbmh0_si970 quick_test/fbank/raw_fbank_train.1.ark:1076127
makr0_sx182 quick_test/fbank/raw_fbank_train.2.ark:2839708
fmem0_sx297 quick_test/fbank/raw_fbank_train.1.ark:8781641
fdxw0_sx161 quick_test/fbank/raw_fbank_train.1.ark:3373381
madd0_sx268 quick_test/fbank/raw_fbank_train.2.ark:2258908
fdtd0_si2191 quick_test/fbank/raw_fbank_train.1.ark:3248609
mwch0_sx182 quick_test/fbank/raw_fbank_train.4.ark:10802985
msfv0_sx92 quick_test/fbank/raw_fbank_train.4.ark:6319030
mkes0_si623 quick_test/fbank/raw_fbank_train.3.ark:6386595
mjwg0_si2155 quick_test/fbank/raw_fbank_train.3.ark:5131071
mtrc0_sx183 quick_test/fbank/raw_fbank_train.4.ark:9775379
msah1_sx419 quick_test/fbank/raw_fbank_train.4.ark:5287464
mrmh0_si2281 quick_test/fbank/raw_fbank_train.4.ark:3916724
flhd0_sx444 quick_test/fbank/raw_fbank_train.1.ark:7584132
mdac0_sx91 quick_test/fbank/raw_fbank_train.2.ark:6097301
mmdg0_si1780 quick_test/fbank/raw_fbank_train.3.ark:8694547
fmem0_sx333 quick_test/fbank/raw_fbank_train.1.ark:8792674
msmr0_sx55 quick_test/fbank/raw_fbank_train.4.ark:6626024
mkls1_si915 quick_test/fbank/raw_fbank_train.3.ark:6868242
mrjm0_sx328 quick_test/fbank/raw_fbank_train.4.ark:2866467
fgrw0_sx72 quick_test/fbank/raw_fbank_train.1.ark:4604709
mwsh0_si2266 quick_test/fbank/raw_fbank_train.4.ark:11460253
mtdb0_si771 quick_test/fbank/raw_fbank_train.4.ark:7786958
mtmn0_sx434 quick_test/fbank/raw_fbank_train.4.ark:9085511
fmpg0_sx342 quick_test/fbank/raw_fbank_train.1.ark:9523332
msms0_si2063 quick_test/fbank/raw_fbank_train.4.ark:6655012
mrew1_sx60 quick_test/fbank/raw_fbank_train.4.ark:2037012
fmkc0_sx172 quick_test/fbank/raw_fbank_train.1.ark:9174915
mjfr0_sx75 quick_test/fbank/raw_fbank_train.3.ark:3061269
ftlg0_si1743 quick_test/fbank/raw_fbank_train.2.ark:1535880
ftbw0_sx445 quick_test/fbank/raw_fbank_train.2.ark:1515854
mcpm0_sx384 quick_test/fbank/raw_fbank_train.2.ark:5504192
fcjf0_sx397 quick_test/fbank/raw_fbank_train.1.ark:1712121
mmvp0_sx347 quick_test/fbank/raw_fbank_train.3.ark:10109696
mkaj0_si1414 quick_test/fbank/raw_fbank_train.3.ark:5866404
mrsp0_sx439 quick_test/fbank/raw_fbank_train.4.ark:4594248
mkls0_si1533 quick_test/fbank/raw_fbank_train.3.ark:6759543
flmk0_si1229 quick_test/fbank/raw_fbank_train.1.ark:8243662
faem0_si2022 quick_test/fbank/raw_fbank_train.1.ark:19327
fkde0_sx151 quick_test/fbank/raw_fbank_train.1.ark:6329530
fdkn0_sx181 quick_test/fbank/raw_fbank_train.1.ark:2828094
fjdm2_sx142 quick_test/fbank/raw_fbank_train.1.ark:4876136
mtdp0_sx81 quick_test/fbank/raw_fbank_train.4.ark:7969268
mmdm1_sx423 quick_test/fbank/raw_fbank_train.3.ark:8976036
mdpk0_sx423 quick_test/fbank/raw_fbank_train.2.ark:8671359
mntw0_sx258 quick_test/fbank/raw_fbank_train.3.ark:10694731
fljg0_sx441 quick_test/fbank/raw_fbank_train.1.ark:7907328
fpjf0_sx56 quick_test/fbank/raw_fbank_train.1.ark:10384317
msrr0_si501 quick_test/fbank/raw_fbank_train.4.ark:6856575
mdmt0_sx32 quick_test/fbank/raw_fbank_train.2.ark:8378603
mwch0_si1895 quick_test/fbank/raw_fbank_train.4.ark:10785318
fcdr1_sx376 quick_test/fbank/raw_fbank_train.1.ark:1547351
fsrh0_si1719 quick_test/fbank/raw_fbank_train.2.ark:1059315
mljh0_si694 quick_test/fbank/raw_fbank_train.3.ark:7581698
mjee0_si1237 quick_test/fbank/raw_fbank_train.3.ark:2786308
fbas0_si1387 quick_test/fbank/raw_fbank_train.1.ark:527214
mgsl0_sx84 quick_test/fbank/raw_fbank_train.3.ark:794378
fkaa0_si1838 quick_test/fbank/raw_fbank_train.1.ark:6187038
mtml0_sx255 quick_test/fbank/raw_fbank_train.4.ark:8949900
mjrp0_sx225 quick_test/fbank/raw_fbank_train.3.ark:4966354
mlbc0_sx339 quick_test/fbank/raw_fbank_train.3.ark:7295282
fpac0_si2011 quick_test/fbank/raw_fbank_train.1.ark:9897779
mtrt0_si1857 quick_test/fbank/raw_fbank_train.4.ark:9929890
fsjg0_si2200 quick_test/fbank/raw_fbank_train.1.ark:11719189
fjsp0_si1434 quick_test/fbank/raw_fbank_train.1.ark:5778905
mdmt0_sx122 quick_test/fbank/raw_fbank_train.2.ark:8339145
fgcs0_sx226 quick_test/fbank/raw_fbank_train.1.ark:4224575
mjdm0_si1340 quick_test/fbank/raw_fbank_train.3.ark:2473313
mtju0_sx400 quick_test/fbank/raw_fbank_train.4.ark:8479312
ftlg0_sx33 quick_test/fbank/raw_fbank_train.2.ark:1619997
mafm0_sx129 quick_test/fbank/raw_fbank_train.2.ark:2526391
mrjt0_sx328 quick_test/fbank/raw_fbank_train.4.ark:3069037
msfv0_si1892 quick_test/fbank/raw_fbank_train.4.ark:6230713
mrcw0_sx291 quick_test/fbank/raw_fbank_train.4.ark:1345803
mjda0_si1661 quick_test/fbank/raw_fbank_train.3.ark:2073286
mdmt0_sx392 quick_test/fbank/raw_fbank_train.2.ark:8389236
frll0_sx74 quick_test/fbank/raw_fbank_train.1.ark:10867520
mjjm0_sx377 quick_test/fbank/raw_fbank_train.3.ark:3472729
mrab0_sx234 quick_test/fbank/raw_fbank_train.4.ark:611201
mrew1_si1500 quick_test/fbank/raw_fbank_train.4.ark:1957941
mljh0_si1422 quick_test/fbank/raw_fbank_train.3.ark:7554825
mfer0_sx322 quick_test/fbank/raw_fbank_train.2.ark:10450837
fntb0_si573 quick_test/fbank/raw_fbank_train.1.ark:9679329
faem0_sx222 quick_test/fbank/raw_fbank_train.1.ark:51746
fjhk0_si1652 quick_test/fbank/raw_fbank_train.1.ark:5071801
mjbg0_si1724 quick_test/fbank/raw_fbank_train.3.ark:1980860
mcss0_sx300 quick_test/fbank/raw_fbank_train.2.ark:5690608
mjjb0_sx329 quick_test/fbank/raw_fbank_train.3.ark:3235534
mdns0_sx111 quick_test/fbank/raw_fbank_train.2.ark:8449450
mjkr0_si1201 quick_test/fbank/raw_fbank_train.3.ark:3485123
mgrp0_sx57 quick_test/fbank/raw_fbank_train.3.ark:580011
fsmm0_sx54 quick_test/fbank/raw_fbank_train.2.ark:837431
mstf0_sx136 quick_test/fbank/raw_fbank_train.4.ark:6969751
mbar0_si1319 quick_test/fbank/raw_fbank_train.2.ark:3176028
fdaw0_sx56 quick_test/fbank/raw_fbank_train.1.ark:2595188
mcpm0_si564 quick_test/fbank/raw_fbank_train.2.ark:5449868
makr0_sx452 quick_test/fbank/raw_fbank_train.2.ark:2865087
mhmr0_si489 quick_test/fbank/raw_fbank_train.3.ark:1304362
fdmy0_si714 quick_test/fbank/raw_fbank_train.1.ark:3026871
mafm0_si1569 quick_test/fbank/raw_fbank_train.2.ark:2499331
mwdk0_sx176 quick_test/fbank/raw_fbank_train.4.ark:10896090
mcae0_si1447 quick_test/fbank/raw_fbank_train.2.ark:4395312
mjae0_si2154 quick_test/fbank/raw_fbank_train.3.ark:1787524
mbwp0_si1969 quick_test/fbank/raw_fbank_train.2.ark:4299001
mpgh0_si924 quick_test/fbank/raw_fbank_train.3.ark:11045411
mmxs0_sx156 quick_test/fbank/raw_fbank_train.3.ark:10479576
fsma0_sx451 quick_test/fbank/raw_fbank_train.2.ark:714214
mbsb0_sx363 quick_test/fbank/raw_fbank_train.2.ark:4169317
mkln0_sx68 quick_test/fbank/raw_fbank_train.3.ark:6639569
mjmm0_si1885 quick_test/fbank/raw_fbank_train.3.ark:4069029
fgcs0_sx316 quick_test/fbank/raw_fbank_train.1.ark:4236488
fpaf0_sx334 quick_test/fbank/raw_fbank_train.1.ark:10160162
mdlr0_sx243 quick_test/fbank/raw_fbank_train.2.ark:8032982
mtxs0_sx70 quick_test/fbank/raw_fbank_train.4.ark:10198138
mdlc1_sx175 quick_test/fbank/raw_fbank_train.2.ark:7650210
mdjm0_sx105 quick_test/fbank/raw_fbank_train.2.ark:7231668
mprk0_si1097 quick_test/fbank/raw_fbank_train.4.ark:276994
mrml0_si791 quick_test/fbank/raw_fbank_train.4.ark:4009189
mtrt0_sx57 quick_test/fbank/raw_fbank_train.4.ark:9993007
mdmt0_si1832 quick_test/fbank/raw_fbank_train.2.ark:8311285
mcdr0_sx434 quick_test/fbank/raw_fbank_train.2.ark:4891609
mprt0_sx310 quick_test/fbank/raw_fbank_train.4.ark:454184
mtas0_sx125 quick_test/fbank/raw_fbank_train.4.ark:7306146
mjeb0_sx296 quick_test/fbank/raw_fbank_train.3.ark:2658816
flod0_sx171 quick_test/fbank/raw_fbank_train.1.ark:8376507
mmeb0_sx367 quick_test/fbank/raw_fbank_train.3.ark:9226598
fjxm0_sx401 quick_test/fbank/raw_fbank_train.1.ark:6047993
fsak0_sx400 quick_test/fbank/raw_fbank_train.1.ark:11188355
mjwt0_sx301 quick_test/fbank/raw_fbank_train.3.ark:5429366
mtjs0_si562 quick_test/fbank/raw_fbank_train.4.ark:8314123
mfer0_si2122 quick_test/fbank/raw_fbank_train.2.ark:10403785
mprd0_si1431 quick_test/fbank/raw_fbank_train.4.ark:165489
mhmr0_si1692 quick_test/fbank/raw_fbank_train.3.ark:1285929
fmem0_si2007 quick_test/fbank/raw_fbank_train.1.ark:8733029
mmgg0_sx179 quick_test/fbank/raw_fbank_train.3.ark:9386422
mmeb0_sx7 quick_test/fbank/raw_fbank_train.3.ark:9237309
mpgr0_sx330 quick_test/fbank/raw_fbank_train.3.ark:11149855
mjai0_sx344 quick_test/fbank/raw_fbank_train.3.ark:1938487
mdbb1_sx16 quick_test/fbank/raw_fbank_train.2.ark:6245690
fjwb1_si2055 quick_test/fbank/raw_fbank_train.1.ark:5876770
meal0_sx347 quick_test/fbank/raw_fbank_train.2.ark:9614210
mmdm0_sx411 quick_test/fbank/raw_fbank_train.3.ark:8875371
mtjm0_sx416 quick_test/fbank/raw_fbank_train.4.ark:8258950
fsdc0_si2234 quick_test/fbank/raw_fbank_train.1.ark:11455587
fmkc0_sx262 quick_test/fbank/raw_fbank_train.1.ark:9188908
mgaw0_sx355 quick_test/fbank/raw_fbank_train.3.ark:167045
mjmd0_sx308 quick_test/fbank/raw_fbank_train.3.ark:4017416
mjmm0_si1255 quick_test/fbank/raw_fbank_train.3.ark:4051795
mjxa0_sx157 quick_test/fbank/raw_fbank_train.3.ark:5500485
fcmm0_sx420 quick_test/fbank/raw_fbank_train.1.ark:2175975
mtjm0_sx56 quick_test/fbank/raw_fbank_train.4.ark:8269582
mjrk0_si2103 quick_test/fbank/raw_fbank_train.3.ark:4833230
falr0_sx425 quick_test/fbank/raw_fbank_train.1.ark:385482
fpaf0_si1684 quick_test/fbank/raw_fbank_train.1.ark:10115189
mrjt0_sx148 quick_test/fbank/raw_fbank_train.4.ark:3047651
feeh0_sx212 quick_test/fbank/raw_fbank_train.1.ark:3803434
mrlj0_sx70 quick_test/fbank/raw_fbank_train.4.ark:3409655
mmeb0_sx97 quick_test/fbank/raw_fbank_train.3.ark:9246861
mwar0_sx55 quick_test/fbank/raw_fbank_train.4.ark:10759410
fspm0_si1871 quick_test/fbank/raw_fbank_train.2.ark:972684
mjwg0_si895 quick_test/fbank/raw_fbank_train.3.ark:5161137
mvrw0_si1485 quick_test/fbank/raw_fbank_train.4.ark:10400422
mcxm0_sx271 quick_test/fbank/raw_fbank_train.2.ark:5958578
mpgr1_si1499 quick_test/fbank/raw_fbank_train.3.ark:11197308
mtpf0_sx65 quick_test/fbank/raw_fbank_train.4.ark:9290313
mfxs0_sx54 quick_test/fbank/raw_fbank_train.2.ark:10856644
mkxl0_si1815 quick_test/fbank/raw_fbank_train.3.ark:7147724
fmpg0_sx432 quick_test/fbank/raw_fbank_train.1.ark:9541085
mdlb0_sx46 quick_test/fbank/raw_fbank_train.2.ark:7492010
msfh0_sx46 quick_test/fbank/raw_fbank_train.4.ark:6209605
mter0_si1787 quick_test/fbank/raw_fbank_train.4.ark:7999496
mdlh0_sx160 quick_test/fbank/raw_fbank_train.2.ark:7830179
mkrg0_sx231 quick_test/fbank/raw_fbank_train.3.ark:7105399
mmws0_sx348 quick_test/fbank/raw_fbank_train.3.ark:10327433
mram0_sx375 quick_test/fbank/raw_fbank_train.4.ark:957335
freh0_sx325 quick_test/fbank/raw_fbank_train.1.ark:10662285
mtmt0_si1118 quick_test/fbank/raw_fbank_train.4.ark:9107617
mjfh0_sx27 quick_test/fbank/raw_fbank_train.3.ark:2937578
mesg0_si702 quick_test/fbank/raw_fbank_train.2.ark:10145225
fhlm0_si2190 quick_test/fbank/raw_fbank_train.1.ark:4620937
mdlm0_si604 quick_test/fbank/raw_fbank_train.2.ark:7915971
fdas1_sx111 quick_test/fbank/raw_fbank_train.1.ark:2448311
mdns0_sx201 quick_test/fbank/raw_fbank_train.2.ark:8460203
mcae0_si2077 quick_test/fbank/raw_fbank_train.2.ark:4418266
mrcw0_sx381 quick_test/fbank/raw_fbank_train.4.ark:1355676
mdtb0_si570 quick_test/fbank/raw_fbank_train.2.ark:9183417
mwgr0_si2236 quick_test/fbank/raw_fbank_train.4.ark:11069995
fsjg0_si940 quick_test/fbank/raw_fbank_train.1.ark:11732782
fbcg1_sx352 quick_test/fbank/raw_fbank_train.1.ark:688846
mdlc2_sx174 quick_test/fbank/raw_fbank_train.2.ark:7734275
mmaa0_sx215 quick_test/fbank/raw_fbank_train.3.ark:7924039
fcmm0_sx363 quick_test/fbank/raw_fbank_train.1.ark:2164022
fskp0_sx108 quick_test/fbank/raw_fbank_train.2.ark:485504
fbjl0_si2182 quick_test/fbank/raw_fbank_train.1.ark:853843
mrcw0_si741 quick_test/fbank/raw_fbank_train.4.ark:1300672
mmds0_sx173 quick_test/fbank/raw_fbank_train.3.ark:9031962
fvfb0_si1510 quick_test/fbank/raw_fbank_train.2.ark:1748723
fklc0_sx445 quick_test/fbank/raw_fbank_train.1.ark:6796409
fdml0_sx69 quick_test/fbank/raw_fbank_train.1.ark:2974451
mmcc0_si708 quick_test/fbank/raw_fbank_train.3.ark:8537044
fdfb0_sx58 quick_test/fbank/raw_fbank_train.1.ark:2680014
marc0_sx378 quick_test/fbank/raw_fbank_train.2.ark:3061329
mntw0_si1068 quick_test/fbank/raw_fbank_train.3.ark:10627364
mdlr1_sx309 quick_test/fbank/raw_fbank_train.2.ark:8156440
mjda0_sx41 quick_test/fbank/raw_fbank_train.3.ark:2141404
mjjb0_sx419 quick_test/fbank/raw_fbank_train.3.ark:3251047
mgrl0_si2127 quick_test/fbank/raw_fbank_train.3.ark:397629
fklc1_sx418 quick_test/fbank/raw_fbank_train.1.ark:6889235
mjdm0_sx170 quick_test/fbank/raw_fbank_train.3.ark:2506973
mmea0_si758 quick_test/fbank/raw_fbank_train.3.ark:9101074
mtrr0_si918 quick_test/fbank/raw_fbank_train.4.ark:9831698
mrwa0_sx163 quick_test/fbank/raw_fbank_train.4.ark:4976929
mjsr0_si1424 quick_test/fbank/raw_fbank_train.3.ark:5006966
fkdw0_sx397 quick_test/fbank/raw_fbank_train.1.ark:6479526
mesj0_sx367 quick_test/fbank/raw_fbank_train.2.ark:10282829
mwsb0_sx276 quick_test/fbank/raw_fbank_train.4.ark:11400089
ftaj0_si699 quick_test/fbank/raw_fbank_train.2.ark:1280472
mhit0_si983 quick_test/fbank/raw_fbank_train.3.ark:1026886
ftlg0_sx393 quick_test/fbank/raw_fbank_train.2.ark:1630390
mree0_si1104 quick_test/fbank/raw_fbank_train.4.ark:1644066
mjkr0_si1831 quick_test/fbank/raw_fbank_train.3.ark:3501277
mrlj1_sx231 quick_test/fbank/raw_fbank_train.4.ark:3461663
mjjb0_si1277 quick_test/fbank/raw_fbank_train.3.ark:3187401
mcre0_si1725 quick_test/fbank/raw_fbank_train.2.ark:5527300
fvkb0_si1789 quick_test/fbank/raw_fbank_train.2.ark:1835469
mdhl0_sx449 quick_test/fbank/raw_fbank_train.2.ark:7072157
mtcs0_sx172 quick_test/fbank/raw_fbank_train.4.ark:7698486
mjrh0_sx45 quick_test/fbank/raw_fbank_train.3.ark:4716737
fbcg1_sx442 quick_test/fbank/raw_fbank_train.1.ark:706439
fkde0_sx421 quick_test/fbank/raw_fbank_train.1.ark:6367669
mdlr0_si1233 quick_test/fbank/raw_fbank_train.2.ark:7983209
mjrh0_si1755 quick_test/fbank/raw_fbank_train.3.ark:4639739
fjlg0_si2306 quick_test/fbank/raw_fbank_train.1.ark:5279526
mrsp0_sx196 quick_test/fbank/raw_fbank_train.4.ark:4574782
mjlg1_sx382 quick_test/fbank/raw_fbank_train.3.ark:3757765
mtml0_si1695 quick_test/fbank/raw_fbank_train.4.ark:8906600
mrdm0_si1595 quick_test/fbank/raw_fbank_train.4.ark:1475650
mtab0_sx42 quick_test/fbank/raw_fbank_train.4.ark:7265652
fjrb0_si1932 quick_test/fbank/raw_fbank_train.1.ark:5467023
mrtj0_sx232 quick_test/fbank/raw_fbank_train.4.ark:4793712
fetb0_sx338 quick_test/fbank/raw_fbank_train.1.ark:4021517
fntb0_sx303 quick_test/fbank/raw_fbank_train.1.ark:9732861
fsjw0_sx253 quick_test/fbank/raw_fbank_train.2.ark:205502
mrvg0_sx330 quick_test/fbank/raw_fbank_train.4.ark:4904090
mpeb0_sx150 quick_test/fbank/raw_fbank_train.3.ark:10849555
fjlr0_si601 quick_test/fbank/raw_fbank_train.1.ark:5376511
fpmy0_si1783 quick_test/fbank/raw_fbank_train.1.ark:10506928
mbsb0_sx3 quick_test/fbank/raw_fbank_train.2.ark:4163884
mdbb1_sx286 quick_test/fbank/raw_fbank_train.2.ark:6262356
fdtd0_sx211 quick_test/fbank/raw_fbank_train.1.ark:3286828
fmkf0_sx186 quick_test/fbank/raw_fbank_train.1.ark:9286380
fjxp0_sx42 quick_test/fbank/raw_fbank_train.1.ark:6165490
mclm0_sx376 quick_test/fbank/raw_fbank_train.2.ark:5411207
msjk0_si966 quick_test/fbank/raw_fbank_train.4.ark:6361251
mmdm0_sx141 quick_test/fbank/raw_fbank_train.3.ark:8841112
mhrm0_si958 quick_test/fbank/raw_fbank_train.3.ark:1396947
fclt0_sx448 quick_test/fbank/raw_fbank_train.1.ark:1975924
fdml0_si1149 quick_test/fbank/raw_fbank_train.1.ark:2900779
mmdb0_sx447 quick_test/fbank/raw_fbank_train.3.ark:8678281
mjai0_si1604 quick_test/fbank/raw_fbank_train.3.ark:1869682
mbth0_sx122 quick_test/fbank/raw_fbank_train.2.ark:4227522
fpmy0_si1153 quick_test/fbank/raw_fbank_train.1.ark:10487974
mkrg0_sx141 quick_test/fbank/raw_fbank_train.3.ark:7092326
mcal0_si1138 quick_test/fbank/raw_fbank_train.2.ark:4523335
fvkb0_sx349 quick_test/fbank/raw_fbank_train.2.ark:1882681
msem1_si1440 quick_test/fbank/raw_fbank_train.4.ark:5882843
mpgr1_sx149 quick_test/fbank/raw_fbank_train.3.ark:11226175
fleh0_sx421 quick_test/fbank/raw_fbank_train.1.ark:7395121
fbmj0_si815 quick_test/fbank/raw_fbank_train.1.ark:1180311
frll0_si805 quick_test/fbank/raw_fbank_train.1.ark:10791283
mbma0_si592 quick_test/fbank/raw_fbank_train.2.ark:3762885
mjkr0_sx211 quick_test/fbank/raw_fbank_train.3.ark:3542776
fdtd0_si1561 quick_test/fbank/raw_fbank_train.1.ark:3235615
mdlr1_sx39 quick_test/fbank/raw_fbank_train.2.ark:8170312
mrjh0_sx79 quick_test/fbank/raw_fbank_train.4.ark:2792386
mdcm0_sx400 quick_test/fbank/raw_fbank_train.2.ark:6580384
mmws1_sx261 quick_test/fbank/raw_fbank_train.3.ark:10399313
fjwb1_sx75 quick_test/fbank/raw_fbank_train.1.ark:5960840
flag0_sx294 quick_test/fbank/raw_fbank_train.1.ark:7294734
mgsh0_sx276 quick_test/fbank/raw_fbank_train.3.ark:662491
mtkp0_si2283 quick_test/fbank/raw_fbank_train.4.ark:8612005
mrml0_si2051 quick_test/fbank/raw_fbank_train.4.ark:4001396
mjmm0_sx355 quick_test/fbank/raw_fbank_train.3.ark:4115841
mtdb0_sx411 quick_test/fbank/raw_fbank_train.4.ark:7838290
mdsj0_si832 quick_test/fbank/raw_fbank_train.2.ark:8922902
mcpm0_sx114 quick_test/fbank/raw_fbank_train.2.ark:5465461
mkam0_sx236 quick_test/fbank/raw_fbank_train.3.ark:6010883
mrkm0_si637 quick_test/fbank/raw_fbank_train.4.ark:3152843
mtju0_sx40 quick_test/fbank/raw_fbank_train.4.ark:8468399
mprd0_sx351 quick_test/fbank/raw_fbank_train.4.ark:239695
mlsh0_sx427 quick_test/fbank/raw_fbank_train.3.ark:7840840
fmah1_si1509 quick_test/fbank/raw_fbank_train.1.ark:8523346
mprb0_si1205 quick_test/fbank/raw_fbank_train.4.ark:49464
mvrw0_si855 quick_test/fbank/raw_fbank_train.4.ark:10421329
mwac0_sx431 quick_test/fbank/raw_fbank_train.4.ark:10574126
mmws1_sx81 quick_test/fbank/raw_fbank_train.3.ark:10436083
mbml0_si1169 quick_test/fbank/raw_fbank_train.2.ark:3937348
marc0_si1188 quick_test/fbank/raw_fbank_train.2.ark:2992418
mkdd0_sx397 quick_test/fbank/raw_fbank_train.3.ark:6241630
mtdp0_sx261 quick_test/fbank/raw_fbank_train.4.ark:7923250
fblv0_si1058 quick_test/fbank/raw_fbank_train.1.ark:941034
mrmh0_sx211 quick_test/fbank/raw_fbank_train.4.ark:3940470
mtcs0_sx442 quick_test/fbank/raw_fbank_train.4.ark:7735945
fbch0_sx146 quick_test/fbank/raw_fbank_train.1.ark:778004
mrjm1_sx398 quick_test/fbank/raw_fbank_train.4.ark:2997477
fsjw0_si1963 quick_test/fbank/raw_fbank_train.2.ark:171363
mrkm0_si1267 quick_test/fbank/raw_fbank_train.4.ark:3113696
mbma1_si2207 quick_test/fbank/raw_fbank_train.2.ark:3831163
falr0_sx155 quick_test/fbank/raw_fbank_train.1.ark:346423
mlns0_sx237 quick_test/fbank/raw_fbank_train.3.ark:7715269
mdss1_si1327 quick_test/fbank/raw_fbank_train.2.ark:9076685
fdaw0_sx236 quick_test/fbank/raw_fbank_train.1.ark:2562410
msat0_sx446 quick_test/fbank/raw_fbank_train.4.ark:5476314
mlns0_sx417 quick_test/fbank/raw_fbank_train.3.ark:7737015
fljd0_si1516 quick_test/fbank/raw_fbank_train.1.ark:7716864
mcae0_sx277 quick_test/fbank/raw_fbank_train.2.ark:4466525
mmvp0_sx294 quick_test/fbank/raw_fbank_train.3.ark:10097863
mges0_si851 quick_test/fbank/raw_fbank_train.3.ark:205091
fklc0_si985 quick_test/fbank/raw_fbank_train.1.ark:6731277
mjac0_sx341 quick_test/fbank/raw_fbank_train.3.ark:1727637
mwsb0_sx186 quick_test/fbank/raw_fbank_train.4.ark:11391616
mbma1_sx54 quick_test/fbank/raw_fbank_train.2.ark:3921754
mges0_sx131 quick_test/fbank/raw_fbank_train.3.ark:219244
fskl0_si1529 quick_test/fbank/raw_fbank_train.2.ark:347179
mrms0_sx120 quick_test/fbank/raw_fbank_train.4.ark:4146568
flkm0_si620 quick_test/fbank/raw_fbank_train.1.ark:7946267
ftmg0_sx272 quick_test/fbank/raw_fbank_train.2.ark:1688637
fpls0_si1590 quick_test/fbank/raw_fbank_train.1.ark:10394991
fleh0_sx331 quick_test/fbank/raw_fbank_train.1.ark:7383368
flja0_sx178 quick_test/fbank/raw_fbank_train.1.ark:7646939
mkrg0_si2121 quick_test/fbank/raw_fbank_train.3.ark:7059900
falk0_si658 quick_test/fbank/raw_fbank_train.1.ark:232687
mljh0_sx334 quick_test/fbank/raw_fbank_train.3.ark:7630597
mjfr0_sx255 quick_test/fbank/raw_fbank_train.3.ark:3015371
mmws1_sx27 quick_test/fbank/raw_fbank_train.3.ark:10407225
msms0_sx353 quick_test/fbank/raw_fbank_train.4.ark:6702744
mzmb0_si1796 quick_test/fbank/raw_fbank_train.4.ark:11574518
mljc0_sx325 quick_test/fbank/raw_fbank_train.3.ark:7507772
mwre0_sx247 quick_test/fbank/raw_fbank_train.4.ark:11201800
fdnc0_si2287 quick_test/fbank/raw_fbank_train.1.ark:3162457
fsjg0_sx400 quick_test/fbank/raw_fbank_train.1.ark:11821666
mgrl0_sx57 quick_test/fbank/raw_fbank_train.3.ark:474546
mdas0_sx276 quick_test/fbank/raw_fbank_train.2.ark:6166740
mbef0_sx201 quick_test/fbank/raw_fbank_train.2.ark:3506116
fskp0_sx378 quick_test/fbank/raw_fbank_train.2.ark:527755
mmjb1_si778 quick_test/fbank/raw_fbank_train.3.ark:9551359
mnet0_sx6 quick_test/fbank/raw_fbank_train.3.ark:10607538
mkes0_sx263 quick_test/fbank/raw_fbank_train.3.ark:6418661
mdcd0_si1415 quick_test/fbank/raw_fbank_train.2.ark:6395768
fmkc0_si1041 quick_test/fbank/raw_fbank_train.1.ark:9139014
msfv0_si632 quick_test/fbank/raw_fbank_train.4.ark:6246746
fsak0_sx220 quick_test/fbank/raw_fbank_train.1.ark:11149057
mjai0_si682 quick_test/fbank/raw_fbank_train.3.ark:1880715
mdlr0_sx153 quick_test/fbank/raw_fbank_train.2.ark:8018749
mrab1_sx38 quick_test/fbank/raw_fbank_train.4.ark:740131
mkam0_sx416 quick_test/fbank/raw_fbank_train.3.ark:6033909
mejl0_sx242 quick_test/fbank/raw_fbank_train.2.ark:9981641
mljc0_sx415 quick_test/fbank/raw_fbank_train.3.ark:7518605
mjrk0_sx160 quick_test/fbank/raw_fbank_train.3.ark:4857776
mbgt0_sx441 quick_test/fbank/raw_fbank_train.2.ark:3623087
mtat1_sx419 quick_test/fbank/raw_fbank_train.4.ark:7540975
mhbs0_sx405 quick_test/fbank/raw_fbank_train.3.ark:986353
mdsj0_sx292 quick_test/fbank/raw_fbank_train.2.ark:8955040
flmc0_sx112 quick_test/fbank/raw_fbank_train.1.ark:8168823
mdjm0_si1455 quick_test/fbank/raw_fbank_train.2.ark:7187408
fmem0_si747 quick_test/fbank/raw_fbank_train.1.ark:8747502
mrai0_sx252 quick_test/fbank/raw_fbank_train.4.ark:822571
fsag0_si1323 quick_test/fbank/raw_fbank_train.1.ark:10878274
mrwa0_si973 quick_test/fbank/raw_fbank_train.4.ark:4965096
mwsb0_si1626 quick_test/fbank/raw_fbank_train.4.ark:11353676
mdhs0_si900 quick_test/fbank/raw_fbank_train.2.ark:7118210
mchl0_si1347 quick_test/fbank/raw_fbank_train.2.ark:5131685
mwem0_si1950 quick_test/fbank/raw_fbank_train.4.ark:10978243
mrjm0_sx148 quick_test/fbank/raw_fbank_train.4.ark:2844121
mtdb0_sx231 quick_test/fbank/raw_fbank_train.4.ark:7819104
mwdk0_sx266 quick_test/fbank/raw_fbank_train.4.ark:10911323
fbch0_sx326 quick_test/fbank/raw_fbank_train.1.ark:800070
mmdg0_sx430 quick_test/fbank/raw_fbank_train.3.ark:8780586
fdxw0_sx251 quick_test/fbank/raw_fbank_train.1.ark:3386774
mrld0_si2224 quick_test/fbank/raw_fbank_train.4.ark:3252633
mtml0_sx435 quick_test/fbank/raw_fbank_train.4.ark:8970806
mdlb0_sx406 quick_test/fbank/raw_fbank_train.2.ark:7474218
fcaj0_si1804 quick_test/fbank/raw_fbank_train.1.ark:1352489
mdlc1_sx265 quick_test/fbank/raw_fbank_train.2.ark:7666283
mbbr0_sx425 quick_test/fbank/raw_fbank_train.2.ark:3349133
mdma0_sx440 quick_test/fbank/raw_fbank_train.2.ark:8282259
mejs0_sx250 quick_test/fbank/raw_fbank_train.2.ark:10083066
fpab1_sx301 quick_test/fbank/raw_fbank_train.1.ark:9843926
fsjk1_si1025 quick_test/fbank/raw_fbank_train.1.ark:11839380
mges0_sx311 quick_test/fbank/raw_fbank_train.3.ark:236510
mtrc0_si1623 quick_test/fbank/raw_fbank_train.4.ark:9725647
mmrp0_sx54 quick_test/fbank/raw_fbank_train.3.ark:9903718
mwsh0_sx76 quick_test/fbank/raw_fbank_train.4.ark:11543770
mpeb0_si1034 quick_test/fbank/raw_fbank_train.3.ark:10819455
fbmh0_sx146 quick_test/fbank/raw_fbank_train.1.ark:1094240
msrg0_sx231 quick_test/fbank/raw_fbank_train.4.ark:6786896
mgsh0_si1806 quick_test/fbank/raw_fbank_train.3.ark:611999
mclk0_si650 quick_test/fbank/raw_fbank_train.2.ark:5255498
mclk0_sx310 quick_test/fbank/raw_fbank_train.2.ark:5303037
mrlj1_sx411 quick_test/fbank/raw_fbank_train.4.ark:3480329
mppc0_si782 quick_test/fbank/raw_fbank_train.3.ark:11481832
mbjv0_sx437 quick_test/fbank/raw_fbank_train.2.ark:3714632
mdbp0_sx168 quick_test/fbank/raw_fbank_train.2.ark:6331883
mmgc0_si1935 quick_test/fbank/raw_fbank_train.3.ark:9275289
mdks0_sx436 quick_test/fbank/raw_fbank_train.2.ark:7359033
fmju0_sx309 quick_test/fbank/raw_fbank_train.1.ark:9102195
mgak0_sx136 quick_test/fbank/raw_fbank_train.2.ark:11183294
mejl0_sx422 quick_test/fbank/raw_fbank_train.2.ark:10004987
mmdm0_sx231 quick_test/fbank/raw_fbank_train.3.ark:8854025
fkkh0_sx30 quick_test/fbank/raw_fbank_train.1.ark:6683510
frjb0_sx77 quick_test/fbank/raw_fbank_train.1.ark:10769256
mcdd0_sx343 quick_test/fbank/raw_fbank_train.2.ark:4765871
mbml0_sx89 quick_test/fbank/raw_fbank_train.2.ark:4016419
fdfb0_si1318 quick_test/fbank/raw_fbank_train.1.ark:2607582
fsrh0_si1931 quick_test/fbank/raw_fbank_train.2.ark:1065389
mafm0_sx39 quick_test/fbank/raw_fbank_train.2.ark:2561849
mgsh0_si1176 quick_test/fbank/raw_fbank_train.3.ark:593125
msvs0_sx218 quick_test/fbank/raw_fbank_train.4.ark:7098849
mdsj0_sx22 quick_test/fbank/raw_fbank_train.2.ark:8945607
mlbc0_si609 quick_test/fbank/raw_fbank_train.3.ark:7258263
mhit0_si2243 quick_test/fbank/raw_fbank_train.3.ark:1018333
fjhk0_sx32 quick_test/fbank/raw_fbank_train.1.ark:5137126
mtkd0_si1187 quick_test/fbank/raw_fbank_train.4.ark:8491346
fgmb0_si1145 quick_test/fbank/raw_fbank_train.1.ark:4384012
mrfl0_sx166 quick_test/fbank/raw_fbank_train.4.ark:2183012
mjwg0_sx175 quick_test/fbank/raw_fbank_train.3.ark:5184850
mdbb1_si1636 quick_test/fbank/raw_fbank_train.2.ark:6213191
mrhl0_si2145 quick_test/fbank/raw_fbank_train.4.ark:2486779
mchl0_si1404 quick_test/fbank/raw_fbank_train.2.ark:5152079
mjrh0_sx315 quick_test/fbank/raw_fbank_train.3.ark:4693472
fsgf0_sx387 quick_test/fbank/raw_fbank_train.1.ark:11692881
fspm0_sx71 quick_test/fbank/raw_fbank_train.2.ark:1049961
ftlg0_sx303 quick_test/fbank/raw_fbank_train.2.ark:1610605
fcdr1_si556 quick_test/fbank/raw_fbank_train.1.ark:1475627
msas0_sx26 quick_test/fbank/raw_fbank_train.4.ark:5384975
mrso0_si2289 quick_test/fbank/raw_fbank_train.4.ark:4432971
fnkl0_si892 quick_test/fbank/raw_fbank_train.1.ark:9592858
mtdp0_sx351 quick_test/fbank/raw_fbank_train.4.ark:7932203
mrmg0_si1080 quick_test/fbank/raw_fbank_train.4.ark:3787790
mrdm0_sx65 quick_test/fbank/raw_fbank_train.4.ark:1547287
fsah0_sx344 quick_test/fbank/raw_fbank_train.1.ark:11072465
mjbg0_sx62 quick_test/fbank/raw_fbank_train.3.ark:2055938
mvrw0_sx45 quick_test/fbank/raw_fbank_train.4.ark:10471173
fsdc0_sx52 quick_test/fbank/raw_fbank_train.1.ark:11507031
mrdm0_si1044 quick_test/fbank/raw_fbank_train.4.ark:1458576
mmxs0_si629 quick_test/fbank/raw_fbank_train.3.ark:10455830
mbcg0_si2217 quick_test/fbank/raw_fbank_train.2.ark:3366039
