fbmj0_sx156 quick_test/data-fmllr-tri3/train/data/feats_fmllr_train.1.ark:4630318
milb0_si903 quick_test/data-fmllr-tri3/train/data/feats_fmllr_train.6.ark:6215855
fsdj0_sx305 quick_test/data-fmllr-tri3/train/data/feats_fmllr_train.3.ark:7800271
mcpm0_sx384 quick_test/data-fmllr-tri3/train/data/feats_fmllr_train.4.ark:12423627
mjlg1_sx22 quick_test/data-fmllr-tri3/train/data/feats_fmllr_train.6.ark:14527213
mctm0_sx270 quick_test/data-fmllr-tri3/train/data/feats_fmllr_train.4.ark:13821854
mtas0_sx125 quick_test/data-fmllr-tri3/train/data/feats_fmllr_train.10.ark:1057809
flac0_si1339 quick_test/data-fmllr-tri3/train/data/feats_fmllr_train.2.ark:8862233
mbjv0_si617 quick_test/data-fmllr-tri3/train/data/feats_fmllr_train.4.ark:5279749
fkde0_si2221 quick_test/data-fmllr-tri3/train/data/feats_fmllr_train.2.ark:5768711
mrxb0_sx145 quick_test/data-fmllr-tri3/train/data/feats_fmllr_train.9.ark:10882436
fsbk0_sx169 quick_test/data-fmllr-tri3/train/data/feats_fmllr_train.3.ark:6455886
mcew0_sx182 quick_test/data-fmllr-tri3/train/data/feats_fmllr_train.4.ark:10688731
flet0_sx147 quick_test/data-fmllr-tri3/train/data/feats_fmllr_train.2.ark:10228407
mdlc2_sx84 quick_test/data-fmllr-tri3/train/data/feats_fmllr_train.5.ark:3858797
fjlg0_sx449 quick_test/data-fmllr-tri3/train/data/feats_fmllr_train.2.ark:1890008
mrew1_si1500 quick_test/data-fmllr-tri3/train/data/feats_fmllr_train.8.ark:16352169
flag0_sx204 quick_test/data-fmllr-tri3/train/data/feats_fmllr_train.2.ark:9459359
msfh0_sx406 quick_test/data-fmllr-tri3/train/data/feats_fmllr_train.9.ark:14863412
mjfr0_si2235 quick_test/data-fmllr-tri3/train/data/feats_fmllr_train.6.ark:11575986
fscn0_si626 quick_test/data-fmllr-tri3/train/data/feats_fmllr_train.3.ark:6805968
mkdt0_sx173 quick_test/data-fmllr-tri3/train/data/feats_fmllr_train.7.ark:6480045
mzmb0_si1796 quick_test/data-fmllr-tri3/train/data/feats_fmllr_train.10.ark:17657489
fsrh0_si671 quick_test/data-fmllr-tri3/train/data/feats_fmllr_train.3.ark:13183549
mfrm0_sx345 quick_test/data-fmllr-tri3/train/data/feats_fmllr_train.5.ark:14988611
mnet0_sx366 quick_test/data-fmllr-tri3/train/data/feats_fmllr_train.8.ark:5191131
medr0_sx294 quick_test/data-fmllr-tri3/train/data/feats_fmllr_train.5.ark:11355112
mhrm0_sx148 quick_test/data-fmllr-tri3/train/data/feats_fmllr_train.6.ark:5479290
mpgh0_sx384 quick_test/data-fmllr-tri3/train/data/feats_fmllr_train.8.ark:7118987
fdxw0_si881 quick_test/data-fmllr-tri3/train/data/feats_fmllr_train.1.ark:13063392
flja0_sx88 quick_test/data-fmllr-tri3/train/data/feats_fmllr_train.2.ark:11143990
fljd0_si2146 quick_test/data-fmllr-tri3/train/data/feats_fmllr_train.2.ark:11279726
msas0_si2006 quick_test/data-fmllr-tri3/train/data/feats_fmllr_train.9.ark:11499457
mbml0_sx269 quick_test/data-fmllr-tri3/train/data/feats_fmllr_train.4.ark:6495494
mjrg0_sx106 quick_test/data-fmllr-tri3/train/data/feats_fmllr_train.6.ark:17754074
fdfb0_sx238 quick_test/data-fmllr-tri3/train/data/feats_fmllr_train.1.ark:10298724
ftbr0_sx381 quick_test/data-fmllr-tri3/train/data/feats_fmllr_train.3.ark:14551054
mtrc0_sx183 quick_test/data-fmllr-tri3/train/data/feats_fmllr_train.10.ark:10667364
fklh0_sx177 quick_test/data-fmllr-tri3/train/data/feats_fmllr_train.2.ark:8249561
mdjm0_sx285 quick_test/data-fmllr-tri3/train/data/feats_fmllr_train.5.ark:1840083
mrfl0_sx436 quick_test/data-fmllr-tri3/train/data/feats_fmllr_train.8.ark:17399327
mmdm1_sx243 quick_test/data-fmllr-tri3/train/data/feats_fmllr_train.7.ark:16800758
fpab1_sx121 quick_test/data-fmllr-tri3/train/data/feats_fmllr_train.3.ark:950288
mmbs0_sx71 quick_test/data-fmllr-tri3/train/data/feats_fmllr_train.7.ark:15052233
mjeb1_si1467 quick_test/data-fmllr-tri3/train/data/feats_fmllr_train.6.ark:10416267
mrjh0_sx79 quick_test/data-fmllr-tri3/train/data/feats_fmllr_train.9.ark:1642131
mdac0_sx451 quick_test/data-fmllr-tri3/train/data/feats_fmllr_train.4.ark:14668902
mcal0_sx418 quick_test/data-fmllr-tri3/train/data/feats_fmllr_train.4.ark:8864367
feeh0_si1112 quick_test/data-fmllr-tri3/train/data/feats_fmllr_train.1.ark:14596205
mwdk0_sx446 quick_test/data-fmllr-tri3/train/data/feats_fmllr_train.10.ark:15165386
mdlr0_si1863 quick_test/data-fmllr-tri3/train/data/feats_fmllr_train.5.ark:4713526
mljh0_si1324 quick_test/data-fmllr-tri3/train/data/feats_fmllr_train.7.ark:11325187
maeb0_sx360 quick_test/data-fmllr-tri3/train/data/feats_fmllr_train.4.ark:242549
mljh0_sx334 quick_test/data-fmllr-tri3/train/data/feats_fmllr_train.7.ark:11677003
mjfr0_sx255 quick_test/data-fmllr-tri3/train/data/feats_fmllr_train.6.ark:11723427
mtat1_si779 quick_test/data-fmllr-tri3/train/data/feats_fmllr_train.10.ark:1701256
mrgm0_si1792 quick_test/data-fmllr-tri3/train/data/feats_fmllr_train.8.ark:17538129
mkxl0_sx15 quick_test/data-fmllr-tri3/train/data/feats_fmllr_train.7.ark:9968427
fgcs0_sx226 quick_test/data-fmllr-tri3/train/data/feats_fmllr_train.1.ark:16438303
mjeb1_sx117 quick_test/data-fmllr-tri3/train/data/feats_fmllr_train.6.ark:10627549
mhxl0_sx332 quick_test/data-fmllr-tri3/train/data/feats_fmllr_train.6.ark:5956360
mgsl0_sx444 quick_test/data-fmllr-tri3/train/data/feats_fmllr_train.6.ark:3032734
ftlg0_sx303 quick_test/data-fmllr-tri3/train/data/feats_fmllr_train.3.ark:15263434
msfh0_sx226 quick_test/data-fmllr-tri3/train/data/feats_fmllr_train.9.ark:14763358
mbbr0_si2315 quick_test/data-fmllr-tri3/train/data/feats_fmllr_train.4.ark:3863842
fjsp0_sx264 quick_test/data-fmllr-tri3/train/data/feats_fmllr_train.2.ark:3848800
fajw0_sx93 quick_test/data-fmllr-tri3/train/data/feats_fmllr_train.1.ark:764097
fsak0_si670 quick_test/data-fmllr-tri3/train/data/feats_fmllr_train.3.ark:6057721
mesg0_sx72 quick_test/data-fmllr-tri3/train/data/feats_fmllr_train.5.ark:13330620
mkls0_si2067 quick_test/data-fmllr-tri3/train/data/feats_fmllr_train.7.ark:8317585
mpfu0_sx268 quick_test/data-fmllr-tri3/train/data/feats_fmllr_train.8.ark:6613731
fleh0_sx421 quick_test/data-fmllr-tri3/train/data/feats_fmllr_train.2.ark:9949231
mhbs0_sx45 quick_test/data-fmllr-tri3/train/data/feats_fmllr_train.6.ark:3876071
mrmb0_sx321 quick_test/data-fmllr-tri3/train/data/feats_fmllr_train.9.ark:5369528
fjlg0_si2306 quick_test/data-fmllr-tri3/train/data/feats_fmllr_train.2.ark:1714060
mmdg0_sx70 quick_test/data-fmllr-tri3/train/data/feats_fmllr_train.7.ark:16216884
mcxm0_sx361 quick_test/data-fmllr-tri3/train/data/feats_fmllr_train.4.ark:14229618
mclm0_si826 quick_test/data-fmllr-tri3/train/data/feats_fmllr_train.4.ark:11860076
fssb0_sx272 quick_test/data-fmllr-tri3/train/data/feats_fmllr_train.3.ark:13688301
mjdg0_sx232 quick_test/data-fmllr-tri3/train/data/feats_fmllr_train.6.ark:9438285
mdns0_sx381 quick_test/data-fmllr-tri3/train/data/feats_fmllr_train.5.ark:6625916
fpac0_si2011 quick_test/data-fmllr-tri3/train/data/feats_fmllr_train.3.ark:1269171
msds0_sx87 quick_test/data-fmllr-tri3/train/data/feats_fmllr_train.9.ark:13612226
mdhs0_sx270 quick_test/data-fmllr-tri3/train/data/feats_fmllr_train.5.ark:1398373
fcyl0_sx217 quick_test/data-fmllr-tri3/train/data/feats_fmllr_train.1.ark:9135511
mrjb1_sx30 quick_test/data-fmllr-tri3/train/data/feats_fmllr_train.9.ark:1105701
fsjw0_sx343 quick_test/data-fmllr-tri3/train/data/feats_fmllr_train.3.ark:9834796
msdh0_sx170 quick_test/data-fmllr-tri3/train/data/feats_fmllr_train.9.ark:12916221
mdef0_si1123 quick_test/data-fmllr-tri3/train/data/feats_fmllr_train.5.ark:13
mbgt0_sx261 quick_test/data-fmllr-tri3/train/data/feats_fmllr_train.4.ark:5009986
fvkb0_sx439 quick_test/data-fmllr-tri3/train/data/feats_fmllr_train.3.ark:16395953
fdaw0_si2036 quick_test/data-fmllr-tri3/train/data/feats_fmllr_train.1.ark:9848852
mpfu0_si1888 quick_test/data-fmllr-tri3/train/data/feats_fmllr_train.8.ark:6495090
fdnc0_si1908 quick_test/data-fmllr-tri3/train/data/feats_fmllr_train.1.ark:12230129
mjdg0_si1705 quick_test/data-fmllr-tri3/train/data/feats_fmllr_train.6.ark:9352791
mdhl0_sx449 quick_test/data-fmllr-tri3/train/data/feats_fmllr_train.5.ark:1108290
meal0_sx347 quick_test/data-fmllr-tri3/train/data/feats_fmllr_train.5.ark:10988335
mkes0_sx443 quick_test/data-fmllr-tri3/train/data/feats_fmllr_train.7.ark:7061143
mhjb0_sx387 quick_test/data-fmllr-tri3/train/data/feats_fmllr_train.6.ark:4566106
mgxp0_sx367 quick_test/data-fmllr-tri3/train/data/feats_fmllr_train.6.ark:3421083
mjpm1_sx41 quick_test/data-fmllr-tri3/train/data/feats_fmllr_train.6.ark:17164307
fmkc0_si1041 quick_test/data-fmllr-tri3/train/data/feats_fmllr_train.2.ark:16733616
mdbb1_sx106 quick_test/data-fmllr-tri3/train/data/feats_fmllr_train.4.ark:15269413
mpgh0_si675 quick_test/data-fmllr-tri3/train/data/feats_fmllr_train.8.ark:6881706
makr0_sx92 quick_test/data-fmllr-tri3/train/data/feats_fmllr_train.4.ark:2209770
mmea0_sx128 quick_test/data-fmllr-tri3/train/data/feats_fmllr_train.7.ark:17457805
fkde0_sx151 quick_test/data-fmllr-tri3/train/data/feats_fmllr_train.2.ark:5801858
mgak0_sx226 quick_test/data-fmllr-tri3/train/data/feats_fmllr_train.5.ark:17155808
mrab1_sx128 quick_test/data-fmllr-tri3/train/data/feats_fmllr_train.8.ark:11477267
mrtj0_si2032 quick_test/data-fmllr-tri3/train/data/feats_fmllr_train.9.ark:9231754
mgak0_sx316 quick_test/data-fmllr-tri3/train/data/feats_fmllr_train.5.ark:17209115
mjdg0_si1042 quick_test/data-fmllr-tri3/train/data/feats_fmllr_train.6.ark:9246815
mrmb0_sx231 quick_test/data-fmllr-tri3/train/data/feats_fmllr_train.9.ark:5342941
mgrp0_si1317 quick_test/data-fmllr-tri3/train/data/feats_fmllr_train.6.ark:1876140
mtmt0_sx398 quick_test/data-fmllr-tri3/train/data/feats_fmllr_train.10.ark:8399103
fcmm0_si1957 quick_test/data-fmllr-tri3/train/data/feats_fmllr_train.1.ark:8235956
mwrp0_sx273 quick_test/data-fmllr-tri3/train/data/feats_fmllr_train.10.ark:16633883
mesj0_si2257 quick_test/data-fmllr-tri3/train/data/feats_fmllr_train.5.ark:13431316
mrdd0_si1680 quick_test/data-fmllr-tri3/train/data/feats_fmllr_train.8.ark:14108974
mmvp0_sx114 quick_test/data-fmllr-tri3/train/data/feats_fmllr_train.8.ark:3167753
mtbc0_si1803 quick_test/data-fmllr-tri3/train/data/feats_fmllr_train.10.ark:2089446
mjai0_si1604 quick_test/data-fmllr-tri3/train/data/feats_fmllr_train.6.ark:7268130
fmah1_sx159 quick_test/data-fmllr-tri3/train/data/feats_fmllr_train.2.ark:14486638
fjsp0_sx174 quick_test/data-fmllr-tri3/train/data/feats_fmllr_train.2.ark:3787973
mjmm0_sx85 quick_test/data-fmllr-tri3/train/data/feats_fmllr_train.6.ark:16072776
mtkp0_si1023 quick_test/data-fmllr-tri3/train/data/feats_fmllr_train.10.ark:6092548
fsak0_sx310 quick_test/data-fmllr-tri3/train/data/feats_fmllr_train.3.ark:6192042
fjrp1_sx82 quick_test/data-fmllr-tri3/train/data/feats_fmllr_train.2.ark:3207805
mlbc0_sx339 quick_test/data-fmllr-tri3/train/data/feats_fmllr_train.7.ark:10368992
mgaf0_sx22 quick_test/data-fmllr-tri3/train/data/feats_fmllr_train.5.ark:16453320
mwre0_sx337 quick_test/data-fmllr-tri3/train/data/feats_fmllr_train.10.ark:16264092
feac0_sx255 quick_test/data-fmllr-tri3/train/data/feats_fmllr_train.1.ark:13557743
msas0_si1376 quick_test/data-fmllr-tri3/train/data/feats_fmllr_train.9.ark:11413989
mclm0_sx376 quick_test/data-fmllr-tri3/train/data/feats_fmllr_train.4.ark:12062770
mtjm0_sx236 quick_test/data-fmllr-tri3/train/data/feats_fmllr_train.10.ark:4685549
ftlg0_si1743 quick_test/data-fmllr-tri3/train/data/feats_fmllr_train.3.ark:14971459
mjrh1_sx334 quick_test/data-fmllr-tri3/train/data/feats_fmllr_train.7.ark:646287
fmju0_si2019 quick_test/data-fmllr-tri3/train/data/feats_fmllr_train.2.ark:16407667
mjrk0_sx70 quick_test/data-fmllr-tri3/train/data/feats_fmllr_train.7.ark:1102717
mrjb1_si2021 quick_test/data-fmllr-tri3/train/data/feats_fmllr_train.9.ark:923541
msmr0_si775 quick_test/data-fmllr-tri3/train/data/feats_fmllr_train.9.ark:16346251
mlsh0_si2047 quick_test/data-fmllr-tri3/train/data/feats_fmllr_train.7.ark:12248849
mhjb0_si2277 quick_test/data-fmllr-tri3/train/data/feats_fmllr_train.6.ark:4382932
msfh0_sx46 quick_test/data-fmllr-tri3/train/data/feats_fmllr_train.9.ark:14934158
mcth0_sx309 quick_test/data-fmllr-tri3/train/data/feats_fmllr_train.4.ark:13472704
makb0_sx296 quick_test/data-fmllr-tri3/train/data/feats_fmllr_train.4.ark:1875446
fdkn0_si1081 quick_test/data-fmllr-tri3/train/data/feats_fmllr_train.1.ark:10838089
msms0_sx173 quick_test/data-fmllr-tri3/train/data/feats_fmllr_train.9.ark:16761855
mbth0_sx212 quick_test/data-fmllr-tri3/train/data/feats_fmllr_train.4.ark:7512944
makb0_sx386 quick_test/data-fmllr-tri3/train/data/feats_fmllr_train.4.ark:1917073
mkaj0_sx64 quick_test/data-fmllr-tri3/train/data/feats_fmllr_train.7.ark:5106485
mmar0_si706 quick_test/data-fmllr-tri3/train/data/feats_fmllr_train.7.ark:14318122
fljg0_sx441 quick_test/data-fmllr-tri3/train/data/feats_fmllr_train.2.ark:11942638
mbcg0_si2217 quick_test/data-fmllr-tri3/train/data/feats_fmllr_train.4.ark:4113444
meal0_sx197 quick_test/data-fmllr-tri3/train/data/feats_fmllr_train.5.ark:10917401
mdwh0_sx125 quick_test/data-fmllr-tri3/train/data/feats_fmllr_train.5.ark:10126060
mdbp0_sx168 quick_test/data-fmllr-tri3/train/data/feats_fmllr_train.4.ark:15640190
fsak0_sx40 quick_test/data-fmllr-tri3/train/data/feats_fmllr_train.3.ark:6244388
mpsw0_sx437 quick_test/data-fmllr-tri3/train/data/feats_fmllr_train.8.ark:10846514
mrms0_sx120 quick_test/data-fmllr-tri3/train/data/feats_fmllr_train.9.ark:6909225
mdef0_si2193 quick_test/data-fmllr-tri3/train/data/feats_fmllr_train.5.ark:122149
mkrg0_sx411 quick_test/data-fmllr-tri3/train/data/feats_fmllr_train.7.ark:9677704
mrgm0_sx262 quick_test/data-fmllr-tri3/train/data/feats_fmllr_train.8.ark:17738690
fkde0_sx61 quick_test/data-fmllr-tri3/train/data/feats_fmllr_train.2.ark:5995565
mfmc0_sx142 quick_test/data-fmllr-tri3/train/data/feats_fmllr_train.5.ark:14498099
mmeb0_sx97 quick_test/data-fmllr-tri3/train/data/feats_fmllr_train.7.ark:17961967
fpjf0_sx326 quick_test/data-fmllr-tri3/train/data/feats_fmllr_train.3.ark:3058948
mmgk0_si1952 quick_test/data-fmllr-tri3/train/data/feats_fmllr_train.8.ark:793277
mreh1_sx339 quick_test/data-fmllr-tri3/train/data/feats_fmllr_train.8.ark:15812512
fgcs0_sx406 quick_test/data-fmllr-tri3/train/data/feats_fmllr_train.1.ark:16522197
mbgt0_sx171 quick_test/data-fmllr-tri3/train/data/feats_fmllr_train.4.ark:4937479
mbma1_si2207 quick_test/data-fmllr-tri3/train/data/feats_fmllr_train.4.ark:5918528
mrfk0_sx446 quick_test/data-fmllr-tri3/train/data/feats_fmllr_train.8.ark:16976550
mhit0_si1613 quick_test/data-fmllr-tri3/train/data/feats_fmllr_train.6.ark:3914659
mrdm0_sx65 quick_test/data-fmllr-tri3/train/data/feats_fmllr_train.8.ark:14755273
mcss0_sx390 quick_test/data-fmllr-tri3/train/data/feats_fmllr_train.4.ark:13186140
mprk0_sx377 quick_test/data-fmllr-tri3/train/data/feats_fmllr_train.8.ark:10230107
fmkc0_sx82 quick_test/data-fmllr-tri3/train/data/feats_fmllr_train.2.ark:17085166
mrfl0_sx166 quick_test/data-fmllr-tri3/train/data/feats_fmllr_train.8.ark:17226126
mlbc0_si1869 quick_test/data-fmllr-tri3/train/data/feats_fmllr_train.7.ark:10191764
fgcs0_si2116 quick_test/data-fmllr-tri3/train/data/feats_fmllr_train.1.ark:16290542
fpjf0_sx236 quick_test/data-fmllr-tri3/train/data/feats_fmllr_train.3.ark:3020201
mrbc0_si1665 quick_test/data-fmllr-tri3/train/data/feats_fmllr_train.8.ark:12855815
fvfb0_sx42 quick_test/data-fmllr-tri3/train/data/feats_fmllr_train.3.ark:16067762
mjai0_sx434 quick_test/data-fmllr-tri3/train/data/feats_fmllr_train.6.ark:7573412
fhlm0_si1560 quick_test/data-fmllr-tri3/train/data/feats_fmllr_train.1.ark:17959863
mmam0_si2227 quick_test/data-fmllr-tri3/train/data/feats_fmllr_train.7.ark:13944465
mkdb0_sx242 quick_test/data-fmllr-tri3/train/data/feats_fmllr_train.7.ark:5735319
fjen0_si1677 quick_test/data-fmllr-tri3/train/data/feats_fmllr_train.2.ark:463299
fmju0_sx129 quick_test/data-fmllr-tri3/train/data/feats_fmllr_train.2.ark:16491241
mmgc0_sx135 quick_test/data-fmllr-tri3/train/data/feats_fmllr_train.8.ark:150016
fklc0_sx265 quick_test/data-fmllr-tri3/train/data/feats_fmllr_train.2.ark:7527073
mjfr0_sx435 quick_test/data-fmllr-tri3/train/data/feats_fmllr_train.6.ark:11831961
mnet0_si1446 quick_test/data-fmllr-tri3/train/data/feats_fmllr_train.8.ark:4986355
mjbg0_sx62 quick_test/data-fmllr-tri3/train/data/feats_fmllr_train.6.ark:7992376
mgaf0_sx112 quick_test/data-fmllr-tri3/train/data/feats_fmllr_train.5.ark:16393107
fjlr0_si601 quick_test/data-fmllr-tri3/train/data/feats_fmllr_train.2.ark:2090917
mree0_sx114 quick_test/data-fmllr-tri3/train/data/feats_fmllr_train.8.ark:15321681
mjws0_sx63 quick_test/data-fmllr-tri3/train/data/feats_fmllr_train.7.ark:2774944
mmlm0_sx267 quick_test/data-fmllr-tri3/train/data/feats_fmllr_train.8.ark:1594432
ftbw0_sx175 quick_test/data-fmllr-tri3/train/data/feats_fmllr_train.3.ark:14741564
mreh1_si1599 quick_test/data-fmllr-tri3/train/data/feats_fmllr_train.8.ark:15518456
flac0_si2161 quick_test/data-fmllr-tri3/train/data/feats_fmllr_train.2.ark:8942421
mdbb1_si1636 quick_test/data-fmllr-tri3/train/data/feats_fmllr_train.4.ark:15179278
mmar0_sx346 quick_test/data-fmllr-tri3/train/data/feats_fmllr_train.7.ark:14495963
mkjo0_sx424 quick_test/data-fmllr-tri3/train/data/feats_fmllr_train.7.ark:7349653
flma0_si613 quick_test/data-fmllr-tri3/train/data/feats_fmllr_train.2.ark:12567283
mjeb0_sx170 quick_test/data-fmllr-tri3/train/data/feats_fmllr_train.6.ark:10177892
mjrg0_si1996 quick_test/data-fmllr-tri3/train/data/feats_fmllr_train.6.ark:17658340
mrwa0_sx343 quick_test/data-fmllr-tri3/train/data/feats_fmllr_train.9.ark:10219656
fssb0_si1082 quick_test/data-fmllr-tri3/train/data/feats_fmllr_train.3.ark:13492191
msfv0_si1262 quick_test/data-fmllr-tri3/train/data/feats_fmllr_train.9.ark:14979466
fspm0_sx251 quick_test/data-fmllr-tri3/train/data/feats_fmllr_train.3.ark:12919386
fntb0_sx123 quick_test/data-fmllr-tri3/train/data/feats_fmllr_train.3.ark:538071
mdmt0_sx122 quick_test/data-fmllr-tri3/train/data/feats_fmllr_train.5.ark:6036312
mclm0_si2086 quick_test/data-fmllr-tri3/train/data/feats_fmllr_train.4.ark:11816369
fjsp0_sx84 quick_test/data-fmllr-tri3/train/data/feats_fmllr_train.2.ark:3984240
mrds0_si1797 quick_test/data-fmllr-tri3/train/data/feats_fmllr_train.8.ark:14817409
mrfl0_si526 quick_test/data-fmllr-tri3/train/data/feats_fmllr_train.8.ark:17160499
msfh0_si1738 quick_test/data-fmllr-tri3/train/data/feats_fmllr_train.9.ark:14556237
mpfu0_sx88 quick_test/data-fmllr-tri3/train/data/feats_fmllr_train.8.ark:6765171
mwem0_sx240 quick_test/data-fmllr-tri3/train/data/feats_fmllr_train.10.ark:15416750
fmem0_sx297 quick_test/data-fmllr-tri3/train/data/feats_fmllr_train.2.ark:15341525
mtjg0_sx260 quick_test/data-fmllr-tri3/train/data/feats_fmllr_train.10.ark:4270132
mmdb0_sx177 quick_test/data-fmllr-tri3/train/data/feats_fmllr_train.7.ark:15631440
fpmy0_sx196 quick_test/data-fmllr-tri3/train/data/feats_fmllr_train.3.ark:3824633
mvjh0_sx26 quick_test/data-fmllr-tri3/train/data/feats_fmllr_train.10.ark:12595356
fkaa0_si578 quick_test/data-fmllr-tri3/train/data/feats_fmllr_train.2.ark:5292493
fmju0_sx309 quick_test/data-fmllr-tri3/train/data/feats_fmllr_train.2.ark:16590495
mmag0_sx406 quick_test/data-fmllr-tri3/train/data/feats_fmllr_train.7.ark:13748035
fspm0_sx161 quick_test/data-fmllr-tri3/train/data/feats_fmllr_train.3.ark:12860799
mrjm1_sx128 quick_test/data-fmllr-tri3/train/data/feats_fmllr_train.9.ark:2254299
mdps0_sx449 quick_test/data-fmllr-tri3/train/data/feats_fmllr_train.5.ark:7675181
mwac0_si1601 quick_test/data-fmllr-tri3/train/data/feats_fmllr_train.10.ark:13405472
frll0_sx74 quick_test/data-fmllr-tri3/train/data/feats_fmllr_train.3.ark:5040084
mrew1_si2130 quick_test/data-fmllr-tri3/train/data/feats_fmllr_train.8.ark:16392517
mapv0_sx123 quick_test/data-fmllr-tri3/train/data/feats_fmllr_train.4.ark:2436600
mbcg0_sx327 quick_test/data-fmllr-tri3/train/data/feats_fmllr_train.4.ark:4319179
mwad0_si2322 quick_test/data-fmllr-tri3/train/data/feats_fmllr_train.10.ark:13948305
fksr0_si1747 quick_test/data-fmllr-tri3/train/data/feats_fmllr_train.2.ark:8525724
mtpf0_si1235 quick_test/data-fmllr-tri3/train/data/feats_fmllr_train.10.ark:8452411
mjkr0_si1201 quick_test/data-fmllr-tri3/train/data/feats_fmllr_train.6.ark:13552563
mrlj0_sx70 quick_test/data-fmllr-tri3/train/data/feats_fmllr_train.9.ark:4044712
fmkc0_sx352 quick_test/data-fmllr-tri3/train/data/feats_fmllr_train.2.ark:16972153
mljh0_si1422 quick_test/data-fmllr-tri3/train/data/feats_fmllr_train.7.ark:11379455
fcmm0_sx420 quick_test/data-fmllr-tri3/train/data/feats_fmllr_train.1.ark:8462811
mjkr0_sx121 quick_test/data-fmllr-tri3/train/data/feats_fmllr_train.6.ark:13724645
mdlr1_sx39 quick_test/data-fmllr-tri3/train/data/feats_fmllr_train.5.ark:5378997
feme0_si2135 quick_test/data-fmllr-tri3/train/data/feats_fmllr_train.1.ark:15042850
mbsb0_sx3 quick_test/data-fmllr-tri3/train/data/feats_fmllr_train.4.ark:7209235
mfxv0_sx15 quick_test/data-fmllr-tri3/train/data/feats_fmllr_train.5.ark:16070836
mjmm0_sx355 quick_test/data-fmllr-tri3/train/data/feats_fmllr_train.6.ark:16002003
freh0_sx415 quick_test/data-fmllr-tri3/train/data/feats_fmllr_train.3.ark:4274664
mejl0_si1654 quick_test/data-fmllr-tri3/train/data/feats_fmllr_train.5.ark:12299625
mrfk0_sx86 quick_test/data-fmllr-tri3/train/data/feats_fmllr_train.8.ark:17016736
mreh1_si2229 quick_test/data-fmllr-tri3/train/data/feats_fmllr_train.8.ark:15599284
msat1_sx353 quick_test/data-fmllr-tri3/train/data/feats_fmllr_train.9.ark:12392160
mdlh0_sx160 quick_test/data-fmllr-tri3/train/data/feats_fmllr_train.5.ark:4055866
mdcd0_si2045 quick_test/data-fmllr-tri3/train/data/feats_fmllr_train.4.ark:15932673
mtat1_sx329 quick_test/data-fmllr-tri3/train/data/feats_fmllr_train.10.ark:1900377
fjxm0_si1971 quick_test/data-fmllr-tri3/train/data/feats_fmllr_train.2.ark:4451712
mpfu0_sx358 quick_test/data-fmllr-tri3/train/data/feats_fmllr_train.8.ark:6665598
mdem0_si1868 quick_test/data-fmllr-tri3/train/data/feats_fmllr_train.5.ark:352071
fhlm0_sx390 quick_test/data-fmllr-tri3/train/data/feats_fmllr_train.1.ark:18308053
mdem0_sx68 quick_test/data-fmllr-tri3/train/data/feats_fmllr_train.5.ark:774819
fskc0_sx426 quick_test/data-fmllr-tri3/train/data/feats_fmllr_train.3.ark:10260800
mwar0_sx145 quick_test/data-fmllr-tri3/train/data/feats_fmllr_train.10.ark:14327110
mdwd0_sx360 quick_test/data-fmllr-tri3/train/data/feats_fmllr_train.5.ark:9805737
fjkl0_sx302 quick_test/data-fmllr-tri3/train/data/feats_fmllr_train.2.ark:1483203
fmpg0_sx252 quick_test/data-fmllr-tri3/train/data/feats_fmllr_train.2.ark:18185413
mrjb1_sx300 quick_test/data-fmllr-tri3/train/data/feats_fmllr_train.9.ark:1138848
fvkb0_si1789 quick_test/data-fmllr-tri3/train/data/feats_fmllr_train.3.ark:16135178
msjk0_sx66 quick_test/data-fmllr-tri3/train/data/feats_fmllr_train.9.ark:15787072
mjmd0_si1028 quick_test/data-fmllr-tri3/train/data/feats_fmllr_train.6.ark:15419409
fnkl0_si1522 quick_test/data-fmllr-tri3/train/data/feats_fmllr_train.3.ark:13
msmc0_sx17 quick_test/data-fmllr-tri3/train/data/feats_fmllr_train.9.ark:16045127
mwad0_sx342 quick_test/data-fmllr-tri3/train/data/feats_fmllr_train.10.ark:14055906
fcaj0_sx129 quick_test/data-fmllr-tri3/train/data/feats_fmllr_train.1.ark:5348513
mkdd0_sx37 quick_test/data-fmllr-tri3/train/data/feats_fmllr_train.7.ark:6230309
medr0_si744 quick_test/data-fmllr-tri3/train/data/feats_fmllr_train.5.ark:11182685
mjdm0_si1340 quick_test/data-fmllr-tri3/train/data/feats_fmllr_train.6.ark:9616153
mded0_sx90 quick_test/data-fmllr-tri3/train/data/feats_fmllr_train.4.ark:17369325
flkm0_sx440 quick_test/data-fmllr-tri3/train/data/feats_fmllr_train.2.ark:12375654
mkah0_sx448 quick_test/data-fmllr-tri3/train/data/feats_fmllr_train.7.ark:4713762
mbma1_si954 quick_test/data-fmllr-tri3/train/data/feats_fmllr_train.4.ark:5996823
mzmb0_sx356 quick_test/data-fmllr-tri3/train/data/feats_fmllr_train.10.ark:17845437
fbcg1_sx262 quick_test/data-fmllr-tri3/train/data/feats_fmllr_train.1.ark:2640621
mwre0_sx157 quick_test/data-fmllr-tri3/train/data/feats_fmllr_train.10.ark:16165478
mdlb0_sx406 quick_test/data-fmllr-tri3/train/data/feats_fmllr_train.5.ark:2672199
mtjg0_si1520 quick_test/data-fmllr-tri3/train/data/feats_fmllr_train.10.ark:4089063
mrlr0_sx26 quick_test/data-fmllr-tri3/train/data/feats_fmllr_train.9.ark:5034270
marw0_si1906 quick_test/data-fmllr-tri3/train/data/feats_fmllr_train.4.ark:3016820
mlel0_sx76 quick_test/data-fmllr-tri3/train/data/feats_fmllr_train.7.ark:10886382
mcss0_sx120 quick_test/data-fmllr-tri3/train/data/feats_fmllr_train.4.ark:13021393
mmvp0_sx384 quick_test/data-fmllr-tri3/train/data/feats_fmllr_train.8.ark:3385941
mrlr0_si1826 quick_test/data-fmllr-tri3/train/data/feats_fmllr_train.9.ark:4853363
mtpp0_sx338 quick_test/data-fmllr-tri3/train/data/feats_fmllr_train.10.ark:9379701
fjhk0_si1022 quick_test/data-fmllr-tri3/train/data/feats_fmllr_train.2.ark:864449
mclm0_sx196 quick_test/data-fmllr-tri3/train/data/feats_fmllr_train.4.ark:11983036
fgrw0_sx162 quick_test/data-fmllr-tri3/train/data/feats_fmllr_train.1.ark:17686288
mbbr0_sx155 quick_test/data-fmllr-tri3/train/data/feats_fmllr_train.4.ark:3894429
mrmb0_si951 quick_test/data-fmllr-tri3/train/data/feats_fmllr_train.9.ark:5232647
mjrk0_sx340 quick_test/data-fmllr-tri3/train/data/feats_fmllr_train.7.ark:996424
mded0_si1170 quick_test/data-fmllr-tri3/train/data/feats_fmllr_train.4.ark:16997136
mdks0_sx256 quick_test/data-fmllr-tri3/train/data/feats_fmllr_train.5.ark:2110648
mjma0_sx55 quick_test/data-fmllr-tri3/train/data/feats_fmllr_train.6.ark:15374101
fsdc0_si1942 quick_test/data-fmllr-tri3/train/data/feats_fmllr_train.3.ark:7291145
mprb0_sx125 quick_test/data-fmllr-tri3/train/data/feats_fmllr_train.8.ark:9127006
mljc0_si1855 quick_test/data-fmllr-tri3/train/data/feats_fmllr_train.7.ark:11026438
fsms1_sx64 quick_test/data-fmllr-tri3/train/data/feats_fmllr_train.3.ark:12653009
ftmg0_sx452 quick_test/data-fmllr-tri3/train/data/feats_fmllr_train.3.ark:15658718
fscn0_sx176 quick_test/data-fmllr-tri3/train/data/feats_fmllr_train.3.ark:6940742
fljg0_sx351 quick_test/data-fmllr-tri3/train/data/feats_fmllr_train.2.ark:11866291
mmar0_sx256 quick_test/data-fmllr-tri3/train/data/feats_fmllr_train.7.ark:14439936
fjrp1_sx352 quick_test/data-fmllr-tri3/train/data/feats_fmllr_train.2.ark:3065192
fcyl0_si1297 quick_test/data-fmllr-tri3/train/data/feats_fmllr_train.1.ark:8926122
mpgr1_si2129 quick_test/data-fmllr-tri3/train/data/feats_fmllr_train.8.ark:7602328
fmmh0_sx367 quick_test/data-fmllr-tri3/train/data/feats_fmllr_train.2.ark:17737198
mjdm0_sx440 quick_test/data-fmllr-tri3/train/data/feats_fmllr_train.6.ark:9943036
mjai0_sx164 quick_test/data-fmllr-tri3/train/data/feats_fmllr_train.6.ark:7453971
mkls0_sx447 quick_test/data-fmllr-tri3/train/data/feats_fmllr_train.7.ark:8536253
fpjf0_sx146 quick_test/data-fmllr-tri3/train/data/feats_fmllr_train.3.ark:2983374
mmar0_si1966 quick_test/data-fmllr-tri3/train/data/feats_fmllr_train.7.ark:14239695
mmlm0_si1527 quick_test/data-fmllr-tri3/train/data/feats_fmllr_train.8.ark:1439763
mgar0_si1842 quick_test/data-fmllr-tri3/train/data/feats_fmllr_train.6.ark:93829
mrlk0_sx393 quick_test/data-fmllr-tri3/train/data/feats_fmllr_train.9.ark:4740027
mdsj0_sx382 quick_test/data-fmllr-tri3/train/data/feats_fmllr_train.5.ark:8486174
mtmn0_sx344 quick_test/data-fmllr-tri3/train/data/feats_fmllr_train.10.ark:7948113
flmk0_si1035 quick_test/data-fmllr-tri3/train/data/feats_fmllr_train.2.ark:13204142
fpaf0_si1054 quick_test/data-fmllr-tri3/train/data/feats_fmllr_train.3.ark:2026057
mmeb0_sx7 quick_test/data-fmllr-tri3/train/data/feats_fmllr_train.7.ark:17925141
mhjb0_sx27 quick_test/data-fmllr-tri3/train/data/feats_fmllr_train.6.ark:4506372
mwrp0_sx93 quick_test/data-fmllr-tri3/train/data/feats_fmllr_train.10.ark:16759721
fvmh0_sx26 quick_test/data-fmllr-tri3/train/data/feats_fmllr_train.3.ark:16751982
fapb0_si2323 quick_test/data-fmllr-tri3/train/data/feats_fmllr_train.1.ark:1679812
mmlm0_si2150 quick_test/data-fmllr-tri3/train/data/feats_fmllr_train.8.ark:1458991
mdrd0_si752 quick_test/data-fmllr-tri3/train/data/feats_fmllr_train.5.ark:7849210
mdlr1_sx399 quick_test/data-fmllr-tri3/train/data/feats_fmllr_train.5.ark:5426384
mvrw0_sx315 quick_test/data-fmllr-tri3/train/data/feats_fmllr_train.10.ark:13299151
fdxw0_si1511 quick_test/data-fmllr-tri3/train/data/feats_fmllr_train.1.ark:13009417
mjpg0_si1821 quick_test/data-fmllr-tri3/train/data/feats_fmllr_train.6.ark:16147392
mkdd0_si2197 quick_test/data-fmllr-tri3/train/data/feats_fmllr_train.7.ark:6006815
mtrr0_si2178 quick_test/data-fmllr-tri3/train/data/feats_fmllr_train.10.ark:10841260
fcjs0_si977 quick_test/data-fmllr-tri3/train/data/feats_fmllr_train.1.ark:6753674
fkde0_sx421 quick_test/data-fmllr-tri3/train/data/feats_fmllr_train.2.ark:5950259
mses0_sx329 quick_test/data-fmllr-tri3/train/data/feats_fmllr_train.9.ark:14387168
mdcm0_si1480 quick_test/data-fmllr-tri3/train/data/feats_fmllr_train.4.ark:16264542
mmxs0_sx66 quick_test/data-fmllr-tri3/train/data/feats_fmllr_train.8.ark:4948407
mwgr0_sx256 quick_test/data-fmllr-tri3/train/data/feats_fmllr_train.10.ark:15854887
mdlc2_sx264 quick_test/data-fmllr-tri3/train/data/feats_fmllr_train.5.ark:3739197
mmbs0_sx161 quick_test/data-fmllr-tri3/train/data/feats_fmllr_train.7.ark:14812126
mdns0_si2271 quick_test/data-fmllr-tri3/train/data/feats_fmllr_train.5.ark:6360795
mdwm0_si916 quick_test/data-fmllr-tri3/train/data/feats_fmllr_train.5.ark:10479370
mtxs0_si2320 quick_test/data-fmllr-tri3/train/data/feats_fmllr_train.10.ark:11986259
mtjs0_sx382 quick_test/data-fmllr-tri3/train/data/feats_fmllr_train.10.ark:5239766
mrwa0_sx163 quick_test/data-fmllr-tri3/train/data/feats_fmllr_train.9.ark:10142002
mbml0_sx359 quick_test/data-fmllr-tri3/train/data/feats_fmllr_train.4.ark:6532961
mgaw0_sx175 quick_test/data-fmllr-tri3/train/data/feats_fmllr_train.6.ark:549753
mdbp0_si1788 quick_test/data-fmllr-tri3/train/data/feats_fmllr_train.4.ark:15502856
fntb0_sx303 quick_test/data-fmllr-tri3/train/data/feats_fmllr_train.3.ark:626125
mmvp0_si1284 quick_test/data-fmllr-tri3/train/data/feats_fmllr_train.8.ark:2969111
fhxs0_si2335 quick_test/data-fmllr-tri3/train/data/feats_fmllr_train.1.ark:18546217
mrab0_sx144 quick_test/data-fmllr-tri3/train/data/feats_fmllr_train.8.ark:11074490
mwsb0_si996 quick_test/data-fmllr-tri3/train/data/feats_fmllr_train.10.ark:16875644
mjrh0_sx315 quick_test/data-fmllr-tri3/train/data/feats_fmllr_train.7.ark:249910
fcjf0_sx127 quick_test/data-fmllr-tri3/train/data/feats_fmllr_train.1.ark:6550764
mhmg0_sx105 quick_test/data-fmllr-tri3/train/data/feats_fmllr_train.6.ark:4766216
msdb0_si2267 quick_test/data-fmllr-tri3/train/data/feats_fmllr_train.9.ark:12616777
fjdm2_si2212 quick_test/data-fmllr-tri3/train/data/feats_fmllr_train.2.ark:96549
mchl0_sx447 quick_test/data-fmllr-tri3/train/data/feats_fmllr_train.4.ark:11289670
flod0_sx297 quick_test/data-fmllr-tri3/train/data/feats_fmllr_train.2.ark:13860523
mtkd0_sx287 quick_test/data-fmllr-tri3/train/data/feats_fmllr_train.10.ark:5980173
mjrh0_sx45 quick_test/data-fmllr-tri3/train/data/feats_fmllr_train.7.ark:340203
mrml0_sx251 quick_test/data-fmllr-tri3/train/data/feats_fmllr_train.9.ark:6504874
mkaj0_sx334 quick_test/data-fmllr-tri3/train/data/feats_fmllr_train.7.ark:5035552
mhrm0_sx418 quick_test/data-fmllr-tri3/train/data/feats_fmllr_train.6.ark:5609131
fdnc0_sx198 quick_test/data-fmllr-tri3/train/data/feats_fmllr_train.1.ark:12430877
mtjs0_sx202 quick_test/data-fmllr-tri3/train/data/feats_fmllr_train.10.ark:5111366
mwar0_si1675 quick_test/data-fmllr-tri3/train/data/feats_fmllr_train.10.ark:14246735
fcdr1_sx376 quick_test/data-fmllr-tri3/train/data/feats_fmllr_train.1.ark:6024517
fjrb0_sx42 quick_test/data-fmllr-tri3/train/data/feats_fmllr_train.2.ark:2727588
msas0_sx386 quick_test/data-fmllr-tri3/train/data/feats_fmllr_train.9.ark:11814818
mdef0_sx303 quick_test/data-fmllr-tri3/train/data/feats_fmllr_train.5.ark:244310
fdmy0_si714 quick_test/data-fmllr-tri3/train/data/feats_fmllr_train.1.ark:11772179
mdcd0_si1415 quick_test/data-fmllr-tri3/train/data/feats_fmllr_train.4.ark:15888805
ftmg0_si1532 quick_test/data-fmllr-tri3/train/data/feats_fmllr_train.3.ark:15382715
mwgr0_si976 quick_test/data-fmllr-tri3/train/data/feats_fmllr_train.10.ark:15736113
flet0_sx417 quick_test/data-fmllr-tri3/train/data/feats_fmllr_train.2.ark:10331208
mmwb0_si1619 quick_test/data-fmllr-tri3/train/data/feats_fmllr_train.8.ark:3435089
freh0_si1315 quick_test/data-fmllr-tri3/train/data/feats_fmllr_train.3.ark:4008901
mcxm0_si1351 quick_test/data-fmllr-tri3/train/data/feats_fmllr_train.4.ark:13986762
mtab0_sx312 quick_test/data-fmllr-tri3/train/data/feats_fmllr_train.10.ark:775406
fetb0_sx248 quick_test/data-fmllr-tri3/train/data/feats_fmllr_train.1.ark:15604908
msrg0_sx51 quick_test/data-fmllr-tri3/train/data/feats_fmllr_train.9.ark:17305059
mgar0_si1694 quick_test/data-fmllr-tri3/train/data/feats_fmllr_train.6.ark:59241
mjlg1_si2272 quick_test/data-fmllr-tri3/train/data/feats_fmllr_train.6.ark:14390973
mrmh0_sx301 quick_test/data-fmllr-tri3/train/data/feats_fmllr_train.9.ark:6145484
fmbg0_si1160 quick_test/data-fmllr-tri3/train/data/feats_fmllr_train.2.ark:14706933
mbth0_sx302 quick_test/data-fmllr-tri3/train/data/feats_fmllr_train.4.ark:7567051
mwem0_si1393 quick_test/data-fmllr-tri3/train/data/feats_fmllr_train.10.ark:15298748
fjrp1_si2062 quick_test/data-fmllr-tri3/train/data/feats_fmllr_train.2.ark:2870684
mpfu0_sx178 quick_test/data-fmllr-tri3/train/data/feats_fmllr_train.8.ark:6558024
mljc0_sx415 quick_test/data-fmllr-tri3/train/data/feats_fmllr_train.7.ark:11238733
mjra0_si1866 quick_test/data-fmllr-tri3/train/data/feats_fmllr_train.6.ark:17268363
mrxb0_si1585 quick_test/data-fmllr-tri3/train/data/feats_fmllr_train.9.ark:10707474
mtdb0_si771 quick_test/data-fmllr-tri3/train/data/feats_fmllr_train.10.ark:2927027
fsbk0_si1069 quick_test/data-fmllr-tri3/train/data/feats_fmllr_train.3.ark:6333883
mjmd0_sx218 quick_test/data-fmllr-tri3/train/data/feats_fmllr_train.6.ark:15578879
mrcw0_sx381 quick_test/data-fmllr-tri3/train/data/feats_fmllr_train.8.ark:14010998
mnet0_si2076 quick_test/data-fmllr-tri3/train/data/feats_fmllr_train.8.ark:5047983
mdsj0_sx438 quick_test/data-fmllr-tri3/train/data/feats_fmllr_train.5.ark:8528441
mfxs0_si1674 quick_test/data-fmllr-tri3/train/data/feats_fmllr_train.5.ark:15497229
mpmb0_sx331 quick_test/data-fmllr-tri3/train/data/feats_fmllr_train.8.ark:8302946
mtdp0_sx171 quick_test/data-fmllr-tri3/train/data/feats_fmllr_train.10.ark:3385352
falr0_sx425 quick_test/data-fmllr-tri3/train/data/feats_fmllr_train.1.ark:1500342
mkes0_sx173 quick_test/data-fmllr-tri3/train/data/feats_fmllr_train.7.ark:6904582
mjpm1_sx311 quick_test/data-fmllr-tri3/train/data/feats_fmllr_train.6.ark:17040894
fdtd0_si2191 quick_test/data-fmllr-tri3/train/data/feats_fmllr_train.1.ark:12638347
mrjt0_si1498 quick_test/data-fmllr-tri3/train/data/feats_fmllr_train.9.ark:2495074
mljc0_si595 quick_test/data-fmllr-tri3/train/data/feats_fmllr_train.7.ark:11057825
mmgk0_sx242 quick_test/data-fmllr-tri3/train/data/feats_fmllr_train.8.ark:877358
flma0_si1873 quick_test/data-fmllr-tri3/train/data/feats_fmllr_train.2.ark:12513176
mter0_sx167 quick_test/data-fmllr-tri3/train/data/feats_fmllr_train.10.ark:3847169
mpar0_si1576 quick_test/data-fmllr-tri3/train/data/feats_fmllr_train.8.ark:5741028
mjdg0_sx142 quick_test/data-fmllr-tri3/train/data/feats_fmllr_train.6.ark:9388338
mlel0_sx166 quick_test/data-fmllr-tri3/train/data/feats_fmllr_train.7.ark:10662755
mrew1_sx60 quick_test/data-fmllr-tri3/train/data/feats_fmllr_train.8.ark:16658758
fcmg0_si1242 quick_test/data-fmllr-tri3/train/data/feats_fmllr_train.1.ark:7858298
fmpg0_sx162 quick_test/data-fmllr-tri3/train/data/feats_fmllr_train.2.ark:18115146
fsag0_sx63 quick_test/data-fmllr-tri3/train/data/feats_fmllr_train.3.ark:5485421
fbmj0_sx66 quick_test/data-fmllr-tri3/train/data/feats_fmllr_train.1.ark:4850745
fmjf0_si624 quick_test/data-fmllr-tri3/train/data/feats_fmllr_train.2.ark:15988277
msfh0_sx136 quick_test/data-fmllr-tri3/train/data/feats_fmllr_train.9.ark:14698531
fskp0_sx198 quick_test/data-fmllr-tri3/train/data/feats_fmllr_train.3.ark:10966646
fsag0_sx333 quick_test/data-fmllr-tri3/train/data/feats_fmllr_train.3.ark:5336088
fpab1_sx301 quick_test/data-fmllr-tri3/train/data/feats_fmllr_train.3.ark:1059302
mbma0_si1852 quick_test/data-fmllr-tri3/train/data/feats_fmllr_train.4.ark:5627139
flma0_sx253 quick_test/data-fmllr-tri3/train/data/feats_fmllr_train.2.ark:12657257
mtkd0_sx377 quick_test/data-fmllr-tri3/train/data/feats_fmllr_train.10.ark:6043240
mmws1_si1701 quick_test/data-fmllr-tri3/train/data/feats_fmllr_train.8.ark:4364830
mgsl0_sx264 quick_test/data-fmllr-tri3/train/data/feats_fmllr_train.6.ark:2940360
falk0_si456 quick_test/data-fmllr-tri3/train/data/feats_fmllr_train.1.ark:860152
flhd0_sx174 quick_test/data-fmllr-tri3/train/data/feats_fmllr_train.2.ark:10539345
fjsp0_sx354 quick_test/data-fmllr-tri3/train/data/feats_fmllr_train.2.ark:3894747
mjhi0_sx158 quick_test/data-fmllr-tri3/train/data/feats_fmllr_train.6.ark:12114816
fdfb0_sx148 quick_test/data-fmllr-tri3/train/data/feats_fmllr_train.1.ark:10261577
fmah1_si879 quick_test/data-fmllr-tri3/train/data/feats_fmllr_train.2.ark:14411091
fsah0_si614 quick_test/data-fmllr-tri3/train/data/feats_fmllr_train.3.ark:5639584
mtpg0_si1383 quick_test/data-fmllr-tri3/train/data/feats_fmllr_train.10.ark:8808948
mctm0_sx180 quick_test/data-fmllr-tri3/train/data/feats_fmllr_train.4.ark:13776707
mapv0_sx33 quick_test/data-fmllr-tri3/train/data/feats_fmllr_train.4.ark:2582760
fsak0_sx220 quick_test/data-fmllr-tri3/train/data/feats_fmllr_train.3.ark:6137135
mwgr0_sx436 quick_test/data-fmllr-tri3/train/data/feats_fmllr_train.10.ark:15949341
mfxs0_sx324 quick_test/data-fmllr-tri3/train/data/feats_fmllr_train.5.ark:15696566
msem1_sx450 quick_test/data-fmllr-tri3/train/data/feats_fmllr_train.9.ark:14056257
ftaj0_sx69 quick_test/data-fmllr-tri3/train/data/feats_fmllr_train.3.ark:14174997
mrlj1_si2301 quick_test/data-fmllr-tri3/train/data/feats_fmllr_train.9.ark:4108768
megj0_sx77 quick_test/data-fmllr-tri3/train/data/feats_fmllr_train.5.ark:12207569
fcag0_si1641 quick_test/data-fmllr-tri3/train/data/feats_fmllr_train.1.ark:4931761
mpsw0_sx167 quick_test/data-fmllr-tri3/train/data/feats_fmllr_train.8.ark:10738434
mapv0_sx303 quick_test/data-fmllr-tri3/train/data/feats_fmllr_train.4.ark:2544814
mtqc0_sx271 quick_test/data-fmllr-tri3/train/data/feats_fmllr_train.10.ark:10227148
mdmt0_si572 quick_test/data-fmllr-tri3/train/data/feats_fmllr_train.5.ark:5973245
fpad0_sx446 quick_test/data-fmllr-tri3/train/data/feats_fmllr_train.3.ark:1943923
mejs0_si610 quick_test/data-fmllr-tri3/train/data/feats_fmllr_train.5.ark:12703229
feeh0_si1742 quick_test/data-fmllr-tri3/train/data/feats_fmllr_train.1.ark:14652553
mfrm0_sx165 quick_test/data-fmllr-tri3/train/data/feats_fmllr_train.5.ark:14903277
mdpk0_sx333 quick_test/data-fmllr-tri3/train/data/feats_fmllr_train.5.ark:7272377
fskp0_sx18 quick_test/data-fmllr-tri3/train/data/feats_fmllr_train.3.ark:10928219
mdac0_sx181 quick_test/data-fmllr-tri3/train/data/feats_fmllr_train.4.ark:14526101
mjbg0_si1232 quick_test/data-fmllr-tri3/train/data/feats_fmllr_train.6.ark:7645946
mrml0_sx161 quick_test/data-fmllr-tri3/train/data/feats_fmllr_train.9.ark:6430287
mbwp0_sx169 quick_test/data-fmllr-tri3/train/data/feats_fmllr_train.4.ark:7828014
mrmh0_sx31 quick_test/data-fmllr-tri3/train/data/feats_fmllr_train.9.ark:6190790
mdlm0_sx334 quick_test/data-fmllr-tri3/train/data/feats_fmllr_train.5.ark:4542217
fspm0_si611 quick_test/data-fmllr-tri3/train/data/feats_fmllr_train.3.ark:12823172
fsjg0_si1570 quick_test/data-fmllr-tri3/train/data/feats_fmllr_train.3.ark:8298329
mmdm1_sx423 quick_test/data-fmllr-tri3/train/data/feats_fmllr_train.7.ark:16913292
frll0_sx344 quick_test/data-fmllr-tri3/train/data/feats_fmllr_train.3.ark:4964671
mwgr0_sx76 quick_test/data-fmllr-tri3/train/data/feats_fmllr_train.10.ark:15982327
mrwa0_si973 quick_test/data-fmllr-tri3/train/data/feats_fmllr_train.9.ark:10096055
mdlr0_sx423 quick_test/data-fmllr-tri3/train/data/feats_fmllr_train.5.ark:4960221
mbom0_si2274 quick_test/data-fmllr-tri3/train/data/feats_fmllr_train.4.ark:6768778
mjsr0_sx254 quick_test/data-fmllr-tri3/train/data/feats_fmllr_train.7.ark:1744191
mmcc0_si1338 quick_test/data-fmllr-tri3/train/data/feats_fmllr_train.7.ark:15099621
fjsk0_si1052 quick_test/data-fmllr-tri3/train/data/feats_fmllr_train.2.ark:3263193
fksr0_sx161 quick_test/data-fmllr-tri3/train/data/feats_fmllr_train.2.ark:8615218
mkjo0_sx167 quick_test/data-fmllr-tri3/train/data/feats_fmllr_train.7.ark:7272159
mrld0_sx424 quick_test/data-fmllr-tri3/train/data/feats_fmllr_train.9.ark:3638229
mkdb0_sx332 quick_test/data-fmllr-tri3/train/data/feats_fmllr_train.7.ark:5785586
makb0_si2276 quick_test/data-fmllr-tri3/train/data/feats_fmllr_train.4.ark:1643339
mmws1_sx441 quick_test/data-fmllr-tri3/train/data/feats_fmllr_train.8.ark:4545125
mtrt0_sx254 quick_test/data-fmllr-tri3/train/data/feats_fmllr_train.10.ark:11429905
mpar0_sx316 quick_test/data-fmllr-tri3/train/data/feats_fmllr_train.8.ark:5954764
mdps0_si1979 quick_test/data-fmllr-tri3/train/data/feats_fmllr_train.5.ark:7443846
mefg0_sx285 quick_test/data-fmllr-tri3/train/data/feats_fmllr_train.5.ark:11724767
fpac0_sx31 quick_test/data-fmllr-tri3/train/data/feats_fmllr_train.3.ark:1533145
mjra0_sx336 quick_test/data-fmllr-tri3/train/data/feats_fmllr_train.6.ark:17450231
mjjb0_sx149 quick_test/data-fmllr-tri3/train/data/feats_fmllr_train.6.ark:12470554
fjhk0_sx32 quick_test/data-fmllr-tri3/train/data/feats_fmllr_train.2.ark:1161092
mewm0_sx178 quick_test/data-fmllr-tri3/train/data/feats_fmllr_train.5.ark:13798785
fbch0_si1586 quick_test/data-fmllr-tri3/train/data/feats_fmllr_train.1.ark:2849049
fdmy0_sx207 quick_test/data-fmllr-tri3/train/data/feats_fmllr_train.1.ark:11935273
mbma0_sx232 quick_test/data-fmllr-tri3/train/data/feats_fmllr_train.4.ark:5729780
mrtj0_sx142 quick_test/data-fmllr-tri3/train/data/feats_fmllr_train.9.ark:9359648
madd0_sx358 quick_test/data-fmllr-tri3/train/data/feats_fmllr_train.3.ark:17832794
msem1_si810 quick_test/data-fmllr-tri3/train/data/feats_fmllr_train.9.ark:13798069
fvmh0_si1466 quick_test/data-fmllr-tri3/train/data/feats_fmllr_train.3.ark:16493127
mnet0_sx276 quick_test/data-fmllr-tri3/train/data/feats_fmllr_train.8.ark:5155264
mtas0_si1385 quick_test/data-fmllr-tri3/train/data/feats_fmllr_train.10.ark:937407
fpaf0_sx424 quick_test/data-fmllr-tri3/train/data/feats_fmllr_train.3.ark:2336941
mjeb1_si837 quick_test/data-fmllr-tri3/train/data/feats_fmllr_train.6.ark:10548162
milb0_si2163 quick_test/data-fmllr-tri3/train/data/feats_fmllr_train.6.ark:6120761
mgxp0_si1087 quick_test/data-fmllr-tri3/train/data/feats_fmllr_train.6.ark:3146228
mgrp0_sx57 quick_test/data-fmllr-tri3/train/data/feats_fmllr_train.6.ark:2254889
fpmy0_sx73 quick_test/data-fmllr-tri3/train/data/feats_fmllr_train.3.ark:3959913
fvkb0_sx349 quick_test/data-fmllr-tri3/train/data/feats_fmllr_train.3.ark:16318486
mjee0_si1867 quick_test/data-fmllr-tri3/train/data/feats_fmllr_train.6.ark:10886272
mrjm0_sx58 quick_test/data-fmllr-tri3/train/data/feats_fmllr_train.9.ark:2037869
maeo0_si1956 quick_test/data-fmllr-tri3/train/data/feats_fmllr_train.4.ark:479006
frjb0_si1470 quick_test/data-fmllr-tri3/train/data/feats_fmllr_train.3.ark:4395066
mrem0_sx151 quick_test/data-fmllr-tri3/train/data/feats_fmllr_train.8.ark:16122274
mjee0_sx67 quick_test/data-fmllr-tri3/train/data/feats_fmllr_train.6.ark:11153153
marc0_sx378 quick_test/data-fmllr-tri3/train/data/feats_fmllr_train.4.ark:2929244
mjxl0_si542 quick_test/data-fmllr-tri3/train/data/feats_fmllr_train.7.ark:3714501
mjrg0_sx352 quick_test/data-fmllr-tri3/train/data/feats_fmllr_train.6.ark:17882154
fsbk0_sx259 quick_test/data-fmllr-tri3/train/data/feats_fmllr_train.3.ark:6505673
mkrg0_sx31 quick_test/data-fmllr-tri3/train/data/feats_fmllr_train.7.ark:9650157
mcdc0_sx122 quick_test/data-fmllr-tri3/train/data/feats_fmllr_train.4.ark:9108983
mkdd0_sx307 quick_test/data-fmllr-tri3/train/data/feats_fmllr_train.7.ark:6202923
falr0_sx65 quick_test/data-fmllr-tri3/train/data/feats_fmllr_train.1.ark:1531248
fjen0_sx147 quick_test/data-fmllr-tri3/train/data/feats_fmllr_train.2.ark:571034
makr0_si722 quick_test/data-fmllr-tri3/train/data/feats_fmllr_train.4.ark:2037956
fbjl0_sx292 quick_test/data-fmllr-tri3/train/data/feats_fmllr_train.1.ark:3556307
mrcw0_sx291 quick_test/data-fmllr-tri3/train/data/feats_fmllr_train.8.ark:13972891
fcdr1_sx196 quick_test/data-fmllr-tri3/train/data/feats_fmllr_train.1.ark:5917103
mesg0_sx162 quick_test/data-fmllr-tri3/train/data/feats_fmllr_train.5.ark:13121073
fgcs0_sx136 quick_test/data-fmllr-tri3/train/data/feats_fmllr_train.1.ark:16375236
msjk0_si966 quick_test/data-fmllr-tri3/train/data/feats_fmllr_train.9.ark:15525498
fjwb1_sx75 quick_test/data-fmllr-tri3/train/data/feats_fmllr_train.2.ark:4365896
fceg0_si1878 quick_test/data-fmllr-tri3/train/data/feats_fmllr_train.1.ark:6132733
msah1_sx329 quick_test/data-fmllr-tri3/train/data/feats_fmllr_train.9.ark:11292788
fskl0_sx449 quick_test/data-fmllr-tri3/train/data/feats_fmllr_train.3.ark:10639417
fdkn0_sx451 quick_test/data-fmllr-tri3/train/data/feats_fmllr_train.1.ark:11158253
ftlg0_si483 quick_test/data-fmllr-tri3/train/data/feats_fmllr_train.3.ark:15046366
mkrg0_sx51 quick_test/data-fmllr-tri3/train/data/feats_fmllr_train.7.ark:9718370
mmgc0_si1935 quick_test/data-fmllr-tri3/train/data/feats_fmllr_train.8.ark:67561
ftaj0_sx159 quick_test/data-fmllr-tri3/train/data/feats_fmllr_train.3.ark:14031690
mvrw0_si855 quick_test/data-fmllr-tri3/train/data/feats_fmllr_train.10.ark:13176350
mprk0_sx287 quick_test/data-fmllr-tri3/train/data/feats_fmllr_train.8.ark:10164640
fsak0_si1300 quick_test/data-fmllr-tri3/train/data/feats_fmllr_train.3.ark:5957186
fdfb0_si2010 quick_test/data-fmllr-tri3/train/data/feats_fmllr_train.1.ark:10230990
mtat0_sx390 quick_test/data-fmllr-tri3/train/data/feats_fmllr_train.10.ark:1578773
fjrp1_sx262 quick_test/data-fmllr-tri3/train/data/feats_fmllr_train.2.ark:3000685
mbcg0_sx147 quick_test/data-fmllr-tri3/train/data/feats_fmllr_train.4.ark:4247285
mbar0_sx329 quick_test/data-fmllr-tri3/train/data/feats_fmllr_train.4.ark:3620025
mjee0_sx427 quick_test/data-fmllr-tri3/train/data/feats_fmllr_train.6.ark:11111687
madc0_si1997 quick_test/data-fmllr-tri3/train/data/feats_fmllr_train.3.ark:17247989
mmgg0_si2339 quick_test/data-fmllr-tri3/train/data/feats_fmllr_train.8.ark:461407
fcrz0_sx433 quick_test/data-fmllr-tri3/train/data/feats_fmllr_train.1.ark:8833428
fljd0_sx436 quick_test/data-fmllr-tri3/train/data/feats_fmllr_train.2.ark:11506901
mdrd0_sx122 quick_test/data-fmllr-tri3/train/data/feats_fmllr_train.5.ark:7938197
fsak0_sx130 quick_test/data-fmllr-tri3/train/data/feats_fmllr_train.3.ark:6105268
fpad0_sx356 quick_test/data-fmllr-tri3/train/data/feats_fmllr_train.3.ark:1886456
mmgg0_sx269 quick_test/data-fmllr-tri3/train/data/feats_fmllr_train.8.ark:546261
fdxw0_sx431 quick_test/data-fmllr-tri3/train/data/feats_fmllr_train.1.ark:13265740
mjjb0_sx329 quick_test/data-fmllr-tri3/train/data/feats_fmllr_train.6.ark:12580528
fklh0_si627 quick_test/data-fmllr-tri3/train/data/feats_fmllr_train.2.ark:8205534
mmpm0_sx341 quick_test/data-fmllr-tri3/train/data/feats_fmllr_train.8.ark:2012597
mlel0_si1876 quick_test/data-fmllr-tri3/train/data/feats_fmllr_train.7.ark:10550861
mkdb0_sx422 quick_test/data-fmllr-tri3/train/data/feats_fmllr_train.7.ark:5836653
mrms0_si2100 quick_test/data-fmllr-tri3/train/data/feats_fmllr_train.9.ark:6872078
ftlg0_sx393 quick_test/data-fmllr-tri3/train/data/feats_fmllr_train.3.ark:15339807
mtkp0_si454 quick_test/data-fmllr-tri3/train/data/feats_fmllr_train.10.ark:6223643
mses0_sx419 quick_test/data-fmllr-tri3/train/data/feats_fmllr_train.9.ark:14436955
mtpf0_si1865 quick_test/data-fmllr-tri3/train/data/feats_fmllr_train.10.ark:8504759
mejl0_sx242 quick_test/data-fmllr-tri3/train/data/feats_fmllr_train.5.ark:12416506
fpls0_si960 quick_test/data-fmllr-tri3/train/data/feats_fmllr_train.3.ark:3288524
mrxb0_sx415 quick_test/data-fmllr-tri3/train/data/feats_fmllr_train.9.ark:11009717
mtpr0_sx340 quick_test/data-fmllr-tri3/train/data/feats_fmllr_train.10.ark:9803758
mrtj0_si1551 quick_test/data-fmllr-tri3/train/data/feats_fmllr_train.9.ark:9173806
mrvg0_sx240 quick_test/data-fmllr-tri3/train/data/feats_fmllr_train.9.ark:9817012
mjkr0_sx211 quick_test/data-fmllr-tri3/train/data/feats_fmllr_train.6.ark:13777632
fpaf0_si1684 quick_test/data-fmllr-tri3/train/data/feats_fmllr_train.3.ark:2116645
fcke0_si1111 quick_test/data-fmllr-tri3/train/data/feats_fmllr_train.1.ark:7059756
mgrl0_sx147 quick_test/data-fmllr-tri3/train/data/feats_fmllr_train.6.ark:1649925
mfxv0_sx195 quick_test/data-fmllr-tri3/train/data/feats_fmllr_train.5.ark:16109743
mrab0_sx324 quick_test/data-fmllr-tri3/train/data/feats_fmllr_train.8.ark:11158864
fcmg0_sx342 quick_test/data-fmllr-tri3/train/data/feats_fmllr_train.1.ark:8036967
fcjs0_sx167 quick_test/data-fmllr-tri3/train/data/feats_fmllr_train.1.ark:6799621
falr0_sx245 quick_test/data-fmllr-tri3/train/data/feats_fmllr_train.1.ark:1396288
mfwk0_sx349 quick_test/data-fmllr-tri3/train/data/feats_fmllr_train.5.ark:15332348
mram0_si1905 quick_test/data-fmllr-tri3/train/data/feats_fmllr_train.8.ark:12187087
mmar0_si1336 quick_test/data-fmllr-tri3/train/data/feats_fmllr_train.7.ark:14181587
mjsr0_sx434 quick_test/data-fmllr-tri3/train/data/feats_fmllr_train.7.ark:1841205
mklr0_si1059 quick_test/data-fmllr-tri3/train/data/feats_fmllr_train.7.ark:7862271
fdnc0_si1278 quick_test/data-fmllr-tri3/train/data/feats_fmllr_train.1.ark:12146741
mjfh0_sx297 quick_test/data-fmllr-tri3/train/data/feats_fmllr_train.6.ark:11449823
mlbc0_sx69 quick_test/data-fmllr-tri3/train/data/feats_fmllr_train.7.ark:10455285
marw0_sx286 quick_test/data-fmllr-tri3/train/data/feats_fmllr_train.4.ark:3177727
mjlb0_sx356 quick_test/data-fmllr-tri3/train/data/feats_fmllr_train.6.ark:14183796
mdjm0_sx195 quick_test/data-fmllr-tri3/train/data/feats_fmllr_train.5.ark:1808696
mmdg0_si520 quick_test/data-fmllr-tri3/train/data/feats_fmllr_train.7.ark:15928430
msas0_sx116 quick_test/data-fmllr-tri3/train/data/feats_fmllr_train.9.ark:11628311
fcag0_sx63 quick_test/data-fmllr-tri3/train/data/feats_fmllr_train.1.ark:5201683
fceg0_sx258 quick_test/data-fmllr-tri3/train/data/feats_fmllr_train.1.ark:6221134
mjma0_sx235 quick_test/data-fmllr-tri3/train/data/feats_fmllr_train.6.ark:15268101
fsms1_sx347 quick_test/data-fmllr-tri3/train/data/feats_fmllr_train.3.ark:12589623
fsjw0_si1963 quick_test/data-fmllr-tri3/train/data/feats_fmllr_train.3.ark:9667168
mcre0_sx24 quick_test/data-fmllr-tri3/train/data/feats_fmllr_train.4.ark:12692911
mjfh0_sx207 quick_test/data-fmllr-tri3/train/data/feats_fmllr_train.6.ark:11393930
mjrp0_si585 quick_test/data-fmllr-tri3/train/data/feats_fmllr_train.7.ark:1208560
fcrz0_sx253 quick_test/data-fmllr-tri3/train/data/feats_fmllr_train.1.ark:8754174
faem0_sx402 quick_test/data-fmllr-tri3/train/data/feats_fmllr_train.1.ark:304336
fmju0_sx39 quick_test/data-fmllr-tri3/train/data/feats_fmllr_train.2.ark:16644121
mhmr0_si489 quick_test/data-fmllr-tri3/train/data/feats_fmllr_train.6.ark:5070566
mefg0_sx375 quick_test/data-fmllr-tri3/train/data/feats_fmllr_train.5.ark:11770074
mjlb0_sx266 quick_test/data-fmllr-tri3/train/data/feats_fmllr_train.6.ark:14146969
fmkc0_si1702 quick_test/data-fmllr-tri3/train/data/feats_fmllr_train.2.ark:16841512
msfv0_sx452 quick_test/data-fmllr-tri3/train/data/feats_fmllr_train.9.ark:15297549
mrab0_si594 quick_test/data-fmllr-tri3/train/data/feats_fmllr_train.8.ark:11041983
mrtc0_sx198 quick_test/data-fmllr-tri3/train/data/feats_fmllr_train.9.ark:9026044
mjsr0_si794 quick_test/data-fmllr-tri3/train/data/feats_fmllr_train.7.ark:1606217
mddc0_sx159 quick_test/data-fmllr-tri3/train/data/feats_fmllr_train.4.ark:16793321
mrab0_sx54 quick_test/data-fmllr-tri3/train/data/feats_fmllr_train.8.ark:11271397
mwad0_sx72 quick_test/data-fmllr-tri3/train/data/feats_fmllr_train.10.ark:14148119
mdwh0_si1925 quick_test/data-fmllr-tri3/train/data/feats_fmllr_train.5.ark:10013206
mvjh0_si926 quick_test/data-fmllr-tri3/train/data/feats_fmllr_train.10.ark:12465996
msjk0_si2226 quick_test/data-fmllr-tri3/train/data/feats_fmllr_train.9.ark:15491391
mtju0_si760 quick_test/data-fmllr-tri3/train/data/feats_fmllr_train.10.ark:5394889
mbcg0_sx237 quick_test/data-fmllr-tri3/train/data/feats_fmllr_train.4.ark:4292592
mbma1_sx234 quick_test/data-fmllr-tri3/train/data/feats_fmllr_train.4.ark:6109037
mrai0_sx252 quick_test/data-fmllr-tri3/train/data/feats_fmllr_train.8.ark:11938151
fecd0_sx338 quick_test/data-fmllr-tri3/train/data/feats_fmllr_train.1.ark:14438044
fclt0_sx448 quick_test/data-fmllr-tri3/train/data/feats_fmllr_train.1.ark:7684776
fmmh0_si1537 quick_test/data-fmllr-tri3/train/data/feats_fmllr_train.2.ark:17535969
mjac0_sx251 quick_test/data-fmllr-tri3/train/data/feats_fmllr_train.6.ark:6615937
feme0_sx425 quick_test/data-fmllr-tri3/train/data/feats_fmllr_train.1.ark:15331625
mdps0_sx269 quick_test/data-fmllr-tri3/train/data/feats_fmllr_train.5.ark:7586327
fapb0_sx253 quick_test/data-fmllr-tri3/train/data/feats_fmllr_train.1.ark:1818106
flkm0_si686 quick_test/data-fmllr-tri3/train/data/feats_fmllr_train.2.ark:12179546
mtlc0_si1313 quick_test/data-fmllr-tri3/train/data/feats_fmllr_train.10.ark:6890262
mmsm0_si476 quick_test/data-fmllr-tri3/train/data/feats_fmllr_train.8.ark:2678229
mdss1_sx67 quick_test/data-fmllr-tri3/train/data/feats_fmllr_train.5.ark:9202795
mrfk0_sx176 quick_test/data-fmllr-tri3/train/data/feats_fmllr_train.8.ark:16839989
mprd0_sx171 quick_test/data-fmllr-tri3/train/data/feats_fmllr_train.8.ark:9560183
fcrz0_si793 quick_test/data-fmllr-tri3/train/data/feats_fmllr_train.1.ark:8665800
fgmb0_sx425 quick_test/data-fmllr-tri3/train/data/feats_fmllr_train.1.ark:17426311
msms0_si2063 quick_test/data-fmllr-tri3/train/data/feats_fmllr_train.9.ark:16668681
mjjm0_si1251 quick_test/data-fmllr-tri3/train/data/feats_fmllr_train.6.ark:13161626
mlbc0_si609 quick_test/data-fmllr-tri3/train/data/feats_fmllr_train.7.ark:10225071
mjwt0_sx121 quick_test/data-fmllr-tri3/train/data/feats_fmllr_train.7.ark:3015854
mbgt0_sx81 quick_test/data-fmllr-tri3/train/data/feats_fmllr_train.4.ark:5154226
mtdp0_si1274 quick_test/data-fmllr-tri3/train/data/feats_fmllr_train.10.ark:3218869
flmk0_sx135 quick_test/data-fmllr-tri3/train/data/feats_fmllr_train.2.ark:13358145
mmaa0_sx125 quick_test/data-fmllr-tri3/train/data/feats_fmllr_train.7.ark:12774080
mpar0_sx406 quick_test/data-fmllr-tri3/train/data/feats_fmllr_train.8.ark:5989671
mmdb0_si1358 quick_test/data-fmllr-tri3/train/data/feats_fmllr_train.7.ark:15480798
mmws1_sx27 quick_test/data-fmllr-tri3/train/data/feats_fmllr_train.8.ark:4469231
mjae0_sx354 quick_test/data-fmllr-tri3/train/data/feats_fmllr_train.6.ark:7090449
mjrh1_sx64 quick_test/data-fmllr-tri3/train/data/feats_fmllr_train.7.ark:726340
mmds0_si1343 quick_test/data-fmllr-tri3/train/data/feats_fmllr_train.7.ark:17017026
mprd0_si1431 quick_test/data-fmllr-tri3/train/data/feats_fmllr_train.8.ark:9381861
mefg0_si491 quick_test/data-fmllr-tri3/train/data/feats_fmllr_train.5.ark:11461913
mjws0_si513 quick_test/data-fmllr-tri3/train/data/feats_fmllr_train.7.ark:2487290
mjls0_sx196 quick_test/data-fmllr-tri3/train/data/feats_fmllr_train.6.ark:14918470
fmah1_sx339 quick_test/data-fmllr-tri3/train/data/feats_fmllr_train.2.ark:14577252
mpar0_sx226 quick_test/data-fmllr-tri3/train/data/feats_fmllr_train.8.ark:5915217
mmab1_si2124 quick_test/data-fmllr-tri3/train/data/feats_fmllr_train.7.ark:13025443
mejs0_si1870 quick_test/data-fmllr-tri3/train/data/feats_fmllr_train.5.ark:12666562
fltm0_sx170 quick_test/data-fmllr-tri3/train/data/feats_fmllr_train.2.ark:14040661
mwre0_sx247 quick_test/data-fmllr-tri3/train/data/feats_fmllr_train.10.ark:16206785
mtcs0_sx82 quick_test/data-fmllr-tri3/train/data/feats_fmllr_train.10.ark:2785024
mdwd0_sx450 quick_test/data-fmllr-tri3/train/data/feats_fmllr_train.5.ark:9848324
mtrc0_sx273 quick_test/data-fmllr-tri3/train/data/feats_fmllr_train.10.ark:10704511
mchl0_si1404 quick_test/data-fmllr-tri3/train/data/feats_fmllr_train.4.ark:11056734
makr0_sx452 quick_test/data-fmllr-tri3/train/data/feats_fmllr_train.4.ark:2167824
mtrc0_sx93 quick_test/data-fmllr-tri3/train/data/feats_fmllr_train.10.ark:10774964
mrjt0_si868 quick_test/data-fmllr-tri3/train/data/feats_fmllr_train.9.ark:2565369
mesj0_si997 quick_test/data-fmllr-tri3/train/data/feats_fmllr_train.5.ark:13467183
fsjs0_sx181 quick_test/data-fmllr-tri3/train/data/feats_fmllr_train.3.ark:9321725
fdxw0_sx341 quick_test/data-fmllr-tri3/train/data/feats_fmllr_train.1.ark:13223633
fpac0_sx121 quick_test/data-fmllr-tri3/train/data/feats_fmllr_train.3.ark:1377865
mrtc0_sx18 quick_test/data-fmllr-tri3/train/data/feats_fmllr_train.9.ark:8978497
mcdr0_si1154 quick_test/data-fmllr-tri3/train/data/feats_fmllr_train.4.ark:9690295
fleh0_sx61 quick_test/data-fmllr-tri3/train/data/feats_fmllr_train.2.ark:10000297
mkag0_sx169 quick_test/data-fmllr-tri3/train/data/feats_fmllr_train.7.ark:4189305
fjkl0_si2192 quick_test/data-fmllr-tri3/train/data/feats_fmllr_train.2.ark:1267415
fsgf0_si927 quick_test/data-fmllr-tri3/train/data/feats_fmllr_train.3.ark:8023607
mcew0_si2072 quick_test/data-fmllr-tri3/train/data/feats_fmllr_train.4.ark:10537957
mbjv0_sx77 quick_test/data-fmllr-tri3/train/data/feats_fmllr_train.4.ark:5512523
mrab0_si1224 quick_test/data-fmllr-tri3/train/data/feats_fmllr_train.8.ark:10934728
flet0_sx237 quick_test/data-fmllr-tri3/train/data/feats_fmllr_train.2.ark:10270674
mlsh0_sx67 quick_test/data-fmllr-tri3/train/data/feats_fmllr_train.7.ark:12533170
flma0_sx343 quick_test/data-fmllr-tri3/train/data/feats_fmllr_train.2.ark:12687844
mter0_si527 quick_test/data-fmllr-tri3/train/data/feats_fmllr_train.10.ark:3799462
mgak0_sx136 quick_test/data-fmllr-tri3/train/data/feats_fmllr_train.5.ark:17080421
fsjw0_sx163 quick_test/data-fmllr-tri3/train/data/feats_fmllr_train.3.ark:9756182
ftbw0_si715 quick_test/data-fmllr-tri3/train/data/feats_fmllr_train.3.ark:14668417
freh0_sx235 quick_test/data-fmllr-tri3/train/data/feats_fmllr_train.3.ark:4206450
mtab0_sx42 quick_test/data-fmllr-tri3/train/data/feats_fmllr_train.10.ark:901379
mdns0_sx21 quick_test/data-fmllr-tri3/train/data/feats_fmllr_train.5.ark:6554182
mbef0_sx111 quick_test/data-fmllr-tri3/train/data/feats_fmllr_train.4.ark:4623662
mmws0_sx168 quick_test/data-fmllr-tri3/train/data/feats_fmllr_train.8.ark:4074747
mtpf0_sx65 quick_test/data-fmllr-tri3/train/data/feats_fmllr_train.10.ark:8778360
mmab1_sx414 quick_test/data-fmllr-tri3/train/data/feats_fmllr_train.7.ark:13306058
mhjb0_sx207 quick_test/data-fmllr-tri3/train/data/feats_fmllr_train.6.ark:4480906
fsah0_si1244 quick_test/data-fmllr-tri3/train/data/feats_fmllr_train.3.ark:5542089
mdps0_sx179 quick_test/data-fmllr-tri3/train/data/feats_fmllr_train.5.ark:7539900
fgmb0_sx335 quick_test/data-fmllr-tri3/train/data/feats_fmllr_train.1.ark:17345804
fpaf0_sx334 quick_test/data-fmllr-tri3/train/data/feats_fmllr_train.3.ark:2290994
fvfb0_si1510 quick_test/data-fmllr-tri3/train/data/feats_fmllr_train.3.ark:15799280
mjhi0_sx248 quick_test/data-fmllr-tri3/train/data/feats_fmllr_train.6.ark:12147483
fljd0_sx346 quick_test/data-fmllr-tri3/train/data/feats_fmllr_train.2.ark:11453274
mkah0_sx88 quick_test/data-fmllr-tri3/train/data/feats_fmllr_train.7.ark:4757948
fljd0_si1516 quick_test/data-fmllr-tri3/train/data/feats_fmllr_train.2.ark:11200178
mprd0_si801 quick_test/data-fmllr-tri3/train/data/feats_fmllr_train.8.ark:9472156
mdss1_sx427 quick_test/data-fmllr-tri3/train/data/feats_fmllr_train.5.ark:9169329
fjrb0_sx402 quick_test/data-fmllr-tri3/train/data/feats_fmllr_train.2.ark:2655562
mmlm0_sx87 quick_test/data-fmllr-tri3/train/data/feats_fmllr_train.8.ark:1725232
mmds0_si1973 quick_test/data-fmllr-tri3/train/data/feats_fmllr_train.7.ark:17077214
fskc0_sx66 quick_test/data-fmllr-tri3/train/data/feats_fmllr_train.3.ark:10309146
mrhl0_sx75 quick_test/data-fmllr-tri3/train/data/feats_fmllr_train.9.ark:748417
mmws0_sx348 quick_test/data-fmllr-tri3/train/data/feats_fmllr_train.8.ark:4159761
mmjb1_si2038 quick_test/data-fmllr-tri3/train/data/feats_fmllr_train.8.ark:1082614
mkdd0_si1567 quick_test/data-fmllr-tri3/train/data/feats_fmllr_train.7.ark:5940067
fdmy0_sx117 quick_test/data-fmllr-tri3/train/data/feats_fmllr_train.1.ark:11877326
msas0_sx296 quick_test/data-fmllr-tri3/train/data/feats_fmllr_train.9.ark:11770951
mvrw0_sx135 quick_test/data-fmllr-tri3/train/data/feats_fmllr_train.10.ark:13226617
mmxs0_si2136 quick_test/data-fmllr-tri3/train/data/feats_fmllr_train.8.ark:4612859
fkfb0_sx258 quick_test/data-fmllr-tri3/train/data/feats_fmllr_train.2.ark:6635439
fsjk1_si696 quick_test/data-fmllr-tri3/train/data/feats_fmllr_train.3.ark:8907561
fsmm0_sx324 quick_test/data-fmllr-tri3/train/data/feats_fmllr_train.3.ark:12132259
marw0_sx376 quick_test/data-fmllr-tri3/train/data/feats_fmllr_train.4.ark:3328821
mjra0_sx66 quick_test/data-fmllr-tri3/train/data/feats_fmllr_train.6.ark:17569164
mdbp0_sx438 quick_test/data-fmllr-tri3/train/data/feats_fmllr_train.4.ark:15781551
fjsp0_si1763 quick_test/data-fmllr-tri3/train/data/feats_fmllr_train.2.ark:3728719
mjsr0_sx74 quick_test/data-fmllr-tri3/train/data/feats_fmllr_train.7.ark:1893391
fltm0_sx260 quick_test/data-fmllr-tri3/train/data/feats_fmllr_train.2.ark:14111088
