msmc0_sx107 quick_test/mfcc/raw_mfcc_train.4.ark:2117618
mjeb0_si1286 quick_test/mfcc/raw_mfcc_train.3.ark:844007
msat0_sx446 quick_test/mfcc/raw_mfcc_train.4.ark:1789518
mkah0_si898 quick_test/mfcc/raw_mfcc_train.3.ark:1891593
falr0_si1325 quick_test/mfcc/raw_mfcc_train.1.ark:101592
mlns0_sx327 quick_test/mfcc/raw_mfcc_train.3.ark:2523524
mrms0_sx210 quick_test/mfcc/raw_mfcc_train.4.ark:1359059
msmr0_si1405 quick_test/mfcc/raw_mfcc_train.4.ark:2143895
flet0_sx147 quick_test/mfcc/raw_mfcc_train.1.ark:2439625
fspm0_si611 quick_test/mfcc/raw_mfcc_train.2.ark:321188
mmeb0_sx187 quick_test/mfcc/raw_mfcc_train.3.ark:3006887
mtbc0_si543 quick_test/mfcc/raw_mfcc_train.4.ark:2478193
fceg0_sx168 quick_test/mfcc/raw_mfcc_train.1.ark:519704
mcae0_sx187 quick_test/mfcc/raw_mfcc_train.2.ark:1456784
mmdm1_sx333 quick_test/mfcc/raw_mfcc_train.3.ark:2927872
mkjo0_sx437 quick_test/mfcc/raw_mfcc_train.3.ark:2134417
mrab1_sx398 quick_test/mfcc/raw_mfcc_train.4.ark:245922
mrcw0_si741 quick_test/mfcc/raw_mfcc_train.4.ark:425008
mfwk0_sx349 quick_test/mfcc/raw_mfcc_train.2.ark:3507967
fmjf0_sx84 quick_test/mfcc/raw_mfcc_train.1.ark:2946885
mgak0_sx46 quick_test/mfcc/raw_mfcc_train.2.ark:3674992
mrbc0_si1859 quick_test/mfcc/raw_mfcc_train.4.ark:349318
mtkd0_sx197 quick_test/mfcc/raw_mfcc_train.4.ark:2797109
mjkr0_si571 quick_test/mfcc/raw_mfcc_train.3.ark:1148319
mrlk0_sx393 quick_test/mfcc/raw_mfcc_train.4.ark:1172769
mbef0_sx291 quick_test/mfcc/raw_mfcc_train.2.ark:1151333
fpad0_sx356 quick_test/mfcc/raw_mfcc_train.1.ark:3285763
fsma0_sx271 quick_test/mfcc/raw_mfcc_train.2.ark:226131
mpfu0_si1258 quick_test/mfcc/raw_mfcc_train.3.ark:3565225
mdas0_sx21 quick_test/mfcc/raw_mfcc_train.2.ark:2013039
feeh0_si471 quick_test/mfcc/raw_mfcc_train.1.ark:1235086
mlbc0_sx69 quick_test/mfcc/raw_mfcc_train.3.ark:2391424
mrav0_si1008 quick_test/mfcc/raw_mfcc_train.4.ark:317064
fdxw0_sx431 quick_test/mfcc/raw_mfcc_train.1.ark:1114285
mkls0_sx447 quick_test/mfcc/raw_mfcc_train.3.ark:2229971
mmab1_si864 quick_test/mfcc/raw_mfcc_train.3.ark:2610267
fklh0_sx267 quick_test/mfcc/raw_mfcc_train.1.ark:2276131
mtxs0_sx340 quick_test/mfcc/raw_mfcc_train.4.ark:3321377
mjsr0_sx74 quick_test/mfcc/raw_mfcc_train.3.ark:1672024
fgmb0_sx335 quick_test/mfcc/raw_mfcc_train.1.ark:1456450
mfxv0_sx375 quick_test/mfcc/raw_mfcc_train.2.ark:3579544
ftlg0_sx123 quick_test/mfcc/raw_mfcc_train.2.ark:518070
fljg0_si2241 quick_test/mfcc/raw_mfcc_train.1.ark:2558206
mmgg0_si2339 quick_test/mfcc/raw_mfcc_train.3.ark:3064350
mrkm0_si637 quick_test/mfcc/raw_mfcc_train.4.ark:1030184
mrxb0_sx55 quick_test/mfcc/raw_mfcc_train.4.ark:1702902
mjhi0_sx68 quick_test/mfcc/raw_mfcc_train.3.ark:1033139
mcdc0_si1922 quick_test/mfcc/raw_mfcc_train.2.ark:1513731
mbgt0_sx351 quick_test/mfcc/raw_mfcc_train.2.ark:1178840
fvkb0_sx169 quick_test/mfcc/raw_mfcc_train.2.ark:606980
mjrp0_si585 quick_test/mfcc/raw_mfcc_train.3.ark:1614629
mlns0_sx417 quick_test/mfcc/raw_mfcc_train.3.ark:2528445
fvmh0_sx296 quick_test/mfcc/raw_mfcc_train.2.ark:654403
madc0_sx287 quick_test/mfcc/raw_mfcc_train.2.ark:714031
fgcs0_si2116 quick_test/mfcc/raw_mfcc_train.1.ark:1368012
mrlj1_si2332 quick_test/mfcc/raw_mfcc_train.4.ark:1124942
mjdc0_sx171 quick_test/mfcc/raw_mfcc_train.3.ark:717311
mree0_si1959 quick_test/mfcc/raw_mfcc_train.4.ark:547698
mclk0_sx130 quick_test/mfcc/raw_mfcc_train.2.ark:1725208
mmdb0_sx177 quick_test/mfcc/raw_mfcc_train.3.ark:2825481
mdem0_sx428 quick_test/mfcc/raw_mfcc_train.2.ark:2277395
fmkc0_sx82 quick_test/mfcc/raw_mfcc_train.1.ark:3015627
fapb0_sx73 quick_test/mfcc/raw_mfcc_train.1.ark:167544
mreh1_si969 quick_test/mfcc/raw_mfcc_train.4.ark:579202
mrbc0_sx59 quick_test/mfcc/raw_mfcc_train.4.ark:374592
mhmr0_si489 quick_test/mfcc/raw_mfcc_train.3.ark:426295
fdml0_si2075 quick_test/mfcc/raw_mfcc_train.1.ark:956169
mmar0_sx346 quick_test/mfcc/raw_mfcc_train.3.ark:2730255
fklc1_sx58 quick_test/mfcc/raw_mfcc_train.1.ark:2255658
mesg0_si1962 quick_test/mfcc/raw_mfcc_train.2.ark:3313118
mdhl0_sx359 quick_test/mfcc/raw_mfcc_train.2.ark:2306318
mzmb0_sx446 quick_test/mfcc/raw_mfcc_train.4.ark:3802331
fnkl0_sx82 quick_test/mfcc/raw_mfcc_train.1.ark:3155133
mgar0_si1212 quick_test/mfcc/raw_mfcc_train.3.ark:13
mmjb1_sx238 quick_test/mfcc/raw_mfcc_train.3.ark:3128412
makr0_sx182 quick_test/mfcc/raw_mfcc_train.2.ark:928081
mrre0_si1334 quick_test/mfcc/raw_mfcc_train.4.ark:1397963
fjsp0_si1763 quick_test/mfcc/raw_mfcc_train.1.ark:1893984
mtqc0_sx451 quick_test/mfcc/raw_mfcc_train.4.ark:3166451
mmvp0_sx204 quick_test/mfcc/raw_mfcc_train.3.ark:3296098
mnet0_sx276 quick_test/mfcc/raw_mfcc_train.3.ark:3458947
mcdd0_si1513 quick_test/mfcc/raw_mfcc_train.2.ark:1540625
mjjb0_sx59 quick_test/mfcc/raw_mfcc_train.3.ark:1066568
fljg0_si1611 quick_test/mfcc/raw_mfcc_train.1.ark:2553648
fblv0_sx158 quick_test/mfcc/raw_mfcc_train.1.ark:323517
mtrc0_sx170 quick_test/mfcc/raw_mfcc_train.4.ark:3188963
mdmt0_si1832 quick_test/mfcc/raw_mfcc_train.2.ark:2716291
mklr0_si1059 quick_test/mfcc/raw_mfcc_train.3.ark:2173319
fear0_sx352 quick_test/mfcc/raw_mfcc_train.1.ark:1172658
mjjb0_sx239 quick_test/mfcc/raw_mfcc_train.3.ark:1053132
mjhi0_si1328 quick_test/mfcc/raw_mfcc_train.3.ark:1004127
mlns0_sx57 quick_test/mfcc/raw_mfcc_train.3.ark:2532936
mfrm0_si1717 quick_test/mfcc/raw_mfcc_train.2.ark:3464565
fdjh0_sx125 quick_test/mfcc/raw_mfcc_train.1.ark:892997
fjlg0_sx269 quick_test/mfcc/raw_mfcc_train.1.ark:1731726
fsag0_sx333 quick_test/mfcc/raw_mfcc_train.1.ark:3575759
marw0_sx16 quick_test/mfcc/raw_mfcc_train.2.ark:1017971
ftbw0_sx175 quick_test/mfcc/raw_mfcc_train.2.ark:482589
mbma0_sx142 quick_test/mfcc/raw_mfcc_train.2.ark:1231915
fsgf0_sx27 quick_test/mfcc/raw_mfcc_train.1.ark:3814734
fajw0_si1893 quick_test/mfcc/raw_mfcc_train.1.ark:39403
mjls0_si466 quick_test/mfcc/raw_mfcc_train.3.ark:1243859
mrld0_sx334 quick_test/mfcc/raw_mfcc_train.4.ark:1077021
fpjf0_si1676 quick_test/mfcc/raw_mfcc_train.1.ark:3374054
mjdg0_sx52 quick_test/mfcc/raw_mfcc_train.3.ark:804513
mgrp0_si687 quick_test/mfcc/raw_mfcc_train.3.ark:166923
mkls0_si1533 quick_test/mfcc/raw_mfcc_train.3.ark:2209044
mcdr0_si1784 quick_test/mfcc/raw_mfcc_train.2.ark:1574724
mded0_si1170 quick_test/mfcc/raw_mfcc_train.2.ark:2183638
fsjg0_si2200 quick_test/mfcc/raw_mfcc_train.1.ark:3829168
fbmh0_si970 quick_test/mfcc/raw_mfcc_train.1.ark:351582
marw0_sx286 quick_test/mfcc/raw_mfcc_train.2.ark:1021553
mrmg0_sx90 quick_test/mfcc/raw_mfcc_train.4.ark:1266749
mbom0_si1014 quick_test/mfcc/raw_mfcc_train.2.ark:1316226
mjdc0_sx81 quick_test/mfcc/raw_mfcc_train.3.ark:731300
freh0_si1945 quick_test/mfcc/raw_mfcc_train.1.ark:3468778
ftaj0_sx159 quick_test/mfcc/raw_mfcc_train.2.ark:422753
mgxp0_si525 quick_test/mfcc/raw_mfcc_train.3.ark:274301
mmag0_si1126 quick_test/mfcc/raw_mfcc_train.3.ark:2639403
fpaz0_sx153 quick_test/mfcc/raw_mfcc_train.1.ark:3345326
mmgc0_si2184 quick_test/mfcc/raw_mfcc_train.3.ark:3035575
mjai0_sx344 quick_test/mfcc/raw_mfcc_train.3.ark:633523
mesg0_si1332 quick_test/mfcc/raw_mfcc_train.2.ark:3309106
mtjg0_sx80 quick_test/mfcc/raw_mfcc_train.4.ark:2671185
mdlc0_si1395 quick_test/mfcc/raw_mfcc_train.2.ark:2451973
mrlj0_sx70 quick_test/mfcc/raw_mfcc_train.4.ark:1114115
mjjm0_sx107 quick_test/mfcc/raw_mfcc_train.3.ark:1121723
mwad0_si1749 quick_test/mfcc/raw_mfcc_train.4.ark:3468560
mmdb0_si987 quick_test/mfcc/raw_mfcc_train.3.ark:2819806
mrdd0_sx150 quick_test/mfcc/raw_mfcc_train.4.ark:458470
fapb0_si2323 quick_test/mfcc/raw_mfcc_train.1.ark:141081
mjpm1_sx221 quick_test/mfcc/raw_mfcc_train.3.ark:1428660
fssb0_sx452 quick_test/mfcc/raw_mfcc_train.2.ark:403218
mprd0_si801 quick_test/mfcc/raw_mfcc_train.4.ark:61667
mgrp0_sx327 quick_test/mfcc/raw_mfcc_train.3.ark:178904
mrld0_sx154 quick_test/mfcc/raw_mfcc_train.4.ark:1070598
msdh0_si2240 quick_test/mfcc/raw_mfcc_train.4.ark:1852368
fsdc0_sx232 quick_test/mfcc/raw_mfcc_train.1.ark:3749107
mtlc0_sx127 quick_test/mfcc/raw_mfcc_train.4.ark:2892388
mdwm0_si916 quick_test/mfcc/raw_mfcc_train.2.ark:3099230
fmpg0_si972 quick_test/mfcc/raw_mfcc_train.1.ark:3094956
msmr0_sx415 quick_test/mfcc/raw_mfcc_train.4.ark:2161896
mtrt0_sx254 quick_test/mfcc/raw_mfcc_train.4.ark:3258433
madd0_si538 quick_test/mfcc/raw_mfcc_train.2.ark:729583
mdac0_sx361 quick_test/mfcc/raw_mfcc_train.2.ark:1984247
fmju0_sx309 quick_test/mfcc/raw_mfcc_train.1.ark:2974086
fsdc0_sx52 quick_test/mfcc/raw_mfcc_train.1.ark:3759813
mgag0_si691 quick_test/mfcc/raw_mfcc_train.2.ark:3620014
mjwg0_sx265 quick_test/mfcc/raw_mfcc_train.3.ark:1700127
msat0_sx266 quick_test/mfcc/raw_mfcc_train.4.ark:1783758
mprb0_sx395 quick_test/mfcc/raw_mfcc_train.4.ark:49762
mrxb0_sx415 quick_test/mfcc/raw_mfcc_train.4.ark:1699321
mwdk0_sx266 quick_test/mfcc/raw_mfcc_train.4.ark:3565514
mpgh0_sx294 quick_test/mfcc/raw_mfcc_train.3.ark:3621522
fpmy0_sx196 quick_test/mfcc/raw_mfcc_train.1.ark:3448501
feeh0_sx392 quick_test/mfcc/raw_mfcc_train.1.ark:1254971
mdlb0_sx46 quick_test/mfcc/raw_mfcc_train.2.ark:2448572
mtab0_sx312 quick_test/mfcc/raw_mfcc_train.4.ark:2363612
fpaz0_sx27 quick_test/mfcc/raw_mfcc_train.1.ark:3354010
fmju0_sx39 quick_test/mfcc/raw_mfcc_train.1.ark:2978577
maeb0_sx270 quick_test/mfcc/raw_mfcc_train.2.ark:770994
mwrp0_sx3 quick_test/mfcc/raw_mfcc_train.4.ark:3699832
mmag0_sx46 quick_test/mfcc/raw_mfcc_train.3.ark:2672641
mmdg0_si1780 quick_test/mfcc/raw_mfcc_train.3.ark:2841298
fmah1_sx69 quick_test/mfcc/raw_mfcc_train.1.ark:2812161
ftmg0_sx182 quick_test/mfcc/raw_mfcc_train.2.ark:548573
mmar0_si1966 quick_test/mfcc/raw_mfcc_train.3.ark:2708894
mdbp0_si1158 quick_test/mfcc/raw_mfcc_train.2.ark:2055594
mrds0_sx87 quick_test/mfcc/raw_mfcc_train.4.ark:534349
fetb0_si518 quick_test/mfcc/raw_mfcc_train.1.ark:1302891
mtjm0_sx236 quick_test/mfcc/raw_mfcc_train.4.ark:2691970
fklc0_sx85 quick_test/mfcc/raw_mfcc_train.1.ark:2224426
mrtc0_sx288 quick_test/mfcc/raw_mfcc_train.4.ark:1536197
fceg0_sx78 quick_test/mfcc/raw_mfcc_train.1.ark:534512
mdtb0_si570 quick_test/mfcc/raw_mfcc_train.2.ark:3001389
mtcs0_si712 quick_test/mfcc/raw_mfcc_train.4.ark:2508462
mvlo0_sx67 quick_test/mfcc/raw_mfcc_train.4.ark:3393355
mljh0_si1324 quick_test/mfcc/raw_mfcc_train.3.ark:2464398
mcdr0_sx164 quick_test/mfcc/raw_mfcc_train.2.ark:1587491
mkls1_sx15 quick_test/mfcc/raw_mfcc_train.3.ark:2254011
mjls0_si1726 quick_test/mfcc/raw_mfcc_train.3.ark:1236429
mwrp0_si1443 quick_test/mfcc/raw_mfcc_train.4.ark:3678282
mddc0_sx339 quick_test/mfcc/raw_mfcc_train.2.ark:2173659
fecd0_sx428 quick_test/mfcc/raw_mfcc_train.1.ark:1217065
msmc0_si509 quick_test/mfcc/raw_mfcc_train.4.ark:2107451
mmds0_si713 quick_test/mfcc/raw_mfcc_train.3.ark:2948890
mgsl0_sx174 quick_test/mfcc/raw_mfcc_train.3.ark:241960
mrlr0_sx206 quick_test/mfcc/raw_mfcc_train.4.ark:1193138
mbcg0_sx327 quick_test/mfcc/raw_mfcc_train.2.ark:1117535
fsjk1_sx215 quick_test/mfcc/raw_mfcc_train.2.ark:12
mdlc1_sx355 quick_test/mfcc/raw_mfcc_train.2.ark:2509371
mpfu0_sx358 quick_test/mfcc/raw_mfcc_train.3.ark:3586113
mhrm0_sx328 quick_test/mfcc/raw_mfcc_train.3.ark:467583
mtpp0_sx248 quick_test/mfcc/raw_mfcc_train.4.ark:3083006
fbas0_si1472 quick_test/mfcc/raw_mfcc_train.1.ark:177011
mrvg0_sx150 quick_test/mfcc/raw_mfcc_train.4.ark:1595935
mdjm0_sx15 quick_test/mfcc/raw_mfcc_train.2.ark:2366536
frll0_sx164 quick_test/mfcc/raw_mfcc_train.1.ark:3536935
mbgt0_si711 quick_test/mfcc/raw_mfcc_train.2.ark:1165442
fcke0_si481 quick_test/mfcc/raw_mfcc_train.1.ark:600572
mrfk0_si1706 quick_test/mfcc/raw_mfcc_train.4.ark:676007
fskc0_si1416 quick_test/mfcc/raw_mfcc_train.2.ark:83822
mtbc0_sx183 quick_test/mfcc/raw_mfcc_train.4.ark:2484440
mrsp0_sx259 quick_test/mfcc/raw_mfcc_train.4.ark:1497316
mstf0_sx316 quick_test/mfcc/raw_mfcc_train.4.ark:2286148
msdb0_sx287 quick_test/mfcc/raw_mfcc_train.4.ark:1844701
mhjb0_sx207 quick_test/mfcc/raw_mfcc_train.3.ark:376496
fsjs0_si1801 quick_test/mfcc/raw_mfcc_train.2.ark:17143
mklw0_si1844 quick_test/mfcc/raw_mfcc_train.3.ark:2275030
mklr0_sx159 quick_test/mfcc/raw_mfcc_train.3.ark:2183781
mrgm0_sx82 quick_test/mfcc/raw_mfcc_train.4.ark:770920
fcmm0_si1957 quick_test/mfcc/raw_mfcc_train.1.ark:691984
mmab1_sx234 quick_test/mfcc/raw_mfcc_train.3.ark:2620629
mpgh0_sx24 quick_test/mfcc/raw_mfcc_train.3.ark:3618915
mdpb0_sx146 quick_test/mfcc/raw_mfcc_train.2.ark:2794258
fdas1_si2091 quick_test/mfcc/raw_mfcc_train.1.ark:790422
msrg0_sx411 quick_test/mfcc/raw_mfcc_train.4.ark:2224319
mgag0_si645 quick_test/mfcc/raw_mfcc_train.2.ark:3617420
fmjf0_sx264 quick_test/mfcc/raw_mfcc_train.1.ark:2935152
mfmc0_sx412 quick_test/mfcc/raw_mfcc_train.2.ark:3451179
flja0_si2338 quick_test/mfcc/raw_mfcc_train.1.ark:2496245
mjrh0_sx405 quick_test/mfcc/raw_mfcc_train.3.ark:1537877
megj0_sx167 quick_test/mfcc/raw_mfcc_train.2.ark:3228060
mbom0_sx311 quick_test/mfcc/raw_mfcc_train.2.ark:1336810
mgrl0_sx57 quick_test/mfcc/raw_mfcc_train.3.ark:155109
ftlg0_sx393 quick_test/mfcc/raw_mfcc_train.2.ark:532813
mppc0_si2042 quick_test/mfcc/raw_mfcc_train.3.ark:3749949
mbsb0_si723 quick_test/mfcc/raw_mfcc_train.2.ark:1351192
mjsr0_si2054 quick_test/mfcc/raw_mfcc_train.3.ark:1641329
mreh1_sx159 quick_test/mfcc/raw_mfcc_train.4.ark:586190
ftmg0_si902 quick_test/mfcc/raw_mfcc_train.2.ark:541923
mgxp0_sx187 quick_test/mfcc/raw_mfcc_train.3.ark:280405
mrlj1_sx51 quick_test/mfcc/raw_mfcc_train.4.ark:1140927
mrjm1_sx218 quick_test/mfcc/raw_mfcc_train.4.ark:966917
mmam0_si1597 quick_test/mfcc/raw_mfcc_train.3.ark:2676029
mtml0_si1065 quick_test/mfcc/raw_mfcc_train.4.ark:2906190
mjlg1_sx22 quick_test/mfcc/raw_mfcc_train.3.ark:1220955
fsak0_sx40 quick_test/mfcc/raw_mfcc_train.1.ark:3651851
fmjf0_si1254 quick_test/mfcc/raw_mfcc_train.1.ark:2917755
fsms1_sx64 quick_test/mfcc/raw_mfcc_train.2.ark:306956
mdwd0_si557 quick_test/mfcc/raw_mfcc_train.2.ark:3034246
mcew0_sx92 quick_test/mfcc/raw_mfcc_train.2.ark:1672678
fpac0_sx121 quick_test/mfcc/raw_mfcc_train.1.ark:3243091
mjrh0_sx225 quick_test/mfcc/raw_mfcc_train.3.ark:1531142
mkah0_sx178 quick_test/mfcc/raw_mfcc_train.3.ark:1895227
mtas0_sx305 quick_test/mfcc/raw_mfcc_train.4.ark:2393699
mprd0_sx171 quick_test/mfcc/raw_mfcc_train.4.ark:68954
fskp0_sx108 quick_test/mfcc/raw_mfcc_train.2.ark:158669
fsrh0_si1931 quick_test/mfcc/raw_mfcc_train.2.ark:348161
meal0_si2177 quick_test/mfcc/raw_mfcc_train.2.ark:3127126
fcrz0_sx73 quick_test/mfcc/raw_mfcc_train.1.ark:746513
mwem0_si1320 quick_test/mfcc/raw_mfcc_train.4.ark:3579855
mgak0_sx136 quick_test/mfcc/raw_mfcc_train.2.ark:3655127
mpsw0_sx437 quick_test/mfcc/raw_mfcc_train.4.ark:177110
mmcc0_si708 quick_test/mfcc/raw_mfcc_train.3.ark:2789797
fmjf0_si1884 quick_test/mfcc/raw_mfcc_train.1.ark:2920935
mdef0_sx123 quick_test/mfcc/raw_mfcc_train.2.ark:2231792
mrwa0_si1603 quick_test/mfcc/raw_mfcc_train.4.ark:1614521
mdsj0_sx112 quick_test/mfcc/raw_mfcc_train.2.ark:2919832
fpab1_sx391 quick_test/mfcc/raw_mfcc_train.1.ark:3224107
mrso0_sx219 quick_test/mfcc/raw_mfcc_train.4.ark:1456796
mrab0_si1224 quick_test/mfcc/raw_mfcc_train.4.ark:184547
mvrw0_si2115 quick_test/mfcc/raw_mfcc_train.4.ark:3403628
mmdg0_sx70 quick_test/mfcc/raw_mfcc_train.3.ark:2874666
mnet0_sx96 quick_test/mfcc/raw_mfcc_train.3.ark:3469378
msvs0_sx218 quick_test/mfcc/raw_mfcc_train.4.ark:2319660
mewm0_si1978 quick_test/mfcc/raw_mfcc_train.2.ark:3372887
mppc0_sx422 quick_test/mfcc/raw_mfcc_train.4.ark:7917
fajw0_si1263 quick_test/mfcc/raw_mfcc_train.1.ark:32804
fdxw0_sx71 quick_test/mfcc/raw_mfcc_train.1.ark:1118061
ftlg0_si483 quick_test/mfcc/raw_mfcc_train.2.ark:508163
mtlc0_sx397 quick_test/mfcc/raw_mfcc_train.4.ark:2902815
mjjj0_sx83 quick_test/mfcc/raw_mfcc_train.3.ark:1102674
fdaw0_si2036 quick_test/mfcc/raw_mfcc_train.1.ark:827485
msvs0_si1568 quick_test/mfcc/raw_mfcc_train.4.ark:2298857
msfv0_si1262 quick_test/mfcc/raw_mfcc_train.4.ark:2032931
mtju0_si760 quick_test/mfcc/raw_mfcc_train.4.ark:2751493
fdjh0_sx215 quick_test/mfcc/raw_mfcc_train.1.ark:896215
fsrh0_sx401 quick_test/mfcc/raw_mfcc_train.2.ark:368827
mbbr0_si1685 quick_test/mfcc/raw_mfcc_train.2.ark:1075655
mmdm0_sx231 quick_test/mfcc/raw_mfcc_train.3.ark:2893397
mvrw0_si855 quick_test/mfcc/raw_mfcc_train.4.ark:3405325
mljc0_sx235 quick_test/mfcc/raw_mfcc_train.3.ark:2449589
mdpk0_sx63 quick_test/mfcc/raw_mfcc_train.2.ark:2838178
fkkh0_sx300 quick_test/mfcc/raw_mfcc_train.1.ark:2186597
mmea0_si2018 quick_test/mfcc/raw_mfcc_train.3.ark:2972756
mrbc0_si599 quick_test/mfcc/raw_mfcc_train.4.ark:352900
mdwd0_sx90 quick_test/mfcc/raw_mfcc_train.2.ark:3050647
mkrg0_sx411 quick_test/mfcc/raw_mfcc_train.3.ark:2325952
fkfb0_si1608 quick_test/mfcc/raw_mfcc_train.1.ark:2120926
mmwb0_si989 quick_test/mfcc/raw_mfcc_train.3.ark:3326198
mwem0_sx330 quick_test/mfcc/raw_mfcc_train.4.ark:3598495
fsjw0_sx343 quick_test/mfcc/raw_mfcc_train.2.ark:70151
mdks0_sx256 quick_test/mfcc/raw_mfcc_train.2.ark:2395793
mtjg0_si2157 quick_test/mfcc/raw_mfcc_train.4.ark:2644494
fksr0_sx37 quick_test/mfcc/raw_mfcc_train.1.ark:2317762
mrlr0_si1826 quick_test/mfcc/raw_mfcc_train.4.ark:1182249
fkaa0_sx398 quick_test/mfcc/raw_mfcc_train.1.ark:2047847
mrmh0_sx31 quick_test/mfcc/raw_mfcc_train.4.ark:1294828
mjmd0_si2288 quick_test/mfcc/raw_mfcc_train.3.ark:1300485
mgaw0_sx175 quick_test/mfcc/raw_mfcc_train.3.ark:46165
mtpp0_si2138 quick_test/mfcc/raw_mfcc_train.4.ark:3073469
mcre0_sx41 quick_test/mfcc/raw_mfcc_train.2.ark:1828769
fsma0_sx361 quick_test/mfcc/raw_mfcc_train.2.ark:229882
mtqc0_sx91 quick_test/mfcc/raw_mfcc_train.4.ark:3173243
msds0_sx177 quick_test/mfcc/raw_mfcc_train.4.ark:1900397
fsjg0_sx130 quick_test/mfcc/raw_mfcc_train.1.ark:3840635
mrbc0_sx329 quick_test/mfcc/raw_mfcc_train.4.ark:365427
mapv0_sx213 quick_test/mfcc/raw_mfcc_train.2.ark:963856
mhrm0_sx418 quick_test/mfcc/raw_mfcc_train.3.ark:471672
mtlb0_si504 quick_test/mfcc/raw_mfcc_train.4.ark:2852518
fsbk0_sx259 quick_test/mfcc/raw_mfcc_train.1.ark:3673892
mjjj0_sx353 quick_test/mfcc/raw_mfcc_train.3.ark:1094757
fskc0_si2046 quick_test/mfcc/raw_mfcc_train.2.ark:87366
msah1_si2309 quick_test/mfcc/raw_mfcc_train.4.ark:1712286
fltm0_sx80 quick_test/mfcc/raw_mfcc_train.1.ark:2782152
mmdm0_sx411 quick_test/mfcc/raw_mfcc_train.3.ark:2900379
mjsr0_sx344 quick_test/mfcc/raw_mfcc_train.3.ark:1663574
mfrm0_sx435 quick_test/mfcc/raw_mfcc_train.2.ark:3482411
mpar0_sx226 quick_test/mfcc/raw_mfcc_train.3.ark:3522851
mtat0_sx210 quick_test/mfcc/raw_mfcc_train.4.ark:2422895
fmem0_sx207 quick_test/mfcc/raw_mfcc_train.1.ark:2866568
fpmy0_sx163 quick_test/mfcc/raw_mfcc_train.1.ark:3444451
mmcc0_sx168 quick_test/mfcc/raw_mfcc_train.3.ark:2794081
msvs0_sx398 quick_test/mfcc/raw_mfcc_train.4.ark:2333460
fajw0_sx183 quick_test/mfcc/raw_mfcc_train.1.ark:49518
fsah0_sx74 quick_test/mfcc/raw_mfcc_train.1.ark:3624137
mafm0_sx39 quick_test/mfcc/raw_mfcc_train.2.ark:837305
mpeb0_si1860 quick_test/mfcc/raw_mfcc_train.3.ark:3537837
mlel0_sx76 quick_test/mfcc/raw_mfcc_train.3.ark:2427530
mljc0_sx415 quick_test/mfcc/raw_mfcc_train.3.ark:2457104
mdef0_si1563 quick_test/mfcc/raw_mfcc_train.2.ark:2224900
mjra0_sx336 quick_test/mfcc/raw_mfcc_train.3.ark:1467087
fsjw0_sx73 quick_test/mfcc/raw_mfcc_train.2.ark:79329
fbas0_si2066 quick_test/mfcc/raw_mfcc_train.1.ark:182895
mses0_si2219 quick_test/mfcc/raw_mfcc_train.4.ark:1972018
mjwg0_sx85 quick_test/mfcc/raw_mfcc_train.3.ark:1711145
makr0_sx452 quick_test/mfcc/raw_mfcc_train.2.ark:936396
fcjs0_si977 quick_test/mfcc/raw_mfcc_train.1.ark:567365
mrsp0_sx439 quick_test/mfcc/raw_mfcc_train.4.ark:1501236
mjlb0_si986 quick_test/mfcc/raw_mfcc_train.3.ark:1180824
msfh0_sx226 quick_test/mfcc/raw_mfcc_train.4.ark:2014833
ftbr0_si921 quick_test/mfcc/raw_mfcc_train.2.ark:447425
mrjb1_si2021 quick_test/mfcc/raw_mfcc_train.4.ark:852293
mcdc0_si662 quick_test/mfcc/raw_mfcc_train.2.ark:1516949
mwch0_sx452 quick_test/mfcc/raw_mfcc_train.4.ark:3539640
mjlb0_sx356 quick_test/mfcc/raw_mfcc_train.3.ark:1191973
fcag0_si1503 quick_test/mfcc/raw_mfcc_train.1.ark:410713
mlsh0_si1417 quick_test/mfcc/raw_mfcc_train.3.ark:2536064
mclm0_sx286 quick_test/mfcc/raw_mfcc_train.2.ark:1764181
mjxa0_si877 quick_test/mfcc/raw_mfcc_train.3.ark:1794092
mrld0_sx64 quick_test/mfcc/raw_mfcc_train.4.ark:1083417
mjxl0_sx92 quick_test/mfcc/raw_mfcc_train.3.ark:1845715
mdbb1_sx106 quick_test/mfcc/raw_mfcc_train.2.ark:2038269
mmsm0_si1736 quick_test/mfcc/raw_mfcc_train.3.ark:3247361
mrds0_sx357 quick_test/mfcc/raw_mfcc_train.4.ark:526991
mrfk0_sx176 quick_test/mfcc/raw_mfcc_train.4.ark:680949
fdtd0_si931 quick_test/mfcc/raw_mfcc_train.1.ark:1065839
mklr0_sx429 quick_test/mfcc/raw_mfcc_train.3.ark:2194735
mmar0_sx256 quick_test/mfcc/raw_mfcc_train.3.ark:2725568
mjmd0_sx38 quick_test/mfcc/raw_mfcc_train.3.ark:1316333
mmeb0_sx97 quick_test/mfcc/raw_mfcc_train.3.ark:3021849
mjws0_sx423 quick_test/mfcc/raw_mfcc_train.3.ark:1740654
fcag0_sx333 quick_test/mfcc/raw_mfcc_train.1.ark:426753
mram0_sx15 quick_test/mfcc/raw_mfcc_train.4.ark:301981
msmc0_sx287 quick_test/mfcc/raw_mfcc_train.4.ark:2128870
mrjb1_sx30 quick_test/mfcc/raw_mfcc_train.4.ark:867497
mrdd0_si1050 quick_test/mfcc/raw_mfcc_train.4.ark:445980
mpmb0_sx241 quick_test/mfcc/raw_mfcc_train.3.ark:3718934
mafm0_sx129 quick_test/mfcc/raw_mfcc_train.2.ark:825715
mdlr1_sx39 quick_test/mfcc/raw_mfcc_train.2.ark:2670250
freh0_si685 quick_test/mfcc/raw_mfcc_train.1.ark:3474141
fpaz0_sx423 quick_test/mfcc/raw_mfcc_train.1.ark:3356539
mklr0_si1689 quick_test/mfcc/raw_mfcc_train.3.ark:2178566
mrjm0_sx328 quick_test/mfcc/raw_mfcc_train.4.ark:936642
maeb0_sx450 quick_test/mfcc/raw_mfcc_train.2.ark:778314
fsag0_si693 quick_test/mfcc/raw_mfcc_train.1.ark:3561321
mdps0_si1979 quick_test/mfcc/raw_mfcc_train.2.ark:2843823
fspm0_sx251 quick_test/mfcc/raw_mfcc_train.2.ark:329275
mbcg0_sx57 quick_test/mfcc/raw_mfcc_train.2.ark:1126986
makb0_si1016 quick_test/mfcc/raw_mfcc_train.2.ark:880109
mfmc0_si1132 quick_test/mfcc/raw_mfcc_train.2.ark:3425084
mfmc0_si502 quick_test/mfcc/raw_mfcc_train.2.ark:3433874
mjeb1_sx387 quick_test/mfcc/raw_mfcc_train.3.ark:905746
mdwm0_sx106 quick_test/mfcc/raw_mfcc_train.2.ark:3105035
mjsr0_sx254 quick_test/mfcc/raw_mfcc_train.3.ark:1659498
fdaw0_sx416 quick_test/mfcc/raw_mfcc_train.1.ark:844569
flmk0_si2295 quick_test/mfcc/raw_mfcc_train.1.ark:2699153
mmeb0_sx367 quick_test/mfcc/raw_mfcc_train.3.ark:3015221
fleh0_si1051 quick_test/mfcc/raw_mfcc_train.1.ark:2392303
fbas0_sx307 quick_test/mfcc/raw_mfcc_train.1.ark:196878
mjae0_si1524 quick_test/mfcc/raw_mfcc_train.3.ark:576776
mdks0_sx436 quick_test/mfcc/raw_mfcc_train.2.ark:2405154
mprb0_sx125 quick_test/mfcc/raw_mfcc_train.4.ark:32679
mbar0_sx149 quick_test/mfcc/raw_mfcc_train.2.ark:1049586
fcrz0_sx343 quick_test/mfcc/raw_mfcc_train.1.ark:738362
flmc0_si1372 quick_test/mfcc/raw_mfcc_train.1.ark:2657311
mlel0_si616 quick_test/mfcc/raw_mfcc_train.3.ark:2402562
fdmy0_si1197 quick_test/mfcc/raw_mfcc_train.1.ark:975503
mmwb0_sx359 quick_test/mfcc/raw_mfcc_train.3.ark:3340012
mkag0_sx259 quick_test/mfcc/raw_mfcc_train.3.ark:1868463
mrre0_sx344 quick_test/mfcc/raw_mfcc_train.4.ark:1424414
fcmm0_si1083 quick_test/mfcc/raw_mfcc_train.1.ark:688583
fjkl0_si1562 quick_test/mfcc/raw_mfcc_train.1.ark:1685801
msat1_sx263 quick_test/mfcc/raw_mfcc_train.4.ark:1812546
mmws1_sx351 quick_test/mfcc/raw_mfcc_train.3.ark:3403331
mrab1_sx308 quick_test/mfcc/raw_mfcc_train.4.ark:237576
mrjm1_si668 quick_test/mfcc/raw_mfcc_train.4.ark:959922
mpgh0_si1554 quick_test/mfcc/raw_mfcc_train.3.ark:3599056
mrkm0_sx367 quick_test/mfcc/raw_mfcc_train.4.ark:1044960
mtcs0_si2265 quick_test/mfcc/raw_mfcc_train.4.ark:2506310
fjdm2_si1964 quick_test/mfcc/raw_mfcc_train.1.ark:1584768
fdxw0_si2141 quick_test/mfcc/raw_mfcc_train.1.ark:1095413
fbch0_sx236 quick_test/mfcc/raw_mfcc_train.1.ark:258084
mmlm0_sx177 quick_test/mfcc/raw_mfcc_train.3.ark:3157231
mjde0_sx400 quick_test/mfcc/raw_mfcc_train.3.ark:772293
fjkl0_sx212 quick_test/mfcc/raw_mfcc_train.1.ark:1700923
mcew0_si812 quick_test/mfcc/raw_mfcc_train.2.ark:1646189
mtas0_si755 quick_test/mfcc/raw_mfcc_train.4.ark:2384318
fdxw0_sx341 quick_test/mfcc/raw_mfcc_train.1.ark:1110729
mwch0_si1895 quick_test/mfcc/raw_mfcc_train.4.ark:3524316
fsdc0_si1312 quick_test/mfcc/raw_mfcc_train.1.ark:3733997
mjee0_si607 quick_test/mfcc/raw_mfcc_train.3.ark:918665
fclt0_sx448 quick_test/mfcc/raw_mfcc_train.1.ark:645715
marw0_sx106 quick_test/mfcc/raw_mfcc_train.2.ark:1014039
mjmm0_sx265 quick_test/mfcc/raw_mfcc_train.3.ark:1341246
fceg0_si618 quick_test/mfcc/raw_mfcc_train.1.ark:516395
mklw0_sx311 quick_test/mfcc/raw_mfcc_train.3.ark:2287305
mkes0_si1253 quick_test/mfcc/raw_mfcc_train.3.ark:2077754
mkdt0_sx353 quick_test/mfcc/raw_mfcc_train.3.ark:2065370
mcae0_sx277 quick_test/mfcc/raw_mfcc_train.2.ark:1459859
fspm0_sx161 quick_test/mfcc/raw_mfcc_train.2.ark:324380
mdlb0_si1306 quick_test/mfcc/raw_mfcc_train.2.ark:2413306
mmeb0_si1987 quick_test/mfcc/raw_mfcc_train.3.ark:3001127
mstf0_sx226 quick_test/mfcc/raw_mfcc_train.4.ark:2282293
mwsb0_si1626 quick_test/mfcc/raw_mfcc_train.4.ark:3710084
mdjm0_sx105 quick_test/mfcc/raw_mfcc_train.2.ark:2363514
mclm0_sx16 quick_test/mfcc/raw_mfcc_train.2.ark:1759188
mdbb1_sx376 quick_test/mfcc/raw_mfcc_train.2.ark:2051751
mgaw0_sx445 quick_test/mfcc/raw_mfcc_train.3.ark:57392
mgar0_sx402 quick_test/mfcc/raw_mfcc_train.3.ark:25121
mrws0_si1102 quick_test/mfcc/raw_mfcc_train.4.ark:1645687
mmwb0_sx89 quick_test/mfcc/raw_mfcc_train.3.ark:3352245
feeh0_sx122 quick_test/mfcc/raw_mfcc_train.1.ark:1238447
fmjf0_si624 quick_test/mfcc/raw_mfcc_train.1.ark:2923672
mrgs0_si1356 quick_test/mfcc/raw_mfcc_train.4.ark:774828
mprk0_sx107 quick_test/mfcc/raw_mfcc_train.4.ark:107608
fksr0_sx161 quick_test/mfcc/raw_mfcc_train.1.ark:2304235
mwsb0_si996 quick_test/mfcc/raw_mfcc_train.4.ark:3716690
marw0_si1906 quick_test/mfcc/raw_mfcc_train.2.ark:1007941
mctm0_sx360 quick_test/mfcc/raw_mfcc_train.2.ark:1919523
mrlr0_sx296 quick_test/mfcc/raw_mfcc_train.4.ark:1200756
msrg0_sx321 quick_test/mfcc/raw_mfcc_train.4.ark:2219775
fjlr0_sx331 quick_test/mfcc/raw_mfcc_train.1.ark:1768632
mwsh0_si796 quick_test/mfcc/raw_mfcc_train.4.ark:3747789
mrjb1_sx300 quick_test/mfcc/raw_mfcc_train.4.ark:870325
mmag0_sx316 quick_test/mfcc/raw_mfcc_train.3.ark:2663346
fpad0_si716 quick_test/mfcc/raw_mfcc_train.1.ark:3270220
mwre0_si1687 quick_test/mfcc/raw_mfcc_train.4.ark:3650737
fear0_sx82 quick_test/mfcc/raw_mfcc_train.1.ark:1183526
mtrc0_sx273 quick_test/mfcc/raw_mfcc_train.4.ark:3197336
fmkf0_sx366 quick_test/mfcc/raw_mfcc_train.1.ark:3040761
fjxm0_si1211 quick_test/mfcc/raw_mfcc_train.1.ark:1950574
mdlm0_sx64 quick_test/mfcc/raw_mfcc_train.2.ark:2606261
mcdr0_sx74 quick_test/mfcc/raw_mfcc_train.2.ark:1602221
ftmg0_sx452 quick_test/mfcc/raw_mfcc_train.2.ark:559670
marc0_sx18 quick_test/mfcc/raw_mfcc_train.2.ark:990614
mbgt0_sx261 quick_test/mfcc/raw_mfcc_train.2.ark:1175687
mbma1_sx144 quick_test/mfcc/raw_mfcc_train.2.ark:1264186
fjen0_sx417 quick_test/mfcc/raw_mfcc_train.1.ark:1643765
mtmt0_sx38 quick_test/mfcc/raw_mfcc_train.4.ark:2999973
mrre0_sx74 quick_test/mfcc/raw_mfcc_train.4.ark:1432045
msdb0_sx107 quick_test/mfcc/raw_mfcc_train.4.ark:1837440
fclt0_sx268 quick_test/mfcc/raw_mfcc_train.1.ark:637992
mges0_sx221 quick_test/mfcc/raw_mfcc_train.3.ark:74231
mjmd0_si1028 quick_test/mfcc/raw_mfcc_train.3.ark:1296010
mfmc0_sx142 quick_test/mfcc/raw_mfcc_train.2.ark:3437755
mjdg0_sx322 quick_test/mfcc/raw_mfcc_train.3.ark:797844
mmxs0_sx156 quick_test/mfcc/raw_mfcc_train.3.ark:3424719
freh0_sx235 quick_test/mfcc/raw_mfcc_train.1.ark:3480603
ftlg0_si1743 quick_test/mfcc/raw_mfcc_train.2.ark:501942
fbas0_si1387 quick_test/mfcc/raw_mfcc_train.1.ark:172245
msjk0_sx426 quick_test/mfcc/raw_mfcc_train.4.ark:2096029
fscn0_si626 quick_test/mfcc/raw_mfcc_train.1.ark:3698965
mgjc0_si1335 quick_test/mfcc/raw_mfcc_train.3.ark:94430
mrhl0_sx435 quick_test/mfcc/raw_mfcc_train.4.ark:833010
mjxa0_sx337 quick_test/mfcc/raw_mfcc_train.3.ark:1805358
mjbg0_sx152 quick_test/mfcc/raw_mfcc_train.3.ark:653184
fmkc0_si1072 quick_test/mfcc/raw_mfcc_train.1.ark:2992094
mmsm0_sx386 quick_test/mfcc/raw_mfcc_train.3.ark:3271491
mrlk0_sx213 quick_test/mfcc/raw_mfcc_train.4.ark:1164143
mtwh1_sx432 quick_test/mfcc/raw_mfcc_train.4.ark:3289736
mjlg1_si1012 quick_test/mfcc/raw_mfcc_train.3.ark:1202043
fbas0_sx217 quick_test/mfcc/raw_mfcc_train.1.ark:193725
fmem0_si747 quick_test/mfcc/raw_mfcc_train.1.ark:2858208
fvfb0_sx312 quick_test/mfcc/raw_mfcc_train.2.ark:585994
fmah1_sx249 quick_test/mfcc/raw_mfcc_train.1.ark:2801910
mbom0_sx294 quick_test/mfcc/raw_mfcc_train.2.ark:1333189
mrfl0_sx346 quick_test/mfcc/raw_mfcc_train.4.ark:722854
mcxm0_sx271 quick_test/mfcc/raw_mfcc_train.2.ark:1947458
mfwk0_sx259 quick_test/mfcc/raw_mfcc_train.2.ark:3504307
fsjs0_sx361 quick_test/mfcc/raw_mfcc_train.2.ark:36281
mrjm1_si1298 quick_test/mfcc/raw_mfcc_train.4.ark:950846
fdjh0_si2195 quick_test/mfcc/raw_mfcc_train.1.ark:883298
majp0_si2334 quick_test/mfcc/raw_mfcc_train.2.ark:852455
mntw0_si1068 quick_test/mfcc/raw_mfcc_train.3.ark:3473039
mcre0_si1725 quick_test/mfcc/raw_mfcc_train.2.ark:1806511
flac0_si1339 quick_test/mfcc/raw_mfcc_train.1.ark:2324979
mpar0_si946 quick_test/mfcc/raw_mfcc_train.3.ark:3515076
frjb0_sx257 quick_test/mfcc/raw_mfcc_train.1.ark:3505907
mmxs0_sx246 quick_test/mfcc/raw_mfcc_train.3.ark:3428496
fear0_sx262 quick_test/mfcc/raw_mfcc_train.1.ark:1169102
mdmt0_sx212 quick_test/mfcc/raw_mfcc_train.2.ark:2729970
fjwb1_sx165 quick_test/mfcc/raw_mfcc_train.1.ark:1932638
mjac0_si701 quick_test/mfcc/raw_mfcc_train.3.ark:550422
fbmj0_sx246 quick_test/mfcc/raw_mfcc_train.1.ark:392940
fdkn0_sx181 quick_test/mfcc/raw_mfcc_train.1.ark:924216
msms0_sx83 quick_test/mfcc/raw_mfcc_train.4.ark:2197813
mkdt0_si2153 quick_test/mfcc/raw_mfcc_train.3.ark:2043885
mjai0_si682 quick_test/mfcc/raw_mfcc_train.3.ark:614658
mtat0_sx300 quick_test/mfcc/raw_mfcc_train.4.ark:2428238
mwgr0_sx346 quick_test/mfcc/raw_mfcc_train.4.ark:3634146
mrcg0_si1428 quick_test/mfcc/raw_mfcc_train.4.ark:377382
mdlr0_sx153 quick_test/mfcc/raw_mfcc_train.2.ark:2620747
mdwm0_sx433 quick_test/mfcc/raw_mfcc_train.2.ark:3119921
mgaf0_sx382 quick_test/mfcc/raw_mfcc_train.2.ark:3608851
mesg0_sx162 quick_test/mfcc/raw_mfcc_train.2.ark:3321556
fmpg0_sx252 quick_test/mfcc/raw_mfcc_train.1.ark:3107853
fcmg0_si1142 quick_test/mfcc/raw_mfcc_train.1.ark:653672
mrwa0_si2233 quick_test/mfcc/raw_mfcc_train.4.ark:1617753
mgjc0_sx165 quick_test/mfcc/raw_mfcc_train.3.ark:103012
mwre0_si2317 quick_test/mfcc/raw_mfcc_train.4.ark:3653787
fpad0_sx266 quick_test/mfcc/raw_mfcc_train.1.ark:3281804
mrjt0_sx238 quick_test/mfcc/raw_mfcc_train.4.ark:999110
mcdd0_si883 quick_test/mfcc/raw_mfcc_train.2.ark:1547101
mrlj1_sx321 quick_test/mfcc/raw_mfcc_train.4.ark:1132737
mjpm1_si761 quick_test/mfcc/raw_mfcc_train.3.ark:1420430
fleh0_sx151 quick_test/mfcc/raw_mfcc_train.1.ark:2404156
mdlr0_sx423 quick_test/mfcc/raw_mfcc_train.2.ark:2635146
fskl0_si2159 quick_test/mfcc/raw_mfcc_train.2.ark:117362
mcef0_si842 quick_test/mfcc/raw_mfcc_train.2.ark:1613177
fpac0_si1921 quick_test/mfcc/raw_mfcc_train.1.ark:3227300
mgag0_sx151 quick_test/mfcc/raw_mfcc_train.2.ark:3625364
mmds0_sx443 quick_test/mfcc/raw_mfcc_train.3.ark:2961684
msdb0_si2267 quick_test/mfcc/raw_mfcc_train.4.ark:1834755
fjlg0_si2306 quick_test/mfcc/raw_mfcc_train.1.ark:1725030
mdwm0_sx16 quick_test/mfcc/raw_mfcc_train.2.ark:3108421
mctm0_sx90 quick_test/mfcc/raw_mfcc_train.2.ark:1927817
fmem0_si2007 quick_test/mfcc/raw_mfcc_train.1.ark:2853482
fecd0_sx248 quick_test/mfcc/raw_mfcc_train.1.ark:1208562
marw0_si1276 quick_test/mfcc/raw_mfcc_train.2.ark:1004072
mctm0_sx450 quick_test/mfcc/raw_mfcc_train.2.ark:1923495
mrsp0_sx196 quick_test/mfcc/raw_mfcc_train.4.ark:1494865
mtml0_sx435 quick_test/mfcc/raw_mfcc_train.4.ark:2931311
fleh0_sx61 quick_test/mfcc/raw_mfcc_train.1.ark:2420550
mpgh0_sx384 quick_test/mfcc/raw_mfcc_train.3.ark:3624298
mtpg0_sx33 quick_test/mfcc/raw_mfcc_train.4.ark:3061356
fsgf0_sx297 quick_test/mfcc/raw_mfcc_train.1.ark:3817523
fsls0_si1056 quick_test/mfcc/raw_mfcc_train.2.ark:176111
fleh0_sx331 quick_test/mfcc/raw_mfcc_train.1.ark:2412425
fjxp0_sx312 quick_test/mfcc/raw_mfcc_train.1.ark:2005787
mkes0_sx263 quick_test/mfcc/raw_mfcc_train.3.ark:2097608
mwac0_sx161 quick_test/mfcc/raw_mfcc_train.4.ark:3438968
fdnc0_sx378 quick_test/mfcc/raw_mfcc_train.1.ark:1052699
fbas0_sx397 quick_test/mfcc/raw_mfcc_train.1.ark:202676
fjrp1_si802 quick_test/mfcc/raw_mfcc_train.1.ark:1824755
msrr0_sx141 quick_test/mfcc/raw_mfcc_train.4.ark:2246403
flmc0_sx22 quick_test/mfcc/raw_mfcc_train.1.ark:2672718
mbom0_sx204 quick_test/mfcc/raw_mfcc_train.2.ark:1330322
fcjf0_sx397 quick_test/mfcc/raw_mfcc_train.1.ark:559464
mtjm0_si655 quick_test/mfcc/raw_mfcc_train.4.ark:2683610
fljd0_si2146 quick_test/mfcc/raw_mfcc_train.1.ark:2528015
fkkh0_sx30 quick_test/mfcc/raw_mfcc_train.1.ark:2183717
mrkm0_si1267 quick_test/mfcc/raw_mfcc_train.4.ark:1017416
fjrb0_sx402 quick_test/mfcc/raw_mfcc_train.1.ark:1804225
mprb0_si1215 quick_test/mfcc/raw_mfcc_train.4.ark:19314
mjxl0_si1172 quick_test/mfcc/raw_mfcc_train.3.ark:1815961
fexm0_si1731 quick_test/mfcc/raw_mfcc_train.1.ark:1330683
mwad0_sx342 quick_test/mfcc/raw_mfcc_train.4.ark:3479353
fdfb0_si1948 quick_test/mfcc/raw_mfcc_train.1.ark:857422
mbml0_sx359 quick_test/mfcc/raw_mfcc_train.2.ark:1303881
mpgr0_si780 quick_test/mfcc/raw_mfcc_train.3.ark:3634877
mejl0_si962 quick_test/mfcc/raw_mfcc_train.2.ark:3255018
fbcg1_sx442 quick_test/mfcc/raw_mfcc_train.1.ark:230807
mrfl0_si1156 quick_test/mfcc/raw_mfcc_train.4.ark:698872
mjjj0_sx263 quick_test/mfcc/raw_mfcc_train.3.ark:1089719
mdss1_si1327 quick_test/mfcc/raw_mfcc_train.2.ark:2966477
mbcg0_si2217 quick_test/mfcc/raw_mfcc_train.2.ark:1100145
mjpm1_sx41 quick_test/mfcc/raw_mfcc_train.3.ark:1443045
mjhi0_sx338 quick_test/mfcc/raw_mfcc_train.3.ark:1023974
mpgr1_si1499 quick_test/mfcc/raw_mfcc_train.3.ark:3659367
mtkd0_sx377 quick_test/mfcc/raw_mfcc_train.4.ark:2805924
mbjv0_sx347 quick_test/mfcc/raw_mfcc_train.2.ark:1209291
mpar0_sx46 quick_test/mfcc/raw_mfcc_train.3.ark:3533245
mdpk0_si1683 quick_test/mfcc/raw_mfcc_train.2.ark:2816895
mdlb0_sx136 quick_test/mfcc/raw_mfcc_train.2.ark:2427823
mrwa0_sx163 quick_test/mfcc/raw_mfcc_train.4.ark:1626256
mwsb0_sx366 quick_test/mfcc/raw_mfcc_train.4.ark:3727995
mdlm0_si604 quick_test/mfcc/raw_mfcc_train.2.ark:2587143
fmjb0_sx7 quick_test/mfcc/raw_mfcc_train.1.ark:2910552
mcth0_sx129 quick_test/mfcc/raw_mfcc_train.2.ark:1879321
mmar0_si1336 quick_test/mfcc/raw_mfcc_train.3.ark:2704037
mddc0_si2049 quick_test/mfcc/raw_mfcc_train.2.ark:2159825
mprt0_sx40 quick_test/mfcc/raw_mfcc_train.4.ark:151533
mrjt0_sx58 quick_test/mfcc/raw_mfcc_train.4.ark:1012026
mabc0_si1620 quick_test/mfcc/raw_mfcc_train.2.ark:660229
mbth0_si2102 quick_test/mfcc/raw_mfcc_train.2.ark:1368236
mtqc0_si480 quick_test/mfcc/raw_mfcc_train.4.ark:3147768
fexm0_sx366 quick_test/mfcc/raw_mfcc_train.1.ark:1355015
mhbs0_sx405 quick_test/mfcc/raw_mfcc_train.3.ark:322315
mrfl0_sx256 quick_test/mfcc/raw_mfcc_train.4.ark:719012
mprk0_sx377 quick_test/mfcc/raw_mfcc_train.4.ark:125003
mpeb0_sx240 quick_test/mfcc/raw_mfcc_train.3.ark:3548739
mmjb1_sx328 quick_test/mfcc/raw_mfcc_train.3.ark:3132631
madc0_si1367 quick_test/mfcc/raw_mfcc_train.2.ark:687547
flhd0_sx354 quick_test/mfcc/raw_mfcc_train.1.ark:2474849
mjda0_sx131 quick_test/mfcc/raw_mfcc_train.3.ark:685105
fjrp1_sx442 quick_test/mfcc/raw_mfcc_train.1.ark:1845713
mjls0_sx106 quick_test/mfcc/raw_mfcc_train.3.ark:1247064
fbch0_sx56 quick_test/mfcc/raw_mfcc_train.1.ark:270792
makb0_sx386 quick_test/mfcc/raw_mfcc_train.2.ark:915077
mmdg0_si520 quick_test/mfcc/raw_mfcc_train.3.ark:2850556
mjlb0_sx86 quick_test/mfcc/raw_mfcc_train.3.ark:1199032
mrfk0_si1076 quick_test/mfcc/raw_mfcc_train.4.ark:670175
fcyl0_si1297 quick_test/mfcc/raw_mfcc_train.1.ark:750083
fcmm0_sx363 quick_test/mfcc/raw_mfcc_train.1.ark:707183
fskl0_sx269 quick_test/mfcc/raw_mfcc_train.2.ark:130552
fltm0_sx350 quick_test/mfcc/raw_mfcc_train.1.ark:2770491
mjrp0_sx405 quick_test/mfcc/raw_mfcc_train.3.ark:1629503
fpaz0_si2223 quick_test/mfcc/raw_mfcc_train.1.ark:3333586
mrld0_si964 quick_test/mfcc/raw_mfcc_train.4.ark:1065781
mesg0_sx252 quick_test/mfcc/raw_mfcc_train.2.ark:3325879
mjeb1_sx27 quick_test/mfcc/raw_mfcc_train.3.ark:899531
mrjm0_sx58 quick_test/mfcc/raw_mfcc_train.4.ark:945664
mses0_si2216 quick_test/mfcc/raw_mfcc_train.4.ark:1969605
mtml0_si2325 quick_test/mfcc/raw_mfcc_train.4.ark:2915241
mfer0_si2122 quick_test/mfcc/raw_mfcc_train.2.ark:3400309
mcre0_si1121 quick_test/mfcc/raw_mfcc_train.2.ark:1801615
mtmn0_sx164 quick_test/mfcc/raw_mfcc_train.4.ark:2958101
mrlj1_sx141 quick_test/mfcc/raw_mfcc_train.4.ark:1127081
fdnc0_sx198 quick_test/mfcc/raw_mfcc_train.1.ark:1044157
fjsp0_sx84 quick_test/mfcc/raw_mfcc_train.1.ark:1915553
fdmy0_sx27 quick_test/mfcc/raw_mfcc_train.1.ark:1006516
mdcd0_sx155 quick_test/mfcc/raw_mfcc_train.2.ark:2103266
fsmm0_si1314 quick_test/mfcc/raw_mfcc_train.2.ark:243449
mjpg0_sx381 quick_test/mfcc/raw_mfcc_train.3.ark:1379088
fsjk1_si1025 quick_test/mfcc/raw_mfcc_train.1.ark:3868386
fsjg0_sx220 quick_test/mfcc/raw_mfcc_train.1.ark:3845049
mdcd0_sx335 quick_test/mfcc/raw_mfcc_train.2.ark:2110599
mkxl0_sx105 quick_test/mfcc/raw_mfcc_train.3.ark:2347244
fskc0_si786 quick_test/mfcc/raw_mfcc_train.2.ark:91793
mdwm0_sx376 quick_test/mfcc/raw_mfcc_train.2.ark:3116235
mdma0_si1430 quick_test/mfcc/raw_mfcc_train.2.ark:2680790
mmea0_sx38 quick_test/mfcc/raw_mfcc_train.3.ark:2988702
fsma0_si1621 quick_test/mfcc/raw_mfcc_train.2.ark:208955
mfwk0_sx439 quick_test/mfcc/raw_mfcc_train.2.ark:3513590
makr0_sx92 quick_test/mfcc/raw_mfcc_train.2.ark:939938
fkfb0_sx168 quick_test/mfcc/raw_mfcc_train.1.ark:2134949
mmrp0_si774 quick_test/mfcc/raw_mfcc_train.3.ark:3212367
mtcs0_sx352 quick_test/mfcc/raw_mfcc_train.4.ark:2522575
mdbp0_sx438 quick_test/mfcc/raw_mfcc_train.2.ark:2081364
mwdk0_sx446 quick_test/mfcc/raw_mfcc_train.4.ark:3572873
fcag0_si2133 quick_test/mfcc/raw_mfcc_train.1.ark:415851
mkls1_sx195 quick_test/mfcc/raw_mfcc_train.3.ark:2257905
mbjv0_sx257 quick_test/mfcc/raw_mfcc_train.2.ark:1206970
mdjm0_sx285 quick_test/mfcc/raw_mfcc_train.2.ark:2372998
mmag0_sx226 quick_test/mfcc/raw_mfcc_train.3.ark:2659153
mabc0_si781 quick_test/mfcc/raw_mfcc_train.2.ark:665964
mdjm0_si1455 quick_test/mfcc/raw_mfcc_train.2.ark:2349062
mjwt0_si1291 quick_test/mfcc/raw_mfcc_train.3.ark:1749404
mkrg0_sx231 quick_test/mfcc/raw_mfcc_train.3.ark:2322052
mrdd0_sx330 quick_test/mfcc/raw_mfcc_train.4.ark:467981
mgak0_sx226 quick_test/mfcc/raw_mfcc_train.2.ark:3661387
mlns0_sx147 quick_test/mfcc/raw_mfcc_train.3.ark:2517972
mded0_sx450 quick_test/mfcc/raw_mfcc_train.2.ark:2210149
mdns0_sx201 quick_test/mfcc/raw_mfcc_train.2.ark:2764958
mjmm0_sx445 quick_test/mfcc/raw_mfcc_train.3.ark:1348267
mgsh0_sx127 quick_test/mfcc/raw_mfcc_train.3.ark:209783
marc0_sx108 quick_test/mfcc/raw_mfcc_train.2.ark:987488
mljc0_sx325 quick_test/mfcc/raw_mfcc_train.3.ark:2453561
mhit0_sx263 quick_test/mfcc/raw_mfcc_train.3.ark:346629
mtjs0_sx382 quick_test/mfcc/raw_mfcc_train.4.ark:2738483
mmdm0_sx321 quick_test/mfcc/raw_mfcc_train.3.ark:2895614
mtas0_sx125 quick_test/mfcc/raw_mfcc_train.4.ark:2387367
mtrr0_sx198 quick_test/mfcc/raw_mfcc_train.4.ark:3225576
mkdb0_sx152 quick_test/mfcc/raw_mfcc_train.3.ark:1990636
mmlm0_si2150 quick_test/mfcc/raw_mfcc_train.3.ark:3148507
mtxs0_sx70 quick_test/mfcc/raw_mfcc_train.4.ark:3332362
mrgs0_sx6 quick_test/mfcc/raw_mfcc_train.4.ark:801311
msmc0_si647 quick_test/mfcc/raw_mfcc_train.4.ark:2112853
msat0_sx356 quick_test/mfcc/raw_mfcc_train.4.ark:1786404
mtmn0_si582 quick_test/mfcc/raw_mfcc_train.4.ark:2951087
mlsh0_si2047 quick_test/mfcc/raw_mfcc_train.3.ark:2541740
fsah0_si1244 quick_test/mfcc/raw_mfcc_train.1.ark:3592901
mwem0_sx150 quick_test/mfcc/raw_mfcc_train.4.ark:3590356
mlns0_sx237 quick_test/mfcc/raw_mfcc_train.3.ark:2521333
mdcd0_si2045 quick_test/mfcc/raw_mfcc_train.2.ark:2094048
mbar0_si689 quick_test/mfcc/raw_mfcc_train.2.ark:1044821
mrfl0_sx166 quick_test/mfcc/raw_mfcc_train.4.ark:713402
mdlr0_sx63 quick_test/mfcc/raw_mfcc_train.2.ark:2639897
fdtd0_sx391 quick_test/mfcc/raw_mfcc_train.1.ark:1089170
mejl0_sx62 quick_test/mfcc/raw_mfcc_train.2.ark:3273967
mdmt0_si2341 quick_test/mfcc/raw_mfcc_train.2.ark:2718067
mree0_sx24 quick_test/mfcc/raw_mfcc_train.4.ark:560315
mdlm0_si1234 quick_test/mfcc/raw_mfcc_train.2.ark:2580446
frll0_si805 quick_test/mfcc/raw_mfcc_train.1.ark:3525988
madd0_sx178 quick_test/mfcc/raw_mfcc_train.2.ark:733373
mjrg0_si736 quick_test/mfcc/raw_mfcc_train.3.ark:1486493
mcdr0_si1154 quick_test/mfcc/raw_mfcc_train.2.ark:1569451
mwar0_sx55 quick_test/mfcc/raw_mfcc_train.4.ark:3515850
mdlh0_si1960 quick_test/mfcc/raw_mfcc_train.2.ark:2546564
msms0_sx173 quick_test/mfcc/raw_mfcc_train.4.ark:2182472
madd0_si1798 quick_test/mfcc/raw_mfcc_train.2.ark:724883
mlsh0_sx427 quick_test/mfcc/raw_mfcc_train.3.ark:2562367
mges0_si2111 quick_test/mfcc/raw_mfcc_train.3.ark:65045
mjwg0_sx355 quick_test/mfcc/raw_mfcc_train.3.ark:1704281
mkln0_sx248 quick_test/mfcc/raw_mfcc_train.3.ark:2157756
msms0_si1433 quick_test/mfcc/raw_mfcc_train.4.ark:2168943
mjra0_si1866 quick_test/mfcc/raw_mfcc_train.3.ark:1451771
fsls0_si2316 quick_test/mfcc/raw_mfcc_train.2.ark:184824
mmpm0_sx71 quick_test/mfcc/raw_mfcc_train.3.ark:3203518
mabc0_sx61 quick_test/mfcc/raw_mfcc_train.2.ark:684185
fskl0_sx359 quick_test/mfcc/raw_mfcc_train.2.ark:133354
mdhl0_si1439 quick_test/mfcc/raw_mfcc_train.2.ark:2287653
mmgc0_sx45 quick_test/mfcc/raw_mfcc_train.3.ark:3051898
fjen0_sx327 quick_test/mfcc/raw_mfcc_train.1.ark:1636894
mrmg0_si1080 quick_test/mfcc/raw_mfcc_train.4.ark:1237748
mkdd0_si937 quick_test/mfcc/raw_mfcc_train.3.ark:2023225
mchl0_si1977 quick_test/mfcc/raw_mfcc_train.2.ark:1689264
mrml0_sx161 quick_test/mfcc/raw_mfcc_train.4.ark:1314963
mklr0_sx69 quick_test/mfcc/raw_mfcc_train.3.ark:2198134
mtrc0_si1623 quick_test/mfcc/raw_mfcc_train.4.ark:3177931
fmbg0_si1790 quick_test/mfcc/raw_mfcc_train.1.ark:2823032
mtrr0_sx108 quick_test/mfcc/raw_mfcc_train.4.ark:3218101
mcef0_sx145 quick_test/mfcc/raw_mfcc_train.2.ark:1618722
fsdc0_sx322 quick_test/mfcc/raw_mfcc_train.1.ark:3753248
mjeb1_sx207 quick_test/mfcc/raw_mfcc_train.3.ark:896405
fvmh0_sx206 quick_test/mfcc/raw_mfcc_train.2.ark:647591
mwac0_si971 quick_test/mfcc/raw_mfcc_train.4.ark:3435308
