mrwa0_sx163 quick_test/data-fmllr-tri3/train/data/feats_fmllr_train.9.ark:10142002
mram0_si1951 quick_test/data-fmllr-tri3/train/data/feats_fmllr_train.8.ark:12225995
mfxs0_sx144 quick_test/data-fmllr-tri3/train/data/feats_fmllr_train.5.ark:15603072
fbcg1_si1612 quick_test/data-fmllr-tri3/train/data/feats_fmllr_train.1.ark:2469312
mrtj0_sx412 quick_test/data-fmllr-tri3/train/data/feats_fmllr_train.9.ark:9549969
mjws0_sx333 quick_test/data-fmllr-tri3/train/data/feats_fmllr_train.7.ark:2644491
marw0_sx16 quick_test/data-fmllr-tri3/train/data/feats_fmllr_train.4.ark:3135300
mljh0_si1422 quick_test/data-fmllr-tri3/train/data/feats_fmllr_train.7.ark:11379455
mwrp0_sx273 quick_test/data-fmllr-tri3/train/data/feats_fmllr_train.10.ark:16633883
mfxs0_sx54 quick_test/data-fmllr-tri3/train/data/feats_fmllr_train.5.ark:15812619
mjrh1_sx244 quick_test/data-fmllr-tri3/train/data/feats_fmllr_train.7.ark:594420
mkag0_si1609 quick_test/data-fmllr-tri3/train/data/feats_fmllr_train.7.ark:4011783
mjjb0_sx59 quick_test/data-fmllr-tri3/train/data/feats_fmllr_train.6.ark:12690181
fksr0_sx397 quick_test/data-fmllr-tri3/train/data/feats_fmllr_train.2.ark:8818525
mdlc0_si2025 quick_test/data-fmllr-tri3/train/data/feats_fmllr_train.5.ark:2865721
mbwp0_sx439 quick_test/data-fmllr-tri3/train/data/feats_fmllr_train.4.ark:8001535
fmpg0_sx252 quick_test/data-fmllr-tri3/train/data/feats_fmllr_train.2.ark:18185413
mjee0_si1237 quick_test/data-fmllr-tri3/train/data/feats_fmllr_train.6.ark:10834884
mjfr0_si2235 quick_test/data-fmllr-tri3/train/data/feats_fmllr_train.6.ark:11575986
mchl0_sx267 quick_test/data-fmllr-tri3/train/data/feats_fmllr_train.4.ark:11182576
mrjt0_sx238 quick_test/data-fmllr-tri3/train/data/feats_fmllr_train.9.ark:2674063
freh0_si1315 quick_test/data-fmllr-tri3/train/data/feats_fmllr_train.3.ark:4008901
mtqc0_sx181 quick_test/data-fmllr-tri3/train/data/feats_fmllr_train.10.ark:10151121
mmrp0_sx144 quick_test/data-fmllr-tri3/train/data/feats_fmllr_train.8.ark:2272599
mree0_sx204 quick_test/data-fmllr-tri3/train/data/feats_fmllr_train.8.ark:15363948
mrgm0_sx262 quick_test/data-fmllr-tri3/train/data/feats_fmllr_train.8.ark:17738690
mcae0_si2077 quick_test/data-fmllr-tri3/train/data/feats_fmllr_train.4.ark:8199057
mrew1_sx60 quick_test/data-fmllr-tri3/train/data/feats_fmllr_train.8.ark:16658758
mrwa0_sx73 quick_test/data-fmllr-tri3/train/data/feats_fmllr_train.9.ark:10333629
mefg0_sx105 quick_test/data-fmllr-tri3/train/data/feats_fmllr_train.5.ark:11607567
fjrb0_si1302 quick_test/data-fmllr-tri3/train/data/feats_fmllr_train.2.ark:2383719
frll0_sx434 quick_test/data-fmllr-tri3/train/data/feats_fmllr_train.3.ark:5002618
fskp0_sx198 quick_test/data-fmllr-tri3/train/data/feats_fmllr_train.3.ark:10966646
mses0_sx149 quick_test/data-fmllr-tri3/train/data/feats_fmllr_train.9.ark:14300074
mmsm0_sx296 quick_test/data-fmllr-tri3/train/data/feats_fmllr_train.8.ark:2882336
fbas0_sx127 quick_test/data-fmllr-tri3/train/data/feats_fmllr_train.1.ark:2279417
fetb0_si1148 quick_test/data-fmllr-tri3/train/data/feats_fmllr_train.1.ark:15416959
mnet0_si2076 quick_test/data-fmllr-tri3/train/data/feats_fmllr_train.8.ark:5047983
msat1_sx263 quick_test/data-fmllr-tri3/train/data/feats_fmllr_train.9.ark:12353413
mter0_sx77 quick_test/data-fmllr-tri3/train/data/feats_fmllr_train.10.ark:4043115
fsls0_si1056 quick_test/data-fmllr-tri3/train/data/feats_fmllr_train.3.ark:11094088
fvfb0_si1032 quick_test/data-fmllr-tri3/train/data/feats_fmllr_train.3.ark:15754452
mvrw0_si2115 quick_test/data-fmllr-tri3/train/data/feats_fmllr_train.10.ark:13157123
mfrm0_sx165 quick_test/data-fmllr-tri3/train/data/feats_fmllr_train.5.ark:14903277
ftbw0_sx175 quick_test/data-fmllr-tri3/train/data/feats_fmllr_train.3.ark:14741564
mdps0_sx89 quick_test/data-fmllr-tri3/train/data/feats_fmllr_train.5.ark:7727047
fvmh0_sx116 quick_test/data-fmllr-tri3/train/data/feats_fmllr_train.3.ark:16672409
mtat0_si811 quick_test/data-fmllr-tri3/train/data/feats_fmllr_train.10.ark:1364079
mgxp0_sx367 quick_test/data-fmllr-tri3/train/data/feats_fmllr_train.6.ark:3421083
mnet0_sx366 quick_test/data-fmllr-tri3/train/data/feats_fmllr_train.8.ark:5191131
mrmg0_sx180 quick_test/data-fmllr-tri3/train/data/feats_fmllr_train.9.ark:5658972
mntw0_sx78 quick_test/data-fmllr-tri3/train/data/feats_fmllr_train.8.ark:5697640
fhxs0_sx355 quick_test/data-fmllr-tri3/train/data/feats_fmllr_train.1.ark:18707418
mrcg0_si798 quick_test/data-fmllr-tri3/train/data/feats_fmllr_train.8.ark:13347447
fclt0_sx358 quick_test/data-fmllr-tri3/train/data/feats_fmllr_train.1.ark:7644109
fsjs0_sx361 quick_test/data-fmllr-tri3/train/data/feats_fmllr_train.3.ark:9431219
mpsw0_sx167 quick_test/data-fmllr-tri3/train/data/feats_fmllr_train.8.ark:10738434
mjmm0_si1885 quick_test/data-fmllr-tri3/train/data/feats_fmllr_train.6.ark:15820295
mkls1_sx375 quick_test/data-fmllr-tri3/train/data/feats_fmllr_train.7.ark:8939376
fsrh0_sx221 quick_test/data-fmllr-tri3/train/data/feats_fmllr_train.3.ark:13264403
fsag0_si693 quick_test/data-fmllr-tri3/train/data/feats_fmllr_train.3.ark:5163367
mpsw0_sx437 quick_test/data-fmllr-tri3/train/data/feats_fmllr_train.8.ark:10846514
mrdm0_si1595 quick_test/data-fmllr-tri3/train/data/feats_fmllr_train.8.ark:14477032
mjra0_sx246 quick_test/data-fmllr-tri3/train/data/feats_fmllr_train.6.ark:17412764
mntw0_sx258 quick_test/data-fmllr-tri3/train/data/feats_fmllr_train.8.ark:5584627
medr0_sx24 quick_test/data-fmllr-tri3/train/data/feats_fmllr_train.5.ark:11318925
mkls1_si2175 quick_test/data-fmllr-tri3/train/data/feats_fmllr_train.7.ark:8673135
flag0_sx294 quick_test/data-fmllr-tri3/train/data/feats_fmllr_train.2.ark:9558772
msat1_sx443 quick_test/data-fmllr-tri3/train/data/feats_fmllr_train.9.ark:12436987
fmjb0_si1807 quick_test/data-fmllr-tri3/train/data/feats_fmllr_train.2.ark:15598755
mcae0_sx7 quick_test/data-fmllr-tri3/train/data/feats_fmllr_train.4.ark:8502070
mdjm0_sx15 quick_test/data-fmllr-tri3/train/data/feats_fmllr_train.5.ark:1763869
fskp0_sx18 quick_test/data-fmllr-tri3/train/data/feats_fmllr_train.3.ark:10928219
mwem0_sx150 quick_test/data-fmllr-tri3/train/data/feats_fmllr_train.10.ark:15372243
mtdb0_sx231 quick_test/data-fmllr-tri3/train/data/feats_fmllr_train.10.ark:3052841
fklc1_sx328 quick_test/data-fmllr-tri3/train/data/feats_fmllr_train.2.ark:7928598
mhmr0_sx219 quick_test/data-fmllr-tri3/train/data/feats_fmllr_train.6.ark:5170300
mtqc0_si1441 quick_test/data-fmllr-tri3/train/data/feats_fmllr_train.10.ark:9943519
mrjb1_sx390 quick_test/data-fmllr-tri3/train/data/feats_fmllr_train.9.ark:1179515
fdjh0_sx125 quick_test/data-fmllr-tri3/train/data/feats_fmllr_train.1.ark:10626914
mmds0_si1973 quick_test/data-fmllr-tri3/train/data/feats_fmllr_train.7.ark:17077214
mrlr0_sx26 quick_test/data-fmllr-tri3/train/data/feats_fmllr_train.9.ark:5034270
mmds0_sx173 quick_test/data-fmllr-tri3/train/data/feats_fmllr_train.7.ark:17130068
mefg0_si491 quick_test/data-fmllr-tri3/train/data/feats_fmllr_train.5.ark:11461913
fpac0_si2011 quick_test/data-fmllr-tri3/train/data/feats_fmllr_train.3.ark:1269171
faem0_sx42 quick_test/data-fmllr-tri3/train/data/feats_fmllr_train.1.ark:354602
fsbk0_sx349 quick_test/data-fmllr-tri3/train/data/feats_fmllr_train.3.ark:6559940
mmcc0_sx348 quick_test/data-fmllr-tri3/train/data/feats_fmllr_train.7.ark:15329677
mdpb0_sx236 quick_test/data-fmllr-tri3/train/data/feats_fmllr_train.5.ark:6899813
mrtj0_sx52 quick_test/data-fmllr-tri3/train/data/feats_fmllr_train.9.ark:9601355
mjma0_si1495 quick_test/data-fmllr-tri3/train/data/feats_fmllr_train.6.ark:15057912
fbas0_sx397 quick_test/data-fmllr-tri3/train/data/feats_fmllr_train.1.ark:2416324
fjsp0_sx444 quick_test/data-fmllr-tri3/train/data/feats_fmllr_train.2.ark:3938294
mbth0_si505 quick_test/data-fmllr-tri3/train/data/feats_fmllr_train.4.ark:7375903
fsak0_sx40 quick_test/data-fmllr-tri3/train/data/feats_fmllr_train.3.ark:6244388
mtkd0_si630 quick_test/data-fmllr-tri3/train/data/feats_fmllr_train.10.ark:5774626
mjfh0_sx117 quick_test/data-fmllr-tri3/train/data/feats_fmllr_train.6.ark:11358223
mkam0_si1465 quick_test/data-fmllr-tri3/train/data/feats_fmllr_train.7.ark:5256169
mjpg0_sx291 quick_test/data-fmllr-tri3/train/data/feats_fmllr_train.6.ark:16371686
mjai0_sx344 quick_test/data-fmllr-tri3/train/data/feats_fmllr_train.6.ark:7536425
mmlm0_sx447 quick_test/data-fmllr-tri3/train/data/feats_fmllr_train.8.ark:1690966
fbch0_sx236 quick_test/data-fmllr-tri3/train/data/feats_fmllr_train.1.ark:3076677
fjxm0_sx311 quick_test/data-fmllr-tri3/train/data/feats_fmllr_train.2.ark:4628460
mbth0_si757 quick_test/data-fmllr-tri3/train/data/feats_fmllr_train.4.ark:7422010
mhbs0_si2205 quick_test/data-fmllr-tri3/train/data/feats_fmllr_train.6.ark:3607270
mmeb0_sx7 quick_test/data-fmllr-tri3/train/data/feats_fmllr_train.7.ark:17925141
mwad0_si1749 quick_test/data-fmllr-tri3/train/data/feats_fmllr_train.10.ark:13929717
fsah0_si1244 quick_test/data-fmllr-tri3/train/data/feats_fmllr_train.3.ark:5542089
fhlm0_si1560 quick_test/data-fmllr-tri3/train/data/feats_fmllr_train.1.ark:17959863
mbth0_sx122 quick_test/data-fmllr-tri3/train/data/feats_fmllr_train.4.ark:7455477
mrmb0_si951 quick_test/data-fmllr-tri3/train/data/feats_fmllr_train.9.ark:5232647
mprb0_sx305 quick_test/data-fmllr-tri3/train/data/feats_fmllr_train.8.ark:9233780
fdmy0_si567 quick_test/data-fmllr-tri3/train/data/feats_fmllr_train.1.ark:11671032
mdsj0_sx438 quick_test/data-fmllr-tri3/train/data/feats_fmllr_train.5.ark:8528441
mrab1_sx128 quick_test/data-fmllr-tri3/train/data/feats_fmllr_train.8.ark:11477267
fjlr0_si1861 quick_test/data-fmllr-tri3/train/data/feats_fmllr_train.2.ark:2063850
flja0_si1708 quick_test/data-fmllr-tri3/train/data/feats_fmllr_train.2.ark:10876148
mjxl0_si1172 quick_test/data-fmllr-tri3/train/data/feats_fmllr_train.7.ark:3610126
fskc0_sx246 quick_test/data-fmllr-tri3/train/data/feats_fmllr_train.3.ark:10161386
mmvp0_sx384 quick_test/data-fmllr-tri3/train/data/feats_fmllr_train.8.ark:3385941
mjdg0_sx412 quick_test/data-fmllr-tri3/train/data/feats_fmllr_train.6.ark:9528579
mkes0_si623 quick_test/data-fmllr-tri3/train/data/feats_fmllr_train.7.ark:6838155
mrml0_sx341 quick_test/data-fmllr-tri3/train/data/feats_fmllr_train.9.ark:6577861
mapv0_si663 quick_test/data-fmllr-tri3/train/data/feats_fmllr_train.4.ark:2364733
mtrc0_sx183 quick_test/data-fmllr-tri3/train/data/feats_fmllr_train.10.ark:10667364
fsjg0_si1570 quick_test/data-fmllr-tri3/train/data/feats_fmllr_train.3.ark:8298329
mtab0_si942 quick_test/data-fmllr-tri3/train/data/feats_fmllr_train.10.ark:606205
mjkr0_si1201 quick_test/data-fmllr-tri3/train/data/feats_fmllr_train.6.ark:13552563
mdbp0_si528 quick_test/data-fmllr-tri3/train/data/feats_fmllr_train.4.ark:15555843
mrmh0_sx31 quick_test/data-fmllr-tri3/train/data/feats_fmllr_train.9.ark:6190790
mdpb0_sx416 quick_test/data-fmllr-tri3/train/data/feats_fmllr_train.5.ark:6985307
mdtb0_sx321 quick_test/data-fmllr-tri3/train/data/feats_fmllr_train.5.ark:9484746
falr0_sx65 quick_test/data-fmllr-tri3/train/data/feats_fmllr_train.1.ark:1531248
mdsj0_sx112 quick_test/data-fmllr-tri3/train/data/feats_fmllr_train.5.ark:8349454
mpsw0_si2327 quick_test/data-fmllr-tri3/train/data/feats_fmllr_train.8.ark:10705287
mtas0_si1385 quick_test/data-fmllr-tri3/train/data/feats_fmllr_train.10.ark:937407
fltm0_sx440 quick_test/data-fmllr-tri3/train/data/feats_fmllr_train.2.ark:14239622
msdb0_sx107 quick_test/data-fmllr-tri3/train/data/feats_fmllr_train.9.ark:12648164
mjeb0_sx386 quick_test/data-fmllr-tri3/train/data/feats_fmllr_train.6.ark:10380239
mtbc0_si1173 quick_test/data-fmllr-tri3/train/data/feats_fmllr_train.10.ark:2067018
mpeb0_sx420 quick_test/data-fmllr-tri3/train/data/feats_fmllr_train.8.ark:6310048
fpac0_si1921 quick_test/data-fmllr-tri3/train/data/feats_fmllr_train.3.ark:1188503
fmju0_sx309 quick_test/data-fmllr-tri3/train/data/feats_fmllr_train.2.ark:16590495
fgrw0_sx72 quick_test/data-fmllr-tri3/train/data/feats_fmllr_train.1.ark:17921435
meal0_sx377 quick_test/data-fmllr-tri3/train/data/feats_fmllr_train.5.ark:11042922
fksr0_si1117 quick_test/data-fmllr-tri3/train/data/feats_fmllr_train.2.ark:8479456
mtdb0_sx51 quick_test/data-fmllr-tri3/train/data/feats_fmllr_train.10.ark:3177561
msjk0_si2226 quick_test/data-fmllr-tri3/train/data/feats_fmllr_train.9.ark:15491391
mrlr0_si1196 quick_test/data-fmllr-tri3/train/data/feats_fmllr_train.9.ark:4783575
mrdd0_sx240 quick_test/data-fmllr-tri3/train/data/feats_fmllr_train.8.ark:14226816
fleh0_sx421 quick_test/data-fmllr-tri3/train/data/feats_fmllr_train.2.ark:9949231
fbch0_sx416 quick_test/data-fmllr-tri3/train/data/feats_fmllr_train.1.ark:3167291
mjpg0_sx381 quick_test/data-fmllr-tri3/train/data/feats_fmllr_train.6.ark:16403713
mpeb0_si1860 quick_test/data-fmllr-tri3/train/data/feats_fmllr_train.8.ark:6091353
mhjb0_si2277 quick_test/data-fmllr-tri3/train/data/feats_fmllr_train.6.ark:4382932
flma0_sx433 quick_test/data-fmllr-tri3/train/data/feats_fmllr_train.2.ark:12730271
fjsk0_sx242 quick_test/data-fmllr-tri3/train/data/feats_fmllr_train.2.ark:3458183
mjac0_sx71 quick_test/data-fmllr-tri3/train/data/feats_fmllr_train.6.ark:6817004
mnet0_sx276 quick_test/data-fmllr-tri3/train/data/feats_fmllr_train.8.ark:5155264
medr0_sx204 quick_test/data-fmllr-tri3/train/data/feats_fmllr_train.5.ark:11283059
mjmd0_sx218 quick_test/data-fmllr-tri3/train/data/feats_fmllr_train.6.ark:15578879
mrxb0_sx145 quick_test/data-fmllr-tri3/train/data/feats_fmllr_train.9.ark:10882436
flja0_sx358 quick_test/data-fmllr-tri3/train/data/feats_fmllr_train.2.ark:11051777
mtjg0_si890 quick_test/data-fmllr-tri3/train/data/feats_fmllr_train.10.ark:4141118
msds0_sx267 quick_test/data-fmllr-tri3/train/data/feats_fmllr_train.9.ark:13429586
mcdd0_sx433 quick_test/data-fmllr-tri3/train/data/feats_fmllr_train.4.ark:9598721
mrai0_sx72 quick_test/data-fmllr-tri3/train/data/feats_fmllr_train.8.ark:12101271
mvjh0_sx206 quick_test/data-fmllr-tri3/train/data/feats_fmllr_train.10.ark:12546210
fsms1_si1504 quick_test/data-fmllr-tri3/train/data/feats_fmllr_train.3.ark:12312180
mtkp0_sx33 quick_test/data-fmllr-tri3/train/data/feats_fmllr_train.10.ark:6419910
mgxp0_sx187 quick_test/data-fmllr-tri3/train/data/feats_fmllr_train.6.ark:3339749
mkxl0_sx195 quick_test/data-fmllr-tri3/train/data/feats_fmllr_train.7.ark:10010374
mmdm1_sx243 quick_test/data-fmllr-tri3/train/data/feats_fmllr_train.7.ark:16800758
mdwm0_si916 quick_test/data-fmllr-tri3/train/data/feats_fmllr_train.5.ark:10479370
mlsh0_sx247 quick_test/data-fmllr-tri3/train/data/feats_fmllr_train.7.ark:12378690
mjhi0_si555 quick_test/data-fmllr-tri3/train/data/feats_fmllr_train.6.ark:12024362
fsah0_sx74 quick_test/data-fmllr-tri3/train/data/feats_fmllr_train.3.ark:5914918
fdnc0_sx378 quick_test/data-fmllr-tri3/train/data/feats_fmllr_train.1.ark:12532691
makb0_si1646 quick_test/data-fmllr-tri3/train/data/feats_fmllr_train.4.ark:1594831
ftaj0_sx159 quick_test/data-fmllr-tri3/train/data/feats_fmllr_train.3.ark:14031690
mabc0_sx331 quick_test/data-fmllr-tri3/train/data/feats_fmllr_train.3.ark:17059720
mpgr1_si1269 quick_test/data-fmllr-tri3/train/data/feats_fmllr_train.8.ark:7506592
mcre0_sx24 quick_test/data-fmllr-tri3/train/data/feats_fmllr_train.4.ark:12692911
mtml0_si1065 quick_test/data-fmllr-tri3/train/data/feats_fmllr_train.10.ark:7235759
fexm0_si1101 quick_test/data-fmllr-tri3/train/data/feats_fmllr_train.1.ark:15794776
fmmh0_sx7 quick_test/data-fmllr-tri3/train/data/feats_fmllr_train.2.ark:17844290
mmgg0_si1079 quick_test/data-fmllr-tri3/train/data/feats_fmllr_train.8.ark:354791
mrfl0_sx436 quick_test/data-fmllr-tri3/train/data/feats_fmllr_train.8.ark:17399327
fklc0_si1615 quick_test/data-fmllr-tri3/train/data/feats_fmllr_train.2.ark:7304084
mprk0_sx107 quick_test/data-fmllr-tri3/train/data/feats_fmllr_train.8.ark:10022640
fgmb0_si1145 quick_test/data-fmllr-tri3/train/data/feats_fmllr_train.1.ark:17059428
fcaj0_sx219 quick_test/data-fmllr-tri3/train/data/feats_fmllr_train.1.ark:5394460
fkfb0_sx258 quick_test/data-fmllr-tri3/train/data/feats_fmllr_train.2.ark:6635439
fsls0_sx246 quick_test/data-fmllr-tri3/train/data/feats_fmllr_train.3.ark:11347825
mmar0_si1966 quick_test/data-fmllr-tri3/train/data/feats_fmllr_train.7.ark:14239695
mjjb0_si1139 quick_test/data-fmllr-tri3/train/data/feats_fmllr_train.6.ark:12331111
faem0_sx222 quick_test/data-fmllr-tri3/train/data/feats_fmllr_train.1.ark:201402
fjdm2_sx52 quick_test/data-fmllr-tri3/train/data/feats_fmllr_train.2.ark:366123
mcxm0_sx271 quick_test/data-fmllr-tri3/train/data/feats_fmllr_train.4.ark:14189911
mpfu0_si628 quick_test/data-fmllr-tri3/train/data/feats_fmllr_train.8.ark:6519437
mdef0_sx213 quick_test/data-fmllr-tri3/train/data/feats_fmllr_train.5.ark:202843
fapb0_sx343 quick_test/data-fmllr-tri3/train/data/feats_fmllr_train.1.ark:1865653
fsrh0_si671 quick_test/data-fmllr-tri3/train/data/feats_fmllr_train.3.ark:13183549
marc0_si1818 quick_test/data-fmllr-tri3/train/data/feats_fmllr_train.4.ark:2685883
mdpk0_si1683 quick_test/data-fmllr-tri3/train/data/feats_fmllr_train.5.ark:7125709
fcag0_si1503 quick_test/data-fmllr-tri3/train/data/feats_fmllr_train.1.ark:4895413
fhlm0_sx390 quick_test/data-fmllr-tri3/train/data/feats_fmllr_train.1.ark:18308053
mvjh0_sx26 quick_test/data-fmllr-tri3/train/data/feats_fmllr_train.10.ark:12595356
mmea0_sx308 quick_test/data-fmllr-tri3/train/data/feats_fmllr_train.7.ark:17530179
fear0_si1882 quick_test/data-fmllr-tri3/train/data/feats_fmllr_train.1.ark:13784759
falk0_sx186 quick_test/data-fmllr-tri3/train/data/feats_fmllr_train.1.ark:984206
mtjg0_sx350 quick_test/data-fmllr-tri3/train/data/feats_fmllr_train.10.ark:4315919
fdfb0_si1948 quick_test/data-fmllr-tri3/train/data/feats_fmllr_train.1.ark:10205682
mdem0_sx248 quick_test/data-fmllr-tri3/train/data/feats_fmllr_train.5.ark:590419
mfxs0_si2304 quick_test/data-fmllr-tri3/train/data/feats_fmllr_train.5.ark:15562565
mmgk0_si692 quick_test/data-fmllr-tri3/train/data/feats_fmllr_train.8.ark:812984
mjrh1_si1774 quick_test/data-fmllr-tri3/train/data/feats_fmllr_train.7.ark:461219
fjlg0_sx179 quick_test/data-fmllr-tri3/train/data/feats_fmllr_train.2.ark:1742727
msem1_sx450 quick_test/data-fmllr-tri3/train/data/feats_fmllr_train.9.ark:14056257
ftmg0_sx182 quick_test/data-fmllr-tri3/train/data/feats_fmllr_train.3.ark:15527117
mkdt0_si893 quick_test/data-fmllr-tri3/train/data/feats_fmllr_train.7.ark:6433458
mbml0_sx179 quick_test/data-fmllr-tri3/train/data/feats_fmllr_train.4.ark:6450667
mmxs0_sx426 quick_test/data-fmllr-tri3/train/data/feats_fmllr_train.8.ark:4894781
fexm0_sx381 quick_test/data-fmllr-tri3/train/data/feats_fmllr_train.1.ark:16206646
mcss0_si1380 quick_test/data-fmllr-tri3/train/data/feats_fmllr_train.4.ark:12832672
fntb0_sx123 quick_test/data-fmllr-tri3/train/data/feats_fmllr_train.3.ark:538071
flac0_sx361 quick_test/data-fmllr-tri3/train/data/feats_fmllr_train.2.ark:9082849
fljd0_si1516 quick_test/data-fmllr-tri3/train/data/feats_fmllr_train.2.ark:11200178
mklr0_sx159 quick_test/data-fmllr-tri3/train/data/feats_fmllr_train.7.ark:7986034
msms0_si2063 quick_test/data-fmllr-tri3/train/data/feats_fmllr_train.9.ark:16668681
msah1_sx149 quick_test/data-fmllr-tri3/train/data/feats_fmllr_train.9.ark:11202014
mjfr0_sx255 quick_test/data-fmllr-tri3/train/data/feats_fmllr_train.6.ark:11723427
mmws1_sx261 quick_test/data-fmllr-tri3/train/data/feats_fmllr_train.8.ark:4438965
fcjf0_sx127 quick_test/data-fmllr-tri3/train/data/feats_fmllr_train.1.ark:6550764
mram0_sx375 quick_test/data-fmllr-tri3/train/data/feats_fmllr_train.8.ark:12461969
mcef0_sx55 quick_test/data-fmllr-tri3/train/data/feats_fmllr_train.4.ark:10439821
mrav0_si1638 quick_test/data-fmllr-tri3/train/data/feats_fmllr_train.8.ark:12541065
mgjc0_si1256 quick_test/data-fmllr-tri3/train/data/feats_fmllr_train.6.ark:1075385
mjkr0_si571 quick_test/data-fmllr-tri3/train/data/feats_fmllr_train.6.ark:13664778
mmsm0_si1736 quick_test/data-fmllr-tri3/train/data/feats_fmllr_train.8.ark:2635802
maeo0_sx156 quick_test/data-fmllr-tri3/train/data/feats_fmllr_train.4.ark:517913
makr0_si722 quick_test/data-fmllr-tri3/train/data/feats_fmllr_train.4.ark:2037956
mtdp0_sx351 quick_test/data-fmllr-tri3/train/data/feats_fmllr_train.10.ark:3492766
makb0_sx296 quick_test/data-fmllr-tri3/train/data/feats_fmllr_train.4.ark:1875446
mrgs0_sx96 quick_test/data-fmllr-tri3/train/data/feats_fmllr_train.9.ark:387400
mjlb0_si1616 quick_test/data-fmllr-tri3/train/data/feats_fmllr_train.6.ark:13949420
fntb0_sx393 quick_test/data-fmllr-tri3/train/data/feats_fmllr_train.3.ark:702978
mcre0_sx401 quick_test/data-fmllr-tri3/train/data/feats_fmllr_train.4.ark:12729098
mpeb0_sx150 quick_test/data-fmllr-tri3/train/data/feats_fmllr_train.8.ark:6184527
fpjf0_sx56 quick_test/data-fmllr-tri3/train/data/feats_fmllr_train.3.ark:3162681
fsjs0_sx91 quick_test/data-fmllr-tri3/train/data/feats_fmllr_train.3.ark:9537672
mdhl0_sx359 quick_test/data-fmllr-tri3/train/data/feats_fmllr_train.5.ark:1047623
mdlr1_sx219 quick_test/data-fmllr-tri3/train/data/feats_fmllr_train.5.ark:5270464
mwad0_sx432 quick_test/data-fmllr-tri3/train/data/feats_fmllr_train.10.ark:14094333
mjai0_si682 quick_test/data-fmllr-tri3/train/data/feats_fmllr_train.6.ark:7310877
mbar0_sx149 quick_test/data-fmllr-tri3/train/data/feats_fmllr_train.4.ark:3512771
mkah0_sx268 quick_test/data-fmllr-tri3/train/data/feats_fmllr_train.7.ark:4619948
mmdm1_si783 quick_test/data-fmllr-tri3/train/data/feats_fmllr_train.7.ark:16685824
fpls0_sx60 quick_test/data-fmllr-tri3/train/data/feats_fmllr_train.3.ark:3512016
maeb0_si2250 quick_test/data-fmllr-tri3/train/data/feats_fmllr_train.4.ark:65321
fmjf0_sx444 quick_test/data-fmllr-tri3/train/data/feats_fmllr_train.2.ark:16216065
mbcg0_si957 quick_test/data-fmllr-tri3/train/data/feats_fmllr_train.4.ark:4183098
makr0_si1352 quick_test/data-fmllr-tri3/train/data/feats_fmllr_train.4.ark:1956301
mwrp0_si1525 quick_test/data-fmllr-tri3/train/data/feats_fmllr_train.10.ark:16487401
mhrm0_sx148 quick_test/data-fmllr-tri3/train/data/feats_fmllr_train.6.ark:5479290
milb0_si903 quick_test/data-fmllr-tri3/train/data/feats_fmllr_train.6.ark:6215855
flkm0_sx116 quick_test/data-fmllr-tri3/train/data/feats_fmllr_train.2.ark:12206453
mpgh0_si675 quick_test/data-fmllr-tri3/train/data/feats_fmllr_train.8.ark:6881706
fbas0_sx307 quick_test/data-fmllr-tri3/train/data/feats_fmllr_train.1.ark:2348271
mmxs0_si2136 quick_test/data-fmllr-tri3/train/data/feats_fmllr_train.8.ark:4612859
fsbk0_sx259 quick_test/data-fmllr-tri3/train/data/feats_fmllr_train.3.ark:6505673
ftbr0_sx201 quick_test/data-fmllr-tri3/train/data/feats_fmllr_train.3.ark:14429854
fcjs0_sx257 quick_test/data-fmllr-tri3/train/data/feats_fmllr_train.1.ark:6859168
mjbg0_sx152 quick_test/data-fmllr-tri3/train/data/feats_fmllr_train.6.ark:7768429
mtmt0_sx308 quick_test/data-fmllr-tri3/train/data/feats_fmllr_train.10.ark:8311530
mvlo0_sx427 quick_test/data-fmllr-tri3/train/data/feats_fmllr_train.10.ark:12997521
fbch0_sx146 quick_test/data-fmllr-tri3/train/data/feats_fmllr_train.1.ark:3030250
fcaj0_sx399 quick_test/data-fmllr-tri3/train/data/feats_fmllr_train.1.ark:5537260
mrcg0_si2058 quick_test/data-fmllr-tri3/train/data/feats_fmllr_train.8.ark:13305180
fmbg0_sx80 quick_test/data-fmllr-tri3/train/data/feats_fmllr_train.2.ark:15057521
frjb0_si1427 quick_test/data-fmllr-tri3/train/data/feats_fmllr_train.3.ark:4352158
fmmh0_sx97 quick_test/data-fmllr-tri3/train/data/feats_fmllr_train.2.ark:17889436
fjsk0_sx422 quick_test/data-fmllr-tri3/train/data/feats_fmllr_train.2.ark:3558237
madd0_si538 quick_test/data-fmllr-tri3/train/data/feats_fmllr_train.3.ark:17676873
mdlc0_si765 quick_test/data-fmllr-tri3/train/data/feats_fmllr_train.5.ark:2932948
mwar0_si1045 quick_test/data-fmllr-tri3/train/data/feats_fmllr_train.10.ark:14170707
mkdb0_sx422 quick_test/data-fmllr-tri3/train/data/feats_fmllr_train.7.ark:5836653
mgsh0_sx6 quick_test/data-fmllr-tri3/train/data/feats_fmllr_train.6.ark:2620678
fdkn0_si1202 quick_test/data-fmllr-tri3/train/data/feats_fmllr_train.1.ark:10885957
mppc0_sx242 quick_test/data-fmllr-tri3/train/data/feats_fmllr_train.8.ark:8736576
mrmg0_sx90 quick_test/data-fmllr-tri3/train/data/feats_fmllr_train.9.ark:5856839
msds0_sx447 quick_test/data-fmllr-tri3/train/data/feats_fmllr_train.9.ark:13570600
madd0_sx358 quick_test/data-fmllr-tri3/train/data/feats_fmllr_train.3.ark:17832794
mmvp0_sx294 quick_test/data-fmllr-tri3/train/data/feats_fmllr_train.8.ark:3263647
mwar0_sx325 quick_test/data-fmllr-tri3/train/data/feats_fmllr_train.10.ark:14414204
mgaf0_sx382 quick_test/data-fmllr-tri3/train/data/feats_fmllr_train.5.ark:16530814
fjrb0_sx132 quick_test/data-fmllr-tri3/train/data/feats_fmllr_train.2.ark:2503641
faem0_si2022 quick_test/data-fmllr-tri3/train/data/feats_fmllr_train.1.ark:75881
mtdp0_sx261 quick_test/data-fmllr-tri3/train/data/feats_fmllr_train.10.ark:3458339
mbef0_sx21 quick_test/data-fmllr-tri3/train/data/feats_fmllr_train.4.ark:4694275
flkm0_si1880 quick_test/data-fmllr-tri3/train/data/feats_fmllr_train.2.ark:12043492
mgar0_si1694 quick_test/data-fmllr-tri3/train/data/feats_fmllr_train.6.ark:59241
msat1_sx83 quick_test/data-fmllr-tri3/train/data/feats_fmllr_train.9.ark:12482613
msms0_sx353 quick_test/data-fmllr-tri3/train/data/feats_fmllr_train.9.ark:16854069
mtju0_sx310 quick_test/data-fmllr-tri3/train/data/feats_fmllr_train.10.ark:5538490
mddc0_si2049 quick_test/data-fmllr-tri3/train/data/feats_fmllr_train.4.ark:16715667
ftbw0_sx445 quick_test/data-fmllr-tri3/train/data/feats_fmllr_train.3.ark:14894125
fspm0_si611 quick_test/data-fmllr-tri3/train/data/feats_fmllr_train.3.ark:12823172
megj0_sx167 quick_test/data-fmllr-tri3/train/data/feats_fmllr_train.5.ark:12010184
mrlk0_si2140 quick_test/data-fmllr-tri3/train/data/feats_fmllr_train.9.ark:4472826
mcae0_sx277 quick_test/data-fmllr-tri3/train/data/feats_fmllr_train.4.ark:8387938
mkls0_sx447 quick_test/data-fmllr-tri3/train/data/feats_fmllr_train.7.ark:8536253
fskp0_sx378 quick_test/data-fmllr-tri3/train/data/feats_fmllr_train.3.ark:11051180
mmeb0_sx187 quick_test/data-fmllr-tri3/train/data/feats_fmllr_train.7.ark:17784422
mrre0_si952 quick_test/data-fmllr-tri3/train/data/feats_fmllr_train.9.ark:7553152
mlns0_sx147 quick_test/data-fmllr-tri3/train/data/feats_fmllr_train.7.ark:11966286
fsmm0_sx414 quick_test/data-fmllr-tri3/train/data/feats_fmllr_train.3.ark:12202046
mtcs0_sx262 quick_test/data-fmllr-tri3/train/data/feats_fmllr_train.10.ark:2627504
mtpp0_sx158 quick_test/data-fmllr-tri3/train/data/feats_fmllr_train.10.ark:9298687
fdnc0_si1908 quick_test/data-fmllr-tri3/train/data/feats_fmllr_train.1.ark:12230129
mrhl0_sx165 quick_test/data-fmllr-tri3/train/data/feats_fmllr_train.9.ark:563830
mrmb0_sx321 quick_test/data-fmllr-tri3/train/data/feats_fmllr_train.9.ark:5369528
mjee0_sx67 quick_test/data-fmllr-tri3/train/data/feats_fmllr_train.6.ark:11153153
mcxm0_sx181 quick_test/data-fmllr-tri3/train/data/feats_fmllr_train.4.ark:14128444
mrcg0_sx348 quick_test/data-fmllr-tri3/train/data/feats_fmllr_train.8.ark:13506408
msem1_sx270 quick_test/data-fmllr-tri3/train/data/feats_fmllr_train.9.ark:13968203
fpmy0_sx196 quick_test/data-fmllr-tri3/train/data/feats_fmllr_train.3.ark:3824633
mrms0_sx210 quick_test/data-fmllr-tri3/train/data/feats_fmllr_train.9.ark:6958052
mdlb0_sx136 quick_test/data-fmllr-tri3/train/data/feats_fmllr_train.5.ark:2493238
fmkf0_sx366 quick_test/data-fmllr-tri3/train/data/feats_fmllr_train.2.ark:17384530
mdss1_sx67 quick_test/data-fmllr-tri3/train/data/feats_fmllr_train.5.ark:9202795
mwad0_sx252 quick_test/data-fmllr-tri3/train/data/feats_fmllr_train.10.ark:14022759
fjdm2_sx232 quick_test/data-fmllr-tri3/train/data/feats_fmllr_train.2.ark:208443
mmdm0_si1941 quick_test/data-fmllr-tri3/train/data/feats_fmllr_train.7.ark:16319660
mgsh0_sx127 quick_test/data-fmllr-tri3/train/data/feats_fmllr_train.6.ark:2497079
mrso0_sx39 quick_test/data-fmllr-tri3/train/data/feats_fmllr_train.9.ark:8245637
flet0_si1767 quick_test/data-fmllr-tri3/train/data/feats_fmllr_train.2.ark:10101633
fgrw0_si1990 quick_test/data-fmllr-tri3/train/data/feats_fmllr_train.1.ark:17649781
mbef0_sx291 quick_test/data-fmllr-tri3/train/data/feats_fmllr_train.4.ark:4720222
fjlr0_sx421 quick_test/data-fmllr-tri3/train/data/feats_fmllr_train.2.ark:2283185
mgaf0_si1282 quick_test/data-fmllr-tri3/train/data/feats_fmllr_train.5.ark:16233825
msmc0_si509 quick_test/data-fmllr-tri3/train/data/feats_fmllr_train.9.ark:15868407
fpjf0_sx326 quick_test/data-fmllr-tri3/train/data/feats_fmllr_train.3.ark:3058948
madd0_sx88 quick_test/data-fmllr-tri3/train/data/feats_fmllr_train.3.ark:17915567
fcmg0_si1242 quick_test/data-fmllr-tri3/train/data/feats_fmllr_train.1.ark:7858298
mbom0_sx384 quick_test/data-fmllr-tri3/train/data/feats_fmllr_train.4.ark:6980273
mjde0_si1120 quick_test/data-fmllr-tri3/train/data/feats_fmllr_train.6.ark:8727719
mtmn0_sx254 quick_test/data-fmllr-tri3/train/data/feats_fmllr_train.10.ark:7912886
mlns0_si2037 quick_test/data-fmllr-tri3/train/data/feats_fmllr_train.7.ark:11867992
mjjj0_sx443 quick_test/data-fmllr-tri3/train/data/feats_fmllr_train.6.ark:13077412
mhmr0_sx399 quick_test/data-fmllr-tri3/train/data/feats_fmllr_train.6.ark:5319820
mtas0_si755 quick_test/data-fmllr-tri3/train/data/feats_fmllr_train.10.ark:1021942
flod0_sx387 quick_test/data-fmllr-tri3/train/data/feats_fmllr_train.2.ark:13891750
fmjb0_si547 quick_test/data-fmllr-tri3/train/data/feats_fmllr_train.2.ark:15659262
mesg0_sx342 quick_test/data-fmllr-tri3/train/data/feats_fmllr_train.5.ark:13213127
fhlm0_si2190 quick_test/data-fmllr-tri3/train/data/feats_fmllr_train.1.ark:17983571
mkls1_sx105 quick_test/data-fmllr-tri3/train/data/feats_fmllr_train.7.ark:8780229
mdlr1_sx399 quick_test/data-fmllr-tri3/train/data/feats_fmllr_train.5.ark:5426384
fdtd0_sx121 quick_test/data-fmllr-tri3/train/data/feats_fmllr_train.1.ark:12734881
mmlm0_si897 quick_test/data-fmllr-tri3/train/data/feats_fmllr_train.8.ark:1526698
maeb0_si1411 quick_test/data-fmllr-tri3/train/data/feats_fmllr_train.4.ark:13
mfxs0_sx414 quick_test/data-fmllr-tri3/train/data/feats_fmllr_train.5.ark:15763633
mbbr0_sx425 quick_test/data-fmllr-tri3/train/data/feats_fmllr_train.4.ark:4048590
fsdj0_si1115 quick_test/data-fmllr-tri3/train/data/feats_fmllr_train.3.ark:7578695
fsdj0_sx125 quick_test/data-fmllr-tri3/train/data/feats_fmllr_train.3.ark:7722297
mjrg0_sx376 quick_test/data-fmllr-tri3/train/data/feats_fmllr_train.6.ark:17951461
mdss0_sx261 quick_test/data-fmllr-tri3/train/data/feats_fmllr_train.5.ark:8753058
mjac0_sx307 quick_test/data-fmllr-tri3/train/data/feats_fmllr_train.6.ark:6683164
mrlj0_si2050 quick_test/data-fmllr-tri3/train/data/feats_fmllr_train.9.ark:3764391
mkes0_sx263 quick_test/data-fmllr-tri3/train/data/feats_fmllr_train.7.ark:6963649
mdtb0_si1200 quick_test/data-fmllr-tri3/train/data/feats_fmllr_train.5.ark:9250983
mbwp0_sx169 quick_test/data-fmllr-tri3/train/data/feats_fmllr_train.4.ark:7828014
fspm0_sx71 quick_test/data-fmllr-tri3/train/data/feats_fmllr_train.3.ark:13084586
mbth0_sx32 quick_test/data-fmllr-tri3/train/data/feats_fmllr_train.4.ark:7612197
mgrl0_si1497 quick_test/data-fmllr-tri3/train/data/feats_fmllr_train.6.ark:1506803
mrem0_si511 quick_test/data-fmllr-tri3/train/data/feats_fmllr_train.8.ark:16013900
mntw0_sx202 quick_test/data-fmllr-tri3/train/data/feats_fmllr_train.8.ark:5552280
mtdp0_si1274 quick_test/data-fmllr-tri3/train/data/feats_fmllr_train.10.ark:3218869
mrdd0_sx150 quick_test/data-fmllr-tri3/train/data/feats_fmllr_train.8.ark:14194789
mjeb1_si2097 quick_test/data-fmllr-tri3/train/data/feats_fmllr_train.6.ark:10492135
mdns0_si2271 quick_test/data-fmllr-tri3/train/data/feats_fmllr_train.5.ark:6360795
mdlr0_si1863 quick_test/data-fmllr-tri3/train/data/feats_fmllr_train.5.ark:4713526
mklr0_sx69 quick_test/data-fmllr-tri3/train/data/feats_fmllr_train.7.ark:8156061
fpaz0_sx243 quick_test/data-fmllr-tri3/train/data/feats_fmllr_train.3.ark:2652784
mdma0_sx80 quick_test/data-fmllr-tri3/train/data/feats_fmllr_train.5.ark:5889962
mgak0_si2296 quick_test/data-fmllr-tri3/train/data/feats_fmllr_train.5.ark:17042154
msfv0_sx362 quick_test/data-fmllr-tri3/train/data/feats_fmllr_train.9.ark:15240242
fbmj0_sx66 quick_test/data-fmllr-tri3/train/data/feats_fmllr_train.1.ark:4850745
mbbr0_si1685 quick_test/data-fmllr-tri3/train/data/feats_fmllr_train.4.ark:3823654
mmag0_sx316 quick_test/data-fmllr-tri3/train/data/feats_fmllr_train.7.ark:13699048
mrfk0_sx446 quick_test/data-fmllr-tri3/train/data/feats_fmllr_train.8.ark:16976550
mkam0_sx146 quick_test/data-fmllr-tri3/train/data/feats_fmllr_train.7.ark:5337156
fpac0_sx301 quick_test/data-fmllr-tri3/train/data/feats_fmllr_train.3.ark:1474239
mjxa0_sx427 quick_test/data-fmllr-tri3/train/data/feats_fmllr_train.7.ark:3526392
mdpb0_sx56 quick_test/data-fmllr-tri3/train/data/feats_fmllr_train.5.ark:7025813
mfwk0_sx259 quick_test/data-fmllr-tri3/train/data/feats_fmllr_train.5.ark:15288961
fbmh0_sx56 quick_test/data-fmllr-tri3/train/data/feats_fmllr_train.1.ark:4416289
fjxm0_sx401 quick_test/data-fmllr-tri3/train/data/feats_fmllr_train.2.ark:4704807
mtas0_sx35 quick_test/data-fmllr-tri3/train/data/feats_fmllr_train.10.ark:1167489
fecd0_sx428 quick_test/data-fmllr-tri3/train/data/feats_fmllr_train.1.ark:14490871
mlsh0_si787 quick_test/data-fmllr-tri3/train/data/feats_fmllr_train.7.ark:12293196
mmdg0_si1780 quick_test/data-fmllr-tri3/train/data/feats_fmllr_train.7.ark:15817815
mgag0_si691 quick_test/data-fmllr-tri3/train/data/feats_fmllr_train.5.ark:16663216
mkdd0_si2197 quick_test/data-fmllr-tri3/train/data/feats_fmllr_train.7.ark:6006815
mrso0_sx129 quick_test/data-fmllr-tri3/train/data/feats_fmllr_train.9.ark:8069237
mdcm0_si2110 quick_test/data-fmllr-tri3/train/data/feats_fmllr_train.4.ark:16334330
mpgh0_si924 quick_test/data-fmllr-tri3/train/data/feats_fmllr_train.8.ark:6947173
mlns0_si777 quick_test/data-fmllr-tri3/train/data/feats_fmllr_train.7.ark:11924979
mmgk0_si1952 quick_test/data-fmllr-tri3/train/data/feats_fmllr_train.8.ark:793277
fsjk1_sx305 quick_test/data-fmllr-tri3/train/data/feats_fmllr_train.3.ark:9047482
fdnc0_si1278 quick_test/data-fmllr-tri3/train/data/feats_fmllr_train.1.ark:12146741
fssb0_sx182 quick_test/data-fmllr-tri3/train/data/feats_fmllr_train.3.ark:13643314
maeo0_sx246 quick_test/data-fmllr-tri3/train/data/feats_fmllr_train.4.ark:561140
mjfr0_sx435 quick_test/data-fmllr-tri3/train/data/feats_fmllr_train.6.ark:11831961
mjsr0_sx344 quick_test/data-fmllr-tri3/train/data/feats_fmllr_train.7.ark:1792698
fpad0_sx176 quick_test/data-fmllr-tri3/train/data/feats_fmllr_train.3.ark:1775202
mppc0_si2042 quick_test/data-fmllr-tri3/train/data/feats_fmllr_train.8.ark:8622255
mses0_si1589 quick_test/data-fmllr-tri3/train/data/feats_fmllr_train.9.ark:14166391
mwgr0_si976 quick_test/data-fmllr-tri3/train/data/feats_fmllr_train.10.ark:15736113
mhmg0_si1995 quick_test/data-fmllr-tri3/train/data/feats_fmllr_train.6.ark:4649842
flac0_sx91 quick_test/data-fmllr-tri3/train/data/feats_fmllr_train.2.ark:9180182
fdxw0_si1511 quick_test/data-fmllr-tri3/train/data/feats_fmllr_train.1.ark:13009417
mgsh0_si1806 quick_test/data-fmllr-tri3/train/data/feats_fmllr_train.6.ark:2380065
mmxs0_sx336 quick_test/data-fmllr-tri3/train/data/feats_fmllr_train.8.ark:4831234
flmc0_sx382 quick_test/data-fmllr-tri3/train/data/feats_fmllr_train.2.ark:13158674
mdns0_si1011 quick_test/data-fmllr-tri3/train/data/feats_fmllr_train.5.ark:6279327
fsma0_si1621 quick_test/data-fmllr-tri3/train/data/feats_fmllr_train.3.ark:11485026
mwdk0_sx86 quick_test/data-fmllr-tri3/train/data/feats_fmllr_train.10.ark:15210212
mcpm0_sx294 quick_test/data-fmllr-tri3/train/data/feats_fmllr_train.4.ark:12389680
mjae0_si1999 quick_test/data-fmllr-tri3/train/data/feats_fmllr_train.6.ark:6911140
mjfh0_sx387 quick_test/data-fmllr-tri3/train/data/feats_fmllr_train.6.ark:11481370
mhbs0_sx315 quick_test/data-fmllr-tri3/train/data/feats_fmllr_train.6.ark:3798098
fdxw0_si881 quick_test/data-fmllr-tri3/train/data/feats_fmllr_train.1.ark:13063392
mwre0_sx67 quick_test/data-fmllr-tri3/train/data/feats_fmllr_train.10.ark:16347665
fsmm0_sx234 quick_test/data-fmllr-tri3/train/data/feats_fmllr_train.3.ark:12071592
mjrp0_si1835 quick_test/data-fmllr-tri3/train/data/feats_fmllr_train.7.ark:1120985
fbmj0_sx336 quick_test/data-fmllr-tri3/train/data/feats_fmllr_train.1.ark:4723812
mvrw0_si855 quick_test/data-fmllr-tri3/train/data/feats_fmllr_train.10.ark:13176350
mmpm0_sx71 quick_test/data-fmllr-tri3/train/data/feats_fmllr_train.8.ark:2112810
msmr0_sx145 quick_test/data-fmllr-tri3/train/data/feats_fmllr_train.9.ark:16386918
mrmg0_sx450 quick_test/data-fmllr-tri3/train/data/feats_fmllr_train.9.ark:5796333
mkls1_sx195 quick_test/data-fmllr-tri3/train/data/feats_fmllr_train.7.ark:8868442
mkah0_si1528 quick_test/data-fmllr-tri3/train/data/feats_fmllr_train.7.ark:4423519
fdtd0_sx391 quick_test/data-fmllr-tri3/train/data/feats_fmllr_train.1.ark:12968269
fbmj0_sx156 quick_test/data-fmllr-tri3/train/data/feats_fmllr_train.1.ark:4630318
fljd0_si2146 quick_test/data-fmllr-tri3/train/data/feats_fmllr_train.2.ark:11279726
flod0_si657 quick_test/data-fmllr-tri3/train/data/feats_fmllr_train.2.ark:13682815
fbch0_si1586 quick_test/data-fmllr-tri3/train/data/feats_fmllr_train.1.ark:2849049
mtrr0_si2178 quick_test/data-fmllr-tri3/train/data/feats_fmllr_train.10.ark:10841260
mtrt0_sx237 quick_test/data-fmllr-tri3/train/data/feats_fmllr_train.10.ark:11405558
mgag0_si645 quick_test/data-fmllr-tri3/train/data/feats_fmllr_train.5.ark:16632949
mcre0_sx131 quick_test/data-fmllr-tri3/train/data/feats_fmllr_train.4.ark:12600058
mpgr0_sx240 quick_test/data-fmllr-tri3/train/data/feats_fmllr_train.8.ark:7307764
mdpk0_si1053 quick_test/data-fmllr-tri3/train/data/feats_fmllr_train.5.ark:7068081
mrtc0_sx378 quick_test/data-fmllr-tri3/train/data/feats_fmllr_train.9.ark:9123538
fkkh0_si1920 quick_test/data-fmllr-tri3/train/data/feats_fmllr_train.2.ark:6962455
mdem0_si800 quick_test/data-fmllr-tri3/train/data/feats_fmllr_train.5.ark:464285
mrpc1_sx222 quick_test/data-fmllr-tri3/train/data/feats_fmllr_train.9.ark:7239550
fscn0_si705 quick_test/data-fmllr-tri3/train/data/feats_fmllr_train.3.ark:6854475
fleh0_si1681 quick_test/data-fmllr-tri3/train/data/feats_fmllr_train.2.ark:9732615
mdrd0_si2012 quick_test/data-fmllr-tri3/train/data/feats_fmllr_train.5.ark:7806943
mmws0_sx168 quick_test/data-fmllr-tri3/train/data/feats_fmllr_train.8.ark:4074747
mjrh1_sx334 quick_test/data-fmllr-tri3/train/data/feats_fmllr_train.7.ark:646287
fmjf0_si1254 quick_test/data-fmllr-tri3/train/data/feats_fmllr_train.2.ark:15918782
mmdm0_sx51 quick_test/data-fmllr-tri3/train/data/feats_fmllr_train.7.ark:16577581
mgaw0_si1802 quick_test/data-fmllr-tri3/train/data/feats_fmllr_train.6.ark:456579
mhmg0_si1365 quick_test/data-fmllr-tri3/train/data/feats_fmllr_train.6.ark:4606454
mtcs0_si712 quick_test/data-fmllr-tri3/train/data/feats_fmllr_train.10.ark:2496730
mrbc0_si1665 quick_test/data-fmllr-tri3/train/data/feats_fmllr_train.8.ark:12855815
mcxm0_sx451 quick_test/data-fmllr-tri3/train/data/feats_fmllr_train.4.ark:14266285
mjkr0_si1831 quick_test/data-fmllr-tri3/train/data/feats_fmllr_train.6.ark:13615791
mdwm0_sx106 quick_test/data-fmllr-tri3/train/data/feats_fmllr_train.5.ark:10549157
mrab0_si1224 quick_test/data-fmllr-tri3/train/data/feats_fmllr_train.8.ark:10934728
mjdg0_sx142 quick_test/data-fmllr-tri3/train/data/feats_fmllr_train.6.ark:9388338
msmc0_sx287 quick_test/data-fmllr-tri3/train/data/feats_fmllr_train.9.ark:16123741
mjpm0_sx18 quick_test/data-fmllr-tri3/train/data/feats_fmllr_train.6.ark:16650089
mdpb0_si866 quick_test/data-fmllr-tri3/train/data/feats_fmllr_train.5.ark:6785039
mhit0_si2243 quick_test/data-fmllr-tri3/train/data/feats_fmllr_train.6.ark:3961087
mjpm0_sx288 quick_test/data-fmllr-tri3/train/data/feats_fmllr_train.6.ark:16743423
fljg0_si2241 quick_test/data-fmllr-tri3/train/data/feats_fmllr_train.2.ark:11638023
mbcg0_sx57 quick_test/data-fmllr-tri3/train/data/feats_fmllr_train.4.ark:4432192
msdh0_sx350 quick_test/data-fmllr-tri3/train/data/feats_fmllr_train.9.ark:13033875
mesg0_si702 quick_test/data-fmllr-tri3/train/data/feats_fmllr_train.5.ark:13051446
mwem0_si1393 quick_test/data-fmllr-tri3/train/data/feats_fmllr_train.10.ark:15298748
mrdm0_sx335 quick_test/data-fmllr-tri3/train/data/feats_fmllr_train.8.ark:14653940
mtbc0_sx183 quick_test/data-fmllr-tri3/train/data/feats_fmllr_train.10.ark:2212700
mjrk0_sx70 quick_test/data-fmllr-tri3/train/data/feats_fmllr_train.7.ark:1102717
mkln0_sx68 quick_test/data-fmllr-tri3/train/data/feats_fmllr_train.7.ark:7820963
mrhl0_sx435 quick_test/data-fmllr-tri3/train/data/feats_fmllr_train.9.ark:692871
madd0_si1798 quick_test/data-fmllr-tri3/train/data/feats_fmllr_train.3.ark:17620686
mmeb0_sx327 quick_test/data-fmllr-tri3/train/data/feats_fmllr_train.7.ark:17812929
faem0_sx312 quick_test/data-fmllr-tri3/train/data/feats_fmllr_train.1.ark:244309
mtat0_sx30 quick_test/data-fmllr-tri3/train/data/feats_fmllr_train.10.ark:1514559
mtju0_si2269 quick_test/data-fmllr-tri3/train/data/feats_fmllr_train.10.ark:5370862
ftlg0_si840 quick_test/data-fmllr-tri3/train/data/feats_fmllr_train.3.ark:15123033
mrcg0_sx168 quick_test/data-fmllr-tri3/train/data/feats_fmllr_train.8.ark:13407314
fljg0_sx351 quick_test/data-fmllr-tri3/train/data/feats_fmllr_train.2.ark:11866291
mprk0_sx17 quick_test/data-fmllr-tri3/train/data/feats_fmllr_train.8.ark:10070826
mjda0_sx401 quick_test/data-fmllr-tri3/train/data/feats_fmllr_train.6.ark:8273528
fdkn0_sx361 quick_test/data-fmllr-tri3/train/data/feats_fmllr_train.1.ark:11112306
mbma1_si2214 quick_test/data-fmllr-tri3/train/data/feats_fmllr_train.4.ark:5947996
mppc0_sx152 quick_test/data-fmllr-tri3/train/data/feats_fmllr_train.8.ark:8696389
makb0_si2276 quick_test/data-fmllr-tri3/train/data/feats_fmllr_train.4.ark:1643339
fmah1_sx159 quick_test/data-fmllr-tri3/train/data/feats_fmllr_train.2.ark:14486638
mrjm1_sx308 quick_test/data-fmllr-tri3/train/data/feats_fmllr_train.9.ark:2338993
mmaa0_sx35 quick_test/data-fmllr-tri3/train/data/feats_fmllr_train.7.ark:12914800
msas0_sx116 quick_test/data-fmllr-tri3/train/data/feats_fmllr_train.9.ark:11628311
mdlh0_sx340 quick_test/data-fmllr-tri3/train/data/feats_fmllr_train.5.ark:4176880
mreh1_sx159 quick_test/data-fmllr-tri3/train/data/feats_fmllr_train.8.ark:15713578
flkm0_si620 quick_test/data-fmllr-tri3/train/data/feats_fmllr_train.2.ark:12094239
mjdg0_si1705 quick_test/data-fmllr-tri3/train/data/feats_fmllr_train.6.ark:9352791
mbjv0_si1877 quick_test/data-fmllr-tri3/train/data/feats_fmllr_train.4.ark:5243722
mrab0_sx234 quick_test/data-fmllr-tri3/train/data/feats_fmllr_train.8.ark:11114837
ftlg0_sx33 quick_test/data-fmllr-tri3/train/data/feats_fmllr_train.3.ark:15299620
mefg0_si465 quick_test/data-fmllr-tri3/train/data/feats_fmllr_train.5.ark:11417726
mbar0_sx419 quick_test/data-fmllr-tri3/train/data/feats_fmllr_train.4.ark:3675572
mdbp0_sx78 quick_test/data-fmllr-tri3/train/data/feats_fmllr_train.4.ark:15851977
mdlb0_sx406 quick_test/data-fmllr-tri3/train/data/feats_fmllr_train.5.ark:2672199
mrlj1_sx51 quick_test/data-fmllr-tri3/train/data/feats_fmllr_train.9.ark:4361410
fspm0_sx161 quick_test/data-fmllr-tri3/train/data/feats_fmllr_train.3.ark:12860799
mrxb0_sx325 quick_test/data-fmllr-tri3/train/data/feats_fmllr_train.9.ark:10968410
fecd0_si788 quick_test/data-fmllr-tri3/train/data/feats_fmllr_train.1.ark:14266443
fsmm0_sx144 quick_test/data-fmllr-tri3/train/data/feats_fmllr_train.3.ark:12030125
mjrp0_si585 quick_test/data-fmllr-tri3/train/data/feats_fmllr_train.7.ark:1208560
mmdg0_sx160 quick_test/data-fmllr-tri3/train/data/feats_fmllr_train.7.ark:15979657
mjrk0_sx430 quick_test/data-fmllr-tri3/train/data/feats_fmllr_train.7.ark:1041411
majp0_sx264 quick_test/data-fmllr-tri3/train/data/feats_fmllr_train.4.ark:1287655
fklc0_si985 quick_test/data-fmllr-tri3/train/data/feats_fmllr_train.2.ark:7365899
fsjg0_sx310 quick_test/data-fmllr-tri3/train/data/feats_fmllr_train.3.ark:8630145
fpad0_sx356 quick_test/data-fmllr-tri3/train/data/feats_fmllr_train.3.ark:1886456
mcdr0_sx344 quick_test/data-fmllr-tri3/train/data/feats_fmllr_train.4.ark:10000991
mesj0_si997 quick_test/data-fmllr-tri3/train/data/feats_fmllr_train.5.ark:13467183
mjrk0_sx160 quick_test/data-fmllr-tri3/train/data/feats_fmllr_train.7.ark:887730
mjeb0_sx296 quick_test/data-fmllr-tri3/train/data/feats_fmllr_train.6.ark:10338772
mcxm0_si1981 quick_test/data-fmllr-tri3/train/data/feats_fmllr_train.4.ark:14031110
mjwg0_si2155 quick_test/data-fmllr-tri3/train/data/feats_fmllr_train.7.ark:1951819
mjeb1_sx387 quick_test/data-fmllr-tri3/train/data/feats_fmllr_train.6.ark:10777256
mpfu0_si1258 quick_test/data-fmllr-tri3/train/data/feats_fmllr_train.8.ark:6416822
mges0_sx131 quick_test/data-fmllr-tri3/train/data/feats_fmllr_train.6.ark:850610
mbml0_si1799 quick_test/data-fmllr-tri3/train/data/feats_fmllr_train.4.ark:6365493
mrlk0_sx123 quick_test/data-fmllr-tri3/train/data/feats_fmllr_train.9.ark:4587120
mdcd0_si2045 quick_test/data-fmllr-tri3/train/data/feats_fmllr_train.4.ark:15932673
mrhl0_si885 quick_test/data-fmllr-tri3/train/data/feats_fmllr_train.9.ark:513563
fexm0_sx111 quick_test/data-fmllr-tri3/train/data/feats_fmllr_train.1.ark:15968778
mkdt0_si2153 quick_test/data-fmllr-tri3/train/data/feats_fmllr_train.7.ark:6322364
mrvg0_sx420 quick_test/data-fmllr-tri3/train/data/feats_fmllr_train.9.ark:9898986
fmah1_si2139 quick_test/data-fmllr-tri3/train/data/feats_fmllr_train.2.ark:14383384
mrso0_sx309 quick_test/data-fmllr-tri3/train/data/feats_fmllr_train.9.ark:8183211
fbas0_si2066 quick_test/data-fmllr-tri3/train/data/feats_fmllr_train.1.ark:2181150
mrdd0_sx277 quick_test/data-fmllr-tri3/train/data/feats_fmllr_train.8.ark:14270843
mtjm0_sx326 quick_test/data-fmllr-tri3/train/data/feats_fmllr_train.10.ark:4720616
mmsm0_sx206 quick_test/data-fmllr-tri3/train/data/feats_fmllr_train.8.ark:2784203
fjkl0_sx32 quick_test/data-fmllr-tri3/train/data/feats_fmllr_train.2.ark:1523389
mprb0_sx35 quick_test/data-fmllr-tri3/train/data/feats_fmllr_train.8.ark:9286926
mddc0_sx249 quick_test/data-fmllr-tri3/train/data/feats_fmllr_train.4.ark:16840388
fkkh0_si1290 quick_test/data-fmllr-tri3/train/data/feats_fmllr_train.2.ark:6890107
fsls0_sx426 quick_test/data-fmllr-tri3/train/data/feats_fmllr_train.3.ark:11387052
mdem0_sx68 quick_test/data-fmllr-tri3/train/data/feats_fmllr_train.5.ark:774819
mdcd0_sx335 quick_test/data-fmllr-tri3/train/data/feats_fmllr_train.4.ark:16129741
mjdm0_sx170 quick_test/data-fmllr-tri3/train/data/feats_fmllr_train.6.ark:9746635
mdpk0_sx243 quick_test/data-fmllr-tri3/train/data/feats_fmllr_train.5.ark:7229470
ftaj0_si699 quick_test/data-fmllr-tri3/train/data/feats_fmllr_train.3.ark:13980303
mcss0_sx390 quick_test/data-fmllr-tri3/train/data/feats_fmllr_train.4.ark:13186140
mrmb0_sx141 quick_test/data-fmllr-tri3/train/data/feats_fmllr_train.9.ark:5289954
marw0_sx286 quick_test/data-fmllr-tri3/train/data/feats_fmllr_train.4.ark:3177727
fjlr0_sx241 quick_test/data-fmllr-tri3/train/data/feats_fmllr_train.2.ark:2187931
mhmr0_sx39 quick_test/data-fmllr-tri3/train/data/feats_fmllr_train.6.ark:5277873
mpgh0_sx294 quick_test/data-fmllr-tri3/train/data/feats_fmllr_train.8.ark:7086480
ftmg0_si2162 quick_test/data-fmllr-tri3/train/data/feats_fmllr_train.3.ark:15409303
mrds0_sx87 quick_test/data-fmllr-tri3/train/data/feats_fmllr_train.8.ark:15095490
mjae0_si1524 quick_test/data-fmllr-tri3/train/data/feats_fmllr_train.6.ark:6859592
mcal0_sx58 quick_test/data-fmllr-tri3/train/data/feats_fmllr_train.4.ark:8924873
mbgt0_sx81 quick_test/data-fmllr-tri3/train/data/feats_fmllr_train.4.ark:5154226
mjlb0_sx176 quick_test/data-fmllr-tri3/train/data/feats_fmllr_train.6.ark:14090302
fcdr1_si1816 quick_test/data-fmllr-tri3/train/data/feats_fmllr_train.1.ark:5667716
fkfb0_sx438 quick_test/data-fmllr-tri3/train/data/feats_fmllr_train.2.ark:6749093
fmkc0_sx172 quick_test/data-fmllr-tri3/train/data/feats_fmllr_train.2.ark:16873059
fgdp0_sx358 quick_test/data-fmllr-tri3/train/data/feats_fmllr_train.1.ark:16881907
makb0_sx386 quick_test/data-fmllr-tri3/train/data/feats_fmllr_train.4.ark:1917073
mrml0_si2051 quick_test/data-fmllr-tri3/train/data/feats_fmllr_train.9.ark:6342393
mjrk0_si2103 quick_test/data-fmllr-tri3/train/data/feats_fmllr_train.7.ark:792316
fltm0_si1070 quick_test/data-fmllr-tri3/train/data/feats_fmllr_train.2.ark:13933538
mtdp0_sx81 quick_test/data-fmllr-tri3/train/data/feats_fmllr_train.10.ark:3638259
mkls1_sx285 quick_test/data-fmllr-tri3/train/data/feats_fmllr_train.7.ark:8899829
fajw0_sx3 quick_test/data-fmllr-tri3/train/data/feats_fmllr_train.1.ark:683084
mhit0_sx263 quick_test/data-fmllr-tri3/train/data/feats_fmllr_train.6.ark:4126608
mklr0_si1689 quick_test/data-fmllr-tri3/train/data/feats_fmllr_train.7.ark:7925179
mjxa0_si877 quick_test/data-fmllr-tri3/train/data/feats_fmllr_train.7.ark:3350924
fksr0_si487 quick_test/data-fmllr-tri3/train/data/feats_fmllr_train.2.ark:8573431
flet0_si1137 quick_test/data-fmllr-tri3/train/data/feats_fmllr_train.2.ark:10052325
mkdt0_sx263 quick_test/data-fmllr-tri3/train/data/feats_fmllr_train.7.ark:6541032
fpls0_sx330 quick_test/data-fmllr-tri3/train/data/feats_fmllr_train.3.ark:3466070
msat1_si1703 quick_test/data-fmllr-tri3/train/data/feats_fmllr_train.9.ark:12208051
mnet0_sx6 quick_test/data-fmllr-tri3/train/data/feats_fmllr_train.8.ark:5245556
fmem0_si2007 quick_test/data-fmllr-tri3/train/data/feats_fmllr_train.2.ark:15152617
mmds0_si713 quick_test/data-fmllr-tri3/train/data/feats_fmllr_train.7.ark:17098841
msat0_sx356 quick_test/data-fmllr-tri3/train/data/feats_fmllr_train.9.ark:12043302
mrwa0_sx343 quick_test/data-fmllr-tri3/train/data/feats_fmllr_train.9.ark:10219656
mwac0_si2231 quick_test/data-fmllr-tri3/train/data/feats_fmllr_train.10.ark:13479580
mtxs0_sx70 quick_test/data-fmllr-tri3/train/data/feats_fmllr_train.10.ark:12309913
mrlj1_sx411 quick_test/data-fmllr-tri3/train/data/feats_fmllr_train.9.ark:4317704
mwch0_sx452 quick_test/data-fmllr-tri3/train/data/feats_fmllr_train.10.ark:14769649
mwem0_si1950 quick_test/data-fmllr-tri3/train/data/feats_fmllr_train.10.ark:15337496
mdjm0_sx105 quick_test/data-fmllr-tri3/train/data/feats_fmllr_train.5.ark:1728323
fsms1_si874 quick_test/data-fmllr-tri3/train/data/feats_fmllr_train.3.ark:12404075
mdcm0_sx40 quick_test/data-fmllr-tri3/train/data/feats_fmllr_train.4.ark:16562304
mpmb0_si2131 quick_test/data-fmllr-tri3/train/data/feats_fmllr_train.8.ark:7992278
mkrg0_sx141 quick_test/data-fmllr-tri3/train/data/feats_fmllr_train.7.ark:9582104
fjhk0_si1022 quick_test/data-fmllr-tri3/train/data/feats_fmllr_train.2.ark:864449
fecd0_si2048 quick_test/data-fmllr-tri3/train/data/feats_fmllr_train.1.ark:14225136
fcke0_sx301 quick_test/data-fmllr-tri3/train/data/feats_fmllr_train.1.ark:7306132
fjsk0_sx152 quick_test/data-fmllr-tri3/train/data/feats_fmllr_train.2.ark:3409036
mtpr0_si2230 quick_test/data-fmllr-tri3/train/data/feats_fmllr_train.10.ark:9569570
mmdb0_sx447 quick_test/data-fmllr-tri3/train/data/feats_fmllr_train.7.ark:15755521
mdcd0_sx65 quick_test/data-fmllr-tri3/train/data/feats_fmllr_train.4.ark:16231874
mjws0_sx153 quick_test/data-fmllr-tri3/train/data/feats_fmllr_train.7.ark:2531797
fsma0_si2251 quick_test/data-fmllr-tri3/train/data/feats_fmllr_train.3.ark:11510014
mrds0_sx177 quick_test/data-fmllr-tri3/train/data/feats_fmllr_train.8.ark:14927543
mrab1_sx218 quick_test/data-fmllr-tri3/train/data/feats_fmllr_train.8.ark:11517774
fhxs0_si2335 quick_test/data-fmllr-tri3/train/data/feats_fmllr_train.1.ark:18546217
mrab0_sx324 quick_test/data-fmllr-tri3/train/data/feats_fmllr_train.8.ark:11158864
fbjl0_si2182 quick_test/data-fmllr-tri3/train/data/feats_fmllr_train.1.ark:3325293
fmjf0_si624 quick_test/data-fmllr-tri3/train/data/feats_fmllr_train.2.ark:15988277
fssb0_sx272 quick_test/data-fmllr-tri3/train/data/feats_fmllr_train.3.ark:13688301
fspm0_si1871 quick_test/data-fmllr-tri3/train/data/feats_fmllr_train.3.ark:12783785
makr0_sx92 quick_test/data-fmllr-tri3/train/data/feats_fmllr_train.4.ark:2209770
fjxm0_si1971 quick_test/data-fmllr-tri3/train/data/feats_fmllr_train.2.ark:4451712
mmjb1_sx58 quick_test/data-fmllr-tri3/train/data/feats_fmllr_train.8.ark:1380855
mtpg0_si753 quick_test/data-fmllr-tri3/train/data/feats_fmllr_train.10.ark:8900363
fcyl0_sx37 quick_test/data-fmllr-tri3/train/data/feats_fmllr_train.1.ark:9236844
fcmg0_si1142 quick_test/data-fmllr-tri3/train/data/feats_fmllr_train.1.ark:7779390
fmem0_sx297 quick_test/data-fmllr-tri3/train/data/feats_fmllr_train.2.ark:15341525
fvmh0_si836 quick_test/data-fmllr-tri3/train/data/feats_fmllr_train.3.ark:16603902
mejl0_si1654 quick_test/data-fmllr-tri3/train/data/feats_fmllr_train.5.ark:12299625
mkrg0_si1491 quick_test/data-fmllr-tri3/train/data/feats_fmllr_train.7.ark:9393382
mmdm0_sx411 quick_test/data-fmllr-tri3/train/data/feats_fmllr_train.7.ark:16521715
mter0_sx17 quick_test/data-fmllr-tri3/train/data/feats_fmllr_train.10.ark:3908155
mjae0_sx84 quick_test/data-fmllr-tri3/train/data/feats_fmllr_train.6.ark:7197382
fssb0_sx452 quick_test/data-fmllr-tri3/train/data/feats_fmllr_train.3.ark:13799555
mdss1_sx427 quick_test/data-fmllr-tri3/train/data/feats_fmllr_train.5.ark:9169329
fdaw0_si2036 quick_test/data-fmllr-tri3/train/data/feats_fmllr_train.1.ark:9848852
mbar0_si689 quick_test/data-fmllr-tri3/train/data/feats_fmllr_train.4.ark:3455784
fdnc0_si2287 quick_test/data-fmllr-tri3/train/data/feats_fmllr_train.1.ark:12303437
mjhi0_sx428 quick_test/data-fmllr-tri3/train/data/feats_fmllr_train.6.ark:12232657
fceg0_sx258 quick_test/data-fmllr-tri3/train/data/feats_fmllr_train.1.ark:6221134
mmgc0_sx135 quick_test/data-fmllr-tri3/train/data/feats_fmllr_train.8.ark:150016
mwar0_sx55 quick_test/data-fmllr-tri3/train/data/feats_fmllr_train.10.ark:14488497
mbom0_si1644 quick_test/data-fmllr-tri3/train/data/feats_fmllr_train.4.ark:6738350
fceg0_si618 quick_test/data-fmllr-tri3/train/data/feats_fmllr_train.1.ark:6152920
mmrp0_sx414 quick_test/data-fmllr-tri3/train/data/feats_fmllr_train.8.ark:2452040
mafm0_si1569 quick_test/data-fmllr-tri3/train/data/feats_fmllr_train.4.ark:746368
fpad0_si1976 quick_test/data-fmllr-tri3/train/data/feats_fmllr_train.3.ark:1659948
mjxa0_sx337 quick_test/data-fmllr-tri3/train/data/feats_fmllr_train.7.ark:3484605
mjlb0_sx86 quick_test/data-fmllr-tri3/train/data/feats_fmllr_train.6.ark:14267369
mlel0_sx346 quick_test/data-fmllr-tri3/train/data/feats_fmllr_train.7.ark:10786329
mdpb0_sx326 quick_test/data-fmllr-tri3/train/data/feats_fmllr_train.5.ark:6944000
fmju0_si1389 quick_test/data-fmllr-tri3/train/data/feats_fmllr_train.2.ark:16331479
msdb0_sx287 quick_test/data-fmllr-tri3/train/data/feats_fmllr_train.9.ark:12732564
feac0_sx255 quick_test/data-fmllr-tri3/train/data/feats_fmllr_train.1.ark:13557743
fmkf0_sx186 quick_test/data-fmllr-tri3/train/data/feats_fmllr_train.2.ark:17307836
mmws1_si1701 quick_test/data-fmllr-tri3/train/data/feats_fmllr_train.8.ark:4364830
mdlr0_sx423 quick_test/data-fmllr-tri3/train/data/feats_fmllr_train.5.ark:4960221
mwgr0_si1606 quick_test/data-fmllr-tri3/train/data/feats_fmllr_train.10.ark:15655898
flhd0_sx174 quick_test/data-fmllr-tri3/train/data/feats_fmllr_train.2.ark:10539345
mjde0_si463 quick_test/data-fmllr-tri3/train/data/feats_fmllr_train.6.ark:8827426
feeh0_sx122 quick_test/data-fmllr-tri3/train/data/feats_fmllr_train.1.ark:14745727
mrjm0_sx148 quick_test/data-fmllr-tri3/train/data/feats_fmllr_train.9.ark:1843522
fpaz0_sx423 quick_test/data-fmllr-tri3/train/data/feats_fmllr_train.3.ark:2729317
mgxp0_sx277 quick_test/data-fmllr-tri3/train/data/feats_fmllr_train.6.ark:3377216
mesg0_sx432 quick_test/data-fmllr-tri3/train/data/feats_fmllr_train.5.ark:13267074
fjdm2_si1964 quick_test/data-fmllr-tri3/train/data/feats_fmllr_train.2.ark:42601
mrjh0_sx259 quick_test/data-fmllr-tri3/train/data/feats_fmllr_train.9.ark:1496451
fsls0_sx156 quick_test/data-fmllr-tri3/train/data/feats_fmllr_train.3.ark:11261211
mwdk0_si1436 quick_test/data-fmllr-tri3/train/data/feats_fmllr_train.10.ark:14865863
mklw0_si1844 quick_test/data-fmllr-tri3/train/data/feats_fmllr_train.7.ark:9072552
fcke0_si1111 quick_test/data-fmllr-tri3/train/data/feats_fmllr_train.1.ark:7059756
mcss0_sx210 quick_test/data-fmllr-tri3/train/data/feats_fmllr_train.4.ark:13079340
mlel0_sx436 quick_test/data-fmllr-tri3/train/data/feats_fmllr_train.7.ark:10840436
mhjb0_si1017 quick_test/data-fmllr-tri3/train/data/feats_fmllr_train.6.ark:4299836
fdfb0_sx148 quick_test/data-fmllr-tri3/train/data/feats_fmllr_train.1.ark:10261577
mdef0_sx33 quick_test/data-fmllr-tri3/train/data/feats_fmllr_train.5.ark:274256
mjxl0_si542 quick_test/data-fmllr-tri3/train/data/feats_fmllr_train.7.ark:3714501
msvs0_si2198 quick_test/data-fmllr-tri3/train/data/feats_fmllr_train.10.ark:41321
fkfb0_si1608 quick_test/data-fmllr-tri3/train/data/feats_fmllr_train.2.ark:6430530
mjac0_si701 quick_test/data-fmllr-tri3/train/data/feats_fmllr_train.6.ark:6545190
fgmb0_si515 quick_test/data-fmllr-tri3/train/data/feats_fmllr_train.1.ark:17186043
mrab0_sx144 quick_test/data-fmllr-tri3/train/data/feats_fmllr_train.8.ark:11074490
fclt0_si2068 quick_test/data-fmllr-tri3/train/data/feats_fmllr_train.1.ark:7449441
msas0_sx296 quick_test/data-fmllr-tri3/train/data/feats_fmllr_train.9.ark:11770951
mkjo0_si1517 quick_test/data-fmllr-tri3/train/data/feats_fmllr_train.7.ark:7147117
fdas1_sx381 quick_test/data-fmllr-tri3/train/data/feats_fmllr_train.1.ark:9692768
mtrc0_si589 quick_test/data-fmllr-tri3/train/data/feats_fmllr_train.10.ark:10508083
mtat1_sx329 quick_test/data-fmllr-tri3/train/data/feats_fmllr_train.10.ark:1900377
mlsh0_sx427 quick_test/data-fmllr-tri3/train/data/feats_fmllr_train.7.ark:12494424
mafm0_sx399 quick_test/data-fmllr-tri3/train/data/feats_fmllr_train.4.ark:1026077
mtxs0_si1060 quick_test/data-fmllr-tri3/train/data/feats_fmllr_train.10.ark:11883803
mjhi0_si698 quick_test/data-fmllr-tri3/train/data/feats_fmllr_train.6.ark:12057509
mgrl0_si2127 quick_test/data-fmllr-tri3/train/data/feats_fmllr_train.6.ark:1544751
fdmy0_sx387 quick_test/data-fmllr-tri3/train/data/feats_fmllr_train.1.ark:12079033
mmar0_si1336 quick_test/data-fmllr-tri3/train/data/feats_fmllr_train.7.ark:14181587
fcmm0_sx420 quick_test/data-fmllr-tri3/train/data/feats_fmllr_train.1.ark:8462811
fajw0_si633 quick_test/data-fmllr-tri3/train/data/feats_fmllr_train.1.ark:512445
mpgh0_sx24 quick_test/data-fmllr-tri3/train/data/feats_fmllr_train.8.ark:7056053
mtpf0_si605 quick_test/data-fmllr-tri3/train/data/feats_fmllr_train.10.ark:8541906
mrav0_si1008 quick_test/data-fmllr-tri3/train/data/feats_fmllr_train.8.ark:12512557
mejs0_si1240 quick_test/data-fmllr-tri3/train/data/feats_fmllr_train.5.ark:12598374
mmgk0_sx422 quick_test/data-fmllr-tri3/train/data/feats_fmllr_train.8.ark:950692
mdtb0_sx390 quick_test/data-fmllr-tri3/train/data/feats_fmllr_train.5.ark:9538693
mdhs0_si900 quick_test/data-fmllr-tri3/train/data/feats_fmllr_train.5.ark:1286959
mjsr0_si794 quick_test/data-fmllr-tri3/train/data/feats_fmllr_train.7.ark:1606217
mrgm0_si532 quick_test/data-fmllr-tri3/train/data/feats_fmllr_train.8.ark:17597196
mgak0_sx46 quick_test/data-fmllr-tri3/train/data/feats_fmllr_train.5.ark:17318288
mtpg0_sx393 quick_test/data-fmllr-tri3/train/data/feats_fmllr_train.10.ark:9120657
fcdr1_sx16 quick_test/data-fmllr-tri3/train/data/feats_fmllr_train.1.ark:5875636
mrvg0_si510 quick_test/data-fmllr-tri3/train/data/feats_fmllr_train.9.ark:9743358
fcmm0_sx363 quick_test/data-fmllr-tri3/train/data/feats_fmllr_train.1.ark:8416384
fmjb0_sx97 quick_test/data-fmllr-tri3/train/data/feats_fmllr_train.2.ark:15881314
mmar0_sx346 quick_test/data-fmllr-tri3/train/data/feats_fmllr_train.7.ark:14495963
mmdb0_sx177 quick_test/data-fmllr-tri3/train/data/feats_fmllr_train.7.ark:15631440
mmab1_sx324 quick_test/data-fmllr-tri3/train/data/feats_fmllr_train.7.ark:13236271
flmc0_si742 quick_test/data-fmllr-tri3/train/data/feats_fmllr_train.2.ark:12913740
fceg0_si1248 quick_test/data-fmllr-tri3/train/data/feats_fmllr_train.1.ark:6075585
frll0_sx164 quick_test/data-fmllr-tri3/train/data/feats_fmllr_train.3.ark:4874857
mtlc0_sx217 quick_test/data-fmllr-tri3/train/data/feats_fmllr_train.10.ark:7099651
fdaw0_si1406 quick_test/data-fmllr-tri3/train/data/feats_fmllr_train.1.ark:9808504
fceg0_si1878 quick_test/data-fmllr-tri3/train/data/feats_fmllr_train.1.ark:6132733
mprt0_si1210 quick_test/data-fmllr-tri3/train/data/feats_fmllr_train.8.ark:10284855
fpls0_si1590 quick_test/data-fmllr-tri3/train/data/feats_fmllr_train.3.ark:3203989
mrlj0_sx70 quick_test/data-fmllr-tri3/train/data/feats_fmllr_train.9.ark:4044712
mlbc0_si609 quick_test/data-fmllr-tri3/train/data/feats_fmllr_train.7.ark:10225071
mprt0_sx220 quick_test/data-fmllr-tri3/train/data/feats_fmllr_train.8.ark:10454243
mmea0_si2018 quick_test/data-fmllr-tri3/train/data/feats_fmllr_train.7.ark:17380951
mrai0_sx162 quick_test/data-fmllr-tri3/train/data/feats_fmllr_train.8.ark:11888204
mmam0_si2227 quick_test/data-fmllr-tri3/train/data/feats_fmllr_train.7.ark:13944465
mdcd0_sx245 quick_test/data-fmllr-tri3/train/data/feats_fmllr_train.4.ark:16090514
fcmm0_si1083 quick_test/data-fmllr-tri3/train/data/feats_fmllr_train.1.ark:8195768
ftbw0_sx265 quick_test/data-fmllr-tri3/train/data/feats_fmllr_train.3.ark:14809911
mdbb1_sx376 quick_test/data-fmllr-tri3/train/data/feats_fmllr_train.4.ark:15428720
mchl0_sx447 quick_test/data-fmllr-tri3/train/data/feats_fmllr_train.4.ark:11289670
mrmh0_si1021 quick_test/data-fmllr-tri3/train/data/feats_fmllr_train.9.ark:5893347
