mrav0_sx18 quick_test/mfcc/raw_mfcc_train.4.ark:332420
mprt0_si495 quick_test/mfcc/raw_mfcc_train.4.ark:134820
mcdd0_sx343 quick_test/mfcc/raw_mfcc_train.2.ark:1557704
mjde0_si490 quick_test/mfcc/raw_mfcc_train.3.ark:745024
fsjs0_si1171 quick_test/mfcc/raw_mfcc_train.2.ark:14132
mtrr0_sx108 quick_test/mfcc/raw_mfcc_train.4.ark:3218101
fssb0_sx362 quick_test/mfcc/raw_mfcc_train.2.ark:397270
mkes0_sx353 quick_test/mfcc/raw_mfcc_train.3.ark:2100917
mdbb1_sx16 quick_test/mfcc/raw_mfcc_train.2.ark:2041304
fsag0_sx333 quick_test/mfcc/raw_mfcc_train.1.ark:3575759
mrew1_sx420 quick_test/mfcc/raw_mfcc_train.4.ark:661165
mkrg0_sx51 quick_test/mfcc/raw_mfcc_train.3.ark:2329390
mdpb0_sx56 quick_test/mfcc/raw_mfcc_train.2.ark:2808507
mpmb0_sx61 quick_test/mfcc/raw_mfcc_train.3.ark:3736985
flmk0_sx135 quick_test/mfcc/raw_mfcc_train.1.ark:2702553
mbar0_sx59 quick_test/mfcc/raw_mfcc_train.2.ark:1067137
msvs0_si1568 quick_test/mfcc/raw_mfcc_train.4.ark:2298857
mses0_si2219 quick_test/mfcc/raw_mfcc_train.4.ark:1972018
mesg0_sx432 quick_test/mfcc/raw_mfcc_train.2.ark:3333823
fskl0_si1529 quick_test/mfcc/raw_mfcc_train.2.ark:113467
fjhk0_si1652 quick_test/mfcc/raw_mfcc_train.1.ark:1657138
fjkl0_si2192 quick_test/mfcc/raw_mfcc_train.1.ark:1687525
mlns0_sx147 quick_test/mfcc/raw_mfcc_train.3.ark:2517972
mcss0_sx300 quick_test/mfcc/raw_mfcc_train.2.ark:1859875
mpeb0_si600 quick_test/mfcc/raw_mfcc_train.3.ark:3540106
mkam0_si1250 quick_test/mfcc/raw_mfcc_train.3.ark:1944576
mdks0_sx436 quick_test/mfcc/raw_mfcc_train.2.ark:2405154
mctm0_sx90 quick_test/mfcc/raw_mfcc_train.2.ark:1927817
fsrh0_sx221 quick_test/mfcc/raw_mfcc_train.2.ark:358387
mfxv0_sx195 quick_test/mfcc/raw_mfcc_train.2.ark:3573290
mbgt0_si711 quick_test/mfcc/raw_mfcc_train.2.ark:1165442
fkdw0_si1207 quick_test/mfcc/raw_mfcc_train.1.ark:2089253
ftlg0_si1743 quick_test/mfcc/raw_mfcc_train.2.ark:501942
mtlb0_sx324 quick_test/mfcc/raw_mfcc_train.4.ark:2863069
fkdw0_sx307 quick_test/mfcc/raw_mfcc_train.1.ark:2111051
mded0_sx90 quick_test/mfcc/raw_mfcc_train.2.ark:2214822
mbma1_si2207 quick_test/mfcc/raw_mfcc_train.2.ark:1252204
fsmm0_sx234 quick_test/mfcc/raw_mfcc_train.2.ark:258233
mrwa0_sx73 quick_test/mfcc/raw_mfcc_train.4.ark:1642364
mrds0_sx267 quick_test/mfcc/raw_mfcc_train.4.ark:522876
mgjc0_sx255 quick_test/mfcc/raw_mfcc_train.3.ark:108011
fbjl0_si922 quick_test/mfcc/raw_mfcc_train.1.ark:282294
fntb0_sx123 quick_test/mfcc/raw_mfcc_train.1.ark:3172699
mbma0_sx232 quick_test/mfcc/raw_mfcc_train.2.ark:1236329
fvmh0_sx26 quick_test/mfcc/raw_mfcc_train.2.ark:651601
mstf0_sx136 quick_test/mfcc/raw_mfcc_train.4.ark:2277502
mwre0_si2317 quick_test/mfcc/raw_mfcc_train.4.ark:3653787
mgak0_sx136 quick_test/mfcc/raw_mfcc_train.2.ark:3655127
fcmg0_si1872 quick_test/mfcc/raw_mfcc_train.1.ark:663906
mmlm0_si2150 quick_test/mfcc/raw_mfcc_train.3.ark:3148507
mgar0_sx402 quick_test/mfcc/raw_mfcc_train.3.ark:25121
milb0_sx93 quick_test/mfcc/raw_mfcc_train.3.ark:541260
mdns0_si1011 quick_test/mfcc/raw_mfcc_train.2.ark:2745832
mjsr0_sx254 quick_test/mfcc/raw_mfcc_train.3.ark:1659498
mdwm0_sx433 quick_test/mfcc/raw_mfcc_train.2.ark:3119921
mmwb0_sx179 quick_test/mfcc/raw_mfcc_train.3.ark:3330755
mbom0_sx311 quick_test/mfcc/raw_mfcc_train.2.ark:1336810
msrr0_sx51 quick_test/mfcc/raw_mfcc_train.4.ark:2260079
mkes0_sx443 quick_test/mfcc/raw_mfcc_train.3.ark:2105799
msfh0_si1216 quick_test/mfcc/raw_mfcc_train.4.ark:1993159
fjlr0_sx151 quick_test/mfcc/raw_mfcc_train.1.ark:1760467
mwac0_si1601 quick_test/mfcc/raw_mfcc_train.4.ark:3424750
mkdd0_sx307 quick_test/mfcc/raw_mfcc_train.3.ark:2033776
mrxb0_si955 quick_test/mfcc/raw_mfcc_train.4.ark:1683082
mdlh0_sx430 quick_test/mfcc/raw_mfcc_train.2.ark:2573542
mses0_sx149 quick_test/mfcc/raw_mfcc_train.4.ark:1975977
mrgs0_sx96 quick_test/mfcc/raw_mfcc_train.4.ark:807245
mrlr0_si1196 quick_test/mfcc/raw_mfcc_train.4.ark:1176443
mdks0_si2326 quick_test/mfcc/raw_mfcc_train.2.ark:2385730
fcmg0_sx252 quick_test/mfcc/raw_mfcc_train.1.ark:672019
mtmn0_si1064 quick_test/mfcc/raw_mfcc_train.4.ark:2941179
fdxw0_si1511 quick_test/mfcc/raw_mfcc_train.1.ark:1092649
mcdc0_si662 quick_test/mfcc/raw_mfcc_train.2.ark:1516949
fsjw0_sx343 quick_test/mfcc/raw_mfcc_train.2.ark:70151
mdem0_sx428 quick_test/mfcc/raw_mfcc_train.2.ark:2277395
mjxl0_si1795 quick_test/mfcc/raw_mfcc_train.3.ark:1822352
frll0_si805 quick_test/mfcc/raw_mfcc_train.1.ark:3525988
mjai0_sx434 quick_test/mfcc/raw_mfcc_train.3.ark:636663
msmr0_sx145 quick_test/mfcc/raw_mfcc_train.4.ark:2150929
fmmh0_sx97 quick_test/mfcc/raw_mfcc_train.1.ark:3083129
msrr0_si1131 quick_test/mfcc/raw_mfcc_train.4.ark:2231366
fdaw0_sx416 quick_test/mfcc/raw_mfcc_train.1.ark:844569
msdb0_sx107 quick_test/mfcc/raw_mfcc_train.4.ark:1837440
fskl0_sx89 quick_test/mfcc/raw_mfcc_train.2.ark:142155
mdem0_sx68 quick_test/mfcc/raw_mfcc_train.2.ark:2283342
fexm0_sx366 quick_test/mfcc/raw_mfcc_train.1.ark:1355015
fsms1_si874 quick_test/mfcc/raw_mfcc_train.2.ark:286057
mbjv0_sx77 quick_test/mfcc/raw_mfcc_train.2.ark:1218001
mjrh1_sx424 quick_test/mfcc/raw_mfcc_train.3.ark:1570226
mjrk0_si2103 quick_test/mfcc/raw_mfcc_train.3.ark:1579595
fdfb0_sx328 quick_test/mfcc/raw_mfcc_train.1.ark:868280
fmju0_si759 quick_test/mfcc/raw_mfcc_train.1.ark:2961377
mmrp0_sx414 quick_test/mfcc/raw_mfcc_train.3.ark:3232025
mstf0_sx406 quick_test/mfcc/raw_mfcc_train.4.ark:2290042
mkag0_sx79 quick_test/mfcc/raw_mfcc_train.3.ark:1880169
maeo0_sx156 quick_test/mfcc/raw_mfcc_train.2.ark:797617
mclk0_sx400 quick_test/mfcc/raw_mfcc_train.2.ark:1740068
mmbs0_sx251 quick_test/mfcc/raw_mfcc_train.3.ark:2762428
medr0_sx24 quick_test/mfcc/raw_mfcc_train.2.ark:3170007
mrlr0_sx386 quick_test/mfcc/raw_mfcc_train.4.ark:1204117
mmsm0_si1736 quick_test/mfcc/raw_mfcc_train.3.ark:3247361
meal0_sx287 quick_test/mfcc/raw_mfcc_train.2.ark:3138685
fmmh0_si1537 quick_test/mfcc/raw_mfcc_train.1.ark:3053468
mtat1_si1627 quick_test/mfcc/raw_mfcc_train.4.ark:2438895
mprd0_sx171 quick_test/mfcc/raw_mfcc_train.4.ark:68954
mlbc0_sx339 quick_test/mfcc/raw_mfcc_train.3.ark:2384144
fexm0_si1101 quick_test/mfcc/raw_mfcc_train.1.ark:1326515
mdef0_si1563 quick_test/mfcc/raw_mfcc_train.2.ark:2224900
fljd0_sx166 quick_test/mfcc/raw_mfcc_train.1.ark:2533853
mjbg0_sx422 quick_test/mfcc/raw_mfcc_train.3.ark:666920
mwad0_si2322 quick_test/mfcc/raw_mfcc_train.4.ark:3470206
fmmh0_si2167 quick_test/mfcc/raw_mfcc_train.1.ark:3058676
mkes0_sx263 quick_test/mfcc/raw_mfcc_train.3.ark:2097608
mjrp0_si1835 quick_test/mfcc/raw_mfcc_train.3.ark:1607243
fdxw0_si2141 quick_test/mfcc/raw_mfcc_train.1.ark:1095413
mwsb0_sx186 quick_test/mfcc/raw_mfcc_train.4.ark:3722482
mjpm1_si2280 quick_test/mfcc/raw_mfcc_train.3.ark:1417836
mtat0_sx210 quick_test/mfcc/raw_mfcc_train.4.ark:2422895
fpab1_si2101 quick_test/mfcc/raw_mfcc_train.1.ark:3194387
mdwd0_sx90 quick_test/mfcc/raw_mfcc_train.2.ark:3050647
mrml0_si791 quick_test/mfcc/raw_mfcc_train.4.ark:1310107
mmbs0_sx161 quick_test/mfcc/raw_mfcc_train.3.ark:2756753
msfv0_sx272 quick_test/mfcc/raw_mfcc_train.4.ark:2051134
mrgm0_si1162 quick_test/mfcc/raw_mfcc_train.4.ark:735225
fclt0_sx268 quick_test/mfcc/raw_mfcc_train.1.ark:637992
fhlm0_sx349 quick_test/mfcc/raw_mfcc_train.1.ark:1531023
mprt0_sx400 quick_test/mfcc/raw_mfcc_train.4.ark:155401
mmcc0_si708 quick_test/mfcc/raw_mfcc_train.3.ark:2789797
fdfb0_si1318 quick_test/mfcc/raw_mfcc_train.1.ark:852123
mhmg0_si735 quick_test/mfcc/raw_mfcc_train.3.ark:394479
mpfu0_sx88 quick_test/mfcc/raw_mfcc_train.3.ark:3594472
mpgr1_sx59 quick_test/mfcc/raw_mfcc_train.3.ark:3686033
fbmh0_si1136 quick_test/mfcc/raw_mfcc_train.1.ark:342519
mjxa0_sx427 quick_test/mfcc/raw_mfcc_train.3.ark:1808888
mmpm0_si1691 quick_test/mfcc/raw_mfcc_train.3.ark:3177593
mtju0_sx130 quick_test/mfcc/raw_mfcc_train.4.ark:2755712
mded0_si1800 quick_test/mfcc/raw_mfcc_train.2.ark:2187858
mrkm0_sx367 quick_test/mfcc/raw_mfcc_train.4.ark:1044960
fsma0_si2251 quick_test/mfcc/raw_mfcc_train.2.ark:211121
fbch0_sx416 quick_test/mfcc/raw_mfcc_train.1.ark:265716
mesj0_sx187 quick_test/mfcc/raw_mfcc_train.2.ark:3355465
fjxp0_sx312 quick_test/mfcc/raw_mfcc_train.1.ark:2005787
madd0_sx268 quick_test/mfcc/raw_mfcc_train.2.ark:738268
fjdm2_si2212 quick_test/mfcc/raw_mfcc_train.1.ark:1589287
mjlb0_sx446 quick_test/mfcc/raw_mfcc_train.3.ark:1195724
mhrm0_sx148 quick_test/mfcc/raw_mfcc_train.3.ark:460718
mlbc0_sx69 quick_test/mfcc/raw_mfcc_train.3.ark:2391424
fmbg0_sx3 quick_test/mfcc/raw_mfcc_train.1.ark:2833075
mjlg1_sx292 quick_test/mfcc/raw_mfcc_train.3.ark:1223861
fjsp0_si1763 quick_test/mfcc/raw_mfcc_train.1.ark:1893984
mmdm1_sx63 quick_test/mfcc/raw_mfcc_train.3.ark:2938272
fkkh0_sx210 quick_test/mfcc/raw_mfcc_train.1.ark:2180266
mafm0_si939 quick_test/mfcc/raw_mfcc_train.2.ark:820469
mtpp0_sx158 quick_test/mfcc/raw_mfcc_train.4.ark:3079606
mrmh0_si2281 quick_test/mfcc/raw_mfcc_train.4.ark:1279877
mbsb0_sx363 quick_test/mfcc/raw_mfcc_train.2.ark:1362775
mewm0_sx358 quick_test/mfcc/raw_mfcc_train.2.ark:3387540
mpgh0_si675 quick_test/mfcc/raw_mfcc_train.3.ark:3604211
mkdb0_sx62 quick_test/mfcc/raw_mfcc_train.3.ark:2008057
marw0_si1906 quick_test/mfcc/raw_mfcc_train.2.ark:1007941
msmr0_sx325 quick_test/mfcc/raw_mfcc_train.4.ark:2158769
flhd0_sx174 quick_test/mfcc/raw_mfcc_train.1.ark:2465969
fjrb0_sx222 quick_test/mfcc/raw_mfcc_train.1.ark:1794812
mbcg0_sx57 quick_test/mfcc/raw_mfcc_train.2.ark:1126986
fpjf0_sx56 quick_test/mfcc/raw_mfcc_train.1.ark:3392964
mwch0_si2252 quick_test/mfcc/raw_mfcc_train.4.ark:3526092
fsjg0_sx400 quick_test/mfcc/raw_mfcc_train.1.ark:3862606
mrdd0_si2310 quick_test/mfcc/raw_mfcc_train.4.ark:455109
maeb0_si1411 quick_test/mfcc/raw_mfcc_train.2.ark:754052
mdss0_sx351 quick_test/mfcc/raw_mfcc_train.2.ark:2956043
msjk0_si966 quick_test/mfcc/raw_mfcc_train.4.ark:2078646
flet0_sx57 quick_test/mfcc/raw_mfcc_train.1.ark:2452392
mesj0_sx7 quick_test/mfcc/raw_mfcc_train.2.ark:3364259
fksr0_si487 quick_test/mfcc/raw_mfcc_train.1.ark:2300705
mrwa0_si2233 quick_test/mfcc/raw_mfcc_train.4.ark:1617753
mdhl0_sx179 quick_test/mfcc/raw_mfcc_train.2.ark:2299661
mrsp0_si799 quick_test/mfcc/raw_mfcc_train.4.ark:1486375
mrre0_si704 quick_test/mfcc/raw_mfcc_train.4.ark:1404808
mkrg0_sx31 quick_test/mfcc/raw_mfcc_train.3.ark:2323579
msmc0_sx197 quick_test/mfcc/raw_mfcc_train.4.ark:2125041
mrmg0_sx90 quick_test/mfcc/raw_mfcc_train.4.ark:1266749
msrg0_si1221 quick_test/mfcc/raw_mfcc_train.4.ark:2201253
fjlg0_sx269 quick_test/mfcc/raw_mfcc_train.1.ark:1731726
mdwh0_sx305 quick_test/mfcc/raw_mfcc_train.2.ark:3078381
megj0_sx167 quick_test/mfcc/raw_mfcc_train.2.ark:3228060
fjrp1_si802 quick_test/mfcc/raw_mfcc_train.1.ark:1824755
fdtd0_si931 quick_test/mfcc/raw_mfcc_train.1.ark:1065839
mmdm1_sx333 quick_test/mfcc/raw_mfcc_train.3.ark:2927872
mvrw0_sx315 quick_test/mfcc/raw_mfcc_train.4.ark:3415707
mjfh0_si1737 quick_test/mfcc/raw_mfcc_train.3.ark:946054
mrdd0_sx60 quick_test/mfcc/raw_mfcc_train.4.ark:472199
mrgm0_si532 quick_test/mfcc/raw_mfcc_train.4.ark:744496
mjmd0_sx398 quick_test/mfcc/raw_mfcc_train.3.ark:1320227
mvjh0_si926 quick_test/mfcc/raw_mfcc_train.4.ark:3345450
mmaa0_sx305 quick_test/mfcc/raw_mfcc_train.3.ark:2593812
mwac0_si971 quick_test/mfcc/raw_mfcc_train.4.ark:3435308
mcre0_sx24 quick_test/mfcc/raw_mfcc_train.2.ark:1821645
mmbs0_sx71 quick_test/mfcc/raw_mfcc_train.3.ark:2776800
mcdd0_si883 quick_test/mfcc/raw_mfcc_train.2.ark:1547101
mbsb0_si1983 quick_test/mfcc/raw_mfcc_train.2.ark:1349183
mrtc0_sx378 quick_test/mfcc/raw_mfcc_train.4.ark:1540806
mkam0_sx146 quick_test/mfcc/raw_mfcc_train.3.ark:1961005
fvfb0_sx402 quick_test/mfcc/raw_mfcc_train.2.ark:591045
mjrk0_si880 quick_test/mfcc/raw_mfcc_train.3.ark:1581890
fpls0_sx240 quick_test/mfcc/raw_mfcc_train.1.ark:3412462
mjde0_sx400 quick_test/mfcc/raw_mfcc_train.3.ark:772293
makb0_si1646 quick_test/mfcc/raw_mfcc_train.2.ark:888086
mdjm0_si825 quick_test/mfcc/raw_mfcc_train.2.ark:2359412
mrjh0_si1519 quick_test/mfcc/raw_mfcc_train.4.ark:878595
mwdk0_sx446 quick_test/mfcc/raw_mfcc_train.4.ark:3572873
mwem0_si1320 quick_test/mfcc/raw_mfcc_train.4.ark:3579855
mtas0_si755 quick_test/mfcc/raw_mfcc_train.4.ark:2384318
mrms0_sx300 quick_test/mfcc/raw_mfcc_train.4.ark:1364051
mjmd0_sx38 quick_test/mfcc/raw_mfcc_train.3.ark:1316333
fcyl0_sx127 quick_test/mfcc/raw_mfcc_train.1.ark:764847
fmem0_si1377 quick_test/mfcc/raw_mfcc_train.1.ark:2848339
fsmm0_sx144 quick_test/mfcc/raw_mfcc_train.2.ark:254729
fbch0_sx56 quick_test/mfcc/raw_mfcc_train.1.ark:270792
mrab0_sx144 quick_test/mfcc/raw_mfcc_train.4.ark:196308
mefg0_si465 quick_test/mfcc/raw_mfcc_train.2.ark:3178439
fdnc0_sx18 quick_test/mfcc/raw_mfcc_train.1.ark:1039873
mprb0_sx395 quick_test/mfcc/raw_mfcc_train.4.ark:49762
fskl0_sx449 quick_test/mfcc/raw_mfcc_train.2.ark:137820
mdem0_si608 quick_test/mfcc/raw_mfcc_train.2.ark:2251581
mjkr0_sx211 quick_test/mfcc/raw_mfcc_train.3.ark:1157758
fajw0_si1263 quick_test/mfcc/raw_mfcc_train.1.ark:32804
mgsl0_sx264 quick_test/mfcc/raw_mfcc_train.3.ark:247011
mjxl0_sx92 quick_test/mfcc/raw_mfcc_train.3.ark:1845715
fbmj0_sx246 quick_test/mfcc/raw_mfcc_train.1.ark:392940
mljh0_si1422 quick_test/mfcc/raw_mfcc_train.3.ark:2468943
mrew1_sx330 quick_test/mfcc/raw_mfcc_train.4.ark:656556
mrpc1_sx132 quick_test/mfcc/raw_mfcc_train.4.ark:1380040
ftbw0_si1975 quick_test/mfcc/raw_mfcc_train.2.ark:472968
mmgk0_sx62 quick_test/mfcc/raw_mfcc_train.3.ark:3109720
fpab1_sx301 quick_test/mfcc/raw_mfcc_train.1.ark:3216398
fdaw0_sx56 quick_test/mfcc/raw_mfcc_train.1.ark:848072
mrtc0_sx198 quick_test/mfcc/raw_mfcc_train.4.ark:1532615
mchl0_sx267 quick_test/mfcc/raw_mfcc_train.2.ark:1694478
mdsj0_sx292 quick_test/mfcc/raw_mfcc_train.2.ark:2926696
mnet0_si816 quick_test/mfcc/raw_mfcc_train.3.ark:3452095
mmaa0_sx125 quick_test/mfcc/raw_mfcc_train.3.ark:2585764
mwem0_si1393 quick_test/mfcc/raw_mfcc_train.4.ark:3584114
mrjt0_sx238 quick_test/mfcc/raw_mfcc_train.4.ark:999110
mrdd0_sx277 quick_test/mfcc/raw_mfcc_train.4.ark:464919
fjlr0_si1231 quick_test/mfcc/raw_mfcc_train.1.ark:1748654
mdpb0_si2126 quick_test/mfcc/raw_mfcc_train.2.ark:2783922
feme0_si875 quick_test/mfcc/raw_mfcc_train.1.ark:1266590
mmdm1_si783 quick_test/mfcc/raw_mfcc_train.3.ark:2914253
flma0_sx253 quick_test/mfcc/raw_mfcc_train.1.ark:2643581
mjai0_si1604 quick_test/mfcc/raw_mfcc_train.3.ark:611050
msat1_si2333 quick_test/mfcc/raw_mfcc_train.4.ark:1803900
mwsh0_sx346 quick_test/mfcc/raw_mfcc_train.4.ark:3763787
mbwp0_si1531 quick_test/mfcc/raw_mfcc_train.2.ark:1403002
mprt0_sx310 quick_test/mfcc/raw_mfcc_train.4.ark:148355
mmvp0_sx294 quick_test/mfcc/raw_mfcc_train.3.ark:3299992
flet0_si507 quick_test/mfcc/raw_mfcc_train.1.ark:2433482
mdtb0_sx321 quick_test/mfcc/raw_mfcc_train.2.ark:3015717
mdrd0_sx212 quick_test/mfcc/raw_mfcc_train.2.ark:2890142
fcaj0_si1479 quick_test/mfcc/raw_mfcc_train.1.ark:440021
mmsm0_si1106 quick_test/mfcc/raw_mfcc_train.3.ark:3241724
mwad0_sx342 quick_test/mfcc/raw_mfcc_train.4.ark:3479353
mprk0_sx197 quick_test/mfcc/raw_mfcc_train.4.ark:116032
mgsl0_si1164 quick_test/mfcc/raw_mfcc_train.3.ark:229121
mjai0_si682 quick_test/mfcc/raw_mfcc_train.3.ark:614658
msds0_sx267 quick_test/mfcc/raw_mfcc_train.4.ark:1903225
mmgc0_si1305 quick_test/mfcc/raw_mfcc_train.3.ark:3025510
mjls0_sx376 quick_test/mfcc/raw_mfcc_train.3.ark:1261508
fvkb0_sx259 quick_test/mfcc/raw_mfcc_train.2.ark:610796
mcss0_sx30 quick_test/mfcc/raw_mfcc_train.2.ark:1857138
mmxs0_sx426 quick_test/mfcc/raw_mfcc_train.3.ark:3436973
mkls1_si2175 quick_test/mfcc/raw_mfcc_train.3.ark:2241498
fmpg0_si972 quick_test/mfcc/raw_mfcc_train.1.ark:3094956
ftlg0_si483 quick_test/mfcc/raw_mfcc_train.2.ark:508163
mefg0_sx375 quick_test/mfcc/raw_mfcc_train.2.ark:3208010
fleh0_sx61 quick_test/mfcc/raw_mfcc_train.1.ark:2420550
mmeb0_si1987 quick_test/mfcc/raw_mfcc_train.3.ark:3001127
mbma1_sx234 quick_test/mfcc/raw_mfcc_train.2.ark:1268223
mpsw0_si1067 quick_test/mfcc/raw_mfcc_train.4.ark:158646
mdlc1_sx175 quick_test/mfcc/raw_mfcc_train.2.ark:2500257
msms0_sx173 quick_test/mfcc/raw_mfcc_train.4.ark:2182472
ftaj0_si1329 quick_test/mfcc/raw_mfcc_train.2.ark:412774
fjrp1_sx82 quick_test/mfcc/raw_mfcc_train.1.ark:1850308
mrfk0_sx356 quick_test/mfcc/raw_mfcc_train.4.ark:688607
mdps0_sx89 quick_test/mfcc/raw_mfcc_train.2.ark:2867641
mdsj0_sx112 quick_test/mfcc/raw_mfcc_train.2.ark:2919832
mcpm0_sx24 quick_test/mfcc/raw_mfcc_train.2.ark:1793143
mrhl0_sx255 quick_test/mfcc/raw_mfcc_train.4.ark:826431
fjrp1_si2062 quick_test/mfcc/raw_mfcc_train.1.ark:1822109
msjk0_si2226 quick_test/mfcc/raw_mfcc_train.4.ark:2075740
mprk0_si1097 quick_test/mfcc/raw_mfcc_train.4.ark:90478
feeh0_sx122 quick_test/mfcc/raw_mfcc_train.1.ark:1238447
fkfb0_sx78 quick_test/mfcc/raw_mfcc_train.1.ark:2156023
fbcg1_si982 quick_test/mfcc/raw_mfcc_train.1.ark:211994
mram0_si1905 quick_test/mfcc/raw_mfcc_train.4.ark:289675
mwdk0_sx86 quick_test/mfcc/raw_mfcc_train.4.ark:3576649
mdss1_sx67 quick_test/mfcc/raw_mfcc_train.2.ark:2991863
meal0_sx347 quick_test/mfcc/raw_mfcc_train.2.ark:3142202
fdas1_si2091 quick_test/mfcc/raw_mfcc_train.1.ark:790422
mcss0_sx390 quick_test/mfcc/raw_mfcc_train.2.ark:1863067
ftlg0_sx303 quick_test/mfcc/raw_mfcc_train.2.ark:526339
mjra0_sx156 quick_test/mfcc/raw_mfcc_train.3.ark:1459936
mdrd0_sx392 quick_test/mfcc/raw_mfcc_train.2.ark:2903149
fklh0_sx447 quick_test/mfcc/raw_mfcc_train.1.ark:2285570
mjrg0_si736 quick_test/mfcc/raw_mfcc_train.3.ark:1486493
fmkc0_sx352 quick_test/mfcc/raw_mfcc_train.1.ark:3006176
mgaf0_sx112 quick_test/mfcc/raw_mfcc_train.2.ark:3597124
fssb0_sx452 quick_test/mfcc/raw_mfcc_train.2.ark:403218
mrbc0_sx419 quick_test/mfcc/raw_mfcc_train.4.ark:370400
mmdg0_sx430 quick_test/mfcc/raw_mfcc_train.3.ark:2869395
mdcd0_sx65 quick_test/mfcc/raw_mfcc_train.2.ark:2119166
mrfk0_sx176 quick_test/mfcc/raw_mfcc_train.4.ark:680949
mewm0_sx268 quick_test/mfcc/raw_mfcc_train.2.ark:3383724
fsjg0_sx220 quick_test/mfcc/raw_mfcc_train.1.ark:3845049
mbma0_sx52 quick_test/mfcc/raw_mfcc_train.2.ark:1248231
mreh1_sx339 quick_test/mfcc/raw_mfcc_train.4.ark:594498
mbbr0_sx335 quick_test/mfcc/raw_mfcc_train.2.ark:1088892
fsgf0_sx27 quick_test/mfcc/raw_mfcc_train.1.ark:3814734
fmem0_si2007 quick_test/mfcc/raw_mfcc_train.1.ark:2853482
fjrb0_sx132 quick_test/mfcc/raw_mfcc_train.1.ark:1791477
mmgc0_sx315 quick_test/mfcc/raw_mfcc_train.3.ark:3044826
fskc0_sx246 quick_test/mfcc/raw_mfcc_train.2.ark:97631
fclt0_sx448 quick_test/mfcc/raw_mfcc_train.1.ark:645715
mfxs0_sx324 quick_test/mfcc/raw_mfcc_train.2.ark:3538640
fpad0_si1976 quick_test/mfcc/raw_mfcc_train.1.ark:3266820
mtpg0_sx33 quick_test/mfcc/raw_mfcc_train.4.ark:3061356
fcmm0_sx93 quick_test/mfcc/raw_mfcc_train.1.ark:716595
fetb0_sx68 quick_test/mfcc/raw_mfcc_train.1.ark:1322919
fksr0_sx366 quick_test/mfcc/raw_mfcc_train.1.ark:2312413
fjhk0_sx392 quick_test/mfcc/raw_mfcc_train.1.ark:1681932
msdh0_sx350 quick_test/mfcc/raw_mfcc_train.4.ark:1870128
frll0_sx164 quick_test/mfcc/raw_mfcc_train.1.ark:3536935
mtjg0_si890 quick_test/mfcc/raw_mfcc_train.4.ark:2646386
mljh0_sx334 quick_test/mfcc/raw_mfcc_train.3.ark:2493658
fmjb0_si547 quick_test/mfcc/raw_mfcc_train.1.ark:2895862
mkls1_sx195 quick_test/mfcc/raw_mfcc_train.3.ark:2257905
mbth0_sx122 quick_test/mfcc/raw_mfcc_train.2.ark:1381803
mfer0_sx52 quick_test/mfcc/raw_mfcc_train.2.ark:3421943
mwre0_sx67 quick_test/mfcc/raw_mfcc_train.4.ark:3672307
mwre0_sx157 quick_test/mfcc/raw_mfcc_train.4.ark:3656966
mjfr0_si2235 quick_test/mfcc/raw_mfcc_train.3.ark:973073
freh0_si1945 quick_test/mfcc/raw_mfcc_train.1.ark:3468778
mctm0_si720 quick_test/mfcc/raw_mfcc_train.2.ark:1909778
mmgk0_si1952 quick_test/mfcc/raw_mfcc_train.3.ark:3092259
mrlr0_sx206 quick_test/mfcc/raw_mfcc_train.4.ark:1193138
fgrw0_si1990 quick_test/mfcc/raw_mfcc_train.1.ark:1481824
mbml0_sx179 quick_test/mfcc/raw_mfcc_train.2.ark:1296925
mcss0_si750 quick_test/mfcc/raw_mfcc_train.2.ark:1845444
meal0_sx107 quick_test/mfcc/raw_mfcc_train.2.ark:3133367
fspm0_si1871 quick_test/mfcc/raw_mfcc_train.2.ark:317853
ftmg0_sx452 quick_test/mfcc/raw_mfcc_train.2.ark:559670
mrre0_si952 quick_test/mfcc/raw_mfcc_train.4.ark:1409300
mkes0_si623 quick_test/mfcc/raw_mfcc_train.3.ark:2087142
mmgk0_sx152 quick_test/mfcc/raw_mfcc_train.3.ark:3096641
mdlm0_sx154 quick_test/mfcc/raw_mfcc_train.2.ark:2593741
mter0_sx167 quick_test/mfcc/raw_mfcc_train.4.ark:2621559
mtat1_si1409 quick_test/mfcc/raw_mfcc_train.4.ark:2435000
mrmh0_sx211 quick_test/mfcc/raw_mfcc_train.4.ark:1287639
fljd0_si1516 quick_test/mfcc/raw_mfcc_train.1.ark:2521416
mcre0_si1121 quick_test/mfcc/raw_mfcc_train.2.ark:1801615
mjeb1_sx387 quick_test/mfcc/raw_mfcc_train.3.ark:905746
mrai0_sx432 quick_test/mfcc/raw_mfcc_train.4.ark:276614
mwsh0_sx76 quick_test/mfcc/raw_mfcc_train.4.ark:3772198
mded0_sx360 quick_test/mfcc/raw_mfcc_train.2.ark:2205969
flhd0_si1974 quick_test/mfcc/raw_mfcc_train.1.ark:2461945
mrlk0_sx33 quick_test/mfcc/raw_mfcc_train.4.ark:1169941
mtqc0_sx361 quick_test/mfcc/raw_mfcc_train.4.ark:3161504
mjhi0_si555 quick_test/mfcc/raw_mfcc_train.3.ark:1010582
msdb0_si2267 quick_test/mfcc/raw_mfcc_train.4.ark:1834755
mgaw0_sx445 quick_test/mfcc/raw_mfcc_train.3.ark:57392
fceg0_sx348 quick_test/mfcc/raw_mfcc_train.1.ark:525672
flma0_sx343 quick_test/mfcc/raw_mfcc_train.1.ark:2646201
maeb0_sx270 quick_test/mfcc/raw_mfcc_train.2.ark:770994
fmbg0_sx260 quick_test/mfcc/raw_mfcc_train.1.ark:2828962
mjmd0_sx128 quick_test/mfcc/raw_mfcc_train.3.ark:1306381
mjac0_sx431 quick_test/mfcc/raw_mfcc_train.3.ark:568832
mrgs0_sx366 quick_test/mfcc/raw_mfcc_train.4.ark:796431
mdlr0_sx63 quick_test/mfcc/raw_mfcc_train.2.ark:2639897
mchl0_sx447 quick_test/mfcc/raw_mfcc_train.2.ark:1703449
fdaw0_sx326 quick_test/mfcc/raw_mfcc_train.1.ark:840727
fljd0_sx76 quick_test/mfcc/raw_mfcc_train.1.ark:2549584
mpsw0_si2327 quick_test/mfcc/raw_mfcc_train.4.ark:165097
megj0_sx3 quick_test/mfcc/raw_mfcc_train.2.ark:3237094
fsrh0_si1931 quick_test/mfcc/raw_mfcc_train.2.ark:348161
mter0_sx17 quick_test/mfcc/raw_mfcc_train.4.ark:2626648
fsah0_si1244 quick_test/mfcc/raw_mfcc_train.1.ark:3592901
mmrp0_si2034 quick_test/mfcc/raw_mfcc_train.3.ark:3206867
flja0_si2338 quick_test/mfcc/raw_mfcc_train.1.ark:2496245
mjpm1_si761 quick_test/mfcc/raw_mfcc_train.3.ark:1420430
mabc0_sx421 quick_test/mfcc/raw_mfcc_train.2.ark:680994
mklw0_sx311 quick_test/mfcc/raw_mfcc_train.3.ark:2287305
mcre0_sx401 quick_test/mfcc/raw_mfcc_train.2.ark:1824720
mfwk0_si1249 quick_test/mfcc/raw_mfcc_train.2.ark:3490394
mram0_sx375 quick_test/mfcc/raw_mfcc_train.4.ark:312818
mrws0_sx112 quick_test/mfcc/raw_mfcc_train.4.ark:1657474
msrg0_si591 quick_test/mfcc/raw_mfcc_train.4.ark:2208548
flag0_si834 quick_test/mfcc/raw_mfcc_train.1.ark:2364753
mtrc0_sx183 quick_test/mfcc/raw_mfcc_train.4.ark:3194183
mdcm0_sx40 quick_test/mfcc/raw_mfcc_train.2.ark:2146958
mmag0_si1126 quick_test/mfcc/raw_mfcc_train.3.ark:2639403
mkdd0_si1567 quick_test/mfcc/raw_mfcc_train.3.ark:2011744
fpaf0_si1684 quick_test/mfcc/raw_mfcc_train.1.ark:3305006
mbjv0_sx347 quick_test/mfcc/raw_mfcc_train.2.ark:1209291
mklw0_si1571 quick_test/mfcc/raw_mfcc_train.3.ark:2268223
fsbk0_si1069 quick_test/mfcc/raw_mfcc_train.1.ark:3659393
mdas0_sx6 quick_test/mfcc/raw_mfcc_train.2.ark:2018485
mdns0_sx21 quick_test/mfcc/raw_mfcc_train.2.ark:2768838
mgak0_si2296 quick_test/mfcc/raw_mfcc_train.2.ark:3651883
mmab1_si1494 quick_test/mfcc/raw_mfcc_train.3.ark:2604883
fajw0_si1893 quick_test/mfcc/raw_mfcc_train.1.ark:39403
fjlr0_si601 quick_test/mfcc/raw_mfcc_train.1.ark:1756729
mcxm0_sx451 quick_test/mfcc/raw_mfcc_train.2.ark:1953933
fsdc0_sx232 quick_test/mfcc/raw_mfcc_train.1.ark:3749107
mjwt0_si1291 quick_test/mfcc/raw_mfcc_train.3.ark:1749404
marw0_sx16 quick_test/mfcc/raw_mfcc_train.2.ark:1017971
marw0_si1276 quick_test/mfcc/raw_mfcc_train.2.ark:1004072
mdsj0_sx382 quick_test/mfcc/raw_mfcc_train.2.ark:2931344
mjra0_si606 quick_test/mfcc/raw_mfcc_train.3.ark:1456315
fvkb0_si1159 quick_test/mfcc/raw_mfcc_train.2.ark:596714
mljh0_sx154 quick_test/mfcc/raw_mfcc_train.3.ark:2483712
mjra0_sx426 quick_test/mfcc/raw_mfcc_train.3.ark:1472593
mrds0_sx177 quick_test/mfcc/raw_mfcc_train.4.ark:520165
mcal0_si1138 quick_test/mfcc/raw_mfcc_train.2.ark:1478410
fclt0_sx358 quick_test/mfcc/raw_mfcc_train.1.ark:642276
mgar0_sx132 quick_test/mfcc/raw_mfcc_train.3.ark:11281
marw0_si646 quick_test/mfcc/raw_mfcc_train.2.ark:1010795
mwem0_sx420 quick_test/mfcc/raw_mfcc_train.4.ark:3602818
mjae0_sx174 quick_test/mfcc/raw_mfcc_train.3.ark:587329
mmgc0_sx405 quick_test/mfcc/raw_mfcc_train.3.ark:3048707
fsdj0_si1115 quick_test/mfcc/raw_mfcc_train.1.ark:3763773
mtmt0_si1748 quick_test/mfcc/raw_mfcc_train.4.ark:2979867
ftaj0_si474 quick_test/mfcc/raw_mfcc_train.2.ark:415524
mrfl0_sx256 quick_test/mfcc/raw_mfcc_train.4.ark:719012
mtas0_sx215 quick_test/mfcc/raw_mfcc_train.4.ark:2390026
mclk0_sx220 quick_test/mfcc/raw_mfcc_train.2.ark:1728569
mtas0_si2015 quick_test/mfcc/raw_mfcc_train.4.ark:2381906
mmgk0_si1322 quick_test/mfcc/raw_mfcc_train.3.ark:3087753
faem0_sx312 quick_test/mfcc/raw_mfcc_train.1.ark:20537
mdwd0_si557 quick_test/mfcc/raw_mfcc_train.2.ark:3034246
mrms0_si2100 quick_test/mfcc/raw_mfcc_train.4.ark:1351804
mhrm0_si958 quick_test/mfcc/raw_mfcc_train.3.ark:456564
mtat1_sx239 quick_test/mfcc/raw_mfcc_train.4.ark:2453229
mprt0_sx40 quick_test/mfcc/raw_mfcc_train.4.ark:151533
mljc0_sx55 quick_test/mfcc/raw_mfcc_train.3.ark:2460750
flkm0_sx116 quick_test/mfcc/raw_mfcc_train.1.ark:2605739
mvjh0_si1556 quick_test/mfcc/raw_mfcc_train.4.ark:3334775
msjk0_sx66 quick_test/mfcc/raw_mfcc_train.4.ark:2100572
mdbp0_si1788 quick_test/mfcc/raw_mfcc_train.2.ark:2058046
mrjh0_sx79 quick_test/mfcc/raw_mfcc_train.4.ark:912430
mmag0_sx226 quick_test/mfcc/raw_mfcc_train.3.ark:2659153
mfer0_si1492 quick_test/mfcc/raw_mfcc_train.2.ark:3398052
mjda0_sx41 quick_test/mfcc/raw_mfcc_train.3.ark:699874
fsah0_sx434 quick_test/mfcc/raw_mfcc_train.1.ark:3620595
mklw0_sx221 quick_test/mfcc/raw_mfcc_train.3.ark:2283177
mtas0_si1385 quick_test/mfcc/raw_mfcc_train.4.ark:2377179
ftmg0_si2162 quick_test/mfcc/raw_mfcc_train.2.ark:538731
mtrr0_sx198 quick_test/mfcc/raw_mfcc_train.4.ark:3225576
fskc0_sx426 quick_test/mfcc/raw_mfcc_train.2.ark:105978
fskc0_si786 quick_test/mfcc/raw_mfcc_train.2.ark:91793
madd0_si1295 quick_test/mfcc/raw_mfcc_train.2.ark:722366
mhrm0_sx238 quick_test/mfcc/raw_mfcc_train.3.ark:464365
mclm0_sx376 quick_test/mfcc/raw_mfcc_train.2.ark:1768556
mjws0_sx63 quick_test/mfcc/raw_mfcc_train.3.ark:1745808
mtpg0_sx303 quick_test/mfcc/raw_mfcc_train.4.ark:3058061
mbwp0_sx349 quick_test/mfcc/raw_mfcc_train.2.ark:1421953
mcdc0_sx302 quick_test/mfcc/raw_mfcc_train.2.ark:1529229
mfxs0_sx414 quick_test/mfcc/raw_mfcc_train.2.ark:3544224
mjfh0_sx387 quick_test/mfcc/raw_mfcc_train.3.ark:965114
mpmb0_sx151 quick_test/mfcc/raw_mfcc_train.3.ark:3713233
mdhs0_si1530 quick_test/mfcc/raw_mfcc_train.2.ark:2319742
mkdd0_si937 quick_test/mfcc/raw_mfcc_train.3.ark:2023225
msat0_sx176 quick_test/mfcc/raw_mfcc_train.4.ark:1779760
feac0_sx75 quick_test/mfcc/raw_mfcc_train.1.ark:1151086
fsls0_si2316 quick_test/mfcc/raw_mfcc_train.2.ark:184824
fsjk1_si696 quick_test/mfcc/raw_mfcc_train.1.ark:3875252
fmkf0_sx6 quick_test/mfcc/raw_mfcc_train.1.ark:3045823
mrav0_sx198 quick_test/mfcc/raw_mfcc_train.4.ark:335495
mrlj1_sx51 quick_test/mfcc/raw_mfcc_train.4.ark:1140927
mmxs0_sx336 quick_test/mfcc/raw_mfcc_train.3.ark:3431675
mhjb0_sx297 quick_test/mfcc/raw_mfcc_train.3.ark:381384
mrlr0_sx116 quick_test/mfcc/raw_mfcc_train.4.ark:1190180
mrgs0_si1986 quick_test/mfcc/raw_mfcc_train.4.ark:781063
mwad0_sx162 quick_test/mfcc/raw_mfcc_train.4.ark:3473346
mmcc0_sx168 quick_test/mfcc/raw_mfcc_train.3.ark:2794081
mrjb1_si1020 quick_test/mfcc/raw_mfcc_train.4.ark:840668
mcth0_si579 quick_test/mfcc/raw_mfcc_train.2.ark:1874608
mcef0_sx415 quick_test/mfcc/raw_mfcc_train.2.ark:1628948
mefg0_sx195 quick_test/mfcc/raw_mfcc_train.2.ark:3201353
mafm0_sx219 quick_test/mfcc/raw_mfcc_train.2.ark:829440
mntw0_sx348 quick_test/mfcc/raw_mfcc_train.3.ark:3499707
fpad0_sx356 quick_test/mfcc/raw_mfcc_train.1.ark:3285763
mjfr0_sx345 quick_test/mfcc/raw_mfcc_train.3.ark:989611
flod0_sx117 quick_test/mfcc/raw_mfcc_train.1.ark:2733836
mgsl0_si534 quick_test/mfcc/raw_mfcc_train.3.ark:233015
mkls1_si915 quick_test/mfcc/raw_mfcc_train.3.ark:2244573
mcth0_sx399 quick_test/mfcc/raw_mfcc_train.2.ark:1895416
flma0_sx163 quick_test/mfcc/raw_mfcc_train.1.ark:2640493
mdma0_si1238 quick_test/mfcc/raw_mfcc_train.2.ark:2677896
feme0_sx245 quick_test/mfcc/raw_mfcc_train.1.ark:1277511
faem0_sx402 quick_test/mfcc/raw_mfcc_train.1.ark:25549
mcef0_sx325 quick_test/mfcc/raw_mfcc_train.2.ark:1625730
mnet0_sx6 quick_test/mfcc/raw_mfcc_train.3.ark:3466551
fjrb0_sx42 quick_test/mfcc/raw_mfcc_train.1.ark:1810211
mges0_sx311 quick_test/mfcc/raw_mfcc_train.3.ark:77345
fcke0_sx31 quick_test/mfcc/raw_mfcc_train.1.ark:617330
mdac0_si631 quick_test/mfcc/raw_mfcc_train.2.ark:1968925
mgrp0_sx327 quick_test/mfcc/raw_mfcc_train.3.ark:178904
mhmr0_sx309 quick_test/mfcc/raw_mfcc_train.3.ark:439576
mcxm0_sx271 quick_test/mfcc/raw_mfcc_train.2.ark:1947458
mjra0_sx66 quick_test/mfcc/raw_mfcc_train.3.ark:1477019
fsms1_si1504 quick_test/mfcc/raw_mfcc_train.2.ark:278320
mkaj0_si2044 quick_test/mfcc/raw_mfcc_train.3.ark:1919801
mtjg0_sx80 quick_test/mfcc/raw_mfcc_train.4.ark:2671185
fear0_sx172 quick_test/mfcc/raw_mfcc_train.1.ark:1164844
mwem0_si1950 quick_test/mfcc/raw_mfcc_train.4.ark:3587398
mrwa0_sx163 quick_test/mfcc/raw_mfcc_train.4.ark:1626256
mtqc0_si1441 quick_test/mfcc/raw_mfcc_train.4.ark:3133752
mjjm0_sx197 quick_test/mfcc/raw_mfcc_train.3.ark:1127365
mkls1_sx105 quick_test/mfcc/raw_mfcc_train.3.ark:2250469
mrhl0_si885 quick_test/mfcc/raw_mfcc_train.4.ark:817902
fjkl0_sx302 quick_test/mfcc/raw_mfcc_train.1.ark:1705597
fmpg0_si2232 quick_test/mfcc/raw_mfcc_train.1.ark:3090438
mdwd0_sx360 quick_test/mfcc/raw_mfcc_train.2.ark:3042743
mhbs0_sx225 quick_test/mfcc/raw_mfcc_train.3.ark:316438
mdtb0_si570 quick_test/mfcc/raw_mfcc_train.2.ark:3001389
mgsl0_sx84 quick_test/mfcc/raw_mfcc_train.3.ark:259589
mtmn0_si582 quick_test/mfcc/raw_mfcc_train.4.ark:2951087
mdlr1_sx399 quick_test/mfcc/raw_mfcc_train.2.ark:2674235
msdb0_si1007 quick_test/mfcc/raw_mfcc_train.4.ark:1827095
maeo0_sx66 quick_test/mfcc/raw_mfcc_train.2.ark:813842
mgrl0_sx147 quick_test/mfcc/raw_mfcc_train.3.ark:138793
mrxb0_sx145 quick_test/mfcc/raw_mfcc_train.4.ark:1688575
mjjj0_sx443 quick_test/mfcc/raw_mfcc_train.3.ark:1098976
mdlr1_sx39 quick_test/mfcc/raw_mfcc_train.2.ark:2670250
mrhl0_si1515 quick_test/mfcc/raw_mfcc_train.4.ark:811088
mdcm0_sx310 quick_test/mfcc/raw_mfcc_train.2.ark:2143598
fajw0_sx363 quick_test/mfcc/raw_mfcc_train.1.ark:59625
mapv0_sx213 quick_test/mfcc/raw_mfcc_train.2.ark:963856
flmc0_si742 quick_test/mfcc/raw_mfcc_train.1.ark:2665230
fdmy0_si714 quick_test/mfcc/raw_mfcc_train.1.ark:989154
mtmn0_sx434 quick_test/mfcc/raw_mfcc_train.4.ark:2968769
fcdr1_si1186 quick_test/mfcc/raw_mfcc_train.1.ark:468314
mbef0_sx381 quick_test/mfcc/raw_mfcc_train.2.ark:1154226
mtlb0_sx414 quick_test/mfcc/raw_mfcc_train.4.ark:2868679
mbjv0_si617 quick_test/mfcc/raw_mfcc_train.2.ark:1198415
mrgm0_sx442 quick_test/mfcc/raw_mfcc_train.4.ark:764037
mbcg0_sx417 quick_test/mfcc/raw_mfcc_train.2.ark:1123327
mwsb0_sx276 quick_test/mfcc/raw_mfcc_train.4.ark:3725258
mpgr0_sx420 quick_test/mfcc/raw_mfcc_train.3.ark:3647931
mmws0_sx348 quick_test/mfcc/raw_mfcc_train.3.ark:3374960
mrms0_sx120 quick_test/mfcc/raw_mfcc_train.4.ark:1354957
mtbc0_sx273 quick_test/mfcc/raw_mfcc_train.4.ark:2487931
fsls0_sx246 quick_test/mfcc/raw_mfcc_train.2.ark:197403
mdlc2_sx444 quick_test/mfcc/raw_mfcc_train.2.ark:2539023
msms0_sx83 quick_test/mfcc/raw_mfcc_train.4.ark:2197813
fkde0_sx61 quick_test/mfcc/raw_mfcc_train.1.ark:2084370
mesj0_sx97 quick_test/mfcc/raw_mfcc_train.2.ark:3366982
madd0_sx448 quick_test/mfcc/raw_mfcc_train.2.ark:746173
mtjg0_sx170 quick_test/mfcc/raw_mfcc_train.4.ark:2651333
mmgc0_sx135 quick_test/mfcc/raw_mfcc_train.3.ark:3038104
mjmm0_sx445 quick_test/mfcc/raw_mfcc_train.3.ark:1348267
fjen0_sx57 quick_test/mfcc/raw_mfcc_train.1.ark:1649244
fdaw0_si1271 quick_test/mfcc/raw_mfcc_train.1.ark:817641
mcxm0_si721 quick_test/mfcc/raw_mfcc_train.2.ark:1939371
mgjc0_sx75 quick_test/mfcc/raw_mfcc_train.3.ark:122747
mtpf0_sx155 quick_test/mfcc/raw_mfcc_train.4.ark:3020420
mrcw0_sx111 quick_test/mfcc/raw_mfcc_train.4.ark:430748
mtpr0_sx250 quick_test/mfcc/raw_mfcc_train.4.ark:3117227
mgxp0_sx97 quick_test/mfcc/raw_mfcc_train.3.ark:295731
fklh0_si627 quick_test/mfcc/raw_mfcc_train.1.ark:2269734
mdrd0_sx122 quick_test/mfcc/raw_mfcc_train.2.ark:2885338
mdbp0_si1158 quick_test/mfcc/raw_mfcc_train.2.ark:2055594
mtxs0_si1060 quick_test/mfcc/raw_mfcc_train.4.ark:3296796
fmkc0_sx172 quick_test/mfcc/raw_mfcc_train.1.ark:2997855
fksr0_sx397 quick_test/mfcc/raw_mfcc_train.1.ark:2321292
mjeb0_si1916 quick_test/mfcc/raw_mfcc_train.3.ark:848448
mkxl0_sx15 quick_test/mfcc/raw_mfcc_train.3.ark:2350383
fajw0_sx3 quick_test/mfcc/raw_mfcc_train.1.ark:57265
mejs0_sx250 quick_test/mfcc/raw_mfcc_train.2.ark:3295428
mbwp0_si1969 quick_test/mfcc/raw_mfcc_train.2.ark:1405168
mvjh0_sx296 quick_test/mfcc/raw_mfcc_train.4.ark:3359192
fcaj0_sx219 quick_test/mfcc/raw_mfcc_train.1.ark:452881
feac0_si1875 quick_test/mfcc/raw_mfcc_train.1.ark:1124031
fjlr0_si1861 quick_test/mfcc/raw_mfcc_train.1.ark:1754395
flet0_sx147 quick_test/mfcc/raw_mfcc_train.1.ark:2439625
mlns0_sx57 quick_test/mfcc/raw_mfcc_train.3.ark:2532936
fsjs0_sx361 quick_test/mfcc/raw_mfcc_train.2.ark:36281
mcdr0_sx74 quick_test/mfcc/raw_mfcc_train.2.ark:1602221
fsdc0_sx412 quick_test/mfcc/raw_mfcc_train.1.ark:3756583
mpsw0_sx167 quick_test/mfcc/raw_mfcc_train.4.ark:167925
msvs0_sx128 quick_test/mfcc/raw_mfcc_train.4.ark:2315532
mnet0_sx366 quick_test/mfcc/raw_mfcc_train.3.ark:3461996
mcew0_sx362 quick_test/mfcc/raw_mfcc_train.2.ark:1661199
mmar0_si706 quick_test/mfcc/raw_mfcc_train.3.ark:2715401
mrcw0_sx21 quick_test/mfcc/raw_mfcc_train.4.ark:437430
mrml0_sx71 quick_test/mfcc/raw_mfcc_train.4.ark:1336804
fksr0_sx161 quick_test/mfcc/raw_mfcc_train.1.ark:2304235
mrdm0_si1595 quick_test/mfcc/raw_mfcc_train.4.ark:482212
msds0_sx447 quick_test/mfcc/raw_mfcc_train.4.ark:1914952
fsak0_sx220 quick_test/mfcc/raw_mfcc_train.1.ark:3642868
mdlc1_sx445 quick_test/mfcc/raw_mfcc_train.2.ark:2512576
mntw0_si1068 quick_test/mfcc/raw_mfcc_train.3.ark:3473039
mrre0_sx164 quick_test/mfcc/raw_mfcc_train.4.ark:1415872
fkdw0_si1891 quick_test/mfcc/raw_mfcc_train.1.ark:2095540
mram0_sx195 quick_test/mfcc/raw_mfcc_train.4.ark:306278
fgrw0_si1152 quick_test/mfcc/raw_mfcc_train.1.ark:1470030
mrcw0_si741 quick_test/mfcc/raw_mfcc_train.4.ark:425008
mjsr0_sx74 quick_test/mfcc/raw_mfcc_train.3.ark:1672024
mtpp0_sx68 quick_test/mfcc/raw_mfcc_train.4.ark:3094817
mdcm0_sx220 quick_test/mfcc/raw_mfcc_train.2.ark:2138911
mbsb0_sx93 quick_test/mfcc/raw_mfcc_train.2.ark:1365888
mpgh0_sx384 quick_test/mfcc/raw_mfcc_train.3.ark:3624298
fmkf0_sx276 quick_test/mfcc/raw_mfcc_train.1.ark:3037374
mrxb0_si2215 quick_test/mfcc/raw_mfcc_train.4.ark:1676991
mjrg0_si1996 quick_test/mfcc/raw_mfcc_train.3.ark:1484536
mkls0_si2067 quick_test/mfcc/raw_mfcc_train.3.ark:2211665
mmsm0_sx296 quick_test/mfcc/raw_mfcc_train.3.ark:3268065
mtpg0_si1383 quick_test/mfcc/raw_mfcc_train.4.ark:3038330
mddc0_sx339 quick_test/mfcc/raw_mfcc_train.2.ark:2173659
mkln0_sx338 quick_test/mfcc/raw_mfcc_train.3.ark:2160818
mtpr0_sx340 quick_test/mfcc/raw_mfcc_train.4.ark:3121992
fpjf0_si1046 quick_test/mfcc/raw_mfcc_train.1.ark:3365120
mfer0_sx232 quick_test/mfcc/raw_mfcc_train.2.ark:3411172
mgrp0_sx417 quick_test/mfcc/raw_mfcc_train.3.ark:185151
fklh0_sx267 quick_test/mfcc/raw_mfcc_train.1.ark:2276131
mreh1_si969 quick_test/mfcc/raw_mfcc_train.4.ark:579202
mpar0_si946 quick_test/mfcc/raw_mfcc_train.3.ark:3515076
mtdb0_sx321 quick_test/mfcc/raw_mfcc_train.4.ark:2556718
mbma0_sx142 quick_test/mfcc/raw_mfcc_train.2.ark:1231915
mjee0_si1867 quick_test/mfcc/raw_mfcc_train.3.ark:914875
mdks0_si1066 quick_test/mfcc/raw_mfcc_train.2.ark:2380293
mmgg0_sx359 quick_test/mfcc/raw_mfcc_train.3.ark:3074381
falk0_sx186 quick_test/mfcc/raw_mfcc_train.1.ark:82540
mjxl0_sx272 quick_test/mfcc/raw_mfcc_train.3.ark:1831746
fkde0_si1771 quick_test/mfcc/raw_mfcc_train.1.ark:2059277
mmxs0_sx246 quick_test/mfcc/raw_mfcc_train.3.ark:3428496
fmkc0_si1072 quick_test/mfcc/raw_mfcc_train.1.ark:2992094
mmeb0_sx327 quick_test/mfcc/raw_mfcc_train.3.ark:3009338
mmdb0_sx267 quick_test/mfcc/raw_mfcc_train.3.ark:2827698
flja0_sx88 quick_test/mfcc/raw_mfcc_train.1.ark:2516715
mdrd0_si1382 quick_test/mfcc/raw_mfcc_train.2.ark:2870951
fpac0_sx31 quick_test/mfcc/raw_mfcc_train.1.ark:3256111
fkdw0_sx397 quick_test/mfcc/raw_mfcc_train.1.ark:2117109
freh0_sx55 quick_test/mfcc/raw_mfcc_train.1.ark:3489229
fmkc0_sx82 quick_test/mfcc/raw_mfcc_train.1.ark:3015627
fkaa0_si1838 quick_test/mfcc/raw_mfcc_train.1.ark:2021559
mter0_si527 quick_test/mfcc/raw_mfcc_train.4.ark:2617548
mdma0_sx80 quick_test/mfcc/raw_mfcc_train.2.ark:2712981
mree0_sx114 quick_test/mfcc/raw_mfcc_train.4.ark:553269
mbcg0_sx327 quick_test/mfcc/raw_mfcc_train.2.ark:1117535
fmju0_sx129 quick_test/mfcc/raw_mfcc_train.1.ark:2965752
msem1_si2070 quick_test/mfcc/raw_mfcc_train.4.ark:1926752
freh0_sx145 quick_test/mfcc/raw_mfcc_train.1.ark:3477593
mkaj0_sx244 quick_test/mfcc/raw_mfcc_train.3.ark:1931587
mreh1_sx69 quick_test/mfcc/raw_mfcc_train.4.ark:602857
mtmt0_sx398 quick_test/mfcc/raw_mfcc_train.4.ark:3003815
mmsm0_sx206 quick_test/mfcc/raw_mfcc_train.3.ark:3259823
mtwh1_si2142 quick_test/mfcc/raw_mfcc_train.4.ark:3273438
msms0_sx353 quick_test/mfcc/raw_mfcc_train.4.ark:2190234
fsgf0_si927 quick_test/mfcc/raw_mfcc_train.1.ark:3801272
fjlr0_sx61 quick_test/mfcc/raw_mfcc_train.1.ark:1776640
fskp0_sx378 quick_test/mfcc/raw_mfcc_train.2.ark:172489
mhjb0_si1647 quick_test/mfcc/raw_mfcc_train.3.ark:364371
mtdp0_sx351 quick_test/mfcc/raw_mfcc_train.4.ark:2591954
fvkb0_sx79 quick_test/mfcc/raw_mfcc_train.2.ark:626169
mklr0_sx249 quick_test/mfcc/raw_mfcc_train.3.ark:2187714
mkah0_sx88 quick_test/mfcc/raw_mfcc_train.3.ark:1912323
ftbr0_si2181 quick_test/mfcc/raw_mfcc_train.2.ark:444116
fskp0_si1728 quick_test/mfcc/raw_mfcc_train.2.ark:151674
fklc0_si985 quick_test/mfcc/raw_mfcc_train.1.ark:2199354
mwdk0_si2017 quick_test/mfcc/raw_mfcc_train.4.ark:3553169
mcss0_sx210 quick_test/mfcc/raw_mfcc_train.2.ark:1853986
mprk0_si1727 quick_test/mfcc/raw_mfcc_train.4.ark:98416
mhjb0_sx387 quick_test/mfcc/raw_mfcc_train.3.ark:383822
mabc0_si2041 quick_test/mfcc/raw_mfcc_train.2.ark:662161
mtjm0_sx326 quick_test/mfcc/raw_mfcc_train.4.ark:2694954
mdpk0_sx333 quick_test/mfcc/raw_mfcc_train.2.ark:2829351
fgcs0_sx46 quick_test/mfcc/raw_mfcc_train.1.ark:1391700
fjxm0_sx221 quick_test/mfcc/raw_mfcc_train.1.ark:1965839
mklr0_sx69 quick_test/mfcc/raw_mfcc_train.3.ark:2198134
fjlg0_sx89 quick_test/mfcc/raw_mfcc_train.1.ark:1744889
fmjf0_sx174 quick_test/mfcc/raw_mfcc_train.1.ark:2929386
mrfl0_sx76 quick_test/mfcc/raw_mfcc_train.4.ark:730940
fexm0_sx111 quick_test/mfcc/raw_mfcc_train.1.ark:1341058
mbml0_sx449 quick_test/mfcc/raw_mfcc_train.2.ark:1308555
mjhi0_sx248 quick_test/mfcc/raw_mfcc_train.3.ark:1020990
fcjf0_sx37 quick_test/mfcc/raw_mfcc_train.1.ark:556402
fsjw0_sx73 quick_test/mfcc/raw_mfcc_train.2.ark:79329
fvmh0_sx296 quick_test/mfcc/raw_mfcc_train.2.ark:654403
makr0_sx452 quick_test/mfcc/raw_mfcc_train.2.ark:936396
mjpm1_sx131 quick_test/mfcc/raw_mfcc_train.3.ark:1425676
fljg0_sx441 quick_test/mfcc/raw_mfcc_train.1.ark:2583630
mses0_sx59 quick_test/mfcc/raw_mfcc_train.4.ark:1990772
mwdk0_sx176 quick_test/mfcc/raw_mfcc_train.4.ark:3560541
mjfr0_sx165 quick_test/mfcc/raw_mfcc_train.3.ark:980731
mrcw0_sx381 quick_test/mfcc/raw_mfcc_train.4.ark:442995
fvfb0_sx42 quick_test/mfcc/raw_mfcc_train.2.ark:594119
mmjb1_sx58 quick_test/mfcc/raw_mfcc_train.3.ark:3141887
mjpm0_si1998 quick_test/mfcc/raw_mfcc_train.3.ark:1387736
fsms1_sx347 quick_test/mfcc/raw_mfcc_train.2.ark:301672
feme0_sx65 quick_test/mfcc/raw_mfcc_train.1.ark:1291376
mtat0_si1110 quick_test/mfcc/raw_mfcc_train.4.ark:2402950
flod0_sx207 quick_test/mfcc/raw_mfcc_train.1.ark:2742027
mprd0_sx261 quick_test/mfcc/raw_mfcc_train.4.ark:74928
flja0_si1078 quick_test/mfcc/raw_mfcc_train.1.ark:2486271
fhlm0_sx390 quick_test/mfcc/raw_mfcc_train.1.ark:1537062
fsbk0_si2329 quick_test/mfcc/raw_mfcc_train.1.ark:3666767
mtpg0_sx213 quick_test/mfcc/raw_mfcc_train.4.ark:3054726
mram0_si1275 quick_test/mfcc/raw_mfcc_train.4.ark:285442
mcdr0_sx344 quick_test/mfcc/raw_mfcc_train.2.ark:1595370
mrmg0_si2340 quick_test/mfcc/raw_mfcc_train.4.ark:1245408
ftlg0_sx123 quick_test/mfcc/raw_mfcc_train.2.ark:518070
mdef0_si2193 quick_test/mfcc/raw_mfcc_train.2.ark:2228561
mbom0_sx114 quick_test/mfcc/raw_mfcc_train.2.ark:1327104
mjeb1_sx207 quick_test/mfcc/raw_mfcc_train.3.ark:896405
mcdr0_sx254 quick_test/mfcc/raw_mfcc_train.2.ark:1592581
mtxs0_sx70 quick_test/mfcc/raw_mfcc_train.4.ark:3332362
mwch0_sx272 quick_test/mfcc/raw_mfcc_train.4.ark:3532658
mhmr0_sx39 quick_test/mfcc/raw_mfcc_train.3.ark:443677
mdrd0_si2012 quick_test/mfcc/raw_mfcc_train.2.ark:2874404
mklr0_si2319 quick_test/mfcc/raw_mfcc_train.3.ark:2181434
mmgg0_si2339 quick_test/mfcc/raw_mfcc_train.3.ark:3064350
mbsb0_sx183 quick_test/mfcc/raw_mfcc_train.2.ark:1356126
fbmj0_sx426 quick_test/mfcc/raw_mfcc_train.1.ark:402678
mrjm0_sx418 quick_test/mfcc/raw_mfcc_train.4.ark:941277
mrmh0_sx391 quick_test/mfcc/raw_mfcc_train.4.ark:1297071
fkaa0_sx308 quick_test/mfcc/raw_mfcc_train.1.ark:2038149
mbcg0_si957 quick_test/mfcc/raw_mfcc_train.2.ark:1106074
fnkl0_si892 quick_test/mfcc/raw_mfcc_train.1.ark:3134377
mdac0_sx451 quick_test/mfcc/raw_mfcc_train.2.ark:1987725
fdas1_sx21 quick_test/mfcc/raw_mfcc_train.1.ark:807934
mrhl0_sx75 quick_test/mfcc/raw_mfcc_train.4.ark:837657
mhxl0_si1772 quick_test/mfcc/raw_mfcc_train.3.ark:481241
mgxp0_sx277 quick_test/mfcc/raw_mfcc_train.3.ark:283584
feac0_sx165 quick_test/mfcc/raw_mfcc_train.1.ark:1134068
mddc0_si2049 quick_test/mfcc/raw_mfcc_train.2.ark:2159825
mjae0_si1999 quick_test/mfcc/raw_mfcc_train.3.ark:581100
fexm0_sx291 quick_test/mfcc/raw_mfcc_train.1.ark:1350367
mmcc0_sx258 quick_test/mfcc/raw_mfcc_train.3.ark:2796415
mcpm0_si1824 quick_test/mfcc/raw_mfcc_train.2.ark:1775618
