fmpg0_sx72 quick_test/data-fmllr-tri3/train/data/feats_fmllr_train.2.ark:18382293
mmbs0_sx431 quick_test/data-fmllr-tri3/train/data/feats_fmllr_train.7.ark:14995727
flma0_sx163 quick_test/data-fmllr-tri3/train/data/feats_fmllr_train.2.ark:12620910
msrr0_sx51 quick_test/data-fmllr-tri3/train/data/feats_fmllr_train.9.ark:17683835
mrws0_sx202 quick_test/data-fmllr-tri3/train/data/feats_fmllr_train.9.ark:10555206
mtlb0_sx144 quick_test/data-fmllr-tri3/train/data/feats_fmllr_train.10.ark:6638447
mrxb0_sx325 quick_test/data-fmllr-tri3/train/data/feats_fmllr_train.9.ark:10968410
mtrc0_si993 quick_test/data-fmllr-tri3/train/data/feats_fmllr_train.10.ark:10573390
msdb0_sx287 quick_test/data-fmllr-tri3/train/data/feats_fmllr_train.9.ark:12732564
marc0_si558 quick_test/data-fmllr-tri3/train/data/feats_fmllr_train.4.ark:2720630
fjwb1_sx345 quick_test/data-fmllr-tri3/train/data/feats_fmllr_train.2.ark:4268083
marc0_sx18 quick_test/data-fmllr-tri3/train/data/feats_fmllr_train.4.ark:2811883
mjdc0_si2165 quick_test/data-fmllr-tri3/train/data/feats_fmllr_train.6.ark:8408490
mnet0_si2076 quick_test/data-fmllr-tri3/train/data/feats_fmllr_train.8.ark:5047983
mjlb0_sx176 quick_test/data-fmllr-tri3/train/data/feats_fmllr_train.6.ark:14090302
fjkl0_sx392 quick_test/data-fmllr-tri3/train/data/feats_fmllr_train.2.ark:1564696
mdpk0_sx333 quick_test/data-fmllr-tri3/train/data/feats_fmllr_train.5.ark:7272377
mdrd0_si1382 quick_test/data-fmllr-tri3/train/data/feats_fmllr_train.5.ark:7766115
mjwt0_sx211 quick_test/data-fmllr-tri3/train/data/feats_fmllr_train.7.ark:3065641
mkam0_sx326 quick_test/data-fmllr-tri3/train/data/feats_fmllr_train.7.ark:5416570
mmgc0_sx135 quick_test/data-fmllr-tri3/train/data/feats_fmllr_train.8.ark:150016
mtrt0_si597 quick_test/data-fmllr-tri3/train/data/feats_fmllr_train.10.ark:11320064
fpab1_si2101 quick_test/data-fmllr-tri3/train/data/feats_fmllr_train.3.ark:795034
mjrh0_sx405 quick_test/data-fmllr-tri3/train/data/feats_fmllr_train.7.ark:297137
mrcg0_si798 quick_test/data-fmllr-tri3/train/data/feats_fmllr_train.8.ark:13347447
mljc0_sx55 quick_test/data-fmllr-tri3/train/data/feats_fmllr_train.7.ark:11281959
fcaj0_sx309 quick_test/data-fmllr-tri3/train/data/feats_fmllr_train.1.ark:5445847
msdh0_sx350 quick_test/data-fmllr-tri3/train/data/feats_fmllr_train.9.ark:13033875
mrxb0_si2215 quick_test/data-fmllr-tri3/train/data/feats_fmllr_train.9.ark:10743182
msds0_sx267 quick_test/data-fmllr-tri3/train/data/feats_fmllr_train.9.ark:13429586
mjhi0_si1328 quick_test/data-fmllr-tri3/train/data/feats_fmllr_train.6.ark:11946575
fjen0_si1677 quick_test/data-fmllr-tri3/train/data/feats_fmllr_train.2.ark:463299
mges0_si851 quick_test/data-fmllr-tri3/train/data/feats_fmllr_train.6.ark:795383
mbth0_sx392 quick_test/data-fmllr-tri3/train/data/feats_fmllr_train.4.ark:7656704
msmc0_sx287 quick_test/data-fmllr-tri3/train/data/feats_fmllr_train.9.ark:16123741
mwac0_sx161 quick_test/data-fmllr-tri3/train/data/feats_fmllr_train.10.ark:13575474
mjae0_sx444 quick_test/data-fmllr-tri3/train/data/feats_fmllr_train.6.ark:7141836
mrmh0_sx211 quick_test/data-fmllr-tri3/train/data/feats_fmllr_train.9.ark:6105617
mjda0_si1661 quick_test/data-fmllr-tri3/train/data/feats_fmllr_train.6.ark:8058992
mjdm0_si1340 quick_test/data-fmllr-tri3/train/data/feats_fmllr_train.6.ark:9616153
fcag0_si1641 quick_test/data-fmllr-tri3/train/data/feats_fmllr_train.1.ark:4931761
msrg0_si591 quick_test/data-fmllr-tri3/train/data/feats_fmllr_train.9.ark:17071165
feeh0_sx392 quick_test/data-fmllr-tri3/train/data/feats_fmllr_train.1.ark:14942474
mnet0_sx366 quick_test/data-fmllr-tri3/train/data/feats_fmllr_train.8.ark:5191131
fjhk0_si2282 quick_test/data-fmllr-tri3/train/data/feats_fmllr_train.2.ark:931865
fssb0_sx362 quick_test/data-fmllr-tri3/train/data/feats_fmllr_train.3.ark:13728008
mppc0_si1412 quick_test/data-fmllr-tri3/train/data/feats_fmllr_train.8.ark:8543507
mrew1_si2130 quick_test/data-fmllr-tri3/train/data/feats_fmllr_train.8.ark:16392517
mhit0_sx443 quick_test/data-fmllr-tri3/train/data/feats_fmllr_train.6.ark:4213222
ftlg0_sx393 quick_test/data-fmllr-tri3/train/data/feats_fmllr_train.3.ark:15339807
mdjm0_si2085 quick_test/data-fmllr-tri3/train/data/feats_fmllr_train.5.ark:1629389
mjlg1_si2272 quick_test/data-fmllr-tri3/train/data/feats_fmllr_train.6.ark:14390973
mljc0_si1225 quick_test/data-fmllr-tri3/train/data/feats_fmllr_train.7.ark:10940010
mrpc1_sx132 quick_test/data-fmllr-tri3/train/data/feats_fmllr_train.9.ark:7204643
mgaw0_si1802 quick_test/data-fmllr-tri3/train/data/feats_fmllr_train.6.ark:456579
fsgf0_sx117 quick_test/data-fmllr-tri3/train/data/feats_fmllr_train.3.ark:8108114
mesg0_sx252 quick_test/data-fmllr-tri3/train/data/feats_fmllr_train.5.ark:13172620
mjxl0_sx92 quick_test/data-fmllr-tri3/train/data/feats_fmllr_train.7.ark:3964715
mtkd0_sx107 quick_test/data-fmllr-tri3/train/data/feats_fmllr_train.10.ark:5852733
fcmg0_sx252 quick_test/data-fmllr-tri3/train/data/feats_fmllr_train.1.ark:7998540
fjxm0_sx401 quick_test/data-fmllr-tri3/train/data/feats_fmllr_train.2.ark:4704807
mrew1_si870 quick_test/data-fmllr-tri3/train/data/feats_fmllr_train.8.ark:16413504
mcdr0_si1784 quick_test/data-fmllr-tri3/train/data/feats_fmllr_train.4.ark:9753523
mrgs0_si726 quick_test/data-fmllr-tri3/train/data/feats_fmllr_train.9.ark:98628
mpgr1_sx419 quick_test/data-fmllr-tri3/train/data/feats_fmllr_train.8.ark:7803396
mhbs0_si945 quick_test/data-fmllr-tri3/train/data/feats_fmllr_train.6.ark:3654977
fkaa0_sx398 quick_test/data-fmllr-tri3/train/data/feats_fmllr_train.2.ark:5559347
flkm0_si620 quick_test/data-fmllr-tri3/train/data/feats_fmllr_train.2.ark:12094239
fjxm0_sx131 quick_test/data-fmllr-tri3/train/data/feats_fmllr_train.2.ark:4539286
mdns0_sx291 quick_test/data-fmllr-tri3/train/data/feats_fmllr_train.5.ark:6586529
mcdd0_si883 quick_test/data-fmllr-tri3/train/data/feats_fmllr_train.4.ark:9425173
fsgf0_sx387 quick_test/data-fmllr-tri3/train/data/feats_fmllr_train.3.ark:8252861
fsbk0_sx439 quick_test/data-fmllr-tri3/train/data/feats_fmllr_train.3.ark:6640127
mbma0_sx412 quick_test/data-fmllr-tri3/train/data/feats_fmllr_train.4.ark:5824234
mbom0_sx204 quick_test/data-fmllr-tri3/train/data/feats_fmllr_train.4.ark:6846752
mjws0_si513 quick_test/data-fmllr-tri3/train/data/feats_fmllr_train.7.ark:2487290
mpsw0_si2327 quick_test/data-fmllr-tri3/train/data/feats_fmllr_train.8.ark:10705287
mrml0_si1421 quick_test/data-fmllr-tri3/train/data/feats_fmllr_train.9.ark:6248925
mtpp0_si878 quick_test/data-fmllr-tri3/train/data/feats_fmllr_train.10.ark:9258500
fljg0_sx441 quick_test/data-fmllr-tri3/train/data/feats_fmllr_train.2.ark:11942638
fsdc0_sx142 quick_test/data-fmllr-tri3/train/data/feats_fmllr_train.3.ark:7355680
mdlm0_sx64 quick_test/data-fmllr-tri3/train/data/feats_fmllr_train.5.ark:4616350
fmah1_sx69 quick_test/data-fmllr-tri3/train/data/feats_fmllr_train.2.ark:14660665
msms0_si2063 quick_test/data-fmllr-tri3/train/data/feats_fmllr_train.9.ark:16668681
meal0_sx107 quick_test/data-fmllr-tri3/train/data/feats_fmllr_train.5.ark:10884574
mhrm0_si1475 quick_test/data-fmllr-tri3/train/data/feats_fmllr_train.6.ark:5357928
mbma0_sx232 quick_test/data-fmllr-tri3/train/data/feats_fmllr_train.4.ark:5729780
fdfb0_si1948 quick_test/data-fmllr-tri3/train/data/feats_fmllr_train.1.ark:10205682
feac0_sx255 quick_test/data-fmllr-tri3/train/data/feats_fmllr_train.1.ark:13557743
mkam0_si1316 quick_test/data-fmllr-tri3/train/data/feats_fmllr_train.7.ark:5210221
mmaa0_sx215 quick_test/data-fmllr-tri3/train/data/feats_fmllr_train.7.ark:12818907
msdb0_sx377 quick_test/data-fmllr-tri3/train/data/feats_fmllr_train.9.ark:12765711
maeo0_si1956 quick_test/data-fmllr-tri3/train/data/feats_fmllr_train.4.ark:479006
mdlc1_sx445 quick_test/data-fmllr-tri3/train/data/feats_fmllr_train.5.ark:3504794
maeb0_si2250 quick_test/data-fmllr-tri3/train/data/feats_fmllr_train.4.ark:65321
fjxm0_sx221 quick_test/data-fmllr-tri3/train/data/feats_fmllr_train.2.ark:4581553
mljh0_si1422 quick_test/data-fmllr-tri3/train/data/feats_fmllr_train.7.ark:11379455
mtbc0_si1173 quick_test/data-fmllr-tri3/train/data/feats_fmllr_train.10.ark:2067018
mrav0_sx108 quick_test/data-fmllr-tri3/train/data/feats_fmllr_train.8.ark:12654080
mrcw0_si741 quick_test/data-fmllr-tri3/train/data/feats_fmllr_train.8.ark:13797904
mrms0_sx210 quick_test/data-fmllr-tri3/train/data/feats_fmllr_train.9.ark:6958052
mdcm0_sx400 quick_test/data-fmllr-tri3/train/data/feats_fmllr_train.4.ark:16606491
mmws0_sx168 quick_test/data-fmllr-tri3/train/data/feats_fmllr_train.8.ark:4074747
mhbs0_si2205 quick_test/data-fmllr-tri3/train/data/feats_fmllr_train.6.ark:3607270
mtqc0_sx181 quick_test/data-fmllr-tri3/train/data/feats_fmllr_train.10.ark:10151121
fhxs0_sx355 quick_test/data-fmllr-tri3/train/data/feats_fmllr_train.1.ark:18707418
mejl0_sx152 quick_test/data-fmllr-tri3/train/data/feats_fmllr_train.5.ark:12376479
fapb0_sx343 quick_test/data-fmllr-tri3/train/data/feats_fmllr_train.1.ark:1865653
msfv0_si1892 quick_test/data-fmllr-tri3/train/data/feats_fmllr_train.9.ark:15015814
mrtj0_sx232 quick_test/data-fmllr-tri3/train/data/feats_fmllr_train.9.ark:9429915
mdlb0_sx406 quick_test/data-fmllr-tri3/train/data/feats_fmllr_train.5.ark:2672199
mdwd0_si1260 quick_test/data-fmllr-tri3/train/data/feats_fmllr_train.5.ark:9577441
mwrp0_si1525 quick_test/data-fmllr-tri3/train/data/feats_fmllr_train.10.ark:16487401
mtkp0_sx303 quick_test/data-fmllr-tri3/train/data/feats_fmllr_train.10.ark:6382124
fmju0_sx399 quick_test/data-fmllr-tri3/train/data/feats_fmllr_train.2.ark:16692948
mdss1_sx247 quick_test/data-fmllr-tri3/train/data/feats_fmllr_train.5.ark:9074235
mhmg0_sx195 quick_test/data-fmllr-tri3/train/data/feats_fmllr_train.6.ark:4844029
mtwh1_sx252 quick_test/data-fmllr-tri3/train/data/feats_fmllr_train.10.ark:11715215
mcth0_sx129 quick_test/data-fmllr-tri3/train/data/feats_fmllr_train.4.ark:13379530
fsgf0_si1557 quick_test/data-fmllr-tri3/train/data/feats_fmllr_train.3.ark:7913792
mabc0_si1620 quick_test/data-fmllr-tri3/train/data/feats_fmllr_train.3.ark:16853184
mcdc0_sx122 quick_test/data-fmllr-tri3/train/data/feats_fmllr_train.4.ark:9108983
fleh0_si1681 quick_test/data-fmllr-tri3/train/data/feats_fmllr_train.2.ark:9732615
fskl0_si2159 quick_test/data-fmllr-tri3/train/data/feats_fmllr_train.3.ark:10395922
ftmg0_sx272 quick_test/data-fmllr-tri3/train/data/feats_fmllr_train.3.ark:15565864
mtlc0_si1313 quick_test/data-fmllr-tri3/train/data/feats_fmllr_train.10.ark:6890262
mprd0_sx441 quick_test/data-fmllr-tri3/train/data/feats_fmllr_train.8.ark:9730504
msvs0_sx38 quick_test/data-fmllr-tri3/train/data/feats_fmllr_train.10.ark:358255
mgag0_si645 quick_test/data-fmllr-tri3/train/data/feats_fmllr_train.5.ark:16632949
fjrb0_sx132 quick_test/data-fmllr-tri3/train/data/feats_fmllr_train.2.ark:2503641
mcxm0_si721 quick_test/data-fmllr-tri3/train/data/feats_fmllr_train.4.ark:14093697
mjde0_si1120 quick_test/data-fmllr-tri3/train/data/feats_fmllr_train.6.ark:8727719
fjsk0_sx242 quick_test/data-fmllr-tri3/train/data/feats_fmllr_train.2.ark:3458183
fsls0_sx66 quick_test/data-fmllr-tri3/train/data/feats_fmllr_train.3.ark:11441638
mgsl0_sx444 quick_test/data-fmllr-tri3/train/data/feats_fmllr_train.6.ark:3032734
mmdg0_si520 quick_test/data-fmllr-tri3/train/data/feats_fmllr_train.7.ark:15928430
mlel0_si1246 quick_test/data-fmllr-tri3/train/data/feats_fmllr_train.7.ark:10498193
mwar0_sx55 quick_test/data-fmllr-tri3/train/data/feats_fmllr_train.10.ark:14488497
mmag0_si1756 quick_test/data-fmllr-tri3/train/data/feats_fmllr_train.7.ark:13465180
mtpg0_sx393 quick_test/data-fmllr-tri3/train/data/feats_fmllr_train.10.ark:9120657
mfxs0_sx324 quick_test/data-fmllr-tri3/train/data/feats_fmllr_train.5.ark:15696566
mpgr0_si1410 quick_test/data-fmllr-tri3/train/data/feats_fmllr_train.8.ark:7151815
mses0_sx239 quick_test/data-fmllr-tri3/train/data/feats_fmllr_train.9.ark:14344261
fmpg0_si2232 quick_test/data-fmllr-tri3/train/data/feats_fmllr_train.2.ark:17976052
mmwb0_sx269 quick_test/data-fmllr-tri3/train/data/feats_fmllr_train.8.ark:3694078
mjpm0_sx198 quick_test/data-fmllr-tri3/train/data/feats_fmllr_train.6.ark:16688516
mdks0_si1066 quick_test/data-fmllr-tri3/train/data/feats_fmllr_train.5.ark:1926538
fpac0_sx391 quick_test/data-fmllr-tri3/train/data/feats_fmllr_train.3.ark:1566772
fcaj0_si1804 quick_test/data-fmllr-tri3/train/data/feats_fmllr_train.1.ark:5264459
mprb0_sx125 quick_test/data-fmllr-tri3/train/data/feats_fmllr_train.8.ark:9127006
mafm0_si1569 quick_test/data-fmllr-tri3/train/data/feats_fmllr_train.4.ark:746368
fpaz0_sx27 quick_test/data-fmllr-tri3/train/data/feats_fmllr_train.3.ark:2699850
mjxl0_si1795 quick_test/data-fmllr-tri3/train/data/feats_fmllr_train.7.ark:3687114
flag0_si2094 quick_test/data-fmllr-tri3/train/data/feats_fmllr_train.2.ark:9301838
fmbg0_sx350 quick_test/data-fmllr-tri3/train/data/feats_fmllr_train.2.ark:14939388
mmdb0_sx447 quick_test/data-fmllr-tri3/train/data/feats_fmllr_train.7.ark:15755521
mchl0_si1977 quick_test/data-fmllr-tri3/train/data/feats_fmllr_train.4.ark:11121722
fhlm0_sx120 quick_test/data-fmllr-tri3/train/data/feats_fmllr_train.1.ark:18077065
fsdj0_si1745 quick_test/data-fmllr-tri3/train/data/feats_fmllr_train.3.ark:7648483
mdcd0_sx245 quick_test/data-fmllr-tri3/train/data/feats_fmllr_train.4.ark:16090514
mdlc2_si1614 quick_test/data-fmllr-tri3/train/data/feats_fmllr_train.5.ark:3572848
mcdr0_sx434 quick_test/data-fmllr-tri3/train/data/feats_fmllr_train.4.ark:10041178
mrab1_sx308 quick_test/data-fmllr-tri3/train/data/feats_fmllr_train.8.ark:11565801
mjsr0_sx74 quick_test/data-fmllr-tri3/train/data/feats_fmllr_train.7.ark:1893391
mgrp0_sx57 quick_test/data-fmllr-tri3/train/data/feats_fmllr_train.6.ark:2254889
mded0_si1800 quick_test/data-fmllr-tri3/train/data/feats_fmllr_train.4.ark:17047404
mrfk0_sx356 quick_test/data-fmllr-tri3/train/data/feats_fmllr_train.8.ark:16930923
mfrm0_sx255 quick_test/data-fmllr-tri3/train/data/feats_fmllr_train.5.ark:14948104
mdns0_si873 quick_test/data-fmllr-tri3/train/data/feats_fmllr_train.5.ark:6392662
fkdw0_sx37 quick_test/data-fmllr-tri3/train/data/feats_fmllr_train.2.ark:6343915
fdas1_si1461 quick_test/data-fmllr-tri3/train/data/feats_fmllr_train.1.ark:9329219
mrhl0_sx165 quick_test/data-fmllr-tri3/train/data/feats_fmllr_train.9.ark:563830
mrxb0_sx55 quick_test/data-fmllr-tri3/train/data/feats_fmllr_train.9.ark:11052143
mvrw0_sx45 quick_test/data-fmllr-tri3/train/data/feats_fmllr_train.10.ark:13368804
mlbc0_si1239 quick_test/data-fmllr-tri3/train/data/feats_fmllr_train.7.ark:10126776
mtas0_sx35 quick_test/data-fmllr-tri3/train/data/feats_fmllr_train.10.ark:1167489
mdsj0_si2092 quick_test/data-fmllr-tri3/train/data/feats_fmllr_train.5.ark:8272600
mlsh0_si2047 quick_test/data-fmllr-tri3/train/data/feats_fmllr_train.7.ark:12248849
fcyl0_sx217 quick_test/data-fmllr-tri3/train/data/feats_fmllr_train.1.ark:9135511
mfmc0_sx52 quick_test/data-fmllr-tri3/train/data/feats_fmllr_train.5.ark:14704766
mgsh0_si546 quick_test/data-fmllr-tri3/train/data/feats_fmllr_train.6.ark:2430332
mjjb0_sx59 quick_test/data-fmllr-tri3/train/data/feats_fmllr_train.6.ark:12690181
mrld0_si1594 quick_test/data-fmllr-tri3/train/data/feats_fmllr_train.9.ark:3385266
fcmg0_si1872 quick_test/data-fmllr-tri3/train/data/feats_fmllr_train.1.ark:7902006
mmeb0_si727 quick_test/data-fmllr-tri3/train/data/feats_fmllr_train.7.ark:17750315
mppc0_sx152 quick_test/data-fmllr-tri3/train/data/feats_fmllr_train.8.ark:8696389
msem1_si810 quick_test/data-fmllr-tri3/train/data/feats_fmllr_train.9.ark:13798069
fmmh0_sx187 quick_test/data-fmllr-tri3/train/data/feats_fmllr_train.2.ark:17703731
faem0_si2022 quick_test/data-fmllr-tri3/train/data/feats_fmllr_train.1.ark:75881
flet0_si1137 quick_test/data-fmllr-tri3/train/data/feats_fmllr_train.2.ark:10052325
fgrw0_si1152 quick_test/data-fmllr-tri3/train/data/feats_fmllr_train.1.ark:17507965
mjra0_si1236 quick_test/data-fmllr-tri3/train/data/feats_fmllr_train.6.ark:17223375
mrxb0_si1585 quick_test/data-fmllr-tri3/train/data/feats_fmllr_train.9.ark:10707474
mprb0_sx35 quick_test/data-fmllr-tri3/train/data/feats_fmllr_train.8.ark:9286926
fdxw0_sx251 quick_test/data-fmllr-tri3/train/data/feats_fmllr_train.1.ark:13175766
mdma0_si2060 quick_test/data-fmllr-tri3/train/data/feats_fmllr_train.5.ark:5557668
mdma0_sx260 quick_test/data-fmllr-tri3/train/data/feats_fmllr_train.5.ark:5685722
mwgr0_sx166 quick_test/data-fmllr-tri3/train/data/feats_fmllr_train.10.ark:15795340
mrcw0_sx381 quick_test/data-fmllr-tri3/train/data/feats_fmllr_train.8.ark:14010998
mefg0_sx285 quick_test/data-fmllr-tri3/train/data/feats_fmllr_train.5.ark:11724767
mbbr0_sx155 quick_test/data-fmllr-tri3/train/data/feats_fmllr_train.4.ark:3894429
mmag0_sx136 quick_test/data-fmllr-tri3/train/data/feats_fmllr_train.7.ark:13582674
fdkn0_sx181 quick_test/data-fmllr-tri3/train/data/feats_fmllr_train.1.ark:10997852
mcef0_si842 quick_test/data-fmllr-tri3/train/data/feats_fmllr_train.4.ark:10211847
mfmc0_sx232 quick_test/data-fmllr-tri3/train/data/feats_fmllr_train.5.ark:14557166
mmbs0_si521 quick_test/data-fmllr-tri3/train/data/feats_fmllr_train.7.ark:14736099
mhmg0_sx375 quick_test/data-fmllr-tri3/train/data/feats_fmllr_train.6.ark:4912563
flod0_si1287 quick_test/data-fmllr-tri3/train/data/feats_fmllr_train.2.ark:13583560
msem1_sx180 quick_test/data-fmllr-tri3/train/data/feats_fmllr_train.9.ark:13907696
msat0_sx176 quick_test/data-fmllr-tri3/train/data/feats_fmllr_train.9.ark:11964848
mjpm0_sx108 quick_test/data-fmllr-tri3/train/data/feats_fmllr_train.6.ark:16610383
mljh0_sx64 quick_test/data-fmllr-tri3/train/data/feats_fmllr_train.7.ark:11783456
flod0_sx207 quick_test/data-fmllr-tri3/train/data/feats_fmllr_train.2.ark:13827376
mejl0_sx62 quick_test/data-fmllr-tri3/train/data/feats_fmllr_train.5.ark:12555306
fcaj0_sx399 quick_test/data-fmllr-tri3/train/data/feats_fmllr_train.1.ark:5537260
msas0_sx206 quick_test/data-fmllr-tri3/train/data/feats_fmllr_train.9.ark:11667698
msds0_si2337 quick_test/data-fmllr-tri3/train/data/feats_fmllr_train.9.ark:13337052
mbom0_si2274 quick_test/data-fmllr-tri3/train/data/feats_fmllr_train.4.ark:6768778
mjmm0_sx175 quick_test/data-fmllr-tri3/train/data/feats_fmllr_train.6.ark:15890909
mwsh0_sx436 quick_test/data-fmllr-tri3/train/data/feats_fmllr_train.10.ark:17497087
falk0_sx186 quick_test/data-fmllr-tri3/train/data/feats_fmllr_train.1.ark:984206
mrms0_si1113 quick_test/data-fmllr-tri3/train/data/feats_fmllr_train.9.ark:6741622
mdmt0_sx212 quick_test/data-fmllr-tri3/train/data/feats_fmllr_train.5.ark:6090739
fklc1_sx148 quick_test/data-fmllr-tri3/train/data/feats_fmllr_train.2.ark:7841024
mefg0_si598 quick_test/data-fmllr-tri3/train/data/feats_fmllr_train.5.ark:11534420
ftbr0_sx111 quick_test/data-fmllr-tri3/train/data/feats_fmllr_train.3.ark:14390147
msmc0_sx107 quick_test/data-fmllr-tri3/train/data/feats_fmllr_train.9.ark:15990221
mmam0_sx247 quick_test/data-fmllr-tri3/train/data/feats_fmllr_train.7.ark:14006279
mpmb0_sx331 quick_test/data-fmllr-tri3/train/data/feats_fmllr_train.8.ark:8302946
msat1_sx353 quick_test/data-fmllr-tri3/train/data/feats_fmllr_train.9.ark:12392160
fsjs0_si1801 quick_test/data-fmllr-tri3/train/data/feats_fmllr_train.3.ark:9202311
fklc1_sx328 quick_test/data-fmllr-tri3/train/data/feats_fmllr_train.2.ark:7928598
mgrl0_sx417 quick_test/data-fmllr-tri3/train/data/feats_fmllr_train.6.ark:1797046
meal0_sx377 quick_test/data-fmllr-tri3/train/data/feats_fmllr_train.5.ark:11042922
mrld0_si2224 quick_test/data-fmllr-tri3/train/data/feats_fmllr_train.9.ark:3436014
mrld0_si964 quick_test/data-fmllr-tri3/train/data/feats_fmllr_train.9.ark:3471401
mjkr0_sx211 quick_test/data-fmllr-tri3/train/data/feats_fmllr_train.6.ark:13777632
flet0_sx147 quick_test/data-fmllr-tri3/train/data/feats_fmllr_train.2.ark:10228407
mrjb1_sx210 quick_test/data-fmllr-tri3/train/data/feats_fmllr_train.9.ark:1064075
mkdd0_si1567 quick_test/data-fmllr-tri3/train/data/feats_fmllr_train.7.ark:5940067
mkrg0_sx141 quick_test/data-fmllr-tri3/train/data/feats_fmllr_train.7.ark:9582104
mjdg0_si1672 quick_test/data-fmllr-tri3/train/data/feats_fmllr_train.6.ark:9291003
mtml0_sx435 quick_test/data-fmllr-tri3/train/data/feats_fmllr_train.10.ark:7534963
mdem0_sx428 quick_test/data-fmllr-tri3/train/data/feats_fmllr_train.5.ark:703273
megj0_si1967 quick_test/data-fmllr-tri3/train/data/feats_fmllr_train.5.ark:11922450
mdas0_sx21 quick_test/data-fmllr-tri3/train/data/feats_fmllr_train.4.ark:14970504
mvlo0_sx427 quick_test/data-fmllr-tri3/train/data/feats_fmllr_train.10.ark:12997521
mmdm1_sx243 quick_test/data-fmllr-tri3/train/data/feats_fmllr_train.7.ark:16800758
mrld0_sx244 quick_test/data-fmllr-tri3/train/data/feats_fmllr_train.9.ark:3565215
msdh0_sx440 quick_test/data-fmllr-tri3/train/data/feats_fmllr_train.9.ark:13097582
mjjb0_sx149 quick_test/data-fmllr-tri3/train/data/feats_fmllr_train.6.ark:12470554
mfxv0_sx15 quick_test/data-fmllr-tri3/train/data/feats_fmllr_train.5.ark:16070836
fskc0_si786 quick_test/data-fmllr-tri3/train/data/feats_fmllr_train.3.ark:10092852
mdlr0_sx423 quick_test/data-fmllr-tri3/train/data/feats_fmllr_train.5.ark:4960221
frjb0_sx257 quick_test/data-fmllr-tri3/train/data/feats_fmllr_train.3.ark:4504588
mcdd0_si2143 quick_test/data-fmllr-tri3/train/data/feats_fmllr_train.4.ark:9381466
mcre0_sx41 quick_test/data-fmllr-tri3/train/data/feats_fmllr_train.4.ark:12777284
mdbb1_sx376 quick_test/data-fmllr-tri3/train/data/feats_fmllr_train.4.ark:15428720
mjmm0_si625 quick_test/data-fmllr-tri3/train/data/feats_fmllr_train.6.ark:15853442
mmea0_sx38 quick_test/data-fmllr-tri3/train/data/feats_fmllr_train.7.ark:17568925
ftmg0_sx362 quick_test/data-fmllr-tri3/train/data/feats_fmllr_train.3.ark:15607171
mtjg0_si2157 quick_test/data-fmllr-tri3/train/data/feats_fmllr_train.10.ark:4119491
mkls1_si2175 quick_test/data-fmllr-tri3/train/data/feats_fmllr_train.7.ark:8673135
fntb0_si573 quick_test/data-fmllr-tri3/train/data/feats_fmllr_train.3.ark:417537
flet0_sx57 quick_test/data-fmllr-tri3/train/data/feats_fmllr_train.2.ark:10378914
flkm0_si1880 quick_test/data-fmllr-tri3/train/data/feats_fmllr_train.2.ark:12043492
mtab0_sx222 quick_test/data-fmllr-tri3/train/data/feats_fmllr_train.10.ark:724659
milb0_sx93 quick_test/data-fmllr-tri3/train/data/feats_fmllr_train.6.ark:6437427
mjwg0_sx265 quick_test/data-fmllr-tri3/train/data/feats_fmllr_train.7.ark:2230967
mter0_si1787 quick_test/data-fmllr-tri3/train/data/feats_fmllr_train.10.ark:3756395
fdml0_si2075 quick_test/data-fmllr-tri3/train/data/feats_fmllr_train.1.ark:11379483
mdwh0_sx305 quick_test/data-fmllr-tri3/train/data/feats_fmllr_train.5.ark:10231074
mkdb0_si2132 quick_test/data-fmllr-tri3/train/data/feats_fmllr_train.7.ark:5552331
fcdr1_si1186 quick_test/data-fmllr-tri3/train/data/feats_fmllr_train.1.ark:5577768
mbjv0_si1877 quick_test/data-fmllr-tri3/train/data/feats_fmllr_train.4.ark:5243722
fmjf0_sx84 quick_test/data-fmllr-tri3/train/data/feats_fmllr_train.2.ark:16265691
fdas1_sx291 quick_test/data-fmllr-tri3/train/data/feats_fmllr_train.1.ark:9649061
mwsh0_sx256 quick_test/data-fmllr-tri3/train/data/feats_fmllr_train.10.ark:17387113
fetb0_sx68 quick_test/data-fmllr-tri3/train/data/feats_fmllr_train.1.ark:15752188
mkam0_sx416 quick_test/data-fmllr-tri3/train/data/feats_fmllr_train.7.ark:5466197
mjrk0_sx430 quick_test/data-fmllr-tri3/train/data/feats_fmllr_train.7.ark:1041411
mrso0_si1659 quick_test/data-fmllr-tri3/train/data/feats_fmllr_train.9.ark:7963422
mdwm0_sx286 quick_test/data-fmllr-tri3/train/data/feats_fmllr_train.5.ark:10623930
fsak0_sx130 quick_test/data-fmllr-tri3/train/data/feats_fmllr_train.3.ark:6105268
mdmt0_si572 quick_test/data-fmllr-tri3/train/data/feats_fmllr_train.5.ark:5973245
mrab0_sx414 quick_test/data-fmllr-tri3/train/data/feats_fmllr_train.8.ark:11220971
mkjo0_sx437 quick_test/data-fmllr-tri3/train/data/feats_fmllr_train.7.ark:7400080
mrhl0_si1515 quick_test/data-fmllr-tri3/train/data/feats_fmllr_train.9.ark:433028
mwre0_sx247 quick_test/data-fmllr-tri3/train/data/feats_fmllr_train.10.ark:16206785
mgsl0_sx174 quick_test/data-fmllr-tri3/train/data/feats_fmllr_train.6.ark:2879853
mtkd0_sx17 quick_test/data-fmllr-tri3/train/data/feats_fmllr_train.10.ark:5902039
fpmy0_sx196 quick_test/data-fmllr-tri3/train/data/feats_fmllr_train.3.ark:3824633
mwgr0_sx436 quick_test/data-fmllr-tri3/train/data/feats_fmllr_train.10.ark:15949341
mrtj0_sx142 quick_test/data-fmllr-tri3/train/data/feats_fmllr_train.9.ark:9359648
mjfr0_sx435 quick_test/data-fmllr-tri3/train/data/feats_fmllr_train.6.ark:11831961
fsms1_si874 quick_test/data-fmllr-tri3/train/data/feats_fmllr_train.3.ark:12404075
fjen0_sx417 quick_test/data-fmllr-tri3/train/data/feats_fmllr_train.2.ark:747115
mrjh0_si889 quick_test/data-fmllr-tri3/train/data/feats_fmllr_train.9.ark:1312850
mfer0_si862 quick_test/data-fmllr-tri3/train/data/feats_fmllr_train.5.ark:14074975
mjdm0_sx350 quick_test/data-fmllr-tri3/train/data/feats_fmllr_train.6.ark:9875809
fsjw0_sx433 quick_test/data-fmllr-tri3/train/data/feats_fmllr_train.3.ark:9891623
fntb0_si679 quick_test/data-fmllr-tri3/train/data/feats_fmllr_train.3.ark:458684
fbmj0_sx336 quick_test/data-fmllr-tri3/train/data/feats_fmllr_train.1.ark:4723812
mwac0_sx431 quick_test/data-fmllr-tri3/train/data/feats_fmllr_train.10.ark:13770915
mjxa0_si2137 quick_test/data-fmllr-tri3/train/data/feats_fmllr_train.7.ark:3309617
mmar0_si1966 quick_test/data-fmllr-tri3/train/data/feats_fmllr_train.7.ark:14239695
fdml0_si1149 quick_test/data-fmllr-tri3/train/data/feats_fmllr_train.1.ark:11281667
mpar0_si1576 quick_test/data-fmllr-tri3/train/data/feats_fmllr_train.8.ark:5741028
maeo0_sx336 quick_test/data-fmllr-tri3/train/data/feats_fmllr_train.4.ark:593327
mbwp0_si709 quick_test/data-fmllr-tri3/train/data/feats_fmllr_train.4.ark:7776147
mmwb0_si989 quick_test/data-fmllr-tri3/train/data/feats_fmllr_train.8.ark:3577864
fear0_si622 quick_test/data-fmllr-tri3/train/data/feats_fmllr_train.1.ark:13817106
fdas1_sx21 quick_test/data-fmllr-tri3/train/data/feats_fmllr_train.1.ark:9616554
fclt0_sx178 quick_test/data-fmllr-tri3/train/data/feats_fmllr_train.1.ark:7540855
mjfr0_si2235 quick_test/data-fmllr-tri3/train/data/feats_fmllr_train.6.ark:11575986
mmar0_si1336 quick_test/data-fmllr-tri3/train/data/feats_fmllr_train.7.ark:14181587
mprb0_si575 quick_test/data-fmllr-tri3/train/data/feats_fmllr_train.8.ark:9048419
mcre0_sx24 quick_test/data-fmllr-tri3/train/data/feats_fmllr_train.4.ark:12692911
mdas0_sx96 quick_test/data-fmllr-tri3/train/data/feats_fmllr_train.4.ark:15076022
mntw0_sx202 quick_test/data-fmllr-tri3/train/data/feats_fmllr_train.8.ark:5552280
mhjb0_sx117 quick_test/data-fmllr-tri3/train/data/feats_fmllr_train.6.ark:4446479
fmju0_sx129 quick_test/data-fmllr-tri3/train/data/feats_fmllr_train.2.ark:16491241
fnkl0_sx196 quick_test/data-fmllr-tri3/train/data/feats_fmllr_train.3.ark:207642
ftbw0_si1345 quick_test/data-fmllr-tri3/train/data/feats_fmllr_train.3.ark:14590442
mcdd0_sx73 quick_test/data-fmllr-tri3/train/data/feats_fmllr_train.4.ark:9647227
mdef0_sx393 quick_test/data-fmllr-tri3/train/data/feats_fmllr_train.5.ark:319723
fsgf0_si927 quick_test/data-fmllr-tri3/train/data/feats_fmllr_train.3.ark:8023607
fclt0_si808 quick_test/data-fmllr-tri3/train/data/feats_fmllr_train.1.ark:7470268
mrab1_si1478 quick_test/data-fmllr-tri3/train/data/feats_fmllr_train.8.ark:11321025
mrjb1_sx30 quick_test/data-fmllr-tri3/train/data/feats_fmllr_train.9.ark:1105701
fecd0_si1418 quick_test/data-fmllr-tri3/train/data/feats_fmllr_train.1.ark:14136308
mrfl0_si1786 quick_test/data-fmllr-tri3/train/data/feats_fmllr_train.8.ark:17126712
mjls0_sx376 quick_test/data-fmllr-tri3/train/data/feats_fmllr_train.6.ark:15009724
mmds0_sx443 quick_test/data-fmllr-tri3/train/data/feats_fmllr_train.7.ark:17249669
mafm0_si939 quick_test/data-fmllr-tri3/train/data/feats_fmllr_train.4.ark:787543
mkjo0_si887 quick_test/data-fmllr-tri3/train/data/feats_fmllr_train.7.ark:7230052
mgjc0_si1335 quick_test/data-fmllr-tri3/train/data/feats_fmllr_train.6.ark:1120533
mses0_si2216 quick_test/data-fmllr-tri3/train/data/feats_fmllr_train.9.ark:14224979
mkls0_si1533 quick_test/data-fmllr-tri3/train/data/feats_fmllr_train.7.ark:8286997
fvfb0_sx402 quick_test/data-fmllr-tri3/train/data/feats_fmllr_train.3.ark:16031576
mtjm0_si655 quick_test/data-fmllr-tri3/train/data/feats_fmllr_train.10.ark:4585975
fmjf0_sx444 quick_test/data-fmllr-tri3/train/data/feats_fmllr_train.2.ark:16216065
mfwk0_sx79 quick_test/data-fmllr-tri3/train/data/feats_fmllr_train.5.ark:15453841
mjac0_sx251 quick_test/data-fmllr-tri3/train/data/feats_fmllr_train.6.ark:6615937
fsjw0_sx73 quick_test/data-fmllr-tri3/train/data/feats_fmllr_train.3.ark:9944449
mkag0_si2239 quick_test/data-fmllr-tri3/train/data/feats_fmllr_train.7.ark:4075651
mrew1_si1500 quick_test/data-fmllr-tri3/train/data/feats_fmllr_train.8.ark:16352169
mdlc1_sx175 quick_test/data-fmllr-tri3/train/data/feats_fmllr_train.5.ark:3358153
msvs0_sx218 quick_test/data-fmllr-tri3/train/data/feats_fmllr_train.10.ark:249402
mejl0_si962 quick_test/data-fmllr-tri3/train/data/feats_fmllr_train.5.ark:12330372
fexm0_sx291 quick_test/data-fmllr-tri3/train/data/feats_fmllr_train.1.ark:16080032
mnet0_sx6 quick_test/data-fmllr-tri3/train/data/feats_fmllr_train.8.ark:5245556
fcrz0_sx433 quick_test/data-fmllr-tri3/train/data/feats_fmllr_train.1.ark:8833428
fear0_sx262 quick_test/data-fmllr-tri3/train/data/feats_fmllr_train.1.ark:13917160
mmar0_sx346 quick_test/data-fmllr-tri3/train/data/feats_fmllr_train.7.ark:14495963
fdaw0_sx56 quick_test/data-fmllr-tri3/train/data/feats_fmllr_train.1.ark:10093946
mtxs0_sx250 quick_test/data-fmllr-tri3/train/data/feats_fmllr_train.10.ark:12125513
mbjv0_si1247 quick_test/data-fmllr-tri3/train/data/feats_fmllr_train.4.ark:5198254
mppc0_sx422 quick_test/data-fmllr-tri3/train/data/feats_fmllr_train.8.ark:8830550
mram0_sx105 quick_test/data-fmllr-tri3/train/data/feats_fmllr_train.8.ark:12294982
mrjm1_sx38 quick_test/data-fmllr-tri3/train/data/feats_fmllr_train.9.ark:2392139
mprk0_si1097 quick_test/data-fmllr-tri3/train/data/feats_fmllr_train.8.ark:9816798
feme0_sx65 quick_test/data-fmllr-tri3/train/data/feats_fmllr_train.1.ark:15377251
fnkl0_si1522 quick_test/data-fmllr-tri3/train/data/feats_fmllr_train.3.ark:13
mfrm0_sx165 quick_test/data-fmllr-tri3/train/data/feats_fmllr_train.5.ark:14903277
mkls0_sx87 quick_test/data-fmllr-tri3/train/data/feats_fmllr_train.7.ark:8579319
mdlr1_si1299 quick_test/data-fmllr-tri3/train/data/feats_fmllr_train.5.ark:5059635
mrcg0_si1428 quick_test/data-fmllr-tri3/train/data/feats_fmllr_train.8.ark:13228352
fcag0_si1503 quick_test/data-fmllr-tri3/train/data/feats_fmllr_train.1.ark:4895413
marw0_sx106 quick_test/data-fmllr-tri3/train/data/feats_fmllr_train.4.ark:3088554
mtpg0_si1383 quick_test/data-fmllr-tri3/train/data/feats_fmllr_train.10.ark:8808948
fbcg1_sx262 quick_test/data-fmllr-tri3/train/data/feats_fmllr_train.1.ark:2640621
mpar0_sx316 quick_test/data-fmllr-tri3/train/data/feats_fmllr_train.8.ark:5954764
fcjs0_sx167 quick_test/data-fmllr-tri3/train/data/feats_fmllr_train.1.ark:6799621
fpls0_si1590 quick_test/data-fmllr-tri3/train/data/feats_fmllr_train.3.ark:3203989
mtlb0_si1764 quick_test/data-fmllr-tri3/train/data/feats_fmllr_train.10.ark:6569273
feac0_sx345 quick_test/data-fmllr-tri3/train/data/feats_fmllr_train.1.ark:13598250
fleh0_sx421 quick_test/data-fmllr-tri3/train/data/feats_fmllr_train.2.ark:9949231
mjfr0_si1605 quick_test/data-fmllr-tri3/train/data/feats_fmllr_train.6.ark:11522678
fsma0_sx451 quick_test/data-fmllr-tri3/train/data/feats_fmllr_train.3.ark:11776229
mmeb0_si1987 quick_test/data-fmllr-tri3/train/data/feats_fmllr_train.7.ark:17716848
flma0_sx343 quick_test/data-fmllr-tri3/train/data/feats_fmllr_train.2.ark:12687844
mtrr0_si2178 quick_test/data-fmllr-tri3/train/data/feats_fmllr_train.10.ark:10841260
mprt0_sx220 quick_test/data-fmllr-tri3/train/data/feats_fmllr_train.8.ark:10454243
mbef0_sx291 quick_test/data-fmllr-tri3/train/data/feats_fmllr_train.4.ark:4720222
mprt0_sx130 quick_test/data-fmllr-tri3/train/data/feats_fmllr_train.8.ark:10419656
mrgs0_sx276 quick_test/data-fmllr-tri3/train/data/feats_fmllr_train.9.ark:214522
fcmm0_sx420 quick_test/data-fmllr-tri3/train/data/feats_fmllr_train.1.ark:8462811
faem0_sx222 quick_test/data-fmllr-tri3/train/data/feats_fmllr_train.1.ark:201402
mram0_sx375 quick_test/data-fmllr-tri3/train/data/feats_fmllr_train.8.ark:12461969
fhlm0_sx210 quick_test/data-fmllr-tri3/train/data/feats_fmllr_train.1.ark:18143172
mrab1_sx398 quick_test/data-fmllr-tri3/train/data/feats_fmllr_train.8.ark:11665214
mwad0_sx252 quick_test/data-fmllr-tri3/train/data/feats_fmllr_train.10.ark:14022759
fjhk0_sx212 quick_test/data-fmllr-tri3/train/data/feats_fmllr_train.2.ark:1064559
mmpm0_si1691 quick_test/data-fmllr-tri3/train/data/feats_fmllr_train.8.ark:1803688
mses0_sx419 quick_test/data-fmllr-tri3/train/data/feats_fmllr_train.9.ark:14436955
mppc0_si782 quick_test/data-fmllr-tri3/train/data/feats_fmllr_train.8.ark:8648522
mdtb0_sx300 quick_test/data-fmllr-tri3/train/data/feats_fmllr_train.5.ark:9452239
mmvp0_sx204 quick_test/data-fmllr-tri3/train/data/feats_fmllr_train.8.ark:3217380
fceg0_si1248 quick_test/data-fmllr-tri3/train/data/feats_fmllr_train.1.ark:6075585
fear0_sx352 quick_test/data-fmllr-tri3/train/data/feats_fmllr_train.1.ark:13959267
mree0_si1959 quick_test/data-fmllr-tri3/train/data/feats_fmllr_train.8.ark:15254774
mjsr0_si1424 quick_test/data-fmllr-tri3/train/data/feats_fmllr_train.7.ark:1466482
mjpm0_sx378 quick_test/data-fmllr-tri3/train/data/feats_fmllr_train.6.ark:16792730
mctm0_sx90 quick_test/data-fmllr-tri3/train/data/feats_fmllr_train.4.ark:13956494
mjda0_sx401 quick_test/data-fmllr-tri3/train/data/feats_fmllr_train.6.ark:8273528
fbjl0_si1552 quick_test/data-fmllr-tri3/train/data/feats_fmllr_train.1.ark:3276465
falr0_sx335 quick_test/data-fmllr-tri3/train/data/feats_fmllr_train.1.ark:1435995
fjhk0_sx392 quick_test/data-fmllr-tri3/train/data/feats_fmllr_train.2.ark:1201919
mkam0_sx146 quick_test/data-fmllr-tri3/train/data/feats_fmllr_train.7.ark:5337156
mmdg0_sx340 quick_test/data-fmllr-tri3/train/data/feats_fmllr_train.7.ark:16099231
msms0_sx83 quick_test/data-fmllr-tri3/train/data/feats_fmllr_train.9.ark:16944042
fmmh0_sx420 quick_test/data-fmllr-tri3/train/data/feats_fmllr_train.2.ark:17782985
fjrp1_si1432 quick_test/data-fmllr-tri3/train/data/feats_fmllr_train.2.ark:2765376
mdlr1_sx39 quick_test/data-fmllr-tri3/train/data/feats_fmllr_train.5.ark:5378997
mkrg0_si2121 quick_test/data-fmllr-tri3/train/data/feats_fmllr_train.7.ark:9455170
mvrw0_sx405 quick_test/data-fmllr-tri3/train/data/feats_fmllr_train.10.ark:13333738
mrdm0_sx65 quick_test/data-fmllr-tri3/train/data/feats_fmllr_train.8.ark:14755273
mhrm0_si958 quick_test/data-fmllr-tri3/train/data/feats_fmllr_train.6.ark:5429823
mdwh0_sx125 quick_test/data-fmllr-tri3/train/data/feats_fmllr_train.5.ark:10126060
mtat1_sx239 quick_test/data-fmllr-tri3/train/data/feats_fmllr_train.10.ark:1840190
mhmr0_sx39 quick_test/data-fmllr-tri3/train/data/feats_fmllr_train.6.ark:5277873
mgaw0_si1165 quick_test/data-fmllr-tri3/train/data/feats_fmllr_train.6.ark:385831
fskl0_sx359 quick_test/data-fmllr-tri3/train/data/feats_fmllr_train.3.ark:10586110
fapb0_sx163 quick_test/data-fmllr-tri3/train/data/feats_fmllr_train.1.ark:1767839
mdlc0_sx45 quick_test/data-fmllr-tri3/train/data/feats_fmllr_train.5.ark:3148762
mrbc0_si599 quick_test/data-fmllr-tri3/train/data/feats_fmllr_train.8.ark:12936990
mljh0_sx334 quick_test/data-fmllr-tri3/train/data/feats_fmllr_train.7.ark:11677003
fdas1_si831 quick_test/data-fmllr-tri3/train/data/feats_fmllr_train.1.ark:9446394
fpjf0_si1676 quick_test/data-fmllr-tri3/train/data/feats_fmllr_train.3.ark:2938227
mrgs0_si1356 quick_test/data-fmllr-tri3/train/data/feats_fmllr_train.9.ark:13
mchl0_sx177 quick_test/data-fmllr-tri3/train/data/feats_fmllr_train.4.ark:11151989
marc0_si1818 quick_test/data-fmllr-tri3/train/data/feats_fmllr_train.4.ark:2685883
mdss1_sx157 quick_test/data-fmllr-tri3/train/data/feats_fmllr_train.5.ark:9039328
mbml0_si1169 quick_test/data-fmllr-tri3/train/data/feats_fmllr_train.4.ark:6332185
fntb0_sx303 quick_test/data-fmllr-tri3/train/data/feats_fmllr_train.3.ark:626125
mjlg1_sx202 quick_test/data-fmllr-tri3/train/data/feats_fmllr_train.6.ark:14499987
fmjb0_sx7 quick_test/data-fmllr-tri3/train/data/feats_fmllr_train.2.ark:15833448
mkdt0_si2153 quick_test/data-fmllr-tri3/train/data/feats_fmllr_train.7.ark:6322364
feac0_si615 quick_test/data-fmllr-tri3/train/data/feats_fmllr_train.1.ark:13432569
mlsh0_sx427 quick_test/data-fmllr-tri3/train/data/feats_fmllr_train.7.ark:12494424
fltm0_si2330 quick_test/data-fmllr-tri3/train/data/feats_fmllr_train.2.ark:14009274
mtcs0_sx172 quick_test/data-fmllr-tri3/train/data/feats_fmllr_train.10.ark:2582837
mkls0_sx267 quick_test/data-fmllr-tri3/train/data/feats_fmllr_train.7.ark:8417959
mbar0_sx239 quick_test/data-fmllr-tri3/train/data/feats_fmllr_train.4.ark:3571998
mdcd0_si1415 quick_test/data-fmllr-tri3/train/data/feats_fmllr_train.4.ark:15888805
mvjh0_sx206 quick_test/data-fmllr-tri3/train/data/feats_fmllr_train.10.ark:12546210
mded0_si540 quick_test/data-fmllr-tri3/train/data/feats_fmllr_train.4.ark:17098471
fpaz0_sx153 quick_test/data-fmllr-tri3/train/data/feats_fmllr_train.3.ark:2596277
mkah0_sx358 quick_test/data-fmllr-tri3/train/data/feats_fmllr_train.7.ark:4671495
flet0_sx237 quick_test/data-fmllr-tri3/train/data/feats_fmllr_train.2.ark:10270674
fmem0_sx333 quick_test/data-fmllr-tri3/train/data/feats_fmllr_train.2.ark:15384272
fdkn0_si1202 quick_test/data-fmllr-tri3/train/data/feats_fmllr_train.1.ark:10885957
fpab1_sx211 quick_test/data-fmllr-tri3/train/data/feats_fmllr_train.3.ark:1006475
fbas0_sx307 quick_test/data-fmllr-tri3/train/data/feats_fmllr_train.1.ark:2348271
mtmt0_sx308 quick_test/data-fmllr-tri3/train/data/feats_fmllr_train.10.ark:8311530
ftbr0_sx291 quick_test/data-fmllr-tri3/train/data/feats_fmllr_train.3.ark:14511987
mpsw0_sx167 quick_test/data-fmllr-tri3/train/data/feats_fmllr_train.8.ark:10738434
fajw0_sx3 quick_test/data-fmllr-tri3/train/data/feats_fmllr_train.1.ark:683084
mdlr0_sx333 quick_test/data-fmllr-tri3/train/data/feats_fmllr_train.5.ark:4893634
mstf0_sx226 quick_test/data-fmllr-tri3/train/data/feats_fmllr_train.9.ark:17948931
mwac0_sx71 quick_test/data-fmllr-tri3/train/data/feats_fmllr_train.10.ark:13834941
mrvg0_si510 quick_test/data-fmllr-tri3/train/data/feats_fmllr_train.9.ark:9743358
mhbs0_sx135 quick_test/data-fmllr-tri3/train/data/feats_fmllr_train.6.ark:3722524
msfv0_sx182 quick_test/data-fmllr-tri3/train/data/feats_fmllr_train.9.ark:15153788
mrlk0_sx393 quick_test/data-fmllr-tri3/train/data/feats_fmllr_train.9.ark:4740027
mjjm0_sx377 quick_test/data-fmllr-tri3/train/data/feats_fmllr_train.6.ark:13504375
mesj0_sx367 quick_test/data-fmllr-tri3/train/data/feats_fmllr_train.5.ark:13586624
fblv0_sx158 quick_test/data-fmllr-tri3/train/data/feats_fmllr_train.1.ark:3857085
mmlm0_sx447 quick_test/data-fmllr-tri3/train/data/feats_fmllr_train.8.ark:1690966
mmpm0_sx161 quick_test/data-fmllr-tri3/train/data/feats_fmllr_train.8.ark:1889983
mtpp0_sx248 quick_test/data-fmllr-tri3/train/data/feats_fmllr_train.10.ark:9338874
mtmn0_si582 quick_test/data-fmllr-tri3/train/data/feats_fmllr_train.10.ark:7771712
mmlm0_sx357 quick_test/data-fmllr-tri3/train/data/feats_fmllr_train.8.ark:1643419
flkm0_sx80 quick_test/data-fmllr-tri3/train/data/feats_fmllr_train.2.ark:12444320
mprd0_sx81 quick_test/data-fmllr-tri3/train/data/feats_fmllr_train.8.ark:9775970
mdlc0_si1395 quick_test/data-fmllr-tri3/train/data/feats_fmllr_train.5.ark:2782173
mrso0_sx129 quick_test/data-fmllr-tri3/train/data/feats_fmllr_train.9.ark:8069237
mmeb0_sx327 quick_test/data-fmllr-tri3/train/data/feats_fmllr_train.7.ark:17812929
meal0_sx347 quick_test/data-fmllr-tri3/train/data/feats_fmllr_train.5.ark:10988335
mmag0_sx226 quick_test/data-fmllr-tri3/train/data/feats_fmllr_train.7.ark:13649101
mfwk0_sx259 quick_test/data-fmllr-tri3/train/data/feats_fmllr_train.5.ark:15288961
mgsl0_si534 quick_test/data-fmllr-tri3/train/data/feats_fmllr_train.6.ark:2773079
mrmb0_sx411 quick_test/data-fmllr-tri3/train/data/feats_fmllr_train.9.ark:5424435
mcef0_sx145 quick_test/data-fmllr-tri3/train/data/feats_fmllr_train.4.ark:10278434
mfwk0_si1879 quick_test/data-fmllr-tri3/train/data/feats_fmllr_train.5.ark:15163120
mrtc0_sx288 quick_test/data-fmllr-tri3/train/data/feats_fmllr_train.9.ark:9068471
mcal0_si508 quick_test/data-fmllr-tri3/train/data/feats_fmllr_train.4.ark:8700259
fskc0_sx426 quick_test/data-fmllr-tri3/train/data/feats_fmllr_train.3.ark:10260800
fsms1_sx244 quick_test/data-fmllr-tri3/train/data/feats_fmllr_train.3.ark:12499009
fhxs0_si2335 quick_test/data-fmllr-tri3/train/data/feats_fmllr_train.1.ark:18546217
fsdj0_sx395 quick_test/data-fmllr-tri3/train/data/feats_fmllr_train.3.ark:7872484
mmjb1_sx418 quick_test/data-fmllr-tri3/train/data/feats_fmllr_train.8.ark:1327229
fcdr1_sx16 quick_test/data-fmllr-tri3/train/data/feats_fmllr_train.1.ark:5875636
mmxs0_sx66 quick_test/data-fmllr-tri3/train/data/feats_fmllr_train.8.ark:4948407
mrtj0_si772 quick_test/data-fmllr-tri3/train/data/feats_fmllr_train.9.ark:9271301
mcss0_si750 quick_test/data-fmllr-tri3/train/data/feats_fmllr_train.4.ark:12977526
fdkn0_sx361 quick_test/data-fmllr-tri3/train/data/feats_fmllr_train.1.ark:11112306
mbom0_si1644 quick_test/data-fmllr-tri3/train/data/feats_fmllr_train.4.ark:6738350
mwch0_si1895 quick_test/data-fmllr-tri3/train/data/feats_fmllr_train.10.ark:14589353
mtkd0_si1817 quick_test/data-fmllr-tri3/train/data/feats_fmllr_train.10.ark:5712199
mtjg0_si1520 quick_test/data-fmllr-tri3/train/data/feats_fmllr_train.10.ark:4089063
fdmy0_si567 quick_test/data-fmllr-tri3/train/data/feats_fmllr_train.1.ark:11671032
mlns0_sx237 quick_test/data-fmllr-tri3/train/data/feats_fmllr_train.7.ark:12005993
mwsb0_sx96 quick_test/data-fmllr-tri3/train/data/feats_fmllr_train.10.ark:17095456
mgar0_si1842 quick_test/data-fmllr-tri3/train/data/feats_fmllr_train.6.ark:93829
mfxs0_si1674 quick_test/data-fmllr-tri3/train/data/feats_fmllr_train.5.ark:15497229
makr0_si1982 quick_test/data-fmllr-tri3/train/data/feats_fmllr_train.4.ark:1990569
mrjh0_si1519 quick_test/data-fmllr-tri3/train/data/feats_fmllr_train.9.ark:1237303
mejl0_sx242 quick_test/data-fmllr-tri3/train/data/feats_fmllr_train.5.ark:12416506
mjbg0_si1724 quick_test/data-fmllr-tri3/train/data/feats_fmllr_train.6.ark:7700374
flod0_sx171 quick_test/data-fmllr-tri3/train/data/feats_fmllr_train.2.ark:13766709
mhmr0_sx129 quick_test/data-fmllr-tri3/train/data/feats_fmllr_train.6.ark:5123073
feeh0_sx32 quick_test/data-fmllr-tri3/train/data/feats_fmllr_train.1.ark:14896847
mtmt0_si1748 quick_test/data-fmllr-tri3/train/data/feats_fmllr_train.10.ark:8114302
mjxl0_sx362 quick_test/data-fmllr-tri3/train/data/feats_fmllr_train.7.ark:3842582
mgaw0_sx175 quick_test/data-fmllr-tri3/train/data/feats_fmllr_train.6.ark:549753
fmjf0_sx174 quick_test/data-fmllr-tri3/train/data/feats_fmllr_train.2.ark:16056944
mafm0_sx39 quick_test/data-fmllr-tri3/train/data/feats_fmllr_train.4.ark:988130
mpmb0_sx241 quick_test/data-fmllr-tri3/train/data/feats_fmllr_train.8.ark:8248839
mljh0_sx424 quick_test/data-fmllr-tri3/train/data/feats_fmllr_train.7.ark:11725830
maeo0_sx156 quick_test/data-fmllr-tri3/train/data/feats_fmllr_train.4.ark:517913
mrtc0_sx198 quick_test/data-fmllr-tri3/train/data/feats_fmllr_train.9.ark:9026044
fsls0_si2316 quick_test/data-fmllr-tri3/train/data/feats_fmllr_train.3.ark:11197984
mjrh0_sx135 quick_test/data-fmllr-tri3/train/data/feats_fmllr_train.7.ark:164736
mntw0_si1068 quick_test/data-fmllr-tri3/train/data/feats_fmllr_train.8.ark:5322090
mrav0_si1008 quick_test/data-fmllr-tri3/train/data/feats_fmllr_train.8.ark:12512557
fmpg0_sx432 quick_test/data-fmllr-tri3/train/data/feats_fmllr_train.2.ark:18300347
mefg0_sx195 quick_test/data-fmllr-tri3/train/data/feats_fmllr_train.5.ark:11691460
flmc0_sx382 quick_test/data-fmllr-tri3/train/data/feats_fmllr_train.2.ark:13158674
maeb0_sx450 quick_test/data-fmllr-tri3/train/data/feats_fmllr_train.4.ark:288656
mjhi0_sx68 quick_test/data-fmllr-tri3/train/data/feats_fmllr_train.6.ark:12292043
mclk0_sx40 quick_test/data-fmllr-tri3/train/data/feats_fmllr_train.4.ark:11680606
mmgg0_sx449 quick_test/data-fmllr-tri3/train/data/feats_fmllr_train.8.ark:633835
mtjm0_si1856 quick_test/data-fmllr-tri3/train/data/feats_fmllr_train.10.ark:4530428
fsjw0_sx163 quick_test/data-fmllr-tri3/train/data/feats_fmllr_train.3.ark:9756182
mdmt0_sx32 quick_test/data-fmllr-tri3/train/data/feats_fmllr_train.5.ark:6189992
mbsb0_sx93 quick_test/data-fmllr-tri3/train/data/feats_fmllr_train.4.ark:7266248
madd0_sx268 quick_test/data-fmllr-tri3/train/data/feats_fmllr_train.3.ark:17780447
mjde0_sx130 quick_test/data-fmllr-tri3/train/data/feats_fmllr_train.6.ark:8942360
mdlb0_sx136 quick_test/data-fmllr-tri3/train/data/feats_fmllr_train.5.ark:2493238
mkjo0_sx77 quick_test/data-fmllr-tri3/train/data/feats_fmllr_train.7.ark:7455146
fexm0_si482 quick_test/data-fmllr-tri3/train/data/feats_fmllr_train.1.ark:15900911
mdma0_si1430 quick_test/data-fmllr-tri3/train/data/feats_fmllr_train.5.ark:5503720
mjfh0_sx27 quick_test/data-fmllr-tri3/train/data/feats_fmllr_train.6.ark:11421956
mrds0_si1167 quick_test/data-fmllr-tri3/train/data/feats_fmllr_train.8.ark:14788261
mdma0_sx350 quick_test/data-fmllr-tri3/train/data/feats_fmllr_train.5.ark:5742709
mrmg0_sx180 quick_test/data-fmllr-tri3/train/data/feats_fmllr_train.9.ark:5658972
mjsr0_sx164 quick_test/data-fmllr-tri3/train/data/feats_fmllr_train.7.ark:1688804
msat1_si1703 quick_test/data-fmllr-tri3/train/data/feats_fmllr_train.9.ark:12208051
mwrp0_sx363 quick_test/data-fmllr-tri3/train/data/feats_fmllr_train.10.ark:16707215
fssb0_si2342 quick_test/data-fmllr-tri3/train/data/feats_fmllr_train.3.ark:13619287
mrds0_sx447 quick_test/data-fmllr-tri3/train/data/feats_fmllr_train.8.ark:15059784
mkls1_sx15 quick_test/data-fmllr-tri3/train/data/feats_fmllr_train.7.ark:8822175
mtlb0_si504 quick_test/data-fmllr-tri3/train/data/feats_fmllr_train.10.ark:6598420
fjlg0_sx449 quick_test/data-fmllr-tri3/train/data/feats_fmllr_train.2.ark:1890008
mdef0_sx303 quick_test/data-fmllr-tri3/train/data/feats_fmllr_train.5.ark:244310
fcke0_sx301 quick_test/data-fmllr-tri3/train/data/feats_fmllr_train.1.ark:7306132
fclt0_si1438 quick_test/data-fmllr-tri3/train/data/feats_fmllr_train.1.ark:7404133
mrkm0_si637 quick_test/data-fmllr-tri3/train/data/feats_fmllr_train.9.ark:3046546
mklr0_sx69 quick_test/data-fmllr-tri3/train/data/feats_fmllr_train.7.ark:8156061
fecd0_si788 quick_test/data-fmllr-tri3/train/data/feats_fmllr_train.1.ark:14266443
mtcs0_sx352 quick_test/data-fmllr-tri3/train/data/feats_fmllr_train.10.ark:2665451
mcef0_sx415 quick_test/data-fmllr-tri3/train/data/feats_fmllr_train.4.ark:10399315
mtlc0_sx307 quick_test/data-fmllr-tri3/train/data/feats_fmllr_train.10.ark:7131038
mdlc1_si2065 quick_test/data-fmllr-tri3/train/data/feats_fmllr_train.5.ark:3270578
mrtj0_sx52 quick_test/data-fmllr-tri3/train/data/feats_fmllr_train.9.ark:9601355
mtdp0_sx81 quick_test/data-fmllr-tri3/train/data/feats_fmllr_train.10.ark:3638259
mrms0_si2100 quick_test/data-fmllr-tri3/train/data/feats_fmllr_train.9.ark:6872078
fsbk0_sx259 quick_test/data-fmllr-tri3/train/data/feats_fmllr_train.3.ark:6505673
fjxp0_si1122 quick_test/data-fmllr-tri3/train/data/feats_fmllr_train.2.ark:4841021
fbcg1_si1612 quick_test/data-fmllr-tri3/train/data/feats_fmllr_train.1.ark:2469312
mmgk0_si1322 quick_test/data-fmllr-tri3/train/data/feats_fmllr_train.8.ark:739489
mtwh1_si882 quick_test/data-fmllr-tri3/train/data/feats_fmllr_train.10.ark:11633081
mdef0_sx213 quick_test/data-fmllr-tri3/train/data/feats_fmllr_train.5.ark:202843
mprt0_sx310 quick_test/data-fmllr-tri3/train/data/feats_fmllr_train.8.ark:10507550
fsgf0_sx207 quick_test/data-fmllr-tri3/train/data/feats_fmllr_train.3.ark:8150061
fmah1_sx429 quick_test/data-fmllr-tri3/train/data/feats_fmllr_train.2.ark:14618559
mdss0_si2087 quick_test/data-fmllr-tri3/train/data/feats_fmllr_train.5.ark:8627377
mtju0_si2269 quick_test/data-fmllr-tri3/train/data/feats_fmllr_train.10.ark:5370862
mjrh0_sx315 quick_test/data-fmllr-tri3/train/data/feats_fmllr_train.7.ark:249910
mrjh0_sx79 quick_test/data-fmllr-tri3/train/data/feats_fmllr_train.9.ark:1642131
mmam0_sx427 quick_test/data-fmllr-tri3/train/data/feats_fmllr_train.7.ark:14101533
mjfr0_sx165 quick_test/data-fmllr-tri3/train/data/feats_fmllr_train.6.ark:11666920
fmbg0_sx3 quick_test/data-fmllr-tri3/train/data/feats_fmllr_train.2.ark:14909761
msah1_sx239 quick_test/data-fmllr-tri3/train/data/feats_fmllr_train.9.ark:11252281
mstf0_sx316 quick_test/data-fmllr-tri3/train/data/feats_fmllr_train.9.ark:17994718
mmdm0_si1311 quick_test/data-fmllr-tri3/train/data/feats_fmllr_train.7.ark:16233392
makb0_sx206 quick_test/data-fmllr-tri3/train/data/feats_fmllr_train.4.ark:1790433
mjmd0_sx38 quick_test/data-fmllr-tri3/train/data/feats_fmllr_train.6.ark:15659572
mded0_si1170 quick_test/data-fmllr-tri3/train/data/feats_fmllr_train.4.ark:16997136
mfmc0_sx142 quick_test/data-fmllr-tri3/train/data/feats_fmllr_train.5.ark:14498099
msmr0_si775 quick_test/data-fmllr-tri3/train/data/feats_fmllr_train.9.ark:16346251
mnet0_si1446 quick_test/data-fmllr-tri3/train/data/feats_fmllr_train.8.ark:4986355
fjlr0_si1231 quick_test/data-fmllr-tri3/train/data/feats_fmllr_train.2.ark:1994862
mpfu0_si628 quick_test/data-fmllr-tri3/train/data/feats_fmllr_train.8.ark:6519437
makr0_si1352 quick_test/data-fmllr-tri3/train/data/feats_fmllr_train.4.ark:1956301
mjkr0_si1201 quick_test/data-fmllr-tri3/train/data/feats_fmllr_train.6.ark:13552563
mhrm0_sx328 quick_test/data-fmllr-tri3/train/data/feats_fmllr_train.6.ark:5560464
mrjm1_si668 quick_test/data-fmllr-tri3/train/data/feats_fmllr_train.9.ark:2208352
mcdd0_sx433 quick_test/data-fmllr-tri3/train/data/feats_fmllr_train.4.ark:9598721
mrav0_si1638 quick_test/data-fmllr-tri3/train/data/feats_fmllr_train.8.ark:12541065
mdlr0_sx153 quick_test/data-fmllr-tri3/train/data/feats_fmllr_train.5.ark:4787980
mtlc0_sx397 quick_test/data-fmllr-tri3/train/data/feats_fmllr_train.10.ark:7195891
mwar0_si2305 quick_test/data-fmllr-tri3/train/data/feats_fmllr_train.10.ark:14290443
mcxm0_sx91 quick_test/data-fmllr-tri3/train/data/feats_fmllr_train.4.ark:14324551
msrg0_sx411 quick_test/data-fmllr-tri3/train/data/feats_fmllr_train.9.ark:17258633
mtkd0_sx377 quick_test/data-fmllr-tri3/train/data/feats_fmllr_train.10.ark:6043240
fljg0_sx261 quick_test/data-fmllr-tri3/train/data/feats_fmllr_train.2.ark:11830584
mdtb0_sx390 quick_test/data-fmllr-tri3/train/data/feats_fmllr_train.5.ark:9538693
mdlr0_sx63 quick_test/data-fmllr-tri3/train/data/feats_fmllr_train.5.ark:5017047
mhit0_sx263 quick_test/data-fmllr-tri3/train/data/feats_fmllr_train.6.ark:4126608
fkdw0_sx307 quick_test/data-fmllr-tri3/train/data/feats_fmllr_train.2.ark:6313969
mchl0_sx87 quick_test/data-fmllr-tri3/train/data/feats_fmllr_train.4.ark:11327936
mmdb0_si987 quick_test/data-fmllr-tri3/train/data/feats_fmllr_train.7.ark:15563253
mdps0_si719 quick_test/data-fmllr-tri3/train/data/feats_fmllr_train.5.ark:7496193
fcjf0_sx307 quick_test/data-fmllr-tri3/train/data/feats_fmllr_train.1.ark:6602498
mrfk0_si1706 quick_test/data-fmllr-tri3/train/data/feats_fmllr_train.8.ark:16782494
fbmh0_sx236 quick_test/data-fmllr-tri3/train/data/feats_fmllr_train.1.ark:4302929
fpaz0_sx63 quick_test/data-fmllr-tri3/train/data/feats_fmllr_train.3.ark:2783743
mvlo0_sx157 quick_test/data-fmllr-tri3/train/data/feats_fmllr_train.10.ark:12856320
mmvp0_si1284 quick_test/data-fmllr-tri3/train/data/feats_fmllr_train.8.ark:2969111
feme0_sx245 quick_test/data-fmllr-tri3/train/data/feats_fmllr_train.1.ark:15211571
mreh1_sx429 quick_test/data-fmllr-tri3/train/data/feats_fmllr_train.8.ark:15860379
mbef0_si651 quick_test/data-fmllr-tri3/train/data/feats_fmllr_train.4.ark:4562035
fmpg0_sx342 quick_test/data-fmllr-tri3/train/data/feats_fmllr_train.2.ark:18230720
flma0_si613 quick_test/data-fmllr-tri3/train/data/feats_fmllr_train.2.ark:12567283
mljc0_sx145 quick_test/data-fmllr-tri3/train/data/feats_fmllr_train.7.ark:11102492
mpsw0_sx77 quick_test/data-fmllr-tri3/train/data/feats_fmllr_train.8.ark:10895340
fmjf0_si1884 quick_test/data-fmllr-tri3/train/data/feats_fmllr_train.2.ark:15956250
fgrw0_si1782 quick_test/data-fmllr-tri3/train/data/feats_fmllr_train.1.ark:17591513
mcre0_si1725 quick_test/data-fmllr-tri3/train/data/feats_fmllr_train.4.ark:12513283
mgaw0_sx265 quick_test/data-fmllr-tri3/train/data/feats_fmllr_train.6.ark:605940
mmsm0_sx296 quick_test/data-fmllr-tri3/train/data/feats_fmllr_train.8.ark:2882336
fgcs0_sx46 quick_test/data-fmllr-tri3/train/data/feats_fmllr_train.1.ark:16572143
mpgr1_si1499 quick_test/data-fmllr-tri3/train/data/feats_fmllr_train.8.ark:7533980
fsma0_sx91 quick_test/data-fmllr-tri3/train/data/feats_fmllr_train.3.ark:11852895
mdwm0_si2176 quick_test/data-fmllr-tri3/train/data/feats_fmllr_train.5.ark:10437103
mgrp0_sx417 quick_test/data-fmllr-tri3/train/data/feats_fmllr_train.6.ark:2202223
mfwk0_si619 quick_test/data-fmllr-tri3/train/data/feats_fmllr_train.5.ark:15202187
fsak0_si1300 quick_test/data-fmllr-tri3/train/data/feats_fmllr_train.3.ark:5957186
makb0_sx386 quick_test/data-fmllr-tri3/train/data/feats_fmllr_train.4.ark:1917073
mrjm0_sx418 quick_test/data-fmllr-tri3/train/data/feats_fmllr_train.9.ark:1985523
madc0_sx107 quick_test/data-fmllr-tri3/train/data/feats_fmllr_train.3.ark:17374923
madd0_sx88 quick_test/data-fmllr-tri3/train/data/feats_fmllr_train.3.ark:17915567
milb0_sx183 quick_test/data-fmllr-tri3/train/data/feats_fmllr_train.6.ark:6286602
mcal0_sx328 quick_test/data-fmllr-tri3/train/data/feats_fmllr_train.4.ark:8808980
makb0_si2276 quick_test/data-fmllr-tri3/train/data/feats_fmllr_train.4.ark:1643339
fgmb0_sx335 quick_test/data-fmllr-tri3/train/data/feats_fmllr_train.1.ark:17345804
mtkp0_si2283 quick_test/data-fmllr-tri3/train/data/feats_fmllr_train.10.ark:6139936
mrpc1_si2026 quick_test/data-fmllr-tri3/train/data/feats_fmllr_train.9.ark:7143468
mfmc0_sx322 quick_test/data-fmllr-tri3/train/data/feats_fmllr_train.5.ark:14617033
flhd0_si1974 quick_test/data-fmllr-tri3/train/data/feats_fmllr_train.2.ark:10491478
ftmg0_sx182 quick_test/data-fmllr-tri3/train/data/feats_fmllr_train.3.ark:15527117
ftlg0_sx33 quick_test/data-fmllr-tri3/train/data/feats_fmllr_train.3.ark:15299620
msat1_si2333 quick_test/data-fmllr-tri3/train/data/feats_fmllr_train.9.ark:12250319
msas0_sx296 quick_test/data-fmllr-tri3/train/data/feats_fmllr_train.9.ark:11770951
mmar0_si706 quick_test/data-fmllr-tri3/train/data/feats_fmllr_train.7.ark:14318122
mrre0_si952 quick_test/data-fmllr-tri3/train/data/feats_fmllr_train.9.ark:7553152
fpmy0_si1783 quick_test/data-fmllr-tri3/train/data/feats_fmllr_train.3.ark:3639272
mhjb0_si2277 quick_test/data-fmllr-tri3/train/data/feats_fmllr_train.6.ark:4382932
msds0_si1077 quick_test/data-fmllr-tri3/train/data/feats_fmllr_train.9.ark:13190916
mdsj0_sx22 quick_test/data-fmllr-tri3/train/data/feats_fmllr_train.5.ark:8394280
fbcg1_si982 quick_test/data-fmllr-tri3/train/data/feats_fmllr_train.1.ark:2526007
mchl0_sx267 quick_test/data-fmllr-tri3/train/data/feats_fmllr_train.4.ark:11182576
fklc1_sx418 quick_test/data-fmllr-tri3/train/data/feats_fmllr_train.2.ark:7981105
fksr0_si487 quick_test/data-fmllr-tri3/train/data/feats_fmllr_train.2.ark:8573431
fcjf0_si648 quick_test/data-fmllr-tri3/train/data/feats_fmllr_train.1.ark:6493137
fscn0_sx356 quick_test/data-fmllr-tri3/train/data/feats_fmllr_train.3.ark:7071836
fsdc0_sx232 quick_test/data-fmllr-tri3/train/data/feats_fmllr_train.3.ark:7404827
mkah0_sx178 quick_test/data-fmllr-tri3/train/data/feats_fmllr_train.7.ark:4554161
ftmg0_si1532 quick_test/data-fmllr-tri3/train/data/feats_fmllr_train.3.ark:15382715
mjxa0_sx427 quick_test/data-fmllr-tri3/train/data/feats_fmllr_train.7.ark:3526392
fmmh0_si2167 quick_test/data-fmllr-tri3/train/data/feats_fmllr_train.2.ark:17598397
mcae0_si2077 quick_test/data-fmllr-tri3/train/data/feats_fmllr_train.4.ark:8199057
freh0_sx145 quick_test/data-fmllr-tri3/train/data/feats_fmllr_train.3.ark:4171063
fklc0_sx85 quick_test/data-fmllr-tri3/train/data/feats_fmllr_train.2.ark:7666193
mdwm0_si1546 quick_test/data-fmllr-tri3/train/data/feats_fmllr_train.5.ark:10394195
mwsh0_sx346 quick_test/data-fmllr-tri3/train/data/feats_fmllr_train.10.ark:17437060
fkde0_sx61 quick_test/data-fmllr-tri3/train/data/feats_fmllr_train.2.ark:5995565
fklc1_si2308 quick_test/data-fmllr-tri3/train/data/feats_fmllr_train.2.ark:7812197
mkah0_si1528 quick_test/data-fmllr-tri3/train/data/feats_fmllr_train.7.ark:4423519
mrds0_sx177 quick_test/data-fmllr-tri3/train/data/feats_fmllr_train.8.ark:14927543
mbma0_sx142 quick_test/data-fmllr-tri3/train/data/feats_fmllr_train.4.ark:5677113
mprk0_sx17 quick_test/data-fmllr-tri3/train/data/feats_fmllr_train.8.ark:10070826
fmjf0_si1254 quick_test/data-fmllr-tri3/train/data/feats_fmllr_train.2.ark:15918782
mjeb0_sx386 quick_test/data-fmllr-tri3/train/data/feats_fmllr_train.6.ark:10380239
mbjv0_si617 quick_test/data-fmllr-tri3/train/data/feats_fmllr_train.4.ark:5279749
mtrr0_sx18 quick_test/data-fmllr-tri3/train/data/feats_fmllr_train.10.ark:10994620
flmc0_sx112 quick_test/data-fmllr-tri3/train/data/feats_fmllr_train.2.ark:12959527
mmjb1_sx148 quick_test/data-fmllr-tri3/train/data/feats_fmllr_train.8.ark:1178028
msds0_sx357 quick_test/data-fmllr-tri3/train/data/feats_fmllr_train.9.ark:13497133
mgak0_sx406 quick_test/data-fmllr-tri3/train/data/feats_fmllr_train.5.ark:17254582
mstf0_si1396 quick_test/data-fmllr-tri3/train/data/feats_fmllr_train.9.ark:17729943
mmjb1_si778 quick_test/data-fmllr-tri3/train/data/feats_fmllr_train.8.ark:1137201
fdmy0_sx387 quick_test/data-fmllr-tri3/train/data/feats_fmllr_train.1.ark:12079033
mlns0_si1407 quick_test/data-fmllr-tri3/train/data/feats_fmllr_train.7.ark:11832284
fkde0_si2221 quick_test/data-fmllr-tri3/train/data/feats_fmllr_train.2.ark:5768711
mjxa0_si1507 quick_test/data-fmllr-tri3/train/data/feats_fmllr_train.7.ark:3246709
feme0_sx335 quick_test/data-fmllr-tri3/train/data/feats_fmllr_train.1.ark:15255278
mkdb0_si588 quick_test/data-fmllr-tri3/train/data/feats_fmllr_train.7.ark:5604358
mjrg0_sx376 quick_test/data-fmllr-tri3/train/data/feats_fmllr_train.6.ark:17951461
frll0_sx164 quick_test/data-fmllr-tri3/train/data/feats_fmllr_train.3.ark:4874857
fdjh0_si1565 quick_test/data-fmllr-tri3/train/data/feats_fmllr_train.1.ark:10472272
mmgk0_sx242 quick_test/data-fmllr-tri3/train/data/feats_fmllr_train.8.ark:877358
mdlh0_sx430 quick_test/data-fmllr-tri3/train/data/feats_fmllr_train.5.ark:4228587
mmws0_sx348 quick_test/data-fmllr-tri3/train/data/feats_fmllr_train.8.ark:4159761
mtml0_si1065 quick_test/data-fmllr-tri3/train/data/feats_fmllr_train.10.ark:7235759
mjrk0_sx250 quick_test/data-fmllr-tri3/train/data/feats_fmllr_train.7.ark:947597
ftlg0_sx303 quick_test/data-fmllr-tri3/train/data/feats_fmllr_train.3.ark:15263434
fdkn0_sx451 quick_test/data-fmllr-tri3/train/data/feats_fmllr_train.1.ark:11158253
fjrb0_sx222 quick_test/data-fmllr-tri3/train/data/feats_fmllr_train.2.ark:2543028
fpaf0_sx64 quick_test/data-fmllr-tri3/train/data/feats_fmllr_train.3.ark:2379207
mrre0_sx344 quick_test/data-fmllr-tri3/train/data/feats_fmllr_train.9.ark:7734193
fcjs0_si977 quick_test/data-fmllr-tri3/train/data/feats_fmllr_train.1.ark:6753674
fvfb0_si1510 quick_test/data-fmllr-tri3/train/data/feats_fmllr_train.3.ark:15799280
mjxa0_sx247 quick_test/data-fmllr-tri3/train/data/feats_fmllr_train.7.ark:3426018
makr0_sx452 quick_test/data-fmllr-tri3/train/data/feats_fmllr_train.4.ark:2167824
mbjv0_sx347 quick_test/data-fmllr-tri3/train/data/feats_fmllr_train.4.ark:5408630
fcaj0_si849 quick_test/data-fmllr-tri3/train/data/feats_fmllr_train.1.ark:5292966
mbml0_si539 quick_test/data-fmllr-tri3/train/data/feats_fmllr_train.4.ark:6409840
mwdk0_si2017 quick_test/data-fmllr-tri3/train/data/feats_fmllr_train.10.ark:14931171
mkaj0_si784 quick_test/data-fmllr-tri3/train/data/feats_fmllr_train.7.ark:4909391
mrdd0_sx240 quick_test/data-fmllr-tri3/train/data/feats_fmllr_train.8.ark:14226816
mcdc0_sx212 quick_test/data-fmllr-tri3/train/data/feats_fmllr_train.4.ark:9161010
mpgh0_si1554 quick_test/data-fmllr-tri3/train/data/feats_fmllr_train.8.ark:6819919
mmws1_sx261 quick_test/data-fmllr-tri3/train/data/feats_fmllr_train.8.ark:4438965
mmdb0_si1358 quick_test/data-fmllr-tri3/train/data/feats_fmllr_train.7.ark:15480798
mtrr0_si1548 quick_test/data-fmllr-tri3/train/data/feats_fmllr_train.10.ark:10803792
mvrw0_sx135 quick_test/data-fmllr-tri3/train/data/feats_fmllr_train.10.ark:13226617
fljd0_si2146 quick_test/data-fmllr-tri3/train/data/feats_fmllr_train.2.ark:11279726
mdss1_si1327 quick_test/data-fmllr-tri3/train/data/feats_fmllr_train.5.ark:8901966
mter0_sx167 quick_test/data-fmllr-tri3/train/data/feats_fmllr_train.10.ark:3847169
mjlg1_sx112 quick_test/data-fmllr-tri3/train/data/feats_fmllr_train.6.ark:14454840
mjhi0_si555 quick_test/data-fmllr-tri3/train/data/feats_fmllr_train.6.ark:12024362
flkm0_sx350 quick_test/data-fmllr-tri3/train/data/feats_fmllr_train.2.ark:12303627
mlbc0_si1869 quick_test/data-fmllr-tri3/train/data/feats_fmllr_train.7.ark:10191764
mgag0_sx241 quick_test/data-fmllr-tri3/train/data/feats_fmllr_train.5.ark:16771430
mrws0_si1102 quick_test/data-fmllr-tri3/train/data/feats_fmllr_train.9.ark:10372857
mjmm0_sx85 quick_test/data-fmllr-tri3/train/data/feats_fmllr_train.6.ark:16072776
