mjjm0_sx197 quick_test/data-fmllr-tri3/train/data/feats_fmllr_train.6.ark:13415201
mmwb0_sx449 quick_test/data-fmllr-tri3/train/data/feats_fmllr_train.8.ark:3816372
mjfh0_sx297 quick_test/data-fmllr-tri3/train/data/feats_fmllr_train.6.ark:11449823
mdcd0_sx245 quick_test/data-fmllr-tri3/train/data/feats_fmllr_train.4.ark:16090514
fsdc0_sx412 quick_test/data-fmllr-tri3/train/data/feats_fmllr_train.3.ark:7493521
mdlc0_sx405 quick_test/data-fmllr-tri3/train/data/feats_fmllr_train.5.ark:3103456
fcjs0_sx437 quick_test/data-fmllr-tri3/train/data/feats_fmllr_train.1.ark:6950742
mter0_sx437 quick_test/data-fmllr-tri3/train/data/feats_fmllr_train.10.ark:3977809
majp0_sx84 quick_test/data-fmllr-tri3/train/data/feats_fmllr_train.4.ark:1439095
mbsb0_sx93 quick_test/data-fmllr-tri3/train/data/feats_fmllr_train.4.ark:7266248
mtjs0_sx112 quick_test/data-fmllr-tri3/train/data/feats_fmllr_train.10.ark:5058059
msat1_sx353 quick_test/data-fmllr-tri3/train/data/feats_fmllr_train.9.ark:12392160
fpab1_si1471 quick_test/data-fmllr-tri3/train/data/feats_fmllr_train.3.ark:741406
fsjw0_si1333 quick_test/data-fmllr-tri3/train/data/feats_fmllr_train.3.ark:9584260
mkdt0_sx353 quick_test/data-fmllr-tri3/train/data/feats_fmllr_train.7.ark:6578499
mjhi0_sx428 quick_test/data-fmllr-tri3/train/data/feats_fmllr_train.6.ark:12232657
fpaf0_sx244 quick_test/data-fmllr-tri3/train/data/feats_fmllr_train.3.ark:2235447
mtlc0_si847 quick_test/data-fmllr-tri3/train/data/feats_fmllr_train.10.ark:7032237
mtrr0_si2178 quick_test/data-fmllr-tri3/train/data/feats_fmllr_train.10.ark:10841260
fpac0_si661 quick_test/data-fmllr-tri3/train/data/feats_fmllr_train.3.ark:1302958
mkls1_sx15 quick_test/data-fmllr-tri3/train/data/feats_fmllr_train.7.ark:8822175
faem0_sx312 quick_test/data-fmllr-tri3/train/data/feats_fmllr_train.1.ark:244309
mtpg0_si753 quick_test/data-fmllr-tri3/train/data/feats_fmllr_train.10.ark:8900363
majp0_sx264 quick_test/data-fmllr-tri3/train/data/feats_fmllr_train.4.ark:1287655
mjls0_sx16 quick_test/data-fmllr-tri3/train/data/feats_fmllr_train.6.ark:14880843
mdns0_sx201 quick_test/data-fmllr-tri3/train/data/feats_fmllr_train.5.ark:6508076
mdwm0_sx286 quick_test/data-fmllr-tri3/train/data/feats_fmllr_train.5.ark:10623930
mjra0_sx156 quick_test/data-fmllr-tri3/train/data/feats_fmllr_train.6.ark:17365537
fltm0_sx440 quick_test/data-fmllr-tri3/train/data/feats_fmllr_train.2.ark:14239622
mjrk0_sx250 quick_test/data-fmllr-tri3/train/data/feats_fmllr_train.7.ark:947597
fpmy0_si1153 quick_test/data-fmllr-tri3/train/data/feats_fmllr_train.3.ark:3564844
mvlo0_si1777 quick_test/data-fmllr-tri3/train/data/feats_fmllr_train.10.ark:12749866
fmah1_sx429 quick_test/data-fmllr-tri3/train/data/feats_fmllr_train.2.ark:14618559
mmxs0_sx426 quick_test/data-fmllr-tri3/train/data/feats_fmllr_train.8.ark:4894781
msdb0_si1007 quick_test/data-fmllr-tri3/train/data/feats_fmllr_train.9.ark:12525841
mgxp0_si1087 quick_test/data-fmllr-tri3/train/data/feats_fmllr_train.6.ark:3146228
mrav0_sx378 quick_test/data-fmllr-tri3/train/data/feats_fmllr_train.8.ark:12811947
mkxl0_sx375 quick_test/data-fmllr-tri3/train/data/feats_fmllr_train.7.ark:10080348
fsls0_si2316 quick_test/data-fmllr-tri3/train/data/feats_fmllr_train.3.ark:11197984
fspm0_sx161 quick_test/data-fmllr-tri3/train/data/feats_fmllr_train.3.ark:12860799
mfer0_si2122 quick_test/data-fmllr-tri3/train/data/feats_fmllr_train.5.ark:14053828
fjsp0_sx174 quick_test/data-fmllr-tri3/train/data/feats_fmllr_train.2.ark:3787973
flma0_si613 quick_test/data-fmllr-tri3/train/data/feats_fmllr_train.2.ark:12567283
mdcd0_sx335 quick_test/data-fmllr-tri3/train/data/feats_fmllr_train.4.ark:16129741
mejs0_si610 quick_test/data-fmllr-tri3/train/data/feats_fmllr_train.5.ark:12703229
mmws0_sx348 quick_test/data-fmllr-tri3/train/data/feats_fmllr_train.8.ark:4159761
mdwm0_sx376 quick_test/data-fmllr-tri3/train/data/feats_fmllr_train.5.ark:10682037
mjlb0_sx176 quick_test/data-fmllr-tri3/train/data/feats_fmllr_train.6.ark:14090302
mclk0_si650 quick_test/data-fmllr-tri3/train/data/feats_fmllr_train.4.ark:11457939
mkjo0_sx257 quick_test/data-fmllr-tri3/train/data/feats_fmllr_train.7.ark:7322106
mdac0_sx181 quick_test/data-fmllr-tri3/train/data/feats_fmllr_train.4.ark:14526101
madd0_sx88 quick_test/data-fmllr-tri3/train/data/feats_fmllr_train.3.ark:17915567
mbwp0_sx439 quick_test/data-fmllr-tri3/train/data/feats_fmllr_train.4.ark:8001535
madd0_sx178 quick_test/data-fmllr-tri3/train/data/feats_fmllr_train.3.ark:17721860
mpgr1_si1499 quick_test/data-fmllr-tri3/train/data/feats_fmllr_train.8.ark:7533980
mdwh0_sx215 quick_test/data-fmllr-tri3/train/data/feats_fmllr_train.5.ark:10169127
mmdb0_sx177 quick_test/data-fmllr-tri3/train/data/feats_fmllr_train.7.ark:15631440
mefg0_sx375 quick_test/data-fmllr-tri3/train/data/feats_fmllr_train.5.ark:11770074
mtju0_si2020 quick_test/data-fmllr-tri3/train/data/feats_fmllr_train.10.ark:5304434
fmkf0_sx6 quick_test/data-fmllr-tri3/train/data/feats_fmllr_train.2.ark:17445195
mlsh0_sx67 quick_test/data-fmllr-tri3/train/data/feats_fmllr_train.7.ark:12533170
msjk0_sx246 quick_test/data-fmllr-tri3/train/data/feats_fmllr_train.9.ark:15623312
fkde0_si2221 quick_test/data-fmllr-tri3/train/data/feats_fmllr_train.2.ark:5768711
madc0_sx287 quick_test/data-fmllr-tri3/train/data/feats_fmllr_train.3.ark:17492123
mwrp0_si2073 quick_test/data-fmllr-tri3/train/data/feats_fmllr_train.10.ark:16526789
mesj0_si2039 quick_test/data-fmllr-tri3/train/data/feats_fmllr_train.5.ark:13357208
mrlk0_sx213 quick_test/data-fmllr-tri3/train/data/feats_fmllr_train.9.ark:4638827
fsjg0_sx310 quick_test/data-fmllr-tri3/train/data/feats_fmllr_train.3.ark:8630145
freh0_sx415 quick_test/data-fmllr-tri3/train/data/feats_fmllr_train.3.ark:4274664
mdsj0_sx382 quick_test/data-fmllr-tri3/train/data/feats_fmllr_train.5.ark:8486174
mwdk0_sx176 quick_test/data-fmllr-tri3/train/data/feats_fmllr_train.10.ark:15018585
mwch0_si1895 quick_test/data-fmllr-tri3/train/data/feats_fmllr_train.10.ark:14589353
mrre0_si704 quick_test/data-fmllr-tri3/train/data/feats_fmllr_train.9.ark:7499525
mljc0_sx415 quick_test/data-fmllr-tri3/train/data/feats_fmllr_train.7.ark:11238733
mchl0_sx267 quick_test/data-fmllr-tri3/train/data/feats_fmllr_train.4.ark:11182576
mvrw0_sx45 quick_test/data-fmllr-tri3/train/data/feats_fmllr_train.10.ark:13368804
flod0_sx171 quick_test/data-fmllr-tri3/train/data/feats_fmllr_train.2.ark:13766709
mprd0_sx81 quick_test/data-fmllr-tri3/train/data/feats_fmllr_train.8.ark:9775970
frll0_si805 quick_test/data-fmllr-tri3/train/data/feats_fmllr_train.3.ark:4743443
mjpm1_si1897 quick_test/data-fmllr-tri3/train/data/feats_fmllr_train.6.ark:16841558
fsbk0_si1069 quick_test/data-fmllr-tri3/train/data/feats_fmllr_train.3.ark:6333883
fjsk0_si1052 quick_test/data-fmllr-tri3/train/data/feats_fmllr_train.2.ark:3263193
mfxv0_sx375 quick_test/data-fmllr-tri3/train/data/feats_fmllr_train.5.ark:16183397
msat1_si2333 quick_test/data-fmllr-tri3/train/data/feats_fmllr_train.9.ark:12250319
mgar0_si1212 quick_test/data-fmllr-tri3/train/data/feats_fmllr_train.6.ark:13
fcmm0_si453 quick_test/data-fmllr-tri3/train/data/feats_fmllr_train.1.ark:8306383
fljg0_sx351 quick_test/data-fmllr-tri3/train/data/feats_fmllr_train.2.ark:11866291
mzmb0_sx356 quick_test/data-fmllr-tri3/train/data/feats_fmllr_train.10.ark:17845437
mdwd0_si557 quick_test/data-fmllr-tri3/train/data/feats_fmllr_train.5.ark:9706136
mtrc0_si589 quick_test/data-fmllr-tri3/train/data/feats_fmllr_train.10.ark:10508083
fbjl0_sx202 quick_test/data-fmllr-tri3/train/data/feats_fmllr_train.1.ark:3484094
mtrt0_sx147 quick_test/data-fmllr-tri3/train/data/feats_fmllr_train.10.ark:11359291
fsms1_sx64 quick_test/data-fmllr-tri3/train/data/feats_fmllr_train.3.ark:12653009
mcew0_sx92 quick_test/data-fmllr-tri3/train/data/feats_fmllr_train.4.ark:10922598
mrkm0_si1267 quick_test/data-fmllr-tri3/train/data/feats_fmllr_train.9.ark:2892731
mkxl0_sx195 quick_test/data-fmllr-tri3/train/data/feats_fmllr_train.7.ark:10010374
mjmm0_sx445 quick_test/data-fmllr-tri3/train/data/feats_fmllr_train.6.ark:16039310
mdlr1_sx39 quick_test/data-fmllr-tri3/train/data/feats_fmllr_train.5.ark:5378997
fbjl0_si2182 quick_test/data-fmllr-tri3/train/data/feats_fmllr_train.1.ark:3325293
makb0_si1016 quick_test/data-fmllr-tri3/train/data/feats_fmllr_train.4.ark:1498323
msem1_si1440 quick_test/data-fmllr-tri3/train/data/feats_fmllr_train.9.ark:13658974
majp0_sx354 quick_test/data-fmllr-tri3/train/data/feats_fmllr_train.4.ark:1339682
mmgk0_sx332 quick_test/data-fmllr-tri3/train/data/feats_fmllr_train.8.ark:912745
mjfr0_si2235 quick_test/data-fmllr-tri3/train/data/feats_fmllr_train.6.ark:11575986
mdps0_si1979 quick_test/data-fmllr-tri3/train/data/feats_fmllr_train.5.ark:7443846
msjk0_sx336 quick_test/data-fmllr-tri3/train/data/feats_fmllr_train.9.ark:15666219
fpad0_sx446 quick_test/data-fmllr-tri3/train/data/feats_fmllr_train.3.ark:1943923
fcyl0_sx127 quick_test/data-fmllr-tri3/train/data/feats_fmllr_train.1.ark:9102844
mmag0_sx226 quick_test/data-fmllr-tri3/train/data/feats_fmllr_train.7.ark:13649101
fpjf0_sx236 quick_test/data-fmllr-tri3/train/data/feats_fmllr_train.3.ark:3020201
falk0_si658 quick_test/data-fmllr-tri3/train/data/feats_fmllr_train.1.ark:905779
mjrk0_sx430 quick_test/data-fmllr-tri3/train/data/feats_fmllr_train.7.ark:1041411
mdem0_sx248 quick_test/data-fmllr-tri3/train/data/feats_fmllr_train.5.ark:590419
fljd0_si1516 quick_test/data-fmllr-tri3/train/data/feats_fmllr_train.2.ark:11200178
mjls0_sx376 quick_test/data-fmllr-tri3/train/data/feats_fmllr_train.6.ark:15009724
mrld0_si2224 quick_test/data-fmllr-tri3/train/data/feats_fmllr_train.9.ark:3436014
msvs0_sx398 quick_test/data-fmllr-tri3/train/data/feats_fmllr_train.10.ark:414282
mtju0_sx220 quick_test/data-fmllr-tri3/train/data/feats_fmllr_train.10.ark:5484543
megj0_sx77 quick_test/data-fmllr-tri3/train/data/feats_fmllr_train.5.ark:12207569
mrtc0_sx378 quick_test/data-fmllr-tri3/train/data/feats_fmllr_train.9.ark:9123538
mmam0_sx427 quick_test/data-fmllr-tri3/train/data/feats_fmllr_train.7.ark:14101533
msrr0_sx141 quick_test/data-fmllr-tri3/train/data/feats_fmllr_train.9.ark:17522129
maeb0_si2250 quick_test/data-fmllr-tri3/train/data/feats_fmllr_train.4.ark:65321
falk0_sx6 quick_test/data-fmllr-tri3/train/data/feats_fmllr_train.1.ark:1121405
flmk0_sx135 quick_test/data-fmllr-tri3/train/data/feats_fmllr_train.2.ark:13358145
mmlm0_sx87 quick_test/data-fmllr-tri3/train/data/feats_fmllr_train.8.ark:1725232
mapv0_si663 quick_test/data-fmllr-tri3/train/data/feats_fmllr_train.4.ark:2364733
fear0_sx172 quick_test/data-fmllr-tri3/train/data/feats_fmllr_train.1.ark:13866413
meal0_si1547 quick_test/data-fmllr-tri3/train/data/feats_fmllr_train.5.ark:10773932
fsmm0_sx54 quick_test/data-fmllr-tri3/train/data/feats_fmllr_train.3.ark:12256632
fdxw0_sx431 quick_test/data-fmllr-tri3/train/data/feats_fmllr_train.1.ark:13265740
fajw0_sx93 quick_test/data-fmllr-tri3/train/data/feats_fmllr_train.1.ark:764097
mmaa0_sx125 quick_test/data-fmllr-tri3/train/data/feats_fmllr_train.7.ark:12774080
msat1_sx173 quick_test/data-fmllr-tri3/train/data/feats_fmllr_train.9.ark:12292266
fsls0_sx246 quick_test/data-fmllr-tri3/train/data/feats_fmllr_train.3.ark:11347825
fcrz0_sx253 quick_test/data-fmllr-tri3/train/data/feats_fmllr_train.1.ark:8754174
mchl0_si1347 quick_test/data-fmllr-tri3/train/data/feats_fmllr_train.4.ark:10976546
mwsb0_si2256 quick_test/data-fmllr-tri3/train/data/feats_fmllr_train.10.ark:16839937
fdmy0_sx117 quick_test/data-fmllr-tri3/train/data/feats_fmllr_train.1.ark:11877326
ftlg0_si840 quick_test/data-fmllr-tri3/train/data/feats_fmllr_train.3.ark:15123033
mdwd0_sx450 quick_test/data-fmllr-tri3/train/data/feats_fmllr_train.5.ark:9848324
mrmg0_si1710 quick_test/data-fmllr-tri3/train/data/feats_fmllr_train.9.ark:5558757
mprk0_sx377 quick_test/data-fmllr-tri3/train/data/feats_fmllr_train.8.ark:10230107
msrr0_sx51 quick_test/data-fmllr-tri3/train/data/feats_fmllr_train.9.ark:17683835
mtat0_sx390 quick_test/data-fmllr-tri3/train/data/feats_fmllr_train.10.ark:1578773
fsms1_si1504 quick_test/data-fmllr-tri3/train/data/feats_fmllr_train.3.ark:12312180
fjen0_sx237 quick_test/data-fmllr-tri3/train/data/feats_fmllr_train.2.ark:628341
mkrg0_sx141 quick_test/data-fmllr-tri3/train/data/feats_fmllr_train.7.ark:9582104
mmag0_sx316 quick_test/data-fmllr-tri3/train/data/feats_fmllr_train.7.ark:13699048
mrjh0_sx169 quick_test/data-fmllr-tri3/train/data/feats_fmllr_train.9.ark:1422664
mfxv0_sx15 quick_test/data-fmllr-tri3/train/data/feats_fmllr_train.5.ark:16070836
mmws1_sx27 quick_test/data-fmllr-tri3/train/data/feats_fmllr_train.8.ark:4469231
mrav0_sx108 quick_test/data-fmllr-tri3/train/data/feats_fmllr_train.8.ark:12654080
madc0_sx197 quick_test/data-fmllr-tri3/train/data/feats_fmllr_train.3.ark:17451616
mmxs0_sx156 quick_test/data-fmllr-tri3/train/data/feats_fmllr_train.8.ark:4748940
msrg0_si1221 quick_test/data-fmllr-tri3/train/data/feats_fmllr_train.9.ark:16984710
mchl0_si1977 quick_test/data-fmllr-tri3/train/data/feats_fmllr_train.4.ark:11121722
mjai0_sx74 quick_test/data-fmllr-tri3/train/data/feats_fmllr_train.6.ark:7609118
fmah1_si1509 quick_test/data-fmllr-tri3/train/data/feats_fmllr_train.2.ark:14337436
mrvg0_sx330 quick_test/data-fmllr-tri3/train/data/feats_fmllr_train.9.ark:9858959
mkam0_sx56 quick_test/data-fmllr-tri3/train/data/feats_fmllr_train.7.ark:5507023
mejl0_si1654 quick_test/data-fmllr-tri3/train/data/feats_fmllr_train.5.ark:12299625
mrgm0_sx82 quick_test/data-fmllr-tri3/train/data/feats_fmllr_train.8.ark:17914130
fkdw0_sx217 quick_test/data-fmllr-tri3/train/data/feats_fmllr_train.2.ark:6284662
flja0_si1078 quick_test/data-fmllr-tri3/train/data/feats_fmllr_train.2.ark:10780920
mddc0_sx249 quick_test/data-fmllr-tri3/train/data/feats_fmllr_train.4.ark:16840388
fnkl0_sx196 quick_test/data-fmllr-tri3/train/data/feats_fmllr_train.3.ark:207642
mdhs0_si900 quick_test/data-fmllr-tri3/train/data/feats_fmllr_train.5.ark:1286959
flmc0_sx22 quick_test/data-fmllr-tri3/train/data/feats_fmllr_train.2.ark:13002593
mwar0_si2305 quick_test/data-fmllr-tri3/train/data/feats_fmllr_train.10.ark:14290443
fvmh0_sx116 quick_test/data-fmllr-tri3/train/data/feats_fmllr_train.3.ark:16672409
mbcg0_sx237 quick_test/data-fmllr-tri3/train/data/feats_fmllr_train.4.ark:4292592
mpmb0_si871 quick_test/data-fmllr-tri3/train/data/feats_fmllr_train.8.ark:8082705
mwac0_si971 quick_test/data-fmllr-tri3/train/data/feats_fmllr_train.10.ark:13532087
mmws0_sx258 quick_test/data-fmllr-tri3/train/data/feats_fmllr_train.8.ark:4110934
mmrp0_si2034 quick_test/data-fmllr-tri3/train/data/feats_fmllr_train.8.ark:2152358
msds0_sx177 quick_test/data-fmllr-tri3/train/data/feats_fmllr_train.9.ark:13396439
mrtj0_sx142 quick_test/data-fmllr-tri3/train/data/feats_fmllr_train.9.ark:9359648
msas0_si1376 quick_test/data-fmllr-tri3/train/data/feats_fmllr_train.9.ark:11413989
fpls0_sx150 quick_test/data-fmllr-tri3/train/data/feats_fmllr_train.3.ark:3361511
fdjh0_si2195 quick_test/data-fmllr-tri3/train/data/feats_fmllr_train.1.ark:10510860
mdhs0_si2160 quick_test/data-fmllr-tri3/train/data/feats_fmllr_train.5.ark:1248692
mdjm0_sx195 quick_test/data-fmllr-tri3/train/data/feats_fmllr_train.5.ark:1808696
mdcm0_sx400 quick_test/data-fmllr-tri3/train/data/feats_fmllr_train.4.ark:16606491
mrai0_sx162 quick_test/data-fmllr-tri3/train/data/feats_fmllr_train.8.ark:11888204
mrem0_sx421 quick_test/data-fmllr-tri3/train/data/feats_fmllr_train.8.ark:16257875
mtcs0_si1972 quick_test/data-fmllr-tri3/train/data/feats_fmllr_train.10.ark:2446435
mdss0_si1881 quick_test/data-fmllr-tri3/train/data/feats_fmllr_train.5.ark:8596309
mdks0_sx346 quick_test/data-fmllr-tri3/train/data/feats_fmllr_train.5.ark:2156915
mdhs0_sx450 quick_test/data-fmllr-tri3/train/data/feats_fmllr_train.5.ark:1474747
mmwb0_sx89 quick_test/data-fmllr-tri3/train/data/feats_fmllr_train.8.ark:3890158
makr0_sx272 quick_test/data-fmllr-tri3/train/data/feats_fmllr_train.4.ark:2098330
mjrh1_si1558 quick_test/data-fmllr-tri3/train/data/feats_fmllr_train.7.ark:385191
mrai0_si2052 quick_test/data-fmllr-tri3/train/data/feats_fmllr_train.8.ark:11738870
fsah0_sx327 quick_test/data-fmllr-tri3/train/data/feats_fmllr_train.3.ark:5760758
mmvp0_si1914 quick_test/data-fmllr-tri3/train/data/feats_fmllr_train.8.ark:3015059
mmlm0_si1527 quick_test/data-fmllr-tri3/train/data/feats_fmllr_train.8.ark:1439763
mvjh0_sx206 quick_test/data-fmllr-tri3/train/data/feats_fmllr_train.10.ark:12546210
fsjk1_sx35 quick_test/data-fmllr-tri3/train/data/feats_fmllr_train.3.ark:9086868
mrml0_sx71 quick_test/data-fmllr-tri3/train/data/feats_fmllr_train.9.ark:6692474
mmdb0_sx357 quick_test/data-fmllr-tri3/train/data/feats_fmllr_train.7.ark:15705254
fjxp0_si1122 quick_test/data-fmllr-tri3/train/data/feats_fmllr_train.2.ark:4841021
fbcg1_sx172 quick_test/data-fmllr-tri3/train/data/feats_fmllr_train.1.ark:2589554
mdlh0_si700 quick_test/data-fmllr-tri3/train/data/feats_fmllr_train.5.ark:3995999
mges0_sx41 quick_test/data-fmllr-tri3/train/data/feats_fmllr_train.6.ark:1024797
mejl0_si1592 quick_test/data-fmllr-tri3/train/data/feats_fmllr_train.5.ark:12259917
mpar0_sx406 quick_test/data-fmllr-tri3/train/data/feats_fmllr_train.8.ark:5989671
mrws0_si1102 quick_test/data-fmllr-tri3/train/data/feats_fmllr_train.9.ark:10372857
mtpf0_si1235 quick_test/data-fmllr-tri3/train/data/feats_fmllr_train.10.ark:8452411
fbas0_sx307 quick_test/data-fmllr-tri3/train/data/feats_fmllr_train.1.ark:2348271
mtat1_sx149 quick_test/data-fmllr-tri3/train/data/feats_fmllr_train.10.ark:1772163
mtrt0_sx417 quick_test/data-fmllr-tri3/train/data/feats_fmllr_train.10.ark:11464172
mtrr0_sx18 quick_test/data-fmllr-tri3/train/data/feats_fmllr_train.10.ark:10994620
mcef0_sx145 quick_test/data-fmllr-tri3/train/data/feats_fmllr_train.4.ark:10278434
mjrh0_sx405 quick_test/data-fmllr-tri3/train/data/feats_fmllr_train.7.ark:297137
mmbs0_si1151 quick_test/data-fmllr-tri3/train/data/feats_fmllr_train.7.ark:14666924
mdma0_si2060 quick_test/data-fmllr-tri3/train/data/feats_fmllr_train.5.ark:5557668
mtpp0_sx338 quick_test/data-fmllr-tri3/train/data/feats_fmllr_train.10.ark:9379701
fltm0_si2330 quick_test/data-fmllr-tri3/train/data/feats_fmllr_train.2.ark:14009274
fgdp0_si988 quick_test/data-fmllr-tri3/train/data/feats_fmllr_train.1.ark:16694626
mpmb0_sx151 quick_test/data-fmllr-tri3/train/data/feats_fmllr_train.8.ark:8180332
mdlc1_si2065 quick_test/data-fmllr-tri3/train/data/feats_fmllr_train.5.ark:3270578
mmbs0_si1781 quick_test/data-fmllr-tri3/train/data/feats_fmllr_train.7.ark:14703912
mcss0_si688 quick_test/data-fmllr-tri3/train/data/feats_fmllr_train.4.ark:12901019
mmwb0_sx269 quick_test/data-fmllr-tri3/train/data/feats_fmllr_train.8.ark:3694078
fear0_sx352 quick_test/data-fmllr-tri3/train/data/feats_fmllr_train.1.ark:13959267
mbma1_sx234 quick_test/data-fmllr-tri3/train/data/feats_fmllr_train.4.ark:6109037
mrdm0_sx425 quick_test/data-fmllr-tri3/train/data/feats_fmllr_train.8.ark:14725967
mdlc0_si1395 quick_test/data-fmllr-tri3/train/data/feats_fmllr_train.5.ark:2782173
fblv0_sx158 quick_test/data-fmllr-tri3/train/data/feats_fmllr_train.1.ark:3857085
fmjf0_sx84 quick_test/data-fmllr-tri3/train/data/feats_fmllr_train.2.ark:16265691
fhxs0_si1075 quick_test/data-fmllr-tri3/train/data/feats_fmllr_train.1.ark:18358801
makr0_sx182 quick_test/data-fmllr-tri3/train/data/feats_fmllr_train.4.ark:2070463
mvlo0_sx427 quick_test/data-fmllr-tri3/train/data/feats_fmllr_train.10.ark:12997521
fpac0_sx31 quick_test/data-fmllr-tri3/train/data/feats_fmllr_train.3.ark:1533145
fsdj0_sx395 quick_test/data-fmllr-tri3/train/data/feats_fmllr_train.3.ark:7872484
fjdm2_si1964 quick_test/data-fmllr-tri3/train/data/feats_fmllr_train.2.ark:42601
mjai0_si710 quick_test/data-fmllr-tri3/train/data/feats_fmllr_train.6.ark:7382104
mbbr0_sx425 quick_test/data-fmllr-tri3/train/data/feats_fmllr_train.4.ark:4048590
mreh1_si969 quick_test/data-fmllr-tri3/train/data/feats_fmllr_train.8.ark:15629231
msrg0_si1851 quick_test/data-fmllr-tri3/train/data/feats_fmllr_train.9.ark:17046818
flhd0_si1827 quick_test/data-fmllr-tri3/train/data/feats_fmllr_train.2.ark:10463130
mgsh0_si1806 quick_test/data-fmllr-tri3/train/data/feats_fmllr_train.6.ark:2380065
mreh1_sx429 quick_test/data-fmllr-tri3/train/data/feats_fmllr_train.8.ark:15860379
mrbc0_si599 quick_test/data-fmllr-tri3/train/data/feats_fmllr_train.8.ark:12936990
mjra0_sx426 quick_test/data-fmllr-tri3/train/data/feats_fmllr_train.6.ark:17516338
mklw0_sx311 quick_test/data-fmllr-tri3/train/data/feats_fmllr_train.7.ark:9216981
mdpk0_sx423 quick_test/data-fmllr-tri3/train/data/feats_fmllr_train.5.ark:7327764
mzmb0_sx446 quick_test/data-fmllr-tri3/train/data/feats_fmllr_train.10.ark:17896504
mgag0_si645 quick_test/data-fmllr-tri3/train/data/feats_fmllr_train.5.ark:16632949
mmaa0_sx35 quick_test/data-fmllr-tri3/train/data/feats_fmllr_train.7.ark:12914800
mbma1_si954 quick_test/data-fmllr-tri3/train/data/feats_fmllr_train.4.ark:5996823
flkm0_sx260 quick_test/data-fmllr-tri3/train/data/feats_fmllr_train.2.ark:12246640
mjxa0_sx427 quick_test/data-fmllr-tri3/train/data/feats_fmllr_train.7.ark:3526392
mrem0_si961 quick_test/data-fmllr-tri3/train/data/feats_fmllr_train.8.ark:16083687
mrlr0_sx386 quick_test/data-fmllr-tri3/train/data/feats_fmllr_train.9.ark:5112564
mrlr0_si1196 quick_test/data-fmllr-tri3/train/data/feats_fmllr_train.9.ark:4783575
mbef0_si651 quick_test/data-fmllr-tri3/train/data/feats_fmllr_train.4.ark:4562035
mrre0_si1334 quick_test/data-fmllr-tri3/train/data/feats_fmllr_train.9.ark:7416938
mmgc0_sx225 quick_test/data-fmllr-tri3/train/data/feats_fmllr_train.8.ark:195163
mmag0_si1126 quick_test/data-fmllr-tri3/train/data/feats_fmllr_train.7.ark:13412672
mmcc0_sx168 quick_test/data-fmllr-tri3/train/data/feats_fmllr_train.7.ark:15258263
mdlb0_sx316 quick_test/data-fmllr-tri3/train/data/feats_fmllr_train.5.ark:2620812
mrab0_si1224 quick_test/data-fmllr-tri3/train/data/feats_fmllr_train.8.ark:10934728
mdtb0_sx120 quick_test/data-fmllr-tri3/train/data/feats_fmllr_train.5.ark:9369465
fceg0_sx348 quick_test/data-fmllr-tri3/train/data/feats_fmllr_train.1.ark:6262121
fklc1_si1678 quick_test/data-fmllr-tri3/train/data/feats_fmllr_train.2.ark:7782569
mmpm0_si2321 quick_test/data-fmllr-tri3/train/data/feats_fmllr_train.8.ark:1849636
fdtd0_si1561 quick_test/data-fmllr-tri3/train/data/feats_fmllr_train.1.ark:12587759
mrmg0_sx360 quick_test/data-fmllr-tri3/train/data/feats_fmllr_train.9.ark:5747666
fsdc0_si2234 quick_test/data-fmllr-tri3/train/data/feats_fmllr_train.3.ark:7332773
mmar0_sx346 quick_test/data-fmllr-tri3/train/data/feats_fmllr_train.7.ark:14495963
mljc0_sx325 quick_test/data-fmllr-tri3/train/data/feats_fmllr_train.7.ark:11196786
flja0_sx268 quick_test/data-fmllr-tri3/train/data/feats_fmllr_train.2.ark:10991750
mppc0_sx62 quick_test/data-fmllr-tri3/train/data/feats_fmllr_train.8.ark:8882416
fkfb0_sx168 quick_test/data-fmllr-tri3/train/data/feats_fmllr_train.2.ark:6598132
mtrr0_si918 quick_test/data-fmllr-tri3/train/data/feats_fmllr_train.10.ark:10884327
fssb0_si1082 quick_test/data-fmllr-tri3/train/data/feats_fmllr_train.3.ark:13492191
mpsw0_sx24 quick_test/data-fmllr-tri3/train/data/feats_fmllr_train.8.ark:10784700
fpls0_sx330 quick_test/data-fmllr-tri3/train/data/feats_fmllr_train.3.ark:3466070
mmlm0_sx177 quick_test/data-fmllr-tri3/train/data/feats_fmllr_train.8.ark:1563045
mtjm0_sx56 quick_test/data-fmllr-tri3/train/data/feats_fmllr_train.10.ark:4806269
fexm0_sx366 quick_test/data-fmllr-tri3/train/data/feats_fmllr_train.1.ark:16135579
mprk0_si1097 quick_test/data-fmllr-tri3/train/data/feats_fmllr_train.8.ark:9816798
msfh0_si1216 quick_test/data-fmllr-tri3/train/data/feats_fmllr_train.9.ark:14503249
mjfh0_sx207 quick_test/data-fmllr-tri3/train/data/feats_fmllr_train.6.ark:11393930
mdwd0_si1260 quick_test/data-fmllr-tri3/train/data/feats_fmllr_train.5.ark:9577441
fkkh0_sx300 quick_test/data-fmllr-tri3/train/data/feats_fmllr_train.2.ark:7215549
mdlc2_sx174 quick_test/data-fmllr-tri3/train/data/feats_fmllr_train.5.ark:3683330
mfxs0_si2304 quick_test/data-fmllr-tri3/train/data/feats_fmllr_train.5.ark:15562565
fjkl0_si2192 quick_test/data-fmllr-tri3/train/data/feats_fmllr_train.2.ark:1267415
mjjb0_sx59 quick_test/data-fmllr-tri3/train/data/feats_fmllr_train.6.ark:12690181
fecd0_sx68 quick_test/data-fmllr-tri3/train/data/feats_fmllr_train.1.ark:14549297
msjk0_sx156 quick_test/data-fmllr-tri3/train/data/feats_fmllr_train.9.ark:15569685
fsdc0_si1312 quick_test/data-fmllr-tri3/train/data/feats_fmllr_train.3.ark:7225517
frjb0_sx167 quick_test/data-fmllr-tri3/train/data/feats_fmllr_train.3.ark:4446961
mwch0_sx362 quick_test/data-fmllr-tri3/train/data/feats_fmllr_train.10.ark:14722902
fsjw0_sx433 quick_test/data-fmllr-tri3/train/data/feats_fmllr_train.3.ark:9891623
fsjk1_si1025 quick_test/data-fmllr-tri3/train/data/feats_fmllr_train.3.ark:8826386
mdtb0_si570 quick_test/data-fmllr-tri3/train/data/feats_fmllr_train.5.ark:9315038
fsdc0_si1942 quick_test/data-fmllr-tri3/train/data/feats_fmllr_train.3.ark:7291145
mdhs0_sx90 quick_test/data-fmllr-tri3/train/data/feats_fmllr_train.5.ark:1524053
mdrd0_sx302 quick_test/data-fmllr-tri3/train/data/feats_fmllr_train.5.ark:8054091
mwch0_si1622 quick_test/data-fmllr-tri3/train/data/feats_fmllr_train.10.ark:14541165
fmkc0_sx262 quick_test/data-fmllr-tri3/train/data/feats_fmllr_train.2.ark:16927646
mesj0_sx367 quick_test/data-fmllr-tri3/train/data/feats_fmllr_train.5.ark:13586624
mrjt0_sx238 quick_test/data-fmllr-tri3/train/data/feats_fmllr_train.9.ark:2674063
fpls0_si2220 quick_test/data-fmllr-tri3/train/data/feats_fmllr_train.3.ark:3242097
fjxp0_sx312 quick_test/data-fmllr-tri3/train/data/feats_fmllr_train.2.ark:5058277
fsah0_sx434 quick_test/data-fmllr-tri3/train/data/feats_fmllr_train.3.ark:5872972
mtlc0_sx127 quick_test/data-fmllr-tri3/train/data/feats_fmllr_train.10.ark:7074184
fgmb0_sx425 quick_test/data-fmllr-tri3/train/data/feats_fmllr_train.1.ark:17426311
fetb0_sx248 quick_test/data-fmllr-tri3/train/data/feats_fmllr_train.1.ark:15604908
mkln0_sx338 quick_test/data-fmllr-tri3/train/data/feats_fmllr_train.7.ark:7713390
ftaj0_sx339 quick_test/data-fmllr-tri3/train/data/feats_fmllr_train.3.ark:14106144
flag0_sx114 quick_test/data-fmllr-tri3/train/data/feats_fmllr_train.2.ark:9410372
mjeb1_sx297 quick_test/data-fmllr-tri3/train/data/feats_fmllr_train.6.ark:10738669
fpad0_si716 quick_test/data-fmllr-tri3/train/data/feats_fmllr_train.3.ark:1700135
mgrp0_si1317 quick_test/data-fmllr-tri3/train/data/feats_fmllr_train.6.ark:1876140
mkls1_sx375 quick_test/data-fmllr-tri3/train/data/feats_fmllr_train.7.ark:8939376
mmdm1_sx153 quick_test/data-fmllr-tri3/train/data/feats_fmllr_train.7.ark:16727451
mtlc0_sx37 quick_test/data-fmllr-tri3/train/data/feats_fmllr_train.10.ark:7155704
mprk0_sx197 quick_test/data-fmllr-tri3/train/data/feats_fmllr_train.8.ark:10123013
feeh0_sx32 quick_test/data-fmllr-tri3/train/data/feats_fmllr_train.1.ark:14896847
fsbk0_si2329 quick_test/data-fmllr-tri3/train/data/feats_fmllr_train.3.ark:6421299
mtju0_si2269 quick_test/data-fmllr-tri3/train/data/feats_fmllr_train.10.ark:5370862
mprb0_si575 quick_test/data-fmllr-tri3/train/data/feats_fmllr_train.8.ark:9048419
mwgr0_sx76 quick_test/data-fmllr-tri3/train/data/feats_fmllr_train.10.ark:15982327
fjdm2_sx322 quick_test/data-fmllr-tri3/train/data/feats_fmllr_train.2.ark:271670
mjkr0_sx301 quick_test/data-fmllr-tri3/train/data/feats_fmllr_train.6.ark:13819899
mrlj1_sx411 quick_test/data-fmllr-tri3/train/data/feats_fmllr_train.9.ark:4317704
fmju0_sx39 quick_test/data-fmllr-tri3/train/data/feats_fmllr_train.2.ark:16644121
msfh0_sx316 quick_test/data-fmllr-tri3/train/data/feats_fmllr_train.9.ark:14820025
mdmt0_si1832 quick_test/data-fmllr-tri3/train/data/feats_fmllr_train.5.ark:5929030
mfer0_sx412 quick_test/data-fmllr-tri3/train/data/feats_fmllr_train.5.ark:14270283
mhxl0_sx242 quick_test/data-fmllr-tri3/train/data/feats_fmllr_train.6.ark:5907853
mdac0_sx361 quick_test/data-fmllr-tri3/train/data/feats_fmllr_train.4.ark:14627755
fkkh0_si660 quick_test/data-fmllr-tri3/train/data/feats_fmllr_train.2.ark:7043602
mtat1_si779 quick_test/data-fmllr-tri3/train/data/feats_fmllr_train.10.ark:1701256
mjxl0_sx182 quick_test/data-fmllr-tri3/train/data/feats_fmllr_train.7.ark:3759968
mtml0_sx435 quick_test/data-fmllr-tri3/train/data/feats_fmllr_train.10.ark:7534963
mbom0_sx384 quick_test/data-fmllr-tri3/train/data/feats_fmllr_train.4.ark:6980273
fjlr0_sx241 quick_test/data-fmllr-tri3/train/data/feats_fmllr_train.2.ark:2187931
mlbc0_sx159 quick_test/data-fmllr-tri3/train/data/feats_fmllr_train.7.ark:10286858
mwar0_sx415 quick_test/data-fmllr-tri3/train/data/feats_fmllr_train.10.ark:14449911
flmk0_sx45 quick_test/data-fmllr-tri3/train/data/feats_fmllr_train.2.ark:13539852
milb0_sx363 quick_test/data-fmllr-tri3/train/data/feats_fmllr_train.6.ark:6395801
mpgh0_sx204 quick_test/data-fmllr-tri3/train/data/feats_fmllr_train.8.ark:7021947
fjxp0_sx42 quick_test/data-fmllr-tri3/train/data/feats_fmllr_train.2.ark:5162330
fjrb0_sx42 quick_test/data-fmllr-tri3/train/data/feats_fmllr_train.2.ark:2727588
mjmm0_si1255 quick_test/data-fmllr-tri3/train/data/feats_fmllr_train.6.ark:15752747
fsjk1_si696 quick_test/data-fmllr-tri3/train/data/feats_fmllr_train.3.ark:8907561
fsak0_sx130 quick_test/data-fmllr-tri3/train/data/feats_fmllr_train.3.ark:6105268
mrcw0_sx291 quick_test/data-fmllr-tri3/train/data/feats_fmllr_train.8.ark:13972891
fjrp1_sx82 quick_test/data-fmllr-tri3/train/data/feats_fmllr_train.2.ark:3207805
fclt0_sx268 quick_test/data-fmllr-tri3/train/data/feats_fmllr_train.1.ark:7593042
mjpm1_si761 quick_test/data-fmllr-tri3/train/data/feats_fmllr_train.6.ark:16894253
mtdb0_sx51 quick_test/data-fmllr-tri3/train/data/feats_fmllr_train.10.ark:3177561
mcae0_sx187 quick_test/data-fmllr-tri3/train/data/feats_fmllr_train.4.ark:8351751
fsag0_si1953 quick_test/data-fmllr-tri3/train/data/feats_fmllr_train.3.ark:5146700
fjwb1_si2055 quick_test/data-fmllr-tri3/train/data/feats_fmllr_train.2.ark:4039308
mdss1_sx427 quick_test/data-fmllr-tri3/train/data/feats_fmllr_train.5.ark:9169329
mmds0_si1973 quick_test/data-fmllr-tri3/train/data/feats_fmllr_train.7.ark:17077214
fspm0_sx431 quick_test/data-fmllr-tri3/train/data/feats_fmllr_train.3.ark:13040880
fapb0_sx253 quick_test/data-fmllr-tri3/train/data/feats_fmllr_train.1.ark:1818106
mram0_sx375 quick_test/data-fmllr-tri3/train/data/feats_fmllr_train.8.ark:12461969
mree0_sx384 quick_test/data-fmllr-tri3/train/data/feats_fmllr_train.8.ark:15484188
fskc0_sx66 quick_test/data-fmllr-tri3/train/data/feats_fmllr_train.3.ark:10309146
mlel0_sx256 quick_test/data-fmllr-tri3/train/data/feats_fmllr_train.7.ark:10730782
fsmm0_sx144 quick_test/data-fmllr-tri3/train/data/feats_fmllr_train.3.ark:12030125
mpgr0_sx60 quick_test/data-fmllr-tri3/train/data/feats_fmllr_train.8.ark:7457284
fclt0_sx358 quick_test/data-fmllr-tri3/train/data/feats_fmllr_train.1.ark:7644109
fkde0_si1141 quick_test/data-fmllr-tri3/train/data/feats_fmllr_train.2.ark:5621455
fskl0_sx359 quick_test/data-fmllr-tri3/train/data/feats_fmllr_train.3.ark:10586110
mprt0_si580 quick_test/data-fmllr-tri3/train/data/feats_fmllr_train.8.ark:10375149
mtpg0_sx213 quick_test/data-fmllr-tri3/train/data/feats_fmllr_train.10.ark:9004097
fpab1_si841 quick_test/data-fmllr-tri3/train/data/feats_fmllr_train.3.ark:872501
mtju0_sx130 quick_test/data-fmllr-tri3/train/data/feats_fmllr_train.10.ark:5445156
mkdt0_si893 quick_test/data-fmllr-tri3/train/data/feats_fmllr_train.7.ark:6433458
mbth0_si2102 quick_test/data-fmllr-tri3/train/data/feats_fmllr_train.4.ark:7293476
mrav0_sx198 quick_test/data-fmllr-tri3/train/data/feats_fmllr_train.8.ark:12731093
mkdb0_sx62 quick_test/data-fmllr-tri3/train/data/feats_fmllr_train.7.ark:5896359
mdsj0_sx438 quick_test/data-fmllr-tri3/train/data/feats_fmllr_train.5.ark:8528441
mrjt0_sx418 quick_test/data-fmllr-tri3/train/data/feats_fmllr_train.9.ark:2775237
mrsp0_sx169 quick_test/data-fmllr-tri3/train/data/feats_fmllr_train.9.ark:8523374
fcaj0_si1479 quick_test/data-fmllr-tri3/train/data/feats_fmllr_train.1.ark:5242831
mpgh0_si675 quick_test/data-fmllr-tri3/train/data/feats_fmllr_train.8.ark:6881706
flja0_sx178 quick_test/data-fmllr-tri3/train/data/feats_fmllr_train.2.ark:10927403
fmjf0_sx444 quick_test/data-fmllr-tri3/train/data/feats_fmllr_train.2.ark:16216065
frjb0_sx257 quick_test/data-fmllr-tri3/train/data/feats_fmllr_train.3.ark:4504588
mcxm0_si1351 quick_test/data-fmllr-tri3/train/data/feats_fmllr_train.4.ark:13986762
mtpf0_sx425 quick_test/data-fmllr-tri3/train/data/feats_fmllr_train.10.ark:8751774
mdlh0_sx70 quick_test/data-fmllr-tri3/train/data/feats_fmllr_train.5.ark:4293093
fdas1_si1461 quick_test/data-fmllr-tri3/train/data/feats_fmllr_train.1.ark:9329219
mtmn0_si2324 quick_test/data-fmllr-tri3/train/data/feats_fmllr_train.10.ark:7707685
mmgk0_si692 quick_test/data-fmllr-tri3/train/data/feats_fmllr_train.8.ark:812984
fpab1_sx391 quick_test/data-fmllr-tri3/train/data/feats_fmllr_train.3.ark:1150875
mlbc0_sx69 quick_test/data-fmllr-tri3/train/data/feats_fmllr_train.7.ark:10455285
mtpp0_si1508 quick_test/data-fmllr-tri3/train/data/feats_fmllr_train.10.ark:9160205
mewm0_sx178 quick_test/data-fmllr-tri3/train/data/feats_fmllr_train.5.ark:13798785
mnet0_si2076 quick_test/data-fmllr-tri3/train/data/feats_fmllr_train.8.ark:5047983
msdb0_sx287 quick_test/data-fmllr-tri3/train/data/feats_fmllr_train.9.ark:12732564
mkes0_sx83 quick_test/data-fmllr-tri3/train/data/feats_fmllr_train.7.ark:7105329
mjjm0_sx17 quick_test/data-fmllr-tri3/train/data/feats_fmllr_train.6.ark:13383014
mwgr0_sx256 quick_test/data-fmllr-tri3/train/data/feats_fmllr_train.10.ark:15854887
mbth0_sx122 quick_test/data-fmllr-tri3/train/data/feats_fmllr_train.4.ark:7455477
mjwt0_si1291 quick_test/data-fmllr-tri3/train/data/feats_fmllr_train.7.ark:2817532
mesj0_sx187 quick_test/data-fmllr-tri3/train/data/feats_fmllr_train.5.ark:13525130
mdpb0_sx146 quick_test/data-fmllr-tri3/train/data/feats_fmllr_train.5.ark:6857066
fbmh0_sx56 quick_test/data-fmllr-tri3/train/data/feats_fmllr_train.1.ark:4416289
mjlg1_si2272 quick_test/data-fmllr-tri3/train/data/feats_fmllr_train.6.ark:14390973
fsbk0_sx259 quick_test/data-fmllr-tri3/train/data/feats_fmllr_train.3.ark:6505673
fexm0_sx381 quick_test/data-fmllr-tri3/train/data/feats_fmllr_train.1.ark:16206646
mbma0_si1852 quick_test/data-fmllr-tri3/train/data/feats_fmllr_train.4.ark:5627139
mrdd0_si1680 quick_test/data-fmllr-tri3/train/data/feats_fmllr_train.8.ark:14108974
mrpc1_si2112 quick_test/data-fmllr-tri3/train/data/feats_fmllr_train.9.ark:7170696
mdhl0_sx269 quick_test/data-fmllr-tri3/train/data/feats_fmllr_train.5.ark:1017356
mesg0_sx432 quick_test/data-fmllr-tri3/train/data/feats_fmllr_train.5.ark:13267074
mdlc1_si2144 quick_test/data-fmllr-tri3/train/data/feats_fmllr_train.5.ark:3334126
fexm0_si482 quick_test/data-fmllr-tri3/train/data/feats_fmllr_train.1.ark:15900911
mdwd0_sx360 quick_test/data-fmllr-tri3/train/data/feats_fmllr_train.5.ark:9805737
mwsb0_sx276 quick_test/data-fmllr-tri3/train/data/feats_fmllr_train.10.ark:16977778
mjjb0_si1139 quick_test/data-fmllr-tri3/train/data/feats_fmllr_train.6.ark:12331111
maeo0_sx66 quick_test/data-fmllr-tri3/train/data/feats_fmllr_train.4.ark:710980
mjdm0_sx260 quick_test/data-fmllr-tri3/train/data/feats_fmllr_train.6.ark:9827782
mmgg0_sx89 quick_test/data-fmllr-tri3/train/data/feats_fmllr_train.8.ark:702021
mtdb0_si771 quick_test/data-fmllr-tri3/train/data/feats_fmllr_train.10.ark:2927027
mgjc0_sx75 quick_test/data-fmllr-tri3/train/data/feats_fmllr_train.6.ark:1459095
fleh0_si1051 quick_test/data-fmllr-tri3/train/data/feats_fmllr_train.2.ark:9664267
mgrp0_si687 quick_test/data-fmllr-tri3/train/data/feats_fmllr_train.6.ark:1984515
mmab1_sx324 quick_test/data-fmllr-tri3/train/data/feats_fmllr_train.7.ark:13236271
fsls0_sx202 quick_test/data-fmllr-tri3/train/data/feats_fmllr_train.3.ark:11316758
fdnc0_sx18 quick_test/data-fmllr-tri3/train/data/feats_fmllr_train.1.ark:12379810
fjen0_sx417 quick_test/data-fmllr-tri3/train/data/feats_fmllr_train.2.ark:747115
mmlm0_sx357 quick_test/data-fmllr-tri3/train/data/feats_fmllr_train.8.ark:1643419
fmjb0_si1807 quick_test/data-fmllr-tri3/train/data/feats_fmllr_train.2.ark:15598755
mprb0_sx125 quick_test/data-fmllr-tri3/train/data/feats_fmllr_train.8.ark:9127006
fdjh0_si1565 quick_test/data-fmllr-tri3/train/data/feats_fmllr_train.1.ark:10472272
mtpr0_sx70 quick_test/data-fmllr-tri3/train/data/feats_fmllr_train.10.ark:9926851
fpmy0_sx253 quick_test/data-fmllr-tri3/train/data/feats_fmllr_train.3.ark:3859700
msmr0_si775 quick_test/data-fmllr-tri3/train/data/feats_fmllr_train.9.ark:16346251
mjeb0_sx296 quick_test/data-fmllr-tri3/train/data/feats_fmllr_train.6.ark:10338772
mrcg0_sx258 quick_test/data-fmllr-tri3/train/data/feats_fmllr_train.8.ark:13449261
fsgf0_si2187 quick_test/data-fmllr-tri3/train/data/feats_fmllr_train.3.ark:7959420
mkls0_sx357 quick_test/data-fmllr-tri3/train/data/feats_fmllr_train.7.ark:8477826
fpjf0_sx352 quick_test/data-fmllr-tri3/train/data/feats_fmllr_train.3.ark:3095135
mmds0_sx443 quick_test/data-fmllr-tri3/train/data/feats_fmllr_train.7.ark:17249669
mwre0_sx157 quick_test/data-fmllr-tri3/train/data/feats_fmllr_train.10.ark:16165478
fcyl0_si1297 quick_test/data-fmllr-tri3/train/data/feats_fmllr_train.1.ark:8926122
mmea0_sx308 quick_test/data-fmllr-tri3/train/data/feats_fmllr_train.7.ark:17530179
mchl0_sx447 quick_test/data-fmllr-tri3/train/data/feats_fmllr_train.4.ark:11289670
mbef0_si1911 quick_test/data-fmllr-tri3/train/data/feats_fmllr_train.4.ark:4524728
mhrm0_sx148 quick_test/data-fmllr-tri3/train/data/feats_fmllr_train.6.ark:5479290
fkfb0_sx348 quick_test/data-fmllr-tri3/train/data/feats_fmllr_train.2.ark:6690026
fbas0_sx37 quick_test/data-fmllr-tri3/train/data/feats_fmllr_train.1.ark:2373097
mdss0_sx81 quick_test/data-fmllr-tri3/train/data/feats_fmllr_train.5.ark:8869138
maeo0_sx336 quick_test/data-fmllr-tri3/train/data/feats_fmllr_train.4.ark:593327
fdaw0_sx326 quick_test/data-fmllr-tri3/train/data/feats_fmllr_train.1.ark:10006853
ftbr0_sx291 quick_test/data-fmllr-tri3/train/data/feats_fmllr_train.3.ark:14511987
mlns0_si2037 quick_test/data-fmllr-tri3/train/data/feats_fmllr_train.7.ark:11867992
fmbg0_sx80 quick_test/data-fmllr-tri3/train/data/feats_fmllr_train.2.ark:15057521
mwdk0_si1436 quick_test/data-fmllr-tri3/train/data/feats_fmllr_train.10.ark:14865863
mkrg0_si1491 quick_test/data-fmllr-tri3/train/data/feats_fmllr_train.7.ark:9393382
mjsr0_si794 quick_test/data-fmllr-tri3/train/data/feats_fmllr_train.7.ark:1606217
mjrg0_sx352 quick_test/data-fmllr-tri3/train/data/feats_fmllr_train.6.ark:17882154
mbbr0_sx65 quick_test/data-fmllr-tri3/train/data/feats_fmllr_train.4.ark:4078856
mbwp0_sx259 quick_test/data-fmllr-tri3/train/data/feats_fmllr_train.4.ark:7873961
mmxs0_sx336 quick_test/data-fmllr-tri3/train/data/feats_fmllr_train.8.ark:4831234
mrtc0_si1458 quick_test/data-fmllr-tri3/train/data/feats_fmllr_train.9.ark:8751509
flja0_si2338 quick_test/data-fmllr-tri3/train/data/feats_fmllr_train.2.ark:10900336
flac0_si1339 quick_test/data-fmllr-tri3/train/data/feats_fmllr_train.2.ark:8862233
mtml0_si1065 quick_test/data-fmllr-tri3/train/data/feats_fmllr_train.10.ark:7235759
mhmr0_si489 quick_test/data-fmllr-tri3/train/data/feats_fmllr_train.6.ark:5070566
mjdm0_si1340 quick_test/data-fmllr-tri3/train/data/feats_fmllr_train.6.ark:9616153
flma0_sx433 quick_test/data-fmllr-tri3/train/data/feats_fmllr_train.2.ark:12730271
fbcg1_sx262 quick_test/data-fmllr-tri3/train/data/feats_fmllr_train.1.ark:2640621
mcdd0_si883 quick_test/data-fmllr-tri3/train/data/feats_fmllr_train.4.ark:9425173
mhrm0_sx328 quick_test/data-fmllr-tri3/train/data/feats_fmllr_train.6.ark:5560464
mvrw0_si2115 quick_test/data-fmllr-tri3/train/data/feats_fmllr_train.10.ark:13157123
mtrc0_sx170 quick_test/data-fmllr-tri3/train/data/feats_fmllr_train.10.ark:10604777
mjws0_sx63 quick_test/data-fmllr-tri3/train/data/feats_fmllr_train.7.ark:2774944
fjlg0_si1506 quick_test/data-fmllr-tri3/train/data/feats_fmllr_train.2.ark:1614004
mbjv0_sx77 quick_test/data-fmllr-tri3/train/data/feats_fmllr_train.4.ark:5512523
mwem0_si1950 quick_test/data-fmllr-tri3/train/data/feats_fmllr_train.10.ark:15337496
mrso0_si2289 quick_test/data-fmllr-tri3/train/data/feats_fmllr_train.9.ark:8022970
mcdc0_sx212 quick_test/data-fmllr-tri3/train/data/feats_fmllr_train.4.ark:9161010
mdpb0_sx236 quick_test/data-fmllr-tri3/train/data/feats_fmllr_train.5.ark:6899813
fbcg1_si1612 quick_test/data-fmllr-tri3/train/data/feats_fmllr_train.1.ark:2469312
mdns0_sx111 quick_test/data-fmllr-tri3/train/data/feats_fmllr_train.5.ark:6466449
mtdp0_sx81 quick_test/data-fmllr-tri3/train/data/feats_fmllr_train.10.ark:3638259
mwgr0_si1606 quick_test/data-fmllr-tri3/train/data/feats_fmllr_train.10.ark:15655898
fjxp0_si492 quick_test/data-fmllr-tri3/train/data/feats_fmllr_train.2.ark:4951316
fpmy0_sx196 quick_test/data-fmllr-tri3/train/data/feats_fmllr_train.3.ark:3824633
msem1_si810 quick_test/data-fmllr-tri3/train/data/feats_fmllr_train.9.ark:13798069
mrlr0_sx206 quick_test/data-fmllr-tri3/train/data/feats_fmllr_train.9.ark:4982404
fsrh0_sx131 quick_test/data-fmllr-tri3/train/data/feats_fmllr_train.3.ark:13225016
mjae0_sx264 quick_test/data-fmllr-tri3/train/data/feats_fmllr_train.6.ark:7044822
mges0_si1481 quick_test/data-fmllr-tri3/train/data/feats_fmllr_train.6.ark:751328
fcjf0_sx397 quick_test/data-fmllr-tri3/train/data/feats_fmllr_train.1.ark:6661431
mfer0_si1492 quick_test/data-fmllr-tri3/train/data/feats_fmllr_train.5.ark:14027720
mcdd0_sx343 quick_test/data-fmllr-tri3/train/data/feats_fmllr_train.4.ark:9550694
mmcc0_sx348 quick_test/data-fmllr-tri3/train/data/feats_fmllr_train.7.ark:15329677
fscn0_si1886 quick_test/data-fmllr-tri3/train/data/feats_fmllr_train.3.ark:6762261
mkln0_sx248 quick_test/data-fmllr-tri3/train/data/feats_fmllr_train.7.ark:7677363
mkdd0_sx307 quick_test/data-fmllr-tri3/train/data/feats_fmllr_train.7.ark:6202923
flma0_sx73 quick_test/data-fmllr-tri3/train/data/feats_fmllr_train.2.ark:12782777
msrg0_sx231 quick_test/data-fmllr-tri3/train/data/feats_fmllr_train.9.ark:17180979
mjeb1_si2097 quick_test/data-fmllr-tri3/train/data/feats_fmllr_train.6.ark:10492135
mdss1_si1327 quick_test/data-fmllr-tri3/train/data/feats_fmllr_train.5.ark:8901966
ftbr0_sx201 quick_test/data-fmllr-tri3/train/data/feats_fmllr_train.3.ark:14429854
fjrb0_sx312 quick_test/data-fmllr-tri3/train/data/feats_fmllr_train.2.ark:2591535
mtdp0_si1274 quick_test/data-fmllr-tri3/train/data/feats_fmllr_train.10.ark:3218869
mdlb0_si1306 quick_test/data-fmllr-tri3/train/data/feats_fmllr_train.5.ark:2319556
mbml0_sx359 quick_test/data-fmllr-tri3/train/data/feats_fmllr_train.4.ark:6532961
mjws0_si513 quick_test/data-fmllr-tri3/train/data/feats_fmllr_train.7.ark:2487290
mdks0_sx436 quick_test/data-fmllr-tri3/train/data/feats_fmllr_train.5.ark:2222542
mcdc0_sx302 quick_test/data-fmllr-tri3/train/data/feats_fmllr_train.4.ark:9213517
fksr0_sx161 quick_test/data-fmllr-tri3/train/data/feats_fmllr_train.2.ark:8615218
mrmh0_sx211 quick_test/data-fmllr-tri3/train/data/feats_fmllr_train.9.ark:6105617
mhxl0_sx332 quick_test/data-fmllr-tri3/train/data/feats_fmllr_train.6.ark:5956360
mljh0_si694 quick_test/data-fmllr-tri3/train/data/feats_fmllr_train.7.ark:11485562
mkag0_sx30 quick_test/data-fmllr-tri3/train/data/feats_fmllr_train.7.ark:4287758
mefg0_si491 quick_test/data-fmllr-tri3/train/data/feats_fmllr_train.5.ark:11461913
mpar0_si946 quick_test/data-fmllr-tri3/train/data/feats_fmllr_train.8.ark:5822843
fsjk1_sx395 quick_test/data-fmllr-tri3/train/data/feats_fmllr_train.3.ark:9124015
flmk0_sx405 quick_test/data-fmllr-tri3/train/data/feats_fmllr_train.2.ark:13496786
fbas0_sx127 quick_test/data-fmllr-tri3/train/data/feats_fmllr_train.1.ark:2279417
feme0_sx425 quick_test/data-fmllr-tri3/train/data/feats_fmllr_train.1.ark:15331625
mpmb0_sx421 quick_test/data-fmllr-tri3/train/data/feats_fmllr_train.8.ark:8371133
fpac0_sx391 quick_test/data-fmllr-tri3/train/data/feats_fmllr_train.3.ark:1566772
fmjb0_si547 quick_test/data-fmllr-tri3/train/data/feats_fmllr_train.2.ark:15659262
fpmy0_si1783 quick_test/data-fmllr-tri3/train/data/feats_fmllr_train.3.ark:3639272
mkdb0_si872 quick_test/data-fmllr-tri3/train/data/feats_fmllr_train.7.ark:5640865
mtmt0_sx218 quick_test/data-fmllr-tri3/train/data/feats_fmllr_train.10.ark:8265103
mrbc0_sx419 quick_test/data-fmllr-tri3/train/data/feats_fmllr_train.8.ark:13145738
mbsb0_sx3 quick_test/data-fmllr-tri3/train/data/feats_fmllr_train.4.ark:7209235
mtcs0_sx172 quick_test/data-fmllr-tri3/train/data/feats_fmllr_train.10.ark:2582837
fkde0_sx421 quick_test/data-fmllr-tri3/train/data/feats_fmllr_train.2.ark:5950259
mrem0_si511 quick_test/data-fmllr-tri3/train/data/feats_fmllr_train.8.ark:16013900
mbgt0_sx441 quick_test/data-fmllr-tri3/train/data/feats_fmllr_train.4.ark:5111160
mhit0_sx353 quick_test/data-fmllr-tri3/train/data/feats_fmllr_train.6.ark:4163915
mhrm0_sx58 quick_test/data-fmllr-tri3/train/data/feats_fmllr_train.6.ark:5670117
fsrh0_si1931 quick_test/data-fmllr-tri3/train/data/feats_fmllr_train.3.ark:13143522
mdlr0_sx333 quick_test/data-fmllr-tri3/train/data/feats_fmllr_train.5.ark:4893634
mrlk0_sx393 quick_test/data-fmllr-tri3/train/data/feats_fmllr_train.9.ark:4740027
fcag0_sx243 quick_test/data-fmllr-tri3/train/data/feats_fmllr_train.1.ark:5040003
mmbs0_sx431 quick_test/data-fmllr-tri3/train/data/feats_fmllr_train.7.ark:14995727
mtmt0_si1118 quick_test/data-fmllr-tri3/train/data/feats_fmllr_train.10.ark:8068354
mgsh0_sx186 quick_test/data-fmllr-tri3/train/data/feats_fmllr_train.6.ark:2530706
meal0_sx107 quick_test/data-fmllr-tri3/train/data/feats_fmllr_train.5.ark:10884574
mrjb1_sx120 quick_test/data-fmllr-tri3/train/data/feats_fmllr_train.9.ark:999088
milb0_si2163 quick_test/data-fmllr-tri3/train/data/feats_fmllr_train.6.ark:6120761
mwac0_sx161 quick_test/data-fmllr-tri3/train/data/feats_fmllr_train.10.ark:13575474
flet0_sx277 quick_test/data-fmllr-tri3/train/data/feats_fmllr_train.2.ark:10296301
maeb0_si1411 quick_test/data-fmllr-tri3/train/data/feats_fmllr_train.4.ark:13
mges0_sx131 quick_test/data-fmllr-tri3/train/data/feats_fmllr_train.6.ark:850610
flet0_sx417 quick_test/data-fmllr-tri3/train/data/feats_fmllr_train.2.ark:10331208
fsms1_sx244 quick_test/data-fmllr-tri3/train/data/feats_fmllr_train.3.ark:12499009
fbch0_sx416 quick_test/data-fmllr-tri3/train/data/feats_fmllr_train.1.ark:3167291
ftmg0_sx452 quick_test/data-fmllr-tri3/train/data/feats_fmllr_train.3.ark:15658718
mprb0_sx215 quick_test/data-fmllr-tri3/train/data/feats_fmllr_train.8.ark:9170873
mjlg1_sx292 quick_test/data-fmllr-tri3/train/data/feats_fmllr_train.6.ark:14561320
mmar0_sx166 quick_test/data-fmllr-tri3/train/data/feats_fmllr_train.7.ark:14354149
mjmm0_sx355 quick_test/data-fmllr-tri3/train/data/feats_fmllr_train.6.ark:16002003
mmpm0_si1061 quick_test/data-fmllr-tri3/train/data/feats_fmllr_train.8.ark:1762380
mzmb0_sx86 quick_test/data-fmllr-tri3/train/data/feats_fmllr_train.10.ark:17940210
mrdd0_si2310 quick_test/data-fmllr-tri3/train/data/feats_fmllr_train.8.ark:14155082
fcjf0_sx217 quick_test/data-fmllr-tri3/train/data/feats_fmllr_train.1.ark:6575111
fvmh0_si836 quick_test/data-fmllr-tri3/train/data/feats_fmllr_train.3.ark:16603902
mabc0_sx421 quick_test/data-fmllr-tri3/train/data/feats_fmllr_train.3.ark:17098787
mntw0_sx348 quick_test/data-fmllr-tri3/train/data/feats_fmllr_train.8.ark:5640334
mdlc1_sx175 quick_test/data-fmllr-tri3/train/data/feats_fmllr_train.5.ark:3358153
mjkr0_sx391 quick_test/data-fmllr-tri3/train/data/feats_fmllr_train.6.ark:13911472
mrfl0_sx436 quick_test/data-fmllr-tri3/train/data/feats_fmllr_train.8.ark:17399327
mkaj0_sx424 quick_test/data-fmllr-tri3/train/data/feats_fmllr_train.7.ark:5067259
mwem0_si1320 quick_test/data-fmllr-tri3/train/data/feats_fmllr_train.10.ark:15248000
mcdd0_sx163 quick_test/data-fmllr-tri3/train/data/feats_fmllr_train.4.ark:9474800
mkxl0_sx285 quick_test/data-fmllr-tri3/train/data/feats_fmllr_train.7.ark:10042081
fsag0_si1323 quick_test/data-fmllr-tri3/train/data/feats_fmllr_train.3.ark:5081712
mbwp0_si1531 quick_test/data-fmllr-tri3/train/data/feats_fmllr_train.4.ark:7708092
mdhl0_si809 quick_test/data-fmllr-tri3/train/data/feats_fmllr_train.5.ark:919702
fecd0_si2048 quick_test/data-fmllr-tri3/train/data/feats_fmllr_train.1.ark:14225136
fjwb1_sx75 quick_test/data-fmllr-tri3/train/data/feats_fmllr_train.2.ark:4365896
mrml0_sx251 quick_test/data-fmllr-tri3/train/data/feats_fmllr_train.9.ark:6504874
mlbc0_si1869 quick_test/data-fmllr-tri3/train/data/feats_fmllr_train.7.ark:10191764
mdps0_si1651 quick_test/data-fmllr-tri3/train/data/feats_fmllr_train.5.ark:7415338
mcal0_sx328 quick_test/data-fmllr-tri3/train/data/feats_fmllr_train.4.ark:8808980
mbef0_sx21 quick_test/data-fmllr-tri3/train/data/feats_fmllr_train.4.ark:4694275
mjda0_si1661 quick_test/data-fmllr-tri3/train/data/feats_fmllr_train.6.ark:8058992
mwem0_sx60 quick_test/data-fmllr-tri3/train/data/feats_fmllr_train.10.ark:15600350
mrpc1_sx402 quick_test/data-fmllr-tri3/train/data/feats_fmllr_train.9.ark:7345684
mrgs0_sx276 quick_test/data-fmllr-tri3/train/data/feats_fmllr_train.9.ark:214522
fhlm0_sx390 quick_test/data-fmllr-tri3/train/data/feats_fmllr_train.1.ark:18308053
fjsk0_si2312 quick_test/data-fmllr-tri3/train/data/feats_fmllr_train.2.ark:3379249
mtpp0_sx248 quick_test/data-fmllr-tri3/train/data/feats_fmllr_train.10.ark:9338874
mjfr0_sx255 quick_test/data-fmllr-tri3/train/data/feats_fmllr_train.6.ark:11723427
mjee0_si1867 quick_test/data-fmllr-tri3/train/data/feats_fmllr_train.6.ark:10886272
mdas0_sx276 quick_test/data-fmllr-tri3/train/data/feats_fmllr_train.4.ark:14999011
mprd0_sx441 quick_test/data-fmllr-tri3/train/data/feats_fmllr_train.8.ark:9730504
mrdd0_si1050 quick_test/data-fmllr-tri3/train/data/feats_fmllr_train.8.ark:14046066
feac0_si1875 quick_test/data-fmllr-tri3/train/data/feats_fmllr_train.1.ark:13380702
mwad0_sx72 quick_test/data-fmllr-tri3/train/data/feats_fmllr_train.10.ark:14148119
mrdm0_sx335 quick_test/data-fmllr-tri3/train/data/feats_fmllr_train.8.ark:14653940
fpaz0_sx423 quick_test/data-fmllr-tri3/train/data/feats_fmllr_train.3.ark:2729317
mcss0_sx210 quick_test/data-fmllr-tri3/train/data/feats_fmllr_train.4.ark:13079340
mgaw0_si535 quick_test/data-fmllr-tri3/train/data/feats_fmllr_train.6.ark:516126
mclk0_si2290 quick_test/data-fmllr-tri3/train/data/feats_fmllr_train.4.ark:11392312
ftaj0_sx429 quick_test/data-fmllr-tri3/train/data/feats_fmllr_train.3.ark:14137851
mdef0_sx303 quick_test/data-fmllr-tri3/train/data/feats_fmllr_train.5.ark:244310
medr0_si1374 quick_test/data-fmllr-tri3/train/data/feats_fmllr_train.5.ark:11081030
fsdj0_sx215 quick_test/data-fmllr-tri3/train/data/feats_fmllr_train.3.ark:7755444
mkjo0_si2147 quick_test/data-fmllr-tri3/train/data/feats_fmllr_train.7.ark:7196425
fsms1_sx154 quick_test/data-fmllr-tri3/train/data/feats_fmllr_train.3.ark:12457062
mmaa0_sx305 quick_test/data-fmllr-tri3/train/data/feats_fmllr_train.7.ark:12869814
mrms0_si2100 quick_test/data-fmllr-tri3/train/data/feats_fmllr_train.9.ark:6872078
mlel0_si616 quick_test/data-fmllr-tri3/train/data/feats_fmllr_train.7.ark:10587368
mjlg1_sx22 quick_test/data-fmllr-tri3/train/data/feats_fmllr_train.6.ark:14527213
mtjm0_sx146 quick_test/data-fmllr-tri3/train/data/feats_fmllr_train.10.ark:4647602
mkam0_si1465 quick_test/data-fmllr-tri3/train/data/feats_fmllr_train.7.ark:5256169
mrjm1_sx308 quick_test/data-fmllr-tri3/train/data/feats_fmllr_train.9.ark:2338993
mjee0_sx247 quick_test/data-fmllr-tri3/train/data/feats_fmllr_train.6.ark:11003153
fcjf0_si648 quick_test/data-fmllr-tri3/train/data/feats_fmllr_train.1.ark:6493137
mwar0_si1045 quick_test/data-fmllr-tri3/train/data/feats_fmllr_train.10.ark:14170707
milb0_sx273 quick_test/data-fmllr-tri3/train/data/feats_fmllr_train.6.ark:6330789
mdac0_sx91 quick_test/data-fmllr-tri3/train/data/feats_fmllr_train.4.ark:14729568
mwre0_si1057 quick_test/data-fmllr-tri3/train/data/feats_fmllr_train.10.ark:16027155
fpaf0_si2314 quick_test/data-fmllr-tri3/train/data/feats_fmllr_train.3.ark:2162273
mwsb0_sx6 quick_test/data-fmllr-tri3/train/data/feats_fmllr_train.10.ark:17062790
fvfb0_si2292 quick_test/data-fmllr-tri3/train/data/feats_fmllr_train.3.ark:15863628
mrhl0_sx435 quick_test/data-fmllr-tri3/train/data/feats_fmllr_train.9.ark:692871
fgrw0_si1990 quick_test/data-fmllr-tri3/train/data/feats_fmllr_train.1.ark:17649781
mfwk0_si1879 quick_test/data-fmllr-tri3/train/data/feats_fmllr_train.5.ark:15163120
mdef0_si1123 quick_test/data-fmllr-tri3/train/data/feats_fmllr_train.5.ark:13
fbmj0_sx156 quick_test/data-fmllr-tri3/train/data/feats_fmllr_train.1.ark:4630318
mtkd0_si1817 quick_test/data-fmllr-tri3/train/data/feats_fmllr_train.10.ark:5712199
mmeb0_sx97 quick_test/data-fmllr-tri3/train/data/feats_fmllr_train.7.ark:17961967
mgaw0_sx175 quick_test/data-fmllr-tri3/train/data/feats_fmllr_train.6.ark:549753
falk0_sx96 quick_test/data-fmllr-tri3/train/data/feats_fmllr_train.1.ark:1160151
mwch0_sx272 quick_test/data-fmllr-tri3/train/data/feats_fmllr_train.10.ark:14687035
mbml0_sx449 quick_test/data-fmllr-tri3/train/data/feats_fmllr_train.4.ark:6588828
fcyl0_sx217 quick_test/data-fmllr-tri3/train/data/feats_fmllr_train.1.ark:9135511
fcrz0_sx343 quick_test/data-fmllr-tri3/train/data/feats_fmllr_train.1.ark:8786841
mjkr0_si571 quick_test/data-fmllr-tri3/train/data/feats_fmllr_train.6.ark:13664778
fajw0_sx3 quick_test/data-fmllr-tri3/train/data/feats_fmllr_train.1.ark:683084
mjac0_sx307 quick_test/data-fmllr-tri3/train/data/feats_fmllr_train.6.ark:6683164
mjae0_sx354 quick_test/data-fmllr-tri3/train/data/feats_fmllr_train.6.ark:7090449
mrew1_sx60 quick_test/data-fmllr-tri3/train/data/feats_fmllr_train.8.ark:16658758
fltm0_sx170 quick_test/data-fmllr-tri3/train/data/feats_fmllr_train.2.ark:14040661
fecd0_sx248 quick_test/data-fmllr-tri3/train/data/feats_fmllr_train.1.ark:14389537
mcxm0_sx91 quick_test/data-fmllr-tri3/train/data/feats_fmllr_train.4.ark:14324551
mwsh0_sx256 quick_test/data-fmllr-tri3/train/data/feats_fmllr_train.10.ark:17387113
mmgg0_si1079 quick_test/data-fmllr-tri3/train/data/feats_fmllr_train.8.ark:354791
mdbb1_sx16 quick_test/data-fmllr-tri3/train/data/feats_fmllr_train.4.ark:15305119
fsjg0_sx40 quick_test/data-fmllr-tri3/train/data/feats_fmllr_train.3.ark:8690971
mrds0_sx87 quick_test/data-fmllr-tri3/train/data/feats_fmllr_train.8.ark:15095490
mrws0_sx22 quick_test/data-fmllr-tri3/train/data/feats_fmllr_train.9.ark:10577472
mrjh0_sx79 quick_test/data-fmllr-tri3/train/data/feats_fmllr_train.9.ark:1642131
mdlh0_sx160 quick_test/data-fmllr-tri3/train/data/feats_fmllr_train.5.ark:4055866
mgsl0_si1164 quick_test/data-fmllr-tri3/train/data/feats_fmllr_train.6.ark:2726812
fscn0_sx446 quick_test/data-fmllr-tri3/train/data/feats_fmllr_train.3.ark:7122743
mvrw0_si855 quick_test/data-fmllr-tri3/train/data/feats_fmllr_train.10.ark:13176350
madc0_sx107 quick_test/data-fmllr-tri3/train/data/feats_fmllr_train.3.ark:17374923
mmlm0_sx447 quick_test/data-fmllr-tri3/train/data/feats_fmllr_train.8.ark:1690966
mwar0_sx145 quick_test/data-fmllr-tri3/train/data/feats_fmllr_train.10.ark:14327110
mmgk0_sx422 quick_test/data-fmllr-tri3/train/data/feats_fmllr_train.8.ark:950692
msat0_sx446 quick_test/data-fmllr-tri3/train/data/feats_fmllr_train.9.ark:12079969
fdtd0_sx211 quick_test/data-fmllr-tri3/train/data/feats_fmllr_train.1.ark:12787068
fcmm0_sx183 quick_test/data-fmllr-tri3/train/data/feats_fmllr_train.1.ark:8344010
mmea0_si2018 quick_test/data-fmllr-tri3/train/data/feats_fmllr_train.7.ark:17380951
mjwg0_sx175 quick_test/data-fmllr-tri3/train/data/feats_fmllr_train.7.ark:2162780
fscn0_sx266 quick_test/data-fmllr-tri3/train/data/feats_fmllr_train.3.ark:7018209
mjrh0_sx315 quick_test/data-fmllr-tri3/train/data/feats_fmllr_train.7.ark:249910
feme0_si2135 quick_test/data-fmllr-tri3/train/data/feats_fmllr_train.1.ark:15042850
mpfu0_sx268 quick_test/data-fmllr-tri3/train/data/feats_fmllr_train.8.ark:6613731
mtjs0_sx382 quick_test/data-fmllr-tri3/train/data/feats_fmllr_train.10.ark:5239766
fjrb0_si1302 quick_test/data-fmllr-tri3/train/data/feats_fmllr_train.2.ark:2383719
mgag0_sx151 quick_test/data-fmllr-tri3/train/data/feats_fmllr_train.5.ark:16727403
msah1_si2309 quick_test/data-fmllr-tri3/train/data/feats_fmllr_train.9.ark:11162627
fjxm0_sx131 quick_test/data-fmllr-tri3/train/data/feats_fmllr_train.2.ark:4539286
mrlj1_si2332 quick_test/data-fmllr-tri3/train/data/feats_fmllr_train.9.ark:4172956
mrld0_sx424 quick_test/data-fmllr-tri3/train/data/feats_fmllr_train.9.ark:3638229
mjsr0_sx254 quick_test/data-fmllr-tri3/train/data/feats_fmllr_train.7.ark:1744191
fsjw0_sx343 quick_test/data-fmllr-tri3/train/data/feats_fmllr_train.3.ark:9834796
mjkr0_si1831 quick_test/data-fmllr-tri3/train/data/feats_fmllr_train.6.ark:13615791
fpad0_si1346 quick_test/data-fmllr-tri3/train/data/feats_fmllr_train.3.ark:1604880
mapv0_sx213 quick_test/data-fmllr-tri3/train/data/feats_fmllr_train.4.ark:2495827
fsls0_si1056 quick_test/data-fmllr-tri3/train/data/feats_fmllr_train.3.ark:11094088
mmeb0_sx187 quick_test/data-fmllr-tri3/train/data/feats_fmllr_train.7.ark:17784422
mpgh0_si924 quick_test/data-fmllr-tri3/train/data/feats_fmllr_train.8.ark:6947173
fdtd0_sx321 quick_test/data-fmllr-tri3/train/data/feats_fmllr_train.1.ark:12894642
mjwg0_si813 quick_test/data-fmllr-tri3/train/data/feats_fmllr_train.7.ark:1990566
fsls0_sx156 quick_test/data-fmllr-tri3/train/data/feats_fmllr_train.3.ark:11261211
mdlh0_si574 quick_test/data-fmllr-tri3/train/data/feats_fmllr_train.5.ark:3964132
fmpg0_sx342 quick_test/data-fmllr-tri3/train/data/feats_fmllr_train.2.ark:18230720
mkdd0_sx127 quick_test/data-fmllr-tri3/train/data/feats_fmllr_train.7.ark:6143989
mrvg0_si510 quick_test/data-fmllr-tri3/train/data/feats_fmllr_train.9.ark:9743358
mjjm0_si1457 quick_test/data-fmllr-tri3/train/data/feats_fmllr_train.6.ark:13239894
fgdp0_sx268 quick_test/data-fmllr-tri3/train/data/feats_fmllr_train.1.ark:16821240
fajw0_sx363 quick_test/data-fmllr-tri3/train/data/feats_fmllr_train.1.ark:710471
mdlh0_sx340 quick_test/data-fmllr-tri3/train/data/feats_fmllr_train.5.ark:4176880
mrkm0_sx277 quick_test/data-fmllr-tri3/train/data/feats_fmllr_train.9.ark:3168200
fear0_sx442 quick_test/data-fmllr-tri3/train/data/feats_fmllr_train.1.ark:14037374
fskl0_sx179 quick_test/data-fmllr-tri3/train/data/feats_fmllr_train.3.ark:10502216
maeb0_sx450 quick_test/data-fmllr-tri3/train/data/feats_fmllr_train.4.ark:288656
mtmt0_sx128 quick_test/data-fmllr-tri3/train/data/feats_fmllr_train.10.ark:8227956
fjxm0_si1971 quick_test/data-fmllr-tri3/train/data/feats_fmllr_train.2.ark:4451712
mddc0_si2049 quick_test/data-fmllr-tri3/train/data/feats_fmllr_train.4.ark:16715667
fnkl0_si1522 quick_test/data-fmllr-tri3/train/data/feats_fmllr_train.3.ark:13
fdxw0_si881 quick_test/data-fmllr-tri3/train/data/feats_fmllr_train.1.ark:13063392
mjac0_sx341 quick_test/data-fmllr-tri3/train/data/feats_fmllr_train.6.ark:6715191
fsjk1_sx305 quick_test/data-fmllr-tri3/train/data/feats_fmllr_train.3.ark:9047482
mtbc0_si1803 quick_test/data-fmllr-tri3/train/data/feats_fmllr_train.10.ark:2089446
frjb0_sx77 quick_test/data-fmllr-tri3/train/data/feats_fmllr_train.3.ark:4658108
mcre0_sx401 quick_test/data-fmllr-tri3/train/data/feats_fmllr_train.4.ark:12729098
mdwm0_si2176 quick_test/data-fmllr-tri3/train/data/feats_fmllr_train.5.ark:10437103
mjhi0_si555 quick_test/data-fmllr-tri3/train/data/feats_fmllr_train.6.ark:12024362
fskc0_si2046 quick_test/data-fmllr-tri3/train/data/feats_fmllr_train.3.ark:10040025
fsdj0_sx125 quick_test/data-fmllr-tri3/train/data/feats_fmllr_train.3.ark:7722297
fsdj0_sx305 quick_test/data-fmllr-tri3/train/data/feats_fmllr_train.3.ark:7800271
fsgf0_si927 quick_test/data-fmllr-tri3/train/data/feats_fmllr_train.3.ark:8023607
mmws1_sx351 quick_test/data-fmllr-tri3/train/data/feats_fmllr_train.8.ark:4495658
mjdm0_sx440 quick_test/data-fmllr-tri3/train/data/feats_fmllr_train.6.ark:9943036
mhbs0_sx45 quick_test/data-fmllr-tri3/train/data/feats_fmllr_train.6.ark:3876071
fbmj0_sx66 quick_test/data-fmllr-tri3/train/data/feats_fmllr_train.1.ark:4850745
maeb0_sx360 quick_test/data-fmllr-tri3/train/data/feats_fmllr_train.4.ark:242549
mrjh0_sx259 quick_test/data-fmllr-tri3/train/data/feats_fmllr_train.9.ark:1496451
mbar0_sx59 quick_test/data-fmllr-tri3/train/data/feats_fmllr_train.4.ark:3722158
mtas0_sx215 quick_test/data-fmllr-tri3/train/data/feats_fmllr_train.10.ark:1088876
msrr0_sx30 quick_test/data-fmllr-tri3/train/data/feats_fmllr_train.9.ark:17604582
mmjb1_sx58 quick_test/data-fmllr-tri3/train/data/feats_fmllr_train.8.ark:1380855
mkdt0_sx83 quick_test/data-fmllr-tri3/train/data/feats_fmllr_train.7.ark:6684152
fsak0_si670 quick_test/data-fmllr-tri3/train/data/feats_fmllr_train.3.ark:6057721
mrld0_sx244 quick_test/data-fmllr-tri3/train/data/feats_fmllr_train.9.ark:3565215
mjpm1_sx131 quick_test/data-fmllr-tri3/train/data/feats_fmllr_train.6.ark:16957160
mcew0_sx362 quick_test/data-fmllr-tri3/train/data/feats_fmllr_train.4.ark:10784625
mmdb0_si1358 quick_test/data-fmllr-tri3/train/data/feats_fmllr_train.7.ark:15480798
fmem0_sx333 quick_test/data-fmllr-tri3/train/data/feats_fmllr_train.2.ark:15384272
mmgk0_sx62 quick_test/data-fmllr-tri3/train/data/feats_fmllr_train.8.ark:998238
mgjc0_sx435 quick_test/data-fmllr-tri3/train/data/feats_fmllr_train.6.ark:1387229
