mnet0_si1446 quick_test/mfcc/raw_mfcc_train.3.ark:3444683
mpgr1_sx239 quick_test/mfcc/raw_mfcc_train.3.ark:3673494
mdwd0_sx450 quick_test/mfcc/raw_mfcc_train.2.ark:3046338
mdef0_si1123 quick_test/mfcc/raw_mfcc_train.2.ark:2218366
fdkn0_si1711 quick_test/mfcc/raw_mfcc_train.1.ark:921362
mtat1_sx419 quick_test/mfcc/raw_mfcc_train.4.ark:2464111
fskp0_si1728 quick_test/mfcc/raw_mfcc_train.2.ark:151674
fsbk0_si2329 quick_test/mfcc/raw_mfcc_train.1.ark:3666767
mmeb0_sx187 quick_test/mfcc/raw_mfcc_train.3.ark:3006887
fdxw0_si1511 quick_test/mfcc/raw_mfcc_train.1.ark:1092649
ftmg0_sx182 quick_test/mfcc/raw_mfcc_train.2.ark:548573
fdfb0_sx418 quick_test/mfcc/raw_mfcc_train.1.ark:871979
fmjb0_sx187 quick_test/mfcc/raw_mfcc_train.1.ark:2900536
msat1_si1073 quick_test/mfcc/raw_mfcc_train.4.ark:1795980
mprk0_sx17 quick_test/mfcc/raw_mfcc_train.4.ark:111657
mdlr1_si669 quick_test/mfcc/raw_mfcc_train.2.ark:2651399
fsjs0_sx271 quick_test/mfcc/raw_mfcc_train.2.ark:32452
mwar0_sx235 quick_test/mfcc/raw_mfcc_train.4.ark:3505885
mtbc0_si543 quick_test/mfcc/raw_mfcc_train.4.ark:2478193
fnkl0_si1522 quick_test/mfcc/raw_mfcc_train.1.ark:3127498
mljh0_si694 quick_test/mfcc/raw_mfcc_train.3.ark:2477699
msdh0_si2113 quick_test/mfcc/raw_mfcc_train.4.ark:1850605
fjrb0_sx312 quick_test/mfcc/raw_mfcc_train.1.ark:1798888
fjrb0_sx222 quick_test/mfcc/raw_mfcc_train.1.ark:1794812
mgaf0_si1282 quick_test/mfcc/raw_mfcc_train.2.ark:3583777
mdma0_sx350 quick_test/mfcc/raw_mfcc_train.2.ark:2700748
mbom0_sx294 quick_test/mfcc/raw_mfcc_train.2.ark:1333189
fklh0_si1257 quick_test/mfcc/raw_mfcc_train.1.ark:2260931
mdlh0_sx70 quick_test/mfcc/raw_mfcc_train.2.ark:2578917
msfh0_si586 quick_test/mfcc/raw_mfcc_train.4.ark:2005238
megj0_sx3 quick_test/mfcc/raw_mfcc_train.2.ark:3237094
mkjo0_sx77 quick_test/mfcc/raw_mfcc_train.3.ark:2139025
mgrp0_sx57 quick_test/mfcc/raw_mfcc_train.3.ark:189564
fvmh0_sx26 quick_test/mfcc/raw_mfcc_train.2.ark:651601
fjlr0_sx61 quick_test/mfcc/raw_mfcc_train.1.ark:1776640
mbml0_si1169 quick_test/mfcc/raw_mfcc_train.2.ark:1286893
mjrp0_si585 quick_test/mfcc/raw_mfcc_train.3.ark:1614629
mbjv0_si1247 quick_test/mfcc/raw_mfcc_train.2.ark:1191523
mzmb0_sx446 quick_test/mfcc/raw_mfcc_train.4.ark:3802331
flmk0_si1035 quick_test/mfcc/raw_mfcc_train.1.ark:2689634
mrem0_si961 quick_test/mfcc/raw_mfcc_train.4.ark:617205
mrtc0_si2088 quick_test/mfcc/raw_mfcc_train.4.ark:1515831
mbwp0_sx439 quick_test/mfcc/raw_mfcc_train.2.ark:1427654
mrjh0_sx79 quick_test/mfcc/raw_mfcc_train.4.ark:912430
mtpf0_si605 quick_test/mfcc/raw_mfcc_train.4.ark:3015824
mcxm0_si1981 quick_test/mfcc/raw_mfcc_train.2.ark:1934151
mjpm1_sx221 quick_test/mfcc/raw_mfcc_train.3.ark:1428660
fjkl0_si1562 quick_test/mfcc/raw_mfcc_train.1.ark:1685801
mkaj0_sx154 quick_test/mfcc/raw_mfcc_train.3.ark:1928694
mdlc2_si984 quick_test/mfcc/raw_mfcc_train.2.ark:2522589
mtqc0_sx271 quick_test/mfcc/raw_mfcc_train.4.ark:3157337
mhjb0_sx297 quick_test/mfcc/raw_mfcc_train.3.ark:381384
flhd0_sx174 quick_test/mfcc/raw_mfcc_train.1.ark:2465969
mkag0_sx30 quick_test/mfcc/raw_mfcc_train.3.ark:1872772
mkam0_sx416 quick_test/mfcc/raw_mfcc_train.3.ark:1971894
mjfr0_sx165 quick_test/mfcc/raw_mfcc_train.3.ark:980731
mmdm1_sx63 quick_test/mfcc/raw_mfcc_train.3.ark:2938272
mrvg0_sx60 quick_test/mfcc/raw_mfcc_train.4.ark:1610496
fkfb0_sx258 quick_test/mfcc/raw_mfcc_train.1.ark:2138115
mcal0_si508 quick_test/mfcc/raw_mfcc_train.2.ark:1486043
mtjs0_sx202 quick_test/mfcc/raw_mfcc_train.4.ark:2727647
fklh0_sx177 quick_test/mfcc/raw_mfcc_train.1.ark:2273446
mchl0_si1347 quick_test/mfcc/raw_mfcc_train.2.ark:1677197
fjhk0_sx32 quick_test/mfcc/raw_mfcc_train.1.ark:1678480
mtdb0_sx231 quick_test/mfcc/raw_mfcc_train.4.ark:2554995
feac0_sx345 quick_test/mfcc/raw_mfcc_train.1.ark:1142246
mjae0_si1999 quick_test/mfcc/raw_mfcc_train.3.ark:581100
mmpm0_sx161 quick_test/mfcc/raw_mfcc_train.3.ark:3184875
fear0_si622 quick_test/mfcc/raw_mfcc_train.1.ark:1160703
mpeb0_si1034 quick_test/mfcc/raw_mfcc_train.3.ark:3535827
fcmg0_sx162 quick_test/mfcc/raw_mfcc_train.1.ark:667488
mmws1_sx81 quick_test/mfcc/raw_mfcc_train.3.ark:3410494
mtlb0_sx234 quick_test/mfcc/raw_mfcc_train.4.ark:2859422
fvmh0_sx116 quick_test/mfcc/raw_mfcc_train.2.ark:644867
mrmh0_sx31 quick_test/mfcc/raw_mfcc_train.4.ark:1294828
mdef0_sx393 quick_test/mfcc/raw_mfcc_train.2.ark:2245287
mjbg0_sx242 quick_test/mfcc/raw_mfcc_train.3.ark:657559
mmcc0_si1968 quick_test/mfcc/raw_mfcc_train.3.ark:2786748
mgjc0_si1256 quick_test/mfcc/raw_mfcc_train.3.ark:90626
mjpm1_si1897 quick_test/mfcc/raw_mfcc_train.3.ark:1415878
mhmr0_sx399 quick_test/mfcc/raw_mfcc_train.3.ark:447220
mabc0_si781 quick_test/mfcc/raw_mfcc_train.2.ark:665964
flod0_sx387 quick_test/mfcc/raw_mfcc_train.1.ark:2747527
mjlg1_sx22 quick_test/mfcc/raw_mfcc_train.3.ark:1220955
msdb0_sx17 quick_test/mfcc/raw_mfcc_train.4.ark:1840293
mcae0_si1447 quick_test/mfcc/raw_mfcc_train.2.ark:1436625
mtmn0_si582 quick_test/mfcc/raw_mfcc_train.4.ark:2951087
mjdm0_sx260 quick_test/mfcc/raw_mfcc_train.3.ark:826039
fkkh0_sx210 quick_test/mfcc/raw_mfcc_train.1.ark:2180266
mclk0_si650 quick_test/mfcc/raw_mfcc_train.2.ark:1717661
msah1_si1049 quick_test/mfcc/raw_mfcc_train.4.ark:1707044
mdac0_sx181 quick_test/mfcc/raw_mfcc_train.2.ark:1975718
mdlc1_sx445 quick_test/mfcc/raw_mfcc_train.2.ark:2512576
fpaz0_sx153 quick_test/mfcc/raw_mfcc_train.1.ark:3345326
fbch0_sx236 quick_test/mfcc/raw_mfcc_train.1.ark:258084
fkkh0_sx120 quick_test/mfcc/raw_mfcc_train.1.ark:2175787
mjwt0_si751 quick_test/mfcc/raw_mfcc_train.3.ark:1761808
fcag0_sx333 quick_test/mfcc/raw_mfcc_train.1.ark:426753
mgak0_sx46 quick_test/mfcc/raw_mfcc_train.2.ark:3674992
ftaj0_si699 quick_test/mfcc/raw_mfcc_train.2.ark:418443
mbbr0_si1055 quick_test/mfcc/raw_mfcc_train.2.ark:1069719
mjkr0_sx121 quick_test/mfcc/raw_mfcc_train.3.ark:1153318
fsjs0_sx361 quick_test/mfcc/raw_mfcc_train.2.ark:36281
mdlc2_sx174 quick_test/mfcc/raw_mfcc_train.2.ark:2527757
mtqc0_sx181 quick_test/mfcc/raw_mfcc_train.4.ark:3151025
mjjm0_sx107 quick_test/mfcc/raw_mfcc_train.3.ark:1121723
mdjm0_sx105 quick_test/mfcc/raw_mfcc_train.2.ark:2363514
mtpp0_sx248 quick_test/mfcc/raw_mfcc_train.4.ark:3083006
msjk0_sx66 quick_test/mfcc/raw_mfcc_train.4.ark:2100572
mdma0_sx440 quick_test/mfcc/raw_mfcc_train.2.ark:2706813
mrmg0_sx90 quick_test/mfcc/raw_mfcc_train.4.ark:1266749
mjma0_si1495 quick_test/mfcc/raw_mfcc_train.3.ark:1265559
makr0_si722 quick_test/mfcc/raw_mfcc_train.2.ark:925305
fceg0_si1248 quick_test/mfcc/raw_mfcc_train.1.ark:509841
fjsk0_sx332 quick_test/mfcc/raw_mfcc_train.1.ark:1875209
mprd0_sx441 quick_test/mfcc/raw_mfcc_train.4.ark:83197
msrg0_sx231 quick_test/mfcc/raw_mfcc_train.4.ark:2217740
fmmh0_sx367 quick_test/mfcc/raw_mfcc_train.1.ark:3070358
mprt0_si580 quick_test/mfcc/raw_mfcc_train.4.ark:137193
msas0_sx386 quick_test/mfcc/raw_mfcc_train.4.ark:1767029
mrcw0_si1371 quick_test/mfcc/raw_mfcc_train.4.ark:416777
mrgm0_sx262 quick_test/mfcc/raw_mfcc_train.4.ark:756262
mrwa0_si973 quick_test/mfcc/raw_mfcc_train.4.ark:1622388
mrpc1_sx222 quick_test/mfcc/raw_mfcc_train.4.ark:1383011
mrml0_sx341 quick_test/mfcc/raw_mfcc_train.4.ark:1327223
mtpp0_sx68 quick_test/mfcc/raw_mfcc_train.4.ark:3094817
mtju0_sx220 quick_test/mfcc/raw_mfcc_train.4.ark:2759047
fetb0_si518 quick_test/mfcc/raw_mfcc_train.1.ark:1302891
fjen0_sx417 quick_test/mfcc/raw_mfcc_train.1.ark:1643765
fsma0_sx91 quick_test/mfcc/raw_mfcc_train.2.ark:239788
fbcg1_sx442 quick_test/mfcc/raw_mfcc_train.1.ark:230807
mjpg0_sx111 quick_test/mfcc/raw_mfcc_train.3.ark:1367816
mpsw0_si1697 quick_test/mfcc/raw_mfcc_train.4.ark:161813
mwdk0_si2017 quick_test/mfcc/raw_mfcc_train.4.ark:3553169
mrab0_si1854 quick_test/mfcc/raw_mfcc_train.4.ark:187831
ftbr0_si2181 quick_test/mfcc/raw_mfcc_train.2.ark:444116
mtkp0_si2283 quick_test/mfcc/raw_mfcc_train.4.ark:2814052
mrre0_sx344 quick_test/mfcc/raw_mfcc_train.4.ark:1424414
milb0_sx93 quick_test/mfcc/raw_mfcc_train.3.ark:541260
mpar0_sx406 quick_test/mfcc/raw_mfcc_train.3.ark:3529170
mges0_sx41 quick_test/mfcc/raw_mfcc_train.3.ark:86380
mprb0_si575 quick_test/mfcc/raw_mfcc_train.4.ark:26159
mvlo0_si1147 quick_test/mfcc/raw_mfcc_train.4.ark:3365512
mctm0_sx450 quick_test/mfcc/raw_mfcc_train.2.ark:1923495
mkln0_sx248 quick_test/mfcc/raw_mfcc_train.3.ark:2157756
mfxs0_si1674 quick_test/mfcc/raw_mfcc_train.2.ark:3521768
fsjw0_sx343 quick_test/mfcc/raw_mfcc_train.2.ark:70151
mbar0_si1949 quick_test/mfcc/raw_mfcc_train.2.ark:1043150
fexm0_si1101 quick_test/mfcc/raw_mfcc_train.1.ark:1326515
mdwh0_sx215 quick_test/mfcc/raw_mfcc_train.2.ark:3073213
mgaf0_si652 quick_test/mfcc/raw_mfcc_train.2.ark:3594270
fdfb0_sx328 quick_test/mfcc/raw_mfcc_train.1.ark:868280
maeo0_si1655 quick_test/mfcc/raw_mfcc_train.2.ark:790621
mreh1_sx69 quick_test/mfcc/raw_mfcc_train.4.ark:602857
msvs0_sx218 quick_test/mfcc/raw_mfcc_train.4.ark:2319660
mrew1_sx420 quick_test/mfcc/raw_mfcc_train.4.ark:661165
mhbs0_si945 quick_test/mfcc/raw_mfcc_train.3.ark:306960
mkdt0_sx263 quick_test/mfcc/raw_mfcc_train.3.ark:2062191
fsms1_si1504 quick_test/mfcc/raw_mfcc_train.2.ark:278320
fsjw0_sx73 quick_test/mfcc/raw_mfcc_train.2.ark:79329
mntw0_si2328 quick_test/mfcc/raw_mfcc_train.3.ark:3486731
msat0_sx266 quick_test/mfcc/raw_mfcc_train.4.ark:1783758
mdas0_si1266 quick_test/mfcc/raw_mfcc_train.2.ark:1995903
mpeb0_sx240 quick_test/mfcc/raw_mfcc_train.3.ark:3548739
mmws1_sx261 quick_test/mfcc/raw_mfcc_train.3.ark:3398456
flmc0_sx336 quick_test/mfcc/raw_mfcc_train.1.ark:2680493
feme0_sx335 quick_test/mfcc/raw_mfcc_train.1.ark:1281197
mrdd0_sx240 quick_test/mfcc/raw_mfcc_train.4.ark:461207
msmc0_sx17 quick_test/mfcc/raw_mfcc_train.4.ark:2122213
mwsh0_si796 quick_test/mfcc/raw_mfcc_train.4.ark:3747789
mesj0_si2257 quick_test/mfcc/raw_mfcc_train.2.ark:3347573
mjwg0_sx355 quick_test/mfcc/raw_mfcc_train.3.ark:1704281
mddc0_si1419 quick_test/mfcc/raw_mfcc_train.2.ark:2154344
fskp0_sx18 quick_test/mfcc/raw_mfcc_train.2.ark:162094
fmbg0_sx350 quick_test/mfcc/raw_mfcc_train.1.ark:2835617
mtas0_sx305 quick_test/mfcc/raw_mfcc_train.4.ark:2393699
mbml0_sx179 quick_test/mfcc/raw_mfcc_train.2.ark:1296925
mjxa0_sx157 quick_test/mfcc/raw_mfcc_train.3.ark:1797570
feac0_si1245 quick_test/mfcc/raw_mfcc_train.1.ark:1120838
fdaw0_sx236 quick_test/mfcc/raw_mfcc_train.1.ark:837353
mreh1_sx159 quick_test/mfcc/raw_mfcc_train.4.ark:586190
mkxl0_sx285 quick_test/mfcc/raw_mfcc_train.3.ark:2356637
mwgr0_sx166 quick_test/mfcc/raw_mfcc_train.4.ark:3625812
fcke0_sx391 quick_test/mfcc/raw_mfcc_train.1.ark:619508
fcdr1_sx196 quick_test/mfcc/raw_mfcc_train.1.ark:496559
mkxl0_sx105 quick_test/mfcc/raw_mfcc_train.3.ark:2347244
fhlm0_si2190 quick_test/mfcc/raw_mfcc_train.1.ark:1509889
mtqc0_sx451 quick_test/mfcc/raw_mfcc_train.4.ark:3166451
mhmg0_sx195 quick_test/mfcc/raw_mfcc_train.3.ark:407213
mdhl0_si809 quick_test/mfcc/raw_mfcc_train.2.ark:2295520
mpeb0_sx150 quick_test/mfcc/raw_mfcc_train.3.ark:3545677
mhit0_sx353 quick_test/mfcc/raw_mfcc_train.3.ark:349795
mjrg0_sx376 quick_test/mfcc/raw_mfcc_train.3.ark:1509160
mses0_si1589 quick_test/mfcc/raw_mfcc_train.4.ark:1964709
mtkd0_sx377 quick_test/mfcc/raw_mfcc_train.4.ark:2805924
mlel0_sx436 quick_test/mfcc/raw_mfcc_train.3.ark:2423663
fjdm2_sx142 quick_test/mfcc/raw_mfcc_train.1.ark:1593233
fskc0_si1416 quick_test/mfcc/raw_mfcc_train.2.ark:83822
mtqc0_sx91 quick_test/mfcc/raw_mfcc_train.4.ark:3173243
mkls1_sx195 quick_test/mfcc/raw_mfcc_train.3.ark:2257905
fgmb0_sx155 quick_test/mfcc/raw_mfcc_train.1.ark:1447037
mtxs0_sx430 quick_test/mfcc/raw_mfcc_train.4.ark:3325479
mrai0_si2052 quick_test/mfcc/raw_mfcc_train.4.ark:252178
mjrk0_sx70 quick_test/mfcc/raw_mfcc_train.3.ark:1605623
flet0_sx277 quick_test/mfcc/raw_mfcc_train.1.ark:2445411
mrfl0_si1786 quick_test/mfcc/raw_mfcc_train.4.ark:705055
fmju0_sx39 quick_test/mfcc/raw_mfcc_train.1.ark:2978577
mtas0_si1385 quick_test/mfcc/raw_mfcc_train.4.ark:2377179
fgdp0_sx88 quick_test/mfcc/raw_mfcc_train.1.ark:1426376
mdwm0_si916 quick_test/mfcc/raw_mfcc_train.2.ark:3099230
fsag0_si693 quick_test/mfcc/raw_mfcc_train.1.ark:3561321
fear0_si1882 quick_test/mfcc/raw_mfcc_train.1.ark:1157940
fpab1_sx391 quick_test/mfcc/raw_mfcc_train.1.ark:3224107
mdtb0_sx300 quick_test/mfcc/raw_mfcc_train.2.ark:3012941
fdnc0_si1908 quick_test/mfcc/raw_mfcc_train.1.ark:1027307
mjwt0_sx391 quick_test/mfcc/raw_mfcc_train.3.ark:1782239
mdss0_si621 quick_test/mfcc/raw_mfcc_train.2.ark:2946077
mjee0_si607 quick_test/mfcc/raw_mfcc_train.3.ark:918665
fjwb1_si748 quick_test/mfcc/raw_mfcc_train.1.ark:1923498
msrr0_si501 quick_test/mfcc/raw_mfcc_train.4.ark:2240520
mmdg0_si520 quick_test/mfcc/raw_mfcc_train.3.ark:2850556
marw0_sx376 quick_test/mfcc/raw_mfcc_train.2.ark:1034099
fklc1_sx238 quick_test/mfcc/raw_mfcc_train.1.ark:2242911
mefg0_si598 quick_test/mfcc/raw_mfcc_train.2.ark:3188190
mklw0_sx401 quick_test/mfcc/raw_mfcc_train.3.ark:2293422
msjk0_si1596 quick_test/mfcc/raw_mfcc_train.4.ark:2069427
mdma0_sx260 quick_test/mfcc/raw_mfcc_train.2.ark:2695983
mddc0_si2049 quick_test/mfcc/raw_mfcc_train.2.ark:2159825
mram0_si1905 quick_test/mfcc/raw_mfcc_train.4.ark:289675
mter0_si1157 quick_test/mfcc/raw_mfcc_train.4.ark:2608108
mrlj1_sx51 quick_test/mfcc/raw_mfcc_train.4.ark:1140927
fapb0_sx73 quick_test/mfcc/raw_mfcc_train.1.ark:167544
mtat0_sx120 quick_test/mfcc/raw_mfcc_train.4.ark:2418637
flet0_si1137 quick_test/mfcc/raw_mfcc_train.1.ark:2424913
fpac0_sx211 quick_test/mfcc/raw_mfcc_train.1.ark:3247323
mrms0_sx30 quick_test/mfcc/raw_mfcc_train.4.ark:1361756
msem1_sx360 quick_test/mfcc/raw_mfcc_train.4.ark:1951376
fdnc0_si1278 quick_test/mfcc/raw_mfcc_train.1.ark:1020396
mmea0_si2018 quick_test/mfcc/raw_mfcc_train.3.ark:2972756
mbsb0_sx363 quick_test/mfcc/raw_mfcc_train.2.ark:1362775
mprd0_si2061 quick_test/mfcc/raw_mfcc_train.4.ark:59216
mdrd0_sx212 quick_test/mfcc/raw_mfcc_train.2.ark:2890142
mbma0_si592 quick_test/mfcc/raw_mfcc_train.2.ark:1229880
meal0_sx107 quick_test/mfcc/raw_mfcc_train.2.ark:3133367
fdaw0_sx146 quick_test/mfcc/raw_mfcc_train.1.ark:833823
mkxl0_sx195 quick_test/mfcc/raw_mfcc_train.3.ark:2353926
fskp0_si468 quick_test/mfcc/raw_mfcc_train.2.ark:155048
mrxb0_sx415 quick_test/mfcc/raw_mfcc_train.4.ark:1699321
mkdb0_sx422 quick_test/mfcc/raw_mfcc_train.3.ark:2003072
mtmn0_si2324 quick_test/mfcc/raw_mfcc_train.4.ark:2945750
mrjb1_sx390 quick_test/mfcc/raw_mfcc_train.4.ark:873764
mnet0_sx276 quick_test/mfcc/raw_mfcc_train.3.ark:3458947
mvlo0_sx247 quick_test/mfcc/raw_mfcc_train.4.ark:3381492
mpgr0_sx60 quick_test/mfcc/raw_mfcc_train.3.ark:3652864
mlbc0_si609 quick_test/mfcc/raw_mfcc_train.3.ark:2372046
mses0_sx59 quick_test/mfcc/raw_mfcc_train.4.ark:1990772
mrdm0_sx245 quick_test/mfcc/raw_mfcc_train.4.ark:493738
mtml0_sx255 quick_test/mfcc/raw_mfcc_train.4.ark:2924472
mjeb0_sx170 quick_test/mfcc/raw_mfcc_train.3.ark:855430
fjwb1_si795 quick_test/mfcc/raw_mfcc_train.1.ark:1929030
mtrc0_si1623 quick_test/mfcc/raw_mfcc_train.4.ark:3177931
msds0_sx357 quick_test/mfcc/raw_mfcc_train.4.ark:1908848
mabc0_sx421 quick_test/mfcc/raw_mfcc_train.2.ark:680994
mjfh0_si477 quick_test/mfcc/raw_mfcc_train.3.ark:949623
fcke0_sx121 quick_test/mfcc/raw_mfcc_train.1.ark:606832
mrmh0_sx301 quick_test/mfcc/raw_mfcc_train.4.ark:1291013
mvjh0_sx206 quick_test/mfcc/raw_mfcc_train.4.ark:3352237
mrem0_sx151 quick_test/mfcc/raw_mfcc_train.4.ark:620475
fvmh0_si836 quick_test/mfcc/raw_mfcc_train.2.ark:639166
mwdk0_si806 quick_test/mfcc/raw_mfcc_train.4.ark:3556244
mjda0_si1031 quick_test/mfcc/raw_mfcc_train.3.ark:675878
mtcs0_sx172 quick_test/mfcc/raw_mfcc_train.4.ark:2515593
frjb0_si1470 quick_test/mfcc/raw_mfcc_train.1.ark:3496603
mrml0_si2051 quick_test/mfcc/raw_mfcc_train.4.ark:1307552
fsbk0_si1699 quick_test/mfcc/raw_mfcc_train.1.ark:3664510
mgjc0_si1965 quick_test/mfcc/raw_mfcc_train.3.ark:98663
madd0_si1295 quick_test/mfcc/raw_mfcc_train.2.ark:722366
mdac0_sx451 quick_test/mfcc/raw_mfcc_train.2.ark:1987725
mmgc0_sx135 quick_test/mfcc/raw_mfcc_train.3.ark:3038104
mdbp0_si1158 quick_test/mfcc/raw_mfcc_train.2.ark:2055594
fbjl0_sx382 quick_test/mfcc/raw_mfcc_train.1.ark:303245
mjhi0_sx428 quick_test/mfcc/raw_mfcc_train.3.ark:1028180
fpjf0_si1046 quick_test/mfcc/raw_mfcc_train.1.ark:3365120
feac0_sx75 quick_test/mfcc/raw_mfcc_train.1.ark:1151086
fdxw0_sx161 quick_test/mfcc/raw_mfcc_train.1.ark:1102330
mhrm0_si958 quick_test/mfcc/raw_mfcc_train.3.ark:456564
mrsp0_sx79 quick_test/mfcc/raw_mfcc_train.4.ark:1506234
ftaj0_sx69 quick_test/mfcc/raw_mfcc_train.2.ark:434935
mclk0_sx40 quick_test/mfcc/raw_mfcc_train.2.ark:1736291
fcaj0_si1479 quick_test/mfcc/raw_mfcc_train.1.ark:440021
mjxl0_si1795 quick_test/mfcc/raw_mfcc_train.3.ark:1822352
mbsb0_sx273 quick_test/mfcc/raw_mfcc_train.2.ark:1358564
mfmc0_si1762 quick_test/mfcc/raw_mfcc_train.2.ark:3429876
mejl0_sx242 quick_test/mfcc/raw_mfcc_train.2.ark:3262286
mhrm0_sx58 quick_test/mfcc/raw_mfcc_train.3.ark:476761
mmvp0_si1284 quick_test/mfcc/raw_mfcc_train.3.ark:3275386
fskp0_si1098 quick_test/mfcc/raw_mfcc_train.2.ark:145881
mbar0_si689 quick_test/mfcc/raw_mfcc_train.2.ark:1044821
mfer0_si2122 quick_test/mfcc/raw_mfcc_train.2.ark:3400309
mtdp0_sx81 quick_test/mfcc/raw_mfcc_train.4.ark:2604044
mrjm1_sx128 quick_test/mfcc/raw_mfcc_train.4.ark:963790
mrmb0_sx141 quick_test/mfcc/raw_mfcc_train.4.ark:1219071
mtpr0_sx250 quick_test/mfcc/raw_mfcc_train.4.ark:3117227
mtmn0_sx74 quick_test/mfcc/raw_mfcc_train.4.ark:2972311
fsak0_sx130 quick_test/mfcc/raw_mfcc_train.1.ark:3640144
fpaz0_si2223 quick_test/mfcc/raw_mfcc_train.1.ark:3333586
fcmg0_si1142 quick_test/mfcc/raw_mfcc_train.1.ark:653672
fdml0_si1779 quick_test/mfcc/raw_mfcc_train.1.ark:952768
mdsj0_si1462 quick_test/mfcc/raw_mfcc_train.2.ark:2907525
mdlb0_sx46 quick_test/mfcc/raw_mfcc_train.2.ark:2448572
mcdr0_si1784 quick_test/mfcc/raw_mfcc_train.2.ark:1574724
madc0_sx107 quick_test/mfcc/raw_mfcc_train.2.ark:704105
madd0_sx268 quick_test/mfcc/raw_mfcc_train.2.ark:738268
mwsb0_si1626 quick_test/mfcc/raw_mfcc_train.4.ark:3710084
fsls0_si2316 quick_test/mfcc/raw_mfcc_train.2.ark:184824
mpmb0_si1501 quick_test/mfcc/raw_mfcc_train.3.ark:3688563
fdkn0_sx271 quick_test/mfcc/raw_mfcc_train.1.ark:929631
fmah1_sx159 quick_test/mfcc/raw_mfcc_train.1.ark:2797483
mcal0_sx238 quick_test/mfcc/raw_mfcc_train.2.ark:1491946
mrbc0_si1665 quick_test/mfcc/raw_mfcc_train.4.ark:346034
mwgr0_sx76 quick_test/mfcc/raw_mfcc_train.4.ark:3641543
msat1_sx353 quick_test/mfcc/raw_mfcc_train.4.ark:1815829
mprb0_sx125 quick_test/mfcc/raw_mfcc_train.4.ark:32679
mhrm0_sx418 quick_test/mfcc/raw_mfcc_train.3.ark:471672
mtpr0_si2230 quick_test/mfcc/raw_mfcc_train.4.ark:3102425
fmjb0_sx277 quick_test/mfcc/raw_mfcc_train.1.ark:2902922
flmc0_si1372 quick_test/mfcc/raw_mfcc_train.1.ark:2657311
mprk0_sx287 quick_test/mfcc/raw_mfcc_train.4.ark:119549
fltm0_sx260 quick_test/mfcc/raw_mfcc_train.1.ark:2766025
mwre0_si2317 quick_test/mfcc/raw_mfcc_train.4.ark:3653787
mfrm0_si1785 quick_test/mfcc/raw_mfcc_train.2.ark:3468018
mzmb0_sx356 quick_test/mfcc/raw_mfcc_train.4.ark:3798047
ftbr0_sx111 quick_test/mfcc/raw_mfcc_train.2.ark:452957
mdhl0_si1439 quick_test/mfcc/raw_mfcc_train.2.ark:2287653
mtbc0_sx273 quick_test/mfcc/raw_mfcc_train.4.ark:2487931
mtab0_si942 quick_test/mfcc/raw_mfcc_train.4.ark:2349460
fjsp0_si804 quick_test/mfcc/raw_mfcc_train.1.ark:1895707
mfmc0_sx52 quick_test/mfcc/raw_mfcc_train.2.ark:3455085
mtlb0_si504 quick_test/mfcc/raw_mfcc_train.4.ark:2852518
mesg0_sx72 quick_test/mfcc/raw_mfcc_train.2.ark:3339120
fskc0_si2046 quick_test/mfcc/raw_mfcc_train.2.ark:87366
mdem0_sx248 quick_test/mfcc/raw_mfcc_train.2.ark:2267956
mklr0_sx69 quick_test/mfcc/raw_mfcc_train.3.ark:2198134
mrjb1_si1020 quick_test/mfcc/raw_mfcc_train.4.ark:840668
falr0_sx335 quick_test/mfcc/raw_mfcc_train.1.ark:120595
frjb0_sx257 quick_test/mfcc/raw_mfcc_train.1.ark:3505907
mrwa0_sx163 quick_test/mfcc/raw_mfcc_train.4.ark:1626256
mwad0_si1749 quick_test/mfcc/raw_mfcc_train.4.ark:3468560
mfxs0_sx234 quick_test/mfcc/raw_mfcc_train.2.ark:3534356
fdmy0_sx27 quick_test/mfcc/raw_mfcc_train.1.ark:1006516
mbsb0_sx93 quick_test/mfcc/raw_mfcc_train.2.ark:1365888
mgrl0_si867 quick_test/mfcc/raw_mfcc_train.3.ark:133677
msfv0_sx272 quick_test/mfcc/raw_mfcc_train.4.ark:2051134
mtmn0_sx344 quick_test/mfcc/raw_mfcc_train.4.ark:2965824
mrjm1_sx308 quick_test/mfcc/raw_mfcc_train.4.ark:970941
mprb0_sx305 quick_test/mfcc/raw_mfcc_train.4.ark:41624
mrew1_sx150 quick_test/mfcc/raw_mfcc_train.4.ark:649613
mjpm0_si1368 quick_test/mfcc/raw_mfcc_train.3.ark:1381878
fcrz0_sx253 quick_test/mfcc/raw_mfcc_train.1.ark:735573
mtwh1_sx432 quick_test/mfcc/raw_mfcc_train.4.ark:3289736
medr0_sx114 quick_test/mfcc/raw_mfcc_train.2.ark:3163559
mjls0_sx196 quick_test/mfcc/raw_mfcc_train.3.ark:1253824
fdtd0_sx211 quick_test/mfcc/raw_mfcc_train.1.ark:1074043
madd0_si1798 quick_test/mfcc/raw_mfcc_train.2.ark:724883
mjdc0_sx441 quick_test/mfcc/raw_mfcc_train.3.ark:728200
fsmm0_sx414 quick_test/mfcc/raw_mfcc_train.2.ark:269102
mcxm0_sx271 quick_test/mfcc/raw_mfcc_train.2.ark:1947458
mtlc0_sx127 quick_test/mfcc/raw_mfcc_train.4.ark:2892388
mbar0_sx239 quick_test/mfcc/raw_mfcc_train.2.ark:1054533
fcrz0_si793 quick_test/mfcc/raw_mfcc_train.1.ark:728123
fcdr1_si1816 quick_test/mfcc/raw_mfcc_train.1.ark:475758
mcxm0_si1351 quick_test/mfcc/raw_mfcc_train.2.ark:1930412
mjeb0_si1286 quick_test/mfcc/raw_mfcc_train.3.ark:844007
fcjf0_sx127 quick_test/mfcc/raw_mfcc_train.1.ark:549934
fjxp0_si1122 quick_test/mfcc/raw_mfcc_train.1.ark:1987460
fcjs0_si977 quick_test/mfcc/raw_mfcc_train.1.ark:567365
fdnc0_sx378 quick_test/mfcc/raw_mfcc_train.1.ark:1052699
mrjb1_si2021 quick_test/mfcc/raw_mfcc_train.4.ark:852293
mmvp0_si654 quick_test/mfcc/raw_mfcc_train.3.ark:3283097
mdbb1_si2056 quick_test/mfcc/raw_mfcc_train.2.ark:2033153
mdbb1_si1636 quick_test/mfcc/raw_mfcc_train.2.ark:2030675
mtml0_sx345 quick_test/mfcc/raw_mfcc_train.4.ark:2927534
mkag0_sx439 quick_test/mfcc/raw_mfcc_train.3.ark:1875314
mrmb0_si1581 quick_test/mfcc/raw_mfcc_train.4.ark:1207011
mmlm0_sx447 quick_test/mfcc/raw_mfcc_train.3.ark:3168029
fsgf0_sx117 quick_test/mfcc/raw_mfcc_train.1.ark:3808273
mtmt0_sx218 quick_test/mfcc/raw_mfcc_train.4.ark:2992524
mdbb1_sx16 quick_test/mfcc/raw_mfcc_train.2.ark:2041304
mmgk0_sx62 quick_test/mfcc/raw_mfcc_train.3.ark:3109720
fjrb0_sx132 quick_test/mfcc/raw_mfcc_train.1.ark:1791477
mpgr0_si1410 quick_test/mfcc/raw_mfcc_train.3.ark:3627101
mcdd0_sx73 quick_test/mfcc/raw_mfcc_train.2.ark:1565816
mjjb0_sx329 quick_test/mfcc/raw_mfcc_train.3.ark:1057390
mrdm0_sx425 quick_test/mfcc/raw_mfcc_train.4.ark:503112
mcdd0_si1513 quick_test/mfcc/raw_mfcc_train.2.ark:1540625
mkaj0_sx424 quick_test/mfcc/raw_mfcc_train.3.ark:1938400
mprt0_si1210 quick_test/mfcc/raw_mfcc_train.4.ark:129587
mgrp0_si687 quick_test/mfcc/raw_mfcc_train.3.ark:166923
mjmm0_sx355 quick_test/mfcc/raw_mfcc_train.3.ark:1345101
mklw0_sx131 quick_test/mfcc/raw_mfcc_train.3.ark:2279725
flma0_sx73 quick_test/mfcc/raw_mfcc_train.1.ark:2654183
mjmm0_sx175 quick_test/mfcc/raw_mfcc_train.3.ark:1335805
ftaj0_si474 quick_test/mfcc/raw_mfcc_train.2.ark:415524
mtat1_si1627 quick_test/mfcc/raw_mfcc_train.4.ark:2438895
mjdg0_si1672 quick_test/mfcc/raw_mfcc_train.3.ark:780941
mbth0_sx392 quick_test/mfcc/raw_mfcc_train.2.ark:1398691
mbom0_sx384 quick_test/mfcc/raw_mfcc_train.2.ark:1341575
mram0_sx375 quick_test/mfcc/raw_mfcc_train.4.ark:312818
mjmd0_si1028 quick_test/mfcc/raw_mfcc_train.3.ark:1296010
mtlb0_si1764 quick_test/mfcc/raw_mfcc_train.4.ark:2850015
mmws0_si1518 quick_test/mfcc/raw_mfcc_train.3.ark:3356452
fdmy0_si714 quick_test/mfcc/raw_mfcc_train.1.ark:989154
fklc0_si1615 quick_test/mfcc/raw_mfcc_train.1.ark:2194061
mjdm0_sx80 quick_test/mfcc/raw_mfcc_train.3.ark:840814
mhxl0_si612 quick_test/mfcc/raw_mfcc_train.3.ark:488730
mljh0_sx244 quick_test/mfcc/raw_mfcc_train.3.ark:2488152
mdlr1_si1299 quick_test/mfcc/raw_mfcc_train.2.ark:2643493
mjee0_si1237 quick_test/mfcc/raw_mfcc_train.3.ark:910564
mrem0_sx241 quick_test/mfcc/raw_mfcc_train.4.ark:624460
fdtd0_si1561 quick_test/mfcc/raw_mfcc_train.1.ark:1057309
mrkm0_si1267 quick_test/mfcc/raw_mfcc_train.4.ark:1017416
ftmg0_si1532 quick_test/mfcc/raw_mfcc_train.2.ark:536435
msfv0_sx452 quick_test/mfcc/raw_mfcc_train.4.ark:2059585
mcss0_si688 quick_test/mfcc/raw_mfcc_train.2.ark:1839093
mjlb0_si1616 quick_test/mfcc/raw_mfcc_train.3.ark:1172255
flet0_sx57 quick_test/mfcc/raw_mfcc_train.1.ark:2452392
mjdm0_sx170 quick_test/mfcc/raw_mfcc_train.3.ark:819311
mjjj0_sx353 quick_test/mfcc/raw_mfcc_train.3.ark:1094757
mrjm0_si1858 quick_test/mfcc/raw_mfcc_train.4.ark:924050
mmbs0_si521 quick_test/mfcc/raw_mfcc_train.3.ark:2750441
mntw0_sx258 quick_test/mfcc/raw_mfcc_train.3.ark:3495046
fjdm2_sx322 quick_test/mfcc/raw_mfcc_train.1.ark:1603920
fksr0_si487 quick_test/mfcc/raw_mfcc_train.1.ark:2300705
mmgc0_si1305 quick_test/mfcc/raw_mfcc_train.3.ark:3025510
mded0_si1800 quick_test/mfcc/raw_mfcc_train.2.ark:2187858
mgak0_sx406 quick_test/mfcc/raw_mfcc_train.2.ark:3669682
ftmg0_sx362 quick_test/mfcc/raw_mfcc_train.2.ark:555347
fskl0_si899 quick_test/mfcc/raw_mfcc_train.2.ark:122686
mjma0_si865 quick_test/mfcc/raw_mfcc_train.3.ark:1275415
mcth0_sx129 quick_test/mfcc/raw_mfcc_train.2.ark:1879321
fcjs0_sx347 quick_test/mfcc/raw_mfcc_train.1.ark:578631
fcrz0_si2053 quick_test/mfcc/raw_mfcc_train.1.ark:724723
mkdd0_si1567 quick_test/mfcc/raw_mfcc_train.3.ark:2011744
mmgg0_sx269 quick_test/mfcc/raw_mfcc_train.3.ark:3071514
mgxp0_sx7 quick_test/mfcc/raw_mfcc_train.3.ark:291864
fsah0_sx344 quick_test/mfcc/raw_mfcc_train.1.ark:3617819
mrjm0_sx58 quick_test/mfcc/raw_mfcc_train.4.ark:945664
mrfk0_si2336 quick_test/mfcc/raw_mfcc_train.4.ark:678082
mjlb0_sx266 quick_test/mfcc/raw_mfcc_train.3.ark:1188846
flja0_si2338 quick_test/mfcc/raw_mfcc_train.1.ark:2496245
mcxm0_sx451 quick_test/mfcc/raw_mfcc_train.2.ark:1953933
mkag0_sx79 quick_test/mfcc/raw_mfcc_train.3.ark:1880169
mejs0_sx430 quick_test/mfcc/raw_mfcc_train.2.ark:3302735
fsgf0_sx297 quick_test/mfcc/raw_mfcc_train.1.ark:3817523
mgaw0_sx265 quick_test/mfcc/raw_mfcc_train.3.ark:50865
mlel0_sx346 quick_test/mfcc/raw_mfcc_train.3.ark:2419132
msdb0_sx287 quick_test/mfcc/raw_mfcc_train.4.ark:1844701
mdwm0_sx16 quick_test/mfcc/raw_mfcc_train.2.ark:3108421
mmbs0_sx161 quick_test/mfcc/raw_mfcc_train.3.ark:2756753
mpmb0_si2131 quick_test/mfcc/raw_mfcc_train.3.ark:3697684
fjhk0_si1022 quick_test/mfcc/raw_mfcc_train.1.ark:1653568
mcss0_sx210 quick_test/mfcc/raw_mfcc_train.2.ark:1853986
fdtd0_sx391 quick_test/mfcc/raw_mfcc_train.1.ark:1089170
mrld0_sx154 quick_test/mfcc/raw_mfcc_train.4.ark:1070598
fbcg1_sx82 quick_test/mfcc/raw_mfcc_train.1.ark:235597
mmdb0_sx267 quick_test/mfcc/raw_mfcc_train.3.ark:2827698
mjra0_sx66 quick_test/mfcc/raw_mfcc_train.3.ark:1477019
mkls0_si2067 quick_test/mfcc/raw_mfcc_train.3.ark:2211665
fmjf0_sx84 quick_test/mfcc/raw_mfcc_train.1.ark:2946885
fsjg0_sx400 quick_test/mfcc/raw_mfcc_train.1.ark:3862606
maeb0_sx90 quick_test/mfcc/raw_mfcc_train.2.ark:782454
mter0_si1787 quick_test/mfcc/raw_mfcc_train.4.ark:2613914
mrlr0_si1196 quick_test/mfcc/raw_mfcc_train.4.ark:1176443
mrav0_sx288 quick_test/mfcc/raw_mfcc_train.4.ark:338557
mejl0_sx152 quick_test/mfcc/raw_mfcc_train.2.ark:3258899
mbgt0_sx81 quick_test/mfcc/raw_mfcc_train.2.ark:1187810
mcal0_si1768 quick_test/mfcc/raw_mfcc_train.2.ark:1483852
mbma0_sx142 quick_test/mfcc/raw_mfcc_train.2.ark:1231915
mdlb0_sx316 quick_test/mfcc/raw_mfcc_train.2.ark:2438458
fpmy0_sx163 quick_test/mfcc/raw_mfcc_train.1.ark:3444451
ftbr0_sx291 quick_test/mfcc/raw_mfcc_train.2.ark:463260
mjdg0_sx412 quick_test/mfcc/raw_mfcc_train.3.ark:800919
mrai0_sx342 quick_test/mfcc/raw_mfcc_train.4.ark:272174
fapb0_sx343 quick_test/mfcc/raw_mfcc_train.1.ark:156585
mkln0_sx428 quick_test/mfcc/raw_mfcc_train.3.ark:2165297
mjlg1_sx292 quick_test/mfcc/raw_mfcc_train.3.ark:1223861
mwrp0_sx363 quick_test/mfcc/raw_mfcc_train.4.ark:3702465
mrtj0_sx322 quick_test/mfcc/raw_mfcc_train.4.ark:1572557
mjkr0_si1831 quick_test/mfcc/raw_mfcc_train.3.ark:1144204
fklc0_sx445 quick_test/mfcc/raw_mfcc_train.1.ark:2220611
mjxl0_sx92 quick_test/mfcc/raw_mfcc_train.3.ark:1845715
mmam0_sx247 quick_test/mfcc/raw_mfcc_train.3.ark:2689254
mtpr0_sx430 quick_test/mfcc/raw_mfcc_train.4.ark:3126302
mjxa0_sx337 quick_test/mfcc/raw_mfcc_train.3.ark:1805358
mgsh0_si546 quick_test/mfcc/raw_mfcc_train.3.ark:204225
mdss0_sx351 quick_test/mfcc/raw_mfcc_train.2.ark:2956043
fdfb0_si2010 quick_test/mfcc/raw_mfcc_train.1.ark:859614
fpls0_sx60 quick_test/mfcc/raw_mfcc_train.1.ark:3422425
mdac0_si631 quick_test/mfcc/raw_mfcc_train.2.ark:1968925
fjrb0_si1932 quick_test/mfcc/raw_mfcc_train.1.ark:1786302
mpgr0_sx240 quick_test/mfcc/raw_mfcc_train.3.ark:3640312
fhxs0_sx445 quick_test/mfcc/raw_mfcc_train.1.ark:1574255
mrld0_sx334 quick_test/mfcc/raw_mfcc_train.4.ark:1077021
feeh0_sx32 quick_test/mfcc/raw_mfcc_train.1.ark:1251129
fsma0_sx451 quick_test/mfcc/raw_mfcc_train.2.ark:233425
mjpm1_sx311 quick_test/mfcc/raw_mfcc_train.3.ark:1432749
mcre0_sx401 quick_test/mfcc/raw_mfcc_train.2.ark:1824720
mrlj1_sx141 quick_test/mfcc/raw_mfcc_train.4.ark:1127081
mejs0_sx160 quick_test/mfcc/raw_mfcc_train.2.ark:3290273
fcke0_sx301 quick_test/mfcc/raw_mfcc_train.1.ark:613736
fdfb0_si1318 quick_test/mfcc/raw_mfcc_train.1.ark:852123
mhrm0_sx238 quick_test/mfcc/raw_mfcc_train.3.ark:464365
mmdb0_si987 quick_test/mfcc/raw_mfcc_train.3.ark:2819806
fsjs0_si1171 quick_test/mfcc/raw_mfcc_train.2.ark:14132
meal0_sx347 quick_test/mfcc/raw_mfcc_train.2.ark:3142202
mrdm0_si1595 quick_test/mfcc/raw_mfcc_train.4.ark:482212
fhxs0_si1075 quick_test/mfcc/raw_mfcc_train.1.ark:1541321
mdlr1_sx39 quick_test/mfcc/raw_mfcc_train.2.ark:2670250
mjfr0_si975 quick_test/mfcc/raw_mfcc_train.3.ark:976525
fcjs0_sx167 quick_test/mfcc/raw_mfcc_train.1.ark:571233
mram0_si1275 quick_test/mfcc/raw_mfcc_train.4.ark:285442
mdns0_sx291 quick_test/mfcc/raw_mfcc_train.2.ark:2771601
mrld0_si1594 quick_test/mfcc/raw_mfcc_train.4.ark:1058512
fklh0_sx447 quick_test/mfcc/raw_mfcc_train.1.ark:2285570
mkdt0_sx353 quick_test/mfcc/raw_mfcc_train.3.ark:2065370
mdps0_sx179 quick_test/mfcc/raw_mfcc_train.2.ark:2851897
mbma1_sx324 quick_test/mfcc/raw_mfcc_train.2.ark:1271948
fkdw0_si577 quick_test/mfcc/raw_mfcc_train.1.ark:2102164
fjkl0_sx392 quick_test/mfcc/raw_mfcc_train.1.ark:1712487
fljg0_sx351 quick_test/mfcc/raw_mfcc_train.1.ark:2577292
msds0_si2337 quick_test/mfcc/raw_mfcc_train.4.ark:1895437
mbth0_sx122 quick_test/mfcc/raw_mfcc_train.2.ark:1381803
fsls0_si1056 quick_test/mfcc/raw_mfcc_train.2.ark:176111
mdlc0_sx405 quick_test/mfcc/raw_mfcc_train.2.ark:2478887
fpmy0_si1153 quick_test/mfcc/raw_mfcc_train.1.ark:3426853
mprd0_si1431 quick_test/mfcc/raw_mfcc_train.4.ark:54060
fdkn0_si1202 quick_test/mfcc/raw_mfcc_train.1.ark:914854
fsdc0_sx232 quick_test/mfcc/raw_mfcc_train.1.ark:3749107
mdlm0_si1234 quick_test/mfcc/raw_mfcc_train.2.ark:2580446
fgcs0_sx316 quick_test/mfcc/raw_mfcc_train.1.ark:1384316
mmws1_si2331 quick_test/mfcc/raw_mfcc_train.3.ark:3395446
mtas0_sx125 quick_test/mfcc/raw_mfcc_train.4.ark:2387367
mrdd0_si2310 quick_test/mfcc/raw_mfcc_train.4.ark:455109
falr0_sx245 quick_test/mfcc/raw_mfcc_train.1.ark:117234
madc0_sx287 quick_test/mfcc/raw_mfcc_train.2.ark:714031
mdbb1_sx196 quick_test/mfcc/raw_mfcc_train.2.ark:2044145
mjpm1_si761 quick_test/mfcc/raw_mfcc_train.3.ark:1420430
mtdp0_sx171 quick_test/mfcc/raw_mfcc_train.4.ark:2582957
mrmg0_si2340 quick_test/mfcc/raw_mfcc_train.4.ark:1245408
mklw0_si2201 quick_test/mfcc/raw_mfcc_train.3.ark:2277144
mree0_si1104 quick_test/mfcc/raw_mfcc_train.4.ark:537282
fcyl0_sx217 quick_test/mfcc/raw_mfcc_train.1.ark:767636
mkxl0_sx375 quick_test/mfcc/raw_mfcc_train.3.ark:2359881
mjac0_si1331 quick_test/mfcc/raw_mfcc_train.3.ark:543920
mrxb0_sx325 quick_test/mfcc/raw_mfcc_train.4.ark:1695830
mdns0_sx21 quick_test/mfcc/raw_mfcc_train.2.ark:2768838
mrso0_sx219 quick_test/mfcc/raw_mfcc_train.4.ark:1456796
mjsr0_si2054 quick_test/mfcc/raw_mfcc_train.3.ark:1641329
mkdt0_sx173 quick_test/mfcc/raw_mfcc_train.3.ark:2057101
mdmt0_sx392 quick_test/mfcc/raw_mfcc_train.2.ark:2741781
flag0_si2094 quick_test/mfcc/raw_mfcc_train.1.ark:2361912
mkdb0_si588 quick_test/mfcc/raw_mfcc_train.3.ark:1983524
mpfu0_sx268 quick_test/mfcc/raw_mfcc_train.3.ark:3581764
mgar0_sx312 quick_test/mfcc/raw_mfcc_train.3.ark:19771
mtrt0_sx237 quick_test/mfcc/raw_mfcc_train.4.ark:3256320
fpls0_si2220 quick_test/mfcc/raw_mfcc_train.1.ark:3399688
fspm0_sx251 quick_test/mfcc/raw_mfcc_train.2.ark:329275
mkaj0_sx244 quick_test/mfcc/raw_mfcc_train.3.ark:1931587
mdwd0_sx90 quick_test/mfcc/raw_mfcc_train.2.ark:3050647
fjrp1_sx82 quick_test/mfcc/raw_mfcc_train.1.ark:1850308
mbef0_si1281 quick_test/mfcc/raw_mfcc_train.2.ark:1130413
fcmg0_sx342 quick_test/mfcc/raw_mfcc_train.1.ark:675276
mdem0_si800 quick_test/mfcc/raw_mfcc_train.2.ark:2257438
msdb0_si1007 quick_test/mfcc/raw_mfcc_train.4.ark:1827095
mjsr0_si794 quick_test/mfcc/raw_mfcc_train.3.ark:1648018
mdhl0_sx179 quick_test/mfcc/raw_mfcc_train.2.ark:2299661
mrds0_sx177 quick_test/mfcc/raw_mfcc_train.4.ark:520165
mjda0_si1661 quick_test/mfcc/raw_mfcc_train.3.ark:677602
mjrp0_si1845 quick_test/mfcc/raw_mfcc_train.3.ark:1609045
freh0_si1315 quick_test/mfcc/raw_mfcc_train.1.ark:3464012
maeo0_si1956 quick_test/mfcc/raw_mfcc_train.2.ark:794321
mjrh0_sx225 quick_test/mfcc/raw_mfcc_train.3.ark:1531142
mbma1_si2207 quick_test/mfcc/raw_mfcc_train.2.ark:1252204
fetb0_si1148 quick_test/mfcc/raw_mfcc_train.1.ark:1294738
mjjb0_sx149 quick_test/mfcc/raw_mfcc_train.3.ark:1048185
mcss0_sx390 quick_test/mfcc/raw_mfcc_train.2.ark:1863067
fsrh0_sx311 quick_test/mfcc/raw_mfcc_train.2.ark:363438
mfwk0_sx439 quick_test/mfcc/raw_mfcc_train.2.ark:3513590
mjfh0_sx27 quick_test/mfcc/raw_mfcc_train.3.ark:960017
mtjg0_sx440 quick_test/mfcc/raw_mfcc_train.4.ark:2666109
mjlb0_si986 quick_test/mfcc/raw_mfcc_train.3.ark:1180824
msat1_si1703 quick_test/mfcc/raw_mfcc_train.4.ark:1800330
fhlm0_si930 quick_test/mfcc/raw_mfcc_train.1.ark:1513796
mjlg1_si1642 quick_test/mfcc/raw_mfcc_train.3.ark:1205704
fbmj0_sx246 quick_test/mfcc/raw_mfcc_train.1.ark:392940
faem0_si762 quick_test/mfcc/raw_mfcc_train.1.ark:9349
mjac0_sx431 quick_test/mfcc/raw_mfcc_train.3.ark:568832
mrbc0_sx419 quick_test/mfcc/raw_mfcc_train.4.ark:370400
mrai0_si792 quick_test/mfcc/raw_mfcc_train.4.ark:258100
mprt0_sx220 quick_test/mfcc/raw_mfcc_train.4.ark:143889
mjae0_sx174 quick_test/mfcc/raw_mfcc_train.3.ark:587329
mjrg0_si736 quick_test/mfcc/raw_mfcc_train.3.ark:1486493
mrhl0_sx345 quick_test/mfcc/raw_mfcc_train.4.ark:829571
mcdd0_sx253 quick_test/mfcc/raw_mfcc_train.2.ark:1554876
fsmm0_sx324 quick_test/mfcc/raw_mfcc_train.2.ark:263297
mdjm0_si1455 quick_test/mfcc/raw_mfcc_train.2.ark:2349062
mdwm0_si1546 quick_test/mfcc/raw_mfcc_train.2.ark:3092039
mtjs0_si562 quick_test/mfcc/raw_mfcc_train.4.ark:2716726
fcrz0_sx73 quick_test/mfcc/raw_mfcc_train.1.ark:746513
makr0_sx452 quick_test/mfcc/raw_mfcc_train.2.ark:936396
mcth0_sx219 quick_test/mfcc/raw_mfcc_train.2.ark:1883020
fjsp0_sx354 quick_test/mfcc/raw_mfcc_train.1.ark:1908013
fcmg0_si1242 quick_test/mfcc/raw_mfcc_train.1.ark:660219
fleh0_sx151 quick_test/mfcc/raw_mfcc_train.1.ark:2404156
mjdc0_sx261 quick_test/mfcc/raw_mfcc_train.3.ark:721738
mdpb0_sx326 quick_test/mfcc/raw_mfcc_train.2.ark:2801591
fmpg0_sx252 quick_test/mfcc/raw_mfcc_train.1.ark:3107853
fpaz0_si1593 quick_test/mfcc/raw_mfcc_train.1.ark:3331173
fkfb0_sx348 quick_test/mfcc/raw_mfcc_train.1.ark:2142685
fpmy0_sx73 quick_test/mfcc/raw_mfcc_train.1.ark:3459896
mdcd0_si1415 quick_test/mfcc/raw_mfcc_train.2.ark:2090348
fhlm0_sx210 quick_test/mfcc/raw_mfcc_train.1.ark:1523261
fmbg0_sx440 quick_test/mfcc/raw_mfcc_train.1.ark:2840460
mdwh0_si665 quick_test/mfcc/raw_mfcc_train.2.ark:3063189
mdjm0_sx195 quick_test/mfcc/raw_mfcc_train.2.ark:2370313
marc0_sx378 quick_test/mfcc/raw_mfcc_train.2.ark:1000554
fjxm0_sx401 quick_test/mfcc/raw_mfcc_train.1.ark:1976123
mwac0_sx161 quick_test/mfcc/raw_mfcc_train.4.ark:3438968
mmdm1_sx333 quick_test/mfcc/raw_mfcc_train.3.ark:2927872
flet0_si507 quick_test/mfcc/raw_mfcc_train.1.ark:2433482
mppc0_si1412 quick_test/mfcc/raw_mfcc_train.3.ark:3743415
flmk0_sx405 quick_test/mfcc/raw_mfcc_train.1.ark:2714222
mkjo0_sx167 quick_test/mfcc/raw_mfcc_train.3.ark:2123619
mree0_sx384 quick_test/mfcc/raw_mfcc_train.4.ark:567011
mdlr1_sx309 quick_test/mfcc/raw_mfcc_train.2.ark:2665720
marc0_sx288 quick_test/mfcc/raw_mfcc_train.2.ark:996712
fmju0_si2019 quick_test/mfcc/raw_mfcc_train.1.ark:2958692
mapv0_si663 quick_test/mfcc/raw_mfcc_train.2.ark:952935
mprk0_si1097 quick_test/mfcc/raw_mfcc_train.4.ark:90478
mchl0_sx87 quick_test/mfcc/raw_mfcc_train.2.ark:1706692
mbom0_si1014 quick_test/mfcc/raw_mfcc_train.2.ark:1316226
fcmg0_si1872 quick_test/mfcc/raw_mfcc_train.1.ark:663906
falr0_si1955 quick_test/mfcc/raw_mfcc_train.1.ark:105942
mmdb0_sx447 quick_test/mfcc/raw_mfcc_train.3.ark:2835967
mdlh0_sx340 quick_test/mfcc/raw_mfcc_train.2.ark:2569206
mtxs0_sx340 quick_test/mfcc/raw_mfcc_train.4.ark:3321377
mbgt0_sx351 quick_test/mfcc/raw_mfcc_train.2.ark:1178840
mrkm0_sx187 quick_test/mfcc/raw_mfcc_train.4.ark:1036938
msrg0_si1221 quick_test/mfcc/raw_mfcc_train.4.ark:2201253
fmjb0_si547 quick_test/mfcc/raw_mfcc_train.1.ark:2895862
mclm0_sx106 quick_test/mfcc/raw_mfcc_train.2.ark:1756205
fpaf0_sx154 quick_test/mfcc/raw_mfcc_train.1.ark:3311404
mrcw0_sx381 quick_test/mfcc/raw_mfcc_train.4.ark:442995
mzmb0_sx176 quick_test/mfcc/raw_mfcc_train.4.ark:3789570
mcdr0_si524 quick_test/mfcc/raw_mfcc_train.2.ark:1581179
mwsh0_sx346 quick_test/mfcc/raw_mfcc_train.4.ark:3763787
mchl0_si1977 quick_test/mfcc/raw_mfcc_train.2.ark:1689264
mhmr0_sx39 quick_test/mfcc/raw_mfcc_train.3.ark:443677
fjlr0_sx421 quick_test/mfcc/raw_mfcc_train.1.ark:1772890
maeo0_sx336 quick_test/mfcc/raw_mfcc_train.2.ark:804014
maeo0_sx426 quick_test/mfcc/raw_mfcc_train.2.ark:809065
mreh1_si969 quick_test/mfcc/raw_mfcc_train.4.ark:579202
fcaj0_si849 quick_test/mfcc/raw_mfcc_train.1.ark:444365
mrlj1_sx231 quick_test/mfcc/raw_mfcc_train.4.ark:1131131
mpgr1_si2129 quick_test/mfcc/raw_mfcc_train.3.ark:3665056
mrso0_si2289 quick_test/mfcc/raw_mfcc_train.4.ark:1448553
mrgm0_sx442 quick_test/mfcc/raw_mfcc_train.4.ark:764037
mjee0_sx247 quick_test/mfcc/raw_mfcc_train.3.ark:924776
mjpg0_si561 quick_test/mfcc/raw_mfcc_train.3.ark:1362856
mlns0_sx237 quick_test/mfcc/raw_mfcc_train.3.ark:2521333
flet0_sx237 quick_test/mfcc/raw_mfcc_train.1.ark:2443194
fmpg0_sx342 quick_test/mfcc/raw_mfcc_train.1.ark:3111669
fjxp0_si1752 quick_test/mfcc/raw_mfcc_train.1.ark:1991121
mrcw0_si741 quick_test/mfcc/raw_mfcc_train.4.ark:425008
mdlm0_sx334 quick_test/mfcc/raw_mfcc_train.2.ark:2599969
fsdc0_sx52 quick_test/mfcc/raw_mfcc_train.1.ark:3759813
mctm0_si1350 quick_test/mfcc/raw_mfcc_train.2.ark:1898661
mdps0_si719 quick_test/mfcc/raw_mfcc_train.2.ark:2848211
fdaw0_si1271 quick_test/mfcc/raw_mfcc_train.1.ark:817641
mhmr0_sx219 quick_test/mfcc/raw_mfcc_train.3.ark:434668
mdsj0_sx292 quick_test/mfcc/raw_mfcc_train.2.ark:2926696
mtju0_si2020 quick_test/mfcc/raw_mfcc_train.4.ark:2743873
mrpc1_si2026 quick_test/mfcc/raw_mfcc_train.4.ark:1374799
mrmh0_si2281 quick_test/mfcc/raw_mfcc_train.4.ark:1279877
mprb0_si1205 quick_test/mfcc/raw_mfcc_train.4.ark:16173
mtmn0_sx434 quick_test/mfcc/raw_mfcc_train.4.ark:2968769
mprb0_sx215 quick_test/mfcc/raw_mfcc_train.4.ark:36378
mdlr0_si1863 quick_test/mfcc/raw_mfcc_train.2.ark:2614428
mesg0_si702 quick_test/mfcc/raw_mfcc_train.2.ark:3315764
mdcd0_sx425 quick_test/mfcc/raw_mfcc_train.2.ark:2116404
flkm0_si620 quick_test/mfcc/raw_mfcc_train.1.ark:2596352
mtpr0_sx160 quick_test/mfcc/raw_mfcc_train.4.ark:3111630
mrws0_sx202 quick_test/mfcc/raw_mfcc_train.4.ark:1661043
fksr0_sx366 quick_test/mfcc/raw_mfcc_train.1.ark:2312413
mtkp0_sx123 quick_test/mfcc/raw_mfcc_train.4.ark:2826806
mtdb0_sx141 quick_test/mfcc/raw_mfcc_train.4.ark:2550542
mrsp0_sx259 quick_test/mfcc/raw_mfcc_train.4.ark:1497316
makb0_si2276 quick_test/mfcc/raw_mfcc_train.2.ark:892163
fcag0_sx423 quick_test/mfcc/raw_mfcc_train.1.ark:431921
mhxl0_sx152 quick_test/mfcc/raw_mfcc_train.3.ark:492234
mrmb0_sx411 quick_test/mfcc/raw_mfcc_train.4.ark:1230402
ftbw0_sx355 quick_test/mfcc/raw_mfcc_train.2.ark:492002
mtlc0_sx37 quick_test/mfcc/raw_mfcc_train.4.ark:2899415
fsdc0_sx142 quick_test/mfcc/raw_mfcc_train.1.ark:3744979
mrtj0_sx412 quick_test/mfcc/raw_mfcc_train.4.ark:1576399
mjae0_sx84 quick_test/mfcc/raw_mfcc_train.3.ark:605166
mrcg0_si798 quick_test/mfcc/raw_mfcc_train.4.ark:387329
fmpg0_sx162 quick_test/mfcc/raw_mfcc_train.1.ark:3102009
mrfk0_si1706 quick_test/mfcc/raw_mfcc_train.4.ark:676007
mjwt0_sx31 quick_test/mfcc/raw_mfcc_train.3.ark:1779086
mrai0_sx432 quick_test/mfcc/raw_mfcc_train.4.ark:276614
fjsp0_sx174 quick_test/mfcc/raw_mfcc_train.1.ark:1899068
mfmc0_si1132 quick_test/mfcc/raw_mfcc_train.2.ark:3425084
fklc0_sx265 quick_test/mfcc/raw_mfcc_train.1.ark:2212719
mwar0_sx145 quick_test/mfcc/raw_mfcc_train.4.ark:3502199
mtpf0_sx245 quick_test/mfcc/raw_mfcc_train.4.ark:3023768
mmcc0_sx78 quick_test/mfcc/raw_mfcc_train.3.ark:2809864
madc0_sx197 quick_test/mfcc/raw_mfcc_train.2.ark:710605
fklc1_si1678 quick_test/mfcc/raw_mfcc_train.1.ark:2234153
mfmc0_sx232 quick_test/mfcc/raw_mfcc_train.2.ark:3442689
fjsk0_sx242 quick_test/mfcc/raw_mfcc_train.1.ark:1871328
mfrm0_sx345 quick_test/mfcc/raw_mfcc_train.2.ark:3478959
mtpg0_sx123 quick_test/mfcc/raw_mfcc_train.4.ark:3051248
fvmh0_si2096 quick_test/mfcc/raw_mfcc_train.2.ark:635480
fdkn0_sx91 quick_test/mfcc/raw_mfcc_train.1.ark:943808
mrpc1_sx42 quick_test/mfcc/raw_mfcc_train.4.ark:1395238
mdac0_sx91 quick_test/mfcc/raw_mfcc_train.2.ark:1992788
mjdm0_sx350 quick_test/mfcc/raw_mfcc_train.3.ark:830076
mmea0_sx398 quick_test/mfcc/raw_mfcc_train.3.ark:2992219
frjb0_sx437 quick_test/mfcc/raw_mfcc_train.1.ark:3513747
fsjk1_sx305 quick_test/mfcc/raw_mfcc_train.2.ark:4023
fscn0_si1886 quick_test/mfcc/raw_mfcc_train.1.ark:3695279
mstf0_sx46 quick_test/mfcc/raw_mfcc_train.4.ark:2295365
mrgs0_si1986 quick_test/mfcc/raw_mfcc_train.4.ark:781063
mbjv0_si1877 quick_test/mfcc/raw_mfcc_train.2.ark:1195353
mdpk0_si552 quick_test/mfcc/raw_mfcc_train.2.ark:2819528
mjjm0_si1457 quick_test/mfcc/raw_mfcc_train.3.ark:1112583
mtwh1_si2142 quick_test/mfcc/raw_mfcc_train.4.ark:3273438
mrlr0_sx116 quick_test/mfcc/raw_mfcc_train.4.ark:1190180
