msds0_si1077 quick_test/data-fmllr-tri3/train/data/feats_fmllr_train.9.ark:13190916
mgxp0_si525 quick_test/data-fmllr-tri3/train/data/feats_fmllr_train.6.ark:3266282
mmam0_sx247 quick_test/data-fmllr-tri3/train/data/feats_fmllr_train.7.ark:14006279
fleh0_sx421 quick_test/data-fmllr-tri3/train/data/feats_fmllr_train.2.ark:9949231
fceg0_sx258 quick_test/data-fmllr-tri3/train/data/feats_fmllr_train.1.ark:6221134
mjpm0_sx378 quick_test/data-fmllr-tri3/train/data/feats_fmllr_train.6.ark:16792730
mgaf0_sx202 quick_test/data-fmllr-tri3/train/data/feats_fmllr_train.5.ark:16431374
fkde0_sx331 quick_test/data-fmllr-tri3/train/data/feats_fmllr_train.2.ark:5895192
faem0_sx222 quick_test/data-fmllr-tri3/train/data/feats_fmllr_train.1.ark:201402
fsjs0_sx91 quick_test/data-fmllr-tri3/train/data/feats_fmllr_train.3.ark:9537672
mrdm0_sx155 quick_test/data-fmllr-tri3/train/data/feats_fmllr_train.8.ark:14560766
mrcw0_si741 quick_test/data-fmllr-tri3/train/data/feats_fmllr_train.8.ark:13797904
fskl0_si1529 quick_test/data-fmllr-tri3/train/data/feats_fmllr_train.3.ark:10349654
mgjc0_si1256 quick_test/data-fmllr-tri3/train/data/feats_fmllr_train.6.ark:1075385
mbcg0_sx327 quick_test/data-fmllr-tri3/train/data/feats_fmllr_train.4.ark:4319179
mcdc0_sx392 quick_test/data-fmllr-tri3/train/data/feats_fmllr_train.4.ark:9299810
mjxl0_sx92 quick_test/data-fmllr-tri3/train/data/feats_fmllr_train.7.ark:3964715
mgak0_si1666 quick_test/data-fmllr-tri3/train/data/feats_fmllr_train.5.ark:16995726
mjbg0_sx332 quick_test/data-fmllr-tri3/train/data/feats_fmllr_train.6.ark:7872323
fskp0_si1098 quick_test/data-fmllr-tri3/train/data/feats_fmllr_train.3.ark:10735311
mmdg0_sx160 quick_test/data-fmllr-tri3/train/data/feats_fmllr_train.7.ark:15979657
mmar0_sx256 quick_test/data-fmllr-tri3/train/data/feats_fmllr_train.7.ark:14439936
fjxm0_sx311 quick_test/data-fmllr-tri3/train/data/feats_fmllr_train.2.ark:4628460
mgaw0_sx445 quick_test/data-fmllr-tri3/train/data/feats_fmllr_train.6.ark:682954
mjwt0_sx211 quick_test/data-fmllr-tri3/train/data/feats_fmllr_train.7.ark:3065641
mzmb0_si1796 quick_test/data-fmllr-tri3/train/data/feats_fmllr_train.10.ark:17657489
fsmm0_si1314 quick_test/data-fmllr-tri3/train/data/feats_fmllr_train.3.ark:11896283
mntw0_sx258 quick_test/data-fmllr-tri3/train/data/feats_fmllr_train.8.ark:5584627
fsjg0_si2200 quick_test/data-fmllr-tri3/train/data/feats_fmllr_train.3.ark:8355317
mbth0_si505 quick_test/data-fmllr-tri3/train/data/feats_fmllr_train.4.ark:7375903
mrhl0_si885 quick_test/data-fmllr-tri3/train/data/feats_fmllr_train.9.ark:513563
mprt0_sx310 quick_test/data-fmllr-tri3/train/data/feats_fmllr_train.8.ark:10507550
mgar0_sx42 quick_test/data-fmllr-tri3/train/data/feats_fmllr_train.6.ark:347883
mrtc0_si828 quick_test/data-fmllr-tri3/train/data/feats_fmllr_train.9.ark:8885484
mmdm0_sx411 quick_test/data-fmllr-tri3/train/data/feats_fmllr_train.7.ark:16521715
mkls0_si1437 quick_test/data-fmllr-tri3/train/data/feats_fmllr_train.7.ark:8197209
msrg0_si591 quick_test/data-fmllr-tri3/train/data/feats_fmllr_train.9.ark:17071165
fear0_si622 quick_test/data-fmllr-tri3/train/data/feats_fmllr_train.1.ark:13817106
mjpm0_si738 quick_test/data-fmllr-tri3/train/data/feats_fmllr_train.6.ark:16566036
fbmh0_si1136 quick_test/data-fmllr-tri3/train/data/feats_fmllr_train.1.ark:4082660
mjjb0_sx149 quick_test/data-fmllr-tri3/train/data/feats_fmllr_train.6.ark:12470554
mlns0_sx147 quick_test/data-fmllr-tri3/train/data/feats_fmllr_train.7.ark:11966286
mjpg0_sx201 quick_test/data-fmllr-tri3/train/data/feats_fmllr_train.6.ark:16304433
mrlr0_sx26 quick_test/data-fmllr-tri3/train/data/feats_fmllr_train.9.ark:5034270
mfxv0_si1342 quick_test/data-fmllr-tri3/train/data/feats_fmllr_train.5.ark:15932835
fbch0_si956 quick_test/data-fmllr-tri3/train/data/feats_fmllr_train.1.ark:2909236
fmkf0_si1018 quick_test/data-fmllr-tri3/train/data/feats_fmllr_train.2.ark:17130474
mmws1_si1071 quick_test/data-fmllr-tri3/train/data/feats_fmllr_train.8.ark:4306722
fpaz0_sx243 quick_test/data-fmllr-tri3/train/data/feats_fmllr_train.3.ark:2652784
mdlc2_sx264 quick_test/data-fmllr-tri3/train/data/feats_fmllr_train.5.ark:3739197
fbmh0_si970 quick_test/data-fmllr-tri3/train/data/feats_fmllr_train.1.ark:4190875
mrjm1_si1298 quick_test/data-fmllr-tri3/train/data/feats_fmllr_train.9.ark:2099977
mrbc0_sx59 quick_test/data-fmllr-tri3/train/data/feats_fmllr_train.8.ark:13195684
fblv0_si1058 quick_test/data-fmllr-tri3/train/data/feats_fmllr_train.1.ark:3664362
mrjt0_si1498 quick_test/data-fmllr-tri3/train/data/feats_fmllr_train.9.ark:2495074
fbjl0_si1552 quick_test/data-fmllr-tri3/train/data/feats_fmllr_train.1.ark:3276465
fksr0_si487 quick_test/data-fmllr-tri3/train/data/feats_fmllr_train.2.ark:8573431
flhd0_sx354 quick_test/data-fmllr-tri3/train/data/feats_fmllr_train.2.ark:10645319
mrhl0_sx345 quick_test/data-fmllr-tri3/train/data/feats_fmllr_train.9.ark:652204
fssb0_sx452 quick_test/data-fmllr-tri3/train/data/feats_fmllr_train.3.ark:13799555
fskc0_sx156 quick_test/data-fmllr-tri3/train/data/feats_fmllr_train.3.ark:10120559
mgrp0_sx417 quick_test/data-fmllr-tri3/train/data/feats_fmllr_train.6.ark:2202223
mntw0_sx168 quick_test/data-fmllr-tri3/train/data/feats_fmllr_train.8.ark:5514973
fnkl0_sx82 quick_test/data-fmllr-tri3/train/data/feats_fmllr_train.3.ark:328522
frll0_sx74 quick_test/data-fmllr-tri3/train/data/feats_fmllr_train.3.ark:5040084
mclk0_sx130 quick_test/data-fmllr-tri3/train/data/feats_fmllr_train.4.ark:11549166
fkfb0_sx258 quick_test/data-fmllr-tri3/train/data/feats_fmllr_train.2.ark:6635439
mbbr0_si2315 quick_test/data-fmllr-tri3/train/data/feats_fmllr_train.4.ark:3863842
msem1_sx450 quick_test/data-fmllr-tri3/train/data/feats_fmllr_train.9.ark:14056257
mppc0_sx242 quick_test/data-fmllr-tri3/train/data/feats_fmllr_train.8.ark:8736576
mkrg0_si2121 quick_test/data-fmllr-tri3/train/data/feats_fmllr_train.7.ark:9455170
fnkl0_sx172 quick_test/data-fmllr-tri3/train/data/feats_fmllr_train.3.ark:156095
fljd0_sx436 quick_test/data-fmllr-tri3/train/data/feats_fmllr_train.2.ark:11506901
mrre0_sx74 quick_test/data-fmllr-tri3/train/data/feats_fmllr_train.9.ark:7824806
msmc0_si647 quick_test/data-fmllr-tri3/train/data/feats_fmllr_train.9.ark:15933234
mmsm0_sx26 quick_test/data-fmllr-tri3/train/data/feats_fmllr_train.8.ark:2835429
mvrw0_si1485 quick_test/data-fmllr-tri3/train/data/feats_fmllr_train.10.ark:13095495
mejl0_si962 quick_test/data-fmllr-tri3/train/data/feats_fmllr_train.5.ark:12330372
fsdj0_si1745 quick_test/data-fmllr-tri3/train/data/feats_fmllr_train.3.ark:7648483
mrmh0_si2281 quick_test/data-fmllr-tri3/train/data/feats_fmllr_train.9.ark:6013403
mtab0_si942 quick_test/data-fmllr-tri3/train/data/feats_fmllr_train.10.ark:606205
mlsh0_sx337 quick_test/data-fmllr-tri3/train/data/feats_fmllr_train.7.ark:12448157
mrwa0_sx343 quick_test/data-fmllr-tri3/train/data/feats_fmllr_train.9.ark:10219656
feac0_sx165 quick_test/data-fmllr-tri3/train/data/feats_fmllr_train.1.ark:13500916
fmkc0_sx82 quick_test/data-fmllr-tri3/train/data/feats_fmllr_train.2.ark:17085166
mdma0_sx80 quick_test/data-fmllr-tri3/train/data/feats_fmllr_train.5.ark:5889962
fmem0_si1377 quick_test/data-fmllr-tri3/train/data/feats_fmllr_train.2.ark:15090989
mvrw0_sx135 quick_test/data-fmllr-tri3/train/data/feats_fmllr_train.10.ark:13226617
mjee0_sx337 quick_test/data-fmllr-tri3/train/data/feats_fmllr_train.6.ark:11061420
fsag0_sx423 quick_test/data-fmllr-tri3/train/data/feats_fmllr_train.3.ark:5415795
mreh1_sx339 quick_test/data-fmllr-tri3/train/data/feats_fmllr_train.8.ark:15812512
fjsp0_si1763 quick_test/data-fmllr-tri3/train/data/feats_fmllr_train.2.ark:3728719
mcae0_si2077 quick_test/data-fmllr-tri3/train/data/feats_fmllr_train.4.ark:8199057
mmgg0_sx359 quick_test/data-fmllr-tri3/train/data/feats_fmllr_train.8.ark:579888
majp0_si2334 quick_test/data-fmllr-tri3/train/data/feats_fmllr_train.4.ark:1167921
mpgr0_si2040 quick_test/data-fmllr-tri3/train/data/feats_fmllr_train.8.ark:7217123
mdlc0_sx45 quick_test/data-fmllr-tri3/train/data/feats_fmllr_train.5.ark:3148762
falk0_si456 quick_test/data-fmllr-tri3/train/data/feats_fmllr_train.1.ark:860152
fjsp0_si804 quick_test/data-fmllr-tri3/train/data/feats_fmllr_train.2.ark:3748266
mrml0_sx341 quick_test/data-fmllr-tri3/train/data/feats_fmllr_train.9.ark:6577861
mstf0_sx46 quick_test/data-fmllr-tri3/train/data/feats_fmllr_train.9.ark:18104851
mjdc0_sx81 quick_test/data-fmllr-tri3/train/data/feats_fmllr_train.6.ark:8696651
mhmg0_si735 quick_test/data-fmllr-tri3/train/data/feats_fmllr_train.6.ark:4692269
mjdg0_sx142 quick_test/data-fmllr-tri3/train/data/feats_fmllr_train.6.ark:9388338
msmc0_sx377 quick_test/data-fmllr-tri3/train/data/feats_fmllr_train.9.ark:16170488
mjjb0_si1769 quick_test/data-fmllr-tri3/train/data/feats_fmllr_train.6.ark:12430047
mjma0_sx145 quick_test/data-fmllr-tri3/train/data/feats_fmllr_train.6.ark:15230634
fceg0_si1248 quick_test/data-fmllr-tri3/train/data/feats_fmllr_train.1.ark:6075585
mklr0_sx249 quick_test/data-fmllr-tri3/train/data/feats_fmllr_train.7.ark:8032781
mnet0_si816 quick_test/data-fmllr-tri3/train/data/feats_fmllr_train.8.ark:5074250
mafm0_sx219 quick_test/data-fmllr-tri3/train/data/feats_fmllr_train.4.ark:894637
mjlb0_si986 quick_test/data-fmllr-tri3/train/data/feats_fmllr_train.6.ark:14051555
ftaj0_sx69 quick_test/data-fmllr-tri3/train/data/feats_fmllr_train.3.ark:14174997
mrpc1_sx132 quick_test/data-fmllr-tri3/train/data/feats_fmllr_train.9.ark:7204643
mpgr0_si1410 quick_test/data-fmllr-tri3/train/data/feats_fmllr_train.8.ark:7151815
fdtd0_si2191 quick_test/data-fmllr-tri3/train/data/feats_fmllr_train.1.ark:12638347
mrld0_sx64 quick_test/data-fmllr-tri3/train/data/feats_fmllr_train.9.ark:3680175
fbcg1_sx352 quick_test/data-fmllr-tri3/train/data/feats_fmllr_train.1.ark:2681928
mjra0_sx66 quick_test/data-fmllr-tri3/train/data/feats_fmllr_train.6.ark:17569164
mdss0_si2087 quick_test/data-fmllr-tri3/train/data/feats_fmllr_train.5.ark:8627377
mram0_sx285 quick_test/data-fmllr-tri3/train/data/feats_fmllr_train.8.ark:12416502
fcag0_sx423 quick_test/data-fmllr-tri3/train/data/feats_fmllr_train.1.ark:5146457
mrre0_sx254 quick_test/data-fmllr-tri3/train/data/feats_fmllr_train.9.ark:7694486
fklc0_sx265 quick_test/data-fmllr-tri3/train/data/feats_fmllr_train.2.ark:7527073
mrcw0_si1371 quick_test/data-fmllr-tri3/train/data/feats_fmllr_train.8.ark:13699929
mtas0_sx35 quick_test/data-fmllr-tri3/train/data/feats_fmllr_train.10.ark:1167489
mrgs0_sx6 quick_test/data-fmllr-tri3/train/data/feats_fmllr_train.9.ark:316014
fecd0_sx338 quick_test/data-fmllr-tri3/train/data/feats_fmllr_train.1.ark:14438044
fcaj0_sx399 quick_test/data-fmllr-tri3/train/data/feats_fmllr_train.1.ark:5537260
mdlc2_si1614 quick_test/data-fmllr-tri3/train/data/feats_fmllr_train.5.ark:3572848
fmkf0_si1536 quick_test/data-fmllr-tri3/train/data/feats_fmllr_train.2.ark:17201702
mjws0_sx243 quick_test/data-fmllr-tri3/train/data/feats_fmllr_train.7.ark:2592944
mmsm0_si1106 quick_test/data-fmllr-tri3/train/data/feats_fmllr_train.8.ark:2568094
mkdd0_si1567 quick_test/data-fmllr-tri3/train/data/feats_fmllr_train.7.ark:5940067
mjjb0_sx419 quick_test/data-fmllr-tri3/train/data/feats_fmllr_train.6.ark:12641195
meal0_sx287 quick_test/data-fmllr-tri3/train/data/feats_fmllr_train.5.ark:10946708
mzmb0_si536 quick_test/data-fmllr-tri3/train/data/feats_fmllr_train.10.ark:17687756
fsmm0_sx324 quick_test/data-fmllr-tri3/train/data/feats_fmllr_train.3.ark:12132259
mcxm0_si721 quick_test/data-fmllr-tri3/train/data/feats_fmllr_train.4.ark:14093697
madd0_sx268 quick_test/data-fmllr-tri3/train/data/feats_fmllr_train.3.ark:17780447
mvjh0_si926 quick_test/data-fmllr-tri3/train/data/feats_fmllr_train.10.ark:12465996
mrso0_sx129 quick_test/data-fmllr-tri3/train/data/feats_fmllr_train.9.ark:8069237
fklc0_si2245 quick_test/data-fmllr-tri3/train/data/feats_fmllr_train.2.ark:7334352
fskp0_sx18 quick_test/data-fmllr-tri3/train/data/feats_fmllr_train.3.ark:10928219
mbcg0_sx57 quick_test/data-fmllr-tri3/train/data/feats_fmllr_train.4.ark:4432192
mmds0_si713 quick_test/data-fmllr-tri3/train/data/feats_fmllr_train.7.ark:17098841
mrtj0_sx412 quick_test/data-fmllr-tri3/train/data/feats_fmllr_train.9.ark:9549969
mjrg0_sx16 quick_test/data-fmllr-tri3/train/data/feats_fmllr_train.6.ark:17791540
mjrp0_si1845 quick_test/data-fmllr-tri3/train/data/feats_fmllr_train.7.ark:1141493
mdpb0_sx416 quick_test/data-fmllr-tri3/train/data/feats_fmllr_train.5.ark:6985307
ftaj0_sx249 quick_test/data-fmllr-tri3/train/data/feats_fmllr_train.3.ark:14072197
mdwm0_sx106 quick_test/data-fmllr-tri3/train/data/feats_fmllr_train.5.ark:10549157
fgcs0_sx316 quick_test/data-fmllr-tri3/train/data/feats_fmllr_train.1.ark:16484570
mjjb0_sx329 quick_test/data-fmllr-tri3/train/data/feats_fmllr_train.6.ark:12580528
milb0_sx183 quick_test/data-fmllr-tri3/train/data/feats_fmllr_train.6.ark:6286602
mljh0_si1324 quick_test/data-fmllr-tri3/train/data/feats_fmllr_train.7.ark:11325187
mtmn0_sx434 quick_test/data-fmllr-tri3/train/data/feats_fmllr_train.10.ark:7982700
fbch0_sx236 quick_test/data-fmllr-tri3/train/data/feats_fmllr_train.1.ark:3076677
makr0_sx362 quick_test/data-fmllr-tri3/train/data/feats_fmllr_train.4.ark:2124277
mjlg1_si1012 quick_test/data-fmllr-tri3/train/data/feats_fmllr_train.6.ark:14302757
mjrh1_sx334 quick_test/data-fmllr-tri3/train/data/feats_fmllr_train.7.ark:646287
mbbr0_sx335 quick_test/data-fmllr-tri3/train/data/feats_fmllr_train.4.ark:3979923
feeh0_sx302 quick_test/data-fmllr-tri3/train/data/feats_fmllr_train.1.ark:14851381
msah1_sx59 quick_test/data-fmllr-tri3/train/data/feats_fmllr_train.9.ark:11389961
mtlb0_sx144 quick_test/data-fmllr-tri3/train/data/feats_fmllr_train.10.ark:6638447
maeo0_si1326 quick_test/data-fmllr-tri3/train/data/feats_fmllr_train.4.ark:368870
mfxv0_sx285 quick_test/data-fmllr-tri3/train/data/feats_fmllr_train.5.ark:16139690
mbgt0_si1841 quick_test/data-fmllr-tri3/train/data/feats_fmllr_train.4.ark:4811345
mjdc0_sx261 quick_test/data-fmllr-tri3/train/data/feats_fmllr_train.6.ark:8583931
fklh0_si627 quick_test/data-fmllr-tri3/train/data/feats_fmllr_train.2.ark:8205534
mchl0_sx87 quick_test/data-fmllr-tri3/train/data/feats_fmllr_train.4.ark:11327936
mmgk0_sx242 quick_test/data-fmllr-tri3/train/data/feats_fmllr_train.8.ark:877358
mrms0_si2057 quick_test/data-fmllr-tri3/train/data/feats_fmllr_train.9.ark:6802770
mfxs0_sx144 quick_test/data-fmllr-tri3/train/data/feats_fmllr_train.5.ark:15603072
mdmt0_sx212 quick_test/data-fmllr-tri3/train/data/feats_fmllr_train.5.ark:6090739
mctm0_sx270 quick_test/data-fmllr-tri3/train/data/feats_fmllr_train.4.ark:13821854
mrlj1_sx321 quick_test/data-fmllr-tri3/train/data/feats_fmllr_train.9.ark:4263917
fscn0_sx86 quick_test/data-fmllr-tri3/train/data/feats_fmllr_train.3.ark:7182129
fksr0_sx366 quick_test/data-fmllr-tri3/train/data/feats_fmllr_train.2.ark:8712552
mwar0_sx235 quick_test/data-fmllr-tri3/train/data/feats_fmllr_train.10.ark:14370817
fcjf0_sx307 quick_test/data-fmllr-tri3/train/data/feats_fmllr_train.1.ark:6602498
fjhk0_si1022 quick_test/data-fmllr-tri3/train/data/feats_fmllr_train.2.ark:864449
mwch0_sx452 quick_test/data-fmllr-tri3/train/data/feats_fmllr_train.10.ark:14769649
msvs0_sx38 quick_test/data-fmllr-tri3/train/data/feats_fmllr_train.10.ark:358255
mefg0_sx195 quick_test/data-fmllr-tri3/train/data/feats_fmllr_train.5.ark:11691460
flkm0_sx116 quick_test/data-fmllr-tri3/train/data/feats_fmllr_train.2.ark:12206453
mjpg0_si561 quick_test/data-fmllr-tri3/train/data/feats_fmllr_train.6.ark:16212219
mjae0_si2154 quick_test/data-fmllr-tri3/train/data/feats_fmllr_train.6.ark:6947808
fbas0_sx397 quick_test/data-fmllr-tri3/train/data/feats_fmllr_train.1.ark:2416324
mwdk0_sx86 quick_test/data-fmllr-tri3/train/data/feats_fmllr_train.10.ark:15210212
mkah0_sx88 quick_test/data-fmllr-tri3/train/data/feats_fmllr_train.7.ark:4757948
mgjc0_si1335 quick_test/data-fmllr-tri3/train/data/feats_fmllr_train.6.ark:1120533
mctm0_sx180 quick_test/data-fmllr-tri3/train/data/feats_fmllr_train.4.ark:13776707
fleh0_sx61 quick_test/data-fmllr-tri3/train/data/feats_fmllr_train.2.ark:10000297
mdps0_sx179 quick_test/data-fmllr-tri3/train/data/feats_fmllr_train.5.ark:7539900
mgsh0_sx276 quick_test/data-fmllr-tri3/train/data/feats_fmllr_train.6.ark:2576493
mtlb0_si504 quick_test/data-fmllr-tri3/train/data/feats_fmllr_train.10.ark:6598420
mcpm0_si564 quick_test/data-fmllr-tri3/train/data/feats_fmllr_train.4.ark:12213253
fvfb0_sx42 quick_test/data-fmllr-tri3/train/data/feats_fmllr_train.3.ark:16067762
fajw0_sx273 quick_test/data-fmllr-tri3/train/data/feats_fmllr_train.1.ark:638099
megj0_si1967 quick_test/data-fmllr-tri3/train/data/feats_fmllr_train.5.ark:11922450
mdlb0_si676 quick_test/data-fmllr-tri3/train/data/feats_fmllr_train.5.ark:2461851
fkfb0_si2238 quick_test/data-fmllr-tri3/train/data/feats_fmllr_train.2.ark:6506558
mwem0_sx330 quick_test/data-fmllr-tri3/train/data/feats_fmllr_train.10.ark:15469097
mdbb1_sx106 quick_test/data-fmllr-tri3/train/data/feats_fmllr_train.4.ark:15269413
fltm0_sx350 quick_test/data-fmllr-tri3/train/data/feats_fmllr_train.2.ark:14164395
mrlj0_si1420 quick_test/data-fmllr-tri3/train/data/feats_fmllr_train.9.ark:3714123
mgsh0_si546 quick_test/data-fmllr-tri3/train/data/feats_fmllr_train.6.ark:2430332
fhxs0_si2302 quick_test/data-fmllr-tri3/train/data/feats_fmllr_train.1.ark:18430189
mctm0_si720 quick_test/data-fmllr-tri3/train/data/feats_fmllr_train.4.ark:13742760
fpls0_si960 quick_test/data-fmllr-tri3/train/data/feats_fmllr_train.3.ark:3288524
fgcs0_sx136 quick_test/data-fmllr-tri3/train/data/feats_fmllr_train.1.ark:16375236
mjda0_sx311 quick_test/data-fmllr-tri3/train/data/feats_fmllr_train.6.ark:8217981
mjpg0_sx291 quick_test/data-fmllr-tri3/train/data/feats_fmllr_train.6.ark:16371686
mjdc0_sx351 quick_test/data-fmllr-tri3/train/data/feats_fmllr_train.6.ark:8611318
mdlb0_sx406 quick_test/data-fmllr-tri3/train/data/feats_fmllr_train.5.ark:2672199
mapv0_sx123 quick_test/data-fmllr-tri3/train/data/feats_fmllr_train.4.ark:2436600
fmbg0_sx350 quick_test/data-fmllr-tri3/train/data/feats_fmllr_train.2.ark:14939388
mvrw0_sx405 quick_test/data-fmllr-tri3/train/data/feats_fmllr_train.10.ark:13333738
mtrr0_sx288 quick_test/data-fmllr-tri3/train/data/feats_fmllr_train.10.ark:11079634
fdfb0_si2010 quick_test/data-fmllr-tri3/train/data/feats_fmllr_train.1.ark:10230990
msvs0_sx128 quick_test/data-fmllr-tri3/train/data/feats_fmllr_train.10.ark:200255
mrjm1_si1928 quick_test/data-fmllr-tri3/train/data/feats_fmllr_train.9.ark:2162245
frll0_sx164 quick_test/data-fmllr-tri3/train/data/feats_fmllr_train.3.ark:4874857
fgcs0_sx406 quick_test/data-fmllr-tri3/train/data/feats_fmllr_train.1.ark:16522197
fclt0_si1438 quick_test/data-fmllr-tri3/train/data/feats_fmllr_train.1.ark:7404133
mpgr1_sx149 quick_test/data-fmllr-tri3/train/data/feats_fmllr_train.8.ark:7646675
majp0_si1704 quick_test/data-fmllr-tri3/train/data/feats_fmllr_train.4.ark:1098613
mtpg0_sx33 quick_test/data-fmllr-tri3/train/data/feats_fmllr_train.10.ark:9082390
maeo0_si1655 quick_test/data-fmllr-tri3/train/data/feats_fmllr_train.4.ark:435138
fsjs0_sx361 quick_test/data-fmllr-tri3/train/data/feats_fmllr_train.3.ark:9431219
mfmc0_sx232 quick_test/data-fmllr-tri3/train/data/feats_fmllr_train.5.ark:14557166
mrxb0_sx235 quick_test/data-fmllr-tri3/train/data/feats_fmllr_train.9.ark:10924703
mgxp0_sx97 quick_test/data-fmllr-tri3/train/data/feats_fmllr_train.6.ark:3521774
mjra0_si606 quick_test/data-fmllr-tri3/train/data/feats_fmllr_train.6.ark:17322630
fsjk1_sx125 quick_test/data-fmllr-tri3/train/data/feats_fmllr_train.3.ark:8963748
msrr0_sx231 quick_test/data-fmllr-tri3/train/data/feats_fmllr_train.9.ark:17581676
mdns0_si873 quick_test/data-fmllr-tri3/train/data/feats_fmllr_train.5.ark:6392662
mdlc2_sx354 quick_test/data-fmllr-tri3/train/data/feats_fmllr_train.5.ark:3781944
mcdr0_sx344 quick_test/data-fmllr-tri3/train/data/feats_fmllr_train.4.ark:10000991
mgaw0_sx85 quick_test/data-fmllr-tri3/train/data/feats_fmllr_train.6.ark:716580
mtml0_sx165 quick_test/data-fmllr-tri3/train/data/feats_fmllr_train.10.ark:7399842
mrfk0_sx446 quick_test/data-fmllr-tri3/train/data/feats_fmllr_train.8.ark:16976550
mded0_sx450 quick_test/data-fmllr-tri3/train/data/feats_fmllr_train.4.ark:17313459
mwar0_sx55 quick_test/data-fmllr-tri3/train/data/feats_fmllr_train.10.ark:14488497
fskp0_sx378 quick_test/data-fmllr-tri3/train/data/feats_fmllr_train.3.ark:11051180
mejs0_sx340 quick_test/data-fmllr-tri3/train/data/feats_fmllr_train.5.ark:12855630
mdpk0_sx333 quick_test/data-fmllr-tri3/train/data/feats_fmllr_train.5.ark:7272377
mdlc2_sx444 quick_test/data-fmllr-tri3/train/data/feats_fmllr_train.5.ark:3817011
fcrz0_si2053 quick_test/data-fmllr-tri3/train/data/feats_fmllr_train.1.ark:8625613
ftbr0_sx381 quick_test/data-fmllr-tri3/train/data/feats_fmllr_train.3.ark:14551054
mdem0_sx338 quick_test/data-fmllr-tri3/train/data/feats_fmllr_train.5.ark:646286
fcdr1_si556 quick_test/data-fmllr-tri3/train/data/feats_fmllr_train.1.ark:5744543
ftbw0_si1975 quick_test/data-fmllr-tri3/train/data/feats_fmllr_train.3.ark:14626470
fcdr1_sx196 quick_test/data-fmllr-tri3/train/data/feats_fmllr_train.1.ark:5917103
fbmj0_sx426 quick_test/data-fmllr-tri3/train/data/feats_fmllr_train.1.ark:4799839
mgrl0_sx417 quick_test/data-fmllr-tri3/train/data/feats_fmllr_train.6.ark:1797046
ftlg0_sx213 quick_test/data-fmllr-tri3/train/data/feats_fmllr_train.3.ark:15217807
mtmn0_sx254 quick_test/data-fmllr-tri3/train/data/feats_fmllr_train.10.ark:7912886
msas0_sx206 quick_test/data-fmllr-tri3/train/data/feats_fmllr_train.9.ark:11667698
mdlm0_sx64 quick_test/data-fmllr-tri3/train/data/feats_fmllr_train.5.ark:4616350
mdma0_sx170 quick_test/data-fmllr-tri3/train/data/feats_fmllr_train.5.ark:5607295
fleh0_sx331 quick_test/data-fmllr-tri3/train/data/feats_fmllr_train.2.ark:9903604
feac0_sx75 quick_test/data-fmllr-tri3/train/data/feats_fmllr_train.1.ark:13703743
mfxv0_si1635 quick_test/data-fmllr-tri3/train/data/feats_fmllr_train.5.ark:16002143
mwgr0_si976 quick_test/data-fmllr-tri3/train/data/feats_fmllr_train.10.ark:15736113
mfrm0_sx345 quick_test/data-fmllr-tri3/train/data/feats_fmllr_train.5.ark:14988611
mmxs0_si629 quick_test/data-fmllr-tri3/train/data/feats_fmllr_train.8.ark:4656726
fmkf0_sx96 quick_test/data-fmllr-tri3/train/data/feats_fmllr_train.2.ark:17483781
mdlr1_sx129 quick_test/data-fmllr-tri3/train/data/feats_fmllr_train.5.ark:5225157
mjxa0_sx337 quick_test/data-fmllr-tri3/train/data/feats_fmllr_train.7.ark:3484605
mdks0_sx256 quick_test/data-fmllr-tri3/train/data/feats_fmllr_train.5.ark:2110648
mtab0_sx42 quick_test/data-fmllr-tri3/train/data/feats_fmllr_train.10.ark:901379
mdas0_sx186 quick_test/data-fmllr-tri3/train/data/feats_fmllr_train.4.ark:14936558
mcal0_sx418 quick_test/data-fmllr-tri3/train/data/feats_fmllr_train.4.ark:8864367
mdcm0_sx220 quick_test/data-fmllr-tri3/train/data/feats_fmllr_train.4.ark:16466571
fcag0_sx153 quick_test/data-fmllr-tri3/train/data/feats_fmllr_train.1.ark:4988456
mppc0_si782 quick_test/data-fmllr-tri3/train/data/feats_fmllr_train.8.ark:8648522
mdhl0_sx89 quick_test/data-fmllr-tri3/train/data/feats_fmllr_train.5.ark:1165276
msrr0_si1131 quick_test/data-fmllr-tri3/train/data/feats_fmllr_train.9.ark:17342047
mdef0_sx33 quick_test/data-fmllr-tri3/train/data/feats_fmllr_train.5.ark:274256
madc0_si737 quick_test/data-fmllr-tri3/train/data/feats_fmllr_train.3.ark:17298416
flac0_si901 quick_test/data-fmllr-tri3/train/data/feats_fmllr_train.2.ark:8966768
mapv0_si1293 quick_test/data-fmllr-tri3/train/data/feats_fmllr_train.4.ark:2243558
fceg0_sx438 quick_test/data-fmllr-tri3/train/data/feats_fmllr_train.1.ark:6311908
marw0_si646 quick_test/data-fmllr-tri3/train/data/feats_fmllr_train.4.ark:3050287
mctm0_si1350 quick_test/data-fmllr-tri3/train/data/feats_fmllr_train.4.ark:13609265
fexm0_sx201 quick_test/data-fmllr-tri3/train/data/feats_fmllr_train.1.ark:16017765
mpfu0_sx178 quick_test/data-fmllr-tri3/train/data/feats_fmllr_train.8.ark:6558024
fpac0_si2011 quick_test/data-fmllr-tri3/train/data/feats_fmllr_train.3.ark:1269171
mrew1_si1500 quick_test/data-fmllr-tri3/train/data/feats_fmllr_train.8.ark:16352169
mcdd0_si2143 quick_test/data-fmllr-tri3/train/data/feats_fmllr_train.4.ark:9381466
fgdp0_sx178 quick_test/data-fmllr-tri3/train/data/feats_fmllr_train.1.ark:16759613
mtpf0_sx245 quick_test/data-fmllr-tri3/train/data/feats_fmllr_train.10.ark:8636360
fsjk1_sx215 quick_test/data-fmllr-tri3/train/data/feats_fmllr_train.3.ark:8999775
msas0_sx26 quick_test/data-fmllr-tri3/train/data/feats_fmllr_train.9.ark:11727084
mcdr0_sx434 quick_test/data-fmllr-tri3/train/data/feats_fmllr_train.4.ark:10041178
mtmt0_sx38 quick_test/data-fmllr-tri3/train/data/feats_fmllr_train.10.ark:8353476
mgsl0_si534 quick_test/data-fmllr-tri3/train/data/feats_fmllr_train.6.ark:2773079
mfrm0_si1717 quick_test/data-fmllr-tri3/train/data/feats_fmllr_train.5.ark:14818102
mdlr0_sx423 quick_test/data-fmllr-tri3/train/data/feats_fmllr_train.5.ark:4960221
feac0_si1245 quick_test/data-fmllr-tri3/train/data/feats_fmllr_train.1.ark:13343074
mtml0_si2325 quick_test/data-fmllr-tri3/train/data/feats_fmllr_train.10.ark:7343815
fcmm0_si1957 quick_test/data-fmllr-tri3/train/data/feats_fmllr_train.1.ark:8235956
mrlj1_sx51 quick_test/data-fmllr-tri3/train/data/feats_fmllr_train.9.ark:4361410
mwrp0_sx183 quick_test/data-fmllr-tri3/train/data/feats_fmllr_train.10.ark:16588576
mmjb1_sx148 quick_test/data-fmllr-tri3/train/data/feats_fmllr_train.8.ark:1178028
mmdm0_sx51 quick_test/data-fmllr-tri3/train/data/feats_fmllr_train.7.ark:16577581
fcaj0_si1804 quick_test/data-fmllr-tri3/train/data/feats_fmllr_train.1.ark:5264459
mrcw0_sx381 quick_test/data-fmllr-tri3/train/data/feats_fmllr_train.8.ark:14010998
mpsw0_si1697 quick_test/data-fmllr-tri3/train/data/feats_fmllr_train.8.ark:10666539
mpsw0_sx167 quick_test/data-fmllr-tri3/train/data/feats_fmllr_train.8.ark:10738434
mmdg0_sx70 quick_test/data-fmllr-tri3/train/data/feats_fmllr_train.7.ark:16216884
mvrw0_sx315 quick_test/data-fmllr-tri3/train/data/feats_fmllr_train.10.ark:13299151
marc0_sx378 quick_test/data-fmllr-tri3/train/data/feats_fmllr_train.4.ark:2929244
mtmt0_sx398 quick_test/data-fmllr-tri3/train/data/feats_fmllr_train.10.ark:8399103
mjrp0_si1835 quick_test/data-fmllr-tri3/train/data/feats_fmllr_train.7.ark:1120985
fkaa0_si1838 quick_test/data-fmllr-tri3/train/data/feats_fmllr_train.2.ark:5245746
mtkp0_si454 quick_test/data-fmllr-tri3/train/data/feats_fmllr_train.10.ark:6223643
ftbw0_sx85 quick_test/data-fmllr-tri3/train/data/feats_fmllr_train.3.ark:14932871
faem0_sx42 quick_test/data-fmllr-tri3/train/data/feats_fmllr_train.1.ark:354602
mbml0_si1169 quick_test/data-fmllr-tri3/train/data/feats_fmllr_train.4.ark:6332185
mjac0_sx251 quick_test/data-fmllr-tri3/train/data/feats_fmllr_train.6.ark:6615937
fmjf0_sx174 quick_test/data-fmllr-tri3/train/data/feats_fmllr_train.2.ark:16056944
feeh0_sx212 quick_test/data-fmllr-tri3/train/data/feats_fmllr_train.1.ark:14798074
fbmj0_si1776 quick_test/data-fmllr-tri3/train/data/feats_fmllr_train.1.ark:4460317
mrtc0_sx198 quick_test/data-fmllr-tri3/train/data/feats_fmllr_train.9.ark:9026044
fmmh0_si2167 quick_test/data-fmllr-tri3/train/data/feats_fmllr_train.2.ark:17598397
mjac0_si1331 quick_test/data-fmllr-tri3/train/data/feats_fmllr_train.6.ark:6468495
fkkh0_sx390 quick_test/data-fmllr-tri3/train/data/feats_fmllr_train.2.ark:7254456
mjlb0_sx356 quick_test/data-fmllr-tri3/train/data/feats_fmllr_train.6.ark:14183796
fsmm0_si684 quick_test/data-fmllr-tri3/train/data/feats_fmllr_train.3.ark:11981298
mrjh0_sx307 quick_test/data-fmllr-tri3/train/data/feats_fmllr_train.9.ark:1550558
mgag0_sx61 quick_test/data-fmllr-tri3/train/data/feats_fmllr_train.5.ark:16879670
fmmh0_sx97 quick_test/data-fmllr-tri3/train/data/feats_fmllr_train.2.ark:17889436
mges0_sx311 quick_test/data-fmllr-tri3/train/data/feats_fmllr_train.6.ark:916904
mrml0_si791 quick_test/data-fmllr-tri3/train/data/feats_fmllr_train.9.ark:6372180
feeh0_si1742 quick_test/data-fmllr-tri3/train/data/feats_fmllr_train.1.ark:14652553
mtdb0_sx231 quick_test/data-fmllr-tri3/train/data/feats_fmllr_train.10.ark:3052841
mdwd0_si1890 quick_test/data-fmllr-tri3/train/data/feats_fmllr_train.5.ark:9647549
mlns0_si777 quick_test/data-fmllr-tri3/train/data/feats_fmllr_train.7.ark:11924979
mmgc0_sx45 quick_test/data-fmllr-tri3/train/data/feats_fmllr_train.8.ark:313163
mjrg0_si1996 quick_test/data-fmllr-tri3/train/data/feats_fmllr_train.6.ark:17658340
mkxl0_si1185 quick_test/data-fmllr-tri3/train/data/feats_fmllr_train.7.ark:9755998
fhlm0_sx120 quick_test/data-fmllr-tri3/train/data/feats_fmllr_train.1.ark:18077065
feac0_sx255 quick_test/data-fmllr-tri3/train/data/feats_fmllr_train.1.ark:13557743
mbth0_sx212 quick_test/data-fmllr-tri3/train/data/feats_fmllr_train.4.ark:7512944
msms0_sx173 quick_test/data-fmllr-tri3/train/data/feats_fmllr_train.9.ark:16761855
mtdp0_sx261 quick_test/data-fmllr-tri3/train/data/feats_fmllr_train.10.ark:3458339
fhlm0_si2190 quick_test/data-fmllr-tri3/train/data/feats_fmllr_train.1.ark:17983571
flma0_sx163 quick_test/data-fmllr-tri3/train/data/feats_fmllr_train.2.ark:12620910
mtab0_si1572 quick_test/data-fmllr-tri3/train/data/feats_fmllr_train.10.ark:481670
mrlr0_si1826 quick_test/data-fmllr-tri3/train/data/feats_fmllr_train.9.ark:4853363
mdlc1_sx445 quick_test/data-fmllr-tri3/train/data/feats_fmllr_train.5.ark:3504794
fltm0_si1700 quick_test/data-fmllr-tri3/train/data/feats_fmllr_train.2.ark:13967006
mmws1_sx81 quick_test/data-fmllr-tri3/train/data/feats_fmllr_train.8.ark:4580511
mpmb0_sx241 quick_test/data-fmllr-tri3/train/data/feats_fmllr_train.8.ark:8248839
mjda0_si1031 quick_test/data-fmllr-tri3/train/data/feats_fmllr_train.6.ark:8039444
fklc0_sx175 quick_test/data-fmllr-tri3/train/data/feats_fmllr_train.2.ark:7447046
mbar0_si1319 quick_test/data-fmllr-tri3/train/data/feats_fmllr_train.4.ark:3375569
mjrg0_sx106 quick_test/data-fmllr-tri3/train/data/feats_fmllr_train.6.ark:17754074
fcjs0_si1607 quick_test/data-fmllr-tri3/train/data/feats_fmllr_train.1.ark:6700339
fgmb0_sx245 quick_test/data-fmllr-tri3/train/data/feats_fmllr_train.1.ark:17296177
mmwb0_si2249 quick_test/data-fmllr-tri3/train/data/feats_fmllr_train.8.ark:3483917
fdkn0_si1711 quick_test/data-fmllr-tri3/train/data/feats_fmllr_train.1.ark:10964385
mdjm0_sx375 quick_test/data-fmllr-tri3/train/data/feats_fmllr_train.5.ark:1880910
mwdk0_si2017 quick_test/data-fmllr-tri3/train/data/feats_fmllr_train.10.ark:14931171
mjmd0_sx38 quick_test/data-fmllr-tri3/train/data/feats_fmllr_train.6.ark:15659572
fltm0_sx260 quick_test/data-fmllr-tri3/train/data/feats_fmllr_train.2.ark:14111088
mmpm0_si1691 quick_test/data-fmllr-tri3/train/data/feats_fmllr_train.8.ark:1803688
ftbw0_si715 quick_test/data-fmllr-tri3/train/data/feats_fmllr_train.3.ark:14668417
fljd0_sx346 quick_test/data-fmllr-tri3/train/data/feats_fmllr_train.2.ark:11453274
mhjb0_si1017 quick_test/data-fmllr-tri3/train/data/feats_fmllr_train.6.ark:4299836
msfv0_sx272 quick_test/data-fmllr-tri3/train/data/feats_fmllr_train.9.ark:15196855
marc0_sx108 quick_test/data-fmllr-tri3/train/data/feats_fmllr_train.4.ark:2775057
mdlc1_sx355 quick_test/data-fmllr-tri3/train/data/feats_fmllr_train.5.ark:3467007
mrdd0_sx330 quick_test/data-fmllr-tri3/train/data/feats_fmllr_train.8.ark:14306870
mtdb0_sx141 quick_test/data-fmllr-tri3/train/data/feats_fmllr_train.10.ark:2999694
mrjb1_sx390 quick_test/data-fmllr-tri3/train/data/feats_fmllr_train.9.ark:1179515
mlel0_sx346 quick_test/data-fmllr-tri3/train/data/feats_fmllr_train.7.ark:10786329
msdb0_si2267 quick_test/data-fmllr-tri3/train/data/feats_fmllr_train.9.ark:12616777
mrre0_sx344 quick_test/data-fmllr-tri3/train/data/feats_fmllr_train.9.ark:7734193
fjsp0_sx444 quick_test/data-fmllr-tri3/train/data/feats_fmllr_train.2.ark:3938294
fdnc0_sx108 quick_test/data-fmllr-tri3/train/data/feats_fmllr_train.1.ark:12333064
fgmb0_si1145 quick_test/data-fmllr-tri3/train/data/feats_fmllr_train.1.ark:17059428
mgsl0_sx354 quick_test/data-fmllr-tri3/train/data/feats_fmllr_train.6.ark:2985827
mdef0_sx123 quick_test/data-fmllr-tri3/train/data/feats_fmllr_train.5.ark:160256
mtdb0_si1401 quick_test/data-fmllr-tri3/train/data/feats_fmllr_train.10.ark:2828092
fsjs0_sx271 quick_test/data-fmllr-tri3/train/data/feats_fmllr_train.3.ark:9385752
mvlo0_si1147 quick_test/data-fmllr-tri3/train/data/feats_fmllr_train.10.ark:12702958
frjb0_si1470 quick_test/data-fmllr-tri3/train/data/feats_fmllr_train.3.ark:4395066
mesj0_si2257 quick_test/data-fmllr-tri3/train/data/feats_fmllr_train.5.ark:13431316
mmjb1_si778 quick_test/data-fmllr-tri3/train/data/feats_fmllr_train.8.ark:1137201
mrem0_sx61 quick_test/data-fmllr-tri3/train/data/feats_fmllr_train.8.ark:16303661
fsjs0_sx451 quick_test/data-fmllr-tri3/train/data/feats_fmllr_train.3.ark:9472846
mmdg0_si1780 quick_test/data-fmllr-tri3/train/data/feats_fmllr_train.7.ark:15817815
mcss0_si1380 quick_test/data-fmllr-tri3/train/data/feats_fmllr_train.4.ark:12832672
fkaa0_sx308 quick_test/data-fmllr-tri3/train/data/feats_fmllr_train.2.ark:5443294
fsmm0_si1944 quick_test/data-fmllr-tri3/train/data/feats_fmllr_train.3.ark:11939351
mfwk0_sx349 quick_test/data-fmllr-tri3/train/data/feats_fmllr_train.5.ark:15332348
fcmm0_sx273 quick_test/data-fmllr-tri3/train/data/feats_fmllr_train.1.ark:8376837
fjkl0_sx392 quick_test/data-fmllr-tri3/train/data/feats_fmllr_train.2.ark:1564696
mmgc0_sx315 quick_test/data-fmllr-tri3/train/data/feats_fmllr_train.8.ark:229430
fkkh0_sx120 quick_test/data-fmllr-tri3/train/data/feats_fmllr_train.2.ark:7087469
makb0_si1646 quick_test/data-fmllr-tri3/train/data/feats_fmllr_train.4.ark:1594831
mjdc0_sx171 quick_test/data-fmllr-tri3/train/data/feats_fmllr_train.6.ark:8531104
mwch0_sx92 quick_test/data-fmllr-tri3/train/data/feats_fmllr_train.10.ark:14825035
fpmy0_sx73 quick_test/data-fmllr-tri3/train/data/feats_fmllr_train.3.ark:3959913
fklh0_si1887 quick_test/data-fmllr-tri3/train/data/feats_fmllr_train.2.ark:8183107
mljc0_sx145 quick_test/data-fmllr-tri3/train/data/feats_fmllr_train.7.ark:11102492
mrtc0_sx108 quick_test/data-fmllr-tri3/train/data/feats_fmllr_train.9.ark:8931591
mmgc0_si1305 quick_test/data-fmllr-tri3/train/data/feats_fmllr_train.8.ark:13
mter0_sx77 quick_test/data-fmllr-tri3/train/data/feats_fmllr_train.10.ark:4043115
fpjf0_sx56 quick_test/data-fmllr-tri3/train/data/feats_fmllr_train.3.ark:3162681
msms0_sx353 quick_test/data-fmllr-tri3/train/data/feats_fmllr_train.9.ark:16854069
mwac0_si1601 quick_test/data-fmllr-tri3/train/data/feats_fmllr_train.10.ark:13405472
mrds0_sx267 quick_test/data-fmllr-tri3/train/data/feats_fmllr_train.8.ark:14959250
mter0_si1157 quick_test/data-fmllr-tri3/train/data/feats_fmllr_train.10.ark:3686607
fapb0_si2323 quick_test/data-fmllr-tri3/train/data/feats_fmllr_train.1.ark:1679812
mkjo0_si887 quick_test/data-fmllr-tri3/train/data/feats_fmllr_train.7.ark:7230052
msrg0_sx411 quick_test/data-fmllr-tri3/train/data/feats_fmllr_train.9.ark:17258633
mtwh1_sx162 quick_test/data-fmllr-tri3/train/data/feats_fmllr_train.10.ark:11674708
mcpm0_sx114 quick_test/data-fmllr-tri3/train/data/feats_fmllr_train.4.ark:12274240
msat1_sx263 quick_test/data-fmllr-tri3/train/data/feats_fmllr_train.9.ark:12353413
fcrz0_sx73 quick_test/data-fmllr-tri3/train/data/feats_fmllr_train.1.ark:8883854
mcdc0_sx32 quick_test/data-fmllr-tri3/train/data/feats_fmllr_train.4.ark:9256103
mdlr1_si1299 quick_test/data-fmllr-tri3/train/data/feats_fmllr_train.5.ark:5059635
flja0_sx358 quick_test/data-fmllr-tri3/train/data/feats_fmllr_train.2.ark:11051777
mdbb1_si2056 quick_test/data-fmllr-tri3/train/data/feats_fmllr_train.4.ark:15208106
mram0_si1275 quick_test/data-fmllr-tri3/train/data/feats_fmllr_train.8.ark:12136659
fhxs0_sx175 quick_test/data-fmllr-tri3/train/data/feats_fmllr_train.1.ark:18588164
mtrc0_sx93 quick_test/data-fmllr-tri3/train/data/feats_fmllr_train.10.ark:10774964
mjws0_sx333 quick_test/data-fmllr-tri3/train/data/feats_fmllr_train.7.ark:2644491
mfxv0_sx105 quick_test/data-fmllr-tri3/train/data/feats_fmllr_train.5.ark:16034970
flhd0_sx174 quick_test/data-fmllr-tri3/train/data/feats_fmllr_train.2.ark:10539345
fdjh0_sx35 quick_test/data-fmllr-tri3/train/data/feats_fmllr_train.1.ark:10751314
mrmh0_sx121 quick_test/data-fmllr-tri3/train/data/feats_fmllr_train.9.ark:6061430
flag0_sx24 quick_test/data-fmllr-tri3/train/data/feats_fmllr_train.2.ark:9512825
mrmg0_sx450 quick_test/data-fmllr-tri3/train/data/feats_fmllr_train.9.ark:5796333
mtat0_sx210 quick_test/data-fmllr-tri3/train/data/feats_fmllr_train.10.ark:1480133
mrms0_sx30 quick_test/data-fmllr-tri3/train/data/feats_fmllr_train.9.ark:6989598
marw0_si1906 quick_test/data-fmllr-tri3/train/data/feats_fmllr_train.4.ark:3016820
mfxs0_si2225 quick_test/data-fmllr-tri3/train/data/feats_fmllr_train.5.ark:15536937
fecd0_sx428 quick_test/data-fmllr-tri3/train/data/feats_fmllr_train.1.ark:14490871
fmmh0_sx187 quick_test/data-fmllr-tri3/train/data/feats_fmllr_train.2.ark:17703731
mtju0_sx40 quick_test/data-fmllr-tri3/train/data/feats_fmllr_train.10.ark:5580756
mtrr0_sx108 quick_test/data-fmllr-tri3/train/data/feats_fmllr_train.10.ark:10950114
mjlg1_sx382 quick_test/data-fmllr-tri3/train/data/feats_fmllr_train.6.ark:14611267
mdwh0_sx125 quick_test/data-fmllr-tri3/train/data/feats_fmllr_train.5.ark:10126060
mdsj0_si832 quick_test/data-fmllr-tri3/train/data/feats_fmllr_train.5.ark:8306227
mprt0_sx130 quick_test/data-fmllr-tri3/train/data/feats_fmllr_train.8.ark:10419656
mses0_si2219 quick_test/data-fmllr-tri3/train/data/feats_fmllr_train.9.ark:14253007
mmeb0_sx327 quick_test/data-fmllr-tri3/train/data/feats_fmllr_train.7.ark:17812929
fvfb0_sx222 quick_test/data-fmllr-tri3/train/data/feats_fmllr_train.3.ark:15930882
mljc0_sx235 quick_test/data-fmllr-tri3/train/data/feats_fmllr_train.7.ark:11149559
mrjb1_si1413 quick_test/data-fmllr-tri3/train/data/feats_fmllr_train.9.ark:841273
mjde0_sx220 quick_test/data-fmllr-tri3/train/data/feats_fmllr_train.6.ark:8995027
mrmb0_si1581 quick_test/data-fmllr-tri3/train/data/feats_fmllr_train.9.ark:5146512
fmbg0_sx3 quick_test/data-fmllr-tri3/train/data/feats_fmllr_train.2.ark:14909761
mjxa0_sx67 quick_test/data-fmllr-tri3/train/data/feats_fmllr_train.7.ark:3561298
mmvp0_sx204 quick_test/data-fmllr-tri3/train/data/feats_fmllr_train.8.ark:3217380
mdtb0_si1830 quick_test/data-fmllr-tri3/train/data/feats_fmllr_train.5.ark:9281891
mtdp0_sx441 quick_test/data-fmllr-tri3/train/data/feats_fmllr_train.10.ark:3576633
mbar0_sx149 quick_test/data-fmllr-tri3/train/data/feats_fmllr_train.4.ark:3512771
mdcd0_si1415 quick_test/data-fmllr-tri3/train/data/feats_fmllr_train.4.ark:15888805
mded0_sx270 quick_test/data-fmllr-tri3/train/data/feats_fmllr_train.4.ark:17222365
mtpg0_sx123 quick_test/data-fmllr-tri3/train/data/feats_fmllr_train.10.ark:8962950
mdwd0_sx180 quick_test/data-fmllr-tri3/train/data/feats_fmllr_train.5.ark:9729523
mrjm0_si1095 quick_test/data-fmllr-tri3/train/data/feats_fmllr_train.9.ark:1700559
msds0_si1707 quick_test/data-fmllr-tri3/train/data/feats_fmllr_train.9.ark:13282464
fblv0_sx338 quick_test/data-fmllr-tri3/train/data/feats_fmllr_train.1.ark:3930739
fsjs0_si1801 quick_test/data-fmllr-tri3/train/data/feats_fmllr_train.3.ark:9202311
mcew0_si1442 quick_test/data-fmllr-tri3/train/data/feats_fmllr_train.4.ark:10485769
fsjw0_si703 quick_test/data-fmllr-tri3/train/data/feats_fmllr_train.3.ark:9715035
mjai0_si682 quick_test/data-fmllr-tri3/train/data/feats_fmllr_train.6.ark:7310877
mdss0_sx351 quick_test/data-fmllr-tri3/train/data/feats_fmllr_train.5.ark:8778525
mrso0_sx219 quick_test/data-fmllr-tri3/train/data/feats_fmllr_train.9.ark:8121104
mgsl0_sx174 quick_test/data-fmllr-tri3/train/data/feats_fmllr_train.6.ark:2879853
mrvg0_sx60 quick_test/data-fmllr-tri3/train/data/feats_fmllr_train.9.ark:9954692
mtml0_sx75 quick_test/data-fmllr-tri3/train/data/feats_fmllr_train.10.ark:7603149
mjae0_sx174 quick_test/data-fmllr-tri3/train/data/feats_fmllr_train.6.ark:6984475
frjb0_si1427 quick_test/data-fmllr-tri3/train/data/feats_fmllr_train.3.ark:4352158
fsak0_sx40 quick_test/data-fmllr-tri3/train/data/feats_fmllr_train.3.ark:6244388
fljd0_sx76 quick_test/data-fmllr-tri3/train/data/feats_fmllr_train.2.ark:11535247
mnet0_sx96 quick_test/data-fmllr-tri3/train/data/feats_fmllr_train.8.ark:5278702
mkdd0_si937 quick_test/data-fmllr-tri3/train/data/feats_fmllr_train.7.ark:6078042
mwar0_si1675 quick_test/data-fmllr-tri3/train/data/feats_fmllr_train.10.ark:14246735
mcss0_sx120 quick_test/data-fmllr-tri3/train/data/feats_fmllr_train.4.ark:13021393
fkde0_sx61 quick_test/data-fmllr-tri3/train/data/feats_fmllr_train.2.ark:5995565
msat0_sx176 quick_test/data-fmllr-tri3/train/data/feats_fmllr_train.9.ark:11964848
mrcw0_sx201 quick_test/data-fmllr-tri3/train/data/feats_fmllr_train.8.ark:13901958
fsma0_sx181 quick_test/data-fmllr-tri3/train/data/feats_fmllr_train.3.ark:11632948
mtpr0_si2230 quick_test/data-fmllr-tri3/train/data/feats_fmllr_train.10.ark:9569570
mclm0_sx196 quick_test/data-fmllr-tri3/train/data/feats_fmllr_train.4.ark:11983036
feme0_sx155 quick_test/data-fmllr-tri3/train/data/feats_fmllr_train.1.ark:15155704
mpsw0_si1067 quick_test/data-fmllr-tri3/train/data/feats_fmllr_train.8.ark:10629231
fgcs0_si2116 quick_test/data-fmllr-tri3/train/data/feats_fmllr_train.1.ark:16290542
mjwt0_sx391 quick_test/data-fmllr-tri3/train/data/feats_fmllr_train.7.ark:3210041
mdlc1_sx85 quick_test/data-fmllr-tri3/train/data/feats_fmllr_train.5.ark:3537940
fdmy0_si1197 quick_test/data-fmllr-tri3/train/data/feats_fmllr_train.1.ark:11607485
mdac0_si631 quick_test/data-fmllr-tri3/train/data/feats_fmllr_train.4.ark:14444154
mdas0_sx21 quick_test/data-fmllr-tri3/train/data/feats_fmllr_train.4.ark:14970504
mrds0_sx447 quick_test/data-fmllr-tri3/train/data/feats_fmllr_train.8.ark:15059784
fcdr1_si1186 quick_test/data-fmllr-tri3/train/data/feats_fmllr_train.1.ark:5577768
mrcg0_sx348 quick_test/data-fmllr-tri3/train/data/feats_fmllr_train.8.ark:13506408
mjee0_si1237 quick_test/data-fmllr-tri3/train/data/feats_fmllr_train.6.ark:10834884
fmju0_si1389 quick_test/data-fmllr-tri3/train/data/feats_fmllr_train.2.ark:16331479
mdlb0_si1936 quick_test/data-fmllr-tri3/train/data/feats_fmllr_train.5.ark:2415104
mprb0_sx305 quick_test/data-fmllr-tri3/train/data/feats_fmllr_train.8.ark:9233780
mrgs0_si1986 quick_test/data-fmllr-tri3/train/data/feats_fmllr_train.9.ark:75081
mkag0_si979 quick_test/data-fmllr-tri3/train/data/feats_fmllr_train.7.ark:4114238
msjk0_sx66 quick_test/data-fmllr-tri3/train/data/feats_fmllr_train.9.ark:15787072
fjrp1_sx262 quick_test/data-fmllr-tri3/train/data/feats_fmllr_train.2.ark:3000685
mrre0_sx164 quick_test/data-fmllr-tri3/train/data/feats_fmllr_train.9.ark:7632379
mrbc0_si1859 quick_test/data-fmllr-tri3/train/data/feats_fmllr_train.8.ark:12894563
flod0_sx207 quick_test/data-fmllr-tri3/train/data/feats_fmllr_train.2.ark:13827376
fcmg0_si1242 quick_test/data-fmllr-tri3/train/data/feats_fmllr_train.1.ark:7858298
mrfl0_sx166 quick_test/data-fmllr-tri3/train/data/feats_fmllr_train.8.ark:17226126
mabc0_si2041 quick_test/data-fmllr-tri3/train/data/feats_fmllr_train.3.ark:16875292
mcae0_sx97 quick_test/data-fmllr-tri3/train/data/feats_fmllr_train.4.ark:8563216
mmsm0_sx296 quick_test/data-fmllr-tri3/train/data/feats_fmllr_train.8.ark:2882336
fajw0_si1893 quick_test/data-fmllr-tri3/train/data/feats_fmllr_train.1.ark:469858
mjbg0_sx242 quick_test/data-fmllr-tri3/train/data/feats_fmllr_train.6.ark:7820616
frll0_sx344 quick_test/data-fmllr-tri3/train/data/feats_fmllr_train.3.ark:4964671
mkag0_si1609 quick_test/data-fmllr-tri3/train/data/feats_fmllr_train.7.ark:4011783
fmem0_sx207 quick_test/data-fmllr-tri3/train/data/feats_fmllr_train.2.ark:15308698
fmju0_sx129 quick_test/data-fmllr-tri3/train/data/feats_fmllr_train.2.ark:16491241
mrlj0_sx250 quick_test/data-fmllr-tri3/train/data/feats_fmllr_train.9.ark:3912312
mklw0_si1571 quick_test/data-fmllr-tri3/train/data/feats_fmllr_train.7.ark:8990444
mtjs0_sx22 quick_test/data-fmllr-tri3/train/data/feats_fmllr_train.10.ark:5145952
fexm0_si1101 quick_test/data-fmllr-tri3/train/data/feats_fmllr_train.1.ark:15794776
mcef0_si842 quick_test/data-fmllr-tri3/train/data/feats_fmllr_train.4.ark:10211847
mfrm0_si1155 quick_test/data-fmllr-tri3/train/data/feats_fmllr_train.5.ark:14756634
mgag0_sx331 quick_test/data-fmllr-tri3/train/data/feats_fmllr_train.5.ark:16805697
mdlr1_sx309 quick_test/data-fmllr-tri3/train/data/feats_fmllr_train.5.ark:5324891
fscn0_si626 quick_test/data-fmllr-tri3/train/data/feats_fmllr_train.3.ark:6805968
fjwb1_si748 quick_test/data-fmllr-tri3/train/data/feats_fmllr_train.2.ark:4078695
fbmj0_si815 quick_test/data-fmllr-tri3/train/data/feats_fmllr_train.1.ark:4596531
mrcg0_sx78 quick_test/data-fmllr-tri3/train/data/feats_fmllr_train.8.ark:13644701
mdss1_sx157 quick_test/data-fmllr-tri3/train/data/feats_fmllr_train.5.ark:9039328
mdwh0_sx395 quick_test/data-fmllr-tri3/train/data/feats_fmllr_train.5.ark:10330327
mtrt0_sx237 quick_test/data-fmllr-tri3/train/data/feats_fmllr_train.10.ark:11405558
mrws0_sx112 quick_test/data-fmllr-tri3/train/data/feats_fmllr_train.9.ark:10512939
mjrh0_sx225 quick_test/data-fmllr-tri3/train/data/feats_fmllr_train.7.ark:217563
mmdm0_sx321 quick_test/data-fmllr-tri3/train/data/feats_fmllr_train.7.ark:16464728
fsak0_si1930 quick_test/data-fmllr-tri3/train/data/feats_fmllr_train.3.ark:6031134
mcdc0_si1922 quick_test/data-fmllr-tri3/train/data/feats_fmllr_train.4.ark:9029409
msmc0_sx287 quick_test/data-fmllr-tri3/train/data/feats_fmllr_train.9.ark:16123741
mdwm0_sx433 quick_test/data-fmllr-tri3/train/data/feats_fmllr_train.5.ark:10725744
mjmd0_si1028 quick_test/data-fmllr-tri3/train/data/feats_fmllr_train.6.ark:15419409
msem1_sx180 quick_test/data-fmllr-tri3/train/data/feats_fmllr_train.9.ark:13907696
fsgf0_sx207 quick_test/data-fmllr-tri3/train/data/feats_fmllr_train.3.ark:8150061
mtwh1_sx432 quick_test/data-fmllr-tri3/train/data/feats_fmllr_train.10.ark:11800229
mjwg0_sx445 quick_test/data-fmllr-tri3/train/data/feats_fmllr_train.7.ark:2322541
flod0_sx297 quick_test/data-fmllr-tri3/train/data/feats_fmllr_train.2.ark:13860523
mdbp0_sx258 quick_test/data-fmllr-tri3/train/data/feats_fmllr_train.4.ark:15674777
mtjm0_sx416 quick_test/data-fmllr-tri3/train/data/feats_fmllr_train.10.ark:4765123
mmgc0_si1935 quick_test/data-fmllr-tri3/train/data/feats_fmllr_train.8.ark:67561
mcef0_sx415 quick_test/data-fmllr-tri3/train/data/feats_fmllr_train.4.ark:10399315
fdaw0_si2036 quick_test/data-fmllr-tri3/train/data/feats_fmllr_train.1.ark:9848852
mhmg0_sx15 quick_test/data-fmllr-tri3/train/data/feats_fmllr_train.6.ark:4802082
fsah0_sx344 quick_test/data-fmllr-tri3/train/data/feats_fmllr_train.3.ark:5840465
mdac0_sx271 quick_test/data-fmllr-tri3/train/data/feats_fmllr_train.4.ark:14589328
fdas1_sx111 quick_test/data-fmllr-tri3/train/data/feats_fmllr_train.1.ark:9523061
mclm0_si1456 quick_test/data-fmllr-tri3/train/data/feats_fmllr_train.4.ark:11767541
fgcs0_sx226 quick_test/data-fmllr-tri3/train/data/feats_fmllr_train.1.ark:16438303
mdns0_sx21 quick_test/data-fmllr-tri3/train/data/feats_fmllr_train.5.ark:6554182
mtdp0_sx351 quick_test/data-fmllr-tri3/train/data/feats_fmllr_train.10.ark:3492766
mclm0_si826 quick_test/data-fmllr-tri3/train/data/feats_fmllr_train.4.ark:11860076
mpsw0_si2327 quick_test/data-fmllr-tri3/train/data/feats_fmllr_train.8.ark:10705287
mjae0_sx444 quick_test/data-fmllr-tri3/train/data/feats_fmllr_train.6.ark:7141836
fcag0_sx63 quick_test/data-fmllr-tri3/train/data/feats_fmllr_train.1.ark:5201683
fspm0_sx251 quick_test/data-fmllr-tri3/train/data/feats_fmllr_train.3.ark:12919386
mdas0_si1896 quick_test/data-fmllr-tri3/train/data/feats_fmllr_train.4.ark:14804504
mkls0_sx447 quick_test/data-fmllr-tri3/train/data/feats_fmllr_train.7.ark:8536253
mkdt0_sx263 quick_test/data-fmllr-tri3/train/data/feats_fmllr_train.7.ark:6541032
mdks0_si1066 quick_test/data-fmllr-tri3/train/data/feats_fmllr_train.5.ark:1926538
mjac0_si2148 quick_test/data-fmllr-tri3/train/data/feats_fmllr_train.6.ark:6518923
mapv0_si1923 quick_test/data-fmllr-tri3/train/data/feats_fmllr_train.4.ark:2321186
fspm0_si611 quick_test/data-fmllr-tri3/train/data/feats_fmllr_train.3.ark:12823172
fhxs0_sx85 quick_test/data-fmllr-tri3/train/data/feats_fmllr_train.1.ark:18790351
mclk0_sx400 quick_test/data-fmllr-tri3/train/data/feats_fmllr_train.4.ark:11725433
mpar0_sx136 quick_test/data-fmllr-tri3/train/data/feats_fmllr_train.8.ark:5860150
mwad0_sx162 quick_test/data-fmllr-tri3/train/data/feats_fmllr_train.10.ark:13985292
fmbg0_si1160 quick_test/data-fmllr-tri3/train/data/feats_fmllr_train.2.ark:14706933
mchl0_sx177 quick_test/data-fmllr-tri3/train/data/feats_fmllr_train.4.ark:11151989
mmdg0_si2035 quick_test/data-fmllr-tri3/train/data/feats_fmllr_train.7.ark:15895283
mtkp0_si1023 quick_test/data-fmllr-tri3/train/data/feats_fmllr_train.10.ark:6092548
mrab1_sx218 quick_test/data-fmllr-tri3/train/data/feats_fmllr_train.8.ark:11517774
fkaa0_sx218 quick_test/data-fmllr-tri3/train/data/feats_fmllr_train.2.ark:5389507
mklr0_sx159 quick_test/data-fmllr-tri3/train/data/feats_fmllr_train.7.ark:7986034
mewm0_si1348 quick_test/data-fmllr-tri3/train/data/feats_fmllr_train.5.ark:13692783
fdaw0_si1271 quick_test/data-fmllr-tri3/train/data/feats_fmllr_train.1.ark:9731036
mstf0_sx316 quick_test/data-fmllr-tri3/train/data/feats_fmllr_train.9.ark:17994718
mmdm1_si1650 quick_test/data-fmllr-tri3/train/data/feats_fmllr_train.7.ark:16622089
fmmh0_sx7 quick_test/data-fmllr-tri3/train/data/feats_fmllr_train.2.ark:17844290
fklc0_si985 quick_test/data-fmllr-tri3/train/data/feats_fmllr_train.2.ark:7365899
mjdm0_sx80 quick_test/data-fmllr-tri3/train/data/feats_fmllr_train.6.ark:10004662
fkkh0_si1920 quick_test/data-fmllr-tri3/train/data/feats_fmllr_train.2.ark:6962455
mdem0_sx158 quick_test/data-fmllr-tri3/train/data/feats_fmllr_train.5.ark:547832
fvfb0_sx132 quick_test/data-fmllr-tri3/train/data/feats_fmllr_train.3.ark:15891335
mrab1_si848 quick_test/data-fmllr-tri3/train/data/feats_fmllr_train.8.ark:11411640
mtpf0_sx155 quick_test/data-fmllr-tri3/train/data/feats_fmllr_train.10.ark:8596813
fcjs0_si2237 quick_test/data-fmllr-tri3/train/data/feats_fmllr_train.1.ark:6728207
mabc0_sx331 quick_test/data-fmllr-tri3/train/data/feats_fmllr_train.3.ark:17059720
fjlr0_sx61 quick_test/data-fmllr-tri3/train/data/feats_fmllr_train.2.ark:2327691
fbjl0_sx292 quick_test/data-fmllr-tri3/train/data/feats_fmllr_train.1.ark:3556307
mklw0_sx131 quick_test/data-fmllr-tri3/train/data/feats_fmllr_train.7.ark:9127007
mdbp0_si528 quick_test/data-fmllr-tri3/train/data/feats_fmllr_train.4.ark:15555843
mjdc0_sx441 quick_test/data-fmllr-tri3/train/data/feats_fmllr_train.6.ark:8660145
mmws0_sx78 quick_test/data-fmllr-tri3/train/data/feats_fmllr_train.8.ark:4271814
mrdd0_sx277 quick_test/data-fmllr-tri3/train/data/feats_fmllr_train.8.ark:14270843
mpmb0_si1501 quick_test/data-fmllr-tri3/train/data/feats_fmllr_train.8.ark:7881690
mkrg0_sx31 quick_test/data-fmllr-tri3/train/data/feats_fmllr_train.7.ark:9650157
fvfb0_sx312 quick_test/data-fmllr-tri3/train/data/feats_fmllr_train.3.ark:15971069
mmws1_si1701 quick_test/data-fmllr-tri3/train/data/feats_fmllr_train.8.ark:4364830
mjee0_si607 quick_test/data-fmllr-tri3/train/data/feats_fmllr_train.6.ark:10931259
fntb0_sx213 quick_test/data-fmllr-tri3/train/data/feats_fmllr_train.3.ark:585618
mkes0_sx443 quick_test/data-fmllr-tri3/train/data/feats_fmllr_train.7.ark:7061143
feme0_si1505 quick_test/data-fmllr-tri3/train/data/feats_fmllr_train.1.ark:14992742
mdpb0_sx56 quick_test/data-fmllr-tri3/train/data/feats_fmllr_train.5.ark:7025813
fclt0_si808 quick_test/data-fmllr-tri3/train/data/feats_fmllr_train.1.ark:7470268
mrfk0_si1706 quick_test/data-fmllr-tri3/train/data/feats_fmllr_train.8.ark:16782494
fmkc0_sx172 quick_test/data-fmllr-tri3/train/data/feats_fmllr_train.2.ark:16873059
mrgs0_sx366 quick_test/data-fmllr-tri3/train/data/feats_fmllr_train.9.ark:257589
mcae0_sx367 quick_test/data-fmllr-tri3/train/data/feats_fmllr_train.4.ark:8442685
msas0_sx386 quick_test/data-fmllr-tri3/train/data/feats_fmllr_train.9.ark:11814818
mrld0_sx154 quick_test/data-fmllr-tri3/train/data/feats_fmllr_train.9.ark:3529028
mrds0_si537 quick_test/data-fmllr-tri3/train/data/feats_fmllr_train.8.ark:14869436
mtlb0_sx234 quick_test/data-fmllr-tri3/train/data/feats_fmllr_train.10.ark:6680074
mlel0_sx76 quick_test/data-fmllr-tri3/train/data/feats_fmllr_train.7.ark:10886382
fmkc0_sx442 quick_test/data-fmllr-tri3/train/data/feats_fmllr_train.2.ark:17034900
mjai0_sx254 quick_test/data-fmllr-tri3/train/data/feats_fmllr_train.6.ark:7506318
mrjb1_si1020 quick_test/data-fmllr-tri3/train/data/feats_fmllr_train.9.ark:783805
fspm0_sx71 quick_test/data-fmllr-tri3/train/data/feats_fmllr_train.3.ark:13084586
mmeb0_si1987 quick_test/data-fmllr-tri3/train/data/feats_fmllr_train.7.ark:17716848
mrmb0_sx51 quick_test/data-fmllr-tri3/train/data/feats_fmllr_train.9.ark:5470381
mrkm0_sx7 quick_test/data-fmllr-tri3/train/data/feats_fmllr_train.9.ark:3287132
fclt0_sx448 quick_test/data-fmllr-tri3/train/data/feats_fmllr_train.1.ark:7684776
mjrh1_si1774 quick_test/data-fmllr-tri3/train/data/feats_fmllr_train.7.ark:461219
mtas0_si755 quick_test/data-fmllr-tri3/train/data/feats_fmllr_train.10.ark:1021942
fcrz0_si793 quick_test/data-fmllr-tri3/train/data/feats_fmllr_train.1.ark:8665800
mrws0_sx382 quick_test/data-fmllr-tri3/train/data/feats_fmllr_train.9.ark:10662166
mprd0_si2061 quick_test/data-fmllr-tri3/train/data/feats_fmllr_train.8.ark:9443649
fcmg0_sx72 quick_test/data-fmllr-tri3/train/data/feats_fmllr_train.1.ark:8160380
mfrm0_sx75 quick_test/data-fmllr-tri3/train/data/feats_fmllr_train.5.ark:15087064
mklr0_si2319 quick_test/data-fmllr-tri3/train/data/feats_fmllr_train.7.ark:7958807
fmkf0_sx276 quick_test/data-fmllr-tri3/train/data/feats_fmllr_train.2.ark:17344503
fajw0_si1263 quick_test/data-fmllr-tri3/train/data/feats_fmllr_train.1.ark:390310
mjmm0_sx265 quick_test/data-fmllr-tri3/train/data/feats_fmllr_train.6.ark:15956216
mtab0_sx132 quick_test/data-fmllr-tri3/train/data/feats_fmllr_train.10.ark:666392
mjhi0_si1328 quick_test/data-fmllr-tri3/train/data/feats_fmllr_train.6.ark:11946575
mjlb0_si2246 quick_test/data-fmllr-tri3/train/data/feats_fmllr_train.6.ark:14017128
mdjm0_si825 quick_test/data-fmllr-tri3/train/data/feats_fmllr_train.5.ark:1679496
fdml0_si1149 quick_test/data-fmllr-tri3/train/data/feats_fmllr_train.1.ark:11281667
mmar0_si1966 quick_test/data-fmllr-tri3/train/data/feats_fmllr_train.7.ark:14239695
mljc0_si1855 quick_test/data-fmllr-tri3/train/data/feats_fmllr_train.7.ark:11026438
mmdm1_si783 quick_test/data-fmllr-tri3/train/data/feats_fmllr_train.7.ark:16685824
mkjo0_sx167 quick_test/data-fmllr-tri3/train/data/feats_fmllr_train.7.ark:7272159
fsbk0_sx79 quick_test/data-fmllr-tri3/train/data/feats_fmllr_train.3.ark:6700153
fcyl0_sx37 quick_test/data-fmllr-tri3/train/data/feats_fmllr_train.1.ark:9236844
mgsl0_sx444 quick_test/data-fmllr-tri3/train/data/feats_fmllr_train.6.ark:3032734
mmab1_sx144 quick_test/data-fmllr-tri3/train/data/feats_fmllr_train.7.ark:13144057
mjlb0_sx266 quick_test/data-fmllr-tri3/train/data/feats_fmllr_train.6.ark:14146969
mrjm0_si1228 quick_test/data-fmllr-tri3/train/data/feats_fmllr_train.9.ark:1734827
mstf0_si852 quick_test/data-fmllr-tri3/train/data/feats_fmllr_train.9.ark:17814317
mdpk0_si552 quick_test/data-fmllr-tri3/train/data/feats_fmllr_train.5.ark:7156456
fdnc0_sx198 quick_test/data-fmllr-tri3/train/data/feats_fmllr_train.1.ark:12430877
mrab1_sx38 quick_test/data-fmllr-tri3/train/data/feats_fmllr_train.8.ark:11616707
mdpb0_si866 quick_test/data-fmllr-tri3/train/data/feats_fmllr_train.5.ark:6785039
flac0_sx91 quick_test/data-fmllr-tri3/train/data/feats_fmllr_train.2.ark:9180182
mhxl0_sx152 quick_test/data-fmllr-tri3/train/data/feats_fmllr_train.6.ark:5853906
milb0_sx3 quick_test/data-fmllr-tri3/train/data/feats_fmllr_train.6.ark:6364894
fcmm0_sx93 quick_test/data-fmllr-tri3/train/data/feats_fmllr_train.1.ark:8528917
fntb0_sx33 quick_test/data-fmllr-tri3/train/data/feats_fmllr_train.3.ark:660231
fvmh0_sx386 quick_test/data-fmllr-tri3/train/data/feats_fmllr_train.3.ark:16820836
fnkl0_sx262 quick_test/data-fmllr-tri3/train/data/feats_fmllr_train.3.ark:236469
mreh1_sx249 quick_test/data-fmllr-tri3/train/data/feats_fmllr_train.8.ark:15770085
mabc0_sx241 quick_test/data-fmllr-tri3/train/data/feats_fmllr_train.3.ark:17028013
mkaj0_si2044 quick_test/data-fmllr-tri3/train/data/feats_fmllr_train.7.ark:4846644
fpaf0_si1684 quick_test/data-fmllr-tri3/train/data/feats_fmllr_train.3.ark:2116645
mjde0_sx400 quick_test/data-fmllr-tri3/train/data/feats_fmllr_train.6.ark:9187907
fntb0_sx393 quick_test/data-fmllr-tri3/train/data/feats_fmllr_train.3.ark:702978
mfxs0_si1674 quick_test/data-fmllr-tri3/train/data/feats_fmllr_train.5.ark:15497229
fsbk0_sx169 quick_test/data-fmllr-tri3/train/data/feats_fmllr_train.3.ark:6455886
freh0_sx325 quick_test/data-fmllr-tri3/train/data/feats_fmllr_train.3.ark:4244077
mkag0_sx439 quick_test/data-fmllr-tri3/train/data/feats_fmllr_train.7.ark:4317385
fsma0_sx91 quick_test/data-fmllr-tri3/train/data/feats_fmllr_train.3.ark:11852895
mtkp0_sx123 quick_test/data-fmllr-tri3/train/data/feats_fmllr_train.10.ark:6293590
mtcs0_si2265 quick_test/data-fmllr-tri3/train/data/feats_fmllr_train.10.ark:2471903
mjrk0_si2103 quick_test/data-fmllr-tri3/train/data/feats_fmllr_train.7.ark:792316
mrpc1_si1482 quick_test/data-fmllr-tri3/train/data/feats_fmllr_train.9.ark:7091440
mmbs0_sx251 quick_test/data-fmllr-tri3/train/data/feats_fmllr_train.7.ark:14880313
fapb0_si1063 quick_test/data-fmllr-tri3/train/data/feats_fmllr_train.1.ark:1568716
mtpr0_si506 quick_test/data-fmllr-tri3/train/data/feats_fmllr_train.10.ark:9650717
fbmh0_sx416 quick_test/data-fmllr-tri3/train/data/feats_fmllr_train.1.ark:4376423
fsmm0_sx234 quick_test/data-fmllr-tri3/train/data/feats_fmllr_train.3.ark:12071592
mbom0_sx204 quick_test/data-fmllr-tri3/train/data/feats_fmllr_train.4.ark:6846752
fsgf0_sx27 quick_test/data-fmllr-tri3/train/data/feats_fmllr_train.3.ark:8184327
mtat0_sx300 quick_test/data-fmllr-tri3/train/data/feats_fmllr_train.10.ark:1542586
fjrp1_sx172 quick_test/data-fmllr-tri3/train/data/feats_fmllr_train.2.ark:2942258
mtjg0_si2157 quick_test/data-fmllr-tri3/train/data/feats_fmllr_train.10.ark:4119491
mjeb1_sx207 quick_test/data-fmllr-tri3/train/data/feats_fmllr_train.6.ark:10667256
mcae0_si1447 quick_test/data-fmllr-tri3/train/data/feats_fmllr_train.4.ark:8108629
mmdm1_sx63 quick_test/data-fmllr-tri3/train/data/feats_fmllr_train.7.ark:16973158
fbjl0_si922 quick_test/data-fmllr-tri3/train/data/feats_fmllr_train.1.ark:3364680
mrsp0_sx196 quick_test/data-fmllr-tri3/train/data/feats_fmllr_train.9.ark:8576361
mrfl0_si1156 quick_test/data-fmllr-tri3/train/data/feats_fmllr_train.8.ark:17052284
fpmy0_sx163 quick_test/data-fmllr-tri3/train/data/feats_fmllr_train.3.ark:3776446
msdh0_si2240 quick_test/data-fmllr-tri3/train/data/feats_fmllr_train.9.ark:12821927
ftlg0_sx303 quick_test/data-fmllr-tri3/train/data/feats_fmllr_train.3.ark:15263434
mcdd0_sx73 quick_test/data-fmllr-tri3/train/data/feats_fmllr_train.4.ark:9647227
mhbs0_sx135 quick_test/data-fmllr-tri3/train/data/feats_fmllr_train.6.ark:3722524
mwrp0_sx363 quick_test/data-fmllr-tri3/train/data/feats_fmllr_train.10.ark:16707215
fear0_si1882 quick_test/data-fmllr-tri3/train/data/feats_fmllr_train.1.ark:13784759
marw0_sx16 quick_test/data-fmllr-tri3/train/data/feats_fmllr_train.4.ark:3135300
mrlj1_si2301 quick_test/data-fmllr-tri3/train/data/feats_fmllr_train.9.ark:4108768
mtkp0_si2283 quick_test/data-fmllr-tri3/train/data/feats_fmllr_train.10.ark:6139936
mpmb0_sx61 quick_test/data-fmllr-tri3/train/data/feats_fmllr_train.8.ark:8466039
fjwb1_sx255 quick_test/data-fmllr-tri3/train/data/feats_fmllr_train.2.ark:4233496
mdmt0_sx32 quick_test/data-fmllr-tri3/train/data/feats_fmllr_train.5.ark:6189992
mljh0_sx154 quick_test/data-fmllr-tri3/train/data/feats_fmllr_train.7.ark:11557909
feac0_sx435 quick_test/data-fmllr-tri3/train/data/feats_fmllr_train.1.ark:13642117
mmcc0_si708 quick_test/data-fmllr-tri3/train/data/feats_fmllr_train.7.ark:15207196
mbma0_sx52 quick_test/data-fmllr-tri3/train/data/feats_fmllr_train.4.ark:5871300
mfer0_sx322 quick_test/data-fmllr-tri3/train/data/feats_fmllr_train.5.ark:14236496
mrmh0_sx391 quick_test/data-fmllr-tri3/train/data/feats_fmllr_train.9.ark:6216737
mmlm0_si2150 quick_test/data-fmllr-tri3/train/data/feats_fmllr_train.8.ark:1458991
mprk0_sx17 quick_test/data-fmllr-tri3/train/data/feats_fmllr_train.8.ark:10070826
mtqc0_si2071 quick_test/data-fmllr-tri3/train/data/feats_fmllr_train.10.ark:10067867
mpfu0_sx358 quick_test/data-fmllr-tri3/train/data/feats_fmllr_train.8.ark:6665598
mtxs0_sx430 quick_test/data-fmllr-tri3/train/data/feats_fmllr_train.10.ark:12226847
mtpr0_sx160 quick_test/data-fmllr-tri3/train/data/feats_fmllr_train.10.ark:9679544
mpfu0_si628 quick_test/data-fmllr-tri3/train/data/feats_fmllr_train.8.ark:6519437
mgak0_sx406 quick_test/data-fmllr-tri3/train/data/feats_fmllr_train.5.ark:17254582
fksr0_si1117 quick_test/data-fmllr-tri3/train/data/feats_fmllr_train.2.ark:8479456
medr0_sx24 quick_test/data-fmllr-tri3/train/data/feats_fmllr_train.5.ark:11318925
fpjf0_si1676 quick_test/data-fmllr-tri3/train/data/feats_fmllr_train.3.ark:2938227
fjlg0_sx269 quick_test/data-fmllr-tri3/train/data/feats_fmllr_train.2.ark:1793154
mkls1_sx195 quick_test/data-fmllr-tri3/train/data/feats_fmllr_train.7.ark:8868442
