msrg0_sx231 quick_test/data-fmllr-tri3/train/data/feats_fmllr_train.9.ark:17180979
fpad0_si1346 quick_test/data-fmllr-tri3/train/data/feats_fmllr_train.3.ark:1604880
fsjs0_si1801 quick_test/data-fmllr-tri3/train/data/feats_fmllr_train.3.ark:9202311
mjee0_sx337 quick_test/data-fmllr-tri3/train/data/feats_fmllr_train.6.ark:11061420
mmar0_sx346 quick_test/data-fmllr-tri3/train/data/feats_fmllr_train.7.ark:14495963
fsbk0_sx169 quick_test/data-fmllr-tri3/train/data/feats_fmllr_train.3.ark:6455886
faem0_sx402 quick_test/data-fmllr-tri3/train/data/feats_fmllr_train.1.ark:304336
fdml0_si2075 quick_test/data-fmllr-tri3/train/data/feats_fmllr_train.1.ark:11379483
fdjh0_sx305 quick_test/data-fmllr-tri3/train/data/feats_fmllr_train.1.ark:10710008
fsbk0_sx79 quick_test/data-fmllr-tri3/train/data/feats_fmllr_train.3.ark:6700153
fsjw0_sx253 quick_test/data-fmllr-tri3/train/data/feats_fmllr_train.3.ark:9799569
mdma0_sx80 quick_test/data-fmllr-tri3/train/data/feats_fmllr_train.5.ark:5889962
fjrb0_sx42 quick_test/data-fmllr-tri3/train/data/feats_fmllr_train.2.ark:2727588
fdaw0_sx146 quick_test/data-fmllr-tri3/train/data/feats_fmllr_train.1.ark:9925199
mtlc0_sx37 quick_test/data-fmllr-tri3/train/data/feats_fmllr_train.10.ark:7155704
flma0_si1243 quick_test/data-fmllr-tri3/train/data/feats_fmllr_train.2.ark:12481788
flma0_sx343 quick_test/data-fmllr-tri3/train/data/feats_fmllr_train.2.ark:12687844
fsjk1_sx215 quick_test/data-fmllr-tri3/train/data/feats_fmllr_train.3.ark:8999775
flmk0_sx405 quick_test/data-fmllr-tri3/train/data/feats_fmllr_train.2.ark:13496786
fcmg0_sx252 quick_test/data-fmllr-tri3/train/data/feats_fmllr_train.1.ark:7998540
mtpp0_sx428 quick_test/data-fmllr-tri3/train/data/feats_fmllr_train.10.ark:9427408
mrre0_sx164 quick_test/data-fmllr-tri3/train/data/feats_fmllr_train.9.ark:7632379
mrre0_si1334 quick_test/data-fmllr-tri3/train/data/feats_fmllr_train.9.ark:7416938
mlns0_si777 quick_test/data-fmllr-tri3/train/data/feats_fmllr_train.7.ark:11924979
mjfh0_sx387 quick_test/data-fmllr-tri3/train/data/feats_fmllr_train.6.ark:11481370
mkah0_sx88 quick_test/data-fmllr-tri3/train/data/feats_fmllr_train.7.ark:4757948
fdaw0_si1406 quick_test/data-fmllr-tri3/train/data/feats_fmllr_train.1.ark:9808504
mhbs0_sx315 quick_test/data-fmllr-tri3/train/data/feats_fmllr_train.6.ark:3798098
mfwk0_sx79 quick_test/data-fmllr-tri3/train/data/feats_fmllr_train.5.ark:15453841
mwsh0_si2266 quick_test/data-fmllr-tri3/train/data/feats_fmllr_train.10.ark:17211512
mmdg0_sx430 quick_test/data-fmllr-tri3/train/data/feats_fmllr_train.7.ark:16153658
fsmm0_sx324 quick_test/data-fmllr-tri3/train/data/feats_fmllr_train.3.ark:12132259
mkdd0_sx37 quick_test/data-fmllr-tri3/train/data/feats_fmllr_train.7.ark:6230309
mmws0_sx258 quick_test/data-fmllr-tri3/train/data/feats_fmllr_train.8.ark:4110934
flod0_sx387 quick_test/data-fmllr-tri3/train/data/feats_fmllr_train.2.ark:13891750
fcke0_si1111 quick_test/data-fmllr-tri3/train/data/feats_fmllr_train.1.ark:7059756
fsak0_sx130 quick_test/data-fmllr-tri3/train/data/feats_fmllr_train.3.ark:6105268
fclt0_si808 quick_test/data-fmllr-tri3/train/data/feats_fmllr_train.1.ark:7470268
mfer0_sx412 quick_test/data-fmllr-tri3/train/data/feats_fmllr_train.5.ark:14270283
mdpk0_si1683 quick_test/data-fmllr-tri3/train/data/feats_fmllr_train.5.ark:7125709
mdef0_si1123 quick_test/data-fmllr-tri3/train/data/feats_fmllr_train.5.ark:13
mafm0_si1569 quick_test/data-fmllr-tri3/train/data/feats_fmllr_train.4.ark:746368
fmjf0_si1884 quick_test/data-fmllr-tri3/train/data/feats_fmllr_train.2.ark:15956250
mmdb0_sx177 quick_test/data-fmllr-tri3/train/data/feats_fmllr_train.7.ark:15631440
mjrh1_sx334 quick_test/data-fmllr-tri3/train/data/feats_fmllr_train.7.ark:646287
mdpb0_sx146 quick_test/data-fmllr-tri3/train/data/feats_fmllr_train.5.ark:6857066
mjjb0_sx149 quick_test/data-fmllr-tri3/train/data/feats_fmllr_train.6.ark:12470554
mjma0_sx55 quick_test/data-fmllr-tri3/train/data/feats_fmllr_train.6.ark:15374101
mses0_sx149 quick_test/data-fmllr-tri3/train/data/feats_fmllr_train.9.ark:14300074
fpac0_sx301 quick_test/data-fmllr-tri3/train/data/feats_fmllr_train.3.ark:1474239
marw0_sx106 quick_test/data-fmllr-tri3/train/data/feats_fmllr_train.4.ark:3088554
mhmr0_sx39 quick_test/data-fmllr-tri3/train/data/feats_fmllr_train.6.ark:5277873
fdnc0_sx378 quick_test/data-fmllr-tri3/train/data/feats_fmllr_train.1.ark:12532691
mrdm0_sx335 quick_test/data-fmllr-tri3/train/data/feats_fmllr_train.8.ark:14653940
falk0_si658 quick_test/data-fmllr-tri3/train/data/feats_fmllr_train.1.ark:905779
mtml0_sx165 quick_test/data-fmllr-tri3/train/data/feats_fmllr_train.10.ark:7399842
mbsb0_si723 quick_test/data-fmllr-tri3/train/data/feats_fmllr_train.4.ark:7093636
mtcs0_sx262 quick_test/data-fmllr-tri3/train/data/feats_fmllr_train.10.ark:2627504
mmrp0_sx144 quick_test/data-fmllr-tri3/train/data/feats_fmllr_train.8.ark:2272599
ftbw0_si1345 quick_test/data-fmllr-tri3/train/data/feats_fmllr_train.3.ark:14590442
mrdd0_si2310 quick_test/data-fmllr-tri3/train/data/feats_fmllr_train.8.ark:14155082
mmjb1_si2038 quick_test/data-fmllr-tri3/train/data/feats_fmllr_train.8.ark:1082614
fmbg0_si2264 quick_test/data-fmllr-tri3/train/data/feats_fmllr_train.2.ark:14828109
mesj0_sx277 quick_test/data-fmllr-tri3/train/data/feats_fmllr_train.5.ark:13550757
mjjb0_sx329 quick_test/data-fmllr-tri3/train/data/feats_fmllr_train.6.ark:12580528
msms0_si1433 quick_test/data-fmllr-tri3/train/data/feats_fmllr_train.9.ark:16600333
mejs0_si610 quick_test/data-fmllr-tri3/train/data/feats_fmllr_train.5.ark:12703229
mmwb0_sx359 quick_test/data-fmllr-tri3/train/data/feats_fmllr_train.8.ark:3742905
mkes0_si1883 quick_test/data-fmllr-tri3/train/data/feats_fmllr_train.7.ark:6777168
fdjh0_si2195 quick_test/data-fmllr-tri3/train/data/feats_fmllr_train.1.ark:10510860
mkes0_sx443 quick_test/data-fmllr-tri3/train/data/feats_fmllr_train.7.ark:7061143
fcmm0_sx273 quick_test/data-fmllr-tri3/train/data/feats_fmllr_train.1.ark:8376837
mmcc0_sx168 quick_test/data-fmllr-tri3/train/data/feats_fmllr_train.7.ark:15258263
mljc0_si595 quick_test/data-fmllr-tri3/train/data/feats_fmllr_train.7.ark:11057825
mlbc0_sx429 quick_test/data-fmllr-tri3/train/data/feats_fmllr_train.7.ark:10408219
mdtb0_sx390 quick_test/data-fmllr-tri3/train/data/feats_fmllr_train.5.ark:9538693
mdef0_sx33 quick_test/data-fmllr-tri3/train/data/feats_fmllr_train.5.ark:274256
mkah0_si1528 quick_test/data-fmllr-tri3/train/data/feats_fmllr_train.7.ark:4423519
mdcm0_si1480 quick_test/data-fmllr-tri3/train/data/feats_fmllr_train.4.ark:16264542
mmbs0_sx161 quick_test/data-fmllr-tri3/train/data/feats_fmllr_train.7.ark:14812126
fdas1_si2091 quick_test/data-fmllr-tri3/train/data/feats_fmllr_train.1.ark:9407647
mjws0_sx153 quick_test/data-fmllr-tri3/train/data/feats_fmllr_train.7.ark:2531797
mjra0_si1236 quick_test/data-fmllr-tri3/train/data/feats_fmllr_train.6.ark:17223375
frll0_sx344 quick_test/data-fmllr-tri3/train/data/feats_fmllr_train.3.ark:4964671
mdlb0_si676 quick_test/data-fmllr-tri3/train/data/feats_fmllr_train.5.ark:2461851
mmdm0_si1311 quick_test/data-fmllr-tri3/train/data/feats_fmllr_train.7.ark:16233392
mbcg0_si957 quick_test/data-fmllr-tri3/train/data/feats_fmllr_train.4.ark:4183098
fdnc0_sx18 quick_test/data-fmllr-tri3/train/data/feats_fmllr_train.1.ark:12379810
mtjg0_sx440 quick_test/data-fmllr-tri3/train/data/feats_fmllr_train.10.ark:4377226
mdwh0_sx125 quick_test/data-fmllr-tri3/train/data/feats_fmllr_train.5.ark:10126060
fdkn0_sx271 quick_test/data-fmllr-tri3/train/data/feats_fmllr_train.1.ark:11062839
mljh0_si1422 quick_test/data-fmllr-tri3/train/data/feats_fmllr_train.7.ark:11379455
fsdc0_si1942 quick_test/data-fmllr-tri3/train/data/feats_fmllr_train.3.ark:7291145
mjrh0_sx315 quick_test/data-fmllr-tri3/train/data/feats_fmllr_train.7.ark:249910
mtmt0_si488 quick_test/data-fmllr-tri3/train/data/feats_fmllr_train.10.ark:8153369
msrr0_sx30 quick_test/data-fmllr-tri3/train/data/feats_fmllr_train.9.ark:17604582
mfmc0_sx232 quick_test/data-fmllr-tri3/train/data/feats_fmllr_train.5.ark:14557166
mmdb0_si1617 quick_test/data-fmllr-tri3/train/data/feats_fmllr_train.7.ark:15537946
fklc0_sx445 quick_test/data-fmllr-tri3/train/data/feats_fmllr_train.2.ark:7620887
mdhl0_sx269 quick_test/data-fmllr-tri3/train/data/feats_fmllr_train.5.ark:1017356
fklc0_si2245 quick_test/data-fmllr-tri3/train/data/feats_fmllr_train.2.ark:7334352
mwre0_si1057 quick_test/data-fmllr-tri3/train/data/feats_fmllr_train.10.ark:16027155
mmdm1_si2043 quick_test/data-fmllr-tri3/train/data/feats_fmllr_train.7.ark:16651077
mdss0_sx261 quick_test/data-fmllr-tri3/train/data/feats_fmllr_train.5.ark:8753058
milb0_sx183 quick_test/data-fmllr-tri3/train/data/feats_fmllr_train.6.ark:6286602
mrai0_sx162 quick_test/data-fmllr-tri3/train/data/feats_fmllr_train.8.ark:11888204
ftmg0_sx182 quick_test/data-fmllr-tri3/train/data/feats_fmllr_train.3.ark:15527117
fjkl0_sx122 quick_test/data-fmllr-tri3/train/data/feats_fmllr_train.2.ark:1371469
msfh0_sx46 quick_test/data-fmllr-tri3/train/data/feats_fmllr_train.9.ark:14934158
mcxm0_si721 quick_test/data-fmllr-tri3/train/data/feats_fmllr_train.4.ark:14093697
mrjm0_sx418 quick_test/data-fmllr-tri3/train/data/feats_fmllr_train.9.ark:1985523
mdas0_sx276 quick_test/data-fmllr-tri3/train/data/feats_fmllr_train.4.ark:14999011
mcre0_sx24 quick_test/data-fmllr-tri3/train/data/feats_fmllr_train.4.ark:12692911
mcew0_si1442 quick_test/data-fmllr-tri3/train/data/feats_fmllr_train.4.ark:10485769
mjda0_sx401 quick_test/data-fmllr-tri3/train/data/feats_fmllr_train.6.ark:8273528
falr0_sx155 quick_test/data-fmllr-tri3/train/data/feats_fmllr_train.1.ark:1348261
fmem0_sx117 quick_test/data-fmllr-tri3/train/data/feats_fmllr_train.2.ark:15257311
mwch0_si1895 quick_test/data-fmllr-tri3/train/data/feats_fmllr_train.10.ark:14589353
mkdt0_sx173 quick_test/data-fmllr-tri3/train/data/feats_fmllr_train.7.ark:6480045
medr0_si2004 quick_test/data-fmllr-tri3/train/data/feats_fmllr_train.5.ark:11117058
mcae0_sx97 quick_test/data-fmllr-tri3/train/data/feats_fmllr_train.4.ark:8563216
mklw0_sx131 quick_test/data-fmllr-tri3/train/data/feats_fmllr_train.7.ark:9127007
mjxa0_si2137 quick_test/data-fmllr-tri3/train/data/feats_fmllr_train.7.ark:3309617
mrvg0_sx420 quick_test/data-fmllr-tri3/train/data/feats_fmllr_train.9.ark:9898986
mtmt0_si1748 quick_test/data-fmllr-tri3/train/data/feats_fmllr_train.10.ark:8114302
mrld0_si964 quick_test/data-fmllr-tri3/train/data/feats_fmllr_train.9.ark:3471401
fsls0_si1056 quick_test/data-fmllr-tri3/train/data/feats_fmllr_train.3.ark:11094088
mjai0_sx254 quick_test/data-fmllr-tri3/train/data/feats_fmllr_train.6.ark:7506318
fnkl0_sx82 quick_test/data-fmllr-tri3/train/data/feats_fmllr_train.3.ark:328522
fvfb0_sx42 quick_test/data-fmllr-tri3/train/data/feats_fmllr_train.3.ark:16067762
mzmb0_si1796 quick_test/data-fmllr-tri3/train/data/feats_fmllr_train.10.ark:17657489
fsls0_sx246 quick_test/data-fmllr-tri3/train/data/feats_fmllr_train.3.ark:11347825
mree0_sx24 quick_test/data-fmllr-tri3/train/data/feats_fmllr_train.8.ark:15405094
mbar0_si689 quick_test/data-fmllr-tri3/train/data/feats_fmllr_train.4.ark:3455784
mjlb0_sx86 quick_test/data-fmllr-tri3/train/data/feats_fmllr_train.6.ark:14267369
mdks0_sx76 quick_test/data-fmllr-tri3/train/data/feats_fmllr_train.5.ark:2257768
mctm0_sx360 quick_test/data-fmllr-tri3/train/data/feats_fmllr_train.4.ark:13857721
fjxm0_si1971 quick_test/data-fmllr-tri3/train/data/feats_fmllr_train.2.ark:4451712
fmju0_si759 quick_test/data-fmllr-tri3/train/data/feats_fmllr_train.2.ark:16439054
msdb0_sx197 quick_test/data-fmllr-tri3/train/data/feats_fmllr_train.9.ark:12704377
mdmt0_si1832 quick_test/data-fmllr-tri3/train/data/feats_fmllr_train.5.ark:5929030
mtkp0_sx213 quick_test/data-fmllr-tri3/train/data/feats_fmllr_train.10.ark:6340337
fmkc0_si1072 quick_test/data-fmllr-tri3/train/data/feats_fmllr_train.2.ark:16805484
mdks0_sx166 quick_test/data-fmllr-tri3/train/data/feats_fmllr_train.5.ark:2037341
mrxb0_sx235 quick_test/data-fmllr-tri3/train/data/feats_fmllr_train.9.ark:10924703
mwad0_sx252 quick_test/data-fmllr-tri3/train/data/feats_fmllr_train.10.ark:14022759
mgjc0_sx75 quick_test/data-fmllr-tri3/train/data/feats_fmllr_train.6.ark:1459095
mrjt0_si1498 quick_test/data-fmllr-tri3/train/data/feats_fmllr_train.9.ark:2495074
mejl0_si1654 quick_test/data-fmllr-tri3/train/data/feats_fmllr_train.5.ark:12299625
fdtd0_sx321 quick_test/data-fmllr-tri3/train/data/feats_fmllr_train.1.ark:12894642
mdlc0_sx315 quick_test/data-fmllr-tri3/train/data/feats_fmllr_train.5.ark:3057669
mmdg0_si1780 quick_test/data-fmllr-tri3/train/data/feats_fmllr_train.7.ark:15817815
fskl0_sx359 quick_test/data-fmllr-tri3/train/data/feats_fmllr_train.3.ark:10586110
mrtc0_sx18 quick_test/data-fmllr-tri3/train/data/feats_fmllr_train.9.ark:8978497
mpfu0_sx178 quick_test/data-fmllr-tri3/train/data/feats_fmllr_train.8.ark:6558024
mtkd0_sx377 quick_test/data-fmllr-tri3/train/data/feats_fmllr_train.10.ark:6043240
fsrh0_sx131 quick_test/data-fmllr-tri3/train/data/feats_fmllr_train.3.ark:13225016
mmrp0_si717 quick_test/data-fmllr-tri3/train/data/feats_fmllr_train.8.ark:2177185
mvjh0_si926 quick_test/data-fmllr-tri3/train/data/feats_fmllr_train.10.ark:12465996
mgag0_sx61 quick_test/data-fmllr-tri3/train/data/feats_fmllr_train.5.ark:16879670
flag0_sx114 quick_test/data-fmllr-tri3/train/data/feats_fmllr_train.2.ark:9410372
fgdp0_sx358 quick_test/data-fmllr-tri3/train/data/feats_fmllr_train.1.ark:16881907
fscn0_si705 quick_test/data-fmllr-tri3/train/data/feats_fmllr_train.3.ark:6854475
fjlr0_sx241 quick_test/data-fmllr-tri3/train/data/feats_fmllr_train.2.ark:2187931
fpad0_sx86 quick_test/data-fmllr-tri3/train/data/feats_fmllr_train.3.ark:1988749
msms0_si803 quick_test/data-fmllr-tri3/train/data/feats_fmllr_train.9.ark:16707748
fmbg0_sx80 quick_test/data-fmllr-tri3/train/data/feats_fmllr_train.2.ark:15057521
mpeb0_si1034 quick_test/data-fmllr-tri3/train/data/feats_fmllr_train.8.ark:6068285
mjlg1_sx22 quick_test/data-fmllr-tri3/train/data/feats_fmllr_train.6.ark:14527213
fbcg1_sx442 quick_test/data-fmllr-tri3/train/data/feats_fmllr_train.1.ark:2750915
mjac0_sx71 quick_test/data-fmllr-tri3/train/data/feats_fmllr_train.6.ark:6817004
medr0_sx294 quick_test/data-fmllr-tri3/train/data/feats_fmllr_train.5.ark:11355112
mrfk0_si1076 quick_test/data-fmllr-tri3/train/data/feats_fmllr_train.8.ark:16712386
mbjv0_sx77 quick_test/data-fmllr-tri3/train/data/feats_fmllr_train.4.ark:5512523
fkdw0_sx217 quick_test/data-fmllr-tri3/train/data/feats_fmllr_train.2.ark:6284662
makr0_sx452 quick_test/data-fmllr-tri3/train/data/feats_fmllr_train.4.ark:2167824
mwad0_si1062 quick_test/data-fmllr-tri3/train/data/feats_fmllr_train.10.ark:13878809
mdlr1_sx129 quick_test/data-fmllr-tri3/train/data/feats_fmllr_train.5.ark:5225157
fssb0_sx272 quick_test/data-fmllr-tri3/train/data/feats_fmllr_train.3.ark:13688301
mtcs0_si1972 quick_test/data-fmllr-tri3/train/data/feats_fmllr_train.10.ark:2446435
msdh0_sx170 quick_test/data-fmllr-tri3/train/data/feats_fmllr_train.9.ark:12916221
mdbb1_sx286 quick_test/data-fmllr-tri3/train/data/feats_fmllr_train.4.ark:15369013
mrmg0_si1080 quick_test/data-fmllr-tri3/train/data/feats_fmllr_train.9.ark:5511529
fspm0_sx431 quick_test/data-fmllr-tri3/train/data/feats_fmllr_train.3.ark:13040880
mdns0_sx381 quick_test/data-fmllr-tri3/train/data/feats_fmllr_train.5.ark:6625916
mhxl0_sx62 quick_test/data-fmllr-tri3/train/data/feats_fmllr_train.6.ark:6074333
mmea0_sx38 quick_test/data-fmllr-tri3/train/data/feats_fmllr_train.7.ark:17568925
fklc1_si1048 quick_test/data-fmllr-tri3/train/data/feats_fmllr_train.2.ark:7709261
mrws0_sx382 quick_test/data-fmllr-tri3/train/data/feats_fmllr_train.9.ark:10662166
mvjh0_si2186 quick_test/data-fmllr-tri3/train/data/feats_fmllr_train.10.ark:12409649
madc0_sx197 quick_test/data-fmllr-tri3/train/data/feats_fmllr_train.3.ark:17451616
mpgr0_si780 quick_test/data-fmllr-tri3/train/data/feats_fmllr_train.8.ark:7244190
mtqc0_sx361 quick_test/data-fmllr-tri3/train/data/feats_fmllr_train.10.ark:10276775
mstf0_si852 quick_test/data-fmllr-tri3/train/data/feats_fmllr_train.9.ark:17814317
mcxm0_sx181 quick_test/data-fmllr-tri3/train/data/feats_fmllr_train.4.ark:14128444
mtjs0_sx22 quick_test/data-fmllr-tri3/train/data/feats_fmllr_train.10.ark:5145952
fhlm0_sx210 quick_test/data-fmllr-tri3/train/data/feats_fmllr_train.1.ark:18143172
mvrw0_si2115 quick_test/data-fmllr-tri3/train/data/feats_fmllr_train.10.ark:13157123
mapv0_sx123 quick_test/data-fmllr-tri3/train/data/feats_fmllr_train.4.ark:2436600
mdsj0_si2092 quick_test/data-fmllr-tri3/train/data/feats_fmllr_train.5.ark:8272600
fkfb0_sx258 quick_test/data-fmllr-tri3/train/data/feats_fmllr_train.2.ark:6635439
mrre0_sx74 quick_test/data-fmllr-tri3/train/data/feats_fmllr_train.9.ark:7824806
mgak0_si2296 quick_test/data-fmllr-tri3/train/data/feats_fmllr_train.5.ark:17042154
fmpg0_si972 quick_test/data-fmllr-tri3/train/data/feats_fmllr_train.2.ark:18029999
mklw0_sx401 quick_test/data-fmllr-tri3/train/data/feats_fmllr_train.7.ark:9290608
mdss1_sx67 quick_test/data-fmllr-tri3/train/data/feats_fmllr_train.5.ark:9202795
mtat0_sx120 quick_test/data-fmllr-tri3/train/data/feats_fmllr_train.10.ark:1429386
mjjm0_si827 quick_test/data-fmllr-tri3/train/data/feats_fmllr_train.6.ark:13298001
mhmg0_si1365 quick_test/data-fmllr-tri3/train/data/feats_fmllr_train.6.ark:4606454
mwar0_si2305 quick_test/data-fmllr-tri3/train/data/feats_fmllr_train.10.ark:14290443
mdem0_si1868 quick_test/data-fmllr-tri3/train/data/feats_fmllr_train.5.ark:352071
marc0_sx108 quick_test/data-fmllr-tri3/train/data/feats_fmllr_train.4.ark:2775057
fspm0_sx161 quick_test/data-fmllr-tri3/train/data/feats_fmllr_train.3.ark:12860799
mvlo0_sx67 quick_test/data-fmllr-tri3/train/data/feats_fmllr_train.10.ark:13034027
mtpp0_sx248 quick_test/data-fmllr-tri3/train/data/feats_fmllr_train.10.ark:9338874
maeb0_sx90 quick_test/data-fmllr-tri3/train/data/feats_fmllr_train.4.ark:337962
mrjt0_sx418 quick_test/data-fmllr-tri3/train/data/feats_fmllr_train.9.ark:2775237
mmvp0_sx204 quick_test/data-fmllr-tri3/train/data/feats_fmllr_train.8.ark:3217380
majp0_sx264 quick_test/data-fmllr-tri3/train/data/feats_fmllr_train.4.ark:1287655
mbma0_sx412 quick_test/data-fmllr-tri3/train/data/feats_fmllr_train.4.ark:5824234
mfmc0_sx322 quick_test/data-fmllr-tri3/train/data/feats_fmllr_train.5.ark:14617033
fpaf0_si1684 quick_test/data-fmllr-tri3/train/data/feats_fmllr_train.3.ark:2116645
mrpc1_sx132 quick_test/data-fmllr-tri3/train/data/feats_fmllr_train.9.ark:7204643
fscn0_sx86 quick_test/data-fmllr-tri3/train/data/feats_fmllr_train.3.ark:7182129
mrav0_sx378 quick_test/data-fmllr-tri3/train/data/feats_fmllr_train.8.ark:12811947
mstf0_sx226 quick_test/data-fmllr-tri3/train/data/feats_fmllr_train.9.ark:17948931
fsdc0_si1312 quick_test/data-fmllr-tri3/train/data/feats_fmllr_train.3.ark:7225517
fpac0_si2011 quick_test/data-fmllr-tri3/train/data/feats_fmllr_train.3.ark:1269171
fgdp0_si2248 quick_test/data-fmllr-tri3/train/data/feats_fmllr_train.1.ark:16642439
mrlj1_sx51 quick_test/data-fmllr-tri3/train/data/feats_fmllr_train.9.ark:4361410
mmam0_sx247 quick_test/data-fmllr-tri3/train/data/feats_fmllr_train.7.ark:14006279
mjjj0_sx443 quick_test/data-fmllr-tri3/train/data/feats_fmllr_train.6.ark:13077412
mrem0_sx331 quick_test/data-fmllr-tri3/train/data/feats_fmllr_train.8.ark:16207608
mrcw0_sx381 quick_test/data-fmllr-tri3/train/data/feats_fmllr_train.8.ark:14010998
mtab0_sx42 quick_test/data-fmllr-tri3/train/data/feats_fmllr_train.10.ark:901379
mmsm0_sx386 quick_test/data-fmllr-tri3/train/data/feats_fmllr_train.8.ark:2922843
mejs0_sx250 quick_test/data-fmllr-tri3/train/data/feats_fmllr_train.5.ark:12811123
msfv0_sx362 quick_test/data-fmllr-tri3/train/data/feats_fmllr_train.9.ark:15240242
msms0_sx353 quick_test/data-fmllr-tri3/train/data/feats_fmllr_train.9.ark:16854069
mafm0_si939 quick_test/data-fmllr-tri3/train/data/feats_fmllr_train.4.ark:787543
ftaj0_sx159 quick_test/data-fmllr-tri3/train/data/feats_fmllr_train.3.ark:14031690
mabc0_sx421 quick_test/data-fmllr-tri3/train/data/feats_fmllr_train.3.ark:17098787
fceg0_si618 quick_test/data-fmllr-tri3/train/data/feats_fmllr_train.1.ark:6152920
mcss0_sx210 quick_test/data-fmllr-tri3/train/data/feats_fmllr_train.4.ark:13079340
mtbc0_sx363 quick_test/data-fmllr-tri3/train/data/feats_fmllr_train.10.ark:2353101
mjls0_sx16 quick_test/data-fmllr-tri3/train/data/feats_fmllr_train.6.ark:14880843
mjrh1_si1558 quick_test/data-fmllr-tri3/train/data/feats_fmllr_train.7.ark:385191
mgar0_sx402 quick_test/data-fmllr-tri3/train/data/feats_fmllr_train.6.ark:299057
mjdg0_sx322 quick_test/data-fmllr-tri3/train/data/feats_fmllr_train.6.ark:9492392
mbgt0_si1841 quick_test/data-fmllr-tri3/train/data/feats_fmllr_train.4.ark:4811345
mded0_sx90 quick_test/data-fmllr-tri3/train/data/feats_fmllr_train.4.ark:17369325
fsdj0_sx395 quick_test/data-fmllr-tri3/train/data/feats_fmllr_train.3.ark:7872484
mbom0_si1644 quick_test/data-fmllr-tri3/train/data/feats_fmllr_train.4.ark:6738350
flac0_sx271 quick_test/data-fmllr-tri3/train/data/feats_fmllr_train.2.ark:9044422
fnkl0_si1522 quick_test/data-fmllr-tri3/train/data/feats_fmllr_train.3.ark:13
mkah0_sx268 quick_test/data-fmllr-tri3/train/data/feats_fmllr_train.7.ark:4619948
fsmm0_sx144 quick_test/data-fmllr-tri3/train/data/feats_fmllr_train.3.ark:12030125
mrms0_sx210 quick_test/data-fmllr-tri3/train/data/feats_fmllr_train.9.ark:6958052
mhmg0_sx375 quick_test/data-fmllr-tri3/train/data/feats_fmllr_train.6.ark:4912563
mdwm0_sx16 quick_test/data-fmllr-tri3/train/data/feats_fmllr_train.5.ark:10589183
msrr0_sx51 quick_test/data-fmllr-tri3/train/data/feats_fmllr_train.9.ark:17683835
mcef0_sx415 quick_test/data-fmllr-tri3/train/data/feats_fmllr_train.4.ark:10399315
mdsj0_sx112 quick_test/data-fmllr-tri3/train/data/feats_fmllr_train.5.ark:8349454
mmpm0_sx341 quick_test/data-fmllr-tri3/train/data/feats_fmllr_train.8.ark:2012597
mejs0_sx70 quick_test/data-fmllr-tri3/train/data/feats_fmllr_train.5.ark:12958403
mdrd0_si1382 quick_test/data-fmllr-tri3/train/data/feats_fmllr_train.5.ark:7766115
mcdd0_si2143 quick_test/data-fmllr-tri3/train/data/feats_fmllr_train.4.ark:9381466
flkm0_si620 quick_test/data-fmllr-tri3/train/data/feats_fmllr_train.2.ark:12094239
mjrh1_si1774 quick_test/data-fmllr-tri3/train/data/feats_fmllr_train.7.ark:461219
mabc0_sx151 quick_test/data-fmllr-tri3/train/data/feats_fmllr_train.3.ark:16979186
mmar0_sx436 quick_test/data-fmllr-tri3/train/data/feats_fmllr_train.7.ark:14568310
mmpm0_sx71 quick_test/data-fmllr-tri3/train/data/feats_fmllr_train.8.ark:2112810
mkln0_sx248 quick_test/data-fmllr-tri3/train/data/feats_fmllr_train.7.ark:7677363
mjae0_si1999 quick_test/data-fmllr-tri3/train/data/feats_fmllr_train.6.ark:6911140
mdwd0_sx450 quick_test/data-fmllr-tri3/train/data/feats_fmllr_train.5.ark:9848324
mstf0_sx46 quick_test/data-fmllr-tri3/train/data/feats_fmllr_train.9.ark:18104851
mgaw0_sx265 quick_test/data-fmllr-tri3/train/data/feats_fmllr_train.6.ark:605940
mmgc0_sx225 quick_test/data-fmllr-tri3/train/data/feats_fmllr_train.8.ark:195163
ftaj0_si699 quick_test/data-fmllr-tri3/train/data/feats_fmllr_train.3.ark:13980303
mcae0_si1447 quick_test/data-fmllr-tri3/train/data/feats_fmllr_train.4.ark:8108629
fmbg0_sx440 quick_test/data-fmllr-tri3/train/data/feats_fmllr_train.2.ark:14997335
mcew0_sx182 quick_test/data-fmllr-tri3/train/data/feats_fmllr_train.4.ark:10688731
mram0_sx195 quick_test/data-fmllr-tri3/train/data/feats_fmllr_train.8.ark:12384795
frll0_si1514 quick_test/data-fmllr-tri3/train/data/feats_fmllr_train.3.ark:4704856
mjsr0_si1424 quick_test/data-fmllr-tri3/train/data/feats_fmllr_train.7.ark:1466482
mtbc0_si1173 quick_test/data-fmllr-tri3/train/data/feats_fmllr_train.10.ark:2067018
fkaa0_si1208 quick_test/data-fmllr-tri3/train/data/feats_fmllr_train.2.ark:5196758
msah1_si1679 quick_test/data-fmllr-tri3/train/data/feats_fmllr_train.9.ark:11139399
feac0_sx255 quick_test/data-fmllr-tri3/train/data/feats_fmllr_train.1.ark:13557743
mrgm0_sx442 quick_test/data-fmllr-tri3/train/data/feats_fmllr_train.8.ark:17831064
fscn0_sx446 quick_test/data-fmllr-tri3/train/data/feats_fmllr_train.3.ark:7122743
fjen0_sx327 quick_test/data-fmllr-tri3/train/data/feats_fmllr_train.2.ark:664208
mjac0_sx341 quick_test/data-fmllr-tri3/train/data/feats_fmllr_train.6.ark:6715191
mrab1_si2108 quick_test/data-fmllr-tri3/train/data/feats_fmllr_train.8.ark:11368893
mmcc0_sx78 quick_test/data-fmllr-tri3/train/data/feats_fmllr_train.7.ark:15445890
mdhs0_sx180 quick_test/data-fmllr-tri3/train/data/feats_fmllr_train.5.ark:1355786
mdem0_sx428 quick_test/data-fmllr-tri3/train/data/feats_fmllr_train.5.ark:703273
mdbp0_sx438 quick_test/data-fmllr-tri3/train/data/feats_fmllr_train.4.ark:15781551
fhxs0_si2302 quick_test/data-fmllr-tri3/train/data/feats_fmllr_train.1.ark:18430189
mapv0_sx303 quick_test/data-fmllr-tri3/train/data/feats_fmllr_train.4.ark:2544814
mpar0_si2206 quick_test/data-fmllr-tri3/train/data/feats_fmllr_train.8.ark:5763936
marw0_sx349 quick_test/data-fmllr-tri3/train/data/feats_fmllr_train.4.ark:3247034
mclk0_sx400 quick_test/data-fmllr-tri3/train/data/feats_fmllr_train.4.ark:11725433
mljh0_sx244 quick_test/data-fmllr-tri3/train/data/feats_fmllr_train.7.ark:11610896
mnet0_sx6 quick_test/data-fmllr-tri3/train/data/feats_fmllr_train.8.ark:5245556
mdef0_si2193 quick_test/data-fmllr-tri3/train/data/feats_fmllr_train.5.ark:122149
fljd0_si886 quick_test/data-fmllr-tri3/train/data/feats_fmllr_train.2.ark:11318153
mjdg0_sx142 quick_test/data-fmllr-tri3/train/data/feats_fmllr_train.6.ark:9388338
mbjv0_si617 quick_test/data-fmllr-tri3/train/data/feats_fmllr_train.4.ark:5279749
mrbc0_sx419 quick_test/data-fmllr-tri3/train/data/feats_fmllr_train.8.ark:13145738
flet0_si1767 quick_test/data-fmllr-tri3/train/data/feats_fmllr_train.2.ark:10101633
fcke0_sx121 quick_test/data-fmllr-tri3/train/data/feats_fmllr_train.1.ark:7224478
fnkl0_si892 quick_test/data-fmllr-tri3/train/data/feats_fmllr_train.3.ark:81348
mkxl0_si1185 quick_test/data-fmllr-tri3/train/data/feats_fmllr_train.7.ark:9755998
fmah1_si2139 quick_test/data-fmllr-tri3/train/data/feats_fmllr_train.2.ark:14383384
fsdc0_si2234 quick_test/data-fmllr-tri3/train/data/feats_fmllr_train.3.ark:7332773
mwgr0_si976 quick_test/data-fmllr-tri3/train/data/feats_fmllr_train.10.ark:15736113
fsah0_sx164 quick_test/data-fmllr-tri3/train/data/feats_fmllr_train.3.ark:5714171
mwrp0_sx183 quick_test/data-fmllr-tri3/train/data/feats_fmllr_train.10.ark:16588576
mmlm0_sx177 quick_test/data-fmllr-tri3/train/data/feats_fmllr_train.8.ark:1563045
mtcs0_si712 quick_test/data-fmllr-tri3/train/data/feats_fmllr_train.10.ark:2496730
mtdp0_si1274 quick_test/data-fmllr-tri3/train/data/feats_fmllr_train.10.ark:3218869
fpac0_sx31 quick_test/data-fmllr-tri3/train/data/feats_fmllr_train.3.ark:1533145
maeb0_sx360 quick_test/data-fmllr-tri3/train/data/feats_fmllr_train.4.ark:242549
mkdb0_sx242 quick_test/data-fmllr-tri3/train/data/feats_fmllr_train.7.ark:5735319
mjde0_sx220 quick_test/data-fmllr-tri3/train/data/feats_fmllr_train.6.ark:8995027
frjb0_sx77 quick_test/data-fmllr-tri3/train/data/feats_fmllr_train.3.ark:4658108
mjrh0_sx135 quick_test/data-fmllr-tri3/train/data/feats_fmllr_train.7.ark:164736
mtat1_sx329 quick_test/data-fmllr-tri3/train/data/feats_fmllr_train.10.ark:1900377
mjma0_sx145 quick_test/data-fmllr-tri3/train/data/feats_fmllr_train.6.ark:15230634
fjrp1_sx352 quick_test/data-fmllr-tri3/train/data/feats_fmllr_train.2.ark:3065192
mmar0_sx256 quick_test/data-fmllr-tri3/train/data/feats_fmllr_train.7.ark:14439936
mtqc0_sx181 quick_test/data-fmllr-tri3/train/data/feats_fmllr_train.10.ark:10151121
mrjm1_si668 quick_test/data-fmllr-tri3/train/data/feats_fmllr_train.9.ark:2208352
fdtd0_si2191 quick_test/data-fmllr-tri3/train/data/feats_fmllr_train.1.ark:12638347
falk0_sx96 quick_test/data-fmllr-tri3/train/data/feats_fmllr_train.1.ark:1160151
mbml0_sx179 quick_test/data-fmllr-tri3/train/data/feats_fmllr_train.4.ark:6450667
fajw0_sx183 quick_test/data-fmllr-tri3/train/data/feats_fmllr_train.1.ark:591032
fbcg1_si1612 quick_test/data-fmllr-tri3/train/data/feats_fmllr_train.1.ark:2469312
mtab0_sx222 quick_test/data-fmllr-tri3/train/data/feats_fmllr_train.10.ark:724659
mrbc0_sx149 quick_test/data-fmllr-tri3/train/data/feats_fmllr_train.8.ark:12984217
mgxp0_sx7 quick_test/data-fmllr-tri3/train/data/feats_fmllr_train.6.ark:3475828
fmah1_si879 quick_test/data-fmllr-tri3/train/data/feats_fmllr_train.2.ark:14411091
mjxl0_si1172 quick_test/data-fmllr-tri3/train/data/feats_fmllr_train.7.ark:3610126
mkdb0_si588 quick_test/data-fmllr-tri3/train/data/feats_fmllr_train.7.ark:5604358
mrml0_sx251 quick_test/data-fmllr-tri3/train/data/feats_fmllr_train.9.ark:6504874
mdhs0_sx360 quick_test/data-fmllr-tri3/train/data/feats_fmllr_train.5.ark:1433920
flet0_si507 quick_test/data-fmllr-tri3/train/data/feats_fmllr_train.2.ark:10154460
fpjf0_sx326 quick_test/data-fmllr-tri3/train/data/feats_fmllr_train.3.ark:3058948
fltm0_si1700 quick_test/data-fmllr-tri3/train/data/feats_fmllr_train.2.ark:13967006
mtdb0_sx321 quick_test/data-fmllr-tri3/train/data/feats_fmllr_train.10.ark:3072388
mtjg0_si2157 quick_test/data-fmllr-tri3/train/data/feats_fmllr_train.10.ark:4119491
mdmt0_si572 quick_test/data-fmllr-tri3/train/data/feats_fmllr_train.5.ark:5973245
mkaj0_si2044 quick_test/data-fmllr-tri3/train/data/feats_fmllr_train.7.ark:4846644
mpsw0_sx437 quick_test/data-fmllr-tri3/train/data/feats_fmllr_train.8.ark:10846514
mjdm0_sx80 quick_test/data-fmllr-tri3/train/data/feats_fmllr_train.6.ark:10004662
fclt0_sx88 quick_test/data-fmllr-tri3/train/data/feats_fmllr_train.1.ark:7724962
fdml0_si1779 quick_test/data-fmllr-tri3/train/data/feats_fmllr_train.1.ark:11339295
fcmg0_sx342 quick_test/data-fmllr-tri3/train/data/feats_fmllr_train.1.ark:8036967
mbsb0_si1353 quick_test/data-fmllr-tri3/train/data/feats_fmllr_train.4.ark:7009901
fsjk1_si1025 quick_test/data-fmllr-tri3/train/data/feats_fmllr_train.3.ark:8826386
ftmg0_sx272 quick_test/data-fmllr-tri3/train/data/feats_fmllr_train.3.ark:15565864
mesg0_sx162 quick_test/data-fmllr-tri3/train/data/feats_fmllr_train.5.ark:13121073
mtlc0_sx127 quick_test/data-fmllr-tri3/train/data/feats_fmllr_train.10.ark:7074184
makb0_si2276 quick_test/data-fmllr-tri3/train/data/feats_fmllr_train.4.ark:1643339
mtab0_sx312 quick_test/data-fmllr-tri3/train/data/feats_fmllr_train.10.ark:775406
mdwm0_sx376 quick_test/data-fmllr-tri3/train/data/feats_fmllr_train.5.ark:10682037
mtqc0_si1441 quick_test/data-fmllr-tri3/train/data/feats_fmllr_train.10.ark:9943519
fmkc0_sx352 quick_test/data-fmllr-tri3/train/data/feats_fmllr_train.2.ark:16972153
flet0_sx277 quick_test/data-fmllr-tri3/train/data/feats_fmllr_train.2.ark:10296301
mkls1_sx15 quick_test/data-fmllr-tri3/train/data/feats_fmllr_train.7.ark:8822175
mrpc1_si2026 quick_test/data-fmllr-tri3/train/data/feats_fmllr_train.9.ark:7143468
fmju0_sx399 quick_test/data-fmllr-tri3/train/data/feats_fmllr_train.2.ark:16692948
mdlc2_si1614 quick_test/data-fmllr-tri3/train/data/feats_fmllr_train.5.ark:3572848
mgag0_sx331 quick_test/data-fmllr-tri3/train/data/feats_fmllr_train.5.ark:16805697
mkjo0_si1517 quick_test/data-fmllr-tri3/train/data/feats_fmllr_train.7.ark:7147117
mmeb0_sx327 quick_test/data-fmllr-tri3/train/data/feats_fmllr_train.7.ark:17812929
mcdd0_si883 quick_test/data-fmllr-tri3/train/data/feats_fmllr_train.4.ark:9425173
fjlg0_sx179 quick_test/data-fmllr-tri3/train/data/feats_fmllr_train.2.ark:1742727
msat1_sx353 quick_test/data-fmllr-tri3/train/data/feats_fmllr_train.9.ark:12392160
mewm0_si718 quick_test/data-fmllr-tri3/train/data/feats_fmllr_train.5.ark:13751398
fjkl0_sx212 quick_test/data-fmllr-tri3/train/data/feats_fmllr_train.2.ark:1427336
fpad0_sx266 quick_test/data-fmllr-tri3/train/data/feats_fmllr_train.3.ark:1839389
msmc0_sx107 quick_test/data-fmllr-tri3/train/data/feats_fmllr_train.9.ark:15990221
mdhl0_si2069 quick_test/data-fmllr-tri3/train/data/feats_fmllr_train.5.ark:877915
mhit0_si2243 quick_test/data-fmllr-tri3/train/data/feats_fmllr_train.6.ark:3961087
mbwp0_sx259 quick_test/data-fmllr-tri3/train/data/feats_fmllr_train.4.ark:7873961
mmea0_sx128 quick_test/data-fmllr-tri3/train/data/feats_fmllr_train.7.ark:17457805
mdwh0_sx395 quick_test/data-fmllr-tri3/train/data/feats_fmllr_train.5.ark:10330327
mwar0_sx325 quick_test/data-fmllr-tri3/train/data/feats_fmllr_train.10.ark:14414204
mjpm1_sx221 quick_test/data-fmllr-tri3/train/data/feats_fmllr_train.6.ark:16992227
mhrm0_si958 quick_test/data-fmllr-tri3/train/data/feats_fmllr_train.6.ark:5429823
mkrg0_si861 quick_test/data-fmllr-tri3/train/data/feats_fmllr_train.7.ark:9513917
mkdd0_sx307 quick_test/data-fmllr-tri3/train/data/feats_fmllr_train.7.ark:6202923
mfmc0_si1762 quick_test/data-fmllr-tri3/train/data/feats_fmllr_train.5.ark:14404445
mkxl0_sx15 quick_test/data-fmllr-tri3/train/data/feats_fmllr_train.7.ark:9968427
mmlm0_sx87 quick_test/data-fmllr-tri3/train/data/feats_fmllr_train.8.ark:1725232
mdss0_sx171 quick_test/data-fmllr-tri3/train/data/feats_fmllr_train.5.ark:8701511
fpmy0_sx343 quick_test/data-fmllr-tri3/train/data/feats_fmllr_train.3.ark:3903567
mkdd0_si2197 quick_test/data-fmllr-tri3/train/data/feats_fmllr_train.7.ark:6006815
mrdd0_sx330 quick_test/data-fmllr-tri3/train/data/feats_fmllr_train.8.ark:14306870
mcre0_sx131 quick_test/data-fmllr-tri3/train/data/feats_fmllr_train.4.ark:12600058
mded0_sx270 quick_test/data-fmllr-tri3/train/data/feats_fmllr_train.4.ark:17222365
msem1_sx90 quick_test/data-fmllr-tri3/train/data/feats_fmllr_train.9.ark:14118523
fjsk0_sx62 quick_test/data-fmllr-tri3/train/data/feats_fmllr_train.2.ark:3615543
fbch0_sx326 quick_test/data-fmllr-tri3/train/data/feats_fmllr_train.1.ark:3115744
mfmc0_si502 quick_test/data-fmllr-tri3/train/data/feats_fmllr_train.5.ark:14451992
mkrg0_si1491 quick_test/data-fmllr-tri3/train/data/feats_fmllr_train.7.ark:9393382
mdlc2_sx264 quick_test/data-fmllr-tri3/train/data/feats_fmllr_train.5.ark:3739197
mhbs0_si2205 quick_test/data-fmllr-tri3/train/data/feats_fmllr_train.6.ark:3607270
mjxa0_sx247 quick_test/data-fmllr-tri3/train/data/feats_fmllr_train.7.ark:3426018
mwch0_sx362 quick_test/data-fmllr-tri3/train/data/feats_fmllr_train.10.ark:14722902
mmab1_sx324 quick_test/data-fmllr-tri3/train/data/feats_fmllr_train.7.ark:13236271
fcrz0_sx73 quick_test/data-fmllr-tri3/train/data/feats_fmllr_train.1.ark:8883854
fsjs0_sx451 quick_test/data-fmllr-tri3/train/data/feats_fmllr_train.3.ark:9472846
mmbs0_sx251 quick_test/data-fmllr-tri3/train/data/feats_fmllr_train.7.ark:14880313
mrmb0_sx51 quick_test/data-fmllr-tri3/train/data/feats_fmllr_train.9.ark:5470381
ftlg0_sx393 quick_test/data-fmllr-tri3/train/data/feats_fmllr_train.3.ark:15339807
mjai0_sx434 quick_test/data-fmllr-tri3/train/data/feats_fmllr_train.6.ark:7573412
mpgr1_sx239 quick_test/data-fmllr-tri3/train/data/feats_fmllr_train.8.ark:7702862
mpgr1_si1269 quick_test/data-fmllr-tri3/train/data/feats_fmllr_train.8.ark:7506592
mtjm0_si1856 quick_test/data-fmllr-tri3/train/data/feats_fmllr_train.10.ark:4530428
fear0_sx82 quick_test/data-fmllr-tri3/train/data/feats_fmllr_train.1.ark:14089720
fvmh0_si2096 quick_test/data-fmllr-tri3/train/data/feats_fmllr_train.3.ark:16560195
mkrg0_sx411 quick_test/data-fmllr-tri3/train/data/feats_fmllr_train.7.ark:9677704
fbch0_sx56 quick_test/data-fmllr-tri3/train/data/feats_fmllr_train.1.ark:3228117
mrsp0_sx79 quick_test/data-fmllr-tri3/train/data/feats_fmllr_train.9.ark:8711321
fklc1_sx418 quick_test/data-fmllr-tri3/train/data/feats_fmllr_train.2.ark:7981105
mcdr0_si524 quick_test/data-fmllr-tri3/train/data/feats_fmllr_train.4.ark:9831310
mjlb0_sx356 quick_test/data-fmllr-tri3/train/data/feats_fmllr_train.6.ark:14183796
mrhl0_sx75 quick_test/data-fmllr-tri3/train/data/feats_fmllr_train.9.ark:748417
mdas0_sx186 quick_test/data-fmllr-tri3/train/data/feats_fmllr_train.4.ark:14936558
mesj0_si997 quick_test/data-fmllr-tri3/train/data/feats_fmllr_train.5.ark:13467183
mfer0_si1492 quick_test/data-fmllr-tri3/train/data/feats_fmllr_train.5.ark:14027720
mtpf0_sx425 quick_test/data-fmllr-tri3/train/data/feats_fmllr_train.10.ark:8751774
mwsh0_sx346 quick_test/data-fmllr-tri3/train/data/feats_fmllr_train.10.ark:17437060
mjpm0_sx18 quick_test/data-fmllr-tri3/train/data/feats_fmllr_train.6.ark:16650089
mmaa0_sx215 quick_test/data-fmllr-tri3/train/data/feats_fmllr_train.7.ark:12818907
flmc0_sx292 quick_test/data-fmllr-tri3/train/data/feats_fmllr_train.2.ark:13040860
fsjk1_sx305 quick_test/data-fmllr-tri3/train/data/feats_fmllr_train.3.ark:9047482
mrdd0_sx277 quick_test/data-fmllr-tri3/train/data/feats_fmllr_train.8.ark:14270843
mmwb0_si989 quick_test/data-fmllr-tri3/train/data/feats_fmllr_train.8.ark:3577864
mter0_sx17 quick_test/data-fmllr-tri3/train/data/feats_fmllr_train.10.ark:3908155
fjen0_si1677 quick_test/data-fmllr-tri3/train/data/feats_fmllr_train.2.ark:463299
mjdc0_sx351 quick_test/data-fmllr-tri3/train/data/feats_fmllr_train.6.ark:8611318
mrmh0_sx301 quick_test/data-fmllr-tri3/train/data/feats_fmllr_train.9.ark:6145484
mewm0_si1978 quick_test/data-fmllr-tri3/train/data/feats_fmllr_train.5.ark:13729611
mvrw0_sx135 quick_test/data-fmllr-tri3/train/data/feats_fmllr_train.10.ark:13226617
mdlc2_sx354 quick_test/data-fmllr-tri3/train/data/feats_fmllr_train.5.ark:3781944
mjpg0_si1821 quick_test/data-fmllr-tri3/train/data/feats_fmllr_train.6.ark:16147392
mkln0_si1598 quick_test/data-fmllr-tri3/train/data/feats_fmllr_train.7.ark:7492614
mses0_sx59 quick_test/data-fmllr-tri3/train/data/feats_fmllr_train.9.ark:14475541
fjrp1_sx442 quick_test/data-fmllr-tri3/train/data/feats_fmllr_train.2.ark:3152899
fsag0_sx63 quick_test/data-fmllr-tri3/train/data/feats_fmllr_train.3.ark:5485421
mrlk0_sx393 quick_test/data-fmllr-tri3/train/data/feats_fmllr_train.9.ark:4740027
mljh0_si1324 quick_test/data-fmllr-tri3/train/data/feats_fmllr_train.7.ark:11325187
flac0_sx451 quick_test/data-fmllr-tri3/train/data/feats_fmllr_train.2.ark:9123676
mjxa0_sx337 quick_test/data-fmllr-tri3/train/data/feats_fmllr_train.7.ark:3484605
fdfb0_si2010 quick_test/data-fmllr-tri3/train/data/feats_fmllr_train.1.ark:10230990
fbmh0_sx416 quick_test/data-fmllr-tri3/train/data/feats_fmllr_train.1.ark:4376423
fdjh0_si935 quick_test/data-fmllr-tri3/train/data/feats_fmllr_train.1.ark:10560487
fexm0_sx291 quick_test/data-fmllr-tri3/train/data/feats_fmllr_train.1.ark:16080032
fdmy0_sx117 quick_test/data-fmllr-tri3/train/data/feats_fmllr_train.1.ark:11877326
mjkr0_sx31 quick_test/data-fmllr-tri3/train/data/feats_fmllr_train.6.ark:13876565
flmk0_sx315 quick_test/data-fmllr-tri3/train/data/feats_fmllr_train.2.ark:13451479
mpar0_sx136 quick_test/data-fmllr-tri3/train/data/feats_fmllr_train.8.ark:5860150
mmdg0_sx340 quick_test/data-fmllr-tri3/train/data/feats_fmllr_train.7.ark:16099231
fsgf0_si927 quick_test/data-fmllr-tri3/train/data/feats_fmllr_train.3.ark:8023607
mtcs0_sx442 quick_test/data-fmllr-tri3/train/data/feats_fmllr_train.10.ark:2728518
fetb0_si1778 quick_test/data-fmllr-tri3/train/data/feats_fmllr_train.1.ark:15457787
mmeb0_sx97 quick_test/data-fmllr-tri3/train/data/feats_fmllr_train.7.ark:17961967
mdwd0_sx360 quick_test/data-fmllr-tri3/train/data/feats_fmllr_train.5.ark:9805737
fljd0_sx166 quick_test/data-fmllr-tri3/train/data/feats_fmllr_train.2.ark:11348260
mmar0_sx76 quick_test/data-fmllr-tri3/train/data/feats_fmllr_train.7.ark:14609616
mjpm1_sx401 quick_test/data-fmllr-tri3/train/data/feats_fmllr_train.6.ark:17117561
mrms0_sx120 quick_test/data-fmllr-tri3/train/data/feats_fmllr_train.9.ark:6909225
mpar0_sx226 quick_test/data-fmllr-tri3/train/data/feats_fmllr_train.8.ark:5915217
mhbs0_si945 quick_test/data-fmllr-tri3/train/data/feats_fmllr_train.6.ark:3654977
fpls0_si1590 quick_test/data-fmllr-tri3/train/data/feats_fmllr_train.3.ark:3203989
mmds0_si1343 quick_test/data-fmllr-tri3/train/data/feats_fmllr_train.7.ark:17017026
fsjw0_si703 quick_test/data-fmllr-tri3/train/data/feats_fmllr_train.3.ark:9715035
mrbc0_sx59 quick_test/data-fmllr-tri3/train/data/feats_fmllr_train.8.ark:13195684
fsjw0_si1333 quick_test/data-fmllr-tri3/train/data/feats_fmllr_train.3.ark:9584260
mpgr0_si2040 quick_test/data-fmllr-tri3/train/data/feats_fmllr_train.8.ark:7217123
fpmy0_sx196 quick_test/data-fmllr-tri3/train/data/feats_fmllr_train.3.ark:3824633
mbef0_si1281 quick_test/data-fmllr-tri3/train/data/feats_fmllr_train.4.ark:4472700
mdks0_si1066 quick_test/data-fmllr-tri3/train/data/feats_fmllr_train.5.ark:1926538
mtjs0_si562 quick_test/data-fmllr-tri3/train/data/feats_fmllr_train.10.ark:4980272
fexm0_si482 quick_test/data-fmllr-tri3/train/data/feats_fmllr_train.1.ark:15900911
fblv0_si1688 quick_test/data-fmllr-tri3/train/data/feats_fmllr_train.1.ark:3716870
fsbk0_si2329 quick_test/data-fmllr-tri3/train/data/feats_fmllr_train.3.ark:6421299
fgdp0_sx448 quick_test/data-fmllr-tri3/train/data/feats_fmllr_train.1.ark:16933294
mkxl0_sx375 quick_test/data-fmllr-tri3/train/data/feats_fmllr_train.7.ark:10080348
mjmm0_sx355 quick_test/data-fmllr-tri3/train/data/feats_fmllr_train.6.ark:16002003
mmjb1_si778 quick_test/data-fmllr-tri3/train/data/feats_fmllr_train.8.ark:1137201
mgxp0_sx277 quick_test/data-fmllr-tri3/train/data/feats_fmllr_train.6.ark:3377216
mdns0_si873 quick_test/data-fmllr-tri3/train/data/feats_fmllr_train.5.ark:6392662
mrhl0_si1515 quick_test/data-fmllr-tri3/train/data/feats_fmllr_train.9.ark:433028
mpgh0_si1554 quick_test/data-fmllr-tri3/train/data/feats_fmllr_train.8.ark:6819919
fbcg1_si982 quick_test/data-fmllr-tri3/train/data/feats_fmllr_train.1.ark:2526007
mjfr0_sx165 quick_test/data-fmllr-tri3/train/data/feats_fmllr_train.6.ark:11666920
mrab0_sx54 quick_test/data-fmllr-tri3/train/data/feats_fmllr_train.8.ark:11271397
mrai0_sx432 quick_test/data-fmllr-tri3/train/data/feats_fmllr_train.8.ark:12031325
fhxs0_sx175 quick_test/data-fmllr-tri3/train/data/feats_fmllr_train.1.ark:18588164
mchl0_sx447 quick_test/data-fmllr-tri3/train/data/feats_fmllr_train.4.ark:11289670
mdcm0_sx400 quick_test/data-fmllr-tri3/train/data/feats_fmllr_train.4.ark:16606491
fsrh0_si671 quick_test/data-fmllr-tri3/train/data/feats_fmllr_train.3.ark:13183549
mtpg0_sx303 quick_test/data-fmllr-tri3/train/data/feats_fmllr_train.10.ark:9043484
mrbc0_si1665 quick_test/data-fmllr-tri3/train/data/feats_fmllr_train.8.ark:12855815
mjkr0_sx211 quick_test/data-fmllr-tri3/train/data/feats_fmllr_train.6.ark:13777632
mcae0_sx187 quick_test/data-fmllr-tri3/train/data/feats_fmllr_train.4.ark:8351751
megj0_sx257 quick_test/data-fmllr-tri3/train/data/feats_fmllr_train.5.ark:12087171
mbbr0_sx245 quick_test/data-fmllr-tri3/train/data/feats_fmllr_train.4.ark:3943896
fsms1_si874 quick_test/data-fmllr-tri3/train/data/feats_fmllr_train.3.ark:12404075
mbef0_sx201 quick_test/data-fmllr-tri3/train/data/feats_fmllr_train.4.ark:4657129
mdsj0_sx382 quick_test/data-fmllr-tri3/train/data/feats_fmllr_train.5.ark:8486174
mbgt0_si711 quick_test/data-fmllr-tri3/train/data/feats_fmllr_train.4.ark:4887212
mtrr0_sx378 quick_test/data-fmllr-tri3/train/data/feats_fmllr_train.10.ark:11132621
mgar0_si1842 quick_test/data-fmllr-tri3/train/data/feats_fmllr_train.6.ark:93829
mrso0_si1659 quick_test/data-fmllr-tri3/train/data/feats_fmllr_train.9.ark:7963422
mprt0_sx40 quick_test/data-fmllr-tri3/train/data/feats_fmllr_train.8.ark:10545016
fdaw0_sx56 quick_test/data-fmllr-tri3/train/data/feats_fmllr_train.1.ark:10093946
mhmr0_sx399 quick_test/data-fmllr-tri3/train/data/feats_fmllr_train.6.ark:5319820
fsag0_sx333 quick_test/data-fmllr-tri3/train/data/feats_fmllr_train.3.ark:5336088
mrxb0_sx55 quick_test/data-fmllr-tri3/train/data/feats_fmllr_train.9.ark:11052143
milb0_sx273 quick_test/data-fmllr-tri3/train/data/feats_fmllr_train.6.ark:6330789
mrem0_sx151 quick_test/data-fmllr-tri3/train/data/feats_fmllr_train.8.ark:16122274
fsgf0_si1557 quick_test/data-fmllr-tri3/train/data/feats_fmllr_train.3.ark:7913792
fkfb0_si2238 quick_test/data-fmllr-tri3/train/data/feats_fmllr_train.2.ark:6506558
mlel0_si1246 quick_test/data-fmllr-tri3/train/data/feats_fmllr_train.7.ark:10498193
fvfb0_sx222 quick_test/data-fmllr-tri3/train/data/feats_fmllr_train.3.ark:15930882
mtwh1_sx252 quick_test/data-fmllr-tri3/train/data/feats_fmllr_train.10.ark:11715215
fclt0_si2068 quick_test/data-fmllr-tri3/train/data/feats_fmllr_train.1.ark:7449441
mrlj0_si2050 quick_test/data-fmllr-tri3/train/data/feats_fmllr_train.9.ark:3764391
msem1_si1440 quick_test/data-fmllr-tri3/train/data/feats_fmllr_train.9.ark:13658974
fsms1_si2134 quick_test/data-fmllr-tri3/train/data/feats_fmllr_train.3.ark:12357968
mdlr1_sx219 quick_test/data-fmllr-tri3/train/data/feats_fmllr_train.5.ark:5270464
mdac0_sx271 quick_test/data-fmllr-tri3/train/data/feats_fmllr_train.4.ark:14589328
mcth0_sx219 quick_test/data-fmllr-tri3/train/data/feats_fmllr_train.4.ark:13423397
mcre0_si1751 quick_test/data-fmllr-tri3/train/data/feats_fmllr_train.4.ark:12538431
mtkp0_sx303 quick_test/data-fmllr-tri3/train/data/feats_fmllr_train.10.ark:6382124
fcaj0_si1804 quick_test/data-fmllr-tri3/train/data/feats_fmllr_train.1.ark:5264459
fmpg0_sx342 quick_test/data-fmllr-tri3/train/data/feats_fmllr_train.2.ark:18230720
mkjo0_si2147 quick_test/data-fmllr-tri3/train/data/feats_fmllr_train.7.ark:7196425
mtxs0_sx340 quick_test/data-fmllr-tri3/train/data/feats_fmllr_train.10.ark:12178020
mkxl0_si1958 quick_test/data-fmllr-tri3/train/data/feats_fmllr_train.7.ark:9866134
mhjb0_sx117 quick_test/data-fmllr-tri3/train/data/feats_fmllr_train.6.ark:4446479
mwsh0_sx76 quick_test/data-fmllr-tri3/train/data/feats_fmllr_train.10.ark:17537273
mtkd0_sx287 quick_test/data-fmllr-tri3/train/data/feats_fmllr_train.10.ark:5980173
mdns0_si2271 quick_test/data-fmllr-tri3/train/data/feats_fmllr_train.5.ark:6360795
mmws0_sx78 quick_test/data-fmllr-tri3/train/data/feats_fmllr_train.8.ark:4271814
mtjm0_sx146 quick_test/data-fmllr-tri3/train/data/feats_fmllr_train.10.ark:4647602
mmjb1_sx238 quick_test/data-fmllr-tri3/train/data/feats_fmllr_train.8.ark:1219975
mdem0_sx248 quick_test/data-fmllr-tri3/train/data/feats_fmllr_train.5.ark:590419
mjmd0_si1658 quick_test/data-fmllr-tri3/train/data/feats_fmllr_train.6.ark:15455597
fhlm0_sx300 quick_test/data-fmllr-tri3/train/data/feats_fmllr_train.1.ark:18191039
msmc0_sx17 quick_test/data-fmllr-tri3/train/data/feats_fmllr_train.9.ark:16045127
mafm0_sx129 quick_test/data-fmllr-tri3/train/data/feats_fmllr_train.4.ark:850450
mjdc0_sx261 quick_test/data-fmllr-tri3/train/data/feats_fmllr_train.6.ark:8583931
mmsm0_sx296 quick_test/data-fmllr-tri3/train/data/feats_fmllr_train.8.ark:2882336
fsbk0_si1699 quick_test/data-fmllr-tri3/train/data/feats_fmllr_train.3.ark:6395191
mmds0_sx263 quick_test/data-fmllr-tri3/train/data/feats_fmllr_train.7.ark:17177935
msat1_sx443 quick_test/data-fmllr-tri3/train/data/feats_fmllr_train.9.ark:12436987
mfmc0_sx142 quick_test/data-fmllr-tri3/train/data/feats_fmllr_train.5.ark:14498099
mjbg0_sx242 quick_test/data-fmllr-tri3/train/data/feats_fmllr_train.6.ark:7820616
mrew1_sx330 quick_test/data-fmllr-tri3/train/data/feats_fmllr_train.8.ark:16549745
fmmh0_sx420 quick_test/data-fmllr-tri3/train/data/feats_fmllr_train.2.ark:17782985
fpls0_si2220 quick_test/data-fmllr-tri3/train/data/feats_fmllr_train.3.ark:3242097
mrmb0_si1581 quick_test/data-fmllr-tri3/train/data/feats_fmllr_train.9.ark:5146512
mcdc0_sx392 quick_test/data-fmllr-tri3/train/data/feats_fmllr_train.4.ark:9299810
mhit0_sx353 quick_test/data-fmllr-tri3/train/data/feats_fmllr_train.6.ark:4163915
mhbs0_sx45 quick_test/data-fmllr-tri3/train/data/feats_fmllr_train.6.ark:3876071
fjwb1_sx345 quick_test/data-fmllr-tri3/train/data/feats_fmllr_train.2.ark:4268083
mkah0_si2158 quick_test/data-fmllr-tri3/train/data/feats_fmllr_train.7.ark:4469787
msfv0_si1262 quick_test/data-fmllr-tri3/train/data/feats_fmllr_train.9.ark:14979466
mmds0_sx173 quick_test/data-fmllr-tri3/train/data/feats_fmllr_train.7.ark:17130068
mapv0_sx393 quick_test/data-fmllr-tri3/train/data/feats_fmllr_train.4.ark:2621347
fdxw0_si1511 quick_test/data-fmllr-tri3/train/data/feats_fmllr_train.1.ark:13009417
mwrp0_si2073 quick_test/data-fmllr-tri3/train/data/feats_fmllr_train.10.ark:16526789
fpls0_sx3 quick_test/data-fmllr-tri3/train/data/feats_fmllr_train.3.ark:3441083
mgsh0_sx96 quick_test/data-fmllr-tri3/train/data/feats_fmllr_train.6.ark:2664064
fnkl0_sx172 quick_test/data-fmllr-tri3/train/data/feats_fmllr_train.3.ark:156095
mjlg1_sx292 quick_test/data-fmllr-tri3/train/data/feats_fmllr_train.6.ark:14561320
mtmn0_sx254 quick_test/data-fmllr-tri3/train/data/feats_fmllr_train.10.ark:7912886
mcdc0_si662 quick_test/data-fmllr-tri3/train/data/feats_fmllr_train.4.ark:9067356
mcth0_si579 quick_test/data-fmllr-tri3/train/data/feats_fmllr_train.4.ark:13323183
mklw0_sx41 quick_test/data-fmllr-tri3/train/data/feats_fmllr_train.7.ark:9338154
fjdm2_sx142 quick_test/data-fmllr-tri3/train/data/feats_fmllr_train.2.ark:143456
mrcg0_sx78 quick_test/data-fmllr-tri3/train/data/feats_fmllr_train.8.ark:13644701
mdjm0_si1455 quick_test/data-fmllr-tri3/train/data/feats_fmllr_train.5.ark:1555441
fjen0_sx57 quick_test/data-fmllr-tri3/train/data/feats_fmllr_train.2.ark:812901
flag0_sx24 quick_test/data-fmllr-tri3/train/data/feats_fmllr_train.2.ark:9512825
mrmh0_si2281 quick_test/data-fmllr-tri3/train/data/feats_fmllr_train.9.ark:6013403
mdlc1_sx355 quick_test/data-fmllr-tri3/train/data/feats_fmllr_train.5.ark:3467007
mrew1_sx60 quick_test/data-fmllr-tri3/train/data/feats_fmllr_train.8.ark:16658758
mmrp0_si2034 quick_test/data-fmllr-tri3/train/data/feats_fmllr_train.8.ark:2152358
mmea0_si2018 quick_test/data-fmllr-tri3/train/data/feats_fmllr_train.7.ark:17380951
mmgg0_si1709 quick_test/data-fmllr-tri3/train/data/feats_fmllr_train.8.ark:428579
mtkd0_si630 quick_test/data-fmllr-tri3/train/data/feats_fmllr_train.10.ark:5774626
flma0_si1873 quick_test/data-fmllr-tri3/train/data/feats_fmllr_train.2.ark:12513176
mrgm0_si1792 quick_test/data-fmllr-tri3/train/data/feats_fmllr_train.8.ark:17538129
mhbs0_sx225 quick_test/data-fmllr-tri3/train/data/feats_fmllr_train.6.ark:3768311
mtjm0_sx236 quick_test/data-fmllr-tri3/train/data/feats_fmllr_train.10.ark:4685549
milb0_si903 quick_test/data-fmllr-tri3/train/data/feats_fmllr_train.6.ark:6215855
fmbg0_sx260 quick_test/data-fmllr-tri3/train/data/feats_fmllr_train.2.ark:14860776
mfxv0_si1005 quick_test/data-fmllr-tri3/train/data/feats_fmllr_train.5.ark:15867527
mtrr0_sx18 quick_test/data-fmllr-tri3/train/data/feats_fmllr_train.10.ark:10994620
fetb0_si518 quick_test/data-fmllr-tri3/train/data/feats_fmllr_train.1.ark:15513974
mtcs0_sx352 quick_test/data-fmllr-tri3/train/data/feats_fmllr_train.10.ark:2665451
madd0_sx268 quick_test/data-fmllr-tri3/train/data/feats_fmllr_train.3.ark:17780447
mwem0_si1393 quick_test/data-fmllr-tri3/train/data/feats_fmllr_train.10.ark:15298748
mafm0_sx39 quick_test/data-fmllr-tri3/train/data/feats_fmllr_train.4.ark:988130
mtmt0_sx218 quick_test/data-fmllr-tri3/train/data/feats_fmllr_train.10.ark:8265103
mkrg0_sx51 quick_test/data-fmllr-tri3/train/data/feats_fmllr_train.7.ark:9718370
mlns0_sx57 quick_test/data-fmllr-tri3/train/data/feats_fmllr_train.7.ark:12143833
mmdm0_si1941 quick_test/data-fmllr-tri3/train/data/feats_fmllr_train.7.ark:16319660
mrai0_sx342 quick_test/data-fmllr-tri3/train/data/feats_fmllr_train.8.ark:11978338
ftbr0_si921 quick_test/data-fmllr-tri3/train/data/feats_fmllr_train.3.ark:14323720
mtju0_sx400 quick_test/data-fmllr-tri3/train/data/feats_fmllr_train.10.ark:5623023
mhmr0_sx129 quick_test/data-fmllr-tri3/train/data/feats_fmllr_train.6.ark:5123073
mjjb0_sx419 quick_test/data-fmllr-tri3/train/data/feats_fmllr_train.6.ark:12641195
msfv0_sx92 quick_test/data-fmllr-tri3/train/data/feats_fmllr_train.9.ark:15360775
mkls1_sx195 quick_test/data-fmllr-tri3/train/data/feats_fmllr_train.7.ark:8868442
mlbc0_sx249 quick_test/data-fmllr-tri3/train/data/feats_fmllr_train.7.ark:10331045
mejs0_si1870 quick_test/data-fmllr-tri3/train/data/feats_fmllr_train.5.ark:12666562
mdrd0_sx122 quick_test/data-fmllr-tri3/train/data/feats_fmllr_train.5.ark:7938197
mhrm0_sx238 quick_test/data-fmllr-tri3/train/data/feats_fmllr_train.6.ark:5522517
mfxs0_sx234 quick_test/data-fmllr-tri3/train/data/feats_fmllr_train.5.ark:15645499
mjmm0_si1255 quick_test/data-fmllr-tri3/train/data/feats_fmllr_train.6.ark:15752747
mjma0_sx325 quick_test/data-fmllr-tri3/train/data/feats_fmllr_train.6.ark:15305888
msat0_sx86 quick_test/data-fmllr-tri3/train/data/feats_fmllr_train.9.ark:12126395
mmgc0_sx315 quick_test/data-fmllr-tri3/train/data/feats_fmllr_train.8.ark:229430
mkdb0_si2132 quick_test/data-fmllr-tri3/train/data/feats_fmllr_train.7.ark:5552331
mgrl0_sx57 quick_test/data-fmllr-tri3/train/data/feats_fmllr_train.6.ark:1844112
mkls0_si2067 quick_test/data-fmllr-tri3/train/data/feats_fmllr_train.7.ark:8317585
mjpm0_sx288 quick_test/data-fmllr-tri3/train/data/feats_fmllr_train.6.ark:16743423
mbar0_sx149 quick_test/data-fmllr-tri3/train/data/feats_fmllr_train.4.ark:3512771
mtmt0_sx38 quick_test/data-fmllr-tri3/train/data/feats_fmllr_train.10.ark:8353476
mjrp0_sx405 quick_test/data-fmllr-tri3/train/data/feats_fmllr_train.7.ark:1384988
mgar0_sx132 quick_test/data-fmllr-tri3/train/data/feats_fmllr_train.6.ark:133696
fjxm0_sx311 quick_test/data-fmllr-tri3/train/data/feats_fmllr_train.2.ark:4628460
mdrd0_sx212 quick_test/data-fmllr-tri3/train/data/feats_fmllr_train.5.ark:7995664
fpad0_sx356 quick_test/data-fmllr-tri3/train/data/feats_fmllr_train.3.ark:1886456
fjdm2_sx232 quick_test/data-fmllr-tri3/train/data/feats_fmllr_train.2.ark:208443
medr0_sx114 quick_test/data-fmllr-tri3/train/data/feats_fmllr_train.5.ark:11242872
mjac0_si701 quick_test/data-fmllr-tri3/train/data/feats_fmllr_train.6.ark:6545190
flmk0_si2295 quick_test/data-fmllr-tri3/train/data/feats_fmllr_train.2.ark:13317958
mrmh0_si1021 quick_test/data-fmllr-tri3/train/data/feats_fmllr_train.9.ark:5893347
mgak0_si1666 quick_test/data-fmllr-tri3/train/data/feats_fmllr_train.5.ark:16995726
fjwb1_si2055 quick_test/data-fmllr-tri3/train/data/feats_fmllr_train.2.ark:4039308
mjpm1_sx311 quick_test/data-fmllr-tri3/train/data/feats_fmllr_train.6.ark:17040894
mdhl0_si809 quick_test/data-fmllr-tri3/train/data/feats_fmllr_train.5.ark:919702
mdlb0_si1936 quick_test/data-fmllr-tri3/train/data/feats_fmllr_train.5.ark:2415104
fcmm0_sx183 quick_test/data-fmllr-tri3/train/data/feats_fmllr_train.1.ark:8344010
mjlg1_sx112 quick_test/data-fmllr-tri3/train/data/feats_fmllr_train.6.ark:14454840
fpjf0_sx146 quick_test/data-fmllr-tri3/train/data/feats_fmllr_train.3.ark:2983374
fskl0_sx269 quick_test/data-fmllr-tri3/train/data/feats_fmllr_train.3.ark:10553283
mwsb0_si1626 quick_test/data-fmllr-tri3/train/data/feats_fmllr_train.10.ark:16797669
meal0_sx377 quick_test/data-fmllr-tri3/train/data/feats_fmllr_train.5.ark:11042922
mjjm0_sx287 quick_test/data-fmllr-tri3/train/data/feats_fmllr_train.6.ark:13457468
mclk0_sx220 quick_test/data-fmllr-tri3/train/data/feats_fmllr_train.4.ark:11588873
mrab0_si1854 quick_test/data-fmllr-tri3/train/data/feats_fmllr_train.8.ark:10973476
mpar0_sx46 quick_test/data-fmllr-tri3/train/data/feats_fmllr_train.8.ark:6038177
mtlc0_sx307 quick_test/data-fmllr-tri3/train/data/feats_fmllr_train.10.ark:7131038
fpmy0_si1153 quick_test/data-fmllr-tri3/train/data/feats_fmllr_train.3.ark:3564844
mrgs0_sx366 quick_test/data-fmllr-tri3/train/data/feats_fmllr_train.9.ark:257589
mbwp0_si1531 quick_test/data-fmllr-tri3/train/data/feats_fmllr_train.4.ark:7708092
mdma0_si1238 quick_test/data-fmllr-tri3/train/data/feats_fmllr_train.5.ark:5469772
mbgt0_sx171 quick_test/data-fmllr-tri3/train/data/feats_fmllr_train.4.ark:4937479
mtxs0_si1690 quick_test/data-fmllr-tri3/train/data/feats_fmllr_train.10.ark:11959031
fnkl0_sx442 quick_test/data-fmllr-tri3/train/data/feats_fmllr_train.3.ark:278096
mrml0_sx161 quick_test/data-fmllr-tri3/train/data/feats_fmllr_train.9.ark:6430287
mrav0_sx198 quick_test/data-fmllr-tri3/train/data/feats_fmllr_train.8.ark:12731093
fsdc0_sx52 quick_test/data-fmllr-tri3/train/data/feats_fmllr_train.3.ark:7531627
fleh0_si2311 quick_test/data-fmllr-tri3/train/data/feats_fmllr_train.2.ark:9770883
mjlb0_si2246 quick_test/data-fmllr-tri3/train/data/feats_fmllr_train.6.ark:14017128
fecd0_sx68 quick_test/data-fmllr-tri3/train/data/feats_fmllr_train.1.ark:14549297
mjhi0_si1328 quick_test/data-fmllr-tri3/train/data/feats_fmllr_train.6.ark:11946575
mvlo0_si1147 quick_test/data-fmllr-tri3/train/data/feats_fmllr_train.10.ark:12702958
fvfb0_si1510 quick_test/data-fmllr-tri3/train/data/feats_fmllr_train.3.ark:15799280
fspm0_si611 quick_test/data-fmllr-tri3/train/data/feats_fmllr_train.3.ark:12823172
makb0_sx386 quick_test/data-fmllr-tri3/train/data/feats_fmllr_train.4.ark:1917073
mrlj1_si2301 quick_test/data-fmllr-tri3/train/data/feats_fmllr_train.9.ark:4108768
mmar0_si1966 quick_test/data-fmllr-tri3/train/data/feats_fmllr_train.7.ark:14239695
mmeb0_sx187 quick_test/data-fmllr-tri3/train/data/feats_fmllr_train.7.ark:17784422
mddc0_si2049 quick_test/data-fmllr-tri3/train/data/feats_fmllr_train.4.ark:16715667
fdfb0_sx328 quick_test/data-fmllr-tri3/train/data/feats_fmllr_train.1.ark:10332671
mdas0_si1896 quick_test/data-fmllr-tri3/train/data/feats_fmllr_train.4.ark:14804504
fmkf0_si1536 quick_test/data-fmllr-tri3/train/data/feats_fmllr_train.2.ark:17201702
mlns0_sx417 quick_test/data-fmllr-tri3/train/data/feats_fmllr_train.7.ark:12090207
freh0_sx325 quick_test/data-fmllr-tri3/train/data/feats_fmllr_train.3.ark:4244077
mhit0_sx443 quick_test/data-fmllr-tri3/train/data/feats_fmllr_train.6.ark:4213222
mjai0_si1604 quick_test/data-fmllr-tri3/train/data/feats_fmllr_train.6.ark:7268130
mbma1_sx324 quick_test/data-fmllr-tri3/train/data/feats_fmllr_train.4.ark:6153224
mses0_sx419 quick_test/data-fmllr-tri3/train/data/feats_fmllr_train.9.ark:14436955
fsms1_sx244 quick_test/data-fmllr-tri3/train/data/feats_fmllr_train.3.ark:12499009
mdlh0_sx430 quick_test/data-fmllr-tri3/train/data/feats_fmllr_train.5.ark:4228587
mcpm0_sx294 quick_test/data-fmllr-tri3/train/data/feats_fmllr_train.4.ark:12389680
mrai0_sx252 quick_test/data-fmllr-tri3/train/data/feats_fmllr_train.8.ark:11938151
mwsb0_sx186 quick_test/data-fmllr-tri3/train/data/feats_fmllr_train.10.ark:16945271
fsbk0_sx439 quick_test/data-fmllr-tri3/train/data/feats_fmllr_train.3.ark:6640127
mtrc0_sx363 quick_test/data-fmllr-tri3/train/data/feats_fmllr_train.10.ark:10734298
fsls0_sx156 quick_test/data-fmllr-tri3/train/data/feats_fmllr_train.3.ark:11261211
fcaj0_sx399 quick_test/data-fmllr-tri3/train/data/feats_fmllr_train.1.ark:5537260
mjee0_sx67 quick_test/data-fmllr-tri3/train/data/feats_fmllr_train.6.ark:11153153
mgrp0_sx147 quick_test/data-fmllr-tri3/train/data/feats_fmllr_train.6.ark:2037022
msat0_si1526 quick_test/data-fmllr-tri3/train/data/feats_fmllr_train.9.ark:11859166
mesg0_sx252 quick_test/data-fmllr-tri3/train/data/feats_fmllr_train.5.ark:13172620
mjdm0_si974 quick_test/data-fmllr-tri3/train/data/feats_fmllr_train.6.ark:9723568
feac0_sx165 quick_test/data-fmllr-tri3/train/data/feats_fmllr_train.1.ark:13500916
mtlc0_sx217 quick_test/data-fmllr-tri3/train/data/feats_fmllr_train.10.ark:7099651
mcdd0_sx73 quick_test/data-fmllr-tri3/train/data/feats_fmllr_train.4.ark:9647227
mrjm1_sx218 quick_test/data-fmllr-tri3/train/data/feats_fmllr_train.9.ark:2291126
fjsk0_si1682 quick_test/data-fmllr-tri3/train/data/feats_fmllr_train.2.ark:3336661
mmag0_sx406 quick_test/data-fmllr-tri3/train/data/feats_fmllr_train.7.ark:13748035
fdtd0_sx391 quick_test/data-fmllr-tri3/train/data/feats_fmllr_train.1.ark:12968269
mrws0_si1102 quick_test/data-fmllr-tri3/train/data/feats_fmllr_train.9.ark:10372857
mjxl0_sx362 quick_test/data-fmllr-tri3/train/data/feats_fmllr_train.7.ark:3842582
mcss0_si688 quick_test/data-fmllr-tri3/train/data/feats_fmllr_train.4.ark:12901019
mjwt0_sx301 quick_test/data-fmllr-tri3/train/data/feats_fmllr_train.7.ark:3115908
mtdp0_sx441 quick_test/data-fmllr-tri3/train/data/feats_fmllr_train.10.ark:3576633
mreh1_sx69 quick_test/data-fmllr-tri3/train/data/feats_fmllr_train.8.ark:15912085
fcmm0_si1957 quick_test/data-fmllr-tri3/train/data/feats_fmllr_train.1.ark:8235956
mjwg0_si813 quick_test/data-fmllr-tri3/train/data/feats_fmllr_train.7.ark:1990566
medr0_sx24 quick_test/data-fmllr-tri3/train/data/feats_fmllr_train.5.ark:11318925
fexm0_sx201 quick_test/data-fmllr-tri3/train/data/feats_fmllr_train.1.ark:16017765
mwch0_sx272 quick_test/data-fmllr-tri3/train/data/feats_fmllr_train.10.ark:14687035
fjrb0_si1302 quick_test/data-fmllr-tri3/train/data/feats_fmllr_train.2.ark:2383719
fsls0_sx202 quick_test/data-fmllr-tri3/train/data/feats_fmllr_train.3.ark:11316758
mjdc0_sx81 quick_test/data-fmllr-tri3/train/data/feats_fmllr_train.6.ark:8696651
mjdm0_si1937 quick_test/data-fmllr-tri3/train/data/feats_fmllr_train.6.ark:9702581
mjmd0_si1028 quick_test/data-fmllr-tri3/train/data/feats_fmllr_train.6.ark:15419409
mbar0_si1319 quick_test/data-fmllr-tri3/train/data/feats_fmllr_train.4.ark:3375569
mhbs0_sx405 quick_test/data-fmllr-tri3/train/data/feats_fmllr_train.6.ark:3837325
mdlb0_sx316 quick_test/data-fmllr-tri3/train/data/feats_fmllr_train.5.ark:2620812
mges0_sx401 quick_test/data-fmllr-tri3/train/data/feats_fmllr_train.6.ark:987011
fvfb0_sx402 quick_test/data-fmllr-tri3/train/data/feats_fmllr_train.3.ark:16031576
mbwp0_si709 quick_test/data-fmllr-tri3/train/data/feats_fmllr_train.4.ark:7776147
fblv0_sx338 quick_test/data-fmllr-tri3/train/data/feats_fmllr_train.1.ark:3930739
