fpjf0_sx352 quick_test/fbank/raw_fbank_train.1.ark:10367085
mclk0_si1660 quick_test/fbank/raw_fbank_train.2.ark:5231751
fsah0_sx344 quick_test/fbank/raw_fbank_train.1.ark:11072465
mdac0_si1837 quick_test/fbank/raw_fbank_train.2.ark:6015024
mtpp0_si878 quick_test/fbank/raw_fbank_train.4.ark:9414159
mklr0_sx159 quick_test/fbank/raw_fbank_train.3.ark:6682224
mmws0_sx258 quick_test/fbank/raw_fbank_train.3.ark:10314880
mrgm0_si1162 quick_test/fbank/raw_fbank_train.4.ark:2249817
mjrk0_sx340 quick_test/fbank/raw_fbank_train.3.ark:4885642
mbth0_sx122 quick_test/fbank/raw_fbank_train.2.ark:4227522
mrgs0_sx186 quick_test/fbank/raw_fbank_train.4.ark:2414342
fbmj0_si516 quick_test/fbank/raw_fbank_train.1.ark:1162598
mcxm0_sx361 quick_test/fbank/raw_fbank_train.2.ark:5968851
mbjv0_sx257 quick_test/fbank/raw_fbank_train.2.ark:3692806
mbar0_si689 quick_test/fbank/raw_fbank_train.2.ark:3196775
mvrw0_sx45 quick_test/fbank/raw_fbank_train.4.ark:10471173
msem1_sx450 quick_test/fbank/raw_fbank_train.4.ark:5984242
mrgs0_sx276 quick_test/fbank/raw_fbank_train.4.ark:2426135
mjls0_sx376 quick_test/fbank/raw_fbank_train.3.ark:3860150
mkdt0_sx443 quick_test/fbank/raw_fbank_train.3.ark:6334222
mklr0_sx429 quick_test/fbank/raw_fbank_train.3.ark:6715723
fljd0_sx166 quick_test/fbank/raw_fbank_train.1.ark:7754924
mewm0_sx178 quick_test/fbank/raw_fbank_train.2.ark:10337946
mejs0_si610 quick_test/fbank/raw_fbank_train.2.ark:10055400
megj0_si1337 quick_test/fbank/raw_fbank_train.2.ark:9829485
mhxl0_si512 quick_test/fbank/raw_fbank_train.3.ark:1484138
mgag0_sx61 quick_test/fbank/raw_fbank_train.2.ark:11131719
mkln0_sx158 quick_test/fbank/raw_fbank_train.3.ark:6593878
mmaa0_si845 quick_test/fbank/raw_fbank_train.3.ark:7894053
mgjc0_sx165 quick_test/fbank/raw_fbank_train.3.ark:315070
mjxl0_si1172 quick_test/fbank/raw_fbank_train.3.ark:5556730
mctm0_si1350 quick_test/fbank/raw_fbank_train.2.ark:5809260
msds0_sx267 quick_test/fbank/raw_fbank_train.4.ark:5824111
mkag0_si1609 quick_test/fbank/raw_fbank_train.3.ark:5659915
mbgt0_sx351 quick_test/fbank/raw_fbank_train.2.ark:3606734
ftaj0_sx339 quick_test/fbank/raw_fbank_train.2.ark:1312971
mgrp0_sx237 quick_test/fbank/raw_fbank_train.3.ark:538873
fbmh0_sx416 quick_test/fbank/raw_fbank_train.1.ark:1123899
fjen0_sx237 quick_test/fbank/raw_fbank_train.1.ark:5000475
flmk0_si1229 quick_test/fbank/raw_fbank_train.1.ark:8243662
fsag0_sx333 quick_test/fbank/raw_fbank_train.1.ark:10943600
mmar0_si1336 quick_test/fbank/raw_fbank_train.3.ark:8274407
mbar0_sx329 quick_test/fbank/raw_fbank_train.2.ark:3238874
falr0_si1325 quick_test/fbank/raw_fbank_train.1.ark:310923
fexm0_sx381 quick_test/fbank/raw_fbank_train.1.ark:4164928
mjma0_si1495 quick_test/fbank/raw_fbank_train.3.ark:3872544
mkdb0_sx152 quick_test/fbank/raw_fbank_train.3.ark:6091234
mnet0_sx186 quick_test/fbank/raw_fbank_train.3.ark:10575041
mtxs0_sx340 quick_test/fbank/raw_fbank_train.4.ark:10164473
mcae0_si2077 quick_test/fbank/raw_fbank_train.2.ark:4418266
mjfh0_si477 quick_test/fbank/raw_fbank_train.3.ark:2905800
mfmc0_sx232 quick_test/fbank/raw_fbank_train.2.ark:10533429
mrkm0_si1267 quick_test/fbank/raw_fbank_train.4.ark:3113696
mjjb0_sx149 quick_test/fbank/raw_fbank_train.3.ark:3207348
fjxp0_sx402 quick_test/fbank/raw_fbank_train.1.ark:6153298
msas0_sx386 quick_test/fbank/raw_fbank_train.4.ark:5407601
mhxl0_sx242 quick_test/fbank/raw_fbank_train.3.ark:1519917
fkdw0_sx37 quick_test/fbank/raw_fbank_train.1.ark:6468853
mtkp0_sx303 quick_test/fbank/raw_fbank_train.4.ark:8673937
msrg0_si1221 quick_test/fbank/raw_fbank_train.4.ark:6736443
mrlj0_si2050 quick_test/fbank/raw_fbank_train.4.ark:3337498
mrso0_sx309 quick_test/fbank/raw_fbank_train.4.ark:4474070
mjjb0_sx59 quick_test/fbank/raw_fbank_train.3.ark:3263639
mrlk0_si843 quick_test/fbank/raw_fbank_train.4.ark:3536022
mkdb0_si872 quick_test/fbank/raw_fbank_train.3.ark:6078961
mdps0_sx89 quick_test/fbank/raw_fbank_train.2.ark:8774296
fpls0_si1590 quick_test/fbank/raw_fbank_train.1.ark:10394991
fcjs0_sx347 quick_test/fbank/raw_fbank_train.1.ark:1770681
fjsk0_sx332 quick_test/fbank/raw_fbank_train.1.ark:5739206
mtrr0_sx198 quick_test/fbank/raw_fbank_train.4.ark:9871356
mdhl0_si2069 quick_test/fbank/raw_fbank_train.2.ark:7012832
fsag0_sx63 quick_test/fbank/raw_fbank_train.1.ark:10981625
fvkb0_si1789 quick_test/fbank/raw_fbank_train.2.ark:1835469
mdlh0_si1960 quick_test/fbank/raw_fbank_train.2.ark:7791800
mtat0_si1740 quick_test/fbank/raw_fbank_train.4.ark:7372305
mmdg0_sx430 quick_test/fbank/raw_fbank_train.3.ark:8780586
mlns0_sx147 quick_test/fbank/raw_fbank_train.3.ark:7704996
mjxa0_sx427 quick_test/fbank/raw_fbank_train.3.ark:5535104
mkaj0_si1414 quick_test/fbank/raw_fbank_train.3.ark:5866404
msah1_sx59 quick_test/fbank/raw_fbank_train.4.ark:5298616
mppc0_sx422 quick_test/fbank/raw_fbank_train.4.ark:24198
fbcg1_sx442 quick_test/fbank/raw_fbank_train.1.ark:706439
msat1_si1073 quick_test/fbank/raw_fbank_train.4.ark:5496060
mdma0_si1238 quick_test/fbank/raw_fbank_train.2.ark:8193699
freh0_sx145 quick_test/fbank/raw_fbank_train.1.ark:10643339
mmrp0_sx144 quick_test/fbank/raw_fbank_train.3.ark:9843867
mpgr0_sx60 quick_test/fbank/raw_fbank_train.3.ark:11177440
mmgk0_si692 quick_test/fbank/raw_fbank_train.3.ark:9467534
fdas1_sx111 quick_test/fbank/raw_fbank_train.1.ark:2448311
msrr0_sx51 quick_test/fbank/raw_fbank_train.4.ark:6916418
fjwb1_sx75 quick_test/fbank/raw_fbank_train.1.ark:5960840
mrfk0_si1076 quick_test/fbank/raw_fbank_train.4.ark:2050766
mrlj1_sx51 quick_test/fbank/raw_fbank_train.4.ark:3491601
mpfu0_sx268 quick_test/fbank/raw_fbank_train.3.ark:10959973
mcxm0_si721 quick_test/fbank/raw_fbank_train.2.ark:5933832
mjlg1_si1012 quick_test/fbank/raw_fbank_train.3.ark:3678213
ftaj0_sx69 quick_test/fbank/raw_fbank_train.2.ark:1330876
mtdp0_sx441 quick_test/fbank/raw_fbank_train.4.ark:7953516
mbma0_si592 quick_test/fbank/raw_fbank_train.2.ark:3762885
mprk0_si467 quick_test/fbank/raw_fbank_train.4.ark:312341
mefg0_sx375 quick_test/fbank/raw_fbank_train.2.ark:9815531
falr0_sx245 quick_test/fbank/raw_fbank_train.1.ark:358776
fcdr1_sx286 quick_test/fbank/raw_fbank_train.1.ark:1529638
mtkp0_si1023 quick_test/fbank/raw_fbank_train.4.ark:8599811
msmr0_si775 quick_test/fbank/raw_fbank_train.4.ark:6571980
fbmh0_sx56 quick_test/fbank/raw_fbank_train.1.ark:1134211
mpmb0_si871 quick_test/fbank/raw_fbank_train.3.ark:11337607
meal0_sx197 quick_test/fbank/raw_fbank_train.2.ark:9595784
fgdp0_si2248 quick_test/fbank/raw_fbank_train.1.ark:4277341
mrhl0_si2145 quick_test/fbank/raw_fbank_train.4.ark:2486779
ftbr0_sx21 quick_test/fbank/raw_fbank_train.2.ark:1408555
fljd0_sx436 quick_test/fbank/raw_fbank_train.1.ark:7795623
flmc0_si742 quick_test/fbank/raw_fbank_train.1.ark:8157030
fajw0_si1893 quick_test/fbank/raw_fbank_train.1.ark:120592
msdb0_sx107 quick_test/fbank/raw_fbank_train.4.ark:5622867
mprk0_sx107 quick_test/fbank/raw_fbank_train.4.ark:329494
mnet0_si816 quick_test/fbank/raw_fbank_train.3.ark:10563328
fvmh0_si1466 quick_test/fbank/raw_fbank_train.2.ark:1927380
fskp0_sx378 quick_test/fbank/raw_fbank_train.2.ark:527755
mdsj0_sx22 quick_test/fbank/raw_fbank_train.2.ark:8945607
mwac0_si2231 quick_test/fbank/raw_fbank_train.4.ark:10499561
mmdm0_si681 quick_test/fbank/raw_fbank_train.3.ark:8830839
mdpb0_si1760 quick_test/fbank/raw_fbank_train.2.ark:8500055
mjxl0_sx92 quick_test/fbank/raw_fbank_train.3.ark:5647801
fmkc0_sx352 quick_test/fbank/raw_fbank_train.1.ark:9200381
fkaa0_sx128 quick_test/fbank/raw_fbank_train.1.ark:6213664
mjpm1_si1897 quick_test/fbank/raw_fbank_train.3.ark:4332310
flag0_sx204 quick_test/fbank/raw_fbank_train.1.ark:7269189
mdcd0_sx155 quick_test/fbank/raw_fbank_train.2.ark:6435308
fceg0_sx168 quick_test/fbank/raw_fbank_train.1.ark:1590605
fmju0_si759 quick_test/fbank/raw_fbank_train.1.ark:9063296
fcmm0_sx420 quick_test/fbank/raw_fbank_train.1.ark:2175975
fklh0_sx177 quick_test/fbank/raw_fbank_train.1.ark:6958081
mtml0_sx165 quick_test/fbank/raw_fbank_train.4.ark:8935987
mkes0_si1253 quick_test/fbank/raw_fbank_train.3.ark:6357848
mrlj1_si2301 quick_test/fbank/raw_fbank_train.4.ark:3426363
mmxs0_sx246 quick_test/fbank/raw_fbank_train.3.ark:10491129
mmgk0_sx332 quick_test/fbank/raw_fbank_train.3.ark:9493513
fjsp0_si1763 quick_test/fbank/raw_fbank_train.1.ark:5796699
fbcg1_sx172 quick_test/fbank/raw_fbank_train.1.ark:665060
mklw0_si1571 quick_test/fbank/raw_fbank_train.3.ark:6940600
fdtd0_si931 quick_test/fbank/raw_fbank_train.1.ark:3261722
mwsb0_si996 quick_test/fbank/raw_fbank_train.4.ark:11373863
freh0_sx325 quick_test/fbank/raw_fbank_train.1.ark:10662285
fvfb0_si1032 quick_test/fbank/raw_fbank_train.2.ark:1737169
mmab1_sx324 quick_test/fbank/raw_fbank_train.3.ark:8031497
fexm0_sx201 quick_test/fbank/raw_fbank_train.1.ark:4116669
mjeb1_si1467 quick_test/fbank/raw_fbank_train.3.ark:2678883
megj0_si707 quick_test/fbank/raw_fbank_train.2.ark:9859992
mjrh0_si1840 quick_test/fbank/raw_fbank_train.3.ark:4652213
mprt0_sx400 quick_test/fbank/raw_fbank_train.4.ark:475729
fdnc0_sx288 quick_test/fbank/raw_fbank_train.1.ark:3205908
mdtb0_sx390 quick_test/fbank/raw_fbank_train.2.ark:9241062
mdks0_sx256 quick_test/fbank/raw_fbank_train.2.ark:7330367
fkkh0_si1920 quick_test/fbank/raw_fbank_train.1.ark:6627299
mmcc0_sx78 quick_test/fbank/raw_fbank_train.3.ark:8598448
mmdm1_sx63 quick_test/fbank/raw_fbank_train.3.ark:8991348
mpar0_sx46 quick_test/fbank/raw_fbank_train.3.ark:10811581
mefg0_si465 quick_test/fbank/raw_fbank_train.2.ark:9725021
msfh0_sx406 quick_test/fbank/raw_fbank_train.4.ark:6191573
fsjw0_si1963 quick_test/fbank/raw_fbank_train.2.ark:171363
fsdj0_si1745 quick_test/fbank/raw_fbank_train.1.ark:11536939
mmws0_sx168 quick_test/fbank/raw_fbank_train.3.ark:10305487
mtcs0_si1972 quick_test/fbank/raw_fbank_train.4.ark:7663346
fmpg0_si1602 quick_test/fbank/raw_fbank_train.1.ark:9445206
fjxm0_sx401 quick_test/fbank/raw_fbank_train.1.ark:6047993
mjeb1_sx27 quick_test/fbank/raw_fbank_train.3.ark:2752568
feac0_si1875 quick_test/fbank/raw_fbank_train.1.ark:3439740
mter0_sx167 quick_test/fbank/raw_fbank_train.4.ark:8022882
mjee0_sx427 quick_test/fbank/raw_fbank_train.3.ark:2857587
fklc1_si1048 quick_test/fbank/raw_fbank_train.1.ark:6819195
mwsb0_sx96 quick_test/fbank/raw_fbank_train.4.ark:11430545
fdmy0_sx387 quick_test/fbank/raw_fbank_train.1.ark:3105315
mprd0_sx351 quick_test/fbank/raw_fbank_train.4.ark:239695
mtrr0_sx108 quick_test/fbank/raw_fbank_train.4.ark:9848491
mrwa0_sx343 quick_test/fbank/raw_fbank_train.4.ark:4997035
mrms0_sx390 quick_test/fbank/raw_fbank_train.4.ark:4183019
mprk0_sx17 quick_test/fbank/raw_fbank_train.4.ark:341886
mdhl0_sx269 quick_test/fbank/raw_fbank_train.2.ark:7048731
msms0_sx443 quick_test/fbank/raw_fbank_train.4.ark:6714657
mrab0_sx144 quick_test/fbank/raw_fbank_train.4.ark:600768
mbml0_si1799 quick_test/fbank/raw_fbank_train.2.ark:3946022
msjk0_sx336 quick_test/fbank/raw_fbank_train.4.ark:6397470
mtlb0_sx54 quick_test/fbank/raw_fbank_train.4.ark:8790947
mjlb0_si1616 quick_test/fbank/raw_fbank_train.3.ark:3587108
mdef0_si1563 quick_test/fbank/raw_fbank_train.2.ark:6807502
fsma0_sx181 quick_test/fbank/raw_fbank_train.2.ark:677355
mrfk0_sx266 quick_test/fbank/raw_fbank_train.4.ark:2098300
msdh0_si980 quick_test/fbank/raw_fbank_train.4.ark:5674379
fpab1_si1471 quick_test/fbank/raw_fbank_train.1.ark:9762720
mmcc0_si1968 quick_test/fbank/raw_fbank_train.3.ark:8527731
mjjm0_si1457 quick_test/fbank/raw_fbank_train.3.ark:3404532
mdma0_sx440 quick_test/fbank/raw_fbank_train.2.ark:8282259
mkdd0_sx217 quick_test/fbank/raw_fbank_train.3.ark:6215572
fjsk0_si1052 quick_test/fbank/raw_fbank_train.1.ark:5677199
mdpb0_sx326 quick_test/fbank/raw_fbank_train.2.ark:8572301
mhrm0_sx58 quick_test/fbank/raw_fbank_train.3.ark:1458751
mbgt0_sx81 quick_test/fbank/raw_fbank_train.2.ark:3634199
feac0_sx345 quick_test/fbank/raw_fbank_train.1.ark:3495512
mbar0_si1949 quick_test/fbank/raw_fbank_train.2.ark:3191702
mjma0_si865 quick_test/fbank/raw_fbank_train.3.ark:3902731
fsdc0_sx52 quick_test/fbank/raw_fbank_train.1.ark:11507031
fcjs0_si977 quick_test/fbank/raw_fbank_train.1.ark:1736222
mrxb0_si1585 quick_test/fbank/raw_fbank_train.4.ark:5122799
fsms1_sx334 quick_test/fbank/raw_fbank_train.2.ark:912511
fmbg0_sx350 quick_test/fbank/raw_fbank_train.1.ark:8678336
mkdt0_sx263 quick_test/fbank/raw_fbank_train.3.ark:6310236
fdkn0_sx181 quick_test/fbank/raw_fbank_train.1.ark:2828094
mrld0_sx244 quick_test/fbank/raw_fbank_train.4.ark:3285972
mljc0_sx235 quick_test/fbank/raw_fbank_train.3.ark:7495619
mdhl0_sx449 quick_test/fbank/raw_fbank_train.2.ark:7072157
fcag0_sx423 quick_test/fbank/raw_fbank_train.1.ark:1321949
mjfh0_sx387 quick_test/fbank/raw_fbank_train.3.ark:2953124
mdcd0_si2045 quick_test/fbank/raw_fbank_train.2.ark:6407082
mbma1_sx144 quick_test/fbank/raw_fbank_train.2.ark:3867823
madc0_sx197 quick_test/fbank/raw_fbank_train.2.ark:2174275
madc0_sx17 quick_test/fbank/raw_fbank_train.2.ark:2166162
fpjf0_si1259 quick_test/fbank/raw_fbank_train.1.ark:10309879
fsma0_sx361 quick_test/fbank/raw_fbank_train.2.ark:703381
fsdc0_sx412 quick_test/fbank/raw_fbank_train.1.ark:11497159
mejl0_si962 quick_test/fbank/raw_fbank_train.2.ark:9959415
mvlo0_sx427 quick_test/fbank/raw_fbank_train.4.ark:10375236
mcdd0_si1513 quick_test/fbank/raw_fbank_train.2.ark:4713665
fcag0_sx243 quick_test/fbank/raw_fbank_train.1.ark:1294643
mtjg0_si2157 quick_test/fbank/raw_fbank_train.4.ark:8093040
mkln0_si968 quick_test/fbank/raw_fbank_train.3.ark:6578405
mjwg0_sx175 quick_test/fbank/raw_fbank_train.3.ark:5184850
mrab0_sx54 quick_test/fbank/raw_fbank_train.4.ark:651379
msrr0_sx231 quick_test/fbank/raw_fbank_train.4.ark:6889841
mtas0_si1385 quick_test/fbank/raw_fbank_train.4.ark:7275006
mmam0_si1668 quick_test/fbank/raw_fbank_train.3.ark:8203935
fdkn0_sx271 quick_test/fbank/raw_fbank_train.1.ark:2844687
mmxs0_sx66 quick_test/fbank/raw_fbank_train.3.ark:10530827
mmeb0_sx7 quick_test/fbank/raw_fbank_train.3.ark:9237309
mtbc0_si1173 quick_test/fbank/raw_fbank_train.4.ark:7565721
mjjb0_si1769 quick_test/fbank/raw_fbank_train.3.ark:3196875
mrjb1_sx390 quick_test/fbank/raw_fbank_train.4.ark:2673962
mjxa0_si877 quick_test/fbank/raw_fbank_train.3.ark:5489852
fsjw0_si703 quick_test/fbank/raw_fbank_train.2.ark:183676
mgar0_sx222 quick_test/fbank/raw_fbank_train.3.ark:46667
fgrw0_sx162 quick_test/fbank/raw_fbank_train.1.ark:4544538
mrws0_sx202 quick_test/fbank/raw_fbank_train.4.ark:5083347
mdhs0_sx360 quick_test/fbank/raw_fbank_train.2.ark:7155989
fsdj0_sx215 quick_test/fbank/raw_fbank_train.1.ark:11564718
mbom0_si2274 quick_test/fbank/raw_fbank_train.2.ark:4049961
mchl0_sx267 quick_test/fbank/raw_fbank_train.2.ark:5184579
mhjb0_si1017 quick_test/fbank/raw_fbank_train.3.ark:1105444
fsrh0_si1931 quick_test/fbank/raw_fbank_train.2.ark:1065389
mfrm0_sx255 quick_test/fbank/raw_fbank_train.2.ark:10633935
fntb0_sx123 quick_test/fbank/raw_fbank_train.1.ark:9710155
mded0_si1800 quick_test/fbank/raw_fbank_train.2.ark:6694077
mkxl0_sx195 quick_test/fbank/raw_fbank_train.3.ark:7202856
mjpg0_sx381 quick_test/fbank/raw_fbank_train.3.ark:4219731
mgar0_sx132 quick_test/fbank/raw_fbank_train.3.ark:34474
mdpb0_sx56 quick_test/fbank/raw_fbank_train.2.ark:8593446
fpab1_sx301 quick_test/fbank/raw_fbank_train.1.ark:9843926
mjmm0_sx175 quick_test/fbank/raw_fbank_train.3.ark:4087375
flod0_sx387 quick_test/fbank/raw_fbank_train.1.ark:8408806
mram0_sx15 quick_test/fbank/raw_fbank_train.4.ark:924196
mmwb0_si2249 quick_test/fbank/raw_fbank_train.3.ark:10154317
fsrh0_sx311 quick_test/fbank/raw_fbank_train.2.ark:1112121
mmwb0_sx89 quick_test/fbank/raw_fbank_train.3.ark:10257954
mgaf0_si1282 quick_test/fbank/raw_fbank_train.2.ark:10965064
mgjc0_sx435 quick_test/fbank/raw_fbank_train.3.ark:357209
mrlk0_sx393 quick_test/fbank/raw_fbank_train.4.ark:3589026
fgrw0_sx342 quick_test/fbank/raw_fbank_train.1.ark:4573484
mwad0_sx162 quick_test/fbank/raw_fbank_train.4.ark:10629453
mjde0_sx400 quick_test/fbank/raw_fbank_train.3.ark:2363133
mhmg0_si1995 quick_test/fbank/raw_fbank_train.3.ark:1196064
mcdc0_sx32 quick_test/fbank/raw_fbank_train.2.ark:4689798
mkaj0_sx334 quick_test/fbank/raw_fbank_train.3.ark:5923130
mmaa0_sx35 quick_test/fbank/raw_fbank_train.3.ark:7948704
mgsl0_sx354 quick_test/fbank/raw_fbank_train.3.ark:767593
msfv0_sx182 quick_test/fbank/raw_fbank_train.4.ark:6265899
mcal0_sx58 quick_test/fbank/raw_fbank_train.2.ark:4604566
mabc0_sx241 quick_test/fbank/raw_fbank_train.2.ark:2065258
fjlg0_sx449 quick_test/fbank/raw_fbank_train.1.ark:5324898
mlel0_sx76 quick_test/fbank/raw_fbank_train.3.ark:7428092
mmlm0_si1527 quick_test/fbank/raw_fbank_train.3.ark:9629077
mdlb0_si676 quick_test/fbank/raw_fbank_train.2.ark:7420246
fkde0_sx241 quick_test/fbank/raw_fbank_train.1.ark:6342243
mcdc0_sx212 quick_test/fbank/raw_fbank_train.2.ark:4665333
mljh0_sx334 quick_test/fbank/raw_fbank_train.3.ark:7630597
mafm0_si939 quick_test/fbank/raw_fbank_train.2.ark:2510318
mrai0_si792 quick_test/fbank/raw_fbank_train.4.ark:789865
flod0_si1287 quick_test/fbank/raw_fbank_train.1.ark:8329334
mtpg0_sx123 quick_test/fbank/raw_fbank_train.4.ark:9337847
mafm0_sx309 quick_test/fbank/raw_fbank_train.2.ark:2549497
fleh0_sx241 quick_test/fbank/raw_fbank_train.1.ark:7372095
feeh0_sx392 quick_test/fbank/raw_fbank_train.1.ark:3840572
mdac0_si631 quick_test/fbank/raw_fbank_train.2.ark:6024217
fjhk0_si1652 quick_test/fbank/raw_fbank_train.1.ark:5071801
fmpg0_si972 quick_test/fbank/raw_fbank_train.1.ark:9472113
mbma1_si2207 quick_test/fbank/raw_fbank_train.2.ark:3831163
fmjf0_si1254 quick_test/fbank/raw_fbank_train.1.ark:8929764
mjls0_si1096 quick_test/fbank/raw_fbank_train.3.ark:3769199
mcre0_si1725 quick_test/fbank/raw_fbank_train.2.ark:5527300
mses0_sx329 quick_test/fbank/raw_fbank_train.4.ark:6069395
mfxs0_si2304 quick_test/fbank/raw_fbank_train.2.ark:10792400
mjjj0_sx353 quick_test/fbank/raw_fbank_train.3.ark:3349959
fsah0_si1244 quick_test/fbank/raw_fbank_train.1.ark:10996139
mmgc0_sx315 quick_test/fbank/raw_fbank_train.3.ark:9317142
mcew0_sx182 quick_test/fbank/raw_fbank_train.2.ark:5058000
makr0_si1352 quick_test/fbank/raw_fbank_train.2.ark:2810128
fdtd0_si2191 quick_test/fbank/raw_fbank_train.1.ark:3248609
fcyl0_si667 quick_test/fbank/raw_fbank_train.1.ark:2320253
flmk0_sx135 quick_test/fbank/raw_fbank_train.1.ark:8271249
flma0_sx73 quick_test/fbank/raw_fbank_train.1.ark:8123249
fmmh0_si1537 quick_test/fbank/raw_fbank_train.1.ark:9345143
mntw0_sx78 quick_test/fbank/raw_fbank_train.3.ark:10723676
mmjb1_sx148 quick_test/fbank/raw_fbank_train.3.ark:9561912
mprb0_sx215 quick_test/fbank/raw_fbank_train.4.ark:111357
mses0_si2216 quick_test/fbank/raw_fbank_train.4.ark:6027462
mrso0_sx39 quick_test/fbank/raw_fbank_train.4.ark:4490022
mtpr0_sx70 quick_test/fbank/raw_fbank_train.4.ark:9585748
mjdc0_sx171 quick_test/fbank/raw_fbank_train.3.ark:2194778
mrjb1_si2021 quick_test/fbank/raw_fbank_train.4.ark:2608238
mrcg0_sx258 quick_test/fbank/raw_fbank_train.4.ark:1211433
mddc0_sx69 quick_test/fbank/raw_fbank_train.2.ark:6670689
meal0_sx347 quick_test/fbank/raw_fbank_train.2.ark:9614210
mejs0_si1240 quick_test/fbank/raw_fbank_train.2.ark:10028493
fklc0_sx175 quick_test/fbank/raw_fbank_train.1.ark:6751910
fsbk0_sx349 quick_test/fbank/raw_fbank_train.1.ark:11257876
mrdm0_sx65 quick_test/fbank/raw_fbank_train.4.ark:1547287
mjdc0_si531 quick_test/fbank/raw_fbank_train.3.ark:2171065
mdbp0_si528 quick_test/fbank/raw_fbank_train.2.ark:6310450
fmbg0_sx80 quick_test/fbank/raw_fbank_train.1.ark:8708561
mrfl0_si1156 quick_test/fbank/raw_fbank_train.4.ark:2138512
mjpm0_si1368 quick_test/fbank/raw_fbank_train.3.ark:4228245
maeo0_si1326 quick_test/fbank/raw_fbank_train.2.ark:2402185
mmws0_si559 quick_test/fbank/raw_fbank_train.3.ark:10283741
mjma0_sx415 quick_test/fbank/raw_fbank_train.3.ark:3944903
mree0_sx294 quick_test/fbank/raw_fbank_train.4.ark:1724145
mklr0_sx249 quick_test/fbank/raw_fbank_train.3.ark:6694257
mjrh0_si1755 quick_test/fbank/raw_fbank_train.3.ark:4639739
fdnc0_si1908 quick_test/fbank/raw_fbank_train.1.ark:3143783
msds0_sx87 quick_test/fbank/raw_fbank_train.4.ark:5870809
mprd0_si801 quick_test/fbank/raw_fbank_train.4.ark:188756
fsag0_si1953 quick_test/fbank/raw_fbank_train.1.ark:10894868
mrfk0_sx176 quick_test/fbank/raw_fbank_train.4.ark:2083707
msas0_sx116 quick_test/fbank/raw_fbank_train.4.ark:5359590
mfxs0_sx144 quick_test/fbank/raw_fbank_train.2.ark:10802873
fhlm0_sx210 quick_test/fbank/raw_fbank_train.1.ark:4661876
msat0_sx86 quick_test/fbank/raw_fbank_train.4.ark:5488266
mlsh0_sx337 quick_test/fbank/raw_fbank_train.3.ark:7828927
fbjl0_si1552 quick_test/fbank/raw_fbank_train.1.ark:841289
mrsp0_si2059 quick_test/fbank/raw_fbank_train.4.ark:4535603
mabc0_si1620 quick_test/fbank/raw_fbank_train.2.ark:2020165
fdkn0_si1081 quick_test/fbank/raw_fbank_train.1.ark:2787113
mdjm0_si1455 quick_test/fbank/raw_fbank_train.2.ark:7187408
mtpr0_si1600 quick_test/fbank/raw_fbank_train.4.ark:9481037
mmag0_sx136 quick_test/fbank/raw_fbank_train.3.ark:8120176
mcxm0_si1981 quick_test/fbank/raw_fbank_train.2.ark:5917839
mwdk0_si2017 quick_test/fbank/raw_fbank_train.4.ark:10873544
mvlo0_si517 quick_test/fbank/raw_fbank_train.4.ark:10320984
fmbg0_sx440 quick_test/fbank/raw_fbank_train.1.ark:8693169
fsms1_si2134 quick_test/fbank/raw_fbank_train.2.ark:863459
mjrg0_si736 quick_test/fbank/raw_fbank_train.3.ark:4548347
mbef0_sx21 quick_test/fbank/raw_fbank_train.2.ark:3515748
fcmm0_si1957 quick_test/fbank/raw_fbank_train.1.ark:2117530
mgak0_sx406 quick_test/fbank/raw_fbank_train.2.ark:11227873
mrdd0_si1680 quick_test/fbank/raw_fbank_train.4.ark:1380864
mrmg0_si2340 quick_test/fbank/raw_fbank_train.4.ark:3811218
mter0_si1157 quick_test/fbank/raw_fbank_train.4.ark:7981702
mdlm0_sx154 quick_test/fbank/raw_fbank_train.2.ark:7936204
mbma0_sx322 quick_test/fbank/raw_fbank_train.2.ark:3796224
fdkn0_sx91 quick_test/fbank/raw_fbank_train.1.ark:2888105
mljh0_si694 quick_test/fbank/raw_fbank_train.3.ark:7581698
fklc0_si985 quick_test/fbank/raw_fbank_train.1.ark:6731277
mpgr0_si1410 quick_test/fbank/raw_fbank_train.3.ark:11098649
mcdc0_sx302 quick_test/fbank/raw_fbank_train.2.ark:4678806
fsjs0_sx181 quick_test/fbank/raw_fbank_train.2.ark:82924
mrxb0_sx415 quick_test/fbank/raw_fbank_train.4.ark:5200438
frll0_si1514 quick_test/fbank/raw_fbank_train.1.ark:10781290
mkln0_si1598 quick_test/fbank/raw_fbank_train.3.ark:6555058
fbmj0_si1776 quick_test/fbank/raw_fbank_train.1.ark:1145565
fdfb0_sx58 quick_test/fbank/raw_fbank_train.1.ark:2680014
mjdg0_sx232 quick_test/fbank/raw_fbank_train.3.ark:2427461
flkm0_sx260 quick_test/fbank/raw_fbank_train.1.ark:7985406
mrdm0_sx335 quick_test/fbank/raw_fbank_train.4.ark:1521262
fgdp0_sx178 quick_test/fbank/raw_fbank_train.1.ark:4307327
mbsb0_sx3 quick_test/fbank/raw_fbank_train.2.ark:4163884
mtjg0_si890 quick_test/fbank/raw_fbank_train.4.ark:8098793
fmah1_si2139 quick_test/fbank/raw_fbank_train.1.ark:8535180
makr0_sx272 quick_test/fbank/raw_fbank_train.2.ark:2847021
mrcw0_si741 quick_test/fbank/raw_fbank_train.4.ark:1300672
mlel0_sx436 quick_test/fbank/raw_fbank_train.3.ark:7416260
mdhl0_si1439 quick_test/fbank/raw_fbank_train.2.ark:6999558
fcmm0_sx93 quick_test/fbank/raw_fbank_train.1.ark:2192847
flmc0_si2002 quick_test/fbank/raw_fbank_train.1.ark:8149397
megj0_si1967 quick_test/fbank/raw_fbank_train.2.ark:9854319
mtrc0_sx93 quick_test/fbank/raw_fbank_train.4.ark:9803317
mejs0_si1870 quick_test/fbank/raw_fbank_train.2.ark:10045887
mdac0_sx91 quick_test/fbank/raw_fbank_train.2.ark:6097301
mdlc2_sx174 quick_test/fbank/raw_fbank_train.2.ark:7734275
fkde0_sx151 quick_test/fbank/raw_fbank_train.1.ark:6329530
fbjl0_sx382 quick_test/fbank/raw_fbank_train.1.ark:928160
fscn0_sx86 quick_test/fbank/raw_fbank_train.1.ark:11416885
mcae0_sx367 quick_test/fbank/raw_fbank_train.2.ark:4480558
msem1_si2070 quick_test/fbank/raw_fbank_train.4.ark:5896157
mjmm0_si1255 quick_test/fbank/raw_fbank_train.3.ark:4051795
fpaf0_sx154 quick_test/fbank/raw_fbank_train.1.ark:10134736
mmws0_si1518 quick_test/fbank/raw_fbank_train.3.ark:10270828
mcdr0_si524 quick_test/fbank/raw_fbank_train.2.ark:4837757
mrai0_sx162 quick_test/fbank/raw_fbank_train.4.ark:809738
mlns0_si1407 quick_test/fbank/raw_fbank_train.3.ark:7670456
mbbr0_sx425 quick_test/fbank/raw_fbank_train.2.ark:3349133
mjjm0_sx377 quick_test/fbank/raw_fbank_train.3.ark:3472729
fkfb0_si2238 quick_test/fbank/raw_fbank_train.1.ark:6510554
fhxs0_sx85 quick_test/fbank/raw_fbank_train.1.ark:4827481
mmgg0_sx449 quick_test/fbank/raw_fbank_train.3.ark:9421361
mrmg0_si1710 quick_test/fbank/raw_fbank_train.4.ark:3799944
mmpm0_sx431 quick_test/fbank/raw_fbank_train.3.ark:9789702
mrfk0_si1706 quick_test/fbank/raw_fbank_train.4.ark:2068640
mwac0_si1601 quick_test/fbank/raw_fbank_train.4.ark:10480687
msdh0_si2240 quick_test/fbank/raw_fbank_train.4.ark:5668386
mkrg0_si2121 quick_test/fbank/raw_fbank_train.3.ark:7059900
mrab1_sx308 quick_test/fbank/raw_fbank_train.4.ark:727059
mjjm0_si1251 quick_test/fbank/raw_fbank_train.3.ark:3384618
mdpb0_sx146 quick_test/fbank/raw_fbank_train.2.ark:8549875
mfwk0_si619 quick_test/fbank/raw_fbank_train.2.ark:10699534
fsls0_sx246 quick_test/fbank/raw_fbank_train.2.ark:603996
mrjt0_si1805 quick_test/fbank/raw_fbank_train.4.ark:3022945
mhmg0_sx105 quick_test/fbank/raw_fbank_train.3.ark:1225850
mkah0_si1528 quick_test/fbank/raw_fbank_train.3.ark:5765619
mtdb0_sx321 quick_test/fbank/raw_fbank_train.4.ark:7824337
mfxv0_si1005 quick_test/fbank/raw_fbank_train.2.ark:10870718
fbas0_si1472 quick_test/fbank/raw_fbank_train.1.ark:541808
mejl0_sx332 quick_test/fbank/raw_fbank_train.2.ark:9992834
madc0_sx287 quick_test/fbank/raw_fbank_train.2.ark:2184748
fsjs0_sx91 quick_test/fbank/raw_fbank_train.2.ark:138295
fmkf0_si1536 quick_test/fbank/raw_fbank_train.1.ark:9259154
mkrg0_sx31 quick_test/fbank/raw_fbank_train.3.ark:7110031
mrjt0_si1498 quick_test/fbank/raw_fbank_train.4.ark:3011511
mcxm0_sx271 quick_test/fbank/raw_fbank_train.2.ark:5958578
mvjh0_si1556 quick_test/fbank/raw_fbank_train.4.ark:10205492
mrds0_sx87 quick_test/fbank/raw_fbank_train.4.ark:1635112
mdwm0_sx106 quick_test/fbank/raw_fbank_train.2.ark:9500606
mrmh0_sx391 quick_test/fbank/raw_fbank_train.4.ark:3969288
fsmm0_si1944 quick_test/fbank/raw_fbank_train.2.ark:756034
mnet0_sx276 quick_test/fbank/raw_fbank_train.3.ark:10584274
fnkl0_sx172 quick_test/fbank/raw_fbank_train.1.ark:9611891
mmdb0_sx447 quick_test/fbank/raw_fbank_train.3.ark:8678281
mkdd0_si1567 quick_test/fbank/raw_fbank_train.3.ark:6155839
mapv0_sx123 quick_test/fbank/raw_fbank_train.2.ark:2934013
mrws0_sx382 quick_test/fbank/raw_fbank_train.4.ark:5111125
mclm0_si2086 quick_test/fbank/raw_fbank_train.2.ark:5347530
fjsk0_sx62 quick_test/fbank/raw_fbank_train.1.ark:5767711
mljh0_si1324 quick_test/fbank/raw_fbank_train.3.ark:7540911
mjlb0_sx446 quick_test/fbank/raw_fbank_train.3.ark:3658907
mtdp0_si2151 quick_test/fbank/raw_fbank_train.4.ark:7889184
mwar0_sx55 quick_test/fbank/raw_fbank_train.4.ark:10759410
mdcd0_si1415 quick_test/fbank/raw_fbank_train.2.ark:6395768
mdlr0_sx243 quick_test/fbank/raw_fbank_train.2.ark:8032982
mjws0_sx243 quick_test/fbank/raw_fbank_train.3.ark:5295508
mtpp0_sx338 quick_test/fbank/raw_fbank_train.4.ark:9445498
msvs0_si1568 quick_test/fbank/raw_fbank_train.4.ark:7035116
mwsb0_si1626 quick_test/fbank/raw_fbank_train.4.ark:11353676
mgsh0_sx6 quick_test/fbank/raw_fbank_train.3.ark:673882
mmrp0_si2034 quick_test/fbank/raw_fbank_train.3.ark:9812768
mhxl0_sx422 quick_test/fbank/raw_fbank_train.3.ark:1546903
msat0_si1526 quick_test/fbank/raw_fbank_train.4.ark:5419035
mgar0_si1212 quick_test/fbank/raw_fbank_train.3.ark:13
mdlc1_si2065 quick_test/fbank/raw_fbank_train.2.ark:7627623
mbma1_si954 quick_test/fbank/raw_fbank_train.2.ark:3851430
milb0_sx93 quick_test/fbank/raw_fbank_train.3.ark:1656117
flkm0_si620 quick_test/fbank/raw_fbank_train.1.ark:7946267
fjwb1_si795 quick_test/fbank/raw_fbank_train.1.ark:5903916
mdss0_si621 quick_test/fbank/raw_fbank_train.2.ark:9014327
mdlr0_si603 quick_test/fbank/raw_fbank_train.2.ark:8009036
majp0_si2334 quick_test/fbank/raw_fbank_train.2.ark:2608184
mgaw0_sx175 quick_test/fbank/raw_fbank_train.3.ark:141259
flkm0_sx80 quick_test/fbank/raw_fbank_train.1.ark:8035864
fecd0_sx158 quick_test/fbank/raw_fbank_train.1.ark:3687976
mded0_sx180 quick_test/fbank/raw_fbank_train.2.ark:6726543
mrml0_si791 quick_test/fbank/raw_fbank_train.4.ark:4009189
fskc0_si1416 quick_test/fbank/raw_fbank_train.2.ark:256514
mcef0_sx235 quick_test/fbank/raw_fbank_train.2.ark:4963168
fbch0_sx146 quick_test/fbank/raw_fbank_train.1.ark:778004
majp0_sx444 quick_test/fbank/raw_fbank_train.2.ark:2664556
msjk0_sx426 quick_test/fbank/raw_fbank_train.4.ark:6414463
mdlh0_sx70 quick_test/fbank/raw_fbank_train.2.ark:7890870
mdef0_sx393 quick_test/fbank/raw_fbank_train.2.ark:6869820
mmvp0_sx294 quick_test/fbank/raw_fbank_train.3.ark:10097863
mdma0_sx170 quick_test/fbank/raw_fbank_train.2.ark:8229120
fclt0_sx178 quick_test/fbank/raw_fbank_train.1.ark:1938905
msat0_sx176 quick_test/fbank/raw_fbank_train.4.ark:5446495
mtwh1_sx342 quick_test/fbank/raw_fbank_train.4.ark:10056967
mdlc0_si1395 quick_test/fbank/raw_fbank_train.2.ark:7502404
mdhs0_sx180 quick_test/fbank/raw_fbank_train.2.ark:7135763
fmbg0_si1160 quick_test/fbank/raw_fbank_train.1.ark:8618491
mrjm0_sx238 quick_test/fbank/raw_fbank_train.4.ark:2855794
mbjv0_si617 quick_test/fbank/raw_fbank_train.2.ark:3666620
mmam0_sx427 quick_test/fbank/raw_fbank_train.3.ark:8253701
fceg0_sx78 quick_test/fbank/raw_fbank_train.1.ark:1635896
mtwh1_si1512 quick_test/fbank/raw_fbank_train.4.ark:10004481
mkls1_si1545 quick_test/fbank/raw_fbank_train.3.ark:6845655
mclk0_sx40 quick_test/fbank/raw_fbank_train.2.ark:5312549
mgag0_si645 quick_test/fbank/raw_fbank_train.2.ark:11067962
mrtc0_sx198 quick_test/fbank/raw_fbank_train.4.ark:4690319
mdrd0_si2012 quick_test/fbank/raw_fbank_train.2.ark:8794964
mmws1_si1071 quick_test/fbank/raw_fbank_train.3.ark:10365212
fjen0_sx327 quick_test/fbank/raw_fbank_train.1.ark:5009788
fcke0_si1111 quick_test/fbank/raw_fbank_train.1.ark:1814820
mcre0_sx401 quick_test/fbank/raw_fbank_train.2.ark:5582985
mewm0_sx268 quick_test/fbank/raw_fbank_train.2.ark:10353099
fsah0_sx164 quick_test/fbank/raw_fbank_train.1.ark:11040199
mjmm0_sx445 quick_test/fbank/raw_fbank_train.3.ark:4125514
mjmm0_si1885 quick_test/fbank/raw_fbank_train.3.ark:4069029
mmxs0_si629 quick_test/fbank/raw_fbank_train.3.ark:10455830
marw0_sx106 quick_test/fbank/raw_fbank_train.2.ark:3102543
flmk0_sx315 quick_test/fbank/raw_fbank_train.1.ark:8295275
mjdg0_si1705 quick_test/fbank/raw_fbank_train.3.ark:2405395
fpaf0_si1054 quick_test/fbank/raw_fbank_train.1.ark:10092195
mmxs0_si2136 quick_test/fbank/raw_fbank_train.3.ark:10444517
flmk0_si1035 quick_test/fbank/raw_fbank_train.1.ark:8231708
msvs0_sx218 quick_test/fbank/raw_fbank_train.4.ark:7098849
mjkr0_sx31 quick_test/fbank/raw_fbank_train.3.ark:3568201
fklh0_sx267 quick_test/fbank/raw_fbank_train.1.ark:6966274
msmc0_sx17 quick_test/fbank/raw_fbank_train.4.ark:6494620
mjeb0_sx26 quick_test/fbank/raw_fbank_train.3.ark:2649863
fcdr1_si1816 quick_test/fbank/raw_fbank_train.1.ark:1456074
fpad0_sx446 quick_test/fbank/raw_fbank_train.1.ark:10070969
flmc0_sx112 quick_test/fbank/raw_fbank_train.1.ark:8168823
fjkl0_sx32 quick_test/fbank/raw_fbank_train.1.ark:5230471
ftlg0_sx33 quick_test/fbank/raw_fbank_train.2.ark:1619997
mljc0_sx55 quick_test/fbank/raw_fbank_train.3.ark:7529757
mdlr1_sx399 quick_test/fbank/raw_fbank_train.2.ark:8182505
mljh0_sx244 quick_test/fbank/raw_fbank_train.3.ark:7613724
fsak0_sx40 quick_test/fbank/raw_fbank_train.1.ark:11176562
mrsp0_si1429 quick_test/fbank/raw_fbank_train.4.ark:4515449
mjjj0_sx263 quick_test/fbank/raw_fbank_train.3.ark:3334526
fmah1_sx159 quick_test/fbank/raw_fbank_train.1.ark:8561686
fgmb0_si1145 quick_test/fbank/raw_fbank_train.1.ark:4384012
fcmm0_sx273 quick_test/fbank/raw_fbank_train.1.ark:2153789
fcke0_sx391 quick_test/fbank/raw_fbank_train.1.ark:1895771
mmrp0_sx234 quick_test/fbank/raw_fbank_train.3.ark:9856820
mwre0_sx427 quick_test/fbank/raw_fbank_train.4.ark:11229826
mlns0_sx57 quick_test/fbank/raw_fbank_train.3.ark:7750767
fsdc0_sx142 quick_test/fbank/raw_fbank_train.1.ark:11461660
mesj0_si2039 quick_test/fbank/raw_fbank_train.2.ark:10223743
fapb0_si2323 quick_test/fbank/raw_fbank_train.1.ark:431736
msds0_si1707 quick_test/fbank/raw_fbank_train.4.ark:5786291
mtrt0_sx57 quick_test/fbank/raw_fbank_train.4.ark:9993007
ftmg0_sx362 quick_test/fbank/raw_fbank_train.2.ark:1699310
mrcg0_si1428 quick_test/fbank/raw_fbank_train.4.ark:1154820
mter0_sx77 quick_test/fbank/raw_fbank_train.4.ark:8073252
mjrh1_sx154 quick_test/fbank/raw_fbank_train.3.ark:4770031
fsak0_si670 quick_test/fbank/raw_fbank_train.1.ark:11128511
mprd0_si2061 quick_test/fbank/raw_fbank_train.4.ark:181283
fkfb0_sx168 quick_test/fbank/raw_fbank_train.1.ark:6534140
mhmr0_si489 quick_test/fbank/raw_fbank_train.3.ark:1304362
mjws0_sx153 quick_test/fbank/raw_fbank_train.3.ark:5279875
mmjb1_sx238 quick_test/fbank/raw_fbank_train.3.ark:9572745
fsah0_si1874 quick_test/fbank/raw_fbank_train.1.ark:11010573
marc0_sx288 quick_test/fbank/raw_fbank_train.2.ark:3049576
mmsm0_sx206 quick_test/fbank/raw_fbank_train.3.ark:9974885
msrg0_si591 quick_test/fbank/raw_fbank_train.4.ark:6758750
mcre0_si1121 quick_test/fbank/raw_fbank_train.2.ark:5512306
fmbg0_si2264 quick_test/fbank/raw_fbank_train.1.ark:8649479
fntb0_si679 quick_test/fbank/raw_fbank_train.1.ark:9689962
flja0_sx268 quick_test/fbank/raw_fbank_train.1.ark:7663372
fsjg0_si940 quick_test/fbank/raw_fbank_train.1.ark:11732782
mmvp0_si654 quick_test/fbank/raw_fbank_train.3.ark:10046084
mgaw0_si1802 quick_test/fbank/raw_fbank_train.3.ark:117273
mcth0_si1839 quick_test/fbank/raw_fbank_train.2.ark:5726949
fskp0_si468 quick_test/fbank/raw_fbank_train.2.ark:474431
mrav0_sx108 quick_test/fbank/raw_fbank_train.4.ark:1006750
faem0_si1392 quick_test/fbank/raw_fbank_train.1.ark:13
mrpc1_sx312 quick_test/fbank/raw_fbank_train.4.ark:4243660
mjmd0_sx218 quick_test/fbank/raw_fbank_train.3.ark:4006943
mhxl0_sx152 quick_test/fbank/raw_fbank_train.3.ark:1506084
mkam0_si1250 quick_test/fbank/raw_fbank_train.3.ark:5950269
mprd0_sx261 quick_test/fbank/raw_fbank_train.4.ark:229422
mrtj0_sx322 quick_test/fbank/raw_fbank_train.4.ark:4812665
mklw0_sx41 quick_test/fbank/raw_fbank_train.3.ark:7029952
flag0_sx384 quick_test/fbank/raw_fbank_train.1.ark:7308767
mtmt0_sx398 quick_test/fbank/raw_fbank_train.4.ark:9192728
mrlj1_sx411 quick_test/fbank/raw_fbank_train.4.ark:3480329
fsjg0_sx130 quick_test/fbank/raw_fbank_train.1.ark:11754335
fsdj0_sx305 quick_test/fbank/raw_fbank_train.1.ark:11576271
fjhk0_si2282 quick_test/fbank/raw_fbank_train.1.ark:5078435
fjsp0_sx444 quick_test/fbank/raw_fbank_train.1.ark:5850824
fkaa0_sx398 quick_test/fbank/raw_fbank_train.1.ark:6267515
fbch0_sx56 quick_test/fbank/raw_fbank_train.1.ark:828855
mdjm0_sx375 quick_test/fbank/raw_fbank_train.2.ark:7271199
mmar0_sx256 quick_test/fbank/raw_fbank_train.3.ark:8340380
fdjh0_si1565 quick_test/fbank/raw_fbank_train.1.ark:2692888
mter0_si527 quick_test/fbank/raw_fbank_train.4.ark:8010609
flod0_si657 quick_test/fbank/raw_fbank_train.1.ark:8354841
mjfr0_sx435 quick_test/fbank/raw_fbank_train.3.ark:3043197
mtqc0_sx181 quick_test/fbank/raw_fbank_train.4.ark:9643202
mfrm0_si1785 quick_test/fbank/raw_fbank_train.2.ark:10610949
mpsw0_si2327 quick_test/fbank/raw_fbank_train.4.ark:505351
mcdr0_sx344 quick_test/fbank/raw_fbank_train.2.ark:4881216
fmju0_sx219 quick_test/fbank/raw_fbank_train.1.ark:9089842
mtbc0_sx93 quick_test/fbank/raw_fbank_train.4.ark:7654032
mdss0_sx171 quick_test/fbank/raw_fbank_train.2.ark:9024840
madc0_si737 quick_test/fbank/raw_fbank_train.2.ark:2134937
freh0_si685 quick_test/fbank/raw_fbank_train.1.ark:10632786
mdas0_sx21 quick_test/fbank/raw_fbank_train.2.ark:6159267
mjls0_sx16 quick_test/fbank/raw_fbank_train.3.ark:3826891
mrgs0_sx366 quick_test/fbank/raw_fbank_train.4.ark:2437248
mmaa0_si2105 quick_test/fbank/raw_fbank_train.3.ark:7883980
mmdm1_sx333 quick_test/fbank/raw_fbank_train.3.ark:8959483
msdh0_sx440 quick_test/fbank/raw_fbank_train.4.ark:5739031
mgaw0_sx445 quick_test/fbank/raw_fbank_train.3.ark:175598
fvfb0_si2292 quick_test/fbank/raw_fbank_train.2.ark:1765157
fdjh0_si2195 quick_test/fbank/raw_fbank_train.1.ark:2702882
mcss0_sx390 quick_test/fbank/raw_fbank_train.2.ark:5700361
fsma0_si991 quick_test/fbank/raw_fbank_train.2.ark:659122
mrab0_sx234 quick_test/fbank/raw_fbank_train.4.ark:611201
fskp0_si1098 quick_test/fbank/raw_fbank_train.2.ark:446364
mpar0_sx226 quick_test/fbank/raw_fbank_train.3.ark:10779803
mrew1_si870 quick_test/fbank/raw_fbank_train.4.ark:1973968
fcmg0_sx252 quick_test/fbank/raw_fbank_train.1.ark:2056444
fcyl0_sx349 quick_test/fbank/raw_fbank_train.1.ark:2357632
maeo0_sx336 quick_test/fbank/raw_fbank_train.2.ark:2460032
mmwb0_sx449 quick_test/fbank/raw_fbank_train.3.ark:10239162
mmbs0_si1151 quick_test/fbank/raw_fbank_train.3.ark:8398512
mppc0_sx332 quick_test/fbank/raw_fbank_train.4.ark:12125
fjlr0_sx151 quick_test/fbank/raw_fbank_train.1.ark:5387944
mmwb0_sx269 quick_test/fbank/raw_fbank_train.3.ark:10207896
fpjf0_si1046 quick_test/fbank/raw_fbank_train.1.ark:10299125
fjhk0_sx392 quick_test/fbank/raw_fbank_train.1.ark:5147679
fsls0_si2316 quick_test/fbank/raw_fbank_train.2.ark:565497
fpaf0_si1684 quick_test/fbank/raw_fbank_train.1.ark:10115189
mcdc0_sx122 quick_test/fbank/raw_fbank_train.2.ark:4651980
fcke0_sx301 quick_test/fbank/raw_fbank_train.1.ark:1878146
fsjk1_sx125 quick_test/fbank/raw_fbank_train.1.ark:11874760
mjda0_si2291 quick_test/fbank/raw_fbank_train.3.ark:2082960
mded0_si1170 quick_test/fbank/raw_fbank_train.2.ark:6681163
fmmh0_sx187 quick_test/fbank/raw_fbank_train.1.ark:9388123
mkaj0_sx244 quick_test/fbank/raw_fbank_train.3.ark:5910577
mter0_sx257 quick_test/fbank/raw_fbank_train.4.ark:8046587
mmlm0_sx87 quick_test/fbank/raw_fbank_train.3.ark:9702868
mdef0_si2193 quick_test/fbank/raw_fbank_train.2.ark:6818696
mpar0_si946 quick_test/fbank/raw_fbank_train.3.ark:10756017
feeh0_si1742 quick_test/fbank/raw_fbank_train.1.ark:3766015
mtju0_si2269 quick_test/fbank/raw_fbank_train.4.ark:8414195
msvs0_si2198 quick_test/fbank/raw_fbank_train.4.ark:7045790
mchl0_sx447 quick_test/fbank/raw_fbank_train.2.ark:5212045
mrgm0_si532 quick_test/fbank/raw_fbank_train.4.ark:2278204
mdac0_si1261 quick_test/fbank/raw_fbank_train.2.ark:6003830
mrkm0_sx7 quick_test/fbank/raw_fbank_train.4.ark:3214373
mgxp0_sx367 quick_test/fbank/raw_fbank_train.3.ark:879177
flja0_sx448 quick_test/fbank/raw_fbank_train.1.ark:7690838
mprb0_si575 quick_test/fbank/raw_fbank_train.4.ark:80051
fjrp1_si1432 quick_test/fbank/raw_fbank_train.1.ark:5549974
freh0_sx55 quick_test/fbank/raw_fbank_train.1.ark:10678870
marw0_sx16 quick_test/fbank/raw_fbank_train.2.ark:3114575
mmdg0_sx250 quick_test/fbank/raw_fbank_train.3.ark:8752360
meal0_si1547 quick_test/fbank/raw_fbank_train.2.ark:9558531
fltm0_sx260 quick_test/fbank/raw_fbank_train.1.ark:8465374
mtmn0_sx254 quick_test/fbank/raw_fbank_train.4.ark:9067365
fcag0_si2133 quick_test/fbank/raw_fbank_train.1.ark:1272777
mdcm0_si850 quick_test/fbank/raw_fbank_train.2.ark:6522580
mlel0_si1246 quick_test/fbank/raw_fbank_train.3.ark:7328621
fljg0_sx171 quick_test/fbank/raw_fbank_train.1.ark:7858309
mtml0_sx345 quick_test/fbank/raw_fbank_train.4.ark:8959253
fskc0_si2046 quick_test/fbank/raw_fbank_train.2.ark:267348
mdem0_si800 quick_test/fbank/raw_fbank_train.2.ark:6907000
fpaz0_sx243 quick_test/fbank/raw_fbank_train.1.ark:10253034
mtab0_si942 quick_test/fbank/raw_fbank_train.4.ark:7190128
mkdb0_sx62 quick_test/fbank/raw_fbank_train.3.ark:6144565
mbbr0_si1055 quick_test/fbank/raw_fbank_train.2.ark:3272973
fskl0_sx359 quick_test/fbank/raw_fbank_train.2.ark:408025
mfmc0_si1132 quick_test/fbank/raw_fbank_train.2.ark:10479536
mrld0_sx154 quick_test/fbank/raw_fbank_train.4.ark:3276579
fdml0_si2075 quick_test/fbank/raw_fbank_train.1.ark:2925927
flag0_sx294 quick_test/fbank/raw_fbank_train.1.ark:7294734
mses0_si2219 quick_test/fbank/raw_fbank_train.4.ark:6034816
fmmh0_sx97 quick_test/fbank/raw_fbank_train.1.ark:9435932
mrhl0_sx75 quick_test/fbank/raw_fbank_train.4.ark:2563416
fetb0_si1778 quick_test/fbank/raw_fbank_train.1.ark:3972865
mbma1_sx324 quick_test/fbank/raw_fbank_train.2.ark:3891569
mdem0_sx428 quick_test/fbank/raw_fbank_train.2.ark:6968132
flac0_sx181 quick_test/fbank/raw_fbank_train.1.ark:7149931
madc0_sx107 quick_test/fbank/raw_fbank_train.2.ark:2154410
fjdm2_sx322 quick_test/fbank/raw_fbank_train.1.ark:4908882
mwgr0_si976 quick_test/fbank/raw_fbank_train.4.ark:11080668
fbcg1_si1612 quick_test/fbank/raw_fbank_train.1.ark:633960
fjxp0_sx42 quick_test/fbank/raw_fbank_train.1.ark:6165490
fjkl0_si2192 quick_test/fbank/raw_fbank_train.1.ark:5164747
fvmh0_sx206 quick_test/fbank/raw_fbank_train.2.ark:1981553
mbbr0_sx65 quick_test/fbank/raw_fbank_train.2.ark:3357045
mkdd0_si2197 quick_test/fbank/raw_fbank_train.3.ark:6172873
mstf0_si1396 quick_test/fbank/raw_fbank_train.4.ark:6928292
mded0_sx450 quick_test/fbank/raw_fbank_train.2.ark:6762322
mjbg0_sx62 quick_test/fbank/raw_fbank_train.3.ark:2055938
mvrw0_si2115 quick_test/fbank/raw_fbank_train.4.ark:10416176
mjrp0_sx405 quick_test/fbank/raw_fbank_train.3.ark:4985900
mpgr0_sx240 quick_test/fbank/raw_fbank_train.3.ark:11139022
fvmh0_si836 quick_test/fbank/raw_fbank_train.2.ark:1955767
msmr0_sx145 quick_test/fbank/raw_fbank_train.4.ark:6582493
madd0_sx448 quick_test/fbank/raw_fbank_train.2.ark:2283094
mwac0_sx161 quick_test/fbank/raw_fbank_train.4.ark:10524227
mgjc0_sx75 quick_test/fbank/raw_fbank_train.3.ark:375521
mjeb1_sx387 quick_test/fbank/raw_fbank_train.3.ark:2771554
mdlb0_si1936 quick_test/fbank/raw_fbank_train.2.ark:7408213
mjws0_sx423 quick_test/fbank/raw_fbank_train.3.ark:5326254
mtpf0_si1865 quick_test/fbank/raw_fbank_train.4.ark:9219836
mmab1_si864 quick_test/fbank/raw_fbank_train.3.ark:7987398
mbma1_si2214 quick_test/fbank/raw_fbank_train.2.ark:3838877
frll0_sx74 quick_test/fbank/raw_fbank_train.1.ark:10867520
mjmm0_sx85 quick_test/fbank/raw_fbank_train.3.ark:4134226
mdpk0_sx63 quick_test/fbank/raw_fbank_train.2.ark:8684191
mpgh0_sx384 quick_test/fbank/raw_fbank_train.3.ark:11090095
mmdm0_si1311 quick_test/fbank/raw_fbank_train.3.ark:8801212
fdtd0_si1561 quick_test/fbank/raw_fbank_train.1.ark:3235615
ftbr0_si1402 quick_test/fbank/raw_fbank_train.2.ark:1340710
mjkr0_sx301 quick_test/fbank/raw_fbank_train.3.ark:3553689
fdaw0_sx56 quick_test/fbank/raw_fbank_train.1.ark:2595188
mwgr0_sx76 quick_test/fbank/raw_fbank_train.4.ark:11143952
flmc0_sx336 quick_test/fbank/raw_fbank_train.1.ark:8203721
mwgr0_sx166 quick_test/fbank/raw_fbank_train.4.ark:11095821
msds0_si2337 quick_test/fbank/raw_fbank_train.4.ark:5800285
mrlj1_sx141 quick_test/fbank/raw_fbank_train.4.ark:3449270
fgdp0_sx88 quick_test/fbank/raw_fbank_train.1.ark:4365218
mjma0_sx235 quick_test/fbank/raw_fbank_train.3.ark:3926477
fcrz0_sx433 quick_test/fbank/raw_fbank_train.1.ark:2271400
mtdb0_sx411 quick_test/fbank/raw_fbank_train.4.ark:7838290
mjda0_sx401 quick_test/fbank/raw_fbank_train.3.ark:2128652
mjhi0_si698 quick_test/fbank/raw_fbank_train.3.ark:3100969
mrhl0_si1515 quick_test/fbank/raw_fbank_train.4.ark:2482145
mtjm0_sx416 quick_test/fbank/raw_fbank_train.4.ark:8258950
makb0_sx206 quick_test/fbank/raw_fbank_train.2.ark:2767276
mcal0_sx148 quick_test/fbank/raw_fbank_train.2.ark:4554035
mfer0_si862 quick_test/fbank/raw_fbank_train.2.ark:10409418
fceg0_si618 quick_test/fbank/raw_fbank_train.1.ark:1580492
mrso0_si1659 quick_test/fbank/raw_fbank_train.4.ark:4417737
msfh0_sx316 quick_test/fbank/raw_fbank_train.4.ark:6180380
mrbc0_sx329 quick_test/fbank/raw_fbank_train.4.ark:1118241
mppc0_si2042 quick_test/fbank/raw_fbank_train.3.ark:11474919
mmaa0_sx305 quick_test/fbank/raw_fbank_train.3.ark:7937112
mjpm0_sx378 quick_test/fbank/raw_fbank_train.3.ark:4319756
mgrl0_si2127 quick_test/fbank/raw_fbank_train.3.ark:397629
mrws0_sx292 quick_test/fbank/raw_fbank_train.4.ark:5098052
mjjm0_si827 quick_test/fbank/raw_fbank_train.3.ark:3419405
