msmc0_sx107 quick_test/fbank/raw_fbank_train.4.ark:6480548
mjeb0_si1286 quick_test/fbank/raw_fbank_train.3.ark:2582618
msat0_sx446 quick_test/fbank/raw_fbank_train.4.ark:5476314
mkah0_si898 quick_test/fbank/raw_fbank_train.3.ark:5788206
falr0_si1325 quick_test/fbank/raw_fbank_train.1.ark:310923
mlns0_sx327 quick_test/fbank/raw_fbank_train.3.ark:7721942
mrms0_sx210 quick_test/fbank/raw_fbank_train.4.ark:4159121
msmr0_si1405 quick_test/fbank/raw_fbank_train.4.ark:6560987
flet0_sx147 quick_test/fbank/raw_fbank_train.1.ark:7466647
fspm0_si611 quick_test/fbank/raw_fbank_train.2.ark:982877
mmeb0_sx187 quick_test/fbank/raw_fbank_train.3.ark:9201092
mtbc0_si543 quick_test/fbank/raw_fbank_train.4.ark:7584028
fceg0_sx168 quick_test/fbank/raw_fbank_train.1.ark:1590605
mcae0_sx187 quick_test/fbank/raw_fbank_train.2.ark:4457132
mmdm1_sx333 quick_test/fbank/raw_fbank_train.3.ark:8959483
mkjo0_sx437 quick_test/fbank/raw_fbank_train.3.ark:6531232
mrab1_sx398 quick_test/fbank/raw_fbank_train.4.ark:752604
mrcw0_si741 quick_test/fbank/raw_fbank_train.4.ark:1300672
mfwk0_sx349 quick_test/fbank/raw_fbank_train.2.ark:10733113
fmjf0_sx84 quick_test/fbank/raw_fbank_train.1.ark:9018915
mgak0_sx46 quick_test/fbank/raw_fbank_train.2.ark:11244145
mrbc0_si1859 quick_test/fbank/raw_fbank_train.4.ark:1068949
mtkd0_sx197 quick_test/fbank/raw_fbank_train.4.ark:8560151
mjkr0_si571 quick_test/fbank/raw_fbank_train.3.ark:3513870
mrlk0_sx393 quick_test/fbank/raw_fbank_train.4.ark:3589026
mbef0_sx291 quick_test/fbank/raw_fbank_train.2.ark:3522581
fpad0_sx356 quick_test/fbank/raw_fbank_train.1.ark:10056256
fsma0_sx271 quick_test/fbank/raw_fbank_train.2.ark:691908
mpfu0_si1258 quick_test/fbank/raw_fbank_train.3.ark:10909360
mdas0_sx21 quick_test/fbank/raw_fbank_train.2.ark:6159267
feeh0_si471 quick_test/fbank/raw_fbank_train.1.ark:3779728
mlbc0_sx69 quick_test/fbank/raw_fbank_train.3.ark:7317547
mrav0_si1008 quick_test/fbank/raw_fbank_train.4.ark:970329
fdxw0_sx431 quick_test/fbank/raw_fbank_train.1.ark:3409960
mkls0_sx447 quick_test/fbank/raw_fbank_train.3.ark:6823589
mmab1_si864 quick_test/fbank/raw_fbank_train.3.ark:7987398
fklh0_sx267 quick_test/fbank/raw_fbank_train.1.ark:6966274
mtxs0_sx340 quick_test/fbank/raw_fbank_train.4.ark:10164473
mjsr0_sx74 quick_test/fbank/raw_fbank_train.3.ark:5116117
fgmb0_sx335 quick_test/fbank/raw_fbank_train.1.ark:4457338
mfxv0_sx375 quick_test/fbank/raw_fbank_train.2.ark:10952110
ftlg0_sx123 quick_test/fbank/raw_fbank_train.2.ark:1585299
fljg0_si2241 quick_test/fbank/raw_fbank_train.1.ark:7829443
mmgg0_si2339 quick_test/fbank/raw_fbank_train.3.ark:9376869
mrkm0_si637 quick_test/fbank/raw_fbank_train.4.ark:3152843
mrxb0_sx55 quick_test/fbank/raw_fbank_train.4.ark:5211390
mjhi0_sx68 quick_test/fbank/raw_fbank_train.3.ark:3161333
mcdc0_si1922 quick_test/fbank/raw_fbank_train.2.ark:4631394
mbgt0_sx351 quick_test/fbank/raw_fbank_train.2.ark:3606734
fvkb0_sx169 quick_test/fbank/raw_fbank_train.2.ark:1857215
mjrp0_si585 quick_test/fbank/raw_fbank_train.3.ark:4940408
mlns0_sx417 quick_test/fbank/raw_fbank_train.3.ark:7737015
fvmh0_sx296 quick_test/fbank/raw_fbank_train.2.ark:2002378
madc0_sx287 quick_test/fbank/raw_fbank_train.2.ark:2184748
fgcs0_si2116 quick_test/fbank/raw_fbank_train.1.ark:4186596
mrlj1_si2332 quick_test/fbank/raw_fbank_train.4.ark:3442757
mjdc0_sx171 quick_test/fbank/raw_fbank_train.3.ark:2194778
mree0_si1959 quick_test/fbank/raw_fbank_train.4.ark:1675974
mclk0_sx130 quick_test/fbank/raw_fbank_train.2.ark:5278651
mmdb0_sx177 quick_test/fbank/raw_fbank_train.3.ark:8646222
mdem0_sx428 quick_test/fbank/raw_fbank_train.2.ark:6968132
fmkc0_sx82 quick_test/fbank/raw_fbank_train.1.ark:9229326
fapb0_sx73 quick_test/fbank/raw_fbank_train.1.ark:512820
mreh1_si969 quick_test/fbank/raw_fbank_train.4.ark:1772359
mrbc0_sx59 quick_test/fbank/raw_fbank_train.4.ark:1146306
mhmr0_si489 quick_test/fbank/raw_fbank_train.3.ark:1304362
fdml0_si2075 quick_test/fbank/raw_fbank_train.1.ark:2925927
mmar0_sx346 quick_test/fbank/raw_fbank_train.3.ark:8354733
fklc1_sx58 quick_test/fbank/raw_fbank_train.1.ark:6903627
mesg0_si1962 quick_test/fbank/raw_fbank_train.2.ark:10137152
mdhl0_sx359 quick_test/fbank/raw_fbank_train.2.ark:7056644
mzmb0_sx446 quick_test/fbank/raw_fbank_train.4.ark:11636003
fnkl0_sx82 quick_test/fbank/raw_fbank_train.1.ark:9656382
mgar0_si1212 quick_test/fbank/raw_fbank_train.3.ark:13
mmjb1_sx238 quick_test/fbank/raw_fbank_train.3.ark:9572745
makr0_sx182 quick_test/fbank/raw_fbank_train.2.ark:2839708
mrre0_si1334 quick_test/fbank/raw_fbank_train.4.ark:4277999
fjsp0_si1763 quick_test/fbank/raw_fbank_train.1.ark:5796699
mtqc0_sx451 quick_test/fbank/raw_fbank_train.4.ark:9690461
mmvp0_sx204 quick_test/fbank/raw_fbank_train.3.ark:10085950
mnet0_sx276 quick_test/fbank/raw_fbank_train.3.ark:10584274
mcdd0_si1513 quick_test/fbank/raw_fbank_train.2.ark:4713665
mjjb0_sx59 quick_test/fbank/raw_fbank_train.3.ark:3263639
fljg0_si1611 quick_test/fbank/raw_fbank_train.1.ark:7815489
fblv0_sx158 quick_test/fbank/raw_fbank_train.1.ark:990255
mtrc0_sx170 quick_test/fbank/raw_fbank_train.4.ark:9759386
mdmt0_si1832 quick_test/fbank/raw_fbank_train.2.ark:8311285
mklr0_si1059 quick_test/fbank/raw_fbank_train.3.ark:6650243
fear0_sx352 quick_test/fbank/raw_fbank_train.1.ark:3588537
mjjb0_sx239 quick_test/fbank/raw_fbank_train.3.ark:3222501
mjhi0_si1328 quick_test/fbank/raw_fbank_train.3.ark:3072543
mlns0_sx57 quick_test/fbank/raw_fbank_train.3.ark:7750767
mfrm0_si1717 quick_test/fbank/raw_fbank_train.2.ark:10600395
fdjh0_sx125 quick_test/fbank/raw_fbank_train.1.ark:2732588
fjlg0_sx269 quick_test/fbank/raw_fbank_train.1.ark:5299992
fsag0_sx333 quick_test/fbank/raw_fbank_train.1.ark:10943600
marw0_sx16 quick_test/fbank/raw_fbank_train.2.ark:3114575
ftbw0_sx175 quick_test/fbank/raw_fbank_train.2.ark:1476675
mbma0_sx142 quick_test/fbank/raw_fbank_train.2.ark:3769078
fsgf0_sx27 quick_test/fbank/raw_fbank_train.1.ark:11675055
fajw0_si1893 quick_test/fbank/raw_fbank_train.1.ark:120592
mjls0_si466 quick_test/fbank/raw_fbank_train.3.ark:3806186
mrld0_sx334 quick_test/fbank/raw_fbank_train.4.ark:3296205
fpjf0_si1676 quick_test/fbank/raw_fbank_train.1.ark:10326473
mjdg0_sx52 quick_test/fbank/raw_fbank_train.3.ark:2461719
mgrp0_si687 quick_test/fbank/raw_fbank_train.3.ark:510687
mkls0_si1533 quick_test/fbank/raw_fbank_train.3.ark:6759543
mcdr0_si1784 quick_test/fbank/raw_fbank_train.2.ark:4817964
mded0_si1170 quick_test/fbank/raw_fbank_train.2.ark:6681163
fsjg0_si2200 quick_test/fbank/raw_fbank_train.1.ark:11719189
fbmh0_si970 quick_test/fbank/raw_fbank_train.1.ark:1076127
marw0_sx286 quick_test/fbank/raw_fbank_train.2.ark:3125528
mrmg0_sx90 quick_test/fbank/raw_fbank_train.4.ark:3876542
mbom0_si1014 quick_test/fbank/raw_fbank_train.2.ark:4027053
mjdc0_sx81 quick_test/fbank/raw_fbank_train.3.ark:2237549
freh0_si1945 quick_test/fbank/raw_fbank_train.1.ark:10616353
ftaj0_sx159 quick_test/fbank/raw_fbank_train.2.ark:1293665
mgxp0_si525 quick_test/fbank/raw_fbank_train.3.ark:839438
mmag0_si1126 quick_test/fbank/raw_fbank_train.3.ark:8076636
fpaz0_sx153 quick_test/fbank/raw_fbank_train.1.ark:10238561
mmgc0_si2184 quick_test/fbank/raw_fbank_train.3.ark:9288883
mjai0_sx344 quick_test/fbank/raw_fbank_train.3.ark:1938487
mesg0_si1332 quick_test/fbank/raw_fbank_train.2.ark:10124878
mtjg0_sx80 quick_test/fbank/raw_fbank_train.4.ark:8174757
mdlc0_si1395 quick_test/fbank/raw_fbank_train.2.ark:7502404
mrlj0_sx70 quick_test/fbank/raw_fbank_train.4.ark:3409655
mjjm0_sx107 quick_test/fbank/raw_fbank_train.3.ark:3432518
mwad0_si1749 quick_test/fbank/raw_fbank_train.4.ark:10614866
mmdb0_si987 quick_test/fbank/raw_fbank_train.3.ark:8628829
mrdd0_sx150 quick_test/fbank/raw_fbank_train.4.ark:1403011
fapb0_si2323 quick_test/fbank/raw_fbank_train.1.ark:431736
mjpm1_sx221 quick_test/fbank/raw_fbank_train.3.ark:4371363
fssb0_sx452 quick_test/fbank/raw_fbank_train.2.ark:1233900
mprd0_si801 quick_test/fbank/raw_fbank_train.4.ark:188756
mgrp0_sx327 quick_test/fbank/raw_fbank_train.3.ark:547346
mrld0_sx154 quick_test/fbank/raw_fbank_train.4.ark:3276579
msdh0_si2240 quick_test/fbank/raw_fbank_train.4.ark:5668386
fsdc0_sx232 quick_test/fbank/raw_fbank_train.1.ark:11474293
mtlc0_sx127 quick_test/fbank/raw_fbank_train.4.ark:8851801
mdwm0_si916 quick_test/fbank/raw_fbank_train.2.ark:9482813
fmpg0_si972 quick_test/fbank/raw_fbank_train.1.ark:9472113
msmr0_sx415 quick_test/fbank/raw_fbank_train.4.ark:6616032
mtrt0_sx254 quick_test/fbank/raw_fbank_train.4.ark:9971902
madd0_si538 quick_test/fbank/raw_fbank_train.2.ark:2232322
mdac0_sx361 quick_test/fbank/raw_fbank_train.2.ark:6071156
fmju0_sx309 quick_test/fbank/raw_fbank_train.1.ark:9102195
fsdc0_sx52 quick_test/fbank/raw_fbank_train.1.ark:11507031
mgag0_si691 quick_test/fbank/raw_fbank_train.2.ark:11075875
mjwg0_sx265 quick_test/fbank/raw_fbank_train.3.ark:5202243
msat0_sx266 quick_test/fbank/raw_fbank_train.4.ark:5458728
mprb0_sx395 quick_test/fbank/raw_fbank_train.4.ark:152335
mrxb0_sx415 quick_test/fbank/raw_fbank_train.4.ark:5200438
mwdk0_sx266 quick_test/fbank/raw_fbank_train.4.ark:10911323
mpgh0_sx294 quick_test/fbank/raw_fbank_train.3.ark:11081622
fpmy0_sx196 quick_test/fbank/raw_fbank_train.1.ark:10554307
feeh0_sx392 quick_test/fbank/raw_fbank_train.1.ark:3840572
mdlb0_sx46 quick_test/fbank/raw_fbank_train.2.ark:7492010
mtab0_sx312 quick_test/fbank/raw_fbank_train.4.ark:7233467
fpaz0_sx27 quick_test/fbank/raw_fbank_train.1.ark:10265146
fmju0_sx39 quick_test/fbank/raw_fbank_train.1.ark:9115947
maeb0_sx270 quick_test/fbank/raw_fbank_train.2.ark:2359053
mwrp0_sx3 quick_test/fbank/raw_fbank_train.4.ark:11322337
mmag0_sx46 quick_test/fbank/raw_fbank_train.3.ark:8178427
mmdg0_si1780 quick_test/fbank/raw_fbank_train.3.ark:8694547
fmah1_sx69 quick_test/fbank/raw_fbank_train.1.ark:8606577
ftmg0_sx182 quick_test/fbank/raw_fbank_train.2.ark:1678604
mmar0_si1966 quick_test/fbank/raw_fbank_train.3.ark:8289281
mdbp0_si1158 quick_test/fbank/raw_fbank_train.2.ark:6289383
mrds0_sx87 quick_test/fbank/raw_fbank_train.4.ark:1635112
fetb0_si518 quick_test/fbank/raw_fbank_train.1.ark:3987258
mtjm0_sx236 quick_test/fbank/raw_fbank_train.4.ark:8238364
fklc0_sx85 quick_test/fbank/raw_fbank_train.1.ark:6808081
mrtc0_sx288 quick_test/fbank/raw_fbank_train.4.ark:4701272
fceg0_sx78 quick_test/fbank/raw_fbank_train.1.ark:1635896
mdtb0_si570 quick_test/fbank/raw_fbank_train.2.ark:9183417
mtcs0_si712 quick_test/fbank/raw_fbank_train.4.ark:7676613
mvlo0_sx67 quick_test/fbank/raw_fbank_train.4.ark:10384708
mljh0_si1324 quick_test/fbank/raw_fbank_train.3.ark:7540911
mcdr0_sx164 quick_test/fbank/raw_fbank_train.2.ark:4857110
mkls1_sx15 quick_test/fbank/raw_fbank_train.3.ark:6897147
mjls0_si1726 quick_test/fbank/raw_fbank_train.3.ark:3783393
mwrp0_si1443 quick_test/fbank/raw_fbank_train.4.ark:11256372
mddc0_sx339 quick_test/fbank/raw_fbank_train.2.ark:6650664
fecd0_sx428 quick_test/fbank/raw_fbank_train.1.ark:3724555
msmc0_si509 quick_test/fbank/raw_fbank_train.4.ark:6449402
mmds0_si713 quick_test/fbank/raw_fbank_train.3.ark:9023809
mgsl0_sx174 quick_test/fbank/raw_fbank_train.3.ark:740407
mrlr0_sx206 quick_test/fbank/raw_fbank_train.4.ark:3651353
mbcg0_sx327 quick_test/fbank/raw_fbank_train.2.ark:3419204
fsjk1_sx215 quick_test/fbank/raw_fbank_train.2.ark:12
mdlc1_sx355 quick_test/fbank/raw_fbank_train.2.ark:7678116
mpfu0_sx358 quick_test/fbank/raw_fbank_train.3.ark:10973286
mhrm0_sx328 quick_test/fbank/raw_fbank_train.3.ark:1430646
mtpp0_sx248 quick_test/fbank/raw_fbank_train.4.ark:9434945
fbas0_si1472 quick_test/fbank/raw_fbank_train.1.ark:541808
mrvg0_sx150 quick_test/fbank/raw_fbank_train.4.ark:4884184
mdjm0_sx15 quick_test/fbank/raw_fbank_train.2.ark:7240900
frll0_sx164 quick_test/fbank/raw_fbank_train.1.ark:10824829
mbgt0_si711 quick_test/fbank/raw_fbank_train.2.ark:3565715
fcke0_si481 quick_test/fbank/raw_fbank_train.1.ark:1837847
mrfk0_si1706 quick_test/fbank/raw_fbank_train.4.ark:2068640
fskc0_si1416 quick_test/fbank/raw_fbank_train.2.ark:256514
mtbc0_sx183 quick_test/fbank/raw_fbank_train.4.ark:7603181
mrsp0_sx259 quick_test/fbank/raw_fbank_train.4.ark:4582255
mstf0_sx316 quick_test/fbank/raw_fbank_train.4.ark:6996217
msdb0_sx287 quick_test/fbank/raw_fbank_train.4.ark:5645005
mhjb0_sx207 quick_test/fbank/raw_fbank_train.3.ark:1152098
fsjs0_si1801 quick_test/fbank/raw_fbank_train.2.ark:52378
mklw0_si1844 quick_test/fbank/raw_fbank_train.3.ark:6961474
mklr0_sx159 quick_test/fbank/raw_fbank_train.3.ark:6682224
mrgm0_sx82 quick_test/fbank/raw_fbank_train.4.ark:2359168
fcmm0_si1957 quick_test/fbank/raw_fbank_train.1.ark:2117530
mmab1_sx234 quick_test/fbank/raw_fbank_train.3.ark:8019144
mpgh0_sx24 quick_test/fbank/raw_fbank_train.3.ark:11073669
mdpb0_sx146 quick_test/fbank/raw_fbank_train.2.ark:8549875
fdas1_si2091 quick_test/fbank/raw_fbank_train.1.ark:2418765
msrg0_sx411 quick_test/fbank/raw_fbank_train.4.ark:6807002
mgag0_si645 quick_test/fbank/raw_fbank_train.2.ark:11067962
fmjf0_sx264 quick_test/fbank/raw_fbank_train.1.ark:8983017
mfmc0_sx412 quick_test/fbank/raw_fbank_train.2.ark:10559415
flja0_si2338 quick_test/fbank/raw_fbank_train.1.ark:7639826
mjrh0_sx405 quick_test/fbank/raw_fbank_train.3.ark:4705625
megj0_sx167 quick_test/fbank/raw_fbank_train.2.ark:9876945
mbom0_sx311 quick_test/fbank/raw_fbank_train.2.ark:4089973
mgrl0_sx57 quick_test/fbank/raw_fbank_train.3.ark:474546
ftlg0_sx393 quick_test/fbank/raw_fbank_train.2.ark:1630390
mppc0_si2042 quick_test/fbank/raw_fbank_train.3.ark:11474919
mbsb0_si723 quick_test/fbank/raw_fbank_train.2.ark:4133947
mjsr0_si2054 quick_test/fbank/raw_fbank_train.3.ark:5022080
mreh1_sx159 quick_test/fbank/raw_fbank_train.4.ark:1793792
ftmg0_si902 quick_test/fbank/raw_fbank_train.2.ark:1658211
mgxp0_sx187 quick_test/fbank/raw_fbank_train.3.ark:858151
mrlj1_sx51 quick_test/fbank/raw_fbank_train.4.ark:3491601
mrjm1_sx218 quick_test/fbank/raw_fbank_train.4.ark:2959139
mmam0_si1597 quick_test/fbank/raw_fbank_train.3.ark:8188781
mtml0_si1065 quick_test/fbank/raw_fbank_train.4.ark:8893926
mjlg1_sx22 quick_test/fbank/raw_fbank_train.3.ark:3736059
fsak0_sx40 quick_test/fbank/raw_fbank_train.1.ark:11176562
fmjf0_si1254 quick_test/fbank/raw_fbank_train.1.ark:8929764
fsms1_sx64 quick_test/fbank/raw_fbank_train.2.ark:939296
mdwd0_si557 quick_test/fbank/raw_fbank_train.2.ark:9283963
mcew0_sx92 quick_test/fbank/raw_fbank_train.2.ark:5117851
fpac0_sx121 quick_test/fbank/raw_fbank_train.1.ark:9925645
mjrh0_sx225 quick_test/fbank/raw_fbank_train.3.ark:4685039
mkah0_sx178 quick_test/fbank/raw_fbank_train.3.ark:5799319
mtas0_sx305 quick_test/fbank/raw_fbank_train.4.ark:7325492
mprd0_sx171 quick_test/fbank/raw_fbank_train.4.ark:211109
fskp0_sx108 quick_test/fbank/raw_fbank_train.2.ark:485504
fsrh0_si1931 quick_test/fbank/raw_fbank_train.2.ark:1065389
meal0_si2177 quick_test/fbank/raw_fbank_train.2.ark:9568165
fcrz0_sx73 quick_test/fbank/raw_fbank_train.1.ark:2284352
mwem0_si1320 quick_test/fbank/raw_fbank_train.4.ark:10955175
mgak0_sx136 quick_test/fbank/raw_fbank_train.2.ark:11183294
mpsw0_sx437 quick_test/fbank/raw_fbank_train.4.ark:542042
mmcc0_si708 quick_test/fbank/raw_fbank_train.3.ark:8537044
fmjf0_si1884 quick_test/fbank/raw_fbank_train.1.ark:8939478
mdef0_sx123 quick_test/fbank/raw_fbank_train.2.ark:6828569
mrwa0_si1603 quick_test/fbank/raw_fbank_train.4.ark:4941029
mdsj0_sx112 quick_test/fbank/raw_fbank_train.2.ark:8934055
fpab1_sx391 quick_test/fbank/raw_fbank_train.1.ark:9867511
mrso0_sx219 quick_test/fbank/raw_fbank_train.4.ark:4458197
mrab0_si1224 quick_test/fbank/raw_fbank_train.4.ark:564788
mvrw0_si2115 quick_test/fbank/raw_fbank_train.4.ark:10416176
mmdg0_sx70 quick_test/fbank/raw_fbank_train.3.ark:8796738
mnet0_sx96 quick_test/fbank/raw_fbank_train.3.ark:10616170
msvs0_sx218 quick_test/fbank/raw_fbank_train.4.ark:7098849
mewm0_si1978 quick_test/fbank/raw_fbank_train.2.ark:10319960
mppc0_sx422 quick_test/fbank/raw_fbank_train.4.ark:24198
fajw0_si1263 quick_test/fbank/raw_fbank_train.1.ark:100358
fdxw0_sx71 quick_test/fbank/raw_fbank_train.1.ark:3421512
ftlg0_si483 quick_test/fbank/raw_fbank_train.2.ark:1554953
mtlc0_sx397 quick_test/fbank/raw_fbank_train.4.ark:8883612
mjjj0_sx83 quick_test/fbank/raw_fbank_train.3.ark:3374184
fdaw0_si2036 quick_test/fbank/raw_fbank_train.1.ark:2532184
msvs0_si1568 quick_test/fbank/raw_fbank_train.4.ark:7035116
msfv0_si1262 quick_test/fbank/raw_fbank_train.4.ark:6221279
mtju0_si760 quick_test/fbank/raw_fbank_train.4.ark:8420548
fdjh0_sx215 quick_test/fbank/raw_fbank_train.1.ark:2742421
fsrh0_sx401 quick_test/fbank/raw_fbank_train.2.ark:1128634
mbbr0_si1685 quick_test/fbank/raw_fbank_train.2.ark:3291167
mmdm0_sx231 quick_test/fbank/raw_fbank_train.3.ark:8854025
mvrw0_si855 quick_test/fbank/raw_fbank_train.4.ark:10421329
mljc0_sx235 quick_test/fbank/raw_fbank_train.3.ark:7495619
mdpk0_sx63 quick_test/fbank/raw_fbank_train.2.ark:8684191
fkkh0_sx300 quick_test/fbank/raw_fbank_train.1.ark:6692303
mmea0_si2018 quick_test/fbank/raw_fbank_train.3.ark:9096761
mrbc0_si599 quick_test/fbank/raw_fbank_train.4.ark:1079902
mdwd0_sx90 quick_test/fbank/raw_fbank_train.2.ark:9334087
mkrg0_sx411 quick_test/fbank/raw_fbank_train.3.ark:7117264
fkfb0_si1608 quick_test/fbank/raw_fbank_train.1.ark:6491200
mmwb0_si989 quick_test/fbank/raw_fbank_train.3.ark:10178150
mwem0_sx330 quick_test/fbank/raw_fbank_train.4.ark:11012182
fsjw0_sx343 quick_test/fbank/raw_fbank_train.2.ark:214655
mdks0_sx256 quick_test/fbank/raw_fbank_train.2.ark:7330367
mtjg0_si2157 quick_test/fbank/raw_fbank_train.4.ark:8093040
fksr0_sx37 quick_test/fbank/raw_fbank_train.1.ark:7093684
mrlr0_si1826 quick_test/fbank/raw_fbank_train.4.ark:3618054
fkaa0_sx398 quick_test/fbank/raw_fbank_train.1.ark:6267515
mrmh0_sx31 quick_test/fbank/raw_fbank_train.4.ark:3962455
mjmd0_si2288 quick_test/fbank/raw_fbank_train.3.ark:3979317
mgaw0_sx175 quick_test/fbank/raw_fbank_train.3.ark:141259
mtpp0_si2138 quick_test/fbank/raw_fbank_train.4.ark:9405806
mcre0_sx41 quick_test/fbank/raw_fbank_train.2.ark:5595377
fsma0_sx361 quick_test/fbank/raw_fbank_train.2.ark:703381
mtqc0_sx91 quick_test/fbank/raw_fbank_train.4.ark:9711293
msds0_sx177 quick_test/fbank/raw_fbank_train.4.ark:5815478
fsjg0_sx130 quick_test/fbank/raw_fbank_train.1.ark:11754335
mrbc0_sx329 quick_test/fbank/raw_fbank_train.4.ark:1118241
mapv0_sx213 quick_test/fbank/raw_fbank_train.2.ark:2949166
mhrm0_sx418 quick_test/fbank/raw_fbank_train.3.ark:1443159
mtlb0_si504 quick_test/fbank/raw_fbank_train.4.ark:8729743
fsbk0_sx259 quick_test/fbank/raw_fbank_train.1.ark:11243963
mjjj0_sx353 quick_test/fbank/raw_fbank_train.3.ark:3349959
fskc0_si2046 quick_test/fbank/raw_fbank_train.2.ark:267348
msah1_si2309 quick_test/fbank/raw_fbank_train.4.ark:5240052
fltm0_sx80 quick_test/fbank/raw_fbank_train.1.ark:8514792
mmdm0_sx411 quick_test/fbank/raw_fbank_train.3.ark:8875371
mjsr0_sx344 quick_test/fbank/raw_fbank_train.3.ark:5090252
mfrm0_sx435 quick_test/fbank/raw_fbank_train.2.ark:10654961
mpar0_sx226 quick_test/fbank/raw_fbank_train.3.ark:10779803
mtat0_sx210 quick_test/fbank/raw_fbank_train.4.ark:7414844
fmem0_sx207 quick_test/fbank/raw_fbank_train.1.ark:8773088
fpmy0_sx163 quick_test/fbank/raw_fbank_train.1.ark:10541914
mmcc0_sx168 quick_test/fbank/raw_fbank_train.3.ark:8550157
msvs0_sx398 quick_test/fbank/raw_fbank_train.4.ark:7141107
fajw0_sx183 quick_test/fbank/raw_fbank_train.1.ark:151578
fsah0_sx74 quick_test/fbank/raw_fbank_train.1.ark:11091770
mafm0_sx39 quick_test/fbank/raw_fbank_train.2.ark:2561849
mpeb0_si1860 quick_test/fbank/raw_fbank_train.3.ark:10825569
mlel0_sx76 quick_test/fbank/raw_fbank_train.3.ark:7428092
mljc0_sx415 quick_test/fbank/raw_fbank_train.3.ark:7518605
mdef0_si1563 quick_test/fbank/raw_fbank_train.2.ark:6807502
mjra0_sx336 quick_test/fbank/raw_fbank_train.3.ark:4488981
fsjw0_sx73 quick_test/fbank/raw_fbank_train.2.ark:242760
fbas0_si2066 quick_test/fbank/raw_fbank_train.1.ark:559842
mses0_si2219 quick_test/fbank/raw_fbank_train.4.ark:6034816
mjwg0_sx85 quick_test/fbank/raw_fbank_train.3.ark:5235941
makr0_sx452 quick_test/fbank/raw_fbank_train.2.ark:2865087
fcjs0_si977 quick_test/fbank/raw_fbank_train.1.ark:1736222
mrsp0_sx439 quick_test/fbank/raw_fbank_train.4.ark:4594248
mjlb0_si986 quick_test/fbank/raw_fbank_train.3.ark:3613335
msfh0_sx226 quick_test/fbank/raw_fbank_train.4.ark:6165867
ftbr0_si921 quick_test/fbank/raw_fbank_train.2.ark:1369097
mrjb1_si2021 quick_test/fbank/raw_fbank_train.4.ark:2608238
mcdc0_si662 quick_test/fbank/raw_fbank_train.2.ark:4641227
mwch0_sx452 quick_test/fbank/raw_fbank_train.4.ark:10832124
mjlb0_sx356 quick_test/fbank/raw_fbank_train.3.ark:3647434
fcag0_si1503 quick_test/fbank/raw_fbank_train.1.ark:1257109
mlsh0_si1417 quick_test/fbank/raw_fbank_train.3.ark:7760321
mclm0_sx286 quick_test/fbank/raw_fbank_train.2.ark:5397814
mjxa0_si877 quick_test/fbank/raw_fbank_train.3.ark:5489852
mrld0_sx64 quick_test/fbank/raw_fbank_train.4.ark:3315750
mjxl0_sx92 quick_test/fbank/raw_fbank_train.3.ark:5647801
mdbb1_sx106 quick_test/fbank/raw_fbank_train.2.ark:6236418
mmsm0_si1736 quick_test/fbank/raw_fbank_train.3.ark:9936746
mrds0_sx357 quick_test/fbank/raw_fbank_train.4.ark:1612607
mrfk0_sx176 quick_test/fbank/raw_fbank_train.4.ark:2083707
fdtd0_si931 quick_test/fbank/raw_fbank_train.1.ark:3261722
mklr0_sx429 quick_test/fbank/raw_fbank_train.3.ark:6715723
mmar0_sx256 quick_test/fbank/raw_fbank_train.3.ark:8340380
mjmd0_sx38 quick_test/fbank/raw_fbank_train.3.ark:4027808
mmeb0_sx97 quick_test/fbank/raw_fbank_train.3.ark:9246861
mjws0_sx423 quick_test/fbank/raw_fbank_train.3.ark:5326254
fcag0_sx333 quick_test/fbank/raw_fbank_train.1.ark:1306116
mram0_sx15 quick_test/fbank/raw_fbank_train.4.ark:924196
msmc0_sx287 quick_test/fbank/raw_fbank_train.4.ark:6514966
mrjb1_sx30 quick_test/fbank/raw_fbank_train.4.ark:2654816
mrdd0_si1050 quick_test/fbank/raw_fbank_train.4.ark:1364790
mpmb0_sx241 quick_test/fbank/raw_fbank_train.3.ark:11379833
mafm0_sx129 quick_test/fbank/raw_fbank_train.2.ark:2526391
mdlr1_sx39 quick_test/fbank/raw_fbank_train.2.ark:8170312
freh0_si685 quick_test/fbank/raw_fbank_train.1.ark:10632786
fpaz0_sx423 quick_test/fbank/raw_fbank_train.1.ark:10272859
mklr0_si1689 quick_test/fbank/raw_fbank_train.3.ark:6666317
mrjm0_sx328 quick_test/fbank/raw_fbank_train.4.ark:2866467
maeb0_sx450 quick_test/fbank/raw_fbank_train.2.ark:2381439
fsag0_si693 quick_test/fbank/raw_fbank_train.1.ark:10899381
mdps0_si1979 quick_test/fbank/raw_fbank_train.2.ark:8701419
fspm0_sx251 quick_test/fbank/raw_fbank_train.2.ark:1007623
mbcg0_sx57 quick_test/fbank/raw_fbank_train.2.ark:3448149
makb0_si1016 quick_test/fbank/raw_fbank_train.2.ark:2692862
mfmc0_si1132 quick_test/fbank/raw_fbank_train.2.ark:10479536
mfmc0_si502 quick_test/fbank/raw_fbank_train.2.ark:10506443
mjeb1_sx387 quick_test/fbank/raw_fbank_train.3.ark:2771554
mdwm0_sx106 quick_test/fbank/raw_fbank_train.2.ark:9500606
mjsr0_sx254 quick_test/fbank/raw_fbank_train.3.ark:5077779
fdaw0_sx416 quick_test/fbank/raw_fbank_train.1.ark:2584476
flmk0_si2295 quick_test/fbank/raw_fbank_train.1.ark:8260856
mmeb0_sx367 quick_test/fbank/raw_fbank_train.3.ark:9226598
fleh0_si1051 quick_test/fbank/raw_fbank_train.1.ark:7321801
fbas0_sx307 quick_test/fbank/raw_fbank_train.1.ark:602661
mjae0_si1524 quick_test/fbank/raw_fbank_train.3.ark:1764776
mdks0_sx436 quick_test/fbank/raw_fbank_train.2.ark:7359033
mprb0_sx125 quick_test/fbank/raw_fbank_train.4.ark:100044
mbar0_sx149 quick_test/fbank/raw_fbank_train.2.ark:3211368
fcrz0_sx343 quick_test/fbank/raw_fbank_train.1.ark:2259407
flmc0_si1372 quick_test/fbank/raw_fbank_train.1.ark:8132803
mlel0_si616 quick_test/fbank/raw_fbank_train.3.ark:7351608
fdmy0_si1197 quick_test/fbank/raw_fbank_train.1.ark:2985005
mmwb0_sx359 quick_test/fbank/raw_fbank_train.3.ark:10220449
mkag0_sx259 quick_test/fbank/raw_fbank_train.3.ark:5717448
mrre0_sx344 quick_test/fbank/raw_fbank_train.4.ark:4359044
fcmm0_si1083 quick_test/fbank/raw_fbank_train.1.ark:2107136
fjkl0_si1562 quick_test/fbank/raw_fbank_train.1.ark:5159513
msat1_sx263 quick_test/fbank/raw_fbank_train.4.ark:5546754
mmws1_sx351 quick_test/fbank/raw_fbank_train.3.ark:10414178
mrab1_sx308 quick_test/fbank/raw_fbank_train.4.ark:727059
mrjm1_si668 quick_test/fbank/raw_fbank_train.4.ark:2937753
mpgh0_si1554 quick_test/fbank/raw_fbank_train.3.ark:11012905
mrkm0_sx367 quick_test/fbank/raw_fbank_train.4.ark:3198102
mtcs0_si2265 quick_test/fbank/raw_fbank_train.4.ark:7670060
fjdm2_si1964 quick_test/fbank/raw_fbank_train.1.ark:4850229
fdxw0_si2141 quick_test/fbank/raw_fbank_train.1.ark:3352235
fbch0_sx236 quick_test/fbank/raw_fbank_train.1.ark:789957
mmlm0_sx177 quick_test/fbank/raw_fbank_train.3.ark:9660937
mjde0_sx400 quick_test/fbank/raw_fbank_train.3.ark:2363133
fjkl0_sx212 quick_test/fbank/raw_fbank_train.1.ark:5205766
mcew0_si812 quick_test/fbank/raw_fbank_train.2.ark:5036687
mtas0_si755 quick_test/fbank/raw_fbank_train.4.ark:7296833
fdxw0_sx341 quick_test/fbank/raw_fbank_train.1.ark:3399087
mwch0_si1895 quick_test/fbank/raw_fbank_train.4.ark:10785318
fsdc0_si1312 quick_test/fbank/raw_fbank_train.1.ark:11428079
mjee0_si607 quick_test/fbank/raw_fbank_train.3.ark:2811095
fclt0_sx448 quick_test/fbank/raw_fbank_train.1.ark:1975924
marw0_sx106 quick_test/fbank/raw_fbank_train.2.ark:3102543
mjmm0_sx265 quick_test/fbank/raw_fbank_train.3.ark:4104048
fceg0_si618 quick_test/fbank/raw_fbank_train.1.ark:1580492
mklw0_sx311 quick_test/fbank/raw_fbank_train.3.ark:6998967
mkes0_si1253 quick_test/fbank/raw_fbank_train.3.ark:6357848
mkdt0_sx353 quick_test/fbank/raw_fbank_train.3.ark:6319949
mcae0_sx277 quick_test/fbank/raw_fbank_train.2.ark:4466525
fspm0_sx161 quick_test/fbank/raw_fbank_train.2.ark:992630
mdlb0_si1306 quick_test/fbank/raw_fbank_train.2.ark:7383979
mmeb0_si1987 quick_test/fbank/raw_fbank_train.3.ark:9183506
mstf0_sx226 quick_test/fbank/raw_fbank_train.4.ark:6984424
mwsb0_si1626 quick_test/fbank/raw_fbank_train.4.ark:11353676
mdjm0_sx105 quick_test/fbank/raw_fbank_train.2.ark:7231668
mclm0_sx16 quick_test/fbank/raw_fbank_train.2.ark:5382588
mdbb1_sx376 quick_test/fbank/raw_fbank_train.2.ark:6277629
mgaw0_sx445 quick_test/fbank/raw_fbank_train.3.ark:175598
mgar0_sx402 quick_test/fbank/raw_fbank_train.3.ark:76853
mrws0_si1102 quick_test/fbank/raw_fbank_train.4.ark:5036374
mmwb0_sx89 quick_test/fbank/raw_fbank_train.3.ark:10257954
feeh0_sx122 quick_test/fbank/raw_fbank_train.1.ark:3790001
fmjf0_si624 quick_test/fbank/raw_fbank_train.1.ark:8947831
mrgs0_si1356 quick_test/fbank/raw_fbank_train.4.ark:2371122
mprk0_sx107 quick_test/fbank/raw_fbank_train.4.ark:329494
fksr0_sx161 quick_test/fbank/raw_fbank_train.1.ark:7052266
mwsb0_si996 quick_test/fbank/raw_fbank_train.4.ark:11373863
marw0_si1906 quick_test/fbank/raw_fbank_train.2.ark:3083917
mctm0_sx360 quick_test/fbank/raw_fbank_train.2.ark:5873106
mrlr0_sx296 quick_test/fbank/raw_fbank_train.4.ark:3674658
msrg0_sx321 quick_test/fbank/raw_fbank_train.4.ark:6793089
fjlr0_sx331 quick_test/fbank/raw_fbank_train.1.ark:5412930
mwsh0_si796 quick_test/fbank/raw_fbank_train.4.ark:11469006
mrjb1_sx300 quick_test/fbank/raw_fbank_train.4.ark:2663449
mmag0_sx316 quick_test/fbank/raw_fbank_train.3.ark:8149962
fpad0_si716 quick_test/fbank/raw_fbank_train.1.ark:10008637
mwre0_si1687 quick_test/fbank/raw_fbank_train.4.ark:11172100
fear0_sx82 quick_test/fbank/raw_fbank_train.1.ark:3621842
mtrc0_sx273 quick_test/fbank/raw_fbank_train.4.ark:9785012
fmkf0_sx366 quick_test/fbank/raw_fbank_train.1.ark:9306246
fjxm0_si1211 quick_test/fbank/raw_fbank_train.1.ark:5969794
mdlm0_sx64 quick_test/fbank/raw_fbank_train.2.ark:7974455
mcdr0_sx74 quick_test/fbank/raw_fbank_train.2.ark:4902161
ftmg0_sx452 quick_test/fbank/raw_fbank_train.2.ark:1712543
marc0_sx18 quick_test/fbank/raw_fbank_train.2.ark:3030950
mbgt0_sx261 quick_test/fbank/raw_fbank_train.2.ark:3597101
mbma1_sx144 quick_test/fbank/raw_fbank_train.2.ark:3867823
fjen0_sx417 quick_test/fbank/raw_fbank_train.1.ark:5030861
mtmt0_sx38 quick_test/fbank/raw_fbank_train.4.ark:9180975
mrre0_sx74 quick_test/fbank/raw_fbank_train.4.ark:4382389
msdb0_sx107 quick_test/fbank/raw_fbank_train.4.ark:5622867
fclt0_sx268 quick_test/fbank/raw_fbank_train.1.ark:1952298
mges0_sx221 quick_test/fbank/raw_fbank_train.3.ark:226997
mjmd0_si1028 quick_test/fbank/raw_fbank_train.3.ark:3965689
mfmc0_sx142 quick_test/fbank/raw_fbank_train.2.ark:10518316
mjdg0_sx322 quick_test/fbank/raw_fbank_train.3.ark:2441334
mmxs0_sx156 quick_test/fbank/raw_fbank_train.3.ark:10479576
freh0_sx235 quick_test/fbank/raw_fbank_train.1.ark:10652532
ftlg0_si1743 quick_test/fbank/raw_fbank_train.2.ark:1535880
fbas0_si1387 quick_test/fbank/raw_fbank_train.1.ark:527214
msjk0_sx426 quick_test/fbank/raw_fbank_train.4.ark:6414463
fscn0_si626 quick_test/fbank/raw_fbank_train.1.ark:11320768
mgjc0_si1335 quick_test/fbank/raw_fbank_train.3.ark:288803
mrhl0_sx435 quick_test/fbank/raw_fbank_train.4.ark:2549184
mjxa0_sx337 quick_test/fbank/raw_fbank_train.3.ark:5524311
mjbg0_sx152 quick_test/fbank/raw_fbank_train.3.ark:1998567
fmkc0_si1072 quick_test/fbank/raw_fbank_train.1.ark:9157328
mmsm0_sx386 quick_test/fbank/raw_fbank_train.3.ark:10010583
mrlk0_sx213 quick_test/fbank/raw_fbank_train.4.ark:3562688
mtwh1_sx432 quick_test/fbank/raw_fbank_train.4.ark:10067600
mjlg1_si1012 quick_test/fbank/raw_fbank_train.3.ark:3678213
fbas0_sx217 quick_test/fbank/raw_fbank_train.1.ark:593028
fmem0_si747 quick_test/fbank/raw_fbank_train.1.ark:8747502
fvfb0_sx312 quick_test/fbank/raw_fbank_train.2.ark:1793056
fmah1_sx249 quick_test/fbank/raw_fbank_train.1.ark:8575239
mbom0_sx294 quick_test/fbank/raw_fbank_train.2.ark:4078900
mrfl0_sx346 quick_test/fbank/raw_fbank_train.4.ark:2211958
mcxm0_sx271 quick_test/fbank/raw_fbank_train.2.ark:5958578
mfwk0_sx259 quick_test/fbank/raw_fbank_train.2.ark:10721920
fsjs0_sx361 quick_test/fbank/raw_fbank_train.2.ark:110990
mrjm1_si1298 quick_test/fbank/raw_fbank_train.4.ark:2909966
fdjh0_si2195 quick_test/fbank/raw_fbank_train.1.ark:2702882
majp0_si2334 quick_test/fbank/raw_fbank_train.2.ark:2608184
mntw0_si1068 quick_test/fbank/raw_fbank_train.3.ark:10627364
mcre0_si1725 quick_test/fbank/raw_fbank_train.2.ark:5527300
flac0_si1339 quick_test/fbank/raw_fbank_train.1.ark:7115751
mpar0_si946 quick_test/fbank/raw_fbank_train.3.ark:10756017
frjb0_sx257 quick_test/fbank/raw_fbank_train.1.ark:10729838
mmxs0_sx246 quick_test/fbank/raw_fbank_train.3.ark:10491129
fear0_sx262 quick_test/fbank/raw_fbank_train.1.ark:3577664
mdmt0_sx212 quick_test/fbank/raw_fbank_train.2.ark:8353098
fjwb1_sx165 quick_test/fbank/raw_fbank_train.1.ark:5914949
mjac0_si701 quick_test/fbank/raw_fbank_train.3.ark:1684098
fbmj0_sx246 quick_test/fbank/raw_fbank_train.1.ark:1202697
fdkn0_sx181 quick_test/fbank/raw_fbank_train.1.ark:2828094
msms0_sx83 quick_test/fbank/raw_fbank_train.4.ark:6725929
mkdt0_si2153 quick_test/fbank/raw_fbank_train.3.ark:6254184
mjai0_si682 quick_test/fbank/raw_fbank_train.3.ark:1880715
mtat0_sx300 quick_test/fbank/raw_fbank_train.4.ark:7431149
mwgr0_sx346 quick_test/fbank/raw_fbank_train.4.ark:11121327
mrcg0_si1428 quick_test/fbank/raw_fbank_train.4.ark:1154820
mdlr0_sx153 quick_test/fbank/raw_fbank_train.2.ark:8018749
mdwm0_sx433 quick_test/fbank/raw_fbank_train.2.ark:9546137
mgaf0_sx382 quick_test/fbank/raw_fbank_train.2.ark:11041735
mesg0_sx162 quick_test/fbank/raw_fbank_train.2.ark:10162978
fmpg0_sx252 quick_test/fbank/raw_fbank_train.1.ark:9511659
fcmg0_si1142 quick_test/fbank/raw_fbank_train.1.ark:2000270
mrwa0_si2233 quick_test/fbank/raw_fbank_train.4.ark:4950903
mgjc0_sx165 quick_test/fbank/raw_fbank_train.3.ark:315070
mwre0_si2317 quick_test/fbank/raw_fbank_train.4.ark:11181414
fpad0_sx266 quick_test/fbank/raw_fbank_train.1.ark:10044143
mrjt0_sx238 quick_test/fbank/raw_fbank_train.4.ark:3057644
mcdd0_si883 quick_test/fbank/raw_fbank_train.2.ark:4733452
mrlj1_sx321 quick_test/fbank/raw_fbank_train.4.ark:3466536
mjpm1_si761 quick_test/fbank/raw_fbank_train.3.ark:4346177
fleh0_sx151 quick_test/fbank/raw_fbank_train.1.ark:7358062
mdlr0_sx423 quick_test/fbank/raw_fbank_train.2.ark:8062848
fskl0_si2159 quick_test/fbank/raw_fbank_train.2.ark:359093
mcef0_si842 quick_test/fbank/raw_fbank_train.2.ark:4935662
fpac0_si1921 quick_test/fbank/raw_fbank_train.1.ark:9877265
mgag0_sx151 quick_test/fbank/raw_fbank_train.2.ark:11092268
mmds0_sx443 quick_test/fbank/raw_fbank_train.3.ark:9062901
msdb0_si2267 quick_test/fbank/raw_fbank_train.4.ark:5614674
fjlg0_si2306 quick_test/fbank/raw_fbank_train.1.ark:5279526
mdwm0_sx16 quick_test/fbank/raw_fbank_train.2.ark:9510958
mctm0_sx90 quick_test/fbank/raw_fbank_train.2.ark:5898491
fmem0_si2007 quick_test/fbank/raw_fbank_train.1.ark:8733029
fecd0_sx248 quick_test/fbank/raw_fbank_train.1.ark:3698529
marw0_si1276 quick_test/fbank/raw_fbank_train.2.ark:3072083
mctm0_sx450 quick_test/fbank/raw_fbank_train.2.ark:5885259
mrsp0_sx196 quick_test/fbank/raw_fbank_train.4.ark:4574782
mtml0_sx435 quick_test/fbank/raw_fbank_train.4.ark:8970806
fleh0_sx61 quick_test/fbank/raw_fbank_train.1.ark:7408233
mpgh0_sx384 quick_test/fbank/raw_fbank_train.3.ark:11090095
mtpg0_sx33 quick_test/fbank/raw_fbank_train.4.ark:9368745
fsgf0_sx297 quick_test/fbank/raw_fbank_train.1.ark:11683568
fsls0_si1056 quick_test/fbank/raw_fbank_train.2.ark:538829
fleh0_sx331 quick_test/fbank/raw_fbank_train.1.ark:7383368
fjxp0_sx312 quick_test/fbank/raw_fbank_train.1.ark:6138785
mkes0_sx263 quick_test/fbank/raw_fbank_train.3.ark:6418661
mwac0_sx161 quick_test/fbank/raw_fbank_train.4.ark:10524227
fdnc0_sx378 quick_test/fbank/raw_fbank_train.1.ark:3221501
fbas0_sx397 quick_test/fbank/raw_fbank_train.1.ark:620366
fjrp1_si802 quick_test/fbank/raw_fbank_train.1.ark:5584721
msrr0_sx141 quick_test/fbank/raw_fbank_train.4.ark:6874608
flmc0_sx22 quick_test/fbank/raw_fbank_train.1.ark:8179935
mbom0_sx204 quick_test/fbank/raw_fbank_train.2.ark:4070147
fcjf0_sx397 quick_test/fbank/raw_fbank_train.1.ark:1712121
mtjm0_si655 quick_test/fbank/raw_fbank_train.4.ark:8212778
fljd0_si2146 quick_test/fbank/raw_fbank_train.1.ark:7737098
fkkh0_sx30 quick_test/fbank/raw_fbank_train.1.ark:6683510
mrkm0_si1267 quick_test/fbank/raw_fbank_train.4.ark:3113696
fjrb0_sx402 quick_test/fbank/raw_fbank_train.1.ark:5521828
mprb0_si1215 quick_test/fbank/raw_fbank_train.4.ark:59058
mjxl0_si1172 quick_test/fbank/raw_fbank_train.3.ark:5556730
fexm0_si1731 quick_test/fbank/raw_fbank_train.1.ark:4072290
mwad0_sx342 quick_test/fbank/raw_fbank_train.4.ark:10647799
fdfb0_si1948 quick_test/fbank/raw_fbank_train.1.ark:2623816
mbml0_sx359 quick_test/fbank/raw_fbank_train.2.ark:3989274
mpgr0_si780 quick_test/fbank/raw_fbank_train.3.ark:11122436
mejl0_si962 quick_test/fbank/raw_fbank_train.2.ark:9959415
fbcg1_sx442 quick_test/fbank/raw_fbank_train.1.ark:706439
mrfl0_si1156 quick_test/fbank/raw_fbank_train.4.ark:2138512
mjjj0_sx263 quick_test/fbank/raw_fbank_train.3.ark:3334526
mdss1_si1327 quick_test/fbank/raw_fbank_train.2.ark:9076685
mbcg0_si2217 quick_test/fbank/raw_fbank_train.2.ark:3366039
mjpm1_sx41 quick_test/fbank/raw_fbank_train.3.ark:4415421
mjhi0_sx338 quick_test/fbank/raw_fbank_train.3.ark:3133268
mpgr1_si1499 quick_test/fbank/raw_fbank_train.3.ark:11197308
mtkd0_sx377 quick_test/fbank/raw_fbank_train.4.ark:8587137
mbjv0_sx347 quick_test/fbank/raw_fbank_train.2.ark:3699879
mpar0_sx46 quick_test/fbank/raw_fbank_train.3.ark:10811581
mdpk0_si1683 quick_test/fbank/raw_fbank_train.2.ark:8619114
mdlb0_sx136 quick_test/fbank/raw_fbank_train.2.ark:7428439
mrwa0_sx163 quick_test/fbank/raw_fbank_train.4.ark:4976929
mwsb0_sx366 quick_test/fbank/raw_fbank_train.4.ark:11408442
mdlm0_si604 quick_test/fbank/raw_fbank_train.2.ark:7915971
fmjb0_sx7 quick_test/fbank/raw_fbank_train.1.ark:8907738
mcth0_sx129 quick_test/fbank/raw_fbank_train.2.ark:5750095
mmar0_si1336 quick_test/fbank/raw_fbank_train.3.ark:8274407
mddc0_si2049 quick_test/fbank/raw_fbank_train.2.ark:6608372
mprt0_sx40 quick_test/fbank/raw_fbank_train.4.ark:463896
mrjt0_sx58 quick_test/fbank/raw_fbank_train.4.ark:3097182
mabc0_si1620 quick_test/fbank/raw_fbank_train.2.ark:2020165
mbth0_si2102 quick_test/fbank/raw_fbank_train.2.ark:4185983
mtqc0_si480 quick_test/fbank/raw_fbank_train.4.ark:9633249
fexm0_sx366 quick_test/fbank/raw_fbank_train.1.ark:4146815
mhbs0_sx405 quick_test/fbank/raw_fbank_train.3.ark:986353
mrfl0_sx256 quick_test/fbank/raw_fbank_train.4.ark:2200205
mprk0_sx377 quick_test/fbank/raw_fbank_train.4.ark:382745
mpeb0_sx240 quick_test/fbank/raw_fbank_train.3.ark:10858908
mmjb1_sx328 quick_test/fbank/raw_fbank_train.3.ark:9585658
madc0_si1367 quick_test/fbank/raw_fbank_train.2.ark:2103670
flhd0_sx354 quick_test/fbank/raw_fbank_train.1.ark:7574339
mjda0_sx131 quick_test/fbank/raw_fbank_train.3.ark:2096233
fjrp1_sx442 quick_test/fbank/raw_fbank_train.1.ark:5648933
mjls0_sx106 quick_test/fbank/raw_fbank_train.3.ark:3815979
fbch0_sx56 quick_test/fbank/raw_fbank_train.1.ark:828855
makb0_sx386 quick_test/fbank/raw_fbank_train.2.ark:2799974
mmdg0_si520 quick_test/fbank/raw_fbank_train.3.ark:8722894
mjlb0_sx86 quick_test/fbank/raw_fbank_train.3.ark:3669019
mrfk0_si1076 quick_test/fbank/raw_fbank_train.4.ark:2050766
fcyl0_si1297 quick_test/fbank/raw_fbank_train.1.ark:2295266
fcmm0_sx363 quick_test/fbank/raw_fbank_train.1.ark:2164022
fskl0_sx269 quick_test/fbank/raw_fbank_train.2.ark:399472
fltm0_sx350 quick_test/fbank/raw_fbank_train.1.ark:8479047
mjrp0_sx405 quick_test/fbank/raw_fbank_train.3.ark:4985900
fpaz0_si2223 quick_test/fbank/raw_fbank_train.1.ark:10202575
mrld0_si964 quick_test/fbank/raw_fbank_train.4.ark:3261826
mesg0_sx252 quick_test/fbank/raw_fbank_train.2.ark:10176211
mjeb1_sx27 quick_test/fbank/raw_fbank_train.3.ark:2752568
mrjm0_sx58 quick_test/fbank/raw_fbank_train.4.ark:2894092
mses0_si2216 quick_test/fbank/raw_fbank_train.4.ark:6027462
mtml0_si2325 quick_test/fbank/raw_fbank_train.4.ark:8921634
mfer0_si2122 quick_test/fbank/raw_fbank_train.2.ark:10403785
mcre0_si1121 quick_test/fbank/raw_fbank_train.2.ark:5512306
mtmn0_sx164 quick_test/fbank/raw_fbank_train.4.ark:9052892
mrlj1_sx141 quick_test/fbank/raw_fbank_train.4.ark:3449270
fdnc0_sx198 quick_test/fbank/raw_fbank_train.1.ark:3195355
fjsp0_sx84 quick_test/fbank/raw_fbank_train.1.ark:5862656
fdmy0_sx27 quick_test/fbank/raw_fbank_train.1.ark:3080089
mdcd0_sx155 quick_test/fbank/raw_fbank_train.2.ark:6435308
fsmm0_si1314 quick_test/fbank/raw_fbank_train.2.ark:744920
mjpg0_sx381 quick_test/fbank/raw_fbank_train.3.ark:4219731
fsjk1_si1025 quick_test/fbank/raw_fbank_train.1.ark:11839380
fsjg0_sx220 quick_test/fbank/raw_fbank_train.1.ark:11767848
mdcd0_sx335 quick_test/fbank/raw_fbank_train.2.ark:6457734
mkxl0_sx105 quick_test/fbank/raw_fbank_train.3.ark:7182431
fskc0_si786 quick_test/fbank/raw_fbank_train.2.ark:280901
mdwm0_sx376 quick_test/fbank/raw_fbank_train.2.ark:9534864
mdma0_si1430 quick_test/fbank/raw_fbank_train.2.ark:8202533
mmea0_sx38 quick_test/fbank/raw_fbank_train.3.ark:9145485
fsma0_si1621 quick_test/fbank/raw_fbank_train.2.ark:639335
mfwk0_sx439 quick_test/fbank/raw_fbank_train.2.ark:10750346
makr0_sx92 quick_test/fbank/raw_fbank_train.2.ark:2875919
fkfb0_sx168 quick_test/fbank/raw_fbank_train.1.ark:6534140
mmrp0_si774 quick_test/fbank/raw_fbank_train.3.ark:9829554
mtcs0_sx352 quick_test/fbank/raw_fbank_train.4.ark:7719832
mdbp0_sx438 quick_test/fbank/raw_fbank_train.2.ark:6368262
mwdk0_sx446 quick_test/fbank/raw_fbank_train.4.ark:10933829
fcag0_si2133 quick_test/fbank/raw_fbank_train.1.ark:1272777
mkls1_sx195 quick_test/fbank/raw_fbank_train.3.ark:6909060
mbjv0_sx257 quick_test/fbank/raw_fbank_train.2.ark:3692806
mdjm0_sx285 quick_test/fbank/raw_fbank_train.2.ark:7260646
mmag0_sx226 quick_test/fbank/raw_fbank_train.3.ark:8137129
mabc0_si781 quick_test/fbank/raw_fbank_train.2.ark:2037672
mdjm0_si1455 quick_test/fbank/raw_fbank_train.2.ark:7187408
mjwt0_si1291 quick_test/fbank/raw_fbank_train.3.ark:5353040
mkrg0_sx231 quick_test/fbank/raw_fbank_train.3.ark:7105399
mrdd0_sx330 quick_test/fbank/raw_fbank_train.4.ark:1432070
mgak0_sx226 quick_test/fbank/raw_fbank_train.2.ark:11202487
mlns0_sx147 quick_test/fbank/raw_fbank_train.3.ark:7704996
mded0_sx450 quick_test/fbank/raw_fbank_train.2.ark:6762322
mdns0_sx201 quick_test/fbank/raw_fbank_train.2.ark:8460203
mjmm0_sx445 quick_test/fbank/raw_fbank_train.3.ark:4125514
mgsh0_sx127 quick_test/fbank/raw_fbank_train.3.ark:641945
marc0_sx108 quick_test/fbank/raw_fbank_train.2.ark:3021398
mljc0_sx325 quick_test/fbank/raw_fbank_train.3.ark:7507772
mhit0_sx263 quick_test/fbank/raw_fbank_train.3.ark:1060752
mtjs0_sx382 quick_test/fbank/raw_fbank_train.4.ark:8380727
mmdm0_sx321 quick_test/fbank/raw_fbank_train.3.ark:8860778
mtas0_sx125 quick_test/fbank/raw_fbank_train.4.ark:7306146
mtrr0_sx198 quick_test/fbank/raw_fbank_train.4.ark:9871356
mkdb0_sx152 quick_test/fbank/raw_fbank_train.3.ark:6091234
mmlm0_si2150 quick_test/fbank/raw_fbank_train.3.ark:9634231
mtxs0_sx70 quick_test/fbank/raw_fbank_train.4.ark:10198138
mrgs0_sx6 quick_test/fbank/raw_fbank_train.4.ark:2452199
msmc0_si647 quick_test/fbank/raw_fbank_train.4.ark:6465955
msat0_sx356 quick_test/fbank/raw_fbank_train.4.ark:5466801
mtmn0_si582 quick_test/fbank/raw_fbank_train.4.ark:9031379
mlsh0_si2047 quick_test/fbank/raw_fbank_train.3.ark:7777715
fsah0_si1244 quick_test/fbank/raw_fbank_train.1.ark:10996139
mwem0_sx150 quick_test/fbank/raw_fbank_train.4.ark:10987276
mlns0_sx237 quick_test/fbank/raw_fbank_train.3.ark:7715269
mdcd0_si2045 quick_test/fbank/raw_fbank_train.2.ark:6407082
mbar0_si689 quick_test/fbank/raw_fbank_train.2.ark:3196775
mrfl0_sx166 quick_test/fbank/raw_fbank_train.4.ark:2183012
mdlr0_sx63 quick_test/fbank/raw_fbank_train.2.ark:8077400
fdtd0_sx391 quick_test/fbank/raw_fbank_train.1.ark:3333167
mejl0_sx62 quick_test/fbank/raw_fbank_train.2.ark:10017379
mdmt0_si2341 quick_test/fbank/raw_fbank_train.2.ark:8316679
mree0_sx24 quick_test/fbank/raw_fbank_train.4.ark:1714592
mdlm0_si1234 quick_test/fbank/raw_fbank_train.2.ark:7895504
frll0_si805 quick_test/fbank/raw_fbank_train.1.ark:10791283
madd0_sx178 quick_test/fbank/raw_fbank_train.2.ark:2243915
mjrg0_si736 quick_test/fbank/raw_fbank_train.3.ark:4548347
mcdr0_si1154 quick_test/fbank/raw_fbank_train.2.ark:4801810
mwar0_sx55 quick_test/fbank/raw_fbank_train.4.ark:10759410
mdlh0_si1960 quick_test/fbank/raw_fbank_train.2.ark:7791800
msms0_sx173 quick_test/fbank/raw_fbank_train.4.ark:6678998
madd0_si1798 quick_test/fbank/raw_fbank_train.2.ark:2217929
mlsh0_sx427 quick_test/fbank/raw_fbank_train.3.ark:7840840
mges0_si2111 quick_test/fbank/raw_fbank_train.3.ark:198938
mjwg0_sx355 quick_test/fbank/raw_fbank_train.3.ark:5214956
mkln0_sx248 quick_test/fbank/raw_fbank_train.3.ark:6602631
msms0_si1433 quick_test/fbank/raw_fbank_train.4.ark:6637578
mjra0_si1866 quick_test/fbank/raw_fbank_train.3.ark:4442129
fsls0_si2316 quick_test/fbank/raw_fbank_train.2.ark:565497
mmpm0_sx71 quick_test/fbank/raw_fbank_train.3.ark:9802534
mabc0_sx61 quick_test/fbank/raw_fbank_train.2.ark:2093396
fskl0_sx359 quick_test/fbank/raw_fbank_train.2.ark:408025
mdhl0_si1439 quick_test/fbank/raw_fbank_train.2.ark:6999558
mmgc0_sx45 quick_test/fbank/raw_fbank_train.3.ark:9338767
fjen0_sx327 quick_test/fbank/raw_fbank_train.1.ark:5009788
mrmg0_si1080 quick_test/fbank/raw_fbank_train.4.ark:3787790
mkdd0_si937 quick_test/fbank/raw_fbank_train.3.ark:6191026
mchl0_si1977 quick_test/fbank/raw_fbank_train.2.ark:5168673
mrml0_sx161 quick_test/fbank/raw_fbank_train.4.ark:4024062
mklr0_sx69 quick_test/fbank/raw_fbank_train.3.ark:6726115
mtrc0_si1623 quick_test/fbank/raw_fbank_train.4.ark:9725647
fmbg0_si1790 quick_test/fbank/raw_fbank_train.1.ark:8639885
mtrr0_sx108 quick_test/fbank/raw_fbank_train.4.ark:9848491
mcef0_sx145 quick_test/fbank/raw_fbank_train.2.ark:4952655
fsdc0_sx322 quick_test/fbank/raw_fbank_train.1.ark:11486966
mjeb1_sx207 quick_test/fbank/raw_fbank_train.3.ark:2743016
fvmh0_sx206 quick_test/fbank/raw_fbank_train.2.ark:1981553
mwac0_si971 quick_test/fbank/raw_fbank_train.4.ark:10513034
