fmkc0_sx82 quick_test/mfcc/raw_mfcc_train.1.ark:3015627
mtju0_sx130 quick_test/mfcc/raw_mfcc_train.4.ark:2755712
mtlc0_sx397 quick_test/mfcc/raw_mfcc_train.4.ark:2902815
mmsm0_si1736 quick_test/mfcc/raw_mfcc_train.3.ark:3247361
fbjl0_si922 quick_test/mfcc/raw_mfcc_train.1.ark:282294
mrkm0_sx187 quick_test/mfcc/raw_mfcc_train.4.ark:1036938
mchl0_sx177 quick_test/mfcc/raw_mfcc_train.2.ark:1691858
mter0_si1157 quick_test/mfcc/raw_mfcc_train.4.ark:2608108
fjkl0_sx212 quick_test/mfcc/raw_mfcc_train.1.ark:1700923
mkes0_si623 quick_test/mfcc/raw_mfcc_train.3.ark:2087142
mmds0_si713 quick_test/mfcc/raw_mfcc_train.3.ark:2948890
msfh0_si586 quick_test/mfcc/raw_mfcc_train.4.ark:2005238
mdlc1_sx445 quick_test/mfcc/raw_mfcc_train.2.ark:2512576
fsah0_si1874 quick_test/mfcc/raw_mfcc_train.1.ark:3597615
msfh0_sx136 quick_test/mfcc/raw_mfcc_train.4.ark:2009431
mpeb0_sx240 quick_test/mfcc/raw_mfcc_train.3.ark:3548739
mram0_sx15 quick_test/mfcc/raw_mfcc_train.4.ark:301981
mmab1_sx234 quick_test/mfcc/raw_mfcc_train.3.ark:2620629
fjxm0_si581 quick_test/mfcc/raw_mfcc_train.1.ark:1957336
mbml0_sx89 quick_test/mfcc/raw_mfcc_train.2.ark:1312747
mdlr0_sx63 quick_test/mfcc/raw_mfcc_train.2.ark:2639897
msfv0_si1262 quick_test/mfcc/raw_mfcc_train.4.ark:2032931
mrdm0_si1595 quick_test/mfcc/raw_mfcc_train.4.ark:482212
mrgm0_si1162 quick_test/mfcc/raw_mfcc_train.4.ark:735225
fjrb0_sx42 quick_test/mfcc/raw_mfcc_train.1.ark:1810211
mjra0_si1236 quick_test/mfcc/raw_mfcc_train.3.ark:1447980
mkes0_si1883 quick_test/mfcc/raw_mfcc_train.3.ark:2082052
mstf0_sx46 quick_test/mfcc/raw_mfcc_train.4.ark:2295365
mjae0_sx444 quick_test/mfcc/raw_mfcc_train.3.ark:600519
faem0_sx312 quick_test/mfcc/raw_mfcc_train.1.ark:20537
mdns0_sx381 quick_test/mfcc/raw_mfcc_train.2.ark:2774936
fsjs0_si541 quick_test/mfcc/raw_mfcc_train.2.ark:22116
mmpm0_sx251 quick_test/mfcc/raw_mfcc_train.3.ark:3190355
mwac0_si2231 quick_test/mfcc/raw_mfcc_train.4.ark:3430907
mdlr1_sx399 quick_test/mfcc/raw_mfcc_train.2.ark:2674235
fkfb0_si2238 quick_test/mfcc/raw_mfcc_train.1.ark:2127239
msah1_sx329 quick_test/mfcc/raw_mfcc_train.4.ark:1723266
mcpm0_sx24 quick_test/mfcc/raw_mfcc_train.2.ark:1793143
fjhk0_sx32 quick_test/mfcc/raw_mfcc_train.1.ark:1678480
mhmr0_sx129 quick_test/mfcc/raw_mfcc_train.3.ark:430696
flod0_si1287 quick_test/mfcc/raw_mfcc_train.1.ark:2721542
fkde0_si1141 quick_test/mfcc/raw_mfcc_train.1.ark:2053029
fpab1_sx391 quick_test/mfcc/raw_mfcc_train.1.ark:3224107
mjlg1_si1642 quick_test/mfcc/raw_mfcc_train.3.ark:1205704
mjrg0_sx16 quick_test/mfcc/raw_mfcc_train.3.ark:1495762
mcdc0_sx212 quick_test/mfcc/raw_mfcc_train.2.ark:1524828
fcmg0_sx162 quick_test/mfcc/raw_mfcc_train.1.ark:667488
feac0_sx255 quick_test/mfcc/raw_mfcc_train.1.ark:1138820
fexm0_sx201 quick_test/mfcc/raw_mfcc_train.1.ark:1345173
mwsh0_si2266 quick_test/mfcc/raw_mfcc_train.4.ark:3744922
fsjs0_sx451 quick_test/mfcc/raw_mfcc_train.2.ark:39798
mdbp0_sx348 quick_test/mfcc/raw_mfcc_train.2.ark:2076534
mtat1_si779 quick_test/mfcc/raw_mfcc_train.4.ark:2441671
fgcs0_sx136 quick_test/mfcc/raw_mfcc_train.1.ark:1375163
mkes0_sx353 quick_test/mfcc/raw_mfcc_train.3.ark:2100917
fbch0_sx56 quick_test/mfcc/raw_mfcc_train.1.ark:270792
mrcg0_si2058 quick_test/mfcc/raw_mfcc_train.4.ark:383760
fklc1_sx58 quick_test/mfcc/raw_mfcc_train.1.ark:2255658
mjsr0_sx344 quick_test/mfcc/raw_mfcc_train.3.ark:1663574
mrjh0_sx259 quick_test/mfcc/raw_mfcc_train.4.ark:900190
mdps0_sx89 quick_test/mfcc/raw_mfcc_train.2.ark:2867641
mkam0_sx56 quick_test/mfcc/raw_mfcc_train.3.ark:1975345
fmpg0_si972 quick_test/mfcc/raw_mfcc_train.1.ark:3094956
fsrh0_si671 quick_test/mfcc/raw_mfcc_train.2.ark:351548
mcew0_si812 quick_test/mfcc/raw_mfcc_train.2.ark:1646189
mjrh0_si1755 quick_test/mfcc/raw_mfcc_train.3.ark:1516352
mrlr0_sx296 quick_test/mfcc/raw_mfcc_train.4.ark:1200756
mdcm0_sx40 quick_test/mfcc/raw_mfcc_train.2.ark:2146958
mgaf0_si652 quick_test/mfcc/raw_mfcc_train.2.ark:3594270
mmaa0_sx35 quick_test/mfcc/raw_mfcc_train.3.ark:2597601
mhbs0_si945 quick_test/mfcc/raw_mfcc_train.3.ark:306960
mpsw0_sx24 quick_test/mfcc/raw_mfcc_train.4.ark:171818
fklc1_si1048 quick_test/mfcc/raw_mfcc_train.1.ark:2228061
fvmh0_sx26 quick_test/mfcc/raw_mfcc_train.2.ark:651601
mdjm0_si1455 quick_test/mfcc/raw_mfcc_train.2.ark:2349062
msms0_si2063 quick_test/mfcc/raw_mfcc_train.4.ark:2174632
mctm0_sx180 quick_test/mfcc/raw_mfcc_train.2.ark:1912671
mbjv0_si1247 quick_test/mfcc/raw_mfcc_train.2.ark:1191523
fdnc0_sx288 quick_test/mfcc/raw_mfcc_train.1.ark:1047609
mkln0_si1598 quick_test/mfcc/raw_mfcc_train.3.ark:2142205
fhxs0_sx445 quick_test/mfcc/raw_mfcc_train.1.ark:1574255
mrld0_sx244 quick_test/mfcc/raw_mfcc_train.4.ark:1073673
mwch0_si1895 quick_test/mfcc/raw_mfcc_train.4.ark:3524316
mrso0_si1659 quick_test/mfcc/raw_mfcc_train.4.ark:1443579
mrgm0_sx262 quick_test/mfcc/raw_mfcc_train.4.ark:756262
mjai0_sx344 quick_test/mfcc/raw_mfcc_train.3.ark:633523
mefg0_si491 quick_test/mfcc/raw_mfcc_train.2.ark:3182164
mdlc0_si2025 quick_test/mfcc/raw_mfcc_train.2.ark:2458897
mtdp0_sx441 quick_test/mfcc/raw_mfcc_train.4.ark:2598903
mrws0_sx112 quick_test/mfcc/raw_mfcc_train.4.ark:1657474
mrdd0_si1680 quick_test/mfcc/raw_mfcc_train.4.ark:451227
mrgs0_si1356 quick_test/mfcc/raw_mfcc_train.4.ark:774828
mmdm1_si1650 quick_test/mfcc/raw_mfcc_train.3.ark:2908804
fltm0_sx350 quick_test/mfcc/raw_mfcc_train.1.ark:2770491
mjjj0_si1163 quick_test/mfcc/raw_mfcc_train.3.ark:1069462
mtqc0_si1441 quick_test/mfcc/raw_mfcc_train.4.ark:3133752
mcal0_si1138 quick_test/mfcc/raw_mfcc_train.2.ark:1478410
mtpp0_sx248 quick_test/mfcc/raw_mfcc_train.4.ark:3083006
mbcg0_sx237 quick_test/mfcc/raw_mfcc_train.2.ark:1115240
mtjm0_si1226 quick_test/mfcc/raw_mfcc_train.4.ark:2673871
mfer0_sx412 quick_test/mfcc/raw_mfcc_train.2.ark:3418570
mzmb0_sx176 quick_test/mfcc/raw_mfcc_train.4.ark:3789570
fvkb0_sx349 quick_test/mfcc/raw_mfcc_train.2.ark:615301
mrbc0_sx59 quick_test/mfcc/raw_mfcc_train.4.ark:374592
mdks0_sx76 quick_test/mfcc/raw_mfcc_train.2.ark:2408150
mdwd0_si1890 quick_test/mfcc/raw_mfcc_train.2.ark:3029351
mjde0_sx400 quick_test/mfcc/raw_mfcc_train.3.ark:772293
madc0_sx197 quick_test/mfcc/raw_mfcc_train.2.ark:710605
mdss1_sx67 quick_test/mfcc/raw_mfcc_train.2.ark:2991863
mded0_sx180 quick_test/mfcc/raw_mfcc_train.2.ark:2198454
fpjf0_si1259 quick_test/mfcc/raw_mfcc_train.1.ark:3368638
mjsr0_si794 quick_test/mfcc/raw_mfcc_train.3.ark:1648018
mrmg0_si1080 quick_test/mfcc/raw_mfcc_train.4.ark:1237748
mjlb0_si1616 quick_test/mfcc/raw_mfcc_train.3.ark:1172255
fdjh0_sx395 quick_test/mfcc/raw_mfcc_train.1.ark:906895
mrml0_sx251 quick_test/mfcc/raw_mfcc_train.4.ark:1321158
fbmj0_si815 quick_test/mfcc/raw_mfcc_train.1.ark:385620
mkaj0_sx64 quick_test/mfcc/raw_mfcc_train.3.ark:1941721
fdtd0_si2191 quick_test/mfcc/raw_mfcc_train.1.ark:1061555
mdjm0_sx375 quick_test/mfcc/raw_mfcc_train.2.ark:2376450
mrlk0_sx123 quick_test/mfcc/raw_mfcc_train.4.ark:1159807
mmdb0_si987 quick_test/mfcc/raw_mfcc_train.3.ark:2819806
mgag0_si1321 quick_test/mfcc/raw_mfcc_train.2.ark:3612447
mrlj0_si2050 quick_test/mfcc/raw_mfcc_train.4.ark:1090531
fpac0_sx121 quick_test/mfcc/raw_mfcc_train.1.ark:3243091
mjrh1_sx424 quick_test/mfcc/raw_mfcc_train.3.ark:1570226
fcag0_si2133 quick_test/mfcc/raw_mfcc_train.1.ark:415851
mpfu0_sx358 quick_test/mfcc/raw_mfcc_train.3.ark:3586113
mfrm0_si1155 quick_test/mfcc/raw_mfcc_train.2.ark:3459435
mrav0_sx288 quick_test/mfcc/raw_mfcc_train.4.ark:338557
fjxp0_si1752 quick_test/mfcc/raw_mfcc_train.1.ark:1991121
mrml0_sx71 quick_test/mfcc/raw_mfcc_train.4.ark:1336804
mwac0_sx161 quick_test/mfcc/raw_mfcc_train.4.ark:3438968
mrso0_sx39 quick_test/mfcc/raw_mfcc_train.4.ark:1467183
mtjg0_sx440 quick_test/mfcc/raw_mfcc_train.4.ark:2666109
mjeb1_sx117 quick_test/mfcc/raw_mfcc_train.3.ark:893044
mtwh1_sx72 quick_test/mfcc/raw_mfcc_train.4.ark:3294383
mcdr0_sx74 quick_test/mfcc/raw_mfcc_train.2.ark:1602221
mklw0_sx221 quick_test/mfcc/raw_mfcc_train.3.ark:2283177
fjhk0_si1022 quick_test/mfcc/raw_mfcc_train.1.ark:1653568
mchl0_sx447 quick_test/mfcc/raw_mfcc_train.2.ark:1703449
mtju0_sx400 quick_test/mfcc/raw_mfcc_train.4.ark:2770702
mmrp0_sx234 quick_test/mfcc/raw_mfcc_train.3.ark:3221273
mgsl0_sx444 quick_test/mfcc/raw_mfcc_train.3.ark:254786
mded0_si1800 quick_test/mfcc/raw_mfcc_train.2.ark:2187858
msjk0_si1596 quick_test/mfcc/raw_mfcc_train.4.ark:2069427
mrew1_sx240 quick_test/mfcc/raw_mfcc_train.4.ark:652688
fntb0_sx123 quick_test/mfcc/raw_mfcc_train.1.ark:3172699
mdps0_si719 quick_test/mfcc/raw_mfcc_train.2.ark:2848211
mjmm0_si625 quick_test/mfcc/raw_mfcc_train.3.ark:1332626
mkdd0_sx217 quick_test/mfcc/raw_mfcc_train.3.ark:2031247
mkjo0_si2147 quick_test/mfcc/raw_mfcc_train.3.ark:2117196
mwch0_sx92 quick_test/mfcc/raw_mfcc_train.4.ark:3544274
fmjf0_si1254 quick_test/mfcc/raw_mfcc_train.1.ark:2917755
flmc0_sx382 quick_test/mfcc/raw_mfcc_train.1.ark:2685804
mzmb0_sx86 quick_test/mfcc/raw_mfcc_train.4.ark:3806016
mdmt0_sx212 quick_test/mfcc/raw_mfcc_train.2.ark:2729970
mtat1_sx329 quick_test/mfcc/raw_mfcc_train.4.ark:2458254
mfmc0_sx232 quick_test/mfcc/raw_mfcc_train.2.ark:3442689
mkrg0_sx231 quick_test/mfcc/raw_mfcc_train.3.ark:2322052
mapv0_si1293 quick_test/mfcc/raw_mfcc_train.2.ark:942819
mdbp0_si1788 quick_test/mfcc/raw_mfcc_train.2.ark:2058046
mrmh0_sx301 quick_test/mfcc/raw_mfcc_train.4.ark:1291013
frjb0_sx437 quick_test/mfcc/raw_mfcc_train.1.ark:3513747
mdbb1_sx376 quick_test/mfcc/raw_mfcc_train.2.ark:2051751
fkdw0_sx37 quick_test/mfcc/raw_mfcc_train.1.ark:2113618
mrld0_sx334 quick_test/mfcc/raw_mfcc_train.4.ark:1077021
fgmb0_si1145 quick_test/mfcc/raw_mfcc_train.1.ark:1432507
fklc1_si2308 quick_test/mfcc/raw_mfcc_train.1.ark:2236696
mcdd0_sx343 quick_test/mfcc/raw_mfcc_train.2.ark:1557704
mtlb0_si1764 quick_test/mfcc/raw_mfcc_train.4.ark:2850015
mjdm0_sx440 quick_test/mfcc/raw_mfcc_train.3.ark:835673
mrmg0_si1710 quick_test/mfcc/raw_mfcc_train.4.ark:1241721
mclk0_sx400 quick_test/mfcc/raw_mfcc_train.2.ark:1740068
msmc0_sx287 quick_test/mfcc/raw_mfcc_train.4.ark:2128870
fpaz0_sx63 quick_test/mfcc/raw_mfcc_train.1.ark:3361095
mdlb0_si676 quick_test/mfcc/raw_mfcc_train.2.ark:2425138
mrds0_si537 quick_test/mfcc/raw_mfcc_train.4.ark:515309
mtrc0_si993 quick_test/mfcc/raw_mfcc_train.4.ark:3186278
mrlj0_sx250 quick_test/mfcc/raw_mfcc_train.4.ark:1102954
makr0_sx362 quick_test/mfcc/raw_mfcc_train.2.ark:932723
mgak0_sx46 quick_test/mfcc/raw_mfcc_train.2.ark:3674992
mabc0_sx421 quick_test/mfcc/raw_mfcc_train.2.ark:680994
mjpm1_sx41 quick_test/mfcc/raw_mfcc_train.3.ark:1443045
fsak0_si1300 quick_test/mfcc/raw_mfcc_train.1.ark:3627707
mlns0_si777 quick_test/mfcc/raw_mfcc_train.3.ark:2514481
mmsm0_sx206 quick_test/mfcc/raw_mfcc_train.3.ark:3259823
mpmb0_sx151 quick_test/mfcc/raw_mfcc_train.3.ark:3713233
mkdd0_sx127 quick_test/mfcc/raw_mfcc_train.3.ark:2028718
mrcg0_sx258 quick_test/mfcc/raw_mfcc_train.4.ark:395871
mkdb0_si588 quick_test/mfcc/raw_mfcc_train.3.ark:1983524
fgdp0_sx358 quick_test/mfcc/raw_mfcc_train.1.ark:1417679
mrlk0_sx393 quick_test/mfcc/raw_mfcc_train.4.ark:1172769
fmah1_si879 quick_test/mfcc/raw_mfcc_train.1.ark:2791210
fcag0_sx423 quick_test/mfcc/raw_mfcc_train.1.ark:431921
fkkh0_sx210 quick_test/mfcc/raw_mfcc_train.1.ark:2180266
fdkn0_sx361 quick_test/mfcc/raw_mfcc_train.1.ark:933785
megj0_sx3 quick_test/mfcc/raw_mfcc_train.2.ark:3237094
mcdd0_sx163 quick_test/mfcc/raw_mfcc_train.2.ark:1551268
mrfk0_sx356 quick_test/mfcc/raw_mfcc_train.4.ark:688607
mcss0_sx30 quick_test/mfcc/raw_mfcc_train.2.ark:1857138
mjrp0_si585 quick_test/mfcc/raw_mfcc_train.3.ark:1614629
fskl0_sx89 quick_test/mfcc/raw_mfcc_train.2.ark:142155
fcke0_si481 quick_test/mfcc/raw_mfcc_train.1.ark:600572
mdas0_sx6 quick_test/mfcc/raw_mfcc_train.2.ark:2018485
mjsr0_sx254 quick_test/mfcc/raw_mfcc_train.3.ark:1659498
mkls0_sx177 quick_test/mfcc/raw_mfcc_train.3.ark:2217314
feac0_si615 quick_test/mfcc/raw_mfcc_train.1.ark:1128380
mtbc0_sx363 quick_test/mfcc/raw_mfcc_train.4.ark:2496252
mcae0_si1447 quick_test/mfcc/raw_mfcc_train.2.ark:1436625
mmgg0_si1079 quick_test/mfcc/raw_mfcc_train.3.ark:3055416
fjrb0_si672 quick_test/mfcc/raw_mfcc_train.1.ark:1789481
flac0_sx91 quick_test/mfcc/raw_mfcc_train.1.ark:2351756
mdac0_si1261 quick_test/mfcc/raw_mfcc_train.2.ark:1962254
mrms0_sx390 quick_test/mfcc/raw_mfcc_train.4.ark:1366892
mjjj0_sx173 quick_test/mfcc/raw_mfcc_train.3.ark:1085214
mpmb0_sx331 quick_test/mfcc/raw_mfcc_train.3.ark:3723465
mljc0_sx235 quick_test/mfcc/raw_mfcc_train.3.ark:2449589
mmdg0_sx430 quick_test/mfcc/raw_mfcc_train.3.ark:2869395
mddc0_si2049 quick_test/mfcc/raw_mfcc_train.2.ark:2159825
mafm0_si939 quick_test/mfcc/raw_mfcc_train.2.ark:820469
mtrc0_sx183 quick_test/mfcc/raw_mfcc_train.4.ark:3194183
mjdg0_sx52 quick_test/mfcc/raw_mfcc_train.3.ark:804513
mjxa0_si1507 quick_test/mfcc/raw_mfcc_train.3.ark:1785354
mmxs0_si629 quick_test/mfcc/raw_mfcc_train.3.ark:3416957
majp0_sx444 quick_test/mfcc/raw_mfcc_train.2.ark:870865
mkdd0_si937 quick_test/mfcc/raw_mfcc_train.3.ark:2023225
fmem0_sx207 quick_test/mfcc/raw_mfcc_train.1.ark:2866568
fcdr1_sx376 quick_test/mfcc/raw_mfcc_train.1.ark:505556
mcae0_sx97 quick_test/mfcc/raw_mfcc_train.2.ark:1474502
flja0_sx448 quick_test/mfcc/raw_mfcc_train.1.ark:2512913
mkah0_si2158 quick_test/mfcc/raw_mfcc_train.3.ark:1888102
mjhi0_si698 quick_test/mfcc/raw_mfcc_train.3.ark:1013410
mrwa0_sx253 quick_test/mfcc/raw_mfcc_train.4.ark:1629968
mfrm0_sx75 quick_test/mfcc/raw_mfcc_train.2.ark:3487227
fmkc0_sx442 quick_test/mfcc/raw_mfcc_train.1.ark:3011409
marw0_si1906 quick_test/mfcc/raw_mfcc_train.2.ark:1007941
fbas0_sx127 quick_test/mfcc/raw_mfcc_train.1.ark:191014
mmag0_sx406 quick_test/mfcc/raw_mfcc_train.3.ark:2667461
fbas0_sx307 quick_test/mfcc/raw_mfcc_train.1.ark:196878
fpmy0_sx343 quick_test/mfcc/raw_mfcc_train.1.ark:3455184
mtdp0_si1274 quick_test/mfcc/raw_mfcc_train.4.ark:2569024
fpaf0_sx154 quick_test/mfcc/raw_mfcc_train.1.ark:3311404
fljg0_sx261 quick_test/mfcc/raw_mfcc_train.1.ark:2574256
mcss0_sx300 quick_test/mfcc/raw_mfcc_train.2.ark:1859875
fcke0_si1741 quick_test/mfcc/raw_mfcc_train.1.ark:594650
falk0_sx366 quick_test/mfcc/raw_mfcc_train.1.ark:89353
fvmh0_si1466 quick_test/mfcc/raw_mfcc_train.2.ark:629895
mjrh0_sx225 quick_test/mfcc/raw_mfcc_train.3.ark:1531142
mtpf0_sx65 quick_test/mfcc/raw_mfcc_train.4.ark:3035709
fkfb0_si978 quick_test/mfcc/raw_mfcc_train.1.ark:2130210
msem1_sx180 quick_test/mfcc/raw_mfcc_train.4.ark:1943016
fcaj0_sx219 quick_test/mfcc/raw_mfcc_train.1.ark:452881
mjfr0_si1605 quick_test/mfcc/raw_mfcc_train.3.ark:968606
mlbc0_sx159 quick_test/mfcc/raw_mfcc_train.3.ark:2377201
fpac0_si2011 quick_test/mfcc/raw_mfcc_train.1.ark:3233990
mesj0_sx277 quick_test/mfcc/raw_mfcc_train.2.ark:3357682
mfrm0_sx345 quick_test/mfcc/raw_mfcc_train.2.ark:3478959
mbma0_sx232 quick_test/mfcc/raw_mfcc_train.2.ark:1236329
mwre0_sx337 quick_test/mfcc/raw_mfcc_train.4.ark:3665248
fcke0_si1111 quick_test/mfcc/raw_mfcc_train.1.ark:593043
fmem0_sx117 quick_test/mfcc/raw_mfcc_train.1.ark:2862258
mjrh1_sx64 quick_test/mfcc/raw_mfcc_train.3.ark:1573963
fsjs0_si1171 quick_test/mfcc/raw_mfcc_train.2.ark:14132
mmeb0_sx187 quick_test/mfcc/raw_mfcc_train.3.ark:3006887
mrsp0_si1429 quick_test/mfcc/raw_mfcc_train.4.ark:1475492
mgak0_sx226 quick_test/mfcc/raw_mfcc_train.2.ark:3661387
fjxm0_sx131 quick_test/mfcc/raw_mfcc_train.1.ark:1962270
fapb0_si2323 quick_test/mfcc/raw_mfcc_train.1.ark:141081
mdlh0_si574 quick_test/mfcc/raw_mfcc_train.2.ark:2551381
fjen0_sx237 quick_test/mfcc/raw_mfcc_train.1.ark:1633845
mtpg0_sx213 quick_test/mfcc/raw_mfcc_train.4.ark:3054726
mwad0_si1749 quick_test/mfcc/raw_mfcc_train.4.ark:3468560
mljc0_sx325 quick_test/mfcc/raw_mfcc_train.3.ark:2453561
feme0_sx425 quick_test/mfcc/raw_mfcc_train.1.ark:1287535
mpgh0_sx384 quick_test/mfcc/raw_mfcc_train.3.ark:3624298
fdaw0_sx236 quick_test/mfcc/raw_mfcc_train.1.ark:837353
mjdc0_sx171 quick_test/mfcc/raw_mfcc_train.3.ark:717311
mdas0_si1896 quick_test/mfcc/raw_mfcc_train.2.ark:1999148
fkdw0_sx397 quick_test/mfcc/raw_mfcc_train.1.ark:2117109
fjsk0_si2312 quick_test/mfcc/raw_mfcc_train.1.ark:1864645
mhrm0_sx58 quick_test/mfcc/raw_mfcc_train.3.ark:476761
mdhl0_si1439 quick_test/mfcc/raw_mfcc_train.2.ark:2287653
fnkl0_si892 quick_test/mfcc/raw_mfcc_train.1.ark:3134377
mejs0_sx430 quick_test/mfcc/raw_mfcc_train.2.ark:3302735
mrai0_sx162 quick_test/mfcc/raw_mfcc_train.4.ark:264581
fjkl0_sx122 quick_test/mfcc/raw_mfcc_train.1.ark:1696249
mdsj0_sx22 quick_test/mfcc/raw_mfcc_train.2.ark:2923608
mrsp0_si2059 quick_test/mfcc/raw_mfcc_train.4.ark:1482065
fbmj0_sx156 quick_test/mfcc/raw_mfcc_train.1.ark:388500
fecd0_sx68 quick_test/mfcc/raw_mfcc_train.1.ark:1221946
mjkr0_sx121 quick_test/mfcc/raw_mfcc_train.3.ark:1153318
mdlr0_si1863 quick_test/mfcc/raw_mfcc_train.2.ark:2614428
mmgk0_si1952 quick_test/mfcc/raw_mfcc_train.3.ark:3092259
fleh0_sx331 quick_test/mfcc/raw_mfcc_train.1.ark:2412425
mppc0_sx422 quick_test/mfcc/raw_mfcc_train.4.ark:7917
mkaj0_sx334 quick_test/mfcc/raw_mfcc_train.3.ark:1935689
msmr0_sx145 quick_test/mfcc/raw_mfcc_train.4.ark:2150929
fvmh0_sx206 quick_test/mfcc/raw_mfcc_train.2.ark:647591
mrml0_sx161 quick_test/mfcc/raw_mfcc_train.4.ark:1314963
fsdj0_si485 quick_test/mfcc/raw_mfcc_train.1.ark:3773070
msmc0_si1907 quick_test/mfcc/raw_mfcc_train.4.ark:2104038
mmgc0_si1305 quick_test/mfcc/raw_mfcc_train.3.ark:3025510
mkes0_sx263 quick_test/mfcc/raw_mfcc_train.3.ark:2097608
mdss0_si621 quick_test/mfcc/raw_mfcc_train.2.ark:2946077
mjrk0_sx70 quick_test/mfcc/raw_mfcc_train.3.ark:1605623
mjmd0_si1028 quick_test/mfcc/raw_mfcc_train.3.ark:1296010
mdhl0_sx179 quick_test/mfcc/raw_mfcc_train.2.ark:2299661
mwar0_si2305 quick_test/mfcc/raw_mfcc_train.4.ark:3499085
mrew1_sx150 quick_test/mfcc/raw_mfcc_train.4.ark:649613
mmam0_sx337 quick_test/mfcc/raw_mfcc_train.3.ark:2693824
mkjo0_sx424 quick_test/mfcc/raw_mfcc_train.3.ark:2130185
fapb0_sx343 quick_test/mfcc/raw_mfcc_train.1.ark:156585
fdaw0_si2036 quick_test/mfcc/raw_mfcc_train.1.ark:827485
mter0_sx257 quick_test/mfcc/raw_mfcc_train.4.ark:2629307
mkes0_si1253 quick_test/mfcc/raw_mfcc_train.3.ark:2077754
fcmg0_si1872 quick_test/mfcc/raw_mfcc_train.1.ark:663906
fmjb0_si547 quick_test/mfcc/raw_mfcc_train.1.ark:2895862
msrr0_sx411 quick_test/mfcc/raw_mfcc_train.4.ark:2255861
fscn0_sx446 quick_test/mfcc/raw_mfcc_train.1.ark:3725377
mrjh0_sx79 quick_test/mfcc/raw_mfcc_train.4.ark:912430
mgag0_sx421 quick_test/mfcc/raw_mfcc_train.2.ark:3635187
fmbg0_sx440 quick_test/mfcc/raw_mfcc_train.1.ark:2840460
mctm0_si1350 quick_test/mfcc/raw_mfcc_train.2.ark:1898661
fjsp0_si1434 quick_test/mfcc/raw_mfcc_train.1.ark:1888178
mfer0_sx322 quick_test/mfcc/raw_mfcc_train.2.ark:3415690
mjac0_sx71 quick_test/mfcc/raw_mfcc_train.3.ark:573180
fgrw0_sx72 quick_test/mfcc/raw_mfcc_train.1.ark:1504569
mtmt0_si488 quick_test/mfcc/raw_mfcc_train.4.ark:2983176
mmrp0_si717 quick_test/mfcc/raw_mfcc_train.3.ark:3209019
mpsw0_si1067 quick_test/mfcc/raw_mfcc_train.4.ark:158646
mjeb0_sx386 quick_test/mfcc/raw_mfcc_train.3.ark:872409
mbml0_sx269 quick_test/mfcc/raw_mfcc_train.2.ark:1300702
mjda0_sx131 quick_test/mfcc/raw_mfcc_train.3.ark:685105
mgaw0_sx175 quick_test/mfcc/raw_mfcc_train.3.ark:46165
mrfl0_si1786 quick_test/mfcc/raw_mfcc_train.4.ark:705055
mapv0_si663 quick_test/mfcc/raw_mfcc_train.2.ark:952935
fkaa0_si1838 quick_test/mfcc/raw_mfcc_train.1.ark:2021559
fcdr1_sx106 quick_test/mfcc/raw_mfcc_train.1.ark:488850
fssb0_sx362 quick_test/mfcc/raw_mfcc_train.2.ark:397270
mtlc0_si847 quick_test/mfcc/raw_mfcc_train.4.ark:2888845
fajw0_sx183 quick_test/mfcc/raw_mfcc_train.1.ark:49518
mtat1_sx149 quick_test/mfcc/raw_mfcc_train.4.ark:2447567
fdkn0_si1202 quick_test/mfcc/raw_mfcc_train.1.ark:914854
mjls0_sx16 quick_test/mfcc/raw_mfcc_train.3.ark:1250632
mbef0_si1281 quick_test/mfcc/raw_mfcc_train.2.ark:1130413
mmws0_si559 quick_test/mfcc/raw_mfcc_train.3.ark:3360671
fcrz0_sx73 quick_test/mfcc/raw_mfcc_train.1.ark:746513
frll0_sx434 quick_test/mfcc/raw_mfcc_train.1.ark:3547720
faem0_si1392 quick_test/mfcc/raw_mfcc_train.1.ark:13
msds0_sx267 quick_test/mfcc/raw_mfcc_train.4.ark:1903225
fssb0_sx182 quick_test/mfcc/raw_mfcc_train.2.ark:390119
mdlm0_sx424 quick_test/mfcc/raw_mfcc_train.2.ark:2602355
fgcs0_si2116 quick_test/mfcc/raw_mfcc_train.1.ark:1368012
mdlc1_sx265 quick_test/mfcc/raw_mfcc_train.2.ark:2505503
mejl0_si1654 quick_test/mfcc/raw_mfcc_train.2.ark:3252385
mclm0_sx286 quick_test/mfcc/raw_mfcc_train.2.ark:1764181
fpls0_sx150 quick_test/mfcc/raw_mfcc_train.1.ark:3409660
mabc0_sx331 quick_test/mfcc/raw_mfcc_train.2.ark:677685
fceg0_sx258 quick_test/mfcc/raw_mfcc_train.1.ark:522207
fcjf0_sx217 quick_test/mfcc/raw_mfcc_train.1.ark:552047
mcdr0_sx254 quick_test/mfcc/raw_mfcc_train.2.ark:1592581
mjpm0_sx108 quick_test/mfcc/raw_mfcc_train.3.ark:1396421
mjwg0_si2155 quick_test/mfcc/raw_mfcc_train.3.ark:1676907
fsmm0_sx324 quick_test/mfcc/raw_mfcc_train.2.ark:263297
mtrc0_si1623 quick_test/mfcc/raw_mfcc_train.4.ark:3177931
mdma0_sx80 quick_test/mfcc/raw_mfcc_train.2.ark:2712981
mhjb0_si1017 quick_test/mfcc/raw_mfcc_train.3.ark:361243
mrso0_sx129 quick_test/mfcc/raw_mfcc_train.4.ark:1452447
mkxl0_si1815 quick_test/mfcc/raw_mfcc_train.3.ark:2335919
fhlm0_si930 quick_test/mfcc/raw_mfcc_train.1.ark:1513796
fsdc0_si1312 quick_test/mfcc/raw_mfcc_train.1.ark:3733997
mcre0_sx221 quick_test/mfcc/raw_mfcc_train.2.ark:1817232
mhbs0_sx135 quick_test/mfcc/raw_mfcc_train.3.ark:312583
mcae0_sx277 quick_test/mfcc/raw_mfcc_train.2.ark:1459859
msdh0_sx260 quick_test/mfcc/raw_mfcc_train.4.ark:1866130
mrre0_sx74 quick_test/mfcc/raw_mfcc_train.4.ark:1432045
mdwd0_sx360 quick_test/mfcc/raw_mfcc_train.2.ark:3042743
fltm0_si1700 quick_test/mfcc/raw_mfcc_train.1.ark:2753913
mtqc0_sx451 quick_test/mfcc/raw_mfcc_train.4.ark:3166451
mcef0_sx235 quick_test/mfcc/raw_mfcc_train.2.ark:1622161
fklc1_sx148 quick_test/mfcc/raw_mfcc_train.1.ark:2239173
mrav0_si1008 quick_test/mfcc/raw_mfcc_train.4.ark:317064
mdlc2_si2244 quick_test/mfcc/raw_mfcc_train.2.ark:2520528
mter0_sx17 quick_test/mfcc/raw_mfcc_train.4.ark:2626648
mjrh1_sx334 quick_test/mfcc/raw_mfcc_train.3.ark:1567190
mpgr0_sx60 quick_test/mfcc/raw_mfcc_train.3.ark:3652864
msrg0_sx411 quick_test/mfcc/raw_mfcc_train.4.ark:2224319
mmrp0_si2034 quick_test/mfcc/raw_mfcc_train.3.ark:3206867
fdtd0_sx321 quick_test/mfcc/raw_mfcc_train.1.ark:1083053
mdcd0_sx65 quick_test/mfcc/raw_mfcc_train.2.ark:2119166
mjfh0_sx387 quick_test/mfcc/raw_mfcc_train.3.ark:965114
mtcs0_sx82 quick_test/mfcc/raw_mfcc_train.4.ark:2532559
mdbb1_sx286 quick_test/mfcc/raw_mfcc_train.2.ark:2046765
frll0_si1514 quick_test/mfcc/raw_mfcc_train.1.ark:3522718
mrwa0_sx73 quick_test/mfcc/raw_mfcc_train.4.ark:1642364
mrds0_sx447 quick_test/mfcc/raw_mfcc_train.4.ark:531314
mded0_sx270 quick_test/mfcc/raw_mfcc_train.2.ark:2202478
mjpm1_sx311 quick_test/mfcc/raw_mfcc_train.3.ark:1432749
mdhs0_si900 quick_test/mfcc/raw_mfcc_train.2.ark:2326439
mmdg0_sx70 quick_test/mfcc/raw_mfcc_train.3.ark:2874666
fcaj0_sx39 quick_test/mfcc/raw_mfcc_train.1.ark:461448
mmdg0_sx340 quick_test/mfcc/raw_mfcc_train.3.ark:2864838
mtcs0_sx352 quick_test/mfcc/raw_mfcc_train.4.ark:2522575
mtjs0_sx22 quick_test/mfcc/raw_mfcc_train.4.ark:2730591
fdml0_si1149 quick_test/mfcc/raw_mfcc_train.1.ark:947950
mljc0_sx415 quick_test/mfcc/raw_mfcc_train.3.ark:2457104
fskl0_si1529 quick_test/mfcc/raw_mfcc_train.2.ark:113467
msvs0_si938 quick_test/mfcc/raw_mfcc_train.4.ark:2309194
mjeb0_sx26 quick_test/mfcc/raw_mfcc_train.3.ark:865973
mjda0_sx311 quick_test/mfcc/raw_mfcc_train.3.ark:691060
mtrc0_si589 quick_test/mfcc/raw_mfcc_train.4.ark:3180837
fsak0_sx40 quick_test/mfcc/raw_mfcc_train.1.ark:3651851
mrjh0_sx439 quick_test/mfcc/raw_mfcc_train.4.ark:907159
fjsp0_sx264 quick_test/mfcc/raw_mfcc_train.1.ark:1904145
mdwh0_sx35 quick_test/mfcc/raw_mfcc_train.2.ark:3083015
mdem0_sx248 quick_test/mfcc/raw_mfcc_train.2.ark:2267956
fsah0_sx74 quick_test/mfcc/raw_mfcc_train.1.ark:3624137
fsma0_sx271 quick_test/mfcc/raw_mfcc_train.2.ark:226131
mmgk0_sx332 quick_test/mfcc/raw_mfcc_train.3.ark:3102505
mree0_sx294 quick_test/mfcc/raw_mfcc_train.4.ark:563442
fcag0_sx243 quick_test/mfcc/raw_mfcc_train.1.ark:423002
mapv0_si1923 quick_test/mfcc/raw_mfcc_train.2.ark:949262
mtju0_si2020 quick_test/mfcc/raw_mfcc_train.4.ark:2743873
fcjs0_sx167 quick_test/mfcc/raw_mfcc_train.1.ark:571233
mjdm0_sx260 quick_test/mfcc/raw_mfcc_train.3.ark:826039
fgrw0_sx162 quick_test/mfcc/raw_mfcc_train.1.ark:1484925
fsms1_sx154 quick_test/mfcc/raw_mfcc_train.2.ark:290497
fcjf0_sx127 quick_test/mfcc/raw_mfcc_train.1.ark:549934
mjmd0_sx218 quick_test/mfcc/raw_mfcc_train.3.ark:1309508
mprt0_si495 quick_test/mfcc/raw_mfcc_train.4.ark:134820
mgsl0_si797 quick_test/mfcc/raw_mfcc_train.3.ark:236142
mnet0_si1446 quick_test/mfcc/raw_mfcc_train.3.ark:3444683
mtpr0_sx160 quick_test/mfcc/raw_mfcc_train.4.ark:3111630
mjws0_sx243 quick_test/mfcc/raw_mfcc_train.3.ark:1730617
megj0_si707 quick_test/mfcc/raw_mfcc_train.2.ark:3222528
fnkl0_sx442 quick_test/mfcc/raw_mfcc_train.1.ark:3150902
mwgr0_sx256 quick_test/mfcc/raw_mfcc_train.4.ark:3630785
mcae0_si817 quick_test/mfcc/raw_mfcc_train.2.ark:1451278
ftaj0_sx339 quick_test/mfcc/raw_mfcc_train.2.ark:429072
medr0_sx24 quick_test/mfcc/raw_mfcc_train.2.ark:3170007
fkfb0_sx78 quick_test/mfcc/raw_mfcc_train.1.ark:2156023
mvlo0_si1777 quick_test/mfcc/raw_mfcc_train.4.ark:3369459
mmag0_sx136 quick_test/mfcc/raw_mfcc_train.3.ark:2653621
mdks0_sx346 quick_test/mfcc/raw_mfcc_train.2.ark:2399687
fcaj0_si1804 quick_test/mfcc/raw_mfcc_train.1.ark:441914
mgak0_sx406 quick_test/mfcc/raw_mfcc_train.2.ark:3669682
fmem0_sx333 quick_test/mfcc/raw_mfcc_train.1.ark:2872978
mjbg0_si1232 quick_test/mfcc/raw_mfcc_train.3.ark:642826
mjdg0_sx232 quick_test/mfcc/raw_mfcc_train.3.ark:793313
fsjs0_sx91 quick_test/mfcc/raw_mfcc_train.2.ark:45199
mjra0_si1866 quick_test/mfcc/raw_mfcc_train.3.ark:1451771
fear0_si622 quick_test/mfcc/raw_mfcc_train.1.ark:1160703
fpjf0_sx352 quick_test/mfcc/raw_mfcc_train.1.ark:3387342
mkxl0_sx285 quick_test/mfcc/raw_mfcc_train.3.ark:2356637
majp0_sx84 quick_test/mfcc/raw_mfcc_train.2.ark:875161
mjjj0_sx353 quick_test/mfcc/raw_mfcc_train.3.ark:1094757
mrjm1_si668 quick_test/mfcc/raw_mfcc_train.4.ark:959922
mmgc0_sx225 quick_test/mfcc/raw_mfcc_train.3.ark:3041907
mmag0_si496 quick_test/mfcc/raw_mfcc_train.3.ark:2649662
fkde0_sx241 quick_test/mfcc/raw_mfcc_train.1.ark:2072247
mcxm0_si1351 quick_test/mfcc/raw_mfcc_train.2.ark:1930412
fjhk0_si1652 quick_test/mfcc/raw_mfcc_train.1.ark:1657138
mwad0_si1062 quick_test/mfcc/raw_mfcc_train.4.ark:3464288
fhxs0_si1075 quick_test/mfcc/raw_mfcc_train.1.ark:1541321
fjhk0_si2282 quick_test/mfcc/raw_mfcc_train.1.ark:1659317
mmdm1_si783 quick_test/mfcc/raw_mfcc_train.3.ark:2914253
flag0_sx294 quick_test/mfcc/raw_mfcc_train.1.ark:2383461
mtpf0_sx425 quick_test/mfcc/raw_mfcc_train.4.ark:3033415
mreh1_sx249 quick_test/mfcc/raw_mfcc_train.4.ark:590916
marw0_sx286 quick_test/mfcc/raw_mfcc_train.2.ark:1021553
mdlr1_sx129 quick_test/mfcc/raw_mfcc_train.2.ark:2657347
mhxl0_si512 quick_test/mfcc/raw_mfcc_train.3.ark:485057
mdns0_sx201 quick_test/mfcc/raw_mfcc_train.2.ark:2764958
mrmg0_sx360 quick_test/mfcc/raw_mfcc_train.4.ark:1257610
fdas1_sx381 quick_test/mfcc/raw_mfcc_train.1.ark:814396
fssb0_si2342 quick_test/mfcc/raw_mfcc_train.2.ark:388032
mvlo0_sx247 quick_test/mfcc/raw_mfcc_train.4.ark:3381492
fetb0_sx338 quick_test/mfcc/raw_mfcc_train.1.ark:1314092
mpsw0_sx167 quick_test/mfcc/raw_mfcc_train.4.ark:167925
fbcg1_sx82 quick_test/mfcc/raw_mfcc_train.1.ark:235597
mges0_si1481 quick_test/mfcc/raw_mfcc_train.3.ark:63217
mjeb1_sx27 quick_test/mfcc/raw_mfcc_train.3.ark:899531
mwgr0_sx76 quick_test/mfcc/raw_mfcc_train.4.ark:3641543
fmjb0_sx187 quick_test/mfcc/raw_mfcc_train.1.ark:2900536
mjrk0_sx340 quick_test/mfcc/raw_mfcc_train.3.ark:1596718
mmpm0_sx431 quick_test/mfcc/raw_mfcc_train.3.ark:3199326
mrjm0_si1228 quick_test/mfcc/raw_mfcc_train.4.ark:920233
mbgt0_si1341 quick_test/mfcc/raw_mfcc_train.2.ark:1156821
mtas0_sx305 quick_test/mfcc/raw_mfcc_train.4.ark:2393699
mwsh0_sx436 quick_test/mfcc/raw_mfcc_train.4.ark:3768799
makr0_sx272 quick_test/mfcc/raw_mfcc_train.2.ark:930480
msfh0_sx406 quick_test/mfcc/raw_mfcc_train.4.ark:2023232
mrhl0_si1515 quick_test/mfcc/raw_mfcc_train.4.ark:811088
mrjb1_sx120 quick_test/mfcc/raw_mfcc_train.4.ark:858566
fbas0_si1472 quick_test/mfcc/raw_mfcc_train.1.ark:177011
msat1_si1703 quick_test/mfcc/raw_mfcc_train.4.ark:1800330
mpgh0_sx24 quick_test/mfcc/raw_mfcc_train.3.ark:3618915
mtjg0_sx260 quick_test/mfcc/raw_mfcc_train.4.ark:2657138
mbar0_si1319 quick_test/mfcc/raw_mfcc_train.2.ark:1038033
fmkf0_si906 quick_test/mfcc/raw_mfcc_train.1.ark:3029729
mkdb0_sx422 quick_test/mfcc/raw_mfcc_train.3.ark:2003072
fjrp1_sx442 quick_test/mfcc/raw_mfcc_train.1.ark:1845713
fkkh0_sx390 quick_test/mfcc/raw_mfcc_train.1.ark:2189893
mntw0_sx258 quick_test/mfcc/raw_mfcc_train.3.ark:3495046
mfxv0_si1005 quick_test/mfcc/raw_mfcc_train.2.ark:3552935
mrlj1_si2301 quick_test/mfcc/raw_mfcc_train.4.ark:1119591
mrhl0_sx75 quick_test/mfcc/raw_mfcc_train.4.ark:837657
msdb0_si1637 quick_test/mfcc/raw_mfcc_train.4.ark:1832134
fjsp0_sx444 quick_test/mfcc/raw_mfcc_train.1.ark:1911686
fjsp0_si1763 quick_test/mfcc/raw_mfcc_train.1.ark:1893984
fhxs0_si2335 quick_test/mfcc/raw_mfcc_train.1.ark:1556820
mrdm0_sx155 quick_test/mfcc/raw_mfcc_train.4.ark:489285
mwem0_sx420 quick_test/mfcc/raw_mfcc_train.4.ark:3602818
mdwh0_sx395 quick_test/mfcc/raw_mfcc_train.2.ark:3086714
ftbr0_sx111 quick_test/mfcc/raw_mfcc_train.2.ark:452957
mrhl0_si2145 quick_test/mfcc/raw_mfcc_train.4.ark:812617
mdlh0_si1960 quick_test/mfcc/raw_mfcc_train.2.ark:2546564
mcth0_sx129 quick_test/mfcc/raw_mfcc_train.2.ark:1879321
mdac0_sx361 quick_test/mfcc/raw_mfcc_train.2.ark:1984247
mmeb0_sx367 quick_test/mfcc/raw_mfcc_train.3.ark:3015221
fspm0_si1241 quick_test/mfcc/raw_mfcc_train.2.ark:310591
mjpg0_sx201 quick_test/mfcc/raw_mfcc_train.3.ark:1370618
mfer0_sx232 quick_test/mfcc/raw_mfcc_train.2.ark:3411172
mrai0_sx342 quick_test/mfcc/raw_mfcc_train.4.ark:272174
mlbc0_si609 quick_test/mfcc/raw_mfcc_train.3.ark:2372046
mnet0_si2076 quick_test/mfcc/raw_mfcc_train.3.ark:3449826
mmxs0_sx246 quick_test/mfcc/raw_mfcc_train.3.ark:3428496
fskl0_sx269 quick_test/mfcc/raw_mfcc_train.2.ark:130552
makb0_sx386 quick_test/mfcc/raw_mfcc_train.2.ark:915077
mkln0_sx428 quick_test/mfcc/raw_mfcc_train.3.ark:2165297
mjwt0_sx31 quick_test/mfcc/raw_mfcc_train.3.ark:1779086
mwem0_sx240 quick_test/mfcc/raw_mfcc_train.4.ark:3594107
mmdg0_si520 quick_test/mfcc/raw_mfcc_train.3.ark:2850556
mtrt0_sx237 quick_test/mfcc/raw_mfcc_train.4.ark:3256320
mmaa0_sx395 quick_test/mfcc/raw_mfcc_train.3.ark:2600884
fjen0_si1047 quick_test/mfcc/raw_mfcc_train.1.ark:1616135
msfh0_sx316 quick_test/mfcc/raw_mfcc_train.4.ark:2019572
mmam0_si2227 quick_test/mfcc/raw_mfcc_train.3.ark:2683962
fajw0_si1263 quick_test/mfcc/raw_mfcc_train.1.ark:32804
mrtj0_si2032 quick_test/mfcc/raw_mfcc_train.4.ark:1549870
msms0_sx353 quick_test/mfcc/raw_mfcc_train.4.ark:2190234
marw0_sx106 quick_test/mfcc/raw_mfcc_train.2.ark:1014039
mjlb0_sx356 quick_test/mfcc/raw_mfcc_train.3.ark:1191973
mvjh0_si2186 quick_test/mfcc/raw_mfcc_train.4.ark:3340737
fscn0_si1886 quick_test/mfcc/raw_mfcc_train.1.ark:3695279
mkam0_sx416 quick_test/mfcc/raw_mfcc_train.3.ark:1971894
mrai0_sx252 quick_test/mfcc/raw_mfcc_train.4.ark:268774
mjjj0_si1793 quick_test/mfcc/raw_mfcc_train.3.ark:1077231
fdml0_si1779 quick_test/mfcc/raw_mfcc_train.1.ark:952768
mdsj0_si1462 quick_test/mfcc/raw_mfcc_train.2.ark:2907525
mrhl0_si885 quick_test/mfcc/raw_mfcc_train.4.ark:817902
ftbw0_sx85 quick_test/mfcc/raw_mfcc_train.2.ark:498671
mtrt0_si1227 quick_test/mfcc/raw_mfcc_train.4.ark:3238091
mkln0_sx158 quick_test/mfcc/raw_mfcc_train.3.ark:2154889
mfxv0_sx105 quick_test/mfcc/raw_mfcc_train.2.ark:3566946
mwre0_sx67 quick_test/mfcc/raw_mfcc_train.4.ark:3672307
mhmr0_si489 quick_test/mfcc/raw_mfcc_train.3.ark:426295
fpmy0_sx253 quick_test/mfcc/raw_mfcc_train.1.ark:3451485
madc0_si1997 quick_test/mfcc/raw_mfcc_train.2.ark:693522
mrav0_sx378 quick_test/mfcc/raw_mfcc_train.4.ark:342334
mtdb0_sx411 quick_test/mfcc/raw_mfcc_train.4.ark:2561275
msjk0_sx336 quick_test/mfcc/raw_mfcc_train.4.ark:2090484
fear0_sx172 quick_test/mfcc/raw_mfcc_train.1.ark:1164844
madc0_si737 quick_test/mfcc/raw_mfcc_train.2.ark:697754
mdbp0_sx438 quick_test/mfcc/raw_mfcc_train.2.ark:2081364
mdlh0_sx160 quick_test/mfcc/raw_mfcc_train.2.ark:2559104
mrkm0_sx7 quick_test/mfcc/raw_mfcc_train.4.ark:1050269
mtat0_sx120 quick_test/mfcc/raw_mfcc_train.4.ark:2418637
mmar0_si1966 quick_test/mfcc/raw_mfcc_train.3.ark:2708894
mwad0_sx342 quick_test/mfcc/raw_mfcc_train.4.ark:3479353
fgcs0_sx46 quick_test/mfcc/raw_mfcc_train.1.ark:1391700
mpgh0_si1554 quick_test/mfcc/raw_mfcc_train.3.ark:3599056
mmwb0_si2249 quick_test/mfcc/raw_mfcc_train.3.ark:3318430
mrms0_si2057 quick_test/mfcc/raw_mfcc_train.4.ark:1346037
fpjf0_si1046 quick_test/mfcc/raw_mfcc_train.1.ark:3365120
mrtj0_sx142 quick_test/mfcc/raw_mfcc_train.4.ark:1560531
fskl0_sx359 quick_test/mfcc/raw_mfcc_train.2.ark:133354
mtat0_sx390 quick_test/mfcc/raw_mfcc_train.4.ark:2431313
mrfk0_sx86 quick_test/mfcc/raw_mfcc_train.4.ark:695848
mgar0_si1842 quick_test/mfcc/raw_mfcc_train.3.ark:7907
mbml0_sx179 quick_test/mfcc/raw_mfcc_train.2.ark:1296925
fhlm0_sx300 quick_test/mfcc/raw_mfcc_train.1.ark:1527285
mdma0_sx170 quick_test/mfcc/raw_mfcc_train.2.ark:2689476
mrem0_sx421 quick_test/mfcc/raw_mfcc_train.4.ark:631897
mcss0_sx390 quick_test/mfcc/raw_mfcc_train.2.ark:1863067
frjb0_sx167 quick_test/mfcc/raw_mfcc_train.1.ark:3501090
flja0_sx268 quick_test/mfcc/raw_mfcc_train.1.ark:2503942
mjee0_sx247 quick_test/mfcc/raw_mfcc_train.3.ark:924776
fjhk0_sx392 quick_test/mfcc/raw_mfcc_train.1.ark:1681932
fdxw0_si2141 quick_test/mfcc/raw_mfcc_train.1.ark:1095413
mdpb0_si2126 quick_test/mfcc/raw_mfcc_train.2.ark:2783922
fsag0_sx63 quick_test/mfcc/raw_mfcc_train.1.ark:3588161
mdcm0_si2110 quick_test/mfcc/raw_mfcc_train.2.ark:2127762
mrso0_si1206 quick_test/mfcc/raw_mfcc_train.4.ark:1436265
mnet0_sx96 quick_test/mfcc/raw_mfcc_train.3.ark:3469378
mdwh0_sx215 quick_test/mfcc/raw_mfcc_train.2.ark:3073213
ftbr0_sx381 quick_test/mfcc/raw_mfcc_train.2.ark:466569
makr0_sx452 quick_test/mfcc/raw_mfcc_train.2.ark:936396
fgcs0_sx406 quick_test/mfcc/raw_mfcc_train.1.ark:1387508
mbom0_si1014 quick_test/mfcc/raw_mfcc_train.2.ark:1316226
ftlg0_sx123 quick_test/mfcc/raw_mfcc_train.2.ark:518070
fnkl0_sx82 quick_test/mfcc/raw_mfcc_train.1.ark:3155133
mmea0_si2018 quick_test/mfcc/raw_mfcc_train.3.ark:2972756
marc0_sx288 quick_test/mfcc/raw_mfcc_train.2.ark:996712
mdrd0_sx32 quick_test/mfcc/raw_mfcc_train.2.ark:2899099
mpsw0_sx257 quick_test/mfcc/raw_mfcc_train.4.ark:174347
mtlc0_sx217 quick_test/mfcc/raw_mfcc_train.4.ark:2894592
mrso0_sx309 quick_test/mfcc/raw_mfcc_train.4.ark:1461977
mded0_si540 quick_test/mfcc/raw_mfcc_train.2.ark:2192142
fpjf0_sx236 quick_test/mfcc/raw_mfcc_train.1.ark:3380984
mrms0_sx300 quick_test/mfcc/raw_mfcc_train.4.ark:1364051
fpls0_si1590 quick_test/mfcc/raw_mfcc_train.1.ark:3396456
mapv0_sx213 quick_test/mfcc/raw_mfcc_train.2.ark:963856
mmbs0_sx431 quick_test/mfcc/raw_mfcc_train.3.ark:2772075
milb0_sx3 quick_test/mfcc/raw_mfcc_train.3.ark:535098
mges0_sx221 quick_test/mfcc/raw_mfcc_train.3.ark:74231
mwre0_sx247 quick_test/mfcc/raw_mfcc_train.4.ark:3660457
mtju0_si760 quick_test/mfcc/raw_mfcc_train.4.ark:2751493
milb0_si807 quick_test/mfcc/raw_mfcc_train.3.ark:517925
fkkh0_sx120 quick_test/mfcc/raw_mfcc_train.1.ark:2175787
mjra0_sx336 quick_test/mfcc/raw_mfcc_train.3.ark:1467087
mtdp0_sx81 quick_test/mfcc/raw_mfcc_train.4.ark:2604044
mjhi0_si555 quick_test/mfcc/raw_mfcc_train.3.ark:1010582
mmsm0_sx386 quick_test/mfcc/raw_mfcc_train.3.ark:3271491
mfxs0_sx54 quick_test/mfcc/raw_mfcc_train.2.ark:3548338
mrms0_sx30 quick_test/mfcc/raw_mfcc_train.4.ark:1361756
mrab1_si2108 quick_test/mfcc/raw_mfcc_train.4.ark:221038
fljd0_si2146 quick_test/mfcc/raw_mfcc_train.1.ark:2528015
mrdd0_sx150 quick_test/mfcc/raw_mfcc_train.4.ark:458470
mrav0_si1638 quick_test/mfcc/raw_mfcc_train.4.ark:319516
mtjm0_sx416 quick_test/mfcc/raw_mfcc_train.4.ark:2698705
mjae0_sx174 quick_test/mfcc/raw_mfcc_train.3.ark:587329
mjdm0_sx170 quick_test/mfcc/raw_mfcc_train.3.ark:819311
mcxm0_sx181 quick_test/mfcc/raw_mfcc_train.2.ark:1942329
fjsk0_sx332 quick_test/mfcc/raw_mfcc_train.1.ark:1875209
mtjm0_sx236 quick_test/mfcc/raw_mfcc_train.4.ark:2691970
mkjo0_sx77 quick_test/mfcc/raw_mfcc_train.3.ark:2139025
fmjf0_sx354 quick_test/mfcc/raw_mfcc_train.1.ark:2938877
mwar0_sx235 quick_test/mfcc/raw_mfcc_train.4.ark:3505885
mrmh0_si1349 quick_test/mfcc/raw_mfcc_train.4.ark:1274877
mtmn0_sx164 quick_test/mfcc/raw_mfcc_train.4.ark:2958101
fpjf0_sx326 quick_test/mfcc/raw_mfcc_train.1.ark:3384267
fjhk0_sx122 quick_test/mfcc/raw_mfcc_train.1.ark:1665759
fcjf0_sx397 quick_test/mfcc/raw_mfcc_train.1.ark:559464
mkdt0_sx263 quick_test/mfcc/raw_mfcc_train.3.ark:2062191
flmk0_sx135 quick_test/mfcc/raw_mfcc_train.1.ark:2702553
fpmy0_sx196 quick_test/mfcc/raw_mfcc_train.1.ark:3448501
mgsh0_sx96 quick_test/mfcc/raw_mfcc_train.3.ark:223887
msas0_si746 quick_test/mfcc/raw_mfcc_train.4.ark:1745415
fcmg0_si1242 quick_test/mfcc/raw_mfcc_train.1.ark:660219
mrdd0_si2310 quick_test/mfcc/raw_mfcc_train.4.ark:455109
flmk0_si1035 quick_test/mfcc/raw_mfcc_train.1.ark:2689634
mgsl0_sx264 quick_test/mfcc/raw_mfcc_train.3.ark:247011
mcew0_sx362 quick_test/mfcc/raw_mfcc_train.2.ark:1661199
mjpm1_sx221 quick_test/mfcc/raw_mfcc_train.3.ark:1428660
mmrp0_sx414 quick_test/mfcc/raw_mfcc_train.3.ark:3232025
flma0_si1243 quick_test/mfcc/raw_mfcc_train.1.ark:2628784
mjra0_sx66 quick_test/mfcc/raw_mfcc_train.3.ark:1477019
mdtb0_sx321 quick_test/mfcc/raw_mfcc_train.2.ark:3015717
fmpg0_sx342 quick_test/mfcc/raw_mfcc_train.1.ark:3111669
fjxp0_sx312 quick_test/mfcc/raw_mfcc_train.1.ark:2005787
ftbr0_si2181 quick_test/mfcc/raw_mfcc_train.2.ark:444116
mjdg0_si1042 quick_test/mfcc/raw_mfcc_train.3.ark:777215
mjls0_sx106 quick_test/mfcc/raw_mfcc_train.3.ark:1247064
mrfl0_sx166 quick_test/mfcc/raw_mfcc_train.4.ark:713402
mkrg0_sx31 quick_test/mfcc/raw_mfcc_train.3.ark:2323579
fjxm0_sx311 quick_test/mfcc/raw_mfcc_train.1.ark:1969785
fmah1_sx339 quick_test/mfcc/raw_mfcc_train.1.ark:2805115
mmdm1_sx63 quick_test/mfcc/raw_mfcc_train.3.ark:2938272
fcmm0_si453 quick_test/mfcc/raw_mfcc_train.1.ark:697841
mjkr0_sx301 quick_test/mfcc/raw_mfcc_train.3.ark:1161327
fajw0_sx93 quick_test/mfcc/raw_mfcc_train.1.ark:64116
fgdp0_si2248 quick_test/mfcc/raw_mfcc_train.1.ark:1397683
fdkn0_sx181 quick_test/mfcc/raw_mfcc_train.1.ark:924216
fpad0_si716 quick_test/mfcc/raw_mfcc_train.1.ark:3270220
mjrp0_si1835 quick_test/mfcc/raw_mfcc_train.3.ark:1607243
freh0_sx235 quick_test/mfcc/raw_mfcc_train.1.ark:3480603
fdaw0_sx326 quick_test/mfcc/raw_mfcc_train.1.ark:840727
mreh1_sx429 quick_test/mfcc/raw_mfcc_train.4.ark:598522
mmds0_sx443 quick_test/mfcc/raw_mfcc_train.3.ark:2961684
mrcw0_si2001 quick_test/mfcc/raw_mfcc_train.4.ark:420893
mjee0_si1237 quick_test/mfcc/raw_mfcc_train.3.ark:910564
mlsh0_si1417 quick_test/mfcc/raw_mfcc_train.3.ark:2536064
mkes0_sx83 quick_test/mfcc/raw_mfcc_train.3.ark:2109523
mljc0_si1225 quick_test/mfcc/raw_mfcc_train.3.ark:2432023
mjrh0_si1125 quick_test/mfcc/raw_mfcc_train.3.ark:1512925
fmkc0_si1041 quick_test/mfcc/raw_mfcc_train.1.ark:2986119
mmar0_sx346 quick_test/mfcc/raw_mfcc_train.3.ark:2730255
fgdp0_sx178 quick_test/mfcc/raw_mfcc_train.1.ark:1407473
flmc0_sx112 quick_test/mfcc/raw_mfcc_train.1.ark:2669085
mwsh0_sx256 quick_test/mfcc/raw_mfcc_train.4.ark:3759594
mtkp0_sx123 quick_test/mfcc/raw_mfcc_train.4.ark:2826806
mbth0_sx32 quick_test/mfcc/raw_mfcc_train.2.ark:1394940
fblv0_si1058 quick_test/mfcc/raw_mfcc_train.1.ark:307452
mlns0_sx237 quick_test/mfcc/raw_mfcc_train.3.ark:2521333
mjxl0_sx272 quick_test/mfcc/raw_mfcc_train.3.ark:1831746
msfv0_sx452 quick_test/mfcc/raw_mfcc_train.4.ark:2059585
mcss0_si1380 quick_test/mfcc/raw_mfcc_train.2.ark:1833405
mmvp0_si1914 quick_test/mfcc/raw_mfcc_train.3.ark:3279255
mppc0_sx62 quick_test/mfcc/raw_mfcc_train.4.ark:12265
fdaw0_sx56 quick_test/mfcc/raw_mfcc_train.1.ark:848072
fkde0_sx61 quick_test/mfcc/raw_mfcc_train.1.ark:2084370
mtjm0_sx326 quick_test/mfcc/raw_mfcc_train.4.ark:2694954
mreh1_si2229 quick_test/mfcc/raw_mfcc_train.4.ark:576634
mmdb0_sx447 quick_test/mfcc/raw_mfcc_train.3.ark:2835967
falr0_sx335 quick_test/mfcc/raw_mfcc_train.1.ark:120595
mjra0_si606 quick_test/mfcc/raw_mfcc_train.3.ark:1456315
fklh0_sx87 quick_test/mfcc/raw_mfcc_train.1.ark:2289216
mtjm0_si1856 quick_test/mfcc/raw_mfcc_train.4.ark:2678962
mkdt0_si814 quick_test/mfcc/raw_mfcc_train.3.ark:2047272
mmeb0_si1987 quick_test/mfcc/raw_mfcc_train.3.ark:3001127
fpaz0_si1593 quick_test/mfcc/raw_mfcc_train.1.ark:3331173
mafm0_si1569 quick_test/mfcc/raw_mfcc_train.2.ark:816853
ftmg0_sx92 quick_test/mfcc/raw_mfcc_train.2.ark:564096
mjfh0_si477 quick_test/mfcc/raw_mfcc_train.3.ark:949623
fbcg1_si1612 quick_test/mfcc/raw_mfcc_train.1.ark:207117
flja0_sx88 quick_test/mfcc/raw_mfcc_train.1.ark:2516715
mcef0_sx145 quick_test/mfcc/raw_mfcc_train.2.ark:1618722
falk0_sx6 quick_test/mfcc/raw_mfcc_train.1.ark:94090
fpaz0_sx243 quick_test/mfcc/raw_mfcc_train.1.ark:3350052
flma0_si1873 quick_test/mfcc/raw_mfcc_train.1.ark:2631470
mbgt0_sx441 quick_test/mfcc/raw_mfcc_train.2.ark:1184177
freh0_sx325 quick_test/mfcc/raw_mfcc_train.1.ark:3483795
fbjl0_sx202 quick_test/mfcc/raw_mfcc_train.1.ark:292266
fcag0_sx63 quick_test/mfcc/raw_mfcc_train.1.ark:436542
mree0_si1959 quick_test/mfcc/raw_mfcc_train.4.ark:547698
fcmg0_sx72 quick_test/mfcc/raw_mfcc_train.1.ark:685572
ftbr0_sx201 quick_test/mfcc/raw_mfcc_train.2.ark:456318
mmdb0_sx267 quick_test/mfcc/raw_mfcc_train.3.ark:2827698
fsak0_si1930 quick_test/mfcc/raw_mfcc_train.1.ark:3633851
mbom0_sx204 quick_test/mfcc/raw_mfcc_train.2.ark:1330322
mmdb0_si1358 quick_test/mfcc/raw_mfcc_train.3.ark:2812836
fmkf0_sx186 quick_test/mfcc/raw_mfcc_train.1.ark:3034260
fjen0_sx417 quick_test/mfcc/raw_mfcc_train.1.ark:1643765
mprd0_sx351 quick_test/mfcc/raw_mfcc_train.4.ark:78289
mtlb0_si504 quick_test/mfcc/raw_mfcc_train.4.ark:2852518
fjwb1_sx345 quick_test/mfcc/raw_mfcc_train.1.ark:1939425
mbml0_sx449 quick_test/mfcc/raw_mfcc_train.2.ark:1308555
