mgrl0_sx237 quick_test/mfcc/raw_mfcc_train.3.ark:142167
mkag0_sx79 quick_test/mfcc/raw_mfcc_train.3.ark:1880169
mjpm1_sx131 quick_test/mfcc/raw_mfcc_train.3.ark:1425676
mjeb1_si2097 quick_test/mfcc/raw_mfcc_train.3.ark:881772
mejs0_si1240 quick_test/mfcc/raw_mfcc_train.2.ark:3277602
mwdk0_si1436 quick_test/mfcc/raw_mfcc_train.4.ark:3547727
mgar0_sx132 quick_test/mfcc/raw_mfcc_train.3.ark:11281
mwsh0_si2266 quick_test/mfcc/raw_mfcc_train.4.ark:3744922
mjma0_sx55 quick_test/mfcc/raw_mfcc_train.3.ark:1292193
mkaj0_si2044 quick_test/mfcc/raw_mfcc_train.3.ark:1919801
mrbc0_sx329 quick_test/mfcc/raw_mfcc_train.4.ark:365427
mdps0_sx179 quick_test/mfcc/raw_mfcc_train.2.ark:2851897
mjeb0_sx170 quick_test/mfcc/raw_mfcc_train.3.ark:855430
mrhl0_sx75 quick_test/mfcc/raw_mfcc_train.4.ark:837657
mrms0_sx210 quick_test/mfcc/raw_mfcc_train.4.ark:1359059
fsdc0_sx412 quick_test/mfcc/raw_mfcc_train.1.ark:3756583
mkes0_sx443 quick_test/mfcc/raw_mfcc_train.3.ark:2105799
fsrh0_sx41 quick_test/mfcc/raw_mfcc_train.2.ark:372590
mmbs0_si1151 quick_test/mfcc/raw_mfcc_train.3.ark:2744550
medr0_sx114 quick_test/mfcc/raw_mfcc_train.2.ark:3163559
medr0_si2004 quick_test/mfcc/raw_mfcc_train.2.ark:3153067
mdlc1_sx355 quick_test/mfcc/raw_mfcc_train.2.ark:2509371
mjls0_sx16 quick_test/mfcc/raw_mfcc_train.3.ark:1250632
mrre0_si1334 quick_test/mfcc/raw_mfcc_train.4.ark:1397963
mhmr0_sx129 quick_test/mfcc/raw_mfcc_train.3.ark:430696
mrso0_si2289 quick_test/mfcc/raw_mfcc_train.4.ark:1448553
frll0_sx254 quick_test/mfcc/raw_mfcc_train.1.ark:3541115
fsjk1_si1025 quick_test/mfcc/raw_mfcc_train.1.ark:3868386
fsjw0_sx433 quick_test/mfcc/raw_mfcc_train.2.ark:74903
mdlr1_si1929 quick_test/mfcc/raw_mfcc_train.2.ark:2647531
mrlj1_sx141 quick_test/mfcc/raw_mfcc_train.4.ark:1127081
mtab0_sx132 quick_test/mfcc/raw_mfcc_train.4.ark:2354485
fblv0_si1058 quick_test/mfcc/raw_mfcc_train.1.ark:307452
flmc0_sx336 quick_test/mfcc/raw_mfcc_train.1.ark:2680493
mgrp0_si1947 quick_test/mfcc/raw_mfcc_train.3.ark:163562
mfer0_si862 quick_test/mfcc/raw_mfcc_train.2.ark:3402162
mrlr0_sx206 quick_test/mfcc/raw_mfcc_train.4.ark:1193138
fmkc0_sx172 quick_test/mfcc/raw_mfcc_train.1.ark:2997855
fmkf0_sx186 quick_test/mfcc/raw_mfcc_train.1.ark:3034260
mjfr0_sx75 quick_test/mfcc/raw_mfcc_train.3.ark:1000440
fnkl0_sx196 quick_test/mfcc/raw_mfcc_train.1.ark:3144908
mjfh0_sx27 quick_test/mfcc/raw_mfcc_train.3.ark:960017
mjxa0_sx247 quick_test/mfcc/raw_mfcc_train.3.ark:1800463
mmab1_sx234 quick_test/mfcc/raw_mfcc_train.3.ark:2620629
mewm0_sx358 quick_test/mfcc/raw_mfcc_train.2.ark:3387540
mkrg0_si861 quick_test/mfcc/raw_mfcc_train.3.ark:2312106
makb0_si1646 quick_test/mfcc/raw_mfcc_train.2.ark:888086
mgak0_sx136 quick_test/mfcc/raw_mfcc_train.2.ark:3655127
mram0_si1951 quick_test/mfcc/raw_mfcc_train.4.ark:292972
mrjt0_si1805 quick_test/mfcc/raw_mfcc_train.4.ark:987766
mdac0_sx451 quick_test/mfcc/raw_mfcc_train.2.ark:1987725
mprk0_si1097 quick_test/mfcc/raw_mfcc_train.4.ark:90478
mhmr0_si489 quick_test/mfcc/raw_mfcc_train.3.ark:426295
fsjk1_si696 quick_test/mfcc/raw_mfcc_train.1.ark:3875252
mcae0_sx7 quick_test/mfcc/raw_mfcc_train.2.ark:1469400
flac0_si2161 quick_test/mfcc/raw_mfcc_train.1.ark:2331630
mgrp0_si687 quick_test/mfcc/raw_mfcc_train.3.ark:166923
fdas1_sx21 quick_test/mfcc/raw_mfcc_train.1.ark:807934
fgdp0_si1618 quick_test/mfcc/raw_mfcc_train.1.ark:1394464
mwem0_si1320 quick_test/mfcc/raw_mfcc_train.4.ark:3579855
fcjf0_si1027 quick_test/mfcc/raw_mfcc_train.1.ark:537185
fhlm0_si2190 quick_test/mfcc/raw_mfcc_train.1.ark:1509889
fmjb0_sx7 quick_test/mfcc/raw_mfcc_train.1.ark:2910552
mkrg0_sx411 quick_test/mfcc/raw_mfcc_train.3.ark:2325952
mpgr0_sx330 quick_test/mfcc/raw_mfcc_train.3.ark:3643855
mesg0_sx432 quick_test/mfcc/raw_mfcc_train.2.ark:3333823
mgag0_si645 quick_test/mfcc/raw_mfcc_train.2.ark:3617420
fsjk1_si2285 quick_test/mfcc/raw_mfcc_train.1.ark:3872554
mjrh1_sx244 quick_test/mfcc/raw_mfcc_train.3.ark:1562841
mdcd0_si1415 quick_test/mfcc/raw_mfcc_train.2.ark:2090348
fcmm0_sx93 quick_test/mfcc/raw_mfcc_train.1.ark:716595
fetb0_sx68 quick_test/mfcc/raw_mfcc_train.1.ark:1322919
mchl0_sx87 quick_test/mfcc/raw_mfcc_train.2.ark:1706692
mjwg0_si2155 quick_test/mfcc/raw_mfcc_train.3.ark:1676907
fjen0_si2307 quick_test/mfcc/raw_mfcc_train.1.ark:1624367
mkdd0_sx217 quick_test/mfcc/raw_mfcc_train.3.ark:2031247
fhxs0_sx175 quick_test/mfcc/raw_mfcc_train.1.ark:1560363
mrdd0_sx330 quick_test/mfcc/raw_mfcc_train.4.ark:467981
mkxl0_sx105 quick_test/mfcc/raw_mfcc_train.3.ark:2347244
fklh0_sx177 quick_test/mfcc/raw_mfcc_train.1.ark:2273446
fpmy0_si1783 quick_test/mfcc/raw_mfcc_train.1.ark:3433036
mjda0_sx41 quick_test/mfcc/raw_mfcc_train.3.ark:699874
fdkn0_si1081 quick_test/mfcc/raw_mfcc_train.1.ark:910829
fsah0_sx74 quick_test/mfcc/raw_mfcc_train.1.ark:3624137
mdhs0_si2160 quick_test/mfcc/raw_mfcc_train.2.ark:2323195
mdps0_sx89 quick_test/mfcc/raw_mfcc_train.2.ark:2867641
mkdb0_si872 quick_test/mfcc/raw_mfcc_train.3.ark:1986625
madd0_sx178 quick_test/mfcc/raw_mfcc_train.2.ark:733373
mmam0_sx337 quick_test/mfcc/raw_mfcc_train.3.ark:2693824
mdbb1_si1636 quick_test/mfcc/raw_mfcc_train.2.ark:2030675
mzmb0_sx86 quick_test/mfcc/raw_mfcc_train.4.ark:3806016
mtmt0_sx38 quick_test/mfcc/raw_mfcc_train.4.ark:2999973
mapv0_si1293 quick_test/mfcc/raw_mfcc_train.2.ark:942819
fcjs0_sx347 quick_test/mfcc/raw_mfcc_train.1.ark:578631
mrlr0_sx296 quick_test/mfcc/raw_mfcc_train.4.ark:1200756
mjlb0_sx86 quick_test/mfcc/raw_mfcc_train.3.ark:1199032
fjlg0_sx449 quick_test/mfcc/raw_mfcc_train.1.ark:1739865
mtlc0_si1477 quick_test/mfcc/raw_mfcc_train.4.ark:2882650
mdsj0_sx22 quick_test/mfcc/raw_mfcc_train.2.ark:2923608
majp0_si1074 quick_test/mfcc/raw_mfcc_train.2.ark:843560
mbgt0_sx351 quick_test/mfcc/raw_mfcc_train.2.ark:1178840
fpaz0_sx423 quick_test/mfcc/raw_mfcc_train.1.ark:3356539
mstf0_sx316 quick_test/mfcc/raw_mfcc_train.4.ark:2286148
fmbg0_si1790 quick_test/mfcc/raw_mfcc_train.1.ark:2823032
mcef0_si1135 quick_test/mfcc/raw_mfcc_train.2.ark:1605765
mmdm1_si1650 quick_test/mfcc/raw_mfcc_train.3.ark:2908804
mtju0_sx220 quick_test/mfcc/raw_mfcc_train.4.ark:2759047
mgxp0_si457 quick_test/mfcc/raw_mfcc_train.3.ark:270316
mdlb0_sx406 quick_test/mfcc/raw_mfcc_train.2.ark:2442768
mlns0_sx147 quick_test/mfcc/raw_mfcc_train.3.ark:2517972
mcth0_sx309 quick_test/mfcc/raw_mfcc_train.2.ark:1887161
mtbc0_sx363 quick_test/mfcc/raw_mfcc_train.4.ark:2496252
mabc0_sx421 quick_test/mfcc/raw_mfcc_train.2.ark:680994
mbef0_sx201 quick_test/mfcc/raw_mfcc_train.2.ark:1145938
mcxm0_sx271 quick_test/mfcc/raw_mfcc_train.2.ark:1947458
msat1_sx353 quick_test/mfcc/raw_mfcc_train.4.ark:1815829
mtjs0_si1822 quick_test/mfcc/raw_mfcc_train.4.ark:2709062
mhrm0_sx58 quick_test/mfcc/raw_mfcc_train.3.ark:476761
mmgk0_sx152 quick_test/mfcc/raw_mfcc_train.3.ark:3096641
mrjb1_sx390 quick_test/mfcc/raw_mfcc_train.4.ark:873764
fcrz0_si793 quick_test/mfcc/raw_mfcc_train.1.ark:728123
mrml0_si1421 quick_test/mfcc/raw_mfcc_train.4.ark:1299822
mtrc0_sx183 quick_test/mfcc/raw_mfcc_train.4.ark:3194183
mbcg0_sx327 quick_test/mfcc/raw_mfcc_train.2.ark:1117535
msas0_si2006 quick_test/mfcc/raw_mfcc_train.4.ark:1740598
fdml0_sx249 quick_test/mfcc/raw_mfcc_train.1.ark:962202
msds0_sx267 quick_test/mfcc/raw_mfcc_train.4.ark:1903225
mhmr0_sx309 quick_test/mfcc/raw_mfcc_train.3.ark:439576
mmgc0_si1935 quick_test/mfcc/raw_mfcc_train.3.ark:3031134
mdlc0_sx225 quick_test/mfcc/raw_mfcc_train.2.ark:2471853
mgxp0_sx367 quick_test/mfcc/raw_mfcc_train.3.ark:287283
fmjb0_sx187 quick_test/mfcc/raw_mfcc_train.1.ark:2900536
mprd0_sx441 quick_test/mfcc/raw_mfcc_train.4.ark:83197
mbml0_sx179 quick_test/mfcc/raw_mfcc_train.2.ark:1296925
freh0_sx55 quick_test/mfcc/raw_mfcc_train.1.ark:3489229
mgjc0_sx345 quick_test/mfcc/raw_mfcc_train.3.ark:112126
fsjk1_sx35 quick_test/mfcc/raw_mfcc_train.2.ark:7357
mcth0_sx39 quick_test/mfcc/raw_mfcc_train.2.ark:1891392
mnet0_sx96 quick_test/mfcc/raw_mfcc_train.3.ark:3469378
fsgf0_sx27 quick_test/mfcc/raw_mfcc_train.1.ark:3814734
fskc0_sx66 quick_test/mfcc/raw_mfcc_train.2.ark:110040
mcdc0_si1922 quick_test/mfcc/raw_mfcc_train.2.ark:1513731
mfxv0_si1342 quick_test/mfcc/raw_mfcc_train.2.ark:3558377
mjxa0_sx427 quick_test/mfcc/raw_mfcc_train.3.ark:1808888
mgjc0_sx75 quick_test/mfcc/raw_mfcc_train.3.ark:122747
mabc0_sx241 quick_test/mfcc/raw_mfcc_train.2.ark:674974
fear0_sx442 quick_test/mfcc/raw_mfcc_train.1.ark:1179139
mdhl0_sx179 quick_test/mfcc/raw_mfcc_train.2.ark:2299661
msfv0_sx452 quick_test/mfcc/raw_mfcc_train.4.ark:2059585
fcyl0_sx349 quick_test/mfcc/raw_mfcc_train.1.ark:770464
fkaa0_sx218 quick_test/mfcc/raw_mfcc_train.1.ark:2033644
mmdg0_si1780 quick_test/mfcc/raw_mfcc_train.3.ark:2841298
mrlj1_sx51 quick_test/mfcc/raw_mfcc_train.4.ark:1140927
mges0_si2111 quick_test/mfcc/raw_mfcc_train.3.ark:65045
mrjm0_sx238 quick_test/mfcc/raw_mfcc_train.4.ark:933151
mtlc0_sx37 quick_test/mfcc/raw_mfcc_train.4.ark:2899415
mctm0_sx180 quick_test/mfcc/raw_mfcc_train.2.ark:1912671
fjrp1_sx442 quick_test/mfcc/raw_mfcc_train.1.ark:1845713
mjde0_si1120 quick_test/mfcc/raw_mfcc_train.3.ark:733960
makr0_sx452 quick_test/mfcc/raw_mfcc_train.2.ark:936396
mrtj0_sx142 quick_test/mfcc/raw_mfcc_train.4.ark:1560531
mkaj0_si784 quick_test/mfcc/raw_mfcc_train.3.ark:1925034
fetb0_sx158 quick_test/mfcc/raw_mfcc_train.1.ark:1307526
fkfb0_si2238 quick_test/mfcc/raw_mfcc_train.1.ark:2127239
fcmg0_sx342 quick_test/mfcc/raw_mfcc_train.1.ark:675276
fbcg1_si982 quick_test/mfcc/raw_mfcc_train.1.ark:211994
mdsj0_sx112 quick_test/mfcc/raw_mfcc_train.2.ark:2919832
fklh0_sx357 quick_test/mfcc/raw_mfcc_train.1.ark:2280662
marw0_si1276 quick_test/mfcc/raw_mfcc_train.2.ark:1004072
mjpg0_si1191 quick_test/mfcc/raw_mfcc_train.3.ark:1354209
fsjs0_sx451 quick_test/mfcc/raw_mfcc_train.2.ark:39798
mdhs0_sx450 quick_test/mfcc/raw_mfcc_train.2.ark:2342236
mtjm0_sx236 quick_test/mfcc/raw_mfcc_train.4.ark:2691970
mesj0_sx277 quick_test/mfcc/raw_mfcc_train.2.ark:3357682
mkdt0_si2153 quick_test/mfcc/raw_mfcc_train.3.ark:2043885
mrai0_sx162 quick_test/mfcc/raw_mfcc_train.4.ark:264581
mmea0_sx38 quick_test/mfcc/raw_mfcc_train.3.ark:2988702
mkam0_sx236 quick_test/mfcc/raw_mfcc_train.3.ark:1964366
mkam0_sx56 quick_test/mfcc/raw_mfcc_train.3.ark:1975345
fsah0_sx164 quick_test/mfcc/raw_mfcc_train.1.ark:3607288
fcmg0_si1142 quick_test/mfcc/raw_mfcc_train.1.ark:653672
marc0_sx198 quick_test/mfcc/raw_mfcc_train.2.ark:993767
mcss0_sx300 quick_test/mfcc/raw_mfcc_train.2.ark:1859875
mdlc2_si984 quick_test/mfcc/raw_mfcc_train.2.ark:2522589
mhrm0_sx238 quick_test/mfcc/raw_mfcc_train.3.ark:464365
msrr0_sx411 quick_test/mfcc/raw_mfcc_train.4.ark:2255861
fmkf0_sx276 quick_test/mfcc/raw_mfcc_train.1.ark:3037374
mrfl0_si526 quick_test/mfcc/raw_mfcc_train.4.ark:707935
fkde0_si1141 quick_test/mfcc/raw_mfcc_train.1.ark:2053029
mter0_sx167 quick_test/mfcc/raw_mfcc_train.4.ark:2621559
fjrp1_sx262 quick_test/mfcc/raw_mfcc_train.1.ark:1833076
fdkn0_si1711 quick_test/mfcc/raw_mfcc_train.1.ark:921362
faem0_sx132 quick_test/mfcc/raw_mfcc_train.1.ark:13048
mlsh0_sx337 quick_test/mfcc/raw_mfcc_train.3.ark:2558473
fblv0_sx338 quick_test/mfcc/raw_mfcc_train.1.ark:329771
fvkb0_si1159 quick_test/mfcc/raw_mfcc_train.2.ark:596714
fbcg1_sx352 quick_test/mfcc/raw_mfcc_train.1.ark:225067
msdh0_si980 quick_test/mfcc/raw_mfcc_train.4.ark:1854338
fsjw0_sx73 quick_test/mfcc/raw_mfcc_train.2.ark:79329
falk0_sx96 quick_test/mfcc/raw_mfcc_train.1.ark:97372
flkm0_sx80 quick_test/mfcc/raw_mfcc_train.1.ark:2625604
falr0_si1955 quick_test/mfcc/raw_mfcc_train.1.ark:105942
maeb0_si2250 quick_test/mfcc/raw_mfcc_train.2.ark:759494
mrab0_si1224 quick_test/mfcc/raw_mfcc_train.4.ark:184547
mhbs0_sx225 quick_test/mfcc/raw_mfcc_train.3.ark:316438
fvmh0_si1466 quick_test/mfcc/raw_mfcc_train.2.ark:629895
fbjl0_sx112 quick_test/mfcc/raw_mfcc_train.1.ark:288190
mrcw0_sx111 quick_test/mfcc/raw_mfcc_train.4.ark:430748
mwem0_sx240 quick_test/mfcc/raw_mfcc_train.4.ark:3594107
mefg0_si465 quick_test/mfcc/raw_mfcc_train.2.ark:3178439
feeh0_sx212 quick_test/mfcc/raw_mfcc_train.1.ark:1242835
msas0_sx206 quick_test/mfcc/raw_mfcc_train.4.ark:1754672
mjac0_si1331 quick_test/mfcc/raw_mfcc_train.3.ark:543920
fsjs0_sx361 quick_test/mfcc/raw_mfcc_train.2.ark:36281
mhxl0_si1772 quick_test/mfcc/raw_mfcc_train.3.ark:481241
mmdm1_sx243 quick_test/mfcc/raw_mfcc_train.3.ark:2923861
mmws0_sx348 quick_test/mfcc/raw_mfcc_train.3.ark:3374960
maeb0_sx90 quick_test/mfcc/raw_mfcc_train.2.ark:782454
flhd0_sx264 quick_test/mfcc/raw_mfcc_train.1.ark:2471072
msvs0_sx398 quick_test/mfcc/raw_mfcc_train.4.ark:2333460
fsgf0_sx297 quick_test/mfcc/raw_mfcc_train.1.ark:3817523
mvrw0_sx225 quick_test/mfcc/raw_mfcc_train.4.ark:3413321
fcmm0_sx420 quick_test/mfcc/raw_mfcc_train.1.ark:711090
mgsl0_sx354 quick_test/mfcc/raw_mfcc_train.3.ark:250840
mmpm0_si1061 quick_test/mfcc/raw_mfcc_train.3.ark:3174101
fvkb0_sx439 quick_test/mfcc/raw_mfcc_train.2.ark:621730
mmds0_sx83 quick_test/mfcc/raw_mfcc_train.3.ark:2964875
msem1_si2070 quick_test/mfcc/raw_mfcc_train.4.ark:1926752
fsjs0_si541 quick_test/mfcc/raw_mfcc_train.2.ark:22116
fmjb0_sx367 quick_test/mfcc/raw_mfcc_train.1.ark:2905971
mdwh0_si665 quick_test/mfcc/raw_mfcc_train.2.ark:3063189
fbcg1_sx172 quick_test/mfcc/raw_mfcc_train.1.ark:217292
fclt0_si1438 quick_test/mfcc/raw_mfcc_train.1.ark:622103
mmrp0_sx54 quick_test/mfcc/raw_mfcc_train.3.ark:3236581
fbmh0_si1766 quick_test/mfcc/raw_mfcc_train.1.ark:348442
mnet0_si816 quick_test/mfcc/raw_mfcc_train.3.ark:3452095
ftmg0_sx182 quick_test/mfcc/raw_mfcc_train.2.ark:548573
mvrw0_sx135 quick_test/mfcc/raw_mfcc_train.4.ark:3409544
fleh0_sx241 quick_test/mfcc/raw_mfcc_train.1.ark:2408739
fdml0_sx159 quick_test/mfcc/raw_mfcc_train.1.ark:958360
mvjh0_sx116 quick_test/mfcc/raw_mfcc_train.4.ark:3349266
fjkl0_sx212 quick_test/mfcc/raw_mfcc_train.1.ark:1700923
mlns0_si777 quick_test/mfcc/raw_mfcc_train.3.ark:2514481
mrmg0_sx450 quick_test/mfcc/raw_mfcc_train.4.ark:1261699
mmvp0_si1284 quick_test/mfcc/raw_mfcc_train.3.ark:3275386
fkfb0_sx348 quick_test/mfcc/raw_mfcc_train.1.ark:2142685
mgjc0_si1256 quick_test/mfcc/raw_mfcc_train.3.ark:90626
mwad0_si2322 quick_test/mfcc/raw_mfcc_train.4.ark:3470206
msrg0_si1221 quick_test/mfcc/raw_mfcc_train.4.ark:2201253
mcae0_sx277 quick_test/mfcc/raw_mfcc_train.2.ark:1459859
fklc0_si1615 quick_test/mfcc/raw_mfcc_train.1.ark:2194061
mmam0_si1668 quick_test/mfcc/raw_mfcc_train.3.ark:2680977
mhit0_si1613 quick_test/mfcc/raw_mfcc_train.3.ark:328868
mjma0_sx145 quick_test/mfcc/raw_mfcc_train.3.ark:1279998
mhrm0_si958 quick_test/mfcc/raw_mfcc_train.3.ark:456564
mbma0_si1852 quick_test/mfcc/raw_mfcc_train.2.ark:1227585
msat0_sx86 quick_test/mfcc/raw_mfcc_train.4.ark:1793424
frll0_sx344 quick_test/mfcc/raw_mfcc_train.1.ark:3544502
mrml0_sx431 quick_test/mfcc/raw_mfcc_train.4.ark:1331962
mwrp0_sx183 quick_test/mfcc/raw_mfcc_train.4.ark:3692423
mmxs0_si2136 quick_test/mfcc/raw_mfcc_train.3.ark:3413258
mdsj0_sx292 quick_test/mfcc/raw_mfcc_train.2.ark:2926696
mwrp0_si1443 quick_test/mfcc/raw_mfcc_train.4.ark:3678282
fjxm0_sx311 quick_test/mfcc/raw_mfcc_train.1.ark:1969785
fsdc0_sx322 quick_test/mfcc/raw_mfcc_train.1.ark:3753248
fsmm0_sx234 quick_test/mfcc/raw_mfcc_train.2.ark:258233
mdwd0_si1260 quick_test/mfcc/raw_mfcc_train.2.ark:3023519
mrlk0_sx213 quick_test/mfcc/raw_mfcc_train.4.ark:1164143
mkam0_sx146 quick_test/mfcc/raw_mfcc_train.3.ark:1961005
mdlh0_sx250 quick_test/mfcc/raw_mfcc_train.2.ark:2564909
fgcs0_sx46 quick_test/mfcc/raw_mfcc_train.1.ark:1391700
msdh0_si2240 quick_test/mfcc/raw_mfcc_train.4.ark:1852368
mjws0_sx63 quick_test/mfcc/raw_mfcc_train.3.ark:1745808
fdas1_sx111 quick_test/mfcc/raw_mfcc_train.1.ark:800069
mclk0_si2290 quick_test/mfcc/raw_mfcc_train.2.ark:1712194
mwch0_sx182 quick_test/mfcc/raw_mfcc_train.4.ark:3530103
mdmt0_sx212 quick_test/mfcc/raw_mfcc_train.2.ark:2729970
mdwm0_si916 quick_test/mfcc/raw_mfcc_train.2.ark:3099230
mrvg0_sx60 quick_test/mfcc/raw_mfcc_train.4.ark:1610496
mcss0_sx210 quick_test/mfcc/raw_mfcc_train.2.ark:1853986
fbas0_sx217 quick_test/mfcc/raw_mfcc_train.1.ark:193725
mclm0_si2086 quick_test/mfcc/raw_mfcc_train.2.ark:1747728
mmws0_si559 quick_test/mfcc/raw_mfcc_train.3.ark:3360671
mjeb1_si1467 quick_test/mfcc/raw_mfcc_train.3.ark:875472
mmab1_sx144 quick_test/mfcc/raw_mfcc_train.3.ark:2616904
fclt0_sx178 quick_test/mfcc/raw_mfcc_train.1.ark:633617
mcre0_sx401 quick_test/mfcc/raw_mfcc_train.2.ark:1824720
mprd0_sx351 quick_test/mfcc/raw_mfcc_train.4.ark:78289
mklr0_sx249 quick_test/mfcc/raw_mfcc_train.3.ark:2187714
fgmb0_sx425 quick_test/mfcc/raw_mfcc_train.1.ark:1463126
fsah0_si614 quick_test/mfcc/raw_mfcc_train.1.ark:3601093
fapb0_sx163 quick_test/mfcc/raw_mfcc_train.1.ark:148368
fsjg0_sx220 quick_test/mfcc/raw_mfcc_train.1.ark:3845049
mmgc0_sx135 quick_test/mfcc/raw_mfcc_train.3.ark:3038104
mrjh0_sx169 quick_test/mfcc/raw_mfcc_train.4.ark:894060
fkde0_si2221 quick_test/mfcc/raw_mfcc_train.1.ark:2065265
msfv0_si632 quick_test/mfcc/raw_mfcc_train.4.ark:2041253
makr0_si722 quick_test/mfcc/raw_mfcc_train.2.ark:925305
maeb0_sx360 quick_test/mfcc/raw_mfcc_train.2.ark:774433
mmeb0_sx367 quick_test/mfcc/raw_mfcc_train.3.ark:3015221
mjda0_si1031 quick_test/mfcc/raw_mfcc_train.3.ark:675878
mtat1_si779 quick_test/mfcc/raw_mfcc_train.4.ark:2441671
mbgt0_si1841 quick_test/mfcc/raw_mfcc_train.2.ark:1159143
fsma0_si1621 quick_test/mfcc/raw_mfcc_train.2.ark:208955
fsmm0_si1944 quick_test/mfcc/raw_mfcc_train.2.ark:247084
mwem0_sx60 quick_test/mfcc/raw_mfcc_train.4.ark:3609428
fmpg0_sx252 quick_test/mfcc/raw_mfcc_train.1.ark:3107853
mlbc0_sx159 quick_test/mfcc/raw_mfcc_train.3.ark:2377201
mmdg0_si2035 quick_test/mfcc/raw_mfcc_train.3.ark:2847728
fklc1_sx58 quick_test/mfcc/raw_mfcc_train.1.ark:2255658
mjmm0_sx445 quick_test/mfcc/raw_mfcc_train.3.ark:1348267
mtpr0_si1600 quick_test/mfcc/raw_mfcc_train.4.ark:3098075
mlsh0_si1417 quick_test/mfcc/raw_mfcc_train.3.ark:2536064
mpgh0_si1554 quick_test/mfcc/raw_mfcc_train.3.ark:3599056
mwrp0_sx3 quick_test/mfcc/raw_mfcc_train.4.ark:3699832
mree0_sx24 quick_test/mfcc/raw_mfcc_train.4.ark:560315
fjrp1_sx172 quick_test/mfcc/raw_mfcc_train.1.ark:1828194
mjjm0_sx287 quick_test/mfcc/raw_mfcc_train.3.ark:1130934
fkkh0_sx30 quick_test/mfcc/raw_mfcc_train.1.ark:2183717
msmr0_sx325 quick_test/mfcc/raw_mfcc_train.4.ark:2158769
mjae0_si1524 quick_test/mfcc/raw_mfcc_train.3.ark:576776
mjrk0_sx340 quick_test/mfcc/raw_mfcc_train.3.ark:1596718
mjmd0_si2288 quick_test/mfcc/raw_mfcc_train.3.ark:1300485
mrsp0_si1429 quick_test/mfcc/raw_mfcc_train.4.ark:1475492
mram0_sx285 quick_test/mfcc/raw_mfcc_train.4.ark:308989
msvs0_sx308 quick_test/mfcc/raw_mfcc_train.4.ark:2324334
mrws0_sx22 quick_test/mfcc/raw_mfcc_train.4.ark:1662986
msmc0_sx107 quick_test/mfcc/raw_mfcc_train.4.ark:2117618
mrso0_sx219 quick_test/mfcc/raw_mfcc_train.4.ark:1456796
mgsl0_sx444 quick_test/mfcc/raw_mfcc_train.3.ark:254786
mkah0_si2158 quick_test/mfcc/raw_mfcc_train.3.ark:1888102
fsdc0_si1942 quick_test/mfcc/raw_mfcc_train.1.ark:3739465
mwem0_sx420 quick_test/mfcc/raw_mfcc_train.4.ark:3602818
mjbg0_si1862 quick_test/mfcc/raw_mfcc_train.3.ark:649680
mwad0_si1749 quick_test/mfcc/raw_mfcc_train.4.ark:3468560
mdlh0_sx430 quick_test/mfcc/raw_mfcc_train.2.ark:2573542
mjrg0_si736 quick_test/mfcc/raw_mfcc_train.3.ark:1486493
fdmy0_si1197 quick_test/mfcc/raw_mfcc_train.1.ark:975503
mjde0_sx400 quick_test/mfcc/raw_mfcc_train.3.ark:772293
msas0_si746 quick_test/mfcc/raw_mfcc_train.4.ark:1745415
mfxv0_sx105 quick_test/mfcc/raw_mfcc_train.2.ark:3566946
mtjm0_si655 quick_test/mfcc/raw_mfcc_train.4.ark:2683610
mljc0_sx235 quick_test/mfcc/raw_mfcc_train.3.ark:2449589
mtab0_si1572 quick_test/mfcc/raw_mfcc_train.4.ark:2339071
mcae0_si817 quick_test/mfcc/raw_mfcc_train.2.ark:1451278
mrdd0_sx240 quick_test/mfcc/raw_mfcc_train.4.ark:461207
mtxs0_sx250 quick_test/mfcc/raw_mfcc_train.4.ark:3316976
fklc0_si2245 quick_test/mfcc/raw_mfcc_train.1.ark:2196656
mjkr0_si571 quick_test/mfcc/raw_mfcc_train.3.ark:1148319
fpac0_si1921 quick_test/mfcc/raw_mfcc_train.1.ark:3227300
mntw0_si1068 quick_test/mfcc/raw_mfcc_train.3.ark:3473039
mhxl0_sx332 quick_test/mfcc/raw_mfcc_train.3.ark:500828
mdpk0_si552 quick_test/mfcc/raw_mfcc_train.2.ark:2819528
fksr0_sx161 quick_test/mfcc/raw_mfcc_train.1.ark:2304235
mtat0_si1740 quick_test/mfcc/raw_mfcc_train.4.ark:2409003
mprt0_si1210 quick_test/mfcc/raw_mfcc_train.4.ark:129587
mdef0_si1563 quick_test/mfcc/raw_mfcc_train.2.ark:2224900
fkde0_sx331 quick_test/mfcc/raw_mfcc_train.1.ark:2075946
mjra0_sx426 quick_test/mfcc/raw_mfcc_train.3.ark:1472593
mmxs0_sx66 quick_test/mfcc/raw_mfcc_train.3.ark:3441464
mdps0_sx269 quick_test/mfcc/raw_mfcc_train.2.ark:2855804
mejs0_sx430 quick_test/mfcc/raw_mfcc_train.2.ark:3302735
mmdm1_si2043 quick_test/mfcc/raw_mfcc_train.3.ark:2911295
mgxp0_si1087 quick_test/mfcc/raw_mfcc_train.3.ark:264277
mtml0_si1695 quick_test/mfcc/raw_mfcc_train.4.ark:2910332
mmlm0_sx87 quick_test/mfcc/raw_mfcc_train.3.ark:3170947
fjxm0_si1211 quick_test/mfcc/raw_mfcc_train.1.ark:1950574
mjxl0_sx182 quick_test/mfcc/raw_mfcc_train.3.ark:1828541
mhbs0_si1575 quick_test/mfcc/raw_mfcc_train.3.ark:299444
faem0_si762 quick_test/mfcc/raw_mfcc_train.1.ark:9349
mhbs0_sx405 quick_test/mfcc/raw_mfcc_train.3.ark:322315
mrdm0_si965 quick_test/mfcc/raw_mfcc_train.4.ark:485599
mwac0_si2231 quick_test/mfcc/raw_mfcc_train.4.ark:3430907
mdcd0_sx65 quick_test/mfcc/raw_mfcc_train.2.ark:2119166
mrjm0_sx418 quick_test/mfcc/raw_mfcc_train.4.ark:941277
mrxb0_sx235 quick_test/mfcc/raw_mfcc_train.4.ark:1692144
mwar0_sx325 quick_test/mfcc/raw_mfcc_train.4.ark:3509545
mvrw0_si1485 quick_test/mfcc/raw_mfcc_train.4.ark:3398485
mjwt0_si751 quick_test/mfcc/raw_mfcc_train.3.ark:1761808
mgsh0_si1176 quick_test/mfcc/raw_mfcc_train.3.ark:193849
megj0_sx257 quick_test/mfcc/raw_mfcc_train.2.ark:3234450
mtmt0_sx308 quick_test/mfcc/raw_mfcc_train.4.ark:2996431
mmgg0_sx179 quick_test/mfcc/raw_mfcc_train.3.ark:3067477
flod0_sx297 quick_test/mfcc/raw_mfcc_train.1.ark:2744855
mrab0_sx234 quick_test/mfcc/raw_mfcc_train.4.ark:199721
mdlh0_sx70 quick_test/mfcc/raw_mfcc_train.2.ark:2578917
freh0_sx415 quick_test/mfcc/raw_mfcc_train.1.ark:3486415
mgrl0_si1497 quick_test/mfcc/raw_mfcc_train.3.ark:126759
mlsh0_si2047 quick_test/mfcc/raw_mfcc_train.3.ark:2541740
mchl0_si1347 quick_test/mfcc/raw_mfcc_train.2.ark:1677197
mtdp0_sx261 quick_test/mfcc/raw_mfcc_train.4.ark:2589022
mdma0_sx440 quick_test/mfcc/raw_mfcc_train.2.ark:2706813
fbjl0_si1552 quick_test/mfcc/raw_mfcc_train.1.ark:274856
mtmt0_si488 quick_test/mfcc/raw_mfcc_train.4.ark:2983176
fklh0_si1887 quick_test/mfcc/raw_mfcc_train.1.ark:2267777
fgmb0_sx245 quick_test/mfcc/raw_mfcc_train.1.ark:1452283
fvmh0_si2096 quick_test/mfcc/raw_mfcc_train.2.ark:635480
fsma0_sx91 quick_test/mfcc/raw_mfcc_train.2.ark:239788
mtat1_si1409 quick_test/mfcc/raw_mfcc_train.4.ark:2435000
mjai0_sx74 quick_test/mfcc/raw_mfcc_train.3.ark:639698
msjk0_sx426 quick_test/mfcc/raw_mfcc_train.4.ark:2096029
makb0_si2276 quick_test/mfcc/raw_mfcc_train.2.ark:892163
mkln0_sx338 quick_test/mfcc/raw_mfcc_train.3.ark:2160818
mwrp0_sx93 quick_test/mfcc/raw_mfcc_train.4.ark:3706865
fjsk0_sx152 quick_test/mfcc/raw_mfcc_train.1.ark:1867200
mljh0_sx334 quick_test/mfcc/raw_mfcc_train.3.ark:2493658
mrre0_si704 quick_test/mfcc/raw_mfcc_train.4.ark:1404808
mrpc1_si1482 quick_test/mfcc/raw_mfcc_train.4.ark:1370436
freh0_sx325 quick_test/mfcc/raw_mfcc_train.1.ark:3483795
fsms1_sx244 quick_test/mfcc/raw_mfcc_train.2.ark:294040
mdlc0_si2025 quick_test/mfcc/raw_mfcc_train.2.ark:2458897
mkls1_sx15 quick_test/mfcc/raw_mfcc_train.3.ark:2254011
fcrz0_sx433 quick_test/mfcc/raw_mfcc_train.1.ark:742282
mprd0_si801 quick_test/mfcc/raw_mfcc_train.4.ark:61667
mdmt0_sx32 quick_test/mfcc/raw_mfcc_train.2.ark:2738303
mjhi0_si555 quick_test/mfcc/raw_mfcc_train.3.ark:1010582
mtpg0_sx213 quick_test/mfcc/raw_mfcc_train.4.ark:3054726
mkah0_sx268 quick_test/mfcc/raw_mfcc_train.3.ark:1900707
mkaj0_sx154 quick_test/mfcc/raw_mfcc_train.3.ark:1928694
mlbc0_sx429 quick_test/mfcc/raw_mfcc_train.3.ark:2387466
mcdr0_sx434 quick_test/mfcc/raw_mfcc_train.2.ark:1598770
fvmh0_sx386 quick_test/mfcc/raw_mfcc_train.2.ark:657465
mwad0_sx342 quick_test/mfcc/raw_mfcc_train.4.ark:3479353
mtlc0_sx217 quick_test/mfcc/raw_mfcc_train.4.ark:2894592
mrlj1_sx231 quick_test/mfcc/raw_mfcc_train.4.ark:1131131
fmkc0_si1072 quick_test/mfcc/raw_mfcc_train.1.ark:2992094
mgjc0_sx255 quick_test/mfcc/raw_mfcc_train.3.ark:108011
mrlr0_si1826 quick_test/mfcc/raw_mfcc_train.4.ark:1182249
fnkl0_si892 quick_test/mfcc/raw_mfcc_train.1.ark:3134377
fhlm0_sx210 quick_test/mfcc/raw_mfcc_train.1.ark:1523261
mrtc0_sx378 quick_test/mfcc/raw_mfcc_train.4.ark:1540806
mtpp0_sx248 quick_test/mfcc/raw_mfcc_train.4.ark:3083006
mgaf0_sx292 quick_test/mfcc/raw_mfcc_train.2.ark:3604775
mjrk0_si2103 quick_test/mfcc/raw_mfcc_train.3.ark:1579595
ftaj0_si699 quick_test/mfcc/raw_mfcc_train.2.ark:418443
mwch0_sx272 quick_test/mfcc/raw_mfcc_train.4.ark:3532658
mdac0_sx91 quick_test/mfcc/raw_mfcc_train.2.ark:1992788
mmws1_si1071 quick_test/mfcc/raw_mfcc_train.3.ark:3387305
mtat1_sx419 quick_test/mfcc/raw_mfcc_train.4.ark:2464111
fjwb1_sx435 quick_test/mfcc/raw_mfcc_train.1.ark:1943111
mdlc1_sx175 quick_test/mfcc/raw_mfcc_train.2.ark:2500257
mcal0_si1138 quick_test/mfcc/raw_mfcc_train.2.ark:1478410
fleh0_si1681 quick_test/mfcc/raw_mfcc_train.1.ark:2397992
mwsb0_si2256 quick_test/mfcc/raw_mfcc_train.4.ark:3713654
mrfk0_si1706 quick_test/mfcc/raw_mfcc_train.4.ark:676007
mbbr0_sx335 quick_test/mfcc/raw_mfcc_train.2.ark:1088892
mafm0_sx399 quick_test/mfcc/raw_mfcc_train.2.ark:840523
mjwt0_si1291 quick_test/mfcc/raw_mfcc_train.3.ark:1749404
mlel0_sx256 quick_test/mfcc/raw_mfcc_train.3.ark:2414484
fhxs0_si2302 quick_test/mfcc/raw_mfcc_train.1.ark:1547257
mjjj0_sx263 quick_test/mfcc/raw_mfcc_train.3.ark:1089719
frjb0_sx257 quick_test/mfcc/raw_mfcc_train.1.ark:3505907
mwar0_si1045 quick_test/mfcc/raw_mfcc_train.4.ark:3489085
mtdb0_sx411 quick_test/mfcc/raw_mfcc_train.4.ark:2561275
mbma1_sx54 quick_test/mfcc/raw_mfcc_train.2.ark:1281802
mrhl0_si1515 quick_test/mfcc/raw_mfcc_train.4.ark:811088
mjsr0_sx74 quick_test/mfcc/raw_mfcc_train.3.ark:1672024
mcpm0_sx204 quick_test/mfcc/raw_mfcc_train.2.ark:1789874
mjjj0_si533 quick_test/mfcc/raw_mfcc_train.3.ark:1080423
fjdm2_sx52 quick_test/mfcc/raw_mfcc_train.1.ark:1611863
mcef0_sx415 quick_test/mfcc/raw_mfcc_train.2.ark:1628948
msas0_sx26 quick_test/mfcc/raw_mfcc_train.4.ark:1759631
flmc0_sx112 quick_test/mfcc/raw_mfcc_train.1.ark:2669085
makr0_si1982 quick_test/mfcc/raw_mfcc_train.2.ark:921320
mrsp0_si2059 quick_test/mfcc/raw_mfcc_train.4.ark:1482065
mstf0_si852 quick_test/mfcc/raw_mfcc_train.4.ark:2271086
mtju0_sx310 quick_test/mfcc/raw_mfcc_train.4.ark:2763565
fnkl0_sx442 quick_test/mfcc/raw_mfcc_train.1.ark:3150902
mhmg0_si1365 quick_test/mfcc/raw_mfcc_train.3.ark:387236
mkln0_si968 quick_test/mfcc/raw_mfcc_train.3.ark:2149838
mmbs0_sx161 quick_test/mfcc/raw_mfcc_train.3.ark:2756753
fmah1_si1509 quick_test/mfcc/raw_mfcc_train.1.ark:2784955
mjrh1_si1774 quick_test/mfcc/raw_mfcc_train.3.ark:1551614
ftbr0_si2181 quick_test/mfcc/raw_mfcc_train.2.ark:444116
mklw0_sx221 quick_test/mfcc/raw_mfcc_train.3.ark:2283177
mbom0_si2274 quick_test/mfcc/raw_mfcc_train.2.ark:1323717
mjmm0_sx85 quick_test/mfcc/raw_mfcc_train.3.ark:1351120
mtpp0_si1508 quick_test/mfcc/raw_mfcc_train.4.ark:3067949
fklc0_sx355 quick_test/mfcc/raw_mfcc_train.1.ark:2217016
mjeb0_sx386 quick_test/mfcc/raw_mfcc_train.3.ark:872409
fntb0_sx393 quick_test/mfcc/raw_mfcc_train.1.ark:3186636
fdnc0_si1278 quick_test/mfcc/raw_mfcc_train.1.ark:1020396
mrre0_sx164 quick_test/mfcc/raw_mfcc_train.4.ark:1415872
mdps0_si719 quick_test/mfcc/raw_mfcc_train.2.ark:2848211
mlel0_sx166 quick_test/mfcc/raw_mfcc_train.3.ark:2408822
mjhi0_sx68 quick_test/mfcc/raw_mfcc_train.3.ark:1033139
mpar0_sx226 quick_test/mfcc/raw_mfcc_train.3.ark:3522851
fclt0_sx448 quick_test/mfcc/raw_mfcc_train.1.ark:645715
fsmm0_sx54 quick_test/mfcc/raw_mfcc_train.2.ark:273671
mrlk0_sx393 quick_test/mfcc/raw_mfcc_train.4.ark:1172769
faem0_si2022 quick_test/mfcc/raw_mfcc_train.1.ark:6313
mpar0_sx316 quick_test/mfcc/raw_mfcc_train.3.ark:3526199
mtju0_sx130 quick_test/mfcc/raw_mfcc_train.4.ark:2755712
megj0_si707 quick_test/mfcc/raw_mfcc_train.2.ark:3222528
mprk0_sx17 quick_test/mfcc/raw_mfcc_train.4.ark:111657
mbom0_sx204 quick_test/mfcc/raw_mfcc_train.2.ark:1330322
msrr0_sx141 quick_test/mfcc/raw_mfcc_train.4.ark:2246403
mmab1_sx414 quick_test/mfcc/raw_mfcc_train.3.ark:2630471
mwdk0_sx176 quick_test/mfcc/raw_mfcc_train.4.ark:3560541
mhit0_sx353 quick_test/mfcc/raw_mfcc_train.3.ark:349795
mdwd0_sx270 quick_test/mfcc/raw_mfcc_train.2.ark:3039733
mcre0_sx24 quick_test/mfcc/raw_mfcc_train.2.ark:1821645
mreh1_sx159 quick_test/mfcc/raw_mfcc_train.4.ark:586190
mgar0_si1212 quick_test/mfcc/raw_mfcc_train.3.ark:13
madd0_si538 quick_test/mfcc/raw_mfcc_train.2.ark:729583
mjrh0_sx225 quick_test/mfcc/raw_mfcc_train.3.ark:1531142
fjsp0_sx264 quick_test/mfcc/raw_mfcc_train.1.ark:1904145
fsls0_si1686 quick_test/mfcc/raw_mfcc_train.2.ark:180188
mfwk0_sx349 quick_test/mfcc/raw_mfcc_train.2.ark:3507967
mdss0_sx441 quick_test/mfcc/raw_mfcc_train.2.ark:2960028
mesj0_si2257 quick_test/mfcc/raw_mfcc_train.2.ark:3347573
mded0_sx450 quick_test/mfcc/raw_mfcc_train.2.ark:2210149
fjsk0_sx332 quick_test/mfcc/raw_mfcc_train.1.ark:1875209
fpac0_sx31 quick_test/mfcc/raw_mfcc_train.1.ark:3256111
fklc1_si1678 quick_test/mfcc/raw_mfcc_train.1.ark:2234153
mdcm0_sx130 quick_test/mfcc/raw_mfcc_train.2.ark:2135420
mtjm0_sx326 quick_test/mfcc/raw_mfcc_train.4.ark:2694954
mbef0_si651 quick_test/mfcc/raw_mfcc_train.2.ark:1137942
mnet0_sx186 quick_test/mfcc/raw_mfcc_train.3.ark:3455924
fdfb0_sx328 quick_test/mfcc/raw_mfcc_train.1.ark:868280
madd0_sx448 quick_test/mfcc/raw_mfcc_train.2.ark:746173
fmmh0_sx97 quick_test/mfcc/raw_mfcc_train.1.ark:3083129
mdss1_sx427 quick_test/mfcc/raw_mfcc_train.2.ark:2989010
fjsp0_sx354 quick_test/mfcc/raw_mfcc_train.1.ark:1908013
mmrp0_sx144 quick_test/mfcc/raw_mfcc_train.3.ark:3217041
mejl0_si1654 quick_test/mfcc/raw_mfcc_train.2.ark:3252385
mmlm0_sx357 quick_test/mfcc/raw_mfcc_train.3.ark:3164031
mcdr0_sx74 quick_test/mfcc/raw_mfcc_train.2.ark:1602221
fksr0_sx397 quick_test/mfcc/raw_mfcc_train.1.ark:2321292
marc0_sx288 quick_test/mfcc/raw_mfcc_train.2.ark:996712
mrab0_si594 quick_test/mfcc/raw_mfcc_train.4.ark:193532
mrsp0_sx79 quick_test/mfcc/raw_mfcc_train.4.ark:1506234
mmdb0_si987 quick_test/mfcc/raw_mfcc_train.3.ark:2819806
mtrt0_si597 quick_test/mfcc/raw_mfcc_train.4.ark:3249104
mrre0_si952 quick_test/mfcc/raw_mfcc_train.4.ark:1409300
mfmc0_sx232 quick_test/mfcc/raw_mfcc_train.2.ark:3442689
mdlm0_si1864 quick_test/mfcc/raw_mfcc_train.2.ark:2584965
mrab0_sx414 quick_test/mfcc/raw_mfcc_train.4.ark:208614
mjra0_si1236 quick_test/mfcc/raw_mfcc_train.3.ark:1447980
mljc0_si1855 quick_test/mfcc/raw_mfcc_train.3.ark:2439181
mhbs0_si945 quick_test/mfcc/raw_mfcc_train.3.ark:306960
fvkb0_sx259 quick_test/mfcc/raw_mfcc_train.2.ark:610796
mded0_sx360 quick_test/mfcc/raw_mfcc_train.2.ark:2205969
fklc0_sx85 quick_test/mfcc/raw_mfcc_train.1.ark:2224426
mkah0_sx358 quick_test/mfcc/raw_mfcc_train.3.ark:1905030
mpar0_sx136 quick_test/mfcc/raw_mfcc_train.3.ark:3518242
fsag0_si693 quick_test/mfcc/raw_mfcc_train.1.ark:3561321
mjjm0_sx107 quick_test/mfcc/raw_mfcc_train.3.ark:1121723
mwem0_si1393 quick_test/mfcc/raw_mfcc_train.4.ark:3584114
fdtd0_si2191 quick_test/mfcc/raw_mfcc_train.1.ark:1061555
mrfk0_sx446 quick_test/mfcc/raw_mfcc_train.4.ark:692449
fmah1_si2139 quick_test/mfcc/raw_mfcc_train.1.ark:2788824
fcke0_si481 quick_test/mfcc/raw_mfcc_train.1.ark:600572
mcpm0_sx24 quick_test/mfcc/raw_mfcc_train.2.ark:1793143
mgrl0_si867 quick_test/mfcc/raw_mfcc_train.3.ark:133677
fbmj0_si815 quick_test/mfcc/raw_mfcc_train.1.ark:385620
fmpg0_sx342 quick_test/mfcc/raw_mfcc_train.1.ark:3111669
mram0_sx105 quick_test/mfcc/raw_mfcc_train.4.ark:298712
fkaa0_sx128 quick_test/mfcc/raw_mfcc_train.1.ark:2030257
fbcg1_si1612 quick_test/mfcc/raw_mfcc_train.1.ark:207117
fltm0_si2330 quick_test/mfcc/raw_mfcc_train.1.ark:2757483
fkdw0_sx127 quick_test/mfcc/raw_mfcc_train.1.ark:2105850
fceg0_sx78 quick_test/mfcc/raw_mfcc_train.1.ark:534512
mmab1_si1494 quick_test/mfcc/raw_mfcc_train.3.ark:2604883
fpad0_si1346 quick_test/mfcc/raw_mfcc_train.1.ark:3262210
fcyl0_sx127 quick_test/mfcc/raw_mfcc_train.1.ark:764847
mtdp0_sx171 quick_test/mfcc/raw_mfcc_train.4.ark:2582957
mlns0_si1407 quick_test/mfcc/raw_mfcc_train.3.ark:2506679
mewm0_si1978 quick_test/mfcc/raw_mfcc_train.2.ark:3372887
flac0_si901 quick_test/mfcc/raw_mfcc_train.1.ark:2333743
mdas0_sx6 quick_test/mfcc/raw_mfcc_train.2.ark:2018485
mrtj0_si2032 quick_test/mfcc/raw_mfcc_train.4.ark:1549870
fpls0_sx330 quick_test/mfcc/raw_mfcc_train.1.ark:3418558
mtmn0_sx164 quick_test/mfcc/raw_mfcc_train.4.ark:2958101
fljd0_si2146 quick_test/mfcc/raw_mfcc_train.1.ark:2528015
mrsp0_si799 quick_test/mfcc/raw_mfcc_train.4.ark:1486375
mjac0_sx307 quick_test/mfcc/raw_mfcc_train.3.ark:561902
mjpm1_si2280 quick_test/mfcc/raw_mfcc_train.3.ark:1417836
fdaw0_sx146 quick_test/mfcc/raw_mfcc_train.1.ark:833823
mreh1_sx69 quick_test/mfcc/raw_mfcc_train.4.ark:602857
mfrm0_si1155 quick_test/mfcc/raw_mfcc_train.2.ark:3459435
mgar0_si1842 quick_test/mfcc/raw_mfcc_train.3.ark:7907
mrtc0_sx18 quick_test/mfcc/raw_mfcc_train.4.ark:1528617
mmdm1_si783 quick_test/mfcc/raw_mfcc_train.3.ark:2914253
mdhl0_si809 quick_test/mfcc/raw_mfcc_train.2.ark:2295520
fdfb0_sx238 quick_test/mfcc/raw_mfcc_train.1.ark:865387
fdmy0_sx387 quick_test/mfcc/raw_mfcc_train.1.ark:1014759
fscn0_sx356 quick_test/mfcc/raw_mfcc_train.1.ark:3721106
mlns0_sx57 quick_test/mfcc/raw_mfcc_train.3.ark:2532936
fear0_sx352 quick_test/mfcc/raw_mfcc_train.1.ark:1172658
mjws0_sx333 quick_test/mfcc/raw_mfcc_train.3.ark:1734940
mrab0_sx324 quick_test/mfcc/raw_mfcc_train.4.ark:203433
mrkm0_si637 quick_test/mfcc/raw_mfcc_train.4.ark:1030184
fbmj0_sx156 quick_test/mfcc/raw_mfcc_train.1.ark:388500
mwsb0_sx276 quick_test/mfcc/raw_mfcc_train.4.ark:3725258
feac0_si1245 quick_test/mfcc/raw_mfcc_train.1.ark:1120838
mkxl0_sx375 quick_test/mfcc/raw_mfcc_train.3.ark:2359881
fsdj0_si1115 quick_test/mfcc/raw_mfcc_train.1.ark:3763773
mjhi0_si698 quick_test/mfcc/raw_mfcc_train.3.ark:1013410
msvs0_sx218 quick_test/mfcc/raw_mfcc_train.4.ark:2319660
mwad0_sx432 quick_test/mfcc/raw_mfcc_train.4.ark:3482610
mmdg0_sx430 quick_test/mfcc/raw_mfcc_train.3.ark:2869395
fpad0_sx266 quick_test/mfcc/raw_mfcc_train.1.ark:3281804
mgaf0_si1282 quick_test/mfcc/raw_mfcc_train.2.ark:3583777
mjeb1_sx207 quick_test/mfcc/raw_mfcc_train.3.ark:896405
fjkl0_si932 quick_test/mfcc/raw_mfcc_train.1.ark:1689677
fsdj0_sx35 quick_test/mfcc/raw_mfcc_train.1.ark:3785629
mjbg0_sx152 quick_test/mfcc/raw_mfcc_train.3.ark:653184
mdma0_si1238 quick_test/mfcc/raw_mfcc_train.2.ark:2677896
mrtc0_si828 quick_test/mfcc/raw_mfcc_train.4.ark:1520791
medr0_sx24 quick_test/mfcc/raw_mfcc_train.2.ark:3170007
mrld0_sx334 quick_test/mfcc/raw_mfcc_train.4.ark:1077021
mkdd0_si2197 quick_test/mfcc/raw_mfcc_train.3.ark:2017303
fpaf0_sx244 quick_test/mfcc/raw_mfcc_train.1.ark:3315064
fscn0_sx176 quick_test/mfcc/raw_mfcc_train.1.ark:3710185
mrjb1_sx210 quick_test/mfcc/raw_mfcc_train.4.ark:863981
msrg0_sx51 quick_test/mfcc/raw_mfcc_train.4.ark:2228225
mcae0_sx187 quick_test/mfcc/raw_mfcc_train.2.ark:1456784
fhlm0_sx120 quick_test/mfcc/raw_mfcc_train.1.ark:1517755
fsah0_sx344 quick_test/mfcc/raw_mfcc_train.1.ark:3617819
mcth0_si1839 quick_test/mfcc/raw_mfcc_train.2.ark:1871754
mapv0_si1923 quick_test/mfcc/raw_mfcc_train.2.ark:949262
mjpm0_si1368 quick_test/mfcc/raw_mfcc_train.3.ark:1381878
mdlh0_sx160 quick_test/mfcc/raw_mfcc_train.2.ark:2559104
flma0_si613 quick_test/mfcc/raw_mfcc_train.1.ark:2636001
fbmh0_si1136 quick_test/mfcc/raw_mfcc_train.1.ark:342519
mmwb0_si989 quick_test/mfcc/raw_mfcc_train.3.ark:3326198
mgar0_sx312 quick_test/mfcc/raw_mfcc_train.3.ark:19771
fmem0_sx387 quick_test/mfcc/raw_mfcc_train.1.ark:2879771
mwrp0_sx363 quick_test/mfcc/raw_mfcc_train.4.ark:3702465
fsjw0_sx343 quick_test/mfcc/raw_mfcc_train.2.ark:70151
mdbb1_sx376 quick_test/mfcc/raw_mfcc_train.2.ark:2051751
mmgk0_sx242 quick_test/mfcc/raw_mfcc_train.3.ark:3099495
mrdm0_sx245 quick_test/mfcc/raw_mfcc_train.4.ark:493738
mdtb0_si570 quick_test/mfcc/raw_mfcc_train.2.ark:3001389
msfh0_sx46 quick_test/mfcc/raw_mfcc_train.4.ark:2029114
fcke0_sx391 quick_test/mfcc/raw_mfcc_train.1.ark:619508
mchl0_sx357 quick_test/mfcc/raw_mfcc_train.2.ark:1699022
mwdk0_si2017 quick_test/mfcc/raw_mfcc_train.4.ark:3553169
frll0_si805 quick_test/mfcc/raw_mfcc_train.1.ark:3525988
mjwg0_sx85 quick_test/mfcc/raw_mfcc_train.3.ark:1711145
fajw0_si633 quick_test/mfcc/raw_mfcc_train.1.ark:42998
mdtb0_si1200 quick_test/mfcc/raw_mfcc_train.2.ark:2995914
mmdm1_sx63 quick_test/mfcc/raw_mfcc_train.3.ark:2938272
mgsl0_sx264 quick_test/mfcc/raw_mfcc_train.3.ark:247011
mesj0_si2039 quick_test/mfcc/raw_mfcc_train.2.ark:3341416
mbml0_sx89 quick_test/mfcc/raw_mfcc_train.2.ark:1312747
mrav0_sx18 quick_test/mfcc/raw_mfcc_train.4.ark:332420
marc0_sx378 quick_test/mfcc/raw_mfcc_train.2.ark:1000554
mrmh0_sx301 quick_test/mfcc/raw_mfcc_train.4.ark:1291013
fmem0_sx207 quick_test/mfcc/raw_mfcc_train.1.ark:2866568
milb0_si2163 quick_test/mfcc/raw_mfcc_train.3.ark:514590
fcaj0_si1479 quick_test/mfcc/raw_mfcc_train.1.ark:440021
mcae0_sx97 quick_test/mfcc/raw_mfcc_train.2.ark:1474502
mmds0_si713 quick_test/mfcc/raw_mfcc_train.3.ark:2948890
mprb0_sx215 quick_test/mfcc/raw_mfcc_train.4.ark:36378
mrcg0_sx168 quick_test/mfcc/raw_mfcc_train.4.ark:392328
mmds0_sx353 quick_test/mfcc/raw_mfcc_train.3.ark:2958245
mbml0_sx449 quick_test/mfcc/raw_mfcc_train.2.ark:1308555
mdbp0_sx438 quick_test/mfcc/raw_mfcc_train.2.ark:2081364
fbmj0_sx246 quick_test/mfcc/raw_mfcc_train.1.ark:392940
mtlb0_sx234 quick_test/mfcc/raw_mfcc_train.4.ark:2859422
fcag0_sx423 quick_test/mfcc/raw_mfcc_train.1.ark:431921
mjrk0_sx430 quick_test/mfcc/raw_mfcc_train.3.ark:1600508
mcss0_si688 quick_test/mfcc/raw_mfcc_train.2.ark:1839093
mrjh0_si889 quick_test/mfcc/raw_mfcc_train.4.ark:884868
mpfu0_sx178 quick_test/mfcc/raw_mfcc_train.3.ark:3577103
mkls0_sx357 quick_test/mfcc/raw_mfcc_train.3.ark:2225089
fksr0_sx366 quick_test/mfcc/raw_mfcc_train.1.ark:2312413
mtab0_sx42 quick_test/mfcc/raw_mfcc_train.4.ark:2374116
mrdd0_sx277 quick_test/mfcc/raw_mfcc_train.4.ark:464919
freh0_si1945 quick_test/mfcc/raw_mfcc_train.1.ark:3468778
feeh0_si471 quick_test/mfcc/raw_mfcc_train.1.ark:1235086
mkjo0_sx424 quick_test/mfcc/raw_mfcc_train.3.ark:2130185
fmpg0_sx162 quick_test/mfcc/raw_mfcc_train.1.ark:3102009
mmws0_si1518 quick_test/mfcc/raw_mfcc_train.3.ark:3356452
mkag0_sx30 quick_test/mfcc/raw_mfcc_train.3.ark:1872772
mjkr0_sx31 quick_test/mfcc/raw_mfcc_train.3.ark:1166065
falk0_sx276 quick_test/mfcc/raw_mfcc_train.1.ark:85784
mtlb0_sx144 quick_test/mfcc/raw_mfcc_train.4.ark:2855905
fgcs0_sx136 quick_test/mfcc/raw_mfcc_train.1.ark:1375163
mcdd0_sx343 quick_test/mfcc/raw_mfcc_train.2.ark:1557704
mjrh0_si1840 quick_test/mfcc/raw_mfcc_train.3.ark:1520429
fmbg0_si1160 quick_test/mfcc/raw_mfcc_train.1.ark:2816056
mdtb0_si1830 quick_test/mfcc/raw_mfcc_train.2.ark:2998561
mtab0_sx312 quick_test/mfcc/raw_mfcc_train.4.ark:2363612
flag0_sx204 quick_test/mfcc/raw_mfcc_train.1.ark:2375115
mges0_si851 quick_test/mfcc/raw_mfcc_train.3.ark:67067
mrws0_si1102 quick_test/mfcc/raw_mfcc_train.4.ark:1645687
mrew1_sx330 quick_test/mfcc/raw_mfcc_train.4.ark:656556
fpjf0_sx236 quick_test/mfcc/raw_mfcc_train.1.ark:3380984
mbjv0_sx257 quick_test/mfcc/raw_mfcc_train.2.ark:1206970
mcal0_si508 quick_test/mfcc/raw_mfcc_train.2.ark:1486043
mdns0_si873 quick_test/mfcc/raw_mfcc_train.2.ark:2755311
mjfr0_sx345 quick_test/mfcc/raw_mfcc_train.3.ark:989611
mrem0_sx241 quick_test/mfcc/raw_mfcc_train.4.ark:624460
fapb0_sx343 quick_test/mfcc/raw_mfcc_train.1.ark:156585
fcag0_sx153 quick_test/mfcc/raw_mfcc_train.1.ark:418679
mdtb0_sx120 quick_test/mfcc/raw_mfcc_train.2.ark:3005946
mdrd0_sx392 quick_test/mfcc/raw_mfcc_train.2.ark:2903149
mmea0_sx218 quick_test/mfcc/raw_mfcc_train.3.ark:2982228
mdks0_sx346 quick_test/mfcc/raw_mfcc_train.2.ark:2399687
fbas0_sx127 quick_test/mfcc/raw_mfcc_train.1.ark:191014
fcdr1_sx376 quick_test/mfcc/raw_mfcc_train.1.ark:505556
mdlb0_sx226 quick_test/mfcc/raw_mfcc_train.2.ark:2433615
mpgh0_si924 quick_test/mfcc/raw_mfcc_train.3.ark:3609665
mjdg0_sx142 quick_test/mfcc/raw_mfcc_train.3.ark:789120
msfh0_sx406 quick_test/mfcc/raw_mfcc_train.4.ark:2023232
mkaj0_si1414 quick_test/mfcc/raw_mfcc_train.3.ark:1917141
mdef0_sx33 quick_test/mfcc/raw_mfcc_train.2.ark:2241458
mmbs0_sx71 quick_test/mfcc/raw_mfcc_train.3.ark:2776800
mpgr0_sx150 quick_test/mfcc/raw_mfcc_train.3.ark:3637978
mdhs0_sx180 quick_test/mfcc/raw_mfcc_train.2.ark:2332166
mejl0_sx422 quick_test/mfcc/raw_mfcc_train.2.ark:3269918
mjfr0_sx255 quick_test/mfcc/raw_mfcc_train.3.ark:985457
mrem0_si961 quick_test/mfcc/raw_mfcc_train.4.ark:617205
mrlj0_sx430 quick_test/mfcc/raw_mfcc_train.4.ark:1109533
fcjf0_sx397 quick_test/mfcc/raw_mfcc_train.1.ark:559464
fdas1_si1461 quick_test/mfcc/raw_mfcc_train.1.ark:783914
mtxs0_si1690 quick_test/mfcc/raw_mfcc_train.4.ark:3303044
mmrp0_si2034 quick_test/mfcc/raw_mfcc_train.3.ark:3206867
mddc0_sx339 quick_test/mfcc/raw_mfcc_train.2.ark:2173659
majp0_sx444 quick_test/mfcc/raw_mfcc_train.2.ark:870865
fmjf0_sx174 quick_test/mfcc/raw_mfcc_train.1.ark:2929386
fcaj0_sx39 quick_test/mfcc/raw_mfcc_train.1.ark:461448
mmvp0_si1914 quick_test/mfcc/raw_mfcc_train.3.ark:3279255
fecd0_si788 quick_test/mfcc/raw_mfcc_train.1.ark:1198291
fblv0_sx248 quick_test/mfcc/raw_mfcc_train.1.ark:326566
mdem0_sx158 quick_test/mfcc/raw_mfcc_train.2.ark:2264361
mjxa0_si2137 quick_test/mfcc/raw_mfcc_train.3.ark:1790601
mdlc0_sx135 quick_test/mfcc/raw_mfcc_train.2.ark:2467543
mjrk0_si1662 quick_test/mfcc/raw_mfcc_train.3.ark:1577312
mmeb0_sx97 quick_test/mfcc/raw_mfcc_train.3.ark:3021849
mjxl0_sx272 quick_test/mfcc/raw_mfcc_train.3.ark:1831746
mdns0_sx111 quick_test/mfcc/raw_mfcc_train.2.ark:2761441
makr0_sx92 quick_test/mfcc/raw_mfcc_train.2.ark:939938
fnkl0_sx172 quick_test/mfcc/raw_mfcc_train.1.ark:3140585
fsma0_si2251 quick_test/mfcc/raw_mfcc_train.2.ark:211121
mded0_si1800 quick_test/mfcc/raw_mfcc_train.2.ark:2187858
