mjra0_sx66 quick_test/mfcc/raw_mfcc_train.3.ark:1477019
msah1_si1679 quick_test/mfcc/raw_mfcc_train.4.ark:1710263
mrjm0_sx418 quick_test/mfcc/raw_mfcc_train.4.ark:941277
mppc0_sx422 quick_test/mfcc/raw_mfcc_train.4.ark:7917
mdss1_sx337 quick_test/mfcc/raw_mfcc_train.2.ark:2985623
fcaj0_sx309 quick_test/mfcc/raw_mfcc_train.1.ark:457191
mctm0_si1350 quick_test/mfcc/raw_mfcc_train.2.ark:1898661
fmah1_sx339 quick_test/mfcc/raw_mfcc_train.1.ark:2805115
mdcd0_si785 quick_test/mfcc/raw_mfcc_train.2.ark:2097175
msdh0_si2113 quick_test/mfcc/raw_mfcc_train.4.ark:1850605
msmc0_si509 quick_test/mfcc/raw_mfcc_train.4.ark:2107451
milb0_sx183 quick_test/mfcc/raw_mfcc_train.3.ark:528469
mbml0_sx179 quick_test/mfcc/raw_mfcc_train.2.ark:1296925
mtas0_si1385 quick_test/mfcc/raw_mfcc_train.4.ark:2377179
mrso0_sx309 quick_test/mfcc/raw_mfcc_train.4.ark:1461977
mbsb0_sx273 quick_test/mfcc/raw_mfcc_train.2.ark:1358564
mrld0_sx334 quick_test/mfcc/raw_mfcc_train.4.ark:1077021
mtjg0_si2157 quick_test/mfcc/raw_mfcc_train.4.ark:2644494
mkrg0_si1491 quick_test/mfcc/raw_mfcc_train.3.ark:2302042
mwar0_sx235 quick_test/mfcc/raw_mfcc_train.4.ark:3505885
mkln0_si2228 quick_test/mfcc/raw_mfcc_train.3.ark:2146750
fbmj0_sx66 quick_test/mfcc/raw_mfcc_train.1.ark:406948
mrjm0_sx328 quick_test/mfcc/raw_mfcc_train.4.ark:936642
mrcg0_si2058 quick_test/mfcc/raw_mfcc_train.4.ark:383760
mkam0_sx236 quick_test/mfcc/raw_mfcc_train.3.ark:1964366
fjxm0_sx131 quick_test/mfcc/raw_mfcc_train.1.ark:1962270
mvjh0_sx206 quick_test/mfcc/raw_mfcc_train.4.ark:3352237
mtrr0_si1548 quick_test/mfcc/raw_mfcc_train.4.ark:3205807
mcdc0_sx212 quick_test/mfcc/raw_mfcc_train.2.ark:1524828
mmds0_si1973 quick_test/mfcc/raw_mfcc_train.3.ark:2946998
mtpf0_si1865 quick_test/mfcc/raw_mfcc_train.4.ark:3012671
mgaf0_si1912 quick_test/mfcc/raw_mfcc_train.2.ark:3589245
mrhl0_sx75 quick_test/mfcc/raw_mfcc_train.4.ark:837657
mmws0_sx168 quick_test/mfcc/raw_mfcc_train.3.ark:3367783
mgaf0_sx382 quick_test/mfcc/raw_mfcc_train.2.ark:3608851
feac0_sx255 quick_test/mfcc/raw_mfcc_train.1.ark:1138820
mmvp0_si1914 quick_test/mfcc/raw_mfcc_train.3.ark:3279255
mafm0_si2199 quick_test/mfcc/raw_mfcc_train.2.ark:818915
fgcs0_sx406 quick_test/mfcc/raw_mfcc_train.1.ark:1387508
fssb0_sx452 quick_test/mfcc/raw_mfcc_train.2.ark:403218
mprd0_si801 quick_test/mfcc/raw_mfcc_train.4.ark:61667
mtkd0_sx107 quick_test/mfcc/raw_mfcc_train.4.ark:2789907
msmr0_si1405 quick_test/mfcc/raw_mfcc_train.4.ark:2143895
fsdj0_si1115 quick_test/mfcc/raw_mfcc_train.1.ark:3763773
mbma0_si592 quick_test/mfcc/raw_mfcc_train.2.ark:1229880
mnet0_sx96 quick_test/mfcc/raw_mfcc_train.3.ark:3469378
fhxs0_si1075 quick_test/mfcc/raw_mfcc_train.1.ark:1541321
fjen0_si1047 quick_test/mfcc/raw_mfcc_train.1.ark:1616135
flma0_si613 quick_test/mfcc/raw_mfcc_train.1.ark:2636001
mtmt0_sx398 quick_test/mfcc/raw_mfcc_train.4.ark:3003815
fltm0_si2330 quick_test/mfcc/raw_mfcc_train.1.ark:2757483
falr0_sx155 quick_test/mfcc/raw_mfcc_train.1.ark:113197
mlel0_sx436 quick_test/mfcc/raw_mfcc_train.3.ark:2423663
fdnc0_si1908 quick_test/mfcc/raw_mfcc_train.1.ark:1027307
fcke0_si1741 quick_test/mfcc/raw_mfcc_train.1.ark:594650
fcyl0_sx127 quick_test/mfcc/raw_mfcc_train.1.ark:764847
mmeb0_sx187 quick_test/mfcc/raw_mfcc_train.3.ark:3006887
mnet0_sx186 quick_test/mfcc/raw_mfcc_train.3.ark:3455924
fjwb1_sx345 quick_test/mfcc/raw_mfcc_train.1.ark:1939425
mwsb0_sx276 quick_test/mfcc/raw_mfcc_train.4.ark:3725258
mgrp0_si687 quick_test/mfcc/raw_mfcc_train.3.ark:166923
mdlc2_sx444 quick_test/mfcc/raw_mfcc_train.2.ark:2539023
mrew1_si870 quick_test/mfcc/raw_mfcc_train.4.ark:645082
mtqc0_si2071 quick_test/mfcc/raw_mfcc_train.4.ark:3143991
fbjl0_sx112 quick_test/mfcc/raw_mfcc_train.1.ark:288190
msat0_si2156 quick_test/mfcc/raw_mfcc_train.4.ark:1773766
fclt0_sx268 quick_test/mfcc/raw_mfcc_train.1.ark:637992
mjda0_sx311 quick_test/mfcc/raw_mfcc_train.3.ark:691060
flag0_sx204 quick_test/mfcc/raw_mfcc_train.1.ark:2375115
feac0_si615 quick_test/mfcc/raw_mfcc_train.1.ark:1128380
feac0_si1875 quick_test/mfcc/raw_mfcc_train.1.ark:1124031
msfv0_sx452 quick_test/mfcc/raw_mfcc_train.4.ark:2059585
mdwm0_sx286 quick_test/mfcc/raw_mfcc_train.2.ark:3111379
flhd0_si1344 quick_test/mfcc/raw_mfcc_train.1.ark:2455936
mrlk0_si2140 quick_test/mfcc/raw_mfcc_train.4.ark:1150251
mdma0_sx260 quick_test/mfcc/raw_mfcc_train.2.ark:2695983
fsdc0_sx52 quick_test/mfcc/raw_mfcc_train.1.ark:3759813
mdwm0_sx376 quick_test/mfcc/raw_mfcc_train.2.ark:3116235
mbsb0_sx183 quick_test/mfcc/raw_mfcc_train.2.ark:1356126
mjdm0_si1340 quick_test/mfcc/raw_mfcc_train.3.ark:808304
mbar0_si689 quick_test/mfcc/raw_mfcc_train.2.ark:1044821
mgrp0_sx147 quick_test/mfcc/raw_mfcc_train.3.ark:171324
mmdm1_sx63 quick_test/mfcc/raw_mfcc_train.3.ark:2938272
mkrg0_sx411 quick_test/mfcc/raw_mfcc_train.3.ark:2325952
mbbr0_sx425 quick_test/mfcc/raw_mfcc_train.2.ark:1094606
mprb0_sx395 quick_test/mfcc/raw_mfcc_train.4.ark:49762
fcjf0_si648 quick_test/mfcc/raw_mfcc_train.1.ark:545117
msfv0_si1892 quick_test/mfcc/raw_mfcc_train.4.ark:2036020
fjlr0_sx151 quick_test/mfcc/raw_mfcc_train.1.ark:1760467
fdkn0_sx91 quick_test/mfcc/raw_mfcc_train.1.ark:943808
mmdm0_sx321 quick_test/mfcc/raw_mfcc_train.3.ark:2895614
mrfk0_sx446 quick_test/mfcc/raw_mfcc_train.4.ark:692449
mjbg0_si1862 quick_test/mfcc/raw_mfcc_train.3.ark:649680
fjrb0_sx132 quick_test/mfcc/raw_mfcc_train.1.ark:1791477
msrr0_si501 quick_test/mfcc/raw_mfcc_train.4.ark:2240520
mrjm0_si1858 quick_test/mfcc/raw_mfcc_train.4.ark:924050
mtrt0_sx57 quick_test/mfcc/raw_mfcc_train.4.ark:3265336
mree0_si1734 quick_test/mfcc/raw_mfcc_train.4.ark:543348
msmc0_sx377 quick_test/mfcc/raw_mfcc_train.4.ark:2132803
mbml0_sx359 quick_test/mfcc/raw_mfcc_train.2.ark:1303881
mjmd0_sx218 quick_test/mfcc/raw_mfcc_train.3.ark:1309508
flag0_si1464 quick_test/mfcc/raw_mfcc_train.1.ark:2355196
mapv0_sx213 quick_test/mfcc/raw_mfcc_train.2.ark:963856
fvkb0_sx169 quick_test/mfcc/raw_mfcc_train.2.ark:606980
fhxs0_si2335 quick_test/mfcc/raw_mfcc_train.1.ark:1556820
mjdm0_sx440 quick_test/mfcc/raw_mfcc_train.3.ark:835673
mcdr0_sx74 quick_test/mfcc/raw_mfcc_train.2.ark:1602221
fbmj0_si1776 quick_test/mfcc/raw_mfcc_train.1.ark:374283
mjwt0_si1381 quick_test/mfcc/raw_mfcc_train.3.ark:1755665
mrwa0_si973 quick_test/mfcc/raw_mfcc_train.4.ark:1622388
flag0_sx384 quick_test/mfcc/raw_mfcc_train.1.ark:2388044
mrxb0_sx325 quick_test/mfcc/raw_mfcc_train.4.ark:1695830
mpar0_si2206 quick_test/mfcc/raw_mfcc_train.3.ark:3510155
mljh0_sx334 quick_test/mfcc/raw_mfcc_train.3.ark:2493658
mjde0_sx130 quick_test/mfcc/raw_mfcc_train.3.ark:751804
mdcm0_si1480 quick_test/mfcc/raw_mfcc_train.2.ark:2121956
mwac0_sx161 quick_test/mfcc/raw_mfcc_train.4.ark:3438968
mmcc0_sx258 quick_test/mfcc/raw_mfcc_train.3.ark:2796415
mjjb0_sx59 quick_test/mfcc/raw_mfcc_train.3.ark:1066568
fsjs0_si1801 quick_test/mfcc/raw_mfcc_train.2.ark:17143
mejl0_sx62 quick_test/mfcc/raw_mfcc_train.2.ark:3273967
mkah0_sx88 quick_test/mfcc/raw_mfcc_train.3.ark:1912323
madc0_sx377 quick_test/mfcc/raw_mfcc_train.2.ark:718107
mdjm0_si1455 quick_test/mfcc/raw_mfcc_train.2.ark:2349062
mgjc0_sx255 quick_test/mfcc/raw_mfcc_train.3.ark:108011
fjsk0_sx62 quick_test/mfcc/raw_mfcc_train.1.ark:1884517
mmbs0_si1151 quick_test/mfcc/raw_mfcc_train.3.ark:2744550
mtjm0_sx56 quick_test/mfcc/raw_mfcc_train.4.ark:2702182
mljc0_sx325 quick_test/mfcc/raw_mfcc_train.3.ark:2453561
mreh1_si969 quick_test/mfcc/raw_mfcc_train.4.ark:579202
mmgc0_sx315 quick_test/mfcc/raw_mfcc_train.3.ark:3044826
fscn0_si626 quick_test/mfcc/raw_mfcc_train.1.ark:3698965
mtat1_sx329 quick_test/mfcc/raw_mfcc_train.4.ark:2458254
ftbw0_sx265 quick_test/mfcc/raw_mfcc_train.2.ark:488277
fskc0_sx336 quick_test/mfcc/raw_mfcc_train.2.ark:100810
fsrh0_sx41 quick_test/mfcc/raw_mfcc_train.2.ark:372590
mtmn0_si2324 quick_test/mfcc/raw_mfcc_train.4.ark:2945750
mjbg0_sx422 quick_test/mfcc/raw_mfcc_train.3.ark:666920
feeh0_sx212 quick_test/mfcc/raw_mfcc_train.1.ark:1242835
fskp0_sx18 quick_test/mfcc/raw_mfcc_train.2.ark:162094
mdma0_si1238 quick_test/mfcc/raw_mfcc_train.2.ark:2677896
mkdd0_sx37 quick_test/mfcc/raw_mfcc_train.3.ark:2036135
fsjg0_sx220 quick_test/mfcc/raw_mfcc_train.1.ark:3845049
falr0_si1325 quick_test/mfcc/raw_mfcc_train.1.ark:101592
fecd0_si1418 quick_test/mfcc/raw_mfcc_train.1.ark:1187447
mbbr0_sx245 quick_test/mfcc/raw_mfcc_train.2.ark:1085830
mtrc0_si993 quick_test/mfcc/raw_mfcc_train.4.ark:3186278
mgak0_sx406 quick_test/mfcc/raw_mfcc_train.2.ark:3669682
flkm0_sx440 quick_test/mfcc/raw_mfcc_train.1.ark:2619891
msvs0_sx398 quick_test/mfcc/raw_mfcc_train.4.ark:2333460
mejs0_sx340 quick_test/mfcc/raw_mfcc_train.2.ark:3299179
mtmt0_sx38 quick_test/mfcc/raw_mfcc_train.4.ark:2999973
mrlr0_si566 quick_test/mfcc/raw_mfcc_train.4.ark:1185818
msrg0_si591 quick_test/mfcc/raw_mfcc_train.4.ark:2208548
mklw0_si1844 quick_test/mfcc/raw_mfcc_train.3.ark:2275030
mmgk0_sx422 quick_test/mfcc/raw_mfcc_train.3.ark:3105723
mrlk0_sx123 quick_test/mfcc/raw_mfcc_train.4.ark:1159807
fkkh0_sx120 quick_test/mfcc/raw_mfcc_train.1.ark:2175787
mwsb0_sx6 quick_test/mfcc/raw_mfcc_train.4.ark:3732433
fljg0_sx351 quick_test/mfcc/raw_mfcc_train.1.ark:2577292
mrab1_sx218 quick_test/mfcc/raw_mfcc_train.4.ark:233539
mmgc0_sx45 quick_test/mfcc/raw_mfcc_train.3.ark:3051898
mpgr1_si1269 quick_test/mfcc/raw_mfcc_train.3.ark:3657006
mdlr1_si1929 quick_test/mfcc/raw_mfcc_train.2.ark:2647531
fklc0_sx445 quick_test/mfcc/raw_mfcc_train.1.ark:2220611
fcmg0_sx342 quick_test/mfcc/raw_mfcc_train.1.ark:675276
mges0_sx131 quick_test/mfcc/raw_mfcc_train.3.ark:71689
mtpr0_sx340 quick_test/mfcc/raw_mfcc_train.4.ark:3121992
mdpb0_sx326 quick_test/mfcc/raw_mfcc_train.2.ark:2801591
fetb0_si1148 quick_test/mfcc/raw_mfcc_train.1.ark:1294738
mrkm0_sx277 quick_test/mfcc/raw_mfcc_train.4.ark:1040338
mjxa0_si877 quick_test/mfcc/raw_mfcc_train.3.ark:1794092
fjxp0_sx132 quick_test/mfcc/raw_mfcc_train.1.ark:1999130
mprd0_sx261 quick_test/mfcc/raw_mfcc_train.4.ark:74928
mdef0_si1123 quick_test/mfcc/raw_mfcc_train.2.ark:2218366
fmkf0_sx276 quick_test/mfcc/raw_mfcc_train.1.ark:3037374
fscn0_sx86 quick_test/mfcc/raw_mfcc_train.1.ark:3730336
mlns0_si777 quick_test/mfcc/raw_mfcc_train.3.ark:2514481
mrab1_si1478 quick_test/mfcc/raw_mfcc_train.4.ark:217013
mnet0_sx6 quick_test/mfcc/raw_mfcc_train.3.ark:3466551
mmgk0_si1952 quick_test/mfcc/raw_mfcc_train.3.ark:3092259
mgsl0_si1164 quick_test/mfcc/raw_mfcc_train.3.ark:229121
mwad0_sx252 quick_test/mfcc/raw_mfcc_train.4.ark:3476525
mbom0_sx384 quick_test/mfcc/raw_mfcc_train.2.ark:1341575
fajw0_si1893 quick_test/mfcc/raw_mfcc_train.1.ark:39403
fsjg0_si1570 quick_test/mfcc/raw_mfcc_train.1.ark:3824402
fsag0_sx423 quick_test/mfcc/raw_mfcc_train.1.ark:3582370
flag0_sx114 quick_test/mfcc/raw_mfcc_train.1.ark:2371000
mhjb0_sx207 quick_test/mfcc/raw_mfcc_train.3.ark:376496
mwgr0_si976 quick_test/mfcc/raw_mfcc_train.4.ark:3620865
msdb0_si1637 quick_test/mfcc/raw_mfcc_train.4.ark:1832134
mmrp0_sx234 quick_test/mfcc/raw_mfcc_train.3.ark:3221273
mkdt0_sx83 quick_test/mfcc/raw_mfcc_train.3.ark:2074223
mjhi0_sx428 quick_test/mfcc/raw_mfcc_train.3.ark:1028180
fbmj0_sx426 quick_test/mfcc/raw_mfcc_train.1.ark:402678
mjae0_si1999 quick_test/mfcc/raw_mfcc_train.3.ark:581100
mpar0_sx406 quick_test/mfcc/raw_mfcc_train.3.ark:3529170
mkag0_sx169 quick_test/mfcc/raw_mfcc_train.3.ark:1864504
mmab1_sx324 quick_test/mfcc/raw_mfcc_train.3.ark:2624666
mgar0_si1842 quick_test/mfcc/raw_mfcc_train.3.ark:7907
mjhi0_sx158 quick_test/mfcc/raw_mfcc_train.3.ark:1018201
mdrd0_sx212 quick_test/mfcc/raw_mfcc_train.2.ark:2890142
majp0_si1074 quick_test/mfcc/raw_mfcc_train.2.ark:843560
mmjb1_sx418 quick_test/mfcc/raw_mfcc_train.3.ark:3137396
fcjf0_sx217 quick_test/mfcc/raw_mfcc_train.1.ark:552047
mrgs0_sx186 quick_test/mfcc/raw_mfcc_train.4.ark:788942
mzmb0_sx86 quick_test/mfcc/raw_mfcc_train.4.ark:3806016
mgrl0_si867 quick_test/mfcc/raw_mfcc_train.3.ark:133677
mdas0_sx6 quick_test/mfcc/raw_mfcc_train.2.ark:2018485
msrg0_sx51 quick_test/mfcc/raw_mfcc_train.4.ark:2228225
mbsb0_si1983 quick_test/mfcc/raw_mfcc_train.2.ark:1349183
fdjh0_sx125 quick_test/mfcc/raw_mfcc_train.1.ark:892997
mkdb0_sx242 quick_test/mfcc/raw_mfcc_train.3.ark:1994569
ftbw0_sx355 quick_test/mfcc/raw_mfcc_train.2.ark:492002
mdwm0_si916 quick_test/mfcc/raw_mfcc_train.2.ark:3099230
mjwg0_sx445 quick_test/mfcc/raw_mfcc_train.3.ark:1707837
mrtj0_sx142 quick_test/mfcc/raw_mfcc_train.4.ark:1560531
mtdp0_si1274 quick_test/mfcc/raw_mfcc_train.4.ark:2569024
mmws0_si888 quick_test/mfcc/raw_mfcc_train.3.ark:3363395
mdbb1_sx16 quick_test/mfcc/raw_mfcc_train.2.ark:2041304
mjpm1_si2280 quick_test/mfcc/raw_mfcc_train.3.ark:1417836
fmem0_sx117 quick_test/mfcc/raw_mfcc_train.1.ark:2862258
mafm0_sx129 quick_test/mfcc/raw_mfcc_train.2.ark:825715
fmah1_si1509 quick_test/mfcc/raw_mfcc_train.1.ark:2784955
fblv0_sx158 quick_test/mfcc/raw_mfcc_train.1.ark:323517
maeo0_sx66 quick_test/mfcc/raw_mfcc_train.2.ark:813842
mrwa0_sx253 quick_test/mfcc/raw_mfcc_train.4.ark:1629968
flja0_sx268 quick_test/mfcc/raw_mfcc_train.1.ark:2503942
fjrb0_sx222 quick_test/mfcc/raw_mfcc_train.1.ark:1794812
mcdd0_sx253 quick_test/mfcc/raw_mfcc_train.2.ark:1554876
mmbs0_si521 quick_test/mfcc/raw_mfcc_train.3.ark:2750441
mdwh0_si1925 quick_test/mfcc/raw_mfcc_train.2.ark:3060140
mdlr1_sx309 quick_test/mfcc/raw_mfcc_train.2.ark:2665720
mfrm0_sx165 quick_test/mfcc/raw_mfcc_train.2.ark:3471756
fkfb0_si2238 quick_test/mfcc/raw_mfcc_train.1.ark:2127239
flma0_sx73 quick_test/mfcc/raw_mfcc_train.1.ark:2654183
fsrh0_sx401 quick_test/mfcc/raw_mfcc_train.2.ark:368827
mewm0_sx88 quick_test/mfcc/raw_mfcc_train.2.ark:3393585
fdas1_si831 quick_test/mfcc/raw_mfcc_train.1.ark:793705
mclk0_si1660 quick_test/mfcc/raw_mfcc_train.2.ark:1709898
flod0_sx117 quick_test/mfcc/raw_mfcc_train.1.ark:2733836
mdef0_si2193 quick_test/mfcc/raw_mfcc_train.2.ark:2228561
mdsj0_sx438 quick_test/mfcc/raw_mfcc_train.2.ark:2934913
mrlj1_sx321 quick_test/mfcc/raw_mfcc_train.4.ark:1132737
fvfb0_sx312 quick_test/mfcc/raw_mfcc_train.2.ark:585994
fssb0_sx182 quick_test/mfcc/raw_mfcc_train.2.ark:390119
mbom0_si1644 quick_test/mfcc/raw_mfcc_train.2.ark:1321109
mtrt0_sx254 quick_test/mfcc/raw_mfcc_train.4.ark:3258433
msds0_sx357 quick_test/mfcc/raw_mfcc_train.4.ark:1908848
mjdm0_sx170 quick_test/mfcc/raw_mfcc_train.3.ark:819311
mjfr0_si2235 quick_test/mfcc/raw_mfcc_train.3.ark:973073
feme0_sx425 quick_test/mfcc/raw_mfcc_train.1.ark:1287535
fmjb0_sx97 quick_test/mfcc/raw_mfcc_train.1.ark:2914575
mtju0_sx400 quick_test/mfcc/raw_mfcc_train.4.ark:2770702
mpsw0_si2327 quick_test/mfcc/raw_mfcc_train.4.ark:165097
fklh0_si627 quick_test/mfcc/raw_mfcc_train.1.ark:2269734
mjkr0_sx121 quick_test/mfcc/raw_mfcc_train.3.ark:1153318
mbcg0_sx57 quick_test/mfcc/raw_mfcc_train.2.ark:1126986
mwch0_si1895 quick_test/mfcc/raw_mfcc_train.4.ark:3524316
mjai0_sx74 quick_test/mfcc/raw_mfcc_train.3.ark:639698
mesg0_si702 quick_test/mfcc/raw_mfcc_train.2.ark:3315764
fsms1_si2134 quick_test/mfcc/raw_mfcc_train.2.ark:282176
mrws0_sx202 quick_test/mfcc/raw_mfcc_train.4.ark:1661043
fsah0_sx327 quick_test/mfcc/raw_mfcc_train.1.ark:3611208
fljg0_si981 quick_test/mfcc/raw_mfcc_train.1.ark:2561177
fvmh0_si1466 quick_test/mfcc/raw_mfcc_train.2.ark:629895
mhrm0_sx328 quick_test/mfcc/raw_mfcc_train.3.ark:467583
mbef0_si1911 quick_test/mfcc/raw_mfcc_train.2.ark:1134776
fpaf0_sx64 quick_test/mfcc/raw_mfcc_train.1.ark:3327148
msah1_sx149 quick_test/mfcc/raw_mfcc_train.4.ark:1715621
mges0_sx41 quick_test/mfcc/raw_mfcc_train.3.ark:86380
mbom0_sx311 quick_test/mfcc/raw_mfcc_train.2.ark:1336810
maeb0_sx180 quick_test/mfcc/raw_mfcc_train.2.ark:767295
mjrh0_sx225 quick_test/mfcc/raw_mfcc_train.3.ark:1531142
flod0_sx297 quick_test/mfcc/raw_mfcc_train.1.ark:2744855
mdcm0_sx310 quick_test/mfcc/raw_mfcc_train.2.ark:2143598
mtjs0_si1192 quick_test/mfcc/raw_mfcc_train.4.ark:2705882
mklr0_si1059 quick_test/mfcc/raw_mfcc_train.3.ark:2173319
fsdc0_sx142 quick_test/mfcc/raw_mfcc_train.1.ark:3744979
mcef0_si1135 quick_test/mfcc/raw_mfcc_train.2.ark:1605765
mjmd0_sx308 quick_test/mfcc/raw_mfcc_train.3.ark:1312934
mjxa0_sx67 quick_test/mfcc/raw_mfcc_train.3.ark:1811858
fsjs0_si1171 quick_test/mfcc/raw_mfcc_train.2.ark:14132
mrew1_si2130 quick_test/mfcc/raw_mfcc_train.4.ark:643242
fcke0_si481 quick_test/mfcc/raw_mfcc_train.1.ark:600572
mprt0_sx400 quick_test/mfcc/raw_mfcc_train.4.ark:155401
mmdb0_si1358 quick_test/mfcc/raw_mfcc_train.3.ark:2812836
mrjm0_sx238 quick_test/mfcc/raw_mfcc_train.4.ark:933151
fjrp1_sx442 quick_test/mfcc/raw_mfcc_train.1.ark:1845713
mjjm0_si1457 quick_test/mfcc/raw_mfcc_train.3.ark:1112583
fvmh0_sx206 quick_test/mfcc/raw_mfcc_train.2.ark:647591
mgrp0_sx57 quick_test/mfcc/raw_mfcc_train.3.ark:189564
mjpg0_si561 quick_test/mfcc/raw_mfcc_train.3.ark:1362856
mjrh0_si1125 quick_test/mfcc/raw_mfcc_train.3.ark:1512925
mstf0_si766 quick_test/mfcc/raw_mfcc_train.4.ark:2268427
mmag0_sx226 quick_test/mfcc/raw_mfcc_train.3.ark:2659153
mesj0_sx277 quick_test/mfcc/raw_mfcc_train.2.ark:3357682
mtat1_sx419 quick_test/mfcc/raw_mfcc_train.4.ark:2464111
mrmh0_sx301 quick_test/mfcc/raw_mfcc_train.4.ark:1291013
fcke0_si1111 quick_test/mfcc/raw_mfcc_train.1.ark:593043
mbar0_sx149 quick_test/mfcc/raw_mfcc_train.2.ark:1049586
mmea0_sx398 quick_test/mfcc/raw_mfcc_train.3.ark:2992219
mtju0_si760 quick_test/mfcc/raw_mfcc_train.4.ark:2751493
msjk0_sx336 quick_test/mfcc/raw_mfcc_train.4.ark:2090484
mjws0_sx153 quick_test/mfcc/raw_mfcc_train.3.ark:1725514
mvrw0_sx225 quick_test/mfcc/raw_mfcc_train.4.ark:3413321
msds0_sx177 quick_test/mfcc/raw_mfcc_train.4.ark:1900397
mcew0_sx272 quick_test/mfcc/raw_mfcc_train.2.ark:1656967
mtwh1_si2142 quick_test/mfcc/raw_mfcc_train.4.ark:3273438
mlbc0_si609 quick_test/mfcc/raw_mfcc_train.3.ark:2372046
mtrr0_si918 quick_test/mfcc/raw_mfcc_train.4.ark:3212621
mjpg0_sx381 quick_test/mfcc/raw_mfcc_train.3.ark:1379088
mmea0_sx218 quick_test/mfcc/raw_mfcc_train.3.ark:2982228
mjws0_si513 quick_test/mfcc/raw_mfcc_train.3.ark:1721763
mjeb1_sx387 quick_test/mfcc/raw_mfcc_train.3.ark:905746
fmkc0_sx172 quick_test/mfcc/raw_mfcc_train.1.ark:2997855
mdlc1_sx85 quick_test/mfcc/raw_mfcc_train.2.ark:2515403
mpeb0_sx150 quick_test/mfcc/raw_mfcc_train.3.ark:3545677
fljd0_sx76 quick_test/mfcc/raw_mfcc_train.1.ark:2549584
mrgs0_si1356 quick_test/mfcc/raw_mfcc_train.4.ark:774828
mjfh0_sx207 quick_test/mfcc/raw_mfcc_train.3.ark:957606
mjkr0_sx391 quick_test/mfcc/raw_mfcc_train.3.ark:1169036
msrg0_sx321 quick_test/mfcc/raw_mfcc_train.4.ark:2219775
mtpg0_sx303 quick_test/mfcc/raw_mfcc_train.4.ark:3058061
fmkf0_si906 quick_test/mfcc/raw_mfcc_train.1.ark:3029729
mtjg0_sx260 quick_test/mfcc/raw_mfcc_train.4.ark:2657138
fjhk0_si1652 quick_test/mfcc/raw_mfcc_train.1.ark:1657138
mjmd0_sx128 quick_test/mfcc/raw_mfcc_train.3.ark:1306381
mgar0_sx402 quick_test/mfcc/raw_mfcc_train.3.ark:25121
frjb0_sx347 quick_test/mfcc/raw_mfcc_train.1.ark:3508592
mpgr1_sx239 quick_test/mfcc/raw_mfcc_train.3.ark:3673494
mrem0_sx61 quick_test/mfcc/raw_mfcc_train.4.ark:635751
mrkm0_sx97 quick_test/mfcc/raw_mfcc_train.4.ark:1054773
mejl0_si1654 quick_test/mfcc/raw_mfcc_train.2.ark:3252385
mapv0_si1923 quick_test/mfcc/raw_mfcc_train.2.ark:949262
fljg0_sx81 quick_test/mfcc/raw_mfcc_train.1.ark:2588186
mcdc0_sx122 quick_test/mfcc/raw_mfcc_train.2.ark:1520466
mrjt0_sx328 quick_test/mfcc/raw_mfcc_train.4.ark:1002835
mtdb0_si2031 quick_test/mfcc/raw_mfcc_train.4.ark:2542026
fmpg0_sx342 quick_test/mfcc/raw_mfcc_train.1.ark:3111669
mrjb1_sx30 quick_test/mfcc/raw_mfcc_train.4.ark:867497
mgsl0_sx174 quick_test/mfcc/raw_mfcc_train.3.ark:241960
mmwb0_sx179 quick_test/mfcc/raw_mfcc_train.3.ark:3330755
fbjl0_si1552 quick_test/mfcc/raw_mfcc_train.1.ark:274856
fmem0_si747 quick_test/mfcc/raw_mfcc_train.1.ark:2858208
msmc0_sx17 quick_test/mfcc/raw_mfcc_train.4.ark:2122213
mjdm0_sx260 quick_test/mfcc/raw_mfcc_train.3.ark:826039
mdss0_si2087 quick_test/mfcc/raw_mfcc_train.2.ark:2943223
fjlg0_sx269 quick_test/mfcc/raw_mfcc_train.1.ark:1731726
fsms1_sx154 quick_test/mfcc/raw_mfcc_train.2.ark:290497
mgrl0_sx147 quick_test/mfcc/raw_mfcc_train.3.ark:138793
fjlr0_sx421 quick_test/mfcc/raw_mfcc_train.1.ark:1772890
mgrl0_si2127 quick_test/mfcc/raw_mfcc_train.3.ark:129978
mjlg1_sx202 quick_test/mfcc/raw_mfcc_train.3.ark:1218609
fmjf0_sx174 quick_test/mfcc/raw_mfcc_train.1.ark:2929386
msas0_si746 quick_test/mfcc/raw_mfcc_train.4.ark:1745415
fbmh0_sx146 quick_test/mfcc/raw_mfcc_train.1.ark:357491
mcth0_si1209 quick_test/mfcc/raw_mfcc_train.2.ark:1867079
fbmh0_si970 quick_test/mfcc/raw_mfcc_train.1.ark:351582
mmws0_si1518 quick_test/mfcc/raw_mfcc_train.3.ark:3356452
mrkm0_sx367 quick_test/mfcc/raw_mfcc_train.4.ark:1044960
msas0_si2006 quick_test/mfcc/raw_mfcc_train.4.ark:1740598
mrcg0_sx348 quick_test/mfcc/raw_mfcc_train.4.ark:400649
mbth0_si2102 quick_test/mfcc/raw_mfcc_train.2.ark:1368236
mpgh0_si1554 quick_test/mfcc/raw_mfcc_train.3.ark:3599056
mdhl0_sx449 quick_test/mfcc/raw_mfcc_train.2.ark:2311382
mdlc1_sx265 quick_test/mfcc/raw_mfcc_train.2.ark:2505503
mgxp0_si457 quick_test/mfcc/raw_mfcc_train.3.ark:270316
mtdb0_si771 quick_test/mfcc/raw_mfcc_train.4.ark:2544503
mtdb0_sx231 quick_test/mfcc/raw_mfcc_train.4.ark:2554995
flet0_sx57 quick_test/mfcc/raw_mfcc_train.1.ark:2452392
mkag0_sx79 quick_test/mfcc/raw_mfcc_train.3.ark:1880169
mjra0_si1236 quick_test/mfcc/raw_mfcc_train.3.ark:1447980
fgrw0_sx72 quick_test/mfcc/raw_mfcc_train.1.ark:1504569
mjmm0_sx265 quick_test/mfcc/raw_mfcc_train.3.ark:1341246
mter0_si1787 quick_test/mfcc/raw_mfcc_train.4.ark:2613914
mrcw0_sx381 quick_test/mfcc/raw_mfcc_train.4.ark:442995
feeh0_si471 quick_test/mfcc/raw_mfcc_train.1.ark:1235086
mtbc0_si1803 quick_test/mfcc/raw_mfcc_train.4.ark:2474156
fhlm0_sx349 quick_test/mfcc/raw_mfcc_train.1.ark:1531023
fklh0_si1887 quick_test/mfcc/raw_mfcc_train.1.ark:2267777
mdss0_sx441 quick_test/mfcc/raw_mfcc_train.2.ark:2960028
mrmb0_si1581 quick_test/mfcc/raw_mfcc_train.4.ark:1207011
mdlm0_sx244 quick_test/mfcc/raw_mfcc_train.2.ark:2596634
mgjc0_si1335 quick_test/mfcc/raw_mfcc_train.3.ark:94430
mkes0_sx83 quick_test/mfcc/raw_mfcc_train.3.ark:2109523
mdlr0_sx63 quick_test/mfcc/raw_mfcc_train.2.ark:2639897
ftmg0_sx362 quick_test/mfcc/raw_mfcc_train.2.ark:555347
mjsr0_sx164 quick_test/mfcc/raw_mfcc_train.3.ark:1654863
mzmb0_sx176 quick_test/mfcc/raw_mfcc_train.4.ark:3789570
madd0_sx358 quick_test/mfcc/raw_mfcc_train.2.ark:742656
mdrd0_sx122 quick_test/mfcc/raw_mfcc_train.2.ark:2885338
mklr0_sx159 quick_test/mfcc/raw_mfcc_train.3.ark:2183781
mdtb0_si1200 quick_test/mfcc/raw_mfcc_train.2.ark:2995914
marw0_sx106 quick_test/mfcc/raw_mfcc_train.2.ark:1014039
msat1_sx83 quick_test/mfcc/raw_mfcc_train.4.ark:1823447
madd0_si538 quick_test/mfcc/raw_mfcc_train.2.ark:729583
mjrk0_sx250 quick_test/mfcc/raw_mfcc_train.3.ark:1592616
fclt0_sx448 quick_test/mfcc/raw_mfcc_train.1.ark:645715
fpjf0_si1259 quick_test/mfcc/raw_mfcc_train.1.ark:3368638
mmds0_sx263 quick_test/mfcc/raw_mfcc_train.3.ark:2955586
msat0_sx176 quick_test/mfcc/raw_mfcc_train.4.ark:1779760
mdjm0_si825 quick_test/mfcc/raw_mfcc_train.2.ark:2359412
mjrk0_sx160 quick_test/mfcc/raw_mfcc_train.3.ark:1587617
mlel0_sx76 quick_test/mfcc/raw_mfcc_train.3.ark:2427530
mtjs0_sx202 quick_test/mfcc/raw_mfcc_train.4.ark:2727647
mrjt0_sx148 quick_test/mfcc/raw_mfcc_train.4.ark:995840
mkls0_sx267 quick_test/mfcc/raw_mfcc_train.3.ark:2220090
fcag0_sx423 quick_test/mfcc/raw_mfcc_train.1.ark:431921
mmsm0_si1736 quick_test/mfcc/raw_mfcc_train.3.ark:3247361
mdac0_si1261 quick_test/mfcc/raw_mfcc_train.2.ark:1962254
fecd0_si2048 quick_test/mfcc/raw_mfcc_train.1.ark:1194800
mwch0_sx92 quick_test/mfcc/raw_mfcc_train.4.ark:3544274
mjdm0_sx350 quick_test/mfcc/raw_mfcc_train.3.ark:830076
mtju0_sx130 quick_test/mfcc/raw_mfcc_train.4.ark:2755712
mdpk0_si1683 quick_test/mfcc/raw_mfcc_train.2.ark:2816895
mdlc1_si2144 quick_test/mfcc/raw_mfcc_train.2.ark:2498170
mtwh1_sx162 quick_test/mfcc/raw_mfcc_train.4.ark:3279133
mdwh0_sx125 quick_test/mfcc/raw_mfcc_train.2.ark:3069579
mtkd0_sx197 quick_test/mfcc/raw_mfcc_train.4.ark:2797109
mreh1_si1599 quick_test/mfcc/raw_mfcc_train.4.ark:569931
msah1_sx59 quick_test/mfcc/raw_mfcc_train.4.ark:1731430
mjwg0_sx265 quick_test/mfcc/raw_mfcc_train.3.ark:1700127
mmgc0_sx135 quick_test/mfcc/raw_mfcc_train.3.ark:3038104
fmjf0_si1884 quick_test/mfcc/raw_mfcc_train.1.ark:2920935
mfmc0_si502 quick_test/mfcc/raw_mfcc_train.2.ark:3433874
msfh0_si1216 quick_test/mfcc/raw_mfcc_train.4.ark:1993159
falk0_sx366 quick_test/mfcc/raw_mfcc_train.1.ark:89353
mbcg0_si486 quick_test/mfcc/raw_mfcc_train.2.ark:1103727
feme0_sx245 quick_test/mfcc/raw_mfcc_train.1.ark:1277511
mjwg0_sx175 quick_test/mfcc/raw_mfcc_train.3.ark:1694452
fsak0_si1930 quick_test/mfcc/raw_mfcc_train.1.ark:3633851
fetb0_sx158 quick_test/mfcc/raw_mfcc_train.1.ark:1307526
fmjf0_si1254 quick_test/mfcc/raw_mfcc_train.1.ark:2917755
fpaz0_si963 quick_test/mfcc/raw_mfcc_train.1.ark:3339859
fcag0_si1503 quick_test/mfcc/raw_mfcc_train.1.ark:410713
mkjo0_sx437 quick_test/mfcc/raw_mfcc_train.3.ark:2134417
mbef0_sx381 quick_test/mfcc/raw_mfcc_train.2.ark:1154226
fksr0_si487 quick_test/mfcc/raw_mfcc_train.1.ark:2300705
fajw0_sx273 quick_test/mfcc/raw_mfcc_train.1.ark:53477
mdlh0_sx70 quick_test/mfcc/raw_mfcc_train.2.ark:2578917
mrws0_sx382 quick_test/mfcc/raw_mfcc_train.4.ark:1670137
fhxs0_sx265 quick_test/mfcc/raw_mfcc_train.1.ark:1566597
fdmy0_si1197 quick_test/mfcc/raw_mfcc_train.1.ark:975503
fmbg0_sx350 quick_test/mfcc/raw_mfcc_train.1.ark:2835617
mwch0_si2252 quick_test/mfcc/raw_mfcc_train.4.ark:3526092
fcjf0_sx397 quick_test/mfcc/raw_mfcc_train.1.ark:559464
mrlr0_si1826 quick_test/mfcc/raw_mfcc_train.4.ark:1182249
mdlc1_sx445 quick_test/mfcc/raw_mfcc_train.2.ark:2512576
mwre0_sx337 quick_test/mfcc/raw_mfcc_train.4.ark:3665248
fjhk0_sx212 quick_test/mfcc/raw_mfcc_train.1.ark:1670368
mljc0_sx145 quick_test/mfcc/raw_mfcc_train.3.ark:2445630
fdjh0_si1565 quick_test/mfcc/raw_mfcc_train.1.ark:880027
mjls0_sx196 quick_test/mfcc/raw_mfcc_train.3.ark:1253824
mjpg0_sx291 quick_test/mfcc/raw_mfcc_train.3.ark:1376351
mjai0_sx344 quick_test/mfcc/raw_mfcc_train.3.ark:633523
fpac0_sx301 quick_test/mfcc/raw_mfcc_train.1.ark:3251191
mwac0_sx71 quick_test/mfcc/raw_mfcc_train.4.ark:3460588
mklw0_sx131 quick_test/mfcc/raw_mfcc_train.3.ark:2279725
mprk0_si467 quick_test/mfcc/raw_mfcc_train.4.ark:102011
mjdc0_si531 quick_test/mfcc/raw_mfcc_train.3.ark:709582
mgaw0_si1165 quick_test/mfcc/raw_mfcc_train.3.ark:32441
mhxl0_sx152 quick_test/mfcc/raw_mfcc_train.3.ark:492234
ftbw0_sx175 quick_test/mfcc/raw_mfcc_train.2.ark:482589
mjda0_sx401 quick_test/mfcc/raw_mfcc_train.3.ark:695708
mkam0_si1465 quick_test/mfcc/raw_mfcc_train.3.ark:1954290
mtkp0_si1023 quick_test/mfcc/raw_mfcc_train.4.ark:2810066
mrdm0_sx335 quick_test/mfcc/raw_mfcc_train.4.ark:497125
mjma0_sx145 quick_test/mfcc/raw_mfcc_train.3.ark:1279998
fljd0_sx166 quick_test/mfcc/raw_mfcc_train.1.ark:2533853
fjdm2_si1582 quick_test/mfcc/raw_mfcc_train.1.ark:1581172
fgrw0_sx432 quick_test/mfcc/raw_mfcc_train.1.ark:1498674
mgsh0_sx6 quick_test/mfcc/raw_mfcc_train.3.ark:220228
mvjh0_sx296 quick_test/mfcc/raw_mfcc_train.4.ark:3359192
mkdd0_sx127 quick_test/mfcc/raw_mfcc_train.3.ark:2028718
mprd0_sx351 quick_test/mfcc/raw_mfcc_train.4.ark:78289
mgag0_sx331 quick_test/mfcc/raw_mfcc_train.2.ark:3631995
mjdg0_sx232 quick_test/mfcc/raw_mfcc_train.3.ark:793313
mtml0_sx345 quick_test/mfcc/raw_mfcc_train.4.ark:2927534
mmbs0_sx341 quick_test/mfcc/raw_mfcc_train.3.ark:2767635
mjwt0_sx121 quick_test/mfcc/raw_mfcc_train.3.ark:1765923
fecd0_sx338 quick_test/mfcc/raw_mfcc_train.1.ark:1212638
mfwk0_si1879 quick_test/mfcc/raw_mfcc_train.2.ark:3493678
mjlg1_sx112 quick_test/mfcc/raw_mfcc_train.3.ark:1214806
mmws1_si1071 quick_test/mfcc/raw_mfcc_train.3.ark:3387305
fdnc0_sx198 quick_test/mfcc/raw_mfcc_train.1.ark:1044157
ftbw0_si1345 quick_test/mfcc/raw_mfcc_train.2.ark:469905
mbom0_si2274 quick_test/mfcc/raw_mfcc_train.2.ark:1323717
mpsw0_si1067 quick_test/mfcc/raw_mfcc_train.4.ark:158646
meal0_si1547 quick_test/mfcc/raw_mfcc_train.2.ark:3123972
mtcs0_si2265 quick_test/mfcc/raw_mfcc_train.4.ark:2506310
mwsb0_si2256 quick_test/mfcc/raw_mfcc_train.4.ark:3713654
mfmc0_si1762 quick_test/mfcc/raw_mfcc_train.2.ark:3429876
flag0_si834 quick_test/mfcc/raw_mfcc_train.1.ark:2364753
fsbk0_sx259 quick_test/mfcc/raw_mfcc_train.1.ark:3673892
mdss1_sx247 quick_test/mfcc/raw_mfcc_train.2.ark:2981014
fklc0_sx355 quick_test/mfcc/raw_mfcc_train.1.ark:2217016
mmam0_si2227 quick_test/mfcc/raw_mfcc_train.3.ark:2683962
mddc0_sx339 quick_test/mfcc/raw_mfcc_train.2.ark:2173659
mesj0_sx7 quick_test/mfcc/raw_mfcc_train.2.ark:3364259
mjsr0_sx74 quick_test/mfcc/raw_mfcc_train.3.ark:1672024
mcss0_sx210 quick_test/mfcc/raw_mfcc_train.2.ark:1853986
fspm0_si1241 quick_test/mfcc/raw_mfcc_train.2.ark:310591
ftbw0_si715 quick_test/mfcc/raw_mfcc_train.2.ark:476511
fpad0_sx266 quick_test/mfcc/raw_mfcc_train.1.ark:3281804
mkxl0_si1185 quick_test/mfcc/raw_mfcc_train.3.ark:2332583
mtjg0_sx350 quick_test/mfcc/raw_mfcc_train.4.ark:2660993
madd0_si1798 quick_test/mfcc/raw_mfcc_train.2.ark:724883
fkfb0_sx78 quick_test/mfcc/raw_mfcc_train.1.ark:2156023
fsrh0_sx221 quick_test/mfcc/raw_mfcc_train.2.ark:358387
frjb0_sx257 quick_test/mfcc/raw_mfcc_train.1.ark:3505907
mprd0_si1431 quick_test/mfcc/raw_mfcc_train.4.ark:54060
mrbc0_sx149 quick_test/mfcc/raw_mfcc_train.4.ark:356872
mrab0_si1224 quick_test/mfcc/raw_mfcc_train.4.ark:184547
mjeb1_si2097 quick_test/mfcc/raw_mfcc_train.3.ark:881772
madc0_sx17 quick_test/mfcc/raw_mfcc_train.2.ark:707946
mtmt0_sx308 quick_test/mfcc/raw_mfcc_train.4.ark:2996431
mpfu0_sx358 quick_test/mfcc/raw_mfcc_train.3.ark:3586113
mgsh0_si1176 quick_test/mfcc/raw_mfcc_train.3.ark:193849
mjxl0_sx92 quick_test/mfcc/raw_mfcc_train.3.ark:1845715
fjsp0_si1434 quick_test/mfcc/raw_mfcc_train.1.ark:1888178
fbmh0_sx56 quick_test/mfcc/raw_mfcc_train.1.ark:370570
mrhl0_sx435 quick_test/mfcc/raw_mfcc_train.4.ark:833010
mjrp0_sx315 quick_test/mfcc/raw_mfcc_train.3.ark:1625908
mmws1_sx351 quick_test/mfcc/raw_mfcc_train.3.ark:3403331
mrml0_sx71 quick_test/mfcc/raw_mfcc_train.4.ark:1336804
mclm0_sx106 quick_test/mfcc/raw_mfcc_train.2.ark:1756205
mmgc0_sx225 quick_test/mfcc/raw_mfcc_train.3.ark:3041907
mjde0_si490 quick_test/mfcc/raw_mfcc_train.3.ark:745024
mmjb1_sx58 quick_test/mfcc/raw_mfcc_train.3.ark:3141887
fkfb0_sx348 quick_test/mfcc/raw_mfcc_train.1.ark:2142685
makb0_sx116 quick_test/mfcc/raw_mfcc_train.2.ark:898943
mpeb0_sx330 quick_test/mfcc/raw_mfcc_train.3.ark:3552282
mrlk0_si843 quick_test/mfcc/raw_mfcc_train.4.ark:1155432
mhmg0_sx195 quick_test/mfcc/raw_mfcc_train.3.ark:407213
mgrp0_sx327 quick_test/mfcc/raw_mfcc_train.3.ark:178904
fdaw0_sx146 quick_test/mfcc/raw_mfcc_train.1.ark:833823
msms0_sx173 quick_test/mfcc/raw_mfcc_train.4.ark:2182472
fbmj0_si516 quick_test/mfcc/raw_mfcc_train.1.ark:379841
mprt0_sx310 quick_test/mfcc/raw_mfcc_train.4.ark:148355
mcre0_sx24 quick_test/mfcc/raw_mfcc_train.2.ark:1821645
mjrh1_si1558 quick_test/mfcc/raw_mfcc_train.3.ark:1545301
mrso0_sx129 quick_test/mfcc/raw_mfcc_train.4.ark:1452447
falk0_sx186 quick_test/mfcc/raw_mfcc_train.1.ark:82540
mmdg0_si2035 quick_test/mfcc/raw_mfcc_train.3.ark:2847728
mrav0_sx108 quick_test/mfcc/raw_mfcc_train.4.ark:328969
mrab1_sx398 quick_test/mfcc/raw_mfcc_train.4.ark:245922
falk0_sx96 quick_test/mfcc/raw_mfcc_train.1.ark:97372
fsgf0_sx387 quick_test/mfcc/raw_mfcc_train.1.ark:3820572
mmdm1_sx153 quick_test/mfcc/raw_mfcc_train.3.ark:2917770
maeb0_sx360 quick_test/mfcc/raw_mfcc_train.2.ark:774433
mjrh0_sx135 quick_test/mfcc/raw_mfcc_train.3.ark:1526715
fljg0_sx441 quick_test/mfcc/raw_mfcc_train.1.ark:2583630
fexm0_sx381 quick_test/mfcc/raw_mfcc_train.1.ark:1360924
fcrz0_sx73 quick_test/mfcc/raw_mfcc_train.1.ark:746513
mejs0_sx430 quick_test/mfcc/raw_mfcc_train.2.ark:3302735
mvlo0_si1777 quick_test/mfcc/raw_mfcc_train.4.ark:3369459
mrjh0_sx169 quick_test/mfcc/raw_mfcc_train.4.ark:894060
fjlg0_sx179 quick_test/mfcc/raw_mfcc_train.1.ark:1727494
mjrg0_sx286 quick_test/mfcc/raw_mfcc_train.3.ark:1498395
falk0_sx276 quick_test/mfcc/raw_mfcc_train.1.ark:85784
fjxp0_sx402 quick_test/mfcc/raw_mfcc_train.1.ark:2010526
mdss1_si697 quick_test/mfcc/raw_mfcc_train.2.ark:2973291
mgsh0_sx127 quick_test/mfcc/raw_mfcc_train.3.ark:209783
fetb0_si1778 quick_test/mfcc/raw_mfcc_train.1.ark:1298191
mwrp0_sx273 quick_test/mfcc/raw_mfcc_train.4.ark:3696239
mtqc0_sx451 quick_test/mfcc/raw_mfcc_train.4.ark:3166451
flhd0_sx174 quick_test/mfcc/raw_mfcc_train.1.ark:2465969
mtwh1_sx432 quick_test/mfcc/raw_mfcc_train.4.ark:3289736
mcxm0_sx271 quick_test/mfcc/raw_mfcc_train.2.ark:1947458
fskl0_si899 quick_test/mfcc/raw_mfcc_train.2.ark:122686
mrai0_si2052 quick_test/mfcc/raw_mfcc_train.4.ark:252178
mlns0_sx237 quick_test/mfcc/raw_mfcc_train.3.ark:2521333
mgaf0_sx202 quick_test/mfcc/raw_mfcc_train.2.ark:3600368
mlns0_sx417 quick_test/mfcc/raw_mfcc_train.3.ark:2528445
mbjv0_si617 quick_test/mfcc/raw_mfcc_train.2.ark:1198415
mjhi0_si698 quick_test/mfcc/raw_mfcc_train.3.ark:1013410
mtpr0_sx430 quick_test/mfcc/raw_mfcc_train.4.ark:3126302
mrfl0_si1786 quick_test/mfcc/raw_mfcc_train.4.ark:705055
msds0_sx87 quick_test/mfcc/raw_mfcc_train.4.ark:1918468
mrlj0_sx160 quick_test/mfcc/raw_mfcc_train.4.ark:1098605
fkdw0_sx127 quick_test/mfcc/raw_mfcc_train.1.ark:2105850
mejl0_sx242 quick_test/mfcc/raw_mfcc_train.2.ark:3262286
mjwg0_sx355 quick_test/mfcc/raw_mfcc_train.3.ark:1704281
fhlm0_sx300 quick_test/mfcc/raw_mfcc_train.1.ark:1527285
mtmt0_si1118 quick_test/mfcc/raw_mfcc_train.4.ark:2975998
mrcg0_si798 quick_test/mfcc/raw_mfcc_train.4.ark:387329
flod0_sx207 quick_test/mfcc/raw_mfcc_train.1.ark:2742027
mtqc0_sx271 quick_test/mfcc/raw_mfcc_train.4.ark:3157337
mppc0_si782 quick_test/mfcc/raw_mfcc_train.3.ark:3752218
mwre0_si1687 quick_test/mfcc/raw_mfcc_train.4.ark:3650737
mreh1_si2229 quick_test/mfcc/raw_mfcc_train.4.ark:576634
mmaa0_si1588 quick_test/mfcc/raw_mfcc_train.3.ark:2570220
mbwp0_si1969 quick_test/mfcc/raw_mfcc_train.2.ark:1405168
mmgk0_sx62 quick_test/mfcc/raw_mfcc_train.3.ark:3109720
mfer0_si2122 quick_test/mfcc/raw_mfcc_train.2.ark:3400309
fsjg0_sx400 quick_test/mfcc/raw_mfcc_train.1.ark:3862606
mjws0_sx333 quick_test/mfcc/raw_mfcc_train.3.ark:1734940
fgdp0_si988 quick_test/mfcc/raw_mfcc_train.1.ark:1402058
mvjh0_si926 quick_test/mfcc/raw_mfcc_train.4.ark:3345450
feac0_sx435 quick_test/mfcc/raw_mfcc_train.1.ark:1145945
frll0_sx344 quick_test/mfcc/raw_mfcc_train.1.ark:3544502
mrjm1_sx218 quick_test/mfcc/raw_mfcc_train.4.ark:966917
mdhs0_si1530 quick_test/mfcc/raw_mfcc_train.2.ark:2319742
fgdp0_si1618 quick_test/mfcc/raw_mfcc_train.1.ark:1394464
fapb0_si1063 quick_test/mfcc/raw_mfcc_train.1.ark:131783
mcew0_sx452 quick_test/mfcc/raw_mfcc_train.2.ark:1667290
ftlg0_sx123 quick_test/mfcc/raw_mfcc_train.2.ark:518070
mefg0_sx105 quick_test/mfcc/raw_mfcc_train.2.ark:3194268
mtmn0_si1064 quick_test/mfcc/raw_mfcc_train.4.ark:2941179
fdfb0_sx58 quick_test/mfcc/raw_mfcc_train.1.ark:875820
msrg0_si1221 quick_test/mfcc/raw_mfcc_train.4.ark:2201253
mkes0_sx443 quick_test/mfcc/raw_mfcc_train.3.ark:2105799
mhjb0_sx117 quick_test/mfcc/raw_mfcc_train.3.ark:373564
mrpc1_si2112 quick_test/mfcc/raw_mfcc_train.4.ark:1377147
mctm0_sx90 quick_test/mfcc/raw_mfcc_train.2.ark:1927817
frjb0_sx77 quick_test/mfcc/raw_mfcc_train.1.ark:3518784
mrml0_si2051 quick_test/mfcc/raw_mfcc_train.4.ark:1307552
mrkm0_sx7 quick_test/mfcc/raw_mfcc_train.4.ark:1050269
mmjb1_sx148 quick_test/mfcc/raw_mfcc_train.3.ark:3124869
mlel0_sx346 quick_test/mfcc/raw_mfcc_train.3.ark:2419132
mhit0_si1613 quick_test/mfcc/raw_mfcc_train.3.ark:328868
fbcg1_si2242 quick_test/mfcc/raw_mfcc_train.1.ark:209179
mrjm0_sx148 quick_test/mfcc/raw_mfcc_train.4.ark:929335
fsjs0_sx91 quick_test/mfcc/raw_mfcc_train.2.ark:45199
mdlh0_sx250 quick_test/mfcc/raw_mfcc_train.2.ark:2564909
fcyl0_si1297 quick_test/mfcc/raw_mfcc_train.1.ark:750083
mtcs0_sx352 quick_test/mfcc/raw_mfcc_train.4.ark:2522575
mkam0_sx326 quick_test/mfcc/raw_mfcc_train.3.ark:1967727
mrjb1_sx210 quick_test/mfcc/raw_mfcc_train.4.ark:863981
mmea0_sx38 quick_test/mfcc/raw_mfcc_train.3.ark:2988702
mhmr0_sx309 quick_test/mfcc/raw_mfcc_train.3.ark:439576
msrg0_sx411 quick_test/mfcc/raw_mfcc_train.4.ark:2224319
mbar0_sx329 quick_test/mfcc/raw_mfcc_train.2.ark:1058570
mmpm0_si1061 quick_test/mfcc/raw_mfcc_train.3.ark:3174101
mpar0_si946 quick_test/mfcc/raw_mfcc_train.3.ark:3515076
fkkh0_sx390 quick_test/mfcc/raw_mfcc_train.1.ark:2189893
mmwb0_sx89 quick_test/mfcc/raw_mfcc_train.3.ark:3352245
mcss0_si1380 quick_test/mfcc/raw_mfcc_train.2.ark:1833405
fjdm2_sx412 quick_test/mfcc/raw_mfcc_train.1.ark:1607814
mjma0_sx235 quick_test/mfcc/raw_mfcc_train.3.ark:1283177
mwsh0_sx436 quick_test/mfcc/raw_mfcc_train.4.ark:3768799
mdsj0_sx382 quick_test/mfcc/raw_mfcc_train.2.ark:2931344
mgxp0_sx277 quick_test/mfcc/raw_mfcc_train.3.ark:283584
mrdm0_si965 quick_test/mfcc/raw_mfcc_train.4.ark:485599
mjxa0_sx247 quick_test/mfcc/raw_mfcc_train.3.ark:1800463
mwre0_si1057 quick_test/mfcc/raw_mfcc_train.4.ark:3645321
fssb0_si1082 quick_test/mfcc/raw_mfcc_train.2.ark:377434
fmkf0_sx366 quick_test/mfcc/raw_mfcc_train.1.ark:3040761
mtmn0_sx344 quick_test/mfcc/raw_mfcc_train.4.ark:2965824
mfmc0_sx232 quick_test/mfcc/raw_mfcc_train.2.ark:3442689
mrab1_sx128 quick_test/mfcc/raw_mfcc_train.4.ark:230113
mcdr0_sx164 quick_test/mfcc/raw_mfcc_train.2.ark:1587491
mgrl0_sx327 quick_test/mfcc/raw_mfcc_train.3.ark:143916
mtrt0_sx417 quick_test/mfcc/raw_mfcc_train.4.ark:3261352
mdlc2_sx264 quick_test/mfcc/raw_mfcc_train.2.ark:2532431
mclm0_si2086 quick_test/mfcc/raw_mfcc_train.2.ark:1747728
fbjl0_si2182 quick_test/mfcc/raw_mfcc_train.1.ark:278959
mvlo0_sx337 quick_test/mfcc/raw_mfcc_train.4.ark:3386257
mjae0_sx174 quick_test/mfcc/raw_mfcc_train.3.ark:587329
fkdw0_sx307 quick_test/mfcc/raw_mfcc_train.1.ark:2111051
mdlm0_sx64 quick_test/mfcc/raw_mfcc_train.2.ark:2606261
fsbk0_sx169 quick_test/mfcc/raw_mfcc_train.1.ark:3669712
fleh0_sx331 quick_test/mfcc/raw_mfcc_train.1.ark:2412425
mrcg0_sx438 quick_test/mfcc/raw_mfcc_train.4.ark:406064
mjdc0_sx441 quick_test/mfcc/raw_mfcc_train.3.ark:728200
flod0_sx171 quick_test/mfcc/raw_mfcc_train.1.ark:2736963
mtat0_sx210 quick_test/mfcc/raw_mfcc_train.4.ark:2422895
mmdb0_sx267 quick_test/mfcc/raw_mfcc_train.3.ark:2827698
mdem0_sx428 quick_test/mfcc/raw_mfcc_train.2.ark:2277395
fexm0_si482 quick_test/mfcc/raw_mfcc_train.1.ark:1335409
fsms1_sx64 quick_test/mfcc/raw_mfcc_train.2.ark:306956
mtqc0_sx361 quick_test/mfcc/raw_mfcc_train.4.ark:3161504
fsms1_sx347 quick_test/mfcc/raw_mfcc_train.2.ark:301672
mhrm0_sx58 quick_test/mfcc/raw_mfcc_train.3.ark:476761
mgjc0_sx345 quick_test/mfcc/raw_mfcc_train.3.ark:112126
mmxs0_si876 quick_test/mfcc/raw_mfcc_train.3.ark:3421839
mmrp0_sx414 quick_test/mfcc/raw_mfcc_train.3.ark:3232025
mkrg0_si861 quick_test/mfcc/raw_mfcc_train.3.ark:2312106
mjdm0_si974 quick_test/mfcc/raw_mfcc_train.3.ark:817302
msfv0_si1262 quick_test/mfcc/raw_mfcc_train.4.ark:2032931
madd0_sx448 quick_test/mfcc/raw_mfcc_train.2.ark:746173
fpmy0_sx343 quick_test/mfcc/raw_mfcc_train.1.ark:3455184
mrwa0_si1603 quick_test/mfcc/raw_mfcc_train.4.ark:1614521
fjlg0_si1889 quick_test/mfcc/raw_mfcc_train.1.ark:1718782
mmab1_sx144 quick_test/mfcc/raw_mfcc_train.3.ark:2616904
mbml0_si1799 quick_test/mfcc/raw_mfcc_train.2.ark:1289735
mrsp0_sx79 quick_test/mfcc/raw_mfcc_train.4.ark:1506234
flac0_sx181 quick_test/mfcc/raw_mfcc_train.1.ark:2336155
mbml0_si539 quick_test/mfcc/raw_mfcc_train.2.ark:1293473
mcre0_sx41 quick_test/mfcc/raw_mfcc_train.2.ark:1828769
fdxw0_si881 quick_test/mfcc/raw_mfcc_train.1.ark:1097305
fsrh0_sx311 quick_test/mfcc/raw_mfcc_train.2.ark:363438
mcre0_sx401 quick_test/mfcc/raw_mfcc_train.2.ark:1824720
mpgr0_si1410 quick_test/mfcc/raw_mfcc_train.3.ark:3627101
mafm0_si1569 quick_test/mfcc/raw_mfcc_train.2.ark:816853
fmbg0_si2264 quick_test/mfcc/raw_mfcc_train.1.ark:2826173
mjjm0_si1251 quick_test/mfcc/raw_mfcc_train.3.ark:1106088
mtas0_si2015 quick_test/mfcc/raw_mfcc_train.4.ark:2381906
feme0_si2135 quick_test/mfcc/raw_mfcc_train.1.ark:1263398
mrvg0_si1140 quick_test/mfcc/raw_mfcc_train.4.ark:1586072
msjk0_si1596 quick_test/mfcc/raw_mfcc_train.4.ark:2069427
fmju0_sx399 quick_test/mfcc/raw_mfcc_train.1.ark:2982679
fskl0_sx179 quick_test/mfcc/raw_mfcc_train.2.ark:126268
mgrp0_si1947 quick_test/mfcc/raw_mfcc_train.3.ark:163562
mdac0_sx361 quick_test/mfcc/raw_mfcc_train.2.ark:1984247
fkdw0_sx397 quick_test/mfcc/raw_mfcc_train.1.ark:2117109
mdss0_sx261 quick_test/mfcc/raw_mfcc_train.2.ark:2953839
mtrc0_sx170 quick_test/mfcc/raw_mfcc_train.4.ark:3188963
msrr0_sx411 quick_test/mfcc/raw_mfcc_train.4.ark:2255861
mrew1_sx330 quick_test/mfcc/raw_mfcc_train.4.ark:656556
mjfr0_sx165 quick_test/mfcc/raw_mfcc_train.3.ark:980731
fpaz0_sx63 quick_test/mfcc/raw_mfcc_train.1.ark:3361095
mcxm0_sx361 quick_test/mfcc/raw_mfcc_train.2.ark:1950819
mdac0_si1837 quick_test/mfcc/raw_mfcc_train.2.ark:1965915
fear0_sx82 quick_test/mfcc/raw_mfcc_train.1.ark:1183526
fsak0_sx130 quick_test/mfcc/raw_mfcc_train.1.ark:3640144
fmkf0_sx186 quick_test/mfcc/raw_mfcc_train.1.ark:3034260
marc0_sx198 quick_test/mfcc/raw_mfcc_train.2.ark:993767
mkls1_sx285 quick_test/mfcc/raw_mfcc_train.3.ark:2260590
mfrm0_sx435 quick_test/mfcc/raw_mfcc_train.2.ark:3482411
mdwh0_si665 quick_test/mfcc/raw_mfcc_train.2.ark:3063189
mjxa0_sx427 quick_test/mfcc/raw_mfcc_train.3.ark:1808888
mmjb1_sx238 quick_test/mfcc/raw_mfcc_train.3.ark:3128412
mgaw0_sx265 quick_test/mfcc/raw_mfcc_train.3.ark:50865
mcae0_si1447 quick_test/mfcc/raw_mfcc_train.2.ark:1436625
fpjf0_sx326 quick_test/mfcc/raw_mfcc_train.1.ark:3384267
fdas1_si2091 quick_test/mfcc/raw_mfcc_train.1.ark:790422
mdlr1_si669 quick_test/mfcc/raw_mfcc_train.2.ark:2651399
mtpr0_si2230 quick_test/mfcc/raw_mfcc_train.4.ark:3102425
mmgc0_si1305 quick_test/mfcc/raw_mfcc_train.3.ark:3025510
mrlj0_si790 quick_test/mfcc/raw_mfcc_train.4.ark:1093125
meal0_sx107 quick_test/mfcc/raw_mfcc_train.2.ark:3133367
mmdg0_sx160 quick_test/mfcc/raw_mfcc_train.3.ark:2854853
mtjs0_sx112 quick_test/mfcc/raw_mfcc_train.4.ark:2723181
mwdk0_sx446 quick_test/mfcc/raw_mfcc_train.4.ark:3572873
mpfu0_si1888 quick_test/mfcc/raw_mfcc_train.3.ark:3571720
mmrp0_si2034 quick_test/mfcc/raw_mfcc_train.3.ark:3206867
mjeb1_sx27 quick_test/mfcc/raw_mfcc_train.3.ark:899531
