mtab0_sx222 quick_test/mfcc/raw_mfcc_train.4.ark:2359354
fsjs0_sx181 quick_test/mfcc/raw_mfcc_train.2.ark:27115
fsls0_si2316 quick_test/mfcc/raw_mfcc_train.2.ark:184824
mmds0_sx353 quick_test/mfcc/raw_mfcc_train.3.ark:2958245
mgjc0_si1335 quick_test/mfcc/raw_mfcc_train.3.ark:94430
fsjk1_si696 quick_test/mfcc/raw_mfcc_train.1.ark:3875252
mljh0_sx334 quick_test/mfcc/raw_mfcc_train.3.ark:2493658
mdrd0_sx32 quick_test/mfcc/raw_mfcc_train.2.ark:2899099
mjmd0_si1028 quick_test/mfcc/raw_mfcc_train.3.ark:1296010
mjjj0_sx173 quick_test/mfcc/raw_mfcc_train.3.ark:1085214
mmgg0_si1709 quick_test/mfcc/raw_mfcc_train.3.ark:3061547
mrjh0_sx439 quick_test/mfcc/raw_mfcc_train.4.ark:907159
mddc0_sx339 quick_test/mfcc/raw_mfcc_train.2.ark:2173659
mtkd0_sx17 quick_test/mfcc/raw_mfcc_train.4.ark:2794047
mdlc2_sx264 quick_test/mfcc/raw_mfcc_train.2.ark:2532431
fbjl0_si1552 quick_test/mfcc/raw_mfcc_train.1.ark:274856
fsbk0_si1699 quick_test/mfcc/raw_mfcc_train.1.ark:3664510
mmar0_si1336 quick_test/mfcc/raw_mfcc_train.3.ark:2704037
msms0_si803 quick_test/mfcc/raw_mfcc_train.4.ark:2177941
mtbc0_si1803 quick_test/mfcc/raw_mfcc_train.4.ark:2474156
mrld0_sx424 quick_test/mfcc/raw_mfcc_train.4.ark:1079875
mvlo0_sx247 quick_test/mfcc/raw_mfcc_train.4.ark:3381492
flmc0_sx292 quick_test/mfcc/raw_mfcc_train.1.ark:2675962
mmjb1_sx418 quick_test/mfcc/raw_mfcc_train.3.ark:3137396
fmem0_sx117 quick_test/mfcc/raw_mfcc_train.1.ark:2862258
mjwg0_sx175 quick_test/mfcc/raw_mfcc_train.3.ark:1694452
mjeb0_sx170 quick_test/mfcc/raw_mfcc_train.3.ark:855430
mfwk0_sx439 quick_test/mfcc/raw_mfcc_train.2.ark:3513590
fvmh0_sx386 quick_test/mfcc/raw_mfcc_train.2.ark:657465
mdbp0_si528 quick_test/mfcc/raw_mfcc_train.2.ark:2062486
fjxp0_sx312 quick_test/mfcc/raw_mfcc_train.1.ark:2005787
fsrh0_sx41 quick_test/mfcc/raw_mfcc_train.2.ark:372590
mrre0_sx74 quick_test/mfcc/raw_mfcc_train.4.ark:1432045
mcre0_si1725 quick_test/mfcc/raw_mfcc_train.2.ark:1806511
falr0_sx335 quick_test/mfcc/raw_mfcc_train.1.ark:120595
mljh0_sx244 quick_test/mfcc/raw_mfcc_train.3.ark:2488152
mdbb1_si2056 quick_test/mfcc/raw_mfcc_train.2.ark:2033153
mjrg0_si1996 quick_test/mfcc/raw_mfcc_train.3.ark:1484536
fear0_si1252 quick_test/mfcc/raw_mfcc_train.1.ark:1154448
msah1_sx59 quick_test/mfcc/raw_mfcc_train.4.ark:1731430
mdma0_sx350 quick_test/mfcc/raw_mfcc_train.2.ark:2700748
mrmb0_si2211 quick_test/mfcc/raw_mfcc_train.4.ark:1210581
fksr0_si1747 quick_test/mfcc/raw_mfcc_train.1.ark:2296694
mlsh0_sx427 quick_test/mfcc/raw_mfcc_train.3.ark:2562367
mkag0_si979 quick_test/mfcc/raw_mfcc_train.3.ark:1858270
mdlc0_si2025 quick_test/mfcc/raw_mfcc_train.2.ark:2458897
mtpr0_sx250 quick_test/mfcc/raw_mfcc_train.4.ark:3117227
fsdc0_sx412 quick_test/mfcc/raw_mfcc_train.1.ark:3756583
mhit0_si2243 quick_test/mfcc/raw_mfcc_train.3.ark:332776
mclm0_si1456 quick_test/mfcc/raw_mfcc_train.2.ark:1743625
mbom0_sx311 quick_test/mfcc/raw_mfcc_train.2.ark:1336810
fsdc0_si1312 quick_test/mfcc/raw_mfcc_train.1.ark:3733997
fsmm0_sx144 quick_test/mfcc/raw_mfcc_train.2.ark:254729
mtlc0_si1477 quick_test/mfcc/raw_mfcc_train.4.ark:2882650
mhxl0_sx332 quick_test/mfcc/raw_mfcc_train.3.ark:500828
mjrh0_sx315 quick_test/mfcc/raw_mfcc_train.3.ark:1533905
mtas0_si2015 quick_test/mfcc/raw_mfcc_train.4.ark:2381906
mkam0_sx326 quick_test/mfcc/raw_mfcc_train.3.ark:1967727
maeb0_sx90 quick_test/mfcc/raw_mfcc_train.2.ark:782454
msdb0_si2267 quick_test/mfcc/raw_mfcc_train.4.ark:1834755
mpgr0_sx330 quick_test/mfcc/raw_mfcc_train.3.ark:3643855
mdss1_si1713 quick_test/mfcc/raw_mfcc_train.2.ark:2971217
fgdp0_sx178 quick_test/mfcc/raw_mfcc_train.1.ark:1407473
mmcc0_sx258 quick_test/mfcc/raw_mfcc_train.3.ark:2796415
flmk0_sx315 quick_test/mfcc/raw_mfcc_train.1.ark:2710406
mtlb0_sx144 quick_test/mfcc/raw_mfcc_train.4.ark:2855905
mkaj0_sx154 quick_test/mfcc/raw_mfcc_train.3.ark:1928694
fmkf0_si906 quick_test/mfcc/raw_mfcc_train.1.ark:3029729
maeo0_si1956 quick_test/mfcc/raw_mfcc_train.2.ark:794321
madd0_sx178 quick_test/mfcc/raw_mfcc_train.2.ark:733373
msat1_sx263 quick_test/mfcc/raw_mfcc_train.4.ark:1812546
mcew0_si812 quick_test/mfcc/raw_mfcc_train.2.ark:1646189
mcae0_si2077 quick_test/mfcc/raw_mfcc_train.2.ark:1444108
mljc0_sx415 quick_test/mfcc/raw_mfcc_train.3.ark:2457104
mbcg0_sx57 quick_test/mfcc/raw_mfcc_train.2.ark:1126986
fkfb0_sx348 quick_test/mfcc/raw_mfcc_train.1.ark:2142685
mcth0_si1839 quick_test/mfcc/raw_mfcc_train.2.ark:1871754
mjdm0_sx170 quick_test/mfcc/raw_mfcc_train.3.ark:819311
mpeb0_sx60 quick_test/mfcc/raw_mfcc_train.3.ark:3560888
mjws0_sx243 quick_test/mfcc/raw_mfcc_train.3.ark:1730617
fcjs0_sx437 quick_test/mfcc/raw_mfcc_train.1.ark:583916
mtmt0_si1748 quick_test/mfcc/raw_mfcc_train.4.ark:2979867
fmjb0_sx187 quick_test/mfcc/raw_mfcc_train.1.ark:2900536
fdkn0_sx91 quick_test/mfcc/raw_mfcc_train.1.ark:943808
msfv0_si1892 quick_test/mfcc/raw_mfcc_train.4.ark:2036020
mljh0_si1324 quick_test/mfcc/raw_mfcc_train.3.ark:2464398
mmdg0_sx70 quick_test/mfcc/raw_mfcc_train.3.ark:2874666
mtmn0_sx344 quick_test/mfcc/raw_mfcc_train.4.ark:2965824
mbma1_si2214 quick_test/mfcc/raw_mfcc_train.2.ark:1254734
mter0_sx257 quick_test/mfcc/raw_mfcc_train.4.ark:2629307
makr0_sx272 quick_test/mfcc/raw_mfcc_train.2.ark:930480
mrwa0_si1603 quick_test/mfcc/raw_mfcc_train.4.ark:1614521
mgrp0_sx147 quick_test/mfcc/raw_mfcc_train.3.ark:171324
feac0_si1875 quick_test/mfcc/raw_mfcc_train.1.ark:1124031
fbmj0_si516 quick_test/mfcc/raw_mfcc_train.1.ark:379841
fpaz0_sx243 quick_test/mfcc/raw_mfcc_train.1.ark:3350052
mmds0_sx173 quick_test/mfcc/raw_mfcc_train.3.ark:2951562
mrlr0_sx296 quick_test/mfcc/raw_mfcc_train.4.ark:1200756
mlbc0_si1239 quick_test/mfcc/raw_mfcc_train.3.ark:2363789
mbth0_sx392 quick_test/mfcc/raw_mfcc_train.2.ark:1398691
mmvp0_si654 quick_test/mfcc/raw_mfcc_train.3.ark:3283097
mljc0_si1855 quick_test/mfcc/raw_mfcc_train.3.ark:2439181
makb0_sx296 quick_test/mfcc/raw_mfcc_train.2.ark:911560
mjra0_sx246 quick_test/mfcc/raw_mfcc_train.3.ark:1463908
fcyl0_si1297 quick_test/mfcc/raw_mfcc_train.1.ark:750083
flma0_sx73 quick_test/mfcc/raw_mfcc_train.1.ark:2654183
mjai0_sx434 quick_test/mfcc/raw_mfcc_train.3.ark:636663
mdtb0_sx120 quick_test/mfcc/raw_mfcc_train.2.ark:3005946
fmmh0_si2167 quick_test/mfcc/raw_mfcc_train.1.ark:3058676
mrav0_sx108 quick_test/mfcc/raw_mfcc_train.4.ark:328969
frjb0_sx167 quick_test/mfcc/raw_mfcc_train.1.ark:3501090
mtpf0_sx65 quick_test/mfcc/raw_mfcc_train.4.ark:3035709
mjee0_si1237 quick_test/mfcc/raw_mfcc_train.3.ark:910564
mrhl0_sx75 quick_test/mfcc/raw_mfcc_train.4.ark:837657
mmds0_si1343 quick_test/mfcc/raw_mfcc_train.3.ark:2941972
mrjb1_sx30 quick_test/mfcc/raw_mfcc_train.4.ark:867497
mmaa0_sx215 quick_test/mfcc/raw_mfcc_train.3.ark:2589541
mjmm0_sx355 quick_test/mfcc/raw_mfcc_train.3.ark:1345101
mcdd0_sx73 quick_test/mfcc/raw_mfcc_train.2.ark:1565816
mdns0_sx381 quick_test/mfcc/raw_mfcc_train.2.ark:2774936
mdhs0_si900 quick_test/mfcc/raw_mfcc_train.2.ark:2326439
fdkn0_si1081 quick_test/mfcc/raw_mfcc_train.1.ark:910829
mppc0_si1412 quick_test/mfcc/raw_mfcc_train.3.ark:3743415
mtcs0_sx442 quick_test/mfcc/raw_mfcc_train.4.ark:2527834
fear0_sx262 quick_test/mfcc/raw_mfcc_train.1.ark:1169102
mgxp0_si1087 quick_test/mfcc/raw_mfcc_train.3.ark:264277
mpeb0_sx240 quick_test/mfcc/raw_mfcc_train.3.ark:3548739
fdml0_sx159 quick_test/mfcc/raw_mfcc_train.1.ark:958360
mcdc0_si1292 quick_test/mfcc/raw_mfcc_train.2.ark:1510109
flet0_si1767 quick_test/mfcc/raw_mfcc_train.1.ark:2429055
feac0_si615 quick_test/mfcc/raw_mfcc_train.1.ark:1128380
fmkc0_sx172 quick_test/mfcc/raw_mfcc_train.1.ark:2997855
mrjt0_si868 quick_test/mfcc/raw_mfcc_train.4.ark:990009
mree0_sx384 quick_test/mfcc/raw_mfcc_train.4.ark:567011
mtdp0_sx81 quick_test/mfcc/raw_mfcc_train.4.ark:2604044
mrms0_sx390 quick_test/mfcc/raw_mfcc_train.4.ark:1366892
mdcd0_sx155 quick_test/mfcc/raw_mfcc_train.2.ark:2103266
mdns0_si2271 quick_test/mfcc/raw_mfcc_train.2.ark:2752587
flod0_sx117 quick_test/mfcc/raw_mfcc_train.1.ark:2733836
fjkl0_sx212 quick_test/mfcc/raw_mfcc_train.1.ark:1700923
mkdd0_si1567 quick_test/mfcc/raw_mfcc_train.3.ark:2011744
mgsh0_si1806 quick_test/mfcc/raw_mfcc_train.3.ark:200006
mcal0_si508 quick_test/mfcc/raw_mfcc_train.2.ark:1486043
mjkr0_sx391 quick_test/mfcc/raw_mfcc_train.3.ark:1169036
flmk0_si1035 quick_test/mfcc/raw_mfcc_train.1.ark:2689634
mcal0_si1768 quick_test/mfcc/raw_mfcc_train.2.ark:1483852
mdhs0_si1530 quick_test/mfcc/raw_mfcc_train.2.ark:2319742
mwre0_sx427 quick_test/mfcc/raw_mfcc_train.4.ark:3669610
mded0_sx270 quick_test/mfcc/raw_mfcc_train.2.ark:2202478
mtbc0_si543 quick_test/mfcc/raw_mfcc_train.4.ark:2478193
mmaa0_sx395 quick_test/mfcc/raw_mfcc_train.3.ark:2600884
mtdb0_si1401 quick_test/mfcc/raw_mfcc_train.4.ark:2536194
mrlj0_si1420 quick_test/mfcc/raw_mfcc_train.4.ark:1086311
mmws0_sx258 quick_test/mfcc/raw_mfcc_train.3.ark:3370858
fsdj0_sx395 quick_test/mfcc/raw_mfcc_train.1.ark:3788587
mctm0_sx270 quick_test/mfcc/raw_mfcc_train.2.ark:1916474
fgrw0_si1152 quick_test/mfcc/raw_mfcc_train.1.ark:1470030
mjws0_sx423 quick_test/mfcc/raw_mfcc_train.3.ark:1740654
mkam0_si1250 quick_test/mfcc/raw_mfcc_train.3.ark:1944576
fmjb0_sx97 quick_test/mfcc/raw_mfcc_train.1.ark:2914575
fjxm0_sx131 quick_test/mfcc/raw_mfcc_train.1.ark:1962270
mtpg0_si753 quick_test/mfcc/raw_mfcc_train.4.ark:3046028
fgmb0_si515 quick_test/mfcc/raw_mfcc_train.1.ark:1443065
mkah0_sx358 quick_test/mfcc/raw_mfcc_train.3.ark:1905030
mprb0_sx125 quick_test/mfcc/raw_mfcc_train.4.ark:32679
fmjb0_sx7 quick_test/mfcc/raw_mfcc_train.1.ark:2910552
mefg0_si598 quick_test/mfcc/raw_mfcc_train.2.ark:3188190
mdmt0_si2341 quick_test/mfcc/raw_mfcc_train.2.ark:2718067
frjb0_sx437 quick_test/mfcc/raw_mfcc_train.1.ark:3513747
mmdm1_si2043 quick_test/mfcc/raw_mfcc_train.3.ark:2911295
mdtb0_sx210 quick_test/mfcc/raw_mfcc_train.2.ark:3009996
fbmh0_sx56 quick_test/mfcc/raw_mfcc_train.1.ark:370570
mppc0_sx422 quick_test/mfcc/raw_mfcc_train.4.ark:7917
fpmy0_si1783 quick_test/mfcc/raw_mfcc_train.1.ark:3433036
mbma1_sx144 quick_test/mfcc/raw_mfcc_train.2.ark:1264186
fskc0_sx336 quick_test/mfcc/raw_mfcc_train.2.ark:100810
fklc1_sx418 quick_test/mfcc/raw_mfcc_train.1.ark:2250959
mdsj0_sx382 quick_test/mfcc/raw_mfcc_train.2.ark:2931344
mcre0_sx401 quick_test/mfcc/raw_mfcc_train.2.ark:1824720
mgrl0_sx417 quick_test/mfcc/raw_mfcc_train.3.ark:151151
fkfb0_si2238 quick_test/mfcc/raw_mfcc_train.1.ark:2127239
mesg0_sx252 quick_test/mfcc/raw_mfcc_train.2.ark:3325879
fjrb0_sx42 quick_test/mfcc/raw_mfcc_train.1.ark:1810211
fbmh0_sx416 quick_test/mfcc/raw_mfcc_train.1.ark:367197
fajw0_sx93 quick_test/mfcc/raw_mfcc_train.1.ark:64116
fdfb0_sx238 quick_test/mfcc/raw_mfcc_train.1.ark:865387
mtat1_sx419 quick_test/mfcc/raw_mfcc_train.4.ark:2464111
mkxl0_si1958 quick_test/mfcc/raw_mfcc_train.3.ark:2341803
mrav0_si2268 quick_test/mfcc/raw_mfcc_train.4.ark:323892
mfrm0_sx345 quick_test/mfcc/raw_mfcc_train.2.ark:3478959
mdss0_sx351 quick_test/mfcc/raw_mfcc_train.2.ark:2956043
mtwh1_sx162 quick_test/mfcc/raw_mfcc_train.4.ark:3279133
mmxs0_si629 quick_test/mfcc/raw_mfcc_train.3.ark:3416957
mgsl0_si534 quick_test/mfcc/raw_mfcc_train.3.ark:233015
mfmc0_si502 quick_test/mfcc/raw_mfcc_train.2.ark:3433874
mlns0_si1407 quick_test/mfcc/raw_mfcc_train.3.ark:2506679
feeh0_sx302 quick_test/mfcc/raw_mfcc_train.1.ark:1247301
marw0_si1906 quick_test/mfcc/raw_mfcc_train.2.ark:1007941
mdac0_si631 quick_test/mfcc/raw_mfcc_train.2.ark:1968925
fklh0_sx447 quick_test/mfcc/raw_mfcc_train.1.ark:2285570
fjhk0_sx32 quick_test/mfcc/raw_mfcc_train.1.ark:1678480
fdmy0_si567 quick_test/mfcc/raw_mfcc_train.1.ark:980801
mrtj0_sx322 quick_test/mfcc/raw_mfcc_train.4.ark:1572557
fjrb0_sx132 quick_test/mfcc/raw_mfcc_train.1.ark:1791477
mrjt0_sx58 quick_test/mfcc/raw_mfcc_train.4.ark:1012026
mfer0_sx232 quick_test/mfcc/raw_mfcc_train.2.ark:3411172
mtkp0_si1023 quick_test/mfcc/raw_mfcc_train.4.ark:2810066
mmgk0_si1952 quick_test/mfcc/raw_mfcc_train.3.ark:3092259
mrld0_si2224 quick_test/mfcc/raw_mfcc_train.4.ark:1062771
frll0_sx344 quick_test/mfcc/raw_mfcc_train.1.ark:3544502
fsjw0_sx343 quick_test/mfcc/raw_mfcc_train.2.ark:70151
maeb0_sx270 quick_test/mfcc/raw_mfcc_train.2.ark:770994
mmbs0_si521 quick_test/mfcc/raw_mfcc_train.3.ark:2750441
mfxv0_sx105 quick_test/mfcc/raw_mfcc_train.2.ark:3566946
fskl0_sx449 quick_test/mfcc/raw_mfcc_train.2.ark:137820
fkkh0_sx390 quick_test/mfcc/raw_mfcc_train.1.ark:2189893
fpad0_sx266 quick_test/mfcc/raw_mfcc_train.1.ark:3281804
msjk0_sx66 quick_test/mfcc/raw_mfcc_train.4.ark:2100572
mges0_sx41 quick_test/mfcc/raw_mfcc_train.3.ark:86380
mtab0_si1572 quick_test/mfcc/raw_mfcc_train.4.ark:2339071
mrfl0_si526 quick_test/mfcc/raw_mfcc_train.4.ark:707935
mkes0_sx353 quick_test/mfcc/raw_mfcc_train.3.ark:2100917
majp0_sx264 quick_test/mfcc/raw_mfcc_train.2.ark:862453
mdss1_sx337 quick_test/mfcc/raw_mfcc_train.2.ark:2985623
fcjs0_sx77 quick_test/mfcc/raw_mfcc_train.1.ark:589083
mdlm0_si1864 quick_test/mfcc/raw_mfcc_train.2.ark:2584965
mpgh0_si675 quick_test/mfcc/raw_mfcc_train.3.ark:3604211
mcpm0_sx384 quick_test/mfcc/raw_mfcc_train.2.ark:1798955
mgaf0_sx202 quick_test/mfcc/raw_mfcc_train.2.ark:3600368
fskp0_si1728 quick_test/mfcc/raw_mfcc_train.2.ark:151674
fcdr1_si1186 quick_test/mfcc/raw_mfcc_train.1.ark:468314
fcjf0_si1657 quick_test/mfcc/raw_mfcc_train.1.ark:541314
mjra0_sx426 quick_test/mfcc/raw_mfcc_train.3.ark:1472593
mrjb1_sx210 quick_test/mfcc/raw_mfcc_train.4.ark:863981
mmeb0_sx187 quick_test/mfcc/raw_mfcc_train.3.ark:3006887
mmpm0_sx161 quick_test/mfcc/raw_mfcc_train.3.ark:3184875
fkde0_sx241 quick_test/mfcc/raw_mfcc_train.1.ark:2072247
mmwb0_sx449 quick_test/mfcc/raw_mfcc_train.3.ark:3346116
mtlb0_sx324 quick_test/mfcc/raw_mfcc_train.4.ark:2863069
fleh0_si1051 quick_test/mfcc/raw_mfcc_train.1.ark:2392303
mmcc0_si1968 quick_test/mfcc/raw_mfcc_train.3.ark:2786748
mdma0_si1430 quick_test/mfcc/raw_mfcc_train.2.ark:2680790
fdaw0_sx326 quick_test/mfcc/raw_mfcc_train.1.ark:840727
mtrr0_sx378 quick_test/mfcc/raw_mfcc_train.4.ark:3233468
msrg0_sx51 quick_test/mfcc/raw_mfcc_train.4.ark:2228225
fvmh0_sx26 quick_test/mfcc/raw_mfcc_train.2.ark:651601
mtat0_si1110 quick_test/mfcc/raw_mfcc_train.4.ark:2402950
fcaj0_sx219 quick_test/mfcc/raw_mfcc_train.1.ark:452881
mafm0_sx219 quick_test/mfcc/raw_mfcc_train.2.ark:829440
flma0_sx433 quick_test/mfcc/raw_mfcc_train.1.ark:2649783
mprk0_sx17 quick_test/mfcc/raw_mfcc_train.4.ark:111657
fear0_sx352 quick_test/mfcc/raw_mfcc_train.1.ark:1172658
fdas1_sx291 quick_test/mfcc/raw_mfcc_train.1.ark:810710
mrsp0_sx169 quick_test/mfcc/raw_mfcc_train.4.ark:1490425
flja0_sx358 quick_test/mfcc/raw_mfcc_train.1.ark:2508954
fjsp0_si804 quick_test/mfcc/raw_mfcc_train.1.ark:1895707
mrem0_si1591 quick_test/mfcc/raw_mfcc_train.4.ark:607506
mrxb0_si1585 quick_test/mfcc/raw_mfcc_train.4.ark:1673954
msmr0_sx145 quick_test/mfcc/raw_mfcc_train.4.ark:2150929
mbom0_si1014 quick_test/mfcc/raw_mfcc_train.2.ark:1316226
mwgr0_si1606 quick_test/mfcc/raw_mfcc_train.4.ark:3614077
mkdb0_sx332 quick_test/mfcc/raw_mfcc_train.3.ark:1998788
fjkl0_sx302 quick_test/mfcc/raw_mfcc_train.1.ark:1705597
fbmh0_sx146 quick_test/mfcc/raw_mfcc_train.1.ark:357491
ftbw0_si1345 quick_test/mfcc/raw_mfcc_train.2.ark:469905
mrbc0_si1859 quick_test/mfcc/raw_mfcc_train.4.ark:349318
mmwb0_si989 quick_test/mfcc/raw_mfcc_train.3.ark:3326198
fmmh0_sx187 quick_test/mfcc/raw_mfcc_train.1.ark:3067504
fssb0_si2342 quick_test/mfcc/raw_mfcc_train.2.ark:388032
mjlg1_sx22 quick_test/mfcc/raw_mfcc_train.3.ark:1220955
fkfb0_sx438 quick_test/mfcc/raw_mfcc_train.1.ark:2147619
mdma0_si1238 quick_test/mfcc/raw_mfcc_train.2.ark:2677896
mtxs0_sx340 quick_test/mfcc/raw_mfcc_train.4.ark:3321377
mgsh0_si546 quick_test/mfcc/raw_mfcc_train.3.ark:204225
mdjm0_sx375 quick_test/mfcc/raw_mfcc_train.2.ark:2376450
mtmn0_sx254 quick_test/mfcc/raw_mfcc_train.4.ark:2962827
msat1_sx353 quick_test/mfcc/raw_mfcc_train.4.ark:1815829
fjdm2_sx232 quick_test/mfcc/raw_mfcc_train.1.ark:1598648
fkde0_si2221 quick_test/mfcc/raw_mfcc_train.1.ark:2065265
fjen0_sx327 quick_test/mfcc/raw_mfcc_train.1.ark:1636894
msfv0_sx182 quick_test/mfcc/raw_mfcc_train.4.ark:2047500
mree0_si1104 quick_test/mfcc/raw_mfcc_train.4.ark:537282
mppc0_si2042 quick_test/mfcc/raw_mfcc_train.3.ark:3749949
mdlc2_sx354 quick_test/mfcc/raw_mfcc_train.2.ark:2536039
mtrt0_si1227 quick_test/mfcc/raw_mfcc_train.4.ark:3238091
mges0_sx221 quick_test/mfcc/raw_mfcc_train.3.ark:74231
fceg0_sx78 quick_test/mfcc/raw_mfcc_train.1.ark:534512
mtat0_sx30 quick_test/mfcc/raw_mfcc_train.4.ark:2425826
mcdd0_sx163 quick_test/mfcc/raw_mfcc_train.2.ark:1551268
fdnc0_sx288 quick_test/mfcc/raw_mfcc_train.1.ark:1047609
mtlb0_si1134 quick_test/mfcc/raw_mfcc_train.4.ark:2844157
mclk0_sx400 quick_test/mfcc/raw_mfcc_train.2.ark:1740068
mhit0_sx263 quick_test/mfcc/raw_mfcc_train.3.ark:346629
mrvg0_sx240 quick_test/mfcc/raw_mfcc_train.4.ark:1598906
fjsp0_sx354 quick_test/mfcc/raw_mfcc_train.1.ark:1908013
mrds0_sx447 quick_test/mfcc/raw_mfcc_train.4.ark:531314
mtas0_sx35 quick_test/mfcc/raw_mfcc_train.4.ark:2396682
mbma0_sx52 quick_test/mfcc/raw_mfcc_train.2.ark:1248231
fhxs0_sx85 quick_test/mfcc/raw_mfcc_train.1.ark:1577329
mreh1_sx159 quick_test/mfcc/raw_mfcc_train.4.ark:586190
fdtd0_si1561 quick_test/mfcc/raw_mfcc_train.1.ark:1057309
mklr0_si2319 quick_test/mfcc/raw_mfcc_train.3.ark:2181434
fsdj0_si485 quick_test/mfcc/raw_mfcc_train.1.ark:3773070
mclk0_sx40 quick_test/mfcc/raw_mfcc_train.2.ark:1736291
mgar0_sx222 quick_test/mfcc/raw_mfcc_train.3.ark:15266
mmgc0_sx405 quick_test/mfcc/raw_mfcc_train.3.ark:3048707
mvrw0_si1485 quick_test/mfcc/raw_mfcc_train.4.ark:3398485
ftbr0_sx291 quick_test/mfcc/raw_mfcc_train.2.ark:463260
mhbs0_sx45 quick_test/mfcc/raw_mfcc_train.3.ark:325597
mdlc2_si1614 quick_test/mfcc/raw_mfcc_train.2.ark:2518375
mrjb1_sx120 quick_test/mfcc/raw_mfcc_train.4.ark:858566
mrws0_si1102 quick_test/mfcc/raw_mfcc_train.4.ark:1645687
mbef0_si1281 quick_test/mfcc/raw_mfcc_train.2.ark:1130413
fkaa0_si578 quick_test/mfcc/raw_mfcc_train.1.ark:2025492
mkdb0_sx62 quick_test/mfcc/raw_mfcc_train.3.ark:2008057
fmkf0_sx366 quick_test/mfcc/raw_mfcc_train.1.ark:3040761
mlel0_si1876 quick_test/mfcc/raw_mfcc_train.3.ark:2399461
mkxl0_si1815 quick_test/mfcc/raw_mfcc_train.3.ark:2335919
mpgh0_sx114 quick_test/mfcc/raw_mfcc_train.3.ark:3612909
mfmc0_sx52 quick_test/mfcc/raw_mfcc_train.2.ark:3455085
fgmb0_si1145 quick_test/mfcc/raw_mfcc_train.1.ark:1432507
fpab1_si841 quick_test/mfcc/raw_mfcc_train.1.ark:3200816
fsdj0_sx35 quick_test/mfcc/raw_mfcc_train.1.ark:3785629
mgrp0_si1947 quick_test/mfcc/raw_mfcc_train.3.ark:163562
mjpg0_sx21 quick_test/mfcc/raw_mfcc_train.3.ark:1373653
mdac0_sx91 quick_test/mfcc/raw_mfcc_train.2.ark:1992788
fscn0_sx356 quick_test/mfcc/raw_mfcc_train.1.ark:3721106
mdlr1_si669 quick_test/mfcc/raw_mfcc_train.2.ark:2651399
mabc0_sx61 quick_test/mfcc/raw_mfcc_train.2.ark:684185
mcss0_sx210 quick_test/mfcc/raw_mfcc_train.2.ark:1853986
mtat1_sx149 quick_test/mfcc/raw_mfcc_train.4.ark:2447567
mrgs0_si726 quick_test/mfcc/raw_mfcc_train.4.ark:783111
mfxs0_si1674 quick_test/mfcc/raw_mfcc_train.2.ark:3521768
mdbp0_si1788 quick_test/mfcc/raw_mfcc_train.2.ark:2058046
mzmb0_sx266 quick_test/mfcc/raw_mfcc_train.4.ark:3794465
mmgc0_sx225 quick_test/mfcc/raw_mfcc_train.3.ark:3041907
mter0_sx17 quick_test/mfcc/raw_mfcc_train.4.ark:2626648
mgsh0_sx127 quick_test/mfcc/raw_mfcc_train.3.ark:209783
mdns0_si873 quick_test/mfcc/raw_mfcc_train.2.ark:2755311
mjpm0_sx198 quick_test/mfcc/raw_mfcc_train.3.ark:1403038
mbth0_sx122 quick_test/mfcc/raw_mfcc_train.2.ark:1381803
mkls1_sx195 quick_test/mfcc/raw_mfcc_train.3.ark:2257905
mrml0_si791 quick_test/mfcc/raw_mfcc_train.4.ark:1310107
fkdw0_sx307 quick_test/mfcc/raw_mfcc_train.1.ark:2111051
mpfu0_sx448 quick_test/mfcc/raw_mfcc_train.3.ark:3589487
mtpp0_sx248 quick_test/mfcc/raw_mfcc_train.4.ark:3083006
mnet0_si816 quick_test/mfcc/raw_mfcc_train.3.ark:3452095
fkaa0_sx38 quick_test/mfcc/raw_mfcc_train.1.ark:2042874
mejl0_sx62 quick_test/mfcc/raw_mfcc_train.2.ark:3273967
mtjm0_sx56 quick_test/mfcc/raw_mfcc_train.4.ark:2702182
mcef0_sx325 quick_test/mfcc/raw_mfcc_train.2.ark:1625730
mbom0_sx204 quick_test/mfcc/raw_mfcc_train.2.ark:1330322
mkrg0_si2121 quick_test/mfcc/raw_mfcc_train.3.ark:2307198
mtlc0_sx397 quick_test/mfcc/raw_mfcc_train.4.ark:2902815
marw0_sx286 quick_test/mfcc/raw_mfcc_train.2.ark:1021553
fsrh0_si1931 quick_test/mfcc/raw_mfcc_train.2.ark:348161
fkkh0_si1920 quick_test/mfcc/raw_mfcc_train.1.ark:2165360
mpsw0_sx437 quick_test/mfcc/raw_mfcc_train.4.ark:177110
fdjh0_si935 quick_test/mfcc/raw_mfcc_train.1.ark:887465
mdbp0_si1158 quick_test/mfcc/raw_mfcc_train.2.ark:2055594
fksr0_si1117 quick_test/mfcc/raw_mfcc_train.1.ark:2292799
mjhi0_sx248 quick_test/mfcc/raw_mfcc_train.3.ark:1020990
mpmb0_sx421 quick_test/mfcc/raw_mfcc_train.3.ark:3729140
fmpg0_si2232 quick_test/mfcc/raw_mfcc_train.1.ark:3090438
mtml0_si1695 quick_test/mfcc/raw_mfcc_train.4.ark:2910332
msah1_sx329 quick_test/mfcc/raw_mfcc_train.4.ark:1723266
mwar0_sx235 quick_test/mfcc/raw_mfcc_train.4.ark:3505885
mjmd0_sx38 quick_test/mfcc/raw_mfcc_train.3.ark:1316333
msrg0_sx141 quick_test/mfcc/raw_mfcc_train.4.ark:2213846
fnkl0_si2152 quick_test/mfcc/raw_mfcc_train.1.ark:3130925
mtml0_si1065 quick_test/mfcc/raw_mfcc_train.4.ark:2906190
fbas0_sx307 quick_test/mfcc/raw_mfcc_train.1.ark:196878
mgak0_si2296 quick_test/mfcc/raw_mfcc_train.2.ark:3651883
mpar0_sx46 quick_test/mfcc/raw_mfcc_train.3.ark:3533245
mjmd0_si1658 quick_test/mfcc/raw_mfcc_train.3.ark:1299086
mprk0_sx107 quick_test/mfcc/raw_mfcc_train.4.ark:107608
mdhl0_sx449 quick_test/mfcc/raw_mfcc_train.2.ark:2311382
mmam0_sx157 quick_test/mfcc/raw_mfcc_train.3.ark:2686569
mhrm0_si2218 quick_test/mfcc/raw_mfcc_train.3.ark:452800
mdmt0_sx122 quick_test/mfcc/raw_mfcc_train.2.ark:2725413
mrab1_sx128 quick_test/mfcc/raw_mfcc_train.4.ark:230113
fetb0_si1148 quick_test/mfcc/raw_mfcc_train.1.ark:1294738
megj0_sx257 quick_test/mfcc/raw_mfcc_train.2.ark:3234450
fceg0_sx168 quick_test/mfcc/raw_mfcc_train.1.ark:519704
msat1_sx83 quick_test/mfcc/raw_mfcc_train.4.ark:1823447
mmxs0_sx246 quick_test/mfcc/raw_mfcc_train.3.ark:3428496
mrmb0_sx231 quick_test/mfcc/raw_mfcc_train.4.ark:1223511
flag0_si2094 quick_test/mfcc/raw_mfcc_train.1.ark:2361912
fpls0_si1590 quick_test/mfcc/raw_mfcc_train.1.ark:3396456
mcth0_sx309 quick_test/mfcc/raw_mfcc_train.2.ark:1887161
mjdc0_sx351 quick_test/mfcc/raw_mfcc_train.3.ark:724098
fcag0_si2133 quick_test/mfcc/raw_mfcc_train.1.ark:415851
mkrg0_sx141 quick_test/mfcc/raw_mfcc_train.3.ark:2317781
mkrg0_si1491 quick_test/mfcc/raw_mfcc_train.3.ark:2302042
mmgg0_sx89 quick_test/mfcc/raw_mfcc_train.3.ark:3084573
mjac0_si701 quick_test/mfcc/raw_mfcc_train.3.ark:550422
fjsp0_sx444 quick_test/mfcc/raw_mfcc_train.1.ark:1911686
mdss0_sx81 quick_test/mfcc/raw_mfcc_train.2.ark:2963674
mdmt0_sx392 quick_test/mfcc/raw_mfcc_train.2.ark:2741781
mjra0_sx336 quick_test/mfcc/raw_mfcc_train.3.ark:1467087
mbml0_sx89 quick_test/mfcc/raw_mfcc_train.2.ark:1312747
mklw0_sx221 quick_test/mfcc/raw_mfcc_train.3.ark:2283177
flja0_sx448 quick_test/mfcc/raw_mfcc_train.1.ark:2512913
mrso0_sx309 quick_test/mfcc/raw_mfcc_train.4.ark:1461977
fbmh0_sx326 quick_test/mfcc/raw_mfcc_train.1.ark:363927
mrso0_sx129 quick_test/mfcc/raw_mfcc_train.4.ark:1452447
mgxp0_sx187 quick_test/mfcc/raw_mfcc_train.3.ark:280405
mjac0_sx307 quick_test/mfcc/raw_mfcc_train.3.ark:561902
mtwh1_si1512 quick_test/mfcc/raw_mfcc_train.4.ark:3269088
mmdb0_si1617 quick_test/mfcc/raw_mfcc_train.3.ark:2817615
fsjg0_si2200 quick_test/mfcc/raw_mfcc_train.1.ark:3829168
mjdg0_si1672 quick_test/mfcc/raw_mfcc_train.3.ark:780941
mrdm0_sx335 quick_test/mfcc/raw_mfcc_train.4.ark:497125
mbma0_sx232 quick_test/mfcc/raw_mfcc_train.2.ark:1236329
mtab0_sx132 quick_test/mfcc/raw_mfcc_train.4.ark:2354485
mrjm1_sx218 quick_test/mfcc/raw_mfcc_train.4.ark:966917
mrmb0_si1581 quick_test/mfcc/raw_mfcc_train.4.ark:1207011
mjrk0_si2103 quick_test/mfcc/raw_mfcc_train.3.ark:1579595
mbth0_sx302 quick_test/mfcc/raw_mfcc_train.2.ark:1391138
mdef0_sx393 quick_test/mfcc/raw_mfcc_train.2.ark:2245287
mchl0_sx357 quick_test/mfcc/raw_mfcc_train.2.ark:1699022
mppc0_sx242 quick_test/mfcc/raw_mfcc_train.4.ark:12
flag0_sx114 quick_test/mfcc/raw_mfcc_train.1.ark:2371000
msdb0_sx287 quick_test/mfcc/raw_mfcc_train.4.ark:1844701
mdhl0_si1439 quick_test/mfcc/raw_mfcc_train.2.ark:2287653
msah1_sx149 quick_test/mfcc/raw_mfcc_train.4.ark:1715621
ftbr0_sx111 quick_test/mfcc/raw_mfcc_train.2.ark:452957
mkls0_sx357 quick_test/mfcc/raw_mfcc_train.3.ark:2225089
mtrc0_sx170 quick_test/mfcc/raw_mfcc_train.4.ark:3188963
mrkm0_si1391 quick_test/mfcc/raw_mfcc_train.4.ark:1023456
fjxm0_sx221 quick_test/mfcc/raw_mfcc_train.1.ark:1965839
mvrw0_sx405 quick_test/mfcc/raw_mfcc_train.4.ark:3418652
mhbs0_si945 quick_test/mfcc/raw_mfcc_train.3.ark:306960
mrjm1_sx398 quick_test/mfcc/raw_mfcc_train.4.ark:979443
fntb0_si679 quick_test/mfcc/raw_mfcc_train.1.ark:3166114
fjlg0_sx269 quick_test/mfcc/raw_mfcc_train.1.ark:1731726
mjlg1_si1012 quick_test/mfcc/raw_mfcc_train.3.ark:1202043
fklc0_si1615 quick_test/mfcc/raw_mfcc_train.1.ark:2194061
fjlg0_sx89 quick_test/mfcc/raw_mfcc_train.1.ark:1744889
mdsj0_si1462 quick_test/mfcc/raw_mfcc_train.2.ark:2907525
fear0_sx82 quick_test/mfcc/raw_mfcc_train.1.ark:1183526
mgxp0_sx97 quick_test/mfcc/raw_mfcc_train.3.ark:295731
mdss0_si2087 quick_test/mfcc/raw_mfcc_train.2.ark:2943223
mtkd0_si1817 quick_test/mfcc/raw_mfcc_train.4.ark:2778219
mjjm0_sx107 quick_test/mfcc/raw_mfcc_train.3.ark:1121723
mrmg0_si1710 quick_test/mfcc/raw_mfcc_train.4.ark:1241721
mpeb0_sx420 quick_test/mfcc/raw_mfcc_train.3.ark:3556280
mrfk0_sx266 quick_test/mfcc/raw_mfcc_train.4.ark:685714
mdwd0_si557 quick_test/mfcc/raw_mfcc_train.2.ark:3034246
flet0_si1137 quick_test/mfcc/raw_mfcc_train.1.ark:2424913
fjwb1_si2055 quick_test/mfcc/raw_mfcc_train.1.ark:1920163
fdaw0_sx56 quick_test/mfcc/raw_mfcc_train.1.ark:848072
fvmh0_si2096 quick_test/mfcc/raw_mfcc_train.2.ark:635480
mrbc0_sx59 quick_test/mfcc/raw_mfcc_train.4.ark:374592
mrem0_sx421 quick_test/mfcc/raw_mfcc_train.4.ark:631897
fpaf0_si1684 quick_test/mfcc/raw_mfcc_train.1.ark:3305006
mjlg1_sx382 quick_test/mfcc/raw_mfcc_train.3.ark:1228054
mjpg0_sx381 quick_test/mfcc/raw_mfcc_train.3.ark:1379088
falk0_sx276 quick_test/mfcc/raw_mfcc_train.1.ark:85784
fjkl0_si1562 quick_test/mfcc/raw_mfcc_train.1.ark:1685801
mjjb0_sx239 quick_test/mfcc/raw_mfcc_train.3.ark:1053132
mcss0_si1380 quick_test/mfcc/raw_mfcc_train.2.ark:1833405
mgag0_si1321 quick_test/mfcc/raw_mfcc_train.2.ark:3612447
fsjk1_sx395 quick_test/mfcc/raw_mfcc_train.2.ark:10510
mrab0_sx54 quick_test/mfcc/raw_mfcc_train.4.ark:212845
mjpm1_sx401 quick_test/mfcc/raw_mfcc_train.3.ark:1439113
fetb0_sx248 quick_test/mfcc/raw_mfcc_train.1.ark:1310549
fskc0_si786 quick_test/mfcc/raw_mfcc_train.2.ark:91793
fsag0_sx333 quick_test/mfcc/raw_mfcc_train.1.ark:3575759
msrr0_sx141 quick_test/mfcc/raw_mfcc_train.4.ark:2246403
mdem0_si1868 quick_test/mfcc/raw_mfcc_train.2.ark:2248051
flac0_si1339 quick_test/mfcc/raw_mfcc_train.1.ark:2324979
mtjs0_sx22 quick_test/mfcc/raw_mfcc_train.4.ark:2730591
mabc0_sx331 quick_test/mfcc/raw_mfcc_train.2.ark:677685
mpgr1_si2129 quick_test/mfcc/raw_mfcc_train.3.ark:3665056
mtat0_sx390 quick_test/mfcc/raw_mfcc_train.4.ark:2431313
mtcs0_si2265 quick_test/mfcc/raw_mfcc_train.4.ark:2506310
mrab0_sx144 quick_test/mfcc/raw_mfcc_train.4.ark:196308
mcre0_sx41 quick_test/mfcc/raw_mfcc_train.2.ark:1828769
fbas0_si1472 quick_test/mfcc/raw_mfcc_train.1.ark:177011
flod0_sx171 quick_test/mfcc/raw_mfcc_train.1.ark:2736963
fksr0_sx366 quick_test/mfcc/raw_mfcc_train.1.ark:2312413
mrlj0_sx250 quick_test/mfcc/raw_mfcc_train.4.ark:1102954
mrjm0_sx418 quick_test/mfcc/raw_mfcc_train.4.ark:941277
mdtb0_si570 quick_test/mfcc/raw_mfcc_train.2.ark:3001389
mtjm0_sx416 quick_test/mfcc/raw_mfcc_train.4.ark:2698705
mprd0_sx261 quick_test/mfcc/raw_mfcc_train.4.ark:74928
mdlc1_sx85 quick_test/mfcc/raw_mfcc_train.2.ark:2515403
mkln0_sx248 quick_test/mfcc/raw_mfcc_train.3.ark:2157756
mcdc0_sx212 quick_test/mfcc/raw_mfcc_train.2.ark:1524828
mdwm0_sx106 quick_test/mfcc/raw_mfcc_train.2.ark:3105035
mhxl0_sx242 quick_test/mfcc/raw_mfcc_train.3.ark:496752
fcag0_sx243 quick_test/mfcc/raw_mfcc_train.1.ark:423002
mmcc0_sx438 quick_test/mfcc/raw_mfcc_train.3.ark:2804671
mprt0_sx130 quick_test/mfcc/raw_mfcc_train.4.ark:140944
fblv0_sx248 quick_test/mfcc/raw_mfcc_train.1.ark:326566
mtxs0_sx430 quick_test/mfcc/raw_mfcc_train.4.ark:3325479
mfwk0_sx259 quick_test/mfcc/raw_mfcc_train.2.ark:3504307
mclm0_sx286 quick_test/mfcc/raw_mfcc_train.2.ark:1764181
msas0_si746 quick_test/mfcc/raw_mfcc_train.4.ark:1745415
fscn0_si705 quick_test/mfcc/raw_mfcc_train.1.ark:3703041
mmag0_si496 quick_test/mfcc/raw_mfcc_train.3.ark:2649662
mljc0_sx55 quick_test/mfcc/raw_mfcc_train.3.ark:2460750
fmkc0_si1702 quick_test/mfcc/raw_mfcc_train.1.ark:2995157
mapv0_si1293 quick_test/mfcc/raw_mfcc_train.2.ark:942819
mrgm0_si1162 quick_test/mfcc/raw_mfcc_train.4.ark:735225
mkjo0_si1517 quick_test/mfcc/raw_mfcc_train.3.ark:2113054
mjra0_si606 quick_test/mfcc/raw_mfcc_train.3.ark:1456315
flod0_sx207 quick_test/mfcc/raw_mfcc_train.1.ark:2742027
fmjf0_sx264 quick_test/mfcc/raw_mfcc_train.1.ark:2935152
mjde0_si463 quick_test/mfcc/raw_mfcc_train.3.ark:742196
mwem0_si1950 quick_test/mfcc/raw_mfcc_train.4.ark:3587398
fbcg1_sx172 quick_test/mfcc/raw_mfcc_train.1.ark:217292
fpab1_sx121 quick_test/mfcc/raw_mfcc_train.1.ark:3207271
mmab1_sx54 quick_test/mfcc/raw_mfcc_train.3.ark:2634520
mjma0_sx325 quick_test/mfcc/raw_mfcc_train.3.ark:1286382
mdhs0_sx180 quick_test/mfcc/raw_mfcc_train.2.ark:2332166
faem0_sx132 quick_test/mfcc/raw_mfcc_train.1.ark:13048
mrew1_si2130 quick_test/mfcc/raw_mfcc_train.4.ark:643242
mjkr0_si571 quick_test/mfcc/raw_mfcc_train.3.ark:1148319
mjls0_sx16 quick_test/mfcc/raw_mfcc_train.3.ark:1250632
fkaa0_sx218 quick_test/mfcc/raw_mfcc_train.1.ark:2033644
mrdd0_sx60 quick_test/mfcc/raw_mfcc_train.4.ark:472199
fsmm0_sx324 quick_test/mfcc/raw_mfcc_train.2.ark:263297
mdlc0_sx405 quick_test/mfcc/raw_mfcc_train.2.ark:2478887
mdps0_si1651 quick_test/mfcc/raw_mfcc_train.2.ark:2841371
msfh0_si586 quick_test/mfcc/raw_mfcc_train.4.ark:2005238
fcjf0_sx307 quick_test/mfcc/raw_mfcc_train.1.ark:554407
fdjh0_sx305 quick_test/mfcc/raw_mfcc_train.1.ark:900018
msds0_sx177 quick_test/mfcc/raw_mfcc_train.4.ark:1900397
mjdg0_si1042 quick_test/mfcc/raw_mfcc_train.3.ark:777215
mpsw0_sx77 quick_test/mfcc/raw_mfcc_train.4.ark:181211
msms0_sx173 quick_test/mfcc/raw_mfcc_train.4.ark:2182472
mtdp0_sx441 quick_test/mfcc/raw_mfcc_train.4.ark:2598903
mrjm1_sx308 quick_test/mfcc/raw_mfcc_train.4.ark:970941
mpmb0_si2131 quick_test/mfcc/raw_mfcc_train.3.ark:3697684
mvlo0_sx337 quick_test/mfcc/raw_mfcc_train.4.ark:3386257
mzmb0_sx446 quick_test/mfcc/raw_mfcc_train.4.ark:3802331
fjkl0_si2192 quick_test/mfcc/raw_mfcc_train.1.ark:1687525
mtmn0_si582 quick_test/mfcc/raw_mfcc_train.4.ark:2951087
fmkf0_sx6 quick_test/mfcc/raw_mfcc_train.1.ark:3045823
mhxl0_sx422 quick_test/mfcc/raw_mfcc_train.3.ark:505567
fsjs0_sx451 quick_test/mfcc/raw_mfcc_train.2.ark:39798
mtas0_si755 quick_test/mfcc/raw_mfcc_train.4.ark:2384318
flet0_sx147 quick_test/mfcc/raw_mfcc_train.1.ark:2439625
mtpr0_sx70 quick_test/mfcc/raw_mfcc_train.4.ark:3132262
mtmt0_sx38 quick_test/mfcc/raw_mfcc_train.4.ark:2999973
maeo0_sx246 quick_test/mfcc/raw_mfcc_train.2.ark:801264
mdmt0_sx302 quick_test/mfcc/raw_mfcc_train.2.ark:2734488
mmgg0_sx449 quick_test/mfcc/raw_mfcc_train.3.ark:3078899
fdfb0_sx148 quick_test/mfcc/raw_mfcc_train.1.ark:862234
mtpg0_sx33 quick_test/mfcc/raw_mfcc_train.4.ark:3061356
mmcc0_si708 quick_test/mfcc/raw_mfcc_train.3.ark:2789797
falk0_sx186 quick_test/mfcc/raw_mfcc_train.1.ark:82540
mrre0_sx434 quick_test/mfcc/raw_mfcc_train.4.ark:1427931
mtkd0_sx287 quick_test/mfcc/raw_mfcc_train.4.ark:2800665
mjrh0_sx405 quick_test/mfcc/raw_mfcc_train.3.ark:1537877
fkkh0_sx120 quick_test/mfcc/raw_mfcc_train.1.ark:2175787
mbml0_si1169 quick_test/mfcc/raw_mfcc_train.2.ark:1286893
mkah0_sx178 quick_test/mfcc/raw_mfcc_train.3.ark:1895227
msfv0_sx362 quick_test/mfcc/raw_mfcc_train.4.ark:2054794
mwgr0_sx346 quick_test/mfcc/raw_mfcc_train.4.ark:3634146
mprk0_si1097 quick_test/mfcc/raw_mfcc_train.4.ark:90478
fkaa0_si1208 quick_test/mfcc/raw_mfcc_train.1.ark:2017443
mhbs0_sx315 quick_test/mfcc/raw_mfcc_train.3.ark:318993
mjrg0_si1366 quick_test/mfcc/raw_mfcc_train.3.ark:1480160
mgjc0_sx75 quick_test/mfcc/raw_mfcc_train.3.ark:122747
mtju0_sx40 quick_test/mfcc/raw_mfcc_train.4.ark:2767133
mrkm0_si637 quick_test/mfcc/raw_mfcc_train.4.ark:1030184
mabc0_si781 quick_test/mfcc/raw_mfcc_train.2.ark:665964
fhxs0_sx175 quick_test/mfcc/raw_mfcc_train.1.ark:1560363
mmvp0_si1914 quick_test/mfcc/raw_mfcc_train.3.ark:3279255
mgrp0_si1317 quick_test/mfcc/raw_mfcc_train.3.ark:157847
mkaj0_sx334 quick_test/mfcc/raw_mfcc_train.3.ark:1935689
fkaa0_sx128 quick_test/mfcc/raw_mfcc_train.1.ark:2030257
fcjf0_sx217 quick_test/mfcc/raw_mfcc_train.1.ark:552047
mjpm0_si1998 quick_test/mfcc/raw_mfcc_train.3.ark:1387736
msrg0_sx411 quick_test/mfcc/raw_mfcc_train.4.ark:2224319
mmaa0_sx35 quick_test/mfcc/raw_mfcc_train.3.ark:2597601
fdxw0_sx161 quick_test/mfcc/raw_mfcc_train.1.ark:1102330
mwsh0_si796 quick_test/mfcc/raw_mfcc_train.4.ark:3747789
mrjm0_si1228 quick_test/mfcc/raw_mfcc_train.4.ark:920233
mpgr1_sx239 quick_test/mfcc/raw_mfcc_train.3.ark:3673494
mgag0_sx151 quick_test/mfcc/raw_mfcc_train.2.ark:3625364
mvlo0_sx67 quick_test/mfcc/raw_mfcc_train.4.ark:3393355
mcth0_sx399 quick_test/mfcc/raw_mfcc_train.2.ark:1895416
msrg0_si591 quick_test/mfcc/raw_mfcc_train.4.ark:2208548
mkdd0_sx217 quick_test/mfcc/raw_mfcc_train.3.ark:2031247
mrlj0_sx70 quick_test/mfcc/raw_mfcc_train.4.ark:1114115
fsms1_si2134 quick_test/mfcc/raw_mfcc_train.2.ark:282176
mvjh0_si926 quick_test/mfcc/raw_mfcc_train.4.ark:3345450
mejs0_sx430 quick_test/mfcc/raw_mfcc_train.2.ark:3302735
mjee0_si1867 quick_test/mfcc/raw_mfcc_train.3.ark:914875
fnkl0_sx172 quick_test/mfcc/raw_mfcc_train.1.ark:3140585
mprk0_si467 quick_test/mfcc/raw_mfcc_train.4.ark:102011
mbgt0_si711 quick_test/mfcc/raw_mfcc_train.2.ark:1165442
mges0_sx401 quick_test/mfcc/raw_mfcc_train.3.ark:83176
fcaj0_sx309 quick_test/mfcc/raw_mfcc_train.1.ark:457191
maeo0_sx66 quick_test/mfcc/raw_mfcc_train.2.ark:813842
mhmr0_sx129 quick_test/mfcc/raw_mfcc_train.3.ark:430696
feme0_sx245 quick_test/mfcc/raw_mfcc_train.1.ark:1277511
mdpk0_sx63 quick_test/mfcc/raw_mfcc_train.2.ark:2838178
mgaw0_si1165 quick_test/mfcc/raw_mfcc_train.3.ark:32441
fsah0_sx327 quick_test/mfcc/raw_mfcc_train.1.ark:3611208
faem0_sx42 quick_test/mfcc/raw_mfcc_train.1.ark:29767
mjfh0_si477 quick_test/mfcc/raw_mfcc_train.3.ark:949623
mtrc0_si589 quick_test/mfcc/raw_mfcc_train.4.ark:3180837
fklh0_si627 quick_test/mfcc/raw_mfcc_train.1.ark:2269734
fjlg0_si2306 quick_test/mfcc/raw_mfcc_train.1.ark:1725030
mmab1_si864 quick_test/mfcc/raw_mfcc_train.3.ark:2610267
fvmh0_sx206 quick_test/mfcc/raw_mfcc_train.2.ark:647591
fsmm0_si1314 quick_test/mfcc/raw_mfcc_train.2.ark:243449
mcdc0_sx122 quick_test/mfcc/raw_mfcc_train.2.ark:1520466
mwem0_si1320 quick_test/mfcc/raw_mfcc_train.4.ark:3579855
mdrd0_si752 quick_test/mfcc/raw_mfcc_train.2.ark:2877973
mmab1_sx234 quick_test/mfcc/raw_mfcc_train.3.ark:2620629
mjeb0_sx386 quick_test/mfcc/raw_mfcc_train.3.ark:872409
mrmh0_sx211 quick_test/mfcc/raw_mfcc_train.4.ark:1287639
fgcs0_sx316 quick_test/mfcc/raw_mfcc_train.1.ark:1384316
fcaj0_si1804 quick_test/mfcc/raw_mfcc_train.1.ark:441914
ftaj0_sx429 quick_test/mfcc/raw_mfcc_train.2.ark:431783
fkdw0_sx37 quick_test/mfcc/raw_mfcc_train.1.ark:2113618
frll0_sx164 quick_test/mfcc/raw_mfcc_train.1.ark:3536935
ftlg0_sx213 quick_test/mfcc/raw_mfcc_train.2.ark:522497
msah1_si1679 quick_test/mfcc/raw_mfcc_train.4.ark:1710263
fbcg1_si2242 quick_test/mfcc/raw_mfcc_train.1.ark:209179
mdps0_sx89 quick_test/mfcc/raw_mfcc_train.2.ark:2867641
fsbk0_sx169 quick_test/mfcc/raw_mfcc_train.1.ark:3669712
msmr0_si775 quick_test/mfcc/raw_mfcc_train.4.ark:2147490
mpgh0_si924 quick_test/mfcc/raw_mfcc_train.3.ark:3609665
mdlh0_sx340 quick_test/mfcc/raw_mfcc_train.2.ark:2569206
mjrk0_sx160 quick_test/mfcc/raw_mfcc_train.3.ark:1587617
fclt0_sx88 quick_test/mfcc/raw_mfcc_train.1.ark:649114
mrxb0_sx325 quick_test/mfcc/raw_mfcc_train.4.ark:1695830
makr0_sx362 quick_test/mfcc/raw_mfcc_train.2.ark:932723
mjde0_si1120 quick_test/mfcc/raw_mfcc_train.3.ark:733960
msmc0_sx377 quick_test/mfcc/raw_mfcc_train.4.ark:2132803
fclt0_sx358 quick_test/mfcc/raw_mfcc_train.1.ark:642276
flhd0_si1974 quick_test/mfcc/raw_mfcc_train.1.ark:2461945
mgaw0_sx85 quick_test/mfcc/raw_mfcc_train.3.ark:60258
mjls0_sx286 quick_test/mfcc/raw_mfcc_train.3.ark:1256327
mkdd0_si2197 quick_test/mfcc/raw_mfcc_train.3.ark:2017303
mlsh0_si787 quick_test/mfcc/raw_mfcc_train.3.ark:2545478
msah1_sx239 quick_test/mfcc/raw_mfcc_train.4.ark:1719840
fceg0_si618 quick_test/mfcc/raw_mfcc_train.1.ark:516395
mmsm0_sx386 quick_test/mfcc/raw_mfcc_train.3.ark:3271491
mhit0_si1613 quick_test/mfcc/raw_mfcc_train.3.ark:328868
mmsm0_si1106 quick_test/mfcc/raw_mfcc_train.3.ark:3241724
fmkf0_sx96 quick_test/mfcc/raw_mfcc_train.1.ark:3049092
fexm0_si482 quick_test/mfcc/raw_mfcc_train.1.ark:1335409
mrlk0_sx213 quick_test/mfcc/raw_mfcc_train.4.ark:1164143
mprk0_sx377 quick_test/mfcc/raw_mfcc_train.4.ark:125003
mdas0_sx6 quick_test/mfcc/raw_mfcc_train.2.ark:2018485
mhit0_sx173 quick_test/mfcc/raw_mfcc_train.3.ark:341838
mjwt0_si751 quick_test/mfcc/raw_mfcc_train.3.ark:1761808
msdb0_si1637 quick_test/mfcc/raw_mfcc_train.4.ark:1832134
mtqc0_si1441 quick_test/mfcc/raw_mfcc_train.4.ark:3133752
mrdm0_si1595 quick_test/mfcc/raw_mfcc_train.4.ark:482212
fgrw0_sx342 quick_test/mfcc/raw_mfcc_train.1.ark:1494377
fkdw0_sx217 quick_test/mfcc/raw_mfcc_train.1.ark:2108535
flja0_si2338 quick_test/mfcc/raw_mfcc_train.1.ark:2496245
medr0_sx114 quick_test/mfcc/raw_mfcc_train.2.ark:3163559
mrdd0_sx330 quick_test/mfcc/raw_mfcc_train.4.ark:467981
mklr0_sx249 quick_test/mfcc/raw_mfcc_train.3.ark:2187714
feme0_sx425 quick_test/mfcc/raw_mfcc_train.1.ark:1287535
mtpg0_sx123 quick_test/mfcc/raw_mfcc_train.4.ark:3051248
mrsp0_sx259 quick_test/mfcc/raw_mfcc_train.4.ark:1497316
mrtj0_sx52 quick_test/mfcc/raw_mfcc_train.4.ark:1580708
fcjs0_si1607 quick_test/mfcc/raw_mfcc_train.1.ark:562761
mtdp0_si1521 quick_test/mfcc/raw_mfcc_train.4.ark:2571411
mkdt0_sx83 quick_test/mfcc/raw_mfcc_train.3.ark:2074223
fdkn0_sx181 quick_test/mfcc/raw_mfcc_train.1.ark:924216
mpmb0_sx61 quick_test/mfcc/raw_mfcc_train.3.ark:3736985
mkls0_sx267 quick_test/mfcc/raw_mfcc_train.3.ark:2220090
fsls0_si1686 quick_test/mfcc/raw_mfcc_train.2.ark:180188
fjlg0_sx179 quick_test/mfcc/raw_mfcc_train.1.ark:1727494
mddc0_sx429 quick_test/mfcc/raw_mfcc_train.2.ark:2176643
mpsw0_sx257 quick_test/mfcc/raw_mfcc_train.4.ark:174347
mlns0_sx57 quick_test/mfcc/raw_mfcc_train.3.ark:2532936
mbth0_sx32 quick_test/mfcc/raw_mfcc_train.2.ark:1394940
mrpc1_sx402 quick_test/mfcc/raw_mfcc_train.4.ark:1391904
fjlr0_sx151 quick_test/mfcc/raw_mfcc_train.1.ark:1760467
milb0_si2163 quick_test/mfcc/raw_mfcc_train.3.ark:514590
fpls0_sx3 quick_test/mfcc/raw_mfcc_train.1.ark:3416393
mmgg0_sx179 quick_test/mfcc/raw_mfcc_train.3.ark:3067477
fvfb0_sx402 quick_test/mfcc/raw_mfcc_train.2.ark:591045
mmws1_si1701 quick_test/mfcc/raw_mfcc_train.3.ark:3392162
mtkp0_sx393 quick_test/mfcc/raw_mfcc_train.4.ark:2840886
mrjm1_si1298 quick_test/mfcc/raw_mfcc_train.4.ark:950846
mjee0_sx427 quick_test/mfcc/raw_mfcc_train.3.ark:933864
fjkl0_sx392 quick_test/mfcc/raw_mfcc_train.1.ark:1712487
fhxs0_si2335 quick_test/mfcc/raw_mfcc_train.1.ark:1556820
mdlb0_sx406 quick_test/mfcc/raw_mfcc_train.2.ark:2442768
msmc0_si509 quick_test/mfcc/raw_mfcc_train.4.ark:2107451
mdpb0_sx326 quick_test/mfcc/raw_mfcc_train.2.ark:2801591
mntw0_si1068 quick_test/mfcc/raw_mfcc_train.3.ark:3473039
fcke0_si1741 quick_test/mfcc/raw_mfcc_train.1.ark:594650
mhbs0_sx225 quick_test/mfcc/raw_mfcc_train.3.ark:316438
mrjt0_sx328 quick_test/mfcc/raw_mfcc_train.4.ark:1002835
mmds0_si1973 quick_test/mfcc/raw_mfcc_train.3.ark:2946998
mapv0_sx303 quick_test/mfcc/raw_mfcc_train.2.ark:967971
mkln0_sx338 quick_test/mfcc/raw_mfcc_train.3.ark:2160818
fsah0_sx74 quick_test/mfcc/raw_mfcc_train.1.ark:3624137
fdxw0_si1511 quick_test/mfcc/raw_mfcc_train.1.ark:1092649
mjxl0_si1172 quick_test/mfcc/raw_mfcc_train.3.ark:1815961
mdps0_sx269 quick_test/mfcc/raw_mfcc_train.2.ark:2855804
mdas0_si1266 quick_test/mfcc/raw_mfcc_train.2.ark:1995903
mjls0_sx196 quick_test/mfcc/raw_mfcc_train.3.ark:1253824
mrld0_sx64 quick_test/mfcc/raw_mfcc_train.4.ark:1083417
mses0_sx149 quick_test/mfcc/raw_mfcc_train.4.ark:1975977
fcyl0_sx127 quick_test/mfcc/raw_mfcc_train.1.ark:764847
fcjf0_sx37 quick_test/mfcc/raw_mfcc_train.1.ark:556402
mtml0_sx75 quick_test/mfcc/raw_mfcc_train.4.ark:2936985
fmah1_sx159 quick_test/mfcc/raw_mfcc_train.1.ark:2797483
mkln0_si2228 quick_test/mfcc/raw_mfcc_train.3.ark:2146750
mjrh1_si514 quick_test/mfcc/raw_mfcc_train.3.ark:1555170
mjjb0_si1139 quick_test/mfcc/raw_mfcc_train.3.ark:1036449
mkaj0_sx424 quick_test/mfcc/raw_mfcc_train.3.ark:1938400
fcrz0_sx253 quick_test/mfcc/raw_mfcc_train.1.ark:735573
mclk0_sx310 quick_test/mfcc/raw_mfcc_train.2.ark:1733178
mpgh0_sx384 quick_test/mfcc/raw_mfcc_train.3.ark:3624298
fksr0_si487 quick_test/mfcc/raw_mfcc_train.1.ark:2300705
fbjl0_sx22 quick_test/mfcc/raw_mfcc_train.1.ark:294469
mbar0_sx419 quick_test/mfcc/raw_mfcc_train.2.ark:1063218
msjk0_si1596 quick_test/mfcc/raw_mfcc_train.4.ark:2069427
mreh1_sx249 quick_test/mfcc/raw_mfcc_train.4.ark:590916
frjb0_si1427 quick_test/mfcc/raw_mfcc_train.1.ark:3492981
ftbw0_si1975 quick_test/mfcc/raw_mfcc_train.2.ark:472968
mwrp0_si1525 quick_test/mfcc/raw_mfcc_train.4.ark:3683932
msdh0_si980 quick_test/mfcc/raw_mfcc_train.4.ark:1854338
mtrc0_si993 quick_test/mfcc/raw_mfcc_train.4.ark:3186278
fdjh0_si1565 quick_test/mfcc/raw_mfcc_train.1.ark:880027
mejs0_sx340 quick_test/mfcc/raw_mfcc_train.2.ark:3299179
msat1_si2333 quick_test/mfcc/raw_mfcc_train.4.ark:1803900
fmju0_sx219 quick_test/mfcc/raw_mfcc_train.1.ark:2970049
mrjm1_sx128 quick_test/mfcc/raw_mfcc_train.4.ark:963790
msfv0_si1262 quick_test/mfcc/raw_mfcc_train.4.ark:2032931
fcdr1_sx106 quick_test/mfcc/raw_mfcc_train.1.ark:488850
mgak0_si1036 quick_test/mfcc/raw_mfcc_train.2.ark:3641935
ftaj0_sx249 quick_test/mfcc/raw_mfcc_train.2.ark:426179
