mkdb0_si2132 quick_test/data-fmllr-tri3/train/data/feats_fmllr_train.7.ark:5552331
mtat1_si1627 quick_test/data-fmllr-tri3/train/data/feats_fmllr_train.10.ark:1668749
mdtb0_si1830 quick_test/data-fmllr-tri3/train/data/feats_fmllr_train.5.ark:9281891
mrbc0_sx329 quick_test/data-fmllr-tri3/train/data/feats_fmllr_train.8.ark:13086191
fdnc0_sx288 quick_test/data-fmllr-tri3/train/data/feats_fmllr_train.1.ark:12471704
fmkf0_sx96 quick_test/data-fmllr-tri3/train/data/feats_fmllr_train.2.ark:17483781
mtjm0_sx416 quick_test/data-fmllr-tri3/train/data/feats_fmllr_train.10.ark:4765123
flhd0_sx174 quick_test/data-fmllr-tri3/train/data/feats_fmllr_train.2.ark:10539345
mprb0_si1215 quick_test/data-fmllr-tri3/train/data/feats_fmllr_train.8.ark:8965832
mtjm0_sx146 quick_test/data-fmllr-tri3/train/data/feats_fmllr_train.10.ark:4647602
mkah0_sx448 quick_test/data-fmllr-tri3/train/data/feats_fmllr_train.7.ark:4713762
mcdd0_sx343 quick_test/data-fmllr-tri3/train/data/feats_fmllr_train.4.ark:9550694
mmam0_sx427 quick_test/data-fmllr-tri3/train/data/feats_fmllr_train.7.ark:14101533
mdks0_sx166 quick_test/data-fmllr-tri3/train/data/feats_fmllr_train.5.ark:2037341
msds0_sx357 quick_test/data-fmllr-tri3/train/data/feats_fmllr_train.9.ark:13497133
fpad0_sx356 quick_test/data-fmllr-tri3/train/data/feats_fmllr_train.3.ark:1886456
mlns0_sx327 quick_test/data-fmllr-tri3/train/data/feats_fmllr_train.7.ark:12031300
mrlk0_sx33 quick_test/data-fmllr-tri3/train/data/feats_fmllr_train.9.ark:4706880
fbjl0_sx112 quick_test/data-fmllr-tri3/train/data/feats_fmllr_train.1.ark:3435587
fmkc0_sx352 quick_test/data-fmllr-tri3/train/data/feats_fmllr_train.2.ark:16972153
mrlk0_si1468 quick_test/data-fmllr-tri3/train/data/feats_fmllr_train.9.ark:4399358
mljh0_sx244 quick_test/data-fmllr-tri3/train/data/feats_fmllr_train.7.ark:11610896
mjjj0_sx263 quick_test/data-fmllr-tri3/train/data/feats_fmllr_train.6.ark:12966798
mrdd0_si1680 quick_test/data-fmllr-tri3/train/data/feats_fmllr_train.8.ark:14108974
fjrp1_si802 quick_test/data-fmllr-tri3/train/data/feats_fmllr_train.2.ark:2901591
mtat0_sx390 quick_test/data-fmllr-tri3/train/data/feats_fmllr_train.10.ark:1578773
fdaw0_si1271 quick_test/data-fmllr-tri3/train/data/feats_fmllr_train.1.ark:9731036
mtrt0_si597 quick_test/data-fmllr-tri3/train/data/feats_fmllr_train.10.ark:11320064
flkm0_sx350 quick_test/data-fmllr-tri3/train/data/feats_fmllr_train.2.ark:12303627
mklr0_si1689 quick_test/data-fmllr-tri3/train/data/feats_fmllr_train.7.ark:7925179
mjwg0_si2155 quick_test/data-fmllr-tri3/train/data/feats_fmllr_train.7.ark:1951819
mrem0_sx331 quick_test/data-fmllr-tri3/train/data/feats_fmllr_train.8.ark:16207608
mjma0_sx55 quick_test/data-fmllr-tri3/train/data/feats_fmllr_train.6.ark:15374101
mkam0_si1465 quick_test/data-fmllr-tri3/train/data/feats_fmllr_train.7.ark:5256169
mkls1_sx285 quick_test/data-fmllr-tri3/train/data/feats_fmllr_train.7.ark:8899829
mrml0_sx251 quick_test/data-fmllr-tri3/train/data/feats_fmllr_train.9.ark:6504874
mbbr0_si2315 quick_test/data-fmllr-tri3/train/data/feats_fmllr_train.4.ark:3863842
mjxa0_sx67 quick_test/data-fmllr-tri3/train/data/feats_fmllr_train.7.ark:3561298
mdwd0_sx450 quick_test/data-fmllr-tri3/train/data/feats_fmllr_train.5.ark:9848324
mrjt0_sx58 quick_test/data-fmllr-tri3/train/data/feats_fmllr_train.9.ark:2828063
mljh0_sx334 quick_test/data-fmllr-tri3/train/data/feats_fmllr_train.7.ark:11677003
mdps0_sx269 quick_test/data-fmllr-tri3/train/data/feats_fmllr_train.5.ark:7586327
fhxs0_sx265 quick_test/data-fmllr-tri3/train/data/feats_fmllr_train.1.ark:18663231
msvs0_si1568 quick_test/data-fmllr-tri3/train/data/feats_fmllr_train.10.ark:13
megj0_si707 quick_test/data-fmllr-tri3/train/data/feats_fmllr_train.5.ark:11943757
fgrw0_si1782 quick_test/data-fmllr-tri3/train/data/feats_fmllr_train.1.ark:17591513
flhd0_si1974 quick_test/data-fmllr-tri3/train/data/feats_fmllr_train.2.ark:10491478
madd0_sx448 quick_test/data-fmllr-tri3/train/data/feats_fmllr_train.3.ark:17874421
mcdd0_si2143 quick_test/data-fmllr-tri3/train/data/feats_fmllr_train.4.ark:9381466
mklr0_si2319 quick_test/data-fmllr-tri3/train/data/feats_fmllr_train.7.ark:7958807
ftlg0_sx213 quick_test/data-fmllr-tri3/train/data/feats_fmllr_train.3.ark:15217807
msfh0_sx136 quick_test/data-fmllr-tri3/train/data/feats_fmllr_train.9.ark:14698531
feme0_si2135 quick_test/data-fmllr-tri3/train/data/feats_fmllr_train.1.ark:15042850
fsdj0_si1745 quick_test/data-fmllr-tri3/train/data/feats_fmllr_train.3.ark:7648483
fsjk1_sx215 quick_test/data-fmllr-tri3/train/data/feats_fmllr_train.3.ark:8999775
mdcm0_sx310 quick_test/data-fmllr-tri3/train/data/feats_fmllr_train.4.ark:16522598
msdb0_sx197 quick_test/data-fmllr-tri3/train/data/feats_fmllr_train.9.ark:12704377
fspm0_sx341 quick_test/data-fmllr-tri3/train/data/feats_fmllr_train.3.ark:12991893
mjls0_sx286 quick_test/data-fmllr-tri3/train/data/feats_fmllr_train.6.ark:14947617
frll0_sx74 quick_test/data-fmllr-tri3/train/data/feats_fmllr_train.3.ark:5040084
fjxp0_sx222 quick_test/data-fmllr-tri3/train/data/feats_fmllr_train.2.ark:5018250
mjjj0_sx353 quick_test/data-fmllr-tri3/train/data/feats_fmllr_train.6.ark:13027145
mprb0_si575 quick_test/data-fmllr-tri3/train/data/feats_fmllr_train.8.ark:9048419
fjlg0_sx359 quick_test/data-fmllr-tri3/train/data/feats_fmllr_train.2.ark:1832541
fbmj0_sx246 quick_test/data-fmllr-tri3/train/data/feats_fmllr_train.1.ark:4683305
medr0_si744 quick_test/data-fmllr-tri3/train/data/feats_fmllr_train.5.ark:11182685
fpab1_sx391 quick_test/data-fmllr-tri3/train/data/feats_fmllr_train.3.ark:1150875
mfwk0_sx259 quick_test/data-fmllr-tri3/train/data/feats_fmllr_train.5.ark:15288961
mjrk0_sx250 quick_test/data-fmllr-tri3/train/data/feats_fmllr_train.7.ark:947597
mlns0_si2037 quick_test/data-fmllr-tri3/train/data/feats_fmllr_train.7.ark:11867992
meal0_sx287 quick_test/data-fmllr-tri3/train/data/feats_fmllr_train.5.ark:10946708
flmc0_sx292 quick_test/data-fmllr-tri3/train/data/feats_fmllr_train.2.ark:13040860
mrav0_sx198 quick_test/data-fmllr-tri3/train/data/feats_fmllr_train.8.ark:12731093
mlsh0_si2047 quick_test/data-fmllr-tri3/train/data/feats_fmllr_train.7.ark:12248849
mtrr0_si2178 quick_test/data-fmllr-tri3/train/data/feats_fmllr_train.10.ark:10841260
mbth0_sx212 quick_test/data-fmllr-tri3/train/data/feats_fmllr_train.4.ark:7512944
fdxw0_si2141 quick_test/data-fmllr-tri3/train/data/feats_fmllr_train.1.ark:13041765
mfxs0_si1674 quick_test/data-fmllr-tri3/train/data/feats_fmllr_train.5.ark:15497229
mreh1_sx69 quick_test/data-fmllr-tri3/train/data/feats_fmllr_train.8.ark:15912085
mbth0_sx392 quick_test/data-fmllr-tri3/train/data/feats_fmllr_train.4.ark:7656704
fhlm0_sx349 quick_test/data-fmllr-tri3/train/data/feats_fmllr_train.1.ark:18235386
mwre0_sx247 quick_test/data-fmllr-tri3/train/data/feats_fmllr_train.10.ark:16206785
mmdm0_sx51 quick_test/data-fmllr-tri3/train/data/feats_fmllr_train.7.ark:16577581
mjrh1_sx334 quick_test/data-fmllr-tri3/train/data/feats_fmllr_train.7.ark:646287
fbjl0_sx22 quick_test/data-fmllr-tri3/train/data/feats_fmllr_train.1.ark:3509560
mjpm1_sx311 quick_test/data-fmllr-tri3/train/data/feats_fmllr_train.6.ark:17040894
mmws1_si1071 quick_test/data-fmllr-tri3/train/data/feats_fmllr_train.8.ark:4306722
fapb0_sx163 quick_test/data-fmllr-tri3/train/data/feats_fmllr_train.1.ark:1767839
mjkr0_si1201 quick_test/data-fmllr-tri3/train/data/feats_fmllr_train.6.ark:13552563
mjlb0_si986 quick_test/data-fmllr-tri3/train/data/feats_fmllr_train.6.ark:14051555
falk0_sx276 quick_test/data-fmllr-tri3/train/data/feats_fmllr_train.1.ark:1022473
flmc0_si2002 quick_test/data-fmllr-tri3/train/data/feats_fmllr_train.2.ark:12884593
mdlm0_si1234 quick_test/data-fmllr-tri3/train/data/feats_fmllr_train.5.ark:4310241
mkrg0_sx231 quick_test/data-fmllr-tri3/train/data/feats_fmllr_train.7.ark:9633011
freh0_si1945 quick_test/data-fmllr-tri3/train/data/feats_fmllr_train.3.ark:4065889
mcal0_si1138 quick_test/data-fmllr-tri3/train/data/feats_fmllr_train.4.ark:8609644
mbma1_sx234 quick_test/data-fmllr-tri3/train/data/feats_fmllr_train.4.ark:6109037
fpaf0_sx334 quick_test/data-fmllr-tri3/train/data/feats_fmllr_train.3.ark:2290994
mdem0_sx338 quick_test/data-fmllr-tri3/train/data/feats_fmllr_train.5.ark:646286
mgxp0_sx97 quick_test/data-fmllr-tri3/train/data/feats_fmllr_train.6.ark:3521774
mrso0_sx399 quick_test/data-fmllr-tri3/train/data/feats_fmllr_train.9.ark:8294944
frjb0_si1794 quick_test/data-fmllr-tri3/train/data/feats_fmllr_train.3.ark:4418454
fmkc0_sx82 quick_test/data-fmllr-tri3/train/data/feats_fmllr_train.2.ark:17085166
mapv0_si663 quick_test/data-fmllr-tri3/train/data/feats_fmllr_train.4.ark:2364733
mrwa0_sx253 quick_test/data-fmllr-tri3/train/data/feats_fmllr_train.9.ark:10186029
mrlk0_si2140 quick_test/data-fmllr-tri3/train/data/feats_fmllr_train.9.ark:4472826
fmju0_si1389 quick_test/data-fmllr-tri3/train/data/feats_fmllr_train.2.ark:16331479
mtbc0_sx363 quick_test/data-fmllr-tri3/train/data/feats_fmllr_train.10.ark:2353101
mtab0_sx312 quick_test/data-fmllr-tri3/train/data/feats_fmllr_train.10.ark:775406
feac0_si1875 quick_test/data-fmllr-tri3/train/data/feats_fmllr_train.1.ark:13380702
mfxv0_si1005 quick_test/data-fmllr-tri3/train/data/feats_fmllr_train.5.ark:15867527
mrai0_sx162 quick_test/data-fmllr-tri3/train/data/feats_fmllr_train.8.ark:11888204
mgjc0_si1965 quick_test/data-fmllr-tri3/train/data/feats_fmllr_train.6.ark:1170961
maeo0_sx246 quick_test/data-fmllr-tri3/train/data/feats_fmllr_train.4.ark:561140
mclm0_sx196 quick_test/data-fmllr-tri3/train/data/feats_fmllr_train.4.ark:11983036
fsjk1_sx35 quick_test/data-fmllr-tri3/train/data/feats_fmllr_train.3.ark:9086868
msem1_sx180 quick_test/data-fmllr-tri3/train/data/feats_fmllr_train.9.ark:13907696
mram0_sx285 quick_test/data-fmllr-tri3/train/data/feats_fmllr_train.8.ark:12416502
mtjs0_si1192 quick_test/data-fmllr-tri3/train/data/feats_fmllr_train.10.ark:4850137
mmea0_sx308 quick_test/data-fmllr-tri3/train/data/feats_fmllr_train.7.ark:17530179
mdwh0_si665 quick_test/data-fmllr-tri3/train/data/feats_fmllr_train.5.ark:10049073
mkaj0_sx154 quick_test/data-fmllr-tri3/train/data/feats_fmllr_train.7.ark:4952778
mwsh0_sx346 quick_test/data-fmllr-tri3/train/data/feats_fmllr_train.10.ark:17437060
fmjf0_sx174 quick_test/data-fmllr-tri3/train/data/feats_fmllr_train.2.ark:16056944
mwrp0_sx363 quick_test/data-fmllr-tri3/train/data/feats_fmllr_train.10.ark:16707215
fmpg0_si972 quick_test/data-fmllr-tri3/train/data/feats_fmllr_train.2.ark:18029999
fdaw0_si1406 quick_test/data-fmllr-tri3/train/data/feats_fmllr_train.1.ark:9808504
fcdr1_sx376 quick_test/data-fmllr-tri3/train/data/feats_fmllr_train.1.ark:6024517
mkdb0_sx152 quick_test/data-fmllr-tri3/train/data/feats_fmllr_train.7.ark:5688572
maeb0_si990 quick_test/data-fmllr-tri3/train/data/feats_fmllr_train.4.ark:105828
mgsh0_sx186 quick_test/data-fmllr-tri3/train/data/feats_fmllr_train.6.ark:2530706
msmc0_sx377 quick_test/data-fmllr-tri3/train/data/feats_fmllr_train.9.ark:16170488
msms0_sx353 quick_test/data-fmllr-tri3/train/data/feats_fmllr_train.9.ark:16854069
mgak0_si2296 quick_test/data-fmllr-tri3/train/data/feats_fmllr_train.5.ark:17042154
mtcs0_si2265 quick_test/data-fmllr-tri3/train/data/feats_fmllr_train.10.ark:2471903
mrfk0_si1706 quick_test/data-fmllr-tri3/train/data/feats_fmllr_train.8.ark:16782494
mkag0_si2239 quick_test/data-fmllr-tri3/train/data/feats_fmllr_train.7.ark:4075651
fmpg0_sx252 quick_test/data-fmllr-tri3/train/data/feats_fmllr_train.2.ark:18185413
mrlj0_sx160 quick_test/data-fmllr-tri3/train/data/feats_fmllr_train.9.ark:3860445
fpjf0_sx352 quick_test/data-fmllr-tri3/train/data/feats_fmllr_train.3.ark:3095135
mrjh0_si1519 quick_test/data-fmllr-tri3/train/data/feats_fmllr_train.9.ark:1237303
mrml0_sx71 quick_test/data-fmllr-tri3/train/data/feats_fmllr_train.9.ark:6692474
mtcs0_sx82 quick_test/data-fmllr-tri3/train/data/feats_fmllr_train.10.ark:2785024
mrxb0_si955 quick_test/data-fmllr-tri3/train/data/feats_fmllr_train.9.ark:10816489
fpmy0_sx196 quick_test/data-fmllr-tri3/train/data/feats_fmllr_train.3.ark:3824633
msas0_si746 quick_test/data-fmllr-tri3/train/data/feats_fmllr_train.9.ark:11557084
mtkd0_sx377 quick_test/data-fmllr-tri3/train/data/feats_fmllr_train.10.ark:6043240
fmju0_sx39 quick_test/data-fmllr-tri3/train/data/feats_fmllr_train.2.ark:16644121
fjxm0_si1211 quick_test/data-fmllr-tri3/train/data/feats_fmllr_train.2.ark:4400324
msds0_si2337 quick_test/data-fmllr-tri3/train/data/feats_fmllr_train.9.ark:13337052
fpmy0_sx163 quick_test/data-fmllr-tri3/train/data/feats_fmllr_train.3.ark:3776446
mnet0_si816 quick_test/data-fmllr-tri3/train/data/feats_fmllr_train.8.ark:5074250
msat0_si2156 quick_test/data-fmllr-tri3/train/data/feats_fmllr_train.9.ark:11894394
flet0_si1137 quick_test/data-fmllr-tri3/train/data/feats_fmllr_train.2.ark:10052325
mkaj0_si2044 quick_test/data-fmllr-tri3/train/data/feats_fmllr_train.7.ark:4846644
mfxs0_sx144 quick_test/data-fmllr-tri3/train/data/feats_fmllr_train.5.ark:15603072
mkes0_sx263 quick_test/data-fmllr-tri3/train/data/feats_fmllr_train.7.ark:6963649
mmrp0_si2034 quick_test/data-fmllr-tri3/train/data/feats_fmllr_train.8.ark:2152358
mbar0_si1949 quick_test/data-fmllr-tri3/train/data/feats_fmllr_train.4.ark:3436877
mvjh0_sx116 quick_test/data-fmllr-tri3/train/data/feats_fmllr_train.10.ark:12511303
mtlc0_si847 quick_test/data-fmllr-tri3/train/data/feats_fmllr_train.10.ark:7032237
mmrp0_sx54 quick_test/data-fmllr-tri3/train/data/feats_fmllr_train.8.ark:2506466
fpjf0_sx326 quick_test/data-fmllr-tri3/train/data/feats_fmllr_train.3.ark:3058948
mjfr0_si1605 quick_test/data-fmllr-tri3/train/data/feats_fmllr_train.6.ark:11522678
fsjk1_si2285 quick_test/data-fmllr-tri3/train/data/feats_fmllr_train.3.ark:8876014
mtlb0_sx54 quick_test/data-fmllr-tri3/train/data/feats_fmllr_train.10.ark:6836314
mtpg0_sx303 quick_test/data-fmllr-tri3/train/data/feats_fmllr_train.10.ark:9043484
fdmy0_si714 quick_test/data-fmllr-tri3/train/data/feats_fmllr_train.1.ark:11772179
mrjb1_sx300 quick_test/data-fmllr-tri3/train/data/feats_fmllr_train.9.ark:1138848
mtmt0_si1748 quick_test/data-fmllr-tri3/train/data/feats_fmllr_train.10.ark:8114302
mmcc0_sx258 quick_test/data-fmllr-tri3/train/data/feats_fmllr_train.7.ark:15285330
mjxl0_si542 quick_test/data-fmllr-tri3/train/data/feats_fmllr_train.7.ark:3714501
mlel0_sx346 quick_test/data-fmllr-tri3/train/data/feats_fmllr_train.7.ark:10786329
mbar0_sx419 quick_test/data-fmllr-tri3/train/data/feats_fmllr_train.4.ark:3675572
fbas0_sx217 quick_test/data-fmllr-tri3/train/data/feats_fmllr_train.1.ark:2311124
fdkn0_sx181 quick_test/data-fmllr-tri3/train/data/feats_fmllr_train.1.ark:10997852
fgcs0_sx316 quick_test/data-fmllr-tri3/train/data/feats_fmllr_train.1.ark:16484570
ftbw0_sx355 quick_test/data-fmllr-tri3/train/data/feats_fmllr_train.3.ark:14854098
mjrk0_si880 quick_test/data-fmllr-tri3/train/data/feats_fmllr_train.7.ark:818903
fjen0_sx417 quick_test/data-fmllr-tri3/train/data/feats_fmllr_train.2.ark:747115
mmvp0_sx294 quick_test/data-fmllr-tri3/train/data/feats_fmllr_train.8.ark:3263647
fjrp1_sx172 quick_test/data-fmllr-tri3/train/data/feats_fmllr_train.2.ark:2942258
mmcc0_sx348 quick_test/data-fmllr-tri3/train/data/feats_fmllr_train.7.ark:15329677
fcjs0_sx347 quick_test/data-fmllr-tri3/train/data/feats_fmllr_train.1.ark:6887355
mabc0_sx241 quick_test/data-fmllr-tri3/train/data/feats_fmllr_train.3.ark:17028013
mvrw0_si2115 quick_test/data-fmllr-tri3/train/data/feats_fmllr_train.10.ark:13157123
fpaf0_sx424 quick_test/data-fmllr-tri3/train/data/feats_fmllr_train.3.ark:2336941
mtat1_si1409 quick_test/data-fmllr-tri3/train/data/feats_fmllr_train.10.ark:1622481
mwad0_sx342 quick_test/data-fmllr-tri3/train/data/feats_fmllr_train.10.ark:14055906
mjfh0_sx387 quick_test/data-fmllr-tri3/train/data/feats_fmllr_train.6.ark:11481370
mcss0_si750 quick_test/data-fmllr-tri3/train/data/feats_fmllr_train.4.ark:12977526
mhmr0_sx309 quick_test/data-fmllr-tri3/train/data/feats_fmllr_train.6.ark:5229047
mjdc0_si2165 quick_test/data-fmllr-tri3/train/data/feats_fmllr_train.6.ark:8408490
mdbp0_sx348 quick_test/data-fmllr-tri3/train/data/feats_fmllr_train.4.ark:15723764
mkxl0_si1958 quick_test/data-fmllr-tri3/train/data/feats_fmllr_train.7.ark:9866134
fdkn0_sx91 quick_test/data-fmllr-tri3/train/data/feats_fmllr_train.1.ark:11232359
mhjb0_si1017 quick_test/data-fmllr-tri3/train/data/feats_fmllr_train.6.ark:4299836
mjmm0_sx265 quick_test/data-fmllr-tri3/train/data/feats_fmllr_train.6.ark:15956216
mgxp0_si457 quick_test/data-fmllr-tri3/train/data/feats_fmllr_train.6.ark:3218895
mtrr0_sx18 quick_test/data-fmllr-tri3/train/data/feats_fmllr_train.10.ark:10994620
mdrd0_sx212 quick_test/data-fmllr-tri3/train/data/feats_fmllr_train.5.ark:7995664
mrml0_si791 quick_test/data-fmllr-tri3/train/data/feats_fmllr_train.9.ark:6372180
mjws0_sx153 quick_test/data-fmllr-tri3/train/data/feats_fmllr_train.7.ark:2531797
frll0_si805 quick_test/data-fmllr-tri3/train/data/feats_fmllr_train.3.ark:4743443
mapv0_si1293 quick_test/data-fmllr-tri3/train/data/feats_fmllr_train.4.ark:2243558
mgrp0_sx237 quick_test/data-fmllr-tri3/train/data/feats_fmllr_train.6.ark:2094489
mlel0_sx76 quick_test/data-fmllr-tri3/train/data/feats_fmllr_train.7.ark:10886382
mvrw0_sx225 quick_test/data-fmllr-tri3/train/data/feats_fmllr_train.10.ark:13271444
mjpm0_si738 quick_test/data-fmllr-tri3/train/data/feats_fmllr_train.6.ark:16566036
fdfb0_sx148 quick_test/data-fmllr-tri3/train/data/feats_fmllr_train.1.ark:10261577
feme0_sx65 quick_test/data-fmllr-tri3/train/data/feats_fmllr_train.1.ark:15377251
fbch0_si956 quick_test/data-fmllr-tri3/train/data/feats_fmllr_train.1.ark:2909236
fsgf0_sx117 quick_test/data-fmllr-tri3/train/data/feats_fmllr_train.3.ark:8108114
fltm0_sx440 quick_test/data-fmllr-tri3/train/data/feats_fmllr_train.2.ark:14239622
fpac0_si2011 quick_test/data-fmllr-tri3/train/data/feats_fmllr_train.3.ark:1269171
mkls0_si1533 quick_test/data-fmllr-tri3/train/data/feats_fmllr_train.7.ark:8286997
mrsp0_si799 quick_test/data-fmllr-tri3/train/data/feats_fmllr_train.9.ark:8475187
makr0_si722 quick_test/data-fmllr-tri3/train/data/feats_fmllr_train.4.ark:2037956
fkdw0_sx307 quick_test/data-fmllr-tri3/train/data/feats_fmllr_train.2.ark:6313969
fbmh0_si1766 quick_test/data-fmllr-tri3/train/data/feats_fmllr_train.1.ark:4153888
fltm0_si1070 quick_test/data-fmllr-tri3/train/data/feats_fmllr_train.2.ark:13933538
mfxs0_si2225 quick_test/data-fmllr-tri3/train/data/feats_fmllr_train.5.ark:15536937
mbml0_si539 quick_test/data-fmllr-tri3/train/data/feats_fmllr_train.4.ark:6409840
mwgr0_si2236 quick_test/data-fmllr-tri3/train/data/feats_fmllr_train.10.ark:15694806
mcdr0_sx254 quick_test/data-fmllr-tri3/train/data/feats_fmllr_train.4.ark:9968324
mmar0_si706 quick_test/data-fmllr-tri3/train/data/feats_fmllr_train.7.ark:14318122
mjlg1_sx292 quick_test/data-fmllr-tri3/train/data/feats_fmllr_train.6.ark:14561320
mprb0_si1205 quick_test/data-fmllr-tri3/train/data/feats_fmllr_train.8.ark:8928844
mkxl0_sx15 quick_test/data-fmllr-tri3/train/data/feats_fmllr_train.7.ark:9968427
mjdc0_sx81 quick_test/data-fmllr-tri3/train/data/feats_fmllr_train.6.ark:8696651
mdjm0_sx285 quick_test/data-fmllr-tri3/train/data/feats_fmllr_train.5.ark:1840083
makr0_sx182 quick_test/data-fmllr-tri3/train/data/feats_fmllr_train.4.ark:2070463
mjda0_sx131 quick_test/data-fmllr-tri3/train/data/feats_fmllr_train.6.ark:8148007
mkdt0_si893 quick_test/data-fmllr-tri3/train/data/feats_fmllr_train.7.ark:6433458
mdss1_sx157 quick_test/data-fmllr-tri3/train/data/feats_fmllr_train.5.ark:9039328
mejl0_sx62 quick_test/data-fmllr-tri3/train/data/feats_fmllr_train.5.ark:12555306
fjrp1_sx352 quick_test/data-fmllr-tri3/train/data/feats_fmllr_train.2.ark:3065192
mrbc0_si1859 quick_test/data-fmllr-tri3/train/data/feats_fmllr_train.8.ark:12894563
fkdw0_sx217 quick_test/data-fmllr-tri3/train/data/feats_fmllr_train.2.ark:6284662
mrjm0_si1095 quick_test/data-fmllr-tri3/train/data/feats_fmllr_train.9.ark:1700559
fear0_si1882 quick_test/data-fmllr-tri3/train/data/feats_fmllr_train.1.ark:13784759
mrxb0_sx145 quick_test/data-fmllr-tri3/train/data/feats_fmllr_train.9.ark:10882436
flag0_si834 quick_test/data-fmllr-tri3/train/data/feats_fmllr_train.2.ark:9335145
falk0_sx6 quick_test/data-fmllr-tri3/train/data/feats_fmllr_train.1.ark:1121405
msem1_si810 quick_test/data-fmllr-tri3/train/data/feats_fmllr_train.9.ark:13798069
fsbk0_sx259 quick_test/data-fmllr-tri3/train/data/feats_fmllr_train.3.ark:6505673
msem1_si2070 quick_test/data-fmllr-tri3/train/data/feats_fmllr_train.9.ark:13710842
mpmb0_sx61 quick_test/data-fmllr-tri3/train/data/feats_fmllr_train.8.ark:8466039
mmeb0_sx7 quick_test/data-fmllr-tri3/train/data/feats_fmllr_train.7.ark:17925141
fceg0_sx438 quick_test/data-fmllr-tri3/train/data/feats_fmllr_train.1.ark:6311908
mcth0_sx129 quick_test/data-fmllr-tri3/train/data/feats_fmllr_train.4.ark:13379530
mhjb0_sx207 quick_test/data-fmllr-tri3/train/data/feats_fmllr_train.6.ark:4480906
mmwb0_sx179 quick_test/data-fmllr-tri3/train/data/feats_fmllr_train.8.ark:3632291
mmsm0_si476 quick_test/data-fmllr-tri3/train/data/feats_fmllr_train.8.ark:2678229
mtdb0_sx321 quick_test/data-fmllr-tri3/train/data/feats_fmllr_train.10.ark:3072388
mhmg0_sx195 quick_test/data-fmllr-tri3/train/data/feats_fmllr_train.6.ark:4844029
mcew0_sx362 quick_test/data-fmllr-tri3/train/data/feats_fmllr_train.4.ark:10784625
mtrc0_si1623 quick_test/data-fmllr-tri3/train/data/feats_fmllr_train.10.ark:10473976
mjac0_si2148 quick_test/data-fmllr-tri3/train/data/feats_fmllr_train.6.ark:6518923
fcyl0_sx349 quick_test/data-fmllr-tri3/train/data/feats_fmllr_train.1.ark:9168658
mkdd0_si937 quick_test/data-fmllr-tri3/train/data/feats_fmllr_train.7.ark:6078042
ftlg0_si483 quick_test/data-fmllr-tri3/train/data/feats_fmllr_train.3.ark:15046366
mjeb0_si1286 quick_test/data-fmllr-tri3/train/data/feats_fmllr_train.6.ark:10042290
msrg0_si1221 quick_test/data-fmllr-tri3/train/data/feats_fmllr_train.9.ark:16984710
mfrm0_sx255 quick_test/data-fmllr-tri3/train/data/feats_fmllr_train.5.ark:14948104
mrmg0_si1080 quick_test/data-fmllr-tri3/train/data/feats_fmllr_train.9.ark:5511529
mtdb0_sx141 quick_test/data-fmllr-tri3/train/data/feats_fmllr_train.10.ark:2999694
mmdb0_sx447 quick_test/data-fmllr-tri3/train/data/feats_fmllr_train.7.ark:15755521
mbar0_sx59 quick_test/data-fmllr-tri3/train/data/feats_fmllr_train.4.ark:3722158
megj0_sx257 quick_test/data-fmllr-tri3/train/data/feats_fmllr_train.5.ark:12087171
mjpg0_sx21 quick_test/data-fmllr-tri3/train/data/feats_fmllr_train.6.ark:16340139
mpsw0_sx24 quick_test/data-fmllr-tri3/train/data/feats_fmllr_train.8.ark:10784700
mrfl0_sx166 quick_test/data-fmllr-tri3/train/data/feats_fmllr_train.8.ark:17226126
fsjg0_sx400 quick_test/data-fmllr-tri3/train/data/feats_fmllr_train.3.ark:8756918
mdwh0_si1925 quick_test/data-fmllr-tri3/train/data/feats_fmllr_train.5.ark:10013206
mrlj0_sx430 quick_test/data-fmllr-tri3/train/data/feats_fmllr_train.9.ark:3989966
milb0_si903 quick_test/data-fmllr-tri3/train/data/feats_fmllr_train.6.ark:6215855
mmab1_si864 quick_test/data-fmllr-tri3/train/data/feats_fmllr_train.7.ark:13064030
ftbw0_sx85 quick_test/data-fmllr-tri3/train/data/feats_fmllr_train.3.ark:14932871
mdjm0_si825 quick_test/data-fmllr-tri3/train/data/feats_fmllr_train.5.ark:1679496
mdns0_si2271 quick_test/data-fmllr-tri3/train/data/feats_fmllr_train.5.ark:6360795
mrmb0_sx51 quick_test/data-fmllr-tri3/train/data/feats_fmllr_train.9.ark:5470381
mdjm0_si2085 quick_test/data-fmllr-tri3/train/data/feats_fmllr_train.5.ark:1629389
mtas0_sx215 quick_test/data-fmllr-tri3/train/data/feats_fmllr_train.10.ark:1088876
mded0_si540 quick_test/data-fmllr-tri3/train/data/feats_fmllr_train.4.ark:17098471
mmar0_sx166 quick_test/data-fmllr-tri3/train/data/feats_fmllr_train.7.ark:14354149
msem1_sx360 quick_test/data-fmllr-tri3/train/data/feats_fmllr_train.9.ark:14007270
mdac0_si631 quick_test/data-fmllr-tri3/train/data/feats_fmllr_train.4.ark:14444154
fjsk0_sx152 quick_test/data-fmllr-tri3/train/data/feats_fmllr_train.2.ark:3409036
mpgr1_sx239 quick_test/data-fmllr-tri3/train/data/feats_fmllr_train.8.ark:7702862
fsah0_sx434 quick_test/data-fmllr-tri3/train/data/feats_fmllr_train.3.ark:5872972
fcyl0_si1297 quick_test/data-fmllr-tri3/train/data/feats_fmllr_train.1.ark:8926122
fjsp0_si1763 quick_test/data-fmllr-tri3/train/data/feats_fmllr_train.2.ark:3728719
fpls0_sx240 quick_test/data-fmllr-tri3/train/data/feats_fmllr_train.3.ark:3394338
fjen0_sx327 quick_test/data-fmllr-tri3/train/data/feats_fmllr_train.2.ark:664208
msds0_si1077 quick_test/data-fmllr-tri3/train/data/feats_fmllr_train.9.ark:13190916
mjee0_sx157 quick_test/data-fmllr-tri3/train/data/feats_fmllr_train.6.ark:10964406
mdbb1_sx196 quick_test/data-fmllr-tri3/train/data/feats_fmllr_train.4.ark:15338426
mdhl0_sx89 quick_test/data-fmllr-tri3/train/data/feats_fmllr_train.5.ark:1165276
fcag0_sx243 quick_test/data-fmllr-tri3/train/data/feats_fmllr_train.1.ark:5040003
mkdt0_sx353 quick_test/data-fmllr-tri3/train/data/feats_fmllr_train.7.ark:6578499
mrbc0_si1665 quick_test/data-fmllr-tri3/train/data/feats_fmllr_train.8.ark:12855815
mpgr1_sx149 quick_test/data-fmllr-tri3/train/data/feats_fmllr_train.8.ark:7646675
fpab1_sx121 quick_test/data-fmllr-tri3/train/data/feats_fmllr_train.3.ark:950288
faem0_sx42 quick_test/data-fmllr-tri3/train/data/feats_fmllr_train.1.ark:354602
mrwa0_sx343 quick_test/data-fmllr-tri3/train/data/feats_fmllr_train.9.ark:10219656
mtbc0_si1173 quick_test/data-fmllr-tri3/train/data/feats_fmllr_train.10.ark:2067018
fjrp1_sx262 quick_test/data-fmllr-tri3/train/data/feats_fmllr_train.2.ark:3000685
mefg0_si465 quick_test/data-fmllr-tri3/train/data/feats_fmllr_train.5.ark:11417726
fdtd0_sx301 quick_test/data-fmllr-tri3/train/data/feats_fmllr_train.1.ark:12833975
mbcg0_sx147 quick_test/data-fmllr-tri3/train/data/feats_fmllr_train.4.ark:4247285
fmmh0_sx187 quick_test/data-fmllr-tri3/train/data/feats_fmllr_train.2.ark:17703731
mtlb0_sx144 quick_test/data-fmllr-tri3/train/data/feats_fmllr_train.10.ark:6638447
mrjm0_sx328 quick_test/data-fmllr-tri3/train/data/feats_fmllr_train.9.ark:1930136
madd0_si538 quick_test/data-fmllr-tri3/train/data/feats_fmllr_train.3.ark:17676873
mrmg0_sx360 quick_test/data-fmllr-tri3/train/data/feats_fmllr_train.9.ark:5747666
mded0_sx270 quick_test/data-fmllr-tri3/train/data/feats_fmllr_train.4.ark:17222365
fsmm0_si1944 quick_test/data-fmllr-tri3/train/data/feats_fmllr_train.3.ark:11939351
fmah1_si879 quick_test/data-fmllr-tri3/train/data/feats_fmllr_train.2.ark:14411091
mkdt0_sx443 quick_test/data-fmllr-tri3/train/data/feats_fmllr_train.7.ark:6634206
mdcd0_sx245 quick_test/data-fmllr-tri3/train/data/feats_fmllr_train.4.ark:16090514
fjlg0_si2306 quick_test/data-fmllr-tri3/train/data/feats_fmllr_train.2.ark:1714060
fcke0_si1111 quick_test/data-fmllr-tri3/train/data/feats_fmllr_train.1.ark:7059756
fpaz0_sx63 quick_test/data-fmllr-tri3/train/data/feats_fmllr_train.3.ark:2783743
msdb0_sx287 quick_test/data-fmllr-tri3/train/data/feats_fmllr_train.9.ark:12732564
mesj0_sx367 quick_test/data-fmllr-tri3/train/data/feats_fmllr_train.5.ark:13586624
mmaa0_sx305 quick_test/data-fmllr-tri3/train/data/feats_fmllr_train.7.ark:12869814
mmag0_sx406 quick_test/data-fmllr-tri3/train/data/feats_fmllr_train.7.ark:13748035
mbsb0_si723 quick_test/data-fmllr-tri3/train/data/feats_fmllr_train.4.ark:7093636
falr0_sx155 quick_test/data-fmllr-tri3/train/data/feats_fmllr_train.1.ark:1348261
fscn0_sx356 quick_test/data-fmllr-tri3/train/data/feats_fmllr_train.3.ark:7071836
mmcc0_si1968 quick_test/data-fmllr-tri3/train/data/feats_fmllr_train.7.ark:15171329
mmdb0_si1358 quick_test/data-fmllr-tri3/train/data/feats_fmllr_train.7.ark:15480798
mjjb0_sx59 quick_test/data-fmllr-tri3/train/data/feats_fmllr_train.6.ark:12690181
mppc0_si2042 quick_test/data-fmllr-tri3/train/data/feats_fmllr_train.8.ark:8622255
mmds0_si1973 quick_test/data-fmllr-tri3/train/data/feats_fmllr_train.7.ark:17077214
mabc0_si1620 quick_test/data-fmllr-tri3/train/data/feats_fmllr_train.3.ark:16853184
mjjm0_sx197 quick_test/data-fmllr-tri3/train/data/feats_fmllr_train.6.ark:13415201
mabc0_sx421 quick_test/data-fmllr-tri3/train/data/feats_fmllr_train.3.ark:17098787
ftlg0_sx33 quick_test/data-fmllr-tri3/train/data/feats_fmllr_train.3.ark:15299620
mtdp0_si1521 quick_test/data-fmllr-tri3/train/data/feats_fmllr_train.10.ark:3246577
mkes0_si1253 quick_test/data-fmllr-tri3/train/data/feats_fmllr_train.7.ark:6725940
mwar0_sx415 quick_test/data-fmllr-tri3/train/data/feats_fmllr_train.10.ark:14449911
mjlb0_sx356 quick_test/data-fmllr-tri3/train/data/feats_fmllr_train.6.ark:14183796
mtxs0_si2320 quick_test/data-fmllr-tri3/train/data/feats_fmllr_train.10.ark:11986259
mjls0_sx16 quick_test/data-fmllr-tri3/train/data/feats_fmllr_train.6.ark:14880843
marc0_si1818 quick_test/data-fmllr-tri3/train/data/feats_fmllr_train.4.ark:2685883
fpaf0_sx244 quick_test/data-fmllr-tri3/train/data/feats_fmllr_train.3.ark:2235447
mcew0_si812 quick_test/data-fmllr-tri3/train/data/feats_fmllr_train.4.ark:10604864
mrtj0_sx232 quick_test/data-fmllr-tri3/train/data/feats_fmllr_train.9.ark:9429915
mdlc0_si2025 quick_test/data-fmllr-tri3/train/data/feats_fmllr_train.5.ark:2865721
fvmh0_si836 quick_test/data-fmllr-tri3/train/data/feats_fmllr_train.3.ark:16603902
fecd0_sx428 quick_test/data-fmllr-tri3/train/data/feats_fmllr_train.1.ark:14490871
mkes0_si623 quick_test/data-fmllr-tri3/train/data/feats_fmllr_train.7.ark:6838155
mreh1_si969 quick_test/data-fmllr-tri3/train/data/feats_fmllr_train.8.ark:15629231
mter0_sx167 quick_test/data-fmllr-tri3/train/data/feats_fmllr_train.10.ark:3847169
mmdm0_sx141 quick_test/data-fmllr-tri3/train/data/feats_fmllr_train.7.ark:16388834
fpmy0_sx343 quick_test/data-fmllr-tri3/train/data/feats_fmllr_train.3.ark:3903567
mdlh0_si700 quick_test/data-fmllr-tri3/train/data/feats_fmllr_train.5.ark:3995999
mjrk0_sx160 quick_test/data-fmllr-tri3/train/data/feats_fmllr_train.7.ark:887730
fjlr0_si601 quick_test/data-fmllr-tri3/train/data/feats_fmllr_train.2.ark:2090917
fcjs0_sx167 quick_test/data-fmllr-tri3/train/data/feats_fmllr_train.1.ark:6799621
mdmt0_sx212 quick_test/data-fmllr-tri3/train/data/feats_fmllr_train.5.ark:6090739
mdlr1_si669 quick_test/data-fmllr-tri3/train/data/feats_fmllr_train.5.ark:5153610
mcef0_sx235 quick_test/data-fmllr-tri3/train/data/feats_fmllr_train.4.ark:10319101
mlsh0_sx67 quick_test/data-fmllr-tri3/train/data/feats_fmllr_train.7.ark:12533170
mrsp0_sx169 quick_test/data-fmllr-tri3/train/data/feats_fmllr_train.9.ark:8523374
mkes0_sx173 quick_test/data-fmllr-tri3/train/data/feats_fmllr_train.7.ark:6904582
fsjs0_si1171 quick_test/data-fmllr-tri3/train/data/feats_fmllr_train.3.ark:9166923
mbma1_sx144 quick_test/data-fmllr-tri3/train/data/feats_fmllr_train.4.ark:6061010
mmam0_sx67 quick_test/data-fmllr-tri3/train/data/feats_fmllr_train.7.ark:14132759
mram0_sx105 quick_test/data-fmllr-tri3/train/data/feats_fmllr_train.8.ark:12294982
mjeb1_sx387 quick_test/data-fmllr-tri3/train/data/feats_fmllr_train.6.ark:10777256
fjsp0_sx174 quick_test/data-fmllr-tri3/train/data/feats_fmllr_train.2.ark:3787973
mtml0_sx435 quick_test/data-fmllr-tri3/train/data/feats_fmllr_train.10.ark:7534963
fcjf0_sx397 quick_test/data-fmllr-tri3/train/data/feats_fmllr_train.1.ark:6661431
fsag0_sx423 quick_test/data-fmllr-tri3/train/data/feats_fmllr_train.3.ark:5415795
mrgm0_si1792 quick_test/data-fmllr-tri3/train/data/feats_fmllr_train.8.ark:17538129
fsjg0_si940 quick_test/data-fmllr-tri3/train/data/feats_fmllr_train.3.ark:8408304
mjrg0_sx376 quick_test/data-fmllr-tri3/train/data/feats_fmllr_train.6.ark:17951461
mljc0_sx325 quick_test/data-fmllr-tri3/train/data/feats_fmllr_train.7.ark:11196786
msmr0_si1405 quick_test/data-fmllr-tri3/train/data/feats_fmllr_train.9.ark:16303664
mcdr0_sx74 quick_test/data-fmllr-tri3/train/data/feats_fmllr_train.4.ark:10082004
fjrb0_sx42 quick_test/data-fmllr-tri3/train/data/feats_fmllr_train.2.ark:2727588
fklc0_si1615 quick_test/data-fmllr-tri3/train/data/feats_fmllr_train.2.ark:7304084
mstf0_si852 quick_test/data-fmllr-tri3/train/data/feats_fmllr_train.9.ark:17814317
fskp0_si1728 quick_test/data-fmllr-tri3/train/data/feats_fmllr_train.3.ark:10804939
fexm0_si482 quick_test/data-fmllr-tri3/train/data/feats_fmllr_train.1.ark:15900911
mdma0_sx80 quick_test/data-fmllr-tri3/train/data/feats_fmllr_train.5.ark:5889962
fspm0_si611 quick_test/data-fmllr-tri3/train/data/feats_fmllr_train.3.ark:12823172
mpgr1_si1499 quick_test/data-fmllr-tri3/train/data/feats_fmllr_train.8.ark:7533980
mges0_si2111 quick_test/data-fmllr-tri3/train/data/feats_fmllr_train.6.ark:772156
mfmc0_si1132 quick_test/data-fmllr-tri3/train/data/feats_fmllr_train.5.ark:14347137
flmc0_sx22 quick_test/data-fmllr-tri3/train/data/feats_fmllr_train.2.ark:13002593
mljc0_sx415 quick_test/data-fmllr-tri3/train/data/feats_fmllr_train.7.ark:11238733
fdml0_sx339 quick_test/data-fmllr-tri3/train/data/feats_fmllr_train.1.ark:11482124
mpmb0_si2131 quick_test/data-fmllr-tri3/train/data/feats_fmllr_train.8.ark:7992278
mkls1_sx375 quick_test/data-fmllr-tri3/train/data/feats_fmllr_train.7.ark:8939376
fsdc0_sx142 quick_test/data-fmllr-tri3/train/data/feats_fmllr_train.3.ark:7355680
mree0_si1959 quick_test/data-fmllr-tri3/train/data/feats_fmllr_train.8.ark:15254774
mbjv0_si1877 quick_test/data-fmllr-tri3/train/data/feats_fmllr_train.4.ark:5243722
flac0_sx271 quick_test/data-fmllr-tri3/train/data/feats_fmllr_train.2.ark:9044422
mklr0_sx159 quick_test/data-fmllr-tri3/train/data/feats_fmllr_train.7.ark:7986034
mgag0_sx151 quick_test/data-fmllr-tri3/train/data/feats_fmllr_train.5.ark:16727403
fexm0_sx201 quick_test/data-fmllr-tri3/train/data/feats_fmllr_train.1.ark:16017765
mreh1_si1599 quick_test/data-fmllr-tri3/train/data/feats_fmllr_train.8.ark:15518456
mkag0_sx439 quick_test/data-fmllr-tri3/train/data/feats_fmllr_train.7.ark:4317385
mrtj0_si1551 quick_test/data-fmllr-tri3/train/data/feats_fmllr_train.9.ark:9173806
fmkf0_si1018 quick_test/data-fmllr-tri3/train/data/feats_fmllr_train.2.ark:17130474
fjen0_si1047 quick_test/data-fmllr-tri3/train/data/feats_fmllr_train.2.ark:417031
mbcg0_sx57 quick_test/data-fmllr-tri3/train/data/feats_fmllr_train.4.ark:4432192
mprk0_sx377 quick_test/data-fmllr-tri3/train/data/feats_fmllr_train.8.ark:10230107
mmvp0_si654 quick_test/data-fmllr-tri3/train/data/feats_fmllr_train.8.ark:3060686
mjeb0_si656 quick_test/data-fmllr-tri3/train/data/feats_fmllr_train.6.ark:10139625
fntb0_si679 quick_test/data-fmllr-tri3/train/data/feats_fmllr_train.3.ark:458684
madd0_sx358 quick_test/data-fmllr-tri3/train/data/feats_fmllr_train.3.ark:17832794
mapv0_sx213 quick_test/data-fmllr-tri3/train/data/feats_fmllr_train.4.ark:2495827
mdss0_sx261 quick_test/data-fmllr-tri3/train/data/feats_fmllr_train.5.ark:8753058
mjjb0_sx149 quick_test/data-fmllr-tri3/train/data/feats_fmllr_train.6.ark:12470554
mree0_si1734 quick_test/data-fmllr-tri3/train/data/feats_fmllr_train.8.ark:15202906
mlel0_sx166 quick_test/data-fmllr-tri3/train/data/feats_fmllr_train.7.ark:10662755
fjrp1_si2062 quick_test/data-fmllr-tri3/train/data/feats_fmllr_train.2.ark:2870684
fdnc0_si1278 quick_test/data-fmllr-tri3/train/data/feats_fmllr_train.1.ark:12146741
mrjh0_sx169 quick_test/data-fmllr-tri3/train/data/feats_fmllr_train.9.ark:1422664
mtlb0_sx324 quick_test/data-fmllr-tri3/train/data/feats_fmllr_train.10.ark:6723301
mcef0_sx55 quick_test/data-fmllr-tri3/train/data/feats_fmllr_train.4.ark:10439821
feme0_sx245 quick_test/data-fmllr-tri3/train/data/feats_fmllr_train.1.ark:15211571
mklr0_sx69 quick_test/data-fmllr-tri3/train/data/feats_fmllr_train.7.ark:8156061
mjrg0_si1366 quick_test/data-fmllr-tri3/train/data/feats_fmllr_train.6.ark:17606152
mtqc0_sx91 quick_test/data-fmllr-tri3/train/data/feats_fmllr_train.10.ark:10417948
mlel0_si1246 quick_test/data-fmllr-tri3/train/data/feats_fmllr_train.7.ark:10498193
fpaf0_si1054 quick_test/data-fmllr-tri3/train/data/feats_fmllr_train.3.ark:2026057
mprd0_sx351 quick_test/data-fmllr-tri3/train/data/feats_fmllr_train.8.ark:9671757
fsms1_sx347 quick_test/data-fmllr-tri3/train/data/feats_fmllr_train.3.ark:12589623
mgrp0_si687 quick_test/data-fmllr-tri3/train/data/feats_fmllr_train.6.ark:1984515
freh0_sx235 quick_test/data-fmllr-tri3/train/data/feats_fmllr_train.3.ark:4206450
mrtc0_sx378 quick_test/data-fmllr-tri3/train/data/feats_fmllr_train.9.ark:9123538
mtkp0_si454 quick_test/data-fmllr-tri3/train/data/feats_fmllr_train.10.ark:6223643
mges0_sx221 quick_test/data-fmllr-tri3/train/data/feats_fmllr_train.6.ark:880237
mkam0_sx236 quick_test/data-fmllr-tri3/train/data/feats_fmllr_train.7.ark:5376863
fjwb1_sx75 quick_test/data-fmllr-tri3/train/data/feats_fmllr_train.2.ark:4365896
fbmj0_sx66 quick_test/data-fmllr-tri3/train/data/feats_fmllr_train.1.ark:4850745
mhxl0_si612 quick_test/data-fmllr-tri3/train/data/feats_fmllr_train.6.ark:5812439
mbjv0_sx257 quick_test/data-fmllr-tri3/train/data/feats_fmllr_train.4.ark:5381723
fmjf0_si1254 quick_test/data-fmllr-tri3/train/data/feats_fmllr_train.2.ark:15918782
mprt0_si1210 quick_test/data-fmllr-tri3/train/data/feats_fmllr_train.8.ark:10284855
fjdm2_sx322 quick_test/data-fmllr-tri3/train/data/feats_fmllr_train.2.ark:271670
fetb0_sx338 quick_test/data-fmllr-tri3/train/data/feats_fmllr_train.1.ark:15646855
freh0_si685 quick_test/data-fmllr-tri3/train/data/feats_fmllr_train.3.ark:4130236
mbom0_sx384 quick_test/data-fmllr-tri3/train/data/feats_fmllr_train.4.ark:6980273
mrmg0_sx180 quick_test/data-fmllr-tri3/train/data/feats_fmllr_train.9.ark:5658972
mrjt0_si1805 quick_test/data-fmllr-tri3/train/data/feats_fmllr_train.9.ark:2539422
mtqc0_sx271 quick_test/data-fmllr-tri3/train/data/feats_fmllr_train.10.ark:10227148
mjac0_si1331 quick_test/data-fmllr-tri3/train/data/feats_fmllr_train.6.ark:6468495
fsmm0_sx144 quick_test/data-fmllr-tri3/train/data/feats_fmllr_train.3.ark:12030125
fcmg0_sx162 quick_test/data-fmllr-tri3/train/data/feats_fmllr_train.1.ark:7944433
flma0_sx73 quick_test/data-fmllr-tri3/train/data/feats_fmllr_train.2.ark:12782777
mtjs0_si1822 quick_test/data-fmllr-tri3/train/data/feats_fmllr_train.10.ark:4887605
mkdt0_si2153 quick_test/data-fmllr-tri3/train/data/feats_fmllr_train.7.ark:6322364
mvrw0_si855 quick_test/data-fmllr-tri3/train/data/feats_fmllr_train.10.ark:13176350
msms0_si1433 quick_test/data-fmllr-tri3/train/data/feats_fmllr_train.9.ark:16600333
mbma1_sx54 quick_test/data-fmllr-tri3/train/data/feats_fmllr_train.4.ark:6271197
mpgh0_sx384 quick_test/data-fmllr-tri3/train/data/feats_fmllr_train.8.ark:7118987
mdss1_sx247 quick_test/data-fmllr-tri3/train/data/feats_fmllr_train.5.ark:9074235
mcef0_si842 quick_test/data-fmllr-tri3/train/data/feats_fmllr_train.4.ark:10211847
mtju0_si2269 quick_test/data-fmllr-tri3/train/data/feats_fmllr_train.10.ark:5370862
fjrp1_sx82 quick_test/data-fmllr-tri3/train/data/feats_fmllr_train.2.ark:3207805
mgjc0_sx435 quick_test/data-fmllr-tri3/train/data/feats_fmllr_train.6.ark:1387229
mljc0_si1225 quick_test/data-fmllr-tri3/train/data/feats_fmllr_train.7.ark:10940010
mtjs0_sx382 quick_test/data-fmllr-tri3/train/data/feats_fmllr_train.10.ark:5239766
fjlg0_si1889 quick_test/data-fmllr-tri3/train/data/feats_fmllr_train.2.ark:1638832
ftbw0_si1345 quick_test/data-fmllr-tri3/train/data/feats_fmllr_train.3.ark:14590442
mbbr0_sx65 quick_test/data-fmllr-tri3/train/data/feats_fmllr_train.4.ark:4078856
mdpk0_sx333 quick_test/data-fmllr-tri3/train/data/feats_fmllr_train.5.ark:7272377
mrtj0_sx52 quick_test/data-fmllr-tri3/train/data/feats_fmllr_train.9.ark:9601355
mkln0_si1598 quick_test/data-fmllr-tri3/train/data/feats_fmllr_train.7.ark:7492614
mmws0_sx258 quick_test/data-fmllr-tri3/train/data/feats_fmllr_train.8.ark:4110934
mtmn0_sx254 quick_test/data-fmllr-tri3/train/data/feats_fmllr_train.10.ark:7912886
fdas1_si1461 quick_test/data-fmllr-tri3/train/data/feats_fmllr_train.1.ark:9329219
msds0_sx447 quick_test/data-fmllr-tri3/train/data/feats_fmllr_train.9.ark:13570600
mwdk0_sx266 quick_test/data-fmllr-tri3/train/data/feats_fmllr_train.10.ark:15078132
mjac0_sx251 quick_test/data-fmllr-tri3/train/data/feats_fmllr_train.6.ark:6615937
fleh0_si1681 quick_test/data-fmllr-tri3/train/data/feats_fmllr_train.2.ark:9732615
mrjm0_si1228 quick_test/data-fmllr-tri3/train/data/feats_fmllr_train.9.ark:1734827
mtml0_sx165 quick_test/data-fmllr-tri3/train/data/feats_fmllr_train.10.ark:7399842
fbjl0_sx202 quick_test/data-fmllr-tri3/train/data/feats_fmllr_train.1.ark:3484094
mtpg0_si2013 quick_test/data-fmllr-tri3/train/data/feats_fmllr_train.10.ark:8868816
mkln0_sx158 quick_test/data-fmllr-tri3/train/data/feats_fmllr_train.7.ark:7643736
fpab1_si841 quick_test/data-fmllr-tri3/train/data/feats_fmllr_train.3.ark:872501
mrcg0_sx168 quick_test/data-fmllr-tri3/train/data/feats_fmllr_train.8.ark:13407314
mpgh0_sx24 quick_test/data-fmllr-tri3/train/data/feats_fmllr_train.8.ark:7056053
mkrg0_sx411 quick_test/data-fmllr-tri3/train/data/feats_fmllr_train.7.ark:9677704
mmsm0_si1106 quick_test/data-fmllr-tri3/train/data/feats_fmllr_train.8.ark:2568094
mjpm1_si1897 quick_test/data-fmllr-tri3/train/data/feats_fmllr_train.6.ark:16841558
fscn0_sx446 quick_test/data-fmllr-tri3/train/data/feats_fmllr_train.3.ark:7122743
fjwb1_sx435 quick_test/data-fmllr-tri3/train/data/feats_fmllr_train.2.ark:4311790
mram0_sx15 quick_test/data-fmllr-tri3/train/data/feats_fmllr_train.8.ark:12333568
mgaw0_sx175 quick_test/data-fmllr-tri3/train/data/feats_fmllr_train.6.ark:549753
fbas0_si1472 quick_test/data-fmllr-tri3/train/data/feats_fmllr_train.1.ark:2110402
feac0_sx75 quick_test/data-fmllr-tri3/train/data/feats_fmllr_train.1.ark:13703743
mlbc0_si1239 quick_test/data-fmllr-tri3/train/data/feats_fmllr_train.7.ark:10126776
msfv0_sx362 quick_test/data-fmllr-tri3/train/data/feats_fmllr_train.9.ark:15240242
fjkl0_sx302 quick_test/data-fmllr-tri3/train/data/feats_fmllr_train.2.ark:1483203
fear0_sx352 quick_test/data-fmllr-tri3/train/data/feats_fmllr_train.1.ark:13959267
mrdm0_sx425 quick_test/data-fmllr-tri3/train/data/feats_fmllr_train.8.ark:14725967
flma0_sx433 quick_test/data-fmllr-tri3/train/data/feats_fmllr_train.2.ark:12730271
fntb0_sx213 quick_test/data-fmllr-tri3/train/data/feats_fmllr_train.3.ark:585618
mlbc0_si609 quick_test/data-fmllr-tri3/train/data/feats_fmllr_train.7.ark:10225071
msdb0_sx17 quick_test/data-fmllr-tri3/train/data/feats_fmllr_train.9.ark:12681630
fpaf0_sx64 quick_test/data-fmllr-tri3/train/data/feats_fmllr_train.3.ark:2379207
fkde0_sx331 quick_test/data-fmllr-tri3/train/data/feats_fmllr_train.2.ark:5895192
freh0_sx55 quick_test/data-fmllr-tri3/train/data/feats_fmllr_train.3.ark:4307650
mtpp0_sx428 quick_test/data-fmllr-tri3/train/data/feats_fmllr_train.10.ark:9427408
mrlj0_sx70 quick_test/data-fmllr-tri3/train/data/feats_fmllr_train.9.ark:4044712
fljg0_sx261 quick_test/data-fmllr-tri3/train/data/feats_fmllr_train.2.ark:11830584
fear0_sx82 quick_test/data-fmllr-tri3/train/data/feats_fmllr_train.1.ark:14089720
fcmg0_sx72 quick_test/data-fmllr-tri3/train/data/feats_fmllr_train.1.ark:8160380
fleh0_sx241 quick_test/data-fmllr-tri3/train/data/feats_fmllr_train.2.ark:9859897
mljc0_sx145 quick_test/data-fmllr-tri3/train/data/feats_fmllr_train.7.ark:11102492
mmgc0_sx135 quick_test/data-fmllr-tri3/train/data/feats_fmllr_train.8.ark:150016
fajw0_si1893 quick_test/data-fmllr-tri3/train/data/feats_fmllr_train.1.ark:469858
fsjs0_sx451 quick_test/data-fmllr-tri3/train/data/feats_fmllr_train.3.ark:9472846
mdtb0_sx321 quick_test/data-fmllr-tri3/train/data/feats_fmllr_train.5.ark:9484746
mdcm0_si850 quick_test/data-fmllr-tri3/train/data/feats_fmllr_train.4.ark:16382197
ftmg0_sx182 quick_test/data-fmllr-tri3/train/data/feats_fmllr_train.3.ark:15527117
fajw0_sx363 quick_test/data-fmllr-tri3/train/data/feats_fmllr_train.1.ark:710471
fcke0_sx301 quick_test/data-fmllr-tri3/train/data/feats_fmllr_train.1.ark:7306132
mkls1_sx105 quick_test/data-fmllr-tri3/train/data/feats_fmllr_train.7.ark:8780229
mjac0_sx71 quick_test/data-fmllr-tri3/train/data/feats_fmllr_train.6.ark:6817004
mtmn0_sx164 quick_test/data-fmllr-tri3/train/data/feats_fmllr_train.10.ark:7856379
fmah1_sx339 quick_test/data-fmllr-tri3/train/data/feats_fmllr_train.2.ark:14577252
mntw0_sx348 quick_test/data-fmllr-tri3/train/data/feats_fmllr_train.8.ark:5640334
mtrr0_sx378 quick_test/data-fmllr-tri3/train/data/feats_fmllr_train.10.ark:11132621
mkag0_si1609 quick_test/data-fmllr-tri3/train/data/feats_fmllr_train.7.ark:4011783
mdem0_sx248 quick_test/data-fmllr-tri3/train/data/feats_fmllr_train.5.ark:590419
mrai0_sx342 quick_test/data-fmllr-tri3/train/data/feats_fmllr_train.8.ark:11978338
mtrr0_sx198 quick_test/data-fmllr-tri3/train/data/feats_fmllr_train.10.ark:11038807
mzmb0_si1166 quick_test/data-fmllr-tri3/train/data/feats_fmllr_train.10.ark:17595701
mrai0_sx432 quick_test/data-fmllr-tri3/train/data/feats_fmllr_train.8.ark:12031325
fbas0_sx37 quick_test/data-fmllr-tri3/train/data/feats_fmllr_train.1.ark:2373097
mpmb0_si1501 quick_test/data-fmllr-tri3/train/data/feats_fmllr_train.8.ark:7881690
mtpg0_si753 quick_test/data-fmllr-tri3/train/data/feats_fmllr_train.10.ark:8900363
mdrd0_sx392 quick_test/data-fmllr-tri3/train/data/feats_fmllr_train.5.ark:8150784
mdcm0_sx40 quick_test/data-fmllr-tri3/train/data/feats_fmllr_train.4.ark:16562304
mtas0_si2015 quick_test/data-fmllr-tri3/train/data/feats_fmllr_train.10.ark:993915
mkjo0_si2147 quick_test/data-fmllr-tri3/train/data/feats_fmllr_train.7.ark:7196425
mrpc1_sx312 quick_test/data-fmllr-tri3/train/data/feats_fmllr_train.9.ark:7283737
mrwa0_si2233 quick_test/data-fmllr-tri3/train/data/feats_fmllr_train.9.ark:10040668
fecd0_sx248 quick_test/data-fmllr-tri3/train/data/feats_fmllr_train.1.ark:14389537
mhit0_si1613 quick_test/data-fmllr-tri3/train/data/feats_fmllr_train.6.ark:3914659
mjai0_sx74 quick_test/data-fmllr-tri3/train/data/feats_fmllr_train.6.ark:7609118
mdcm0_si2110 quick_test/data-fmllr-tri3/train/data/feats_fmllr_train.4.ark:16334330
mrjm1_sx38 quick_test/data-fmllr-tri3/train/data/feats_fmllr_train.9.ark:2392139
mdef0_si1563 quick_test/data-fmllr-tri3/train/data/feats_fmllr_train.5.ark:78761
mjae0_sx354 quick_test/data-fmllr-tri3/train/data/feats_fmllr_train.6.ark:7090449
mjpm1_sx131 quick_test/data-fmllr-tri3/train/data/feats_fmllr_train.6.ark:16957160
mrso0_sx129 quick_test/data-fmllr-tri3/train/data/feats_fmllr_train.9.ark:8069237
mrjm1_sx308 quick_test/data-fmllr-tri3/train/data/feats_fmllr_train.9.ark:2338993
mtkd0_sx107 quick_test/data-fmllr-tri3/train/data/feats_fmllr_train.10.ark:5852733
mhmr0_si1692 quick_test/data-fmllr-tri3/train/data/feats_fmllr_train.6.ark:4998219
mbwp0_sx349 quick_test/data-fmllr-tri3/train/data/feats_fmllr_train.4.ark:7933028
mcdc0_si1922 quick_test/data-fmllr-tri3/train/data/feats_fmllr_train.4.ark:9029409
fjwb1_si2055 quick_test/data-fmllr-tri3/train/data/feats_fmllr_train.2.ark:4039308
fecd0_si788 quick_test/data-fmllr-tri3/train/data/feats_fmllr_train.1.ark:14266443
fjsp0_sx264 quick_test/data-fmllr-tri3/train/data/feats_fmllr_train.2.ark:3848800
mtqc0_sx361 quick_test/data-fmllr-tri3/train/data/feats_fmllr_train.10.ark:10276775
mklw0_si2201 quick_test/data-fmllr-tri3/train/data/feats_fmllr_train.7.ark:9096900
mwdk0_sx356 quick_test/data-fmllr-tri3/train/data/feats_fmllr_train.10.ark:15117519
fcke0_sx31 quick_test/data-fmllr-tri3/train/data/feats_fmllr_train.1.ark:7348718
mtjm0_si655 quick_test/data-fmllr-tri3/train/data/feats_fmllr_train.10.ark:4585975
fmem0_sx387 quick_test/data-fmllr-tri3/train/data/feats_fmllr_train.2.ark:15466219
fkde0_sx241 quick_test/data-fmllr-tri3/train/data/feats_fmllr_train.2.ark:5851325
mtlc0_sx217 quick_test/data-fmllr-tri3/train/data/feats_fmllr_train.10.ark:7099651
mlel0_sx256 quick_test/data-fmllr-tri3/train/data/feats_fmllr_train.7.ark:10730782
mdmt0_si572 quick_test/data-fmllr-tri3/train/data/feats_fmllr_train.5.ark:5973245
fmkf0_sx276 quick_test/data-fmllr-tri3/train/data/feats_fmllr_train.2.ark:17344503
fsgf0_sx387 quick_test/data-fmllr-tri3/train/data/feats_fmllr_train.3.ark:8252861
mjdg0_sx142 quick_test/data-fmllr-tri3/train/data/feats_fmllr_train.6.ark:9388338
mgag0_sx331 quick_test/data-fmllr-tri3/train/data/feats_fmllr_train.5.ark:16805697
mwch0_si1895 quick_test/data-fmllr-tri3/train/data/feats_fmllr_train.10.ark:14589353
mkaj0_si1414 quick_test/data-fmllr-tri3/train/data/feats_fmllr_train.7.ark:4815576
mjrg0_sx352 quick_test/data-fmllr-tri3/train/data/feats_fmllr_train.6.ark:17882154
milb0_sx363 quick_test/data-fmllr-tri3/train/data/feats_fmllr_train.6.ark:6395801
mdtb0_si570 quick_test/data-fmllr-tri3/train/data/feats_fmllr_train.5.ark:9315038
mjmd0_si1658 quick_test/data-fmllr-tri3/train/data/feats_fmllr_train.6.ark:15455597
mjdc0_sx171 quick_test/data-fmllr-tri3/train/data/feats_fmllr_train.6.ark:8531104
mtat0_sx300 quick_test/data-fmllr-tri3/train/data/feats_fmllr_train.10.ark:1542586
mmdm1_si1650 quick_test/data-fmllr-tri3/train/data/feats_fmllr_train.7.ark:16622089
flkm0_sx116 quick_test/data-fmllr-tri3/train/data/feats_fmllr_train.2.ark:12206453
mrfk0_sx86 quick_test/data-fmllr-tri3/train/data/feats_fmllr_train.8.ark:17016736
mjhi0_si555 quick_test/data-fmllr-tri3/train/data/feats_fmllr_train.6.ark:12024362
mfxs0_sx54 quick_test/data-fmllr-tri3/train/data/feats_fmllr_train.5.ark:15812619
mklr0_sx339 quick_test/data-fmllr-tri3/train/data/feats_fmllr_train.7.ark:8074728
mrab0_sx234 quick_test/data-fmllr-tri3/train/data/feats_fmllr_train.8.ark:11114837
msms0_si2063 quick_test/data-fmllr-tri3/train/data/feats_fmllr_train.9.ark:16668681
marc0_sx288 quick_test/data-fmllr-tri3/train/data/feats_fmllr_train.4.ark:2883617
medr0_sx204 quick_test/data-fmllr-tri3/train/data/feats_fmllr_train.5.ark:11283059
mcef0_sx325 quick_test/data-fmllr-tri3/train/data/feats_fmllr_train.4.ark:10361368
mfmc0_sx412 quick_test/data-fmllr-tri3/train/data/feats_fmllr_train.5.ark:14658340
fsag0_sx63 quick_test/data-fmllr-tri3/train/data/feats_fmllr_train.3.ark:5485421
mmgk0_si1952 quick_test/data-fmllr-tri3/train/data/feats_fmllr_train.8.ark:793277
mefg0_si598 quick_test/data-fmllr-tri3/train/data/feats_fmllr_train.5.ark:11534420
mhjb0_sx27 quick_test/data-fmllr-tri3/train/data/feats_fmllr_train.6.ark:4506372
mjws0_sx333 quick_test/data-fmllr-tri3/train/data/feats_fmllr_train.7.ark:2644491
mrjt0_sx418 quick_test/data-fmllr-tri3/train/data/feats_fmllr_train.9.ark:2775237
mtlc0_sx307 quick_test/data-fmllr-tri3/train/data/feats_fmllr_train.10.ark:7131038
fcaj0_sx219 quick_test/data-fmllr-tri3/train/data/feats_fmllr_train.1.ark:5394460
mtwh1_sx342 quick_test/data-fmllr-tri3/train/data/feats_fmllr_train.10.ark:11759082
mrjb1_si1020 quick_test/data-fmllr-tri3/train/data/feats_fmllr_train.9.ark:783805
fklc0_sx355 quick_test/data-fmllr-tri3/train/data/feats_fmllr_train.2.ark:7578300
mpgr0_sx420 quick_test/data-fmllr-tri3/train/data/feats_fmllr_train.8.ark:7398218
mwrp0_sx3 quick_test/data-fmllr-tri3/train/data/feats_fmllr_train.10.ark:16676468
mtrc0_sx273 quick_test/data-fmllr-tri3/train/data/feats_fmllr_train.10.ark:10704511
mgjc0_sx345 quick_test/data-fmllr-tri3/train/data/feats_fmllr_train.6.ark:1331682
fsdc0_si1312 quick_test/data-fmllr-tri3/train/data/feats_fmllr_train.3.ark:7225517
mrxb0_sx55 quick_test/data-fmllr-tri3/train/data/feats_fmllr_train.9.ark:11052143
mdlc2_sx84 quick_test/data-fmllr-tri3/train/data/feats_fmllr_train.5.ark:3858797
mses0_si1589 quick_test/data-fmllr-tri3/train/data/feats_fmllr_train.9.ark:14166391
flma0_sx343 quick_test/data-fmllr-tri3/train/data/feats_fmllr_train.2.ark:12687844
mbef0_sx111 quick_test/data-fmllr-tri3/train/data/feats_fmllr_train.4.ark:4623662
mmdg0_sx430 quick_test/data-fmllr-tri3/train/data/feats_fmllr_train.7.ark:16153658
mrcw0_si2001 quick_test/data-fmllr-tri3/train/data/feats_fmllr_train.8.ark:13748917
fmkc0_si1041 quick_test/data-fmllr-tri3/train/data/feats_fmllr_train.2.ark:16733616
mjrp0_sx45 quick_test/data-fmllr-tri3/train/data/feats_fmllr_train.7.ark:1425814
mded0_sx450 quick_test/data-fmllr-tri3/train/data/feats_fmllr_train.4.ark:17313459
freh0_sx325 quick_test/data-fmllr-tri3/train/data/feats_fmllr_train.3.ark:4244077
msfv0_sx272 quick_test/data-fmllr-tri3/train/data/feats_fmllr_train.9.ark:15196855
mrfl0_si1156 quick_test/data-fmllr-tri3/train/data/feats_fmllr_train.8.ark:17052284
mbma1_si2214 quick_test/data-fmllr-tri3/train/data/feats_fmllr_train.4.ark:5947996
mrab1_si1478 quick_test/data-fmllr-tri3/train/data/feats_fmllr_train.8.ark:11321025
mmwb0_sx449 quick_test/data-fmllr-tri3/train/data/feats_fmllr_train.8.ark:3816372
fsmm0_si1314 quick_test/data-fmllr-tri3/train/data/feats_fmllr_train.3.ark:11896283
mrms0_sx120 quick_test/data-fmllr-tri3/train/data/feats_fmllr_train.9.ark:6909225
msms0_si803 quick_test/data-fmllr-tri3/train/data/feats_fmllr_train.9.ark:16707748
mdmt0_si2341 quick_test/data-fmllr-tri3/train/data/feats_fmllr_train.5.ark:5949218
fpab1_si1471 quick_test/data-fmllr-tri3/train/data/feats_fmllr_train.3.ark:741406
msjk0_sx156 quick_test/data-fmllr-tri3/train/data/feats_fmllr_train.9.ark:15569685
mjmd0_sx398 quick_test/data-fmllr-tri3/train/data/feats_fmllr_train.6.ark:15705839
mfxs0_si2304 quick_test/data-fmllr-tri3/train/data/feats_fmllr_train.5.ark:15562565
mljc0_sx55 quick_test/data-fmllr-tri3/train/data/feats_fmllr_train.7.ark:11281959
fblv0_sx158 quick_test/data-fmllr-tri3/train/data/feats_fmllr_train.1.ark:3857085
fcjs0_sx437 quick_test/data-fmllr-tri3/train/data/feats_fmllr_train.1.ark:6950742
fsah0_sx164 quick_test/data-fmllr-tri3/train/data/feats_fmllr_train.3.ark:5714171
mjkr0_si1831 quick_test/data-fmllr-tri3/train/data/feats_fmllr_train.6.ark:13615791
fkde0_si2221 quick_test/data-fmllr-tri3/train/data/feats_fmllr_train.2.ark:5768711
mrwa0_sx433 quick_test/data-fmllr-tri3/train/data/feats_fmllr_train.9.ark:10277283
fklc0_sx445 quick_test/data-fmllr-tri3/train/data/feats_fmllr_train.2.ark:7620887
mjrh0_sx315 quick_test/data-fmllr-tri3/train/data/feats_fmllr_train.7.ark:249910
mmwb0_sx269 quick_test/data-fmllr-tri3/train/data/feats_fmllr_train.8.ark:3694078
mdlr0_sx63 quick_test/data-fmllr-tri3/train/data/feats_fmllr_train.5.ark:5017047
fbmj0_sx336 quick_test/data-fmllr-tri3/train/data/feats_fmllr_train.1.ark:4723812
mdrd0_sx122 quick_test/data-fmllr-tri3/train/data/feats_fmllr_train.5.ark:7938197
mmvp0_sx204 quick_test/data-fmllr-tri3/train/data/feats_fmllr_train.8.ark:3217380
mdsj0_sx292 quick_test/data-fmllr-tri3/train/data/feats_fmllr_train.5.ark:8430627
fgdp0_sx178 quick_test/data-fmllr-tri3/train/data/feats_fmllr_train.1.ark:16759613
fmem0_sx333 quick_test/data-fmllr-tri3/train/data/feats_fmllr_train.2.ark:15384272
fmkc0_si1072 quick_test/data-fmllr-tri3/train/data/feats_fmllr_train.2.ark:16805484
mreh1_si2229 quick_test/data-fmllr-tri3/train/data/feats_fmllr_train.8.ark:15599284
mjfr0_sx255 quick_test/data-fmllr-tri3/train/data/feats_fmllr_train.6.ark:11723427
fntb0_sx303 quick_test/data-fmllr-tri3/train/data/feats_fmllr_train.3.ark:626125
mchl0_sx87 quick_test/data-fmllr-tri3/train/data/feats_fmllr_train.4.ark:11327936
ftaj0_sx69 quick_test/data-fmllr-tri3/train/data/feats_fmllr_train.3.ark:14174997
mdwm0_sx433 quick_test/data-fmllr-tri3/train/data/feats_fmllr_train.5.ark:10725744
mmjb1_sx418 quick_test/data-fmllr-tri3/train/data/feats_fmllr_train.8.ark:1327229
mram0_si1951 quick_test/data-fmllr-tri3/train/data/feats_fmllr_train.8.ark:12225995
fjkl0_sx392 quick_test/data-fmllr-tri3/train/data/feats_fmllr_train.2.ark:1564696
marw0_sx349 quick_test/data-fmllr-tri3/train/data/feats_fmllr_train.4.ark:3247034
mpar0_sx136 quick_test/data-fmllr-tri3/train/data/feats_fmllr_train.8.ark:5860150
mjsr0_sx344 quick_test/data-fmllr-tri3/train/data/feats_fmllr_train.7.ark:1792698
fkdw0_sx127 quick_test/data-fmllr-tri3/train/data/feats_fmllr_train.2.ark:6253275
msdb0_si1637 quick_test/data-fmllr-tri3/train/data/feats_fmllr_train.9.ark:12586189
mdps0_sx449 quick_test/data-fmllr-tri3/train/data/feats_fmllr_train.5.ark:7675181
meal0_sx197 quick_test/data-fmllr-tri3/train/data/feats_fmllr_train.5.ark:10917401
fdml0_sx69 quick_test/data-fmllr-tri3/train/data/feats_fmllr_train.1.ark:11566657
fdas1_sx201 quick_test/data-fmllr-tri3/train/data/feats_fmllr_train.1.ark:9563248
mjrh1_sx154 quick_test/data-fmllr-tri3/train/data/feats_fmllr_train.7.ark:547833
fjhk0_sx212 quick_test/data-fmllr-tri3/train/data/feats_fmllr_train.2.ark:1064559
mtlb0_si504 quick_test/data-fmllr-tri3/train/data/feats_fmllr_train.10.ark:6598420
ftbw0_sx445 quick_test/data-fmllr-tri3/train/data/feats_fmllr_train.3.ark:14894125
fscn0_si1886 quick_test/data-fmllr-tri3/train/data/feats_fmllr_train.3.ark:6762261
mkjo0_sx424 quick_test/data-fmllr-tri3/train/data/feats_fmllr_train.7.ark:7349653
mtpp0_sx338 quick_test/data-fmllr-tri3/train/data/feats_fmllr_train.10.ark:9379701
mpmb0_sx421 quick_test/data-fmllr-tri3/train/data/feats_fmllr_train.8.ark:8371133
mchl0_si1347 quick_test/data-fmllr-tri3/train/data/feats_fmllr_train.4.ark:10976546
fjkl0_sx122 quick_test/data-fmllr-tri3/train/data/feats_fmllr_train.2.ark:1371469
mbth0_si505 quick_test/data-fmllr-tri3/train/data/feats_fmllr_train.4.ark:7375903
mmws1_sx351 quick_test/data-fmllr-tri3/train/data/feats_fmllr_train.8.ark:4495658
mbom0_sx114 quick_test/data-fmllr-tri3/train/data/feats_fmllr_train.4.ark:6808805
mprb0_sx215 quick_test/data-fmllr-tri3/train/data/feats_fmllr_train.8.ark:9170873
mafm0_sx219 quick_test/data-fmllr-tri3/train/data/feats_fmllr_train.4.ark:894637
fcjs0_si2237 quick_test/data-fmllr-tri3/train/data/feats_fmllr_train.1.ark:6728207
ftmg0_sx362 quick_test/data-fmllr-tri3/train/data/feats_fmllr_train.3.ark:15607171
mmpm0_si2321 quick_test/data-fmllr-tri3/train/data/feats_fmllr_train.8.ark:1849636
fklc0_sx265 quick_test/data-fmllr-tri3/train/data/feats_fmllr_train.2.ark:7527073
mtml0_si1695 quick_test/data-fmllr-tri3/train/data/feats_fmllr_train.10.ark:7285067
mkah0_sx88 quick_test/data-fmllr-tri3/train/data/feats_fmllr_train.7.ark:4757948
flmk0_sx225 quick_test/data-fmllr-tri3/train/data/feats_fmllr_train.2.ark:13416892
mrws0_sx382 quick_test/data-fmllr-tri3/train/data/feats_fmllr_train.9.ark:10662166
fsag0_sx243 quick_test/data-fmllr-tri3/train/data/feats_fmllr_train.3.ark:5283901
marc0_si558 quick_test/data-fmllr-tri3/train/data/feats_fmllr_train.4.ark:2720630
mmdb0_sx267 quick_test/data-fmllr-tri3/train/data/feats_fmllr_train.7.ark:15657067
mhmr0_si1119 quick_test/data-fmllr-tri3/train/data/feats_fmllr_train.6.ark:4957871
mjxl0_si1172 quick_test/data-fmllr-tri3/train/data/feats_fmllr_train.7.ark:3610126
mjwt0_si1381 quick_test/data-fmllr-tri3/train/data/feats_fmllr_train.7.ark:2892920
fvmh0_sx206 quick_test/data-fmllr-tri3/train/data/feats_fmllr_train.3.ark:16704276
fblv0_si1058 quick_test/data-fmllr-tri3/train/data/feats_fmllr_train.1.ark:3664362
milb0_sx183 quick_test/data-fmllr-tri3/train/data/feats_fmllr_train.6.ark:6286602
mter0_sx77 quick_test/data-fmllr-tri3/train/data/feats_fmllr_train.10.ark:4043115
mmvp0_si1914 quick_test/data-fmllr-tri3/train/data/feats_fmllr_train.8.ark:3015059
mnet0_sx186 quick_test/data-fmllr-tri3/train/data/feats_fmllr_train.8.ark:5119717
mlbc0_si1869 quick_test/data-fmllr-tri3/train/data/feats_fmllr_train.7.ark:10191764
mdcd0_si2045 quick_test/data-fmllr-tri3/train/data/feats_fmllr_train.4.ark:15932673
mrlj0_si1420 quick_test/data-fmllr-tri3/train/data/feats_fmllr_train.9.ark:3714123
mkxl0_si1185 quick_test/data-fmllr-tri3/train/data/feats_fmllr_train.7.ark:9755998
fjsk0_si1682 quick_test/data-fmllr-tri3/train/data/feats_fmllr_train.2.ark:3336661
fklc0_sx85 quick_test/data-fmllr-tri3/train/data/feats_fmllr_train.2.ark:7666193
fmpg0_sx342 quick_test/data-fmllr-tri3/train/data/feats_fmllr_train.2.ark:18230720
mjhi0_sx338 quick_test/data-fmllr-tri3/train/data/feats_fmllr_train.6.ark:12182550
mljh0_si1324 quick_test/data-fmllr-tri3/train/data/feats_fmllr_train.7.ark:11325187
mpeb0_si1034 quick_test/data-fmllr-tri3/train/data/feats_fmllr_train.8.ark:6068285
fbmj0_sx426 quick_test/data-fmllr-tri3/train/data/feats_fmllr_train.1.ark:4799839
mrcg0_sx78 quick_test/data-fmllr-tri3/train/data/feats_fmllr_train.8.ark:13644701
ftmg0_sx92 quick_test/data-fmllr-tri3/train/data/feats_fmllr_train.3.ark:15711544
fbjl0_sx382 quick_test/data-fmllr-tri3/train/data/feats_fmllr_train.1.ark:3614254
mbml0_sx449 quick_test/data-fmllr-tri3/train/data/feats_fmllr_train.4.ark:6588828
fksr0_si487 quick_test/data-fmllr-tri3/train/data/feats_fmllr_train.2.ark:8573431
fcmm0_sx363 quick_test/data-fmllr-tri3/train/data/feats_fmllr_train.1.ark:8416384
msas0_si2006 quick_test/data-fmllr-tri3/train/data/feats_fmllr_train.9.ark:11499457
mapv0_sx393 quick_test/data-fmllr-tri3/train/data/feats_fmllr_train.4.ark:2621347
fljd0_si1516 quick_test/data-fmllr-tri3/train/data/feats_fmllr_train.2.ark:11200178
mjlg1_sx202 quick_test/data-fmllr-tri3/train/data/feats_fmllr_train.6.ark:14499987
mwsb0_si996 quick_test/data-fmllr-tri3/train/data/feats_fmllr_train.10.ark:16875644
mmar0_si1336 quick_test/data-fmllr-tri3/train/data/feats_fmllr_train.7.ark:14181587
mjde0_sx130 quick_test/data-fmllr-tri3/train/data/feats_fmllr_train.6.ark:8942360
mrbc0_sx59 quick_test/data-fmllr-tri3/train/data/feats_fmllr_train.8.ark:13195684
ftaj0_sx159 quick_test/data-fmllr-tri3/train/data/feats_fmllr_train.3.ark:14031690
mfmc0_si502 quick_test/data-fmllr-tri3/train/data/feats_fmllr_train.5.ark:14451992
mstf0_si766 quick_test/data-fmllr-tri3/train/data/feats_fmllr_train.9.ark:17783250
mbef0_sx381 quick_test/data-fmllr-tri3/train/data/feats_fmllr_train.4.ark:4754169
