mdem0_si608 quick_test/mfcc/raw_mfcc_train.2.ark:2251581
mwac0_si971 quick_test/mfcc/raw_mfcc_train.4.ark:3435308
mkag0_sx30 quick_test/mfcc/raw_mfcc_train.3.ark:1872772
mdss0_sx81 quick_test/mfcc/raw_mfcc_train.2.ark:2963674
fljg0_sx261 quick_test/mfcc/raw_mfcc_train.1.ark:2574256
fvfb0_sx42 quick_test/mfcc/raw_mfcc_train.2.ark:594119
fsag0_sx333 quick_test/mfcc/raw_mfcc_train.1.ark:3575759
mmgk0_si1952 quick_test/mfcc/raw_mfcc_train.3.ark:3092259
mrds0_si537 quick_test/mfcc/raw_mfcc_train.4.ark:515309
mrtj0_sx142 quick_test/mfcc/raw_mfcc_train.4.ark:1560531
flkm0_si620 quick_test/mfcc/raw_mfcc_train.1.ark:2596352
mrml0_sx431 quick_test/mfcc/raw_mfcc_train.4.ark:1331962
fcmm0_sx420 quick_test/mfcc/raw_mfcc_train.1.ark:711090
mtas0_si755 quick_test/mfcc/raw_mfcc_train.4.ark:2384318
mbbr0_si2315 quick_test/mfcc/raw_mfcc_train.2.ark:1079056
mrms0_si1113 quick_test/mfcc/raw_mfcc_train.4.ark:1340933
mjdc0_sx261 quick_test/mfcc/raw_mfcc_train.3.ark:721738
fjkl0_si932 quick_test/mfcc/raw_mfcc_train.1.ark:1689677
fgmb0_sx245 quick_test/mfcc/raw_mfcc_train.1.ark:1452283
mdps0_sx179 quick_test/mfcc/raw_mfcc_train.2.ark:2851897
marc0_si1818 quick_test/mfcc/raw_mfcc_train.2.ark:979973
fjlg0_sx179 quick_test/mfcc/raw_mfcc_train.1.ark:1727494
mmar0_sx346 quick_test/mfcc/raw_mfcc_train.3.ark:2730255
mtab0_sx132 quick_test/mfcc/raw_mfcc_train.4.ark:2354485
mges0_sx401 quick_test/mfcc/raw_mfcc_train.3.ark:83176
mrjm1_si1298 quick_test/mfcc/raw_mfcc_train.4.ark:950846
mrjt0_si868 quick_test/mfcc/raw_mfcc_train.4.ark:990009
mlel0_sx436 quick_test/mfcc/raw_mfcc_train.3.ark:2423663
mwsb0_si2256 quick_test/mfcc/raw_mfcc_train.4.ark:3713654
mhjb0_sx207 quick_test/mfcc/raw_mfcc_train.3.ark:376496
mcxm0_sx91 quick_test/mfcc/raw_mfcc_train.2.ark:1958801
mmrp0_sx234 quick_test/mfcc/raw_mfcc_train.3.ark:3221273
mrjm0_si1858 quick_test/mfcc/raw_mfcc_train.4.ark:924050
mfer0_sx322 quick_test/mfcc/raw_mfcc_train.2.ark:3415690
mkln0_sx248 quick_test/mfcc/raw_mfcc_train.3.ark:2157756
fsjs0_sx91 quick_test/mfcc/raw_mfcc_train.2.ark:45199
fapb0_sx433 quick_test/mfcc/raw_mfcc_train.1.ark:161818
fapb0_sx343 quick_test/mfcc/raw_mfcc_train.1.ark:156585
flet0_sx277 quick_test/mfcc/raw_mfcc_train.1.ark:2445411
mjae0_si2154 quick_test/mfcc/raw_mfcc_train.3.ark:584215
mrsp0_si1429 quick_test/mfcc/raw_mfcc_train.4.ark:1475492
mrtj0_si772 quick_test/mfcc/raw_mfcc_train.4.ark:1553218
mwsb0_si1626 quick_test/mfcc/raw_mfcc_train.4.ark:3710084
fjxm0_si581 quick_test/mfcc/raw_mfcc_train.1.ark:1957336
mrew1_sx60 quick_test/mfcc/raw_mfcc_train.4.ark:665682
fdas1_si2091 quick_test/mfcc/raw_mfcc_train.1.ark:790422
fsma0_sx91 quick_test/mfcc/raw_mfcc_train.2.ark:239788
mrmh0_sx121 quick_test/mfcc/raw_mfcc_train.4.ark:1283914
mwre0_sx427 quick_test/mfcc/raw_mfcc_train.4.ark:3669610
mdlc1_sx445 quick_test/mfcc/raw_mfcc_train.2.ark:2512576
mmam0_sx337 quick_test/mfcc/raw_mfcc_train.3.ark:2693824
flmk0_si1035 quick_test/mfcc/raw_mfcc_train.1.ark:2689634
fjdm2_si1582 quick_test/mfcc/raw_mfcc_train.1.ark:1581172
fjrb0_sx222 quick_test/mfcc/raw_mfcc_train.1.ark:1794812
mdbp0_si1788 quick_test/mfcc/raw_mfcc_train.2.ark:2058046
fpab1_si2101 quick_test/mfcc/raw_mfcc_train.1.ark:3194387
fsms1_sx334 quick_test/mfcc/raw_mfcc_train.2.ark:298207
fdnc0_sx378 quick_test/mfcc/raw_mfcc_train.1.ark:1052699
fbmj0_si815 quick_test/mfcc/raw_mfcc_train.1.ark:385620
falr0_si1955 quick_test/mfcc/raw_mfcc_train.1.ark:105942
flkm0_si686 quick_test/mfcc/raw_mfcc_train.1.ark:2603418
ftbr0_sx291 quick_test/mfcc/raw_mfcc_train.2.ark:463260
fvkb0_sx169 quick_test/mfcc/raw_mfcc_train.2.ark:606980
fskc0_sx336 quick_test/mfcc/raw_mfcc_train.2.ark:100810
fbas0_si1387 quick_test/mfcc/raw_mfcc_train.1.ark:172245
fbmj0_si516 quick_test/mfcc/raw_mfcc_train.1.ark:379841
mtat0_sx390 quick_test/mfcc/raw_mfcc_train.4.ark:2431313
mtdp0_sx261 quick_test/mfcc/raw_mfcc_train.4.ark:2589022
fbcg1_sx262 quick_test/mfcc/raw_mfcc_train.1.ark:221576
mdcm0_sx310 quick_test/mfcc/raw_mfcc_train.2.ark:2143598
mefg0_sx285 quick_test/mfcc/raw_mfcc_train.2.ark:3204194
fmmh0_si1537 quick_test/mfcc/raw_mfcc_train.1.ark:3053468
feme0_si1505 quick_test/mfcc/raw_mfcc_train.1.ark:1259191
mdlh0_sx340 quick_test/mfcc/raw_mfcc_train.2.ark:2569206
fcjs0_si2237 quick_test/mfcc/raw_mfcc_train.1.ark:565161
mcth0_sx39 quick_test/mfcc/raw_mfcc_train.2.ark:1891392
msas0_sx26 quick_test/mfcc/raw_mfcc_train.4.ark:1759631
mcef0_sx145 quick_test/mfcc/raw_mfcc_train.2.ark:1618722
mmgg0_si1709 quick_test/mfcc/raw_mfcc_train.3.ark:3061547
fljg0_sx81 quick_test/mfcc/raw_mfcc_train.1.ark:2588186
madc0_si1997 quick_test/mfcc/raw_mfcc_train.2.ark:693522
fclt0_si1438 quick_test/mfcc/raw_mfcc_train.1.ark:622103
mded0_sx180 quick_test/mfcc/raw_mfcc_train.2.ark:2198454
msah1_si1049 quick_test/mfcc/raw_mfcc_train.4.ark:1707044
fsjw0_sx433 quick_test/mfcc/raw_mfcc_train.2.ark:74903
mjae0_sx444 quick_test/mfcc/raw_mfcc_train.3.ark:600519
mjeb1_sx27 quick_test/mfcc/raw_mfcc_train.3.ark:899531
mjls0_si466 quick_test/mfcc/raw_mfcc_train.3.ark:1243859
mwem0_si1393 quick_test/mfcc/raw_mfcc_train.4.ark:3584114
mjhi0_sx428 quick_test/mfcc/raw_mfcc_train.3.ark:1028180
mgxp0_sx7 quick_test/mfcc/raw_mfcc_train.3.ark:291864
mdsj0_sx22 quick_test/mfcc/raw_mfcc_train.2.ark:2923608
mdss0_si621 quick_test/mfcc/raw_mfcc_train.2.ark:2946077
mcae0_sx367 quick_test/mfcc/raw_mfcc_train.2.ark:1464442
mdlr1_si1929 quick_test/mfcc/raw_mfcc_train.2.ark:2647531
mmvp0_sx347 quick_test/mfcc/raw_mfcc_train.3.ark:3303860
fcjf0_sx127 quick_test/mfcc/raw_mfcc_train.1.ark:549934
fcag0_si1503 quick_test/mfcc/raw_mfcc_train.1.ark:410713
mmcc0_sx438 quick_test/mfcc/raw_mfcc_train.3.ark:2804671
mkxl0_sx285 quick_test/mfcc/raw_mfcc_train.3.ark:2356637
mjpm1_si761 quick_test/mfcc/raw_mfcc_train.3.ark:1420430
mejs0_si1240 quick_test/mfcc/raw_mfcc_train.2.ark:3277602
mjpm1_sx221 quick_test/mfcc/raw_mfcc_train.3.ark:1428660
mcdc0_sx122 quick_test/mfcc/raw_mfcc_train.2.ark:1520466
mfmc0_sx412 quick_test/mfcc/raw_mfcc_train.2.ark:3451179
msvs0_sx308 quick_test/mfcc/raw_mfcc_train.4.ark:2324334
fkdw0_si1891 quick_test/mfcc/raw_mfcc_train.1.ark:2095540
mcdd0_si1513 quick_test/mfcc/raw_mfcc_train.2.ark:1540625
fsdc0_si1942 quick_test/mfcc/raw_mfcc_train.1.ark:3739465
fmem0_sx297 quick_test/mfcc/raw_mfcc_train.1.ark:2869370
mcew0_si1442 quick_test/mfcc/raw_mfcc_train.2.ark:1636242
mjjb0_si1139 quick_test/mfcc/raw_mfcc_train.3.ark:1036449
fjrb0_si1932 quick_test/mfcc/raw_mfcc_train.1.ark:1786302
ftbw0_si715 quick_test/mfcc/raw_mfcc_train.2.ark:476511
mmlm0_sx357 quick_test/mfcc/raw_mfcc_train.3.ark:3164031
mjjj0_sx263 quick_test/mfcc/raw_mfcc_train.3.ark:1089719
mlsh0_sx157 quick_test/mfcc/raw_mfcc_train.3.ark:2549268
mjeb0_sx170 quick_test/mfcc/raw_mfcc_train.3.ark:855430
mdns0_si2271 quick_test/mfcc/raw_mfcc_train.2.ark:2752587
mgag0_sx331 quick_test/mfcc/raw_mfcc_train.2.ark:3631995
mrjt0_sx58 quick_test/mfcc/raw_mfcc_train.4.ark:1012026
mrgs0_sx276 quick_test/mfcc/raw_mfcc_train.4.ark:792797
fapb0_si1063 quick_test/mfcc/raw_mfcc_train.1.ark:131783
msat0_si2156 quick_test/mfcc/raw_mfcc_train.4.ark:1773766
mbml0_si1169 quick_test/mfcc/raw_mfcc_train.2.ark:1286893
mjls0_sx106 quick_test/mfcc/raw_mfcc_train.3.ark:1247064
fjrp1_sx352 quick_test/mfcc/raw_mfcc_train.1.ark:1838452
mbbr0_sx425 quick_test/mfcc/raw_mfcc_train.2.ark:1094606
mrjm0_si1228 quick_test/mfcc/raw_mfcc_train.4.ark:920233
mfxv0_sx15 quick_test/mfcc/raw_mfcc_train.2.ark:3569994
mbar0_si1949 quick_test/mfcc/raw_mfcc_train.2.ark:1043150
mjae0_sx174 quick_test/mfcc/raw_mfcc_train.3.ark:587329
mtkp0_sx303 quick_test/mfcc/raw_mfcc_train.4.ark:2834269
fltm0_si2330 quick_test/mfcc/raw_mfcc_train.1.ark:2757483
mtkp0_sx393 quick_test/mfcc/raw_mfcc_train.4.ark:2840886
mtdb0_sx141 quick_test/mfcc/raw_mfcc_train.4.ark:2550542
mdlc0_si1395 quick_test/mfcc/raw_mfcc_train.2.ark:2451973
mmsm0_sx116 quick_test/mfcc/raw_mfcc_train.3.ark:3256748
mjai0_sx164 quick_test/mfcc/raw_mfcc_train.3.ark:626554
fdjh0_si935 quick_test/mfcc/raw_mfcc_train.1.ark:887465
mgrp0_si687 quick_test/mfcc/raw_mfcc_train.3.ark:166923
fntb0_sx303 quick_test/mfcc/raw_mfcc_train.1.ark:3180123
mmgc0_si1305 quick_test/mfcc/raw_mfcc_train.3.ark:3025510
fklc0_sx85 quick_test/mfcc/raw_mfcc_train.1.ark:2224426
fjdm2_sx322 quick_test/mfcc/raw_mfcc_train.1.ark:1603920
fsms1_sx64 quick_test/mfcc/raw_mfcc_train.2.ark:306956
fmju0_si1389 quick_test/mfcc/raw_mfcc_train.1.ark:2952366
mdss1_sx337 quick_test/mfcc/raw_mfcc_train.2.ark:2985623
mmxs0_si629 quick_test/mfcc/raw_mfcc_train.3.ark:3416957
mtmt0_si1748 quick_test/mfcc/raw_mfcc_train.4.ark:2979867
mbcg0_sx327 quick_test/mfcc/raw_mfcc_train.2.ark:1117535
fcaj0_si1804 quick_test/mfcc/raw_mfcc_train.1.ark:441914
mtwh1_sx342 quick_test/mfcc/raw_mfcc_train.4.ark:3286258
mdbp0_sx438 quick_test/mfcc/raw_mfcc_train.2.ark:2081364
mdtb0_sx300 quick_test/mfcc/raw_mfcc_train.2.ark:3012941
mdlm0_si604 quick_test/mfcc/raw_mfcc_train.2.ark:2587143
mzmb0_sx176 quick_test/mfcc/raw_mfcc_train.4.ark:3789570
milb0_sx3 quick_test/mfcc/raw_mfcc_train.3.ark:535098
mtrr0_sx18 quick_test/mfcc/raw_mfcc_train.4.ark:3221851
mfxs0_sx414 quick_test/mfcc/raw_mfcc_train.2.ark:3544224
mdma0_sx80 quick_test/mfcc/raw_mfcc_train.2.ark:2712981
mdhs0_si1530 quick_test/mfcc/raw_mfcc_train.2.ark:2319742
flja0_sx88 quick_test/mfcc/raw_mfcc_train.1.ark:2516715
mrwa0_si973 quick_test/mfcc/raw_mfcc_train.4.ark:1622388
mzmb0_sx446 quick_test/mfcc/raw_mfcc_train.4.ark:3802331
mjeb0_si656 quick_test/mfcc/raw_mfcc_train.3.ark:852186
mdma0_sx440 quick_test/mfcc/raw_mfcc_train.2.ark:2706813
mpgr1_sx59 quick_test/mfcc/raw_mfcc_train.3.ark:3686033
flma0_si1243 quick_test/mfcc/raw_mfcc_train.1.ark:2628784
mmvp0_si1914 quick_test/mfcc/raw_mfcc_train.3.ark:3279255
fmah1_si879 quick_test/mfcc/raw_mfcc_train.1.ark:2791210
fskc0_si786 quick_test/mfcc/raw_mfcc_train.2.ark:91793
fkkh0_sx390 quick_test/mfcc/raw_mfcc_train.1.ark:2189893
marw0_sx106 quick_test/mfcc/raw_mfcc_train.2.ark:1014039
fdkn0_sx91 quick_test/mfcc/raw_mfcc_train.1.ark:943808
fdfb0_sx148 quick_test/mfcc/raw_mfcc_train.1.ark:862234
fmjf0_sx444 quick_test/mfcc/raw_mfcc_train.1.ark:2942719
mbml0_sx359 quick_test/mfcc/raw_mfcc_train.2.ark:1303881
mmdg0_sx160 quick_test/mfcc/raw_mfcc_train.3.ark:2854853
mrvg0_sx150 quick_test/mfcc/raw_mfcc_train.4.ark:1595935
mdlr1_sx309 quick_test/mfcc/raw_mfcc_train.2.ark:2665720
ftlg0_si483 quick_test/mfcc/raw_mfcc_train.2.ark:508163
mfrm0_si1785 quick_test/mfcc/raw_mfcc_train.2.ark:3468018
mrms0_si2100 quick_test/mfcc/raw_mfcc_train.4.ark:1351804
mrfl0_sx256 quick_test/mfcc/raw_mfcc_train.4.ark:719012
flja0_sx178 quick_test/mfcc/raw_mfcc_train.1.ark:2498579
mjma0_sx235 quick_test/mfcc/raw_mfcc_train.3.ark:1283177
mwgr0_sx256 quick_test/mfcc/raw_mfcc_train.4.ark:3630785
mwrp0_sx363 quick_test/mfcc/raw_mfcc_train.4.ark:3702465
mbar0_sx149 quick_test/mfcc/raw_mfcc_train.2.ark:1049586
mdma0_sx350 quick_test/mfcc/raw_mfcc_train.2.ark:2700748
mwdk0_sx176 quick_test/mfcc/raw_mfcc_train.4.ark:3560541
fsah0_si614 quick_test/mfcc/raw_mfcc_train.1.ark:3601093
mjrp0_si585 quick_test/mfcc/raw_mfcc_train.3.ark:1614629
mrxb0_si955 quick_test/mfcc/raw_mfcc_train.4.ark:1683082
fpaz0_si1593 quick_test/mfcc/raw_mfcc_train.1.ark:3331173
fskc0_sx66 quick_test/mfcc/raw_mfcc_train.2.ark:110040
fcyl0_sx397 quick_test/mfcc/raw_mfcc_train.1.ark:779681
mhmr0_sx219 quick_test/mfcc/raw_mfcc_train.3.ark:434668
fbmh0_si1766 quick_test/mfcc/raw_mfcc_train.1.ark:348442
mjxa0_si1507 quick_test/mfcc/raw_mfcc_train.3.ark:1785354
fbjl0_sx292 quick_test/mfcc/raw_mfcc_train.1.ark:298402
mtrc0_sx170 quick_test/mfcc/raw_mfcc_train.4.ark:3188963
mjeb1_sx117 quick_test/mfcc/raw_mfcc_train.3.ark:893044
mmdb0_si1358 quick_test/mfcc/raw_mfcc_train.3.ark:2812836
mlbc0_si1869 quick_test/mfcc/raw_mfcc_train.3.ark:2369205
mjrp0_sx45 quick_test/mfcc/raw_mfcc_train.3.ark:1632954
mrms0_sx390 quick_test/mfcc/raw_mfcc_train.4.ark:1366892
fkkh0_sx300 quick_test/mfcc/raw_mfcc_train.1.ark:2186597
mpsw0_sx167 quick_test/mfcc/raw_mfcc_train.4.ark:167925
mkrg0_sx31 quick_test/mfcc/raw_mfcc_train.3.ark:2323579
ftaj0_sx429 quick_test/mfcc/raw_mfcc_train.2.ark:431783
mjma0_si2125 quick_test/mfcc/raw_mfcc_train.3.ark:1269519
mrav0_sx378 quick_test/mfcc/raw_mfcc_train.4.ark:342334
mcre0_sx41 quick_test/mfcc/raw_mfcc_train.2.ark:1828769
fdmy0_sx207 quick_test/mfcc/raw_mfcc_train.1.ark:1002675
mjpm1_sx311 quick_test/mfcc/raw_mfcc_train.3.ark:1432749
mmeb0_si1357 quick_test/mfcc/raw_mfcc_train.3.ark:2995958
mrbc0_si1665 quick_test/mfcc/raw_mfcc_train.4.ark:346034
mmwb0_si1619 quick_test/mfcc/raw_mfcc_train.3.ark:3314327
mrjt0_si1498 quick_test/mfcc/raw_mfcc_train.4.ark:984027
marw0_sx376 quick_test/mfcc/raw_mfcc_train.2.ark:1034099
fleh0_si1681 quick_test/mfcc/raw_mfcc_train.1.ark:2397992
mtjg0_sx440 quick_test/mfcc/raw_mfcc_train.4.ark:2666109
fsah0_sx327 quick_test/mfcc/raw_mfcc_train.1.ark:3611208
fdnc0_si1278 quick_test/mfcc/raw_mfcc_train.1.ark:1020396
fssb0_si2342 quick_test/mfcc/raw_mfcc_train.2.ark:388032
fjwb1_si795 quick_test/mfcc/raw_mfcc_train.1.ark:1929030
mbth0_si2102 quick_test/mfcc/raw_mfcc_train.2.ark:1368236
mrfk0_sx266 quick_test/mfcc/raw_mfcc_train.4.ark:685714
mtpp0_si2138 quick_test/mfcc/raw_mfcc_train.4.ark:3073469
mtrt0_sx417 quick_test/mfcc/raw_mfcc_train.4.ark:3261352
mbml0_sx449 quick_test/mfcc/raw_mfcc_train.2.ark:1308555
mkes0_si1883 quick_test/mfcc/raw_mfcc_train.3.ark:2082052
mses0_sx149 quick_test/mfcc/raw_mfcc_train.4.ark:1975977
mjfh0_sx207 quick_test/mfcc/raw_mfcc_train.3.ark:957606
flkm0_si1880 quick_test/mfcc/raw_mfcc_train.1.ark:2592094
fjkl0_sx32 quick_test/mfcc/raw_mfcc_train.1.ark:1708996
mmbs0_sx161 quick_test/mfcc/raw_mfcc_train.3.ark:2756753
mcre0_sx221 quick_test/mfcc/raw_mfcc_train.2.ark:1817232
mtas0_sx395 quick_test/mfcc/raw_mfcc_train.4.ark:2399328
mjde0_sx400 quick_test/mfcc/raw_mfcc_train.3.ark:772293
mafm0_si939 quick_test/mfcc/raw_mfcc_train.2.ark:820469
mclk0_si1660 quick_test/mfcc/raw_mfcc_train.2.ark:1709898
mgrl0_sx237 quick_test/mfcc/raw_mfcc_train.3.ark:142167
mmwb0_si989 quick_test/mfcc/raw_mfcc_train.3.ark:3326198
fcyl0_sx127 quick_test/mfcc/raw_mfcc_train.1.ark:764847
mnet0_si2076 quick_test/mfcc/raw_mfcc_train.3.ark:3449826
ftaj0_sx249 quick_test/mfcc/raw_mfcc_train.2.ark:426179
mjsr0_si2054 quick_test/mfcc/raw_mfcc_train.3.ark:1641329
msdb0_sx197 quick_test/mfcc/raw_mfcc_train.4.ark:1842276
mctm0_sx450 quick_test/mfcc/raw_mfcc_train.2.ark:1923495
mgsh0_sx186 quick_test/mfcc/raw_mfcc_train.3.ark:212650
mmaa0_si2105 quick_test/mfcc/raw_mfcc_train.3.ark:2576455
mrjh0_sx439 quick_test/mfcc/raw_mfcc_train.4.ark:907159
mgjc0_sx165 quick_test/mfcc/raw_mfcc_train.3.ark:103012
mprb0_sx215 quick_test/mfcc/raw_mfcc_train.4.ark:36378
mmsm0_si1106 quick_test/mfcc/raw_mfcc_train.3.ark:3241724
mrso0_si1206 quick_test/mfcc/raw_mfcc_train.4.ark:1436265
mtxs0_si2320 quick_test/mfcc/raw_mfcc_train.4.ark:3305392
mesg0_sx432 quick_test/mfcc/raw_mfcc_train.2.ark:3333823
mcre0_si1121 quick_test/mfcc/raw_mfcc_train.2.ark:1801615
fmkf0_sx276 quick_test/mfcc/raw_mfcc_train.1.ark:3037374
mwad0_sx72 quick_test/mfcc/raw_mfcc_train.4.ark:3487114
mkrg0_sx231 quick_test/mfcc/raw_mfcc_train.3.ark:2322052
fcke0_sx121 quick_test/mfcc/raw_mfcc_train.1.ark:606832
frll0_sx74 quick_test/mfcc/raw_mfcc_train.1.ark:3550898
mntw0_sx78 quick_test/mfcc/raw_mfcc_train.3.ark:3504497
msfh0_sx406 quick_test/mfcc/raw_mfcc_train.4.ark:2023232
mfrm0_si1155 quick_test/mfcc/raw_mfcc_train.2.ark:3459435
mdtb0_sx120 quick_test/mfcc/raw_mfcc_train.2.ark:3005946
mree0_sx294 quick_test/mfcc/raw_mfcc_train.4.ark:563442
mdas0_si636 quick_test/mfcc/raw_mfcc_train.2.ark:2004719
fscn0_sx86 quick_test/mfcc/raw_mfcc_train.1.ark:3730336
msfh0_si1216 quick_test/mfcc/raw_mfcc_train.4.ark:1993159
fssb0_si1712 quick_test/mfcc/raw_mfcc_train.2.ark:382356
mmvp0_sx204 quick_test/mfcc/raw_mfcc_train.3.ark:3296098
mdhl0_sx89 quick_test/mfcc/raw_mfcc_train.2.ark:2316146
mafm0_si1569 quick_test/mfcc/raw_mfcc_train.2.ark:816853
mjfh0_sx117 quick_test/mfcc/raw_mfcc_train.3.ark:954570
mmgg0_sx179 quick_test/mfcc/raw_mfcc_train.3.ark:3067477
mcef0_si842 quick_test/mfcc/raw_mfcc_train.2.ark:1613177
mpgr1_si1269 quick_test/mfcc/raw_mfcc_train.3.ark:3657006
mwgr0_sx76 quick_test/mfcc/raw_mfcc_train.4.ark:3641543
mgsh0_sx96 quick_test/mfcc/raw_mfcc_train.3.ark:223887
fjxp0_si1122 quick_test/mfcc/raw_mfcc_train.1.ark:1987460
msfv0_sx272 quick_test/mfcc/raw_mfcc_train.4.ark:2051134
msds0_si1707 quick_test/mfcc/raw_mfcc_train.4.ark:1890866
mwch0_si2252 quick_test/mfcc/raw_mfcc_train.4.ark:3526092
mwch0_sx272 quick_test/mfcc/raw_mfcc_train.4.ark:3532658
fjlg0_sx89 quick_test/mfcc/raw_mfcc_train.1.ark:1744889
madc0_si1367 quick_test/mfcc/raw_mfcc_train.2.ark:687547
mgrp0_sx147 quick_test/mfcc/raw_mfcc_train.3.ark:171324
mmgk0_si1322 quick_test/mfcc/raw_mfcc_train.3.ark:3087753
mrhl0_si1515 quick_test/mfcc/raw_mfcc_train.4.ark:811088
mrml0_si2051 quick_test/mfcc/raw_mfcc_train.4.ark:1307552
mkls0_sx447 quick_test/mfcc/raw_mfcc_train.3.ark:2229971
msem1_si1440 quick_test/mfcc/raw_mfcc_train.4.ark:1922402
mjrg0_si1996 quick_test/mfcc/raw_mfcc_train.3.ark:1484536
mjai0_sx74 quick_test/mfcc/raw_mfcc_train.3.ark:639698
mmaa0_sx125 quick_test/mfcc/raw_mfcc_train.3.ark:2585764
mdlr1_sx129 quick_test/mfcc/raw_mfcc_train.2.ark:2657347
fdas1_si1461 quick_test/mfcc/raw_mfcc_train.1.ark:783914
fcke0_si1111 quick_test/mfcc/raw_mfcc_train.1.ark:593043
mmgg0_sx269 quick_test/mfcc/raw_mfcc_train.3.ark:3071514
mtml0_si2325 quick_test/mfcc/raw_mfcc_train.4.ark:2915241
makb0_si1016 quick_test/mfcc/raw_mfcc_train.2.ark:880109
fclt0_sx88 quick_test/mfcc/raw_mfcc_train.1.ark:649114
fear0_sx262 quick_test/mfcc/raw_mfcc_train.1.ark:1169102
mjda0_si1031 quick_test/mfcc/raw_mfcc_train.3.ark:675878
mjdc0_si1161 quick_test/mfcc/raw_mfcc_train.3.ark:703990
fsah0_sx434 quick_test/mfcc/raw_mfcc_train.1.ark:3620595
mdcm0_si850 quick_test/mfcc/raw_mfcc_train.2.ark:2131786
mrai0_sx162 quick_test/mfcc/raw_mfcc_train.4.ark:264581
fgcs0_sx406 quick_test/mfcc/raw_mfcc_train.1.ark:1387508
mtmn0_sx164 quick_test/mfcc/raw_mfcc_train.4.ark:2958101
mrbc0_sx239 quick_test/mfcc/raw_mfcc_train.4.ark:361429
ftbr0_si2181 quick_test/mfcc/raw_mfcc_train.2.ark:444116
mchl0_si1347 quick_test/mfcc/raw_mfcc_train.2.ark:1677197
madd0_sx178 quick_test/mfcc/raw_mfcc_train.2.ark:733373
mtlb0_si1764 quick_test/mfcc/raw_mfcc_train.4.ark:2850015
mwdk0_sx446 quick_test/mfcc/raw_mfcc_train.4.ark:3572873
mpfu0_si1258 quick_test/mfcc/raw_mfcc_train.3.ark:3565225
mdwm0_sx16 quick_test/mfcc/raw_mfcc_train.2.ark:3108421
meal0_sx377 quick_test/mfcc/raw_mfcc_train.2.ark:3146772
madd0_si1798 quick_test/mfcc/raw_mfcc_train.2.ark:724883
fpaz0_sx63 quick_test/mfcc/raw_mfcc_train.1.ark:3361095
mjra0_sx66 quick_test/mfcc/raw_mfcc_train.3.ark:1477019
mrlr0_si1826 quick_test/mfcc/raw_mfcc_train.4.ark:1182249
mjbg0_sx242 quick_test/mfcc/raw_mfcc_train.3.ark:657559
fvkb0_sx259 quick_test/mfcc/raw_mfcc_train.2.ark:610796
mrsp0_sx259 quick_test/mfcc/raw_mfcc_train.4.ark:1497316
mgsh0_sx276 quick_test/mfcc/raw_mfcc_train.3.ark:216505
mrav0_sx18 quick_test/mfcc/raw_mfcc_train.4.ark:332420
mmsm0_si476 quick_test/mfcc/raw_mfcc_train.3.ark:3250943
mjae0_si1524 quick_test/mfcc/raw_mfcc_train.3.ark:576776
fklh0_sx177 quick_test/mfcc/raw_mfcc_train.1.ark:2273446
mtpg0_sx303 quick_test/mfcc/raw_mfcc_train.4.ark:3058061
mdas0_si1896 quick_test/mfcc/raw_mfcc_train.2.ark:1999148
mdma0_sx170 quick_test/mfcc/raw_mfcc_train.2.ark:2689476
mbcg0_sx237 quick_test/mfcc/raw_mfcc_train.2.ark:1115240
fpad0_sx446 quick_test/mfcc/raw_mfcc_train.1.ark:3290567
milb0_sx273 quick_test/mfcc/raw_mfcc_train.3.ark:532194
mmar0_si1966 quick_test/mfcc/raw_mfcc_train.3.ark:2708894
madd0_sx448 quick_test/mfcc/raw_mfcc_train.2.ark:746173
mlbc0_sx159 quick_test/mfcc/raw_mfcc_train.3.ark:2377201
mpar0_sx406 quick_test/mfcc/raw_mfcc_train.3.ark:3529170
mjai0_si710 quick_test/mfcc/raw_mfcc_train.3.ark:620580
fdjh0_si2195 quick_test/mfcc/raw_mfcc_train.1.ark:883298
fcrz0_sx73 quick_test/mfcc/raw_mfcc_train.1.ark:746513
msfh0_si1738 quick_test/mfcc/raw_mfcc_train.4.ark:1997600
msdh0_si2113 quick_test/mfcc/raw_mfcc_train.4.ark:1850605
mbma0_sx322 quick_test/mfcc/raw_mfcc_train.2.ark:1240782
mjwt0_sx391 quick_test/mfcc/raw_mfcc_train.3.ark:1782239
mmsm0_sx206 quick_test/mfcc/raw_mfcc_train.3.ark:3259823
mtrr0_si2178 quick_test/mfcc/raw_mfcc_train.4.ark:3208987
mjlg1_si2272 quick_test/mfcc/raw_mfcc_train.3.ark:1209482
mrav0_sx198 quick_test/mfcc/raw_mfcc_train.4.ark:335495
mgrp0_si1317 quick_test/mfcc/raw_mfcc_train.3.ark:157847
mhrm0_si2218 quick_test/mfcc/raw_mfcc_train.3.ark:452800
mtkd0_si1187 quick_test/mfcc/raw_mfcc_train.4.ark:2774636
flmc0_sx22 quick_test/mfcc/raw_mfcc_train.1.ark:2672718
mpsw0_sx24 quick_test/mfcc/raw_mfcc_train.4.ark:171818
flag0_sx24 quick_test/mfcc/raw_mfcc_train.1.ark:2379593
mrpc1_sx132 quick_test/mfcc/raw_mfcc_train.4.ark:1380040
fsmm0_sx234 quick_test/mfcc/raw_mfcc_train.2.ark:258233
mjxl0_sx362 quick_test/mfcc/raw_mfcc_train.3.ark:1835523
mbsb0_sx3 quick_test/mfcc/raw_mfcc_train.2.ark:1360987
mmdg0_si2035 quick_test/mfcc/raw_mfcc_train.3.ark:2847728
mmws0_sx78 quick_test/mfcc/raw_mfcc_train.3.ark:3384333
majp0_si1074 quick_test/mfcc/raw_mfcc_train.2.ark:843560
mtml0_sx75 quick_test/mfcc/raw_mfcc_train.4.ark:2936985
mhxl0_sx62 quick_test/mfcc/raw_mfcc_train.3.ark:510682
msat0_sx356 quick_test/mfcc/raw_mfcc_train.4.ark:1786404
fsdj0_sx215 quick_test/mfcc/raw_mfcc_train.1.ark:3778674
mtpg0_si753 quick_test/mfcc/raw_mfcc_train.4.ark:3046028
mlns0_si2037 quick_test/mfcc/raw_mfcc_train.3.ark:2509716
fjsp0_si1434 quick_test/mfcc/raw_mfcc_train.1.ark:1888178
mkxl0_si1185 quick_test/mfcc/raw_mfcc_train.3.ark:2332583
fksr0_si1747 quick_test/mfcc/raw_mfcc_train.1.ark:2296694
mchl0_sx267 quick_test/mfcc/raw_mfcc_train.2.ark:1694478
fskc0_sx156 quick_test/mfcc/raw_mfcc_train.2.ark:94179
fdnc0_si2287 quick_test/mfcc/raw_mfcc_train.1.ark:1033399
fleh0_sx151 quick_test/mfcc/raw_mfcc_train.1.ark:2404156
mdmt0_si1832 quick_test/mfcc/raw_mfcc_train.2.ark:2716291
mkah0_sx178 quick_test/mfcc/raw_mfcc_train.3.ark:1895227
mdcd0_si1415 quick_test/mfcc/raw_mfcc_train.2.ark:2090348
msms0_si2063 quick_test/mfcc/raw_mfcc_train.4.ark:2174632
fmkf0_si1536 quick_test/mfcc/raw_mfcc_train.1.ark:3025367
mtqc0_sx91 quick_test/mfcc/raw_mfcc_train.4.ark:3173243
fmkc0_si1702 quick_test/mfcc/raw_mfcc_train.1.ark:2995157
fkkh0_si660 quick_test/mfcc/raw_mfcc_train.1.ark:2172088
fskc0_sx246 quick_test/mfcc/raw_mfcc_train.2.ark:97631
mjfh0_sx297 quick_test/mfcc/raw_mfcc_train.3.ark:962416
feme0_sx425 quick_test/mfcc/raw_mfcc_train.1.ark:1287535
fsrh0_si671 quick_test/mfcc/raw_mfcc_train.2.ark:351548
mrld0_sx424 quick_test/mfcc/raw_mfcc_train.4.ark:1079875
fetb0_sx338 quick_test/mfcc/raw_mfcc_train.1.ark:1314092
fmju0_si759 quick_test/mfcc/raw_mfcc_train.1.ark:2961377
mtlb0_sx54 quick_test/mfcc/raw_mfcc_train.4.ark:2872520
mjpg0_si1191 quick_test/mfcc/raw_mfcc_train.3.ark:1354209
fspm0_sx341 quick_test/mfcc/raw_mfcc_train.2.ark:335301
mcss0_sx120 quick_test/mfcc/raw_mfcc_train.2.ark:1849143
mrmg0_si1710 quick_test/mfcc/raw_mfcc_train.4.ark:1241721
frjb0_sx257 quick_test/mfcc/raw_mfcc_train.1.ark:3505907
fbcg1_si1612 quick_test/mfcc/raw_mfcc_train.1.ark:207117
fbch0_si1586 quick_test/mfcc/raw_mfcc_train.1.ark:239050
msrg0_sx231 quick_test/mfcc/raw_mfcc_train.4.ark:2217740
mkag0_sx79 quick_test/mfcc/raw_mfcc_train.3.ark:1880169
mjlg1_si1642 quick_test/mfcc/raw_mfcc_train.3.ark:1205704
fbmj0_sx426 quick_test/mfcc/raw_mfcc_train.1.ark:402678
mhbs0_sx225 quick_test/mfcc/raw_mfcc_train.3.ark:316438
mtmt0_sx308 quick_test/mfcc/raw_mfcc_train.4.ark:2996431
fear0_sx442 quick_test/mfcc/raw_mfcc_train.1.ark:1179139
mtjg0_sx260 quick_test/mfcc/raw_mfcc_train.4.ark:2657138
mpsw0_sx437 quick_test/mfcc/raw_mfcc_train.4.ark:177110
mrlj0_si2050 quick_test/mfcc/raw_mfcc_train.4.ark:1090531
flag0_si834 quick_test/mfcc/raw_mfcc_train.1.ark:2364753
fdaw0_si1271 quick_test/mfcc/raw_mfcc_train.1.ark:817641
fmah1_sx339 quick_test/mfcc/raw_mfcc_train.1.ark:2805115
mdps0_si1651 quick_test/mfcc/raw_mfcc_train.2.ark:2841371
mrso0_si2289 quick_test/mfcc/raw_mfcc_train.4.ark:1448553
fcag0_sx243 quick_test/mfcc/raw_mfcc_train.1.ark:423002
mhit0_sx443 quick_test/mfcc/raw_mfcc_train.3.ark:353936
mjeb0_si1286 quick_test/mfcc/raw_mfcc_train.3.ark:844007
mtpr0_sx250 quick_test/mfcc/raw_mfcc_train.4.ark:3117227
ftmg0_sx272 quick_test/mfcc/raw_mfcc_train.2.ark:551856
maeo0_si1326 quick_test/mfcc/raw_mfcc_train.2.ark:785101
mdlc2_sx84 quick_test/mfcc/raw_mfcc_train.2.ark:2542552
mjma0_sx145 quick_test/mfcc/raw_mfcc_train.3.ark:1279998
makb0_si2276 quick_test/mfcc/raw_mfcc_train.2.ark:892163
fkde0_sx421 quick_test/mfcc/raw_mfcc_train.1.ark:2080555
fpab1_sx301 quick_test/mfcc/raw_mfcc_train.1.ark:3216398
mclk0_sx400 quick_test/mfcc/raw_mfcc_train.2.ark:1740068
fmju0_sx39 quick_test/mfcc/raw_mfcc_train.1.ark:2978577
mwac0_si2231 quick_test/mfcc/raw_mfcc_train.4.ark:3430907
mclm0_si1456 quick_test/mfcc/raw_mfcc_train.2.ark:1743625
fljd0_sx256 quick_test/mfcc/raw_mfcc_train.1.ark:2539190
fvmh0_sx386 quick_test/mfcc/raw_mfcc_train.2.ark:657465
mjkr0_si571 quick_test/mfcc/raw_mfcc_train.3.ark:1148319
mwar0_sx325 quick_test/mfcc/raw_mfcc_train.4.ark:3509545
fjlg0_si1889 quick_test/mfcc/raw_mfcc_train.1.ark:1718782
fdxw0_si881 quick_test/mfcc/raw_mfcc_train.1.ark:1097305
mmws1_sx441 quick_test/mfcc/raw_mfcc_train.3.ark:3407485
mjdm0_sx350 quick_test/mfcc/raw_mfcc_train.3.ark:830076
mwgr0_si1606 quick_test/mfcc/raw_mfcc_train.4.ark:3614077
mlns0_sx147 quick_test/mfcc/raw_mfcc_train.3.ark:2517972
fltm0_sx440 quick_test/mfcc/raw_mfcc_train.1.ark:2776738
fsdc0_sx412 quick_test/mfcc/raw_mfcc_train.1.ark:3756583
mstf0_sx406 quick_test/mfcc/raw_mfcc_train.4.ark:2290042
mfrm0_sx345 quick_test/mfcc/raw_mfcc_train.2.ark:3478959
mrws0_si472 quick_test/mfcc/raw_mfcc_train.4.ark:1653671
mgak0_sx136 quick_test/mfcc/raw_mfcc_train.2.ark:3655127
msem1_sx450 quick_test/mfcc/raw_mfcc_train.4.ark:1955491
mkdb0_si2132 quick_test/mfcc/raw_mfcc_train.3.ark:1979162
fjwb1_sx255 quick_test/mfcc/raw_mfcc_train.1.ark:1936480
fklc0_sx355 quick_test/mfcc/raw_mfcc_train.1.ark:2217016
mchl0_sx447 quick_test/mfcc/raw_mfcc_train.2.ark:1703449
fcke0_sx301 quick_test/mfcc/raw_mfcc_train.1.ark:613736
feeh0_si471 quick_test/mfcc/raw_mfcc_train.1.ark:1235086
fsdj0_sx35 quick_test/mfcc/raw_mfcc_train.1.ark:3785629
mcxm0_sx181 quick_test/mfcc/raw_mfcc_train.2.ark:1942329
mrxb0_sx145 quick_test/mfcc/raw_mfcc_train.4.ark:1688575
mmgc0_si2184 quick_test/mfcc/raw_mfcc_train.3.ark:3035575
mdss0_sx171 quick_test/mfcc/raw_mfcc_train.2.ark:2949516
fpls0_sx60 quick_test/mfcc/raw_mfcc_train.1.ark:3422425
mreh1_sx159 quick_test/mfcc/raw_mfcc_train.4.ark:586190
fgrw0_sx342 quick_test/mfcc/raw_mfcc_train.1.ark:1494377
mhrm0_si958 quick_test/mfcc/raw_mfcc_train.3.ark:456564
mjmm0_sx445 quick_test/mfcc/raw_mfcc_train.3.ark:1348267
mnet0_si816 quick_test/mfcc/raw_mfcc_train.3.ark:3452095
fsjw0_si703 quick_test/mfcc/raw_mfcc_train.2.ark:60016
mmdb0_sx447 quick_test/mfcc/raw_mfcc_train.3.ark:2835967
mram0_sx105 quick_test/mfcc/raw_mfcc_train.4.ark:298712
mtpp0_si1508 quick_test/mfcc/raw_mfcc_train.4.ark:3067949
mwsb0_sx186 quick_test/mfcc/raw_mfcc_train.4.ark:3722482
mjfr0_si1605 quick_test/mfcc/raw_mfcc_train.3.ark:968606
fjkl0_sx212 quick_test/mfcc/raw_mfcc_train.1.ark:1700923
mcdd0_si883 quick_test/mfcc/raw_mfcc_train.2.ark:1547101
frjb0_si1794 quick_test/mfcc/raw_mfcc_train.1.ark:3498639
mpgr0_sx330 quick_test/mfcc/raw_mfcc_train.3.ark:3643855
fecd0_si1418 quick_test/mfcc/raw_mfcc_train.1.ark:1187447
mbsb0_sx363 quick_test/mfcc/raw_mfcc_train.2.ark:1362775
mwch0_sx452 quick_test/mfcc/raw_mfcc_train.4.ark:3539640
mrre0_si704 quick_test/mfcc/raw_mfcc_train.4.ark:1404808
fpls0_sx330 quick_test/mfcc/raw_mfcc_train.1.ark:3418558
fdml0_sx429 quick_test/mfcc/raw_mfcc_train.1.ark:968352
fjsp0_si1763 quick_test/mfcc/raw_mfcc_train.1.ark:1893984
fmkf0_sx186 quick_test/mfcc/raw_mfcc_train.1.ark:3034260
mrxb0_si1585 quick_test/mfcc/raw_mfcc_train.4.ark:1673954
fljd0_sx436 quick_test/mfcc/raw_mfcc_train.1.ark:2547147
fcaj0_sx219 quick_test/mfcc/raw_mfcc_train.1.ark:452881
mkaj0_si784 quick_test/mfcc/raw_mfcc_train.3.ark:1925034
mrdm0_sx335 quick_test/mfcc/raw_mfcc_train.4.ark:497125
mtju0_sx40 quick_test/mfcc/raw_mfcc_train.4.ark:2767133
mcal0_si1768 quick_test/mfcc/raw_mfcc_train.2.ark:1483852
fbmj0_sx66 quick_test/mfcc/raw_mfcc_train.1.ark:406948
mwsb0_sx96 quick_test/mfcc/raw_mfcc_train.4.ark:3735221
mdma0_si2060 quick_test/mfcc/raw_mfcc_train.2.ark:2685309
mrav0_sx108 quick_test/mfcc/raw_mfcc_train.4.ark:328969
mkdb0_sx62 quick_test/mfcc/raw_mfcc_train.3.ark:2008057
fpad0_sx266 quick_test/mfcc/raw_mfcc_train.1.ark:3281804
mddc0_sx69 quick_test/mfcc/raw_mfcc_train.2.ark:2180211
mrmg0_si1080 quick_test/mfcc/raw_mfcc_train.4.ark:1237748
mcew0_sx92 quick_test/mfcc/raw_mfcc_train.2.ark:1672678
msmc0_sx377 quick_test/mfcc/raw_mfcc_train.4.ark:2132803
mjxa0_sx337 quick_test/mfcc/raw_mfcc_train.3.ark:1805358
mlns0_sx327 quick_test/mfcc/raw_mfcc_train.3.ark:2523524
fgrw0_si1152 quick_test/mfcc/raw_mfcc_train.1.ark:1470030
mgrl0_si2127 quick_test/mfcc/raw_mfcc_train.3.ark:129978
mcdc0_sx32 quick_test/mfcc/raw_mfcc_train.2.ark:1532823
mjmd0_sx218 quick_test/mfcc/raw_mfcc_train.3.ark:1309508
mewm0_si718 quick_test/mfcc/raw_mfcc_train.2.ark:3374792
mtju0_si2269 quick_test/mfcc/raw_mfcc_train.4.ark:2749406
mjlg1_sx292 quick_test/mfcc/raw_mfcc_train.3.ark:1223861
mhmg0_sx285 quick_test/mfcc/raw_mfcc_train.3.ark:409573
mpgr0_sx60 quick_test/mfcc/raw_mfcc_train.3.ark:3652864
mgag0_si691 quick_test/mfcc/raw_mfcc_train.2.ark:3620014
mtcs0_si712 quick_test/mfcc/raw_mfcc_train.4.ark:2508462
mnet0_sx276 quick_test/mfcc/raw_mfcc_train.3.ark:3458947
msat0_sx266 quick_test/mfcc/raw_mfcc_train.4.ark:1783758
mfwk0_si619 quick_test/mfcc/raw_mfcc_train.2.ark:3496987
fclt0_sx358 quick_test/mfcc/raw_mfcc_train.1.ark:642276
fsmm0_si684 quick_test/mfcc/raw_mfcc_train.2.ark:250627
mesj0_si2039 quick_test/mfcc/raw_mfcc_train.2.ark:3341416
mhmg0_si1365 quick_test/mfcc/raw_mfcc_train.3.ark:387236
mmam0_sx157 quick_test/mfcc/raw_mfcc_train.3.ark:2686569
mbsb0_sx273 quick_test/mfcc/raw_mfcc_train.2.ark:1358564
mtdp0_sx171 quick_test/mfcc/raw_mfcc_train.4.ark:2582957
mrcw0_sx381 quick_test/mfcc/raw_mfcc_train.4.ark:442995
mdbb1_si1006 quick_test/mfcc/raw_mfcc_train.2.ark:2025584
mmgk0_sx332 quick_test/mfcc/raw_mfcc_train.3.ark:3102505
megj0_sx3 quick_test/mfcc/raw_mfcc_train.2.ark:3237094
falk0_sx186 quick_test/mfcc/raw_mfcc_train.1.ark:82540
mdlr1_sx399 quick_test/mfcc/raw_mfcc_train.2.ark:2674235
freh0_sx235 quick_test/mfcc/raw_mfcc_train.1.ark:3480603
flhd0_sx174 quick_test/mfcc/raw_mfcc_train.1.ark:2465969
mmrp0_si717 quick_test/mfcc/raw_mfcc_train.3.ark:3209019
mdrd0_sx302 quick_test/mfcc/raw_mfcc_train.2.ark:2895024
mrav0_sx288 quick_test/mfcc/raw_mfcc_train.4.ark:338557
fjdm2_si2212 quick_test/mfcc/raw_mfcc_train.1.ark:1589287
fsak0_sx400 quick_test/mfcc/raw_mfcc_train.1.ark:3655706
mrmg0_sx270 quick_test/mfcc/raw_mfcc_train.4.ark:1254002
mfxs0_sx54 quick_test/mfcc/raw_mfcc_train.2.ark:3548338
mtat0_sx300 quick_test/mfcc/raw_mfcc_train.4.ark:2428238
mljc0_sx325 quick_test/mfcc/raw_mfcc_train.3.ark:2453561
mwch0_si1895 quick_test/mfcc/raw_mfcc_train.4.ark:3524316
mdtb0_sx321 quick_test/mfcc/raw_mfcc_train.2.ark:3015717
mrjb1_sx300 quick_test/mfcc/raw_mfcc_train.4.ark:870325
mdss1_sx157 quick_test/mfcc/raw_mfcc_train.2.ark:2978043
mchl0_sx87 quick_test/mfcc/raw_mfcc_train.2.ark:1706692
mgar0_si1694 quick_test/mfcc/raw_mfcc_train.3.ark:4961
mrhl0_sx345 quick_test/mfcc/raw_mfcc_train.4.ark:829571
mjwg0_si813 quick_test/mfcc/raw_mfcc_train.3.ark:1680190
msmc0_sx17 quick_test/mfcc/raw_mfcc_train.4.ark:2122213
mmag0_sx316 quick_test/mfcc/raw_mfcc_train.3.ark:2663346
mtkd0_sx287 quick_test/mfcc/raw_mfcc_train.4.ark:2800665
madd0_sx358 quick_test/mfcc/raw_mfcc_train.2.ark:742656
medr0_si744 quick_test/mfcc/raw_mfcc_train.2.ark:3158534
mlel0_sx346 quick_test/mfcc/raw_mfcc_train.3.ark:2419132
mjae0_sx264 quick_test/mfcc/raw_mfcc_train.3.ark:592367
mjrh0_sx45 quick_test/mfcc/raw_mfcc_train.3.ark:1541510
mjbg0_si1862 quick_test/mfcc/raw_mfcc_train.3.ark:649680
freh0_si1945 quick_test/mfcc/raw_mfcc_train.1.ark:3468778
frll0_si884 quick_test/mfcc/raw_mfcc_train.1.ark:3532183
fdtd0_sx321 quick_test/mfcc/raw_mfcc_train.1.ark:1083053
mtjm0_sx416 quick_test/mfcc/raw_mfcc_train.4.ark:2698705
mjdc0_si2165 quick_test/mfcc/raw_mfcc_train.3.ark:707079
mdns0_sx381 quick_test/mfcc/raw_mfcc_train.2.ark:2774936
fskp0_sx198 quick_test/mfcc/raw_mfcc_train.2.ark:165351
mtmn0_si1064 quick_test/mfcc/raw_mfcc_train.4.ark:2941179
msmr0_si1405 quick_test/mfcc/raw_mfcc_train.4.ark:2143895
mtmt0_sx38 quick_test/mfcc/raw_mfcc_train.4.ark:2999973
mkaj0_si1414 quick_test/mfcc/raw_mfcc_train.3.ark:1917141
mtas0_sx35 quick_test/mfcc/raw_mfcc_train.4.ark:2396682
fjrb0_sx312 quick_test/mfcc/raw_mfcc_train.1.ark:1798888
fceg0_si1878 quick_test/mfcc/raw_mfcc_train.1.ark:514620
mrbc0_si1859 quick_test/mfcc/raw_mfcc_train.4.ark:349318
mctm0_sx90 quick_test/mfcc/raw_mfcc_train.2.ark:1927817
mjra0_sx246 quick_test/mfcc/raw_mfcc_train.3.ark:1463908
mtbc0_si1173 quick_test/mfcc/raw_mfcc_train.4.ark:2472198
flag0_sx204 quick_test/mfcc/raw_mfcc_train.1.ark:2375115
fjkl0_si1562 quick_test/mfcc/raw_mfcc_train.1.ark:1685801
fltm0_sx170 quick_test/mfcc/raw_mfcc_train.1.ark:2760168
mvrw0_si2115 quick_test/mfcc/raw_mfcc_train.4.ark:3403628
fnkl0_sx82 quick_test/mfcc/raw_mfcc_train.1.ark:3155133
mrab0_si594 quick_test/mfcc/raw_mfcc_train.4.ark:193532
mdef0_sx213 quick_test/mfcc/raw_mfcc_train.2.ark:2235387
makb0_sx386 quick_test/mfcc/raw_mfcc_train.2.ark:915077
mses0_sx59 quick_test/mfcc/raw_mfcc_train.4.ark:1990772
mctm0_si720 quick_test/mfcc/raw_mfcc_train.2.ark:1909778
mjra0_si606 quick_test/mfcc/raw_mfcc_train.3.ark:1456315
mapv0_sx303 quick_test/mfcc/raw_mfcc_train.2.ark:967971
mhmr0_si1692 quick_test/mfcc/raw_mfcc_train.3.ark:420282
mrxb0_sx55 quick_test/mfcc/raw_mfcc_train.4.ark:1702902
fbch0_sx326 quick_test/mfcc/raw_mfcc_train.1.ark:261393
mntw0_si1698 quick_test/mfcc/raw_mfcc_train.3.ark:3480080
fnkl0_si2152 quick_test/mfcc/raw_mfcc_train.1.ark:3130925
fsma0_sx271 quick_test/mfcc/raw_mfcc_train.2.ark:226131
mtju0_sx310 quick_test/mfcc/raw_mfcc_train.4.ark:2763565
msat1_sx353 quick_test/mfcc/raw_mfcc_train.4.ark:1815829
mvlo0_sx337 quick_test/mfcc/raw_mfcc_train.4.ark:3386257
mrws0_sx292 quick_test/mfcc/raw_mfcc_train.4.ark:1665866
ftaj0_si474 quick_test/mfcc/raw_mfcc_train.2.ark:415524
mrjm1_sx128 quick_test/mfcc/raw_mfcc_train.4.ark:963790
mjrk0_si1662 quick_test/mfcc/raw_mfcc_train.3.ark:1577312
mrlk0_si1468 quick_test/mfcc/raw_mfcc_train.4.ark:1144146
mesg0_sx162 quick_test/mfcc/raw_mfcc_train.2.ark:3321556
mcxm0_si1981 quick_test/mfcc/raw_mfcc_train.2.ark:1934151
mjpm1_sx131 quick_test/mfcc/raw_mfcc_train.3.ark:1425676
fsak0_si1930 quick_test/mfcc/raw_mfcc_train.1.ark:3633851
fkde0_sx61 quick_test/mfcc/raw_mfcc_train.1.ark:2084370
mcdc0_sx392 quick_test/mfcc/raw_mfcc_train.2.ark:1536509
mtbc0_si1803 quick_test/mfcc/raw_mfcc_train.4.ark:2474156
mjdg0_sx232 quick_test/mfcc/raw_mfcc_train.3.ark:793313
fcjs0_si1607 quick_test/mfcc/raw_mfcc_train.1.ark:562761
mrre0_si1334 quick_test/mfcc/raw_mfcc_train.4.ark:1397963
mgaw0_si535 quick_test/mfcc/raw_mfcc_train.3.ark:43298
fsjk1_sx305 quick_test/mfcc/raw_mfcc_train.2.ark:4023
mgrp0_sx57 quick_test/mfcc/raw_mfcc_train.3.ark:189564
mtwh1_si882 quick_test/mfcc/raw_mfcc_train.4.ark:3275616
mdbp0_si528 quick_test/mfcc/raw_mfcc_train.2.ark:2062486
mlsh0_sx337 quick_test/mfcc/raw_mfcc_train.3.ark:2558473
mkls1_si915 quick_test/mfcc/raw_mfcc_train.3.ark:2244573
mwsh0_si796 quick_test/mfcc/raw_mfcc_train.4.ark:3747789
mdlc2_si984 quick_test/mfcc/raw_mfcc_train.2.ark:2522589
fdjh0_sx215 quick_test/mfcc/raw_mfcc_train.1.ark:896215
fpac0_sx31 quick_test/mfcc/raw_mfcc_train.1.ark:3256111
fmjb0_sx97 quick_test/mfcc/raw_mfcc_train.1.ark:2914575
mmxs0_sx336 quick_test/mfcc/raw_mfcc_train.3.ark:3431675
mjkr0_sx31 quick_test/mfcc/raw_mfcc_train.3.ark:1166065
marw0_si1906 quick_test/mfcc/raw_mfcc_train.2.ark:1007941
fjxm0_sx131 quick_test/mfcc/raw_mfcc_train.1.ark:1962270
mrlj1_sx51 quick_test/mfcc/raw_mfcc_train.4.ark:1140927
mrjb1_sx30 quick_test/mfcc/raw_mfcc_train.4.ark:867497
mbma1_sx144 quick_test/mfcc/raw_mfcc_train.2.ark:1264186
mjjj0_sx443 quick_test/mfcc/raw_mfcc_train.3.ark:1098976
mgaw0_si1165 quick_test/mfcc/raw_mfcc_train.3.ark:32441
ftbr0_sx111 quick_test/mfcc/raw_mfcc_train.2.ark:452957
mjpg0_sx21 quick_test/mfcc/raw_mfcc_train.3.ark:1373653
mmgg0_sx449 quick_test/mfcc/raw_mfcc_train.3.ark:3078899
mmgg0_sx359 quick_test/mfcc/raw_mfcc_train.3.ark:3074381
mtmn0_sx254 quick_test/mfcc/raw_mfcc_train.4.ark:2962827
fjwb1_sx165 quick_test/mfcc/raw_mfcc_train.1.ark:1932638
fvmh0_si2096 quick_test/mfcc/raw_mfcc_train.2.ark:635480
maeo0_si1956 quick_test/mfcc/raw_mfcc_train.2.ark:794321
mgar0_sx312 quick_test/mfcc/raw_mfcc_train.3.ark:19771
mrds0_sx357 quick_test/mfcc/raw_mfcc_train.4.ark:526991
mtpr0_si506 quick_test/mfcc/raw_mfcc_train.4.ark:3109153
fkaa0_si1838 quick_test/mfcc/raw_mfcc_train.1.ark:2021559
mrlj0_si790 quick_test/mfcc/raw_mfcc_train.4.ark:1093125
mgag0_si1321 quick_test/mfcc/raw_mfcc_train.2.ark:3612447
mmlm0_sx447 quick_test/mfcc/raw_mfcc_train.3.ark:3168029
mkag0_sx169 quick_test/mfcc/raw_mfcc_train.3.ark:1864504
mtju0_si2020 quick_test/mfcc/raw_mfcc_train.4.ark:2743873
mgag0_si645 quick_test/mfcc/raw_mfcc_train.2.ark:3617420
mddc0_si789 quick_test/mfcc/raw_mfcc_train.2.ark:2161769
mklw0_sx221 quick_test/mfcc/raw_mfcc_train.3.ark:2283177
fmmh0_si907 quick_test/mfcc/raw_mfcc_train.1.ark:3063194
mtwh1_si1512 quick_test/mfcc/raw_mfcc_train.4.ark:3269088
mbma0_si1852 quick_test/mfcc/raw_mfcc_train.2.ark:1227585
mtrt0_sx254 quick_test/mfcc/raw_mfcc_train.4.ark:3258433
fdaw0_sx236 quick_test/mfcc/raw_mfcc_train.1.ark:837353
mrtc0_sx378 quick_test/mfcc/raw_mfcc_train.4.ark:1540806
mrab1_sx128 quick_test/mfcc/raw_mfcc_train.4.ark:230113
mrpc1_sx402 quick_test/mfcc/raw_mfcc_train.4.ark:1391904
mjwg0_sx175 quick_test/mfcc/raw_mfcc_train.3.ark:1694452
mgxp0_si1087 quick_test/mfcc/raw_mfcc_train.3.ark:264277
mejs0_sx70 quick_test/mfcc/raw_mfcc_train.2.ark:3307798
fjhk0_si1022 quick_test/mfcc/raw_mfcc_train.1.ark:1653568
flkm0_sx80 quick_test/mfcc/raw_mfcc_train.1.ark:2625604
fcke0_sx31 quick_test/mfcc/raw_mfcc_train.1.ark:617330
mwre0_sx247 quick_test/mfcc/raw_mfcc_train.4.ark:3660457
mjws0_sx423 quick_test/mfcc/raw_mfcc_train.3.ark:1740654
fcjf0_si648 quick_test/mfcc/raw_mfcc_train.1.ark:545117
fgdp0_si988 quick_test/mfcc/raw_mfcc_train.1.ark:1402058
fklh0_si1887 quick_test/mfcc/raw_mfcc_train.1.ark:2267777
mjsr0_sx434 quick_test/mfcc/raw_mfcc_train.3.ark:1667650
mdcm0_sx400 quick_test/mfcc/raw_mfcc_train.2.ark:2150683
maeo0_sx246 quick_test/mfcc/raw_mfcc_train.2.ark:801264
mtkd0_si1817 quick_test/mfcc/raw_mfcc_train.4.ark:2778219
mtat1_sx239 quick_test/mfcc/raw_mfcc_train.4.ark:2453229
mded0_sx270 quick_test/mfcc/raw_mfcc_train.2.ark:2202478
mrjb1_sx120 quick_test/mfcc/raw_mfcc_train.4.ark:858566
mcss0_si688 quick_test/mfcc/raw_mfcc_train.2.ark:1839093
mbth0_sx32 quick_test/mfcc/raw_mfcc_train.2.ark:1394940
mmam0_sx247 quick_test/mfcc/raw_mfcc_train.3.ark:2689254
fsbk0_sx439 quick_test/mfcc/raw_mfcc_train.1.ark:3685086
fljg0_si2241 quick_test/mfcc/raw_mfcc_train.1.ark:2558206
fcyl0_si667 quick_test/mfcc/raw_mfcc_train.1.ark:758249
fskp0_si468 quick_test/mfcc/raw_mfcc_train.2.ark:155048
mtlb0_sx324 quick_test/mfcc/raw_mfcc_train.4.ark:2863069
msdh0_si2240 quick_test/mfcc/raw_mfcc_train.4.ark:1852368
mdcm0_si1480 quick_test/mfcc/raw_mfcc_train.2.ark:2121956
mdac0_si1261 quick_test/mfcc/raw_mfcc_train.2.ark:1962254
fklc0_si985 quick_test/mfcc/raw_mfcc_train.1.ark:2199354
fcag0_sx423 quick_test/mfcc/raw_mfcc_train.1.ark:431921
mtmt0_sx398 quick_test/mfcc/raw_mfcc_train.4.ark:3003815
mtpf0_si1235 quick_test/mfcc/raw_mfcc_train.4.ark:3008282
frll0_sx344 quick_test/mfcc/raw_mfcc_train.1.ark:3544502
fbmj0_sx336 quick_test/mfcc/raw_mfcc_train.1.ark:396366
mrlj1_sx141 quick_test/mfcc/raw_mfcc_train.4.ark:1127081
mdbb1_si1636 quick_test/mfcc/raw_mfcc_train.2.ark:2030675
mtqc0_sx361 quick_test/mfcc/raw_mfcc_train.4.ark:3161504
mpsw0_sx77 quick_test/mfcc/raw_mfcc_train.4.ark:181211
mtpr0_sx70 quick_test/mfcc/raw_mfcc_train.4.ark:3132262
fmbg0_si2264 quick_test/mfcc/raw_mfcc_train.1.ark:2826173
mhmr0_si489 quick_test/mfcc/raw_mfcc_train.3.ark:426295
fjsp0_sx354 quick_test/mfcc/raw_mfcc_train.1.ark:1908013
mfwk0_sx79 quick_test/mfcc/raw_mfcc_train.2.ark:3518107
mrai0_sx72 quick_test/mfcc/raw_mfcc_train.4.ark:282431
mpgr1_sx149 quick_test/mfcc/raw_mfcc_train.3.ark:3668794
msfh0_sx316 quick_test/mfcc/raw_mfcc_train.4.ark:2019572
mwre0_si1057 quick_test/mfcc/raw_mfcc_train.4.ark:3645321
mkdb0_sx332 quick_test/mfcc/raw_mfcc_train.3.ark:1998788
mbma1_sx414 quick_test/mfcc/raw_mfcc_train.2.ark:1277870
mdhl0_sx449 quick_test/mfcc/raw_mfcc_train.2.ark:2311382
mrlr0_sx116 quick_test/mfcc/raw_mfcc_train.4.ark:1190180
mcth0_sx129 quick_test/mfcc/raw_mfcc_train.2.ark:1879321
mwad0_si1062 quick_test/mfcc/raw_mfcc_train.4.ark:3464288
fetb0_si1778 quick_test/mfcc/raw_mfcc_train.1.ark:1298191
mkrg0_si1491 quick_test/mfcc/raw_mfcc_train.3.ark:2302042
fpab1_sx121 quick_test/mfcc/raw_mfcc_train.1.ark:3207271
mrre0_sx74 quick_test/mfcc/raw_mfcc_train.4.ark:1432045
mmcc0_si708 quick_test/mfcc/raw_mfcc_train.3.ark:2789797
ftmg0_sx362 quick_test/mfcc/raw_mfcc_train.2.ark:555347
milb0_sx363 quick_test/mfcc/raw_mfcc_train.3.ark:537744
feac0_sx435 quick_test/mfcc/raw_mfcc_train.1.ark:1145945
fbmj0_sx246 quick_test/mfcc/raw_mfcc_train.1.ark:392940
mrai0_si1954 quick_test/mfcc/raw_mfcc_train.4.ark:250116
mwgr0_si2236 quick_test/mfcc/raw_mfcc_train.4.ark:3617374
fdjh0_sx395 quick_test/mfcc/raw_mfcc_train.1.ark:906895
mbom0_sx114 quick_test/mfcc/raw_mfcc_train.2.ark:1327104
mbwp0_sx79 quick_test/mfcc/raw_mfcc_train.2.ark:1432236
mtlc0_si1477 quick_test/mfcc/raw_mfcc_train.4.ark:2882650
fexm0_si1101 quick_test/mfcc/raw_mfcc_train.1.ark:1326515
mdmt0_sx302 quick_test/mfcc/raw_mfcc_train.2.ark:2734488
mrds0_si1167 quick_test/mfcc/raw_mfcc_train.4.ark:508443
mjxa0_si877 quick_test/mfcc/raw_mfcc_train.3.ark:1794092
mmdm1_sx153 quick_test/mfcc/raw_mfcc_train.3.ark:2917770
