fbmh0_si1136 quick_test/mfcc/raw_mfcc_train.1.ark:342519
mhmg0_si735 quick_test/mfcc/raw_mfcc_train.3.ark:394479
mmdm0_sx231 quick_test/mfcc/raw_mfcc_train.3.ark:2893397
madd0_si1798 quick_test/mfcc/raw_mfcc_train.2.ark:724883
mcef0_si1135 quick_test/mfcc/raw_mfcc_train.2.ark:1605765
mwar0_sx415 quick_test/mfcc/raw_mfcc_train.4.ark:3512581
msjk0_sx426 quick_test/mfcc/raw_mfcc_train.4.ark:2096029
mgaf0_sx382 quick_test/mfcc/raw_mfcc_train.2.ark:3608851
mpsw0_sx77 quick_test/mfcc/raw_mfcc_train.4.ark:181211
mgjc0_sx75 quick_test/mfcc/raw_mfcc_train.3.ark:122747
mvlo0_sx157 quick_test/mfcc/raw_mfcc_train.4.ark:3378378
mmaa0_sx215 quick_test/mfcc/raw_mfcc_train.3.ark:2589541
mgrl0_sx237 quick_test/mfcc/raw_mfcc_train.3.ark:142167
mtpp0_si2138 quick_test/mfcc/raw_mfcc_train.4.ark:3073469
mjbg0_sx62 quick_test/mfcc/raw_mfcc_train.3.ark:671918
fdmy0_sx27 quick_test/mfcc/raw_mfcc_train.1.ark:1006516
mkjo0_sx77 quick_test/mfcc/raw_mfcc_train.3.ark:2139025
ftlg0_si840 quick_test/mfcc/raw_mfcc_train.2.ark:514527
mjdg0_si1042 quick_test/mfcc/raw_mfcc_train.3.ark:777215
mdlb0_sx406 quick_test/mfcc/raw_mfcc_train.2.ark:2442768
fjsk0_sx332 quick_test/mfcc/raw_mfcc_train.1.ark:1875209
mtbc0_si543 quick_test/mfcc/raw_mfcc_train.4.ark:2478193
mprb0_sx395 quick_test/mfcc/raw_mfcc_train.4.ark:49762
mdlh0_sx430 quick_test/mfcc/raw_mfcc_train.2.ark:2573542
mprd0_si801 quick_test/mfcc/raw_mfcc_train.4.ark:61667
mfmc0_sx142 quick_test/mfcc/raw_mfcc_train.2.ark:3437755
fjwb1_sx345 quick_test/mfcc/raw_mfcc_train.1.ark:1939425
mrem0_si511 quick_test/mfcc/raw_mfcc_train.4.ark:611400
mmab1_si2124 quick_test/mfcc/raw_mfcc_train.3.ark:2606997
mrmh0_sx391 quick_test/mfcc/raw_mfcc_train.4.ark:1297071
mchl0_si1404 quick_test/mfcc/raw_mfcc_train.2.ark:1683848
mdwh0_sx395 quick_test/mfcc/raw_mfcc_train.2.ark:3086714
mrjh0_si1519 quick_test/mfcc/raw_mfcc_train.4.ark:878595
mwac0_sx341 quick_test/mfcc/raw_mfcc_train.4.ark:3450682
mdlr1_sx39 quick_test/mfcc/raw_mfcc_train.2.ark:2670250
fgrw0_si1152 quick_test/mfcc/raw_mfcc_train.1.ark:1470030
mjae0_sx174 quick_test/mfcc/raw_mfcc_train.3.ark:587329
mdwm0_si916 quick_test/mfcc/raw_mfcc_train.2.ark:3099230
fspm0_si1871 quick_test/mfcc/raw_mfcc_train.2.ark:317853
falk0_si658 quick_test/mfcc/raw_mfcc_train.1.ark:76033
msem1_sx450 quick_test/mfcc/raw_mfcc_train.4.ark:1955491
fklc0_sx175 quick_test/mfcc/raw_mfcc_train.1.ark:2206082
fklc1_sx148 quick_test/mfcc/raw_mfcc_train.1.ark:2239173
fspm0_sx161 quick_test/mfcc/raw_mfcc_train.2.ark:324380
mmwb0_sx179 quick_test/mfcc/raw_mfcc_train.3.ark:3330755
mjkr0_sx391 quick_test/mfcc/raw_mfcc_train.3.ark:1169036
mjmd0_si1658 quick_test/mfcc/raw_mfcc_train.3.ark:1299086
fetb0_sx248 quick_test/mfcc/raw_mfcc_train.1.ark:1310549
mdlc2_sx354 quick_test/mfcc/raw_mfcc_train.2.ark:2536039
mwgr0_sx346 quick_test/mfcc/raw_mfcc_train.4.ark:3634146
mejl0_si962 quick_test/mfcc/raw_mfcc_train.2.ark:3255018
mges0_sx221 quick_test/mfcc/raw_mfcc_train.3.ark:74231
fjsp0_sx84 quick_test/mfcc/raw_mfcc_train.1.ark:1915553
fdxw0_si2141 quick_test/mfcc/raw_mfcc_train.1.ark:1095413
mfrm0_sx435 quick_test/mfcc/raw_mfcc_train.2.ark:3482411
mklw0_sx221 quick_test/mfcc/raw_mfcc_train.3.ark:2283177
mmgg0_si2339 quick_test/mfcc/raw_mfcc_train.3.ark:3064350
fcmg0_si1142 quick_test/mfcc/raw_mfcc_train.1.ark:653672
mcss0_sx210 quick_test/mfcc/raw_mfcc_train.2.ark:1853986
fmjb0_sx97 quick_test/mfcc/raw_mfcc_train.1.ark:2914575
mjrg0_si1366 quick_test/mfcc/raw_mfcc_train.3.ark:1480160
mjmd0_si1028 quick_test/mfcc/raw_mfcc_train.3.ark:1296010
flja0_sx448 quick_test/mfcc/raw_mfcc_train.1.ark:2512913
fpls0_sx60 quick_test/mfcc/raw_mfcc_train.1.ark:3422425
ftbw0_sx445 quick_test/mfcc/raw_mfcc_train.2.ark:495389
mhrm0_sx58 quick_test/mfcc/raw_mfcc_train.3.ark:476761
mljh0_sx64 quick_test/mfcc/raw_mfcc_train.3.ark:2502576
fjlg0_sx269 quick_test/mfcc/raw_mfcc_train.1.ark:1731726
mtkd0_si630 quick_test/mfcc/raw_mfcc_train.4.ark:2783426
fecd0_si788 quick_test/mfcc/raw_mfcc_train.1.ark:1198291
mgrl0_sx417 quick_test/mfcc/raw_mfcc_train.3.ark:151151
mrtc0_sx378 quick_test/mfcc/raw_mfcc_train.4.ark:1540806
mmrp0_sx144 quick_test/mfcc/raw_mfcc_train.3.ark:3217041
fkkh0_sx390 quick_test/mfcc/raw_mfcc_train.1.ark:2189893
mdpk0_sx153 quick_test/mfcc/raw_mfcc_train.2.ark:2821797
msjk0_sx246 quick_test/mfcc/raw_mfcc_train.4.ark:2086863
fjdm2_sx322 quick_test/mfcc/raw_mfcc_train.1.ark:1603920
mgsl0_si797 quick_test/mfcc/raw_mfcc_train.3.ark:236142
mtmn0_sx434 quick_test/mfcc/raw_mfcc_train.4.ark:2968769
fbas0_sx217 quick_test/mfcc/raw_mfcc_train.1.ark:193725
fmem0_sx387 quick_test/mfcc/raw_mfcc_train.1.ark:2879771
mdbb1_sx196 quick_test/mfcc/raw_mfcc_train.2.ark:2044145
fjxp0_sx222 quick_test/mfcc/raw_mfcc_train.1.ark:2002400
flag0_sx114 quick_test/mfcc/raw_mfcc_train.1.ark:2371000
fdfb0_si2010 quick_test/mfcc/raw_mfcc_train.1.ark:859614
mewm0_sx88 quick_test/mfcc/raw_mfcc_train.2.ark:3393585
mjeb0_sx170 quick_test/mfcc/raw_mfcc_train.3.ark:855430
megj0_sx3 quick_test/mfcc/raw_mfcc_train.2.ark:3237094
mtrt0_sx57 quick_test/mfcc/raw_mfcc_train.4.ark:3265336
fgrw0_sx432 quick_test/mfcc/raw_mfcc_train.1.ark:1498674
mlsh0_sx337 quick_test/mfcc/raw_mfcc_train.3.ark:2558473
fdmy0_sx387 quick_test/mfcc/raw_mfcc_train.1.ark:1014759
fajw0_sx273 quick_test/mfcc/raw_mfcc_train.1.ark:53477
mtdp0_si1274 quick_test/mfcc/raw_mfcc_train.4.ark:2569024
fjwb1_si795 quick_test/mfcc/raw_mfcc_train.1.ark:1929030
mrml0_sx251 quick_test/mfcc/raw_mfcc_train.4.ark:1321158
mkaj0_sx424 quick_test/mfcc/raw_mfcc_train.3.ark:1938400
msmr0_sx325 quick_test/mfcc/raw_mfcc_train.4.ark:2158769
mdlc1_sx265 quick_test/mfcc/raw_mfcc_train.2.ark:2505503
mewm0_si1348 quick_test/mfcc/raw_mfcc_train.2.ark:3369759
fblv0_si1688 quick_test/mfcc/raw_mfcc_train.1.ark:311854
fsak0_si1930 quick_test/mfcc/raw_mfcc_train.1.ark:3633851
mrdd0_sx150 quick_test/mfcc/raw_mfcc_train.4.ark:458470
mwrp0_sx93 quick_test/mfcc/raw_mfcc_train.4.ark:3706865
mrkm0_sx187 quick_test/mfcc/raw_mfcc_train.4.ark:1036938
mkam0_sx236 quick_test/mfcc/raw_mfcc_train.3.ark:1964366
megj0_sx77 quick_test/mfcc/raw_mfcc_train.2.ark:3244634
fcag0_si1503 quick_test/mfcc/raw_mfcc_train.1.ark:410713
fvkb0_sx169 quick_test/mfcc/raw_mfcc_train.2.ark:606980
mrds0_si537 quick_test/mfcc/raw_mfcc_train.4.ark:515309
mwar0_sx145 quick_test/mfcc/raw_mfcc_train.4.ark:3502199
mrdd0_sx330 quick_test/mfcc/raw_mfcc_train.4.ark:467981
fkfb0_si2238 quick_test/mfcc/raw_mfcc_train.1.ark:2127239
mmbs0_sx341 quick_test/mfcc/raw_mfcc_train.3.ark:2767635
mbml0_sx269 quick_test/mfcc/raw_mfcc_train.2.ark:1300702
fceg0_sx438 quick_test/mfcc/raw_mfcc_train.1.ark:529852
fdaw0_sx326 quick_test/mfcc/raw_mfcc_train.1.ark:840727
fsrh0_si671 quick_test/mfcc/raw_mfcc_train.2.ark:351548
ftbw0_si1345 quick_test/mfcc/raw_mfcc_train.2.ark:469905
fjhk0_sx212 quick_test/mfcc/raw_mfcc_train.1.ark:1670368
mmgg0_sx449 quick_test/mfcc/raw_mfcc_train.3.ark:3078899
fsak0_sx130 quick_test/mfcc/raw_mfcc_train.1.ark:3640144
mmds0_sx263 quick_test/mfcc/raw_mfcc_train.3.ark:2955586
fear0_sx262 quick_test/mfcc/raw_mfcc_train.1.ark:1169102
fskl0_sx89 quick_test/mfcc/raw_mfcc_train.2.ark:142155
mwrp0_si1443 quick_test/mfcc/raw_mfcc_train.4.ark:3678282
mrml0_si2051 quick_test/mfcc/raw_mfcc_train.4.ark:1307552
mrjh0_sx439 quick_test/mfcc/raw_mfcc_train.4.ark:907159
fdkn0_sx361 quick_test/mfcc/raw_mfcc_train.1.ark:933785
freh0_sx325 quick_test/mfcc/raw_mfcc_train.1.ark:3483795
mprd0_sx261 quick_test/mfcc/raw_mfcc_train.4.ark:74928
mtbc0_sx93 quick_test/mfcc/raw_mfcc_train.4.ark:2501055
fmkc0_sx172 quick_test/mfcc/raw_mfcc_train.1.ark:2997855
madd0_sx178 quick_test/mfcc/raw_mfcc_train.2.ark:733373
mlsh0_sx427 quick_test/mfcc/raw_mfcc_train.3.ark:2562367
fsma0_sx451 quick_test/mfcc/raw_mfcc_train.2.ark:233425
fcmg0_sx72 quick_test/mfcc/raw_mfcc_train.1.ark:685572
fjsk0_sx242 quick_test/mfcc/raw_mfcc_train.1.ark:1871328
mlsh0_si2047 quick_test/mfcc/raw_mfcc_train.3.ark:2541740
fkdw0_sx37 quick_test/mfcc/raw_mfcc_train.1.ark:2113618
mgaf0_sx202 quick_test/mfcc/raw_mfcc_train.2.ark:3600368
mbom0_si2274 quick_test/mfcc/raw_mfcc_train.2.ark:1323717
fmkc0_si1072 quick_test/mfcc/raw_mfcc_train.1.ark:2992094
mrmh0_si1021 quick_test/mfcc/raw_mfcc_train.4.ark:1269851
flmk0_sx405 quick_test/mfcc/raw_mfcc_train.1.ark:2714222
fsrh0_si1931 quick_test/mfcc/raw_mfcc_train.2.ark:348161
mses0_si2216 quick_test/mfcc/raw_mfcc_train.4.ark:1969605
mnet0_sx186 quick_test/mfcc/raw_mfcc_train.3.ark:3455924
mkln0_sx428 quick_test/mfcc/raw_mfcc_train.3.ark:2165297
fsjk1_si696 quick_test/mfcc/raw_mfcc_train.1.ark:3875252
mdlr0_sx63 quick_test/mfcc/raw_mfcc_train.2.ark:2639897
mppc0_si1412 quick_test/mfcc/raw_mfcc_train.3.ark:3743415
fjdm2_sx52 quick_test/mfcc/raw_mfcc_train.1.ark:1611863
fbas0_sx397 quick_test/mfcc/raw_mfcc_train.1.ark:202676
msfv0_sx362 quick_test/mfcc/raw_mfcc_train.4.ark:2054794
fmem0_sx333 quick_test/mfcc/raw_mfcc_train.1.ark:2872978
msat1_sx173 quick_test/mfcc/raw_mfcc_train.4.ark:1807443
mrxb0_sx415 quick_test/mfcc/raw_mfcc_train.4.ark:1699321
mmgk0_si692 quick_test/mfcc/raw_mfcc_train.3.ark:3093995
mreh1_si969 quick_test/mfcc/raw_mfcc_train.4.ark:579202
mmxs0_sx426 quick_test/mfcc/raw_mfcc_train.3.ark:3436973
megj0_si1337 quick_test/mfcc/raw_mfcc_train.2.ark:3212568
mtxs0_si2320 quick_test/mfcc/raw_mfcc_train.4.ark:3305392
mtjs0_si1192 quick_test/mfcc/raw_mfcc_train.4.ark:2705882
fdkn0_sx451 quick_test/mfcc/raw_mfcc_train.1.ark:937653
frjb0_sx167 quick_test/mfcc/raw_mfcc_train.1.ark:3501090
fkde0_sx151 quick_test/mfcc/raw_mfcc_train.1.ark:2068093
mmjb1_si2038 quick_test/mfcc/raw_mfcc_train.3.ark:3116847
mrmh0_sx301 quick_test/mfcc/raw_mfcc_train.4.ark:1291013
mdcm0_si1480 quick_test/mfcc/raw_mfcc_train.2.ark:2121956
mcxm0_si1981 quick_test/mfcc/raw_mfcc_train.2.ark:1934151
mfmc0_sx232 quick_test/mfcc/raw_mfcc_train.2.ark:3442689
fljg0_si2241 quick_test/mfcc/raw_mfcc_train.1.ark:2558206
fkkh0_si1290 quick_test/mfcc/raw_mfcc_train.1.ark:2159346
mtwh1_si1512 quick_test/mfcc/raw_mfcc_train.4.ark:3269088
mjxa0_sx337 quick_test/mfcc/raw_mfcc_train.3.ark:1805358
mdsj0_si832 quick_test/mfcc/raw_mfcc_train.2.ark:2916185
fleh0_sx241 quick_test/mfcc/raw_mfcc_train.1.ark:2408739
mdwd0_si557 quick_test/mfcc/raw_mfcc_train.2.ark:3034246
mree0_si1959 quick_test/mfcc/raw_mfcc_train.4.ark:547698
flod0_sx387 quick_test/mfcc/raw_mfcc_train.1.ark:2747527
mclk0_sx130 quick_test/mfcc/raw_mfcc_train.2.ark:1725208
mbom0_sx311 quick_test/mfcc/raw_mfcc_train.2.ark:1336810
mrlr0_sx26 quick_test/mfcc/raw_mfcc_train.4.ark:1197486
mpgr1_sx329 quick_test/mfcc/raw_mfcc_train.3.ark:3677076
fjlr0_sx151 quick_test/mfcc/raw_mfcc_train.1.ark:1760467
mmeb0_sx367 quick_test/mfcc/raw_mfcc_train.3.ark:3015221
fjhk0_sx392 quick_test/mfcc/raw_mfcc_train.1.ark:1681932
mtmn0_sx74 quick_test/mfcc/raw_mfcc_train.4.ark:2972311
fcaj0_sx219 quick_test/mfcc/raw_mfcc_train.1.ark:452881
mjwg0_si2155 quick_test/mfcc/raw_mfcc_train.3.ark:1676907
freh0_sx145 quick_test/mfcc/raw_mfcc_train.1.ark:3477593
mpgr0_si780 quick_test/mfcc/raw_mfcc_train.3.ark:3634877
fajw0_sx93 quick_test/mfcc/raw_mfcc_train.1.ark:64116
mrmg0_si1710 quick_test/mfcc/raw_mfcc_train.4.ark:1241721
fsjs0_si1801 quick_test/mfcc/raw_mfcc_train.2.ark:17143
fljd0_sx76 quick_test/mfcc/raw_mfcc_train.1.ark:2549584
mkrg0_sx231 quick_test/mfcc/raw_mfcc_train.3.ark:2322052
mkah0_si2158 quick_test/mfcc/raw_mfcc_train.3.ark:1888102
mlbc0_sx159 quick_test/mfcc/raw_mfcc_train.3.ark:2377201
mddc0_sx249 quick_test/mfcc/raw_mfcc_train.2.ark:2170363
mwad0_sx252 quick_test/mfcc/raw_mfcc_train.4.ark:3476525
fdmy0_sx297 quick_test/mfcc/raw_mfcc_train.1.ark:1010735
fklc0_si2245 quick_test/mfcc/raw_mfcc_train.1.ark:2196656
mddc0_sx339 quick_test/mfcc/raw_mfcc_train.2.ark:2173659
fcdr1_sx196 quick_test/mfcc/raw_mfcc_train.1.ark:496559
mtrr0_si1548 quick_test/mfcc/raw_mfcc_train.4.ark:3205807
fssb0_si1712 quick_test/mfcc/raw_mfcc_train.2.ark:382356
mrai0_sx252 quick_test/mfcc/raw_mfcc_train.4.ark:268774
mtjm0_sx146 quick_test/mfcc/raw_mfcc_train.4.ark:2688752
mrre0_sx434 quick_test/mfcc/raw_mfcc_train.4.ark:1427931
fkdw0_sx217 quick_test/mfcc/raw_mfcc_train.1.ark:2108535
falr0_si1325 quick_test/mfcc/raw_mfcc_train.1.ark:101592
msdh0_sx80 quick_test/mfcc/raw_mfcc_train.4.ark:1880372
mdsj0_sx382 quick_test/mfcc/raw_mfcc_train.2.ark:2931344
mmwb0_si989 quick_test/mfcc/raw_mfcc_train.3.ark:3326198
mtpp0_sx428 quick_test/mfcc/raw_mfcc_train.4.ark:3090469
fkdw0_si1891 quick_test/mfcc/raw_mfcc_train.1.ark:2095540
mljh0_si1324 quick_test/mfcc/raw_mfcc_train.3.ark:2464398
mtmt0_sx218 quick_test/mfcc/raw_mfcc_train.4.ark:2992524
mrai0_sx432 quick_test/mfcc/raw_mfcc_train.4.ark:276614
fcke0_sx301 quick_test/mfcc/raw_mfcc_train.1.ark:613736
mwgr0_sx166 quick_test/mfcc/raw_mfcc_train.4.ark:3625812
mtab0_si2202 quick_test/mfcc/raw_mfcc_train.4.ark:2346190
fklc1_sx328 quick_test/mfcc/raw_mfcc_train.1.ark:2246558
mdpk0_sx243 quick_test/mfcc/raw_mfcc_train.2.ark:2825730
fsjw0_si703 quick_test/mfcc/raw_mfcc_train.2.ark:60016
mdlc2_sx174 quick_test/mfcc/raw_mfcc_train.2.ark:2527757
mrws0_sx22 quick_test/mfcc/raw_mfcc_train.4.ark:1662986
fcmm0_sx93 quick_test/mfcc/raw_mfcc_train.1.ark:716595
mmpm0_sx251 quick_test/mfcc/raw_mfcc_train.3.ark:3190355
mjde0_sx40 quick_test/mfcc/raw_mfcc_train.3.ark:767320
mgaw0_sx85 quick_test/mfcc/raw_mfcc_train.3.ark:60258
meal0_sx197 quick_test/mfcc/raw_mfcc_train.2.ark:3136169
mklw0_sx311 quick_test/mfcc/raw_mfcc_train.3.ark:2287305
mdac0_sx271 quick_test/mfcc/raw_mfcc_train.2.ark:1980990
mntw0_si2328 quick_test/mfcc/raw_mfcc_train.3.ark:3486731
flac0_sx271 quick_test/mfcc/raw_mfcc_train.1.ark:2340322
fear0_si1252 quick_test/mfcc/raw_mfcc_train.1.ark:1154448
mdlc2_sx84 quick_test/mfcc/raw_mfcc_train.2.ark:2542552
mdlc1_si2065 quick_test/mfcc/raw_mfcc_train.2.ark:2492871
mrmg0_sx90 quick_test/mfcc/raw_mfcc_train.4.ark:1266749
fltm0_si2330 quick_test/mfcc/raw_mfcc_train.1.ark:2757483
mgsh0_sx276 quick_test/mfcc/raw_mfcc_train.3.ark:216505
mbef0_sx21 quick_test/mfcc/raw_mfcc_train.2.ark:1149090
flag0_sx24 quick_test/mfcc/raw_mfcc_train.1.ark:2379593
mdlm0_sx424 quick_test/mfcc/raw_mfcc_train.2.ark:2602355
mjeb0_sx26 quick_test/mfcc/raw_mfcc_train.3.ark:865973
fscn0_sx266 quick_test/mfcc/raw_mfcc_train.1.ark:3716614
fgdp0_si1618 quick_test/mfcc/raw_mfcc_train.1.ark:1394464
mmws0_sx78 quick_test/mfcc/raw_mfcc_train.3.ark:3384333
mesg0_si1962 quick_test/mfcc/raw_mfcc_train.2.ark:3313118
mdef0_sx303 quick_test/mfcc/raw_mfcc_train.2.ark:2238891
fpjf0_sx352 quick_test/mfcc/raw_mfcc_train.1.ark:3387342
mmbs0_sx431 quick_test/mfcc/raw_mfcc_train.3.ark:2772075
fkaa0_sx38 quick_test/mfcc/raw_mfcc_train.1.ark:2042874
fdmy0_si1197 quick_test/mfcc/raw_mfcc_train.1.ark:975503
mdsj0_sx292 quick_test/mfcc/raw_mfcc_train.2.ark:2926696
fecd0_sx158 quick_test/mfcc/raw_mfcc_train.1.ark:1205110
fjkl0_si932 quick_test/mfcc/raw_mfcc_train.1.ark:1689677
mbma1_sx324 quick_test/mfcc/raw_mfcc_train.2.ark:1271948
mrjm1_si1928 quick_test/mfcc/raw_mfcc_train.4.ark:956041
mree0_si1104 quick_test/mfcc/raw_mfcc_train.4.ark:537282
fsmm0_sx54 quick_test/mfcc/raw_mfcc_train.2.ark:273671
mrdm0_si1595 quick_test/mfcc/raw_mfcc_train.4.ark:482212
mdsj0_sx22 quick_test/mfcc/raw_mfcc_train.2.ark:2923608
mjde0_si490 quick_test/mfcc/raw_mfcc_train.3.ark:745024
mtml0_si1695 quick_test/mfcc/raw_mfcc_train.4.ark:2910332
fdtd0_si1561 quick_test/mfcc/raw_mfcc_train.1.ark:1057309
mcre0_sx24 quick_test/mfcc/raw_mfcc_train.2.ark:1821645
mjxa0_si1507 quick_test/mfcc/raw_mfcc_train.3.ark:1785354
ftbr0_sx21 quick_test/mfcc/raw_mfcc_train.2.ark:460315
mrjm1_sx398 quick_test/mfcc/raw_mfcc_train.4.ark:979443
mded0_si540 quick_test/mfcc/raw_mfcc_train.2.ark:2192142
mtxs0_si1690 quick_test/mfcc/raw_mfcc_train.4.ark:3303044
msat1_si1073 quick_test/mfcc/raw_mfcc_train.4.ark:1795980
mwac0_si971 quick_test/mfcc/raw_mfcc_train.4.ark:3435308
fmem0_sx207 quick_test/mfcc/raw_mfcc_train.1.ark:2866568
fbcg1_sx352 quick_test/mfcc/raw_mfcc_train.1.ark:225067
mcdc0_si1292 quick_test/mfcc/raw_mfcc_train.2.ark:1510109
flkm0_sx116 quick_test/mfcc/raw_mfcc_train.1.ark:2605739
msdh0_si980 quick_test/mfcc/raw_mfcc_train.4.ark:1854338
fsjs0_sx91 quick_test/mfcc/raw_mfcc_train.2.ark:45199
mjrk0_sx250 quick_test/mfcc/raw_mfcc_train.3.ark:1592616
mbar0_si1319 quick_test/mfcc/raw_mfcc_train.2.ark:1038033
mcdr0_sx74 quick_test/mfcc/raw_mfcc_train.2.ark:1602221
fsma0_si991 quick_test/mfcc/raw_mfcc_train.2.ark:215431
msem1_si810 quick_test/mfcc/raw_mfcc_train.4.ark:1933974
fmjf0_sx444 quick_test/mfcc/raw_mfcc_train.1.ark:2942719
mjae0_sx84 quick_test/mfcc/raw_mfcc_train.3.ark:605166
fjlg0_si2306 quick_test/mfcc/raw_mfcc_train.1.ark:1725030
mjjm0_sx287 quick_test/mfcc/raw_mfcc_train.3.ark:1130934
mjrh1_si514 quick_test/mfcc/raw_mfcc_train.3.ark:1555170
mjwt0_sx31 quick_test/mfcc/raw_mfcc_train.3.ark:1779086
mjdm0_si1937 quick_test/mfcc/raw_mfcc_train.3.ark:815462
fdnc0_sx378 quick_test/mfcc/raw_mfcc_train.1.ark:1052699
mkah0_sx88 quick_test/mfcc/raw_mfcc_train.3.ark:1912323
mrdm0_sx425 quick_test/mfcc/raw_mfcc_train.4.ark:503112
mkxl0_sx15 quick_test/mfcc/raw_mfcc_train.3.ark:2350383
feeh0_sx32 quick_test/mfcc/raw_mfcc_train.1.ark:1251129
mgaf0_sx22 quick_test/mfcc/raw_mfcc_train.2.ark:3602285
mjxl0_sx272 quick_test/mfcc/raw_mfcc_train.3.ark:1831746
mpeb0_sx330 quick_test/mfcc/raw_mfcc_train.3.ark:3552282
mjrh0_sx45 quick_test/mfcc/raw_mfcc_train.3.ark:1541510
msds0_sx267 quick_test/mfcc/raw_mfcc_train.4.ark:1903225
mjdc0_si1161 quick_test/mfcc/raw_mfcc_train.3.ark:703990
fgdp0_sx358 quick_test/mfcc/raw_mfcc_train.1.ark:1417679
mdlc2_si984 quick_test/mfcc/raw_mfcc_train.2.ark:2522589
mkdb0_sx332 quick_test/mfcc/raw_mfcc_train.3.ark:1998788
mmgc0_sx45 quick_test/mfcc/raw_mfcc_train.3.ark:3051898
mwch0_si1895 quick_test/mfcc/raw_mfcc_train.4.ark:3524316
mjfh0_si1737 quick_test/mfcc/raw_mfcc_train.3.ark:946054
mdhl0_sx269 quick_test/mfcc/raw_mfcc_train.2.ark:2303724
mjma0_si2125 quick_test/mfcc/raw_mfcc_train.3.ark:1269519
marc0_si1188 quick_test/mfcc/raw_mfcc_train.2.ark:978002
mjkr0_sx121 quick_test/mfcc/raw_mfcc_train.3.ark:1153318
fjrp1_sx442 quick_test/mfcc/raw_mfcc_train.1.ark:1845713
mrcg0_si1428 quick_test/mfcc/raw_mfcc_train.4.ark:377382
mwdk0_sx266 quick_test/mfcc/raw_mfcc_train.4.ark:3565514
mjws0_sx63 quick_test/mfcc/raw_mfcc_train.3.ark:1745808
mdcd0_sx335 quick_test/mfcc/raw_mfcc_train.2.ark:2110599
mrwa0_si2233 quick_test/mfcc/raw_mfcc_train.4.ark:1617753
mrxb0_si2215 quick_test/mfcc/raw_mfcc_train.4.ark:1676991
ftaj0_si1329 quick_test/mfcc/raw_mfcc_train.2.ark:412774
mvlo0_sx247 quick_test/mfcc/raw_mfcc_train.4.ark:3381492
mdss1_sx427 quick_test/mfcc/raw_mfcc_train.2.ark:2989010
fsjs0_sx181 quick_test/mfcc/raw_mfcc_train.2.ark:27115
mtkp0_si1023 quick_test/mfcc/raw_mfcc_train.4.ark:2810066
mgxp0_sx7 quick_test/mfcc/raw_mfcc_train.3.ark:291864
mhrm0_sx148 quick_test/mfcc/raw_mfcc_train.3.ark:460718
mkls1_sx105 quick_test/mfcc/raw_mfcc_train.3.ark:2250469
mtpr0_si2230 quick_test/mfcc/raw_mfcc_train.4.ark:3102425
mjwg0_sx85 quick_test/mfcc/raw_mfcc_train.3.ark:1711145
mhjb0_si1647 quick_test/mfcc/raw_mfcc_train.3.ark:364371
fbmj0_sx426 quick_test/mfcc/raw_mfcc_train.1.ark:402678
fbjl0_si1552 quick_test/mfcc/raw_mfcc_train.1.ark:274856
mprb0_si575 quick_test/mfcc/raw_mfcc_train.4.ark:26159
mrso0_sx39 quick_test/mfcc/raw_mfcc_train.4.ark:1467183
mbjv0_si1877 quick_test/mfcc/raw_mfcc_train.2.ark:1195353
mmdg0_sx430 quick_test/mfcc/raw_mfcc_train.3.ark:2869395
mdwh0_sx35 quick_test/mfcc/raw_mfcc_train.2.ark:3083015
mdrd0_sx212 quick_test/mfcc/raw_mfcc_train.2.ark:2890142
mgxp0_sx277 quick_test/mfcc/raw_mfcc_train.3.ark:283584
mcss0_sx30 quick_test/mfcc/raw_mfcc_train.2.ark:1857138
mcss0_si1380 quick_test/mfcc/raw_mfcc_train.2.ark:1833405
mtjs0_sx202 quick_test/mfcc/raw_mfcc_train.4.ark:2727647
mpmb0_sx421 quick_test/mfcc/raw_mfcc_train.3.ark:3729140
mhbs0_si2205 quick_test/mfcc/raw_mfcc_train.3.ark:302949
fjrb0_sx132 quick_test/mfcc/raw_mfcc_train.1.ark:1791477
fpls0_si960 quick_test/mfcc/raw_mfcc_train.1.ark:3403595
maeo0_sx246 quick_test/mfcc/raw_mfcc_train.2.ark:801264
flac0_si2161 quick_test/mfcc/raw_mfcc_train.1.ark:2331630
mjrh1_sx424 quick_test/mfcc/raw_mfcc_train.3.ark:1570226
mdlc0_sx225 quick_test/mfcc/raw_mfcc_train.2.ark:2471853
fkkh0_sx30 quick_test/mfcc/raw_mfcc_train.1.ark:2183717
mcdd0_si1513 quick_test/mfcc/raw_mfcc_train.2.ark:1540625
fcmg0_si1242 quick_test/mfcc/raw_mfcc_train.1.ark:660219
mdrd0_si1382 quick_test/mfcc/raw_mfcc_train.2.ark:2870951
mcre0_si1725 quick_test/mfcc/raw_mfcc_train.2.ark:1806511
mrew1_si1500 quick_test/mfcc/raw_mfcc_train.4.ark:639828
fdxw0_sx431 quick_test/mfcc/raw_mfcc_train.1.ark:1114285
fkde0_sx241 quick_test/mfcc/raw_mfcc_train.1.ark:2072247
mhrm0_sx328 quick_test/mfcc/raw_mfcc_train.3.ark:467583
mcew0_sx452 quick_test/mfcc/raw_mfcc_train.2.ark:1667290
fsls0_sx66 quick_test/mfcc/raw_mfcc_train.2.ark:205294
fjsk0_sx62 quick_test/mfcc/raw_mfcc_train.1.ark:1884517
fdkn0_si1081 quick_test/mfcc/raw_mfcc_train.1.ark:910829
fbas0_si1387 quick_test/mfcc/raw_mfcc_train.1.ark:172245
mjpm0_si738 quick_test/mfcc/raw_mfcc_train.3.ark:1392683
maeo0_sx156 quick_test/mfcc/raw_mfcc_train.2.ark:797617
mgxp0_si1087 quick_test/mfcc/raw_mfcc_train.3.ark:264277
fjen0_si1047 quick_test/mfcc/raw_mfcc_train.1.ark:1616135
fcag0_si2133 quick_test/mfcc/raw_mfcc_train.1.ark:415851
mvjh0_sx206 quick_test/mfcc/raw_mfcc_train.4.ark:3352237
fmpg0_sx162 quick_test/mfcc/raw_mfcc_train.1.ark:3102009
fhlm0_si2190 quick_test/mfcc/raw_mfcc_train.1.ark:1509889
mkdb0_sx422 quick_test/mfcc/raw_mfcc_train.3.ark:2003072
mmag0_si496 quick_test/mfcc/raw_mfcc_train.3.ark:2649662
mbom0_si1014 quick_test/mfcc/raw_mfcc_train.2.ark:1316226
faem0_sx222 quick_test/mfcc/raw_mfcc_train.1.ark:16916
mdks0_sx346 quick_test/mfcc/raw_mfcc_train.2.ark:2399687
mges0_si1481 quick_test/mfcc/raw_mfcc_train.3.ark:63217
fear0_sx82 quick_test/mfcc/raw_mfcc_train.1.ark:1183526
fdnc0_si2287 quick_test/mfcc/raw_mfcc_train.1.ark:1033399
mjjm0_si1251 quick_test/mfcc/raw_mfcc_train.3.ark:1106088
mrmb0_sx141 quick_test/mfcc/raw_mfcc_train.4.ark:1219071
mmpm0_sx341 quick_test/mfcc/raw_mfcc_train.3.ark:3195107
mkxl0_si1815 quick_test/mfcc/raw_mfcc_train.3.ark:2335919
mcae0_si2077 quick_test/mfcc/raw_mfcc_train.2.ark:1444108
fcke0_sx391 quick_test/mfcc/raw_mfcc_train.1.ark:619508
mree0_sx384 quick_test/mfcc/raw_mfcc_train.4.ark:567011
mkam0_sx416 quick_test/mfcc/raw_mfcc_train.3.ark:1971894
mtxs0_sx250 quick_test/mfcc/raw_mfcc_train.4.ark:3316976
mjai0_sx74 quick_test/mfcc/raw_mfcc_train.3.ark:639698
mkdt0_sx443 quick_test/mfcc/raw_mfcc_train.3.ark:2070031
mdlm0_sx334 quick_test/mfcc/raw_mfcc_train.2.ark:2599969
mtml0_sx435 quick_test/mfcc/raw_mfcc_train.4.ark:2931311
fmpg0_sx432 quick_test/mfcc/raw_mfcc_train.1.ark:3117461
mejl0_sx422 quick_test/mfcc/raw_mfcc_train.2.ark:3269918
fsak0_si1300 quick_test/mfcc/raw_mfcc_train.1.ark:3627707
fsah0_sx164 quick_test/mfcc/raw_mfcc_train.1.ark:3607288
msas0_sx386 quick_test/mfcc/raw_mfcc_train.4.ark:1767029
mrav0_sx108 quick_test/mfcc/raw_mfcc_train.4.ark:328969
mdwh0_si1925 quick_test/mfcc/raw_mfcc_train.2.ark:3060140
mabc0_sx151 quick_test/mfcc/raw_mfcc_train.2.ark:670872
fmah1_sx69 quick_test/mfcc/raw_mfcc_train.1.ark:2812161
mzmb0_sx356 quick_test/mfcc/raw_mfcc_train.4.ark:3798047
ftmg0_sx362 quick_test/mfcc/raw_mfcc_train.2.ark:555347
meal0_si1547 quick_test/mfcc/raw_mfcc_train.2.ark:3123972
madc0_sx377 quick_test/mfcc/raw_mfcc_train.2.ark:718107
mntw0_si1068 quick_test/mfcc/raw_mfcc_train.3.ark:3473039
fsdc0_si1942 quick_test/mfcc/raw_mfcc_train.1.ark:3739465
mmdm1_si783 quick_test/mfcc/raw_mfcc_train.3.ark:2914253
mdef0_sx123 quick_test/mfcc/raw_mfcc_train.2.ark:2231792
mdbp0_si1788 quick_test/mfcc/raw_mfcc_train.2.ark:2058046
feme0_sx65 quick_test/mfcc/raw_mfcc_train.1.ark:1291376
mdbb1_sx106 quick_test/mfcc/raw_mfcc_train.2.ark:2038269
mgar0_sx402 quick_test/mfcc/raw_mfcc_train.3.ark:25121
fjsk0_si1682 quick_test/mfcc/raw_mfcc_train.1.ark:1861049
mmlm0_sx357 quick_test/mfcc/raw_mfcc_train.3.ark:3164031
mdac0_sx361 quick_test/mfcc/raw_mfcc_train.2.ark:1984247
marw0_sx16 quick_test/mfcc/raw_mfcc_train.2.ark:1017971
mrtj0_sx232 quick_test/mfcc/raw_mfcc_train.4.ark:1566375
fklc0_si1615 quick_test/mfcc/raw_mfcc_train.1.ark:2194061
mcef0_sx325 quick_test/mfcc/raw_mfcc_train.2.ark:1625730
mbsb0_si1983 quick_test/mfcc/raw_mfcc_train.2.ark:1349183
maeb0_sx180 quick_test/mfcc/raw_mfcc_train.2.ark:767295
fsbk0_si1069 quick_test/mfcc/raw_mfcc_train.1.ark:3659393
fjkl0_sx212 quick_test/mfcc/raw_mfcc_train.1.ark:1700923
mrsp0_si1429 quick_test/mfcc/raw_mfcc_train.4.ark:1475492
msat1_sx263 quick_test/mfcc/raw_mfcc_train.4.ark:1812546
fjsp0_sx354 quick_test/mfcc/raw_mfcc_train.1.ark:1908013
msas0_si1376 quick_test/mfcc/raw_mfcc_train.4.ark:1733518
fsdj0_sx395 quick_test/mfcc/raw_mfcc_train.1.ark:3788587
mjdm0_sx170 quick_test/mfcc/raw_mfcc_train.3.ark:819311
mdns0_si2271 quick_test/mfcc/raw_mfcc_train.2.ark:2752587
ftlg0_sx393 quick_test/mfcc/raw_mfcc_train.2.ark:532813
fblv0_si1058 quick_test/mfcc/raw_mfcc_train.1.ark:307452
mjbg0_sx422 quick_test/mfcc/raw_mfcc_train.3.ark:666920
mmdg0_si1780 quick_test/mfcc/raw_mfcc_train.3.ark:2841298
mtrr0_sx288 quick_test/mfcc/raw_mfcc_train.4.ark:3229028
mcpm0_sx204 quick_test/mfcc/raw_mfcc_train.2.ark:1789874
mrxb0_si1585 quick_test/mfcc/raw_mfcc_train.4.ark:1673954
mdss1_sx337 quick_test/mfcc/raw_mfcc_train.2.ark:2985623
mrws0_sx112 quick_test/mfcc/raw_mfcc_train.4.ark:1657474
mmag0_sx316 quick_test/mfcc/raw_mfcc_train.3.ark:2663346
fjrb0_si1932 quick_test/mfcc/raw_mfcc_train.1.ark:1786302
fjxm0_sx311 quick_test/mfcc/raw_mfcc_train.1.ark:1969785
flmk0_si1229 quick_test/mfcc/raw_mfcc_train.1.ark:2693542
mdwd0_si1890 quick_test/mfcc/raw_mfcc_train.2.ark:3029351
fcke0_si481 quick_test/mfcc/raw_mfcc_train.1.ark:600572
mjbg0_si1724 quick_test/mfcc/raw_mfcc_train.3.ark:647384
mcth0_si579 quick_test/mfcc/raw_mfcc_train.2.ark:1874608
mmgk0_sx242 quick_test/mfcc/raw_mfcc_train.3.ark:3099495
mbbr0_sx65 quick_test/mfcc/raw_mfcc_train.2.ark:1097199
mjrp0_si1845 quick_test/mfcc/raw_mfcc_train.3.ark:1609045
mcdr0_sx254 quick_test/mfcc/raw_mfcc_train.2.ark:1592581
mtlc0_si847 quick_test/mfcc/raw_mfcc_train.4.ark:2888845
mbsb0_sx363 quick_test/mfcc/raw_mfcc_train.2.ark:1362775
mbef0_si1281 quick_test/mfcc/raw_mfcc_train.2.ark:1130413
fdjh0_sx305 quick_test/mfcc/raw_mfcc_train.1.ark:900018
fntb0_si573 quick_test/mfcc/raw_mfcc_train.1.ark:3162636
fbmj0_sx246 quick_test/mfcc/raw_mfcc_train.1.ark:392940
mjwt0_sx211 quick_test/mfcc/raw_mfcc_train.3.ark:1770103
mddc0_si789 quick_test/mfcc/raw_mfcc_train.2.ark:2161769
mcdd0_sx343 quick_test/mfcc/raw_mfcc_train.2.ark:1557704
fskc0_si786 quick_test/mfcc/raw_mfcc_train.2.ark:91793
mjlb0_sx446 quick_test/mfcc/raw_mfcc_train.3.ark:1195724
mjlg1_si1642 quick_test/mfcc/raw_mfcc_train.3.ark:1205704
fjsp0_sx264 quick_test/mfcc/raw_mfcc_train.1.ark:1904145
mrlr0_si1196 quick_test/mfcc/raw_mfcc_train.4.ark:1176443
fjrp1_si2062 quick_test/mfcc/raw_mfcc_train.1.ark:1822109
mmgk0_sx332 quick_test/mfcc/raw_mfcc_train.3.ark:3102505
mtrc0_sx93 quick_test/mfcc/raw_mfcc_train.4.ark:3203329
mrem0_sx241 quick_test/mfcc/raw_mfcc_train.4.ark:624460
fpmy0_sx163 quick_test/mfcc/raw_mfcc_train.1.ark:3444451
mcxm0_sx181 quick_test/mfcc/raw_mfcc_train.2.ark:1942329
mcal0_si1138 quick_test/mfcc/raw_mfcc_train.2.ark:1478410
mbwp0_sx259 quick_test/mfcc/raw_mfcc_train.2.ark:1417019
fjhk0_si2282 quick_test/mfcc/raw_mfcc_train.1.ark:1659317
mpsw0_si1697 quick_test/mfcc/raw_mfcc_train.4.ark:161813
mprd0_sx441 quick_test/mfcc/raw_mfcc_train.4.ark:83197
mclm0_sx286 quick_test/mfcc/raw_mfcc_train.2.ark:1764181
mrmb0_si1581 quick_test/mfcc/raw_mfcc_train.4.ark:1207011
mdem0_sx158 quick_test/mfcc/raw_mfcc_train.2.ark:2264361
fsma0_si1621 quick_test/mfcc/raw_mfcc_train.2.ark:208955
mlbc0_sx429 quick_test/mfcc/raw_mfcc_train.3.ark:2387466
fmju0_sx219 quick_test/mfcc/raw_mfcc_train.1.ark:2970049
fjrb0_sx402 quick_test/mfcc/raw_mfcc_train.1.ark:1804225
marc0_sx198 quick_test/mfcc/raw_mfcc_train.2.ark:993767
mdcm0_si2110 quick_test/mfcc/raw_mfcc_train.2.ark:2127762
mwac0_sx161 quick_test/mfcc/raw_mfcc_train.4.ark:3438968
mrcw0_si741 quick_test/mfcc/raw_mfcc_train.4.ark:425008
mgsl0_sx444 quick_test/mfcc/raw_mfcc_train.3.ark:254786
fajw0_si633 quick_test/mfcc/raw_mfcc_train.1.ark:42998
mmdm1_si1650 quick_test/mfcc/raw_mfcc_train.3.ark:2908804
mesj0_sx277 quick_test/mfcc/raw_mfcc_train.2.ark:3357682
mjac0_sx307 quick_test/mfcc/raw_mfcc_train.3.ark:561902
msfv0_sx452 quick_test/mfcc/raw_mfcc_train.4.ark:2059585
mbar0_sx419 quick_test/mfcc/raw_mfcc_train.2.ark:1063218
fntb0_sx393 quick_test/mfcc/raw_mfcc_train.1.ark:3186636
fcaj0_sx399 quick_test/mfcc/raw_mfcc_train.1.ark:464887
mclk0_sx400 quick_test/mfcc/raw_mfcc_train.2.ark:1740068
mkdd0_si2197 quick_test/mfcc/raw_mfcc_train.3.ark:2017303
msrr0_si501 quick_test/mfcc/raw_mfcc_train.4.ark:2240520
fsgf0_sx387 quick_test/mfcc/raw_mfcc_train.1.ark:3820572
mjma0_sx55 quick_test/mfcc/raw_mfcc_train.3.ark:1292193
mrtj0_sx52 quick_test/mfcc/raw_mfcc_train.4.ark:1580708
mwsb0_si1626 quick_test/mfcc/raw_mfcc_train.4.ark:3710084
madc0_sx17 quick_test/mfcc/raw_mfcc_train.2.ark:707946
mhmr0_sx129 quick_test/mfcc/raw_mfcc_train.3.ark:430696
fntb0_sx33 quick_test/mfcc/raw_mfcc_train.1.ark:3183028
fljg0_si981 quick_test/mfcc/raw_mfcc_train.1.ark:2561177
mjpg0_sx381 quick_test/mfcc/raw_mfcc_train.3.ark:1379088
mdlc1_si1435 quick_test/mfcc/raw_mfcc_train.2.ark:2486636
mrhl0_sx75 quick_test/mfcc/raw_mfcc_train.4.ark:837657
mcew0_sx362 quick_test/mfcc/raw_mfcc_train.2.ark:1661199
mrhl0_sx345 quick_test/mfcc/raw_mfcc_train.4.ark:829571
mkes0_si623 quick_test/mfcc/raw_mfcc_train.3.ark:2087142
mwsh0_si2266 quick_test/mfcc/raw_mfcc_train.4.ark:3744922
fsdc0_sx322 quick_test/mfcc/raw_mfcc_train.1.ark:3753248
mrcw0_si2001 quick_test/mfcc/raw_mfcc_train.4.ark:420893
fvkb0_sx349 quick_test/mfcc/raw_mfcc_train.2.ark:615301
mjxa0_sx157 quick_test/mfcc/raw_mfcc_train.3.ark:1797570
mrhl0_si2145 quick_test/mfcc/raw_mfcc_train.4.ark:812617
flja0_si2338 quick_test/mfcc/raw_mfcc_train.1.ark:2496245
mjma0_si865 quick_test/mfcc/raw_mfcc_train.3.ark:1275415
mrms0_sx300 quick_test/mfcc/raw_mfcc_train.4.ark:1364051
mgaw0_si1802 quick_test/mfcc/raw_mfcc_train.3.ark:38325
fdml0_si1779 quick_test/mfcc/raw_mfcc_train.1.ark:952768
mljc0_sx145 quick_test/mfcc/raw_mfcc_train.3.ark:2445630
fgmb0_sx245 quick_test/mfcc/raw_mfcc_train.1.ark:1452283
fapb0_si1063 quick_test/mfcc/raw_mfcc_train.1.ark:131783
mjrh0_sx315 quick_test/mfcc/raw_mfcc_train.3.ark:1533905
flod0_sx117 quick_test/mfcc/raw_mfcc_train.1.ark:2733836
mdks0_si1066 quick_test/mfcc/raw_mfcc_train.2.ark:2380293
fsdc0_sx232 quick_test/mfcc/raw_mfcc_train.1.ark:3749107
mtjm0_sx416 quick_test/mfcc/raw_mfcc_train.4.ark:2698705
mabc0_sx421 quick_test/mfcc/raw_mfcc_train.2.ark:680994
mhit0_sx263 quick_test/mfcc/raw_mfcc_train.3.ark:346629
flac0_sx91 quick_test/mfcc/raw_mfcc_train.1.ark:2351756
fcaj0_sx129 quick_test/mfcc/raw_mfcc_train.1.ark:449013
mwrp0_si1525 quick_test/mfcc/raw_mfcc_train.4.ark:3683932
mmvp0_sx204 quick_test/mfcc/raw_mfcc_train.3.ark:3296098
milb0_sx183 quick_test/mfcc/raw_mfcc_train.3.ark:528469
mkjo0_si887 quick_test/mfcc/raw_mfcc_train.3.ark:2120063
fmah1_sx429 quick_test/mfcc/raw_mfcc_train.1.ark:2808606
fsgf0_sx117 quick_test/mfcc/raw_mfcc_train.1.ark:3808273
mtmt0_sx38 quick_test/mfcc/raw_mfcc_train.4.ark:2999973
fjxp0_sx402 quick_test/mfcc/raw_mfcc_train.1.ark:2010526
mkxl0_si1185 quick_test/mfcc/raw_mfcc_train.3.ark:2332583
mdlc0_si765 quick_test/mfcc/raw_mfcc_train.2.ark:2464494
msmr0_si1150 quick_test/mfcc/raw_mfcc_train.4.ark:2136984
fsms1_sx334 quick_test/mfcc/raw_mfcc_train.2.ark:298207
mjeb1_sx387 quick_test/mfcc/raw_mfcc_train.3.ark:905746
fblv0_sx428 quick_test/mfcc/raw_mfcc_train.1.ark:334354
mdma0_sx80 quick_test/mfcc/raw_mfcc_train.2.ark:2712981
mjdg0_sx412 quick_test/mfcc/raw_mfcc_train.3.ark:800919
msmc0_si509 quick_test/mfcc/raw_mfcc_train.4.ark:2107451
mfxv0_sx285 quick_test/mfcc/raw_mfcc_train.2.ark:3575858
mjmm0_sx85 quick_test/mfcc/raw_mfcc_train.3.ark:1351120
fjen0_si1677 quick_test/mfcc/raw_mfcc_train.1.ark:1620030
fsdc0_sx412 quick_test/mfcc/raw_mfcc_train.1.ark:3756583
meal0_sx287 quick_test/mfcc/raw_mfcc_train.2.ark:3138685
fsgf0_si2187 quick_test/mfcc/raw_mfcc_train.1.ark:3795922
madc0_sx107 quick_test/mfcc/raw_mfcc_train.2.ark:704105
mrjm1_sx128 quick_test/mfcc/raw_mfcc_train.4.ark:963790
mlsh0_si787 quick_test/mfcc/raw_mfcc_train.3.ark:2545478
mtcs0_sx172 quick_test/mfcc/raw_mfcc_train.4.ark:2515593
mjbg0_si1862 quick_test/mfcc/raw_mfcc_train.3.ark:649680
mrbc0_sx59 quick_test/mfcc/raw_mfcc_train.4.ark:374592
mjwt0_sx391 quick_test/mfcc/raw_mfcc_train.3.ark:1782239
msvs0_sx218 quick_test/mfcc/raw_mfcc_train.4.ark:2319660
mtlb0_sx144 quick_test/mfcc/raw_mfcc_train.4.ark:2855905
mtbc0_si1803 quick_test/mfcc/raw_mfcc_train.4.ark:2474156
fmmh0_sx367 quick_test/mfcc/raw_mfcc_train.1.ark:3070358
fexm0_si482 quick_test/mfcc/raw_mfcc_train.1.ark:1335409
mjsr0_sx344 quick_test/mfcc/raw_mfcc_train.3.ark:1663574
fcag0_sx63 quick_test/mfcc/raw_mfcc_train.1.ark:436542
mzmb0_si1796 quick_test/mfcc/raw_mfcc_train.4.ark:3782237
mdem0_sx428 quick_test/mfcc/raw_mfcc_train.2.ark:2277395
mgaw0_sx175 quick_test/mfcc/raw_mfcc_train.3.ark:46165
fmkc0_si1041 quick_test/mfcc/raw_mfcc_train.1.ark:2986119
fpjf0_sx236 quick_test/mfcc/raw_mfcc_train.1.ark:3380984
fsma0_sx271 quick_test/mfcc/raw_mfcc_train.2.ark:226131
ftbw0_sx265 quick_test/mfcc/raw_mfcc_train.2.ark:488277
mctm0_sx90 quick_test/mfcc/raw_mfcc_train.2.ark:1927817
mcdc0_sx302 quick_test/mfcc/raw_mfcc_train.2.ark:1529229
mhjb0_sx297 quick_test/mfcc/raw_mfcc_train.3.ark:381384
mcef0_sx415 quick_test/mfcc/raw_mfcc_train.2.ark:1628948
mwgr0_sx436 quick_test/mfcc/raw_mfcc_train.4.ark:3638729
fleh0_sx151 quick_test/mfcc/raw_mfcc_train.1.ark:2404156
fbmh0_sx56 quick_test/mfcc/raw_mfcc_train.1.ark:370570
fmem0_sx117 quick_test/mfcc/raw_mfcc_train.1.ark:2862258
fapb0_sx433 quick_test/mfcc/raw_mfcc_train.1.ark:161818
mkaj0_si784 quick_test/mfcc/raw_mfcc_train.3.ark:1925034
fgcs0_sx136 quick_test/mfcc/raw_mfcc_train.1.ark:1375163
mmlm0_si1527 quick_test/mfcc/raw_mfcc_train.3.ark:3146809
fdtd0_sx121 quick_test/mfcc/raw_mfcc_train.1.ark:1069668
fmem0_si2007 quick_test/mfcc/raw_mfcc_train.1.ark:2853482
mmws1_sx351 quick_test/mfcc/raw_mfcc_train.3.ark:3403331
mrjt0_sx328 quick_test/mfcc/raw_mfcc_train.4.ark:1002835
msrg0_sx411 quick_test/mfcc/raw_mfcc_train.4.ark:2224319
fsjw0_sx343 quick_test/mfcc/raw_mfcc_train.2.ark:70151
mrtc0_sx198 quick_test/mfcc/raw_mfcc_train.4.ark:1532615
mmeb0_si1987 quick_test/mfcc/raw_mfcc_train.3.ark:3001127
mdlc0_sx135 quick_test/mfcc/raw_mfcc_train.2.ark:2467543
mrjt0_sx418 quick_test/mfcc/raw_mfcc_train.4.ark:1007600
mjde0_sx130 quick_test/mfcc/raw_mfcc_train.3.ark:751804
fljg0_sx171 quick_test/mfcc/raw_mfcc_train.1.ark:2567632
mgsl0_sx354 quick_test/mfcc/raw_mfcc_train.3.ark:250840
fsak0_si670 quick_test/mfcc/raw_mfcc_train.1.ark:3636146
mmsm0_si1736 quick_test/mfcc/raw_mfcc_train.3.ark:3247361
fbas0_sx37 quick_test/mfcc/raw_mfcc_train.1.ark:199029
mpgr0_si2040 quick_test/mfcc/raw_mfcc_train.3.ark:3632543
mwgr0_si2236 quick_test/mfcc/raw_mfcc_train.4.ark:3617374
mclk0_sx40 quick_test/mfcc/raw_mfcc_train.2.ark:1736291
mgak0_sx316 quick_test/mfcc/raw_mfcc_train.2.ark:3665853
mdlh0_si574 quick_test/mfcc/raw_mfcc_train.2.ark:2551381
mbma0_sx142 quick_test/mfcc/raw_mfcc_train.2.ark:1231915
fjdm2_si1964 quick_test/mfcc/raw_mfcc_train.1.ark:1584768
fvfb0_si2292 quick_test/mfcc/raw_mfcc_train.2.ark:576860
mjjb0_si1277 quick_test/mfcc/raw_mfcc_train.3.ark:1041657
fleh0_si2311 quick_test/mfcc/raw_mfcc_train.1.ark:2401237
mlns0_sx147 quick_test/mfcc/raw_mfcc_train.3.ark:2517972
mjls0_sx196 quick_test/mfcc/raw_mfcc_train.3.ark:1253824
mcxm0_sx91 quick_test/mfcc/raw_mfcc_train.2.ark:1958801
mcdr0_si1154 quick_test/mfcc/raw_mfcc_train.2.ark:1569451
fjdm2_sx232 quick_test/mfcc/raw_mfcc_train.1.ark:1598648
mbcg0_si957 quick_test/mfcc/raw_mfcc_train.2.ark:1106074
mjls0_si1096 quick_test/mfcc/raw_mfcc_train.3.ark:1231793
mmcc0_sx78 quick_test/mfcc/raw_mfcc_train.3.ark:2809864
mstf0_sx406 quick_test/mfcc/raw_mfcc_train.4.ark:2290042
mcth0_sx129 quick_test/mfcc/raw_mfcc_train.2.ark:1879321
mdef0_sx213 quick_test/mfcc/raw_mfcc_train.2.ark:2235387
fleh0_si1051 quick_test/mfcc/raw_mfcc_train.1.ark:2392303
mkdt0_si2153 quick_test/mfcc/raw_mfcc_train.3.ark:2043885
feeh0_sx302 quick_test/mfcc/raw_mfcc_train.1.ark:1247301
fpaf0_sx424 quick_test/mfcc/raw_mfcc_train.1.ark:3323580
mgsl0_sx264 quick_test/mfcc/raw_mfcc_train.3.ark:247011
mrms0_sx210 quick_test/mfcc/raw_mfcc_train.4.ark:1359059
mtat0_sx390 quick_test/mfcc/raw_mfcc_train.4.ark:2431313
fmju0_si2019 quick_test/mfcc/raw_mfcc_train.1.ark:2958692
mtab0_sx402 quick_test/mfcc/raw_mfcc_train.4.ark:2369833
madc0_sx197 quick_test/mfcc/raw_mfcc_train.2.ark:710605
mfmc0_sx322 quick_test/mfcc/raw_mfcc_train.2.ark:3447688
mpgr1_sx419 quick_test/mfcc/raw_mfcc_train.3.ark:3681932
mjwg0_sx175 quick_test/mfcc/raw_mfcc_train.3.ark:1694452
mkrg0_sx141 quick_test/mfcc/raw_mfcc_train.3.ark:2317781
flmk0_sx315 quick_test/mfcc/raw_mfcc_train.1.ark:2710406
mmaa0_sx305 quick_test/mfcc/raw_mfcc_train.3.ark:2593812
mrpc1_si1482 quick_test/mfcc/raw_mfcc_train.4.ark:1370436
mges0_si851 quick_test/mfcc/raw_mfcc_train.3.ark:67067
mtpf0_si1235 quick_test/mfcc/raw_mfcc_train.4.ark:3008282
mlns0_sx237 quick_test/mfcc/raw_mfcc_train.3.ark:2521333
mjae0_sx354 quick_test/mfcc/raw_mfcc_train.3.ark:596209
mhbs0_si1575 quick_test/mfcc/raw_mfcc_train.3.ark:299444
mjxa0_sx247 quick_test/mfcc/raw_mfcc_train.3.ark:1800463
mctm0_sx180 quick_test/mfcc/raw_mfcc_train.2.ark:1912671
mtjg0_si890 quick_test/mfcc/raw_mfcc_train.4.ark:2646386
mhmr0_si489 quick_test/mfcc/raw_mfcc_train.3.ark:426295
mdlc2_sx444 quick_test/mfcc/raw_mfcc_train.2.ark:2539023
fapb0_si1693 quick_test/mfcc/raw_mfcc_train.1.ark:137498
mrjm0_sx418 quick_test/mfcc/raw_mfcc_train.4.ark:941277
fdaw0_si1271 quick_test/mfcc/raw_mfcc_train.1.ark:817641
mpar0_sx136 quick_test/mfcc/raw_mfcc_train.3.ark:3518242
fmkc0_sx352 quick_test/mfcc/raw_mfcc_train.1.ark:3006176
mlel0_si616 quick_test/mfcc/raw_mfcc_train.3.ark:2402562
mjfh0_si477 quick_test/mfcc/raw_mfcc_train.3.ark:949623
mbsb0_sx183 quick_test/mfcc/raw_mfcc_train.2.ark:1356126
frll0_sx74 quick_test/mfcc/raw_mfcc_train.1.ark:3550898
msjk0_sx156 quick_test/mfcc/raw_mfcc_train.4.ark:2082371
msrr0_sx30 quick_test/mfcc/raw_mfcc_train.4.ark:2253371
mdps0_si719 quick_test/mfcc/raw_mfcc_train.2.ark:2848211
fcmm0_si1083 quick_test/mfcc/raw_mfcc_train.1.ark:688583
mkam0_sx326 quick_test/mfcc/raw_mfcc_train.3.ark:1967727
mbwp0_si1969 quick_test/mfcc/raw_mfcc_train.2.ark:1405168
fkdw0_sx127 quick_test/mfcc/raw_mfcc_train.1.ark:2105850
mjrk0_sx430 quick_test/mfcc/raw_mfcc_train.3.ark:1600508
mmgg0_sx179 quick_test/mfcc/raw_mfcc_train.3.ark:3067477
fajw0_sx3 quick_test/mfcc/raw_mfcc_train.1.ark:57265
fdml0_sx69 quick_test/mfcc/raw_mfcc_train.1.ark:972050
fjrb0_sx312 quick_test/mfcc/raw_mfcc_train.1.ark:1798888
mtwh1_sx432 quick_test/mfcc/raw_mfcc_train.4.ark:3289736
mprt0_sx130 quick_test/mfcc/raw_mfcc_train.4.ark:140944
mwem0_sx330 quick_test/mfcc/raw_mfcc_train.4.ark:3598495
mwch0_sx452 quick_test/mfcc/raw_mfcc_train.4.ark:3539640
mrkm0_sx7 quick_test/mfcc/raw_mfcc_train.4.ark:1050269
mbth0_si505 quick_test/mfcc/raw_mfcc_train.2.ark:1375068
mjlb0_sx356 quick_test/mfcc/raw_mfcc_train.3.ark:1191973
mjpm0_sx288 quick_test/mfcc/raw_mfcc_train.3.ark:1407634
mree0_sx294 quick_test/mfcc/raw_mfcc_train.4.ark:563442
mdtb0_si1200 quick_test/mfcc/raw_mfcc_train.2.ark:2995914
mprt0_si495 quick_test/mfcc/raw_mfcc_train.4.ark:134820
mmws0_si559 quick_test/mfcc/raw_mfcc_train.3.ark:3360671
fjrp1_si802 quick_test/mfcc/raw_mfcc_train.1.ark:1824755
fsdj0_sx35 quick_test/mfcc/raw_mfcc_train.1.ark:3785629
fcyl0_sx37 quick_test/mfcc/raw_mfcc_train.1.ark:776138
mjpm0_si1998 quick_test/mfcc/raw_mfcc_train.3.ark:1387736
mjjm0_sx107 quick_test/mfcc/raw_mfcc_train.3.ark:1121723
mdss0_si2087 quick_test/mfcc/raw_mfcc_train.2.ark:2943223
mgaf0_si1282 quick_test/mfcc/raw_mfcc_train.2.ark:3583777
madd0_si1295 quick_test/mfcc/raw_mfcc_train.2.ark:722366
mtpp0_si1508 quick_test/mfcc/raw_mfcc_train.4.ark:3067949
mewm0_si1978 quick_test/mfcc/raw_mfcc_train.2.ark:3372887
mmar0_sx166 quick_test/mfcc/raw_mfcc_train.3.ark:2718463
mrms0_si2100 quick_test/mfcc/raw_mfcc_train.4.ark:1351804
mklr0_si1059 quick_test/mfcc/raw_mfcc_train.3.ark:2173319
mrtj0_sx142 quick_test/mfcc/raw_mfcc_train.4.ark:1560531
mcdc0_sx392 quick_test/mfcc/raw_mfcc_train.2.ark:1536509
fecd0_sx338 quick_test/mfcc/raw_mfcc_train.1.ark:1212638
mdcm0_sx220 quick_test/mfcc/raw_mfcc_train.2.ark:2138911
mtwh1_si2142 quick_test/mfcc/raw_mfcc_train.4.ark:3273438
fjrb0_si672 quick_test/mfcc/raw_mfcc_train.1.ark:1789481
fdas1_sx291 quick_test/mfcc/raw_mfcc_train.1.ark:810710
mjee0_si1867 quick_test/mfcc/raw_mfcc_train.3.ark:914875
mmeb0_sx327 quick_test/mfcc/raw_mfcc_train.3.ark:3009338
fskp0_si1728 quick_test/mfcc/raw_mfcc_train.2.ark:151674
fnkl0_sx172 quick_test/mfcc/raw_mfcc_train.1.ark:3140585
mtmt0_si1118 quick_test/mfcc/raw_mfcc_train.4.ark:2975998
fvfb0_sx222 quick_test/mfcc/raw_mfcc_train.2.ark:582594
mmws1_sx261 quick_test/mfcc/raw_mfcc_train.3.ark:3398456
mdwh0_sx125 quick_test/mfcc/raw_mfcc_train.2.ark:3069579
mapv0_sx303 quick_test/mfcc/raw_mfcc_train.2.ark:967971
mzmb0_sx266 quick_test/mfcc/raw_mfcc_train.4.ark:3794465
mram0_si1905 quick_test/mfcc/raw_mfcc_train.4.ark:289675
mtat0_sx300 quick_test/mfcc/raw_mfcc_train.4.ark:2428238
marw0_si1906 quick_test/mfcc/raw_mfcc_train.2.ark:1007941
fssb0_si1082 quick_test/mfcc/raw_mfcc_train.2.ark:377434
mwsb0_si2256 quick_test/mfcc/raw_mfcc_train.4.ark:3713654
mrbc0_si599 quick_test/mfcc/raw_mfcc_train.4.ark:352900
msfh0_sx46 quick_test/mfcc/raw_mfcc_train.4.ark:2029114
mjjj0_si533 quick_test/mfcc/raw_mfcc_train.3.ark:1080423
mrab1_si2108 quick_test/mfcc/raw_mfcc_train.4.ark:221038
mdlm0_si604 quick_test/mfcc/raw_mfcc_train.2.ark:2587143
fdkn0_sx181 quick_test/mfcc/raw_mfcc_train.1.ark:924216
fsls0_si2316 quick_test/mfcc/raw_mfcc_train.2.ark:184824
fexm0_sx201 quick_test/mfcc/raw_mfcc_train.1.ark:1345173
mrre0_sx74 quick_test/mfcc/raw_mfcc_train.4.ark:1432045
mtcs0_sx82 quick_test/mfcc/raw_mfcc_train.4.ark:2532559
