mdef0_si1123 quick_test/mfcc/raw_mfcc_train.2.ark:2218366
fgmb0_sx65 quick_test/mfcc/raw_mfcc_train.1.ark:1466304
mtmt0_sx398 quick_test/mfcc/raw_mfcc_train.4.ark:3003815
mrcg0_sx78 quick_test/mfcc/raw_mfcc_train.4.ark:412154
mgak0_sx136 quick_test/mfcc/raw_mfcc_train.2.ark:3655127
mvjh0_sx26 quick_test/mfcc/raw_mfcc_train.4.ark:3356364
mdlr1_sx129 quick_test/mfcc/raw_mfcc_train.2.ark:2657347
mstf0_sx136 quick_test/mfcc/raw_mfcc_train.4.ark:2277502
mtlc0_si1313 quick_test/mfcc/raw_mfcc_train.4.ark:2877039
mrfl0_sx436 quick_test/mfcc/raw_mfcc_train.4.ark:727879
mfwk0_si619 quick_test/mfcc/raw_mfcc_train.2.ark:3496987
mtdp0_sx351 quick_test/mfcc/raw_mfcc_train.4.ark:2591954
frll0_sx434 quick_test/mfcc/raw_mfcc_train.1.ark:3547720
mjrk0_si1662 quick_test/mfcc/raw_mfcc_train.3.ark:1577312
mcxm0_si1351 quick_test/mfcc/raw_mfcc_train.2.ark:1930412
mefg0_si465 quick_test/mfcc/raw_mfcc_train.2.ark:3178439
mlbc0_sx69 quick_test/mfcc/raw_mfcc_train.3.ark:2391424
fjxp0_si492 quick_test/mfcc/raw_mfcc_train.1.ark:1996692
mtjs0_sx22 quick_test/mfcc/raw_mfcc_train.4.ark:2730591
mdem0_si800 quick_test/mfcc/raw_mfcc_train.2.ark:2257438
flod0_sx117 quick_test/mfcc/raw_mfcc_train.1.ark:2733836
mdmt0_si1832 quick_test/mfcc/raw_mfcc_train.2.ark:2716291
falk0_si658 quick_test/mfcc/raw_mfcc_train.1.ark:76033
mdac0_si1837 quick_test/mfcc/raw_mfcc_train.2.ark:1965915
mrtj0_si772 quick_test/mfcc/raw_mfcc_train.4.ark:1553218
mlsh0_sx247 quick_test/mfcc/raw_mfcc_train.3.ark:2552694
mmab1_sx54 quick_test/mfcc/raw_mfcc_train.3.ark:2634520
mdsj0_sx112 quick_test/mfcc/raw_mfcc_train.2.ark:2919832
mchl0_sx357 quick_test/mfcc/raw_mfcc_train.2.ark:1699022
fdjh0_sx395 quick_test/mfcc/raw_mfcc_train.1.ark:906895
mrjm0_sx238 quick_test/mfcc/raw_mfcc_train.4.ark:933151
mmdm1_si783 quick_test/mfcc/raw_mfcc_train.3.ark:2914253
fsjs0_si541 quick_test/mfcc/raw_mfcc_train.2.ark:22116
mfxs0_si2304 quick_test/mfcc/raw_mfcc_train.2.ark:3527348
fkde0_si1771 quick_test/mfcc/raw_mfcc_train.1.ark:2059277
fkkh0_si660 quick_test/mfcc/raw_mfcc_train.1.ark:2172088
msfh0_si1216 quick_test/mfcc/raw_mfcc_train.4.ark:1993159
fcaj0_si1479 quick_test/mfcc/raw_mfcc_train.1.ark:440021
mbom0_si1644 quick_test/mfcc/raw_mfcc_train.2.ark:1321109
mhit0_sx263 quick_test/mfcc/raw_mfcc_train.3.ark:346629
faem0_si762 quick_test/mfcc/raw_mfcc_train.1.ark:9349
mrws0_sx202 quick_test/mfcc/raw_mfcc_train.4.ark:1661043
feac0_sx435 quick_test/mfcc/raw_mfcc_train.1.ark:1145945
mmeb0_si1357 quick_test/mfcc/raw_mfcc_train.3.ark:2995958
fbmh0_si1136 quick_test/mfcc/raw_mfcc_train.1.ark:342519
fdnc0_sx198 quick_test/mfcc/raw_mfcc_train.1.ark:1044157
fbjl0_sx382 quick_test/mfcc/raw_mfcc_train.1.ark:303245
mhrm0_sx148 quick_test/mfcc/raw_mfcc_train.3.ark:460718
mcth0_sx309 quick_test/mfcc/raw_mfcc_train.2.ark:1887161
mbar0_sx59 quick_test/mfcc/raw_mfcc_train.2.ark:1067137
mrmh0_sx211 quick_test/mfcc/raw_mfcc_train.4.ark:1287639
mvlo0_si1777 quick_test/mfcc/raw_mfcc_train.4.ark:3369459
fcjf0_si648 quick_test/mfcc/raw_mfcc_train.1.ark:545117
mpgh0_si924 quick_test/mfcc/raw_mfcc_train.3.ark:3609665
mbth0_si505 quick_test/mfcc/raw_mfcc_train.2.ark:1375068
mjkr0_sx31 quick_test/mfcc/raw_mfcc_train.3.ark:1166065
mwch0_si1895 quick_test/mfcc/raw_mfcc_train.4.ark:3524316
mjmm0_sx175 quick_test/mfcc/raw_mfcc_train.3.ark:1335805
mtrt0_si597 quick_test/mfcc/raw_mfcc_train.4.ark:3249104
mtwh1_sx252 quick_test/mfcc/raw_mfcc_train.4.ark:3282559
fceg0_sx78 quick_test/mfcc/raw_mfcc_train.1.ark:534512
mbcg0_sx327 quick_test/mfcc/raw_mfcc_train.2.ark:1117535
mjeb0_sx26 quick_test/mfcc/raw_mfcc_train.3.ark:865973
mmxs0_sx156 quick_test/mfcc/raw_mfcc_train.3.ark:3424719
mcpm0_sx294 quick_test/mfcc/raw_mfcc_train.2.ark:1796062
mgrp0_si1317 quick_test/mfcc/raw_mfcc_train.3.ark:157847
fmkc0_si1702 quick_test/mfcc/raw_mfcc_train.1.ark:2995157
mewm0_si1348 quick_test/mfcc/raw_mfcc_train.2.ark:3369759
mclm0_sx196 quick_test/mfcc/raw_mfcc_train.2.ark:1761808
mdlr0_sx333 quick_test/mfcc/raw_mfcc_train.2.ark:2629601
mree0_sx114 quick_test/mfcc/raw_mfcc_train.4.ark:553269
fcyl0_sx349 quick_test/mfcc/raw_mfcc_train.1.ark:770464
mwar0_si1045 quick_test/mfcc/raw_mfcc_train.4.ark:3489085
mrlr0_sx386 quick_test/mfcc/raw_mfcc_train.4.ark:1204117
fmkc0_si1041 quick_test/mfcc/raw_mfcc_train.1.ark:2986119
mkxl0_si1185 quick_test/mfcc/raw_mfcc_train.3.ark:2332583
mdpb0_sx146 quick_test/mfcc/raw_mfcc_train.2.ark:2794258
msdb0_sx197 quick_test/mfcc/raw_mfcc_train.4.ark:1842276
mtab0_sx132 quick_test/mfcc/raw_mfcc_train.4.ark:2354485
mjjj0_sx173 quick_test/mfcc/raw_mfcc_train.3.ark:1085214
mcth0_sx39 quick_test/mfcc/raw_mfcc_train.2.ark:1891392
fcjs0_si1607 quick_test/mfcc/raw_mfcc_train.1.ark:562761
mdlc0_si2025 quick_test/mfcc/raw_mfcc_train.2.ark:2458897
mses0_si2219 quick_test/mfcc/raw_mfcc_train.4.ark:1972018
fhlm0_sx210 quick_test/mfcc/raw_mfcc_train.1.ark:1523261
mdlh0_sx250 quick_test/mfcc/raw_mfcc_train.2.ark:2564909
mdlc1_si2144 quick_test/mfcc/raw_mfcc_train.2.ark:2498170
mpsw0_sx437 quick_test/mfcc/raw_mfcc_train.4.ark:177110
flet0_sx147 quick_test/mfcc/raw_mfcc_train.1.ark:2439625
mprk0_sx17 quick_test/mfcc/raw_mfcc_train.4.ark:111657
mejl0_sx422 quick_test/mfcc/raw_mfcc_train.2.ark:3269918
mcth0_si579 quick_test/mfcc/raw_mfcc_train.2.ark:1874608
fbas0_sx37 quick_test/mfcc/raw_mfcc_train.1.ark:199029
fbcg1_sx82 quick_test/mfcc/raw_mfcc_train.1.ark:235597
mgsh0_sx127 quick_test/mfcc/raw_mfcc_train.3.ark:209783
fjlg0_sx89 quick_test/mfcc/raw_mfcc_train.1.ark:1744889
mrai0_si1954 quick_test/mfcc/raw_mfcc_train.4.ark:250116
mmxs0_sx66 quick_test/mfcc/raw_mfcc_train.3.ark:3441464
flmk0_sx225 quick_test/mfcc/raw_mfcc_train.1.ark:2707461
mrtc0_sx108 quick_test/mfcc/raw_mfcc_train.4.ark:1524672
marw0_si1276 quick_test/mfcc/raw_mfcc_train.2.ark:1004072
fmem0_sx333 quick_test/mfcc/raw_mfcc_train.1.ark:2872978
mtas0_si755 quick_test/mfcc/raw_mfcc_train.4.ark:2384318
mrtj0_sx412 quick_test/mfcc/raw_mfcc_train.4.ark:1576399
mejl0_sx242 quick_test/mfcc/raw_mfcc_train.2.ark:3262286
mdlc2_sx354 quick_test/mfcc/raw_mfcc_train.2.ark:2536039
mmab1_si2124 quick_test/mfcc/raw_mfcc_train.3.ark:2606997
fjlg0_sx269 quick_test/mfcc/raw_mfcc_train.1.ark:1731726
mljh0_sx334 quick_test/mfcc/raw_mfcc_train.3.ark:2493658
mrkm0_sx187 quick_test/mfcc/raw_mfcc_train.4.ark:1036938
mmpm0_sx71 quick_test/mfcc/raw_mfcc_train.3.ark:3203518
mkdt0_si893 quick_test/mfcc/raw_mfcc_train.3.ark:2053181
falr0_si1325 quick_test/mfcc/raw_mfcc_train.1.ark:101592
mapv0_sx123 quick_test/mfcc/raw_mfcc_train.2.ark:958909
mdlm0_si1234 quick_test/mfcc/raw_mfcc_train.2.ark:2580446
mwem0_si1950 quick_test/mfcc/raw_mfcc_train.4.ark:3587398
mjmd0_sx308 quick_test/mfcc/raw_mfcc_train.3.ark:1312934
fntb0_si1203 quick_test/mfcc/raw_mfcc_train.1.ark:3159366
mbom0_sx114 quick_test/mfcc/raw_mfcc_train.2.ark:1327104
mwad0_si2322 quick_test/mfcc/raw_mfcc_train.4.ark:3470206
msds0_sx267 quick_test/mfcc/raw_mfcc_train.4.ark:1903225
ftbr0_sx21 quick_test/mfcc/raw_mfcc_train.2.ark:460315
flhd0_sx354 quick_test/mfcc/raw_mfcc_train.1.ark:2474849
mtlc0_sx127 quick_test/mfcc/raw_mfcc_train.4.ark:2892388
ftbw0_si1975 quick_test/mfcc/raw_mfcc_train.2.ark:472968
fpab1_sx31 quick_test/mfcc/raw_mfcc_train.1.ark:3221136
msmr0_sx415 quick_test/mfcc/raw_mfcc_train.4.ark:2161896
msmc0_si509 quick_test/mfcc/raw_mfcc_train.4.ark:2107451
mbml0_sx179 quick_test/mfcc/raw_mfcc_train.2.ark:1296925
mdwm0_sx106 quick_test/mfcc/raw_mfcc_train.2.ark:3105035
fpab1_sx391 quick_test/mfcc/raw_mfcc_train.1.ark:3224107
mjda0_si1031 quick_test/mfcc/raw_mfcc_train.3.ark:675878
mges0_si851 quick_test/mfcc/raw_mfcc_train.3.ark:67067
msdh0_sx260 quick_test/mfcc/raw_mfcc_train.4.ark:1866130
fsag0_si1323 quick_test/mfcc/raw_mfcc_train.1.ark:3554416
mapv0_sx33 quick_test/mfcc/raw_mfcc_train.2.ark:971188
fjwb1_sx255 quick_test/mfcc/raw_mfcc_train.1.ark:1936480
mtjg0_sx170 quick_test/mfcc/raw_mfcc_train.4.ark:2651333
mdwd0_si1260 quick_test/mfcc/raw_mfcc_train.2.ark:3023519
mtcs0_si712 quick_test/mfcc/raw_mfcc_train.4.ark:2508462
mjls0_si466 quick_test/mfcc/raw_mfcc_train.3.ark:1243859
mdss1_sx427 quick_test/mfcc/raw_mfcc_train.2.ark:2989010
mhmg0_sx15 quick_test/mfcc/raw_mfcc_train.3.ark:403670
fjrp1_sx442 quick_test/mfcc/raw_mfcc_train.1.ark:1845713
mmds0_sx173 quick_test/mfcc/raw_mfcc_train.3.ark:2951562
mpar0_sx226 quick_test/mfcc/raw_mfcc_train.3.ark:3522851
frll0_sx344 quick_test/mfcc/raw_mfcc_train.1.ark:3544502
mgrl0_sx147 quick_test/mfcc/raw_mfcc_train.3.ark:138793
mrhl0_si885 quick_test/mfcc/raw_mfcc_train.4.ark:817902
fgdp0_sx358 quick_test/mfcc/raw_mfcc_train.1.ark:1417679
mbar0_si1319 quick_test/mfcc/raw_mfcc_train.2.ark:1038033
mrtj0_sx52 quick_test/mfcc/raw_mfcc_train.4.ark:1580708
mrmg0_si1710 quick_test/mfcc/raw_mfcc_train.4.ark:1241721
mmwb0_sx449 quick_test/mfcc/raw_mfcc_train.3.ark:3346116
fjdm2_si2212 quick_test/mfcc/raw_mfcc_train.1.ark:1589287
mrtj0_si2032 quick_test/mfcc/raw_mfcc_train.4.ark:1549870
mgrp0_sx417 quick_test/mfcc/raw_mfcc_train.3.ark:185151
mrlj0_si1420 quick_test/mfcc/raw_mfcc_train.4.ark:1086311
mpmb0_si2131 quick_test/mfcc/raw_mfcc_train.3.ark:3697684
mbom0_sx311 quick_test/mfcc/raw_mfcc_train.2.ark:1336810
majp0_sx444 quick_test/mfcc/raw_mfcc_train.2.ark:870865
mjdg0_si1672 quick_test/mfcc/raw_mfcc_train.3.ark:780941
mddc0_sx429 quick_test/mfcc/raw_mfcc_train.2.ark:2176643
mjae0_sx264 quick_test/mfcc/raw_mfcc_train.3.ark:592367
mwgr0_si976 quick_test/mfcc/raw_mfcc_train.4.ark:3620865
mejs0_si1870 quick_test/mfcc/raw_mfcc_train.2.ark:3283278
mrdd0_si2310 quick_test/mfcc/raw_mfcc_train.4.ark:455109
fdas1_si1461 quick_test/mfcc/raw_mfcc_train.1.ark:783914
fpmy0_si1783 quick_test/mfcc/raw_mfcc_train.1.ark:3433036
mjeb0_sx170 quick_test/mfcc/raw_mfcc_train.3.ark:855430
medr0_si744 quick_test/mfcc/raw_mfcc_train.2.ark:3158534
mfrm0_si1155 quick_test/mfcc/raw_mfcc_train.2.ark:3459435
mrxb0_si1585 quick_test/mfcc/raw_mfcc_train.4.ark:1673954
fajw0_si1263 quick_test/mfcc/raw_mfcc_train.1.ark:32804
msat0_sx176 quick_test/mfcc/raw_mfcc_train.4.ark:1779760
fdfb0_sx148 quick_test/mfcc/raw_mfcc_train.1.ark:862234
feeh0_sx302 quick_test/mfcc/raw_mfcc_train.1.ark:1247301
fjdm2_sx52 quick_test/mfcc/raw_mfcc_train.1.ark:1611863
mmpm0_sx251 quick_test/mfcc/raw_mfcc_train.3.ark:3190355
fksr0_sx397 quick_test/mfcc/raw_mfcc_train.1.ark:2321292
mlsh0_si2047 quick_test/mfcc/raw_mfcc_train.3.ark:2541740
mkam0_si1316 quick_test/mfcc/raw_mfcc_train.3.ark:1950421
mjee0_sx247 quick_test/mfcc/raw_mfcc_train.3.ark:924776
mgak0_si2296 quick_test/mfcc/raw_mfcc_train.2.ark:3651883
fecd0_sx158 quick_test/mfcc/raw_mfcc_train.1.ark:1205110
mrmb0_si2211 quick_test/mfcc/raw_mfcc_train.4.ark:1210581
fdaw0_si1406 quick_test/mfcc/raw_mfcc_train.1.ark:824071
fexm0_si482 quick_test/mfcc/raw_mfcc_train.1.ark:1335409
fbmj0_sx156 quick_test/mfcc/raw_mfcc_train.1.ark:388500
mtrc0_sx170 quick_test/mfcc/raw_mfcc_train.4.ark:3188963
mdlr1_si1929 quick_test/mfcc/raw_mfcc_train.2.ark:2647531
fvmh0_sx296 quick_test/mfcc/raw_mfcc_train.2.ark:654403
mprb0_si575 quick_test/mfcc/raw_mfcc_train.4.ark:26159
mtmn0_sx74 quick_test/mfcc/raw_mfcc_train.4.ark:2972311
mgjc0_si1965 quick_test/mfcc/raw_mfcc_train.3.ark:98663
mter0_si1157 quick_test/mfcc/raw_mfcc_train.4.ark:2608108
fljg0_sx261 quick_test/mfcc/raw_mfcc_train.1.ark:2574256
fjxm0_sx401 quick_test/mfcc/raw_mfcc_train.1.ark:1976123
mkls1_si915 quick_test/mfcc/raw_mfcc_train.3.ark:2244573
mdcm0_sx220 quick_test/mfcc/raw_mfcc_train.2.ark:2138911
mjfh0_si1737 quick_test/mfcc/raw_mfcc_train.3.ark:946054
mmvp0_sx294 quick_test/mfcc/raw_mfcc_train.3.ark:3299992
fjkl0_sx32 quick_test/mfcc/raw_mfcc_train.1.ark:1708996
mkrg0_sx411 quick_test/mfcc/raw_mfcc_train.3.ark:2325952
mmgg0_sx359 quick_test/mfcc/raw_mfcc_train.3.ark:3074381
mdac0_sx181 quick_test/mfcc/raw_mfcc_train.2.ark:1975718
mjwg0_sx85 quick_test/mfcc/raw_mfcc_train.3.ark:1711145
fpaf0_si2314 quick_test/mfcc/raw_mfcc_train.1.ark:3308849
mtcs0_si1972 quick_test/mfcc/raw_mfcc_train.4.ark:2504105
mkxl0_sx375 quick_test/mfcc/raw_mfcc_train.3.ark:2359881
mrjm0_sx418 quick_test/mfcc/raw_mfcc_train.4.ark:941277
mdem0_sx68 quick_test/mfcc/raw_mfcc_train.2.ark:2283342
fkkh0_sx30 quick_test/mfcc/raw_mfcc_train.1.ark:2183717
mchl0_si1404 quick_test/mfcc/raw_mfcc_train.2.ark:1683848
fpac0_sx121 quick_test/mfcc/raw_mfcc_train.1.ark:3243091
mpeb0_si1860 quick_test/mfcc/raw_mfcc_train.3.ark:3537837
mtxs0_sx160 quick_test/mfcc/raw_mfcc_train.4.ark:3311405
fblv0_sx338 quick_test/mfcc/raw_mfcc_train.1.ark:329771
mtml0_si1695 quick_test/mfcc/raw_mfcc_train.4.ark:2910332
mwdk0_si2017 quick_test/mfcc/raw_mfcc_train.4.ark:3553169
mrfk0_sx266 quick_test/mfcc/raw_mfcc_train.4.ark:685714
msat0_sx356 quick_test/mfcc/raw_mfcc_train.4.ark:1786404
megj0_si707 quick_test/mfcc/raw_mfcc_train.2.ark:3222528
msfh0_sx226 quick_test/mfcc/raw_mfcc_train.4.ark:2014833
mddc0_sx159 quick_test/mfcc/raw_mfcc_train.2.ark:2166404
mmdm1_sx423 quick_test/mfcc/raw_mfcc_train.3.ark:2933274
mtju0_si2269 quick_test/mfcc/raw_mfcc_train.4.ark:2749406
mtpr0_sx340 quick_test/mfcc/raw_mfcc_train.4.ark:3121992
fkdw0_sx217 quick_test/mfcc/raw_mfcc_train.1.ark:2108535
mcss0_sx210 quick_test/mfcc/raw_mfcc_train.2.ark:1853986
mtas0_sx125 quick_test/mfcc/raw_mfcc_train.4.ark:2387367
mtqc0_si2071 quick_test/mfcc/raw_mfcc_train.4.ark:3143991
mlel0_sx346 quick_test/mfcc/raw_mfcc_train.3.ark:2419132
fsdc0_si1312 quick_test/mfcc/raw_mfcc_train.1.ark:3733997
mkxl0_si1958 quick_test/mfcc/raw_mfcc_train.3.ark:2341803
mdtb0_sx120 quick_test/mfcc/raw_mfcc_train.2.ark:3005946
fcjf0_sx127 quick_test/mfcc/raw_mfcc_train.1.ark:549934
mdns0_sx111 quick_test/mfcc/raw_mfcc_train.2.ark:2761441
flod0_si1287 quick_test/mfcc/raw_mfcc_train.1.ark:2721542
fjhk0_sx122 quick_test/mfcc/raw_mfcc_train.1.ark:1665759
mdsj0_sx382 quick_test/mfcc/raw_mfcc_train.2.ark:2931344
mtrr0_si1548 quick_test/mfcc/raw_mfcc_train.4.ark:3205807
mefg0_si491 quick_test/mfcc/raw_mfcc_train.2.ark:3182164
mprt0_si495 quick_test/mfcc/raw_mfcc_train.4.ark:134820
mrmb0_si1581 quick_test/mfcc/raw_mfcc_train.4.ark:1207011
mmag0_sx46 quick_test/mfcc/raw_mfcc_train.3.ark:2672641
msat0_sx446 quick_test/mfcc/raw_mfcc_train.4.ark:1789518
fsjg0_si1570 quick_test/mfcc/raw_mfcc_train.1.ark:3824402
mrds0_sx357 quick_test/mfcc/raw_mfcc_train.4.ark:526991
majp0_sx264 quick_test/mfcc/raw_mfcc_train.2.ark:862453
mtdp0_si1521 quick_test/mfcc/raw_mfcc_train.4.ark:2571411
fspm0_sx251 quick_test/mfcc/raw_mfcc_train.2.ark:329275
mrdm0_sx245 quick_test/mfcc/raw_mfcc_train.4.ark:493738
mhxl0_sx332 quick_test/mfcc/raw_mfcc_train.3.ark:500828
feeh0_si1742 quick_test/mfcc/raw_mfcc_train.1.ark:1230607
fjsk0_si1052 quick_test/mfcc/raw_mfcc_train.1.ark:1854944
mhmr0_si1692 quick_test/mfcc/raw_mfcc_train.3.ark:420282
msjk0_sx246 quick_test/mfcc/raw_mfcc_train.4.ark:2086863
fajw0_sx3 quick_test/mfcc/raw_mfcc_train.1.ark:57265
mtlc0_sx37 quick_test/mfcc/raw_mfcc_train.4.ark:2899415
mjrg0_sx376 quick_test/mfcc/raw_mfcc_train.3.ark:1509160
mdma0_sx80 quick_test/mfcc/raw_mfcc_train.2.ark:2712981
fear0_sx262 quick_test/mfcc/raw_mfcc_train.1.ark:1169102
mbsb0_sx3 quick_test/mfcc/raw_mfcc_train.2.ark:1360987
mppc0_sx152 quick_test/mfcc/raw_mfcc_train.3.ark:3756242
mcef0_si1765 quick_test/mfcc/raw_mfcc_train.2.ark:1609621
mkln0_si968 quick_test/mfcc/raw_mfcc_train.3.ark:2149838
mdbb1_sx196 quick_test/mfcc/raw_mfcc_train.2.ark:2044145
falk0_si456 quick_test/mfcc/raw_mfcc_train.1.ark:72191
fdas1_sx21 quick_test/mfcc/raw_mfcc_train.1.ark:807934
mkln0_sx428 quick_test/mfcc/raw_mfcc_train.3.ark:2165297
fdml0_sx429 quick_test/mfcc/raw_mfcc_train.1.ark:968352
mrjt0_sx238 quick_test/mfcc/raw_mfcc_train.4.ark:999110
mtmt0_sx218 quick_test/mfcc/raw_mfcc_train.4.ark:2992524
mrhl0_sx435 quick_test/mfcc/raw_mfcc_train.4.ark:833010
mpgh0_sx24 quick_test/mfcc/raw_mfcc_train.3.ark:3618915
fspm0_si1871 quick_test/mfcc/raw_mfcc_train.2.ark:317853
mmea0_si1388 quick_test/mfcc/raw_mfcc_train.3.ark:2967990
mded0_sx360 quick_test/mfcc/raw_mfcc_train.2.ark:2205969
mfwk0_sx79 quick_test/mfcc/raw_mfcc_train.2.ark:3518107
fgcs0_sx136 quick_test/mfcc/raw_mfcc_train.1.ark:1375163
fbmh0_si970 quick_test/mfcc/raw_mfcc_train.1.ark:351582
mmsm0_sx26 quick_test/mfcc/raw_mfcc_train.3.ark:3264119
marc0_si558 quick_test/mfcc/raw_mfcc_train.2.ark:982931
mzmb0_si1796 quick_test/mfcc/raw_mfcc_train.4.ark:3782237
fclt0_si808 quick_test/mfcc/raw_mfcc_train.1.ark:627747
mgjc0_sx345 quick_test/mfcc/raw_mfcc_train.3.ark:112126
mhmr0_sx129 quick_test/mfcc/raw_mfcc_train.3.ark:430696
mcth0_sx129 quick_test/mfcc/raw_mfcc_train.2.ark:1879321
fsls0_si2316 quick_test/mfcc/raw_mfcc_train.2.ark:184824
fskc0_sx156 quick_test/mfcc/raw_mfcc_train.2.ark:94179
feeh0_sx122 quick_test/mfcc/raw_mfcc_train.1.ark:1238447
fjlg0_sx449 quick_test/mfcc/raw_mfcc_train.1.ark:1739865
msdh0_sx350 quick_test/mfcc/raw_mfcc_train.4.ark:1870128
fsjs0_si1801 quick_test/mfcc/raw_mfcc_train.2.ark:17143
mljc0_sx415 quick_test/mfcc/raw_mfcc_train.3.ark:2457104
mbth0_si2102 quick_test/mfcc/raw_mfcc_train.2.ark:1368236
mbbr0_si1685 quick_test/mfcc/raw_mfcc_train.2.ark:1075655
mdss1_si1327 quick_test/mfcc/raw_mfcc_train.2.ark:2966477
mree0_sx384 quick_test/mfcc/raw_mfcc_train.4.ark:567011
mljh0_sx64 quick_test/mfcc/raw_mfcc_train.3.ark:2502576
fsjg0_sx400 quick_test/mfcc/raw_mfcc_train.1.ark:3862606
fdaw0_sx416 quick_test/mfcc/raw_mfcc_train.1.ark:844569
mbwp0_si1969 quick_test/mfcc/raw_mfcc_train.2.ark:1405168
flag0_si834 quick_test/mfcc/raw_mfcc_train.1.ark:2364753
fjxm0_sx311 quick_test/mfcc/raw_mfcc_train.1.ark:1969785
mdbb1_si1006 quick_test/mfcc/raw_mfcc_train.2.ark:2025584
mcre0_sx221 quick_test/mfcc/raw_mfcc_train.2.ark:1817232
fdas1_sx201 quick_test/mfcc/raw_mfcc_train.1.ark:803469
mrlk0_sx303 quick_test/mfcc/raw_mfcc_train.4.ark:1167010
mcxm0_si721 quick_test/mfcc/raw_mfcc_train.2.ark:1939371
mrpc1_si2026 quick_test/mfcc/raw_mfcc_train.4.ark:1374799
mtwh1_sx342 quick_test/mfcc/raw_mfcc_train.4.ark:3286258
fksr0_sx217 quick_test/mfcc/raw_mfcc_train.1.ark:2309572
fvfb0_sx132 quick_test/mfcc/raw_mfcc_train.2.ark:579246
mdas0_sx6 quick_test/mfcc/raw_mfcc_train.2.ark:2018485
mchl0_sx87 quick_test/mfcc/raw_mfcc_train.2.ark:1706692
mmar0_si1336 quick_test/mfcc/raw_mfcc_train.3.ark:2704037
fdtd0_sx211 quick_test/mfcc/raw_mfcc_train.1.ark:1074043
flmc0_sx292 quick_test/mfcc/raw_mfcc_train.1.ark:2675962
mapv0_si663 quick_test/mfcc/raw_mfcc_train.2.ark:952935
fbmj0_si815 quick_test/mfcc/raw_mfcc_train.1.ark:385620
mddc0_si1419 quick_test/mfcc/raw_mfcc_train.2.ark:2154344
fklc0_si985 quick_test/mfcc/raw_mfcc_train.1.ark:2199354
mrml0_sx161 quick_test/mfcc/raw_mfcc_train.4.ark:1314963
msjk0_si1596 quick_test/mfcc/raw_mfcc_train.4.ark:2069427
mjra0_sx426 quick_test/mfcc/raw_mfcc_train.3.ark:1472593
mjee0_si1237 quick_test/mfcc/raw_mfcc_train.3.ark:910564
fdnc0_sx18 quick_test/mfcc/raw_mfcc_train.1.ark:1039873
mcss0_si1380 quick_test/mfcc/raw_mfcc_train.2.ark:1833405
mkam0_sx326 quick_test/mfcc/raw_mfcc_train.3.ark:1967727
mjxa0_sx247 quick_test/mfcc/raw_mfcc_train.3.ark:1800463
freh0_si1945 quick_test/mfcc/raw_mfcc_train.1.ark:3468778
fnkl0_sx442 quick_test/mfcc/raw_mfcc_train.1.ark:3150902
medr0_sx24 quick_test/mfcc/raw_mfcc_train.2.ark:3170007
mmsm0_si476 quick_test/mfcc/raw_mfcc_train.3.ark:3250943
fcmm0_sx420 quick_test/mfcc/raw_mfcc_train.1.ark:711090
mmgk0_si1952 quick_test/mfcc/raw_mfcc_train.3.ark:3092259
fjxp0_sx312 quick_test/mfcc/raw_mfcc_train.1.ark:2005787
mfrm0_sx255 quick_test/mfcc/raw_mfcc_train.2.ark:3475533
mrjh0_si1519 quick_test/mfcc/raw_mfcc_train.4.ark:878595
fvfb0_si1032 quick_test/mfcc/raw_mfcc_train.2.ark:567718
mlel0_si1246 quick_test/mfcc/raw_mfcc_train.3.ark:2395046
mjlb0_sx266 quick_test/mfcc/raw_mfcc_train.3.ark:1188846
mcdc0_sx122 quick_test/mfcc/raw_mfcc_train.2.ark:1520466
mrmh0_si1349 quick_test/mfcc/raw_mfcc_train.4.ark:1274877
fmjb0_sx97 quick_test/mfcc/raw_mfcc_train.1.ark:2914575
fexm0_sx381 quick_test/mfcc/raw_mfcc_train.1.ark:1360924
fmjf0_sx174 quick_test/mfcc/raw_mfcc_train.1.ark:2929386
mwdk0_sx446 quick_test/mfcc/raw_mfcc_train.4.ark:3572873
mjjj0_sx83 quick_test/mfcc/raw_mfcc_train.3.ark:1102674
mjpm1_si761 quick_test/mfcc/raw_mfcc_train.3.ark:1420430
mreh1_sx69 quick_test/mfcc/raw_mfcc_train.4.ark:602857
mjfr0_si975 quick_test/mfcc/raw_mfcc_train.3.ark:976525
mmar0_si1966 quick_test/mfcc/raw_mfcc_train.3.ark:2708894
fceg0_si1878 quick_test/mfcc/raw_mfcc_train.1.ark:514620
mdpb0_sx326 quick_test/mfcc/raw_mfcc_train.2.ark:2801591
fcaj0_sx309 quick_test/mfcc/raw_mfcc_train.1.ark:457191
mgrp0_si687 quick_test/mfcc/raw_mfcc_train.3.ark:166923
msdh0_sx80 quick_test/mfcc/raw_mfcc_train.4.ark:1880372
msat0_si2156 quick_test/mfcc/raw_mfcc_train.4.ark:1773766
mcdc0_sx32 quick_test/mfcc/raw_mfcc_train.2.ark:1532823
mdpk0_sx153 quick_test/mfcc/raw_mfcc_train.2.ark:2821797
mrlk0_si1468 quick_test/mfcc/raw_mfcc_train.4.ark:1144146
mmdg0_si1780 quick_test/mfcc/raw_mfcc_train.3.ark:2841298
mrre0_si952 quick_test/mfcc/raw_mfcc_train.4.ark:1409300
mwsb0_sx276 quick_test/mfcc/raw_mfcc_train.4.ark:3725258
mtpp0_si1508 quick_test/mfcc/raw_mfcc_train.4.ark:3067949
marw0_sx376 quick_test/mfcc/raw_mfcc_train.2.ark:1034099
mjjm0_sx17 quick_test/mfcc/raw_mfcc_train.3.ark:1124615
fsjk1_sx215 quick_test/mfcc/raw_mfcc_train.2.ark:12
mhbs0_si1575 quick_test/mfcc/raw_mfcc_train.3.ark:299444
fsms1_sx64 quick_test/mfcc/raw_mfcc_train.2.ark:306956
falr0_sx245 quick_test/mfcc/raw_mfcc_train.1.ark:117234
mrjb1_si1413 quick_test/mfcc/raw_mfcc_train.4.ark:845473
flkm0_si1880 quick_test/mfcc/raw_mfcc_train.1.ark:2592094
mprd0_si1431 quick_test/mfcc/raw_mfcc_train.4.ark:54060
fcmg0_si1872 quick_test/mfcc/raw_mfcc_train.1.ark:663906
madc0_sx107 quick_test/mfcc/raw_mfcc_train.2.ark:704105
mtbc0_sx93 quick_test/mfcc/raw_mfcc_train.4.ark:2501055
fapb0_sx433 quick_test/mfcc/raw_mfcc_train.1.ark:161818
mkjo0_si2147 quick_test/mfcc/raw_mfcc_train.3.ark:2117196
mjhi0_si1328 quick_test/mfcc/raw_mfcc_train.3.ark:1004127
mpgr0_sx240 quick_test/mfcc/raw_mfcc_train.3.ark:3640312
msvs0_sx128 quick_test/mfcc/raw_mfcc_train.4.ark:2315532
fcjf0_sx37 quick_test/mfcc/raw_mfcc_train.1.ark:556402
mmgc0_sx135 quick_test/mfcc/raw_mfcc_train.3.ark:3038104
fnkl0_si1522 quick_test/mfcc/raw_mfcc_train.1.ark:3127498
mrfk0_si2336 quick_test/mfcc/raw_mfcc_train.4.ark:678082
mpsw0_sx77 quick_test/mfcc/raw_mfcc_train.4.ark:181211
mcxm0_sx91 quick_test/mfcc/raw_mfcc_train.2.ark:1958801
mmvp0_sx347 quick_test/mfcc/raw_mfcc_train.3.ark:3303860
fpab1_sx211 quick_test/mfcc/raw_mfcc_train.1.ark:3211971
flet0_si1137 quick_test/mfcc/raw_mfcc_train.1.ark:2424913
mmea0_si758 quick_test/mfcc/raw_mfcc_train.3.ark:2974180
fmjf0_sx444 quick_test/mfcc/raw_mfcc_train.1.ark:2942719
marc0_si1188 quick_test/mfcc/raw_mfcc_train.2.ark:978002
mrms0_sx210 quick_test/mfcc/raw_mfcc_train.4.ark:1359059
mbcg0_sx417 quick_test/mfcc/raw_mfcc_train.2.ark:1123327
ftbw0_sx355 quick_test/mfcc/raw_mfcc_train.2.ark:492002
mapv0_sx213 quick_test/mfcc/raw_mfcc_train.2.ark:963856
mrjm0_si1228 quick_test/mfcc/raw_mfcc_train.4.ark:920233
mcxm0_sx271 quick_test/mfcc/raw_mfcc_train.2.ark:1947458
mjfh0_sx297 quick_test/mfcc/raw_mfcc_train.3.ark:962416
mjxl0_sx182 quick_test/mfcc/raw_mfcc_train.3.ark:1828541
mjdg0_si1705 quick_test/mfcc/raw_mfcc_train.3.ark:786097
fmpg0_si2232 quick_test/mfcc/raw_mfcc_train.1.ark:3090438
mcss0_si750 quick_test/mfcc/raw_mfcc_train.2.ark:1845444
mdhs0_sx270 quick_test/mfcc/raw_mfcc_train.2.ark:2335761
fdkn0_sx271 quick_test/mfcc/raw_mfcc_train.1.ark:929631
fpls0_sx150 quick_test/mfcc/raw_mfcc_train.1.ark:3409660
mjhi0_sx428 quick_test/mfcc/raw_mfcc_train.3.ark:1028180
mjeb0_si1916 quick_test/mfcc/raw_mfcc_train.3.ark:848448
mdwm0_sx286 quick_test/mfcc/raw_mfcc_train.2.ark:3111379
mjde0_si463 quick_test/mfcc/raw_mfcc_train.3.ark:742196
mmjb1_sx58 quick_test/mfcc/raw_mfcc_train.3.ark:3141887
mchl0_sx267 quick_test/mfcc/raw_mfcc_train.2.ark:1694478
mstf0_si766 quick_test/mfcc/raw_mfcc_train.4.ark:2268427
mtab0_sx42 quick_test/mfcc/raw_mfcc_train.4.ark:2374116
medr0_si1374 quick_test/mfcc/raw_mfcc_train.2.ark:3150004
mjac0_sx431 quick_test/mfcc/raw_mfcc_train.3.ark:568832
fjkl0_sx122 quick_test/mfcc/raw_mfcc_train.1.ark:1696249
mtlc0_sx217 quick_test/mfcc/raw_mfcc_train.4.ark:2894592
mwac0_sx161 quick_test/mfcc/raw_mfcc_train.4.ark:3438968
mtpf0_sx65 quick_test/mfcc/raw_mfcc_train.4.ark:3035709
mmjb1_si1408 quick_test/mfcc/raw_mfcc_train.3.ark:3112796
mjda0_sx311 quick_test/mfcc/raw_mfcc_train.3.ark:691060
mjpm0_sx108 quick_test/mfcc/raw_mfcc_train.3.ark:1396421
fjsk0_sx62 quick_test/mfcc/raw_mfcc_train.1.ark:1884517
mkah0_sx268 quick_test/mfcc/raw_mfcc_train.3.ark:1900707
mtkp0_sx33 quick_test/mfcc/raw_mfcc_train.4.ark:2837473
mrml0_sx431 quick_test/mfcc/raw_mfcc_train.4.ark:1331962
mjpm1_sx221 quick_test/mfcc/raw_mfcc_train.3.ark:1428660
mjxl0_sx92 quick_test/mfcc/raw_mfcc_train.3.ark:1845715
feac0_sx345 quick_test/mfcc/raw_mfcc_train.1.ark:1142246
mmar0_sx76 quick_test/mfcc/raw_mfcc_train.3.ark:2739758
fceg0_sx258 quick_test/mfcc/raw_mfcc_train.1.ark:522207
mtas0_sx35 quick_test/mfcc/raw_mfcc_train.4.ark:2396682
fjhk0_sx32 quick_test/mfcc/raw_mfcc_train.1.ark:1678480
mhit0_sx353 quick_test/mfcc/raw_mfcc_train.3.ark:349795
fsgf0_sx387 quick_test/mfcc/raw_mfcc_train.1.ark:3820572
mbma0_sx52 quick_test/mfcc/raw_mfcc_train.2.ark:1248231
fmmh0_sx7 quick_test/mfcc/raw_mfcc_train.1.ark:3079327
mrcw0_si2001 quick_test/mfcc/raw_mfcc_train.4.ark:420893
mrgs0_si726 quick_test/mfcc/raw_mfcc_train.4.ark:783111
msrg0_sx51 quick_test/mfcc/raw_mfcc_train.4.ark:2228225
fklc1_sx238 quick_test/mfcc/raw_mfcc_train.1.ark:2242911
fntb0_sx123 quick_test/mfcc/raw_mfcc_train.1.ark:3172699
fsbk0_si2329 quick_test/mfcc/raw_mfcc_train.1.ark:3666767
mter0_sx77 quick_test/mfcc/raw_mfcc_train.4.ark:2638017
mcae0_sx367 quick_test/mfcc/raw_mfcc_train.2.ark:1464442
fexm0_sx201 quick_test/mfcc/raw_mfcc_train.1.ark:1345173
mges0_si1481 quick_test/mfcc/raw_mfcc_train.3.ark:63217
mtbc0_sx273 quick_test/mfcc/raw_mfcc_train.4.ark:2487931
flkm0_si620 quick_test/mfcc/raw_mfcc_train.1.ark:2596352
fsls0_sx66 quick_test/mfcc/raw_mfcc_train.2.ark:205294
mrlj1_sx231 quick_test/mfcc/raw_mfcc_train.4.ark:1131131
fdml0_si2075 quick_test/mfcc/raw_mfcc_train.1.ark:956169
fdaw0_sx326 quick_test/mfcc/raw_mfcc_train.1.ark:840727
mdhs0_sx360 quick_test/mfcc/raw_mfcc_train.2.ark:2338784
mrtc0_si2088 quick_test/mfcc/raw_mfcc_train.4.ark:1515831
mdns0_si2271 quick_test/mfcc/raw_mfcc_train.2.ark:2752587
mkes0_sx353 quick_test/mfcc/raw_mfcc_train.3.ark:2100917
mrcw0_sx21 quick_test/mfcc/raw_mfcc_train.4.ark:437430
mdcd0_si785 quick_test/mfcc/raw_mfcc_train.2.ark:2097175
mrab0_si1854 quick_test/mfcc/raw_mfcc_train.4.ark:187831
mrai0_sx342 quick_test/mfcc/raw_mfcc_train.4.ark:272174
mwsh0_sx166 quick_test/mfcc/raw_mfcc_train.4.ark:3754062
msdh0_si2240 quick_test/mfcc/raw_mfcc_train.4.ark:1852368
mntw0_sx202 quick_test/mfcc/raw_mfcc_train.3.ark:3492283
mmar0_sx346 quick_test/mfcc/raw_mfcc_train.3.ark:2730255
mcae0_sx7 quick_test/mfcc/raw_mfcc_train.2.ark:1469400
msrg0_sx321 quick_test/mfcc/raw_mfcc_train.4.ark:2219775
mrcg0_sx348 quick_test/mfcc/raw_mfcc_train.4.ark:400649
fsbk0_si1069 quick_test/mfcc/raw_mfcc_train.1.ark:3659393
mbma1_sx54 quick_test/mfcc/raw_mfcc_train.2.ark:1281802
fpaf0_sx424 quick_test/mfcc/raw_mfcc_train.1.ark:3323580
fjxp0_si1122 quick_test/mfcc/raw_mfcc_train.1.ark:1987460
fmem0_si2007 quick_test/mfcc/raw_mfcc_train.1.ark:2853482
mrab1_si848 quick_test/mfcc/raw_mfcc_train.4.ark:224646
mkaj0_sx64 quick_test/mfcc/raw_mfcc_train.3.ark:1941721
megj0_si1967 quick_test/mfcc/raw_mfcc_train.2.ark:3220662
mdwd0_si1890 quick_test/mfcc/raw_mfcc_train.2.ark:3029351
fbcg1_si982 quick_test/mfcc/raw_mfcc_train.1.ark:211994
mbef0_sx21 quick_test/mfcc/raw_mfcc_train.2.ark:1149090
fdfb0_sx418 quick_test/mfcc/raw_mfcc_train.1.ark:871979
mter0_sx437 quick_test/mfcc/raw_mfcc_train.4.ark:2632577
fjsp0_si1434 quick_test/mfcc/raw_mfcc_train.1.ark:1888178
mgaf0_si1282 quick_test/mfcc/raw_mfcc_train.2.ark:3583777
mrds0_si1797 quick_test/mfcc/raw_mfcc_train.4.ark:510947
fsag0_sx333 quick_test/mfcc/raw_mfcc_train.1.ark:3575759
mpmb0_sx421 quick_test/mfcc/raw_mfcc_train.3.ark:3729140
mjkr0_si1201 quick_test/mfcc/raw_mfcc_train.3.ark:1138931
fbmj0_sx426 quick_test/mfcc/raw_mfcc_train.1.ark:402678
fhlm0_sx349 quick_test/mfcc/raw_mfcc_train.1.ark:1531023
fsjs0_sx181 quick_test/mfcc/raw_mfcc_train.2.ark:27115
fcjs0_si2237 quick_test/mfcc/raw_mfcc_train.1.ark:565161
fjlr0_si601 quick_test/mfcc/raw_mfcc_train.1.ark:1756729
mbar0_sx149 quick_test/mfcc/raw_mfcc_train.2.ark:1049586
mesj0_sx97 quick_test/mfcc/raw_mfcc_train.2.ark:3366982
mdas0_si1896 quick_test/mfcc/raw_mfcc_train.2.ark:1999148
mbar0_si1949 quick_test/mfcc/raw_mfcc_train.2.ark:1043150
mdpk0_si552 quick_test/mfcc/raw_mfcc_train.2.ark:2819528
mhrm0_sx328 quick_test/mfcc/raw_mfcc_train.3.ark:467583
ftbr0_si921 quick_test/mfcc/raw_mfcc_train.2.ark:447425
mbbr0_si2315 quick_test/mfcc/raw_mfcc_train.2.ark:1079056
mdks0_sx76 quick_test/mfcc/raw_mfcc_train.2.ark:2408150
mwch0_sx452 quick_test/mfcc/raw_mfcc_train.4.ark:3539640
mmws1_sx351 quick_test/mfcc/raw_mfcc_train.3.ark:3403331
mmgc0_sx45 quick_test/mfcc/raw_mfcc_train.3.ark:3051898
fleh0_sx241 quick_test/mfcc/raw_mfcc_train.1.ark:2408739
mclk0_sx400 quick_test/mfcc/raw_mfcc_train.2.ark:1740068
mmdm0_sx141 quick_test/mfcc/raw_mfcc_train.3.ark:2889178
mtqc0_sx271 quick_test/mfcc/raw_mfcc_train.4.ark:3157337
mjsr0_sx74 quick_test/mfcc/raw_mfcc_train.3.ark:1672024
fskp0_sx18 quick_test/mfcc/raw_mfcc_train.2.ark:162094
mjlb0_sx446 quick_test/mfcc/raw_mfcc_train.3.ark:1195724
mjma0_sx325 quick_test/mfcc/raw_mfcc_train.3.ark:1286382
fjsk0_si2312 quick_test/mfcc/raw_mfcc_train.1.ark:1864645
fmpg0_si972 quick_test/mfcc/raw_mfcc_train.1.ark:3094956
mrms0_si2100 quick_test/mfcc/raw_mfcc_train.4.ark:1351804
mesj0_sx277 quick_test/mfcc/raw_mfcc_train.2.ark:3357682
fkdw0_si577 quick_test/mfcc/raw_mfcc_train.1.ark:2102164
mrjt0_sx58 quick_test/mfcc/raw_mfcc_train.4.ark:1012026
mkrg0_si861 quick_test/mfcc/raw_mfcc_train.3.ark:2312106
mjrp0_sx315 quick_test/mfcc/raw_mfcc_train.3.ark:1625908
mefg0_sx15 quick_test/mfcc/raw_mfcc_train.2.ark:3197563
mbgt0_si1341 quick_test/mfcc/raw_mfcc_train.2.ark:1156821
mgxp0_sx187 quick_test/mfcc/raw_mfcc_train.3.ark:280405
msds0_si1077 quick_test/mfcc/raw_mfcc_train.4.ark:1883292
falk0_sx6 quick_test/mfcc/raw_mfcc_train.1.ark:94090
mmbs0_sx431 quick_test/mfcc/raw_mfcc_train.3.ark:2772075
mkes0_si1883 quick_test/mfcc/raw_mfcc_train.3.ark:2082052
mhmg0_si1995 quick_test/mfcc/raw_mfcc_train.3.ark:390897
mrjm1_si1928 quick_test/mfcc/raw_mfcc_train.4.ark:956041
fjhk0_si1652 quick_test/mfcc/raw_mfcc_train.1.ark:1657138
fjlg0_sx179 quick_test/mfcc/raw_mfcc_train.1.ark:1727494
mkdb0_sx242 quick_test/mfcc/raw_mfcc_train.3.ark:1994569
mmws0_sx258 quick_test/mfcc/raw_mfcc_train.3.ark:3370858
mrav0_si1008 quick_test/mfcc/raw_mfcc_train.4.ark:317064
fsma0_sx181 quick_test/mfcc/raw_mfcc_train.2.ark:221379
mwar0_si2305 quick_test/mfcc/raw_mfcc_train.4.ark:3499085
maeb0_sx270 quick_test/mfcc/raw_mfcc_train.2.ark:770994
mgsl0_sx354 quick_test/mfcc/raw_mfcc_train.3.ark:250840
faem0_sx42 quick_test/mfcc/raw_mfcc_train.1.ark:29767
mdlr0_si1863 quick_test/mfcc/raw_mfcc_train.2.ark:2614428
mtat1_sx419 quick_test/mfcc/raw_mfcc_train.4.ark:2464111
mpgh0_si1554 quick_test/mfcc/raw_mfcc_train.3.ark:3599056
flma0_si1243 quick_test/mfcc/raw_mfcc_train.1.ark:2628784
msfh0_si586 quick_test/mfcc/raw_mfcc_train.4.ark:2005238
mtlb0_si1134 quick_test/mfcc/raw_mfcc_train.4.ark:2844157
fdmy0_sx27 quick_test/mfcc/raw_mfcc_train.1.ark:1006516
fexm0_si1101 quick_test/mfcc/raw_mfcc_train.1.ark:1326515
mhxl0_sx152 quick_test/mfcc/raw_mfcc_train.3.ark:492234
mmdm1_si2043 quick_test/mfcc/raw_mfcc_train.3.ark:2911295
fpls0_si1590 quick_test/mfcc/raw_mfcc_train.1.ark:3396456
mtxs0_sx70 quick_test/mfcc/raw_mfcc_train.4.ark:3332362
msah1_si1049 quick_test/mfcc/raw_mfcc_train.4.ark:1707044
fmbg0_si1790 quick_test/mfcc/raw_mfcc_train.1.ark:2823032
mbef0_si1911 quick_test/mfcc/raw_mfcc_train.2.ark:1134776
mmgk0_sx62 quick_test/mfcc/raw_mfcc_train.3.ark:3109720
mjrh0_sx225 quick_test/mfcc/raw_mfcc_train.3.ark:1531142
mkjo0_sx437 quick_test/mfcc/raw_mfcc_train.3.ark:2134417
fjsk0_sx332 quick_test/mfcc/raw_mfcc_train.1.ark:1875209
fear0_sx82 quick_test/mfcc/raw_mfcc_train.1.ark:1183526
mrjm1_sx128 quick_test/mfcc/raw_mfcc_train.4.ark:963790
fmbg0_si2264 quick_test/mfcc/raw_mfcc_train.1.ark:2826173
fpjf0_sx236 quick_test/mfcc/raw_mfcc_train.1.ark:3380984
mmdm1_sx63 quick_test/mfcc/raw_mfcc_train.3.ark:2938272
fhlm0_si2190 quick_test/mfcc/raw_mfcc_train.1.ark:1509889
fgrw0_si1990 quick_test/mfcc/raw_mfcc_train.1.ark:1481824
fdas1_sx111 quick_test/mfcc/raw_mfcc_train.1.ark:800069
mjdg0_si1042 quick_test/mfcc/raw_mfcc_train.3.ark:777215
freh0_si685 quick_test/mfcc/raw_mfcc_train.1.ark:3474141
ftmg0_sx452 quick_test/mfcc/raw_mfcc_train.2.ark:559670
mwac0_sx341 quick_test/mfcc/raw_mfcc_train.4.ark:3450682
mgrp0_sx237 quick_test/mfcc/raw_mfcc_train.3.ark:176128
megj0_sx167 quick_test/mfcc/raw_mfcc_train.2.ark:3228060
ftmg0_sx362 quick_test/mfcc/raw_mfcc_train.2.ark:555347
mdwm0_si1546 quick_test/mfcc/raw_mfcc_train.2.ark:3092039
mrab1_sx308 quick_test/mfcc/raw_mfcc_train.4.ark:237576
fsma0_sx271 quick_test/mfcc/raw_mfcc_train.2.ark:226131
mkls1_sx195 quick_test/mfcc/raw_mfcc_train.3.ark:2257905
mrfk0_sx356 quick_test/mfcc/raw_mfcc_train.4.ark:688607
fetb0_sx338 quick_test/mfcc/raw_mfcc_train.1.ark:1314092
milb0_si2163 quick_test/mfcc/raw_mfcc_train.3.ark:514590
mdpk0_sx333 quick_test/mfcc/raw_mfcc_train.2.ark:2829351
mkxl0_sx285 quick_test/mfcc/raw_mfcc_train.3.ark:2356637
mmsm0_sx206 quick_test/mfcc/raw_mfcc_train.3.ark:3259823
mtrt0_sx57 quick_test/mfcc/raw_mfcc_train.4.ark:3265336
fkfb0_sx348 quick_test/mfcc/raw_mfcc_train.1.ark:2142685
mjeb1_sx297 quick_test/mfcc/raw_mfcc_train.3.ark:902476
mjwg0_sx355 quick_test/mfcc/raw_mfcc_train.3.ark:1704281
mtpr0_sx430 quick_test/mfcc/raw_mfcc_train.4.ark:3126302
mram0_sx285 quick_test/mfcc/raw_mfcc_train.4.ark:308989
mgsl0_si797 quick_test/mfcc/raw_mfcc_train.3.ark:236142
mrdd0_sx60 quick_test/mfcc/raw_mfcc_train.4.ark:472199
mmab1_sx414 quick_test/mfcc/raw_mfcc_train.3.ark:2630471
mgsl0_sx444 quick_test/mfcc/raw_mfcc_train.3.ark:254786
msfv0_sx362 quick_test/mfcc/raw_mfcc_train.4.ark:2054794
mcdd0_sx343 quick_test/mfcc/raw_mfcc_train.2.ark:1557704
ftlg0_si1743 quick_test/mfcc/raw_mfcc_train.2.ark:501942
mfxs0_sx414 quick_test/mfcc/raw_mfcc_train.2.ark:3544224
fjsk0_sx242 quick_test/mfcc/raw_mfcc_train.1.ark:1871328
msdb0_si1637 quick_test/mfcc/raw_mfcc_train.4.ark:1832134
madc0_si1367 quick_test/mfcc/raw_mfcc_train.2.ark:687547
fssb0_sx362 quick_test/mfcc/raw_mfcc_train.2.ark:397270
mjls0_sx376 quick_test/mfcc/raw_mfcc_train.3.ark:1261508
fskc0_si1416 quick_test/mfcc/raw_mfcc_train.2.ark:83822
fcmm0_sx363 quick_test/mfcc/raw_mfcc_train.1.ark:707183
mjeb0_si656 quick_test/mfcc/raw_mfcc_train.3.ark:852186
fkaa0_si1208 quick_test/mfcc/raw_mfcc_train.1.ark:2017443
mtdp0_si1274 quick_test/mfcc/raw_mfcc_train.4.ark:2569024
fpac0_sx211 quick_test/mfcc/raw_mfcc_train.1.ark:3247323
mwre0_sx247 quick_test/mfcc/raw_mfcc_train.4.ark:3660457
fmkc0_sx442 quick_test/mfcc/raw_mfcc_train.1.ark:3011409
fjrb0_si1932 quick_test/mfcc/raw_mfcc_train.1.ark:1786302
fvfb0_si1510 quick_test/mfcc/raw_mfcc_train.2.ark:571496
fsls0_sx156 quick_test/mfcc/raw_mfcc_train.2.ark:190096
mcdd0_si1513 quick_test/mfcc/raw_mfcc_train.2.ark:1540625
mdss1_si1713 quick_test/mfcc/raw_mfcc_train.2.ark:2971217
mtdb0_si2031 quick_test/mfcc/raw_mfcc_train.4.ark:2542026
mrld0_sx334 quick_test/mfcc/raw_mfcc_train.4.ark:1077021
mclk0_sx310 quick_test/mfcc/raw_mfcc_train.2.ark:1733178
mfwk0_si1879 quick_test/mfcc/raw_mfcc_train.2.ark:3493678
mdlh0_sx160 quick_test/mfcc/raw_mfcc_train.2.ark:2559104
mrab1_si2108 quick_test/mfcc/raw_mfcc_train.4.ark:221038
mrgs0_sx276 quick_test/mfcc/raw_mfcc_train.4.ark:792797
mjlg1_sx22 quick_test/mfcc/raw_mfcc_train.3.ark:1220955
mmvp0_sx114 quick_test/mfcc/raw_mfcc_train.3.ark:3291931
fsah0_si1874 quick_test/mfcc/raw_mfcc_train.1.ark:3597615
fssb0_sx92 quick_test/mfcc/raw_mfcc_train.2.ark:408190
mrmb0_sx231 quick_test/mfcc/raw_mfcc_train.4.ark:1223511
mmam0_sx427 quick_test/mfcc/raw_mfcc_train.3.ark:2697263
madd0_sx448 quick_test/mfcc/raw_mfcc_train.2.ark:746173
mmeb0_sx367 quick_test/mfcc/raw_mfcc_train.3.ark:3015221
mrem0_sx241 quick_test/mfcc/raw_mfcc_train.4.ark:624460
mdwm0_si2176 quick_test/mfcc/raw_mfcc_train.2.ark:3095661
fspm0_sx161 quick_test/mfcc/raw_mfcc_train.2.ark:324380
mjra0_sx336 quick_test/mfcc/raw_mfcc_train.3.ark:1467087
fsah0_si1244 quick_test/mfcc/raw_mfcc_train.1.ark:3592901
mtkp0_sx393 quick_test/mfcc/raw_mfcc_train.4.ark:2840886
mjra0_si606 quick_test/mfcc/raw_mfcc_train.3.ark:1456315
mdps0_sx449 quick_test/mfcc/raw_mfcc_train.2.ark:2863293
mreh1_sx249 quick_test/mfcc/raw_mfcc_train.4.ark:590916
flac0_si901 quick_test/mfcc/raw_mfcc_train.1.ark:2333743
fapb0_sx163 quick_test/mfcc/raw_mfcc_train.1.ark:148368
mrlr0_si1196 quick_test/mfcc/raw_mfcc_train.4.ark:1176443
mcpm0_sx24 quick_test/mfcc/raw_mfcc_train.2.ark:1793143
msat1_sx173 quick_test/mfcc/raw_mfcc_train.4.ark:1807443
feme0_sx335 quick_test/mfcc/raw_mfcc_train.1.ark:1281197
mcxm0_sx181 quick_test/mfcc/raw_mfcc_train.2.ark:1942329
mtpf0_si605 quick_test/mfcc/raw_mfcc_train.4.ark:3015824
mmjb1_sx238 quick_test/mfcc/raw_mfcc_train.3.ark:3128412
mtat1_si1409 quick_test/mfcc/raw_mfcc_train.4.ark:2435000
mmxs0_sx426 quick_test/mfcc/raw_mfcc_train.3.ark:3436973
faem0_sx312 quick_test/mfcc/raw_mfcc_train.1.ark:20537
mrmg0_sx90 quick_test/mfcc/raw_mfcc_train.4.ark:1266749
mwsh0_sx436 quick_test/mfcc/raw_mfcc_train.4.ark:3768799
mdns0_si1011 quick_test/mfcc/raw_mfcc_train.2.ark:2745832
msds0_sx447 quick_test/mfcc/raw_mfcc_train.4.ark:1914952
fjen0_si2307 quick_test/mfcc/raw_mfcc_train.1.ark:1624367
mbml0_sx449 quick_test/mfcc/raw_mfcc_train.2.ark:1308555
mdhl0_sx449 quick_test/mfcc/raw_mfcc_train.2.ark:2311382
fsma0_si991 quick_test/mfcc/raw_mfcc_train.2.ark:215431
fsrh0_sx41 quick_test/mfcc/raw_mfcc_train.2.ark:372590
fexm0_sx111 quick_test/mfcc/raw_mfcc_train.1.ark:1341058
mkdt0_sx173 quick_test/mfcc/raw_mfcc_train.3.ark:2057101
mefg0_sx195 quick_test/mfcc/raw_mfcc_train.2.ark:3201353
mjlb0_si986 quick_test/mfcc/raw_mfcc_train.3.ark:1180824
ftlg0_sx33 quick_test/mfcc/raw_mfcc_train.2.ark:529413
mgjc0_sx255 quick_test/mfcc/raw_mfcc_train.3.ark:108011
mjac0_sx71 quick_test/mfcc/raw_mfcc_train.3.ark:573180
mesj0_sx367 quick_test/mfcc/raw_mfcc_train.2.ark:3360731
mdlr1_si1299 quick_test/mfcc/raw_mfcc_train.2.ark:2643493
fkde0_sx61 quick_test/mfcc/raw_mfcc_train.1.ark:2084370
medr0_sx114 quick_test/mfcc/raw_mfcc_train.2.ark:3163559
mjmm0_si1255 quick_test/mfcc/raw_mfcc_train.3.ark:1324174
mreh1_si1599 quick_test/mfcc/raw_mfcc_train.4.ark:569931
fcaj0_sx39 quick_test/mfcc/raw_mfcc_train.1.ark:461448
mtjm0_sx416 quick_test/mfcc/raw_mfcc_train.4.ark:2698705
mbsb0_si1353 quick_test/mfcc/raw_mfcc_train.2.ark:1344118
mkes0_sx83 quick_test/mfcc/raw_mfcc_train.3.ark:2109523
frjb0_si1470 quick_test/mfcc/raw_mfcc_train.1.ark:3496603
mrcg0_si798 quick_test/mfcc/raw_mfcc_train.4.ark:387329
fpac0_sx391 quick_test/mfcc/raw_mfcc_train.1.ark:3258978
mmws1_si1701 quick_test/mfcc/raw_mfcc_train.3.ark:3392162
mrai0_sx252 quick_test/mfcc/raw_mfcc_train.4.ark:268774
mabc0_si2041 quick_test/mfcc/raw_mfcc_train.2.ark:662161
mtat1_sx239 quick_test/mfcc/raw_mfcc_train.4.ark:2453229
mrlj1_si1671 quick_test/mfcc/raw_mfcc_train.4.ark:1115774
mcef0_sx415 quick_test/mfcc/raw_mfcc_train.2.ark:1628948
fajw0_sx183 quick_test/mfcc/raw_mfcc_train.1.ark:49518
msfv0_sx452 quick_test/mfcc/raw_mfcc_train.4.ark:2059585
mgrl0_sx327 quick_test/mfcc/raw_mfcc_train.3.ark:143916
mewm0_sx268 quick_test/mfcc/raw_mfcc_train.2.ark:3383724
mfwk0_sx439 quick_test/mfcc/raw_mfcc_train.2.ark:3513590
flet0_si507 quick_test/mfcc/raw_mfcc_train.1.ark:2433482
mjlg1_si1642 quick_test/mfcc/raw_mfcc_train.3.ark:1205704
mtat0_sx390 quick_test/mfcc/raw_mfcc_train.4.ark:2431313
mjdc0_si2165 quick_test/mfcc/raw_mfcc_train.3.ark:707079
mejs0_sx160 quick_test/mfcc/raw_mfcc_train.2.ark:3290273
flmk0_si1229 quick_test/mfcc/raw_mfcc_train.1.ark:2693542
mjpm0_si738 quick_test/mfcc/raw_mfcc_train.3.ark:1392683
mcal0_sx418 quick_test/mfcc/raw_mfcc_train.2.ark:1499916
mvrw0_sx225 quick_test/mfcc/raw_mfcc_train.4.ark:3413321
mgaw0_si1165 quick_test/mfcc/raw_mfcc_train.3.ark:32441
fsrh0_si1931 quick_test/mfcc/raw_mfcc_train.2.ark:348161
mrlj0_sx250 quick_test/mfcc/raw_mfcc_train.4.ark:1102954
mtpp0_si2138 quick_test/mfcc/raw_mfcc_train.4.ark:3073469
mjxa0_sx157 quick_test/mfcc/raw_mfcc_train.3.ark:1797570
mmdg0_sx160 quick_test/mfcc/raw_mfcc_train.3.ark:2854853
fsah0_sx434 quick_test/mfcc/raw_mfcc_train.1.ark:3620595
fkkh0_si1290 quick_test/mfcc/raw_mfcc_train.1.ark:2159346
mses0_sx59 quick_test/mfcc/raw_mfcc_train.4.ark:1990772
mefg0_sx105 quick_test/mfcc/raw_mfcc_train.2.ark:3194268
mjkr0_sx391 quick_test/mfcc/raw_mfcc_train.3.ark:1169036
fdml0_sx159 quick_test/mfcc/raw_mfcc_train.1.ark:958360
frll0_si1514 quick_test/mfcc/raw_mfcc_train.1.ark:3522718
mhjb0_si2277 quick_test/mfcc/raw_mfcc_train.3.ark:368266
mrab0_sx414 quick_test/mfcc/raw_mfcc_train.4.ark:208614
mddc0_sx69 quick_test/mfcc/raw_mfcc_train.2.ark:2180211
mdcm0_sx400 quick_test/mfcc/raw_mfcc_train.2.ark:2150683
mjbg0_si1232 quick_test/mfcc/raw_mfcc_train.3.ark:642826
mmgc0_si1935 quick_test/mfcc/raw_mfcc_train.3.ark:3031134
mppc0_sx332 quick_test/mfcc/raw_mfcc_train.4.ark:3971
mtwh1_sx72 quick_test/mfcc/raw_mfcc_train.4.ark:3294383
mtlc0_sx397 quick_test/mfcc/raw_mfcc_train.4.ark:2902815
mtwh1_si882 quick_test/mfcc/raw_mfcc_train.4.ark:3275616
mmdb0_sx267 quick_test/mfcc/raw_mfcc_train.3.ark:2827698
mejl0_sx152 quick_test/mfcc/raw_mfcc_train.2.ark:3258899
fpab1_sx121 quick_test/mfcc/raw_mfcc_train.1.ark:3207271
mtmn0_si582 quick_test/mfcc/raw_mfcc_train.4.ark:2951087
mdbb1_sx16 quick_test/mfcc/raw_mfcc_train.2.ark:2041304
fsmm0_si1944 quick_test/mfcc/raw_mfcc_train.2.ark:247084
fskc0_sx426 quick_test/mfcc/raw_mfcc_train.2.ark:105978
mklr0_sx69 quick_test/mfcc/raw_mfcc_train.3.ark:2198134
fjlr0_si1231 quick_test/mfcc/raw_mfcc_train.1.ark:1748654
fspm0_sx341 quick_test/mfcc/raw_mfcc_train.2.ark:335301
