mclk0_sx310 quick_test/mfcc/raw_mfcc_train.2.ark:1733178
mrbc0_sx149 quick_test/mfcc/raw_mfcc_train.4.ark:356872
fdkn0_sx181 quick_test/mfcc/raw_mfcc_train.1.ark:924216
fsag0_sx153 quick_test/mfcc/raw_mfcc_train.1.ark:3565202
mgak0_si1036 quick_test/mfcc/raw_mfcc_train.2.ark:3641935
fsrh0_sx311 quick_test/mfcc/raw_mfcc_train.2.ark:363438
fjrb0_si1302 quick_test/mfcc/raw_mfcc_train.1.ark:1781328
mjra0_sx336 quick_test/mfcc/raw_mfcc_train.3.ark:1467087
msmc0_sx107 quick_test/mfcc/raw_mfcc_train.4.ark:2117618
fhxs0_si1075 quick_test/mfcc/raw_mfcc_train.1.ark:1541321
mrvg0_si1140 quick_test/mfcc/raw_mfcc_train.4.ark:1586072
mtwh1_si1512 quick_test/mfcc/raw_mfcc_train.4.ark:3269088
mhmr0_si1692 quick_test/mfcc/raw_mfcc_train.3.ark:420282
mgjc0_sx165 quick_test/mfcc/raw_mfcc_train.3.ark:103012
fljd0_sx256 quick_test/mfcc/raw_mfcc_train.1.ark:2539190
mrvg0_si510 quick_test/mfcc/raw_mfcc_train.4.ark:1592652
fjxm0_sx311 quick_test/mfcc/raw_mfcc_train.1.ark:1969785
mtjg0_si890 quick_test/mfcc/raw_mfcc_train.4.ark:2646386
fmkc0_sx262 quick_test/mfcc/raw_mfcc_train.1.ark:3002425
mrkm0_sx367 quick_test/mfcc/raw_mfcc_train.4.ark:1044960
fpaz0_si2223 quick_test/mfcc/raw_mfcc_train.1.ark:3333586
ftbr0_si1402 quick_test/mfcc/raw_mfcc_train.2.ark:438154
mrso0_sx39 quick_test/mfcc/raw_mfcc_train.4.ark:1467183
mhrm0_sx418 quick_test/mfcc/raw_mfcc_train.3.ark:471672
fkde0_si2221 quick_test/mfcc/raw_mfcc_train.1.ark:2065265
fdaw0_sx416 quick_test/mfcc/raw_mfcc_train.1.ark:844569
fecd0_si788 quick_test/mfcc/raw_mfcc_train.1.ark:1198291
mljc0_sx235 quick_test/mfcc/raw_mfcc_train.3.ark:2449589
fssb0_si1712 quick_test/mfcc/raw_mfcc_train.2.ark:382356
mbwp0_sx169 quick_test/mfcc/raw_mfcc_train.2.ark:1413151
mrsp0_si2059 quick_test/mfcc/raw_mfcc_train.4.ark:1482065
fkaa0_sx218 quick_test/mfcc/raw_mfcc_train.1.ark:2033644
mmds0_si1973 quick_test/mfcc/raw_mfcc_train.3.ark:2946998
fgmb0_si1145 quick_test/mfcc/raw_mfcc_train.1.ark:1432507
mdcm0_sx220 quick_test/mfcc/raw_mfcc_train.2.ark:2138911
mjwt0_sx31 quick_test/mfcc/raw_mfcc_train.3.ark:1779086
mdlr1_sx219 quick_test/mfcc/raw_mfcc_train.2.ark:2661163
mmsm0_sx206 quick_test/mfcc/raw_mfcc_train.3.ark:3259823
mram0_sx285 quick_test/mfcc/raw_mfcc_train.4.ark:308989
fcjf0_sx307 quick_test/mfcc/raw_mfcc_train.1.ark:554407
mkln0_sx68 quick_test/mfcc/raw_mfcc_train.3.ark:2169827
fsmm0_sx414 quick_test/mfcc/raw_mfcc_train.2.ark:269102
flmk0_sx225 quick_test/mfcc/raw_mfcc_train.1.ark:2707461
fmpg0_sx432 quick_test/mfcc/raw_mfcc_train.1.ark:3117461
mkxl0_si1815 quick_test/mfcc/raw_mfcc_train.3.ark:2335919
fpls0_sx330 quick_test/mfcc/raw_mfcc_train.1.ark:3418558
fjwb1_sx345 quick_test/mfcc/raw_mfcc_train.1.ark:1939425
mrdm0_sx335 quick_test/mfcc/raw_mfcc_train.4.ark:497125
mjhi0_sx248 quick_test/mfcc/raw_mfcc_train.3.ark:1020990
mtat1_si1409 quick_test/mfcc/raw_mfcc_train.4.ark:2435000
mwsh0_sx436 quick_test/mfcc/raw_mfcc_train.4.ark:3768799
mnet0_si1446 quick_test/mfcc/raw_mfcc_train.3.ark:3444683
mjeb0_sx206 quick_test/mfcc/raw_mfcc_train.3.ark:861495
mtjs0_sx382 quick_test/mfcc/raw_mfcc_train.4.ark:2738483
mcal0_sx58 quick_test/mfcc/raw_mfcc_train.2.ark:1504966
mjai0_sx254 quick_test/mfcc/raw_mfcc_train.3.ark:630942
mtkd0_sx197 quick_test/mfcc/raw_mfcc_train.4.ark:2797109
fmkf0_sx6 quick_test/mfcc/raw_mfcc_train.1.ark:3045823
maeo0_sx246 quick_test/mfcc/raw_mfcc_train.2.ark:801264
fjxm0_si581 quick_test/mfcc/raw_mfcc_train.1.ark:1957336
mtrt0_sx237 quick_test/mfcc/raw_mfcc_train.4.ark:3256320
mrgs0_si1356 quick_test/mfcc/raw_mfcc_train.4.ark:774828
mdhs0_sx450 quick_test/mfcc/raw_mfcc_train.2.ark:2342236
feeh0_si1112 quick_test/mfcc/raw_mfcc_train.1.ark:1225893
fcyl0_si1297 quick_test/mfcc/raw_mfcc_train.1.ark:750083
fntb0_si679 quick_test/mfcc/raw_mfcc_train.1.ark:3166114
mrxb0_sx325 quick_test/mfcc/raw_mfcc_train.4.ark:1695830
mrjh0_si1519 quick_test/mfcc/raw_mfcc_train.4.ark:878595
mdac0_si631 quick_test/mfcc/raw_mfcc_train.2.ark:1968925
mbgt0_si711 quick_test/mfcc/raw_mfcc_train.2.ark:1165442
mrms0_si2100 quick_test/mfcc/raw_mfcc_train.4.ark:1351804
mmds0_si713 quick_test/mfcc/raw_mfcc_train.3.ark:2948890
mtpp0_sx158 quick_test/mfcc/raw_mfcc_train.4.ark:3079606
faem0_sx402 quick_test/mfcc/raw_mfcc_train.1.ark:25549
feeh0_si471 quick_test/mfcc/raw_mfcc_train.1.ark:1235086
makr0_si1352 quick_test/mfcc/raw_mfcc_train.2.ark:918400
mjws0_sx63 quick_test/mfcc/raw_mfcc_train.3.ark:1745808
fkaa0_si1838 quick_test/mfcc/raw_mfcc_train.1.ark:2021559
fcke0_si1111 quick_test/mfcc/raw_mfcc_train.1.ark:593043
mljc0_si595 quick_test/mfcc/raw_mfcc_train.3.ark:2441866
fbmh0_sx416 quick_test/mfcc/raw_mfcc_train.1.ark:367197
mdss1_si1713 quick_test/mfcc/raw_mfcc_train.2.ark:2971217
fpaz0_sx153 quick_test/mfcc/raw_mfcc_train.1.ark:3345326
fear0_si1252 quick_test/mfcc/raw_mfcc_train.1.ark:1154448
mrdm0_sx245 quick_test/mfcc/raw_mfcc_train.4.ark:493738
mwre0_sx67 quick_test/mfcc/raw_mfcc_train.4.ark:3672307
fmah1_sx69 quick_test/mfcc/raw_mfcc_train.1.ark:2812161
mjmd0_sx128 quick_test/mfcc/raw_mfcc_train.3.ark:1306381
mdcd0_si2045 quick_test/mfcc/raw_mfcc_train.2.ark:2094048
mgxp0_sx277 quick_test/mfcc/raw_mfcc_train.3.ark:283584
mtcs0_si1972 quick_test/mfcc/raw_mfcc_train.4.ark:2504105
mdlc2_sx354 quick_test/mfcc/raw_mfcc_train.2.ark:2536039
mmxs0_sx66 quick_test/mfcc/raw_mfcc_train.3.ark:3441464
falr0_si1955 quick_test/mfcc/raw_mfcc_train.1.ark:105942
fbmj0_si1776 quick_test/mfcc/raw_mfcc_train.1.ark:374283
fsdj0_si1745 quick_test/mfcc/raw_mfcc_train.1.ark:3769579
fscn0_si1886 quick_test/mfcc/raw_mfcc_train.1.ark:3695279
mtdp0_sx261 quick_test/mfcc/raw_mfcc_train.4.ark:2589022
fsdc0_si1312 quick_test/mfcc/raw_mfcc_train.1.ark:3733997
fsms1_si1504 quick_test/mfcc/raw_mfcc_train.2.ark:278320
msat1_si1703 quick_test/mfcc/raw_mfcc_train.4.ark:1800330
mntw0_si1068 quick_test/mfcc/raw_mfcc_train.3.ark:3473039
fjxm0_sx131 quick_test/mfcc/raw_mfcc_train.1.ark:1962270
mcss0_si750 quick_test/mfcc/raw_mfcc_train.2.ark:1845444
fdmy0_sx387 quick_test/mfcc/raw_mfcc_train.1.ark:1014759
fkfb0_sx258 quick_test/mfcc/raw_mfcc_train.1.ark:2138115
mjeb1_sx387 quick_test/mfcc/raw_mfcc_train.3.ark:905746
mesg0_sx72 quick_test/mfcc/raw_mfcc_train.2.ark:3339120
feeh0_sx32 quick_test/mfcc/raw_mfcc_train.1.ark:1251129
mejl0_sx62 quick_test/mfcc/raw_mfcc_train.2.ark:3273967
mrmg0_sx360 quick_test/mfcc/raw_mfcc_train.4.ark:1257610
mjrp0_sx405 quick_test/mfcc/raw_mfcc_train.3.ark:1629503
mkam0_si1465 quick_test/mfcc/raw_mfcc_train.3.ark:1954290
mrew1_sx330 quick_test/mfcc/raw_mfcc_train.4.ark:656556
mddc0_sx69 quick_test/mfcc/raw_mfcc_train.2.ark:2180211
mdsj0_sx382 quick_test/mfcc/raw_mfcc_train.2.ark:2931344
mljh0_sx154 quick_test/mfcc/raw_mfcc_train.3.ark:2483712
mdcm0_sx310 quick_test/mfcc/raw_mfcc_train.2.ark:2143598
fjlr0_sx61 quick_test/mfcc/raw_mfcc_train.1.ark:1776640
mfwk0_sx349 quick_test/mfcc/raw_mfcc_train.2.ark:3507967
mdrd0_sx302 quick_test/mfcc/raw_mfcc_train.2.ark:2895024
mdas0_si1266 quick_test/mfcc/raw_mfcc_train.2.ark:1995903
mkag0_si979 quick_test/mfcc/raw_mfcc_train.3.ark:1858270
mpgr0_sx60 quick_test/mfcc/raw_mfcc_train.3.ark:3652864
mwad0_si1062 quick_test/mfcc/raw_mfcc_train.4.ark:3464288
fksr0_sx161 quick_test/mfcc/raw_mfcc_train.1.ark:2304235
fsjk1_sx35 quick_test/mfcc/raw_mfcc_train.2.ark:7357
mmaa0_sx395 quick_test/mfcc/raw_mfcc_train.3.ark:2600884
msdb0_sx197 quick_test/mfcc/raw_mfcc_train.4.ark:1842276
mrem0_sx151 quick_test/mfcc/raw_mfcc_train.4.ark:620475
fsdc0_sx322 quick_test/mfcc/raw_mfcc_train.1.ark:3753248
mtxs0_sx340 quick_test/mfcc/raw_mfcc_train.4.ark:3321377
fpjf0_si1259 quick_test/mfcc/raw_mfcc_train.1.ark:3368638
mtbc0_sx273 quick_test/mfcc/raw_mfcc_train.4.ark:2487931
mdps0_si1979 quick_test/mfcc/raw_mfcc_train.2.ark:2843823
mwem0_si1393 quick_test/mfcc/raw_mfcc_train.4.ark:3584114
fsmm0_si1314 quick_test/mfcc/raw_mfcc_train.2.ark:243449
mcew0_sx362 quick_test/mfcc/raw_mfcc_train.2.ark:1661199
mjeb0_si656 quick_test/mfcc/raw_mfcc_train.3.ark:852186
fmem0_sx207 quick_test/mfcc/raw_mfcc_train.1.ark:2866568
mtkp0_sx303 quick_test/mfcc/raw_mfcc_train.4.ark:2834269
mvjh0_si926 quick_test/mfcc/raw_mfcc_train.4.ark:3345450
mlel0_si616 quick_test/mfcc/raw_mfcc_train.3.ark:2402562
mstf0_si766 quick_test/mfcc/raw_mfcc_train.4.ark:2268427
mbma0_sx232 quick_test/mfcc/raw_mfcc_train.2.ark:1236329
freh0_si1945 quick_test/mfcc/raw_mfcc_train.1.ark:3468778
mmcc0_sx168 quick_test/mfcc/raw_mfcc_train.3.ark:2794081
mjxa0_si877 quick_test/mfcc/raw_mfcc_train.3.ark:1794092
mrfk0_sx356 quick_test/mfcc/raw_mfcc_train.4.ark:688607
mjfh0_si1107 quick_test/mfcc/raw_mfcc_train.3.ark:942575
fskc0_sx156 quick_test/mfcc/raw_mfcc_train.2.ark:94179
mdrd0_sx392 quick_test/mfcc/raw_mfcc_train.2.ark:2903149
mjws0_sx333 quick_test/mfcc/raw_mfcc_train.3.ark:1734940
mjpm1_sx221 quick_test/mfcc/raw_mfcc_train.3.ark:1428660
mdhl0_sx359 quick_test/mfcc/raw_mfcc_train.2.ark:2306318
mjhi0_sx158 quick_test/mfcc/raw_mfcc_train.3.ark:1018201
mjwg0_si895 quick_test/mfcc/raw_mfcc_train.3.ark:1686723
mdac0_sx451 quick_test/mfcc/raw_mfcc_train.2.ark:1987725
mtmt0_si488 quick_test/mfcc/raw_mfcc_train.4.ark:2983176
mtml0_sx345 quick_test/mfcc/raw_mfcc_train.4.ark:2927534
mdlb0_sx406 quick_test/mfcc/raw_mfcc_train.2.ark:2442768
mjsr0_sx344 quick_test/mfcc/raw_mfcc_train.3.ark:1663574
mdlc0_sx225 quick_test/mfcc/raw_mfcc_train.2.ark:2471853
mrfk0_si1706 quick_test/mfcc/raw_mfcc_train.4.ark:676007
mbar0_si689 quick_test/mfcc/raw_mfcc_train.2.ark:1044821
fsrh0_sx131 quick_test/mfcc/raw_mfcc_train.2.ark:355052
mhbs0_si2205 quick_test/mfcc/raw_mfcc_train.3.ark:302949
msrr0_si1761 quick_test/mfcc/raw_mfcc_train.4.ark:2234975
fcmg0_sx252 quick_test/mfcc/raw_mfcc_train.1.ark:672019
mcdc0_si662 quick_test/mfcc/raw_mfcc_train.2.ark:1516949
fjrb0_sx132 quick_test/mfcc/raw_mfcc_train.1.ark:1791477
mclk0_sx220 quick_test/mfcc/raw_mfcc_train.2.ark:1728569
mdef0_sx393 quick_test/mfcc/raw_mfcc_train.2.ark:2245287
mvjh0_sx386 quick_test/mfcc/raw_mfcc_train.4.ark:3362371
mtrt0_si597 quick_test/mfcc/raw_mfcc_train.4.ark:3249104
mtpr0_sx430 quick_test/mfcc/raw_mfcc_train.4.ark:3126302
fmjf0_sx354 quick_test/mfcc/raw_mfcc_train.1.ark:2938877
mtwh1_si2142 quick_test/mfcc/raw_mfcc_train.4.ark:3273438
fsma0_sx91 quick_test/mfcc/raw_mfcc_train.2.ark:239788
mrlj0_sx430 quick_test/mfcc/raw_mfcc_train.4.ark:1109533
mzmb0_sx356 quick_test/mfcc/raw_mfcc_train.4.ark:3798047
fksr0_si1747 quick_test/mfcc/raw_mfcc_train.1.ark:2296694
fjen0_si2307 quick_test/mfcc/raw_mfcc_train.1.ark:1624367
mmwb0_si989 quick_test/mfcc/raw_mfcc_train.3.ark:3326198
mrlr0_sx116 quick_test/mfcc/raw_mfcc_train.4.ark:1190180
mstf0_sx226 quick_test/mfcc/raw_mfcc_train.4.ark:2282293
fsjw0_sx433 quick_test/mfcc/raw_mfcc_train.2.ark:74903
mfer0_si1492 quick_test/mfcc/raw_mfcc_train.2.ark:3398052
fvkb0_sx439 quick_test/mfcc/raw_mfcc_train.2.ark:621730
mjac0_sx341 quick_test/mfcc/raw_mfcc_train.3.ark:564639
mcdd0_sx343 quick_test/mfcc/raw_mfcc_train.2.ark:1557704
mpgh0_sx384 quick_test/mfcc/raw_mfcc_train.3.ark:3624298
fdxw0_sx251 quick_test/mfcc/raw_mfcc_train.1.ark:1106705
mdef0_si2193 quick_test/mfcc/raw_mfcc_train.2.ark:2228561
mdef0_sx213 quick_test/mfcc/raw_mfcc_train.2.ark:2235387
mprt0_sx400 quick_test/mfcc/raw_mfcc_train.4.ark:155401
mtat0_sx210 quick_test/mfcc/raw_mfcc_train.4.ark:2422895
mpmb0_sx151 quick_test/mfcc/raw_mfcc_train.3.ark:3713233
mmrp0_si717 quick_test/mfcc/raw_mfcc_train.3.ark:3209019
mtqc0_sx451 quick_test/mfcc/raw_mfcc_train.4.ark:3166451
mwgr0_sx436 quick_test/mfcc/raw_mfcc_train.4.ark:3638729
fkdw0_sx397 quick_test/mfcc/raw_mfcc_train.1.ark:2117109
fdaw0_si2036 quick_test/mfcc/raw_mfcc_train.1.ark:827485
mjfr0_si1605 quick_test/mfcc/raw_mfcc_train.3.ark:968606
flma0_sx253 quick_test/mfcc/raw_mfcc_train.1.ark:2643581
mkdb0_sx242 quick_test/mfcc/raw_mfcc_train.3.ark:1994569
mtdb0_sx51 quick_test/mfcc/raw_mfcc_train.4.ark:2565532
mtkp0_si1023 quick_test/mfcc/raw_mfcc_train.4.ark:2810066
mree0_si1734 quick_test/mfcc/raw_mfcc_train.4.ark:543348
mhxl0_sx62 quick_test/mfcc/raw_mfcc_train.3.ark:510682
mtlc0_si1313 quick_test/mfcc/raw_mfcc_train.4.ark:2877039
fskp0_sx108 quick_test/mfcc/raw_mfcc_train.2.ark:158669
mjfh0_sx27 quick_test/mfcc/raw_mfcc_train.3.ark:960017
mfer0_sx232 quick_test/mfcc/raw_mfcc_train.2.ark:3411172
fsma0_sx361 quick_test/mfcc/raw_mfcc_train.2.ark:229882
fcdr1_sx106 quick_test/mfcc/raw_mfcc_train.1.ark:488850
mvlo0_si1777 quick_test/mfcc/raw_mfcc_train.4.ark:3369459
mdrd0_si2012 quick_test/mfcc/raw_mfcc_train.2.ark:2874404
mjjm0_si1251 quick_test/mfcc/raw_mfcc_train.3.ark:1106088
mrds0_si1167 quick_test/mfcc/raw_mfcc_train.4.ark:508443
fmpg0_si2232 quick_test/mfcc/raw_mfcc_train.1.ark:3090438
mtju0_sx40 quick_test/mfcc/raw_mfcc_train.4.ark:2767133
mcdd0_sx253 quick_test/mfcc/raw_mfcc_train.2.ark:1554876
mrgs0_si726 quick_test/mfcc/raw_mfcc_train.4.ark:783111
mvjh0_si1556 quick_test/mfcc/raw_mfcc_train.4.ark:3334775
maeb0_sx360 quick_test/mfcc/raw_mfcc_train.2.ark:774433
mhmr0_sx39 quick_test/mfcc/raw_mfcc_train.3.ark:443677
mjpg0_sx381 quick_test/mfcc/raw_mfcc_train.3.ark:1379088
fmmh0_si2167 quick_test/mfcc/raw_mfcc_train.1.ark:3058676
mdbp0_sx258 quick_test/mfcc/raw_mfcc_train.2.ark:2072419
mljh0_si1422 quick_test/mfcc/raw_mfcc_train.3.ark:2468943
mdlc2_sx84 quick_test/mfcc/raw_mfcc_train.2.ark:2542552
mrms0_sx300 quick_test/mfcc/raw_mfcc_train.4.ark:1364051
mgjc0_sx75 quick_test/mfcc/raw_mfcc_train.3.ark:122747
fkfb0_si1608 quick_test/mfcc/raw_mfcc_train.1.ark:2120926
fpad0_si1346 quick_test/mfcc/raw_mfcc_train.1.ark:3262210
mdlb0_si1936 quick_test/mfcc/raw_mfcc_train.2.ark:2421205
frll0_sx344 quick_test/mfcc/raw_mfcc_train.1.ark:3544502
mgag0_sx241 quick_test/mfcc/raw_mfcc_train.2.ark:3629076
marw0_sx349 quick_test/mfcc/raw_mfcc_train.2.ark:1027319
mtpp0_si878 quick_test/mfcc/raw_mfcc_train.4.ark:3076206
mcdc0_sx212 quick_test/mfcc/raw_mfcc_train.2.ark:1524828
fcjf0_si1027 quick_test/mfcc/raw_mfcc_train.1.ark:537185
mcew0_si812 quick_test/mfcc/raw_mfcc_train.2.ark:1646189
fsmm0_sx54 quick_test/mfcc/raw_mfcc_train.2.ark:273671
mhxl0_sx332 quick_test/mfcc/raw_mfcc_train.3.ark:500828
mjrh1_sx424 quick_test/mfcc/raw_mfcc_train.3.ark:1570226
mefg0_si491 quick_test/mfcc/raw_mfcc_train.2.ark:3182164
mdps0_sx359 quick_test/mfcc/raw_mfcc_train.2.ark:2858632
mrlj1_sx411 quick_test/mfcc/raw_mfcc_train.4.ark:1137242
mtml0_si2325 quick_test/mfcc/raw_mfcc_train.4.ark:2915241
mbom0_sx311 quick_test/mfcc/raw_mfcc_train.2.ark:1336810
flac0_sx181 quick_test/mfcc/raw_mfcc_train.1.ark:2336155
mmea0_sx218 quick_test/mfcc/raw_mfcc_train.3.ark:2982228
fljd0_sx346 quick_test/mfcc/raw_mfcc_train.1.ark:2542655
mcre0_sx24 quick_test/mfcc/raw_mfcc_train.2.ark:1821645
mrjm1_si1298 quick_test/mfcc/raw_mfcc_train.4.ark:950846
mrtc0_si828 quick_test/mfcc/raw_mfcc_train.4.ark:1520791
msas0_sx386 quick_test/mfcc/raw_mfcc_train.4.ark:1767029
mrdm0_si1044 quick_test/mfcc/raw_mfcc_train.4.ark:476640
mjrg0_si1366 quick_test/mfcc/raw_mfcc_train.3.ark:1480160
fpls0_si1590 quick_test/mfcc/raw_mfcc_train.1.ark:3396456
mdwh0_sx215 quick_test/mfcc/raw_mfcc_train.2.ark:3073213
fcrz0_si2053 quick_test/mfcc/raw_mfcc_train.1.ark:724723
mrgs0_sx366 quick_test/mfcc/raw_mfcc_train.4.ark:796431
mgaf0_sx292 quick_test/mfcc/raw_mfcc_train.2.ark:3604775
milb0_sx3 quick_test/mfcc/raw_mfcc_train.3.ark:535098
mjrp0_sx45 quick_test/mfcc/raw_mfcc_train.3.ark:1632954
fjkl0_sx32 quick_test/mfcc/raw_mfcc_train.1.ark:1708996
mmws0_sx168 quick_test/mfcc/raw_mfcc_train.3.ark:3367783
fdjh0_sx35 quick_test/mfcc/raw_mfcc_train.1.ark:903508
mpsw0_sx167 quick_test/mfcc/raw_mfcc_train.4.ark:167925
mkls0_sx357 quick_test/mfcc/raw_mfcc_train.3.ark:2225089
mjeb0_si1916 quick_test/mfcc/raw_mfcc_train.3.ark:848448
fcag0_sx423 quick_test/mfcc/raw_mfcc_train.1.ark:431921
mcpm0_sx204 quick_test/mfcc/raw_mfcc_train.2.ark:1789874
fpjf0_sx56 quick_test/mfcc/raw_mfcc_train.1.ark:3392964
fcmm0_sx273 quick_test/mfcc/raw_mfcc_train.1.ark:703835
mmdm0_si1311 quick_test/mfcc/raw_mfcc_train.3.ark:2876143
mmaa0_si845 quick_test/mfcc/raw_mfcc_train.3.ark:2579751
mhit0_si2243 quick_test/mfcc/raw_mfcc_train.3.ark:332776
mdhl0_si809 quick_test/mfcc/raw_mfcc_train.2.ark:2295520
mrai0_sx252 quick_test/mfcc/raw_mfcc_train.4.ark:268774
fsrh0_si1931 quick_test/mfcc/raw_mfcc_train.2.ark:348161
fkde0_sx421 quick_test/mfcc/raw_mfcc_train.1.ark:2080555
mdma0_sx260 quick_test/mfcc/raw_mfcc_train.2.ark:2695983
fgcs0_si2116 quick_test/mfcc/raw_mfcc_train.1.ark:1368012
fnkl0_si1522 quick_test/mfcc/raw_mfcc_train.1.ark:3127498
mmjb1_sx58 quick_test/mfcc/raw_mfcc_train.3.ark:3141887
mtat0_sx390 quick_test/mfcc/raw_mfcc_train.4.ark:2431313
mcre0_si1725 quick_test/mfcc/raw_mfcc_train.2.ark:1806511
mrkm0_si1267 quick_test/mfcc/raw_mfcc_train.4.ark:1017416
mpfu0_sx448 quick_test/mfcc/raw_mfcc_train.3.ark:3589487
mjdm0_si1937 quick_test/mfcc/raw_mfcc_train.3.ark:815462
msat1_sx83 quick_test/mfcc/raw_mfcc_train.4.ark:1823447
mreh1_si2229 quick_test/mfcc/raw_mfcc_train.4.ark:576634
msvs0_si2198 quick_test/mfcc/raw_mfcc_train.4.ark:2302349
mdss0_si2087 quick_test/mfcc/raw_mfcc_train.2.ark:2943223
fcrz0_sx73 quick_test/mfcc/raw_mfcc_train.1.ark:746513
fpjf0_sx236 quick_test/mfcc/raw_mfcc_train.1.ark:3380984
mjai0_sx344 quick_test/mfcc/raw_mfcc_train.3.ark:633523
mfwk0_si619 quick_test/mfcc/raw_mfcc_train.2.ark:3496987
fbas0_si2066 quick_test/mfcc/raw_mfcc_train.1.ark:182895
mjrp0_si585 quick_test/mfcc/raw_mfcc_train.3.ark:1614629
feme0_si875 quick_test/mfcc/raw_mfcc_train.1.ark:1266590
mpsw0_sx77 quick_test/mfcc/raw_mfcc_train.4.ark:181211
mdlr0_si1863 quick_test/mfcc/raw_mfcc_train.2.ark:2614428
mdbp0_si528 quick_test/mfcc/raw_mfcc_train.2.ark:2062486
mcth0_sx39 quick_test/mfcc/raw_mfcc_train.2.ark:1891392
mter0_sx437 quick_test/mfcc/raw_mfcc_train.4.ark:2632577
msrr0_sx231 quick_test/mfcc/raw_mfcc_train.4.ark:2251376
mhmg0_si1365 quick_test/mfcc/raw_mfcc_train.3.ark:387236
fjsk0_si2312 quick_test/mfcc/raw_mfcc_train.1.ark:1864645
fbch0_sx56 quick_test/mfcc/raw_mfcc_train.1.ark:270792
mdss1_sx337 quick_test/mfcc/raw_mfcc_train.2.ark:2985623
mtjs0_sx292 quick_test/mfcc/raw_mfcc_train.4.ark:2733484
mcdc0_si1922 quick_test/mfcc/raw_mfcc_train.2.ark:1513731
mjrg0_sx376 quick_test/mfcc/raw_mfcc_train.3.ark:1509160
mrav0_sx288 quick_test/mfcc/raw_mfcc_train.4.ark:338557
fcke0_sx391 quick_test/mfcc/raw_mfcc_train.1.ark:619508
mdpb0_sx56 quick_test/mfcc/raw_mfcc_train.2.ark:2808507
msrr0_sx51 quick_test/mfcc/raw_mfcc_train.4.ark:2260079
mtmt0_si1118 quick_test/mfcc/raw_mfcc_train.4.ark:2975998
mjae0_sx354 quick_test/mfcc/raw_mfcc_train.3.ark:596209
fdtd0_sx321 quick_test/mfcc/raw_mfcc_train.1.ark:1083053
mmgc0_si1935 quick_test/mfcc/raw_mfcc_train.3.ark:3031134
mdma0_sx80 quick_test/mfcc/raw_mfcc_train.2.ark:2712981
mkaj0_si1414 quick_test/mfcc/raw_mfcc_train.3.ark:1917141
mdhl0_si1439 quick_test/mfcc/raw_mfcc_train.2.ark:2287653
fajw0_si1893 quick_test/mfcc/raw_mfcc_train.1.ark:39403
mdwm0_sx286 quick_test/mfcc/raw_mfcc_train.2.ark:3111379
mrml0_si791 quick_test/mfcc/raw_mfcc_train.4.ark:1310107
mcpm0_si1824 quick_test/mfcc/raw_mfcc_train.2.ark:1775618
mmws1_sx351 quick_test/mfcc/raw_mfcc_train.3.ark:3403331
mpsw0_si2327 quick_test/mfcc/raw_mfcc_train.4.ark:165097
mdjm0_sx375 quick_test/mfcc/raw_mfcc_train.2.ark:2376450
ftaj0_si699 quick_test/mfcc/raw_mfcc_train.2.ark:418443
mdwm0_si1546 quick_test/mfcc/raw_mfcc_train.2.ark:3092039
fbcg1_sx172 quick_test/mfcc/raw_mfcc_train.1.ark:217292
fceg0_sx78 quick_test/mfcc/raw_mfcc_train.1.ark:534512
flkm0_sx260 quick_test/mfcc/raw_mfcc_train.1.ark:2609139
mrcg0_sx348 quick_test/mfcc/raw_mfcc_train.4.ark:400649
fljg0_sx351 quick_test/mfcc/raw_mfcc_train.1.ark:2577292
mvrw0_sx225 quick_test/mfcc/raw_mfcc_train.4.ark:3413321
mgar0_sx132 quick_test/mfcc/raw_mfcc_train.3.ark:11281
fdjh0_si2195 quick_test/mfcc/raw_mfcc_train.1.ark:883298
mree0_sx114 quick_test/mfcc/raw_mfcc_train.4.ark:553269
mjfr0_si975 quick_test/mfcc/raw_mfcc_train.3.ark:976525
fgrw0_sx432 quick_test/mfcc/raw_mfcc_train.1.ark:1498674
mcss0_sx210 quick_test/mfcc/raw_mfcc_train.2.ark:1853986
mbcg0_sx327 quick_test/mfcc/raw_mfcc_train.2.ark:1117535
ftaj0_si1329 quick_test/mfcc/raw_mfcc_train.2.ark:412774
mjai0_si1604 quick_test/mfcc/raw_mfcc_train.3.ark:611050
mklr0_sx69 quick_test/mfcc/raw_mfcc_train.3.ark:2198134
fbcg1_sx82 quick_test/mfcc/raw_mfcc_train.1.ark:235597
mlbc0_si1239 quick_test/mfcc/raw_mfcc_train.3.ark:2363789
fvmh0_sx116 quick_test/mfcc/raw_mfcc_train.2.ark:644867
mafm0_sx399 quick_test/mfcc/raw_mfcc_train.2.ark:840523
mcdr0_si1784 quick_test/mfcc/raw_mfcc_train.2.ark:1574724
mcef0_sx415 quick_test/mfcc/raw_mfcc_train.2.ark:1628948
mgaf0_sx22 quick_test/mfcc/raw_mfcc_train.2.ark:3602285
fjrp1_sx442 quick_test/mfcc/raw_mfcc_train.1.ark:1845713
mrre0_sx164 quick_test/mfcc/raw_mfcc_train.4.ark:1415872
msfh0_sx46 quick_test/mfcc/raw_mfcc_train.4.ark:2029114
mrbc0_si1665 quick_test/mfcc/raw_mfcc_train.4.ark:346034
mjrg0_sx16 quick_test/mfcc/raw_mfcc_train.3.ark:1495762
mljh0_sx334 quick_test/mfcc/raw_mfcc_train.3.ark:2493658
flag0_sx294 quick_test/mfcc/raw_mfcc_train.1.ark:2383461
fdtd0_sx301 quick_test/mfcc/raw_mfcc_train.1.ark:1077989
flod0_sx297 quick_test/mfcc/raw_mfcc_train.1.ark:2744855
mclk0_sx400 quick_test/mfcc/raw_mfcc_train.2.ark:1740068
msrg0_si591 quick_test/mfcc/raw_mfcc_train.4.ark:2208548
mrav0_sx198 quick_test/mfcc/raw_mfcc_train.4.ark:335495
fdkn0_sx361 quick_test/mfcc/raw_mfcc_train.1.ark:933785
mjrg0_sx106 quick_test/mfcc/raw_mfcc_train.3.ark:1492584
fbch0_si956 quick_test/mfcc/raw_mfcc_train.1.ark:244075
flmc0_sx382 quick_test/mfcc/raw_mfcc_train.1.ark:2685804
mgrp0_si687 quick_test/mfcc/raw_mfcc_train.3.ark:166923
mkrg0_si2121 quick_test/mfcc/raw_mfcc_train.3.ark:2307198
mkxl0_sx105 quick_test/mfcc/raw_mfcc_train.3.ark:2347244
mjlg1_si2272 quick_test/mfcc/raw_mfcc_train.3.ark:1209482
mmgg0_si1709 quick_test/mfcc/raw_mfcc_train.3.ark:3061547
mbma1_sx234 quick_test/mfcc/raw_mfcc_train.2.ark:1268223
mjpm0_sx378 quick_test/mfcc/raw_mfcc_train.3.ark:1411775
mlns0_sx237 quick_test/mfcc/raw_mfcc_train.3.ark:2521333
ftlg0_sx393 quick_test/mfcc/raw_mfcc_train.2.ark:532813
mlbc0_sx159 quick_test/mfcc/raw_mfcc_train.3.ark:2377201
freh0_sx55 quick_test/mfcc/raw_mfcc_train.1.ark:3489229
mdlc2_sx444 quick_test/mfcc/raw_mfcc_train.2.ark:2539023
mkdd0_si2197 quick_test/mfcc/raw_mfcc_train.3.ark:2017303
mtpr0_si506 quick_test/mfcc/raw_mfcc_train.4.ark:3109153
mddc0_si789 quick_test/mfcc/raw_mfcc_train.2.ark:2161769
fljd0_sx436 quick_test/mfcc/raw_mfcc_train.1.ark:2547147
mwre0_sx157 quick_test/mfcc/raw_mfcc_train.4.ark:3656966
mrfl0_si1156 quick_test/mfcc/raw_mfcc_train.4.ark:698872
mjpm1_si2280 quick_test/mfcc/raw_mfcc_train.3.ark:1417836
mmgc0_sx225 quick_test/mfcc/raw_mfcc_train.3.ark:3041907
mhit0_sx83 quick_test/mfcc/raw_mfcc_train.3.ark:357673
mejs0_sx430 quick_test/mfcc/raw_mfcc_train.2.ark:3302735
mclm0_sx16 quick_test/mfcc/raw_mfcc_train.2.ark:1759188
flag0_si834 quick_test/mfcc/raw_mfcc_train.1.ark:2364753
msah1_si2309 quick_test/mfcc/raw_mfcc_train.4.ark:1712286
falk0_sx6 quick_test/mfcc/raw_mfcc_train.1.ark:94090
fsjg0_sx220 quick_test/mfcc/raw_mfcc_train.1.ark:3845049
milb0_si2163 quick_test/mfcc/raw_mfcc_train.3.ark:514590
mwgr0_sx76 quick_test/mfcc/raw_mfcc_train.4.ark:3641543
mrew1_sx60 quick_test/mfcc/raw_mfcc_train.4.ark:665682
mjrh0_sx225 quick_test/mfcc/raw_mfcc_train.3.ark:1531142
megj0_sx437 quick_test/mfcc/raw_mfcc_train.2.ark:3239480
mmlm0_si1527 quick_test/mfcc/raw_mfcc_train.3.ark:3146809
fcag0_sx333 quick_test/mfcc/raw_mfcc_train.1.ark:426753
fear0_sx82 quick_test/mfcc/raw_mfcc_train.1.ark:1183526
mjjm0_sx197 quick_test/mfcc/raw_mfcc_train.3.ark:1127365
mrgs0_sx6 quick_test/mfcc/raw_mfcc_train.4.ark:801311
mpgh0_si675 quick_test/mfcc/raw_mfcc_train.3.ark:3604211
msms0_sx83 quick_test/mfcc/raw_mfcc_train.4.ark:2197813
fsjs0_si1801 quick_test/mfcc/raw_mfcc_train.2.ark:17143
mdem0_sx158 quick_test/mfcc/raw_mfcc_train.2.ark:2264361
flag0_sx114 quick_test/mfcc/raw_mfcc_train.1.ark:2371000
mdmt0_sx32 quick_test/mfcc/raw_mfcc_train.2.ark:2738303
mmag0_sx136 quick_test/mfcc/raw_mfcc_train.3.ark:2653621
mlel0_sx76 quick_test/mfcc/raw_mfcc_train.3.ark:2427530
mvrw0_sx135 quick_test/mfcc/raw_mfcc_train.4.ark:3409544
mmcc0_si1968 quick_test/mfcc/raw_mfcc_train.3.ark:2786748
mdem0_sx428 quick_test/mfcc/raw_mfcc_train.2.ark:2277395
fpaf0_sx64 quick_test/mfcc/raw_mfcc_train.1.ark:3327148
fskp0_si468 quick_test/mfcc/raw_mfcc_train.2.ark:155048
mhit0_si1613 quick_test/mfcc/raw_mfcc_train.3.ark:328868
mwrp0_sx363 quick_test/mfcc/raw_mfcc_train.4.ark:3702465
fjwb1_sx435 quick_test/mfcc/raw_mfcc_train.1.ark:1943111
mjrg0_si1996 quick_test/mfcc/raw_mfcc_train.3.ark:1484536
fltm0_si1700 quick_test/mfcc/raw_mfcc_train.1.ark:2753913
mljh0_si694 quick_test/mfcc/raw_mfcc_train.3.ark:2477699
fpad0_si716 quick_test/mfcc/raw_mfcc_train.1.ark:3270220
fjhk0_sx302 quick_test/mfcc/raw_mfcc_train.1.ark:1675172
mmeb0_sx187 quick_test/mfcc/raw_mfcc_train.3.ark:3006887
mtmn0_si1064 quick_test/mfcc/raw_mfcc_train.4.ark:2941179
mrmb0_sx141 quick_test/mfcc/raw_mfcc_train.4.ark:1219071
falk0_sx276 quick_test/mfcc/raw_mfcc_train.1.ark:85784
mtat1_sx59 quick_test/mfcc/raw_mfcc_train.4.ark:2469070
mgaf0_si652 quick_test/mfcc/raw_mfcc_train.2.ark:3594270
fvmh0_sx26 quick_test/mfcc/raw_mfcc_train.2.ark:651601
fsdc0_si2234 quick_test/mfcc/raw_mfcc_train.1.ark:3742983
mrav0_sx18 quick_test/mfcc/raw_mfcc_train.4.ark:332420
mbcg0_si957 quick_test/mfcc/raw_mfcc_train.2.ark:1106074
fsmm0_sx234 quick_test/mfcc/raw_mfcc_train.2.ark:258233
mtcs0_si712 quick_test/mfcc/raw_mfcc_train.4.ark:2508462
mrlj0_si790 quick_test/mfcc/raw_mfcc_train.4.ark:1093125
mtrt0_sx147 quick_test/mfcc/raw_mfcc_train.4.ark:3252426
mfwk0_sx169 quick_test/mfcc/raw_mfcc_train.2.ark:3500504
fscn0_sx356 quick_test/mfcc/raw_mfcc_train.1.ark:3721106
mdss0_sx351 quick_test/mfcc/raw_mfcc_train.2.ark:2956043
mrkm0_si637 quick_test/mfcc/raw_mfcc_train.4.ark:1030184
mwsb0_si996 quick_test/mfcc/raw_mfcc_train.4.ark:3716690
mjfr0_sx345 quick_test/mfcc/raw_mfcc_train.3.ark:989611
mgrl0_sx237 quick_test/mfcc/raw_mfcc_train.3.ark:142167
mkln0_sx428 quick_test/mfcc/raw_mfcc_train.3.ark:2165297
fsag0_sx63 quick_test/mfcc/raw_mfcc_train.1.ark:3588161
mrms0_sx210 quick_test/mfcc/raw_mfcc_train.4.ark:1359059
fklc1_sx148 quick_test/mfcc/raw_mfcc_train.1.ark:2239173
mabc0_sx421 quick_test/mfcc/raw_mfcc_train.2.ark:680994
fmjf0_si624 quick_test/mfcc/raw_mfcc_train.1.ark:2923672
fsbk0_sx439 quick_test/mfcc/raw_mfcc_train.1.ark:3685086
mjrk0_si880 quick_test/mfcc/raw_mfcc_train.3.ark:1581890
mrem0_sx61 quick_test/mfcc/raw_mfcc_train.4.ark:635751
mrai0_si2052 quick_test/mfcc/raw_mfcc_train.4.ark:252178
mcxm0_sx361 quick_test/mfcc/raw_mfcc_train.2.ark:1950819
mjdc0_sx81 quick_test/mfcc/raw_mfcc_train.3.ark:731300
mjjj0_sx353 quick_test/mfcc/raw_mfcc_train.3.ark:1094757
mesj0_sx7 quick_test/mfcc/raw_mfcc_train.2.ark:3364259
fsms1_sx154 quick_test/mfcc/raw_mfcc_train.2.ark:290497
fpab1_si2101 quick_test/mfcc/raw_mfcc_train.1.ark:3194387
mpgr0_sx330 quick_test/mfcc/raw_mfcc_train.3.ark:3643855
mtat1_si1627 quick_test/mfcc/raw_mfcc_train.4.ark:2438895
feeh0_sx392 quick_test/mfcc/raw_mfcc_train.1.ark:1254971
madc0_si1997 quick_test/mfcc/raw_mfcc_train.2.ark:693522
mwre0_sx247 quick_test/mfcc/raw_mfcc_train.4.ark:3660457
mgaw0_sx265 quick_test/mfcc/raw_mfcc_train.3.ark:50865
mdmt0_si572 quick_test/mfcc/raw_mfcc_train.2.ark:2720154
mkxl0_sx375 quick_test/mfcc/raw_mfcc_train.3.ark:2359881
mzmb0_si536 quick_test/mfcc/raw_mfcc_train.4.ark:3784831
mree0_si1959 quick_test/mfcc/raw_mfcc_train.4.ark:547698
mjjm0_sx17 quick_test/mfcc/raw_mfcc_train.3.ark:1124615
mrgm0_sx416 quick_test/mfcc/raw_mfcc_train.4.ark:760234
fnkl0_sx82 quick_test/mfcc/raw_mfcc_train.1.ark:3155133
mpsw0_si1067 quick_test/mfcc/raw_mfcc_train.4.ark:158646
mjrh0_si1755 quick_test/mfcc/raw_mfcc_train.3.ark:1516352
fdkn0_sx91 quick_test/mfcc/raw_mfcc_train.1.ark:943808
mcth0_sx309 quick_test/mfcc/raw_mfcc_train.2.ark:1887161
mtdb0_si771 quick_test/mfcc/raw_mfcc_train.4.ark:2544503
flhd0_sx264 quick_test/mfcc/raw_mfcc_train.1.ark:2471072
mtxs0_si1060 quick_test/mfcc/raw_mfcc_train.4.ark:3296796
fjxp0_si492 quick_test/mfcc/raw_mfcc_train.1.ark:1996692
madd0_sx448 quick_test/mfcc/raw_mfcc_train.2.ark:746173
mhmg0_sx375 quick_test/mfcc/raw_mfcc_train.3.ark:413051
mbsb0_si1353 quick_test/mfcc/raw_mfcc_train.2.ark:1344118
fskc0_si1416 quick_test/mfcc/raw_mfcc_train.2.ark:83822
fajw0_sx3 quick_test/mfcc/raw_mfcc_train.1.ark:57265
mmsm0_sx26 quick_test/mfcc/raw_mfcc_train.3.ark:3264119
mtqc0_si2071 quick_test/mfcc/raw_mfcc_train.4.ark:3143991
mmdb0_sx357 quick_test/mfcc/raw_mfcc_train.3.ark:2831748
msfh0_sx226 quick_test/mfcc/raw_mfcc_train.4.ark:2014833
fmjb0_si1807 quick_test/mfcc/raw_mfcc_train.1.ark:2890811
fsbk0_sx349 quick_test/mfcc/raw_mfcc_train.1.ark:3678436
mtqc0_sx361 quick_test/mfcc/raw_mfcc_train.4.ark:3161504
makr0_sx182 quick_test/mfcc/raw_mfcc_train.2.ark:928081
mlel0_sx436 quick_test/mfcc/raw_mfcc_train.3.ark:2423663
mwch0_sx452 quick_test/mfcc/raw_mfcc_train.4.ark:3539640
marc0_sx198 quick_test/mfcc/raw_mfcc_train.2.ark:993767
fljg0_sx441 quick_test/mfcc/raw_mfcc_train.1.ark:2583630
fjdm2_si2212 quick_test/mfcc/raw_mfcc_train.1.ark:1589287
fecd0_si1418 quick_test/mfcc/raw_mfcc_train.1.ark:1187447
flja0_si1078 quick_test/mfcc/raw_mfcc_train.1.ark:2486271
msjk0_sx156 quick_test/mfcc/raw_mfcc_train.4.ark:2082371
mrhl0_sx255 quick_test/mfcc/raw_mfcc_train.4.ark:826431
mrjm0_si1228 quick_test/mfcc/raw_mfcc_train.4.ark:920233
frll0_si884 quick_test/mfcc/raw_mfcc_train.1.ark:3532183
mesj0_si997 quick_test/mfcc/raw_mfcc_train.2.ark:3350622
mmjb1_si778 quick_test/mfcc/raw_mfcc_train.3.ark:3121417
mzmb0_sx176 quick_test/mfcc/raw_mfcc_train.4.ark:3789570
mrjh0_sx259 quick_test/mfcc/raw_mfcc_train.4.ark:900190
mmxs0_sx156 quick_test/mfcc/raw_mfcc_train.3.ark:3424719
fmbg0_si1790 quick_test/mfcc/raw_mfcc_train.1.ark:2823032
mrcg0_si2058 quick_test/mfcc/raw_mfcc_train.4.ark:383760
mprb0_sx125 quick_test/mfcc/raw_mfcc_train.4.ark:32679
fmjf0_si1884 quick_test/mfcc/raw_mfcc_train.1.ark:2920935
madc0_si1367 quick_test/mfcc/raw_mfcc_train.2.ark:687547
fsjw0_si703 quick_test/mfcc/raw_mfcc_train.2.ark:60016
mclk0_si1660 quick_test/mfcc/raw_mfcc_train.2.ark:1709898
mtat1_sx419 quick_test/mfcc/raw_mfcc_train.4.ark:2464111
mbom0_sx384 quick_test/mfcc/raw_mfcc_train.2.ark:1341575
mkdt0_sx173 quick_test/mfcc/raw_mfcc_train.3.ark:2057101
mrld0_sx244 quick_test/mfcc/raw_mfcc_train.4.ark:1073673
fetb0_si1148 quick_test/mfcc/raw_mfcc_train.1.ark:1294738
mdas0_si636 quick_test/mfcc/raw_mfcc_train.2.ark:2004719
mvlo0_sx67 quick_test/mfcc/raw_mfcc_train.4.ark:3393355
mrew1_si1500 quick_test/mfcc/raw_mfcc_train.4.ark:639828
msms0_sx353 quick_test/mfcc/raw_mfcc_train.4.ark:2190234
fdaw0_sx56 quick_test/mfcc/raw_mfcc_train.1.ark:848072
fklc1_sx328 quick_test/mfcc/raw_mfcc_train.1.ark:2246558
fleh0_si1681 quick_test/mfcc/raw_mfcc_train.1.ark:2397992
fntb0_sx213 quick_test/mfcc/raw_mfcc_train.1.ark:3176697
fceg0_sx258 quick_test/mfcc/raw_mfcc_train.1.ark:522207
frjb0_si1794 quick_test/mfcc/raw_mfcc_train.1.ark:3498639
medr0_sx114 quick_test/mfcc/raw_mfcc_train.2.ark:3163559
mbth0_si757 quick_test/mfcc/raw_mfcc_train.2.ark:1378949
mgag0_sx151 quick_test/mfcc/raw_mfcc_train.2.ark:3625364
fklh0_sx357 quick_test/mfcc/raw_mfcc_train.1.ark:2280662
fecd0_sx68 quick_test/mfcc/raw_mfcc_train.1.ark:1221946
fmkf0_sx96 quick_test/mfcc/raw_mfcc_train.1.ark:3049092
mtml0_sx75 quick_test/mfcc/raw_mfcc_train.4.ark:2936985
fbjl0_si922 quick_test/mfcc/raw_mfcc_train.1.ark:282294
mjmm0_sx265 quick_test/mfcc/raw_mfcc_train.3.ark:1341246
fsdc0_sx412 quick_test/mfcc/raw_mfcc_train.1.ark:3756583
mges0_si851 quick_test/mfcc/raw_mfcc_train.3.ark:67067
mjfr0_sx75 quick_test/mfcc/raw_mfcc_train.3.ark:1000440
mtrt0_sx57 quick_test/mfcc/raw_mfcc_train.4.ark:3265336
mmsm0_si1736 quick_test/mfcc/raw_mfcc_train.3.ark:3247361
mrdm0_sx65 quick_test/mfcc/raw_mfcc_train.4.ark:505627
mfrm0_si1155 quick_test/mfcc/raw_mfcc_train.2.ark:3459435
faem0_sx42 quick_test/mfcc/raw_mfcc_train.1.ark:29767
mtqc0_si480 quick_test/mfcc/raw_mfcc_train.4.ark:3147768
fcrz0_sx433 quick_test/mfcc/raw_mfcc_train.1.ark:742282
fjlg0_si2306 quick_test/mfcc/raw_mfcc_train.1.ark:1725030
mjxl0_sx452 quick_test/mfcc/raw_mfcc_train.3.ark:1840574
mwch0_sx272 quick_test/mfcc/raw_mfcc_train.4.ark:3532658
mtkd0_si630 quick_test/mfcc/raw_mfcc_train.4.ark:2783426
mjhi0_si1328 quick_test/mfcc/raw_mfcc_train.3.ark:1004127
fkdw0_sx37 quick_test/mfcc/raw_mfcc_train.1.ark:2113618
mkrg0_si1491 quick_test/mfcc/raw_mfcc_train.3.ark:2302042
fbmh0_sx236 quick_test/mfcc/raw_mfcc_train.1.ark:360956
fleh0_si2311 quick_test/mfcc/raw_mfcc_train.1.ark:2401237
mdjm0_sx285 quick_test/mfcc/raw_mfcc_train.2.ark:2372998
mtmn0_si2324 quick_test/mfcc/raw_mfcc_train.4.ark:2945750
mtjs0_sx112 quick_test/mfcc/raw_mfcc_train.4.ark:2723181
makb0_si1646 quick_test/mfcc/raw_mfcc_train.2.ark:888086
mjrk0_sx70 quick_test/mfcc/raw_mfcc_train.3.ark:1605623
fjxp0_sx132 quick_test/mfcc/raw_mfcc_train.1.ark:1999130
fsdj0_si1115 quick_test/mfcc/raw_mfcc_train.1.ark:3763773
mhjb0_si2277 quick_test/mfcc/raw_mfcc_train.3.ark:368266
mjfh0_si477 quick_test/mfcc/raw_mfcc_train.3.ark:949623
mzmb0_sx266 quick_test/mfcc/raw_mfcc_train.4.ark:3794465
fdxw0_sx341 quick_test/mfcc/raw_mfcc_train.1.ark:1110729
fsjs0_sx451 quick_test/mfcc/raw_mfcc_train.2.ark:39798
mcef0_sx235 quick_test/mfcc/raw_mfcc_train.2.ark:1622161
mbjv0_sx347 quick_test/mfcc/raw_mfcc_train.2.ark:1209291
mgak0_sx316 quick_test/mfcc/raw_mfcc_train.2.ark:3665853
fceg0_si618 quick_test/mfcc/raw_mfcc_train.1.ark:516395
fdmy0_sx297 quick_test/mfcc/raw_mfcc_train.1.ark:1010735
mtml0_sx435 quick_test/mfcc/raw_mfcc_train.4.ark:2931311
fjxp0_sx42 quick_test/mfcc/raw_mfcc_train.1.ark:2014510
mgaf0_si1282 quick_test/mfcc/raw_mfcc_train.2.ark:3583777
fksr0_sx366 quick_test/mfcc/raw_mfcc_train.1.ark:2312413
mmdg0_sx250 quick_test/mfcc/raw_mfcc_train.3.ark:2860177
mrjt0_sx58 quick_test/mfcc/raw_mfcc_train.4.ark:1012026
mdtb0_si570 quick_test/mfcc/raw_mfcc_train.2.ark:3001389
mjmm0_si1885 quick_test/mfcc/raw_mfcc_train.3.ark:1329798
mpfu0_sx268 quick_test/mfcc/raw_mfcc_train.3.ark:3581764
fdml0_si2075 quick_test/mfcc/raw_mfcc_train.1.ark:956169
mhrm0_sx148 quick_test/mfcc/raw_mfcc_train.3.ark:460718
mrem0_sx421 quick_test/mfcc/raw_mfcc_train.4.ark:631897
mmrp0_sx144 quick_test/mfcc/raw_mfcc_train.3.ark:3217041
mdsj0_si832 quick_test/mfcc/raw_mfcc_train.2.ark:2916185
falk0_sx96 quick_test/mfcc/raw_mfcc_train.1.ark:97372
fkdw0_sx307 quick_test/mfcc/raw_mfcc_train.1.ark:2111051
mded0_sx180 quick_test/mfcc/raw_mfcc_train.2.ark:2198454
mdef0_sx303 quick_test/mfcc/raw_mfcc_train.2.ark:2238891
mmgg0_sx359 quick_test/mfcc/raw_mfcc_train.3.ark:3074381
fdkn0_si1202 quick_test/mfcc/raw_mfcc_train.1.ark:914854
mrdm0_si965 quick_test/mfcc/raw_mfcc_train.4.ark:485599
mjls0_sx16 quick_test/mfcc/raw_mfcc_train.3.ark:1250632
mejl0_sx332 quick_test/mfcc/raw_mfcc_train.2.ark:3265946
ftlg0_si840 quick_test/mfcc/raw_mfcc_train.2.ark:514527
mdlc2_sx174 quick_test/mfcc/raw_mfcc_train.2.ark:2527757
mdlh0_sx340 quick_test/mfcc/raw_mfcc_train.2.ark:2569206
fcag0_si1503 quick_test/mfcc/raw_mfcc_train.1.ark:410713
fspm0_sx341 quick_test/mfcc/raw_mfcc_train.2.ark:335301
mafm0_sx309 quick_test/mfcc/raw_mfcc_train.2.ark:833269
fexm0_sx291 quick_test/mfcc/raw_mfcc_train.1.ark:1350367
mwsh0_sx76 quick_test/mfcc/raw_mfcc_train.4.ark:3772198
mmws1_sx27 quick_test/mfcc/raw_mfcc_train.3.ark:3401049
mrgs0_sx276 quick_test/mfcc/raw_mfcc_train.4.ark:792797
fbch0_sx146 quick_test/mfcc/raw_mfcc_train.1.ark:254177
mjdg0_si1042 quick_test/mfcc/raw_mfcc_train.3.ark:777215
flmk0_si1035 quick_test/mfcc/raw_mfcc_train.1.ark:2689634
fpad0_sx446 quick_test/mfcc/raw_mfcc_train.1.ark:3290567
mjpm0_si1998 quick_test/mfcc/raw_mfcc_train.3.ark:1387736
fdtd0_sx391 quick_test/mfcc/raw_mfcc_train.1.ark:1089170
mpfu0_sx88 quick_test/mfcc/raw_mfcc_train.3.ark:3594472
mdlm0_si604 quick_test/mfcc/raw_mfcc_train.2.ark:2587143
fmkf0_sx366 quick_test/mfcc/raw_mfcc_train.1.ark:3040761
mchl0_sx357 quick_test/mfcc/raw_mfcc_train.2.ark:1699022
mtdb0_sx231 quick_test/mfcc/raw_mfcc_train.4.ark:2554995
mdhl0_sx179 quick_test/mfcc/raw_mfcc_train.2.ark:2299661
msms0_sx263 quick_test/mfcc/raw_mfcc_train.4.ark:2187081
mbjv0_sx77 quick_test/mfcc/raw_mfcc_train.2.ark:1218001
fjkl0_sx302 quick_test/mfcc/raw_mfcc_train.1.ark:1705597
mtju0_sx310 quick_test/mfcc/raw_mfcc_train.4.ark:2763565
mwar0_sx415 quick_test/mfcc/raw_mfcc_train.4.ark:3512581
mwac0_sx161 quick_test/mfcc/raw_mfcc_train.4.ark:3438968
mgsl0_sx444 quick_test/mfcc/raw_mfcc_train.3.ark:254786
msfh0_si586 quick_test/mfcc/raw_mfcc_train.4.ark:2005238
marw0_sx286 quick_test/mfcc/raw_mfcc_train.2.ark:1021553
mdbb1_si1006 quick_test/mfcc/raw_mfcc_train.2.ark:2025584
fklc0_sx355 quick_test/mfcc/raw_mfcc_train.1.ark:2217016
mwre0_si1057 quick_test/mfcc/raw_mfcc_train.4.ark:3645321
mtat1_sx329 quick_test/mfcc/raw_mfcc_train.4.ark:2458254
fmpg0_sx342 quick_test/mfcc/raw_mfcc_train.1.ark:3111669
mreh1_sx69 quick_test/mfcc/raw_mfcc_train.4.ark:602857
mklw0_sx221 quick_test/mfcc/raw_mfcc_train.3.ark:2283177
mtpg0_sx393 quick_test/mfcc/raw_mfcc_train.4.ark:3064600
mjee0_sx247 quick_test/mfcc/raw_mfcc_train.3.ark:924776
mewm0_sx178 quick_test/mfcc/raw_mfcc_train.2.ark:3378777
makb0_sx206 quick_test/mfcc/raw_mfcc_train.2.ark:904384
msdb0_sx287 quick_test/mfcc/raw_mfcc_train.4.ark:1844701
mdcd0_sx245 quick_test/mfcc/raw_mfcc_train.2.ark:2107277
mlns0_sx147 quick_test/mfcc/raw_mfcc_train.3.ark:2517972
mrds0_sx447 quick_test/mfcc/raw_mfcc_train.4.ark:531314
flet0_sx277 quick_test/mfcc/raw_mfcc_train.1.ark:2445411
fdmy0_sx27 quick_test/mfcc/raw_mfcc_train.1.ark:1006516
mgar0_sx312 quick_test/mfcc/raw_mfcc_train.3.ark:19771
ftbr0_sx291 quick_test/mfcc/raw_mfcc_train.2.ark:463260
flac0_si901 quick_test/mfcc/raw_mfcc_train.1.ark:2333743
mddc0_sx339 quick_test/mfcc/raw_mfcc_train.2.ark:2173659
mrav0_sx378 quick_test/mfcc/raw_mfcc_train.4.ark:342334
mtkp0_sx393 quick_test/mfcc/raw_mfcc_train.4.ark:2840886
mafm0_si939 quick_test/mfcc/raw_mfcc_train.2.ark:820469
mcxm0_sx181 quick_test/mfcc/raw_mfcc_train.2.ark:1942329
fntb0_sx33 quick_test/mfcc/raw_mfcc_train.1.ark:3183028
feme0_sx155 quick_test/mfcc/raw_mfcc_train.1.ark:1272837
mgjc0_sx435 quick_test/mfcc/raw_mfcc_train.3.ark:116774
mfxv0_si1005 quick_test/mfcc/raw_mfcc_train.2.ark:3552935
fcke0_si1741 quick_test/mfcc/raw_mfcc_train.1.ark:594650
fmjf0_sx444 quick_test/mfcc/raw_mfcc_train.1.ark:2942719
mdlr0_sx423 quick_test/mfcc/raw_mfcc_train.2.ark:2635146
mdas0_sx276 quick_test/mfcc/raw_mfcc_train.2.ark:2015490
mmgc0_sx135 quick_test/mfcc/raw_mfcc_train.3.ark:3038104
flkm0_si620 quick_test/mfcc/raw_mfcc_train.1.ark:2596352
ftmg0_si1532 quick_test/mfcc/raw_mfcc_train.2.ark:536435
mtcs0_si2265 quick_test/mfcc/raw_mfcc_train.4.ark:2506310
mejl0_sx152 quick_test/mfcc/raw_mfcc_train.2.ark:3258899
mjmm0_sx175 quick_test/mfcc/raw_mfcc_train.3.ark:1335805
flja0_sx448 quick_test/mfcc/raw_mfcc_train.1.ark:2512913
fjwb1_si748 quick_test/mfcc/raw_mfcc_train.1.ark:1923498
mkes0_sx263 quick_test/mfcc/raw_mfcc_train.3.ark:2097608
mrav0_si1008 quick_test/mfcc/raw_mfcc_train.4.ark:317064
mmwb0_sx179 quick_test/mfcc/raw_mfcc_train.3.ark:3330755
mcef0_si1765 quick_test/mfcc/raw_mfcc_train.2.ark:1609621
mpfu0_si1888 quick_test/mfcc/raw_mfcc_train.3.ark:3571720
mkdt0_sx263 quick_test/mfcc/raw_mfcc_train.3.ark:2062191
mjws0_sx423 quick_test/mfcc/raw_mfcc_train.3.ark:1740654
fbch0_si1586 quick_test/mfcc/raw_mfcc_train.1.ark:239050
mjae0_sx174 quick_test/mfcc/raw_mfcc_train.3.ark:587329
mrws0_si472 quick_test/mfcc/raw_mfcc_train.4.ark:1653671
fcaj0_si1804 quick_test/mfcc/raw_mfcc_train.1.ark:441914
msdb0_sx17 quick_test/mfcc/raw_mfcc_train.4.ark:1840293
flma0_si1243 quick_test/mfcc/raw_mfcc_train.1.ark:2628784
mdlh0_si1960 quick_test/mfcc/raw_mfcc_train.2.ark:2546564
mjde0_si463 quick_test/mfcc/raw_mfcc_train.3.ark:742196
fdml0_sx159 quick_test/mfcc/raw_mfcc_train.1.ark:958360
mdlr0_sx333 quick_test/mfcc/raw_mfcc_train.2.ark:2629601
mchl0_sx267 quick_test/mfcc/raw_mfcc_train.2.ark:1694478
fbjl0_si2182 quick_test/mfcc/raw_mfcc_train.1.ark:278959
mmpm0_sx251 quick_test/mfcc/raw_mfcc_train.3.ark:3190355
mjdc0_sx351 quick_test/mfcc/raw_mfcc_train.3.ark:724098
fkfb0_si978 quick_test/mfcc/raw_mfcc_train.1.ark:2130210
mejl0_si962 quick_test/mfcc/raw_mfcc_train.2.ark:3255018
fskl0_si899 quick_test/mfcc/raw_mfcc_train.2.ark:122686
msdb0_si1637 quick_test/mfcc/raw_mfcc_train.4.ark:1832134
mjrg0_sx352 quick_test/mfcc/raw_mfcc_train.3.ark:1503394
mcss0_sx30 quick_test/mfcc/raw_mfcc_train.2.ark:1857138
fkde0_sx241 quick_test/mfcc/raw_mfcc_train.1.ark:2072247
fgcs0_sx226 quick_test/mfcc/raw_mfcc_train.1.ark:1380422
mrre0_si1334 quick_test/mfcc/raw_mfcc_train.4.ark:1397963
mtab0_si2202 quick_test/mfcc/raw_mfcc_train.4.ark:2346190
mjws0_si1143 quick_test/mfcc/raw_mfcc_train.3.ark:1714715
fcjs0_sx77 quick_test/mfcc/raw_mfcc_train.1.ark:589083
mtjm0_si655 quick_test/mfcc/raw_mfcc_train.4.ark:2683610
falr0_sx335 quick_test/mfcc/raw_mfcc_train.1.ark:120595
mjlg1_sx202 quick_test/mfcc/raw_mfcc_train.3.ark:1218609
fdml0_si1779 quick_test/mfcc/raw_mfcc_train.1.ark:952768
mrew1_sx150 quick_test/mfcc/raw_mfcc_train.4.ark:649613
mkln0_sx338 quick_test/mfcc/raw_mfcc_train.3.ark:2160818
mtdp0_sx441 quick_test/mfcc/raw_mfcc_train.4.ark:2598903
mrmg0_sx270 quick_test/mfcc/raw_mfcc_train.4.ark:1254002
fmah1_sx339 quick_test/mfcc/raw_mfcc_train.1.ark:2805115
fclt0_sx358 quick_test/mfcc/raw_mfcc_train.1.ark:642276
mgrp0_sx147 quick_test/mfcc/raw_mfcc_train.3.ark:171324
fsjw0_sx163 quick_test/mfcc/raw_mfcc_train.2.ark:63494
mrsp0_sx79 quick_test/mfcc/raw_mfcc_train.4.ark:1506234
mree0_si1104 quick_test/mfcc/raw_mfcc_train.4.ark:537282
mprt0_sx40 quick_test/mfcc/raw_mfcc_train.4.ark:151533
fcrz0_si793 quick_test/mfcc/raw_mfcc_train.1.ark:728123
mhmr0_sx219 quick_test/mfcc/raw_mfcc_train.3.ark:434668
mrsp0_si1429 quick_test/mfcc/raw_mfcc_train.4.ark:1475492
mjkr0_si1831 quick_test/mfcc/raw_mfcc_train.3.ark:1144204
mrab1_si2108 quick_test/mfcc/raw_mfcc_train.4.ark:221038
fmmh0_sx187 quick_test/mfcc/raw_mfcc_train.1.ark:3067504
fjwb1_sx75 quick_test/mfcc/raw_mfcc_train.1.ark:1947641
