mjrh0_si1840 quick_test/data-fmllr-tri3/train/data/feats_fmllr_train.7.ark:89029
fajw0_sx3 quick_test/data-fmllr-tri3/train/data/feats_fmllr_train.1.ark:683084
freh0_si1315 quick_test/data-fmllr-tri3/train/data/feats_fmllr_train.3.ark:4008901
mjlb0_sx176 quick_test/data-fmllr-tri3/train/data/feats_fmllr_train.6.ark:14090302
feme0_si2135 quick_test/data-fmllr-tri3/train/data/feats_fmllr_train.1.ark:15042850
flet0_sx417 quick_test/data-fmllr-tri3/train/data/feats_fmllr_train.2.ark:10331208
mjai0_sx164 quick_test/data-fmllr-tri3/train/data/feats_fmllr_train.6.ark:7453971
mprb0_sx35 quick_test/data-fmllr-tri3/train/data/feats_fmllr_train.8.ark:9286926
mrsp0_sx79 quick_test/data-fmllr-tri3/train/data/feats_fmllr_train.9.ark:8711321
mkxl0_sx285 quick_test/data-fmllr-tri3/train/data/feats_fmllr_train.7.ark:10042081
mmdb0_si1358 quick_test/data-fmllr-tri3/train/data/feats_fmllr_train.7.ark:15480798
mvrw0_si1485 quick_test/data-fmllr-tri3/train/data/feats_fmllr_train.10.ark:13095495
fntb0_sx33 quick_test/data-fmllr-tri3/train/data/feats_fmllr_train.3.ark:660231
mdtb0_sx300 quick_test/data-fmllr-tri3/train/data/feats_fmllr_train.5.ark:9452239
ftmg0_si2162 quick_test/data-fmllr-tri3/train/data/feats_fmllr_train.3.ark:15409303
mtju0_si2269 quick_test/data-fmllr-tri3/train/data/feats_fmllr_train.10.ark:5370862
mjkr0_si1831 quick_test/data-fmllr-tri3/train/data/feats_fmllr_train.6.ark:13615791
mges0_sx131 quick_test/data-fmllr-tri3/train/data/feats_fmllr_train.6.ark:850610
flkm0_si1880 quick_test/data-fmllr-tri3/train/data/feats_fmllr_train.2.ark:12043492
mree0_si1734 quick_test/data-fmllr-tri3/train/data/feats_fmllr_train.8.ark:15202906
fjxp0_sx222 quick_test/data-fmllr-tri3/train/data/feats_fmllr_train.2.ark:5018250
fjrp1_sx82 quick_test/data-fmllr-tri3/train/data/feats_fmllr_train.2.ark:3207805
fcmg0_sx252 quick_test/data-fmllr-tri3/train/data/feats_fmllr_train.1.ark:7998540
mjma0_si1495 quick_test/data-fmllr-tri3/train/data/feats_fmllr_train.6.ark:15057912
fpaz0_si2223 quick_test/data-fmllr-tri3/train/data/feats_fmllr_train.3.ark:2455103
fpaz0_si1593 quick_test/data-fmllr-tri3/train/data/feats_fmllr_train.3.ark:2427075
mrml0_sx431 quick_test/data-fmllr-tri3/train/data/feats_fmllr_train.9.ark:6634528
mprt0_sx40 quick_test/data-fmllr-tri3/train/data/feats_fmllr_train.8.ark:10545016
mdps0_sx89 quick_test/data-fmllr-tri3/train/data/feats_fmllr_train.5.ark:7727047
mtju0_sx400 quick_test/data-fmllr-tri3/train/data/feats_fmllr_train.10.ark:5623023
mfrm0_si1717 quick_test/data-fmllr-tri3/train/data/feats_fmllr_train.5.ark:14818102
mgrp0_si687 quick_test/data-fmllr-tri3/train/data/feats_fmllr_train.6.ark:1984515
msds0_si2337 quick_test/data-fmllr-tri3/train/data/feats_fmllr_train.9.ark:13337052
fjsk0_si2312 quick_test/data-fmllr-tri3/train/data/feats_fmllr_train.2.ark:3379249
mdlc2_sx84 quick_test/data-fmllr-tri3/train/data/feats_fmllr_train.5.ark:3858797
mjmm0_sx175 quick_test/data-fmllr-tri3/train/data/feats_fmllr_train.6.ark:15890909
mdlr1_si669 quick_test/data-fmllr-tri3/train/data/feats_fmllr_train.5.ark:5153610
madd0_sx268 quick_test/data-fmllr-tri3/train/data/feats_fmllr_train.3.ark:17780447
mlbc0_si1869 quick_test/data-fmllr-tri3/train/data/feats_fmllr_train.7.ark:10191764
mrai0_sx432 quick_test/data-fmllr-tri3/train/data/feats_fmllr_train.8.ark:12031325
fksr0_sx366 quick_test/data-fmllr-tri3/train/data/feats_fmllr_train.2.ark:8712552
fsbk0_si2329 quick_test/data-fmllr-tri3/train/data/feats_fmllr_train.3.ark:6421299
flac0_sx451 quick_test/data-fmllr-tri3/train/data/feats_fmllr_train.2.ark:9123676
mgag0_sx331 quick_test/data-fmllr-tri3/train/data/feats_fmllr_train.5.ark:16805697
mrtc0_sx378 quick_test/data-fmllr-tri3/train/data/feats_fmllr_train.9.ark:9123538
fpaz0_sx153 quick_test/data-fmllr-tri3/train/data/feats_fmllr_train.3.ark:2596277
mkdd0_si1567 quick_test/data-fmllr-tri3/train/data/feats_fmllr_train.7.ark:5940067
fsgf0_sx297 quick_test/data-fmllr-tri3/train/data/feats_fmllr_train.3.ark:8216994
mjrh1_si514 quick_test/data-fmllr-tri3/train/data/feats_fmllr_train.7.ark:503326
fpab1_sx391 quick_test/data-fmllr-tri3/train/data/feats_fmllr_train.3.ark:1150875
mmdm0_sx51 quick_test/data-fmllr-tri3/train/data/feats_fmllr_train.7.ark:16577581
fdjh0_sx215 quick_test/data-fmllr-tri3/train/data/feats_fmllr_train.1.ark:10664861
mrem0_sx61 quick_test/data-fmllr-tri3/train/data/feats_fmllr_train.8.ark:16303661
maeb0_si2250 quick_test/data-fmllr-tri3/train/data/feats_fmllr_train.4.ark:65321
msmr0_sx145 quick_test/data-fmllr-tri3/train/data/feats_fmllr_train.9.ark:16386918
mcae0_si1447 quick_test/data-fmllr-tri3/train/data/feats_fmllr_train.4.ark:8108629
mprb0_si1205 quick_test/data-fmllr-tri3/train/data/feats_fmllr_train.8.ark:8928844
frll0_si1514 quick_test/data-fmllr-tri3/train/data/feats_fmllr_train.3.ark:4704856
mprb0_sx125 quick_test/data-fmllr-tri3/train/data/feats_fmllr_train.8.ark:9127006
mwdk0_sx446 quick_test/data-fmllr-tri3/train/data/feats_fmllr_train.10.ark:15165386
mmlm0_sx267 quick_test/data-fmllr-tri3/train/data/feats_fmllr_train.8.ark:1594432
mdhl0_si809 quick_test/data-fmllr-tri3/train/data/feats_fmllr_train.5.ark:919702
mtpr0_sx160 quick_test/data-fmllr-tri3/train/data/feats_fmllr_train.10.ark:9679544
fkde0_sx151 quick_test/data-fmllr-tri3/train/data/feats_fmllr_train.2.ark:5801858
ftbw0_sx85 quick_test/data-fmllr-tri3/train/data/feats_fmllr_train.3.ark:14932871
mjpg0_si1821 quick_test/data-fmllr-tri3/train/data/feats_fmllr_train.6.ark:16147392
mbma1_sx144 quick_test/data-fmllr-tri3/train/data/feats_fmllr_train.4.ark:6061010
mljc0_si595 quick_test/data-fmllr-tri3/train/data/feats_fmllr_train.7.ark:11057825
mrab1_sx398 quick_test/data-fmllr-tri3/train/data/feats_fmllr_train.8.ark:11665214
mcew0_sx272 quick_test/data-fmllr-tri3/train/data/feats_fmllr_train.4.ark:10734198
mdrd0_si2012 quick_test/data-fmllr-tri3/train/data/feats_fmllr_train.5.ark:7806943
mrxb0_si1585 quick_test/data-fmllr-tri3/train/data/feats_fmllr_train.9.ark:10707474
mcew0_si2072 quick_test/data-fmllr-tri3/train/data/feats_fmllr_train.4.ark:10537957
fjhk0_si1652 quick_test/data-fmllr-tri3/train/data/feats_fmllr_train.2.ark:906717
makb0_sx26 quick_test/data-fmllr-tri3/train/data/feats_fmllr_train.4.ark:1835579
msat1_sx263 quick_test/data-fmllr-tri3/train/data/feats_fmllr_train.9.ark:12353413
mmwb0_sx449 quick_test/data-fmllr-tri3/train/data/feats_fmllr_train.8.ark:3816372
fear0_si1882 quick_test/data-fmllr-tri3/train/data/feats_fmllr_train.1.ark:13784759
mpgh0_si675 quick_test/data-fmllr-tri3/train/data/feats_fmllr_train.8.ark:6881706
mmea0_si758 quick_test/data-fmllr-tri3/train/data/feats_fmllr_train.7.ark:17396818
mwch0_sx362 quick_test/data-fmllr-tri3/train/data/feats_fmllr_train.10.ark:14722902
fsjs0_si541 quick_test/data-fmllr-tri3/train/data/feats_fmllr_train.3.ark:9261858
mbcg0_sx237 quick_test/data-fmllr-tri3/train/data/feats_fmllr_train.4.ark:4292592
mjai0_si1604 quick_test/data-fmllr-tri3/train/data/feats_fmllr_train.6.ark:7268130
mmds0_si1973 quick_test/data-fmllr-tri3/train/data/feats_fmllr_train.7.ark:17077214
ftaj0_si474 quick_test/data-fmllr-tri3/train/data/feats_fmllr_train.3.ark:13946036
msem1_si810 quick_test/data-fmllr-tri3/train/data/feats_fmllr_train.9.ark:13798069
fcmm0_sx183 quick_test/data-fmllr-tri3/train/data/feats_fmllr_train.1.ark:8344010
msdb0_sx377 quick_test/data-fmllr-tri3/train/data/feats_fmllr_train.9.ark:12765711
fbas0_si1472 quick_test/data-fmllr-tri3/train/data/feats_fmllr_train.1.ark:2110402
fjxm0_sx221 quick_test/data-fmllr-tri3/train/data/feats_fmllr_train.2.ark:4581553
mrdd0_sx240 quick_test/data-fmllr-tri3/train/data/feats_fmllr_train.8.ark:14226816
mjhi0_sx248 quick_test/data-fmllr-tri3/train/data/feats_fmllr_train.6.ark:12147483
mclm0_sx376 quick_test/data-fmllr-tri3/train/data/feats_fmllr_train.4.ark:12062770
mvjh0_si926 quick_test/data-fmllr-tri3/train/data/feats_fmllr_train.10.ark:12465996
mtpp0_si878 quick_test/data-fmllr-tri3/train/data/feats_fmllr_train.10.ark:9258500
fcrz0_si793 quick_test/data-fmllr-tri3/train/data/feats_fmllr_train.1.ark:8665800
mtlb0_si504 quick_test/data-fmllr-tri3/train/data/feats_fmllr_train.10.ark:6598420
mmws1_sx351 quick_test/data-fmllr-tri3/train/data/feats_fmllr_train.8.ark:4495658
mdps0_sx269 quick_test/data-fmllr-tri3/train/data/feats_fmllr_train.5.ark:7586327
mdwm0_sx376 quick_test/data-fmllr-tri3/train/data/feats_fmllr_train.5.ark:10682037
mdlb0_si1936 quick_test/data-fmllr-tri3/train/data/feats_fmllr_train.5.ark:2415104
mjmd0_sx218 quick_test/data-fmllr-tri3/train/data/feats_fmllr_train.6.ark:15578879
mjdm0_si974 quick_test/data-fmllr-tri3/train/data/feats_fmllr_train.6.ark:9723568
mrhl0_si2145 quick_test/data-fmllr-tri3/train/data/feats_fmllr_train.9.ark:450176
mlns0_sx57 quick_test/data-fmllr-tri3/train/data/feats_fmllr_train.7.ark:12143833
fpmy0_si523 quick_test/data-fmllr-tri3/train/data/feats_fmllr_train.3.ark:3679299
fkdw0_si577 quick_test/data-fmllr-tri3/train/data/feats_fmllr_train.2.ark:6209568
mwre0_sx157 quick_test/data-fmllr-tri3/train/data/feats_fmllr_train.10.ark:16165478
mtmn0_sx254 quick_test/data-fmllr-tri3/train/data/feats_fmllr_train.10.ark:7912886
mdhs0_sx360 quick_test/data-fmllr-tri3/train/data/feats_fmllr_train.5.ark:1433920
fsag0_sx63 quick_test/data-fmllr-tri3/train/data/feats_fmllr_train.3.ark:5485421
fjxp0_sx42 quick_test/data-fmllr-tri3/train/data/feats_fmllr_train.2.ark:5162330
fcmm0_sx93 quick_test/data-fmllr-tri3/train/data/feats_fmllr_train.1.ark:8528917
mhjb0_si1017 quick_test/data-fmllr-tri3/train/data/feats_fmllr_train.6.ark:4299836
fjxp0_sx312 quick_test/data-fmllr-tri3/train/data/feats_fmllr_train.2.ark:5058277
mcal0_sx418 quick_test/data-fmllr-tri3/train/data/feats_fmllr_train.4.ark:8864367
maeb0_sx180 quick_test/data-fmllr-tri3/train/data/feats_fmllr_train.4.ark:158015
mjde0_sx310 quick_test/data-fmllr-tri3/train/data/feats_fmllr_train.6.ark:9067694
mtdp0_sx351 quick_test/data-fmllr-tri3/train/data/feats_fmllr_train.10.ark:3492766
fdjh0_si935 quick_test/data-fmllr-tri3/train/data/feats_fmllr_train.1.ark:10560487
mrcw0_si741 quick_test/data-fmllr-tri3/train/data/feats_fmllr_train.8.ark:13797904
msmr0_sx55 quick_test/data-fmllr-tri3/train/data/feats_fmllr_train.9.ark:16555505
mjdm0_si1340 quick_test/data-fmllr-tri3/train/data/feats_fmllr_train.6.ark:9616153
msds0_si1077 quick_test/data-fmllr-tri3/train/data/feats_fmllr_train.9.ark:13190916
mdks0_sx166 quick_test/data-fmllr-tri3/train/data/feats_fmllr_train.5.ark:2037341
mtmt0_sx308 quick_test/data-fmllr-tri3/train/data/feats_fmllr_train.10.ark:8311530
fetb0_si1778 quick_test/data-fmllr-tri3/train/data/feats_fmllr_train.1.ark:15457787
fgrw0_sx162 quick_test/data-fmllr-tri3/train/data/feats_fmllr_train.1.ark:17686288
ftlg0_sx33 quick_test/data-fmllr-tri3/train/data/feats_fmllr_train.3.ark:15299620
fbmj0_sx66 quick_test/data-fmllr-tri3/train/data/feats_fmllr_train.1.ark:4850745
mdlr0_sx153 quick_test/data-fmllr-tri3/train/data/feats_fmllr_train.5.ark:4787980
mbcg0_sx417 quick_test/data-fmllr-tri3/train/data/feats_fmllr_train.4.ark:4388806
mtpf0_si1865 quick_test/data-fmllr-tri3/train/data/feats_fmllr_train.10.ark:8504759
fvmh0_sx386 quick_test/data-fmllr-tri3/train/data/feats_fmllr_train.3.ark:16820836
mcef0_sx325 quick_test/data-fmllr-tri3/train/data/feats_fmllr_train.4.ark:10361368
mrtc0_sx108 quick_test/data-fmllr-tri3/train/data/feats_fmllr_train.9.ark:8931591
msat0_sx86 quick_test/data-fmllr-tri3/train/data/feats_fmllr_train.9.ark:12126395
fkfb0_si978 quick_test/data-fmllr-tri3/train/data/feats_fmllr_train.2.ark:6541465
mdcd0_sx155 quick_test/data-fmllr-tri3/train/data/feats_fmllr_train.4.ark:16042807
mmxs0_si629 quick_test/data-fmllr-tri3/train/data/feats_fmllr_train.8.ark:4656726
mrlk0_sx213 quick_test/data-fmllr-tri3/train/data/feats_fmllr_train.9.ark:4638827
mrjm1_si1928 quick_test/data-fmllr-tri3/train/data/feats_fmllr_train.9.ark:2162245
fdmy0_sx117 quick_test/data-fmllr-tri3/train/data/feats_fmllr_train.1.ark:11877326
mjmd0_si2288 quick_test/data-fmllr-tri3/train/data/feats_fmllr_train.6.ark:15471145
fmbg0_sx80 quick_test/data-fmllr-tri3/train/data/feats_fmllr_train.2.ark:15057521
fgcs0_si2116 quick_test/data-fmllr-tri3/train/data/feats_fmllr_train.1.ark:16290542
mpmb0_si2131 quick_test/data-fmllr-tri3/train/data/feats_fmllr_train.8.ark:7992278
fmjb0_si1177 quick_test/data-fmllr-tri3/train/data/feats_fmllr_train.2.ark:15526727
mprt0_si495 quick_test/data-fmllr-tri3/train/data/feats_fmllr_train.8.ark:10347602
mrbc0_si1665 quick_test/data-fmllr-tri3/train/data/feats_fmllr_train.8.ark:12855815
mtlc0_sx217 quick_test/data-fmllr-tri3/train/data/feats_fmllr_train.10.ark:7099651
fdjh0_sx125 quick_test/data-fmllr-tri3/train/data/feats_fmllr_train.1.ark:10626914
mdbb1_sx286 quick_test/data-fmllr-tri3/train/data/feats_fmllr_train.4.ark:15369013
mrav0_si2268 quick_test/data-fmllr-tri3/train/data/feats_fmllr_train.8.ark:12593253
mdpk0_si1683 quick_test/data-fmllr-tri3/train/data/feats_fmllr_train.5.ark:7125709
mdcm0_sx400 quick_test/data-fmllr-tri3/train/data/feats_fmllr_train.4.ark:16606491
fklc1_si1678 quick_test/data-fmllr-tri3/train/data/feats_fmllr_train.2.ark:7782569
mgar0_si1694 quick_test/data-fmllr-tri3/train/data/feats_fmllr_train.6.ark:59241
fetb0_sx68 quick_test/data-fmllr-tri3/train/data/feats_fmllr_train.1.ark:15752188
fgrw0_sx72 quick_test/data-fmllr-tri3/train/data/feats_fmllr_train.1.ark:17921435
fcyl0_si1927 quick_test/data-fmllr-tri3/train/data/feats_fmllr_train.1.ark:8975110
mjkr0_sx121 quick_test/data-fmllr-tri3/train/data/feats_fmllr_train.6.ark:13724645
fjrb0_sx222 quick_test/data-fmllr-tri3/train/data/feats_fmllr_train.2.ark:2543028
fjsp0_si1763 quick_test/data-fmllr-tri3/train/data/feats_fmllr_train.2.ark:3728719
mtqc0_sx361 quick_test/data-fmllr-tri3/train/data/feats_fmllr_train.10.ark:10276775
fdtd0_sx301 quick_test/data-fmllr-tri3/train/data/feats_fmllr_train.1.ark:12833975
mafm0_sx309 quick_test/data-fmllr-tri3/train/data/feats_fmllr_train.4.ark:940104
mkln0_sx338 quick_test/data-fmllr-tri3/train/data/feats_fmllr_train.7.ark:7713390
mded0_sx90 quick_test/data-fmllr-tri3/train/data/feats_fmllr_train.4.ark:17369325
mrav0_si1638 quick_test/data-fmllr-tri3/train/data/feats_fmllr_train.8.ark:12541065
ftbw0_sx355 quick_test/data-fmllr-tri3/train/data/feats_fmllr_train.3.ark:14854098
fcjs0_sx257 quick_test/data-fmllr-tri3/train/data/feats_fmllr_train.1.ark:6859168
mjkr0_si1201 quick_test/data-fmllr-tri3/train/data/feats_fmllr_train.6.ark:13552563
msrg0_si1221 quick_test/data-fmllr-tri3/train/data/feats_fmllr_train.9.ark:16984710
fpad0_sx446 quick_test/data-fmllr-tri3/train/data/feats_fmllr_train.3.ark:1943923
mwar0_sx145 quick_test/data-fmllr-tri3/train/data/feats_fmllr_train.10.ark:14327110
mfmc0_si1132 quick_test/data-fmllr-tri3/train/data/feats_fmllr_train.5.ark:14347137
fdas1_si831 quick_test/data-fmllr-tri3/train/data/feats_fmllr_train.1.ark:9446394
mprt0_sx130 quick_test/data-fmllr-tri3/train/data/feats_fmllr_train.8.ark:10419656
mprb0_si1215 quick_test/data-fmllr-tri3/train/data/feats_fmllr_train.8.ark:8965832
mrjh0_sx79 quick_test/data-fmllr-tri3/train/data/feats_fmllr_train.9.ark:1642131
msjk0_sx336 quick_test/data-fmllr-tri3/train/data/feats_fmllr_train.9.ark:15666219
meal0_sx377 quick_test/data-fmllr-tri3/train/data/feats_fmllr_train.5.ark:11042922
fdnc0_si1908 quick_test/data-fmllr-tri3/train/data/feats_fmllr_train.1.ark:12230129
fssb0_sx362 quick_test/data-fmllr-tri3/train/data/feats_fmllr_train.3.ark:13728008
mbjv0_si1247 quick_test/data-fmllr-tri3/train/data/feats_fmllr_train.4.ark:5198254
feac0_si1875 quick_test/data-fmllr-tri3/train/data/feats_fmllr_train.1.ark:13380702
mdlr0_sx63 quick_test/data-fmllr-tri3/train/data/feats_fmllr_train.5.ark:5017047
mmpm0_sx251 quick_test/data-fmllr-tri3/train/data/feats_fmllr_train.8.ark:1955770
mrwa0_si1603 quick_test/data-fmllr-tri3/train/data/feats_fmllr_train.9.ark:10002560
fpaf0_sx64 quick_test/data-fmllr-tri3/train/data/feats_fmllr_train.3.ark:2379207
fltm0_sx80 quick_test/data-fmllr-tri3/train/data/feats_fmllr_train.2.ark:14304608
ftlg0_sx393 quick_test/data-fmllr-tri3/train/data/feats_fmllr_train.3.ark:15339807
mwre0_si1687 quick_test/data-fmllr-tri3/train/data/feats_fmllr_train.10.ark:16092143
mclk0_sx310 quick_test/data-fmllr-tri3/train/data/feats_fmllr_train.4.ark:11643940
fpad0_sx176 quick_test/data-fmllr-tri3/train/data/feats_fmllr_train.3.ark:1775202
mjdg0_sx142 quick_test/data-fmllr-tri3/train/data/feats_fmllr_train.6.ark:9388338
mvjh0_sx26 quick_test/data-fmllr-tri3/train/data/feats_fmllr_train.10.ark:12595356
mejs0_si1870 quick_test/data-fmllr-tri3/train/data/feats_fmllr_train.5.ark:12666562
mgrl0_sx327 quick_test/data-fmllr-tri3/train/data/feats_fmllr_train.6.ark:1709659
mgjc0_sx435 quick_test/data-fmllr-tri3/train/data/feats_fmllr_train.6.ark:1387229
mvrw0_si855 quick_test/data-fmllr-tri3/train/data/feats_fmllr_train.10.ark:13176350
mrso0_sx309 quick_test/data-fmllr-tri3/train/data/feats_fmllr_train.9.ark:8183211
mjlb0_sx446 quick_test/data-fmllr-tri3/train/data/feats_fmllr_train.6.ark:14228303
mkah0_sx178 quick_test/data-fmllr-tri3/train/data/feats_fmllr_train.7.ark:4554161
feme0_sx335 quick_test/data-fmllr-tri3/train/data/feats_fmllr_train.1.ark:15255278
maeo0_sx156 quick_test/data-fmllr-tri3/train/data/feats_fmllr_train.4.ark:517913
mclk0_si650 quick_test/data-fmllr-tri3/train/data/feats_fmllr_train.4.ark:11457939
mmxs0_sx246 quick_test/data-fmllr-tri3/train/data/feats_fmllr_train.8.ark:4793767
mrhl0_sx165 quick_test/data-fmllr-tri3/train/data/feats_fmllr_train.9.ark:563830
megj0_si707 quick_test/data-fmllr-tri3/train/data/feats_fmllr_train.5.ark:11943757
mdpb0_sx146 quick_test/data-fmllr-tri3/train/data/feats_fmllr_train.5.ark:6857066
fdxw0_si2141 quick_test/data-fmllr-tri3/train/data/feats_fmllr_train.1.ark:13041765
fsak0_si670 quick_test/data-fmllr-tri3/train/data/feats_fmllr_train.3.ark:6057721
mrlj0_si1420 quick_test/data-fmllr-tri3/train/data/feats_fmllr_train.9.ark:3714123
mmdg0_sx160 quick_test/data-fmllr-tri3/train/data/feats_fmllr_train.7.ark:15979657
medr0_sx384 quick_test/data-fmllr-tri3/train/data/feats_fmllr_train.5.ark:11386819
mddc0_sx339 quick_test/data-fmllr-tri3/train/data/feats_fmllr_train.4.ark:16879295
mkam0_si1465 quick_test/data-fmllr-tri3/train/data/feats_fmllr_train.7.ark:5256169
fskp0_si1098 quick_test/data-fmllr-tri3/train/data/feats_fmllr_train.3.ark:10735311
fljd0_sx76 quick_test/data-fmllr-tri3/train/data/feats_fmllr_train.2.ark:11535247
mdlc0_sx135 quick_test/data-fmllr-tri3/train/data/feats_fmllr_train.5.ark:2968815
mhmg0_sx195 quick_test/data-fmllr-tri3/train/data/feats_fmllr_train.6.ark:4844029
mtml0_sx165 quick_test/data-fmllr-tri3/train/data/feats_fmllr_train.10.ark:7399842
mjrh0_sx405 quick_test/data-fmllr-tri3/train/data/feats_fmllr_train.7.ark:297137
mklr0_si1689 quick_test/data-fmllr-tri3/train/data/feats_fmllr_train.7.ark:7925179
mjrk0_si1662 quick_test/data-fmllr-tri3/train/data/feats_fmllr_train.7.ark:765888
mesj0_si2257 quick_test/data-fmllr-tri3/train/data/feats_fmllr_train.5.ark:13431316
mcss0_sx300 quick_test/data-fmllr-tri3/train/data/feats_fmllr_train.4.ark:13148513
mtat1_sx329 quick_test/data-fmllr-tri3/train/data/feats_fmllr_train.10.ark:1900377
flja0_si2338 quick_test/data-fmllr-tri3/train/data/feats_fmllr_train.2.ark:10900336
mprb0_sx305 quick_test/data-fmllr-tri3/train/data/feats_fmllr_train.8.ark:9233780
mwac0_sx71 quick_test/data-fmllr-tri3/train/data/feats_fmllr_train.10.ark:13834941
mpfu0_sx448 quick_test/data-fmllr-tri3/train/data/feats_fmllr_train.8.ark:6705465
mrgm0_si532 quick_test/data-fmllr-tri3/train/data/feats_fmllr_train.8.ark:17597196
mdps0_si1979 quick_test/data-fmllr-tri3/train/data/feats_fmllr_train.5.ark:7443846
fljg0_si1611 quick_test/data-fmllr-tri3/train/data/feats_fmllr_train.2.ark:11583595
mdhs0_sx270 quick_test/data-fmllr-tri3/train/data/feats_fmllr_train.5.ark:1398373
mbth0_sx32 quick_test/data-fmllr-tri3/train/data/feats_fmllr_train.4.ark:7612197
mmea0_si2018 quick_test/data-fmllr-tri3/train/data/feats_fmllr_train.7.ark:17380951
mpgr1_sx149 quick_test/data-fmllr-tri3/train/data/feats_fmllr_train.8.ark:7646675
fsbk0_sx169 quick_test/data-fmllr-tri3/train/data/feats_fmllr_train.3.ark:6455886
fjkl0_sx302 quick_test/data-fmllr-tri3/train/data/feats_fmllr_train.2.ark:1483203
mtbc0_si543 quick_test/data-fmllr-tri3/train/data/feats_fmllr_train.10.ark:2137473
mdlh0_sx70 quick_test/data-fmllr-tri3/train/data/feats_fmllr_train.5.ark:4293093
fjrb0_sx132 quick_test/data-fmllr-tri3/train/data/feats_fmllr_train.2.ark:2503641
mprt0_si580 quick_test/data-fmllr-tri3/train/data/feats_fmllr_train.8.ark:10375149
mesj0_si2039 quick_test/data-fmllr-tri3/train/data/feats_fmllr_train.5.ark:13357208
mklw0_sx41 quick_test/data-fmllr-tri3/train/data/feats_fmllr_train.7.ark:9338154
mdss1_sx247 quick_test/data-fmllr-tri3/train/data/feats_fmllr_train.5.ark:9074235
mtju0_sx310 quick_test/data-fmllr-tri3/train/data/feats_fmllr_train.10.ark:5538490
mrds0_sx87 quick_test/data-fmllr-tri3/train/data/feats_fmllr_train.8.ark:15095490
mgaf0_si652 quick_test/data-fmllr-tri3/train/data/feats_fmllr_train.5.ark:16359640
makr0_sx362 quick_test/data-fmllr-tri3/train/data/feats_fmllr_train.4.ark:2124277
fsdj0_sx215 quick_test/data-fmllr-tri3/train/data/feats_fmllr_train.3.ark:7755444
msah1_sx239 quick_test/data-fmllr-tri3/train/data/feats_fmllr_train.9.ark:11252281
mclk0_sx130 quick_test/data-fmllr-tri3/train/data/feats_fmllr_train.4.ark:11549166
mcdd0_si1513 quick_test/data-fmllr-tri3/train/data/feats_fmllr_train.4.ark:9348798
mrwa0_si973 quick_test/data-fmllr-tri3/train/data/feats_fmllr_train.9.ark:10096055
mmcc0_si708 quick_test/data-fmllr-tri3/train/data/feats_fmllr_train.7.ark:15207196
mprt0_sx400 quick_test/data-fmllr-tri3/train/data/feats_fmllr_train.8.ark:10590963
mbbr0_si2315 quick_test/data-fmllr-tri3/train/data/feats_fmllr_train.4.ark:3863842
mlel0_si616 quick_test/data-fmllr-tri3/train/data/feats_fmllr_train.7.ark:10587368
fdfb0_sx58 quick_test/data-fmllr-tri3/train/data/feats_fmllr_train.1.ark:10422164
flag0_si834 quick_test/data-fmllr-tri3/train/data/feats_fmllr_train.2.ark:9335145
mhjb0_sx387 quick_test/data-fmllr-tri3/train/data/feats_fmllr_train.6.ark:4566106
mdwd0_si1260 quick_test/data-fmllr-tri3/train/data/feats_fmllr_train.5.ark:9577441
fmkc0_sx172 quick_test/data-fmllr-tri3/train/data/feats_fmllr_train.2.ark:16873059
megj0_sx257 quick_test/data-fmllr-tri3/train/data/feats_fmllr_train.5.ark:12087171
mjxa0_sx67 quick_test/data-fmllr-tri3/train/data/feats_fmllr_train.7.ark:3561298
mmxs0_sx336 quick_test/data-fmllr-tri3/train/data/feats_fmllr_train.8.ark:4831234
mpgh0_sx294 quick_test/data-fmllr-tri3/train/data/feats_fmllr_train.8.ark:7086480
mtat0_sx30 quick_test/data-fmllr-tri3/train/data/feats_fmllr_train.10.ark:1514559
mjls0_si1726 quick_test/data-fmllr-tri3/train/data/feats_fmllr_train.6.ark:14711003
mlns0_si2037 quick_test/data-fmllr-tri3/train/data/feats_fmllr_train.7.ark:11867992
mdmt0_sx122 quick_test/data-fmllr-tri3/train/data/feats_fmllr_train.5.ark:6036312
mmab1_sx234 quick_test/data-fmllr-tri3/train/data/feats_fmllr_train.7.ark:13188244
mdma0_si1238 quick_test/data-fmllr-tri3/train/data/feats_fmllr_train.5.ark:5469772
mjjm0_sx377 quick_test/data-fmllr-tri3/train/data/feats_fmllr_train.6.ark:13504375
mzmb0_sx176 quick_test/data-fmllr-tri3/train/data/feats_fmllr_train.10.ark:17744423
fbmj0_sx426 quick_test/data-fmllr-tri3/train/data/feats_fmllr_train.1.ark:4799839
mcdr0_sx74 quick_test/data-fmllr-tri3/train/data/feats_fmllr_train.4.ark:10082004
fkaa0_sx398 quick_test/data-fmllr-tri3/train/data/feats_fmllr_train.2.ark:5559347
mjdg0_sx412 quick_test/data-fmllr-tri3/train/data/feats_fmllr_train.6.ark:9528579
mkls1_sx375 quick_test/data-fmllr-tri3/train/data/feats_fmllr_train.7.ark:8939376
mrab0_sx144 quick_test/data-fmllr-tri3/train/data/feats_fmllr_train.8.ark:11074490
fsma0_sx181 quick_test/data-fmllr-tri3/train/data/feats_fmllr_train.3.ark:11632948
mkam0_si1316 quick_test/data-fmllr-tri3/train/data/feats_fmllr_train.7.ark:5210221
mrcw0_si2001 quick_test/data-fmllr-tri3/train/data/feats_fmllr_train.8.ark:13748917
mkdt0_sx353 quick_test/data-fmllr-tri3/train/data/feats_fmllr_train.7.ark:6578499
mbth0_si505 quick_test/data-fmllr-tri3/train/data/feats_fmllr_train.4.ark:7375903
mmrp0_sx234 quick_test/data-fmllr-tri3/train/data/feats_fmllr_train.8.ark:2323026
mtkp0_si2283 quick_test/data-fmllr-tri3/train/data/feats_fmllr_train.10.ark:6139936
mjlg1_si1642 quick_test/data-fmllr-tri3/train/data/feats_fmllr_train.6.ark:14346145
msas0_sx386 quick_test/data-fmllr-tri3/train/data/feats_fmllr_train.9.ark:11814818
fsdc0_si1942 quick_test/data-fmllr-tri3/train/data/feats_fmllr_train.3.ark:7291145
mtkd0_si1817 quick_test/data-fmllr-tri3/train/data/feats_fmllr_train.10.ark:5712199
mtdb0_si771 quick_test/data-fmllr-tri3/train/data/feats_fmllr_train.10.ark:2927027
fskl0_si1529 quick_test/data-fmllr-tri3/train/data/feats_fmllr_train.3.ark:10349654
mmds0_si713 quick_test/data-fmllr-tri3/train/data/feats_fmllr_train.7.ark:17098841
mvrw0_sx45 quick_test/data-fmllr-tri3/train/data/feats_fmllr_train.10.ark:13368804
mvlo0_sx247 quick_test/data-fmllr-tri3/train/data/feats_fmllr_train.10.ark:12892987
mmar0_si1336 quick_test/data-fmllr-tri3/train/data/feats_fmllr_train.7.ark:14181587
mdhl0_sx89 quick_test/data-fmllr-tri3/train/data/feats_fmllr_train.5.ark:1165276
mjkr0_sx301 quick_test/data-fmllr-tri3/train/data/feats_fmllr_train.6.ark:13819899
mmxs0_sx66 quick_test/data-fmllr-tri3/train/data/feats_fmllr_train.8.ark:4948407
fjlg0_si1506 quick_test/data-fmllr-tri3/train/data/feats_fmllr_train.2.ark:1614004
mtxs0_si2320 quick_test/data-fmllr-tri3/train/data/feats_fmllr_train.10.ark:11986259
mdlc0_si1395 quick_test/data-fmllr-tri3/train/data/feats_fmllr_train.5.ark:2782173
mtrc0_sx363 quick_test/data-fmllr-tri3/train/data/feats_fmllr_train.10.ark:10734298
mhbs0_sx225 quick_test/data-fmllr-tri3/train/data/feats_fmllr_train.6.ark:3768311
mgxp0_sx7 quick_test/data-fmllr-tri3/train/data/feats_fmllr_train.6.ark:3475828
madd0_si538 quick_test/data-fmllr-tri3/train/data/feats_fmllr_train.3.ark:17676873
mtdp0_si1274 quick_test/data-fmllr-tri3/train/data/feats_fmllr_train.10.ark:3218869
mrso0_sx39 quick_test/data-fmllr-tri3/train/data/feats_fmllr_train.9.ark:8245637
fljd0_sx256 quick_test/data-fmllr-tri3/train/data/feats_fmllr_train.2.ark:11412287
fpjf0_sx326 quick_test/data-fmllr-tri3/train/data/feats_fmllr_train.3.ark:3058948
mdbb1_si1636 quick_test/data-fmllr-tri3/train/data/feats_fmllr_train.4.ark:15179278
mmsm0_sx26 quick_test/data-fmllr-tri3/train/data/feats_fmllr_train.8.ark:2835429
mrxb0_sx415 quick_test/data-fmllr-tri3/train/data/feats_fmllr_train.9.ark:11009717
mvlo0_sx427 quick_test/data-fmllr-tri3/train/data/feats_fmllr_train.10.ark:12997521
mrhl0_si1515 quick_test/data-fmllr-tri3/train/data/feats_fmllr_train.9.ark:433028
mkrg0_sx231 quick_test/data-fmllr-tri3/train/data/feats_fmllr_train.7.ark:9633011
mkxl0_sx105 quick_test/data-fmllr-tri3/train/data/feats_fmllr_train.7.ark:9931441
majp0_sx264 quick_test/data-fmllr-tri3/train/data/feats_fmllr_train.4.ark:1287655
mrfl0_sx256 quick_test/data-fmllr-tri3/train/data/feats_fmllr_train.8.ark:17293513
fltm0_sx350 quick_test/data-fmllr-tri3/train/data/feats_fmllr_train.2.ark:14164395
mrds0_si1797 quick_test/data-fmllr-tri3/train/data/feats_fmllr_train.8.ark:14817409
mlbc0_sx429 quick_test/data-fmllr-tri3/train/data/feats_fmllr_train.7.ark:10408219
mkdb0_sx422 quick_test/data-fmllr-tri3/train/data/feats_fmllr_train.7.ark:5836653
msdb0_si1637 quick_test/data-fmllr-tri3/train/data/feats_fmllr_train.9.ark:12586189
mmgg0_sx449 quick_test/data-fmllr-tri3/train/data/feats_fmllr_train.8.ark:633835
mdcd0_si2045 quick_test/data-fmllr-tri3/train/data/feats_fmllr_train.4.ark:15932673
msdh0_sx170 quick_test/data-fmllr-tri3/train/data/feats_fmllr_train.9.ark:12916221
mrwa0_si2233 quick_test/data-fmllr-tri3/train/data/feats_fmllr_train.9.ark:10040668
feac0_sx75 quick_test/data-fmllr-tri3/train/data/feats_fmllr_train.1.ark:13703743
mdwm0_sx286 quick_test/data-fmllr-tri3/train/data/feats_fmllr_train.5.ark:10623930
mmaa0_sx395 quick_test/data-fmllr-tri3/train/data/feats_fmllr_train.7.ark:12953547
mjjj0_si1163 quick_test/data-fmllr-tri3/train/data/feats_fmllr_train.6.ark:12724129
mtkd0_sx17 quick_test/data-fmllr-tri3/train/data/feats_fmllr_train.10.ark:5902039
mrjb1_sx120 quick_test/data-fmllr-tri3/train/data/feats_fmllr_train.9.ark:999088
falk0_si658 quick_test/data-fmllr-tri3/train/data/feats_fmllr_train.1.ark:905779
mjwt0_si1291 quick_test/data-fmllr-tri3/train/data/feats_fmllr_train.7.ark:2817532
fssb0_si1712 quick_test/data-fmllr-tri3/train/data/feats_fmllr_train.3.ark:13551099
mrmg0_sx90 quick_test/data-fmllr-tri3/train/data/feats_fmllr_train.9.ark:5856839
fcdr1_sx286 quick_test/data-fmllr-tri3/train/data/feats_fmllr_train.1.ark:5955050
mkdt0_si893 quick_test/data-fmllr-tri3/train/data/feats_fmllr_train.7.ark:6433458
fblv0_si2318 quick_test/data-fmllr-tri3/train/data/feats_fmllr_train.1.ark:3799778
mdef0_si1123 quick_test/data-fmllr-tri3/train/data/feats_fmllr_train.5.ark:13
mapv0_si1293 quick_test/data-fmllr-tri3/train/data/feats_fmllr_train.4.ark:2243558
ftlg0_sx123 quick_test/data-fmllr-tri3/train/data/feats_fmllr_train.3.ark:15164980
makb0_sx206 quick_test/data-fmllr-tri3/train/data/feats_fmllr_train.4.ark:1790433
mrjm1_sx308 quick_test/data-fmllr-tri3/train/data/feats_fmllr_train.9.ark:2338993
fmmh0_sx97 quick_test/data-fmllr-tri3/train/data/feats_fmllr_train.2.ark:17889436
mjmm0_sx265 quick_test/data-fmllr-tri3/train/data/feats_fmllr_train.6.ark:15956216
fjrp1_sx352 quick_test/data-fmllr-tri3/train/data/feats_fmllr_train.2.ark:3065192
mrdd0_si1050 quick_test/data-fmllr-tri3/train/data/feats_fmllr_train.8.ark:14046066
fjrb0_sx402 quick_test/data-fmllr-tri3/train/data/feats_fmllr_train.2.ark:2655562
mnet0_sx186 quick_test/data-fmllr-tri3/train/data/feats_fmllr_train.8.ark:5119717
fjlr0_si1861 quick_test/data-fmllr-tri3/train/data/feats_fmllr_train.2.ark:2063850
fjrp1_si2062 quick_test/data-fmllr-tri3/train/data/feats_fmllr_train.2.ark:2870684
msvs0_sx398 quick_test/data-fmllr-tri3/train/data/feats_fmllr_train.10.ark:414282
fdas1_sx381 quick_test/data-fmllr-tri3/train/data/feats_fmllr_train.1.ark:9692768
fjlr0_sx421 quick_test/data-fmllr-tri3/train/data/feats_fmllr_train.2.ark:2283185
mljh0_sx334 quick_test/data-fmllr-tri3/train/data/feats_fmllr_train.7.ark:11677003
mmdm1_sx243 quick_test/data-fmllr-tri3/train/data/feats_fmllr_train.7.ark:16800758
mbom0_sx204 quick_test/data-fmllr-tri3/train/data/feats_fmllr_train.4.ark:6846752
mtpr0_si1600 quick_test/data-fmllr-tri3/train/data/feats_fmllr_train.10.ark:9517702
mrab1_sx38 quick_test/data-fmllr-tri3/train/data/feats_fmllr_train.8.ark:11616707
mtlb0_si1764 quick_test/data-fmllr-tri3/train/data/feats_fmllr_train.10.ark:6569273
fcag0_sx423 quick_test/data-fmllr-tri3/train/data/feats_fmllr_train.1.ark:5146457
fmem0_si2007 quick_test/data-fmllr-tri3/train/data/feats_fmllr_train.2.ark:15152617
mkdb0_si872 quick_test/data-fmllr-tri3/train/data/feats_fmllr_train.7.ark:5640865
fcjs0_si1607 quick_test/data-fmllr-tri3/train/data/feats_fmllr_train.1.ark:6700339
flac0_si1339 quick_test/data-fmllr-tri3/train/data/feats_fmllr_train.2.ark:8862233
mrws0_si472 quick_test/data-fmllr-tri3/train/data/feats_fmllr_train.9.ark:10467792
fdfb0_sx148 quick_test/data-fmllr-tri3/train/data/feats_fmllr_train.1.ark:10261577
mcss0_sx30 quick_test/data-fmllr-tri3/train/data/feats_fmllr_train.4.ark:13116486
mjpm0_sx198 quick_test/data-fmllr-tri3/train/data/feats_fmllr_train.6.ark:16688516
fsdj0_sx35 quick_test/data-fmllr-tri3/train/data/feats_fmllr_train.3.ark:7837737
mcdc0_sx32 quick_test/data-fmllr-tri3/train/data/feats_fmllr_train.4.ark:9256103
mjlg1_sx292 quick_test/data-fmllr-tri3/train/data/feats_fmllr_train.6.ark:14561320
mjlg1_sx382 quick_test/data-fmllr-tri3/train/data/feats_fmllr_train.6.ark:14611267
maeo0_sx426 quick_test/data-fmllr-tri3/train/data/feats_fmllr_train.4.ark:653834
mbgt0_si1841 quick_test/data-fmllr-tri3/train/data/feats_fmllr_train.4.ark:4811345
flag0_si2094 quick_test/data-fmllr-tri3/train/data/feats_fmllr_train.2.ark:9301838
fmju0_sx399 quick_test/data-fmllr-tri3/train/data/feats_fmllr_train.2.ark:16692948
mdas0_si636 quick_test/data-fmllr-tri3/train/data/feats_fmllr_train.4.ark:14871411
fleh0_si1051 quick_test/data-fmllr-tri3/train/data/feats_fmllr_train.2.ark:9664267
mcae0_sx277 quick_test/data-fmllr-tri3/train/data/feats_fmllr_train.4.ark:8387938
mjrh1_sx154 quick_test/data-fmllr-tri3/train/data/feats_fmllr_train.7.ark:547833
fmkf0_sx6 quick_test/data-fmllr-tri3/train/data/feats_fmllr_train.2.ark:17445195
mtmn0_si1064 quick_test/data-fmllr-tri3/train/data/feats_fmllr_train.10.ark:7653097
fmjb0_si1807 quick_test/data-fmllr-tri3/train/data/feats_fmllr_train.2.ark:15598755
mwac0_sx161 quick_test/data-fmllr-tri3/train/data/feats_fmllr_train.10.ark:13575474
mrjh0_si1519 quick_test/data-fmllr-tri3/train/data/feats_fmllr_train.9.ark:1237303
fsma0_si2251 quick_test/data-fmllr-tri3/train/data/feats_fmllr_train.3.ark:11510014
mtat1_si1409 quick_test/data-fmllr-tri3/train/data/feats_fmllr_train.10.ark:1622481
mwgr0_sx166 quick_test/data-fmllr-tri3/train/data/feats_fmllr_train.10.ark:15795340
mbef0_sx21 quick_test/data-fmllr-tri3/train/data/feats_fmllr_train.4.ark:4694275
mram0_sx375 quick_test/data-fmllr-tri3/train/data/feats_fmllr_train.8.ark:12461969
fpaf0_si2314 quick_test/data-fmllr-tri3/train/data/feats_fmllr_train.3.ark:2162273
mwch0_sx92 quick_test/data-fmllr-tri3/train/data/feats_fmllr_train.10.ark:14825035
mgag0_si691 quick_test/data-fmllr-tri3/train/data/feats_fmllr_train.5.ark:16663216
flmk0_sx135 quick_test/data-fmllr-tri3/train/data/feats_fmllr_train.2.ark:13358145
mrlk0_sx303 quick_test/data-fmllr-tri3/train/data/feats_fmllr_train.9.ark:4672454
mmws0_sx168 quick_test/data-fmllr-tri3/train/data/feats_fmllr_train.8.ark:4074747
mjda0_si1661 quick_test/data-fmllr-tri3/train/data/feats_fmllr_train.6.ark:8058992
mvlo0_si1777 quick_test/data-fmllr-tri3/train/data/feats_fmllr_train.10.ark:12749866
mfer0_sx52 quick_test/data-fmllr-tri3/train/data/feats_fmllr_train.5.ark:14310149
mjfr0_sx75 quick_test/data-fmllr-tri3/train/data/feats_fmllr_train.6.ark:11902867
mtpf0_sx425 quick_test/data-fmllr-tri3/train/data/feats_fmllr_train.10.ark:8751774
mdwd0_sx270 quick_test/data-fmllr-tri3/train/data/feats_fmllr_train.5.ark:9770350
mddc0_si789 quick_test/data-fmllr-tri3/train/data/feats_fmllr_train.4.ark:16737934
fapb0_sx163 quick_test/data-fmllr-tri3/train/data/feats_fmllr_train.1.ark:1767839
mesj0_sx187 quick_test/data-fmllr-tri3/train/data/feats_fmllr_train.5.ark:13525130
mstf0_sx226 quick_test/data-fmllr-tri3/train/data/feats_fmllr_train.9.ark:17948931
mdas0_sx186 quick_test/data-fmllr-tri3/train/data/feats_fmllr_train.4.ark:14936558
mfxv0_si1342 quick_test/data-fmllr-tri3/train/data/feats_fmllr_train.5.ark:15932835
fvkb0_sx439 quick_test/data-fmllr-tri3/train/data/feats_fmllr_train.3.ark:16395953
mdlc0_sx315 quick_test/data-fmllr-tri3/train/data/feats_fmllr_train.5.ark:3057669
mchl0_sx177 quick_test/data-fmllr-tri3/train/data/feats_fmllr_train.4.ark:11151989
mrlr0_si566 quick_test/data-fmllr-tri3/train/data/feats_fmllr_train.9.ark:4895630
mgak0_sx46 quick_test/data-fmllr-tri3/train/data/feats_fmllr_train.5.ark:17318288
fexm0_sx366 quick_test/data-fmllr-tri3/train/data/feats_fmllr_train.1.ark:16135579
mjeb1_sx207 quick_test/data-fmllr-tri3/train/data/feats_fmllr_train.6.ark:10667256
mrlj1_sx321 quick_test/data-fmllr-tri3/train/data/feats_fmllr_train.9.ark:4263917
mgsl0_sx174 quick_test/data-fmllr-tri3/train/data/feats_fmllr_train.6.ark:2879853
fexm0_sx291 quick_test/data-fmllr-tri3/train/data/feats_fmllr_train.1.ark:16080032
mvrw0_sx405 quick_test/data-fmllr-tri3/train/data/feats_fmllr_train.10.ark:13333738
mjai0_si710 quick_test/data-fmllr-tri3/train/data/feats_fmllr_train.6.ark:7382104
mhmg0_si735 quick_test/data-fmllr-tri3/train/data/feats_fmllr_train.6.ark:4692269
fleh0_sx331 quick_test/data-fmllr-tri3/train/data/feats_fmllr_train.2.ark:9903604
mdwh0_si665 quick_test/data-fmllr-tri3/train/data/feats_fmllr_train.5.ark:10049073
mtpf0_sx335 quick_test/data-fmllr-tri3/train/data/feats_fmllr_train.10.ark:8690307
fmkf0_si1018 quick_test/data-fmllr-tri3/train/data/feats_fmllr_train.2.ark:17130474
fljd0_sx436 quick_test/data-fmllr-tri3/train/data/feats_fmllr_train.2.ark:11506901
ftbw0_si715 quick_test/data-fmllr-tri3/train/data/feats_fmllr_train.3.ark:14668417
mrxb0_si2215 quick_test/data-fmllr-tri3/train/data/feats_fmllr_train.9.ark:10743182
mtqc0_si2071 quick_test/data-fmllr-tri3/train/data/feats_fmllr_train.10.ark:10067867
mdcm0_si1480 quick_test/data-fmllr-tri3/train/data/feats_fmllr_train.4.ark:16264542
mjeb0_si1916 quick_test/data-fmllr-tri3/train/data/feats_fmllr_train.6.ark:10095278
majp0_sx354 quick_test/data-fmllr-tri3/train/data/feats_fmllr_train.4.ark:1339682
mabc0_si781 quick_test/data-fmllr-tri3/train/data/feats_fmllr_train.3.ark:16920439
mjlg1_si1012 quick_test/data-fmllr-tri3/train/data/feats_fmllr_train.6.ark:14302757
mwsb0_si1626 quick_test/data-fmllr-tri3/train/data/feats_fmllr_train.10.ark:16797669
mklr0_si1059 quick_test/data-fmllr-tri3/train/data/feats_fmllr_train.7.ark:7862271
mclm0_si2086 quick_test/data-fmllr-tri3/train/data/feats_fmllr_train.4.ark:11816369
mwsh0_sx76 quick_test/data-fmllr-tri3/train/data/feats_fmllr_train.10.ark:17537273
mrab0_sx54 quick_test/data-fmllr-tri3/train/data/feats_fmllr_train.8.ark:11271397
mrpc1_sx222 quick_test/data-fmllr-tri3/train/data/feats_fmllr_train.9.ark:7239550
mtdp0_si2151 quick_test/data-fmllr-tri3/train/data/feats_fmllr_train.10.ark:3324845
mppc0_si782 quick_test/data-fmllr-tri3/train/data/feats_fmllr_train.8.ark:8648522
mrre0_sx434 quick_test/data-fmllr-tri3/train/data/feats_fmllr_train.9.ark:7775820
fpaf0_si1684 quick_test/data-fmllr-tri3/train/data/feats_fmllr_train.3.ark:2116645
mjdc0_sx171 quick_test/data-fmllr-tri3/train/data/feats_fmllr_train.6.ark:8531104
mejl0_si1592 quick_test/data-fmllr-tri3/train/data/feats_fmllr_train.5.ark:12259917
mrld0_si2224 quick_test/data-fmllr-tri3/train/data/feats_fmllr_train.9.ark:3436014
mklw0_sx221 quick_test/data-fmllr-tri3/train/data/feats_fmllr_train.7.ark:9167834
fskc0_si1416 quick_test/data-fmllr-tri3/train/data/feats_fmllr_train.3.ark:9998077
fmjb0_sx97 quick_test/data-fmllr-tri3/train/data/feats_fmllr_train.2.ark:15881314
mwad0_si1062 quick_test/data-fmllr-tri3/train/data/feats_fmllr_train.10.ark:13878809
mcxm0_sx361 quick_test/data-fmllr-tri3/train/data/feats_fmllr_train.4.ark:14229618
mbma0_sx412 quick_test/data-fmllr-tri3/train/data/feats_fmllr_train.4.ark:5824234
mbef0_sx291 quick_test/data-fmllr-tri3/train/data/feats_fmllr_train.4.ark:4720222
marw0_si1276 quick_test/data-fmllr-tri3/train/data/feats_fmllr_train.4.ark:2970872
fjxm0_si1211 quick_test/data-fmllr-tri3/train/data/feats_fmllr_train.2.ark:4400324
fgcs0_sx406 quick_test/data-fmllr-tri3/train/data/feats_fmllr_train.1.ark:16522197
msem1_sx90 quick_test/data-fmllr-tri3/train/data/feats_fmllr_train.9.ark:14118523
mcdc0_sx302 quick_test/data-fmllr-tri3/train/data/feats_fmllr_train.4.ark:9213517
fcag0_sx243 quick_test/data-fmllr-tri3/train/data/feats_fmllr_train.1.ark:5040003
mrlj1_sx231 quick_test/data-fmllr-tri3/train/data/feats_fmllr_train.9.ark:4245810
fetb0_sx338 quick_test/data-fmllr-tri3/train/data/feats_fmllr_train.1.ark:15646855
msrr0_sx141 quick_test/data-fmllr-tri3/train/data/feats_fmllr_train.9.ark:17522129
mrmg0_sx270 quick_test/data-fmllr-tri3/train/data/feats_fmllr_train.9.ark:5704919
frll0_sx164 quick_test/data-fmllr-tri3/train/data/feats_fmllr_train.3.ark:4874857
mjdc0_sx81 quick_test/data-fmllr-tri3/train/data/feats_fmllr_train.6.ark:8696651
msfh0_sx226 quick_test/data-fmllr-tri3/train/data/feats_fmllr_train.9.ark:14763358
fsjk1_sx395 quick_test/data-fmllr-tri3/train/data/feats_fmllr_train.3.ark:9124015
mppc0_sx242 quick_test/data-fmllr-tri3/train/data/feats_fmllr_train.8.ark:8736576
mdhl0_si2069 quick_test/data-fmllr-tri3/train/data/feats_fmllr_train.5.ark:877915
mjrk0_si880 quick_test/data-fmllr-tri3/train/data/feats_fmllr_train.7.ark:818903
fdmy0_si1197 quick_test/data-fmllr-tri3/train/data/feats_fmllr_train.1.ark:11607485
mcae0_si2077 quick_test/data-fmllr-tri3/train/data/feats_fmllr_train.4.ark:8199057
fsdc0_sx52 quick_test/data-fmllr-tri3/train/data/feats_fmllr_train.3.ark:7531627
mgak0_si2296 quick_test/data-fmllr-tri3/train/data/feats_fmllr_train.5.ark:17042154
mjrk0_sx430 quick_test/data-fmllr-tri3/train/data/feats_fmllr_train.7.ark:1041411
msfh0_sx316 quick_test/data-fmllr-tri3/train/data/feats_fmllr_train.9.ark:14820025
fmmh0_si1537 quick_test/data-fmllr-tri3/train/data/feats_fmllr_train.2.ark:17535969
mjfr0_sx345 quick_test/data-fmllr-tri3/train/data/feats_fmllr_train.6.ark:11772894
mhmg0_sx15 quick_test/data-fmllr-tri3/train/data/feats_fmllr_train.6.ark:4802082
mdma0_sx260 quick_test/data-fmllr-tri3/train/data/feats_fmllr_train.5.ark:5685722
fbcg1_si982 quick_test/data-fmllr-tri3/train/data/feats_fmllr_train.1.ark:2526007
mrdm0_sx245 quick_test/data-fmllr-tri3/train/data/feats_fmllr_train.8.ark:14613913
mdac0_sx271 quick_test/data-fmllr-tri3/train/data/feats_fmllr_train.4.ark:14589328
fbmj0_sx336 quick_test/data-fmllr-tri3/train/data/feats_fmllr_train.1.ark:4723812
mtjg0_sx260 quick_test/data-fmllr-tri3/train/data/feats_fmllr_train.10.ark:4270132
mrgs0_si1356 quick_test/data-fmllr-tri3/train/data/feats_fmllr_train.9.ark:13
mmws1_sx261 quick_test/data-fmllr-tri3/train/data/feats_fmllr_train.8.ark:4438965
mter0_sx17 quick_test/data-fmllr-tri3/train/data/feats_fmllr_train.10.ark:3908155
mrew1_sx330 quick_test/data-fmllr-tri3/train/data/feats_fmllr_train.8.ark:16549745
mddc0_sx429 quick_test/data-fmllr-tri3/train/data/feats_fmllr_train.4.ark:16914362
frjb0_sx347 quick_test/data-fmllr-tri3/train/data/feats_fmllr_train.3.ark:4535975
fcdr1_si556 quick_test/data-fmllr-tri3/train/data/feats_fmllr_train.1.ark:5744543
milb0_sx273 quick_test/data-fmllr-tri3/train/data/feats_fmllr_train.6.ark:6330789
mjeb1_sx387 quick_test/data-fmllr-tri3/train/data/feats_fmllr_train.6.ark:10777256
fpls0_sx330 quick_test/data-fmllr-tri3/train/data/feats_fmllr_train.3.ark:3466070
msmc0_si647 quick_test/data-fmllr-tri3/train/data/feats_fmllr_train.9.ark:15933234
mrml0_si2051 quick_test/data-fmllr-tri3/train/data/feats_fmllr_train.9.ark:6342393
fklc1_sx328 quick_test/data-fmllr-tri3/train/data/feats_fmllr_train.2.ark:7928598
mgar0_si1842 quick_test/data-fmllr-tri3/train/data/feats_fmllr_train.6.ark:93829
fdxw0_si1511 quick_test/data-fmllr-tri3/train/data/feats_fmllr_train.1.ark:13009417
msdh0_sx350 quick_test/data-fmllr-tri3/train/data/feats_fmllr_train.9.ark:13033875
fjhk0_sx392 quick_test/data-fmllr-tri3/train/data/feats_fmllr_train.2.ark:1201919
feac0_sx345 quick_test/data-fmllr-tri3/train/data/feats_fmllr_train.1.ark:13598250
mapv0_si1923 quick_test/data-fmllr-tri3/train/data/feats_fmllr_train.4.ark:2321186
mctm0_sx360 quick_test/data-fmllr-tri3/train/data/feats_fmllr_train.4.ark:13857721
fcjs0_sx437 quick_test/data-fmllr-tri3/train/data/feats_fmllr_train.1.ark:6950742
mgrl0_si2127 quick_test/data-fmllr-tri3/train/data/feats_fmllr_train.6.ark:1544751
mtmt0_si488 quick_test/data-fmllr-tri3/train/data/feats_fmllr_train.10.ark:8153369
mesg0_si1962 quick_test/data-fmllr-tri3/train/data/feats_fmllr_train.5.ark:13020539
mrfl0_sx166 quick_test/data-fmllr-tri3/train/data/feats_fmllr_train.8.ark:17226126
flet0_si507 quick_test/data-fmllr-tri3/train/data/feats_fmllr_train.2.ark:10154460
mcdd0_sx73 quick_test/data-fmllr-tri3/train/data/feats_fmllr_train.4.ark:9647227
mrfl0_si1156 quick_test/data-fmllr-tri3/train/data/feats_fmllr_train.8.ark:17052284
fcmm0_sx363 quick_test/data-fmllr-tri3/train/data/feats_fmllr_train.1.ark:8416384
msfv0_si1262 quick_test/data-fmllr-tri3/train/data/feats_fmllr_train.9.ark:14979466
fnkl0_si1522 quick_test/data-fmllr-tri3/train/data/feats_fmllr_train.3.ark:13
mmpm0_sx161 quick_test/data-fmllr-tri3/train/data/feats_fmllr_train.8.ark:1889983
mhrm0_sx418 quick_test/data-fmllr-tri3/train/data/feats_fmllr_train.6.ark:5609131
fclt0_sx448 quick_test/data-fmllr-tri3/train/data/feats_fmllr_train.1.ark:7684776
mppc0_sx332 quick_test/data-fmllr-tri3/train/data/feats_fmllr_train.8.ark:8783643
mwem0_sx330 quick_test/data-fmllr-tri3/train/data/feats_fmllr_train.10.ark:15469097
mwdk0_sx266 quick_test/data-fmllr-tri3/train/data/feats_fmllr_train.10.ark:15078132
mrsp0_sx439 quick_test/data-fmllr-tri3/train/data/feats_fmllr_train.9.ark:8651455
mkdd0_sx217 quick_test/data-fmllr-tri3/train/data/feats_fmllr_train.7.ark:6173456
mdss1_sx337 quick_test/data-fmllr-tri3/train/data/feats_fmllr_train.5.ark:9129302
mclk0_sx40 quick_test/data-fmllr-tri3/train/data/feats_fmllr_train.4.ark:11680606
mdwm0_sx16 quick_test/data-fmllr-tri3/train/data/feats_fmllr_train.5.ark:10589183
mdsj0_si832 quick_test/data-fmllr-tri3/train/data/feats_fmllr_train.5.ark:8306227
fbjl0_sx22 quick_test/data-fmllr-tri3/train/data/feats_fmllr_train.1.ark:3509560
ftbw0_si1345 quick_test/data-fmllr-tri3/train/data/feats_fmllr_train.3.ark:14590442
mjkr0_sx31 quick_test/data-fmllr-tri3/train/data/feats_fmllr_train.6.ark:13876565
mwac0_si971 quick_test/data-fmllr-tri3/train/data/feats_fmllr_train.10.ark:13532087
fnkl0_sx196 quick_test/data-fmllr-tri3/train/data/feats_fmllr_train.3.ark:207642
fjen0_sx147 quick_test/data-fmllr-tri3/train/data/feats_fmllr_train.2.ark:571034
mreh1_sx339 quick_test/data-fmllr-tri3/train/data/feats_fmllr_train.8.ark:15812512
mtkp0_sx33 quick_test/data-fmllr-tri3/train/data/feats_fmllr_train.10.ark:6419910
fapb0_sx253 quick_test/data-fmllr-tri3/train/data/feats_fmllr_train.1.ark:1818106
fsah0_sx344 quick_test/data-fmllr-tri3/train/data/feats_fmllr_train.3.ark:5840465
mtrc0_si589 quick_test/data-fmllr-tri3/train/data/feats_fmllr_train.10.ark:10508083
mtrr0_si918 quick_test/data-fmllr-tri3/train/data/feats_fmllr_train.10.ark:10884327
mprb0_si575 quick_test/data-fmllr-tri3/train/data/feats_fmllr_train.8.ark:9048419
mtjs0_si1192 quick_test/data-fmllr-tri3/train/data/feats_fmllr_train.10.ark:4850137
msem1_si1440 quick_test/data-fmllr-tri3/train/data/feats_fmllr_train.9.ark:13658974
mrld0_sx64 quick_test/data-fmllr-tri3/train/data/feats_fmllr_train.9.ark:3680175
mbma1_si2214 quick_test/data-fmllr-tri3/train/data/feats_fmllr_train.4.ark:5947996
mjbg0_si1232 quick_test/data-fmllr-tri3/train/data/feats_fmllr_train.6.ark:7645946
mafm0_sx129 quick_test/data-fmllr-tri3/train/data/feats_fmllr_train.4.ark:850450
mtpf0_sx155 quick_test/data-fmllr-tri3/train/data/feats_fmllr_train.10.ark:8596813
mtcs0_sx172 quick_test/data-fmllr-tri3/train/data/feats_fmllr_train.10.ark:2582837
mrwa0_sx163 quick_test/data-fmllr-tri3/train/data/feats_fmllr_train.9.ark:10142002
mcxm0_sx91 quick_test/data-fmllr-tri3/train/data/feats_fmllr_train.4.ark:14324551
mdmt0_si1832 quick_test/data-fmllr-tri3/train/data/feats_fmllr_train.5.ark:5929030
mpmb0_sx331 quick_test/data-fmllr-tri3/train/data/feats_fmllr_train.8.ark:8302946
fcag0_si2133 quick_test/data-fmllr-tri3/train/data/feats_fmllr_train.1.ark:4955309
fbch0_sx56 quick_test/data-fmllr-tri3/train/data/feats_fmllr_train.1.ark:3228117
mrdd0_sx330 quick_test/data-fmllr-tri3/train/data/feats_fmllr_train.8.ark:14306870
mrfk0_si1706 quick_test/data-fmllr-tri3/train/data/feats_fmllr_train.8.ark:16782494
mefg0_sx375 quick_test/data-fmllr-tri3/train/data/feats_fmllr_train.5.ark:11770074
mdac0_si1261 quick_test/data-fmllr-tri3/train/data/feats_fmllr_train.4.ark:14365379
fjrp1_sx172 quick_test/data-fmllr-tri3/train/data/feats_fmllr_train.2.ark:2942258
mtqc0_sx271 quick_test/data-fmllr-tri3/train/data/feats_fmllr_train.10.ark:10227148
mwgr0_si1606 quick_test/data-fmllr-tri3/train/data/feats_fmllr_train.10.ark:15655898
msfh0_si1738 quick_test/data-fmllr-tri3/train/data/feats_fmllr_train.9.ark:14556237
mhxl0_si612 quick_test/data-fmllr-tri3/train/data/feats_fmllr_train.6.ark:5812439
fcmm0_si1083 quick_test/data-fmllr-tri3/train/data/feats_fmllr_train.1.ark:8195768
fsjw0_sx253 quick_test/data-fmllr-tri3/train/data/feats_fmllr_train.3.ark:9799569
fjwb1_sx345 quick_test/data-fmllr-tri3/train/data/feats_fmllr_train.2.ark:4268083
msrg0_sx411 quick_test/data-fmllr-tri3/train/data/feats_fmllr_train.9.ark:17258633
fklh0_sx87 quick_test/data-fmllr-tri3/train/data/feats_fmllr_train.2.ark:8437028
mjpm1_sx131 quick_test/data-fmllr-tri3/train/data/feats_fmllr_train.6.ark:16957160
mrew1_si2130 quick_test/data-fmllr-tri3/train/data/feats_fmllr_train.8.ark:16392517
mfer0_sx232 quick_test/data-fmllr-tri3/train/data/feats_fmllr_train.5.ark:14182549
fjsp0_si1434 quick_test/data-fmllr-tri3/train/data/feats_fmllr_train.2.ark:3658931
msrr0_sx231 quick_test/data-fmllr-tri3/train/data/feats_fmllr_train.9.ark:17581676
mkls1_sx195 quick_test/data-fmllr-tri3/train/data/feats_fmllr_train.7.ark:8868442
fkkh0_sx30 quick_test/data-fmllr-tri3/train/data/feats_fmllr_train.2.ark:7181762
mbef0_si1911 quick_test/data-fmllr-tri3/train/data/feats_fmllr_train.4.ark:4524728
mded0_sx180 quick_test/data-fmllr-tri3/train/data/feats_fmllr_train.4.ark:17174498
mcth0_sx309 quick_test/data-fmllr-tri3/train/data/feats_fmllr_train.4.ark:13472704
fbcg1_sx262 quick_test/data-fmllr-tri3/train/data/feats_fmllr_train.1.ark:2640621
mmdg0_sx70 quick_test/data-fmllr-tri3/train/data/feats_fmllr_train.7.ark:16216884
mmar0_si1966 quick_test/data-fmllr-tri3/train/data/feats_fmllr_train.7.ark:14239695
frjb0_sx257 quick_test/data-fmllr-tri3/train/data/feats_fmllr_train.3.ark:4504588
mhit0_si983 quick_test/data-fmllr-tri3/train/data/feats_fmllr_train.6.ark:3993914
fsag0_sx243 quick_test/data-fmllr-tri3/train/data/feats_fmllr_train.3.ark:5283901
mbth0_si757 quick_test/data-fmllr-tri3/train/data/feats_fmllr_train.4.ark:7422010
mjee0_sx247 quick_test/data-fmllr-tri3/train/data/feats_fmllr_train.6.ark:11003153
fmah1_sx69 quick_test/data-fmllr-tri3/train/data/feats_fmllr_train.2.ark:14660665
mjws0_si1143 quick_test/data-fmllr-tri3/train/data/feats_fmllr_train.7.ark:2403875
mjjm0_sx17 quick_test/data-fmllr-tri3/train/data/feats_fmllr_train.6.ark:13383014
mtkp0_si1023 quick_test/data-fmllr-tri3/train/data/feats_fmllr_train.10.ark:6092548
mmab1_si2124 quick_test/data-fmllr-tri3/train/data/feats_fmllr_train.7.ark:13025443
mdlc2_si2244 quick_test/data-fmllr-tri3/train/data/feats_fmllr_train.5.ark:3597676
mbjv0_si617 quick_test/data-fmllr-tri3/train/data/feats_fmllr_train.4.ark:5279749
fajw0_si1263 quick_test/data-fmllr-tri3/train/data/feats_fmllr_train.1.ark:390310
fcrz0_sx253 quick_test/data-fmllr-tri3/train/data/feats_fmllr_train.1.ark:8754174
fdkn0_sx361 quick_test/data-fmllr-tri3/train/data/feats_fmllr_train.1.ark:11112306
makb0_si2276 quick_test/data-fmllr-tri3/train/data/feats_fmllr_train.4.ark:1643339
mfmc0_sx52 quick_test/data-fmllr-tri3/train/data/feats_fmllr_train.5.ark:14704766
mbjv0_si1877 quick_test/data-fmllr-tri3/train/data/feats_fmllr_train.4.ark:5243722
mmws0_sx258 quick_test/data-fmllr-tri3/train/data/feats_fmllr_train.8.ark:4110934
mwsh0_sx436 quick_test/data-fmllr-tri3/train/data/feats_fmllr_train.10.ark:17497087
fsjw0_si703 quick_test/data-fmllr-tri3/train/data/feats_fmllr_train.3.ark:9715035
mrws0_sx22 quick_test/data-fmllr-tri3/train/data/feats_fmllr_train.9.ark:10577472
mdef0_sx213 quick_test/data-fmllr-tri3/train/data/feats_fmllr_train.5.ark:202843
fcmg0_si1872 quick_test/data-fmllr-tri3/train/data/feats_fmllr_train.1.ark:7902006
mkdb0_sx332 quick_test/data-fmllr-tri3/train/data/feats_fmllr_train.7.ark:5785586
mdss0_sx441 quick_test/data-fmllr-tri3/train/data/feats_fmllr_train.5.ark:8825912
mapv0_si663 quick_test/data-fmllr-tri3/train/data/feats_fmllr_train.4.ark:2364733
fbjl0_si2182 quick_test/data-fmllr-tri3/train/data/feats_fmllr_train.1.ark:3325293
mbma0_sx322 quick_test/data-fmllr-tri3/train/data/feats_fmllr_train.4.ark:5782927
fbcg1_sx352 quick_test/data-fmllr-tri3/train/data/feats_fmllr_train.1.ark:2681928
fjxm0_sx311 quick_test/data-fmllr-tri3/train/data/feats_fmllr_train.2.ark:4628460
mmea0_si1388 quick_test/data-fmllr-tri3/train/data/feats_fmllr_train.7.ark:17323963
fscn0_si705 quick_test/data-fmllr-tri3/train/data/feats_fmllr_train.3.ark:6854475
flhd0_sx444 quick_test/data-fmllr-tri3/train/data/feats_fmllr_train.2.ark:10683106
mdas0_sx6 quick_test/data-fmllr-tri3/train/data/feats_fmllr_train.4.ark:15034236
mjjb0_sx149 quick_test/data-fmllr-tri3/train/data/feats_fmllr_train.6.ark:12470554
fsgf0_si1557 quick_test/data-fmllr-tri3/train/data/feats_fmllr_train.3.ark:7913792
mdhs0_si2160 quick_test/data-fmllr-tri3/train/data/feats_fmllr_train.5.ark:1248692
mcxm0_si1351 quick_test/data-fmllr-tri3/train/data/feats_fmllr_train.4.ark:13986762
mclk0_sx220 quick_test/data-fmllr-tri3/train/data/feats_fmllr_train.4.ark:11588873
fjxm0_si581 quick_test/data-fmllr-tri3/train/data/feats_fmllr_train.2.ark:4480219
mmaa0_si2105 quick_test/data-fmllr-tri3/train/data/feats_fmllr_train.7.ark:12662826
mter0_si1787 quick_test/data-fmllr-tri3/train/data/feats_fmllr_train.10.ark:3756395
mkag0_sx30 quick_test/data-fmllr-tri3/train/data/feats_fmllr_train.7.ark:4287758
mjpm0_si738 quick_test/data-fmllr-tri3/train/data/feats_fmllr_train.6.ark:16566036
mbar0_si1319 quick_test/data-fmllr-tri3/train/data/feats_fmllr_train.4.ark:3375569
fear0_sx172 quick_test/data-fmllr-tri3/train/data/feats_fmllr_train.1.ark:13866413
mrsp0_sx196 quick_test/data-fmllr-tri3/train/data/feats_fmllr_train.9.ark:8576361
fsrh0_si1931 quick_test/data-fmllr-tri3/train/data/feats_fmllr_train.3.ark:13143522
mdlb0_sx316 quick_test/data-fmllr-tri3/train/data/feats_fmllr_train.5.ark:2620812
maeo0_si1956 quick_test/data-fmllr-tri3/train/data/feats_fmllr_train.4.ark:479006
fklc0_sx85 quick_test/data-fmllr-tri3/train/data/feats_fmllr_train.2.ark:7666193
mjda0_sx401 quick_test/data-fmllr-tri3/train/data/feats_fmllr_train.6.ark:8273528
fdaw0_sx146 quick_test/data-fmllr-tri3/train/data/feats_fmllr_train.1.ark:9925199
mgxp0_sx97 quick_test/data-fmllr-tri3/train/data/feats_fmllr_train.6.ark:3521774
mjda0_sx311 quick_test/data-fmllr-tri3/train/data/feats_fmllr_train.6.ark:8217981
fdnc0_sx108 quick_test/data-fmllr-tri3/train/data/feats_fmllr_train.1.ark:12333064
mjlb0_si2246 quick_test/data-fmllr-tri3/train/data/feats_fmllr_train.6.ark:14017128
fljg0_sx351 quick_test/data-fmllr-tri3/train/data/feats_fmllr_train.2.ark:11866291
mmeb0_sx327 quick_test/data-fmllr-tri3/train/data/feats_fmllr_train.7.ark:17812929
mrgm0_sx82 quick_test/data-fmllr-tri3/train/data/feats_fmllr_train.8.ark:17914130
flod0_sx171 quick_test/data-fmllr-tri3/train/data/feats_fmllr_train.2.ark:13766709
mrtc0_si828 quick_test/data-fmllr-tri3/train/data/feats_fmllr_train.9.ark:8885484
mrmg0_sx180 quick_test/data-fmllr-tri3/train/data/feats_fmllr_train.9.ark:5658972
fdjh0_sx305 quick_test/data-fmllr-tri3/train/data/feats_fmllr_train.1.ark:10710008
mntw0_sx78 quick_test/data-fmllr-tri3/train/data/feats_fmllr_train.8.ark:5697640
mjhi0_sx338 quick_test/data-fmllr-tri3/train/data/feats_fmllr_train.6.ark:12182550
mjeb0_sx296 quick_test/data-fmllr-tri3/train/data/feats_fmllr_train.6.ark:10338772
mjjm0_si1251 quick_test/data-fmllr-tri3/train/data/feats_fmllr_train.6.ark:13161626
mmgc0_si1935 quick_test/data-fmllr-tri3/train/data/feats_fmllr_train.8.ark:67561
flja0_sx448 quick_test/data-fmllr-tri3/train/data/feats_fmllr_train.2.ark:11098844
mewm0_sx268 quick_test/data-fmllr-tri3/train/data/feats_fmllr_train.5.ark:13858012
mtat1_sx149 quick_test/data-fmllr-tri3/train/data/feats_fmllr_train.10.ark:1772163
mjdm0_sx440 quick_test/data-fmllr-tri3/train/data/feats_fmllr_train.6.ark:9943036
mjae0_si1999 quick_test/data-fmllr-tri3/train/data/feats_fmllr_train.6.ark:6911140
fntb0_si1203 quick_test/data-fmllr-tri3/train/data/feats_fmllr_train.3.ark:378950
mpar0_si1576 quick_test/data-fmllr-tri3/train/data/feats_fmllr_train.8.ark:5741028
msrr0_sx30 quick_test/data-fmllr-tri3/train/data/feats_fmllr_train.9.ark:17604582
mcxm0_sx451 quick_test/data-fmllr-tri3/train/data/feats_fmllr_train.4.ark:14266285
mdsj0_sx382 quick_test/data-fmllr-tri3/train/data/feats_fmllr_train.5.ark:8486174
fvfb0_sx132 quick_test/data-fmllr-tri3/train/data/feats_fmllr_train.3.ark:15891335
mesj0_sx277 quick_test/data-fmllr-tri3/train/data/feats_fmllr_train.5.ark:13550757
fblv0_sx248 quick_test/data-fmllr-tri3/train/data/feats_fmllr_train.1.ark:3892952
fcyl0_sx37 quick_test/data-fmllr-tri3/train/data/feats_fmllr_train.1.ark:9236844
mjls0_si1096 quick_test/data-fmllr-tri3/train/data/feats_fmllr_train.6.ark:14655615
mkah0_sx358 quick_test/data-fmllr-tri3/train/data/feats_fmllr_train.7.ark:4671495
mcae0_sx7 quick_test/data-fmllr-tri3/train/data/feats_fmllr_train.4.ark:8502070
mgsh0_si1806 quick_test/data-fmllr-tri3/train/data/feats_fmllr_train.6.ark:2380065
fajw0_sx273 quick_test/data-fmllr-tri3/train/data/feats_fmllr_train.1.ark:638099
fpac0_si2011 quick_test/data-fmllr-tri3/train/data/feats_fmllr_train.3.ark:1269171
mpfu0_sx178 quick_test/data-fmllr-tri3/train/data/feats_fmllr_train.8.ark:6558024
mdma0_sx80 quick_test/data-fmllr-tri3/train/data/feats_fmllr_train.5.ark:5889962
fecd0_si788 quick_test/data-fmllr-tri3/train/data/feats_fmllr_train.1.ark:14266443
flmk0_si2295 quick_test/data-fmllr-tri3/train/data/feats_fmllr_train.2.ark:13317958
fbcg1_sx172 quick_test/data-fmllr-tri3/train/data/feats_fmllr_train.1.ark:2589554
mdks0_sx256 quick_test/data-fmllr-tri3/train/data/feats_fmllr_train.5.ark:2110648
mgrl0_si1497 quick_test/data-fmllr-tri3/train/data/feats_fmllr_train.6.ark:1506803
fskc0_sx156 quick_test/data-fmllr-tri3/train/data/feats_fmllr_train.3.ark:10120559
fvkb0_si529 quick_test/data-fmllr-tri3/train/data/feats_fmllr_train.3.ark:16165125
mjlb0_sx86 quick_test/data-fmllr-tri3/train/data/feats_fmllr_train.6.ark:14267369
mjlb0_sx356 quick_test/data-fmllr-tri3/train/data/feats_fmllr_train.6.ark:14183796
mpeb0_sx60 quick_test/data-fmllr-tri3/train/data/feats_fmllr_train.8.ark:6365114
fdaw0_sx236 quick_test/data-fmllr-tri3/train/data/feats_fmllr_train.1.ark:9966986
fecd0_sx68 quick_test/data-fmllr-tri3/train/data/feats_fmllr_train.1.ark:14549297
msdh0_sx440 quick_test/data-fmllr-tri3/train/data/feats_fmllr_train.9.ark:13097582
msas0_si1376 quick_test/data-fmllr-tri3/train/data/feats_fmllr_train.9.ark:11413989
fsgf0_sx27 quick_test/data-fmllr-tri3/train/data/feats_fmllr_train.3.ark:8184327
fmbg0_sx3 quick_test/data-fmllr-tri3/train/data/feats_fmllr_train.2.ark:14909761
fsjk1_si1025 quick_test/data-fmllr-tri3/train/data/feats_fmllr_train.3.ark:8826386
flma0_si1243 quick_test/data-fmllr-tri3/train/data/feats_fmllr_train.2.ark:12481788
mejs0_si610 quick_test/data-fmllr-tri3/train/data/feats_fmllr_train.5.ark:12703229
mcss0_sx390 quick_test/data-fmllr-tri3/train/data/feats_fmllr_train.4.ark:13186140
frll0_si884 quick_test/data-fmllr-tri3/train/data/feats_fmllr_train.3.ark:4818030
mtpp0_sx338 quick_test/data-fmllr-tri3/train/data/feats_fmllr_train.10.ark:9379701
mhit0_sx353 quick_test/data-fmllr-tri3/train/data/feats_fmllr_train.6.ark:4163915
mdma0_si1430 quick_test/data-fmllr-tri3/train/data/feats_fmllr_train.5.ark:5503720
fdkn0_sx91 quick_test/data-fmllr-tri3/train/data/feats_fmllr_train.1.ark:11232359
mclk0_si2290 quick_test/data-fmllr-tri3/train/data/feats_fmllr_train.4.ark:11392312
mtqc0_sx181 quick_test/data-fmllr-tri3/train/data/feats_fmllr_train.10.ark:10151121
fecd0_si1418 quick_test/data-fmllr-tri3/train/data/feats_fmllr_train.1.ark:14136308
mgak0_si1666 quick_test/data-fmllr-tri3/train/data/feats_fmllr_train.5.ark:16995726
mbjv0_sx437 quick_test/data-fmllr-tri3/train/data/feats_fmllr_train.4.ark:5466257
fmjf0_sx354 quick_test/data-fmllr-tri3/train/data/feats_fmllr_train.2.ark:16170438
mtas0_sx215 quick_test/data-fmllr-tri3/train/data/feats_fmllr_train.10.ark:1088876
mmvp0_sx384 quick_test/data-fmllr-tri3/train/data/feats_fmllr_train.8.ark:3385941
mgsl0_sx264 quick_test/data-fmllr-tri3/train/data/feats_fmllr_train.6.ark:2940360
maeo0_si1326 quick_test/data-fmllr-tri3/train/data/feats_fmllr_train.4.ark:368870
mmvp0_si1914 quick_test/data-fmllr-tri3/train/data/feats_fmllr_train.8.ark:3015059
mjwg0_si813 quick_test/data-fmllr-tri3/train/data/feats_fmllr_train.7.ark:1990566
mmdb0_sx447 quick_test/data-fmllr-tri3/train/data/feats_fmllr_train.7.ark:15755521
mrds0_sx267 quick_test/data-fmllr-tri3/train/data/feats_fmllr_train.8.ark:14959250
fcke0_sx211 quick_test/data-fmllr-tri3/train/data/feats_fmllr_train.1.ark:7264665
mrsp0_si2059 quick_test/data-fmllr-tri3/train/data/feats_fmllr_train.9.ark:8423800
mrai0_sx342 quick_test/data-fmllr-tri3/train/data/feats_fmllr_train.8.ark:11978338
mdlh0_si1960 quick_test/data-fmllr-tri3/train/data/feats_fmllr_train.5.ark:3906505
flmc0_si742 quick_test/data-fmllr-tri3/train/data/feats_fmllr_train.2.ark:12913740
mtrt0_sx237 quick_test/data-fmllr-tri3/train/data/feats_fmllr_train.10.ark:11405558
mapv0_sx33 quick_test/data-fmllr-tri3/train/data/feats_fmllr_train.4.ark:2582760
mjde0_si463 quick_test/data-fmllr-tri3/train/data/feats_fmllr_train.6.ark:8827426
mkxl0_si1185 quick_test/data-fmllr-tri3/train/data/feats_fmllr_train.7.ark:9755998
flac0_si2161 quick_test/data-fmllr-tri3/train/data/feats_fmllr_train.2.ark:8942421
mjws0_sx153 quick_test/data-fmllr-tri3/train/data/feats_fmllr_train.7.ark:2531797
mtxs0_sx250 quick_test/data-fmllr-tri3/train/data/feats_fmllr_train.10.ark:12125513
marw0_si1906 quick_test/data-fmllr-tri3/train/data/feats_fmllr_train.4.ark:3016820
