mdns0_sx21 quick_test/mfcc/raw_mfcc_train.2.ark:2768838
mprd0_si2061 quick_test/mfcc/raw_mfcc_train.4.ark:59216
mcxm0_si1351 quick_test/mfcc/raw_mfcc_train.2.ark:1930412
mjae0_sx444 quick_test/mfcc/raw_mfcc_train.3.ark:600519
mkln0_sx248 quick_test/mfcc/raw_mfcc_train.3.ark:2157756
mcal0_si1138 quick_test/mfcc/raw_mfcc_train.2.ark:1478410
mjbg0_sx242 quick_test/mfcc/raw_mfcc_train.3.ark:657559
mbcg0_sx237 quick_test/mfcc/raw_mfcc_train.2.ark:1115240
fkaa0_sx128 quick_test/mfcc/raw_mfcc_train.1.ark:2030257
mnet0_si2076 quick_test/mfcc/raw_mfcc_train.3.ark:3449826
mtlb0_sx234 quick_test/mfcc/raw_mfcc_train.4.ark:2859422
msvs0_si938 quick_test/mfcc/raw_mfcc_train.4.ark:2309194
mgaf0_si1912 quick_test/mfcc/raw_mfcc_train.2.ark:3589245
marc0_sx108 quick_test/mfcc/raw_mfcc_train.2.ark:987488
fsmm0_sx324 quick_test/mfcc/raw_mfcc_train.2.ark:263297
mgaf0_si652 quick_test/mfcc/raw_mfcc_train.2.ark:3594270
mjbg0_si1862 quick_test/mfcc/raw_mfcc_train.3.ark:649680
mjjj0_si533 quick_test/mfcc/raw_mfcc_train.3.ark:1080423
mstf0_sx136 quick_test/mfcc/raw_mfcc_train.4.ark:2277502
mrjb1_sx210 quick_test/mfcc/raw_mfcc_train.4.ark:863981
mkdt0_sx83 quick_test/mfcc/raw_mfcc_train.3.ark:2074223
mrfk0_si1706 quick_test/mfcc/raw_mfcc_train.4.ark:676007
mrdm0_sx335 quick_test/mfcc/raw_mfcc_train.4.ark:497125
mmws0_sx78 quick_test/mfcc/raw_mfcc_train.3.ark:3384333
mrdd0_sx60 quick_test/mfcc/raw_mfcc_train.4.ark:472199
mmcc0_sx348 quick_test/mfcc/raw_mfcc_train.3.ark:2800153
fsdc0_si2234 quick_test/mfcc/raw_mfcc_train.1.ark:3742983
mcef0_sx235 quick_test/mfcc/raw_mfcc_train.2.ark:1622161
mkdd0_si2197 quick_test/mfcc/raw_mfcc_train.3.ark:2017303
mjae0_si1999 quick_test/mfcc/raw_mfcc_train.3.ark:581100
fjxm0_sx311 quick_test/mfcc/raw_mfcc_train.1.ark:1969785
mjfr0_si975 quick_test/mfcc/raw_mfcc_train.3.ark:976525
fvkb0_sx169 quick_test/mfcc/raw_mfcc_train.2.ark:606980
mpsw0_sx167 quick_test/mfcc/raw_mfcc_train.4.ark:167925
mbbr0_si1055 quick_test/mfcc/raw_mfcc_train.2.ark:1069719
fcke0_sx391 quick_test/mfcc/raw_mfcc_train.1.ark:619508
mrjm1_si1928 quick_test/mfcc/raw_mfcc_train.4.ark:956041
mpgr1_sx239 quick_test/mfcc/raw_mfcc_train.3.ark:3673494
mjrp0_sx315 quick_test/mfcc/raw_mfcc_train.3.ark:1625908
msah1_sx329 quick_test/mfcc/raw_mfcc_train.4.ark:1723266
fbjl0_sx22 quick_test/mfcc/raw_mfcc_train.1.ark:294469
mkam0_si1465 quick_test/mfcc/raw_mfcc_train.3.ark:1954290
fmjb0_sx187 quick_test/mfcc/raw_mfcc_train.1.ark:2900536
mdss1_sx337 quick_test/mfcc/raw_mfcc_train.2.ark:2985623
mejl0_sx152 quick_test/mfcc/raw_mfcc_train.2.ark:3258899
mpgr0_si1410 quick_test/mfcc/raw_mfcc_train.3.ark:3627101
fksr0_si487 quick_test/mfcc/raw_mfcc_train.1.ark:2300705
fsdc0_sx412 quick_test/mfcc/raw_mfcc_train.1.ark:3756583
maeo0_si1956 quick_test/mfcc/raw_mfcc_train.2.ark:794321
fkdw0_sx307 quick_test/mfcc/raw_mfcc_train.1.ark:2111051
mbar0_sx329 quick_test/mfcc/raw_mfcc_train.2.ark:1058570
mkes0_sx443 quick_test/mfcc/raw_mfcc_train.3.ark:2105799
mdss1_si1327 quick_test/mfcc/raw_mfcc_train.2.ark:2966477
mzmb0_sx446 quick_test/mfcc/raw_mfcc_train.4.ark:3802331
flmc0_sx336 quick_test/mfcc/raw_mfcc_train.1.ark:2680493
mree0_sx114 quick_test/mfcc/raw_mfcc_train.4.ark:553269
fleh0_sx331 quick_test/mfcc/raw_mfcc_train.1.ark:2412425
mjrk0_sx430 quick_test/mfcc/raw_mfcc_train.3.ark:1600508
mter0_sx437 quick_test/mfcc/raw_mfcc_train.4.ark:2632577
fjxp0_sx132 quick_test/mfcc/raw_mfcc_train.1.ark:1999130
mdlr1_sx219 quick_test/mfcc/raw_mfcc_train.2.ark:2661163
fsrh0_sx41 quick_test/mfcc/raw_mfcc_train.2.ark:372590
fexm0_sx291 quick_test/mfcc/raw_mfcc_train.1.ark:1350367
mrlj1_sx51 quick_test/mfcc/raw_mfcc_train.4.ark:1140927
fskl0_sx359 quick_test/mfcc/raw_mfcc_train.2.ark:133354
mpgr0_sx420 quick_test/mfcc/raw_mfcc_train.3.ark:3647931
mdlm0_si1234 quick_test/mfcc/raw_mfcc_train.2.ark:2580446
mjrp0_sx225 quick_test/mfcc/raw_mfcc_train.3.ark:1623106
mwrp0_sx273 quick_test/mfcc/raw_mfcc_train.4.ark:3696239
mefg0_sx195 quick_test/mfcc/raw_mfcc_train.2.ark:3201353
mgjc0_sx435 quick_test/mfcc/raw_mfcc_train.3.ark:116774
fgdp0_sx448 quick_test/mfcc/raw_mfcc_train.1.ark:1421989
mkes0_sx263 quick_test/mfcc/raw_mfcc_train.3.ark:2097608
mjde0_sx310 quick_test/mfcc/raw_mfcc_train.3.ark:762257
msem1_sx90 quick_test/mfcc/raw_mfcc_train.4.ark:1960684
fsak0_si1300 quick_test/mfcc/raw_mfcc_train.1.ark:3627707
fcrz0_si2053 quick_test/mfcc/raw_mfcc_train.1.ark:724723
mrjt0_sx58 quick_test/mfcc/raw_mfcc_train.4.ark:1012026
fmmh0_sx97 quick_test/mfcc/raw_mfcc_train.1.ark:3083129
mpfu0_sx88 quick_test/mfcc/raw_mfcc_train.3.ark:3594472
mjxa0_si1507 quick_test/mfcc/raw_mfcc_train.3.ark:1785354
mdlm0_sx334 quick_test/mfcc/raw_mfcc_train.2.ark:2599969
mesg0_sx72 quick_test/mfcc/raw_mfcc_train.2.ark:3339120
fpmy0_sx343 quick_test/mfcc/raw_mfcc_train.1.ark:3455184
fvmh0_sx386 quick_test/mfcc/raw_mfcc_train.2.ark:657465
mrgm0_si532 quick_test/mfcc/raw_mfcc_train.4.ark:744496
mtpr0_sx160 quick_test/mfcc/raw_mfcc_train.4.ark:3111630
mddc0_si789 quick_test/mfcc/raw_mfcc_train.2.ark:2161769
mrav0_sx288 quick_test/mfcc/raw_mfcc_train.4.ark:338557
mdas0_sx21 quick_test/mfcc/raw_mfcc_train.2.ark:2013039
mpgh0_sx204 quick_test/mfcc/raw_mfcc_train.3.ark:3616010
fdnc0_si1908 quick_test/mfcc/raw_mfcc_train.1.ark:1027307
ftbw0_si1975 quick_test/mfcc/raw_mfcc_train.2.ark:472968
mdwm0_sx106 quick_test/mfcc/raw_mfcc_train.2.ark:3105035
mdef0_sx33 quick_test/mfcc/raw_mfcc_train.2.ark:2241458
mdcm0_sx220 quick_test/mfcc/raw_mfcc_train.2.ark:2138911
mmab1_sx54 quick_test/mfcc/raw_mfcc_train.3.ark:2634520
mrmh0_si2281 quick_test/mfcc/raw_mfcc_train.4.ark:1279877
fmem0_sx333 quick_test/mfcc/raw_mfcc_train.1.ark:2872978
mtas0_sx125 quick_test/mfcc/raw_mfcc_train.4.ark:2387367
msmr0_si1150 quick_test/mfcc/raw_mfcc_train.4.ark:2136984
msfh0_si586 quick_test/mfcc/raw_mfcc_train.4.ark:2005238
msem1_si810 quick_test/mfcc/raw_mfcc_train.4.ark:1933974
mapv0_si663 quick_test/mfcc/raw_mfcc_train.2.ark:952935
mwrp0_sx3 quick_test/mfcc/raw_mfcc_train.4.ark:3699832
mprk0_sx107 quick_test/mfcc/raw_mfcc_train.4.ark:107608
mtrc0_si1623 quick_test/mfcc/raw_mfcc_train.4.ark:3177931
fbas0_sx217 quick_test/mfcc/raw_mfcc_train.1.ark:193725
fmmh0_si907 quick_test/mfcc/raw_mfcc_train.1.ark:3063194
fdxw0_sx431 quick_test/mfcc/raw_mfcc_train.1.ark:1114285
fntb0_sx123 quick_test/mfcc/raw_mfcc_train.1.ark:3172699
mjrp0_si585 quick_test/mfcc/raw_mfcc_train.3.ark:1614629
mgaw0_si1802 quick_test/mfcc/raw_mfcc_train.3.ark:38325
fdjh0_sx305 quick_test/mfcc/raw_mfcc_train.1.ark:900018
mejl0_si962 quick_test/mfcc/raw_mfcc_train.2.ark:3255018
mdrd0_si2012 quick_test/mfcc/raw_mfcc_train.2.ark:2874404
mgak0_si2296 quick_test/mfcc/raw_mfcc_train.2.ark:3651883
mpsw0_si1067 quick_test/mfcc/raw_mfcc_train.4.ark:158646
mdac0_si1837 quick_test/mfcc/raw_mfcc_train.2.ark:1965915
mhbs0_sx45 quick_test/mfcc/raw_mfcc_train.3.ark:325597
mdac0_si631 quick_test/mfcc/raw_mfcc_train.2.ark:1968925
flod0_si1917 quick_test/mfcc/raw_mfcc_train.1.ark:2726516
mtpf0_sx65 quick_test/mfcc/raw_mfcc_train.4.ark:3035709
fntb0_sx33 quick_test/mfcc/raw_mfcc_train.1.ark:3183028
mmab1_sx234 quick_test/mfcc/raw_mfcc_train.3.ark:2620629
fexm0_si1731 quick_test/mfcc/raw_mfcc_train.1.ark:1330683
mclk0_si2290 quick_test/mfcc/raw_mfcc_train.2.ark:1712194
mtlc0_si1313 quick_test/mfcc/raw_mfcc_train.4.ark:2877039
mjac0_si1331 quick_test/mfcc/raw_mfcc_train.3.ark:543920
mdas0_si1896 quick_test/mfcc/raw_mfcc_train.2.ark:1999148
mrmg0_si1080 quick_test/mfcc/raw_mfcc_train.4.ark:1237748
mklr0_sx249 quick_test/mfcc/raw_mfcc_train.3.ark:2187714
fcke0_sx301 quick_test/mfcc/raw_mfcc_train.1.ark:613736
mdpk0_si1053 quick_test/mfcc/raw_mfcc_train.2.ark:2812077
mejl0_si1592 quick_test/mfcc/raw_mfcc_train.2.ark:3249023
mrfl0_si526 quick_test/mfcc/raw_mfcc_train.4.ark:707935
mabc0_sx331 quick_test/mfcc/raw_mfcc_train.2.ark:677685
mrlr0_sx386 quick_test/mfcc/raw_mfcc_train.4.ark:1204117
mkxl0_si1185 quick_test/mfcc/raw_mfcc_train.3.ark:2332583
mjee0_sx427 quick_test/mfcc/raw_mfcc_train.3.ark:933864
mmvp0_sx384 quick_test/mfcc/raw_mfcc_train.3.ark:3310198
mcth0_si1839 quick_test/mfcc/raw_mfcc_train.2.ark:1871754
mewm0_sx268 quick_test/mfcc/raw_mfcc_train.2.ark:3383724
mjpm0_si738 quick_test/mfcc/raw_mfcc_train.3.ark:1392683
mctm0_sx270 quick_test/mfcc/raw_mfcc_train.2.ark:1916474
fjxm0_sx41 quick_test/mfcc/raw_mfcc_train.1.ark:1980848
mtpr0_si2230 quick_test/mfcc/raw_mfcc_train.4.ark:3102425
mwac0_si971 quick_test/mfcc/raw_mfcc_train.4.ark:3435308
mrem0_si1591 quick_test/mfcc/raw_mfcc_train.4.ark:607506
mtrc0_si589 quick_test/mfcc/raw_mfcc_train.4.ark:3180837
mrcw0_sx381 quick_test/mfcc/raw_mfcc_train.4.ark:442995
fmbg0_sx440 quick_test/mfcc/raw_mfcc_train.1.ark:2840460
mbgt0_sx261 quick_test/mfcc/raw_mfcc_train.2.ark:1175687
mdmt0_sx392 quick_test/mfcc/raw_mfcc_train.2.ark:2741781
mafm0_si2199 quick_test/mfcc/raw_mfcc_train.2.ark:818915
feac0_sx435 quick_test/mfcc/raw_mfcc_train.1.ark:1145945
mdlm0_sx244 quick_test/mfcc/raw_mfcc_train.2.ark:2596634
mbcg0_sx57 quick_test/mfcc/raw_mfcc_train.2.ark:1126986
mcth0_si1209 quick_test/mfcc/raw_mfcc_train.2.ark:1867079
fskc0_sx246 quick_test/mfcc/raw_mfcc_train.2.ark:97631
mdlc0_sx315 quick_test/mfcc/raw_mfcc_train.2.ark:2475032
flkm0_sx440 quick_test/mfcc/raw_mfcc_train.1.ark:2619891
fkfb0_si1608 quick_test/mfcc/raw_mfcc_train.1.ark:2120926
mkls0_sx357 quick_test/mfcc/raw_mfcc_train.3.ark:2225089
mjdm0_si1937 quick_test/mfcc/raw_mfcc_train.3.ark:815462
mprt0_sx310 quick_test/mfcc/raw_mfcc_train.4.ark:148355
mtjm0_sx56 quick_test/mfcc/raw_mfcc_train.4.ark:2702182
mgxp0_sx97 quick_test/mfcc/raw_mfcc_train.3.ark:295731
mmlm0_si1527 quick_test/mfcc/raw_mfcc_train.3.ark:3146809
flja0_sx268 quick_test/mfcc/raw_mfcc_train.1.ark:2503942
mdas0_si636 quick_test/mfcc/raw_mfcc_train.2.ark:2004719
mdps0_sx359 quick_test/mfcc/raw_mfcc_train.2.ark:2858632
mdlr0_sx243 quick_test/mfcc/raw_mfcc_train.2.ark:2625395
mrhl0_si2145 quick_test/mfcc/raw_mfcc_train.4.ark:812617
mdks0_sx76 quick_test/mfcc/raw_mfcc_train.2.ark:2408150
mreh1_si1599 quick_test/mfcc/raw_mfcc_train.4.ark:569931
mejs0_sx250 quick_test/mfcc/raw_mfcc_train.2.ark:3295428
fclt0_sx358 quick_test/mfcc/raw_mfcc_train.1.ark:642276
mcdd0_si883 quick_test/mfcc/raw_mfcc_train.2.ark:1547101
fljg0_si981 quick_test/mfcc/raw_mfcc_train.1.ark:2561177
msms0_sx353 quick_test/mfcc/raw_mfcc_train.4.ark:2190234
mrab0_sx54 quick_test/mfcc/raw_mfcc_train.4.ark:212845
mcew0_si2072 quick_test/mfcc/raw_mfcc_train.2.ark:1640618
mgaw0_si535 quick_test/mfcc/raw_mfcc_train.3.ark:43298
mbma1_sx324 quick_test/mfcc/raw_mfcc_train.2.ark:1271948
fblv0_si2318 quick_test/mfcc/raw_mfcc_train.1.ark:318726
mkrg0_si861 quick_test/mfcc/raw_mfcc_train.3.ark:2312106
mrbc0_si1665 quick_test/mfcc/raw_mfcc_train.4.ark:346034
mdhs0_sx360 quick_test/mfcc/raw_mfcc_train.2.ark:2338784
mbcg0_si957 quick_test/mfcc/raw_mfcc_train.2.ark:1106074
mrld0_si2224 quick_test/mfcc/raw_mfcc_train.4.ark:1062771
fkdw0_sx217 quick_test/mfcc/raw_mfcc_train.1.ark:2108535
mter0_sx257 quick_test/mfcc/raw_mfcc_train.4.ark:2629307
fcke0_sx31 quick_test/mfcc/raw_mfcc_train.1.ark:617330
maeo0_sx66 quick_test/mfcc/raw_mfcc_train.2.ark:813842
fbcg1_sx82 quick_test/mfcc/raw_mfcc_train.1.ark:235597
fbmj0_si815 quick_test/mfcc/raw_mfcc_train.1.ark:385620
mddc0_sx159 quick_test/mfcc/raw_mfcc_train.2.ark:2166404
mtjm0_sx146 quick_test/mfcc/raw_mfcc_train.4.ark:2688752
mrlj0_si2050 quick_test/mfcc/raw_mfcc_train.4.ark:1090531
mkdd0_sx307 quick_test/mfcc/raw_mfcc_train.3.ark:2033776
faem0_sx132 quick_test/mfcc/raw_mfcc_train.1.ark:13048
mklr0_sx159 quick_test/mfcc/raw_mfcc_train.3.ark:2183781
mtmt0_sx308 quick_test/mfcc/raw_mfcc_train.4.ark:2996431
mwsh0_sx346 quick_test/mfcc/raw_mfcc_train.4.ark:3763787
mfrm0_sx75 quick_test/mfcc/raw_mfcc_train.2.ark:3487227
mdef0_sx213 quick_test/mfcc/raw_mfcc_train.2.ark:2235387
mmlm0_sx177 quick_test/mfcc/raw_mfcc_train.3.ark:3157231
mrhl0_sx75 quick_test/mfcc/raw_mfcc_train.4.ark:837657
fcag0_si1503 quick_test/mfcc/raw_mfcc_train.1.ark:410713
mljh0_si1422 quick_test/mfcc/raw_mfcc_train.3.ark:2468943
fbas0_si2066 quick_test/mfcc/raw_mfcc_train.1.ark:182895
mbcg0_si486 quick_test/mfcc/raw_mfcc_train.2.ark:1103727
mdlc2_sx84 quick_test/mfcc/raw_mfcc_train.2.ark:2542552
mcdd0_sx73 quick_test/mfcc/raw_mfcc_train.2.ark:1565816
mrfl0_sx436 quick_test/mfcc/raw_mfcc_train.4.ark:727879
mmws0_si559 quick_test/mfcc/raw_mfcc_train.3.ark:3360671
fsdj0_sx125 quick_test/mfcc/raw_mfcc_train.1.ark:3775846
fljd0_si886 quick_test/mfcc/raw_mfcc_train.1.ark:2531272
mjmd0_sx38 quick_test/mfcc/raw_mfcc_train.3.ark:1316333
flkm0_sx260 quick_test/mfcc/raw_mfcc_train.1.ark:2609139
mhmg0_si1365 quick_test/mfcc/raw_mfcc_train.3.ark:387236
mmar0_sx166 quick_test/mfcc/raw_mfcc_train.3.ark:2718463
mmdm1_sx423 quick_test/mfcc/raw_mfcc_train.3.ark:2933274
mdem0_sx428 quick_test/mfcc/raw_mfcc_train.2.ark:2277395
fntb0_sx303 quick_test/mfcc/raw_mfcc_train.1.ark:3180123
fgrw0_sx432 quick_test/mfcc/raw_mfcc_train.1.ark:1498674
mjbg0_si1724 quick_test/mfcc/raw_mfcc_train.3.ark:647384
mdcm0_sx400 quick_test/mfcc/raw_mfcc_train.2.ark:2150683
fexm0_sx111 quick_test/mfcc/raw_mfcc_train.1.ark:1341058
mpfu0_sx448 quick_test/mfcc/raw_mfcc_train.3.ark:3589487
fkkh0_sx300 quick_test/mfcc/raw_mfcc_train.1.ark:2186597
mmam0_sx247 quick_test/mfcc/raw_mfcc_train.3.ark:2689254
mljh0_sx244 quick_test/mfcc/raw_mfcc_train.3.ark:2488152
mkls1_sx195 quick_test/mfcc/raw_mfcc_train.3.ark:2257905
fklc1_sx238 quick_test/mfcc/raw_mfcc_train.1.ark:2242911
mkdt0_si893 quick_test/mfcc/raw_mfcc_train.3.ark:2053181
mreh1_si2229 quick_test/mfcc/raw_mfcc_train.4.ark:576634
ftbw0_sx445 quick_test/mfcc/raw_mfcc_train.2.ark:495389
fmjb0_si547 quick_test/mfcc/raw_mfcc_train.1.ark:2895862
fmkf0_sx366 quick_test/mfcc/raw_mfcc_train.1.ark:3040761
frjb0_sx257 quick_test/mfcc/raw_mfcc_train.1.ark:3505907
fhxs0_sx355 quick_test/mfcc/raw_mfcc_train.1.ark:1570322
mtkp0_si454 quick_test/mfcc/raw_mfcc_train.4.ark:2820988
mkxl0_sx105 quick_test/mfcc/raw_mfcc_train.3.ark:2347244
mwar0_si1675 quick_test/mfcc/raw_mfcc_train.4.ark:3495398
frjb0_si1470 quick_test/mfcc/raw_mfcc_train.1.ark:3496603
mrfk0_si1076 quick_test/mfcc/raw_mfcc_train.4.ark:670175
fetb0_sx248 quick_test/mfcc/raw_mfcc_train.1.ark:1310549
mjjm0_sx107 quick_test/mfcc/raw_mfcc_train.3.ark:1121723
fjdm2_sx322 quick_test/mfcc/raw_mfcc_train.1.ark:1603920
fgmb0_sx65 quick_test/mfcc/raw_mfcc_train.1.ark:1466304
mjrp0_si1845 quick_test/mfcc/raw_mfcc_train.3.ark:1609045
mtmt0_sx38 quick_test/mfcc/raw_mfcc_train.4.ark:2999973
meal0_sx287 quick_test/mfcc/raw_mfcc_train.2.ark:3138685
mrtj0_sx52 quick_test/mfcc/raw_mfcc_train.4.ark:1580708
mdss0_si2087 quick_test/mfcc/raw_mfcc_train.2.ark:2943223
mdwm0_sx433 quick_test/mfcc/raw_mfcc_train.2.ark:3119921
mrfl0_si1156 quick_test/mfcc/raw_mfcc_train.4.ark:698872
fjen0_si1047 quick_test/mfcc/raw_mfcc_train.1.ark:1616135
mpmb0_si1501 quick_test/mfcc/raw_mfcc_train.3.ark:3688563
mcth0_si579 quick_test/mfcc/raw_mfcc_train.2.ark:1874608
mtdp0_si2151 quick_test/mfcc/raw_mfcc_train.4.ark:2577906
feme0_sx65 quick_test/mfcc/raw_mfcc_train.1.ark:1291376
mdef0_sx393 quick_test/mfcc/raw_mfcc_train.2.ark:2245287
mrfl0_sx346 quick_test/mfcc/raw_mfcc_train.4.ark:722854
fhlm0_sx210 quick_test/mfcc/raw_mfcc_train.1.ark:1523261
mtkp0_sx393 quick_test/mfcc/raw_mfcc_train.4.ark:2840886
msrg0_sx411 quick_test/mfcc/raw_mfcc_train.4.ark:2224319
mtjm0_sx326 quick_test/mfcc/raw_mfcc_train.4.ark:2694954
mrlk0_sx303 quick_test/mfcc/raw_mfcc_train.4.ark:1167010
fdmy0_sx387 quick_test/mfcc/raw_mfcc_train.1.ark:1014759
mhmg0_si1995 quick_test/mfcc/raw_mfcc_train.3.ark:390897
mrav0_sx198 quick_test/mfcc/raw_mfcc_train.4.ark:335495
mjda0_sx221 quick_test/mfcc/raw_mfcc_train.3.ark:687569
fsma0_si991 quick_test/mfcc/raw_mfcc_train.2.ark:215431
mtju0_si2020 quick_test/mfcc/raw_mfcc_train.4.ark:2743873
fcmg0_sx342 quick_test/mfcc/raw_mfcc_train.1.ark:675276
mtrt0_si597 quick_test/mfcc/raw_mfcc_train.4.ark:3249104
mcth0_sx219 quick_test/mfcc/raw_mfcc_train.2.ark:1883020
mtat1_sx419 quick_test/mfcc/raw_mfcc_train.4.ark:2464111
mjrh0_si1840 quick_test/mfcc/raw_mfcc_train.3.ark:1520429
fvfb0_si2292 quick_test/mfcc/raw_mfcc_train.2.ark:576860
mtat1_sx329 quick_test/mfcc/raw_mfcc_train.4.ark:2458254
mreh1_si969 quick_test/mfcc/raw_mfcc_train.4.ark:579202
mdtb0_si570 quick_test/mfcc/raw_mfcc_train.2.ark:3001389
fcaj0_sx219 quick_test/mfcc/raw_mfcc_train.1.ark:452881
mtdb0_sx51 quick_test/mfcc/raw_mfcc_train.4.ark:2565532
mkrg0_sx141 quick_test/mfcc/raw_mfcc_train.3.ark:2317781
fsrh0_si1931 quick_test/mfcc/raw_mfcc_train.2.ark:348161
mcae0_si1447 quick_test/mfcc/raw_mfcc_train.2.ark:1436625
mpsw0_sx77 quick_test/mfcc/raw_mfcc_train.4.ark:181211
mtrr0_sx108 quick_test/mfcc/raw_mfcc_train.4.ark:3218101
fhxs0_sx85 quick_test/mfcc/raw_mfcc_train.1.ark:1577329
mkjo0_sx437 quick_test/mfcc/raw_mfcc_train.3.ark:2134417
mtab0_si1572 quick_test/mfcc/raw_mfcc_train.4.ark:2339071
msms0_sx173 quick_test/mfcc/raw_mfcc_train.4.ark:2182472
fpls0_sx330 quick_test/mfcc/raw_mfcc_train.1.ark:3418558
fvkb0_sx259 quick_test/mfcc/raw_mfcc_train.2.ark:610796
frll0_sx344 quick_test/mfcc/raw_mfcc_train.1.ark:3544502
mrgs0_sx186 quick_test/mfcc/raw_mfcc_train.4.ark:788942
mjeb1_si2097 quick_test/mfcc/raw_mfcc_train.3.ark:881772
mfxs0_sx144 quick_test/mfcc/raw_mfcc_train.2.ark:3530774
fceg0_sx348 quick_test/mfcc/raw_mfcc_train.1.ark:525672
mstf0_sx226 quick_test/mfcc/raw_mfcc_train.4.ark:2282293
fjsk0_sx152 quick_test/mfcc/raw_mfcc_train.1.ark:1867200
mfer0_sx232 quick_test/mfcc/raw_mfcc_train.2.ark:3411172
marw0_si1906 quick_test/mfcc/raw_mfcc_train.2.ark:1007941
mrlr0_sx116 quick_test/mfcc/raw_mfcc_train.4.ark:1190180
mjpg0_sx21 quick_test/mfcc/raw_mfcc_train.3.ark:1373653
fceg0_sx168 quick_test/mfcc/raw_mfcc_train.1.ark:519704
mrpc1_sx42 quick_test/mfcc/raw_mfcc_train.4.ark:1395238
mgsh0_sx96 quick_test/mfcc/raw_mfcc_train.3.ark:223887
fsdc0_si1942 quick_test/mfcc/raw_mfcc_train.1.ark:3739465
feac0_sx255 quick_test/mfcc/raw_mfcc_train.1.ark:1138820
mjls0_si1726 quick_test/mfcc/raw_mfcc_train.3.ark:1236429
mtrt0_sx57 quick_test/mfcc/raw_mfcc_train.4.ark:3265336
makb0_si1646 quick_test/mfcc/raw_mfcc_train.2.ark:888086
msds0_si1077 quick_test/mfcc/raw_mfcc_train.4.ark:1883292
mbsb0_sx183 quick_test/mfcc/raw_mfcc_train.2.ark:1356126
feac0_si1245 quick_test/mfcc/raw_mfcc_train.1.ark:1120838
fajw0_si1263 quick_test/mfcc/raw_mfcc_train.1.ark:32804
mdrd0_sx122 quick_test/mfcc/raw_mfcc_train.2.ark:2885338
mlel0_sx166 quick_test/mfcc/raw_mfcc_train.3.ark:2408822
mbgt0_sx351 quick_test/mfcc/raw_mfcc_train.2.ark:1178840
fkkh0_si660 quick_test/mfcc/raw_mfcc_train.1.ark:2172088
mklw0_sx41 quick_test/mfcc/raw_mfcc_train.3.ark:2297419
mwrp0_si2073 quick_test/mfcc/raw_mfcc_train.4.ark:3687268
fdkn0_sx91 quick_test/mfcc/raw_mfcc_train.1.ark:943808
mgaw0_si1165 quick_test/mfcc/raw_mfcc_train.3.ark:32441
fdxw0_sx161 quick_test/mfcc/raw_mfcc_train.1.ark:1102330
mrmb0_sx411 quick_test/mfcc/raw_mfcc_train.4.ark:1230402
mdlr1_si1299 quick_test/mfcc/raw_mfcc_train.2.ark:2643493
mefg0_si465 quick_test/mfcc/raw_mfcc_train.2.ark:3178439
mjjj0_sx353 quick_test/mfcc/raw_mfcc_train.3.ark:1094757
mprt0_sx220 quick_test/mfcc/raw_mfcc_train.4.ark:143889
fsgf0_sx387 quick_test/mfcc/raw_mfcc_train.1.ark:3820572
mrjm1_sx38 quick_test/mfcc/raw_mfcc_train.4.ark:975393
fsls0_sx66 quick_test/mfcc/raw_mfcc_train.2.ark:205294
mcxm0_sx451 quick_test/mfcc/raw_mfcc_train.2.ark:1953933
mhit0_sx263 quick_test/mfcc/raw_mfcc_train.3.ark:346629
mtju0_sx400 quick_test/mfcc/raw_mfcc_train.4.ark:2770702
mjde0_si1120 quick_test/mfcc/raw_mfcc_train.3.ark:733960
mhjb0_sx117 quick_test/mfcc/raw_mfcc_train.3.ark:373564
mdks0_si1696 quick_test/mfcc/raw_mfcc_train.2.ark:2382797
mdma0_sx80 quick_test/mfcc/raw_mfcc_train.2.ark:2712981
mlbc0_sx339 quick_test/mfcc/raw_mfcc_train.3.ark:2384144
mtat1_si1409 quick_test/mfcc/raw_mfcc_train.4.ark:2435000
mclm0_si1456 quick_test/mfcc/raw_mfcc_train.2.ark:1743625
fpac0_sx31 quick_test/mfcc/raw_mfcc_train.1.ark:3256111
fblv0_si1058 quick_test/mfcc/raw_mfcc_train.1.ark:307452
mhmg0_sx375 quick_test/mfcc/raw_mfcc_train.3.ark:413051
mjls0_sx376 quick_test/mfcc/raw_mfcc_train.3.ark:1261508
fcag0_sx63 quick_test/mfcc/raw_mfcc_train.1.ark:436542
fsak0_si670 quick_test/mfcc/raw_mfcc_train.1.ark:3636146
fmjf0_sx84 quick_test/mfcc/raw_mfcc_train.1.ark:2946885
mjde0_sx40 quick_test/mfcc/raw_mfcc_train.3.ark:767320
mctm0_sx180 quick_test/mfcc/raw_mfcc_train.2.ark:1912671
fpac0_sx211 quick_test/mfcc/raw_mfcc_train.1.ark:3247323
mejl0_sx332 quick_test/mfcc/raw_mfcc_train.2.ark:3265946
mdpb0_si866 quick_test/mfcc/raw_mfcc_train.2.ark:2788271
flhd0_si1344 quick_test/mfcc/raw_mfcc_train.1.ark:2455936
fsms1_sx347 quick_test/mfcc/raw_mfcc_train.2.ark:301672
fpjf0_si1046 quick_test/mfcc/raw_mfcc_train.1.ark:3365120
mjac0_sx431 quick_test/mfcc/raw_mfcc_train.3.ark:568832
mmbs0_si1781 quick_test/mfcc/raw_mfcc_train.3.ark:2747691
mejl0_si1654 quick_test/mfcc/raw_mfcc_train.2.ark:3252385
mses0_sx419 quick_test/mfcc/raw_mfcc_train.4.ark:1987503
mesj0_si2257 quick_test/mfcc/raw_mfcc_train.2.ark:3347573
mbar0_sx419 quick_test/mfcc/raw_mfcc_train.2.ark:1063218
fceg0_sx78 quick_test/mfcc/raw_mfcc_train.1.ark:534512
mgaf0_sx22 quick_test/mfcc/raw_mfcc_train.2.ark:3602285
mrre0_sx434 quick_test/mfcc/raw_mfcc_train.4.ark:1427931
fsgf0_sx27 quick_test/mfcc/raw_mfcc_train.1.ark:3814734
mmgc0_sx315 quick_test/mfcc/raw_mfcc_train.3.ark:3044826
mkls0_si1437 quick_test/mfcc/raw_mfcc_train.3.ark:2201613
msfh0_sx136 quick_test/mfcc/raw_mfcc_train.4.ark:2009431
mrem0_si511 quick_test/mfcc/raw_mfcc_train.4.ark:611400
msmc0_si509 quick_test/mfcc/raw_mfcc_train.4.ark:2107451
fblv0_sx68 quick_test/mfcc/raw_mfcc_train.1.ark:338884
fsms1_sx64 quick_test/mfcc/raw_mfcc_train.2.ark:306956
fmmh0_si1537 quick_test/mfcc/raw_mfcc_train.1.ark:3053468
fvkb0_si1789 quick_test/mfcc/raw_mfcc_train.2.ark:599868
mkdb0_si872 quick_test/mfcc/raw_mfcc_train.3.ark:1986625
fmpg0_sx72 quick_test/mfcc/raw_mfcc_train.1.ark:3124253
fsak0_sx400 quick_test/mfcc/raw_mfcc_train.1.ark:3655706
mgar0_sx42 quick_test/mfcc/raw_mfcc_train.3.ark:29222
mntw0_sx202 quick_test/mfcc/raw_mfcc_train.3.ark:3492283
fsjw0_si1333 quick_test/mfcc/raw_mfcc_train.2.ark:49120
mprd0_sx171 quick_test/mfcc/raw_mfcc_train.4.ark:68954
meal0_sx347 quick_test/mfcc/raw_mfcc_train.2.ark:3142202
fcjs0_si2237 quick_test/mfcc/raw_mfcc_train.1.ark:565161
mjma0_si2125 quick_test/mfcc/raw_mfcc_train.3.ark:1269519
mmab1_si864 quick_test/mfcc/raw_mfcc_train.3.ark:2610267
mmag0_si1126 quick_test/mfcc/raw_mfcc_train.3.ark:2639403
mrtj0_sx412 quick_test/mfcc/raw_mfcc_train.4.ark:1576399
fsbk0_sx169 quick_test/mfcc/raw_mfcc_train.1.ark:3669712
mjfh0_sx27 quick_test/mfcc/raw_mfcc_train.3.ark:960017
fljd0_sx166 quick_test/mfcc/raw_mfcc_train.1.ark:2533853
mtqc0_si1441 quick_test/mfcc/raw_mfcc_train.4.ark:3133752
mbom0_sx114 quick_test/mfcc/raw_mfcc_train.2.ark:1327104
mtxs0_sx70 quick_test/mfcc/raw_mfcc_train.4.ark:3332362
mjls0_sx16 quick_test/mfcc/raw_mfcc_train.3.ark:1250632
mkaj0_si2044 quick_test/mfcc/raw_mfcc_train.3.ark:1919801
fpac0_si661 quick_test/mfcc/raw_mfcc_train.1.ark:3236870
fsgf0_sx117 quick_test/mfcc/raw_mfcc_train.1.ark:3808273
mdlc0_si765 quick_test/mfcc/raw_mfcc_train.2.ark:2464494
mkaj0_sx154 quick_test/mfcc/raw_mfcc_train.3.ark:1928694
mwar0_sx145 quick_test/mfcc/raw_mfcc_train.4.ark:3502199
mjac0_si2148 quick_test/mfcc/raw_mfcc_train.3.ark:548153
mwrp0_si1443 quick_test/mfcc/raw_mfcc_train.4.ark:3678282
mwsh0_si796 quick_test/mfcc/raw_mfcc_train.4.ark:3747789
mkdt0_sx173 quick_test/mfcc/raw_mfcc_train.3.ark:2057101
fcke0_si1111 quick_test/mfcc/raw_mfcc_train.1.ark:593043
fclt0_si808 quick_test/mfcc/raw_mfcc_train.1.ark:627747
mkdb0_si588 quick_test/mfcc/raw_mfcc_train.3.ark:1983524
mbma1_sx54 quick_test/mfcc/raw_mfcc_train.2.ark:1281802
makr0_sx272 quick_test/mfcc/raw_mfcc_train.2.ark:930480
flkm0_sx116 quick_test/mfcc/raw_mfcc_train.1.ark:2605739
mjra0_sx66 quick_test/mfcc/raw_mfcc_train.3.ark:1477019
mdlc2_sx264 quick_test/mfcc/raw_mfcc_train.2.ark:2532431
mtkd0_sx377 quick_test/mfcc/raw_mfcc_train.4.ark:2805924
mpgr0_sx150 quick_test/mfcc/raw_mfcc_train.3.ark:3637978
fjsk0_sx62 quick_test/mfcc/raw_mfcc_train.1.ark:1884517
mrgs0_sx6 quick_test/mfcc/raw_mfcc_train.4.ark:801311
fdjh0_sx35 quick_test/mfcc/raw_mfcc_train.1.ark:903508
mmam0_sx67 quick_test/mfcc/raw_mfcc_train.3.ark:2699934
mjws0_si1143 quick_test/mfcc/raw_mfcc_train.3.ark:1714715
mtab0_sx402 quick_test/mfcc/raw_mfcc_train.4.ark:2369833
fhlm0_si1560 quick_test/mfcc/raw_mfcc_train.1.ark:1507827
flkm0_si1880 quick_test/mfcc/raw_mfcc_train.1.ark:2592094
fdjh0_sx215 quick_test/mfcc/raw_mfcc_train.1.ark:896215
fjkl0_sx122 quick_test/mfcc/raw_mfcc_train.1.ark:1696249
fblv0_sx338 quick_test/mfcc/raw_mfcc_train.1.ark:329771
msem1_sx270 quick_test/mfcc/raw_mfcc_train.4.ark:1948067
mprb0_sx125 quick_test/mfcc/raw_mfcc_train.4.ark:32679
msrr0_sx231 quick_test/mfcc/raw_mfcc_train.4.ark:2251376
mmcc0_sx78 quick_test/mfcc/raw_mfcc_train.3.ark:2809864
freh0_sx55 quick_test/mfcc/raw_mfcc_train.1.ark:3489229
mdlm0_si1864 quick_test/mfcc/raw_mfcc_train.2.ark:2584965
mmjb1_si1408 quick_test/mfcc/raw_mfcc_train.3.ark:3112796
mwgr0_sx346 quick_test/mfcc/raw_mfcc_train.4.ark:3634146
fscn0_si1886 quick_test/mfcc/raw_mfcc_train.1.ark:3695279
mrjm1_sx218 quick_test/mfcc/raw_mfcc_train.4.ark:966917
fljg0_sx351 quick_test/mfcc/raw_mfcc_train.1.ark:2577292
freh0_si1315 quick_test/mfcc/raw_mfcc_train.1.ark:3464012
mmar0_sx346 quick_test/mfcc/raw_mfcc_train.3.ark:2730255
msms0_sx263 quick_test/mfcc/raw_mfcc_train.4.ark:2187081
mpar0_si2206 quick_test/mfcc/raw_mfcc_train.3.ark:3510155
mmeb0_sx97 quick_test/mfcc/raw_mfcc_train.3.ark:3021849
mdps0_sx89 quick_test/mfcc/raw_mfcc_train.2.ark:2867641
fgcs0_sx46 quick_test/mfcc/raw_mfcc_train.1.ark:1391700
mjac0_sx71 quick_test/mfcc/raw_mfcc_train.3.ark:573180
msrg0_si1851 quick_test/mfcc/raw_mfcc_train.4.ark:2206435
mfxs0_si2225 quick_test/mfcc/raw_mfcc_train.2.ark:3525130
mjhi0_si1328 quick_test/mfcc/raw_mfcc_train.3.ark:1004127
fcyl0_si1297 quick_test/mfcc/raw_mfcc_train.1.ark:750083
fpac0_sx391 quick_test/mfcc/raw_mfcc_train.1.ark:3258978
mcae0_sx187 quick_test/mfcc/raw_mfcc_train.2.ark:1456784
flet0_sx417 quick_test/mfcc/raw_mfcc_train.1.ark:2448382
flag0_sx294 quick_test/mfcc/raw_mfcc_train.1.ark:2383461
mhxl0_si512 quick_test/mfcc/raw_mfcc_train.3.ark:485057
mkls1_si915 quick_test/mfcc/raw_mfcc_train.3.ark:2244573
falk0_si658 quick_test/mfcc/raw_mfcc_train.1.ark:76033
mprb0_sx215 quick_test/mfcc/raw_mfcc_train.4.ark:36378
fscn0_si705 quick_test/mfcc/raw_mfcc_train.1.ark:3703041
fgcs0_sx316 quick_test/mfcc/raw_mfcc_train.1.ark:1384316
mtrr0_si918 quick_test/mfcc/raw_mfcc_train.4.ark:3212621
mrhl0_sx255 quick_test/mfcc/raw_mfcc_train.4.ark:826431
fcdr1_sx16 quick_test/mfcc/raw_mfcc_train.1.ark:493055
mrml0_sx161 quick_test/mfcc/raw_mfcc_train.4.ark:1314963
mded0_si1800 quick_test/mfcc/raw_mfcc_train.2.ark:2187858
fdfb0_sx328 quick_test/mfcc/raw_mfcc_train.1.ark:868280
mtwh1_sx342 quick_test/mfcc/raw_mfcc_train.4.ark:3286258
fjrb0_sx312 quick_test/mfcc/raw_mfcc_train.1.ark:1798888
mkls0_sx177 quick_test/mfcc/raw_mfcc_train.3.ark:2217314
mdtb0_sx321 quick_test/mfcc/raw_mfcc_train.2.ark:3015717
mtlb0_sx54 quick_test/mfcc/raw_mfcc_train.4.ark:2872520
fsah0_sx327 quick_test/mfcc/raw_mfcc_train.1.ark:3611208
msvs0_sx128 quick_test/mfcc/raw_mfcc_train.4.ark:2315532
mbma1_sx414 quick_test/mfcc/raw_mfcc_train.2.ark:1277870
msat1_sx353 quick_test/mfcc/raw_mfcc_train.4.ark:1815829
mcxm0_sx181 quick_test/mfcc/raw_mfcc_train.2.ark:1942329
feeh0_sx302 quick_test/mfcc/raw_mfcc_train.1.ark:1247301
mmxs0_sx246 quick_test/mfcc/raw_mfcc_train.3.ark:3428496
fcaj0_sx129 quick_test/mfcc/raw_mfcc_train.1.ark:449013
mwgr0_si1606 quick_test/mfcc/raw_mfcc_train.4.ark:3614077
fcyl0_sx397 quick_test/mfcc/raw_mfcc_train.1.ark:779681
mdjm0_sx105 quick_test/mfcc/raw_mfcc_train.2.ark:2363514
mdcd0_si2045 quick_test/mfcc/raw_mfcc_train.2.ark:2094048
mejs0_sx340 quick_test/mfcc/raw_mfcc_train.2.ark:3299179
fmkc0_sx82 quick_test/mfcc/raw_mfcc_train.1.ark:3015627
mmcc0_si1968 quick_test/mfcc/raw_mfcc_train.3.ark:2786748
mewm0_sx358 quick_test/mfcc/raw_mfcc_train.2.ark:3387540
mtkd0_si1817 quick_test/mfcc/raw_mfcc_train.4.ark:2778219
mjwt0_sx121 quick_test/mfcc/raw_mfcc_train.3.ark:1765923
mrav0_si2268 quick_test/mfcc/raw_mfcc_train.4.ark:323892
mcre0_sx401 quick_test/mfcc/raw_mfcc_train.2.ark:1824720
mtlb0_sx414 quick_test/mfcc/raw_mfcc_train.4.ark:2868679
fvmh0_si836 quick_test/mfcc/raw_mfcc_train.2.ark:639166
mjee0_si1867 quick_test/mfcc/raw_mfcc_train.3.ark:914875
mdbb1_sx196 quick_test/mfcc/raw_mfcc_train.2.ark:2044145
mdps0_si1979 quick_test/mfcc/raw_mfcc_train.2.ark:2843823
mjlb0_sx446 quick_test/mfcc/raw_mfcc_train.3.ark:1195724
mcss0_sx390 quick_test/mfcc/raw_mfcc_train.2.ark:1863067
fajw0_si1893 quick_test/mfcc/raw_mfcc_train.1.ark:39403
fcyl0_si1927 quick_test/mfcc/raw_mfcc_train.1.ark:754199
mdlc0_sx45 quick_test/mfcc/raw_mfcc_train.2.ark:2482702
mwad0_si2322 quick_test/mfcc/raw_mfcc_train.4.ark:3470206
mwsb0_si1626 quick_test/mfcc/raw_mfcc_train.4.ark:3710084
msmr0_si775 quick_test/mfcc/raw_mfcc_train.4.ark:2147490
mfwk0_sx439 quick_test/mfcc/raw_mfcc_train.2.ark:3513590
mbgt0_sx171 quick_test/mfcc/raw_mfcc_train.2.ark:1169661
mppc0_si1412 quick_test/mfcc/raw_mfcc_train.3.ark:3743415
fbmj0_si516 quick_test/mfcc/raw_mfcc_train.1.ark:379841
frjb0_si1794 quick_test/mfcc/raw_mfcc_train.1.ark:3498639
msah1_sx149 quick_test/mfcc/raw_mfcc_train.4.ark:1715621
mrjb1_sx390 quick_test/mfcc/raw_mfcc_train.4.ark:873764
mbar0_sx59 quick_test/mfcc/raw_mfcc_train.2.ark:1067137
fsag0_sx63 quick_test/mfcc/raw_mfcc_train.1.ark:3588161
fkde0_sx151 quick_test/mfcc/raw_mfcc_train.1.ark:2068093
fsak0_sx40 quick_test/mfcc/raw_mfcc_train.1.ark:3651851
mrjb1_sx120 quick_test/mfcc/raw_mfcc_train.4.ark:858566
mrbc0_sx59 quick_test/mfcc/raw_mfcc_train.4.ark:374592
mdsj0_sx22 quick_test/mfcc/raw_mfcc_train.2.ark:2923608
mrso0_sx399 quick_test/mfcc/raw_mfcc_train.4.ark:1471324
mrso0_sx39 quick_test/mfcc/raw_mfcc_train.4.ark:1467183
fbas0_si1387 quick_test/mfcc/raw_mfcc_train.1.ark:172245
fsjs0_si1801 quick_test/mfcc/raw_mfcc_train.2.ark:17143
mgxp0_si457 quick_test/mfcc/raw_mfcc_train.3.ark:270316
mmws0_sx348 quick_test/mfcc/raw_mfcc_train.3.ark:3374960
mrlj1_si1671 quick_test/mfcc/raw_mfcc_train.4.ark:1115774
mdlh0_si1960 quick_test/mfcc/raw_mfcc_train.2.ark:2546564
mrws0_si1732 quick_test/mfcc/raw_mfcc_train.4.ark:1651324
mjma0_sx145 quick_test/mfcc/raw_mfcc_train.3.ark:1279998
mdns0_sx291 quick_test/mfcc/raw_mfcc_train.2.ark:2771601
mdcm0_si2110 quick_test/mfcc/raw_mfcc_train.2.ark:2127762
mbml0_sx359 quick_test/mfcc/raw_mfcc_train.2.ark:1303881
mtbc0_si1173 quick_test/mfcc/raw_mfcc_train.4.ark:2472198
fcjs0_sx77 quick_test/mfcc/raw_mfcc_train.1.ark:589083
mmvp0_sx347 quick_test/mfcc/raw_mfcc_train.3.ark:3303860
fcrz0_sx433 quick_test/mfcc/raw_mfcc_train.1.ark:742282
mrfl0_sx76 quick_test/mfcc/raw_mfcc_train.4.ark:730940
fpac0_si2011 quick_test/mfcc/raw_mfcc_train.1.ark:3233990
fbch0_si956 quick_test/mfcc/raw_mfcc_train.1.ark:244075
fpaf0_sx64 quick_test/mfcc/raw_mfcc_train.1.ark:3327148
mjdm0_sx440 quick_test/mfcc/raw_mfcc_train.3.ark:835673
mnet0_sx96 quick_test/mfcc/raw_mfcc_train.3.ark:3469378
mjlb0_sx176 quick_test/mfcc/raw_mfcc_train.3.ark:1184107
fjsp0_sx354 quick_test/mfcc/raw_mfcc_train.1.ark:1908013
mrjh0_si1519 quick_test/mfcc/raw_mfcc_train.4.ark:878595
mses0_si2216 quick_test/mfcc/raw_mfcc_train.4.ark:1969605
mrdd0_si1050 quick_test/mfcc/raw_mfcc_train.4.ark:445980
mmwb0_sx359 quick_test/mfcc/raw_mfcc_train.3.ark:3340012
mpgr0_sx330 quick_test/mfcc/raw_mfcc_train.3.ark:3643855
fbjl0_si1552 quick_test/mfcc/raw_mfcc_train.1.ark:274856
fdkn0_sx181 quick_test/mfcc/raw_mfcc_train.1.ark:924216
mtpp0_sx158 quick_test/mfcc/raw_mfcc_train.4.ark:3079606
marc0_sx18 quick_test/mfcc/raw_mfcc_train.2.ark:990614
mjsr0_sx254 quick_test/mfcc/raw_mfcc_train.3.ark:1659498
mtat0_sx120 quick_test/mfcc/raw_mfcc_train.4.ark:2418637
mtjg0_sx440 quick_test/mfcc/raw_mfcc_train.4.ark:2666109
mmaa0_si1588 quick_test/mfcc/raw_mfcc_train.3.ark:2570220
mjae0_si2154 quick_test/mfcc/raw_mfcc_train.3.ark:584215
ftmg0_sx452 quick_test/mfcc/raw_mfcc_train.2.ark:559670
mkam0_sx416 quick_test/mfcc/raw_mfcc_train.3.ark:1971894
mmds0_sx263 quick_test/mfcc/raw_mfcc_train.3.ark:2955586
fsls0_sx156 quick_test/mfcc/raw_mfcc_train.2.ark:190096
megj0_sx437 quick_test/mfcc/raw_mfcc_train.2.ark:3239480
mtas0_sx35 quick_test/mfcc/raw_mfcc_train.4.ark:2396682
mdhs0_sx270 quick_test/mfcc/raw_mfcc_train.2.ark:2335761
fjsp0_si804 quick_test/mfcc/raw_mfcc_train.1.ark:1895707
mhmg0_sx15 quick_test/mfcc/raw_mfcc_train.3.ark:403670
fvkb0_sx439 quick_test/mfcc/raw_mfcc_train.2.ark:621730
mhxl0_sx242 quick_test/mfcc/raw_mfcc_train.3.ark:496752
mvrw0_si855 quick_test/mfcc/raw_mfcc_train.4.ark:3405325
mfrm0_sx345 quick_test/mfcc/raw_mfcc_train.2.ark:3478959
mrsp0_sx259 quick_test/mfcc/raw_mfcc_train.4.ark:1497316
mjjb0_sx419 quick_test/mfcc/raw_mfcc_train.3.ark:1062454
msas0_sx296 quick_test/mfcc/raw_mfcc_train.4.ark:1763330
mjkr0_sx301 quick_test/mfcc/raw_mfcc_train.3.ark:1161327
fjkl0_sx302 quick_test/mfcc/raw_mfcc_train.1.ark:1705597
fbjl0_sx382 quick_test/mfcc/raw_mfcc_train.1.ark:303245
fdtd0_sx301 quick_test/mfcc/raw_mfcc_train.1.ark:1077989
mjra0_sx426 quick_test/mfcc/raw_mfcc_train.3.ark:1472593
mwac0_sx251 quick_test/mfcc/raw_mfcc_train.4.ark:3444864
mdac0_sx361 quick_test/mfcc/raw_mfcc_train.2.ark:1984247
marw0_sx349 quick_test/mfcc/raw_mfcc_train.2.ark:1027319
mlns0_sx57 quick_test/mfcc/raw_mfcc_train.3.ark:2532936
mram0_sx195 quick_test/mfcc/raw_mfcc_train.4.ark:306278
fpjf0_sx236 quick_test/mfcc/raw_mfcc_train.1.ark:3380984
mrab1_si848 quick_test/mfcc/raw_mfcc_train.4.ark:224646
mclk0_sx310 quick_test/mfcc/raw_mfcc_train.2.ark:1733178
fjlg0_sx89 quick_test/mfcc/raw_mfcc_train.1.ark:1744889
mmbs0_sx251 quick_test/mfcc/raw_mfcc_train.3.ark:2762428
fkfb0_si978 quick_test/mfcc/raw_mfcc_train.1.ark:2130210
mjjm0_sx197 quick_test/mfcc/raw_mfcc_train.3.ark:1127365
fpjf0_sx352 quick_test/mfcc/raw_mfcc_train.1.ark:3387342
mdcd0_sx155 quick_test/mfcc/raw_mfcc_train.2.ark:2103266
mppc0_sx242 quick_test/mfcc/raw_mfcc_train.4.ark:12
mkaj0_si784 quick_test/mfcc/raw_mfcc_train.3.ark:1925034
fmpg0_sx252 quick_test/mfcc/raw_mfcc_train.1.ark:3107853
mtat0_sx300 quick_test/mfcc/raw_mfcc_train.4.ark:2428238
mvjh0_sx386 quick_test/mfcc/raw_mfcc_train.4.ark:3362371
mmlm0_sx357 quick_test/mfcc/raw_mfcc_train.3.ark:3164031
fceg0_si1878 quick_test/mfcc/raw_mfcc_train.1.ark:514620
mdlc1_si2065 quick_test/mfcc/raw_mfcc_train.2.ark:2492871
mdtb0_si1200 quick_test/mfcc/raw_mfcc_train.2.ark:2995914
fsgf0_si1557 quick_test/mfcc/raw_mfcc_train.1.ark:3792079
fdfb0_sx418 quick_test/mfcc/raw_mfcc_train.1.ark:871979
mkls1_sx375 quick_test/mfcc/raw_mfcc_train.3.ark:2263938
mdss1_sx157 quick_test/mfcc/raw_mfcc_train.2.ark:2978043
mcdr0_sx344 quick_test/mfcc/raw_mfcc_train.2.ark:1595370
fjwb1_si748 quick_test/mfcc/raw_mfcc_train.1.ark:1923498
mtwh1_si2142 quick_test/mfcc/raw_mfcc_train.4.ark:3273438
fskp0_sx378 quick_test/mfcc/raw_mfcc_train.2.ark:172489
frll0_si884 quick_test/mfcc/raw_mfcc_train.1.ark:3532183
fjxm0_si581 quick_test/mfcc/raw_mfcc_train.1.ark:1957336
fklc1_si1678 quick_test/mfcc/raw_mfcc_train.1.ark:2234153
fcmm0_sx93 quick_test/mfcc/raw_mfcc_train.1.ark:716595
mprd0_si1431 quick_test/mfcc/raw_mfcc_train.4.ark:54060
fscn0_sx356 quick_test/mfcc/raw_mfcc_train.1.ark:3721106
mljc0_si1855 quick_test/mfcc/raw_mfcc_train.3.ark:2439181
mtcs0_sx352 quick_test/mfcc/raw_mfcc_train.4.ark:2522575
fmjf0_sx354 quick_test/mfcc/raw_mfcc_train.1.ark:2938877
mjhi0_si698 quick_test/mfcc/raw_mfcc_train.3.ark:1013410
mjrg0_si1996 quick_test/mfcc/raw_mfcc_train.3.ark:1484536
fmem0_sx387 quick_test/mfcc/raw_mfcc_train.1.ark:2879771
mrav0_sx18 quick_test/mfcc/raw_mfcc_train.4.ark:332420
mdns0_si2271 quick_test/mfcc/raw_mfcc_train.2.ark:2752587
mmrp0_sx144 quick_test/mfcc/raw_mfcc_train.3.ark:3217041
ftbw0_si1345 quick_test/mfcc/raw_mfcc_train.2.ark:469905
mbef0_si1911 quick_test/mfcc/raw_mfcc_train.2.ark:1134776
ftbw0_sx265 quick_test/mfcc/raw_mfcc_train.2.ark:488277
mrxb0_sx235 quick_test/mfcc/raw_mfcc_train.4.ark:1692144
mdwd0_si1890 quick_test/mfcc/raw_mfcc_train.2.ark:3029351
fgrw0_si1152 quick_test/mfcc/raw_mfcc_train.1.ark:1470030
mkrg0_sx31 quick_test/mfcc/raw_mfcc_train.3.ark:2323579
mmds0_si1343 quick_test/mfcc/raw_mfcc_train.3.ark:2941972
mjjm0_si827 quick_test/mfcc/raw_mfcc_train.3.ark:1117439
mmeb0_sx187 quick_test/mfcc/raw_mfcc_train.3.ark:3006887
mrbc0_sx329 quick_test/mfcc/raw_mfcc_train.4.ark:365427
mkls0_sx87 quick_test/mfcc/raw_mfcc_train.3.ark:2233604
mvlo0_sx157 quick_test/mfcc/raw_mfcc_train.4.ark:3378378
mjhi0_sx338 quick_test/mfcc/raw_mfcc_train.3.ark:1023974
mcdr0_sx434 quick_test/mfcc/raw_mfcc_train.2.ark:1598770
mtdb0_sx231 quick_test/mfcc/raw_mfcc_train.4.ark:2554995
mgag0_si691 quick_test/mfcc/raw_mfcc_train.2.ark:3620014
mtju0_si2269 quick_test/mfcc/raw_mfcc_train.4.ark:2749406
mbef0_sx111 quick_test/mfcc/raw_mfcc_train.2.ark:1143084
fjlr0_sx61 quick_test/mfcc/raw_mfcc_train.1.ark:1776640
mrld0_sx334 quick_test/mfcc/raw_mfcc_train.4.ark:1077021
mrfl0_si1786 quick_test/mfcc/raw_mfcc_train.4.ark:705055
mjdc0_si531 quick_test/mfcc/raw_mfcc_train.3.ark:709582
fsag0_si693 quick_test/mfcc/raw_mfcc_train.1.ark:3561321
marw0_si1276 quick_test/mfcc/raw_mfcc_train.2.ark:1004072
fpad0_si716 quick_test/mfcc/raw_mfcc_train.1.ark:3270220
mkah0_sx268 quick_test/mfcc/raw_mfcc_train.3.ark:1900707
mclk0_sx40 quick_test/mfcc/raw_mfcc_train.2.ark:1736291
mtrt0_si1227 quick_test/mfcc/raw_mfcc_train.4.ark:3238091
mjrp0_sx45 quick_test/mfcc/raw_mfcc_train.3.ark:1632954
fgrw0_si1990 quick_test/mfcc/raw_mfcc_train.1.ark:1481824
mree0_sx294 quick_test/mfcc/raw_mfcc_train.4.ark:563442
fgcs0_sx136 quick_test/mfcc/raw_mfcc_train.1.ark:1375163
mmsm0_sx386 quick_test/mfcc/raw_mfcc_train.3.ark:3271491
fclt0_si2068 quick_test/mfcc/raw_mfcc_train.1.ark:625920
mtlc0_sx37 quick_test/mfcc/raw_mfcc_train.4.ark:2899415
maeo0_si1326 quick_test/mfcc/raw_mfcc_train.2.ark:785101
fhlm0_sx349 quick_test/mfcc/raw_mfcc_train.1.ark:1531023
mtpf0_si605 quick_test/mfcc/raw_mfcc_train.4.ark:3015824
mtmn0_sx254 quick_test/mfcc/raw_mfcc_train.4.ark:2962827
mhmr0_sx309 quick_test/mfcc/raw_mfcc_train.3.ark:439576
mrgm0_sx416 quick_test/mfcc/raw_mfcc_train.4.ark:760234
fapb0_si1063 quick_test/mfcc/raw_mfcc_train.1.ark:131783
mfmc0_sx52 quick_test/mfcc/raw_mfcc_train.2.ark:3455085
mrem0_sx241 quick_test/mfcc/raw_mfcc_train.4.ark:624460
makr0_sx92 quick_test/mfcc/raw_mfcc_train.2.ark:939938
mjlg1_sx22 quick_test/mfcc/raw_mfcc_train.3.ark:1220955
fdnc0_sx108 quick_test/mfcc/raw_mfcc_train.1.ark:1035941
msvs0_si2198 quick_test/mfcc/raw_mfcc_train.4.ark:2302349
flma0_si1873 quick_test/mfcc/raw_mfcc_train.1.ark:2631470
fdxw0_si2141 quick_test/mfcc/raw_mfcc_train.1.ark:1095413
fsag0_sx243 quick_test/mfcc/raw_mfcc_train.1.ark:3571384
mefg0_sx285 quick_test/mfcc/raw_mfcc_train.2.ark:3204194
fsjs0_si541 quick_test/mfcc/raw_mfcc_train.2.ark:22116
makr0_sx452 quick_test/mfcc/raw_mfcc_train.2.ark:936396
mdbb1_sx286 quick_test/mfcc/raw_mfcc_train.2.ark:2046765
mcdr0_si524 quick_test/mfcc/raw_mfcc_train.2.ark:1581179
mefg0_si491 quick_test/mfcc/raw_mfcc_train.2.ark:3182164
msmc0_si647 quick_test/mfcc/raw_mfcc_train.4.ark:2112853
msrr0_si1131 quick_test/mfcc/raw_mfcc_train.4.ark:2231366
mgjc0_sx345 quick_test/mfcc/raw_mfcc_train.3.ark:112126
fsjg0_si1570 quick_test/mfcc/raw_mfcc_train.1.ark:3824402
fkdw0_sx397 quick_test/mfcc/raw_mfcc_train.1.ark:2117109
mjlb0_sx266 quick_test/mfcc/raw_mfcc_train.3.ark:1188846
mjlg1_si1642 quick_test/mfcc/raw_mfcc_train.3.ark:1205704
mtpr0_sx430 quick_test/mfcc/raw_mfcc_train.4.ark:3126302
mlel0_si1876 quick_test/mfcc/raw_mfcc_train.3.ark:2399461
mrai0_sx432 quick_test/mfcc/raw_mfcc_train.4.ark:276614
fjlr0_si601 quick_test/mfcc/raw_mfcc_train.1.ark:1756729
mtjm0_sx236 quick_test/mfcc/raw_mfcc_train.4.ark:2691970
mwdk0_si1436 quick_test/mfcc/raw_mfcc_train.4.ark:3547727
mgak0_sx46 quick_test/mfcc/raw_mfcc_train.2.ark:3674992
mmwb0_si989 quick_test/mfcc/raw_mfcc_train.3.ark:3326198
mter0_sx17 quick_test/mfcc/raw_mfcc_train.4.ark:2626648
mrtc0_sx198 quick_test/mfcc/raw_mfcc_train.4.ark:1532615
mgjc0_si1335 quick_test/mfcc/raw_mfcc_train.3.ark:94430
fsbk0_si1069 quick_test/mfcc/raw_mfcc_train.1.ark:3659393
mmea0_sx398 quick_test/mfcc/raw_mfcc_train.3.ark:2992219
mwch0_sx272 quick_test/mfcc/raw_mfcc_train.4.ark:3532658
mrmg0_sx270 quick_test/mfcc/raw_mfcc_train.4.ark:1254002
fgcs0_sx406 quick_test/mfcc/raw_mfcc_train.1.ark:1387508
mdtb0_si1830 quick_test/mfcc/raw_mfcc_train.2.ark:2998561
mtdb0_si2031 quick_test/mfcc/raw_mfcc_train.4.ark:2542026
mtxs0_si1690 quick_test/mfcc/raw_mfcc_train.4.ark:3303044
fklc0_sx445 quick_test/mfcc/raw_mfcc_train.1.ark:2220611
mbom0_si1014 quick_test/mfcc/raw_mfcc_train.2.ark:1316226
msas0_si1376 quick_test/mfcc/raw_mfcc_train.4.ark:1733518
mjma0_si865 quick_test/mfcc/raw_mfcc_train.3.ark:1275415
mcdd0_si2143 quick_test/mfcc/raw_mfcc_train.2.ark:1543415
fntb0_sx393 quick_test/mfcc/raw_mfcc_train.1.ark:3186636
mntw0_sx78 quick_test/mfcc/raw_mfcc_train.3.ark:3504497
mdps0_si719 quick_test/mfcc/raw_mfcc_train.2.ark:2848211
fear0_sx172 quick_test/mfcc/raw_mfcc_train.1.ark:1164844
mtpf0_si1235 quick_test/mfcc/raw_mfcc_train.4.ark:3008282
fdnc0_sx18 quick_test/mfcc/raw_mfcc_train.1.ark:1039873
msrg0_sx231 quick_test/mfcc/raw_mfcc_train.4.ark:2217740
mrso0_si1206 quick_test/mfcc/raw_mfcc_train.4.ark:1436265
mwad0_sx342 quick_test/mfcc/raw_mfcc_train.4.ark:3479353
mesg0_si702 quick_test/mfcc/raw_mfcc_train.2.ark:3315764
msdh0_sx440 quick_test/mfcc/raw_mfcc_train.4.ark:1875439
fpjf0_si1676 quick_test/mfcc/raw_mfcc_train.1.ark:3374054
fsah0_si1244 quick_test/mfcc/raw_mfcc_train.1.ark:3592901
fhlm0_si2190 quick_test/mfcc/raw_mfcc_train.1.ark:1509889
mhjb0_sx207 quick_test/mfcc/raw_mfcc_train.3.ark:376496
mdpb0_si1760 quick_test/mfcc/raw_mfcc_train.2.ark:2777999
meal0_sx377 quick_test/mfcc/raw_mfcc_train.2.ark:3146772
msjk0_sx156 quick_test/mfcc/raw_mfcc_train.4.ark:2082371
mmar0_si1966 quick_test/mfcc/raw_mfcc_train.3.ark:2708894
