mjde0_sx220 quick_test/mfcc/raw_mfcc_train.3.ark:756218
mhrm0_si2218 quick_test/mfcc/raw_mfcc_train.3.ark:452800
mbwp0_sx79 quick_test/mfcc/raw_mfcc_train.2.ark:1432236
mjac0_si2148 quick_test/mfcc/raw_mfcc_train.3.ark:548153
mjhi0_sx68 quick_test/mfcc/raw_mfcc_train.3.ark:1033139
mntw0_sx348 quick_test/mfcc/raw_mfcc_train.3.ark:3499707
mrkm0_si637 quick_test/mfcc/raw_mfcc_train.4.ark:1030184
mtab0_sx402 quick_test/mfcc/raw_mfcc_train.4.ark:2369833
mesg0_sx72 quick_test/mfcc/raw_mfcc_train.2.ark:3339120
mesj0_sx367 quick_test/mfcc/raw_mfcc_train.2.ark:3360731
mdlh0_sx340 quick_test/mfcc/raw_mfcc_train.2.ark:2569206
fpmy0_sx253 quick_test/mfcc/raw_mfcc_train.1.ark:3451485
mdbp0_sx258 quick_test/mfcc/raw_mfcc_train.2.ark:2072419
mpgh0_si924 quick_test/mfcc/raw_mfcc_train.3.ark:3609665
mrkm0_sx97 quick_test/mfcc/raw_mfcc_train.4.ark:1054773
mpgr0_sx150 quick_test/mfcc/raw_mfcc_train.3.ark:3637978
meal0_sx197 quick_test/mfcc/raw_mfcc_train.2.ark:3136169
flag0_sx294 quick_test/mfcc/raw_mfcc_train.1.ark:2383461
mjxl0_si542 quick_test/mfcc/raw_mfcc_train.3.ark:1824712
fdfb0_si2010 quick_test/mfcc/raw_mfcc_train.1.ark:859614
fdfb0_si1948 quick_test/mfcc/raw_mfcc_train.1.ark:857422
mdcd0_si1415 quick_test/mfcc/raw_mfcc_train.2.ark:2090348
mjrp0_si1845 quick_test/mfcc/raw_mfcc_train.3.ark:1609045
fksr0_sx37 quick_test/mfcc/raw_mfcc_train.1.ark:2317762
mdsj0_si2092 quick_test/mfcc/raw_mfcc_train.2.ark:2913318
mdsj0_sx292 quick_test/mfcc/raw_mfcc_train.2.ark:2926696
mpeb0_si1034 quick_test/mfcc/raw_mfcc_train.3.ark:3535827
mjra0_sx246 quick_test/mfcc/raw_mfcc_train.3.ark:1463908
fsjg0_sx310 quick_test/mfcc/raw_mfcc_train.1.ark:3852037
msem1_si2070 quick_test/mfcc/raw_mfcc_train.4.ark:1926752
mlel0_sx76 quick_test/mfcc/raw_mfcc_train.3.ark:2427530
mdef0_si1563 quick_test/mfcc/raw_mfcc_train.2.ark:2224900
fsbk0_sx79 quick_test/mfcc/raw_mfcc_train.1.ark:3690097
msfv0_sx272 quick_test/mfcc/raw_mfcc_train.4.ark:2051134
mwrp0_sx273 quick_test/mfcc/raw_mfcc_train.4.ark:3696239
mpar0_sx406 quick_test/mfcc/raw_mfcc_train.3.ark:3529170
msmc0_si509 quick_test/mfcc/raw_mfcc_train.4.ark:2107451
mdsj0_sx112 quick_test/mfcc/raw_mfcc_train.2.ark:2919832
mdlr1_sx399 quick_test/mfcc/raw_mfcc_train.2.ark:2674235
mkah0_si898 quick_test/mfcc/raw_mfcc_train.3.ark:1891593
mesg0_si1332 quick_test/mfcc/raw_mfcc_train.2.ark:3309106
mjra0_si606 quick_test/mfcc/raw_mfcc_train.3.ark:1456315
fsdj0_sx395 quick_test/mfcc/raw_mfcc_train.1.ark:3788587
mjee0_si1237 quick_test/mfcc/raw_mfcc_train.3.ark:910564
mwad0_sx72 quick_test/mfcc/raw_mfcc_train.4.ark:3487114
mrms0_sx210 quick_test/mfcc/raw_mfcc_train.4.ark:1359059
mbsb0_sx273 quick_test/mfcc/raw_mfcc_train.2.ark:1358564
mklw0_sx131 quick_test/mfcc/raw_mfcc_train.3.ark:2279725
msrr0_si1131 quick_test/mfcc/raw_mfcc_train.4.ark:2231366
mses0_si2219 quick_test/mfcc/raw_mfcc_train.4.ark:1972018
mwch0_sx182 quick_test/mfcc/raw_mfcc_train.4.ark:3530103
fkfb0_sx438 quick_test/mfcc/raw_mfcc_train.1.ark:2147619
fljg0_sx171 quick_test/mfcc/raw_mfcc_train.1.ark:2567632
fntb0_si573 quick_test/mfcc/raw_mfcc_train.1.ark:3162636
fklh0_sx267 quick_test/mfcc/raw_mfcc_train.1.ark:2276131
fpaz0_sx423 quick_test/mfcc/raw_mfcc_train.1.ark:3356539
mzmb0_sx266 quick_test/mfcc/raw_mfcc_train.4.ark:3794465
faem0_si2022 quick_test/mfcc/raw_mfcc_train.1.ark:6313
fkde0_sx241 quick_test/mfcc/raw_mfcc_train.1.ark:2072247
mmaa0_si845 quick_test/mfcc/raw_mfcc_train.3.ark:2579751
fsah0_sx434 quick_test/mfcc/raw_mfcc_train.1.ark:3620595
mdac0_sx361 quick_test/mfcc/raw_mfcc_train.2.ark:1984247
fjkl0_si932 quick_test/mfcc/raw_mfcc_train.1.ark:1689677
mdpb0_sx236 quick_test/mfcc/raw_mfcc_train.2.ark:2797866
fcjf0_sx37 quick_test/mfcc/raw_mfcc_train.1.ark:556402
milb0_sx183 quick_test/mfcc/raw_mfcc_train.3.ark:528469
mtpg0_si753 quick_test/mfcc/raw_mfcc_train.4.ark:3046028
mljc0_si1225 quick_test/mfcc/raw_mfcc_train.3.ark:2432023
mdwd0_si1890 quick_test/mfcc/raw_mfcc_train.2.ark:3029351
makr0_si722 quick_test/mfcc/raw_mfcc_train.2.ark:925305
mlbc0_sx69 quick_test/mfcc/raw_mfcc_train.3.ark:2391424
mkjo0_si2147 quick_test/mfcc/raw_mfcc_train.3.ark:2117196
mlns0_si1407 quick_test/mfcc/raw_mfcc_train.3.ark:2506679
mjrh0_si1755 quick_test/mfcc/raw_mfcc_train.3.ark:1516352
mrso0_si2289 quick_test/mfcc/raw_mfcc_train.4.ark:1448553
mjdc0_sx351 quick_test/mfcc/raw_mfcc_train.3.ark:724098
mwsb0_si2256 quick_test/mfcc/raw_mfcc_train.4.ark:3713654
mtat0_si811 quick_test/mfcc/raw_mfcc_train.4.ark:2413196
fdmy0_sx297 quick_test/mfcc/raw_mfcc_train.1.ark:1010735
fbmj0_sx246 quick_test/mfcc/raw_mfcc_train.1.ark:392940
fcaj0_si1479 quick_test/mfcc/raw_mfcc_train.1.ark:440021
fjsk0_sx242 quick_test/mfcc/raw_mfcc_train.1.ark:1871328
mdhl0_si1439 quick_test/mfcc/raw_mfcc_train.2.ark:2287653
mtrt0_sx57 quick_test/mfcc/raw_mfcc_train.4.ark:3265336
mmrp0_sx324 quick_test/mfcc/raw_mfcc_train.3.ark:3225908
mesj0_sx97 quick_test/mfcc/raw_mfcc_train.2.ark:3366982
mkls1_sx285 quick_test/mfcc/raw_mfcc_train.3.ark:2260590
mrlk0_si843 quick_test/mfcc/raw_mfcc_train.4.ark:1155432
mcew0_si1442 quick_test/mfcc/raw_mfcc_train.2.ark:1636242
fsbk0_sx439 quick_test/mfcc/raw_mfcc_train.1.ark:3685086
mcdr0_sx254 quick_test/mfcc/raw_mfcc_train.2.ark:1592581
mwsh0_si796 quick_test/mfcc/raw_mfcc_train.4.ark:3747789
mrcw0_sx381 quick_test/mfcc/raw_mfcc_train.4.ark:442995
mrlj1_si2301 quick_test/mfcc/raw_mfcc_train.4.ark:1119591
majp0_si1704 quick_test/mfcc/raw_mfcc_train.2.ark:846688
mtpg0_sx393 quick_test/mfcc/raw_mfcc_train.4.ark:3064600
mrcg0_sx348 quick_test/mfcc/raw_mfcc_train.4.ark:400649
fsjg0_sx130 quick_test/mfcc/raw_mfcc_train.1.ark:3840635
mjmd0_si1658 quick_test/mfcc/raw_mfcc_train.3.ark:1299086
mhxl0_si1772 quick_test/mfcc/raw_mfcc_train.3.ark:481241
mges0_si851 quick_test/mfcc/raw_mfcc_train.3.ark:67067
flja0_si1078 quick_test/mfcc/raw_mfcc_train.1.ark:2486271
flma0_sx433 quick_test/mfcc/raw_mfcc_train.1.ark:2649783
mtjg0_sx170 quick_test/mfcc/raw_mfcc_train.4.ark:2651333
mdlm0_sx64 quick_test/mfcc/raw_mfcc_train.2.ark:2606261
falk0_sx6 quick_test/mfcc/raw_mfcc_train.1.ark:94090
fvmh0_sx206 quick_test/mfcc/raw_mfcc_train.2.ark:647591
fjhk0_si2282 quick_test/mfcc/raw_mfcc_train.1.ark:1659317
mbgt0_si711 quick_test/mfcc/raw_mfcc_train.2.ark:1165442
mwsb0_sx186 quick_test/mfcc/raw_mfcc_train.4.ark:3722482
mjrg0_sx376 quick_test/mfcc/raw_mfcc_train.3.ark:1509160
mgar0_sx312 quick_test/mfcc/raw_mfcc_train.3.ark:19771
mrcg0_si1428 quick_test/mfcc/raw_mfcc_train.4.ark:377382
fsjk1_sx305 quick_test/mfcc/raw_mfcc_train.2.ark:4023
mbbr0_sx245 quick_test/mfcc/raw_mfcc_train.2.ark:1085830
mbth0_sx302 quick_test/mfcc/raw_mfcc_train.2.ark:1391138
fklc0_sx445 quick_test/mfcc/raw_mfcc_train.1.ark:2220611
mdma0_sx440 quick_test/mfcc/raw_mfcc_train.2.ark:2706813
fmem0_sx333 quick_test/mfcc/raw_mfcc_train.1.ark:2872978
meal0_sx287 quick_test/mfcc/raw_mfcc_train.2.ark:3138685
marw0_sx106 quick_test/mfcc/raw_mfcc_train.2.ark:1014039
mwsb0_sx276 quick_test/mfcc/raw_mfcc_train.4.ark:3725258
faem0_si1392 quick_test/mfcc/raw_mfcc_train.1.ark:13
fdtd0_si931 quick_test/mfcc/raw_mfcc_train.1.ark:1065839
mdlm0_si604 quick_test/mfcc/raw_mfcc_train.2.ark:2587143
mcdr0_si524 quick_test/mfcc/raw_mfcc_train.2.ark:1581179
mdks0_sx436 quick_test/mfcc/raw_mfcc_train.2.ark:2405154
mrmh0_sx211 quick_test/mfcc/raw_mfcc_train.4.ark:1287639
fvmh0_si1466 quick_test/mfcc/raw_mfcc_train.2.ark:629895
mkjo0_sx437 quick_test/mfcc/raw_mfcc_train.3.ark:2134417
mrws0_si1102 quick_test/mfcc/raw_mfcc_train.4.ark:1645687
mjdc0_sx441 quick_test/mfcc/raw_mfcc_train.3.ark:728200
fpad0_sx356 quick_test/mfcc/raw_mfcc_train.1.ark:3285763
mjfh0_sx297 quick_test/mfcc/raw_mfcc_train.3.ark:962416
mrmg0_si1080 quick_test/mfcc/raw_mfcc_train.4.ark:1237748
mklw0_si2201 quick_test/mfcc/raw_mfcc_train.3.ark:2277144
mkls1_si2175 quick_test/mfcc/raw_mfcc_train.3.ark:2241498
mtdb0_sx321 quick_test/mfcc/raw_mfcc_train.4.ark:2556718
mrds0_sx447 quick_test/mfcc/raw_mfcc_train.4.ark:531314
fsls0_sx246 quick_test/mfcc/raw_mfcc_train.2.ark:197403
mcre0_sx131 quick_test/mfcc/raw_mfcc_train.2.ark:1813832
flag0_si1464 quick_test/mfcc/raw_mfcc_train.1.ark:2355196
mewm0_si1348 quick_test/mfcc/raw_mfcc_train.2.ark:3369759
mjpg0_sx21 quick_test/mfcc/raw_mfcc_train.3.ark:1373653
fdaw0_si2036 quick_test/mfcc/raw_mfcc_train.1.ark:827485
fcjf0_si1027 quick_test/mfcc/raw_mfcc_train.1.ark:537185
majp0_sx444 quick_test/mfcc/raw_mfcc_train.2.ark:870865
flkm0_sx440 quick_test/mfcc/raw_mfcc_train.1.ark:2619891
mjwt0_si751 quick_test/mfcc/raw_mfcc_train.3.ark:1761808
mljc0_sx235 quick_test/mfcc/raw_mfcc_train.3.ark:2449589
mddc0_si1419 quick_test/mfcc/raw_mfcc_train.2.ark:2154344
fklh0_si1887 quick_test/mfcc/raw_mfcc_train.1.ark:2267777
mrai0_si2052 quick_test/mfcc/raw_mfcc_train.4.ark:252178
mtrr0_si2178 quick_test/mfcc/raw_mfcc_train.4.ark:3208987
mrlj0_sx430 quick_test/mfcc/raw_mfcc_train.4.ark:1109533
mdcd0_si785 quick_test/mfcc/raw_mfcc_train.2.ark:2097175
mtlc0_sx397 quick_test/mfcc/raw_mfcc_train.4.ark:2902815
mclm0_sx106 quick_test/mfcc/raw_mfcc_train.2.ark:1756205
fleh0_sx421 quick_test/mfcc/raw_mfcc_train.1.ark:2416267
fmju0_si1389 quick_test/mfcc/raw_mfcc_train.1.ark:2952366
mbth0_si2102 quick_test/mfcc/raw_mfcc_train.2.ark:1368236
mhmr0_si1119 quick_test/mfcc/raw_mfcc_train.3.ark:416868
mrav0_sx288 quick_test/mfcc/raw_mfcc_train.4.ark:338557
mrfk0_sx266 quick_test/mfcc/raw_mfcc_train.4.ark:685714
mdlr0_sx333 quick_test/mfcc/raw_mfcc_train.2.ark:2629601
fmpg0_si972 quick_test/mfcc/raw_mfcc_train.1.ark:3094956
mjwg0_sx85 quick_test/mfcc/raw_mfcc_train.3.ark:1711145
mrcg0_sx168 quick_test/mfcc/raw_mfcc_train.4.ark:392328
mrem0_sx241 quick_test/mfcc/raw_mfcc_train.4.ark:624460
mrsp0_sx169 quick_test/mfcc/raw_mfcc_train.4.ark:1490425
mcdc0_si1292 quick_test/mfcc/raw_mfcc_train.2.ark:1510109
mfwk0_sx439 quick_test/mfcc/raw_mfcc_train.2.ark:3513590
fhlm0_si1560 quick_test/mfcc/raw_mfcc_train.1.ark:1507827
mdlr1_sx309 quick_test/mfcc/raw_mfcc_train.2.ark:2665720
fcmg0_sx342 quick_test/mfcc/raw_mfcc_train.1.ark:675276
flma0_sx73 quick_test/mfcc/raw_mfcc_train.1.ark:2654183
msms0_si1433 quick_test/mfcc/raw_mfcc_train.4.ark:2168943
fjdm2_si1582 quick_test/mfcc/raw_mfcc_train.1.ark:1581172
mdps0_si1651 quick_test/mfcc/raw_mfcc_train.2.ark:2841371
msmr0_sx415 quick_test/mfcc/raw_mfcc_train.4.ark:2161896
mwad0_si2322 quick_test/mfcc/raw_mfcc_train.4.ark:3470206
mklr0_sx249 quick_test/mfcc/raw_mfcc_train.3.ark:2187714
mhjb0_si1647 quick_test/mfcc/raw_mfcc_train.3.ark:364371
mchl0_sx447 quick_test/mfcc/raw_mfcc_train.2.ark:1703449
fntb0_sx213 quick_test/mfcc/raw_mfcc_train.1.ark:3176697
mbsb0_si1353 quick_test/mfcc/raw_mfcc_train.2.ark:1344118
fjlg0_sx179 quick_test/mfcc/raw_mfcc_train.1.ark:1727494
mcth0_si579 quick_test/mfcc/raw_mfcc_train.2.ark:1874608
mree0_sx114 quick_test/mfcc/raw_mfcc_train.4.ark:553269
mstf0_sx136 quick_test/mfcc/raw_mfcc_train.4.ark:2277502
mstf0_si1396 quick_test/mfcc/raw_mfcc_train.4.ark:2263961
mdns0_sx21 quick_test/mfcc/raw_mfcc_train.2.ark:2768838
mdlb0_sx136 quick_test/mfcc/raw_mfcc_train.2.ark:2427823
fjrp1_sx262 quick_test/mfcc/raw_mfcc_train.1.ark:1833076
fpaf0_sx154 quick_test/mfcc/raw_mfcc_train.1.ark:3311404
mkaj0_sx424 quick_test/mfcc/raw_mfcc_train.3.ark:1938400
fpab1_si2101 quick_test/mfcc/raw_mfcc_train.1.ark:3194387
fsdc0_si2234 quick_test/mfcc/raw_mfcc_train.1.ark:3742983
mgjc0_sx75 quick_test/mfcc/raw_mfcc_train.3.ark:122747
mmbs0_si1151 quick_test/mfcc/raw_mfcc_train.3.ark:2744550
fltm0_sx170 quick_test/mfcc/raw_mfcc_train.1.ark:2760168
mmvp0_sx114 quick_test/mfcc/raw_mfcc_train.3.ark:3291931
mrai0_sx72 quick_test/mfcc/raw_mfcc_train.4.ark:282431
fhlm0_sx390 quick_test/mfcc/raw_mfcc_train.1.ark:1537062
mclm0_si1456 quick_test/mfcc/raw_mfcc_train.2.ark:1743625
mfrm0_sx435 quick_test/mfcc/raw_mfcc_train.2.ark:3482411
mejs0_sx250 quick_test/mfcc/raw_mfcc_train.2.ark:3295428
mdpk0_sx63 quick_test/mfcc/raw_mfcc_train.2.ark:2838178
falk0_sx96 quick_test/mfcc/raw_mfcc_train.1.ark:97372
makr0_sx182 quick_test/mfcc/raw_mfcc_train.2.ark:928081
mtdb0_si1401 quick_test/mfcc/raw_mfcc_train.4.ark:2536194
mtpp0_sx248 quick_test/mfcc/raw_mfcc_train.4.ark:3083006
fjlr0_si1231 quick_test/mfcc/raw_mfcc_train.1.ark:1748654
fsbk0_sx259 quick_test/mfcc/raw_mfcc_train.1.ark:3673892
mpgr1_sx59 quick_test/mfcc/raw_mfcc_train.3.ark:3686033
fdml0_si1149 quick_test/mfcc/raw_mfcc_train.1.ark:947950
mdss1_sx67 quick_test/mfcc/raw_mfcc_train.2.ark:2991863
fkaa0_sx308 quick_test/mfcc/raw_mfcc_train.1.ark:2038149
mjhi0_sx428 quick_test/mfcc/raw_mfcc_train.3.ark:1028180
mhit0_sx263 quick_test/mfcc/raw_mfcc_train.3.ark:346629
mjma0_sx415 quick_test/mfcc/raw_mfcc_train.3.ark:1289210
fpls0_sx240 quick_test/mfcc/raw_mfcc_train.1.ark:3412462
mctm0_si1980 quick_test/mfcc/raw_mfcc_train.2.ark:1904220
mkdd0_si937 quick_test/mfcc/raw_mfcc_train.3.ark:2023225
mcre0_sx41 quick_test/mfcc/raw_mfcc_train.2.ark:1828769
mcpm0_sx24 quick_test/mfcc/raw_mfcc_train.2.ark:1793143
msdh0_sx80 quick_test/mfcc/raw_mfcc_train.4.ark:1880372
fltm0_si2330 quick_test/mfcc/raw_mfcc_train.1.ark:2757483
fcyl0_si1297 quick_test/mfcc/raw_mfcc_train.1.ark:750083
msvs0_sx218 quick_test/mfcc/raw_mfcc_train.4.ark:2319660
msjk0_si1596 quick_test/mfcc/raw_mfcc_train.4.ark:2069427
mtrr0_sx18 quick_test/mfcc/raw_mfcc_train.4.ark:3221851
fdkn0_sx271 quick_test/mfcc/raw_mfcc_train.1.ark:929631
mrfk0_sx446 quick_test/mfcc/raw_mfcc_train.4.ark:692449
mwrp0_si1443 quick_test/mfcc/raw_mfcc_train.4.ark:3678282
mbjv0_sx257 quick_test/mfcc/raw_mfcc_train.2.ark:1206970
mjls0_sx106 quick_test/mfcc/raw_mfcc_train.3.ark:1247064
fcyl0_sx349 quick_test/mfcc/raw_mfcc_train.1.ark:770464
flet0_sx147 quick_test/mfcc/raw_mfcc_train.1.ark:2439625
mchl0_sx267 quick_test/mfcc/raw_mfcc_train.2.ark:1694478
fsls0_si1056 quick_test/mfcc/raw_mfcc_train.2.ark:176111
mabc0_si2041 quick_test/mfcc/raw_mfcc_train.2.ark:662161
fcaj0_sx219 quick_test/mfcc/raw_mfcc_train.1.ark:452881
mses0_sx149 quick_test/mfcc/raw_mfcc_train.4.ark:1975977
mclm0_sx196 quick_test/mfcc/raw_mfcc_train.2.ark:1761808
mrcw0_sx291 quick_test/mfcc/raw_mfcc_train.4.ark:439764
mter0_sx257 quick_test/mfcc/raw_mfcc_train.4.ark:2629307
fkde0_sx331 quick_test/mfcc/raw_mfcc_train.1.ark:2075946
fsrh0_sx311 quick_test/mfcc/raw_mfcc_train.2.ark:363438
fcrz0_sx433 quick_test/mfcc/raw_mfcc_train.1.ark:742282
mjra0_si1866 quick_test/mfcc/raw_mfcc_train.3.ark:1451771
mrai0_sx162 quick_test/mfcc/raw_mfcc_train.4.ark:264581
mzmb0_sx446 quick_test/mfcc/raw_mfcc_train.4.ark:3802331
mtrt0_si1227 quick_test/mfcc/raw_mfcc_train.4.ark:3238091
fgcs0_si1486 quick_test/mfcc/raw_mfcc_train.1.ark:1364520
mmbs0_sx161 quick_test/mfcc/raw_mfcc_train.3.ark:2756753
mmab1_sx54 quick_test/mfcc/raw_mfcc_train.3.ark:2634520
fsjg0_sx400 quick_test/mfcc/raw_mfcc_train.1.ark:3862606
fksr0_si487 quick_test/mfcc/raw_mfcc_train.1.ark:2300705
mprk0_si1097 quick_test/mfcc/raw_mfcc_train.4.ark:90478
mjpg0_sx111 quick_test/mfcc/raw_mfcc_train.3.ark:1367816
msmc0_sx377 quick_test/mfcc/raw_mfcc_train.4.ark:2132803
mkrg0_sx31 quick_test/mfcc/raw_mfcc_train.3.ark:2323579
mjpg0_si561 quick_test/mfcc/raw_mfcc_train.3.ark:1362856
flet0_sx277 quick_test/mfcc/raw_mfcc_train.1.ark:2445411
mcre0_si1751 quick_test/mfcc/raw_mfcc_train.2.ark:1808690
mjfr0_si2235 quick_test/mfcc/raw_mfcc_train.3.ark:973073
mfmc0_sx142 quick_test/mfcc/raw_mfcc_train.2.ark:3437755
mbef0_sx111 quick_test/mfcc/raw_mfcc_train.2.ark:1143084
mrcw0_sx21 quick_test/mfcc/raw_mfcc_train.4.ark:437430
mkdt0_si2153 quick_test/mfcc/raw_mfcc_train.3.ark:2043885
fltm0_si1070 quick_test/mfcc/raw_mfcc_train.1.ark:2751058
fnkl0_sx442 quick_test/mfcc/raw_mfcc_train.1.ark:3150902
mgsh0_si1176 quick_test/mfcc/raw_mfcc_train.3.ark:193849
mjrp0_sx225 quick_test/mfcc/raw_mfcc_train.3.ark:1623106
mrsp0_si1429 quick_test/mfcc/raw_mfcc_train.4.ark:1475492
mdcm0_si2110 quick_test/mfcc/raw_mfcc_train.2.ark:2127762
mesg0_sx342 quick_test/mfcc/raw_mfcc_train.2.ark:3329305
mkes0_si623 quick_test/mfcc/raw_mfcc_train.3.ark:2087142
fgrw0_si1782 quick_test/mfcc/raw_mfcc_train.1.ark:1476954
flag0_sx384 quick_test/mfcc/raw_mfcc_train.1.ark:2388044
makr0_sx452 quick_test/mfcc/raw_mfcc_train.2.ark:936396
mfwk0_sx169 quick_test/mfcc/raw_mfcc_train.2.ark:3500504
mpeb0_sx240 quick_test/mfcc/raw_mfcc_train.3.ark:3548739
fmem0_si1377 quick_test/mfcc/raw_mfcc_train.1.ark:2848339
fbas0_sx307 quick_test/mfcc/raw_mfcc_train.1.ark:196878
mefg0_sx105 quick_test/mfcc/raw_mfcc_train.2.ark:3194268
mcew0_sx452 quick_test/mfcc/raw_mfcc_train.2.ark:1667290
mgag0_sx421 quick_test/mfcc/raw_mfcc_train.2.ark:3635187
fexm0_si1731 quick_test/mfcc/raw_mfcc_train.1.ark:1330683
fskp0_sx108 quick_test/mfcc/raw_mfcc_train.2.ark:158669
mtcs0_si2265 quick_test/mfcc/raw_mfcc_train.4.ark:2506310
mkrg0_sx51 quick_test/mfcc/raw_mfcc_train.3.ark:2329390
mrbc0_si1859 quick_test/mfcc/raw_mfcc_train.4.ark:349318
ftbr0_sx381 quick_test/mfcc/raw_mfcc_train.2.ark:466569
fsjs0_si1801 quick_test/mfcc/raw_mfcc_train.2.ark:17143
mdlc1_si2144 quick_test/mfcc/raw_mfcc_train.2.ark:2498170
msah1_si1049 quick_test/mfcc/raw_mfcc_train.4.ark:1707044
fltm0_sx440 quick_test/mfcc/raw_mfcc_train.1.ark:2776738
mjwt0_sx121 quick_test/mfcc/raw_mfcc_train.3.ark:1765923
mter0_si1157 quick_test/mfcc/raw_mfcc_train.4.ark:2608108
mgak0_sx136 quick_test/mfcc/raw_mfcc_train.2.ark:3655127
mtxs0_sx430 quick_test/mfcc/raw_mfcc_train.4.ark:3325479
mjfh0_sx207 quick_test/mfcc/raw_mfcc_train.3.ark:957606
falr0_si1325 quick_test/mfcc/raw_mfcc_train.1.ark:101592
mcth0_sx129 quick_test/mfcc/raw_mfcc_train.2.ark:1879321
fexm0_si482 quick_test/mfcc/raw_mfcc_train.1.ark:1335409
mrre0_si704 quick_test/mfcc/raw_mfcc_train.4.ark:1404808
fmem0_sx207 quick_test/mfcc/raw_mfcc_train.1.ark:2866568
fdtd0_sx391 quick_test/mfcc/raw_mfcc_train.1.ark:1089170
mjmm0_si1255 quick_test/mfcc/raw_mfcc_train.3.ark:1324174
mwch0_si2252 quick_test/mfcc/raw_mfcc_train.4.ark:3526092
fpaf0_sx424 quick_test/mfcc/raw_mfcc_train.1.ark:3323580
mcew0_si812 quick_test/mfcc/raw_mfcc_train.2.ark:1646189
mprk0_sx107 quick_test/mfcc/raw_mfcc_train.4.ark:107608
fskc0_sx246 quick_test/mfcc/raw_mfcc_train.2.ark:97631
mmbs0_sx251 quick_test/mfcc/raw_mfcc_train.3.ark:2762428
mjpg0_sx201 quick_test/mfcc/raw_mfcc_train.3.ark:1370618
mjws0_sx423 quick_test/mfcc/raw_mfcc_train.3.ark:1740654
mrkm0_sx277 quick_test/mfcc/raw_mfcc_train.4.ark:1040338
mtcs0_sx262 quick_test/mfcc/raw_mfcc_train.4.ark:2519357
mmag0_sx406 quick_test/mfcc/raw_mfcc_train.3.ark:2667461
mrtj0_sx322 quick_test/mfcc/raw_mfcc_train.4.ark:1572557
mlel0_sx256 quick_test/mfcc/raw_mfcc_train.3.ark:2414484
flag0_sx204 quick_test/mfcc/raw_mfcc_train.1.ark:2375115
fspm0_sx71 quick_test/mfcc/raw_mfcc_train.2.ark:343101
mwre0_si1057 quick_test/mfcc/raw_mfcc_train.4.ark:3645321
mhxl0_sx332 quick_test/mfcc/raw_mfcc_train.3.ark:500828
mfxv0_sx195 quick_test/mfcc/raw_mfcc_train.2.ark:3573290
fsma0_sx361 quick_test/mfcc/raw_mfcc_train.2.ark:229882
fklh0_si627 quick_test/mfcc/raw_mfcc_train.1.ark:2269734
falr0_sx425 quick_test/mfcc/raw_mfcc_train.1.ark:125958
mdjm0_sx105 quick_test/mfcc/raw_mfcc_train.2.ark:2363514
fklc0_sx175 quick_test/mfcc/raw_mfcc_train.1.ark:2206082
fcmg0_si1142 quick_test/mfcc/raw_mfcc_train.1.ark:653672
feac0_si1245 quick_test/mfcc/raw_mfcc_train.1.ark:1120838
msjk0_si966 quick_test/mfcc/raw_mfcc_train.4.ark:2078646
mrds0_si1167 quick_test/mfcc/raw_mfcc_train.4.ark:508443
mefg0_si465 quick_test/mfcc/raw_mfcc_train.2.ark:3178439
mrmh0_sx391 quick_test/mfcc/raw_mfcc_train.4.ark:1297071
mtrr0_sx378 quick_test/mfcc/raw_mfcc_train.4.ark:3233468
flet0_sx237 quick_test/mfcc/raw_mfcc_train.1.ark:2443194
mfrm0_sx75 quick_test/mfcc/raw_mfcc_train.2.ark:3487227
fsmm0_si1314 quick_test/mfcc/raw_mfcc_train.2.ark:243449
mvlo0_sx67 quick_test/mfcc/raw_mfcc_train.4.ark:3393355
mwsh0_sx256 quick_test/mfcc/raw_mfcc_train.4.ark:3759594
mtjm0_sx146 quick_test/mfcc/raw_mfcc_train.4.ark:2688752
mdac0_si631 quick_test/mfcc/raw_mfcc_train.2.ark:1968925
fbmj0_si1776 quick_test/mfcc/raw_mfcc_train.1.ark:374283
mtat0_sx390 quick_test/mfcc/raw_mfcc_train.4.ark:2431313
mtdb0_sx141 quick_test/mfcc/raw_mfcc_train.4.ark:2550542
mrfk0_si2336 quick_test/mfcc/raw_mfcc_train.4.ark:678082
mjma0_sx145 quick_test/mfcc/raw_mfcc_train.3.ark:1279998
mmbs0_sx431 quick_test/mfcc/raw_mfcc_train.3.ark:2772075
mbsb0_sx93 quick_test/mfcc/raw_mfcc_train.2.ark:1365888
mtlc0_sx37 quick_test/mfcc/raw_mfcc_train.4.ark:2899415
fgmb0_sx65 quick_test/mfcc/raw_mfcc_train.1.ark:1466304
fkdw0_si1891 quick_test/mfcc/raw_mfcc_train.1.ark:2095540
makb0_si1016 quick_test/mfcc/raw_mfcc_train.2.ark:880109
msms0_si803 quick_test/mfcc/raw_mfcc_train.4.ark:2177941
fjdm2_sx412 quick_test/mfcc/raw_mfcc_train.1.ark:1607814
mjrh1_si1774 quick_test/mfcc/raw_mfcc_train.3.ark:1551614
mvrw0_sx315 quick_test/mfcc/raw_mfcc_train.4.ark:3415707
mpeb0_si1860 quick_test/mfcc/raw_mfcc_train.3.ark:3537837
fmkf0_sx96 quick_test/mfcc/raw_mfcc_train.1.ark:3049092
mcxm0_sx271 quick_test/mfcc/raw_mfcc_train.2.ark:1947458
fjdm2_sx142 quick_test/mfcc/raw_mfcc_train.1.ark:1593233
freh0_sx145 quick_test/mfcc/raw_mfcc_train.1.ark:3477593
msem1_sx270 quick_test/mfcc/raw_mfcc_train.4.ark:1948067
mbml0_si1169 quick_test/mfcc/raw_mfcc_train.2.ark:1286893
mtdp0_si1521 quick_test/mfcc/raw_mfcc_train.4.ark:2571411
fgmb0_si1145 quick_test/mfcc/raw_mfcc_train.1.ark:1432507
msat1_si1703 quick_test/mfcc/raw_mfcc_train.4.ark:1800330
fkdw0_sx307 quick_test/mfcc/raw_mfcc_train.1.ark:2111051
msjk0_sx156 quick_test/mfcc/raw_mfcc_train.4.ark:2082371
fsma0_sx271 quick_test/mfcc/raw_mfcc_train.2.ark:226131
fmmh0_sx187 quick_test/mfcc/raw_mfcc_train.1.ark:3067504
fclt0_si1438 quick_test/mfcc/raw_mfcc_train.1.ark:622103
mrmb0_sx141 quick_test/mfcc/raw_mfcc_train.4.ark:1219071
mkag0_sx79 quick_test/mfcc/raw_mfcc_train.3.ark:1880169
flod0_sx387 quick_test/mfcc/raw_mfcc_train.1.ark:2747527
msat1_sx173 quick_test/mfcc/raw_mfcc_train.4.ark:1807443
mapv0_sx123 quick_test/mfcc/raw_mfcc_train.2.ark:958909
mjrh0_sx315 quick_test/mfcc/raw_mfcc_train.3.ark:1533905
fsms1_sx244 quick_test/mfcc/raw_mfcc_train.2.ark:294040
fbmh0_sx416 quick_test/mfcc/raw_mfcc_train.1.ark:367197
mtwh1_sx432 quick_test/mfcc/raw_mfcc_train.4.ark:3289736
fcdr1_sx106 quick_test/mfcc/raw_mfcc_train.1.ark:488850
mmwb0_si989 quick_test/mfcc/raw_mfcc_train.3.ark:3326198
mzmb0_si1166 quick_test/mfcc/raw_mfcc_train.4.ark:3777081
mjls0_sx286 quick_test/mfcc/raw_mfcc_train.3.ark:1256327
ftaj0_sx429 quick_test/mfcc/raw_mfcc_train.2.ark:431783
mrtc0_sx18 quick_test/mfcc/raw_mfcc_train.4.ark:1528617
mtab0_sx132 quick_test/mfcc/raw_mfcc_train.4.ark:2354485
fblv0_sx68 quick_test/mfcc/raw_mfcc_train.1.ark:338884
mmsm0_si1106 quick_test/mfcc/raw_mfcc_train.3.ark:3241724
mdss1_si1713 quick_test/mfcc/raw_mfcc_train.2.ark:2971217
mddc0_si2049 quick_test/mfcc/raw_mfcc_train.2.ark:2159825
mpmb0_sx421 quick_test/mfcc/raw_mfcc_train.3.ark:3729140
mkam0_sx56 quick_test/mfcc/raw_mfcc_train.3.ark:1975345
mdlc0_sx225 quick_test/mfcc/raw_mfcc_train.2.ark:2471853
mntw0_sx202 quick_test/mfcc/raw_mfcc_train.3.ark:3492283
mfxs0_sx144 quick_test/mfcc/raw_mfcc_train.2.ark:3530774
fbas0_si1387 quick_test/mfcc/raw_mfcc_train.1.ark:172245
mmgc0_sx225 quick_test/mfcc/raw_mfcc_train.3.ark:3041907
mkjo0_sx167 quick_test/mfcc/raw_mfcc_train.3.ark:2123619
fnkl0_si2152 quick_test/mfcc/raw_mfcc_train.1.ark:3130925
feeh0_si1112 quick_test/mfcc/raw_mfcc_train.1.ark:1225893
mjxl0_si1795 quick_test/mfcc/raw_mfcc_train.3.ark:1822352
fpac0_sx121 quick_test/mfcc/raw_mfcc_train.1.ark:3243091
fcjf0_si1657 quick_test/mfcc/raw_mfcc_train.1.ark:541314
mdpb0_sx416 quick_test/mfcc/raw_mfcc_train.2.ark:2805082
fjrp1_si1432 quick_test/mfcc/raw_mfcc_train.1.ark:1813417
msds0_sx357 quick_test/mfcc/raw_mfcc_train.4.ark:1908848
mkls0_si2067 quick_test/mfcc/raw_mfcc_train.3.ark:2211665
mdac0_sx181 quick_test/mfcc/raw_mfcc_train.2.ark:1975718
mrws0_sx112 quick_test/mfcc/raw_mfcc_train.4.ark:1657474
mcew0_sx92 quick_test/mfcc/raw_mfcc_train.2.ark:1672678
flmc0_sx336 quick_test/mfcc/raw_mfcc_train.1.ark:2680493
mjeb0_sx170 quick_test/mfcc/raw_mfcc_train.3.ark:855430
mpsw0_sx167 quick_test/mfcc/raw_mfcc_train.4.ark:167925
mtrr0_sx288 quick_test/mfcc/raw_mfcc_train.4.ark:3229028
mrvg0_sx150 quick_test/mfcc/raw_mfcc_train.4.ark:1595935
mbma0_si592 quick_test/mfcc/raw_mfcc_train.2.ark:1229880
mgrp0_sx57 quick_test/mfcc/raw_mfcc_train.3.ark:189564
fcrz0_si1913 quick_test/mfcc/raw_mfcc_train.1.ark:719541
mhrm0_sx148 quick_test/mfcc/raw_mfcc_train.3.ark:460718
fmbg0_si1790 quick_test/mfcc/raw_mfcc_train.1.ark:2823032
mrvg0_sx240 quick_test/mfcc/raw_mfcc_train.4.ark:1598906
fgrw0_si1990 quick_test/mfcc/raw_mfcc_train.1.ark:1481824
mstf0_si852 quick_test/mfcc/raw_mfcc_train.4.ark:2271086
mkes0_sx173 quick_test/mfcc/raw_mfcc_train.3.ark:2092674
mdwh0_si1168 quick_test/mfcc/raw_mfcc_train.2.ark:3053502
mdcm0_sx220 quick_test/mfcc/raw_mfcc_train.2.ark:2138911
mewm0_sx358 quick_test/mfcc/raw_mfcc_train.2.ark:3387540
mwad0_sx432 quick_test/mfcc/raw_mfcc_train.4.ark:3482610
mjrg0_sx352 quick_test/mfcc/raw_mfcc_train.3.ark:1503394
mtmn0_sx74 quick_test/mfcc/raw_mfcc_train.4.ark:2972311
mdas0_si1266 quick_test/mfcc/raw_mfcc_train.2.ark:1995903
marc0_si1188 quick_test/mfcc/raw_mfcc_train.2.ark:978002
fsah0_sx327 quick_test/mfcc/raw_mfcc_train.1.ark:3611208
fbmh0_si970 quick_test/mfcc/raw_mfcc_train.1.ark:351582
mstf0_sx406 quick_test/mfcc/raw_mfcc_train.4.ark:2290042
mgxp0_si1087 quick_test/mfcc/raw_mfcc_train.3.ark:264277
mtpg0_sx213 quick_test/mfcc/raw_mfcc_train.4.ark:3054726
fpls0_sx3 quick_test/mfcc/raw_mfcc_train.1.ark:3416393
mcal0_si1138 quick_test/mfcc/raw_mfcc_train.2.ark:1478410
mtkd0_si630 quick_test/mfcc/raw_mfcc_train.4.ark:2783426
mmag0_sx316 quick_test/mfcc/raw_mfcc_train.3.ark:2663346
mprd0_si2061 quick_test/mfcc/raw_mfcc_train.4.ark:59216
mtrc0_si993 quick_test/mfcc/raw_mfcc_train.4.ark:3186278
mjxa0_si2137 quick_test/mfcc/raw_mfcc_train.3.ark:1790601
fjdm2_sx52 quick_test/mfcc/raw_mfcc_train.1.ark:1611863
mhbs0_sx135 quick_test/mfcc/raw_mfcc_train.3.ark:312583
msds0_sx87 quick_test/mfcc/raw_mfcc_train.4.ark:1918468
mmvp0_si654 quick_test/mfcc/raw_mfcc_train.3.ark:3283097
mtpg0_si2013 quick_test/mfcc/raw_mfcc_train.4.ark:3043330
mmeb0_si1357 quick_test/mfcc/raw_mfcc_train.3.ark:2995958
frll0_si805 quick_test/mfcc/raw_mfcc_train.1.ark:3525988
mtcs0_sx352 quick_test/mfcc/raw_mfcc_train.4.ark:2522575
mtcs0_si1972 quick_test/mfcc/raw_mfcc_train.4.ark:2504105
mrfl0_si1786 quick_test/mfcc/raw_mfcc_train.4.ark:705055
mrjh0_sx439 quick_test/mfcc/raw_mfcc_train.4.ark:907159
mbom0_si2274 quick_test/mfcc/raw_mfcc_train.2.ark:1323717
mklr0_sx69 quick_test/mfcc/raw_mfcc_train.3.ark:2198134
fpls0_sx150 quick_test/mfcc/raw_mfcc_train.1.ark:3409660
mrvg0_si1140 quick_test/mfcc/raw_mfcc_train.4.ark:1586072
mkaj0_sx64 quick_test/mfcc/raw_mfcc_train.3.ark:1941721
mmaa0_sx125 quick_test/mfcc/raw_mfcc_train.3.ark:2585764
mkrg0_sx141 quick_test/mfcc/raw_mfcc_train.3.ark:2317781
mtas0_sx35 quick_test/mfcc/raw_mfcc_train.4.ark:2396682
mppc0_sx62 quick_test/mfcc/raw_mfcc_train.4.ark:12265
mnet0_si816 quick_test/mfcc/raw_mfcc_train.3.ark:3452095
mtbc0_sx363 quick_test/mfcc/raw_mfcc_train.4.ark:2496252
mrmh0_si1021 quick_test/mfcc/raw_mfcc_train.4.ark:1269851
mcpm0_si1194 quick_test/mfcc/raw_mfcc_train.2.ark:1771866
msvs0_sx38 quick_test/mfcc/raw_mfcc_train.4.ark:2328773
mjlg1_sx112 quick_test/mfcc/raw_mfcc_train.3.ark:1214806
mddc0_sx249 quick_test/mfcc/raw_mfcc_train.2.ark:2170363
msds0_si1707 quick_test/mfcc/raw_mfcc_train.4.ark:1890866
msat1_si2333 quick_test/mfcc/raw_mfcc_train.4.ark:1803900
mzmb0_si536 quick_test/mfcc/raw_mfcc_train.4.ark:3784831
mmar0_si706 quick_test/mfcc/raw_mfcc_train.3.ark:2715401
mmag0_si496 quick_test/mfcc/raw_mfcc_train.3.ark:2649662
mmcc0_si1338 quick_test/mfcc/raw_mfcc_train.3.ark:2780786
maeb0_si990 quick_test/mfcc/raw_mfcc_train.2.ark:762920
mdmt0_sx392 quick_test/mfcc/raw_mfcc_train.2.ark:2741781
mtlb0_sx414 quick_test/mfcc/raw_mfcc_train.4.ark:2868679
madc0_sx377 quick_test/mfcc/raw_mfcc_train.2.ark:718107
mjsr0_sx164 quick_test/mfcc/raw_mfcc_train.3.ark:1654863
fsjw0_sx433 quick_test/mfcc/raw_mfcc_train.2.ark:74903
mjfr0_sx165 quick_test/mfcc/raw_mfcc_train.3.ark:980731
mdcd0_sx335 quick_test/mfcc/raw_mfcc_train.2.ark:2110599
msfv0_sx92 quick_test/mfcc/raw_mfcc_train.4.ark:2064856
fsak0_sx40 quick_test/mfcc/raw_mfcc_train.1.ark:3651851
mcal0_si1768 quick_test/mfcc/raw_mfcc_train.2.ark:1483852
mtat1_sx59 quick_test/mfcc/raw_mfcc_train.4.ark:2469070
mbgt0_sx441 quick_test/mfcc/raw_mfcc_train.2.ark:1184177
mjra0_sx336 quick_test/mfcc/raw_mfcc_train.3.ark:1467087
mjwg0_sx175 quick_test/mfcc/raw_mfcc_train.3.ark:1694452
mses0_sx59 quick_test/mfcc/raw_mfcc_train.4.ark:1990772
mtjm0_sx56 quick_test/mfcc/raw_mfcc_train.4.ark:2702182
mmdb0_si987 quick_test/mfcc/raw_mfcc_train.3.ark:2819806
fdkn0_si1202 quick_test/mfcc/raw_mfcc_train.1.ark:914854
mfxs0_sx234 quick_test/mfcc/raw_mfcc_train.2.ark:3534356
mbef0_sx381 quick_test/mfcc/raw_mfcc_train.2.ark:1154226
mdlh0_sx430 quick_test/mfcc/raw_mfcc_train.2.ark:2573542
mjfh0_sx387 quick_test/mfcc/raw_mfcc_train.3.ark:965114
mtlb0_sx324 quick_test/mfcc/raw_mfcc_train.4.ark:2863069
fgdp0_sx88 quick_test/mfcc/raw_mfcc_train.1.ark:1426376
mrbc0_sx419 quick_test/mfcc/raw_mfcc_train.4.ark:370400
mmgk0_sx422 quick_test/mfcc/raw_mfcc_train.3.ark:3105723
mdwh0_sx125 quick_test/mfcc/raw_mfcc_train.2.ark:3069579
marw0_si646 quick_test/mfcc/raw_mfcc_train.2.ark:1010795
fear0_sx442 quick_test/mfcc/raw_mfcc_train.1.ark:1179139
mwar0_sx325 quick_test/mfcc/raw_mfcc_train.4.ark:3509545
mkdt0_sx443 quick_test/mfcc/raw_mfcc_train.3.ark:2070031
fjkl0_sx392 quick_test/mfcc/raw_mfcc_train.1.ark:1712487
mmab1_sx324 quick_test/mfcc/raw_mfcc_train.3.ark:2624666
mmds0_sx173 quick_test/mfcc/raw_mfcc_train.3.ark:2951562
mrms0_sx390 quick_test/mfcc/raw_mfcc_train.4.ark:1366892
mpgr0_sx60 quick_test/mfcc/raw_mfcc_train.3.ark:3652864
mmam0_sx67 quick_test/mfcc/raw_mfcc_train.3.ark:2699934
mcal0_si508 quick_test/mfcc/raw_mfcc_train.2.ark:1486043
mdns0_si2271 quick_test/mfcc/raw_mfcc_train.2.ark:2752587
mnet0_sx366 quick_test/mfcc/raw_mfcc_train.3.ark:3461996
megj0_si1337 quick_test/mfcc/raw_mfcc_train.2.ark:3212568
mlbc0_sx339 quick_test/mfcc/raw_mfcc_train.3.ark:2384144
mlsh0_sx247 quick_test/mfcc/raw_mfcc_train.3.ark:2552694
mtpr0_sx250 quick_test/mfcc/raw_mfcc_train.4.ark:3117227
mmws1_sx27 quick_test/mfcc/raw_mfcc_train.3.ark:3401049
mwrp0_sx183 quick_test/mfcc/raw_mfcc_train.4.ark:3692423
mhxl0_si512 quick_test/mfcc/raw_mfcc_train.3.ark:485057
fsdc0_sx142 quick_test/mfcc/raw_mfcc_train.1.ark:3744979
mrgs0_sx186 quick_test/mfcc/raw_mfcc_train.4.ark:788942
mrms0_sx30 quick_test/mfcc/raw_mfcc_train.4.ark:1361756
mfxs0_si1674 quick_test/mfcc/raw_mfcc_train.2.ark:3521768
fdxw0_sx431 quick_test/mfcc/raw_mfcc_train.1.ark:1114285
fmbg0_si1160 quick_test/mfcc/raw_mfcc_train.1.ark:2816056
flhd0_sx354 quick_test/mfcc/raw_mfcc_train.1.ark:2474849
msrg0_sx51 quick_test/mfcc/raw_mfcc_train.4.ark:2228225
mjlb0_si986 quick_test/mfcc/raw_mfcc_train.3.ark:1180824
mhmg0_sx105 quick_test/mfcc/raw_mfcc_train.3.ark:400622
mmab1_sx144 quick_test/mfcc/raw_mfcc_train.3.ark:2616904
fmem0_sx387 quick_test/mfcc/raw_mfcc_train.1.ark:2879771
mrml0_si1421 quick_test/mfcc/raw_mfcc_train.4.ark:1299822
mtrt0_si597 quick_test/mfcc/raw_mfcc_train.4.ark:3249104
mtjs0_sx202 quick_test/mfcc/raw_mfcc_train.4.ark:2727647
mdpk0_si1053 quick_test/mfcc/raw_mfcc_train.2.ark:2812077
mklw0_si1844 quick_test/mfcc/raw_mfcc_train.3.ark:2275030
madd0_sx88 quick_test/mfcc/raw_mfcc_train.2.ark:749650
ftaj0_si699 quick_test/mfcc/raw_mfcc_train.2.ark:418443
mcre0_si1121 quick_test/mfcc/raw_mfcc_train.2.ark:1801615
fjrb0_si1932 quick_test/mfcc/raw_mfcc_train.1.ark:1786302
fbmh0_sx146 quick_test/mfcc/raw_mfcc_train.1.ark:357491
mrjm1_si668 quick_test/mfcc/raw_mfcc_train.4.ark:959922
mjbg0_sx422 quick_test/mfcc/raw_mfcc_train.3.ark:666920
mrav0_sx18 quick_test/mfcc/raw_mfcc_train.4.ark:332420
mtat1_si1627 quick_test/mfcc/raw_mfcc_train.4.ark:2438895
madc0_sx17 quick_test/mfcc/raw_mfcc_train.2.ark:707946
makb0_sx116 quick_test/mfcc/raw_mfcc_train.2.ark:898943
mjac0_sx341 quick_test/mfcc/raw_mfcc_train.3.ark:564639
mtat1_si779 quick_test/mfcc/raw_mfcc_train.4.ark:2441671
mrxb0_si955 quick_test/mfcc/raw_mfcc_train.4.ark:1683082
fmkf0_sx276 quick_test/mfcc/raw_mfcc_train.1.ark:3037374
mjma0_sx325 quick_test/mfcc/raw_mfcc_train.3.ark:1286382
mcef0_sx55 quick_test/mfcc/raw_mfcc_train.2.ark:1632373
mwgr0_sx346 quick_test/mfcc/raw_mfcc_train.4.ark:3634146
fsma0_si1621 quick_test/mfcc/raw_mfcc_train.2.ark:208955
mvjh0_si2186 quick_test/mfcc/raw_mfcc_train.4.ark:3340737
fbas0_sx127 quick_test/mfcc/raw_mfcc_train.1.ark:191014
fbas0_sx37 quick_test/mfcc/raw_mfcc_train.1.ark:199029
fexm0_sx111 quick_test/mfcc/raw_mfcc_train.1.ark:1341058
mrlr0_si1826 quick_test/mfcc/raw_mfcc_train.4.ark:1182249
fpac0_sx31 quick_test/mfcc/raw_mfcc_train.1.ark:3256111
mjae0_sx264 quick_test/mfcc/raw_mfcc_train.3.ark:592367
marc0_si558 quick_test/mfcc/raw_mfcc_train.2.ark:982931
mprt0_si1210 quick_test/mfcc/raw_mfcc_train.4.ark:129587
mljh0_sx64 quick_test/mfcc/raw_mfcc_train.3.ark:2502576
mtpf0_sx245 quick_test/mfcc/raw_mfcc_train.4.ark:3023768
fjsp0_sx174 quick_test/mfcc/raw_mfcc_train.1.ark:1899068
mewm0_si718 quick_test/mfcc/raw_mfcc_train.2.ark:3374792
mpgr0_si780 quick_test/mfcc/raw_mfcc_train.3.ark:3634877
megj0_sx3 quick_test/mfcc/raw_mfcc_train.2.ark:3237094
fcmg0_sx72 quick_test/mfcc/raw_mfcc_train.1.ark:685572
mrtj0_si2032 quick_test/mfcc/raw_mfcc_train.4.ark:1549870
fjen0_si2307 quick_test/mfcc/raw_mfcc_train.1.ark:1624367
mewm0_sx88 quick_test/mfcc/raw_mfcc_train.2.ark:3393585
mses0_si2216 quick_test/mfcc/raw_mfcc_train.4.ark:1969605
fcag0_si1641 quick_test/mfcc/raw_mfcc_train.1.ark:413802
mpgr1_sx239 quick_test/mfcc/raw_mfcc_train.3.ark:3673494
mgaw0_si535 quick_test/mfcc/raw_mfcc_train.3.ark:43298
mkag0_si2239 quick_test/mfcc/raw_mfcc_train.3.ark:1855000
msas0_si2006 quick_test/mfcc/raw_mfcc_train.4.ark:1740598
mbsb0_si723 quick_test/mfcc/raw_mfcc_train.2.ark:1351192
fvkb0_sx349 quick_test/mfcc/raw_mfcc_train.2.ark:615301
fltm0_sx260 quick_test/mfcc/raw_mfcc_train.1.ark:2766025
mjhi0_sx158 quick_test/mfcc/raw_mfcc_train.3.ark:1018201
mjee0_si1867 quick_test/mfcc/raw_mfcc_train.3.ark:914875
msat0_sx176 quick_test/mfcc/raw_mfcc_train.4.ark:1779760
feme0_sx425 quick_test/mfcc/raw_mfcc_train.1.ark:1287535
mejl0_sx242 quick_test/mfcc/raw_mfcc_train.2.ark:3262286
mrab1_si1478 quick_test/mfcc/raw_mfcc_train.4.ark:217013
fpad0_si1976 quick_test/mfcc/raw_mfcc_train.1.ark:3266820
mjsr0_si2054 quick_test/mfcc/raw_mfcc_train.3.ark:1641329
mgaf0_sx292 quick_test/mfcc/raw_mfcc_train.2.ark:3604775
fjxm0_sx131 quick_test/mfcc/raw_mfcc_train.1.ark:1962270
mrtj0_sx412 quick_test/mfcc/raw_mfcc_train.4.ark:1576399
fsls0_sx156 quick_test/mfcc/raw_mfcc_train.2.ark:190096
mhbs0_si1575 quick_test/mfcc/raw_mfcc_train.3.ark:299444
fsrh0_si1719 quick_test/mfcc/raw_mfcc_train.2.ark:346164
mcdc0_sx212 quick_test/mfcc/raw_mfcc_train.2.ark:1524828
mhbs0_sx405 quick_test/mfcc/raw_mfcc_train.3.ark:322315
mtpp0_sx158 quick_test/mfcc/raw_mfcc_train.4.ark:3079606
fcke0_si481 quick_test/mfcc/raw_mfcc_train.1.ark:600572
fskl0_sx359 quick_test/mfcc/raw_mfcc_train.2.ark:133354
mrms0_si2057 quick_test/mfcc/raw_mfcc_train.4.ark:1346037
feeh0_sx32 quick_test/mfcc/raw_mfcc_train.1.ark:1251129
mdpb0_si1760 quick_test/mfcc/raw_mfcc_train.2.ark:2777999
mabc0_sx241 quick_test/mfcc/raw_mfcc_train.2.ark:674974
msdb0_si1007 quick_test/mfcc/raw_mfcc_train.4.ark:1827095
madc0_sx197 quick_test/mfcc/raw_mfcc_train.2.ark:710605
mjac0_si701 quick_test/mfcc/raw_mfcc_train.3.ark:550422
flma0_sx253 quick_test/mfcc/raw_mfcc_train.1.ark:2643581
mbjv0_sx167 quick_test/mfcc/raw_mfcc_train.2.ark:1202699
mkrg0_si1491 quick_test/mfcc/raw_mfcc_train.3.ark:2302042
mrcg0_sx438 quick_test/mfcc/raw_mfcc_train.4.ark:406064
mtrc0_sx170 quick_test/mfcc/raw_mfcc_train.4.ark:3188963
fexm0_si1101 quick_test/mfcc/raw_mfcc_train.1.ark:1326515
ftbr0_sx201 quick_test/mfcc/raw_mfcc_train.2.ark:456318
fjkl0_si1562 quick_test/mfcc/raw_mfcc_train.1.ark:1685801
mmag0_sx136 quick_test/mfcc/raw_mfcc_train.3.ark:2653621
mrjt0_sx58 quick_test/mfcc/raw_mfcc_train.4.ark:1012026
mtwh1_sx162 quick_test/mfcc/raw_mfcc_train.4.ark:3279133
mtkp0_sx213 quick_test/mfcc/raw_mfcc_train.4.ark:2830739
fsjg0_sx220 quick_test/mfcc/raw_mfcc_train.1.ark:3845049
mtju0_sx40 quick_test/mfcc/raw_mfcc_train.4.ark:2767133
fdnc0_sx288 quick_test/mfcc/raw_mfcc_train.1.ark:1047609
mtkd0_si1187 quick_test/mfcc/raw_mfcc_train.4.ark:2774636
mkdb0_sx242 quick_test/mfcc/raw_mfcc_train.3.ark:1994569
fpmy0_sx163 quick_test/mfcc/raw_mfcc_train.1.ark:3444451
mgak0_sx406 quick_test/mfcc/raw_mfcc_train.2.ark:3669682
mmgg0_si1079 quick_test/mfcc/raw_mfcc_train.3.ark:3055416
mgsh0_si546 quick_test/mfcc/raw_mfcc_train.3.ark:204225
fsah0_si1244 quick_test/mfcc/raw_mfcc_train.1.ark:3592901
mrab1_sx308 quick_test/mfcc/raw_mfcc_train.4.ark:237576
mrmg0_si2340 quick_test/mfcc/raw_mfcc_train.4.ark:1245408
mmjb1_sx418 quick_test/mfcc/raw_mfcc_train.3.ark:3137396
fntb0_sx303 quick_test/mfcc/raw_mfcc_train.1.ark:3180123
mjpm1_sx311 quick_test/mfcc/raw_mfcc_train.3.ark:1432749
mdas0_sx276 quick_test/mfcc/raw_mfcc_train.2.ark:2015490
mkxl0_si1815 quick_test/mfcc/raw_mfcc_train.3.ark:2335919
mjmd0_si1028 quick_test/mfcc/raw_mfcc_train.3.ark:1296010
mrld0_sx334 quick_test/mfcc/raw_mfcc_train.4.ark:1077021
mjjj0_sx83 quick_test/mfcc/raw_mfcc_train.3.ark:1102674
mjac0_sx251 quick_test/mfcc/raw_mfcc_train.3.ark:556305
fmbg0_sx260 quick_test/mfcc/raw_mfcc_train.1.ark:2828962
falk0_si456 quick_test/mfcc/raw_mfcc_train.1.ark:72191
mnet0_si1446 quick_test/mfcc/raw_mfcc_train.3.ark:3444683
mreh1_si969 quick_test/mfcc/raw_mfcc_train.4.ark:579202
mreh1_si2229 quick_test/mfcc/raw_mfcc_train.4.ark:576634
fksr0_si1117 quick_test/mfcc/raw_mfcc_train.1.ark:2292799
msmc0_sx107 quick_test/mfcc/raw_mfcc_train.4.ark:2117618
fkde0_si1771 quick_test/mfcc/raw_mfcc_train.1.ark:2059277
mppc0_sx422 quick_test/mfcc/raw_mfcc_train.4.ark:7917
mjde0_sx40 quick_test/mfcc/raw_mfcc_train.3.ark:767320
fscn0_sx446 quick_test/mfcc/raw_mfcc_train.1.ark:3725377
fgmb0_sx155 quick_test/mfcc/raw_mfcc_train.1.ark:1447037
mtwh1_si1512 quick_test/mfcc/raw_mfcc_train.4.ark:3269088
mrew1_sx150 quick_test/mfcc/raw_mfcc_train.4.ark:649613
fdml0_sx69 quick_test/mfcc/raw_mfcc_train.1.ark:972050
fsdj0_si1115 quick_test/mfcc/raw_mfcc_train.1.ark:3763773
fhxs0_si1075 quick_test/mfcc/raw_mfcc_train.1.ark:1541321
mesg0_sx162 quick_test/mfcc/raw_mfcc_train.2.ark:3321556
mrmg0_si1710 quick_test/mfcc/raw_mfcc_train.4.ark:1241721
flmk0_si1035 quick_test/mfcc/raw_mfcc_train.1.ark:2689634
mjjj0_sx173 quick_test/mfcc/raw_mfcc_train.3.ark:1085214
mcdc0_si1922 quick_test/mfcc/raw_mfcc_train.2.ark:1513731
mfxv0_sx375 quick_test/mfcc/raw_mfcc_train.2.ark:3579544
mdks0_sx76 quick_test/mfcc/raw_mfcc_train.2.ark:2408150
fleh0_si2311 quick_test/mfcc/raw_mfcc_train.1.ark:2401237
flkm0_si686 quick_test/mfcc/raw_mfcc_train.1.ark:2603418
mjbg0_si1862 quick_test/mfcc/raw_mfcc_train.3.ark:649680
mmbs0_si521 quick_test/mfcc/raw_mfcc_train.3.ark:2750441
mdem0_si800 quick_test/mfcc/raw_mfcc_train.2.ark:2257438
fclt0_sx88 quick_test/mfcc/raw_mfcc_train.1.ark:649114
mbsb0_si1983 quick_test/mfcc/raw_mfcc_train.2.ark:1349183
mrso0_si1206 quick_test/mfcc/raw_mfcc_train.4.ark:1436265
faem0_sx312 quick_test/mfcc/raw_mfcc_train.1.ark:20537
fjlg0_sx89 quick_test/mfcc/raw_mfcc_train.1.ark:1744889
mjwt0_sx301 quick_test/mfcc/raw_mfcc_train.3.ark:1774322
mjdc0_si531 quick_test/mfcc/raw_mfcc_train.3.ark:709582
mgsh0_sx276 quick_test/mfcc/raw_mfcc_train.3.ark:216505
mjxl0_si1172 quick_test/mfcc/raw_mfcc_train.3.ark:1815961
fjrp1_si802 quick_test/mfcc/raw_mfcc_train.1.ark:1824755
mdhs0_sx450 quick_test/mfcc/raw_mfcc_train.2.ark:2342236
mcef0_si1135 quick_test/mfcc/raw_mfcc_train.2.ark:1605765
ftbw0_si1975 quick_test/mfcc/raw_mfcc_train.2.ark:472968
fdas1_sx291 quick_test/mfcc/raw_mfcc_train.1.ark:810710
ftbw0_sx445 quick_test/mfcc/raw_mfcc_train.2.ark:495389
fecd0_sx338 quick_test/mfcc/raw_mfcc_train.1.ark:1212638
mcdr0_sx434 quick_test/mfcc/raw_mfcc_train.2.ark:1598770
ftbr0_sx21 quick_test/mfcc/raw_mfcc_train.2.ark:460315
mjrk0_sx160 quick_test/mfcc/raw_mfcc_train.3.ark:1587617
mkrg0_si2121 quick_test/mfcc/raw_mfcc_train.3.ark:2307198
medr0_sx114 quick_test/mfcc/raw_mfcc_train.2.ark:3163559
medr0_sx24 quick_test/mfcc/raw_mfcc_train.2.ark:3170007
freh0_si1945 quick_test/mfcc/raw_mfcc_train.1.ark:3468778
mmaa0_sx35 quick_test/mfcc/raw_mfcc_train.3.ark:2597601
mjrp0_sx135 quick_test/mfcc/raw_mfcc_train.3.ark:1618575
mjwt0_sx31 quick_test/mfcc/raw_mfcc_train.3.ark:1779086
mkah0_sx448 quick_test/mfcc/raw_mfcc_train.3.ark:1908599
mcdr0_sx344 quick_test/mfcc/raw_mfcc_train.2.ark:1595370
mrcg0_si2058 quick_test/mfcc/raw_mfcc_train.4.ark:383760
mdns0_sx201 quick_test/mfcc/raw_mfcc_train.2.ark:2764958
fvkb0_sx79 quick_test/mfcc/raw_mfcc_train.2.ark:626169
mjws0_si513 quick_test/mfcc/raw_mfcc_train.3.ark:1721763
fhlm0_sx120 quick_test/mfcc/raw_mfcc_train.1.ark:1517755
mmxs0_si2136 quick_test/mfcc/raw_mfcc_train.3.ark:3413258
mjpm1_sx41 quick_test/mfcc/raw_mfcc_train.3.ark:1443045
msah1_sx59 quick_test/mfcc/raw_mfcc_train.4.ark:1731430
mnet0_si2076 quick_test/mfcc/raw_mfcc_train.3.ark:3449826
flmk0_sx225 quick_test/mfcc/raw_mfcc_train.1.ark:2707461
mrvg0_sx330 quick_test/mfcc/raw_mfcc_train.4.ark:1602449
mdlm0_sx334 quick_test/mfcc/raw_mfcc_train.2.ark:2599969
mpeb0_sx330 quick_test/mfcc/raw_mfcc_train.3.ark:3552282
mafm0_sx399 quick_test/mfcc/raw_mfcc_train.2.ark:840523
mdlc1_sx265 quick_test/mfcc/raw_mfcc_train.2.ark:2505503
mlbc0_si609 quick_test/mfcc/raw_mfcc_train.3.ark:2372046
mbef0_si1281 quick_test/mfcc/raw_mfcc_train.2.ark:1130413
fbmh0_si1766 quick_test/mfcc/raw_mfcc_train.1.ark:348442
mgrp0_sx237 quick_test/mfcc/raw_mfcc_train.3.ark:176128
mgrl0_si867 quick_test/mfcc/raw_mfcc_train.3.ark:133677
fdmy0_si714 quick_test/mfcc/raw_mfcc_train.1.ark:989154
mjma0_si865 quick_test/mfcc/raw_mfcc_train.3.ark:1275415
fscn0_sx266 quick_test/mfcc/raw_mfcc_train.1.ark:3716614
fklh0_sx357 quick_test/mfcc/raw_mfcc_train.1.ark:2280662
mjmm0_sx445 quick_test/mfcc/raw_mfcc_train.3.ark:1348267
mmgc0_si1305 quick_test/mfcc/raw_mfcc_train.3.ark:3025510
fcke0_sx121 quick_test/mfcc/raw_mfcc_train.1.ark:606832
