mhjb0_si1017 quick_test/fbank/raw_fbank_train.3.ark:1105444
mjxl0_sx362 quick_test/fbank/raw_fbank_train.3.ark:5616576
fdml0_si2075 quick_test/fbank/raw_fbank_train.1.ark:2925927
mchl0_sx267 quick_test/fbank/raw_fbank_train.2.ark:5184579
mvjh0_sx296 quick_test/fbank/raw_fbank_train.4.ark:10280210
mrem0_si1591 quick_test/fbank/raw_fbank_train.4.ark:1859037
fskl0_si899 quick_test/fbank/raw_fbank_train.2.ark:375406
mjhi0_sx338 quick_test/fbank/raw_fbank_train.3.ark:3133268
flmc0_sx112 quick_test/fbank/raw_fbank_train.1.ark:8168823
msvs0_sx218 quick_test/fbank/raw_fbank_train.4.ark:7098849
feme0_sx335 quick_test/fbank/raw_fbank_train.1.ark:3920852
mmbs0_si1151 quick_test/fbank/raw_fbank_train.3.ark:8398512
mppc0_sx332 quick_test/fbank/raw_fbank_train.4.ark:12125
mdbb1_sx16 quick_test/fbank/raw_fbank_train.2.ark:6245690
fecd0_si788 quick_test/fbank/raw_fbank_train.1.ark:3667063
mctm0_sx450 quick_test/fbank/raw_fbank_train.2.ark:5885259
mrbc0_sx239 quick_test/fbank/raw_fbank_train.4.ark:1106008
mcss0_sx30 quick_test/fbank/raw_fbank_train.2.ark:5682255
fbmj0_sx66 quick_test/fbank/raw_fbank_train.1.ark:1245595
mntw0_sx202 quick_test/fbank/raw_fbank_train.3.ark:10686298
mrav0_si1638 quick_test/fbank/raw_fbank_train.4.ark:977803
mdwd0_sx450 quick_test/fbank/raw_fbank_train.2.ark:9320895
mbcg0_sx237 quick_test/fbank/raw_fbank_train.2.ark:3412211
mjae0_sx264 quick_test/fbank/raw_fbank_train.3.ark:1812470
mwac0_sx161 quick_test/fbank/raw_fbank_train.4.ark:10524227
mpsw0_sx24 quick_test/fbank/raw_fbank_train.4.ark:525896
mzmb0_sx176 quick_test/fbank/raw_fbank_train.4.ark:11596944
mvjh0_sx386 quick_test/fbank/raw_fbank_train.4.ark:10289923
fcrz0_si793 quick_test/fbank/raw_fbank_train.1.ark:2228108
mrmg0_sx270 quick_test/fbank/raw_fbank_train.4.ark:3837524
mrtj0_si1551 quick_test/fbank/raw_fbank_train.4.ark:4728299
mprb0_sx35 quick_test/fbank/raw_fbank_train.4.ark:141062
mrlr0_si1196 quick_test/fbank/raw_fbank_train.4.ark:3600260
flhd0_sx174 quick_test/fbank/raw_fbank_train.1.ark:7547153
fssb0_sx92 quick_test/fbank/raw_fbank_train.2.ark:1249132
mjrp0_sx225 quick_test/fbank/raw_fbank_train.3.ark:4966354
mjws0_sx333 quick_test/fbank/raw_fbank_train.3.ark:5308741
mrjt0_sx238 quick_test/fbank/raw_fbank_train.4.ark:3057644
fksr0_sx161 quick_test/fbank/raw_fbank_train.1.ark:7052266
mjpm1_si2280 quick_test/fbank/raw_fbank_train.3.ark:4338264
fjkl0_si1562 quick_test/fbank/raw_fbank_train.1.ark:5159513
mpfu0_si1888 quick_test/fbank/raw_fbank_train.3.ark:10929274
mmdm1_si1650 quick_test/fbank/raw_fbank_train.3.ark:8901157
mtat0_si1740 quick_test/fbank/raw_fbank_train.4.ark:7372305
mejs0_sx160 quick_test/fbank/raw_fbank_train.2.ark:10067273
mclk0_si1660 quick_test/fbank/raw_fbank_train.2.ark:5231751
mgsl0_si1164 quick_test/fbank/raw_fbank_train.3.ark:701108
fklh0_sx177 quick_test/fbank/raw_fbank_train.1.ark:6958081
freh0_si685 quick_test/fbank/raw_fbank_train.1.ark:10632786
feeh0_sx392 quick_test/fbank/raw_fbank_train.1.ark:3840572
mhit0_sx263 quick_test/fbank/raw_fbank_train.3.ark:1060752
mtas0_sx125 quick_test/fbank/raw_fbank_train.4.ark:7306146
mfwk0_sx169 quick_test/fbank/raw_fbank_train.2.ark:10710287
msjk0_sx246 quick_test/fbank/raw_fbank_train.4.ark:6386397
fjrp1_sx172 quick_test/fbank/raw_fbank_train.1.ark:5595234
fpjf0_sx236 quick_test/fbank/raw_fbank_train.1.ark:10347659
mtas0_sx35 quick_test/fbank/raw_fbank_train.4.ark:7334604
fvmh0_si836 quick_test/fbank/raw_fbank_train.2.ark:1955767
mrai0_sx252 quick_test/fbank/raw_fbank_train.4.ark:822571
mgaw0_si535 quick_test/fbank/raw_fbank_train.3.ark:132506
ftmg0_sx362 quick_test/fbank/raw_fbank_train.2.ark:1699310
mjxl0_sx92 quick_test/fbank/raw_fbank_train.3.ark:5647801
mrso0_sx129 quick_test/fbank/raw_fbank_train.4.ark:4444884
fvkb0_sx349 quick_test/fbank/raw_fbank_train.2.ark:1882681
mrjm1_sx38 quick_test/fbank/raw_fbank_train.4.ark:2985084
fdtd0_sx321 quick_test/fbank/raw_fbank_train.1.ark:3314414
mrms0_sx300 quick_test/fbank/raw_fbank_train.4.ark:4174346
fblv0_si2318 quick_test/fbank/raw_fbank_train.1.ark:975582
fmah1_sx339 quick_test/fbank/raw_fbank_train.1.ark:8585032
mdjm0_sx15 quick_test/fbank/raw_fbank_train.2.ark:7240900
mkjo0_si2147 quick_test/fbank/raw_fbank_train.3.ark:6478587
meal0_sx197 quick_test/fbank/raw_fbank_train.2.ark:9595784
mstf0_si1396 quick_test/fbank/raw_fbank_train.4.ark:6928292
mclk0_sx310 quick_test/fbank/raw_fbank_train.2.ark:5303037
fpab1_sx31 quick_test/fbank/raw_fbank_train.1.ark:9858438
mesg0_si1962 quick_test/fbank/raw_fbank_train.2.ark:10137152
mgxp0_si1087 quick_test/fbank/raw_fbank_train.3.ark:808732
mjpg0_sx291 quick_test/fbank/raw_fbank_train.3.ark:4211378
mbef0_sx111 quick_test/fbank/raw_fbank_train.2.ark:3497403
mjjm0_si1251 quick_test/fbank/raw_fbank_train.3.ark:3384618
mgjc0_si1335 quick_test/fbank/raw_fbank_train.3.ark:288803
mpgr0_si2040 quick_test/fbank/raw_fbank_train.3.ark:11115323
mtmn0_si582 quick_test/fbank/raw_fbank_train.4.ark:9031379
madc0_sx17 quick_test/fbank/raw_fbank_train.2.ark:2166162
fcke0_sx31 quick_test/fbank/raw_fbank_train.1.ark:1889138
mcae0_sx97 quick_test/fbank/raw_fbank_train.2.ark:4511381
flja0_si1078 quick_test/fbank/raw_fbank_train.1.ark:7609278
mtlb0_sx54 quick_test/fbank/raw_fbank_train.4.ark:8790947
mtkp0_sx303 quick_test/fbank/raw_fbank_train.4.ark:8673937
fcrz0_sx73 quick_test/fbank/raw_fbank_train.1.ark:2284352
fpls0_si1590 quick_test/fbank/raw_fbank_train.1.ark:10394991
mbar0_si1319 quick_test/fbank/raw_fbank_train.2.ark:3176028
mkah0_sx88 quick_test/fbank/raw_fbank_train.3.ark:5851650
mtmt0_sx308 quick_test/fbank/raw_fbank_train.4.ark:9170143
mrlk0_sx123 quick_test/fbank/raw_fbank_train.4.ark:3549415
fcjf0_sx127 quick_test/fbank/raw_fbank_train.1.ark:1683070
flmk0_sx315 quick_test/fbank/raw_fbank_train.1.ark:8295275
mjra0_sx426 quick_test/fbank/raw_fbank_train.3.ark:4505854
mdwd0_si1260 quick_test/fbank/raw_fbank_train.2.ark:9251096
mtat1_sx239 quick_test/fbank/raw_fbank_train.4.ark:7507629
mtmn0_si2324 quick_test/fbank/raw_fbank_train.4.ark:9015026
fsah0_sx74 quick_test/fbank/raw_fbank_train.1.ark:11091770
fsak0_sx310 quick_test/fbank/raw_fbank_train.1.ark:11163130
fsms1_sx244 quick_test/fbank/raw_fbank_train.2.ark:899758
fsls0_si1056 quick_test/fbank/raw_fbank_train.2.ark:538829
mhmg0_sx285 quick_test/fbank/raw_fbank_train.3.ark:1253188
fjlr0_si1231 quick_test/fbank/raw_fbank_train.1.ark:5351804
ftmg0_sx452 quick_test/fbank/raw_fbank_train.2.ark:1712543
msmr0_sx55 quick_test/fbank/raw_fbank_train.4.ark:6626024
mkln0_sx158 quick_test/fbank/raw_fbank_train.3.ark:6593878
mmeb0_sx97 quick_test/fbank/raw_fbank_train.3.ark:9246861
fsls0_sx66 quick_test/fbank/raw_fbank_train.2.ark:628141
mnet0_sx6 quick_test/fbank/raw_fbank_train.3.ark:10607538
fblv0_si1688 quick_test/fbank/raw_fbank_train.1.ark:954508
milb0_si807 quick_test/fbank/raw_fbank_train.3.ark:1584722
mkls0_sx177 quick_test/fbank/raw_fbank_train.3.ark:6784850
mkaj0_sx154 quick_test/fbank/raw_fbank_train.3.ark:5901744
mdlr0_sx333 quick_test/fbank/raw_fbank_train.2.ark:8045855
fspm0_sx431 quick_test/fbank/raw_fbank_train.2.ark:1038689
mrfl0_sx436 quick_test/fbank/raw_fbank_train.4.ark:2227351
mmjb1_sx328 quick_test/fbank/raw_fbank_train.3.ark:9585658
mkdd0_si1567 quick_test/fbank/raw_fbank_train.3.ark:6155839
frjb0_sx167 quick_test/fbank/raw_fbank_train.1.ark:10715085
flmk0_si2295 quick_test/fbank/raw_fbank_train.1.ark:8260856
fkde0_si2221 quick_test/fbank/raw_fbank_train.1.ark:6320897
mmlm0_sx177 quick_test/fbank/raw_fbank_train.3.ark:9660937
madc0_si737 quick_test/fbank/raw_fbank_train.2.ark:2134937
mmbs0_sx71 quick_test/fbank/raw_fbank_train.3.ark:8497263
mrpc1_sx402 quick_test/fbank/raw_fbank_train.4.ark:4259493
fvkb0_sx439 quick_test/fbank/raw_fbank_train.2.ark:1902394
mmrp0_si774 quick_test/fbank/raw_fbank_train.3.ark:9829554
mtju0_si2020 quick_test/fbank/raw_fbank_train.4.ark:8397241
feme0_sx245 quick_test/fbank/raw_fbank_train.1.ark:3909579
mgxp0_sx187 quick_test/fbank/raw_fbank_train.3.ark:858151
mrjt0_sx328 quick_test/fbank/raw_fbank_train.4.ark:3069037
fsgf0_si1557 quick_test/fbank/raw_fbank_train.1.ark:11605690
mrcg0_si1428 quick_test/fbank/raw_fbank_train.4.ark:1154820
mbma1_sx144 quick_test/fbank/raw_fbank_train.2.ark:3867823
mtpr0_sx340 quick_test/fbank/raw_fbank_train.4.ark:9554283
mbma0_sx142 quick_test/fbank/raw_fbank_train.2.ark:3769078
mkes0_sx353 quick_test/fbank/raw_fbank_train.3.ark:6428774
mrre0_si704 quick_test/fbank/raw_fbank_train.4.ark:4298992
frll0_sx254 quick_test/fbank/raw_fbank_train.1.ark:10837622
fdml0_sx429 quick_test/fbank/raw_fbank_train.1.ark:2963139
mejl0_sx332 quick_test/fbank/raw_fbank_train.2.ark:9992834
ftaj0_sx429 quick_test/fbank/raw_fbank_train.2.ark:1321244
fkdw0_si577 quick_test/fbank/raw_fbank_train.1.ark:6433882
mrjm0_si1095 quick_test/fbank/raw_fbank_train.4.ark:2807340
fmmh0_sx97 quick_test/fbank/raw_fbank_train.1.ark:9435932
falr0_si695 quick_test/fbank/raw_fbank_train.1.ark:334750
mjjb0_sx59 quick_test/fbank/raw_fbank_train.3.ark:3263639
mtkd0_sx197 quick_test/fbank/raw_fbank_train.4.ark:8560151
fsmm0_sx324 quick_test/fbank/raw_fbank_train.2.ark:805646
mkls0_sx357 quick_test/fbank/raw_fbank_train.3.ark:6808636
ftbr0_sx381 quick_test/fbank/raw_fbank_train.2.ark:1427661
mwsh0_sx166 quick_test/fbank/raw_fbank_train.4.ark:11488239
fskl0_si2159 quick_test/fbank/raw_fbank_train.2.ark:359093
fsdj0_si485 quick_test/fbank/raw_fbank_train.1.ark:11547612
mesg0_sx72 quick_test/fbank/raw_fbank_train.2.ark:10216749
mhmr0_sx219 quick_test/fbank/raw_fbank_train.3.ark:1329988
fltm0_sx80 quick_test/fbank/raw_fbank_train.1.ark:8514792
mdpb0_si1760 quick_test/fbank/raw_fbank_train.2.ark:8500055
mdef0_sx213 quick_test/fbank/raw_fbank_train.2.ark:6839562
mdwd0_sx180 quick_test/fbank/raw_fbank_train.2.ark:9290156
megj0_si1337 quick_test/fbank/raw_fbank_train.2.ark:9829485
marw0_sx106 quick_test/fbank/raw_fbank_train.2.ark:3102543
mjra0_si606 quick_test/fbank/raw_fbank_train.3.ark:4456042
mjai0_sx344 quick_test/fbank/raw_fbank_train.3.ark:1938487
mbma0_si1222 quick_test/fbank/raw_fbank_train.2.ark:3736458
fjlr0_si1861 quick_test/fbank/raw_fbank_train.1.ark:5369398
mjpg0_sx381 quick_test/fbank/raw_fbank_train.3.ark:4219731
mjdc0_si531 quick_test/fbank/raw_fbank_train.3.ark:2171065
mgxp0_sx367 quick_test/fbank/raw_fbank_train.3.ark:879177
mchl0_si1347 quick_test/fbank/raw_fbank_train.2.ark:5131685
mmlm0_si897 quick_test/fbank/raw_fbank_train.3.ark:9651504
mmar0_sx436 quick_test/fbank/raw_fbank_train.3.ark:8373166
mlbc0_si1239 quick_test/fbank/raw_fbank_train.3.ark:7232996
mrhl0_si2145 quick_test/fbank/raw_fbank_train.4.ark:2486779
mprt0_si495 quick_test/fbank/raw_fbank_train.4.ark:412812
fgrw0_sx72 quick_test/fbank/raw_fbank_train.1.ark:4604709
mcss0_si750 quick_test/fbank/raw_fbank_train.2.ark:5646477
fspm0_sx251 quick_test/fbank/raw_fbank_train.2.ark:1007623
fpjf0_sx326 quick_test/fbank/raw_fbank_train.1.ark:10357692
mrtc0_si1458 quick_test/fbank/raw_fbank_train.4.ark:4619954
mjfh0_sx297 quick_test/fbank/raw_fbank_train.3.ark:2944891
mcdc0_sx302 quick_test/fbank/raw_fbank_train.2.ark:4678806
fvmh0_si2096 quick_test/fbank/raw_fbank_train.2.ark:1944494
mjwg0_si813 quick_test/fbank/raw_fbank_train.3.ark:5141104
mjrk0_sx160 quick_test/fbank/raw_fbank_train.3.ark:4857776
mmwb0_sx179 quick_test/fbank/raw_fbank_train.3.ark:10192103
fmpg0_sx72 quick_test/fbank/raw_fbank_train.1.ark:9561917
mjjj0_si1793 quick_test/fbank/raw_fbank_train.3.ark:3296307
fljg0_sx351 quick_test/fbank/raw_fbank_train.1.ark:7887895
fmjf0_sx264 quick_test/fbank/raw_fbank_train.1.ark:8983017
mreh1_sx249 quick_test/fbank/raw_fbank_train.4.ark:1808265
mtpg0_sx123 quick_test/fbank/raw_fbank_train.4.ark:9337847
mjra0_si1866 quick_test/fbank/raw_fbank_train.3.ark:4442129
fjlg0_sx269 quick_test/fbank/raw_fbank_train.1.ark:5299992
fltm0_sx260 quick_test/fbank/raw_fbank_train.1.ark:8465374
fmem0_si1377 quick_test/fbank/raw_fbank_train.1.ark:8717275
fbmh0_sx416 quick_test/fbank/raw_fbank_train.1.ark:1123899
mcew0_si812 quick_test/fbank/raw_fbank_train.2.ark:5036687
mjeb0_sx170 quick_test/fbank/raw_fbank_train.3.ark:2617558
mmrp0_sx324 quick_test/fbank/raw_fbank_train.3.ark:9871013
msat1_sx173 quick_test/fbank/raw_fbank_train.4.ark:5531121
mdem0_sx428 quick_test/fbank/raw_fbank_train.2.ark:6968132
fljd0_sx436 quick_test/fbank/raw_fbank_train.1.ark:7795623
mtml0_sx75 quick_test/fbank/raw_fbank_train.4.ark:8988198
mewm0_si718 quick_test/fbank/raw_fbank_train.2.ark:10325753
mrwa0_sx343 quick_test/fbank/raw_fbank_train.4.ark:4997035
flhd0_sx264 quick_test/fbank/raw_fbank_train.1.ark:7562786
mrkm0_sx7 quick_test/fbank/raw_fbank_train.4.ark:3214373
fajw0_sx183 quick_test/fbank/raw_fbank_train.1.ark:151578
fhlm0_sx349 quick_test/fbank/raw_fbank_train.1.ark:4685622
mjdg0_sx232 quick_test/fbank/raw_fbank_train.3.ark:2427461
mjdm0_sx440 quick_test/fbank/raw_fbank_train.3.ark:2557112
mrfk0_sx356 quick_test/fbank/raw_fbank_train.4.ark:2107133
mded0_sx450 quick_test/fbank/raw_fbank_train.2.ark:6762322
fjwb1_si795 quick_test/fbank/raw_fbank_train.1.ark:5903916
mdac0_si1261 quick_test/fbank/raw_fbank_train.2.ark:6003830
mapv0_sx303 quick_test/fbank/raw_fbank_train.2.ark:2961759
mjda0_sx311 quick_test/fbank/raw_fbank_train.3.ark:2114419
mmaa0_si845 quick_test/fbank/raw_fbank_train.3.ark:7894053
flmk0_sx405 quick_test/fbank/raw_fbank_train.1.ark:8306948
fmju0_sx309 quick_test/fbank/raw_fbank_train.1.ark:9102195
mpfu0_sx88 quick_test/fbank/raw_fbank_train.3.ark:10998871
fjrb0_sx132 quick_test/fbank/raw_fbank_train.1.ark:5482809
msem1_sx360 quick_test/fbank/raw_fbank_train.4.ark:5971649
megj0_sx437 quick_test/fbank/raw_fbank_train.2.ark:9911882
mjeb1_si837 quick_test/fbank/raw_fbank_train.3.ark:2712550
mjmm0_si625 quick_test/fbank/raw_fbank_train.3.ark:4077662
fcjs0_sx167 quick_test/fbank/raw_fbank_train.1.ark:1748055
mmgg0_si2339 quick_test/fbank/raw_fbank_train.3.ark:9376869
fapb0_si1063 quick_test/fbank/raw_fbank_train.1.ark:403268
fbmj0_sx336 quick_test/fbank/raw_fbank_train.1.ark:1213170
fsms1_sx347 quick_test/fbank/raw_fbank_train.2.ark:923104
mmab1_sx234 quick_test/fbank/raw_fbank_train.3.ark:8019144
mhrm0_si958 quick_test/fbank/raw_fbank_train.3.ark:1396947
flma0_sx433 quick_test/fbank/raw_fbank_train.1.ark:8109777
mrhl0_sx435 quick_test/fbank/raw_fbank_train.4.ark:2549184
fleh0_sx421 quick_test/fbank/raw_fbank_train.1.ark:7395121
mpgr0_sx240 quick_test/fbank/raw_fbank_train.3.ark:11139022
mmcc0_sx168 quick_test/fbank/raw_fbank_train.3.ark:8550157
mfwk0_si619 quick_test/fbank/raw_fbank_train.2.ark:10699534
mwad0_sx432 quick_test/fbank/raw_fbank_train.4.ark:10657752
mesj0_sx7 quick_test/fbank/raw_fbank_train.2.ark:10293620
mrld0_si964 quick_test/fbank/raw_fbank_train.4.ark:3261826
msrr0_si1761 quick_test/fbank/raw_fbank_train.4.ark:6839582
mmws1_si1071 quick_test/fbank/raw_fbank_train.3.ark:10365212
mjxl0_sx272 quick_test/fbank/raw_fbank_train.3.ark:5605023
fcaj0_si1804 quick_test/fbank/raw_fbank_train.1.ark:1352489
mtdb0_sx231 quick_test/fbank/raw_fbank_train.4.ark:7819104
fhxs0_si2302 quick_test/fbank/raw_fbank_train.1.ark:4735363
fjrp1_sx262 quick_test/fbank/raw_fbank_train.1.ark:5610187
mdss0_sx351 quick_test/fbank/raw_fbank_train.2.ark:9044786
megj0_si1967 quick_test/fbank/raw_fbank_train.2.ark:9854319
mmcc0_si1338 quick_test/fbank/raw_fbank_train.3.ark:8509457
mrdd0_si2310 quick_test/fbank/raw_fbank_train.4.ark:1392738
mcew0_sx452 quick_test/fbank/raw_fbank_train.2.ark:5101339
mwac0_sx71 quick_test/fbank/raw_fbank_train.4.ark:10590478
mmgk0_si1322 quick_test/fbank/raw_fbank_train.3.ark:9448467
fbmj0_si1776 quick_test/fbank/raw_fbank_train.1.ark:1145565
mbwp0_si1969 quick_test/fbank/raw_fbank_train.2.ark:4299001
fsah0_si614 quick_test/fbank/raw_fbank_train.1.ark:11021206
mfxv0_sx285 quick_test/fbank/raw_fbank_train.2.ark:10940837
msrg0_si1851 quick_test/fbank/raw_fbank_train.4.ark:6752317
mges0_sx311 quick_test/fbank/raw_fbank_train.3.ark:236510
fbcg1_si1612 quick_test/fbank/raw_fbank_train.1.ark:633960
mtat1_si1627 quick_test/fbank/raw_fbank_train.4.ark:7463730
mdas0_sx6 quick_test/fbank/raw_fbank_train.2.ark:6175891
mrwa0_si1603 quick_test/fbank/raw_fbank_train.4.ark:4941029
mtpf0_si1235 quick_test/fbank/raw_fbank_train.4.ark:9206402
mhmr0_sx399 quick_test/fbank/raw_fbank_train.3.ark:1368406
mtrr0_sx18 quick_test/fbank/raw_fbank_train.4.ark:9859963
mrjm1_si668 quick_test/fbank/raw_fbank_train.4.ark:2937753
mmdg0_si520 quick_test/fbank/raw_fbank_train.3.ark:8722894
mbar0_sx239 quick_test/fbank/raw_fbank_train.2.ark:3226521
fmjf0_sx444 quick_test/fbank/raw_fbank_train.1.ark:9006163
mjwt0_sx391 quick_test/fbank/raw_fbank_train.3.ark:5453591
mpar0_sx316 quick_test/fbank/raw_fbank_train.3.ark:10790036
mjfr0_si975 quick_test/fbank/raw_fbank_train.3.ark:2988025
msat1_si2333 quick_test/fbank/raw_fbank_train.4.ark:5520288
mvlo0_sx157 quick_test/fbank/raw_fbank_train.4.ark:10338897
mmws0_si888 quick_test/fbank/raw_fbank_train.3.ark:10292054
fpls0_sx60 quick_test/fbank/raw_fbank_train.1.ark:10474420
fleh0_sx61 quick_test/fbank/raw_fbank_train.1.ark:7408233
mjmd0_si1658 quick_test/fbank/raw_fbank_train.3.ark:3975083
mrdm0_sx245 quick_test/fbank/raw_fbank_train.4.ark:1510909
mree0_si1734 quick_test/fbank/raw_fbank_train.4.ark:1662660
fhlm0_sx390 quick_test/fbank/raw_fbank_train.1.ark:4704135
mnet0_sx276 quick_test/fbank/raw_fbank_train.3.ark:10584274
mhrm0_sx58 quick_test/fbank/raw_fbank_train.3.ark:1458751
fdnc0_sx378 quick_test/fbank/raw_fbank_train.1.ark:3221501
mtdb0_si2031 quick_test/fbank/raw_fbank_train.4.ark:7779405
marw0_si646 quick_test/fbank/raw_fbank_train.2.ark:3092630
mtjs0_sx202 quick_test/fbank/raw_fbank_train.4.ark:8347589
msat0_sx446 quick_test/fbank/raw_fbank_train.4.ark:5476314
mhbs0_sx225 quick_test/fbank/raw_fbank_train.3.ark:968407
fcdr1_si1186 quick_test/fbank/raw_fbank_train.1.ark:1433240
mpar0_sx226 quick_test/fbank/raw_fbank_train.3.ark:10779803
mzmb0_si536 quick_test/fbank/raw_fbank_train.4.ark:11582431
mbjv0_sx257 quick_test/fbank/raw_fbank_train.2.ark:3692806
msfv0_sx182 quick_test/fbank/raw_fbank_train.4.ark:6265899
fbch0_si1586 quick_test/fbank/raw_fbank_train.1.ark:731665
fsdj0_si1745 quick_test/fbank/raw_fbank_train.1.ark:11536939
mjrh1_si1558 quick_test/fbank/raw_fbank_train.3.ark:4728331
mrso0_si1206 quick_test/fbank/raw_fbank_train.4.ark:4395303
fcjf0_sx397 quick_test/fbank/raw_fbank_train.1.ark:1712121
mjrk0_si880 quick_test/fbank/raw_fbank_train.3.ark:4840223
fsbk0_si2329 quick_test/fbank/raw_fbank_train.1.ark:11222177
mrsp0_si1429 quick_test/fbank/raw_fbank_train.4.ark:4515449
mdcm0_sx40 quick_test/fbank/raw_fbank_train.2.ark:6568991
msdh0_sx350 quick_test/fbank/raw_fbank_train.4.ark:5722758
mklw0_sx311 quick_test/fbank/raw_fbank_train.3.ark:6998967
fsmm0_sx144 quick_test/fbank/raw_fbank_train.2.ark:779420
mapv0_sx123 quick_test/fbank/raw_fbank_train.2.ark:2934013
mjpm0_sx288 quick_test/fbank/raw_fbank_train.3.ark:4307083
mmjb1_sx148 quick_test/fbank/raw_fbank_train.3.ark:9561912
mjfh0_sx27 quick_test/fbank/raw_fbank_train.3.ark:2937578
mrgs0_si1356 quick_test/fbank/raw_fbank_train.4.ark:2371122
mctm0_si1350 quick_test/fbank/raw_fbank_train.2.ark:5809260
fpjf0_sx146 quick_test/fbank/raw_fbank_train.1.ark:10338106
mjmm0_sx175 quick_test/fbank/raw_fbank_train.3.ark:4087375
mpgr1_si1269 quick_test/fbank/raw_fbank_train.3.ark:11190114
mkls0_sx447 quick_test/fbank/raw_fbank_train.3.ark:6823589
fjlr0_sx241 quick_test/fbank/raw_fbank_train.1.ark:5401457
mrlr0_si566 quick_test/fbank/raw_fbank_train.4.ark:3628967
msvs0_sx398 quick_test/fbank/raw_fbank_train.4.ark:7141107
mkrg0_sx51 quick_test/fbank/raw_fbank_train.3.ark:7127776
mrso0_sx309 quick_test/fbank/raw_fbank_train.4.ark:4474070
mtcs0_sx352 quick_test/fbank/raw_fbank_train.4.ark:7719832
fspm0_sx161 quick_test/fbank/raw_fbank_train.2.ark:992630
mwsh0_si2266 quick_test/fbank/raw_fbank_train.4.ark:11460253
mdss0_sx441 quick_test/fbank/raw_fbank_train.2.ark:9056979
fcke0_sx391 quick_test/fbank/raw_fbank_train.1.ark:1895771
mtcs0_sx262 quick_test/fbank/raw_fbank_train.4.ark:7709999
mjlb0_si1616 quick_test/fbank/raw_fbank_train.3.ark:3587108
mpgr1_sx329 quick_test/fbank/raw_fbank_train.3.ark:11251521
mrwa0_si973 quick_test/fbank/raw_fbank_train.4.ark:4965096
feeh0_sx32 quick_test/fbank/raw_fbank_train.1.ark:3828819
msrg0_sx141 quick_test/fbank/raw_fbank_train.4.ark:6774983
mljh0_si1324 quick_test/fbank/raw_fbank_train.3.ark:7540911
mdcd0_si785 quick_test/fbank/raw_fbank_train.2.ark:6416635
fjrp1_sx352 quick_test/fbank/raw_fbank_train.1.ark:5626660
mljc0_sx415 quick_test/fbank/raw_fbank_train.3.ark:7518605
mcae0_si2077 quick_test/fbank/raw_fbank_train.2.ark:4418266
mmds0_si713 quick_test/fbank/raw_fbank_train.3.ark:9023809
mdmt0_sx212 quick_test/fbank/raw_fbank_train.2.ark:8353098
mvjh0_si2186 quick_test/fbank/raw_fbank_train.4.ark:10223766
feac0_sx435 quick_test/fbank/raw_fbank_train.1.ark:3506825
fsrh0_sx41 quick_test/fbank/raw_fbank_train.2.ark:1140146
mwrp0_sx3 quick_test/fbank/raw_fbank_train.4.ark:11322337
mrai0_si1954 quick_test/fbank/raw_fbank_train.4.ark:765438
fpls0_sx150 quick_test/fbank/raw_fbank_train.1.ark:10435411
fgdp0_sx358 quick_test/fbank/raw_fbank_train.1.ark:4338593
msmc0_sx377 quick_test/fbank/raw_fbank_train.4.ark:6526999
mmgk0_sx422 quick_test/fbank/raw_fbank_train.3.ark:9503346
mdlr1_si1929 quick_test/fbank/raw_fbank_train.2.ark:8100748
fskp0_si468 quick_test/fbank/raw_fbank_train.2.ark:474431
fkdw0_sx127 quick_test/fbank/raw_fbank_train.1.ark:6445155
mdtb0_si1830 quick_test/fbank/raw_fbank_train.2.ark:9174784
mrxb0_sx55 quick_test/fbank/raw_fbank_train.4.ark:5211390
fgdp0_sx88 quick_test/fbank/raw_fbank_train.1.ark:4365218
mewm0_sx358 quick_test/fbank/raw_fbank_train.2.ark:10364772
mdtb0_si1200 quick_test/fbank/raw_fbank_train.2.ark:9166710
mlbc0_si1869 quick_test/fbank/raw_fbank_train.3.ark:7249590
mwad0_si1062 quick_test/fbank/raw_fbank_train.4.ark:10601792
mmgc0_sx45 quick_test/fbank/raw_fbank_train.3.ark:9338767
medr0_sx384 quick_test/fbank/raw_fbank_train.2.ark:9716948
mrew1_si1500 quick_test/fbank/raw_fbank_train.4.ark:1957941
mmea0_sx308 quick_test/fbank/raw_fbank_train.3.ark:9135453
mmjb1_sx238 quick_test/fbank/raw_fbank_train.3.ark:9572745
mklw0_sx131 quick_test/fbank/raw_fbank_train.3.ark:6975781
mmdg0_sx340 quick_test/fbank/raw_fbank_train.3.ark:8766633
mjsr0_sx344 quick_test/fbank/raw_fbank_train.3.ark:5090252
mtlc0_sx307 quick_test/fbank/raw_fbank_train.4.ark:8866707
majp0_sx174 quick_test/fbank/raw_fbank_train.2.ark:2621417
mram0_sx15 quick_test/fbank/raw_fbank_train.4.ark:924196
mrjm1_si1298 quick_test/fbank/raw_fbank_train.4.ark:2909966
mdtb0_sx120 quick_test/fbank/raw_fbank_train.2.ark:9197370
fdtd0_si931 quick_test/fbank/raw_fbank_train.1.ark:3261722
fklc0_si2245 quick_test/fbank/raw_fbank_train.1.ark:6723044
fapb0_sx433 quick_test/fbank/raw_fbank_train.1.ark:495268
mmdb0_sx447 quick_test/fbank/raw_fbank_train.3.ark:8678281
mtxs0_sx250 quick_test/fbank/raw_fbank_train.4.ark:10151000
mzmb0_sx266 quick_test/fbank/raw_fbank_train.4.ark:11611937
mrdm0_sx65 quick_test/fbank/raw_fbank_train.4.ark:1547287
mtlc0_sx397 quick_test/fbank/raw_fbank_train.4.ark:8883612
mrvg0_si1770 quick_test/fbank/raw_fbank_train.4.ark:4864638
mmsm0_sx386 quick_test/fbank/raw_fbank_train.3.ark:10010583
mdcm0_sx400 quick_test/fbank/raw_fbank_train.2.ark:6580384
msat0_sx356 quick_test/fbank/raw_fbank_train.4.ark:5466801
mkjo0_sx437 quick_test/fbank/raw_fbank_train.3.ark:6531232
fpad0_sx176 quick_test/fbank/raw_fbank_train.1.ark:10027750
mpeb0_sx420 quick_test/fbank/raw_fbank_train.3.ark:10881974
fclt0_sx268 quick_test/fbank/raw_fbank_train.1.ark:1952298
fdmy0_sx207 quick_test/fbank/raw_fbank_train.1.ark:3068337
mcxm0_sx181 quick_test/fbank/raw_fbank_train.2.ark:5942865
mtpg0_sx393 quick_test/fbank/raw_fbank_train.4.ark:9378658
mtat1_sx419 quick_test/fbank/raw_fbank_train.4.ark:7540975
mwrp0_si2073 quick_test/fbank/raw_fbank_train.4.ark:11283880
mjfr0_sx435 quick_test/fbank/raw_fbank_train.3.ark:3043197
mmpm0_sx71 quick_test/fbank/raw_fbank_train.3.ark:9802534
fpac0_sx31 quick_test/fbank/raw_fbank_train.1.ark:9965503
mcal0_sx148 quick_test/fbank/raw_fbank_train.2.ark:4554035
mcef0_sx235 quick_test/fbank/raw_fbank_train.2.ark:4963168
mdef0_sx123 quick_test/fbank/raw_fbank_train.2.ark:6828569
mrso0_si2289 quick_test/fbank/raw_fbank_train.4.ark:4432971
mhit0_si983 quick_test/fbank/raw_fbank_train.3.ark:1026886
mdsj0_sx22 quick_test/fbank/raw_fbank_train.2.ark:8945607
mrms0_sx30 quick_test/fbank/raw_fbank_train.4.ark:4167353
mjae0_sx174 quick_test/fbank/raw_fbank_train.3.ark:1797037
mpsw0_sx167 quick_test/fbank/raw_fbank_train.4.ark:513984
mrxb0_sx415 quick_test/fbank/raw_fbank_train.4.ark:5200438
mdef0_si2193 quick_test/fbank/raw_fbank_train.2.ark:6818696
mtrt0_sx254 quick_test/fbank/raw_fbank_train.4.ark:9971902
fdjh0_si935 quick_test/fbank/raw_fbank_train.1.ark:2715635
mjmd0_si1028 quick_test/fbank/raw_fbank_train.3.ark:3965689
mjxa0_sx427 quick_test/fbank/raw_fbank_train.3.ark:5535104
fdfb0_sx58 quick_test/fbank/raw_fbank_train.1.ark:2680014
mtlc0_si1313 quick_test/fbank/raw_fbank_train.4.ark:8804781
mbbr0_si2315 quick_test/fbank/raw_fbank_train.2.ark:3301561
mjls0_sx376 quick_test/fbank/raw_fbank_train.3.ark:3860150
fltm0_sx440 quick_test/fbank/raw_fbank_train.1.ark:8498200
mrem0_sx61 quick_test/fbank/raw_fbank_train.4.ark:1945467
mwar0_si2305 quick_test/fbank/raw_fbank_train.4.ark:10708166
mtpr0_sx160 quick_test/fbank/raw_fbank_train.4.ark:9522537
mrbc0_sx329 quick_test/fbank/raw_fbank_train.4.ark:1118241
mcdr0_si1784 quick_test/fbank/raw_fbank_train.2.ark:4817964
msdh0_sx260 quick_test/fbank/raw_fbank_train.4.ark:5710525
mjdm0_sx170 quick_test/fbank/raw_fbank_train.3.ark:2506973
mdlb0_si676 quick_test/fbank/raw_fbank_train.2.ark:7420246
mtdp0_sx441 quick_test/fbank/raw_fbank_train.4.ark:7953516
fexm0_si482 quick_test/fbank/raw_fbank_train.1.ark:4086763
mrxb0_sx325 quick_test/fbank/raw_fbank_train.4.ark:5189765
fcjf0_sx307 quick_test/fbank/raw_fbank_train.1.ark:1696696
mjxa0_sx157 quick_test/fbank/raw_fbank_train.3.ark:5500485
mfwk0_si1879 quick_test/fbank/raw_fbank_train.2.ark:10689421
mprt0_sx400 quick_test/fbank/raw_fbank_train.4.ark:475729
mrgm0_sx442 quick_test/fbank/raw_fbank_train.4.ark:2338056
mdlm0_sx244 quick_test/fbank/raw_fbank_train.2.ark:7945037
mmxs0_sx246 quick_test/fbank/raw_fbank_train.3.ark:10491129
fjhk0_sx392 quick_test/fbank/raw_fbank_train.1.ark:5147679
mdrd0_si1382 quick_test/fbank/raw_fbank_train.2.ark:8784410
mljh0_sx244 quick_test/fbank/raw_fbank_train.3.ark:7613724
fsah0_sx327 quick_test/fbank/raw_fbank_train.1.ark:11052192
mdac0_si631 quick_test/fbank/raw_fbank_train.2.ark:6024217
mrjh0_sx439 quick_test/fbank/raw_fbank_train.4.ark:2776234
fbmj0_si516 quick_test/fbank/raw_fbank_train.1.ark:1162598
mrsp0_si799 quick_test/fbank/raw_fbank_train.4.ark:4548796
fcjs0_si2237 quick_test/fbank/raw_fbank_train.1.ark:1729509
mkah0_si1528 quick_test/fbank/raw_fbank_train.3.ark:5765619
mljh0_sx424 quick_test/fbank/raw_fbank_train.3.ark:7643150
mctm0_si720 quick_test/fbank/raw_fbank_train.2.ark:5843327
fcag0_si1641 quick_test/fbank/raw_fbank_train.1.ark:1266543
mcxm0_si1351 quick_test/fbank/raw_fbank_train.2.ark:5906405
mpgr1_sx419 quick_test/fbank/raw_fbank_train.3.ark:11266394
mjmm0_si1255 quick_test/fbank/raw_fbank_train.3.ark:4051795
mges0_si2111 quick_test/fbank/raw_fbank_train.3.ark:198938
mklw0_sx221 quick_test/fbank/raw_fbank_train.3.ark:6986334
fklc1_si1048 quick_test/fbank/raw_fbank_train.1.ark:6819195
mmrp0_si717 quick_test/fbank/raw_fbank_train.3.ark:9819321
madc0_sx287 quick_test/fbank/raw_fbank_train.2.ark:2184748
mjee0_sx247 quick_test/fbank/raw_fbank_train.3.ark:2829761
mree0_sx384 quick_test/fbank/raw_fbank_train.4.ark:1735058
mdlc0_sx315 quick_test/fbank/raw_fbank_train.2.ark:7573010
fsls0_sx246 quick_test/fbank/raw_fbank_train.2.ark:603996
fljg0_sx171 quick_test/fbank/raw_fbank_train.1.ark:7858309
mjdc0_sx441 quick_test/fbank/raw_fbank_train.3.ark:2228077
mjxa0_sx337 quick_test/fbank/raw_fbank_train.3.ark:5524311
fmmh0_si1537 quick_test/fbank/raw_fbank_train.1.ark:9345143
mrhl0_sx345 quick_test/fbank/raw_fbank_train.4.ark:2538671
msem1_sx450 quick_test/fbank/raw_fbank_train.4.ark:5984242
mrhl0_si885 quick_test/fbank/raw_fbank_train.4.ark:2502972
fcyl0_sx37 quick_test/fbank/raw_fbank_train.1.ark:2375024
mtdp0_sx171 quick_test/fbank/raw_fbank_train.4.ark:7904657
mbar0_sx419 quick_test/fbank/raw_fbank_train.2.ark:3253107
madc0_si1367 quick_test/fbank/raw_fbank_train.2.ark:2103670
mdlc2_sx444 quick_test/fbank/raw_fbank_train.2.ark:7768734
mkdb0_sx62 quick_test/fbank/raw_fbank_train.3.ark:6144565
mmdm1_sx243 quick_test/fbank/raw_fbank_train.3.ark:8947210
fdml0_si1779 quick_test/fbank/raw_fbank_train.1.ark:2915533
mdlc1_si1435 quick_test/fbank/raw_fbank_train.2.ark:7608509
fsgf0_sx117 quick_test/fbank/raw_fbank_train.1.ark:11655310
fmpg0_sx162 quick_test/fbank/raw_fbank_train.1.ark:9493746
mtxs0_sx160 quick_test/fbank/raw_fbank_train.4.ark:10133927
fmah1_sx159 quick_test/fbank/raw_fbank_train.1.ark:8561686
fjsp0_si1434 quick_test/fbank/raw_fbank_train.1.ark:5778905
mjmd0_sx38 quick_test/fbank/raw_fbank_train.3.ark:4027808
mdjm0_si825 quick_test/fbank/raw_fbank_train.2.ark:7219115
fkaa0_si1838 quick_test/fbank/raw_fbank_train.1.ark:6187038
mdem0_sx248 quick_test/fbank/raw_fbank_train.2.ark:6939226
fksr0_sx37 quick_test/fbank/raw_fbank_train.1.ark:7093684
mjfr0_sx165 quick_test/fbank/raw_fbank_train.3.ark:3000898
mrlj0_si2050 quick_test/fbank/raw_fbank_train.4.ark:3337498
megj0_si707 quick_test/fbank/raw_fbank_train.2.ark:9859992
fsjk1_si2285 quick_test/fbank/raw_fbank_train.1.ark:11852134
fpaf0_sx424 quick_test/fbank/raw_fbank_train.1.ark:10171995
fhlm0_si2190 quick_test/fbank/raw_fbank_train.1.ark:4620937
mdtb0_si570 quick_test/fbank/raw_fbank_train.2.ark:9183417
fklc1_si2308 quick_test/fbank/raw_fbank_train.1.ark:6845623
mmam0_si1668 quick_test/fbank/raw_fbank_train.3.ark:8203935
mcal0_sx418 quick_test/fbank/raw_fbank_train.2.ark:4589094
fgmb0_sx425 quick_test/fbank/raw_fbank_train.1.ark:4477811
mmag0_sx46 quick_test/fbank/raw_fbank_train.3.ark:8178427
fsjg0_sx400 quick_test/fbank/raw_fbank_train.1.ark:11821666
mstf0_sx316 quick_test/fbank/raw_fbank_train.4.ark:6996217
fdjh0_si1565 quick_test/fbank/raw_fbank_train.1.ark:2692888
mdcd0_si2045 quick_test/fbank/raw_fbank_train.2.ark:6407082
mgaf0_sx382 quick_test/fbank/raw_fbank_train.2.ark:11041735
feeh0_si1112 quick_test/fbank/raw_fbank_train.1.ark:3751581
mrvg0_sx420 quick_test/fbank/raw_fbank_train.4.ark:4914443
msrg0_sx51 quick_test/fbank/raw_fbank_train.4.ark:6818954
mklr0_sx69 quick_test/fbank/raw_fbank_train.3.ark:6726115
mmvp0_sx347 quick_test/fbank/raw_fbank_train.3.ark:10109696
fgcs0_sx316 quick_test/fbank/raw_fbank_train.1.ark:4236488
fhlm0_si1560 quick_test/fbank/raw_fbank_train.1.ark:4614663
fvmh0_sx116 quick_test/fbank/raw_fbank_train.2.ark:1973240
mjdg0_sx412 quick_test/fbank/raw_fbank_train.3.ark:2450727
mrgs0_sx276 quick_test/fbank/raw_fbank_train.4.ark:2426135
falk0_sx366 quick_test/fbank/raw_fbank_train.1.ark:273466
msrr0_sx30 quick_test/fbank/raw_fbank_train.4.ark:6895913
flma0_sx253 quick_test/fbank/raw_fbank_train.1.ark:8090831
fmmh0_si907 quick_test/fbank/raw_fbank_train.1.ark:9374930
fdas1_sx201 quick_test/fbank/raw_fbank_train.1.ark:2458704
mjjm0_sx107 quick_test/fbank/raw_fbank_train.3.ark:3432518
mpar0_si1576 quick_test/fbank/raw_fbank_train.3.ark:10734870
msah1_si1049 quick_test/fbank/raw_fbank_train.4.ark:5224064
mree0_sx294 quick_test/fbank/raw_fbank_train.4.ark:1724145
fpad0_si716 quick_test/fbank/raw_fbank_train.1.ark:10008637
mtat0_sx30 quick_test/fbank/raw_fbank_train.4.ark:7423796
mkrg0_sx411 quick_test/fbank/raw_fbank_train.3.ark:7117264
mmdm1_si2043 quick_test/fbank/raw_fbank_train.3.ark:8908751
mcpm0_si1824 quick_test/fbank/raw_fbank_train.2.ark:5432795
mgrp0_si1317 quick_test/fbank/raw_fbank_train.3.ark:482900
mrlj0_sx160 quick_test/fbank/raw_fbank_train.4.ark:3362204
msms0_sx353 quick_test/fbank/raw_fbank_train.4.ark:6702744
mjlb0_sx356 quick_test/fbank/raw_fbank_train.3.ark:3647434
mrab0_sx54 quick_test/fbank/raw_fbank_train.4.ark:651379
mljc0_sx55 quick_test/fbank/raw_fbank_train.3.ark:7529757
mrds0_sx357 quick_test/fbank/raw_fbank_train.4.ark:1612607
mgag0_sx241 quick_test/fbank/raw_fbank_train.2.ark:11103621
mhmg0_sx105 quick_test/fbank/raw_fbank_train.3.ark:1225850
mrld0_sx244 quick_test/fbank/raw_fbank_train.4.ark:3285972
mpgr0_sx420 quick_test/fbank/raw_fbank_train.3.ark:11162328
mmea0_sx218 quick_test/fbank/raw_fbank_train.3.ark:9125700
mbma1_si2214 quick_test/fbank/raw_fbank_train.2.ark:3838877
mcae0_sx7 quick_test/fbank/raw_fbank_train.2.ark:4495749
mjlb0_si2246 quick_test/fbank/raw_fbank_train.3.ark:3604382
msmc0_sx107 quick_test/fbank/raw_fbank_train.4.ark:6480548
fskl0_sx269 quick_test/fbank/raw_fbank_train.2.ark:399472
fgmb0_sx245 quick_test/fbank/raw_fbank_train.1.ark:4444585
mtwh1_sx432 quick_test/fbank/raw_fbank_train.4.ark:10067600
mdwh0_sx305 quick_test/fbank/raw_fbank_train.2.ark:9419007
msds0_sx447 quick_test/fbank/raw_fbank_train.4.ark:5860057
mgsh0_si1176 quick_test/fbank/raw_fbank_train.3.ark:593125
mmbs0_sx251 quick_test/fbank/raw_fbank_train.3.ark:8453245
msrr0_sx231 quick_test/fbank/raw_fbank_train.4.ark:6889841
mclm0_si1456 quick_test/fbank/raw_fbank_train.2.ark:5334976
mewm0_sx268 quick_test/fbank/raw_fbank_train.2.ark:10353099
mrav0_si1008 quick_test/fbank/raw_fbank_train.4.ark:970329
mtwh1_sx72 quick_test/fbank/raw_fbank_train.4.ark:10081832
mrbc0_si1665 quick_test/fbank/raw_fbank_train.4.ark:1058915
mvjh0_si926 quick_test/fbank/raw_fbank_train.4.ark:10238199
msem1_sx90 quick_test/fbank/raw_fbank_train.4.ark:6000154
mwar0_sx145 quick_test/fbank/raw_fbank_train.4.ark:10717679
fksr0_si487 quick_test/fbank/raw_fbank_train.1.ark:7041473
mmwb0_si989 quick_test/fbank/raw_fbank_train.3.ark:10178150
marc0_si1188 quick_test/fbank/raw_fbank_train.2.ark:2992418
mjwt0_sx211 quick_test/fbank/raw_fbank_train.3.ark:5416453
mtrr0_sx288 quick_test/fbank/raw_fbank_train.4.ark:9881909
mrjm0_sx238 quick_test/fbank/raw_fbank_train.4.ark:2855794
mcdd0_sx433 quick_test/fbank/raw_fbank_train.2.ark:4778224
msms0_si803 quick_test/fbank/raw_fbank_train.4.ark:6665125
fdas1_sx21 quick_test/fbank/raw_fbank_train.1.ark:2472376
mdlc1_sx175 quick_test/fbank/raw_fbank_train.2.ark:7650210
mrmh0_si2281 quick_test/fbank/raw_fbank_train.4.ark:3916724
fgdp0_sx268 quick_test/fbank/raw_fbank_train.1.ark:4323080
fbmh0_sx236 quick_test/fbank/raw_fbank_train.1.ark:1104833
mdbp0_si1158 quick_test/fbank/raw_fbank_train.2.ark:6289383
mcef0_sx415 quick_test/fbank/raw_fbank_train.2.ark:4983914
mwac0_sx341 quick_test/fbank/raw_fbank_train.4.ark:10560133
mcdd0_sx253 quick_test/fbank/raw_fbank_train.2.ark:4757238
medr0_sx24 quick_test/fbank/raw_fbank_train.2.ark:9699282
fgcs0_sx46 quick_test/fbank/raw_fbank_train.1.ark:4259073
mdtb0_sx210 quick_test/fbank/raw_fbank_train.2.ark:9209763
fskp0_sx378 quick_test/fbank/raw_fbank_train.2.ark:527755
fkfb0_sx168 quick_test/fbank/raw_fbank_train.1.ark:6534140
mpgh0_sx24 quick_test/fbank/raw_fbank_train.3.ark:11073669
fpls0_sx3 quick_test/fbank/raw_fbank_train.1.ark:10455995
mjde0_sx130 quick_test/fbank/raw_fbank_train.3.ark:2300362
mhbs0_si2205 quick_test/fbank/raw_fbank_train.3.ark:927108
fsmm0_si1944 quick_test/fbank/raw_fbank_train.2.ark:756034
mrlj1_sx51 quick_test/fbank/raw_fbank_train.4.ark:3491601
mpsw0_sx77 quick_test/fbank/raw_fbank_train.4.ark:554594
mmwb0_sx359 quick_test/fbank/raw_fbank_train.3.ark:10220449
mtkd0_si1817 quick_test/fbank/raw_fbank_train.4.ark:8502300
mjai0_si710 quick_test/fbank/raw_fbank_train.3.ark:1898868
fbjl0_si922 quick_test/fbank/raw_fbank_train.1.ark:864036
mpsw0_si1067 quick_test/fbank/raw_fbank_train.4.ark:485643
fvfb0_sx402 quick_test/fbank/raw_fbank_train.2.ark:1808529
mdef0_si1123 quick_test/fbank/raw_fbank_train.2.ark:6787468
mrew1_si870 quick_test/fbank/raw_fbank_train.4.ark:1973968
mmaa0_sx305 quick_test/fbank/raw_fbank_train.3.ark:7937112
msrr0_sx411 quick_test/fbank/raw_fbank_train.4.ark:6903506
mdlh0_sx250 quick_test/fbank/raw_fbank_train.2.ark:7847972
fpac0_sx121 quick_test/fbank/raw_fbank_train.1.ark:9925645
flmc0_sx336 quick_test/fbank/raw_fbank_train.1.ark:8203721
fmkf0_si1536 quick_test/fbank/raw_fbank_train.1.ark:9259154
mprk0_si467 quick_test/fbank/raw_fbank_train.4.ark:312341
mrew1_sx420 quick_test/fbank/raw_fbank_train.4.ark:2023180
mrlj0_si1420 quick_test/fbank/raw_fbank_train.4.ark:3324584
fklc1_sx148 quick_test/fbank/raw_fbank_train.1.ark:6853176
fkkh0_sx120 quick_test/fbank/raw_fbank_train.1.ark:6659245
mwch0_sx182 quick_test/fbank/raw_fbank_train.4.ark:10802985
fmjb0_sx7 quick_test/fbank/raw_fbank_train.1.ark:8907738
fkaa0_sx218 quick_test/fbank/raw_fbank_train.1.ark:6224017
mrcw0_sx111 quick_test/fbank/raw_fbank_train.4.ark:1318265
fcmg0_sx252 quick_test/fbank/raw_fbank_train.1.ark:2056444
mgsh0_sx276 quick_test/fbank/raw_fbank_train.3.ark:662491
mmws0_sx258 quick_test/fbank/raw_fbank_train.3.ark:10314880
mmbs0_sx341 quick_test/fbank/raw_fbank_train.3.ark:8469198
msas0_sx26 quick_test/fbank/raw_fbank_train.4.ark:5384975
mwem0_sx240 quick_test/fbank/raw_fbank_train.4.ark:10998749
mkag0_sx259 quick_test/fbank/raw_fbank_train.3.ark:5717448
mtmn0_sx164 quick_test/fbank/raw_fbank_train.4.ark:9052892
fmmh0_sx7 quick_test/fbank/raw_fbank_train.1.ark:9424300
mbgt0_sx81 quick_test/fbank/raw_fbank_train.2.ark:3634199
mjpm0_si738 quick_test/fbank/raw_fbank_train.3.ark:4261352
mtrc0_sx170 quick_test/fbank/raw_fbank_train.4.ark:9759386
mtpg0_sx33 quick_test/fbank/raw_fbank_train.4.ark:9368745
mjde0_sx400 quick_test/fbank/raw_fbank_train.3.ark:2363133
fsag0_si1323 quick_test/fbank/raw_fbank_train.1.ark:10878274
mkag0_sx439 quick_test/fbank/raw_fbank_train.3.ark:5738393
mmaa0_si2105 quick_test/fbank/raw_fbank_train.3.ark:7883980
mjee0_si607 quick_test/fbank/raw_fbank_train.3.ark:2811095
mdma0_sx350 quick_test/fbank/raw_fbank_train.2.ark:8263666
mapv0_sx213 quick_test/fbank/raw_fbank_train.2.ark:2949166
mree0_sx114 quick_test/fbank/raw_fbank_train.4.ark:1693047
mjpg0_si1191 quick_test/fbank/raw_fbank_train.3.ark:4143660
mjwt0_sx121 quick_test/fbank/raw_fbank_train.3.ark:5403660
mbjv0_sx437 quick_test/fbank/raw_fbank_train.2.ark:3714632
mdlr1_sx129 quick_test/fbank/raw_fbank_train.2.ark:8130814
feeh0_sx302 quick_test/fbank/raw_fbank_train.1.ark:3817107
faem0_sx402 quick_test/fbank/raw_fbank_train.1.ark:78172
mkrg0_sx231 quick_test/fbank/raw_fbank_train.3.ark:7105399
mjls0_si466 quick_test/fbank/raw_fbank_train.3.ark:3806186
mvlo0_sx67 quick_test/fbank/raw_fbank_train.4.ark:10384708
mdss1_si697 quick_test/fbank/raw_fbank_train.2.ark:9097512
fklc1_sx418 quick_test/fbank/raw_fbank_train.1.ark:6889235
mjlb0_sx266 quick_test/fbank/raw_fbank_train.3.ark:3637881
fcjf0_si648 quick_test/fbank/raw_fbank_train.1.ark:1668317
fjhk0_sx302 quick_test/fbank/raw_fbank_train.1.ark:5127014
mntw0_sx348 quick_test/fbank/raw_fbank_train.3.ark:10709004
mfxv0_sx375 quick_test/fbank/raw_fbank_train.2.ark:10952110
mmdm0_sx231 quick_test/fbank/raw_fbank_train.3.ark:8854025
mcdd0_sx73 quick_test/fbank/raw_fbank_train.2.ark:4790696
mcdc0_sx392 quick_test/fbank/raw_fbank_train.2.ark:4701071
mges0_sx221 quick_test/fbank/raw_fbank_train.3.ark:226997
fvkb0_sx169 quick_test/fbank/raw_fbank_train.2.ark:1857215
mpar0_sx46 quick_test/fbank/raw_fbank_train.3.ark:10811581
mkls1_si915 quick_test/fbank/raw_fbank_train.3.ark:6868242
fsjw0_sx163 quick_test/fbank/raw_fbank_train.2.ark:194309
fjkl0_sx122 quick_test/fbank/raw_fbank_train.1.ark:5191453
flet0_si507 quick_test/fbank/raw_fbank_train.1.ark:7447814
fclt0_sx358 quick_test/fbank/raw_fbank_train.1.ark:1965411
mjkr0_si1201 quick_test/fbank/raw_fbank_train.3.ark:3485123
freh0_sx325 quick_test/fbank/raw_fbank_train.1.ark:10662285
fsrh0_si1719 quick_test/fbank/raw_fbank_train.2.ark:1059315
msmc0_sx287 quick_test/fbank/raw_fbank_train.4.ark:6514966
mtrt0_sx417 quick_test/fbank/raw_fbank_train.4.ark:9980815
fgcs0_si856 quick_test/fbank/raw_fbank_train.1.ark:4198309
milb0_sx363 quick_test/fbank/raw_fbank_train.3.ark:1645365
fpad0_sx266 quick_test/fbank/raw_fbank_train.1.ark:10044143
mmdm0_si1941 quick_test/fbank/raw_fbank_train.3.ark:8823126
mmpm0_sx161 quick_test/fbank/raw_fbank_train.3.ark:9745443
mrws0_si1732 quick_test/fbank/raw_fbank_train.4.ark:5053648
mbml0_sx179 quick_test/fbank/raw_fbank_train.2.ark:3968008
fsls0_sx426 quick_test/fbank/raw_fbank_train.2.ark:614149
fkaa0_si578 quick_test/fbank/raw_fbank_train.1.ark:6199071
mdss1_si1327 quick_test/fbank/raw_fbank_train.2.ark:9076685
mdsj0_sx382 quick_test/fbank/raw_fbank_train.2.ark:8969273
mjrh0_si1840 quick_test/fbank/raw_fbank_train.3.ark:4652213
fjsp0_sx264 quick_test/fbank/raw_fbank_train.1.ark:5827758
mcth0_si1839 quick_test/fbank/raw_fbank_train.2.ark:5726949
fdkn0_sx91 quick_test/fbank/raw_fbank_train.1.ark:2888105
mrgm0_sx82 quick_test/fbank/raw_fbank_train.4.ark:2359168
fcjf0_sx217 quick_test/fbank/raw_fbank_train.1.ark:1689503
flkm0_sx80 quick_test/fbank/raw_fbank_train.1.ark:8035864
mrds0_sx447 quick_test/fbank/raw_fbank_train.4.ark:1625840
mmxs0_sx336 quick_test/fbank/raw_fbank_train.3.ark:10500842
mjdc0_si1161 quick_test/fbank/raw_fbank_train.3.ark:2153998
mclk0_sx40 quick_test/fbank/raw_fbank_train.2.ark:5312549
mwem0_sx420 quick_test/fbank/raw_fbank_train.4.ark:11025415
fscn0_si626 quick_test/fbank/raw_fbank_train.1.ark:11320768
mkls1_sx285 quick_test/fbank/raw_fbank_train.3.ark:6917253
mtlc0_sx127 quick_test/fbank/raw_fbank_train.4.ark:8851801
mmgc0_sx315 quick_test/fbank/raw_fbank_train.3.ark:9317142
mtmn0_sx344 quick_test/fbank/raw_fbank_train.4.ark:9076518
mtpr0_sx250 quick_test/fbank/raw_fbank_train.4.ark:9539690
mdlc1_sx445 quick_test/fbank/raw_fbank_train.2.ark:7687909
mkaj0_sx244 quick_test/fbank/raw_fbank_train.3.ark:5910577
mtqc0_sx271 quick_test/fbank/raw_fbank_train.4.ark:9662555
fjkl0_sx392 quick_test/fbank/raw_fbank_train.1.ark:5241144
fskc0_sx336 quick_test/fbank/raw_fbank_train.2.ark:308440
mrso0_sx219 quick_test/fbank/raw_fbank_train.4.ark:4458197
frll0_si805 quick_test/fbank/raw_fbank_train.1.ark:10791283
mrab1_sx398 quick_test/fbank/raw_fbank_train.4.ark:752604
fskc0_si1416 quick_test/fbank/raw_fbank_train.2.ark:256514
fnkl0_sx442 quick_test/fbank/raw_fbank_train.1.ark:9643430
flmk0_sx45 quick_test/fbank/raw_fbank_train.1.ark:8318060
mtdp0_si2151 quick_test/fbank/raw_fbank_train.4.ark:7889184
flja0_sx358 quick_test/fbank/raw_fbank_train.1.ark:7678725
fclt0_sx178 quick_test/fbank/raw_fbank_train.1.ark:1938905
fcmm0_sx93 quick_test/fbank/raw_fbank_train.1.ark:2192847
fjsk0_sx242 quick_test/fbank/raw_fbank_train.1.ark:5727333
mdwd0_sx360 quick_test/fbank/raw_fbank_train.2.ark:9309902
makb0_sx386 quick_test/fbank/raw_fbank_train.2.ark:2799974
mmsm0_si476 quick_test/fbank/raw_fbank_train.3.ark:9947699
mwar0_sx55 quick_test/fbank/raw_fbank_train.4.ark:10759410
fkdw0_si1207 quick_test/fbank/raw_fbank_train.1.ark:6394295
fskc0_sx246 quick_test/fbank/raw_fbank_train.2.ark:298727
mjjj0_sx83 quick_test/fbank/raw_fbank_train.3.ark:3374184
mwch0_si1622 quick_test/fbank/raw_fbank_train.4.ark:10772924
mjmd0_sx218 quick_test/fbank/raw_fbank_train.3.ark:4006943
fkde0_sx421 quick_test/fbank/raw_fbank_train.1.ark:6367669
mprd0_si2061 quick_test/fbank/raw_fbank_train.4.ark:181283
mkln0_si2228 quick_test/fbank/raw_fbank_train.3.ark:6568972
fpaz0_sx153 quick_test/fbank/raw_fbank_train.1.ark:10238561
mapv0_sx393 quick_test/fbank/raw_fbank_train.2.ark:2981584
msrg0_si591 quick_test/fbank/raw_fbank_train.4.ark:6758750
fmju0_si2019 quick_test/fbank/raw_fbank_train.1.ark:9055103
fdnc0_sx18 quick_test/fbank/raw_fbank_train.1.ark:3182242
mejl0_si962 quick_test/fbank/raw_fbank_train.2.ark:9959415
flmc0_si1372 quick_test/fbank/raw_fbank_train.1.ark:8132803
mtat0_si1110 quick_test/fbank/raw_fbank_train.4.ark:7353751
mpeb0_sx60 quick_test/fbank/raw_fbank_train.3.ark:10896086
mbwp0_sx169 quick_test/fbank/raw_fbank_train.2.ark:4323427
mgjc0_sx255 quick_test/fbank/raw_fbank_train.3.ark:330383
