fpac0_sx391 quick_test/fbank/raw_fbank_train.1.ark:9974256
mpgr0_sx330 quick_test/fbank/raw_fbank_train.3.ark:11149855
mdcd0_sx65 quick_test/fbank/raw_fbank_train.2.ark:6483959
flod0_sx387 quick_test/fbank/raw_fbank_train.1.ark:8408806
msms0_sx263 quick_test/fbank/raw_fbank_train.4.ark:6693111
mjra0_si1236 quick_test/fbank/raw_fbank_train.3.ark:4430535
fbcg1_sx172 quick_test/fbank/raw_fbank_train.1.ark:665060
mntw0_si1068 quick_test/fbank/raw_fbank_train.3.ark:10627364
mkah0_sx88 quick_test/fbank/raw_fbank_train.3.ark:5851650
msfh0_sx406 quick_test/fbank/raw_fbank_train.4.ark:6191573
mmam0_sx427 quick_test/fbank/raw_fbank_train.3.ark:8253701
mcxm0_sx451 quick_test/fbank/raw_fbank_train.2.ark:5978364
mwdk0_sx356 quick_test/fbank/raw_fbank_train.4.ark:10921516
fcmm0_sx273 quick_test/fbank/raw_fbank_train.1.ark:2153789
mmvp0_si1914 quick_test/fbank/raw_fbank_train.3.ark:10034331
mwsb0_sx366 quick_test/fbank/raw_fbank_train.4.ark:11408442
mgjc0_sx165 quick_test/fbank/raw_fbank_train.3.ark:315070
mrjm0_si1858 quick_test/fbank/raw_fbank_train.4.ark:2827928
fcmm0_sx363 quick_test/fbank/raw_fbank_train.1.ark:2164022
majp0_sx174 quick_test/fbank/raw_fbank_train.2.ark:2621417
fdaw0_si1406 quick_test/fbank/raw_fbank_train.1.ark:2521750
mmds0_sx353 quick_test/fbank/raw_fbank_train.3.ark:9052388
fjdm2_si1964 quick_test/fbank/raw_fbank_train.1.ark:4850229
mwch0_sx272 quick_test/fbank/raw_fbank_train.4.ark:10810778
fspm0_sx161 quick_test/fbank/raw_fbank_train.2.ark:992630
fjwb1_sx345 quick_test/fbank/raw_fbank_train.1.ark:5935695
mpeb0_si600 quick_test/fbank/raw_fbank_train.3.ark:10832482
mtrt0_sx254 quick_test/fbank/raw_fbank_train.4.ark:9971902
mbbr0_si1685 quick_test/fbank/raw_fbank_train.2.ark:3291167
mtmt0_si1748 quick_test/fbank/raw_fbank_train.4.ark:9119451
mrab0_si594 quick_test/fbank/raw_fbank_train.4.ark:592295
flod0_sx207 quick_test/fbank/raw_fbank_train.1.ark:8392020
mabc0_sx241 quick_test/fbank/raw_fbank_train.2.ark:2065258
fnkl0_si1522 quick_test/fbank/raw_fbank_train.1.ark:9571831
fklc0_si985 quick_test/fbank/raw_fbank_train.1.ark:6731277
mmpm0_si1691 quick_test/fbank/raw_fbank_train.3.ark:9723176
mjwt0_si1381 quick_test/fbank/raw_fbank_train.3.ark:5372234
marw0_si1906 quick_test/fbank/raw_fbank_train.2.ark:3083917
fsmm0_si1314 quick_test/fbank/raw_fbank_train.2.ark:744920
mjra0_sx426 quick_test/fbank/raw_fbank_train.3.ark:4505854
fcdr1_sx106 quick_test/fbank/raw_fbank_train.1.ark:1496220
fsrh0_si1719 quick_test/fbank/raw_fbank_train.2.ark:1059315
mtwh1_si2142 quick_test/fbank/raw_fbank_train.4.ark:10017795
mjrp0_sx405 quick_test/fbank/raw_fbank_train.3.ark:4985900
mbgt0_sx81 quick_test/fbank/raw_fbank_train.2.ark:3634199
mdcm0_sx400 quick_test/fbank/raw_fbank_train.2.ark:6580384
mjfr0_sx435 quick_test/fbank/raw_fbank_train.3.ark:3043197
mcdc0_si662 quick_test/fbank/raw_fbank_train.2.ark:4641227
mtpr0_si2230 quick_test/fbank/raw_fbank_train.4.ark:9494351
mjdg0_si1705 quick_test/fbank/raw_fbank_train.3.ark:2405395
mdns0_sx21 quick_test/fbank/raw_fbank_train.2.ark:8472075
mjjm0_sx17 quick_test/fbank/raw_fbank_train.3.ark:3441350
fbjl0_sx22 quick_test/fbank/raw_fbank_train.1.ark:901294
madc0_si737 quick_test/fbank/raw_fbank_train.2.ark:2134937
mmab1_sx144 quick_test/fbank/raw_fbank_train.3.ark:8007751
mjac0_si701 quick_test/fbank/raw_fbank_train.3.ark:1684098
mkag0_sx259 quick_test/fbank/raw_fbank_train.3.ark:5717448
mjjm0_si1457 quick_test/fbank/raw_fbank_train.3.ark:3404532
mtat0_sx30 quick_test/fbank/raw_fbank_train.4.ark:7423796
mtab0_sx402 quick_test/fbank/raw_fbank_train.4.ark:7252540
mbjv0_sx257 quick_test/fbank/raw_fbank_train.2.ark:3692806
fsjs0_sx181 quick_test/fbank/raw_fbank_train.2.ark:82924
mrms0_sx120 quick_test/fbank/raw_fbank_train.4.ark:4146568
fskp0_sx288 quick_test/fbank/raw_fbank_train.2.ark:515562
megj0_sx257 quick_test/fbank/raw_fbank_train.2.ark:9896538
fbch0_sx326 quick_test/fbank/raw_fbank_train.1.ark:800070
mprd0_si1431 quick_test/fbank/raw_fbank_train.4.ark:165489
mgar0_si1212 quick_test/fbank/raw_fbank_train.3.ark:13
fkdw0_sx37 quick_test/fbank/raw_fbank_train.1.ark:6468853
mmds0_sx83 quick_test/fbank/raw_fbank_train.3.ark:9072653
feac0_sx165 quick_test/fbank/raw_fbank_train.1.ark:3470486
mntw0_sx258 quick_test/fbank/raw_fbank_train.3.ark:10694731
fclt0_si1438 quick_test/fbank/raw_fbank_train.1.ark:1903685
fjrb0_si1302 quick_test/fbank/raw_fbank_train.1.ark:5451789
mrre0_sx254 quick_test/fbank/raw_fbank_train.4.ark:4348771
fsjw0_sx253 quick_test/fbank/raw_fbank_train.2.ark:205502
fljd0_sx436 quick_test/fbank/raw_fbank_train.1.ark:7795623
mjjm0_sx197 quick_test/fbank/raw_fbank_train.3.ark:3449743
mefg0_sx195 quick_test/fbank/raw_fbank_train.2.ark:9795185
mfwk0_si1249 quick_test/fbank/raw_fbank_train.2.ark:10679387
fljd0_sx346 quick_test/fbank/raw_fbank_train.1.ark:7781870
fntb0_si573 quick_test/fbank/raw_fbank_train.1.ark:9679329
msah1_si2309 quick_test/fbank/raw_fbank_train.4.ark:5240052
mrdd0_sx240 quick_test/fbank/raw_fbank_train.4.ark:1411364
fbjl0_si2182 quick_test/fbank/raw_fbank_train.1.ark:853843
megj0_si1967 quick_test/fbank/raw_fbank_train.2.ark:9854319
fcjf0_sx127 quick_test/fbank/raw_fbank_train.1.ark:1683070
mcae0_si1447 quick_test/fbank/raw_fbank_train.2.ark:4395312
mpfu0_sx88 quick_test/fbank/raw_fbank_train.3.ark:10998871
mbef0_sx21 quick_test/fbank/raw_fbank_train.2.ark:3515748
mrds0_sx447 quick_test/fbank/raw_fbank_train.4.ark:1625840
mcth0_sx309 quick_test/fbank/raw_fbank_train.2.ark:5774081
mwad0_si2322 quick_test/fbank/raw_fbank_train.4.ark:10619860
mdtb0_sx300 quick_test/fbank/raw_fbank_train.2.ark:9218756
mjeb0_si656 quick_test/fbank/raw_fbank_train.3.ark:2607645
mmsm0_si1736 quick_test/fbank/raw_fbank_train.3.ark:9936746
fjlg0_sx359 quick_test/fbank/raw_fbank_train.1.ark:5310185
mrai0_si2052 quick_test/fbank/raw_fbank_train.4.ark:771712
mdlc0_sx405 quick_test/fbank/raw_fbank_train.2.ark:7584803
fgcs0_sx136 quick_test/fbank/raw_fbank_train.1.ark:4208462
mkls0_si2067 quick_test/fbank/raw_fbank_train.3.ark:6767537
fcyl0_sx127 quick_test/fbank/raw_fbank_train.1.ark:2340486
mdlm0_sx424 quick_test/fbank/raw_fbank_train.2.ark:7962503
mmcc0_sx168 quick_test/fbank/raw_fbank_train.3.ark:8550157
mtpf0_sx65 quick_test/fbank/raw_fbank_train.4.ark:9290313
mpsw0_si2327 quick_test/fbank/raw_fbank_train.4.ark:505351
mkah0_sx358 quick_test/fbank/raw_fbank_train.3.ark:5829345
mjdc0_sx81 quick_test/fbank/raw_fbank_train.3.ark:2237549
mrdd0_si1050 quick_test/fbank/raw_fbank_train.4.ark:1364790
mdma0_sx260 quick_test/fbank/raw_fbank_train.2.ark:8249073
mjac0_sx307 quick_test/fbank/raw_fbank_train.3.ark:1719284
mdns0_si873 quick_test/fbank/raw_fbank_train.2.ark:8430657
mpeb0_si1860 quick_test/fbank/raw_fbank_train.3.ark:10825569
mwad0_si1062 quick_test/fbank/raw_fbank_train.4.ark:10601792
fjkl0_sx122 quick_test/fbank/raw_fbank_train.1.ark:5191453
mkdd0_sx307 quick_test/fbank/raw_fbank_train.3.ark:6223285
mdlr0_sx63 quick_test/fbank/raw_fbank_train.2.ark:8077400
fmem0_sx387 quick_test/fbank/raw_fbank_train.1.ark:8813507
mses0_si1589 quick_test/fbank/raw_fbank_train.4.ark:6012468
mjrg0_si1996 quick_test/fbank/raw_fbank_train.3.ark:4542394
mdwd0_sx360 quick_test/fbank/raw_fbank_train.2.ark:9309902
mreh1_sx69 quick_test/fbank/raw_fbank_train.4.ark:1844803
mkln0_si968 quick_test/fbank/raw_fbank_train.3.ark:6578405
fmpg0_si1602 quick_test/fbank/raw_fbank_train.1.ark:9445206
mhbs0_sx45 quick_test/fbank/raw_fbank_train.3.ark:996385
faem0_sx42 quick_test/fbank/raw_fbank_train.1.ark:91084
mjjj0_si1793 quick_test/fbank/raw_fbank_train.3.ark:3296307
mjls0_si1726 quick_test/fbank/raw_fbank_train.3.ark:3783393
fjkl0_sx212 quick_test/fbank/raw_fbank_train.1.ark:5205766
mrab0_si1224 quick_test/fbank/raw_fbank_train.4.ark:564788
fssb0_sx182 quick_test/fbank/raw_fbank_train.2.ark:1193801
mmrp0_si717 quick_test/fbank/raw_fbank_train.3.ark:9819321
fdml0_sx429 quick_test/fbank/raw_fbank_train.1.ark:2963139
mjeb1_sx297 quick_test/fbank/raw_fbank_train.3.ark:2761561
mtjm0_si1226 quick_test/fbank/raw_fbank_train.4.ark:8182951
mlsh0_sx337 quick_test/fbank/raw_fbank_train.3.ark:7828927
mpmb0_sx241 quick_test/fbank/raw_fbank_train.3.ark:11379833
mmdm0_si681 quick_test/fbank/raw_fbank_train.3.ark:8830839
fsag0_sx333 quick_test/fbank/raw_fbank_train.1.ark:10943600
mbwp0_sx79 quick_test/fbank/raw_fbank_train.2.ark:4381878
fsjg0_si1570 quick_test/fbank/raw_fbank_train.1.ark:11704595
mdbp0_sx438 quick_test/fbank/raw_fbank_train.2.ark:6368262
fsbk0_si1699 quick_test/fbank/raw_fbank_train.1.ark:11215303
mgaw0_sx85 quick_test/fbank/raw_fbank_train.3.ark:184350
mrjm0_sx418 quick_test/fbank/raw_fbank_train.4.ark:2880660
mjpm0_sx288 quick_test/fbank/raw_fbank_train.3.ark:4307083
mhit0_si983 quick_test/fbank/raw_fbank_train.3.ark:1026886
mkag0_sx169 quick_test/fbank/raw_fbank_train.3.ark:5705335
mlel0_sx346 quick_test/fbank/raw_fbank_train.3.ark:7402387
fbch0_si956 quick_test/fbank/raw_fbank_train.1.ark:747058
mdss1_sx427 quick_test/fbank/raw_fbank_train.2.ark:9145604
fcmg0_sx252 quick_test/fbank/raw_fbank_train.1.ark:2056444
mrjh0_sx439 quick_test/fbank/raw_fbank_train.4.ark:2776234
mdbb1_sx16 quick_test/fbank/raw_fbank_train.2.ark:6245690
mbml0_sx89 quick_test/fbank/raw_fbank_train.2.ark:4016419
mkdd0_sx217 quick_test/fbank/raw_fbank_train.3.ark:6215572
mcdd0_si883 quick_test/fbank/raw_fbank_train.2.ark:4733452
fkkh0_sx300 quick_test/fbank/raw_fbank_train.1.ark:6692303
fsjw0_sx343 quick_test/fbank/raw_fbank_train.2.ark:214655
msfh0_sx226 quick_test/fbank/raw_fbank_train.4.ark:6165867
fsma0_sx361 quick_test/fbank/raw_fbank_train.2.ark:703381
fpab1_sx391 quick_test/fbank/raw_fbank_train.1.ark:9867511
fecd0_sx68 quick_test/fbank/raw_fbank_train.1.ark:3739507
mtxs0_sx340 quick_test/fbank/raw_fbank_train.4.ark:10164473
mrxb0_sx145 quick_test/fbank/raw_fbank_train.4.ark:5167579
mdjm0_sx105 quick_test/fbank/raw_fbank_train.2.ark:7231668
mkam0_sx146 quick_test/fbank/raw_fbank_train.3.ark:6000610
mrso0_sx129 quick_test/fbank/raw_fbank_train.4.ark:4444884
mtdb0_sx411 quick_test/fbank/raw_fbank_train.4.ark:7838290
mrjm1_sx38 quick_test/fbank/raw_fbank_train.4.ark:2985084
fhlm0_sx390 quick_test/fbank/raw_fbank_train.1.ark:4704135
mwac0_sx251 quick_test/fbank/raw_fbank_train.4.ark:10542300
mhbs0_sx225 quick_test/fbank/raw_fbank_train.3.ark:968407
mbma1_si954 quick_test/fbank/raw_fbank_train.2.ark:3851430
msrg0_si1851 quick_test/fbank/raw_fbank_train.4.ark:6752317
fkaa0_sx128 quick_test/fbank/raw_fbank_train.1.ark:6213664
mrld0_si1594 quick_test/fbank/raw_fbank_train.4.ark:3239599
mrld0_si2224 quick_test/fbank/raw_fbank_train.4.ark:3252633
mesg0_sx162 quick_test/fbank/raw_fbank_train.2.ark:10162978
fsma0_sx181 quick_test/fbank/raw_fbank_train.2.ark:677355
mdac0_sx91 quick_test/fbank/raw_fbank_train.2.ark:6097301
mesj0_sx187 quick_test/fbank/raw_fbank_train.2.ark:10266763
mtas0_si1385 quick_test/fbank/raw_fbank_train.4.ark:7275006
ftmg0_sx362 quick_test/fbank/raw_fbank_train.2.ark:1699310
mrjt0_sx238 quick_test/fbank/raw_fbank_train.4.ark:3057644
mclm0_sx376 quick_test/fbank/raw_fbank_train.2.ark:5411207
mrtj0_sx142 quick_test/fbank/raw_fbank_train.4.ark:4775799
mmaa0_sx395 quick_test/fbank/raw_fbank_train.3.ark:7958737
mmcc0_sx438 quick_test/fbank/raw_fbank_train.3.ark:8582536
mtpp0_si1508 quick_test/fbank/raw_fbank_train.4.ark:9388892
mwac0_sx341 quick_test/fbank/raw_fbank_train.4.ark:10560133
flag0_sx114 quick_test/fbank/raw_fbank_train.1.ark:7256596
mjxl0_si1172 quick_test/fbank/raw_fbank_train.3.ark:5556730
fsls0_si1056 quick_test/fbank/raw_fbank_train.2.ark:538829
mgxp0_si457 quick_test/fbank/raw_fbank_train.3.ark:827245
fcaj0_si849 quick_test/fbank/raw_fbank_train.1.ark:1359962
mmwb0_sx89 quick_test/fbank/raw_fbank_train.3.ark:10257954
falr0_si1955 quick_test/fbank/raw_fbank_train.1.ark:324237
mrem0_si961 quick_test/fbank/raw_fbank_train.4.ark:1888743
fbcg1_sx262 quick_test/fbank/raw_fbank_train.1.ark:678173
mctm0_sx270 quick_test/fbank/raw_fbank_train.2.ark:5863793
fkfb0_sx348 quick_test/fbank/raw_fbank_train.1.ark:6557806
fdtd0_si2191 quick_test/fbank/raw_fbank_train.1.ark:3248609
mklw0_sx41 quick_test/fbank/raw_fbank_train.3.ark:7029952
mtjs0_sx112 quick_test/fbank/raw_fbank_train.4.ark:8333916
msfv0_sx92 quick_test/fbank/raw_fbank_train.4.ark:6319030
fsdc0_si2234 quick_test/fbank/raw_fbank_train.1.ark:11455587
mpgh0_sx114 quick_test/fbank/raw_fbank_train.3.ark:11055324
mgsh0_sx186 quick_test/fbank/raw_fbank_train.3.ark:650698
mrbc0_sx329 quick_test/fbank/raw_fbank_train.4.ark:1118241
mkaj0_sx334 quick_test/fbank/raw_fbank_train.3.ark:5923130
msdh0_sx350 quick_test/fbank/raw_fbank_train.4.ark:5722758
mwrp0_sx183 quick_test/fbank/raw_fbank_train.4.ark:11299673
mwar0_sx55 quick_test/fbank/raw_fbank_train.4.ark:10759410
mmdb0_si1617 quick_test/fbank/raw_fbank_train.3.ark:8622156
mrds0_si1797 quick_test/fbank/raw_fbank_train.4.ark:1563515
fcdr1_sx16 quick_test/fbank/raw_fbank_train.1.ark:1509092
mhmg0_sx15 quick_test/fbank/raw_fbank_train.3.ark:1235162
mmgk0_si692 quick_test/fbank/raw_fbank_train.3.ark:9467534
mtpf0_sx335 quick_test/fbank/raw_fbank_train.4.ark:9267608
mtas0_sx215 quick_test/fbank/raw_fbank_train.4.ark:7314259
mmdb0_sx87 quick_test/fbank/raw_fbank_train.3.ark:8686273
fljg0_sx351 quick_test/fbank/raw_fbank_train.1.ark:7887895
mtju0_sx40 quick_test/fbank/raw_fbank_train.4.ark:8468399
fkkh0_sx390 quick_test/fbank/raw_fbank_train.1.ark:6702376
fpaf0_sx244 quick_test/fbank/raw_fbank_train.1.ark:10145929
mgaf0_si1912 quick_test/fbank/raw_fbank_train.2.ark:10981818
fdkn0_sx271 quick_test/fbank/raw_fbank_train.1.ark:2844687
mgaf0_sx382 quick_test/fbank/raw_fbank_train.2.ark:11041735
fjen0_si2307 quick_test/fbank/raw_fbank_train.1.ark:4971449
mbml0_sx179 quick_test/fbank/raw_fbank_train.2.ark:3968008
fcrz0_sx433 quick_test/fbank/raw_fbank_train.1.ark:2271400
mrlj1_sx411 quick_test/fbank/raw_fbank_train.4.ark:3480329
mdlb0_si1936 quick_test/fbank/raw_fbank_train.2.ark:7408213
mrws0_si1732 quick_test/fbank/raw_fbank_train.4.ark:5053648
mmrp0_sx54 quick_test/fbank/raw_fbank_train.3.ark:9903718
mjpm1_sx311 quick_test/fbank/raw_fbank_train.3.ark:4383876
mmvp0_si654 quick_test/fbank/raw_fbank_train.3.ark:10046084
mbwp0_si709 quick_test/fbank/raw_fbank_train.2.ark:4310114
mdjm0_si1455 quick_test/fbank/raw_fbank_train.2.ark:7187408
ftaj0_sx339 quick_test/fbank/raw_fbank_train.2.ark:1312971
falr0_sx155 quick_test/fbank/raw_fbank_train.1.ark:346423
mbom0_sx114 quick_test/fbank/raw_fbank_train.2.ark:4060314
mtmt0_si1118 quick_test/fbank/raw_fbank_train.4.ark:9107617
fcjs0_sx167 quick_test/fbank/raw_fbank_train.1.ark:1748055
mdlh0_sx160 quick_test/fbank/raw_fbank_train.2.ark:7830179
fsag0_sx153 quick_test/fbank/raw_fbank_train.1.ark:10911254
ftmg0_si2162 quick_test/fbank/raw_fbank_train.2.ark:1648458
mtrt0_sx147 quick_test/fbank/raw_fbank_train.4.ark:9953556
mcef0_si842 quick_test/fbank/raw_fbank_train.2.ark:4935662
mges0_sx221 quick_test/fbank/raw_fbank_train.3.ark:226997
mjjm0_si827 quick_test/fbank/raw_fbank_train.3.ark:3419405
mdlh0_si1960 quick_test/fbank/raw_fbank_train.2.ark:7791800
fpaf0_sx154 quick_test/fbank/raw_fbank_train.1.ark:10134736
fbmh0_sx326 quick_test/fbank/raw_fbank_train.1.ark:1113906
msms0_si1433 quick_test/fbank/raw_fbank_train.4.ark:6637578
mjmd0_sx38 quick_test/fbank/raw_fbank_train.3.ark:4027808
fjwb1_sx75 quick_test/fbank/raw_fbank_train.1.ark:5960840
mrbc0_si1859 quick_test/fbank/raw_fbank_train.4.ark:1068949
mrre0_sx74 quick_test/fbank/raw_fbank_train.4.ark:4382389
mrsp0_sx169 quick_test/fbank/raw_fbank_train.4.ark:4561189
mnet0_sx6 quick_test/fbank/raw_fbank_train.3.ark:10607538
fjrp1_sx442 quick_test/fbank/raw_fbank_train.1.ark:5648933
fbjl0_sx292 quick_test/fbank/raw_fbank_train.1.ark:913327
mmsm0_sx116 quick_test/fbank/raw_fbank_train.3.ark:9965492
mrmg0_si1080 quick_test/fbank/raw_fbank_train.4.ark:3787790
mddc0_sx159 quick_test/fbank/raw_fbank_train.2.ark:6628478
mdtb0_sx321 quick_test/fbank/raw_fbank_train.2.ark:9227229
fdtd0_si1561 quick_test/fbank/raw_fbank_train.1.ark:3235615
mmdm1_sx423 quick_test/fbank/raw_fbank_train.3.ark:8976036
mmxs0_sx426 quick_test/fbank/raw_fbank_train.3.ark:10517075
mrsp0_sx259 quick_test/fbank/raw_fbank_train.4.ark:4582255
mjkr0_si1831 quick_test/fbank/raw_fbank_train.3.ark:3501277
makb0_sx296 quick_test/fbank/raw_fbank_train.2.ark:2789221
mstf0_si766 quick_test/fbank/raw_fbank_train.4.ark:6941965
mjeb1_si837 quick_test/fbank/raw_fbank_train.3.ark:2712550
mrew1_si1500 quick_test/fbank/raw_fbank_train.4.ark:1957941
frjb0_si1427 quick_test/fbank/raw_fbank_train.1.ark:10690344
fjwb1_si795 quick_test/fbank/raw_fbank_train.1.ark:5903916
mtdp0_sx261 quick_test/fbank/raw_fbank_train.4.ark:7923250
fdfb0_si1948 quick_test/fbank/raw_fbank_train.1.ark:2623816
mrkm0_sx7 quick_test/fbank/raw_fbank_train.4.ark:3214373
mmsm0_si1106 quick_test/fbank/raw_fbank_train.3.ark:9919472
mjee0_si1867 quick_test/fbank/raw_fbank_train.3.ark:2799502
mklw0_si1571 quick_test/fbank/raw_fbank_train.3.ark:6940600
mrgm0_sx416 quick_test/fbank/raw_fbank_train.4.ark:2326423
mnet0_si2076 quick_test/fbank/raw_fbank_train.3.ark:10556415
fcrz0_sx253 quick_test/fbank/raw_fbank_train.1.ark:2250894
mcre0_sx221 quick_test/fbank/raw_fbank_train.2.ark:5560080
fcmg0_sx432 quick_test/fbank/raw_fbank_train.1.ark:2079270
mjwg0_sx85 quick_test/fbank/raw_fbank_train.3.ark:5235941
mmea0_sx128 quick_test/fbank/raw_fbank_train.3.ark:9116667
mrem0_sx421 quick_test/fbank/raw_fbank_train.4.ark:1933675
mejl0_sx242 quick_test/fbank/raw_fbank_train.2.ark:9981641
fskc0_si1416 quick_test/fbank/raw_fbank_train.2.ark:256514
fkkh0_sx120 quick_test/fbank/raw_fbank_train.1.ark:6659245
mtkd0_sx17 quick_test/fbank/raw_fbank_train.4.ark:8550798
meal0_sx377 quick_test/fbank/raw_fbank_train.2.ark:9628203
mclk0_sx400 quick_test/fbank/raw_fbank_train.2.ark:5324102
mrab0_sx144 quick_test/fbank/raw_fbank_train.4.ark:600768
fjrb0_sx222 quick_test/fbank/raw_fbank_train.1.ark:5493002
mafm0_sx309 quick_test/fbank/raw_fbank_train.2.ark:2549497
fhlm0_sx210 quick_test/fbank/raw_fbank_train.1.ark:4661876
fdaw0_sx146 quick_test/fbank/raw_fbank_train.1.ark:2551617
mpsw0_sx24 quick_test/fbank/raw_fbank_train.4.ark:525896
mmeb0_si1987 quick_test/fbank/raw_fbank_train.3.ark:9183506
mlbc0_sx429 quick_test/fbank/raw_fbank_train.3.ark:7305435
mclk0_si2290 quick_test/fbank/raw_fbank_train.2.ark:5238745
mhjb0_sx207 quick_test/fbank/raw_fbank_train.3.ark:1152098
mprk0_sx17 quick_test/fbank/raw_fbank_train.4.ark:341886
fbmj0_si815 quick_test/fbank/raw_fbank_train.1.ark:1180311
mded0_sx270 quick_test/fbank/raw_fbank_train.2.ark:6738856
mjbg0_si1232 quick_test/fbank/raw_fbank_train.3.ark:1966906
mrjb1_si2021 quick_test/fbank/raw_fbank_train.4.ark:2608238
mrcw0_sx21 quick_test/fbank/raw_fbank_train.4.ark:1338690
fdnc0_sx378 quick_test/fbank/raw_fbank_train.1.ark:3221501
fleh0_si1051 quick_test/fbank/raw_fbank_train.1.ark:7321801
madd0_si1798 quick_test/fbank/raw_fbank_train.2.ark:2217929
fjhk0_sx32 quick_test/fbank/raw_fbank_train.1.ark:5137126
mtlb0_sx144 quick_test/fbank/raw_fbank_train.4.ark:8740096
fkdw0_sx217 quick_test/fbank/raw_fbank_train.1.ark:6453348
mgaw0_si1165 quick_test/fbank/raw_fbank_train.3.ark:99239
mtml0_sx435 quick_test/fbank/raw_fbank_train.4.ark:8970806
fpjf0_si1676 quick_test/fbank/raw_fbank_train.1.ark:10326473
mdcm0_si850 quick_test/fbank/raw_fbank_train.2.ark:6522580
flag0_si1464 quick_test/fbank/raw_fbank_train.1.ark:7208176
mrds0_si1167 quick_test/fbank/raw_fbank_train.4.ark:1555881
medr0_sx384 quick_test/fbank/raw_fbank_train.2.ark:9716948
mkes0_sx263 quick_test/fbank/raw_fbank_train.3.ark:6418661
fgrw0_sx342 quick_test/fbank/raw_fbank_train.1.ark:4573484
ftbw0_si715 quick_test/fbank/raw_fbank_train.2.ark:1458042
fmem0_si2007 quick_test/fbank/raw_fbank_train.1.ark:8733029
fdfb0_sx418 quick_test/fbank/raw_fbank_train.1.ark:2668262
mdlb0_si1306 quick_test/fbank/raw_fbank_train.2.ark:7383979
fsdc0_sx412 quick_test/fbank/raw_fbank_train.1.ark:11497159
mwac0_sx431 quick_test/fbank/raw_fbank_train.4.ark:10574126
marw0_sx16 quick_test/fbank/raw_fbank_train.2.ark:3114575
mefg0_sx285 quick_test/fbank/raw_fbank_train.2.ark:9803858
fear0_sx262 quick_test/fbank/raw_fbank_train.1.ark:3577664
mafm0_sx399 quick_test/fbank/raw_fbank_train.2.ark:2571682
mwar0_si1675 quick_test/fbank/raw_fbank_train.4.ark:10696892
marc0_sx378 quick_test/fbank/raw_fbank_train.2.ark:3061329
fcyl0_si1927 quick_test/fbank/raw_fbank_train.1.ark:2307860
mtjg0_sx260 quick_test/fbank/raw_fbank_train.4.ark:8131739
fsjg0_sx220 quick_test/fbank/raw_fbank_train.1.ark:11767848
fbmh0_sx146 quick_test/fbank/raw_fbank_train.1.ark:1094240
mjxa0_sx67 quick_test/fbank/raw_fbank_train.3.ark:5544176
madd0_sx178 quick_test/fbank/raw_fbank_train.2.ark:2243915
mhmg0_sx285 quick_test/fbank/raw_fbank_train.3.ark:1253188
mtlb0_si504 quick_test/fbank/raw_fbank_train.4.ark:8729743
mjrh0_si1840 quick_test/fbank/raw_fbank_train.3.ark:4652213
mdem0_sx158 quick_test/fbank/raw_fbank_train.2.ark:6928233
fpls0_sx150 quick_test/fbank/raw_fbank_train.1.ark:10435411
mrjh0_sx307 quick_test/fbank/raw_fbank_train.4.ark:2768801
makb0_sx116 quick_test/fbank/raw_fbank_train.2.ark:2750603
mtmn0_si1064 quick_test/fbank/raw_fbank_train.4.ark:9001032
mmdm0_si1311 quick_test/fbank/raw_fbank_train.3.ark:8801212
mrlj1_sx231 quick_test/fbank/raw_fbank_train.4.ark:3461663
mses0_sx419 quick_test/fbank/raw_fbank_train.4.ark:6082188
mpar0_si946 quick_test/fbank/raw_fbank_train.3.ark:10756017
mrjb1_si1413 quick_test/fbank/raw_fbank_train.4.ark:2587324
mdcd0_sx335 quick_test/fbank/raw_fbank_train.2.ark:6457734
mrbc0_si1665 quick_test/fbank/raw_fbank_train.4.ark:1058915
mmxs0_si876 quick_test/fbank/raw_fbank_train.3.ark:10470783
ftbr0_sx201 quick_test/fbank/raw_fbank_train.2.ark:1396323
fjxp0_sx222 quick_test/fbank/raw_fbank_train.1.ark:6128432
mkls0_si1533 quick_test/fbank/raw_fbank_train.3.ark:6759543
mmgc0_sx315 quick_test/fbank/raw_fbank_train.3.ark:9317142
mjjj0_sx263 quick_test/fbank/raw_fbank_train.3.ark:3334526
mrwa0_sx163 quick_test/fbank/raw_fbank_train.4.ark:4976929
mrvg0_si1770 quick_test/fbank/raw_fbank_train.4.ark:4864638
mdrd0_sx302 quick_test/fbank/raw_fbank_train.2.ark:8858136
mmgc0_si1305 quick_test/fbank/raw_fbank_train.3.ark:9258055
mrjh0_sx259 quick_test/fbank/raw_fbank_train.4.ark:2754928
mlsh0_si787 quick_test/fbank/raw_fbank_train.3.ark:7789148
mrtc0_sx18 quick_test/fbank/raw_fbank_train.4.ark:4678086
marw0_sx106 quick_test/fbank/raw_fbank_train.2.ark:3102543
mdps0_sx359 quick_test/fbank/raw_fbank_train.2.ark:8746711
mvjh0_si1556 quick_test/fbank/raw_fbank_train.4.ark:10205492
fsjg0_sx310 quick_test/fbank/raw_fbank_train.1.ark:11789281
fdkn0_sx361 quick_test/fbank/raw_fbank_train.1.ark:2857400
mjjm0_sx377 quick_test/fbank/raw_fbank_train.3.ark:3472729
mljh0_sx154 quick_test/fbank/raw_fbank_train.3.ark:7600131
makr0_si1352 quick_test/fbank/raw_fbank_train.2.ark:2810128
mcae0_si2077 quick_test/fbank/raw_fbank_train.2.ark:4418266
mjxl0_sx182 quick_test/fbank/raw_fbank_train.3.ark:5595230
mrgm0_si1162 quick_test/fbank/raw_fbank_train.4.ark:2249817
feme0_sx65 quick_test/fbank/raw_fbank_train.1.ark:3952037
mlbc0_sx69 quick_test/fbank/raw_fbank_train.3.ark:7317547
fexm0_si482 quick_test/fbank/raw_fbank_train.1.ark:4086763
fmah1_sx69 quick_test/fbank/raw_fbank_train.1.ark:8606577
mrml0_sx431 quick_test/fbank/raw_fbank_train.4.ark:4076161
mmar0_si706 quick_test/fbank/raw_fbank_train.3.ark:8309234
mtrr0_si918 quick_test/fbank/raw_fbank_train.4.ark:9831698
majp0_sx264 quick_test/fbank/raw_fbank_train.2.ark:2638810
mdpb0_sx146 quick_test/fbank/raw_fbank_train.2.ark:8549875
fmbg0_sx3 quick_test/fbank/raw_fbank_train.1.ark:8670583
feme0_si1505 quick_test/fbank/raw_fbank_train.1.ark:3853486
mwem0_si1393 quick_test/fbank/raw_fbank_train.4.ark:10968209
fcaj0_si1479 quick_test/fbank/raw_fbank_train.1.ark:1346735
mmdm0_sx411 quick_test/fbank/raw_fbank_train.3.ark:8875371
fmjf0_sx84 quick_test/fbank/raw_fbank_train.1.ark:9018915
mbcg0_si486 quick_test/fbank/raw_fbank_train.2.ark:3376992
mgsh0_si1176 quick_test/fbank/raw_fbank_train.3.ark:593125
mcss0_sx210 quick_test/fbank/raw_fbank_train.2.ark:5672623
mrai0_sx252 quick_test/fbank/raw_fbank_train.4.ark:822571
fbch0_sx236 quick_test/fbank/raw_fbank_train.1.ark:789957
flkm0_si1880 quick_test/fbank/raw_fbank_train.1.ark:7933234
fetb0_sx428 quick_test/fbank/raw_fbank_train.1.ark:4034550
fdjh0_si2195 quick_test/fbank/raw_fbank_train.1.ark:2702882
fjxm0_sx131 quick_test/fbank/raw_fbank_train.1.ark:6005574
mgjc0_sx255 quick_test/fbank/raw_fbank_train.3.ark:330383
mtxs0_sx70 quick_test/fbank/raw_fbank_train.4.ark:10198138
fcjs0_si2237 quick_test/fbank/raw_fbank_train.1.ark:1729509
fcmm0_sx183 quick_test/fbank/raw_fbank_train.1.ark:2145236
feeh0_si471 quick_test/fbank/raw_fbank_train.1.ark:3779728
mbar0_si1319 quick_test/fbank/raw_fbank_train.2.ark:3176028
mrvg0_sx240 quick_test/fbank/raw_fbank_train.4.ark:4893257
mrxb0_si955 quick_test/fbank/raw_fbank_train.4.ark:5150746
fmjf0_sx354 quick_test/fbank/raw_fbank_train.1.ark:8994410
fgmb0_sx425 quick_test/fbank/raw_fbank_train.1.ark:4477811
mgjc0_sx435 quick_test/fbank/raw_fbank_train.3.ark:357209
mdlc1_sx175 quick_test/fbank/raw_fbank_train.2.ark:7650210
fklc1_sx58 quick_test/fbank/raw_fbank_train.1.ark:6903627
mrmg0_sx450 quick_test/fbank/raw_fbank_train.4.ark:3861070
mpfu0_si628 quick_test/fbank/raw_fbank_train.3.ark:10935707
mctm0_sx180 quick_test/fbank/raw_fbank_train.2.ark:5852160
mtmn0_sx74 quick_test/fbank/raw_fbank_train.4.ark:9096343
fblv0_si1058 quick_test/fbank/raw_fbank_train.1.ark:941034
fapb0_sx253 quick_test/fbank/raw_fbank_train.1.ark:467002
mtrr0_sx288 quick_test/fbank/raw_fbank_train.4.ark:9881909
mjwt0_si751 quick_test/fbank/raw_fbank_train.3.ark:5391067
mlsh0_si2047 quick_test/fbank/raw_fbank_train.3.ark:7777715
mrws0_sx382 quick_test/fbank/raw_fbank_train.4.ark:5111125
mtkp0_sx303 quick_test/fbank/raw_fbank_train.4.ark:8673937
fsgf0_si927 quick_test/fbank/raw_fbank_train.1.ark:11633837
mbma1_si2214 quick_test/fbank/raw_fbank_train.2.ark:3838877
fspm0_sx341 quick_test/fbank/raw_fbank_train.2.ark:1026096
mram0_sx375 quick_test/fbank/raw_fbank_train.4.ark:957335
fskc0_sx246 quick_test/fbank/raw_fbank_train.2.ark:298727
mafm0_sx129 quick_test/fbank/raw_fbank_train.2.ark:2526391
mbom0_si2274 quick_test/fbank/raw_fbank_train.2.ark:4049961
fgmb0_sx65 quick_test/fbank/raw_fbank_train.1.ark:4487523
msjk0_si2226 quick_test/fbank/raw_fbank_train.4.ark:6352378
mtjm0_si1856 quick_test/fbank/raw_fbank_train.4.ark:8198545
mjae0_si1524 quick_test/fbank/raw_fbank_train.3.ark:1764776
fpaz0_sx63 quick_test/fbank/raw_fbank_train.1.ark:10286811
mtpr0_sx340 quick_test/fbank/raw_fbank_train.4.ark:9554283
mfwk0_sx169 quick_test/fbank/raw_fbank_train.2.ark:10710287
mjdg0_sx232 quick_test/fbank/raw_fbank_train.3.ark:2427461
fsrh0_sx401 quick_test/fbank/raw_fbank_train.2.ark:1128634
mmgk0_sx422 quick_test/fbank/raw_fbank_train.3.ark:9503346
mtcs0_si1972 quick_test/fbank/raw_fbank_train.4.ark:7663346
mvjh0_sx116 quick_test/fbank/raw_fbank_train.4.ark:10249872
mklr0_sx339 quick_test/fbank/raw_fbank_train.3.ark:6705090
mdma0_si1430 quick_test/fbank/raw_fbank_train.2.ark:8202533
fmju0_si1389 quick_test/fbank/raw_fbank_train.1.ark:9035709
fgcs0_sx316 quick_test/fbank/raw_fbank_train.1.ark:4236488
fecd0_si2048 quick_test/fbank/raw_fbank_train.1.ark:3656390
fdfb0_si2010 quick_test/fbank/raw_fbank_train.1.ark:2630490
mrgm0_sx262 quick_test/fbank/raw_fbank_train.4.ark:2314270
fssb0_sx362 quick_test/fbank/raw_fbank_train.2.ark:1215667
fcmm0_sx420 quick_test/fbank/raw_fbank_train.1.ark:2175975
mdlc0_sx135 quick_test/fbank/raw_fbank_train.2.ark:7550104
mkdt0_sx173 quick_test/fbank/raw_fbank_train.3.ark:6294643
fjlg0_sx89 quick_test/fbank/raw_fbank_train.1.ark:5340290
mgrp0_si1317 quick_test/fbank/raw_fbank_train.3.ark:482900
mmea0_sx398 quick_test/fbank/raw_fbank_train.3.ark:9156238
mewm0_sx268 quick_test/fbank/raw_fbank_train.2.ark:10353099
ftbr0_si921 quick_test/fbank/raw_fbank_train.2.ark:1369097
msdh0_si2113 quick_test/fbank/raw_fbank_train.4.ark:5663032
fleh0_sx331 quick_test/fbank/raw_fbank_train.1.ark:7383368
mjma0_sx55 quick_test/fbank/raw_fbank_train.3.ark:3954015
fhxs0_si2335 quick_test/fbank/raw_fbank_train.1.ark:4764717
mdns0_sx291 quick_test/fbank/raw_fbank_train.2.ark:8480508
mjai0_sx74 quick_test/fbank/raw_fbank_train.3.ark:1957352
fcaj0_sx129 quick_test/fbank/raw_fbank_train.1.ark:1374195
flhd0_si1974 quick_test/fbank/raw_fbank_train.1.ark:7534840
mrjt0_si868 quick_test/fbank/raw_fbank_train.4.ark:3029778
mdbp0_si528 quick_test/fbank/raw_fbank_train.2.ark:6310450
mdef0_si2193 quick_test/fbank/raw_fbank_train.2.ark:6818696
maeb0_sx360 quick_test/fbank/raw_fbank_train.2.ark:2369566
mtjg0_sx350 quick_test/fbank/raw_fbank_train.4.ark:8143532
fklc1_sx418 quick_test/fbank/raw_fbank_train.1.ark:6889235
mljh0_sx244 quick_test/fbank/raw_fbank_train.3.ark:7613724
mwar0_sx415 quick_test/fbank/raw_fbank_train.4.ark:10749418
fcrz0_sx343 quick_test/fbank/raw_fbank_train.1.ark:2259407
fssb0_si2342 quick_test/fbank/raw_fbank_train.2.ark:1187448
mrbc0_si599 quick_test/fbank/raw_fbank_train.4.ark:1079902
mesg0_sx72 quick_test/fbank/raw_fbank_train.2.ark:10216749
mtdp0_sx171 quick_test/fbank/raw_fbank_train.4.ark:7904657
mhxl0_sx62 quick_test/fbank/raw_fbank_train.3.ark:1562575
mbma0_sx52 quick_test/fbank/raw_fbank_train.2.ark:3819009
mrmb0_sx51 quick_test/fbank/raw_fbank_train.4.ark:3777156
fgdp0_si988 quick_test/fbank/raw_fbank_train.1.ark:4290734
mtpp0_si878 quick_test/fbank/raw_fbank_train.4.ark:9414159
msms0_sx353 quick_test/fbank/raw_fbank_train.4.ark:6702744
ftmg0_sx272 quick_test/fbank/raw_fbank_train.2.ark:1688637
mdlm0_si1234 quick_test/fbank/raw_fbank_train.2.ark:7895504
fdas1_sx381 quick_test/fbank/raw_fbank_train.1.ark:2492122
mdlh0_sx340 quick_test/fbank/raw_fbank_train.2.ark:7861125
mrcw0_sx381 quick_test/fbank/raw_fbank_train.4.ark:1355676
mdhs0_sx360 quick_test/fbank/raw_fbank_train.2.ark:7155989
mpmb0_sx331 quick_test/fbank/raw_fbank_train.3.ark:11393706
mjrh1_sx244 quick_test/fbank/raw_fbank_train.3.ark:4782024
mgrl0_sx57 quick_test/fbank/raw_fbank_train.3.ark:474546
fdnc0_sx108 quick_test/fbank/raw_fbank_train.1.ark:3170210
mrkm0_si1267 quick_test/fbank/raw_fbank_train.4.ark:3113696
mkag0_si1609 quick_test/fbank/raw_fbank_train.3.ark:5659915
mhit0_sx443 quick_test/fbank/raw_fbank_train.3.ark:1083098
mjma0_sx235 quick_test/fbank/raw_fbank_train.3.ark:3926477
mddc0_si789 quick_test/fbank/raw_fbank_train.2.ark:6614285
mrld0_sx64 quick_test/fbank/raw_fbank_train.4.ark:3315750
mesg0_si1332 quick_test/fbank/raw_fbank_train.2.ark:10124878
fcmg0_sx72 quick_test/fbank/raw_fbank_train.1.ark:2097942
fljd0_si2146 quick_test/fbank/raw_fbank_train.1.ark:7737098
mgak0_si1666 quick_test/fbank/raw_fbank_train.2.ark:11161427
mewm0_sx358 quick_test/fbank/raw_fbank_train.2.ark:10364772
mfmc0_si1762 quick_test/fbank/raw_fbank_train.2.ark:10494210
ftlg0_si840 quick_test/fbank/raw_fbank_train.2.ark:1574466
maeb0_sx450 quick_test/fbank/raw_fbank_train.2.ark:2381439
mrjb1_si1020 quick_test/fbank/raw_fbank_train.4.ark:2572610
mpfu0_sx178 quick_test/fbank/raw_fbank_train.3.ark:10945700
mprt0_si495 quick_test/fbank/raw_fbank_train.4.ark:412812
fdas1_sx201 quick_test/fbank/raw_fbank_train.1.ark:2458704
mrml0_si2051 quick_test/fbank/raw_fbank_train.4.ark:4001396
mdlr1_sx309 quick_test/fbank/raw_fbank_train.2.ark:8156440
fvfb0_sx402 quick_test/fbank/raw_fbank_train.2.ark:1808529
mkdb0_si588 quick_test/fbank/raw_fbank_train.3.ark:6069488
mtwh1_sx342 quick_test/fbank/raw_fbank_train.4.ark:10056967
mjlg1_si2272 quick_test/fbank/raw_fbank_train.3.ark:3700961
fjen0_sx417 quick_test/fbank/raw_fbank_train.1.ark:5030861
mkam0_si1316 quick_test/fbank/raw_fbank_train.3.ark:5968183
mrgs0_si1356 quick_test/fbank/raw_fbank_train.4.ark:2371122
mkaj0_sx244 quick_test/fbank/raw_fbank_train.3.ark:5910577
mjls0_sx376 quick_test/fbank/raw_fbank_train.3.ark:3860150
fhlm0_sx349 quick_test/fbank/raw_fbank_train.1.ark:4685622
fsms1_sx154 quick_test/fbank/raw_fbank_train.2.ark:888925
fdtd0_sx321 quick_test/fbank/raw_fbank_train.1.ark:3314414
fdmy0_si567 quick_test/fbank/raw_fbank_train.1.ark:3001238
mzmb0_sx446 quick_test/fbank/raw_fbank_train.4.ark:11636003
mtjm0_sx56 quick_test/fbank/raw_fbank_train.4.ark:8269582
mbml0_sx269 quick_test/fbank/raw_fbank_train.2.ark:3979561
mkdt0_si2153 quick_test/fbank/raw_fbank_train.3.ark:6254184
mtrc0_sx363 quick_test/fbank/raw_fbank_train.4.ark:9792805
mdtb0_si1200 quick_test/fbank/raw_fbank_train.2.ark:9166710
mdcm0_sx130 quick_test/fbank/raw_fbank_train.2.ark:6533693
mwdk0_si2017 quick_test/fbank/raw_fbank_train.4.ark:10873544
mtbc0_sx347 quick_test/fbank/raw_fbank_train.4.ark:7623687
fpaf0_si1054 quick_test/fbank/raw_fbank_train.1.ark:10092195
mprd0_si801 quick_test/fbank/raw_fbank_train.4.ark:188756
fscn0_si705 quick_test/fbank/raw_fbank_train.1.ark:11333241
mkag0_si979 quick_test/fbank/raw_fbank_train.3.ark:5686222
mjjb0_sx329 quick_test/fbank/raw_fbank_train.3.ark:3235534
fskp0_si468 quick_test/fbank/raw_fbank_train.2.ark:474431
mjdg0_sx322 quick_test/fbank/raw_fbank_train.3.ark:2441334
mkaj0_sx154 quick_test/fbank/raw_fbank_train.3.ark:5901744
mcdr0_sx254 quick_test/fbank/raw_fbank_train.2.ark:4872703
fdkn0_si1202 quick_test/fbank/raw_fbank_train.1.ark:2799427
mbsb0_sx363 quick_test/fbank/raw_fbank_train.2.ark:4169317
mdem0_sx68 quick_test/fbank/raw_fbank_train.2.ark:6986364
fear0_si1252 quick_test/fbank/raw_fbank_train.1.ark:3532851
fcjf0_sx397 quick_test/fbank/raw_fbank_train.1.ark:1712121
mmeb0_sx7 quick_test/fbank/raw_fbank_train.3.ark:9237309
mree0_si1959 quick_test/fbank/raw_fbank_train.4.ark:1675974
mwch0_si1895 quick_test/fbank/raw_fbank_train.4.ark:10785318
fcaj0_sx219 quick_test/fbank/raw_fbank_train.1.ark:1386028
mdss0_sx351 quick_test/fbank/raw_fbank_train.2.ark:9044786
fdkn0_sx451 quick_test/fbank/raw_fbank_train.1.ark:2869233
mmgk0_sx332 quick_test/fbank/raw_fbank_train.3.ark:9493513
mmgg0_si1079 quick_test/fbank/raw_fbank_train.3.ark:9349521
mgrl0_sx237 quick_test/fbank/raw_fbank_train.3.ark:434928
fsbk0_si2329 quick_test/fbank/raw_fbank_train.1.ark:11222177
feeh0_sx32 quick_test/fbank/raw_fbank_train.1.ark:3828819
mrml0_si791 quick_test/fbank/raw_fbank_train.4.ark:4009189
mdtb0_sx390 quick_test/fbank/raw_fbank_train.2.ark:9241062
mtpf0_sx425 quick_test/fbank/raw_fbank_train.4.ark:9283321
fcag0_sx423 quick_test/fbank/raw_fbank_train.1.ark:1321949
makb0_sx26 quick_test/fbank/raw_fbank_train.2.ark:2778908
mdlb0_sx226 quick_test/fbank/raw_fbank_train.2.ark:7446192
mmab1_sx54 quick_test/fbank/raw_fbank_train.3.ark:8061682
mmlm0_sx177 quick_test/fbank/raw_fbank_train.3.ark:9660937
mrfl0_sx256 quick_test/fbank/raw_fbank_train.4.ark:2200205
mjxl0_sx362 quick_test/fbank/raw_fbank_train.3.ark:5616576
fmpg0_si972 quick_test/fbank/raw_fbank_train.1.ark:9472113
mtml0_sx345 quick_test/fbank/raw_fbank_train.4.ark:8959253
mjhi0_sx68 quick_test/fbank/raw_fbank_train.3.ark:3161333
fpac0_sx211 quick_test/fbank/raw_fbank_train.1.ark:9938598
mrxb0_sx415 quick_test/fbank/raw_fbank_train.4.ark:5200438
mdrd0_sx122 quick_test/fbank/raw_fbank_train.2.ark:8828470
mljc0_sx55 quick_test/fbank/raw_fbank_train.3.ark:7529757
mtmn0_si2324 quick_test/fbank/raw_fbank_train.4.ark:9015026
mprd0_sx261 quick_test/fbank/raw_fbank_train.4.ark:229422
mdpk0_si552 quick_test/fbank/raw_fbank_train.2.ark:8627147
madc0_sx107 quick_test/fbank/raw_fbank_train.2.ark:2154410
mdem0_sx428 quick_test/fbank/raw_fbank_train.2.ark:6968132
fdxw0_si881 quick_test/fbank/raw_fbank_train.1.ark:3357988
mmlm0_sx447 quick_test/fbank/raw_fbank_train.3.ark:9693956
mkdd0_si937 quick_test/fbank/raw_fbank_train.3.ark:6191026
flod0_si1287 quick_test/fbank/raw_fbank_train.1.ark:8329334
mmam0_si1597 quick_test/fbank/raw_fbank_train.3.ark:8188781
fcke0_sx31 quick_test/fbank/raw_fbank_train.1.ark:1889138
mtjm0_si655 quick_test/fbank/raw_fbank_train.4.ark:8212778
mdps0_sx89 quick_test/fbank/raw_fbank_train.2.ark:8774296
mppc0_sx62 quick_test/fbank/raw_fbank_train.4.ark:37510
flkm0_sx260 quick_test/fbank/raw_fbank_train.1.ark:7985406
mrcw0_sx201 quick_test/fbank/raw_fbank_train.4.ark:1327378
fsdj0_sx125 quick_test/fbank/raw_fbank_train.1.ark:11556085
fkkh0_sx30 quick_test/fbank/raw_fbank_train.1.ark:6683510
mcdc0_sx122 quick_test/fbank/raw_fbank_train.2.ark:4651980
fajw0_sx183 quick_test/fbank/raw_fbank_train.1.ark:151578
mtmn0_si582 quick_test/fbank/raw_fbank_train.4.ark:9031379
mchl0_sx177 quick_test/fbank/raw_fbank_train.2.ark:5176586
fsgf0_sx297 quick_test/fbank/raw_fbank_train.1.ark:11683568
fjkl0_si932 quick_test/fbank/raw_fbank_train.1.ark:5171300
mwac0_sx161 quick_test/fbank/raw_fbank_train.4.ark:10524227
fapb0_si1063 quick_test/fbank/raw_fbank_train.1.ark:403268
mtat0_sx390 quick_test/fbank/raw_fbank_train.4.ark:7440542
mkdt0_si814 quick_test/fbank/raw_fbank_train.3.ark:6264537
mabc0_sx421 quick_test/fbank/raw_fbank_train.2.ark:2083644
mgrp0_sx417 quick_test/fbank/raw_fbank_train.3.ark:566499
mwac0_sx71 quick_test/fbank/raw_fbank_train.4.ark:10590478
mpgr1_si1269 quick_test/fbank/raw_fbank_train.3.ark:11190114
mbgt0_sx351 quick_test/fbank/raw_fbank_train.2.ark:3606734
fdnc0_si1908 quick_test/fbank/raw_fbank_train.1.ark:3143783
msfv0_sx272 quick_test/fbank/raw_fbank_train.4.ark:6277012
flmk0_sx45 quick_test/fbank/raw_fbank_train.1.ark:8318060
mwre0_si1057 quick_test/fbank/raw_fbank_train.4.ark:11155506
mjdm0_si1340 quick_test/fbank/raw_fbank_train.3.ark:2473313
fscn0_sx446 quick_test/fbank/raw_fbank_train.1.ark:11401693
mjfr0_si1605 quick_test/fbank/raw_fbank_train.3.ark:2963798
mrdm0_sx155 quick_test/fbank/raw_fbank_train.4.ark:1497276
fdas1_sx291 quick_test/fbank/raw_fbank_train.1.ark:2480849
msah1_si1679 quick_test/fbank/raw_fbank_train.4.ark:5233898
mcef0_si1765 quick_test/fbank/raw_fbank_train.2.ark:4924789
mmaa0_sx215 quick_test/fbank/raw_fbank_train.3.ark:7924039
mmxs0_si2136 quick_test/fbank/raw_fbank_train.3.ark:10444517
freh0_si1315 quick_test/fbank/raw_fbank_train.1.ark:10601759
mpgr0_si1410 quick_test/fbank/raw_fbank_train.3.ark:11098649
mtrc0_si993 quick_test/fbank/raw_fbank_train.4.ark:9751193
fjsk0_sx62 quick_test/fbank/raw_fbank_train.1.ark:5767711
fcdr1_si1816 quick_test/fbank/raw_fbank_train.1.ark:1456074
mrmh0_sx391 quick_test/fbank/raw_fbank_train.4.ark:3969288
fdas1_sx21 quick_test/fbank/raw_fbank_train.1.ark:2472376
mpsw0_sx77 quick_test/fbank/raw_fbank_train.4.ark:554594
mrab1_sx218 quick_test/fbank/raw_fbank_train.4.ark:714706
mjrh0_si1755 quick_test/fbank/raw_fbank_train.3.ark:4639739
fjdm2_sx142 quick_test/fbank/raw_fbank_train.1.ark:4876136
mreh1_sx249 quick_test/fbank/raw_fbank_train.4.ark:1808265
mbcg0_sx57 quick_test/fbank/raw_fbank_train.2.ark:3448149
msdh0_si2240 quick_test/fbank/raw_fbank_train.4.ark:5668386
mjee0_si607 quick_test/fbank/raw_fbank_train.3.ark:2811095
mter0_sx17 quick_test/fbank/raw_fbank_train.4.ark:8038474
msah1_sx419 quick_test/fbank/raw_fbank_train.4.ark:5287464
mdlr1_sx39 quick_test/fbank/raw_fbank_train.2.ark:8170312
mmdg0_sx250 quick_test/fbank/raw_fbank_train.3.ark:8752360
mrds0_sx357 quick_test/fbank/raw_fbank_train.4.ark:1612607
mjmd0_sx308 quick_test/fbank/raw_fbank_train.3.ark:4017416
fjlg0_sx449 quick_test/fbank/raw_fbank_train.1.ark:5324898
mjdc0_si1161 quick_test/fbank/raw_fbank_train.3.ark:2153998
mjjm0_si1251 quick_test/fbank/raw_fbank_train.3.ark:3384618
mdlr1_si1929 quick_test/fbank/raw_fbank_train.2.ark:8100748
fsbk0_sx169 quick_test/fbank/raw_fbank_train.1.ark:11231170
mfrm0_si1785 quick_test/fbank/raw_fbank_train.2.ark:10610949
msfh0_sx136 quick_test/fbank/raw_fbank_train.4.ark:6149314
mjbg0_sx152 quick_test/fbank/raw_fbank_train.3.ark:1998567
fbjl0_sx382 quick_test/fbank/raw_fbank_train.1.ark:928160
fcyl0_sx397 quick_test/fbank/raw_fbank_train.1.ark:2385857
mjae0_sx444 quick_test/fbank/raw_fbank_train.3.ark:1837416
fvmh0_sx116 quick_test/fbank/raw_fbank_train.2.ark:1973240
mjpm1_si1897 quick_test/fbank/raw_fbank_train.3.ark:4332310
mwsh0_sx256 quick_test/fbank/raw_fbank_train.4.ark:11505192
fscn0_sx176 quick_test/fbank/raw_fbank_train.1.ark:11355154
mdhl0_sx449 quick_test/fbank/raw_fbank_train.2.ark:7072157
fclt0_sx178 quick_test/fbank/raw_fbank_train.1.ark:1938905
mmlm0_si1527 quick_test/fbank/raw_fbank_train.3.ark:9629077
mjma0_sx415 quick_test/fbank/raw_fbank_train.3.ark:3944903
mtlb0_si1134 quick_test/fbank/raw_fbank_train.4.ark:8704156
fhlm0_si930 quick_test/fbank/raw_fbank_train.1.ark:4632890
fjlg0_si1506 quick_test/fbank/raw_fbank_train.1.ark:5253818
fmmh0_sx367 quick_test/fbank/raw_fbank_train.1.ark:9396836
mrab0_si1854 quick_test/fbank/raw_fbank_train.4.ark:574822
mprk0_si467 quick_test/fbank/raw_fbank_train.4.ark:312341
mrjm1_si1928 quick_test/fbank/raw_fbank_train.4.ark:2925880
mjmd0_si2288 quick_test/fbank/raw_fbank_train.3.ark:3979317
mesj0_sx277 quick_test/fbank/raw_fbank_train.2.ark:10273516
mdss1_si1327 quick_test/fbank/raw_fbank_train.2.ark:9076685
mgrp0_sx147 quick_test/fbank/raw_fbank_train.3.ark:524160
mjrp0_sx45 quick_test/fbank/raw_fbank_train.3.ark:4996452
mdss1_sx67 quick_test/fbank/raw_fbank_train.2.ark:9154316
mtat1_sx329 quick_test/fbank/raw_fbank_train.4.ark:7523022
mdma0_sx350 quick_test/fbank/raw_fbank_train.2.ark:8263666
mcef0_si1135 quick_test/fbank/raw_fbank_train.2.ark:4912995
mclm0_sx286 quick_test/fbank/raw_fbank_train.2.ark:5397814
fsjg0_si2200 quick_test/fbank/raw_fbank_train.1.ark:11719189
fpmy0_sx343 quick_test/fbank/raw_fbank_train.1.ark:10574733
mhjb0_si1017 quick_test/fbank/raw_fbank_train.3.ark:1105444
fmjb0_si1177 quick_test/fbank/raw_fbank_train.1.ark:8828981
mrjm1_sx128 quick_test/fbank/raw_fbank_train.4.ark:2949586
mcth0_si1209 quick_test/fbank/raw_fbank_train.2.ark:5712635
mdsj0_si832 quick_test/fbank/raw_fbank_train.2.ark:8922902
mcre0_sx131 quick_test/fbank/raw_fbank_train.2.ark:5549687
fcjf0_sx217 quick_test/fbank/raw_fbank_train.1.ark:1689503
mbma0_sx142 quick_test/fbank/raw_fbank_train.2.ark:3769078
mmgk0_sx242 quick_test/fbank/raw_fbank_train.3.ark:9484320
msas0_si746 quick_test/fbank/raw_fbank_train.4.ark:5341437
mjae0_si2154 quick_test/fbank/raw_fbank_train.3.ark:1787524
fbas0_si1387 quick_test/fbank/raw_fbank_train.1.ark:527214
mjws0_sx423 quick_test/fbank/raw_fbank_train.3.ark:5326254
fexm0_si1101 quick_test/fbank/raw_fbank_train.1.ark:4059536
mtdb0_sx51 quick_test/fbank/raw_fbank_train.4.ark:7851322
mjee0_sx427 quick_test/fbank/raw_fbank_train.3.ark:2857587
mrlk0_si2140 quick_test/fbank/raw_fbank_train.4.ark:3520149
mmag0_sx406 quick_test/fbank/raw_fbank_train.3.ark:8162555
mwad0_si1749 quick_test/fbank/raw_fbank_train.4.ark:10614866
fapb0_sx163 quick_test/fbank/raw_fbank_train.1.ark:454089
mctm0_si1980 quick_test/fbank/raw_fbank_train.2.ark:5826294
mdma0_sx440 quick_test/fbank/raw_fbank_train.2.ark:8282259
mpsw0_sx167 quick_test/fbank/raw_fbank_train.4.ark:513984
mrfl0_sx166 quick_test/fbank/raw_fbank_train.4.ark:2183012
mcdr0_si1784 quick_test/fbank/raw_fbank_train.2.ark:4817964
mmea0_si758 quick_test/fbank/raw_fbank_train.3.ark:9101074
fmkf0_sx276 quick_test/fbank/raw_fbank_train.1.ark:9295893
fcdr1_sx286 quick_test/fbank/raw_fbank_train.1.ark:1529638
mrhl0_si885 quick_test/fbank/raw_fbank_train.4.ark:2502972
fdml0_si2075 quick_test/fbank/raw_fbank_train.1.ark:2925927
mmar0_sx346 quick_test/fbank/raw_fbank_train.3.ark:8354733
flet0_si1767 quick_test/fbank/raw_fbank_train.1.ark:7434261
fbas0_sx307 quick_test/fbank/raw_fbank_train.1.ark:602661
msas0_sx296 quick_test/fbank/raw_fbank_train.4.ark:5396288
fbmh0_sx56 quick_test/fbank/raw_fbank_train.1.ark:1134211
mdlr0_sx243 quick_test/fbank/raw_fbank_train.2.ark:8032982
fssb0_sx452 quick_test/fbank/raw_fbank_train.2.ark:1233900
feac0_sx255 quick_test/fbank/raw_fbank_train.1.ark:3485039
mwem0_si1950 quick_test/fbank/raw_fbank_train.4.ark:10978243
mrld0_sx424 quick_test/fbank/raw_fbank_train.4.ark:3304918
mges0_si1481 quick_test/fbank/raw_fbank_train.3.ark:193384
fvmh0_sx26 quick_test/fbank/raw_fbank_train.2.ark:1993825
mcdc0_sx32 quick_test/fbank/raw_fbank_train.2.ark:4689798
