mdks0_si1696 quick_test/data-fmllr-tri3/train/data/feats_fmllr_train.5.ark:1955686
mfmc0_si1132 quick_test/data-fmllr-tri3/train/data/feats_fmllr_train.5.ark:14347137
mtpr0_si506 quick_test/data-fmllr-tri3/train/data/feats_fmllr_train.10.ark:9650717
mfwk0_si619 quick_test/data-fmllr-tri3/train/data/feats_fmllr_train.5.ark:15202187
fkde0_si1141 quick_test/data-fmllr-tri3/train/data/feats_fmllr_train.2.ark:5621455
mwch0_si1895 quick_test/data-fmllr-tri3/train/data/feats_fmllr_train.10.ark:14589353
mrmg0_sx360 quick_test/data-fmllr-tri3/train/data/feats_fmllr_train.9.ark:5747666
mmws1_sx81 quick_test/data-fmllr-tri3/train/data/feats_fmllr_train.8.ark:4580511
fsdj0_sx305 quick_test/data-fmllr-tri3/train/data/feats_fmllr_train.3.ark:7800271
mfxs0_si1674 quick_test/data-fmllr-tri3/train/data/feats_fmllr_train.5.ark:15497229
fajw0_sx363 quick_test/data-fmllr-tri3/train/data/feats_fmllr_train.1.ark:710471
mcal0_sx328 quick_test/data-fmllr-tri3/train/data/feats_fmllr_train.4.ark:8808980
mmxs0_si629 quick_test/data-fmllr-tri3/train/data/feats_fmllr_train.8.ark:4656726
mhmr0_sx399 quick_test/data-fmllr-tri3/train/data/feats_fmllr_train.6.ark:5319820
mjfh0_sx207 quick_test/data-fmllr-tri3/train/data/feats_fmllr_train.6.ark:11393930
mmlm0_si1527 quick_test/data-fmllr-tri3/train/data/feats_fmllr_train.8.ark:1439763
fcag0_si1503 quick_test/data-fmllr-tri3/train/data/feats_fmllr_train.1.ark:4895413
mkls1_si1545 quick_test/data-fmllr-tri3/train/data/feats_fmllr_train.7.ark:8621747
mdcd0_si1415 quick_test/data-fmllr-tri3/train/data/feats_fmllr_train.4.ark:15888805
ftaj0_si699 quick_test/data-fmllr-tri3/train/data/feats_fmllr_train.3.ark:13980303
mbth0_si2102 quick_test/data-fmllr-tri3/train/data/feats_fmllr_train.4.ark:7293476
mwar0_sx145 quick_test/data-fmllr-tri3/train/data/feats_fmllr_train.10.ark:14327110
fpaf0_si1054 quick_test/data-fmllr-tri3/train/data/feats_fmllr_train.3.ark:2026057
faem0_si1392 quick_test/data-fmllr-tri3/train/data/feats_fmllr_train.1.ark:13
mdac0_sx361 quick_test/data-fmllr-tri3/train/data/feats_fmllr_train.4.ark:14627755
mbef0_sx381 quick_test/data-fmllr-tri3/train/data/feats_fmllr_train.4.ark:4754169
fmmh0_sx97 quick_test/data-fmllr-tri3/train/data/feats_fmllr_train.2.ark:17889436
mfrm0_sx75 quick_test/data-fmllr-tri3/train/data/feats_fmllr_train.5.ark:15087064
fklh0_si1257 quick_test/data-fmllr-tri3/train/data/feats_fmllr_train.2.ark:8100519
mcae0_si2077 quick_test/data-fmllr-tri3/train/data/feats_fmllr_train.4.ark:8199057
falk0_sx96 quick_test/data-fmllr-tri3/train/data/feats_fmllr_train.1.ark:1160151
mreh1_sx69 quick_test/data-fmllr-tri3/train/data/feats_fmllr_train.8.ark:15912085
mrai0_si2052 quick_test/data-fmllr-tri3/train/data/feats_fmllr_train.8.ark:11738870
mrcw0_sx381 quick_test/data-fmllr-tri3/train/data/feats_fmllr_train.8.ark:14010998
mvlo0_sx427 quick_test/data-fmllr-tri3/train/data/feats_fmllr_train.10.ark:12997521
mjlg1_si1642 quick_test/data-fmllr-tri3/train/data/feats_fmllr_train.6.ark:14346145
mddc0_si1419 quick_test/data-fmllr-tri3/train/data/feats_fmllr_train.4.ark:16649879
mjrh0_si1840 quick_test/data-fmllr-tri3/train/data/feats_fmllr_train.7.ark:89029
fclt0_si2068 quick_test/data-fmllr-tri3/train/data/feats_fmllr_train.1.ark:7449441
msmc0_si509 quick_test/data-fmllr-tri3/train/data/feats_fmllr_train.9.ark:15868407
mpfu0_sx268 quick_test/data-fmllr-tri3/train/data/feats_fmllr_train.8.ark:6613731
mklr0_si2319 quick_test/data-fmllr-tri3/train/data/feats_fmllr_train.7.ark:7958807
mrwa0_sx253 quick_test/data-fmllr-tri3/train/data/feats_fmllr_train.9.ark:10186029
fcaj0_sx399 quick_test/data-fmllr-tri3/train/data/feats_fmllr_train.1.ark:5537260
mgsl0_si1164 quick_test/data-fmllr-tri3/train/data/feats_fmllr_train.6.ark:2726812
frjb0_sx77 quick_test/data-fmllr-tri3/train/data/feats_fmllr_train.3.ark:4658108
mcdc0_si1292 quick_test/data-fmllr-tri3/train/data/feats_fmllr_train.4.ark:8986501
fjen0_si1677 quick_test/data-fmllr-tri3/train/data/feats_fmllr_train.2.ark:463299
mdrd0_si1382 quick_test/data-fmllr-tri3/train/data/feats_fmllr_train.5.ark:7766115
fmjb0_si1177 quick_test/data-fmllr-tri3/train/data/feats_fmllr_train.2.ark:15526727
msas0_sx296 quick_test/data-fmllr-tri3/train/data/feats_fmllr_train.9.ark:11770951
fsag0_sx153 quick_test/data-fmllr-tri3/train/data/feats_fmllr_train.3.ark:5209474
fcke0_sx391 quick_test/data-fmllr-tri3/train/data/feats_fmllr_train.1.ark:7373865
mrav0_sx18 quick_test/data-fmllr-tri3/train/data/feats_fmllr_train.8.ark:12694906
mgaw0_sx265 quick_test/data-fmllr-tri3/train/data/feats_fmllr_train.6.ark:605940
mmpm0_sx341 quick_test/data-fmllr-tri3/train/data/feats_fmllr_train.8.ark:2012597
mcdc0_sx122 quick_test/data-fmllr-tri3/train/data/feats_fmllr_train.4.ark:9108983
mafm0_sx129 quick_test/data-fmllr-tri3/train/data/feats_fmllr_train.4.ark:850450
mtrr0_sx198 quick_test/data-fmllr-tri3/train/data/feats_fmllr_train.10.ark:11038807
mrgm0_si1792 quick_test/data-fmllr-tri3/train/data/feats_fmllr_train.8.ark:17538129
mljc0_si1855 quick_test/data-fmllr-tri3/train/data/feats_fmllr_train.7.ark:11026438
flhd0_si1344 quick_test/data-fmllr-tri3/train/data/feats_fmllr_train.2.ark:10420862
mjwt0_sx301 quick_test/data-fmllr-tri3/train/data/feats_fmllr_train.7.ark:3115908
fntb0_sx393 quick_test/data-fmllr-tri3/train/data/feats_fmllr_train.3.ark:702978
flkm0_sx440 quick_test/data-fmllr-tri3/train/data/feats_fmllr_train.2.ark:12375654
mjrp0_si1835 quick_test/data-fmllr-tri3/train/data/feats_fmllr_train.7.ark:1120985
msfv0_sx92 quick_test/data-fmllr-tri3/train/data/feats_fmllr_train.9.ark:15360775
fmjb0_sx97 quick_test/data-fmllr-tri3/train/data/feats_fmllr_train.2.ark:15881314
mchl0_si1977 quick_test/data-fmllr-tri3/train/data/feats_fmllr_train.4.ark:11121722
mtcs0_sx172 quick_test/data-fmllr-tri3/train/data/feats_fmllr_train.10.ark:2582837
mewm0_si718 quick_test/data-fmllr-tri3/train/data/feats_fmllr_train.5.ark:13751398
mree0_sx24 quick_test/data-fmllr-tri3/train/data/feats_fmllr_train.8.ark:15405094
flkm0_si1880 quick_test/data-fmllr-tri3/train/data/feats_fmllr_train.2.ark:12043492
mmwb0_sx179 quick_test/data-fmllr-tri3/train/data/feats_fmllr_train.8.ark:3632291
mges0_sx221 quick_test/data-fmllr-tri3/train/data/feats_fmllr_train.6.ark:880237
fdaw0_si1271 quick_test/data-fmllr-tri3/train/data/feats_fmllr_train.1.ark:9731036
fceg0_si1878 quick_test/data-fmllr-tri3/train/data/feats_fmllr_train.1.ark:6132733
fceg0_sx78 quick_test/data-fmllr-tri3/train/data/feats_fmllr_train.1.ark:6367614
mbwp0_sx439 quick_test/data-fmllr-tri3/train/data/feats_fmllr_train.4.ark:8001535
feme0_sx335 quick_test/data-fmllr-tri3/train/data/feats_fmllr_train.1.ark:15255278
mrlr0_sx386 quick_test/data-fmllr-tri3/train/data/feats_fmllr_train.9.ark:5112564
mcew0_si2072 quick_test/data-fmllr-tri3/train/data/feats_fmllr_train.4.ark:10537957
mjrg0_sx286 quick_test/data-fmllr-tri3/train/data/feats_fmllr_train.6.ark:17822287
mbgt0_sx81 quick_test/data-fmllr-tri3/train/data/feats_fmllr_train.4.ark:5154226
fexm0_sx366 quick_test/data-fmllr-tri3/train/data/feats_fmllr_train.1.ark:16135579
mntw0_sx78 quick_test/data-fmllr-tri3/train/data/feats_fmllr_train.8.ark:5697640
mvrw0_si2115 quick_test/data-fmllr-tri3/train/data/feats_fmllr_train.10.ark:13157123
mcdc0_si1922 quick_test/data-fmllr-tri3/train/data/feats_fmllr_train.4.ark:9029409
mjra0_sx66 quick_test/data-fmllr-tri3/train/data/feats_fmllr_train.6.ark:17569164
flhd0_sx264 quick_test/data-fmllr-tri3/train/data/feats_fmllr_train.2.ark:10600492
mesj0_si2039 quick_test/data-fmllr-tri3/train/data/feats_fmllr_train.5.ark:13357208
mhmg0_si1995 quick_test/data-fmllr-tri3/train/data/feats_fmllr_train.6.ark:4649842
mdns0_si1011 quick_test/data-fmllr-tri3/train/data/feats_fmllr_train.5.ark:6279327
fsjs0_si1171 quick_test/data-fmllr-tri3/train/data/feats_fmllr_train.3.ark:9166923
mprb0_sx305 quick_test/data-fmllr-tri3/train/data/feats_fmllr_train.8.ark:9233780
mrdd0_si1050 quick_test/data-fmllr-tri3/train/data/feats_fmllr_train.8.ark:14046066
mdks0_si2326 quick_test/data-fmllr-tri3/train/data/feats_fmllr_train.5.ark:1990114
flag0_sx114 quick_test/data-fmllr-tri3/train/data/feats_fmllr_train.2.ark:9410372
mmbs0_sx251 quick_test/data-fmllr-tri3/train/data/feats_fmllr_train.7.ark:14880313
mcre0_sx24 quick_test/data-fmllr-tri3/train/data/feats_fmllr_train.4.ark:12692911
mhxl0_sx422 quick_test/data-fmllr-tri3/train/data/feats_fmllr_train.6.ark:6013027
mtcs0_sx352 quick_test/data-fmllr-tri3/train/data/feats_fmllr_train.10.ark:2665451
falk0_sx366 quick_test/data-fmllr-tri3/train/data/feats_fmllr_train.1.ark:1064740
mdbb1_sx196 quick_test/data-fmllr-tri3/train/data/feats_fmllr_train.4.ark:15338426
mdns0_sx291 quick_test/data-fmllr-tri3/train/data/feats_fmllr_train.5.ark:6586529
mbar0_sx329 quick_test/data-fmllr-tri3/train/data/feats_fmllr_train.4.ark:3620025
mtrc0_sx273 quick_test/data-fmllr-tri3/train/data/feats_fmllr_train.10.ark:10704511
flmc0_sx292 quick_test/data-fmllr-tri3/train/data/feats_fmllr_train.2.ark:13040860
mrmg0_sx450 quick_test/data-fmllr-tri3/train/data/feats_fmllr_train.9.ark:5796333
mrxb0_sx235 quick_test/data-fmllr-tri3/train/data/feats_fmllr_train.9.ark:10924703
msat1_sx83 quick_test/data-fmllr-tri3/train/data/feats_fmllr_train.9.ark:12482613
fsmm0_si684 quick_test/data-fmllr-tri3/train/data/feats_fmllr_train.3.ark:11981298
flmk0_sx135 quick_test/data-fmllr-tri3/train/data/feats_fmllr_train.2.ark:13358145
mmdb0_si1617 quick_test/data-fmllr-tri3/train/data/feats_fmllr_train.7.ark:15537946
mtpf0_sx65 quick_test/data-fmllr-tri3/train/data/feats_fmllr_train.10.ark:8778360
mfrm0_sx255 quick_test/data-fmllr-tri3/train/data/feats_fmllr_train.5.ark:14948104
mbth0_sx32 quick_test/data-fmllr-tri3/train/data/feats_fmllr_train.4.ark:7612197
msem1_sx450 quick_test/data-fmllr-tri3/train/data/feats_fmllr_train.9.ark:14056257
mjde0_sx400 quick_test/data-fmllr-tri3/train/data/feats_fmllr_train.6.ark:9187907
fpac0_sx121 quick_test/data-fmllr-tri3/train/data/feats_fmllr_train.3.ark:1377865
mmlm0_si2150 quick_test/data-fmllr-tri3/train/data/feats_fmllr_train.8.ark:1458991
mjlg1_sx382 quick_test/data-fmllr-tri3/train/data/feats_fmllr_train.6.ark:14611267
freh0_si685 quick_test/data-fmllr-tri3/train/data/feats_fmllr_train.3.ark:4130236
fdml0_sx69 quick_test/data-fmllr-tri3/train/data/feats_fmllr_train.1.ark:11566657
mhxl0_si1772 quick_test/data-fmllr-tri3/train/data/feats_fmllr_train.6.ark:5723585
mgsh0_sx6 quick_test/data-fmllr-tri3/train/data/feats_fmllr_train.6.ark:2620678
fmem0_si747 quick_test/data-fmllr-tri3/train/data/feats_fmllr_train.2.ark:15209124
fceg0_sx438 quick_test/data-fmllr-tri3/train/data/feats_fmllr_train.1.ark:6311908
fhxs0_si2335 quick_test/data-fmllr-tri3/train/data/feats_fmllr_train.1.ark:18546217
mdac0_sx91 quick_test/data-fmllr-tri3/train/data/feats_fmllr_train.4.ark:14729568
fcrz0_sx253 quick_test/data-fmllr-tri3/train/data/feats_fmllr_train.1.ark:8754174
msdh0_sx260 quick_test/data-fmllr-tri3/train/data/feats_fmllr_train.9.ark:12986328
fjen0_sx327 quick_test/data-fmllr-tri3/train/data/feats_fmllr_train.2.ark:664208
majp0_sx174 quick_test/data-fmllr-tri3/train/data/feats_fmllr_train.4.ark:1219468
mdwh0_sx305 quick_test/data-fmllr-tri3/train/data/feats_fmllr_train.5.ark:10231074
fdkn0_sx271 quick_test/data-fmllr-tri3/train/data/feats_fmllr_train.1.ark:11062839
fdas1_sx291 quick_test/data-fmllr-tri3/train/data/feats_fmllr_train.1.ark:9649061
fjdm2_si1964 quick_test/data-fmllr-tri3/train/data/feats_fmllr_train.2.ark:42601
fsms1_sx154 quick_test/data-fmllr-tri3/train/data/feats_fmllr_train.3.ark:12457062
fceg0_sx258 quick_test/data-fmllr-tri3/train/data/feats_fmllr_train.1.ark:6221134
mkah0_si1528 quick_test/data-fmllr-tri3/train/data/feats_fmllr_train.7.ark:4423519
fapb0_sx73 quick_test/data-fmllr-tri3/train/data/feats_fmllr_train.1.ark:1997226
msfv0_sx452 quick_test/data-fmllr-tri3/train/data/feats_fmllr_train.9.ark:15297549
megj0_si1337 quick_test/data-fmllr-tri3/train/data/feats_fmllr_train.5.ark:11824502
mdma0_sx440 quick_test/data-fmllr-tri3/train/data/feats_fmllr_train.5.ark:5815696
mrjt0_si1805 quick_test/data-fmllr-tri3/train/data/feats_fmllr_train.9.ark:2539422
fbmj0_sx336 quick_test/data-fmllr-tri3/train/data/feats_fmllr_train.1.ark:4723812
mbma0_si592 quick_test/data-fmllr-tri3/train/data/feats_fmllr_train.4.ark:5653726
mvjh0_sx116 quick_test/data-fmllr-tri3/train/data/feats_fmllr_train.10.ark:12511303
mjae0_si1524 quick_test/data-fmllr-tri3/train/data/feats_fmllr_train.6.ark:6859592
mrgm0_sx442 quick_test/data-fmllr-tri3/train/data/feats_fmllr_train.8.ark:17831064
fmah1_si2139 quick_test/data-fmllr-tri3/train/data/feats_fmllr_train.2.ark:14383384
mntw0_si1698 quick_test/data-fmllr-tri3/train/data/feats_fmllr_train.8.ark:5407078
mkxl0_si1815 quick_test/data-fmllr-tri3/train/data/feats_fmllr_train.7.ark:9795386
mlns0_sx327 quick_test/data-fmllr-tri3/train/data/feats_fmllr_train.7.ark:12031300
msrg0_sx321 quick_test/data-fmllr-tri3/train/data/feats_fmllr_train.9.ark:17204366
mmws0_sx258 quick_test/data-fmllr-tri3/train/data/feats_fmllr_train.8.ark:4110934
mjfh0_si1107 quick_test/data-fmllr-tri3/train/data/feats_fmllr_train.6.ark:11215581
mjkr0_sx301 quick_test/data-fmllr-tri3/train/data/feats_fmllr_train.6.ark:13819899
fbmj0_sx246 quick_test/data-fmllr-tri3/train/data/feats_fmllr_train.1.ark:4683305
mfrm0_si1785 quick_test/data-fmllr-tri3/train/data/feats_fmllr_train.5.ark:14858930
mkxl0_si1958 quick_test/data-fmllr-tri3/train/data/feats_fmllr_train.7.ark:9866134
fklh0_sx357 quick_test/data-fmllr-tri3/train/data/feats_fmllr_train.2.ark:8335055
fjlr0_sx331 quick_test/data-fmllr-tri3/train/data/feats_fmllr_train.2.ark:2232438
mcew0_sx452 quick_test/data-fmllr-tri3/train/data/feats_fmllr_train.4.ark:10857932
mjpg0_si1821 quick_test/data-fmllr-tri3/train/data/feats_fmllr_train.6.ark:16147392
flod0_sx171 quick_test/data-fmllr-tri3/train/data/feats_fmllr_train.2.ark:13766709
mkaj0_si1414 quick_test/data-fmllr-tri3/train/data/feats_fmllr_train.7.ark:4815576
mljc0_si595 quick_test/data-fmllr-tri3/train/data/feats_fmllr_train.7.ark:11057825
mpfu0_si1258 quick_test/data-fmllr-tri3/train/data/feats_fmllr_train.8.ark:6416822
fsak0_si670 quick_test/data-fmllr-tri3/train/data/feats_fmllr_train.3.ark:6057721
fdjh0_sx215 quick_test/data-fmllr-tri3/train/data/feats_fmllr_train.1.ark:10664861
mrem0_si961 quick_test/data-fmllr-tri3/train/data/feats_fmllr_train.8.ark:16083687
msat1_si1073 quick_test/data-fmllr-tri3/train/data/feats_fmllr_train.9.ark:12156183
mewm0_si1978 quick_test/data-fmllr-tri3/train/data/feats_fmllr_train.5.ark:13729611
mjsr0_si2054 quick_test/data-fmllr-tri3/train/data/feats_fmllr_train.7.ark:1525550
msjk0_si1596 quick_test/data-fmllr-tri3/train/data/feats_fmllr_train.9.ark:15415363
mrgs0_sx186 quick_test/data-fmllr-tri3/train/data/feats_fmllr_train.9.ark:168735
fmkc0_sx82 quick_test/data-fmllr-tri3/train/data/feats_fmllr_train.2.ark:17085166
mcth0_sx399 quick_test/data-fmllr-tri3/train/data/feats_fmllr_train.4.ark:13570997
fclt0_sx358 quick_test/data-fmllr-tri3/train/data/feats_fmllr_train.1.ark:7644109
fjsp0_sx174 quick_test/data-fmllr-tri3/train/data/feats_fmllr_train.2.ark:3787973
mbma1_si2214 quick_test/data-fmllr-tri3/train/data/feats_fmllr_train.4.ark:5947996
mtat1_sx149 quick_test/data-fmllr-tri3/train/data/feats_fmllr_train.10.ark:1772163
mmbs0_si1781 quick_test/data-fmllr-tri3/train/data/feats_fmllr_train.7.ark:14703912
mdwm0_sx106 quick_test/data-fmllr-tri3/train/data/feats_fmllr_train.5.ark:10549157
mcdd0_si1513 quick_test/data-fmllr-tri3/train/data/feats_fmllr_train.4.ark:9348798
msmc0_sx287 quick_test/data-fmllr-tri3/train/data/feats_fmllr_train.9.ark:16123741
fdjh0_si2195 quick_test/data-fmllr-tri3/train/data/feats_fmllr_train.1.ark:10510860
mafm0_si2199 quick_test/data-fmllr-tri3/train/data/feats_fmllr_train.4.ark:770076
fsjk1_sx395 quick_test/data-fmllr-tri3/train/data/feats_fmllr_train.3.ark:9124015
mabc0_sx421 quick_test/data-fmllr-tri3/train/data/feats_fmllr_train.3.ark:17098787
mtml0_sx75 quick_test/data-fmllr-tri3/train/data/feats_fmllr_train.10.ark:7603149
mtkp0_si1023 quick_test/data-fmllr-tri3/train/data/feats_fmllr_train.10.ark:6092548
mgjc0_sx255 quick_test/data-fmllr-tri3/train/data/feats_fmllr_train.6.ark:1282695
fdfb0_sx328 quick_test/data-fmllr-tri3/train/data/feats_fmllr_train.1.ark:10332671
mbsb0_sx363 quick_test/data-fmllr-tri3/train/data/feats_fmllr_train.4.ark:7229582
fkfb0_sx168 quick_test/data-fmllr-tri3/train/data/feats_fmllr_train.2.ark:6598132
mdsj0_sx382 quick_test/data-fmllr-tri3/train/data/feats_fmllr_train.5.ark:8486174
mdlc2_sx264 quick_test/data-fmllr-tri3/train/data/feats_fmllr_train.5.ark:3739197
mgjc0_sx75 quick_test/data-fmllr-tri3/train/data/feats_fmllr_train.6.ark:1459095
mgag0_si645 quick_test/data-fmllr-tri3/train/data/feats_fmllr_train.5.ark:16632949
fljg0_si1611 quick_test/data-fmllr-tri3/train/data/feats_fmllr_train.2.ark:11583595
mrtc0_si1458 quick_test/data-fmllr-tri3/train/data/feats_fmllr_train.9.ark:8751509
mmag0_sx226 quick_test/data-fmllr-tri3/train/data/feats_fmllr_train.7.ark:13649101
mtju0_sx40 quick_test/data-fmllr-tri3/train/data/feats_fmllr_train.10.ark:5580756
fdmy0_sx207 quick_test/data-fmllr-tri3/train/data/feats_fmllr_train.1.ark:11935273
mjdm0_sx350 quick_test/data-fmllr-tri3/train/data/feats_fmllr_train.6.ark:9875809
fsjs0_si541 quick_test/data-fmllr-tri3/train/data/feats_fmllr_train.3.ark:9261858
makb0_sx26 quick_test/data-fmllr-tri3/train/data/feats_fmllr_train.4.ark:1835579
fpaf0_sx244 quick_test/data-fmllr-tri3/train/data/feats_fmllr_train.3.ark:2235447
mhmg0_sx15 quick_test/data-fmllr-tri3/train/data/feats_fmllr_train.6.ark:4802082
fvfb0_sx42 quick_test/data-fmllr-tri3/train/data/feats_fmllr_train.3.ark:16067762
mrai0_sx252 quick_test/data-fmllr-tri3/train/data/feats_fmllr_train.8.ark:11938151
mfxs0_sx414 quick_test/data-fmllr-tri3/train/data/feats_fmllr_train.5.ark:15763633
mprd0_sx261 quick_test/data-fmllr-tri3/train/data/feats_fmllr_train.8.ark:9632050
fnkl0_sx82 quick_test/data-fmllr-tri3/train/data/feats_fmllr_train.3.ark:328522
mrjm0_sx148 quick_test/data-fmllr-tri3/train/data/feats_fmllr_train.9.ark:1843522
mejs0_si610 quick_test/data-fmllr-tri3/train/data/feats_fmllr_train.5.ark:12703229
ftbw0_si715 quick_test/data-fmllr-tri3/train/data/feats_fmllr_train.3.ark:14668417
mkjo0_si887 quick_test/data-fmllr-tri3/train/data/feats_fmllr_train.7.ark:7230052
ftbw0_sx445 quick_test/data-fmllr-tri3/train/data/feats_fmllr_train.3.ark:14894125
mrtj0_si1551 quick_test/data-fmllr-tri3/train/data/feats_fmllr_train.9.ark:9173806
maeo0_sx156 quick_test/data-fmllr-tri3/train/data/feats_fmllr_train.4.ark:517913
mfmc0_si502 quick_test/data-fmllr-tri3/train/data/feats_fmllr_train.5.ark:14451992
mmaa0_si1588 quick_test/data-fmllr-tri3/train/data/feats_fmllr_train.7.ark:12587758
freh0_sx55 quick_test/data-fmllr-tri3/train/data/feats_fmllr_train.3.ark:4307650
fdjh0_si935 quick_test/data-fmllr-tri3/train/data/feats_fmllr_train.1.ark:10560487
mrlr0_si566 quick_test/data-fmllr-tri3/train/data/feats_fmllr_train.9.ark:4895630
mtjm0_sx236 quick_test/data-fmllr-tri3/train/data/feats_fmllr_train.10.ark:4685549
mjmm0_sx265 quick_test/data-fmllr-tri3/train/data/feats_fmllr_train.6.ark:15956216
mabc0_sx151 quick_test/data-fmllr-tri3/train/data/feats_fmllr_train.3.ark:16979186
fbmh0_sx326 quick_test/data-fmllr-tri3/train/data/feats_fmllr_train.1.ark:4337836
fbjl0_si2182 quick_test/data-fmllr-tri3/train/data/feats_fmllr_train.1.ark:3325293
mrjt0_sx328 quick_test/data-fmllr-tri3/train/data/feats_fmllr_train.9.ark:2718250
mmaa0_si845 quick_test/data-fmllr-tri3/train/data/feats_fmllr_train.7.ark:12701733
mdlh0_si700 quick_test/data-fmllr-tri3/train/data/feats_fmllr_train.5.ark:3995999
mfmc0_si1762 quick_test/data-fmllr-tri3/train/data/feats_fmllr_train.5.ark:14404445
feme0_sx155 quick_test/data-fmllr-tri3/train/data/feats_fmllr_train.1.ark:15155704
mdem0_sx338 quick_test/data-fmllr-tri3/train/data/feats_fmllr_train.5.ark:646286
mrxb0_sx145 quick_test/data-fmllr-tri3/train/data/feats_fmllr_train.9.ark:10882436
mdlr0_si1863 quick_test/data-fmllr-tri3/train/data/feats_fmllr_train.5.ark:4713526
mjee0_sx337 quick_test/data-fmllr-tri3/train/data/feats_fmllr_train.6.ark:11061420
mmea0_si758 quick_test/data-fmllr-tri3/train/data/feats_fmllr_train.7.ark:17396818
fsls0_sx156 quick_test/data-fmllr-tri3/train/data/feats_fmllr_train.3.ark:11261211
mcth0_si1209 quick_test/data-fmllr-tri3/train/data/feats_fmllr_train.4.ark:13233848
mkln0_sx68 quick_test/data-fmllr-tri3/train/data/feats_fmllr_train.7.ark:7820963
mrjb1_sx120 quick_test/data-fmllr-tri3/train/data/feats_fmllr_train.9.ark:999088
mcdd0_sx163 quick_test/data-fmllr-tri3/train/data/feats_fmllr_train.4.ark:9474800
mdsj0_sx112 quick_test/data-fmllr-tri3/train/data/feats_fmllr_train.5.ark:8349454
fjsp0_sx84 quick_test/data-fmllr-tri3/train/data/feats_fmllr_train.2.ark:3984240
fskc0_sx426 quick_test/data-fmllr-tri3/train/data/feats_fmllr_train.3.ark:10260800
mjda0_si2291 quick_test/data-fmllr-tri3/train/data/feats_fmllr_train.6.ark:8096300
mmlm0_sx357 quick_test/data-fmllr-tri3/train/data/feats_fmllr_train.8.ark:1643419
mcew0_sx272 quick_test/data-fmllr-tri3/train/data/feats_fmllr_train.4.ark:10734198
mwch0_si2252 quick_test/data-fmllr-tri3/train/data/feats_fmllr_train.10.ark:14609541
mkdd0_sx217 quick_test/data-fmllr-tri3/train/data/feats_fmllr_train.7.ark:6173456
mmdm0_si1941 quick_test/data-fmllr-tri3/train/data/feats_fmllr_train.7.ark:16319660
mrld0_sx154 quick_test/data-fmllr-tri3/train/data/feats_fmllr_train.9.ark:3529028
mgsl0_sx444 quick_test/data-fmllr-tri3/train/data/feats_fmllr_train.6.ark:3032734
mtkp0_si2283 quick_test/data-fmllr-tri3/train/data/feats_fmllr_train.10.ark:6139936
mmdg0_sx340 quick_test/data-fmllr-tri3/train/data/feats_fmllr_train.7.ark:16099231
fjhk0_sx32 quick_test/data-fmllr-tri3/train/data/feats_fmllr_train.2.ark:1161092
mdss1_sx67 quick_test/data-fmllr-tri3/train/data/feats_fmllr_train.5.ark:9202795
mvlo0_si1147 quick_test/data-fmllr-tri3/train/data/feats_fmllr_train.10.ark:12702958
mctm0_sx270 quick_test/data-fmllr-tri3/train/data/feats_fmllr_train.4.ark:13821854
mtrc0_sx183 quick_test/data-fmllr-tri3/train/data/feats_fmllr_train.10.ark:10667364
fklh0_sx177 quick_test/data-fmllr-tri3/train/data/feats_fmllr_train.2.ark:8249561
mlbc0_sx249 quick_test/data-fmllr-tri3/train/data/feats_fmllr_train.7.ark:10331045
mnet0_si816 quick_test/data-fmllr-tri3/train/data/feats_fmllr_train.8.ark:5074250
mcxm0_sx181 quick_test/data-fmllr-tri3/train/data/feats_fmllr_train.4.ark:14128444
fsjw0_sx163 quick_test/data-fmllr-tri3/train/data/feats_fmllr_train.3.ark:9756182
mdsj0_si832 quick_test/data-fmllr-tri3/train/data/feats_fmllr_train.5.ark:8306227
mmaa0_sx305 quick_test/data-fmllr-tri3/train/data/feats_fmllr_train.7.ark:12869814
flja0_sx268 quick_test/data-fmllr-tri3/train/data/feats_fmllr_train.2.ark:10991750
madd0_si1295 quick_test/data-fmllr-tri3/train/data/feats_fmllr_train.3.ark:17591378
fcdr1_si1186 quick_test/data-fmllr-tri3/train/data/feats_fmllr_train.1.ark:5577768
mnet0_si2076 quick_test/data-fmllr-tri3/train/data/feats_fmllr_train.8.ark:5047983
fcmm0_sx183 quick_test/data-fmllr-tri3/train/data/feats_fmllr_train.1.ark:8344010
mjfr0_sx255 quick_test/data-fmllr-tri3/train/data/feats_fmllr_train.6.ark:11723427
mcre0_sx221 quick_test/data-fmllr-tri3/train/data/feats_fmllr_train.4.ark:12640245
mrjm1_sx38 quick_test/data-fmllr-tri3/train/data/feats_fmllr_train.9.ark:2392139
mrjm1_si1298 quick_test/data-fmllr-tri3/train/data/feats_fmllr_train.9.ark:2099977
mbef0_sx291 quick_test/data-fmllr-tri3/train/data/feats_fmllr_train.4.ark:4720222
mtmn0_si2324 quick_test/data-fmllr-tri3/train/data/feats_fmllr_train.10.ark:7707685
fkaa0_sx128 quick_test/data-fmllr-tri3/train/data/feats_fmllr_train.2.ark:5349480
mjpm0_sx18 quick_test/data-fmllr-tri3/train/data/feats_fmllr_train.6.ark:16650089
mram0_sx15 quick_test/data-fmllr-tri3/train/data/feats_fmllr_train.8.ark:12333568
mjma0_sx145 quick_test/data-fmllr-tri3/train/data/feats_fmllr_train.6.ark:15230634
mmvp0_sx294 quick_test/data-fmllr-tri3/train/data/feats_fmllr_train.8.ark:3263647
mdks0_si1066 quick_test/data-fmllr-tri3/train/data/feats_fmllr_train.5.ark:1926538
fssb0_sx452 quick_test/data-fmllr-tri3/train/data/feats_fmllr_train.3.ark:13799555
fclt0_sx178 quick_test/data-fmllr-tri3/train/data/feats_fmllr_train.1.ark:7540855
madc0_sx107 quick_test/data-fmllr-tri3/train/data/feats_fmllr_train.3.ark:17374923
fkde0_si1771 quick_test/data-fmllr-tri3/train/data/feats_fmllr_train.2.ark:5696683
mcal0_si1138 quick_test/data-fmllr-tri3/train/data/feats_fmllr_train.4.ark:8609644
fcke0_si481 quick_test/data-fmllr-tri3/train/data/feats_fmllr_train.1.ark:7149091
fjrb0_sx132 quick_test/data-fmllr-tri3/train/data/feats_fmllr_train.2.ark:2503641
fhlm0_sx120 quick_test/data-fmllr-tri3/train/data/feats_fmllr_train.1.ark:18077065
fjwb1_si748 quick_test/data-fmllr-tri3/train/data/feats_fmllr_train.2.ark:4078695
mcre0_si1121 quick_test/data-fmllr-tri3/train/data/feats_fmllr_train.4.ark:12454695
fsjw0_sx433 quick_test/data-fmllr-tri3/train/data/feats_fmllr_train.3.ark:9891623
mprd0_sx351 quick_test/data-fmllr-tri3/train/data/feats_fmllr_train.8.ark:9671757
fksr0_sx397 quick_test/data-fmllr-tri3/train/data/feats_fmllr_train.2.ark:8818525
mtpp0_si878 quick_test/data-fmllr-tri3/train/data/feats_fmllr_train.10.ark:9258500
mtpr0_sx160 quick_test/data-fmllr-tri3/train/data/feats_fmllr_train.10.ark:9679544
mjai0_si710 quick_test/data-fmllr-tri3/train/data/feats_fmllr_train.6.ark:7382104
mgjc0_sx165 quick_test/data-fmllr-tri3/train/data/feats_fmllr_train.6.ark:1222828
maeb0_si1411 quick_test/data-fmllr-tri3/train/data/feats_fmllr_train.4.ark:13
mdmt0_si1832 quick_test/data-fmllr-tri3/train/data/feats_fmllr_train.5.ark:5929030
fdtd0_sx301 quick_test/data-fmllr-tri3/train/data/feats_fmllr_train.1.ark:12833975
mdlh0_sx250 quick_test/data-fmllr-tri3/train/data/feats_fmllr_train.5.ark:4125653
mtbc0_si1173 quick_test/data-fmllr-tri3/train/data/feats_fmllr_train.10.ark:2067018
msrr0_si501 quick_test/data-fmllr-tri3/train/data/feats_fmllr_train.9.ark:17451382
msvs0_sx218 quick_test/data-fmllr-tri3/train/data/feats_fmllr_train.10.ark:249402
fksr0_sx161 quick_test/data-fmllr-tri3/train/data/feats_fmllr_train.2.ark:8615218
mjac0_sx251 quick_test/data-fmllr-tri3/train/data/feats_fmllr_train.6.ark:6615937
mter0_si1157 quick_test/data-fmllr-tri3/train/data/feats_fmllr_train.10.ark:3686607
mbcg0_sx147 quick_test/data-fmllr-tri3/train/data/feats_fmllr_train.4.ark:4247285
fetb0_sx248 quick_test/data-fmllr-tri3/train/data/feats_fmllr_train.1.ark:15604908
mjeb1_sx117 quick_test/data-fmllr-tri3/train/data/feats_fmllr_train.6.ark:10627549
mbgt0_si711 quick_test/data-fmllr-tri3/train/data/feats_fmllr_train.4.ark:4887212
mejs0_sx250 quick_test/data-fmllr-tri3/train/data/feats_fmllr_train.5.ark:12811123
mrlk0_sx123 quick_test/data-fmllr-tri3/train/data/feats_fmllr_train.9.ark:4587120
fcke0_si1741 quick_test/data-fmllr-tri3/train/data/feats_fmllr_train.1.ark:7077864
flhd0_sx354 quick_test/data-fmllr-tri3/train/data/feats_fmllr_train.2.ark:10645319
mdwh0_sx215 quick_test/data-fmllr-tri3/train/data/feats_fmllr_train.5.ark:10169127
fdas1_sx381 quick_test/data-fmllr-tri3/train/data/feats_fmllr_train.1.ark:9692768
mdlc2_sx444 quick_test/data-fmllr-tri3/train/data/feats_fmllr_train.5.ark:3817011
mrav0_si2268 quick_test/data-fmllr-tri3/train/data/feats_fmllr_train.8.ark:12593253
fjlg0_sx179 quick_test/data-fmllr-tri3/train/data/feats_fmllr_train.2.ark:1742727
mmdm0_si1311 quick_test/data-fmllr-tri3/train/data/feats_fmllr_train.7.ark:16233392
fsdj0_sx395 quick_test/data-fmllr-tri3/train/data/feats_fmllr_train.3.ark:7872484
mrcg0_sx258 quick_test/data-fmllr-tri3/train/data/feats_fmllr_train.8.ark:13449261
fskl0_si1529 quick_test/data-fmllr-tri3/train/data/feats_fmllr_train.3.ark:10349654
flod0_sx117 quick_test/data-fmllr-tri3/train/data/feats_fmllr_train.2.ark:13729882
mdem0_si608 quick_test/data-fmllr-tri3/train/data/feats_fmllr_train.5.ark:393858
mfmc0_sx412 quick_test/data-fmllr-tri3/train/data/feats_fmllr_train.5.ark:14658340
mesg0_sx72 quick_test/data-fmllr-tri3/train/data/feats_fmllr_train.5.ark:13330620
flmk0_sx315 quick_test/data-fmllr-tri3/train/data/feats_fmllr_train.2.ark:13451479
mdjm0_sx195 quick_test/data-fmllr-tri3/train/data/feats_fmllr_train.5.ark:1808696
mtdb0_si1401 quick_test/data-fmllr-tri3/train/data/feats_fmllr_train.10.ark:2828092
mded0_si540 quick_test/data-fmllr-tri3/train/data/feats_fmllr_train.4.ark:17098471
mwsh0_sx166 quick_test/data-fmllr-tri3/train/data/feats_fmllr_train.10.ark:17320686
majp0_si1074 quick_test/data-fmllr-tri3/train/data/feats_fmllr_train.4.ark:1061785
msdb0_sx107 quick_test/data-fmllr-tri3/train/data/feats_fmllr_train.9.ark:12648164
fntb0_sx213 quick_test/data-fmllr-tri3/train/data/feats_fmllr_train.3.ark:585618
mjfr0_sx435 quick_test/data-fmllr-tri3/train/data/feats_fmllr_train.6.ark:11831961
mewm0_sx268 quick_test/data-fmllr-tri3/train/data/feats_fmllr_train.5.ark:13858012
mprk0_si1097 quick_test/data-fmllr-tri3/train/data/feats_fmllr_train.8.ark:9816798
mkjo0_sx77 quick_test/data-fmllr-tri3/train/data/feats_fmllr_train.7.ark:7455146
fkkh0_sx120 quick_test/data-fmllr-tri3/train/data/feats_fmllr_train.2.ark:7087469
mrhl0_sx165 quick_test/data-fmllr-tri3/train/data/feats_fmllr_train.9.ark:563830
mwad0_sx162 quick_test/data-fmllr-tri3/train/data/feats_fmllr_train.10.ark:13985292
mmea0_sx398 quick_test/data-fmllr-tri3/train/data/feats_fmllr_train.7.ark:17610552
fgrw0_si1990 quick_test/data-fmllr-tri3/train/data/feats_fmllr_train.1.ark:17649781
fhxs0_si1075 quick_test/data-fmllr-tri3/train/data/feats_fmllr_train.1.ark:18358801
mdlr0_sx243 quick_test/data-fmllr-tri3/train/data/feats_fmllr_train.5.ark:4843527
makb0_si1016 quick_test/data-fmllr-tri3/train/data/feats_fmllr_train.4.ark:1498323
mjda0_sx131 quick_test/data-fmllr-tri3/train/data/feats_fmllr_train.6.ark:8148007
mjrh0_sx315 quick_test/data-fmllr-tri3/train/data/feats_fmllr_train.7.ark:249910
fpls0_si1590 quick_test/data-fmllr-tri3/train/data/feats_fmllr_train.3.ark:3203989
fgrw0_si1152 quick_test/data-fmllr-tri3/train/data/feats_fmllr_train.1.ark:17507965
fleh0_sx331 quick_test/data-fmllr-tri3/train/data/feats_fmllr_train.2.ark:9903604
mlsh0_si787 quick_test/data-fmllr-tri3/train/data/feats_fmllr_train.7.ark:12293196
mrew1_sx330 quick_test/data-fmllr-tri3/train/data/feats_fmllr_train.8.ark:16549745
mjpm1_sx311 quick_test/data-fmllr-tri3/train/data/feats_fmllr_train.6.ark:17040894
mclk0_si650 quick_test/data-fmllr-tri3/train/data/feats_fmllr_train.4.ark:11457939
fear0_sx82 quick_test/data-fmllr-tri3/train/data/feats_fmllr_train.1.ark:14089720
mjls0_sx16 quick_test/data-fmllr-tri3/train/data/feats_fmllr_train.6.ark:14880843
mcef0_sx55 quick_test/data-fmllr-tri3/train/data/feats_fmllr_train.4.ark:10439821
majp0_sx84 quick_test/data-fmllr-tri3/train/data/feats_fmllr_train.4.ark:1439095
mtmn0_si582 quick_test/data-fmllr-tri3/train/data/feats_fmllr_train.10.ark:7771712
mjdc0_sx261 quick_test/data-fmllr-tri3/train/data/feats_fmllr_train.6.ark:8583931
mmam0_si1668 quick_test/data-fmllr-tri3/train/data/feats_fmllr_train.7.ark:13909397
fkaa0_sx218 quick_test/data-fmllr-tri3/train/data/feats_fmllr_train.2.ark:5389507
msat1_si2333 quick_test/data-fmllr-tri3/train/data/feats_fmllr_train.9.ark:12250319
mmws0_sx438 quick_test/data-fmllr-tri3/train/data/feats_fmllr_train.8.ark:4208748
mrlk0_sx393 quick_test/data-fmllr-tri3/train/data/feats_fmllr_train.9.ark:4740027
mtdp0_sx171 quick_test/data-fmllr-tri3/train/data/feats_fmllr_train.10.ark:3385352
fbmh0_sx146 quick_test/data-fmllr-tri3/train/data/feats_fmllr_train.1.ark:4261942
mkdb0_sx62 quick_test/data-fmllr-tri3/train/data/feats_fmllr_train.7.ark:5896359
mjrk0_si880 quick_test/data-fmllr-tri3/train/data/feats_fmllr_train.7.ark:818903
fcag0_sx333 quick_test/data-fmllr-tri3/train/data/feats_fmllr_train.1.ark:5084510
mrab1_sx128 quick_test/data-fmllr-tri3/train/data/feats_fmllr_train.8.ark:11477267
fljg0_sx81 quick_test/data-fmllr-tri3/train/data/feats_fmllr_train.2.ark:11997064
mcdr0_si1154 quick_test/data-fmllr-tri3/train/data/feats_fmllr_train.4.ark:9690295
maeo0_si1655 quick_test/data-fmllr-tri3/train/data/feats_fmllr_train.4.ark:435138
mrlr0_sx206 quick_test/data-fmllr-tri3/train/data/feats_fmllr_train.9.ark:4982404
mcae0_si1447 quick_test/data-fmllr-tri3/train/data/feats_fmllr_train.4.ark:8108629
mdlb0_sx136 quick_test/data-fmllr-tri3/train/data/feats_fmllr_train.5.ark:2493238
mjfr0_si975 quick_test/data-fmllr-tri3/train/data/feats_fmllr_train.6.ark:11616813
mdjm0_si1455 quick_test/data-fmllr-tri3/train/data/feats_fmllr_train.5.ark:1555441
fsjg0_si940 quick_test/data-fmllr-tri3/train/data/feats_fmllr_train.3.ark:8408304
flet0_si507 quick_test/data-fmllr-tri3/train/data/feats_fmllr_train.2.ark:10154460
falk0_si658 quick_test/data-fmllr-tri3/train/data/feats_fmllr_train.1.ark:905779
mbbr0_sx65 quick_test/data-fmllr-tri3/train/data/feats_fmllr_train.4.ark:4078856
fbmh0_si1766 quick_test/data-fmllr-tri3/train/data/feats_fmllr_train.1.ark:4153888
mbml0_sx89 quick_test/data-fmllr-tri3/train/data/feats_fmllr_train.4.ark:6638774
fsjg0_sx130 quick_test/data-fmllr-tri3/train/data/feats_fmllr_train.3.ark:8493131
fmkc0_sx262 quick_test/data-fmllr-tri3/train/data/feats_fmllr_train.2.ark:16927646
fscn0_sx446 quick_test/data-fmllr-tri3/train/data/feats_fmllr_train.3.ark:7122743
fbmh0_sx236 quick_test/data-fmllr-tri3/train/data/feats_fmllr_train.1.ark:4302929
feac0_si1875 quick_test/data-fmllr-tri3/train/data/feats_fmllr_train.1.ark:13380702
mtlb0_sx54 quick_test/data-fmllr-tri3/train/data/feats_fmllr_train.10.ark:6836314
mdbp0_sx78 quick_test/data-fmllr-tri3/train/data/feats_fmllr_train.4.ark:15851977
mctm0_sx450 quick_test/data-fmllr-tri3/train/data/feats_fmllr_train.4.ark:13904948
mbsb0_sx183 quick_test/data-fmllr-tri3/train/data/feats_fmllr_train.4.ark:7152703
fpaz0_sx27 quick_test/data-fmllr-tri3/train/data/feats_fmllr_train.3.ark:2699850
mapv0_sx33 quick_test/data-fmllr-tri3/train/data/feats_fmllr_train.4.ark:2582760
msfv0_si1892 quick_test/data-fmllr-tri3/train/data/feats_fmllr_train.9.ark:15015814
mjlb0_sx266 quick_test/data-fmllr-tri3/train/data/feats_fmllr_train.6.ark:14146969
mpeb0_sx150 quick_test/data-fmllr-tri3/train/data/feats_fmllr_train.8.ark:6184527
fdxw0_sx431 quick_test/data-fmllr-tri3/train/data/feats_fmllr_train.1.ark:13265740
msah1_si1049 quick_test/data-fmllr-tri3/train/data/feats_fmllr_train.9.ark:11101451
mefg0_si465 quick_test/data-fmllr-tri3/train/data/feats_fmllr_train.5.ark:11417726
mrdm0_sx245 quick_test/data-fmllr-tri3/train/data/feats_fmllr_train.8.ark:14613913
fdkn0_si1711 quick_test/data-fmllr-tri3/train/data/feats_fmllr_train.1.ark:10964385
mjws0_sx153 quick_test/data-fmllr-tri3/train/data/feats_fmllr_train.7.ark:2531797
mtcs0_si2265 quick_test/data-fmllr-tri3/train/data/feats_fmllr_train.10.ark:2471903
fcaj0_si849 quick_test/data-fmllr-tri3/train/data/feats_fmllr_train.1.ark:5292966
fjwb1_sx165 quick_test/data-fmllr-tri3/train/data/feats_fmllr_train.2.ark:4187869
mpfu0_si628 quick_test/data-fmllr-tri3/train/data/feats_fmllr_train.8.ark:6519437
fdnc0_si1278 quick_test/data-fmllr-tri3/train/data/feats_fmllr_train.1.ark:12146741
flhd0_sx174 quick_test/data-fmllr-tri3/train/data/feats_fmllr_train.2.ark:10539345
fsjk1_sx215 quick_test/data-fmllr-tri3/train/data/feats_fmllr_train.3.ark:8999775
mcef0_si1765 quick_test/data-fmllr-tri3/train/data/feats_fmllr_train.4.ark:10169740
mjee0_sx67 quick_test/data-fmllr-tri3/train/data/feats_fmllr_train.6.ark:11153153
mbef0_sx111 quick_test/data-fmllr-tri3/train/data/feats_fmllr_train.4.ark:4623662
mdma0_sx80 quick_test/data-fmllr-tri3/train/data/feats_fmllr_train.5.ark:5889962
mmab1_si864 quick_test/data-fmllr-tri3/train/data/feats_fmllr_train.7.ark:13064030
fsjk1_si2285 quick_test/data-fmllr-tri3/train/data/feats_fmllr_train.3.ark:8876014
fbcg1_si982 quick_test/data-fmllr-tri3/train/data/feats_fmllr_train.1.ark:2526007
mjkr0_si1831 quick_test/data-fmllr-tri3/train/data/feats_fmllr_train.6.ark:13615791
mtmt0_sx308 quick_test/data-fmllr-tri3/train/data/feats_fmllr_train.10.ark:8311530
fbjl0_sx382 quick_test/data-fmllr-tri3/train/data/feats_fmllr_train.1.ark:3614254
fbch0_si1586 quick_test/data-fmllr-tri3/train/data/feats_fmllr_train.1.ark:2849049
flja0_sx448 quick_test/data-fmllr-tri3/train/data/feats_fmllr_train.2.ark:11098844
fjlr0_si601 quick_test/data-fmllr-tri3/train/data/feats_fmllr_train.2.ark:2090917
fajw0_si633 quick_test/data-fmllr-tri3/train/data/feats_fmllr_train.1.ark:512445
fdas1_si831 quick_test/data-fmllr-tri3/train/data/feats_fmllr_train.1.ark:9446394
mtdb0_sx321 quick_test/data-fmllr-tri3/train/data/feats_fmllr_train.10.ark:3072388
mfxv0_si1635 quick_test/data-fmllr-tri3/train/data/feats_fmllr_train.5.ark:16002143
fkaa0_si578 quick_test/data-fmllr-tri3/train/data/feats_fmllr_train.2.ark:5292493
mwgr0_sx166 quick_test/data-fmllr-tri3/train/data/feats_fmllr_train.10.ark:15795340
mmjb1_sx328 quick_test/data-fmllr-tri3/train/data/feats_fmllr_train.8.ark:1270242
fsmm0_sx234 quick_test/data-fmllr-tri3/train/data/feats_fmllr_train.3.ark:12071592
mwac0_si1601 quick_test/data-fmllr-tri3/train/data/feats_fmllr_train.10.ark:13405472
fdkn0_sx91 quick_test/data-fmllr-tri3/train/data/feats_fmllr_train.1.ark:11232359
mmag0_si1126 quick_test/data-fmllr-tri3/train/data/feats_fmllr_train.7.ark:13412672
mclm0_si826 quick_test/data-fmllr-tri3/train/data/feats_fmllr_train.4.ark:11860076
mrws0_sx202 quick_test/data-fmllr-tri3/train/data/feats_fmllr_train.9.ark:10555206
fjkl0_sx302 quick_test/data-fmllr-tri3/train/data/feats_fmllr_train.2.ark:1483203
fksr0_sx217 quick_test/data-fmllr-tri3/train/data/feats_fmllr_train.2.ark:8679245
mjae0_sx264 quick_test/data-fmllr-tri3/train/data/feats_fmllr_train.6.ark:7044822
mreh1_sx159 quick_test/data-fmllr-tri3/train/data/feats_fmllr_train.8.ark:15713578
mrkm0_sx367 quick_test/data-fmllr-tri3/train/data/feats_fmllr_train.9.ark:3223427
mtbc0_sx347 quick_test/data-fmllr-tri3/train/data/feats_fmllr_train.10.ark:2291954
mdss0_sx81 quick_test/data-fmllr-tri3/train/data/feats_fmllr_train.5.ark:8869138
mdas0_sx186 quick_test/data-fmllr-tri3/train/data/feats_fmllr_train.4.ark:14936558
mmgk0_sx152 quick_test/data-fmllr-tri3/train/data/feats_fmllr_train.8.ark:843891
fsjs0_sx271 quick_test/data-fmllr-tri3/train/data/feats_fmllr_train.3.ark:9385752
fsrh0_sx401 quick_test/data-fmllr-tri3/train/data/feats_fmllr_train.3.ark:13389577
fmju0_sx309 quick_test/data-fmllr-tri3/train/data/feats_fmllr_train.2.ark:16590495
frll0_si884 quick_test/data-fmllr-tri3/train/data/feats_fmllr_train.3.ark:4818030
fpjf0_sx56 quick_test/data-fmllr-tri3/train/data/feats_fmllr_train.3.ark:3162681
mtkp0_sx213 quick_test/data-fmllr-tri3/train/data/feats_fmllr_train.10.ark:6340337
mgjc0_si1335 quick_test/data-fmllr-tri3/train/data/feats_fmllr_train.6.ark:1120533
fvmh0_si836 quick_test/data-fmllr-tri3/train/data/feats_fmllr_train.3.ark:16603902
fgrw0_si1782 quick_test/data-fmllr-tri3/train/data/feats_fmllr_train.1.ark:17591513
flac0_sx181 quick_test/data-fmllr-tri3/train/data/feats_fmllr_train.2.ark:8994795
mmgc0_sx225 quick_test/data-fmllr-tri3/train/data/feats_fmllr_train.8.ark:195163
fmkf0_sx276 quick_test/data-fmllr-tri3/train/data/feats_fmllr_train.2.ark:17344503
mhmr0_si1692 quick_test/data-fmllr-tri3/train/data/feats_fmllr_train.6.ark:4998219
mmpm0_sx251 quick_test/data-fmllr-tri3/train/data/feats_fmllr_train.8.ark:1955770
mrdd0_sx240 quick_test/data-fmllr-tri3/train/data/feats_fmllr_train.8.ark:14226816
mree0_sx204 quick_test/data-fmllr-tri3/train/data/feats_fmllr_train.8.ark:15363948
mjjm0_sx107 quick_test/data-fmllr-tri3/train/data/feats_fmllr_train.6.ark:13349068
madd0_si538 quick_test/data-fmllr-tri3/train/data/feats_fmllr_train.3.ark:17676873
mdlc2_si1614 quick_test/data-fmllr-tri3/train/data/feats_fmllr_train.5.ark:3572848
mcew0_si812 quick_test/data-fmllr-tri3/train/data/feats_fmllr_train.4.ark:10604864
fsma0_sx451 quick_test/data-fmllr-tri3/train/data/feats_fmllr_train.3.ark:11776229
mejl0_sx422 quick_test/data-fmllr-tri3/train/data/feats_fmllr_train.5.ark:12507120
fkkh0_sx390 quick_test/data-fmllr-tri3/train/data/feats_fmllr_train.2.ark:7254456
megj0_si1967 quick_test/data-fmllr-tri3/train/data/feats_fmllr_train.5.ark:11922450
mjdm0_si974 quick_test/data-fmllr-tri3/train/data/feats_fmllr_train.6.ark:9723568
mgxp0_sx187 quick_test/data-fmllr-tri3/train/data/feats_fmllr_train.6.ark:3339749
mejl0_si1654 quick_test/data-fmllr-tri3/train/data/feats_fmllr_train.5.ark:12299625
feme0_sx65 quick_test/data-fmllr-tri3/train/data/feats_fmllr_train.1.ark:15377251
fecd0_si2048 quick_test/data-fmllr-tri3/train/data/feats_fmllr_train.1.ark:14225136
mtml0_si1695 quick_test/data-fmllr-tri3/train/data/feats_fmllr_train.10.ark:7285067
mkdt0_si2153 quick_test/data-fmllr-tri3/train/data/feats_fmllr_train.7.ark:6322364
mtjs0_si1822 quick_test/data-fmllr-tri3/train/data/feats_fmllr_train.10.ark:4887605
fsls0_sx426 quick_test/data-fmllr-tri3/train/data/feats_fmllr_train.3.ark:11387052
mtdb0_sx51 quick_test/data-fmllr-tri3/train/data/feats_fmllr_train.10.ark:3177561
fjdm2_sx52 quick_test/data-fmllr-tri3/train/data/feats_fmllr_train.2.ark:366123
fbcg1_si2242 quick_test/data-fmllr-tri3/train/data/feats_fmllr_train.1.ark:2493020
mrgs0_sx366 quick_test/data-fmllr-tri3/train/data/feats_fmllr_train.9.ark:257589
fpad0_sx176 quick_test/data-fmllr-tri3/train/data/feats_fmllr_train.3.ark:1775202
fspm0_sx71 quick_test/data-fmllr-tri3/train/data/feats_fmllr_train.3.ark:13084586
fhxs0_sx175 quick_test/data-fmllr-tri3/train/data/feats_fmllr_train.1.ark:18588164
mtat0_si1110 quick_test/data-fmllr-tri3/train/data/feats_fmllr_train.10.ark:1241304
mrab1_si1478 quick_test/data-fmllr-tri3/train/data/feats_fmllr_train.8.ark:11321025
mdss1_sx427 quick_test/data-fmllr-tri3/train/data/feats_fmllr_train.5.ark:9169329
mjfr0_sx165 quick_test/data-fmllr-tri3/train/data/feats_fmllr_train.6.ark:11666920
flmc0_sx382 quick_test/data-fmllr-tri3/train/data/feats_fmllr_train.2.ark:13158674
mrew1_sx240 quick_test/data-fmllr-tri3/train/data/feats_fmllr_train.8.ark:16503798
mafm0_si939 quick_test/data-fmllr-tri3/train/data/feats_fmllr_train.4.ark:787543
mjpm1_si1897 quick_test/data-fmllr-tri3/train/data/feats_fmllr_train.6.ark:16841558
megj0_sx437 quick_test/data-fmllr-tri3/train/data/feats_fmllr_train.5.ark:12145783
mcew0_sx182 quick_test/data-fmllr-tri3/train/data/feats_fmllr_train.4.ark:10688731
majp0_si2334 quick_test/data-fmllr-tri3/train/data/feats_fmllr_train.4.ark:1167921
fdaw0_sx416 quick_test/data-fmllr-tri3/train/data/feats_fmllr_train.1.ark:10052480
mvrw0_sx45 quick_test/data-fmllr-tri3/train/data/feats_fmllr_train.10.ark:13368804
feeh0_sx392 quick_test/data-fmllr-tri3/train/data/feats_fmllr_train.1.ark:14942474
msjk0_si2226 quick_test/data-fmllr-tri3/train/data/feats_fmllr_train.9.ark:15491391
mtkp0_sx303 quick_test/data-fmllr-tri3/train/data/feats_fmllr_train.10.ark:6382124
mtmt0_sx128 quick_test/data-fmllr-tri3/train/data/feats_fmllr_train.10.ark:8227956
fjsk0_si2312 quick_test/data-fmllr-tri3/train/data/feats_fmllr_train.2.ark:3379249
mbsb0_sx273 quick_test/data-fmllr-tri3/train/data/feats_fmllr_train.4.ark:7181050
mcxm0_si721 quick_test/data-fmllr-tri3/train/data/feats_fmllr_train.4.ark:14093697
fsag0_sx423 quick_test/data-fmllr-tri3/train/data/feats_fmllr_train.3.ark:5415795
mter0_sx17 quick_test/data-fmllr-tri3/train/data/feats_fmllr_train.10.ark:3908155
mjdm0_si1937 quick_test/data-fmllr-tri3/train/data/feats_fmllr_train.6.ark:9702581
mdac0_sx451 quick_test/data-fmllr-tri3/train/data/feats_fmllr_train.4.ark:14668902
mgrp0_sx417 quick_test/data-fmllr-tri3/train/data/feats_fmllr_train.6.ark:2202223
fmkf0_sx6 quick_test/data-fmllr-tri3/train/data/feats_fmllr_train.2.ark:17445195
fhlm0_si2190 quick_test/data-fmllr-tri3/train/data/feats_fmllr_train.1.ark:17983571
fbas0_si2066 quick_test/data-fmllr-tri3/train/data/feats_fmllr_train.1.ark:2181150
mcef0_sx415 quick_test/data-fmllr-tri3/train/data/feats_fmllr_train.4.ark:10399315
mtbc0_sx183 quick_test/data-fmllr-tri3/train/data/feats_fmllr_train.10.ark:2212700
fgrw0_sx162 quick_test/data-fmllr-tri3/train/data/feats_fmllr_train.1.ark:17686288
ftmg0_sx272 quick_test/data-fmllr-tri3/train/data/feats_fmllr_train.3.ark:15565864
falr0_sx335 quick_test/data-fmllr-tri3/train/data/feats_fmllr_train.1.ark:1435995
mrre0_sx74 quick_test/data-fmllr-tri3/train/data/feats_fmllr_train.9.ark:7824806
mefg0_si598 quick_test/data-fmllr-tri3/train/data/feats_fmllr_train.5.ark:11534420
mzmb0_sx446 quick_test/data-fmllr-tri3/train/data/feats_fmllr_train.10.ark:17896504
milb0_si2163 quick_test/data-fmllr-tri3/train/data/feats_fmllr_train.6.ark:6120761
msrr0_sx411 quick_test/data-fmllr-tri3/train/data/feats_fmllr_train.9.ark:17633569
mbcg0_sx57 quick_test/data-fmllr-tri3/train/data/feats_fmllr_train.4.ark:4432192
mstf0_si1396 quick_test/data-fmllr-tri3/train/data/feats_fmllr_train.9.ark:17729943
fsak0_si1300 quick_test/data-fmllr-tri3/train/data/feats_fmllr_train.3.ark:5957186
mcxm0_sx271 quick_test/data-fmllr-tri3/train/data/feats_fmllr_train.4.ark:14189911
fpls0_sx240 quick_test/data-fmllr-tri3/train/data/feats_fmllr_train.3.ark:3394338
mkjo0_sx437 quick_test/data-fmllr-tri3/train/data/feats_fmllr_train.7.ark:7400080
mtpg0_sx393 quick_test/data-fmllr-tri3/train/data/feats_fmllr_train.10.ark:9120657
fsmm0_sx54 quick_test/data-fmllr-tri3/train/data/feats_fmllr_train.3.ark:12256632
mtpr0_sx70 quick_test/data-fmllr-tri3/train/data/feats_fmllr_train.10.ark:9926851
mjlb0_sx86 quick_test/data-fmllr-tri3/train/data/feats_fmllr_train.6.ark:14267369
freh0_sx145 quick_test/data-fmllr-tri3/train/data/feats_fmllr_train.3.ark:4171063
mbar0_sx59 quick_test/data-fmllr-tri3/train/data/feats_fmllr_train.4.ark:3722158
mesj0_si997 quick_test/data-fmllr-tri3/train/data/feats_fmllr_train.5.ark:13467183
fdjh0_si1565 quick_test/data-fmllr-tri3/train/data/feats_fmllr_train.1.ark:10472272
mkam0_sx416 quick_test/data-fmllr-tri3/train/data/feats_fmllr_train.7.ark:5466197
fgrw0_sx432 quick_test/data-fmllr-tri3/train/data/feats_fmllr_train.1.ark:17850529
fsjg0_sx220 quick_test/data-fmllr-tri3/train/data/feats_fmllr_train.3.ark:8545798
mrms0_sx210 quick_test/data-fmllr-tri3/train/data/feats_fmllr_train.9.ark:6958052
mjlg1_sx112 quick_test/data-fmllr-tri3/train/data/feats_fmllr_train.6.ark:14454840
mjdg0_sx322 quick_test/data-fmllr-tri3/train/data/feats_fmllr_train.6.ark:9492392
mtlb0_si1764 quick_test/data-fmllr-tri3/train/data/feats_fmllr_train.10.ark:6569273
fsjs0_sx451 quick_test/data-fmllr-tri3/train/data/feats_fmllr_train.3.ark:9472846
maeo0_si1956 quick_test/data-fmllr-tri3/train/data/feats_fmllr_train.4.ark:479006
mwrp0_sx3 quick_test/data-fmllr-tri3/train/data/feats_fmllr_train.10.ark:16676468
mcae0_sx367 quick_test/data-fmllr-tri3/train/data/feats_fmllr_train.4.ark:8442685
mram0_sx105 quick_test/data-fmllr-tri3/train/data/feats_fmllr_train.8.ark:12294982
mtju0_sx400 quick_test/data-fmllr-tri3/train/data/feats_fmllr_train.10.ark:5623023
mljh0_si1422 quick_test/data-fmllr-tri3/train/data/feats_fmllr_train.7.ark:11379455
fpab1_sx31 quick_test/data-fmllr-tri3/train/data/feats_fmllr_train.3.ark:1115968
fsdj0_si1745 quick_test/data-fmllr-tri3/train/data/feats_fmllr_train.3.ark:7648483
flja0_sx358 quick_test/data-fmllr-tri3/train/data/feats_fmllr_train.2.ark:11051777
msrr0_sx30 quick_test/data-fmllr-tri3/train/data/feats_fmllr_train.9.ark:17604582
mrmh0_si2281 quick_test/data-fmllr-tri3/train/data/feats_fmllr_train.9.ark:6013403
fpmy0_sx196 quick_test/data-fmllr-tri3/train/data/feats_fmllr_train.3.ark:3824633
feac0_si1245 quick_test/data-fmllr-tri3/train/data/feats_fmllr_train.1.ark:13343074
fskc0_si2046 quick_test/data-fmllr-tri3/train/data/feats_fmllr_train.3.ark:10040025
mwch0_sx182 quick_test/data-fmllr-tri3/train/data/feats_fmllr_train.10.ark:14657248
fkfb0_si1608 quick_test/data-fmllr-tri3/train/data/feats_fmllr_train.2.ark:6430530
medr0_sx24 quick_test/data-fmllr-tri3/train/data/feats_fmllr_train.5.ark:11318925
mgaw0_sx175 quick_test/data-fmllr-tri3/train/data/feats_fmllr_train.6.ark:549753
mwar0_sx55 quick_test/data-fmllr-tri3/train/data/feats_fmllr_train.10.ark:14488497
fjrp1_si2062 quick_test/data-fmllr-tri3/train/data/feats_fmllr_train.2.ark:2870684
mbgt0_sx171 quick_test/data-fmllr-tri3/train/data/feats_fmllr_train.4.ark:4937479
mzmb0_si1796 quick_test/data-fmllr-tri3/train/data/feats_fmllr_train.10.ark:17657489
mmea0_sx218 quick_test/data-fmllr-tri3/train/data/feats_fmllr_train.7.ark:17492552
mrtj0_sx322 quick_test/data-fmllr-tri3/train/data/feats_fmllr_train.9.ark:9504342
mjws0_si1773 quick_test/data-fmllr-tri3/train/data/feats_fmllr_train.7.ark:2444063
mpeb0_sx330 quick_test/data-fmllr-tri3/train/data/feats_fmllr_train.8.ark:6262501
fklc0_si2245 quick_test/data-fmllr-tri3/train/data/feats_fmllr_train.2.ark:7334352
mtas0_sx125 quick_test/data-fmllr-tri3/train/data/feats_fmllr_train.10.ark:1057809
mtpp0_sx428 quick_test/data-fmllr-tri3/train/data/feats_fmllr_train.10.ark:9427408
fntb0_sx303 quick_test/data-fmllr-tri3/train/data/feats_fmllr_train.3.ark:626125
fdkn0_si1081 quick_test/data-fmllr-tri3/train/data/feats_fmllr_train.1.ark:10838089
fsbk0_si1069 quick_test/data-fmllr-tri3/train/data/feats_fmllr_train.3.ark:6333883
mrre0_si704 quick_test/data-fmllr-tri3/train/data/feats_fmllr_train.9.ark:7499525
mtmt0_sx218 quick_test/data-fmllr-tri3/train/data/feats_fmllr_train.10.ark:8265103
mmam0_sx67 quick_test/data-fmllr-tri3/train/data/feats_fmllr_train.7.ark:14132759
fjkl0_sx32 quick_test/data-fmllr-tri3/train/data/feats_fmllr_train.2.ark:1523389
ftaj0_sx159 quick_test/data-fmllr-tri3/train/data/feats_fmllr_train.3.ark:14031690
mmaa0_sx125 quick_test/data-fmllr-tri3/train/data/feats_fmllr_train.7.ark:12774080
mrpc1_si2026 quick_test/data-fmllr-tri3/train/data/feats_fmllr_train.9.ark:7143468
mbef0_si651 quick_test/data-fmllr-tri3/train/data/feats_fmllr_train.4.ark:4562035
mpgr1_si1499 quick_test/data-fmllr-tri3/train/data/feats_fmllr_train.8.ark:7533980
mmxs0_si2136 quick_test/data-fmllr-tri3/train/data/feats_fmllr_train.8.ark:4612859
mkdd0_si937 quick_test/data-fmllr-tri3/train/data/feats_fmllr_train.7.ark:6078042
mdpk0_sx333 quick_test/data-fmllr-tri3/train/data/feats_fmllr_train.5.ark:7272377
fblv0_si2318 quick_test/data-fmllr-tri3/train/data/feats_fmllr_train.1.ark:3799778
mmcc0_si1968 quick_test/data-fmllr-tri3/train/data/feats_fmllr_train.7.ark:15171329
mnet0_sx276 quick_test/data-fmllr-tri3/train/data/feats_fmllr_train.8.ark:5155264
fcjf0_sx37 quick_test/data-fmllr-tri3/train/data/feats_fmllr_train.1.ark:6625404
mvjh0_sx26 quick_test/data-fmllr-tri3/train/data/feats_fmllr_train.10.ark:12595356
frjb0_sx347 quick_test/data-fmllr-tri3/train/data/feats_fmllr_train.3.ark:4535975
mhbs0_si1575 quick_test/data-fmllr-tri3/train/data/feats_fmllr_train.6.ark:3565802
fvfb0_si1510 quick_test/data-fmllr-tri3/train/data/feats_fmllr_train.3.ark:15799280
fskl0_sx449 quick_test/data-fmllr-tri3/train/data/feats_fmllr_train.3.ark:10639417
mrvg0_sx150 quick_test/data-fmllr-tri3/train/data/feats_fmllr_train.9.ark:9782105
mafm0_si1569 quick_test/data-fmllr-tri3/train/data/feats_fmllr_train.4.ark:746368
mdbb1_sx286 quick_test/data-fmllr-tri3/train/data/feats_fmllr_train.4.ark:15369013
mgxp0_sx277 quick_test/data-fmllr-tri3/train/data/feats_fmllr_train.6.ark:3377216
ftbw0_sx175 quick_test/data-fmllr-tri3/train/data/feats_fmllr_train.3.ark:14741564
mclm0_si2086 quick_test/data-fmllr-tri3/train/data/feats_fmllr_train.4.ark:11816369
mdem0_sx248 quick_test/data-fmllr-tri3/train/data/feats_fmllr_train.5.ark:590419
mmgc0_sx405 quick_test/data-fmllr-tri3/train/data/feats_fmllr_train.8.ark:275537
fkde0_sx421 quick_test/data-fmllr-tri3/train/data/feats_fmllr_train.2.ark:5950259
fcjs0_sx437 quick_test/data-fmllr-tri3/train/data/feats_fmllr_train.1.ark:6950742
mgrl0_si867 quick_test/data-fmllr-tri3/train/data/feats_fmllr_train.6.ark:1588618
falk0_sx276 quick_test/data-fmllr-tri3/train/data/feats_fmllr_train.1.ark:1022473
mmgk0_sx332 quick_test/data-fmllr-tri3/train/data/feats_fmllr_train.8.ark:912745
mdss1_sx157 quick_test/data-fmllr-tri3/train/data/feats_fmllr_train.5.ark:9039328
mmwb0_si989 quick_test/data-fmllr-tri3/train/data/feats_fmllr_train.8.ark:3577864
fapb0_si1063 quick_test/data-fmllr-tri3/train/data/feats_fmllr_train.1.ark:1568716
mjrh0_sx135 quick_test/data-fmllr-tri3/train/data/feats_fmllr_train.7.ark:164736
mrlr0_sx296 quick_test/data-fmllr-tri3/train/data/feats_fmllr_train.9.ark:5072857
mram0_sx375 quick_test/data-fmllr-tri3/train/data/feats_fmllr_train.8.ark:12461969
mwad0_sx72 quick_test/data-fmllr-tri3/train/data/feats_fmllr_train.10.ark:14148119
mrms0_sx300 quick_test/data-fmllr-tri3/train/data/feats_fmllr_train.9.ark:7016185
ftlg0_si840 quick_test/data-fmllr-tri3/train/data/feats_fmllr_train.3.ark:15123033
mjbg0_sx422 quick_test/data-fmllr-tri3/train/data/feats_fmllr_train.6.ark:7932510
frll0_si805 quick_test/data-fmllr-tri3/train/data/feats_fmllr_train.3.ark:4743443
fear0_si1882 quick_test/data-fmllr-tri3/train/data/feats_fmllr_train.1.ark:13784759
feme0_si1505 quick_test/data-fmllr-tri3/train/data/feats_fmllr_train.1.ark:14992742
falk0_sx6 quick_test/data-fmllr-tri3/train/data/feats_fmllr_train.1.ark:1121405
makr0_sx362 quick_test/data-fmllr-tri3/train/data/feats_fmllr_train.4.ark:2124277
mmdg0_sx160 quick_test/data-fmllr-tri3/train/data/feats_fmllr_train.7.ark:15979657
mmjb1_sx238 quick_test/data-fmllr-tri3/train/data/feats_fmllr_train.8.ark:1219975
mwsh0_sx346 quick_test/data-fmllr-tri3/train/data/feats_fmllr_train.10.ark:17437060
mjsr0_sx434 quick_test/data-fmllr-tri3/train/data/feats_fmllr_train.7.ark:1841205
mdef0_si1563 quick_test/data-fmllr-tri3/train/data/feats_fmllr_train.5.ark:78761
mgaf0_sx112 quick_test/data-fmllr-tri3/train/data/feats_fmllr_train.5.ark:16393107
mfrm0_si1155 quick_test/data-fmllr-tri3/train/data/feats_fmllr_train.5.ark:14756634
fsgf0_sx27 quick_test/data-fmllr-tri3/train/data/feats_fmllr_train.3.ark:8184327
mter0_sx77 quick_test/data-fmllr-tri3/train/data/feats_fmllr_train.10.ark:4043115
mdem0_sx428 quick_test/data-fmllr-tri3/train/data/feats_fmllr_train.5.ark:703273
maeo0_sx336 quick_test/data-fmllr-tri3/train/data/feats_fmllr_train.4.ark:593327
mapv0_si1923 quick_test/data-fmllr-tri3/train/data/feats_fmllr_train.4.ark:2321186
mhmr0_sx219 quick_test/data-fmllr-tri3/train/data/feats_fmllr_train.6.ark:5170300
mmpm0_si2321 quick_test/data-fmllr-tri3/train/data/feats_fmllr_train.8.ark:1849636
fsbk0_sx349 quick_test/data-fmllr-tri3/train/data/feats_fmllr_train.3.ark:6559940
fgmb0_si1775 quick_test/data-fmllr-tri3/train/data/feats_fmllr_train.1.ark:17137216
mdma0_si2060 quick_test/data-fmllr-tri3/train/data/feats_fmllr_train.5.ark:5557668
fpac0_sx301 quick_test/data-fmllr-tri3/train/data/feats_fmllr_train.3.ark:1474239
mcal0_sx148 quick_test/data-fmllr-tri3/train/data/feats_fmllr_train.4.ark:8728286
mprb0_si1205 quick_test/data-fmllr-tri3/train/data/feats_fmllr_train.8.ark:8928844
mppc0_si1412 quick_test/data-fmllr-tri3/train/data/feats_fmllr_train.8.ark:8543507
mjpm1_sx41 quick_test/data-fmllr-tri3/train/data/feats_fmllr_train.6.ark:17164307
mcef0_sx235 quick_test/data-fmllr-tri3/train/data/feats_fmllr_train.4.ark:10319101
mpar0_sx46 quick_test/data-fmllr-tri3/train/data/feats_fmllr_train.8.ark:6038177
fssb0_sx182 quick_test/data-fmllr-tri3/train/data/feats_fmllr_train.3.ark:13643314
mtwh1_si1512 quick_test/data-fmllr-tri3/train/data/feats_fmllr_train.10.ark:11556066
mrxb0_si1585 quick_test/data-fmllr-tri3/train/data/feats_fmllr_train.9.ark:10707474
fsak0_si1930 quick_test/data-fmllr-tri3/train/data/feats_fmllr_train.3.ark:6031134
makr0_sx272 quick_test/data-fmllr-tri3/train/data/feats_fmllr_train.4.ark:2098330
mrcg0_sx348 quick_test/data-fmllr-tri3/train/data/feats_fmllr_train.8.ark:13506408
mtlc0_sx37 quick_test/data-fmllr-tri3/train/data/feats_fmllr_train.10.ark:7155704
mmgk0_sx242 quick_test/data-fmllr-tri3/train/data/feats_fmllr_train.8.ark:877358
fdkn0_sx181 quick_test/data-fmllr-tri3/train/data/feats_fmllr_train.1.ark:10997852
mtjm0_sx146 quick_test/data-fmllr-tri3/train/data/feats_fmllr_train.10.ark:4647602
fcmm0_si1083 quick_test/data-fmllr-tri3/train/data/feats_fmllr_train.1.ark:8195768
fjkl0_sx392 quick_test/data-fmllr-tri3/train/data/feats_fmllr_train.2.ark:1564696
mtpg0_sx213 quick_test/data-fmllr-tri3/train/data/feats_fmllr_train.10.ark:9004097
mtjs0_si1192 quick_test/data-fmllr-tri3/train/data/feats_fmllr_train.10.ark:4850137
mjsr0_sx254 quick_test/data-fmllr-tri3/train/data/feats_fmllr_train.7.ark:1744191
mrws0_si1102 quick_test/data-fmllr-tri3/train/data/feats_fmllr_train.9.ark:10372857
fcjs0_sx77 quick_test/data-fmllr-tri3/train/data/feats_fmllr_train.1.ark:7012688
fvmh0_sx206 quick_test/data-fmllr-tri3/train/data/feats_fmllr_train.3.ark:16704276
fmkf0_si1018 quick_test/data-fmllr-tri3/train/data/feats_fmllr_train.2.ark:17130474
mrre0_sx254 quick_test/data-fmllr-tri3/train/data/feats_fmllr_train.9.ark:7694486
mgaw0_sx85 quick_test/data-fmllr-tri3/train/data/feats_fmllr_train.6.ark:716580
mjeb1_si1467 quick_test/data-fmllr-tri3/train/data/feats_fmllr_train.6.ark:10416267
mlel0_si1876 quick_test/data-fmllr-tri3/train/data/feats_fmllr_train.7.ark:10550861
fgdp0_si988 quick_test/data-fmllr-tri3/train/data/feats_fmllr_train.1.ark:16694626
mkls0_sx87 quick_test/data-fmllr-tri3/train/data/feats_fmllr_train.7.ark:8579319
msah1_si2309 quick_test/data-fmllr-tri3/train/data/feats_fmllr_train.9.ark:11162627
mkag0_si2239 quick_test/data-fmllr-tri3/train/data/feats_fmllr_train.7.ark:4075651
mwch0_sx92 quick_test/data-fmllr-tri3/train/data/feats_fmllr_train.10.ark:14825035
fksr0_si1747 quick_test/data-fmllr-tri3/train/data/feats_fmllr_train.2.ark:8525724
maeb0_sx450 quick_test/data-fmllr-tri3/train/data/feats_fmllr_train.4.ark:288656
mjda0_sx221 quick_test/data-fmllr-tri3/train/data/feats_fmllr_train.6.ark:8176674
mrab0_sx144 quick_test/data-fmllr-tri3/train/data/feats_fmllr_train.8.ark:11074490
mbjv0_sx257 quick_test/data-fmllr-tri3/train/data/feats_fmllr_train.4.ark:5381723
msmc0_sx377 quick_test/data-fmllr-tri3/train/data/feats_fmllr_train.9.ark:16170488
mhjb0_sx117 quick_test/data-fmllr-tri3/train/data/feats_fmllr_train.6.ark:4446479
fsrh0_sx41 quick_test/data-fmllr-tri3/train/data/feats_fmllr_train.3.ark:13434243
fklh0_si627 quick_test/data-fmllr-tri3/train/data/feats_fmllr_train.2.ark:8205534
mkah0_si898 quick_test/data-fmllr-tri3/train/data/feats_fmllr_train.7.ark:4511094
fetb0_si1778 quick_test/data-fmllr-tri3/train/data/feats_fmllr_train.1.ark:15457787
mpmb0_sx241 quick_test/data-fmllr-tri3/train/data/feats_fmllr_train.8.ark:8248839
fsdc0_sx412 quick_test/data-fmllr-tri3/train/data/feats_fmllr_train.3.ark:7493521
fdmy0_sx27 quick_test/data-fmllr-tri3/train/data/feats_fmllr_train.1.ark:11980899
mbcg0_sx327 quick_test/data-fmllr-tri3/train/data/feats_fmllr_train.4.ark:4319179
mmdg0_sx70 quick_test/data-fmllr-tri3/train/data/feats_fmllr_train.7.ark:16216884
msjk0_sx246 quick_test/data-fmllr-tri3/train/data/feats_fmllr_train.9.ark:15623312
mwem0_sx330 quick_test/data-fmllr-tri3/train/data/feats_fmllr_train.10.ark:15469097
fskl0_sx179 quick_test/data-fmllr-tri3/train/data/feats_fmllr_train.3.ark:10502216
mesj0_sx187 quick_test/data-fmllr-tri3/train/data/feats_fmllr_train.5.ark:13525130
mrmg0_si1710 quick_test/data-fmllr-tri3/train/data/feats_fmllr_train.9.ark:5558757
mjeb0_sx170 quick_test/data-fmllr-tri3/train/data/feats_fmllr_train.6.ark:10177892
mrwa0_sx343 quick_test/data-fmllr-tri3/train/data/feats_fmllr_train.9.ark:10219656
flmk0_sx45 quick_test/data-fmllr-tri3/train/data/feats_fmllr_train.2.ark:13539852
msas0_si1376 quick_test/data-fmllr-tri3/train/data/feats_fmllr_train.9.ark:11413989
mrgs0_sx276 quick_test/data-fmllr-tri3/train/data/feats_fmllr_train.9.ark:214522
mjmd0_si1028 quick_test/data-fmllr-tri3/train/data/feats_fmllr_train.6.ark:15419409
mrws0_sx292 quick_test/data-fmllr-tri3/train/data/feats_fmllr_train.9.ark:10611259
mwad0_si2322 quick_test/data-fmllr-tri3/train/data/feats_fmllr_train.10.ark:13948305
mdks0_sx256 quick_test/data-fmllr-tri3/train/data/feats_fmllr_train.5.ark:2110648
fetb0_sx68 quick_test/data-fmllr-tri3/train/data/feats_fmllr_train.1.ark:15752188
fvfb0_sx312 quick_test/data-fmllr-tri3/train/data/feats_fmllr_train.3.ark:15971069
fvmh0_si1466 quick_test/data-fmllr-tri3/train/data/feats_fmllr_train.3.ark:16493127
mjra0_sx156 quick_test/data-fmllr-tri3/train/data/feats_fmllr_train.6.ark:17365537
mwrp0_si1443 quick_test/data-fmllr-tri3/train/data/feats_fmllr_train.10.ark:16419533
msmr0_sx415 quick_test/data-fmllr-tri3/train/data/feats_fmllr_train.9.ark:16516919
mhmr0_sx129 quick_test/data-fmllr-tri3/train/data/feats_fmllr_train.6.ark:5123073
mbma1_sx414 quick_test/data-fmllr-tri3/train/data/feats_fmllr_train.4.ark:6224451
meal0_si1547 quick_test/data-fmllr-tri3/train/data/feats_fmllr_train.5.ark:10773932
msfh0_si1738 quick_test/data-fmllr-tri3/train/data/feats_fmllr_train.9.ark:14556237
mrtj0_sx142 quick_test/data-fmllr-tri3/train/data/feats_fmllr_train.9.ark:9359648
msdh0_si2113 quick_test/data-fmllr-tri3/train/data/feats_fmllr_train.9.ark:12801899
fcjf0_si648 quick_test/data-fmllr-tri3/train/data/feats_fmllr_train.1.ark:6493137
mewm0_sx88 quick_test/data-fmllr-tri3/train/data/feats_fmllr_train.5.ark:13974412
fcjs0_si2237 quick_test/data-fmllr-tri3/train/data/feats_fmllr_train.1.ark:6728207
